Time,LIVING_UNIT1:CHICAGO OHARE INTL AP ANN HTG 99.6% CONDNS DB:Des Heat Load [W],LIVING_UNIT1:CHICAGO OHARE INTL AP ANN CLG .4% CONDNS DB=>MWB:Des Sens Cool Load [W],LIVING_UNIT1:CHICAGO OHARE INTL AP ANN HTG 99.6% CONDNS DB:Des Heat Mass Flow [kg/s],LIVING_UNIT1:CHICAGO OHARE INTL AP ANN CLG .4% CONDNS DB=>MWB:Des Cool Mass Flow [kg/s]
00:15:00,8.779321E+03,0.000000E+00,3.097904E-01,0.000000E+00
00:30:00,8.817661E+03,0.000000E+00,3.111430E-01,0.000000E+00
00:45:00,8.855213E+03,0.000000E+00,3.124679E-01,0.000000E+00
01:00:00,8.892239E+03,0.000000E+00,3.137741E-01,0.000000E+00
01:15:00,8.919096E+03,0.000000E+00,3.147215E-01,0.000000E+00
01:30:00,8.941693E+03,0.000000E+00,3.155188E-01,0.000000E+00
01:45:00,8.961612E+03,0.000000E+00,3.162215E-01,0.000000E+00
02:00:00,8.979657E+03,0.000000E+00,3.168582E-01,0.000000E+00
02:15:00,8.993705E+03,0.000000E+00,3.173539E-01,0.000000E+00
02:30:00,9.005883E+03,0.000000E+00,3.177836E-01,0.000000E+00
02:45:00,9.016724E+03,0.000000E+00,3.181661E-01,0.000000E+00
03:00:00,9.026505E+03,0.000000E+00,3.185113E-01,0.000000E+00
03:15:00,9.035058E+03,0.000000E+00,3.188130E-01,0.000000E+00
03:30:00,9.042498E+03,0.000000E+00,3.190756E-01,0.000000E+00
03:45:00,9.049098E+03,0.000000E+00,3.193085E-01,0.000000E+00
04:00:00,9.055045E+03,0.000000E+00,3.195183E-01,0.000000E+00
04:15:00,9.056272E+03,0.000000E+00,3.195616E-01,0.000000E+00
04:30:00,9.055428E+03,0.000000E+00,3.195319E-01,0.000000E+00
04:45:00,9.053163E+03,0.000000E+00,3.194520E-01,0.000000E+00
05:00:00,9.049741E+03,0.000000E+00,3.193313E-01,0.000000E+00
05:15:00,9.036709E+03,0.000000E+00,3.188715E-01,0.000000E+00
05:30:00,9.019774E+03,0.000000E+00,3.182741E-01,0.000000E+00
05:45:00,9.000291E+03,0.000000E+00,3.175868E-01,0.000000E+00
06:00:00,8.978879E+03,0.000000E+00,3.168315E-01,0.000000E+00
06:15:00,8.957652E+03,0.000000E+00,3.160827E-01,0.000000E+00
06:30:00,8.934988E+03,0.000000E+00,3.152831E-01,0.000000E+00
06:45:00,8.911195E+03,0.000000E+00,3.144437E-01,0.000000E+00
07:00:00,8.886476E+03,0.000000E+00,3.135717E-01,0.000000E+00
07:15:00,8.873463E+03,0.000000E+00,3.131128E-01,0.000000E+00
07:30:00,8.861462E+03,0.000000E+00,3.126894E-01,0.000000E+00
07:45:00,8.849949E+03,0.000000E+00,3.122832E-01,0.000000E+00
08:00:00,8.838751E+03,0.000000E+00,3.118881E-01,0.000000E+00
08:15:00,8.866512E+03,0.000000E+00,3.128676E-01,0.000000E+00
08:30:00,8.901407E+03,0.000000E+00,3.140984E-01,0.000000E+00
08:45:00,8.940749E+03,0.000000E+00,3.154858E-01,0.000000E+00
09:00:00,8.983478E+03,0.000000E+00,3.169924E-01,0.000000E+00
09:15:00,9.004242E+03,0.000000E+00,3.177239E-01,0.000000E+00
09:30:00,9.024988E+03,0.000000E+00,3.184550E-01,0.000000E+00
09:45:00,9.045998E+03,0.000000E+00,3.191955E-01,0.000000E+00
10:00:00,9.067243E+03,0.000000E+00,3.199445E-01,0.000000E+00
10:15:00,9.072354E+03,0.000000E+00,3.201243E-01,0.000000E+00
10:30:00,9.075923E+03,0.000000E+00,3.202500E-01,0.000000E+00
10:45:00,9.078673E+03,0.000000E+00,3.203468E-01,0.000000E+00
11:00:00,9.080856E+03,0.000000E+00,3.204238E-01,0.000000E+00
11:15:00,9.082190E+03,0.000000E+00,3.204709E-01,0.000000E+00
11:30:00,9.082653E+03,0.000000E+00,3.204873E-01,0.000000E+00
11:45:00,9.082529E+03,0.000000E+00,3.204829E-01,0.000000E+00
12:00:00,9.081919E+03,0.000000E+00,3.204614E-01,0.000000E+00
12:15:00,9.081610E+03,0.000000E+00,3.204506E-01,0.000000E+00
12:30:00,9.081249E+03,0.000000E+00,3.204379E-01,0.000000E+00
12:45:00,9.080793E+03,0.000000E+00,3.204218E-01,0.000000E+00
13:00:00,9.080253E+03,0.000000E+00,3.204027E-01,0.000000E+00
13:15:00,9.079861E+03,0.000000E+00,3.203889E-01,0.000000E+00
13:30:00,9.080311E+03,0.000000E+00,3.204047E-01,0.000000E+00
13:45:00,9.081313E+03,0.000000E+00,3.204401E-01,0.000000E+00
14:00:00,9.082762E+03,0.000000E+00,3.204911E-01,0.000000E+00
14:15:00,9.083132E+03,0.000000E+00,3.205042E-01,0.000000E+00
14:30:00,9.083030E+03,0.000000E+00,3.205005E-01,0.000000E+00
14:45:00,9.082671E+03,0.000000E+00,3.204878E-01,0.000000E+00
15:00:00,9.082106E+03,0.000000E+00,3.204679E-01,0.000000E+00
15:15:00,9.075799E+03,8.221858E+01,3.202453E-01,2.884584E-03
15:30:00,9.066487E+03,2.114922E+02,3.199168E-01,7.412598E-03
15:45:00,9.055262E+03,3.866911E+02,3.195209E-01,1.354928E-02
16:00:00,9.042669E+03,6.017507E+02,3.190766E-01,2.108222E-02
16:15:00,9.011509E+03,7.858825E+02,3.179773E-01,2.752730E-02
16:30:00,8.973368E+03,9.556185E+02,3.166318E-01,3.347305E-02
16:45:00,8.930607E+03,1.101376E+03,3.151234E-01,3.857875E-02
17:00:00,8.884366E+03,1.222051E+03,3.134923E-01,4.280576E-02
17:15:00,8.819614E+03,1.323404E+03,3.112080E-01,4.635587E-02
17:30:00,8.749847E+03,1.404180E+03,3.087469E-01,4.918512E-02
17:45:00,8.676954E+03,1.463772E+03,3.061757E-01,5.127242E-02
18:00:00,8.601340E+03,1.498141E+03,3.035086E-01,5.247624E-02
18:15:00,8.534870E+03,1.489578E+03,3.011642E-01,5.217600E-02
18:30:00,8.476953E+03,1.445070E+03,2.991215E-01,5.061663E-02
18:45:00,8.423885E+03,1.369733E+03,2.972498E-01,4.797738E-02
19:00:00,8.374460E+03,1.268955E+03,2.955065E-01,4.444702E-02
19:15:00,8.358132E+03,1.134340E+03,2.949311E-01,3.973167E-02
19:30:00,8.349033E+03,9.732984E+02,2.946104E-01,3.409073E-02
19:45:00,8.344687E+03,7.869395E+02,2.944572E-01,2.756312E-02
20:00:00,8.344002E+03,5.808033E+02,2.944330E-01,2.034289E-02
20:15:00,8.345781E+03,3.797040E+02,2.944956E-01,1.329919E-02
20:30:00,8.348163E+03,2.054680E+02,2.945795E-01,7.196503E-03
20:45:00,8.351299E+03,8.661564E+01,2.946900E-01,3.033678E-03
21:00:00,8.355057E+03,2.342607E+01,2.948224E-01,8.204812E-04
21:15:00,8.363505E+03,0.000000E+00,2.951204E-01,0.000000E+00
21:30:00,8.375309E+03,0.000000E+00,2.955368E-01,0.000000E+00
21:45:00,8.389349E+03,0.000000E+00,2.960321E-01,0.000000E+00
22:00:00,8.405191E+03,0.000000E+00,2.965911E-01,0.000000E+00
22:15:00,8.439453E+03,0.000000E+00,2.978000E-01,0.000000E+00
22:30:00,8.478744E+03,0.000000E+00,2.991863E-01,0.000000E+00
22:45:00,8.521492E+03,0.000000E+00,3.006945E-01,0.000000E+00
23:00:00,8.566814E+03,0.000000E+00,3.022934E-01,0.000000E+00
23:15:00,8.609545E+03,0.000000E+00,3.038009E-01,0.000000E+00
23:30:00,8.652530E+03,0.000000E+00,3.053174E-01,0.000000E+00
23:45:00,8.695879E+03,0.000000E+00,3.068467E-01,0.000000E+00
24:00:00,8.739578E+03,0.000000E+00,3.083883E-01,0.000000E+00
Peak,9.083132E+03,1.498141E+03,3.205042E-01,5.247624E-02

Peak Vol Flow (m3/s),,,2.669214E-01,4.370313E-02
