"[299, 255]","[227, 248]","[287, 319]","[279, 328]","[230, 262]"
3.5771484,4.673828,1.8769531,1.8310547,3.6220703
3.4160156,3.6767578,1.8154297,1.8798828,2.6044922
2.6572266,3.8925781,1.8759766,1.9091797,2.0976562
2.1611328,3.211914,1.5751953,1.5371094,1.453125
2.6582031,2.3671875,1.2519531,1.8720703,1.8066406
3.084961,2.3232422,1.5029297,1.4921875,1.9472656
2.069336,2.225586,2.5449219,2.4677734,1.4921875
1.9541016,2.0185547,1.2138672,1.2626953,1.5820312
3.1347656,4.515625,1.0830078,0.9892578,2.1865234
3.602539,4.163086,1.3710938,1.6386719,3.0126953
3.1845703,2.883789,1.1044922,1.6230469,3.758789
3.430664,2.4023438,0.64453125,1.3789062,3.524414
3.6201172,3.4570312,1.5644531,1.4375,3.1689453
2.883789,4.213867,2.0615234,2.4375,2.9785156
4.899414,4.6210938,2.5976562,1.7539062,2.7041016
6.817383,3.3759766,2.7324219,2.4580078,1.4980469
6.0390625,1.8242188,2.8808594,2.9902344,2.1113281
1.9277344,0.89746094,3.1542969,3.0527344,1.6640625
4.4941406,1.7373047,3.665039,3.0029297,1.2587891
3.7216797,1.8369141,3.0878906,2.8095703,2.0927734
3.055664,1.5693359,2.2470703,2.3779297,1.78125
2.25,2.600586,2.5283203,3.0136719,2.5214844
4.263672,3.4511719,3.194336,3.0859375,3.1191406
6.6865234,3.7451172,3.0644531,3.15625,3.350586
5.7197266,3.2363281,3.3320312,3.0517578,3.3554688
4.2695312,2.1513672,3.2822266,3.0429688,3.1142578
1.9404297,2.8134766,2.2226562,1.9199219,3.1640625
0.9042969,1.8720703,1.4287109,0.6953125,4.4492188
1.5986328,2.2871094,1.3691406,0.4111328,5.1708984
1.7314453,5.3916016,1.6904297,1.0839844,4.317383
4.3720703,6.9833984,3.321289,2.3544922,3.3330078
6.5058594,6.0771484,3.3134766,3.2011719,3.7050781
6.0195312,3.8466797,3.0751953,3.1660156,3.7666016
6.1347656,2.696289,2.8310547,3.0947266,3.1425781
2.8828125,1.2666016,1.2578125,1.7851562,2.3632812
1.6279297,1.5029297,0.8642578,1.6679688,1.1269531
2.3759766,1.6845703,1.2275391,1.1777344,2.3476562
2.5166016,1.6943359,2.2421875,1.7158203,1.3740234
4.6054688,1.5859375,2.8583984,2.3027344,1.4414062
3.2714844,1.7783203,2.383789,2.0332031,1.2792969
2.5048828,3.3554688,1.984375,1.9277344,1.9365234
1.8505859,2.6259766,1.6767578,1.4804688,1.4140625
1.7685547,2.6533203,1.0703125,1.1171875,2.584961
2.3964844,4.095703,1.5888672,2.1845703,3.5048828
2.915039,6.830078,2.2548828,3.4482422,4.260742
3.8027344,6.107422,3.897461,3.7705078,4.006836
3.1523438,5.2871094,3.1923828,3.5332031,3.0048828
1.9453125,5.711914,3.1972656,3.6923828,3.2460938
1.5478516,5.5429688,2.4228516,3.2539062,2.4384766
0.88964844,5.100586,1.8496094,2.3251953,2.3769531
1.0507812,5.176758,1.3085938,1.0449219,2.5664062
1.7099609,4.3496094,1.2333984,1.2890625,2.7919922
2.3105469,4.348633,2.2226562,2.4072266,3.3271484
3.305664,6.3007812,3.46875,3.4882812,2.6992188
2.8632812,4.1132812,3.0810547,2.7871094,1.3984375
2.6210938,2.9941406,2.9248047,2.6992188,1.5341797
2.8378906,3.2460938,2.3085938,2.7460938,2.1660156
1.9511719,3.4433594,2.5976562,2.5908203,2.4814453
2.7324219,3.8623047,2.4902344,3.430664,2.6542969
3.8486328,4.379883,4.3476562,4.399414,2.7451172
4.482422,5.5498047,4.5029297,4.6591797,3.1347656
4.923828,5.6103516,3.9960938,4.3603516,2.0751953
3.8554688,3.3457031,3.1933594,3.0322266,1.2666016
2.9648438,4.192383,2.4501953,2.600586,2.390625
2.4277344,4.4677734,3.022461,2.8916016,2.6796875
2.5966797,4.7470703,2.258789,2.4101562,2.6289062
2.6728516,4.2597656,2.163086,1.8691406,2.8232422
1.9707031,3.131836,1.8964844,2.0039062,3.5791016
1.6962891,4.239258,2.0996094,2.4394531,4.1591797
1.9667969,5.864258,2.1396484,2.6572266,3.2832031
2.3691406,5.180664,2.3085938,2.647461,1.9208984
2.5322266,4.319336,2.415039,2.9384766,1.9804688
2.6572266,3.2861328,2.53125,2.3691406,2.7285156
3.836914,4.8671875,2.3623047,2.4296875,2.553711
4.897461,3.1435547,3.2451172,2.584961,2.6796875
5.2265625,5.8242188,4.7158203,5.4208984,4.513672
6.201172,4.8623047,6.213867,6.1679688,4.6845703
6.5117188,1.5576172,5.6601562,5.6308594,3.515625
5.258789,2.6201172,3.7529297,4.180664,2.725586
4.020508,4.3291016,3.5898438,2.9404297,2.694336
3.796875,4.205078,4.209961,1.4941406,2.8876953
5.852539,3.0302734,3.8769531,1.9287109,1.9492188
4.736328,2.6923828,2.9833984,2.0546875,1.2724609
3.0029297,1.9394531,0.96191406,1.5175781,1.5087891
2.0683594,3.290039,2.243164,2.319336,2.3203125
1.6865234,2.1591797,3.7773438,3.2539062,2.836914
1.1347656,2.493164,3.8242188,2.2470703,2.3105469
1.3056641,2.3447266,2.1044922,2.578125,1.4951172
2.1259766,0.7714844,3.1064453,2.381836,0.8564453
1.8837891,1.3710938,3.1523438,1.4580078,0.63671875
1.6835938,1.4365234,1.2431641,1.34375,0.90722656
2.9140625,4.203125,3.2871094,3.5771484,2.7695312
3.53125,2.9833984,3.8964844,4.020508,2.640625
3.8144531,2.149414,3.803711,3.7089844,2.1074219
2.4326172,2.9785156,1.4638672,2.5888672,2.0791016
1.6923828,2.1689453,2.274414,2.7382812,2.5
1.5576172,2.7402344,2.540039,1.7724609,2.4833984
1.0859375,3.7373047,2.8984375,2.5263672,2.5302734
0.60839844,4.510742,3.0810547,1.7373047,4.0927734
1.3447266,3.8896484,4.251953,3.09375,4.4570312
1.2373047,5.2402344,5.3164062,4.3964844,5.064453
1.1650391,5.9453125,3.2988281,3.5839844,5.2910156
2.1445312,6.267578,1.4570312,2.1699219,4.830078
1.4414062,6.841797,1.8193359,2.9111328,5.0039062
1.4980469,8.140625,2.4814453,3.649414,5.368164
3.1142578,7.6103516,3.3876953,2.9003906,5.0058594
4.15625,8.478516,4.2851562,3.4082031,5.7802734
5.5058594,10.328125,5.0634766,3.3027344,7.7070312
5.7314453,9.894531,7.629883,5.5371094,6.788086
5.0322266,7.0058594,5.5458984,5.1708984,5.616211
3.5957031,5.435547,5.3671875,4.5810547,4.2001953
2.6054688,7.8398438,4.649414,3.8466797,3.9716797
2.453125,9.645508,2.5947266,2.6875,4.5234375
2.4404297,9.5390625,1.3535156,1.671875,5.227539
2.3046875,10.282227,2.1210938,1.5898438,6.591797
3.1796875,10.332031,3.1816406,3.2080078,6.9101562
2.8554688,9.410156,4.388672,4.1376953,7.5683594
4.4501953,11.121094,3.2392578,5.1552734,7.638672
2.5742188,12.765625,2.8886719,3.7675781,8.235352
1.0927734,11.384766,3.6914062,3.2519531,6.7773438
2.3388672,8.9921875,3.6835938,3.9560547,5.973633
2.8359375,8.1640625,2.9082031,2.6728516,4.8359375
2.0371094,7.7783203,0.97753906,4.694336,3.9365234
4.515625,8.947266,3.859375,6.979492,6.138672
4.959961,7.4121094,5.9179688,6.3466797,5.084961
5.1503906,5.604492,5.21875,5.5634766,4.1064453
2.0498047,6.477539,3.6152344,3.0175781,2.5644531
2.3984375,5.6591797,2.9785156,2.725586,2.5673828
2.430664,6.9501953,1.1708984,2.1865234,3.209961
2.90625,8.8671875,1.7783203,2.5429688,4.2597656
3.703125,10.7578125,4.3564453,2.3486328,6.671875
5.4765625,11.292969,4.6220703,2.899414,7.116211
6.484375,7.9160156,3.6347656,2.8603516,5.946289
3.586914,7.1015625,0.7548828,2.0585938,4.8945312
3.9003906,2.9707031,0.921875,0.9375,1.7373047
3.946289,4.7226562,2.3203125,1.5205078,2.4628906
2.8984375,7.430664,3.1396484,2.2304688,4.897461
3.696289,8.729492,5.2128906,3.0263672,6.4677734
5.245117,8.8203125,5.272461,5.6679688,6.7871094
6.2265625,8.042969,5.5771484,6.0029297,6.3964844
5.6845703,7.486328,5.3496094,6.169922,6.251953
3.944336,6.783203,4.814453,5.629883,4.9375
3.7792969,7.649414,4.4609375,5.051758,5.142578
4.234375,8.170898,3.4355469,3.3789062,5.194336
4.5654297,8.634766,5.1396484,3.8388672,5.9140625
3.7324219,9.665039,7.9160156,5.7685547,6.620117
4.2441406,9.860352,8.400391,5.7128906,7.3828125
6.1484375,11.0703125,7.946289,6.1376953,8.839844
6.0839844,12.213867,8.370117,6.154297,9.905273
6.0166016,12.342773,7.760742,5.6289062,9.24707
5.8535156,12.2734375,7.3408203,4.0214844,8.989258
6.055664,12.618164,6.526367,5.0185547,9.624023
5.9375,12.163086,8.541992,8.462891,9.625977
5.9804688,11.8046875,9.473633,8.048828,9.333008
6.3476562,13.167969,8.955078,7.3125,9.303711
7.4189453,13.288086,8.958984,7.100586,9.2265625
6.819336,12.691406,8.337891,5.7333984,8.774414
5.475586,12.124023,6.2617188,3.3476562,7.526367
5.6484375,10.803711,2.7421875,2.8154297,5.0908203
5.8789062,5.663086,2.1142578,2.5371094,2.1757812
5.9160156,3.211914,1.6025391,2.2236328,1.7363281
3.6708984,6.0820312,2.0048828,2.7490234,1.8769531
4.270508,8.94043,1.3681641,2.6298828,3.6484375
5.385742,9.4921875,4.3867188,2.9335938,7.0751953
6.9345703,9.7109375,6.513672,4.3271484,8.236328
5.536133,10.308594,7.5058594,6.3935547,9.392578
4.9990234,13.033203,10.082031,8.236328,9.949219
6.0878906,14.740234,10.170898,7.5039062,11.322266
6.6552734,16.67871,10.692383,9.649414,12.424805
8.225586,17.088867,9.776367,6.8154297,10.957031
7.1953125,8.519531,5.536133,5.0810547,6.788086
7.1308594,11.230469,8.765625,8.798828,9.016602
9.411133,10.59375,11.009766,9.749023,9.324219
8.93457,11.0234375,9.384766,8.796875,8.368164
6.9033203,11.604492,8.526367,6.8583984,6.9345703
6.6259766,12.19043,8.092773,6.935547,6.5625
6.0458984,11.530273,6.1865234,5.963867,6.0703125
4.6289062,10.173828,4.2158203,4.6210938,5.482422
4.129883,9.303711,5.3398438,5.359375,5.258789
5.5771484,7.6523438,7.010742,6.0429688,5.7558594
5.7910156,6.913086,6.430664,6.2666016,4.333008
5.2197266,6.038086,4.9570312,4.553711,2.6513672
2.7021484,5.2685547,3.461914,3.3710938,1.8554688
2.3496094,7.455078,3.1191406,2.8046875,2.9560547
2.5361328,8.099609,3.8496094,2.350586,3.7666016
3.7216797,9.043945,5.669922,3.7529297,5.5439453
5.404297,10.657227,7.6660156,7.9833984,8.449219
6.9765625,11.708984,8.672852,8.280273,8.905273
7.801758,10.387695,8.40918,8.104492,8.856445
8.347656,10.299805,7.4648438,6.7978516,8.0390625
7.78125,10.548828,6.4570312,5.0302734,7.0166016
6.209961,9.761719,5.0908203,4.7890625,6.720703
6.7578125,9.442383,7.0585938,7.421875,7.541992
6.53125,10.686523,11.322266,10.333984,9.240234
8.777344,13.326172,10.730469,10.744141,10.842773
10.036133,13.824219,10.447266,10.80957,10.223633
11.642578,12.913086,10.748047,9.780273,9.5078125
7.883789,12.772461,7.364258,6.7958984,8.822266
4.8916016,11.557617,5.6123047,5.90625,7.3603516
3.8779297,10.274414,4.366211,5.0029297,5.754883
2.803711,7.5195312,3.2441406,3.7998047,4.569336
2.9589844,6.680664,3.8300781,3.2285156,4.6904297
2.6855469,4.5507812,3.8222656,3.1083984,3.3896484
4.1171875,3.875,3.6777344,3.1201172,3.1064453
5.0722656,4.2871094,4.0683594,3.7871094,3.6523438
4.408203,4.0146484,3.7919922,3.9238281,3.3232422
2.4921875,6.864258,3.290039,2.7646484,4.006836
3.1425781,10.794922,5.8759766,2.9501953,7.390625
3.4140625,11.31543,9.44043,3.6445312,7.6640625
4.053711,10.6484375,9.318359,5.1992188,6.7597656
4.975586,10.422852,6.1328125,5.1728516,6.0390625
5.461914,9.7734375,6.399414,8.004883,7.0791016
5.2685547,9.919922,7.682617,7.229492,7.520508
5.7070312,10.107422,8.0,7.5664062,6.4804688
4.618164,9.1875,9.613281,7.6845703,6.4228516
4.685547,10.063477,9.555664,8.045898,7.192383
4.919922,11.817383,10.670898,8.519531,8.662109
4.9833984,11.979492,11.135742,8.360352,8.810547
4.9160156,11.893555,9.993164,6.4882812,8.894531
6.3740234,11.609375,5.7558594,3.5175781,8.796875
6.111328,12.041016,2.7929688,2.1796875,7.6220703
4.520508,11.833984,1.3447266,0.875,6.213867
4.9785156,11.094727,1.2548828,1.0732422,3.2177734
4.805664,8.259766,1.0429688,1.2890625,2.7890625
3.5,5.876953,0.93359375,1.2988281,2.7539062
1.2011719,7.899414,1.3945312,1.1933594,2.9091797
3.8183594,9.40625,3.2509766,2.3085938,4.6503906
3.8046875,9.21582,4.211914,3.5654297,6.4140625
3.711914,9.741211,3.6035156,5.0742188,7.6435547
3.8876953,11.728516,4.448242,4.4804688,9.066406
5.3310547,13.537109,7.6171875,4.841797,9.764648
5.946289,12.736328,8.262695,5.5615234,8.811523
5.6777344,11.748047,7.801758,5.276367,8.494141
5.4521484,11.019531,6.8984375,4.334961,8.0390625
4.9570312,9.936523,7.2216797,2.5039062,6.7734375
4.7685547,9.09668,5.8808594,3.413086,7.1289062
3.9892578,8.626953,5.810547,4.0878906,6.7529297
2.930664,8.702148,4.3134766,3.243164,6.5908203
1.8808594,9.553711,4.5302734,4.307617,7.126953
3.2441406,9.990234,4.705078,4.439453,8.041016
