"[299, 255]","[227, 248]","[287, 319]","[279, 328]","[230, 262]"
4.7646484,2.7197266,2.2978516,2.2626953,3.1152344
2.3564453,3.2851562,1.8603516,2.4248047,1.7988281
2.2705078,2.803711,2.8554688,3.3007812,1.7050781
2.7001953,5.290039,4.645508,4.245117,4.0742188
1.6533203,6.2539062,4.9365234,3.7539062,5.173828
3.2246094,6.201172,4.330078,3.8203125,5.123047
3.2705078,6.0234375,3.0791016,3.446289,3.7636719
2.819336,4.013672,3.1679688,2.9648438,2.5498047
2.834961,2.4648438,3.227539,2.4179688,2.6611328
2.6435547,1.3623047,2.9375,3.1289062,1.7001953
3.328125,2.5273438,2.6191406,3.7988281,2.0732422
3.4677734,4.442383,3.3125,3.9013672,3.6064453
3.3496094,4.234375,2.53125,2.7851562,4.1240234
3.149414,5.345703,2.4384766,2.5097656,3.4345703
2.3603516,4.7851562,3.227539,1.9941406,2.3320312
2.625,3.2441406,1.8974609,2.8408203,1.0771484
1.796875,1.5058594,2.178711,2.8310547,1.3271484
2.5996094,1.7988281,1.7041016,2.3925781,1.3066406
2.4072266,3.3027344,2.2773438,2.0273438,1.1298828
2.0283203,4.3242188,3.4580078,4.057617,3.5966797
3.2363281,2.3496094,4.870117,4.5839844,2.0166016
3.8828125,2.5263672,5.1777344,4.2421875,1.5771484
2.8925781,2.8173828,3.2792969,3.3574219,1.7421875
1.4521484,5.911133,3.1572266,3.0166016,2.3261719
1.3613281,5.3808594,2.2832031,1.9414062,2.4492188
2.1132812,4.303711,0.8984375,1.2871094,1.9873047
1.7060547,3.2666016,0.6425781,0.7060547,3.133789
2.6259766,1.8320312,1.1660156,0.625,2.8164062
2.4628906,3.4433594,0.82910156,1.8330078,4.086914
2.1542969,4.897461,3.5751953,3.1171875,4.2373047
2.7138672,6.100586,2.8564453,2.6601562,3.7490234
2.2246094,5.5976562,3.131836,2.578125,3.524414
1.7421875,6.6132812,2.602539,2.9384766,4.276367
1.0742188,6.8398438,1.7773438,3.0,3.9589844
2.1044922,7.314453,2.4824219,2.2050781,5.6503906
5.5039062,8.087891,2.7558594,3.7148438,6.4746094
6.2333984,5.864258,4.3896484,4.4501953,5.102539
6.180664,5.701172,3.8759766,4.946289,4.6591797
5.501953,6.651367,3.461914,3.9277344,3.9169922
3.3378906,5.415039,3.3779297,2.4824219,2.8691406
2.9765625,5.5654297,2.6660156,2.5996094,3.4003906
2.741211,6.7773438,3.0439453,3.8232422,3.9882812
4.078125,6.958008,4.416992,3.8564453,5.504883
5.745117,6.3515625,5.1054688,4.4609375,5.4414062
6.9814453,4.444336,5.013672,4.1523438,4.689453
6.3759766,4.6757812,3.9394531,2.8486328,4.2714844
4.038086,6.2529297,2.1552734,1.3027344,3.7070312
1.4501953,6.819336,3.2919922,2.6601562,3.4980469
2.6376953,6.4072266,2.006836,2.7363281,2.600586
3.9355469,4.1884766,2.336914,2.7236328,2.2421875
4.40625,4.381836,3.8232422,2.9179688,3.3515625
4.8476562,5.2558594,4.1601562,4.2021484,4.4833984
2.6679688,5.0253906,3.3417969,4.243164,4.1367188
1.5722656,6.633789,4.114258,2.8105469,4.4091797
2.0126953,6.3066406,3.3251953,3.2050781,4.381836
2.538086,5.8164062,2.7734375,2.296875,3.803711
2.1757812,5.2070312,2.7011719,2.8828125,2.5175781
2.125,4.961914,2.2705078,3.2236328,2.7011719
2.1103516,6.138672,1.8994141,3.5009766,3.5205078
3.3173828,7.3134766,3.2324219,3.8408203,5.0908203
4.0898438,8.088867,3.4042969,3.3496094,5.7646484
3.5449219,7.961914,3.1982422,3.0351562,4.973633
4.8554688,9.709961,3.4472656,4.2109375,5.7490234
6.7714844,9.3984375,3.171875,4.5820312,5.8789062
7.571289,9.93457,4.428711,5.5234375,6.3916016
8.732422,12.051758,5.7265625,5.111328,7.745117
6.7890625,10.473633,5.826172,4.838867,7.7382812
7.0302734,8.165039,6.1054688,6.555664,7.0039062
7.0439453,9.647461,7.7666016,6.2373047,7.208008
6.069336,7.7060547,8.134766,6.546875,5.859375
4.810547,3.5166016,6.2753906,6.010742,3.6660156
2.7949219,3.1142578,4.713867,4.524414,3.3398438
2.6933594,4.413086,3.4726562,3.0615234,2.6884766
2.5263672,5.5351562,4.0615234,2.8867188,3.0117188
4.138672,5.696289,6.486328,5.305664,5.5273438
4.870117,6.102539,7.5722656,6.6884766,5.979492
4.774414,7.6875,8.450195,7.4814453,6.522461
4.9433594,9.09668,8.535156,6.7958984,7.272461
2.7714844,8.932617,7.2060547,5.026367,5.671875
2.5234375,6.870117,4.901367,3.9638672,3.5019531
2.475586,7.15625,4.6972656,3.609375,3.5683594
1.8535156,6.0390625,4.4589844,3.1640625,3.2783203
3.5771484,6.5322266,5.3125,5.4628906,5.53125
5.446289,5.8623047,6.5410156,6.0341797,6.046875
6.2353516,5.2753906,6.9765625,6.716797,4.794922
5.6279297,7.2460938,6.7304688,6.4101562,4.9453125
3.194336,5.598633,4.751953,4.7021484,4.004883
2.4560547,2.8154297,3.8134766,2.9365234,2.3164062
2.6064453,1.7304688,1.7314453,2.7070312,1.6777344
3.4042969,5.348633,0.8300781,1.3046875,3.7148438
5.2597656,8.041016,1.3066406,0.484375,5.8935547
7.0751953,8.126953,5.2841797,2.8701172,7.123047
8.400391,7.607422,6.6191406,4.6865234,6.305664
7.088867,11.12207,6.1914062,3.0126953,8.261719
12.3984375,12.525391,6.5878906,2.4716797,11.27832
14.057617,10.913086,6.2353516,2.0527344,11.348633
12.6171875,7.8808594,6.9970703,1.5859375,10.063477
10.769531,4.9873047,6.629883,1.7919922,8.797852
8.244141,4.5664062,6.951172,1.9443359,7.7070312
7.607422,3.5625,7.694336,2.2939453,7.3691406
7.294922,2.6425781,8.285156,2.7705078,7.041992
6.830078,5.5966797,7.473633,3.272461,6.307617
7.1435547,4.944336,5.131836,2.875,4.8134766
6.033203,7.2929688,5.236328,1.4326172,4.8154297
3.946289,7.803711,5.7089844,1.1757812,4.080078
2.5791016,7.8759766,5.151367,1.5566406,4.008789
4.0751953,8.862305,4.038086,1.9873047,5.6884766
4.4033203,6.041992,3.4101562,2.7792969,6.020508
5.1845703,6.859375,3.0292969,2.5839844,5.741211
4.9492188,9.458008,2.352539,2.6699219,6.3378906
5.088867,9.193359,2.3164062,2.290039,6.5439453
5.3251953,9.677734,2.8720703,2.5,5.430664
5.4404297,10.516602,5.0478516,4.169922,6.2578125
5.7539062,11.089844,4.928711,4.788086,6.7734375
7.1621094,11.348633,4.4501953,3.647461,8.050781
7.272461,10.144531,6.5996094,5.9335938,8.232422
7.2646484,9.365234,8.116211,7.5039062,7.326172
6.260742,10.683594,8.236328,7.9609375,6.8710938
4.1240234,10.261719,7.026367,5.583008,4.84375
3.6484375,8.150391,4.854492,3.4082031,2.8476562
3.0175781,6.9726562,2.9921875,3.5839844,1.9287109
3.040039,6.4335938,0.7294922,1.6123047,2.9921875
1.9804688,4.8603516,0.7939453,0.9794922,4.3916016
1.9775391,5.5390625,1.5351562,1.4609375,3.8701172
2.5039062,2.3408203,2.5771484,1.1435547,4.1328125
2.3359375,4.163086,2.0322266,1.8710938,4.236328
3.2011719,6.3603516,2.03125,1.7470703,3.7851562
5.1572266,5.7304688,4.1015625,3.0390625,3.8339844
6.7558594,3.7529297,5.3945312,3.4208984,3.0263672
8.240234,3.4960938,4.5283203,4.4023438,3.9814453
8.479492,7.6914062,5.4785156,5.745117,4.8476562
7.8095703,8.868164,5.602539,7.0751953,4.5410156
6.807617,8.767578,5.8945312,6.265625,5.0908203
9.181641,7.553711,5.544922,6.654297,5.203125
10.426758,8.643555,6.680664,7.399414,6.7841797
11.936523,5.8583984,7.0625,5.791992,7.4541016
13.34668,3.8740234,6.5146484,3.0742188,7.442383
9.668945,4.7626953,5.6035156,3.6748047,6.5791016
6.7089844,2.0986328,6.229492,1.875,2.9970703
4.3203125,6.1503906,6.5185547,1.8632812,3.8085938
5.3652344,6.9189453,4.895508,3.2802734,5.069336
5.4746094,6.873047,7.4121094,4.892578,4.080078
5.385742,12.214844,7.604492,5.8339844,6.6308594
5.3085938,12.02832,5.823242,3.5732422,6.8476562
5.5908203,9.824219,6.399414,4.171875,5.4033203
5.0947266,8.313477,6.4296875,4.3740234,4.930664
5.138672,8.927734,6.698242,4.998047,6.4990234
5.788086,9.743164,7.5009766,6.4628906,7.4179688
6.729492,9.761719,6.020508,5.751953,6.2841797
6.239258,6.5351562,5.0771484,4.576172,6.2060547
2.5117188,7.958008,5.053711,4.9414062,6.073242
4.0439453,10.451172,5.923828,5.2128906,6.4277344
4.7353516,11.254883,6.2851562,3.9541016,6.8564453
5.1484375,11.137695,5.2226562,4.1445312,6.9433594
5.303711,10.720703,5.2402344,4.8007812,7.1953125
5.6054688,10.176758,6.59375,6.955078,7.663086
5.088867,8.998047,8.451172,7.7871094,7.6289062
5.270508,8.443359,7.901367,7.084961,7.006836
4.1171875,9.586914,5.548828,5.423828,5.8720703
4.352539,6.3320312,4.0859375,4.3291016,2.8945312
3.8925781,4.638672,4.623047,3.9052734,2.8710938
2.8789062,4.7617188,5.15625,4.2998047,2.4355469
3.3925781,4.916992,6.4492188,5.9140625,4.6123047
4.6220703,3.7294922,6.0478516,5.6992188,4.34375
4.147461,4.196289,6.1503906,5.5595703,3.9980469
2.2949219,4.036133,4.7539062,4.145508,3.5097656
1.9804688,3.538086,3.366211,2.7646484,2.2519531
2.4707031,3.546875,2.3085938,2.336914,1.8212891
3.3066406,6.086914,2.1982422,2.2509766,3.6757812
5.4189453,8.079102,3.5859375,1.6523438,4.3964844
7.0927734,8.360352,4.8359375,2.7294922,4.2128906
5.9716797,9.098633,6.8359375,4.623047,4.8339844
5.323242,10.49707,6.0527344,4.5546875,7.6748047
4.4833984,13.044922,5.567383,1.9492188,7.631836
5.8935547,14.516602,3.3330078,3.2695312,8.124023
6.5722656,12.384766,1.6494141,1.3056641,8.43457
6.5078125,10.444336,2.0966797,2.4902344,7.1132812
5.8603516,8.769531,2.7070312,2.7646484,5.8896484
5.7304688,7.8398438,2.3046875,2.774414,5.9746094
5.901367,5.553711,3.9160156,3.0009766,5.4697266
4.6171875,4.8251953,3.7519531,3.2451172,4.5234375
3.9824219,7.288086,3.4990234,2.9228516,4.8222656
2.4589844,6.0322266,3.1884766,2.899414,4.0859375
2.0566406,4.618164,3.2294922,2.1416016,2.8310547
2.5722656,2.4560547,1.9101562,1.8193359,1.1708984
2.2802734,2.1816406,1.8945312,1.2675781,1.8857422
1.6445312,3.4482422,3.7158203,1.4404297,3.2373047
2.4824219,6.883789,4.791992,2.4833984,4.0273438
4.2773438,7.685547,3.9697266,2.8017578,4.078125
3.4785156,7.368164,4.7871094,2.5048828,5.5341797
3.2470703,7.336914,3.7177734,3.3720703,6.2265625
4.241211,7.748047,2.0917969,2.4511719,6.154297
1.7802734,5.6347656,2.1269531,2.6230469,4.131836
1.5322266,6.1904297,2.4589844,2.8769531,3.0605469
2.8808594,6.7841797,3.5146484,2.7470703,4.8408203
2.9707031,6.501953,1.8769531,2.618164,5.4521484
2.5888672,5.8046875,1.8369141,2.5166016,5.501953
2.6484375,5.3095703,1.9091797,2.3935547,4.241211
2.8144531,3.6835938,3.3632812,1.8505859,2.6113281
2.0263672,3.459961,1.9042969,2.5019531,2.0390625
1.3193359,2.6972656,2.368164,2.211914,1.4697266
0.9111328,4.241211,1.1064453,1.2402344,2.2451172
1.7880859,6.145508,0.86816406,0.8457031,4.413086
2.196289,7.7041016,3.6298828,1.6152344,5.8720703
1.9863281,8.855469,2.4716797,2.0341797,6.3359375
1.90625,10.970703,2.0175781,2.8535156,7.522461
3.227539,9.980469,2.6123047,3.0703125,6.379883
3.1904297,7.416992,2.6035156,1.3320312,4.758789
1.9716797,7.8251953,1.8916016,2.9667969,6.4072266
4.8466797,8.943359,2.3105469,3.9052734,6.100586
5.5615234,8.3984375,2.796875,4.1054688,6.4345703
4.8945312,8.798828,4.0664062,4.2773438,6.2978516
4.008789,8.776367,4.9501953,5.0009766,6.7382812
4.6308594,8.165039,4.7958984,4.7373047,6.850586
4.0810547,8.09082,3.9003906,4.0927734,4.868164
2.6416016,7.6464844,2.5771484,2.6445312,4.2539062
2.3017578,6.34375,2.9404297,2.5732422,2.9296875
2.2939453,2.8154297,3.0625,2.3847656,1.8720703
3.8740234,1.0371094,3.758789,3.2285156,2.5048828
3.7871094,5.2597656,3.2392578,3.178711,2.90625
3.3710938,8.423828,3.475586,2.8730469,3.493164
3.5732422,7.2753906,3.850586,3.7050781,4.510742
3.8164062,5.5722656,3.5410156,4.104492,3.8115234
1.5322266,5.2558594,3.0214844,2.5722656,3.196289
1.2480469,3.8740234,2.0126953,1.5195312,1.2548828
2.6279297,1.5634766,1.1904297,0.87890625,1.4033203
2.1884766,2.7021484,0.48242188,1.1123047,2.9091797
1.9189453,3.131836,0.35058594,1.1337891,3.2109375
2.1572266,4.9628906,0.8720703,0.640625,3.5078125
1.7578125,4.5478516,0.74902344,0.41210938,3.234375
1.6318359,3.6816406,1.1416016,0.9111328,3.0292969
2.4277344,3.2871094,2.038086,1.890625,1.5742188
3.1523438,1.921875,2.0253906,2.3476562,0.9628906
2.0,2.4853516,1.1269531,1.8876953,1.2783203
2.038086,1.6103516,0.69433594,1.1269531,1.5585938
2.7480469,4.8759766,2.0986328,1.859375,2.959961
3.0253906,4.7314453,3.5439453,3.625,3.055664
4.40625,4.3359375,5.147461,4.173828,3.8779297
4.2197266,4.0966797,3.741211,2.9970703,3.5947266
3.46875,4.256836,2.5039062,3.1298828,2.78125
