"[299, 255]","[227, 248]","[287, 319]","[279, 328]","[230, 262]"
6.642578,3.5175781,2.7705078,4.540039,2.5507812
7.4853516,4.9345703,2.8916016,4.8652344,3.125
7.2910156,4.291992,4.008789,4.9375,2.90625
8.051758,4.3271484,3.680664,6.0742188,3.7333984
8.750977,3.3701172,4.421875,5.8085938,3.7138672
9.021484,3.2861328,3.71875,4.798828,3.3330078
9.551758,5.4228516,4.1777344,5.416992,2.4052734
8.416016,9.15332,4.3203125,5.4179688,2.8613281
7.40625,9.338867,3.625,4.9902344,4.2998047
5.786133,8.552734,3.803711,4.4121094,3.3291016
5.0009766,5.9375,3.241211,4.142578,2.4736328
4.3828125,2.0234375,2.7851562,3.2021484,1.9755859
4.9873047,1.2539062,2.430664,2.8945312,2.59375
4.055664,1.4394531,3.1455078,3.2949219,2.8808594
3.7958984,1.8662109,2.5107422,3.46875,1.9375
3.7080078,2.0996094,2.506836,2.921875,1.8339844
4.2978516,2.1748047,2.7470703,2.8554688,1.7900391
5.4208984,2.086914,2.7373047,3.086914,1.8359375
4.3408203,2.6289062,2.6777344,2.7636719,1.3007812
3.6601562,4.586914,3.053711,3.4189453,1.1865234
3.8310547,4.251953,3.290039,3.4628906,1.3837891
3.2695312,4.2402344,3.2353516,3.4277344,2.2519531
3.5146484,5.8984375,2.4980469,3.6728516,2.9716797
3.6513672,7.0976562,2.3955078,3.3583984,3.8095703
4.123047,8.436523,2.6044922,3.9824219,4.1054688
4.455078,8.725586,3.6259766,4.2246094,4.586914
4.9316406,9.163086,3.1328125,4.6064453,4.399414
5.361328,9.542969,3.5888672,5.415039,5.6445312
5.1640625,8.535156,3.90625,4.9589844,6.4804688
4.2216797,7.084961,2.7167969,3.3730469,3.7470703
4.734375,5.529297,3.0820312,3.6835938,3.5039062
5.2070312,5.8710938,3.3320312,3.9501953,3.5458984
5.459961,7.8203125,3.5957031,4.2265625,3.6601562
4.9414062,8.693359,3.7373047,4.616211,4.3320312
5.2285156,8.552734,2.4873047,4.5302734,4.3291016
5.3095703,8.662109,0.6660156,4.254883,5.169922
4.470703,7.1435547,2.2607422,3.147461,5.541992
4.2128906,7.8183594,2.1669922,3.0449219,4.2529297
4.725586,7.6396484,2.446289,4.006836,4.9716797
4.876953,8.819336,2.5039062,4.379883,5.7333984
5.491211,8.87207,2.9228516,4.623047,5.5429688
5.7304688,8.446289,2.9853516,4.416992,5.5976562
5.5371094,8.008789,2.4589844,4.614258,4.348633
5.296875,9.083008,6.4648438,3.1015625,7.15625
4.911133,8.97168,4.680664,3.2636719,6.9335938
4.2021484,8.568359,2.9345703,3.7109375,6.319336
4.350586,7.819336,3.0761719,3.2929688,5.791992
4.7998047,8.572266,3.7548828,3.0371094,6.732422
3.7958984,9.1953125,3.7714844,2.9189453,8.196289
4.0371094,10.197266,3.7509766,3.350586,8.294922
4.336914,10.176758,2.3007812,3.9072266,8.319336
4.6914062,9.740234,4.8740234,3.977539,8.143555
4.5898438,10.665039,7.0820312,5.03125,8.078125
4.553711,10.823242,6.2314453,5.3583984,8.571289
4.9882812,10.279297,5.21875,6.8320312,8.313477
4.260742,8.953125,5.9521484,5.888672,4.3447266
3.5751953,5.6796875,3.2714844,3.1328125,3.015625
3.5771484,3.4072266,2.265625,2.3330078,2.2460938
3.5322266,6.4160156,2.5410156,3.1503906,2.7558594
3.631836,5.821289,2.4296875,2.4326172,3.2519531
4.1972656,4.4501953,4.2109375,3.6953125,3.915039
3.2597656,4.1064453,3.0371094,2.6220703,2.9492188
2.2109375,3.8046875,4.176758,2.1367188,2.3378906
1.1054688,4.091797,3.586914,2.5654297,2.3271484
1.2167969,4.5146484,0.75097656,3.0771484,2.3720703
1.8476562,3.7109375,1.7714844,1.3027344,2.0976562
2.2177734,2.584961,1.5878906,1.0019531,2.5058594
1.4306641,1.3808594,1.0214844,0.38671875,2.59375
1.640625,3.3652344,0.9316406,2.0644531,2.9716797
2.5908203,5.5273438,1.4072266,2.5429688,2.8378906
3.5449219,6.2373047,2.8095703,2.6152344,2.8720703
5.756836,4.1347656,3.0136719,2.7548828,2.7763672
4.8779297,2.1826172,3.1308594,2.727539,2.4228516
4.1992188,2.9902344,3.0576172,2.7910156,3.0390625
6.3583984,3.0205078,3.0332031,2.7539062,4.0009766
4.8789062,4.1210938,2.1660156,1.5341797,5.821289
4.3710938,4.9248047,3.0830078,2.0292969,5.647461
3.5507812,4.8554688,3.1308594,2.790039,5.2470703
4.4560547,3.3603516,3.0585938,2.4980469,4.756836
7.9335938,3.0302734,2.6875,2.7763672,2.8574219
7.669922,2.1435547,2.6660156,2.6435547,2.4824219
6.3320312,5.2246094,3.1230469,2.790039,1.9628906
5.1484375,6.423828,3.0498047,2.8955078,2.149414
5.071289,5.4335938,2.2246094,2.1503906,1.3095703
4.921875,5.1503906,3.5263672,4.1523438,1.8349609
3.7685547,5.291992,3.015625,3.7792969,2.866211
2.6044922,4.8154297,2.9833984,3.2851562,3.0273438
2.5908203,5.3623047,3.1074219,3.1796875,2.875
2.3603516,5.6777344,2.571289,2.8730469,2.3642578
2.3466797,6.8046875,2.5810547,2.0058594,2.9990234
2.3388672,5.819336,2.1748047,2.131836,2.3945312
2.1279297,3.65625,1.2578125,2.6416016,1.7255859
1.6298828,3.1738281,1.0302734,1.7402344,1.3261719
1.6142578,2.4628906,1.4111328,1.5068359,1.8232422
2.2988281,1.8974609,1.1035156,1.9003906,1.4091797
2.4589844,1.5771484,1.4160156,2.243164,1.2255859
1.7373047,2.0996094,1.7890625,2.288086,1.5595703
1.7167969,2.040039,1.4199219,2.118164,1.4755859
1.8613281,3.0429688,1.6025391,2.171875,1.8945312
1.4638672,3.1396484,0.56640625,0.6933594,2.993164
1.9785156,6.3242188,0.9658203,1.9960938,4.171875
2.4589844,6.28125,2.2822266,2.09375,4.451172
2.9267578,3.930664,3.1015625,2.1503906,4.3740234
2.9990234,2.2197266,2.9179688,3.1376953,3.4277344
2.9414062,3.584961,2.0683594,3.038086,1.9570312
2.7314453,6.3945312,2.3027344,3.5732422,2.9140625
2.850586,6.873047,1.6230469,3.2851562,3.6386719
3.2011719,6.625,3.024414,3.2177734,3.7939453
2.9101562,5.916992,2.5419922,2.859375,2.9550781
2.5039062,5.2246094,2.4248047,2.4833984,2.7871094
2.303711,4.2128906,2.040039,2.3183594,2.5595703
2.7304688,5.3398438,2.0527344,3.0478516,2.4453125
2.8935547,6.5791016,2.9423828,3.0664062,3.5332031
3.6230469,4.998047,2.7705078,2.9482422,3.1679688
5.116211,3.0742188,2.5009766,3.5029297,2.359375
6.1572266,3.0927734,3.9208984,5.9375,1.7822266
6.5664062,5.4492188,3.8554688,5.4501953,2.3183594
7.133789,6.9648438,3.4433594,4.5908203,3.0449219
8.080078,11.852539,3.3876953,4.482422,5.7197266
8.2265625,12.057617,2.7773438,5.348633,7.6757812
8.473633,13.642578,2.7822266,4.8876953,8.223633
8.373047,12.0625,7.013672,5.6816406,7.8007812
7.1464844,9.305664,7.203125,5.9345703,4.875
4.3623047,9.114258,5.7246094,4.6464844,5.7783203
5.064453,8.743164,6.515625,5.569336,6.1591797
4.529297,9.426758,5.3583984,3.8388672,6.0625
3.765625,9.633789,4.875,3.4433594,5.2998047
3.6064453,9.825195,4.3320312,2.9404297,4.209961
3.8330078,9.938477,3.390625,3.4824219,5.861328
5.616211,14.746094,5.1533203,4.9921875,10.670898
7.8671875,17.694336,9.566406,7.6279297,12.8515625
9.168945,12.568359,10.214844,7.873047,8.21582
6.361328,12.020508,6.598633,5.5097656,7.5820312
5.220703,11.798828,5.9882812,5.810547,6.689453
5.317383,12.328125,6.1328125,5.2314453,6.536133
4.895508,11.874023,5.7714844,4.176758,5.5703125
4.0253906,9.165039,4.5839844,3.6015625,4.709961
3.5908203,7.2822266,4.7773438,3.2148438,3.4892578
3.1464844,7.3935547,4.9658203,3.4990234,3.5634766
3.1259766,8.0390625,4.5966797,4.8916016,5.745117
4.364258,6.5908203,4.970703,5.2070312,5.4902344
3.3945312,7.334961,4.951172,4.2802734,4.15625
2.9794922,9.655273,4.8271484,3.6748047,4.2617188
4.2246094,11.375,5.0195312,3.5546875,6.1503906
4.461914,12.141602,6.794922,5.6621094,8.263672
5.216797,13.75293,7.9003906,6.060547,9.963867
5.836914,14.166016,8.206055,6.4160156,10.544922
6.3291016,14.69043,9.514648,7.942383,11.058594
6.6728516,16.080078,8.610352,9.064453,12.197266
8.049805,17.625,8.859375,9.1953125,13.612305
9.515625,19.595703,9.234375,11.347656,14.59082
10.955078,20.825195,12.033203,10.118164,15.919922
11.786133,18.75,13.072266,11.125977,14.15625
10.091797,11.387695,10.892578,7.7626953,7.0429688
5.5195312,13.355469,5.3691406,4.6289062,7.7460938
6.1328125,11.662109,6.5097656,6.466797,8.649414
6.9902344,11.893555,7.385742,7.6191406,8.043945
5.2421875,11.785156,5.5478516,6.6347656,7.0742188
4.1572266,10.075195,5.2285156,3.5839844,4.8808594
4.2314453,9.712891,4.9335938,2.9707031,4.8085938
5.6396484,12.522461,5.4648438,4.696289,7.4433594
8.18457,16.966797,7.770508,7.8203125,11.651367
11.020508,20.942383,10.550781,10.716797,15.413086
13.186523,20.509766,13.076172,11.2578125,15.197266
12.587891,19.830078,12.037109,9.755859,14.50293
10.638672,14.099609,8.607422,6.397461,8.819336
7.2753906,11.421875,4.6279297,3.8740234,6.3271484
5.1748047,11.53418,4.8007812,3.9042969,6.022461
4.3027344,12.913086,4.979492,3.78125,6.8935547
4.7734375,13.2734375,5.321289,4.9453125,7.399414
4.7617188,13.7421875,5.611328,5.741211,7.658203
7.0039062,14.655273,9.208984,8.535156,10.18457
8.241211,13.774414,9.076172,9.991211,10.645508
6.9765625,14.626953,6.651367,8.100586,9.384766
5.9833984,13.8671875,5.6083984,5.819336,8.235352
4.8095703,11.962891,5.8046875,5.366211,6.7617188
4.116211,11.137695,5.241211,5.0615234,5.7597656
3.6923828,9.410156,4.609375,3.4472656,4.5117188
4.314453,8.915039,3.6816406,3.2626953,4.9648438
6.1914062,13.263672,6.323242,5.7802734,8.90332
8.669922,17.311523,7.8623047,7.9521484,12.74707
9.470703,16.658203,9.474609,7.6601562,12.352539
7.1972656,13.734375,9.678711,7.319336,9.46875
6.484375,12.926758,8.032227,7.9052734,8.290039
5.7841797,12.09668,7.665039,7.2871094,8.006836
4.951172,11.436523,6.272461,6.602539,7.2822266
4.6171875,9.366211,5.334961,5.9365234,5.2402344
3.4873047,6.254883,6.1015625,6.0566406,4.9414062
3.6591797,4.7041016,4.8515625,4.209961,3.4521484
3.6308594,1.6083984,2.4101562,1.9746094,2.1816406
3.1552734,5.291992,1.8847656,1.9697266,4.2070312
3.6269531,11.8515625,1.9375,2.3486328,6.392578
6.8066406,12.643555,2.8642578,3.7285156,7.1367188
5.0341797,13.141602,2.8261719,3.4101562,7.1679688
4.5097656,11.6484375,3.3300781,3.3876953,6.501953
6.4697266,12.459961,6.647461,4.892578,8.019531
6.6152344,11.884766,6.473633,5.3535156,8.75
5.9277344,11.647461,6.165039,4.8847656,6.834961
4.9345703,10.948242,5.8085938,3.9882812,5.888672
4.3378906,10.802734,5.4785156,3.383789,5.2197266
4.2685547,9.510742,4.1464844,2.6289062,4.8085938
3.7578125,11.526367,2.633789,2.5605469,5.9003906
4.1708984,9.615234,1.8261719,2.09375,5.4365234
3.9726562,9.176758,1.5712891,1.296875,5.1171875
2.290039,4.705078,1.4921875,1.6865234,4.1552734
1.453125,4.006836,2.4199219,2.4677734,2.227539
2.1513672,2.5107422,2.2978516,2.4853516,1.3261719
2.6689453,1.7695312,1.6044922,2.6875,1.9794922
3.9033203,3.4785156,2.3876953,2.8886719,2.9609375
3.9238281,4.7148438,2.4423828,2.9160156,2.9179688
2.9365234,5.7265625,0.62890625,2.4814453,3.3955078
1.4443359,5.600586,1.3466797,1.3310547,4.3183594
2.1914062,6.2578125,2.0341797,1.8613281,4.1152344
2.3359375,6.573242,2.5478516,2.5195312,3.711914
2.3925781,4.6865234,2.0742188,3.0302734,2.7246094
3.1513672,3.1904297,2.756836,3.1611328,1.7744141
4.227539,3.6611328,2.9501953,3.1582031,3.0185547
3.9326172,4.59375,3.1923828,3.2939453,4.0839844
2.6767578,6.607422,2.9638672,2.8964844,4.3535156
2.9091797,6.6416016,2.538086,3.8466797,5.3779297
3.4501953,6.7626953,5.0908203,4.46875,4.689453
3.4169922,6.4365234,3.7021484,4.2265625,4.017578
2.7734375,4.9541016,3.1542969,3.006836,3.0957031
2.6132812,5.053711,2.3183594,2.9560547,3.0625
2.0947266,4.165039,2.0419922,2.7285156,2.4580078
1.0732422,2.9570312,1.2353516,2.3847656,2.415039
0.8154297,4.057617,1.2744141,2.0361328,3.3125
1.0859375,5.1884766,0.8017578,1.0048828,2.9003906
2.788086,5.5615234,1.9853516,1.7392578,4.0595703
3.3339844,5.3027344,2.2236328,1.7539062,3.3857422
1.8740234,3.4248047,2.3828125,2.0126953,2.0175781
2.0761719,5.0595703,2.1669922,2.524414,2.1914062
2.4248047,6.2734375,1.7695312,2.6777344,2.618164
2.7548828,6.1533203,1.7607422,2.8115234,2.6708984
2.6308594,6.446289,1.2626953,2.477539,3.350586
2.0214844,4.495117,0.9140625,1.4599609,2.4648438
1.8095703,2.9453125,1.5263672,0.640625,3.7626953
1.8427734,6.486328,1.4501953,2.2001953,3.5566406
2.9248047,5.5,2.7158203,2.1269531,2.9013672
3.1523438,3.1660156,2.2197266,2.0654297,1.8076172
