"[299, 255]","[227, 248]","[287, 319]","[279, 328]","[230, 262]"
5.5595703,9.730469,7.473633,5.5527344,6.501953
4.8867188,9.629883,5.817383,4.7773438,5.9316406
5.0585938,8.959961,5.7226562,5.2753906,5.6708984
5.7617188,7.033203,6.2421875,6.3535156,6.026367
5.25,4.118164,6.2314453,6.71875,4.8632812
4.522461,3.163086,5.7314453,5.6533203,3.8691406
2.149414,4.5527344,3.9375,3.3466797,2.571289
2.1425781,3.8603516,2.5976562,2.5292969,2.3515625
2.3554688,5.381836,1.9033203,2.4296875,2.4072266
2.3496094,5.9589844,2.0722656,3.0771484,3.4423828
2.2988281,5.7822266,3.3857422,2.3398438,3.5966797
1.2861328,3.0966797,4.5166016,4.029297,3.6298828
1.4287109,4.2558594,4.151367,3.8759766,3.3886719
3.1660156,5.196289,3.194336,3.5322266,3.5019531
3.1640625,3.9199219,3.1552734,3.2978516,2.2558594
2.6152344,4.7978516,3.024414,3.0898438,3.3720703
2.4882812,4.5253906,2.6845703,3.1816406,3.2626953
2.4697266,3.0917969,2.321289,1.9101562,2.2802734
2.084961,1.7910156,1.3779297,0.90527344,1.5927734
2.4189453,0.7421875,2.9101562,3.1152344,1.5253906
2.4091797,1.6376953,2.959961,2.6591797,1.8632812
1.9990234,2.5214844,1.5419922,1.2314453,2.7021484
1.7558594,4.669922,2.7714844,2.5185547,3.3378906
3.6484375,3.7060547,3.2011719,3.1425781,3.4501953
5.310547,5.9179688,3.3496094,3.9667969,3.0898438
5.1503906,6.4023438,3.7197266,4.229492,3.8330078
5.1689453,7.848633,3.34375,4.5371094,4.376953
5.3154297,8.444336,4.0273438,5.189453,6.336914
4.274414,7.944336,4.4814453,5.223633,6.428711
3.5986328,6.923828,4.017578,4.3623047,5.8320312
3.5058594,6.6054688,3.0644531,4.211914,5.4189453
4.0996094,8.96875,2.8427734,4.6865234,6.6152344
3.7617188,10.1171875,3.0625,4.7734375,7.3027344
4.279297,10.870117,2.8388672,5.4453125,7.8876953
5.225586,11.114258,2.4941406,4.6640625,8.388672
5.6572266,10.602539,2.9072266,3.8330078,8.442383
5.4716797,10.026367,2.7978516,4.2060547,8.532227
5.111328,8.746094,2.5283203,3.5126953,7.4365234
4.911133,8.105469,2.4511719,3.334961,7.4570312
4.796875,8.008789,2.5878906,3.553711,7.7158203
4.7626953,8.666992,2.0429688,3.7548828,7.916992
4.838867,8.388672,1.9941406,3.6689453,7.786133
4.705078,7.364258,1.9775391,3.428711,7.5722656
4.298828,6.623047,1.9746094,3.2597656,7.0810547
3.6279297,4.361328,2.7578125,2.7617188,6.138672
2.8007812,4.2802734,2.359375,3.0146484,4.3691406
2.7841797,2.8164062,1.9267578,2.6533203,2.3496094
3.1855469,1.9726562,2.1386719,2.975586,1.9638672
3.4296875,1.6621094,1.6669922,2.7246094,1.8496094
3.328125,1.6914062,1.1005859,2.1953125,1.6240234
1.4628906,1.6396484,1.0683594,1.3408203,1.2441406
1.3916016,3.3769531,1.7070312,1.0556641,2.109375
1.578125,5.3427734,2.1826172,2.0576172,2.890625
1.5478516,3.7929688,2.9707031,2.8105469,2.9345703
2.3183594,3.7988281,2.8017578,2.428711,2.209961
2.9580078,3.1455078,1.6845703,1.4951172,2.6503906
3.211914,2.4570312,1.3388672,1.6005859,2.5166016
2.8242188,1.1328125,1.09375,2.0039062,1.8642578
1.078125,0.70996094,1.2529297,1.3564453,0.66796875
1.1210938,1.9873047,0.48339844,0.6748047,1.1542969
2.0419922,2.0097656,1.7617188,2.1503906,2.4492188
2.5722656,1.3378906,3.538086,3.2177734,2.147461
2.2939453,1.2333984,2.5488281,1.8066406,1.6269531
2.3613281,1.3359375,2.4960938,1.4980469,1.7900391
2.2080078,1.7089844,2.6044922,1.6777344,2.149414
1.8017578,2.1464844,2.6835938,1.8046875,2.3447266
1.7138672,2.493164,2.008789,2.2958984,2.1015625
3.4326172,1.8652344,3.149414,3.5429688,2.2998047
4.9785156,3.0625,4.296875,4.580078,2.7539062
4.479492,3.9365234,4.1933594,4.415039,1.6748047
2.7734375,1.765625,3.015625,2.9970703,1.3251953
2.0517578,2.3466797,2.3105469,2.4082031,1.6943359
1.625,1.8447266,2.3720703,1.9492188,2.4638672
2.430664,2.4404297,2.40625,2.2363281,2.7226562
1.6572266,2.7851562,0.9560547,1.5634766,3.741211
1.9638672,4.4726562,3.477539,1.5283203,4.8896484
4.091797,5.892578,6.4365234,4.9970703,4.301758
5.149414,6.0947266,5.0664062,4.8828125,4.408203
3.3076172,4.953125,4.1904297,3.915039,3.7490234
1.9882812,4.6660156,2.7392578,3.336914,3.4101562
1.8046875,3.6621094,2.7041016,3.399414,3.0585938
2.7001953,2.3740234,2.7871094,3.3945312,3.0546875
2.4794922,3.28125,2.1435547,2.9980469,2.9023438
4.5029297,3.2861328,3.8251953,4.629883,3.6152344
5.6396484,1.6650391,5.0751953,4.399414,3.5429688
5.041992,1.5712891,3.2539062,3.4472656,3.3291016
3.1669922,3.4580078,2.913086,2.8867188,3.5458984
3.078125,3.8320312,3.2919922,3.0058594,3.4580078
2.671875,2.84375,2.1123047,2.834961,2.4638672
2.2773438,2.631836,1.6123047,2.8183594,1.7207031
3.1259766,2.959961,2.3300781,3.4716797,2.3847656
2.8466797,3.7324219,2.7822266,2.4140625,3.4550781
2.7158203,6.435547,1.9736328,1.3310547,3.5351562
2.2382812,5.25,1.6640625,1.5761719,3.180664
2.2060547,3.180664,2.225586,2.5732422,1.9208984
1.5957031,2.5322266,1.8583984,2.9189453,1.7890625
0.8779297,1.7363281,2.3828125,3.046875,2.0009766
2.6533203,0.78222656,3.7529297,3.65625,1.8261719
4.9472656,2.2050781,4.376953,4.3828125,3.8857422
5.6445312,5.341797,4.2304688,4.618164,3.5507812
5.9453125,5.6875,4.7998047,5.3564453,4.5742188
5.7929688,5.1875,5.5703125,6.2626953,4.7373047
3.774414,6.0625,3.5166016,5.298828,5.654297
2.1738281,7.3007812,2.4921875,4.4160156,5.6191406
1.4628906,6.1933594,2.1044922,2.5722656,4.555664
1.1757812,5.6308594,1.2998047,2.1289062,3.977539
1.6074219,4.857422,1.4482422,3.03125,4.373047
2.4199219,5.1933594,2.3320312,3.5009766,4.4726562
2.9707031,6.251953,3.975586,3.9277344,4.9902344
3.1914062,7.5634766,4.2226562,4.548828,5.3134766
6.0771484,6.205078,3.258789,3.4248047,4.0166016
5.5625,5.3984375,2.211914,2.350586,4.163086
2.9560547,3.5585938,2.538086,2.9072266,3.3515625
3.0976562,4.25,3.368164,3.3398438,2.2861328
4.2773438,4.1552734,4.4492188,4.3720703,3.9589844
4.5595703,7.5976562,5.6328125,4.892578,5.930664
5.0126953,8.135742,5.7216797,5.9501953,6.2490234
5.0898438,7.248047,6.533203,6.095703,6.1308594
4.3242188,6.71875,3.8115234,3.8134766,4.8564453
2.8046875,6.7382812,2.96875,3.5341797,2.8076172
2.5029297,3.663086,3.5361328,3.5117188,4.201172
2.3876953,6.0625,4.126953,3.8691406,3.7304688
3.366211,6.8984375,5.458008,4.8535156,5.036133
4.5664062,6.633789,5.8046875,5.341797,5.2382812
5.2314453,7.0429688,5.963867,5.4121094,5.4560547
4.2148438,6.8740234,5.1796875,5.1816406,4.760742
4.133789,6.2265625,2.5917969,2.9189453,3.2617188
1.7675781,4.4140625,2.3652344,2.0878906,2.4257812
1.5439453,4.265625,2.7861328,2.6425781,2.383789
1.5292969,4.5585938,2.8798828,2.4423828,2.9814453
2.5185547,5.7460938,3.8007812,2.8359375,2.6992188
3.09375,3.7666016,3.9804688,3.381836,3.4160156
2.4384766,3.6308594,3.5791016,2.9511719,3.7158203
3.319336,5.3115234,3.3613281,3.5205078,3.1328125
4.057617,4.1083984,2.625,2.8222656,1.5839844
2.6396484,2.9101562,2.9707031,2.4941406,1.1289062
3.2919922,2.3310547,2.6904297,2.6591797,1.8222656
3.3857422,2.796875,2.7080078,2.743164,2.352539
1.1298828,1.7080078,0.7783203,2.0673828,1.8369141
0.45898438,1.9101562,0.63378906,0.9707031,2.5996094
0.91796875,4.0615234,0.5253906,0.92285156,3.9013672
1.2666016,3.7978516,0.640625,1.3164062,2.7763672
2.9892578,2.2246094,2.4326172,2.3447266,2.086914
5.2978516,2.6689453,2.7167969,2.390625,2.484375
5.3164062,5.5273438,3.0898438,3.8242188,2.5771484
4.334961,6.446289,3.0214844,3.850586,3.2763672
4.2158203,8.119141,2.3115234,2.9921875,5.142578
4.125,7.966797,3.5546875,3.194336,6.557617
4.0595703,7.209961,3.3271484,3.9101562,6.4609375
4.399414,4.7021484,3.0947266,3.6435547,4.473633
4.625,3.6591797,3.3261719,3.2197266,2.6240234
5.3935547,6.4609375,4.529297,3.8935547,3.2646484
6.328125,7.4570312,5.376953,4.0898438,3.4492188
7.0722656,9.256836,4.6152344,4.147461,4.977539
7.6904297,8.291016,5.7539062,5.5664062,4.7460938
9.111328,10.767578,6.8896484,7.3876953,5.7353516
9.662109,14.361328,7.5527344,7.4941406,6.633789
8.355469,12.578125,6.176758,6.870117,8.072266
10.27832,11.546875,4.484375,7.279297,5.9873047
9.669922,10.107422,6.8876953,7.6845703,6.4521484
8.09082,9.313477,4.9628906,6.4003906,6.3867188
6.9609375,7.453125,4.1572266,5.0742188,5.526367
5.7246094,6.8945312,3.7197266,3.9677734,5.1708984
4.7089844,5.046875,3.5449219,3.6757812,5.397461
4.3291016,5.223633,2.5039062,2.4267578,5.6728516
2.397461,5.7490234,1.9746094,1.2412109,5.3535156
1.1396484,5.794922,2.4121094,1.3212891,5.0214844
1.6757812,6.7685547,2.6767578,1.1464844,5.4316406
2.0126953,5.8623047,1.3525391,2.5273438,4.540039
2.5341797,7.2685547,2.2695312,2.6621094,4.6015625
3.3007812,8.253906,2.0361328,3.2548828,6.013672
3.5029297,8.357422,4.3964844,3.3330078,6.4765625
4.166992,9.40625,5.970703,2.859375,6.8134766
5.2089844,9.305664,5.161133,4.8789062,6.944336
6.0185547,9.459961,4.3984375,5.3691406,6.4052734
6.0439453,8.977539,5.6123047,5.5615234,5.8134766
6.0078125,8.932617,6.098633,5.7109375,5.8271484
5.6210938,9.524414,6.676758,6.301758,5.673828
5.6992188,8.538086,7.591797,6.888672,5.942383
5.9882812,7.583008,8.010742,7.151367,6.4052734
6.625,6.392578,8.34082,7.4179688,5.748047
6.7021484,6.870117,7.9091797,7.301758,5.4033203
5.017578,7.1152344,6.3359375,5.9902344,3.6142578
4.107422,5.4501953,5.524414,5.022461,3.0205078
2.993164,4.7021484,5.263672,4.852539,2.7519531
3.444336,7.1972656,5.5615234,4.9609375,3.586914
5.225586,7.5322266,6.123047,6.053711,5.536133
5.727539,7.1591797,6.203125,6.118164,6.004883
6.446289,5.7646484,6.732422,6.3671875,5.3896484
6.607422,5.142578,5.350586,4.6601562,4.9375
4.821289,4.796875,4.4345703,4.0722656,3.5146484
3.4550781,4.0126953,4.567383,4.2246094,1.2050781
2.5761719,1.6533203,3.5917969,3.1845703,1.6865234
2.0957031,2.7949219,2.0888672,2.272461,2.2529297
3.040039,6.9335938,0.9472656,0.73828125,2.9697266
4.1054688,8.193359,2.0458984,1.7675781,5.6835938
5.53125,9.970703,3.3535156,3.8623047,5.555664
6.3222656,13.005859,4.493164,4.1376953,6.8203125
8.09668,10.482422,5.0,6.350586,8.237305
6.0810547,8.298828,6.6835938,5.270508,4.852539
4.458008,7.171875,4.185547,3.6982422,3.7460938
3.9248047,7.623047,3.415039,3.0205078,4.2890625
4.713867,7.6464844,3.7646484,3.703125,5.6708984
4.1083984,8.905273,5.7509766,5.2558594,7.0458984
3.9765625,9.079102,6.178711,5.2871094,7.9072266
4.6367188,10.388672,5.696289,5.6289062,8.831055
3.0908203,10.719727,4.796875,4.713867,8.174805
4.614258,10.427734,5.9003906,5.1689453,7.9140625
5.573242,11.317383,5.3623047,4.701172,8.536133
5.748047,11.856445,5.7060547,4.486328,9.285156
6.413086,10.766602,6.5976562,3.9375,8.666016
6.180664,11.862305,5.975586,5.263672,10.728516
5.8134766,13.413086,7.048828,6.8339844,12.56543
6.254883,13.455078,8.19043,6.194336,10.388672
5.760742,11.753906,6.8339844,4.6601562,8.208008
6.0058594,10.421875,6.227539,4.2539062,5.647461
5.6601562,10.366211,6.3564453,4.911133,6.7841797
4.90625,11.1328125,6.319336,4.8710938,6.8583984
5.328125,9.458984,6.404297,5.3720703,6.8847656
6.4628906,8.964844,6.595703,6.560547,7.567383
7.8310547,9.094727,8.290039,7.9560547,7.2070312
8.047852,8.748047,9.339844,8.083984,8.067383
6.4648438,12.443359,8.05957,7.5371094,7.7626953
6.0810547,13.310547,8.035156,8.100586,7.598633
5.8623047,13.157227,8.066406,8.305664,8.026367
5.9921875,13.803711,8.3828125,7.959961,8.689453
7.6083984,13.941406,8.31543,7.754883,10.013672
8.605469,13.689453,9.924805,9.1875,10.577148
9.448242,12.441406,9.764648,8.692383,9.925781
8.768555,11.904297,9.049805,8.261719,8.268555
7.807617,9.635742,8.172852,7.5273438,5.944336
5.7470703,8.128906,6.4589844,6.345703,4.2333984
3.9433594,6.6132812,4.6220703,5.0253906,3.6611328
2.6015625,6.3876953,3.6591797,4.2470703,3.2802734
3.053711,6.7666016,3.9414062,3.2539062,3.6611328
3.0292969,6.4404297,3.6132812,3.1611328,4.536133
3.2910156,6.6396484,4.0302734,3.3623047,4.6083984
2.1054688,5.7333984,2.4101562,2.7578125,3.0888672
1.8154297,4.0039062,3.0371094,2.359375,1.5703125
3.0205078,1.8378906,2.5859375,3.9345703,1.8046875
