"[299, 255]","[227, 248]","[287, 319]","[279, 328]","[230, 262]"
3.3876953,9.494141,3.5126953,2.796875,5.0322266
3.3779297,9.958008,4.216797,3.2011719,5.3759766
4.3554688,9.950195,5.536133,4.2373047,6.2695312
5.9492188,10.713867,7.4677734,5.6748047,7.5039062
6.685547,9.99707,7.8740234,5.7958984,7.166992
6.536133,8.863281,5.963867,6.057617,6.399414
4.4970703,8.158203,4.008789,3.6621094,4.586914
3.0664062,9.4375,4.2148438,3.5585938,4.729492
2.9316406,9.040039,4.5966797,4.7841797,5.0097656
3.2822266,8.941406,4.0351562,5.359375,5.2197266
4.3984375,9.260742,4.7939453,5.8652344,6.317383
5.348633,8.416992,5.3691406,5.9570312,6.5996094
6.4384766,7.3007812,7.0751953,6.147461,5.8876953
5.379883,6.7246094,6.2265625,6.046875,5.2734375
3.5888672,5.9921875,4.404297,3.8564453,2.9863281
3.1826172,5.7958984,4.946289,4.2177734,3.1201172
2.2314453,6.154297,4.7373047,4.330078,2.9785156
2.2460938,5.8535156,3.9335938,3.5966797,2.6826172
2.8046875,5.381836,4.5566406,4.201172,2.8261719
4.2441406,4.524414,5.147461,4.703125,4.3779297
4.798828,4.9277344,5.6708984,4.611328,4.8671875
3.5585938,6.5527344,4.286133,4.198242,4.7128906
1.9003906,6.1259766,3.4853516,2.524414,3.8847656
2.5078125,6.2021484,1.8457031,2.7519531,3.7695312
3.2998047,8.283203,1.6484375,3.0566406,4.689453
3.8935547,9.475586,3.0673828,3.8359375,6.3808594
4.790039,11.727539,2.8847656,4.9335938,7.428711
5.716797,12.25,6.4970703,6.8359375,8.722656
6.8935547,13.771484,5.5117188,5.8242188,10.0625
6.1708984,14.578125,6.288086,5.9003906,10.770508
7.1015625,16.259766,9.568359,7.4189453,11.642578
7.7509766,15.958008,8.864258,6.7695312,11.791992
7.2148438,13.009766,5.375,3.9384766,9.542969
6.59375,8.305664,4.8291016,2.71875,4.0195312
5.635742,6.819336,2.9853516,2.8701172,4.116211
4.885742,5.6416016,4.510742,4.0615234,4.982422
5.28125,7.859375,5.7226562,4.7490234,6.064453
4.0927734,10.629883,6.640625,5.78125,7.7851562
4.1289062,10.027344,6.3623047,5.044922,5.9570312
4.588867,8.439453,6.430664,6.5,6.0341797
3.9853516,9.0390625,5.3554688,4.7617188,6.080078
4.1376953,7.727539,2.9248047,3.7041016,4.9628906
4.4960938,7.0185547,4.3427734,3.741211,4.161133
5.166992,7.350586,6.395508,5.779297,5.885742
5.004883,7.1640625,6.7939453,6.5039062,6.131836
5.2226562,8.204102,5.8945312,5.493164,5.455078
2.7832031,6.3183594,4.8720703,3.5498047,3.2519531
2.897461,4.9404297,3.7158203,3.2177734,2.8095703
2.2451172,5.9960938,3.5058594,3.006836,1.6777344
1.6767578,5.4902344,3.5917969,2.7988281,1.6035156
1.6826172,4.923828,2.8886719,1.9951172,2.9658203
1.3994141,4.654297,4.8828125,2.0820312,4.029297
3.084961,4.84375,5.2998047,4.801758,4.5214844
3.5078125,5.270508,4.8222656,3.756836,4.178711
1.9501953,6.713867,3.8027344,3.09375,3.5507812
1.6875,6.7890625,2.8310547,2.8134766,4.189453
2.633789,6.3652344,2.4052734,2.6669922,3.6513672
2.9189453,5.8134766,1.0458984,2.71875,3.7109375
2.6464844,6.357422,4.8808594,2.397461,4.919922
2.5478516,6.8710938,7.069336,3.9921875,6.390625
2.1357422,6.9023438,6.0126953,3.7460938,6.201172
1.7724609,5.649414,4.5371094,3.4501953,5.024414
2.5234375,4.6621094,3.5839844,1.859375,3.7001953
2.8164062,4.399414,2.0498047,2.0136719,3.4199219
3.225586,3.0761719,1.4033203,2.46875,2.2265625
4.123047,1.2617188,1.6474609,3.1679688,1.5830078
4.2041016,1.2050781,1.6630859,3.1152344,1.6269531
3.4902344,1.1865234,2.8232422,3.663086,3.5898438
3.1679688,3.788086,3.584961,4.078125,4.7617188
2.4414062,1.3291016,2.7666016,3.2871094,2.5361328
3.9121094,1.7607422,3.8203125,3.5722656,2.7675781
5.640625,1.8847656,3.7197266,3.953125,2.6982422
5.564453,1.3916016,3.6191406,4.09375,2.65625
4.7460938,1.1289062,3.6757812,3.7558594,2.7773438
2.2763672,1.6083984,2.2607422,3.647461,1.5107422
1.5019531,1.9677734,0.99902344,3.0683594,0.6435547
1.8369141,3.2402344,1.5048828,2.6035156,2.6230469
1.4746094,2.7089844,1.8603516,2.0322266,2.3916016
3.7871094,2.6796875,3.3564453,2.9277344,2.5732422
5.9091797,3.0957031,3.4765625,3.6328125,2.6621094
5.2001953,2.3652344,3.3154297,3.7773438,2.6240234
3.7304688,2.1669922,3.3964844,3.4814453,2.2470703
1.9267578,2.618164,2.0283203,3.0234375,1.9208984
0.73828125,2.1367188,0.77441406,2.703125,0.9140625
0.9453125,3.1044922,0.6035156,1.78125,1.4423828
3.0605469,1.4169922,1.8320312,2.0439453,1.9414062
3.9853516,2.7636719,2.6357422,1.8574219,2.2841797
4.830078,3.1044922,3.3320312,2.7216797,2.7910156
4.7666016,1.7861328,3.2832031,2.8857422,2.0966797
2.0302734,1.8632812,2.9667969,2.90625,1.0478516
1.3583984,2.1748047,2.1542969,2.3183594,1.2373047
1.6015625,2.1513672,3.1230469,2.0976562,1.6005859
3.6796875,3.0546875,3.7685547,3.8828125,3.725586
3.0634766,2.2763672,2.881836,3.553711,3.6455078
5.8291016,2.8125,4.288086,3.8154297,3.0771484
7.1572266,3.147461,4.283203,4.1552734,3.4111328
6.7382812,2.8603516,4.3876953,4.0683594,3.4902344
6.0927734,2.6210938,3.8710938,4.3095703,3.288086
3.6298828,2.4570312,2.2060547,3.6298828,2.0273438
1.1953125,2.9277344,1.1142578,2.8330078,1.8408203
1.0117188,3.3984375,1.4433594,2.2685547,2.647461
1.7871094,3.9902344,2.2714844,2.0322266,3.203125
4.1464844,4.5166016,3.3261719,3.0488281,3.444336
4.629883,5.5810547,3.4550781,3.8203125,3.7861328
5.0546875,5.310547,3.8613281,4.223633,4.149414
5.5595703,5.428711,4.095703,4.9345703,4.5097656
5.0371094,6.5615234,3.1308594,4.588867,6.2597656
4.3339844,7.2714844,5.413086,3.3095703,6.9589844
3.8105469,6.4785156,6.142578,4.069336,6.455078
2.3066406,5.5771484,3.1279297,2.8339844,4.6757812
2.2060547,4.788086,1.2675781,2.2851562,3.3955078
2.1152344,5.140625,1.5146484,2.0136719,3.430664
1.515625,4.6103516,2.0410156,2.1933594,3.0742188
2.4023438,4.286133,1.8955078,2.600586,2.9453125
2.28125,2.7324219,1.8457031,3.3144531,2.3339844
3.265625,3.6240234,1.6025391,2.633789,1.4355469
4.1435547,3.9960938,2.9628906,2.9355469,2.1142578
2.8203125,4.1875,3.024414,4.095703,3.1103516
3.65625,6.6376953,3.8916016,3.618164,4.529297
4.0458984,7.390625,3.9736328,3.5585938,5.8583984
4.498047,9.768555,3.928711,2.446289,6.1220703
4.173828,9.8984375,4.629883,3.8964844,5.9658203
3.5205078,9.279297,5.9882812,5.283203,5.6289062
4.234375,7.508789,6.7851562,6.435547,6.413086
4.685547,5.8808594,6.9072266,5.2421875,5.6416016
2.6279297,4.8408203,6.3779297,4.270508,3.6699219
1.7089844,7.290039,3.6396484,2.7783203,3.8964844
2.1591797,9.313477,2.5234375,2.5673828,4.8046875
3.8544922,10.958984,3.5351562,3.9541016,5.754883
4.46875,12.625977,6.071289,5.901367,7.2314453
4.9257812,11.125977,6.645508,6.8564453,6.754883
5.7578125,9.0625,6.279297,5.7353516,6.6210938
5.185547,8.328125,5.0458984,5.192383,6.7060547
4.8847656,8.029297,5.5703125,5.5625,5.272461
3.5751953,9.1171875,4.5146484,4.517578,3.7822266
3.5078125,7.890625,3.946289,3.2470703,3.1083984
1.8662109,6.694336,3.2490234,2.5996094,3.1533203
2.055664,5.944336,2.7353516,1.7802734,2.7441406
3.0732422,6.116211,3.5351562,2.6083984,3.0751953
4.817383,7.294922,5.459961,4.3720703,4.9804688
4.430664,7.084961,5.4208984,4.3867188,5.5273438
3.4941406,8.774414,5.428711,4.2226562,5.9658203
2.890625,9.134766,4.1484375,3.1230469,4.798828
2.4892578,8.134766,3.6835938,2.5234375,4.5253906
2.8564453,7.5615234,2.961914,2.1113281,4.2382812
2.9472656,7.1757812,2.7890625,2.1904297,3.8554688
3.1738281,7.2529297,2.961914,2.9296875,4.65625
4.2685547,9.388672,5.4628906,5.4101562,7.0097656
4.379883,8.856445,5.506836,4.930664,7.6689453
3.4072266,8.209961,4.540039,4.6289062,5.698242
2.8554688,7.1679688,2.7685547,3.5673828,4.2626953
2.258789,6.211914,1.9755859,2.7841797,3.6328125
1.9736328,6.135742,2.2294922,2.7138672,3.334961
2.1728516,6.3164062,3.727539,3.3291016,3.7841797
2.2509766,5.573242,5.9716797,2.859375,3.7333984
2.5888672,5.944336,5.616211,2.578125,5.220703
2.90625,6.448242,5.5097656,3.765625,5.3466797
2.5146484,5.7490234,6.1914062,3.9589844,3.8789062
1.3447266,5.307617,3.7490234,1.8476562,3.2558594
1.4521484,5.1191406,4.1259766,2.4482422,2.4052734
2.2333984,5.8154297,3.5136719,3.546875,2.5429688
2.9189453,4.0664062,2.0742188,2.5439453,2.2041016
2.546875,3.9853516,2.1904297,2.366211,2.6835938
2.3154297,3.1572266,5.180664,4.314453,3.3984375
2.9345703,4.0507812,5.3496094,4.9179688,3.5205078
2.928711,3.1191406,4.928711,3.6435547,3.2490234
2.2392578,3.9472656,3.727539,1.9746094,2.6914062
2.5703125,4.078125,3.0019531,2.1591797,2.9726562
2.493164,3.836914,3.5957031,2.3095703,2.836914
2.491211,3.5263672,3.8027344,2.2597656,2.1816406
1.0625,2.53125,3.9482422,2.1220703,1.1162109
1.3486328,2.2451172,3.491211,2.9326172,1.7636719
1.8212891,4.6875,2.6435547,3.15625,2.7460938
2.0283203,5.3964844,2.015625,3.0283203,2.2910156
2.8740234,5.213867,2.1972656,2.0175781,2.2460938
3.836914,4.756836,1.3466797,1.4511719,2.8125
4.883789,3.5810547,1.1425781,2.3515625,3.3779297
4.8671875,2.3964844,2.6455078,2.8173828,3.3027344
5.3408203,2.1298828,2.0029297,2.2822266,2.0527344
4.823242,1.5361328,1.8515625,2.6367188,0.796875
3.7480469,3.15625,3.3398438,3.6923828,1.5361328
3.1660156,3.3496094,1.9560547,2.8652344,2.3066406
4.598633,3.5996094,2.8417969,3.2558594,2.7958984
6.1572266,3.0615234,2.9384766,3.7763672,3.1572266
6.1503906,1.8867188,2.633789,3.8964844,3.1660156
6.1796875,1.6464844,2.2460938,4.251953,3.0673828
4.989258,3.3417969,1.3408203,4.3027344,2.8144531
4.364258,3.9257812,0.87109375,3.819336,3.2802734
4.2285156,4.053711,2.071289,3.0996094,4.381836
3.2636719,3.1064453,1.5771484,2.8486328,2.7265625
3.9013672,1.9716797,2.3017578,3.3896484,3.3095703
3.6748047,1.6992188,2.4345703,3.1240234,3.6132812
2.538086,2.0195312,2.852539,2.491211,3.0751953
2.1767578,2.4042969,2.493164,2.0751953,2.2470703
3.3740234,2.3085938,2.9970703,1.5869141,1.0009766
1.4287109,2.3017578,5.1689453,1.6689453,1.1855469
1.2333984,3.149414,5.5664062,3.663086,0.89453125
2.2177734,3.3232422,6.0546875,4.4804688,1.9384766
5.7753906,1.4277344,5.8710938,3.9335938,2.3740234
6.0566406,2.0478516,4.5009766,4.401367,2.0673828
5.0146484,2.5214844,4.0273438,3.3925781,1.9892578
3.3876953,2.6777344,3.5996094,2.7988281,1.8886719
3.9033203,3.3095703,3.6748047,2.475586,1.8710938
2.9375,2.1376953,5.2910156,3.147461,1.8632812
2.5996094,1.7216797,5.760742,3.2910156,1.2675781
4.741211,1.5205078,6.7958984,3.4482422,1.9248047
6.6083984,1.4921875,6.5507812,3.4433594,2.0742188
7.520508,1.8955078,5.538086,3.491211,1.9072266
7.2939453,2.491211,4.9589844,4.3789062,2.6992188
6.415039,1.4482422,3.8408203,4.498047,1.8925781
6.529297,2.6376953,2.6894531,4.3046875,1.0644531
5.890625,6.080078,3.0205078,4.53125,4.6064453
4.2558594,4.963867,3.258789,4.1376953,4.4521484
3.7929688,4.9960938,2.7626953,2.8515625,3.5478516
4.7226562,3.7011719,2.5810547,3.0205078,2.4882812
4.484375,4.307617,2.90625,3.7783203,3.477539
5.1083984,3.8242188,2.5996094,3.5986328,3.2421875
4.006836,3.1572266,1.5898438,2.9355469,3.0546875
3.5292969,2.9765625,1.9785156,3.163086,2.7617188
2.9472656,3.6689453,2.2841797,3.1523438,3.428711
2.2832031,3.618164,2.5458984,2.1816406,2.2861328
2.6455078,2.8232422,1.8427734,1.84375,3.2626953
4.196289,2.2832031,2.5507812,1.6689453,2.7636719
5.408203,3.836914,3.2734375,2.7929688,2.5039062
6.138672,4.080078,2.9208984,3.7373047,3.1572266
6.5810547,4.2070312,2.6210938,3.5029297,3.0175781
5.5283203,2.7539062,3.2294922,3.7402344,2.515625
4.4570312,4.051758,4.114258,4.4726562,3.0576172
4.1347656,4.2304688,4.227539,5.3359375,4.0527344
3.7148438,4.7197266,2.6230469,4.3623047,4.2109375
4.310547,5.2509766,3.7207031,3.868164,4.510742
4.7695312,5.0029297,4.165039,4.2441406,3.953125
5.814453,2.1230469,4.848633,3.6054688,2.5820312
8.246094,1.7226562,4.3408203,3.3085938,2.0859375
6.9716797,5.0683594,2.991211,2.2851562,1.8359375
7.0878906,9.353516,3.1132812,1.4970703,7.1054688
4.111328,9.860352,4.607422,5.5214844,7.665039
5.9833984,7.366211,5.401367,4.8203125,3.9296875
3.6513672,5.0566406,3.0507812,3.5205078,2.2675781
2.0214844,3.1865234,2.6875,2.5957031,2.383789
