"[299, 255]","[227, 248]","[287, 319]","[279, 328]","[230, 262]"
1.5488281,9.615234,2.3466797,2.5,4.8222656
1.9599609,8.40918,3.350586,2.459961,3.6054688
1.6230469,7.1289062,2.4511719,2.7509766,3.2998047
2.7421875,7.923828,1.4316406,2.8935547,3.8417969
3.7695312,6.4033203,2.3066406,3.3935547,3.265625
5.4628906,8.625977,2.4023438,3.3378906,3.540039
5.298828,11.637695,2.8955078,2.4511719,5.2109375
2.8964844,10.181641,2.0625,1.9873047,4.201172
1.7255859,6.696289,1.8779297,2.2509766,2.765625
3.3916016,4.508789,2.1904297,1.6103516,2.0507812
2.274414,4.364258,1.9238281,2.6669922,1.9599609
1.5126953,2.319336,1.421875,2.2773438,1.8154297
1.9736328,3.765625,1.4199219,2.584961,1.9980469
2.7822266,5.6679688,1.9824219,3.4160156,2.8896484
5.111328,7.6171875,2.8671875,4.2246094,3.9189453
7.538086,8.06543,3.0488281,4.526367,3.9882812
9.056641,9.374023,3.1396484,5.198242,3.9765625
8.861328,10.4375,4.6464844,5.7421875,5.901367
11.432617,13.864258,6.489258,7.213867,9.386719
11.647461,13.605469,8.7890625,7.3691406,3.913086
6.0478516,15.78125,8.258789,8.21582,10.009766
6.4160156,15.6484375,4.3203125,5.1396484,9.152344
6.2001953,13.9765625,2.9414062,2.1455078,8.086914
4.913086,12.34375,5.1845703,3.5742188,6.4414062
4.904297,8.828125,4.8115234,3.8779297,4.368164
4.9414062,5.801758,3.2705078,3.930664,2.484375
4.4345703,4.2089844,3.196289,3.625,1.5849609
4.963867,2.8828125,2.6552734,3.4052734,0.8886719
3.6464844,4.03125,3.006836,2.678711,1.2070312
2.5478516,5.2529297,2.5410156,2.2324219,2.1601562
3.1191406,7.0429688,2.7626953,2.178711,2.5576172
1.2734375,6.192383,2.0351562,2.09375,3.0058594
2.0078125,5.6171875,1.5410156,2.8457031,2.6132812
2.2871094,5.3310547,1.9423828,2.875,2.7519531
3.3476562,6.3916016,2.4873047,3.2705078,3.5361328
4.671875,10.245117,3.2978516,4.083008,5.258789
6.9384766,11.932617,4.330078,5.7646484,6.1884766
8.448242,13.4140625,5.9921875,7.4052734,7.7158203
7.5097656,10.09082,6.953125,8.181641,5.2402344
3.2324219,8.654297,4.020508,4.3066406,4.1367188
3.444336,6.942383,2.321289,3.4453125,3.3486328
4.8242188,8.616211,2.6738281,3.5771484,4.5253906
7.3554688,7.4921875,4.2597656,4.5185547,4.638672
8.25293,10.12793,4.9921875,5.2470703,6.2089844
5.3427734,10.183594,5.751953,4.151367,4.171875
4.8789062,10.741211,5.272461,3.959961,5.388672
5.451172,8.066406,2.5732422,4.2246094,5.6679688
5.2441406,5.303711,1.4648438,2.25,2.7607422
4.7216797,7.7578125,1.3212891,1.5566406,4.114258
5.0478516,10.016602,2.6191406,1.7861328,5.6972656
5.2041016,9.364258,3.2197266,1.5712891,4.2158203
4.6396484,9.37207,4.7753906,2.3388672,4.4501953
4.9248047,10.348633,3.9414062,3.3486328,5.959961
5.4960938,10.706055,4.1953125,2.8798828,5.915039
5.208008,11.560547,3.678711,3.1503906,7.397461
5.348633,12.442383,4.7802734,2.7167969,8.485352
5.8251953,14.160156,6.2314453,4.0751953,9.944336
6.34375,15.548828,6.0439453,4.392578,8.368164
7.125,14.59082,6.3007812,4.520508,8.55957
7.7802734,16.764648,6.3066406,4.338867,9.625977
7.3808594,16.078125,6.107422,5.6689453,11.087891
6.2871094,13.203125,6.958008,5.213867,9.412109
6.0947266,14.027344,7.4414062,6.1660156,9.137695
6.6640625,13.052734,6.810547,6.029297,8.969727
6.9248047,10.930664,6.6660156,4.682617,6.6152344
6.9345703,8.782227,6.080078,4.7998047,4.544922
6.698242,7.689453,5.3740234,2.4814453,2.8671875
6.428711,5.948242,4.3583984,2.6542969,2.9189453
5.026367,6.2148438,3.1123047,1.9169922,3.290039
3.7050781,5.060547,2.7382812,1.5878906,2.6855469
2.0527344,6.305664,2.3183594,4.392578,2.0439453
1.4072266,5.0458984,2.6445312,4.4921875,2.3632812
3.038086,7.9023438,3.1064453,4.198242,7.0039062
5.1660156,11.700195,4.611328,4.301758,7.5703125
4.5117188,11.046875,4.4814453,4.6396484,8.2109375
4.2939453,11.411133,4.7177734,4.984375,8.944336
5.611328,11.451172,4.538086,5.21875,8.796875
4.7353516,10.625,4.455078,4.2695312,7.4833984
4.8759766,9.517578,4.2939453,3.694336,7.0742188
5.2998047,8.112305,3.96875,3.618164,6.0390625
4.890625,7.0185547,2.928711,3.399414,5.1132812
4.7070312,6.9658203,2.8164062,3.5917969,4.1396484
4.2353516,7.1240234,2.4501953,3.2988281,3.5830078
2.8291016,6.4189453,0.44140625,1.4628906,2.8076172
2.522461,5.506836,0.5390625,0.83203125,3.2001953
2.2548828,4.7929688,1.4511719,1.6914062,3.3808594
2.9521484,5.9453125,2.3164062,2.9707031,4.745117
2.9492188,7.095703,3.1171875,3.5810547,4.671875
3.3867188,8.548828,4.095703,4.189453,4.8359375
3.1015625,7.0097656,2.7578125,3.508789,3.7802734
2.5234375,4.5947266,2.6298828,2.6777344,2.4628906
1.9482422,1.8466797,1.4501953,2.0664062,1.1523438
1.7285156,1.4677734,1.1474609,1.8652344,1.3242188
1.8222656,2.6054688,0.94433594,1.6806641,1.6347656
2.180664,5.448242,2.0205078,2.3652344,2.3935547
2.3095703,8.163086,2.4736328,2.5576172,3.0986328
3.2207031,8.158203,2.7617188,2.9638672,4.1884766
4.5927734,9.764648,3.1230469,3.7158203,5.376953
5.5039062,10.608398,3.4589844,4.2060547,5.2216797
5.6484375,10.630859,3.3134766,4.6289062,5.928711
6.2646484,8.662109,3.8125,4.729492,5.4472656
6.5615234,7.984375,3.9501953,5.3466797,5.1152344
6.741211,10.160156,4.4121094,5.6591797,5.196289
6.711914,10.392578,4.7197266,5.555664,5.4404297
7.166992,11.28418,4.40625,6.088867,5.796875
7.9375,10.685547,4.1884766,6.4433594,5.0859375
8.876953,9.860352,5.8242188,6.4677734,3.5283203
9.271484,7.6445312,5.8710938,7.161133,2.6347656
9.327148,6.5078125,5.807617,7.123047,3.0839844
9.253906,7.0546875,5.5429688,7.333008,3.508789
9.438477,7.0615234,5.5507812,7.5839844,4.15625
9.841797,7.5078125,5.557617,8.318359,3.8144531
10.173828,8.639648,5.616211,8.060547,4.442383
10.564453,10.415039,5.763672,7.4833984,5.1416016
10.014648,12.162109,4.928711,7.671875,6.6552734
9.65625,11.665039,5.3496094,7.9833984,7.3339844
9.383789,11.661133,4.1660156,7.3789062,7.678711
9.049805,11.685547,3.8613281,7.5058594,7.977539
8.787109,8.402344,3.678711,7.3339844,6.135742
7.5966797,5.4628906,3.038086,5.666992,4.0507812
4.6640625,5.602539,2.2197266,4.180664,3.7548828
1.8876953,6.9990234,0.9423828,2.006836,3.5771484
3.8339844,6.4833984,1.1484375,1.0976562,3.1542969
4.614258,7.28125,1.4619141,0.53515625,3.8427734
4.678711,6.7646484,1.4931641,1.984375,4.2265625
3.852539,5.8564453,2.6884766,2.2021484,3.0615234
3.133789,4.9257812,2.5888672,2.9189453,2.4726562
2.7929688,5.4414062,3.0039062,2.7578125,2.7158203
1.2480469,5.4785156,2.7333984,2.3144531,3.0097656
1.5351562,5.3583984,2.5283203,2.828125,2.9365234
2.6845703,6.8583984,1.3115234,3.2363281,3.8857422
2.4794922,7.022461,1.0791016,3.1884766,4.870117
2.8916016,7.5410156,2.1679688,3.4091797,5.798828
3.9892578,8.923828,1.84375,3.4189453,5.756836
4.883789,10.3515625,3.5810547,4.2060547,6.216797
5.6396484,11.078125,4.2714844,4.823242,6.875
6.8066406,13.029297,5.6376953,5.9296875,8.645508
8.616211,15.1171875,5.689453,7.361328,9.694336
10.056641,14.609375,6.5625,8.025391,10.652344
9.385742,8.532227,6.6689453,6.6435547,6.790039
5.359375,9.5,3.711914,4.2626953,6.6835938
4.3046875,10.75,4.046875,3.3847656,5.4746094
4.352539,11.255859,5.3222656,4.3066406,5.5947266
3.9257812,11.665039,4.4179688,3.3378906,7.6220703
4.1777344,11.87207,5.1035156,3.7314453,6.408203
4.411133,10.354492,4.540039,3.4833984,5.3066406
3.875,9.349609,4.609375,2.9609375,3.8720703
2.8964844,9.3515625,4.4921875,2.8740234,4.6259766
4.475586,9.462891,3.7851562,3.678711,6.2148438
3.3945312,9.030273,3.9765625,3.1220703,4.5126953
3.336914,9.311523,4.1376953,3.2382812,4.291992
3.1992188,8.458984,4.736328,3.4394531,4.015625
3.9375,8.737305,4.1914062,3.3613281,4.6601562
4.8945312,11.626953,3.5478516,4.0947266,7.5097656
5.921875,13.860352,5.6533203,4.685547,10.238281
6.609375,14.454102,7.8623047,4.6376953,10.270508
6.3896484,15.045898,7.970703,4.669922,10.899414
6.7041016,14.530273,8.65625,6.491211,11.004883
7.408203,14.515625,8.37207,6.623047,10.337891
8.3203125,15.182617,7.557617,5.998047,10.916016
8.636719,13.369141,7.908203,6.861328,9.40625
8.435547,7.385742,7.3847656,5.8779297,4.7070312
6.1689453,4.401367,3.9199219,4.243164,2.5732422
4.3408203,3.9667969,1.7333984,3.0390625,2.8320312
2.0820312,6.4697266,3.3964844,1.7753906,5.2314453
1.3945312,8.591797,3.008789,2.6210938,4.8242188
2.5097656,6.4365234,3.1230469,2.5039062,2.8984375
2.5625,4.176758,3.006836,1.9443359,2.5332031
1.7392578,4.560547,3.6679688,1.9013672,2.131836
2.1513672,6.0966797,2.2539062,2.8564453,2.4394531
3.2695312,7.930664,2.0742188,3.2529297,4.1503906
4.7128906,12.146484,3.3359375,4.3251953,7.1035156
6.8808594,13.658203,5.9257812,6.4746094,8.850586
6.78125,11.319336,6.705078,6.489258,6.0742188
4.817383,11.990234,5.5234375,3.5722656,6.7558594
5.1396484,14.458984,6.720703,4.4160156,8.533203
6.2695312,14.191406,7.138672,4.817383,8.543945
5.4648438,13.685547,6.326172,4.1289062,7.823242
5.401367,12.350586,5.2460938,3.3955078,6.953125
5.760742,11.861328,5.3720703,3.8876953,7.6875
5.4833984,12.943359,6.6464844,5.5566406,9.0
5.4677734,13.099609,5.973633,5.8515625,7.8789062
6.100586,14.594727,7.1777344,6.8671875,8.331055
5.3671875,15.496094,6.8271484,6.645508,9.604492
5.569336,16.06543,6.916992,4.8447266,9.576172
5.5322266,15.045898,7.5029297,5.810547,9.467773
5.109375,14.84082,5.3203125,3.9941406,8.792969
5.357422,13.989258,5.5810547,4.620117,8.353516
5.7929688,12.957031,4.9765625,4.923828,7.564453
5.586914,11.318359,3.7792969,3.9697266,6.435547
5.366211,10.193359,3.6826172,2.8076172,4.5166016
5.038086,9.314453,3.6728516,2.7314453,4.8085938
4.4589844,9.0859375,2.9316406,3.3828125,3.8583984
5.791992,12.1328125,4.951172,4.796875,6.5615234
7.8583984,15.025391,4.986328,6.328125,8.246094
9.958008,13.65332,7.1884766,7.8984375,7.810547
9.2578125,9.646484,8.458008,8.724609,5.4658203
5.3095703,9.910156,6.6679688,5.8154297,4.5351562
3.7041016,10.055664,3.5576172,2.991211,4.5302734
3.5195312,8.4609375,2.8798828,2.5761719,3.8183594
4.026367,7.9208984,1.8984375,2.3896484,3.0839844
5.0273438,8.011719,2.4433594,3.1875,3.734375
5.2490234,5.5664062,2.6123047,2.8496094,3.196289
3.6552734,11.374023,4.109375,1.6142578,4.366211
3.0078125,12.084961,2.5644531,1.5576172,7.239258
4.578125,11.651367,1.9355469,2.006836,6.796875
6.9648438,10.703125,5.8291016,1.8955078,5.5214844
4.6777344,8.146484,5.0654297,0.8623047,4.817383
3.1015625,7.2333984,4.6435547,1.0732422,3.430664
4.435547,5.720703,4.8339844,3.0488281,3.194336
5.642578,4.383789,4.526367,4.498047,2.7597656
6.020508,4.5351562,5.2773438,5.6171875,3.3427734
5.6083984,4.9101562,4.834961,5.9941406,3.6074219
5.928711,8.324219,4.658203,6.006836,4.3134766
7.2060547,7.0,4.745117,6.5820312,3.9179688
6.491211,8.791016,4.4248047,5.944336,3.6572266
3.7373047,8.137695,4.1816406,5.041992,3.8007812
3.5996094,8.439453,2.6230469,4.401367,3.647461
3.6601562,8.662109,2.6445312,3.4111328,3.6982422
3.1894531,9.149414,4.3339844,2.272461,4.5703125
3.8583984,9.736328,4.0654297,2.8408203,5.774414
3.928711,10.079102,4.6777344,3.3642578,5.602539
4.041992,11.431641,4.4882812,3.5205078,6.2871094
4.5234375,13.331055,4.923828,3.7480469,8.030273
5.2841797,13.02832,5.9501953,4.0507812,7.807617
5.444336,11.119141,3.7851562,2.9013672,6.508789
4.4091797,13.379883,2.8359375,3.3447266,7.317383
5.4052734,13.21875,5.673828,5.1376953,8.3828125
7.263672,13.073242,5.0703125,4.716797,9.060547
6.1884766,14.819336,4.114258,2.8222656,9.59668
4.758789,17.469727,2.2041016,2.1689453,11.080078
2.6132812,14.455078,1.7373047,4.111328,7.9296875
2.649414,10.28125,5.486328,6.9375,6.1279297
3.6230469,7.2841797,4.2021484,5.1464844,5.9765625
5.9316406,8.754883,3.0302734,2.9736328,6.7285156
5.817383,4.8242188,3.5878906,0.6689453,6.2939453
5.5966797,4.5898438,5.017578,1.4697266,5.8759766
5.3046875,6.8095703,3.4013672,2.1464844,4.666992
5.1210938,7.9296875,2.6103516,2.3007812,4.1757812
5.4648438,7.904297,2.6503906,2.4824219,2.8144531
