"[299, 255]","[227, 248]","[287, 319]","[279, 328]","[230, 262]"
5.8291016,11.017578,2.1376953,2.3769531,4.7714844
4.666992,6.6435547,3.2939453,2.584961,5.725586
4.03125,9.822266,1.9697266,2.6835938,6.4882812
3.9902344,9.467773,2.428711,5.6464844,6.426758
4.8964844,7.645508,2.9667969,2.9394531,7.0527344
4.645508,9.542969,3.2685547,7.2929688,7.401367
4.0908203,8.396484,7.946289,7.7060547,7.161133
5.6064453,7.084961,9.118164,11.56543,6.9814453
7.435547,10.464844,9.62207,7.680664,11.111328
9.138672,14.396484,6.4658203,6.711914,11.626953
9.501953,16.011719,4.7382812,6.473633,11.462891
10.423828,16.664062,4.1064453,6.9472656,10.738281
11.975586,16.8125,7.669922,7.5039062,9.661133
10.59082,13.959961,8.026367,5.1191406,10.758789
7.428711,12.28125,6.0751953,3.1435547,9.707031
11.311523,11.794922,5.194336,3.390625,8.706055
10.887695,10.955078,4.2666016,2.852539,8.213867
10.263672,7.6933594,3.2822266,2.538086,7.9101562
8.671875,5.4541016,2.9023438,2.9101562,6.671875
7.1367188,4.5126953,3.6923828,1.6660156,6.6533203
4.870117,3.5996094,4.885742,1.2001953,5.916992
2.7695312,3.8242188,2.9326172,1.9326172,4.006836
2.3222656,4.696289,1.7050781,1.7001953,3.0166016
1.6113281,3.0429688,1.59375,1.5576172,2.9541016
2.3779297,2.4423828,2.0419922,1.4150391,2.2226562
2.6777344,2.4853516,1.3027344,1.265625,2.069336
2.569336,2.6699219,1.2109375,1.8486328,1.1220703
2.055664,2.7236328,0.32714844,0.9609375,0.6640625
1.5927734,1.9091797,0.91796875,0.484375,1.4453125
1.8720703,2.34375,1.5009766,1.6445312,1.3271484
2.1425781,2.6875,1.7841797,1.4550781,1.4238281
1.7451172,2.680664,1.5537109,2.069336,1.53125
1.9130859,1.9052734,1.1152344,1.9082031,1.8818359
2.0517578,1.4091797,0.99902344,1.6523438,1.7675781
1.9658203,1.5537109,1.9785156,1.4326172,2.3242188
1.2421875,4.0878906,1.1396484,0.53125,2.9990234
1.5390625,5.6523438,1.9775391,1.0537109,3.7314453
2.3300781,7.008789,1.7041016,1.3261719,3.8144531
2.0371094,7.6191406,1.2597656,1.9833984,3.5419922
2.2841797,7.330078,2.2167969,2.4716797,2.8154297
2.6191406,3.6601562,2.546875,3.0,2.4335938
2.4726562,5.317383,3.8740234,3.9042969,4.084961
2.203125,7.8691406,3.9326172,3.8203125,4.6376953
3.1855469,8.222656,3.984375,4.2041016,5.8359375
4.890625,6.6054688,4.310547,4.583008,5.2089844
4.041992,7.1435547,4.0966797,3.9042969,4.9697266
3.0947266,6.501953,3.5136719,3.2734375,4.209961
3.3867188,5.1816406,3.1689453,2.8613281,3.5107422
1.8847656,2.5878906,1.9716797,2.5654297,2.600586
2.3447266,1.8398438,1.3154297,2.0351562,2.2207031
2.2998047,1.8896484,1.4511719,2.288086,2.178711
0.9609375,3.8144531,1.2802734,2.2832031,2.4794922
1.8818359,4.638672,4.373047,2.9785156,4.3007812
2.7919922,7.963867,4.3115234,3.1748047,4.8271484
3.5058594,9.845703,6.4189453,3.7333984,5.8740234
4.1728516,10.533203,8.896484,4.9277344,6.515625
4.716797,10.954102,9.517578,4.727539,7.463867
5.2773438,11.107422,7.3759766,6.314453,7.897461
5.09375,10.538086,7.7373047,5.114258,7.7558594
5.658203,10.274414,7.0351562,3.6132812,7.4785156
5.1748047,10.261719,6.495117,5.225586,7.0927734
4.911133,9.193359,8.161133,6.330078,6.354492
4.185547,9.652344,7.2734375,6.9990234,6.576172
4.373047,10.012695,8.151367,6.6445312,7.138672
4.169922,10.3203125,7.975586,5.213867,7.395508
4.763672,10.157227,7.654297,5.34375,6.9716797
4.368164,9.948242,6.8164062,5.7558594,6.6367188
4.484375,10.661133,7.635742,6.1757812,7.732422
4.973633,12.110352,9.999023,7.0117188,8.643555
5.2910156,12.740234,11.2109375,7.7714844,8.708008
6.213867,14.1171875,10.80957,7.1347656,10.083984
8.353516,16.05664,10.439453,7.9628906,11.920898
9.240234,17.390625,10.955078,9.868164,13.086914
10.071289,18.347656,12.558594,10.831055,13.105469
10.102539,14.433594,9.395508,7.739258,9.448242
7.7470703,10.397461,9.391602,8.6953125,9.008789
8.145508,10.697266,10.911133,9.490234,8.8046875
5.9677734,9.646484,8.189453,7.854492,7.491211
4.790039,12.34375,6.939453,5.6347656,7.1396484
5.416992,12.954102,7.15625,7.223633,8.084961
5.8066406,13.453125,8.0234375,8.253906,8.297852
6.0595703,12.489258,6.665039,8.066406,7.6914062
5.703125,12.586914,8.026367,8.032227,8.1953125
6.2685547,13.7265625,7.4453125,7.9384766,9.294922
7.3896484,13.486328,8.893555,7.861328,8.90625
6.0771484,12.022461,5.448242,5.7001953,7.0302734
5.245117,13.038086,4.7001953,4.538086,7.4628906
5.544922,12.925781,4.413086,4.154297,7.796875
6.173828,11.197266,4.555664,3.984375,6.6347656
3.8544922,8.0703125,5.006836,3.4384766,4.7734375
2.8857422,7.8310547,4.3115234,2.8554688,3.9589844
3.2304688,8.818359,3.5878906,3.8144531,5.995117
4.7734375,8.526367,5.6796875,4.283203,6.091797
3.6572266,10.388672,3.6738281,3.3027344,6.357422
3.1132812,11.667969,3.3125,3.5800781,5.5859375
2.7851562,11.199219,1.9667969,3.0205078,5.989258
2.5332031,9.837891,2.243164,1.8535156,5.6679688
2.8183594,7.788086,1.4345703,1.2617188,4.205078
1.640625,8.347656,1.96875,1.5371094,3.4345703
2.1621094,7.4804688,2.0517578,2.15625,4.408203
2.665039,7.1289062,3.1826172,3.0195312,4.086914
2.3623047,4.348633,3.2216797,2.4707031,3.1054688
1.9638672,5.017578,2.319336,2.3300781,2.5527344
1.6972656,5.942383,1.8320312,2.118164,2.71875
1.6083984,5.786133,0.8964844,2.5361328,3.1572266
2.1835938,5.3945312,1.1367188,2.555664,2.9550781
2.5566406,5.7890625,2.665039,2.6464844,2.7988281
2.8291016,8.487305,3.2080078,2.522461,4.5097656
4.5273438,10.650391,4.9726562,4.0966797,7.1240234
5.9648438,11.280273,7.2421875,4.9677734,8.307617
5.8603516,12.033203,8.588867,6.727539,8.139648
6.048828,13.467773,10.669922,9.553711,9.8046875
7.1484375,13.720703,11.864258,9.520508,10.46582
8.808594,15.021484,11.22168,9.175781,11.205078
8.740234,16.47461,9.362305,9.678711,11.208984
9.739258,17.95996,9.97168,9.87793,12.520508
10.533203,18.737305,11.402344,10.956055,13.355469
11.615234,19.239258,11.948242,10.631836,13.930664
10.886719,18.808594,9.334961,6.977539,12.990234
9.884766,10.793945,5.1083984,4.5927734,6.1220703
5.493164,9.936523,5.7353516,4.4003906,5.8623047
5.4335938,11.563477,7.748047,5.060547,7.1748047
5.201172,12.354492,6.333008,5.2958984,6.423828
6.123047,12.634766,6.6875,6.678711,9.577148
6.390625,13.310547,7.727539,6.4560547,10.896484
6.176758,13.19043,8.163086,5.9208984,9.049805
6.100586,11.984375,5.9033203,3.7695312,7.4453125
4.9833984,10.7109375,3.4726562,2.3632812,6.6835938
3.852539,10.794922,2.8017578,3.9648438,6.0498047
2.8242188,11.37207,4.9746094,5.8134766,8.766602
4.8515625,11.785156,5.5253906,5.1328125,8.407227
5.1210938,10.74707,5.5898438,5.1171875,7.796875
4.8808594,10.415039,5.024414,5.9160156,7.9589844
4.8164062,10.849609,4.5966797,4.463867,7.5566406
3.21875,9.972656,3.4960938,4.8535156,6.4335938
2.6894531,9.59668,5.0546875,5.4726562,7.3476562
3.1953125,10.606445,5.564453,5.3466797,7.751953
3.272461,11.46875,5.0810547,5.5625,7.991211
3.1503906,9.72168,4.055664,4.838867,7.2773438
4.2070312,11.477539,5.192383,5.286133,7.336914
4.725586,11.12207,5.748047,5.178711,8.0234375
4.2265625,10.15625,4.2929688,4.774414,7.5429688
2.5830078,8.72168,3.178711,3.696289,6.1533203
1.6777344,6.998047,2.8076172,3.1386719,5.3564453
0.7548828,7.0966797,2.6123047,2.6777344,3.4433594
1.7197266,4.588867,1.7519531,2.3876953,3.006836
1.40625,1.7138672,1.5126953,1.3769531,2.5166016
1.9726562,5.145508,0.98535156,1.4755859,4.3720703
4.176758,4.486328,2.368164,3.2304688,4.086914
2.9345703,4.901367,3.1054688,3.0595703,3.4951172
1.9619141,4.4609375,3.484375,2.9296875,1.9316406
2.578125,4.1328125,2.8095703,2.3925781,2.163086
2.805664,3.9589844,1.1464844,2.3671875,2.5214844
2.578125,4.682617,2.9160156,2.0644531,2.9121094
2.3535156,4.6289062,2.6298828,1.9267578,2.5820312
2.0986328,7.7441406,0.4658203,1.0449219,5.1816406
2.4951172,8.8359375,1.6289062,1.7900391,5.129883
1.9111328,8.322266,2.7304688,2.6035156,4.5009766
2.7851562,6.2001953,2.5078125,2.7529297,3.0898438
1.6025391,5.991211,2.1044922,2.3173828,2.7138672
0.9970703,6.1445312,1.8271484,1.3417969,2.9013672
1.4658203,7.9814453,1.5390625,2.180664,4.296875
1.4130859,9.819336,0.94921875,1.6113281,3.8544922
1.1074219,8.260742,1.4414062,1.0859375,2.538086
2.3554688,6.995117,2.9394531,2.2861328,3.4960938
2.5332031,5.8759766,2.75,2.640625,3.2470703
2.46875,4.6083984,2.6445312,2.975586,2.6699219
2.1503906,7.7910156,2.3466797,1.6845703,4.25
2.953125,8.615234,2.4960938,2.9521484,4.4072266
3.2138672,9.280273,3.397461,3.9023438,4.408203
3.024414,7.6708984,2.0283203,3.6865234,3.5751953
3.7402344,6.5810547,2.3144531,4.676758,4.5615234
4.665039,5.984375,5.053711,5.515625,5.15625
3.9921875,6.2148438,4.2089844,4.3154297,3.6796875
3.3564453,5.442383,4.109375,4.336914,3.4667969
3.0029297,6.017578,2.90625,4.0371094,3.1484375
2.6835938,5.495117,1.140625,3.9804688,2.6386719
2.3496094,2.4257812,2.1708984,4.041992,2.4208984
2.368164,3.5097656,2.1054688,3.5888672,2.1074219
2.5771484,3.3603516,1.3994141,3.3847656,3.1748047
3.2734375,4.2929688,2.9160156,3.1308594,3.6845703
3.709961,4.8671875,3.0732422,2.4960938,3.0927734
2.1777344,5.0898438,2.5859375,2.4423828,2.3779297
1.09375,3.1171875,2.4814453,2.3564453,2.5644531
1.2949219,4.1689453,2.34375,2.5703125,2.7705078
0.7128906,3.8945312,1.8769531,2.8251953,1.9423828
0.62109375,2.0126953,0.73535156,2.0878906,1.7587891
0.57714844,2.0800781,0.85253906,0.3955078,2.7529297
1.5527344,3.319336,1.4716797,1.0009766,4.3691406
2.3457031,5.0683594,1.4863281,1.7216797,5.7177734
5.1748047,6.6279297,2.6367188,2.725586,6.979492
8.040039,5.9873047,3.2314453,1.7451172,8.744141
10.021484,8.694336,3.6347656,0.8486328,10.325195
11.857422,10.647461,5.0947266,2.7998047,12.222656
13.34668,13.15332,6.708008,4.1308594,13.325195
14.228516,16.998047,8.495117,7.2695312,13.693359
13.84375,12.050781,9.228516,7.1445312,13.6484375
13.441406,9.161133,8.192383,6.0996094,12.753906
13.630859,8.082031,7.602539,5.7070312,11.081055
11.981445,6.7802734,6.3789062,4.6914062,10.048828
10.271484,5.029297,5.4277344,4.3535156,8.458984
8.875,4.3027344,4.0527344,3.0654297,6.979492
4.189453,4.392578,3.2451172,2.6884766,5.680664
4.397461,5.8847656,4.3867188,4.0195312,3.5820312
6.4345703,6.948242,4.854492,5.314453,2.734375
6.673828,8.782227,4.3242188,5.364258,2.8574219
7.3359375,6.169922,4.419922,5.7958984,2.9199219
7.669922,6.8320312,4.8896484,6.470703,3.2060547
8.532227,8.464844,6.1064453,6.7021484,5.8134766
9.615234,10.921875,7.546875,6.216797,8.669922
9.731445,12.623047,6.7871094,4.7646484,8.314453
10.051758,8.181641,6.3652344,4.9335938,6.8896484
5.602539,2.8701172,4.395508,3.5859375,5.7001953
3.616211,3.381836,4.6640625,3.1230469,3.1816406
4.3408203,4.4501953,4.533203,3.0234375,1.9433594
5.651367,2.4042969,3.6992188,1.9111328,2.9257812
5.4179688,3.1699219,4.1083984,2.0166016,2.9013672
5.6601562,4.9785156,4.4804688,3.4404297,2.71875
7.2314453,7.810547,4.7773438,4.892578,3.758789
8.619141,12.03125,7.2353516,8.166992,6.932617
10.826172,12.941406,8.158203,8.532227,8.391602
5.651367,11.524414,8.009766,9.142578,7.6914062
3.883789,10.641602,5.4033203,5.4257812,6.326172
4.0429688,9.052734,4.3164062,3.352539,4.826172
3.0195312,7.6445312,4.5039062,3.3222656,3.711914
2.78125,8.630859,4.9248047,2.8017578,4.6679688
3.4560547,11.152344,3.2441406,2.3476562,7.366211
5.1679688,14.005859,3.772461,5.3242188,8.802734
4.2060547,12.15625,4.7148438,6.397461,9.546875
5.060547,11.056641,5.1464844,5.209961,7.8691406
3.6191406,7.1054688,3.6699219,3.9267578,3.8798828
2.5058594,5.8291016,2.961914,4.5683594,3.6728516
2.5058594,7.1220703,2.4960938,4.286133,3.8701172
2.4863281,9.474609,3.1484375,4.208008,5.680664
2.2792969,9.8359375,2.1894531,3.163086,5.341797
5.0898438,9.597656,3.9189453,5.125,6.6875
6.185547,8.825195,5.5585938,5.3632812,6.1933594
5.9472656,7.5527344,4.5351562,4.7148438,5.1591797
3.8125,8.125,2.2148438,3.3857422,4.2695312
2.366211,8.189453,2.71875,3.1855469,3.8203125
