"[299, 255]","[227, 248]","[287, 319]","[279, 328]","[230, 262]"
6.614258,4.8867188,3.453125,3.8027344,3.3261719
7.963867,4.576172,4.6396484,4.385742,5.364258
7.765625,4.9814453,6.1015625,4.3310547,6.336914
8.432617,4.201172,6.8125,3.1279297,7.5546875
7.783203,5.350586,6.654297,2.9111328,6.4658203
7.8896484,4.9179688,7.623047,5.138672,5.6972656
7.4228516,3.5,8.186523,5.946289,6.2314453
6.881836,3.6259766,6.9208984,5.553711,6.370117
7.517578,3.8183594,5.2753906,4.376953,6.419922
8.600586,3.6425781,5.0097656,3.3388672,6.595703
7.8203125,4.9023438,5.9052734,2.5703125,5.4033203
6.5742188,4.6884766,6.6347656,1.2597656,5.1796875
5.473633,1.4257812,5.5458984,0.91015625,3.1523438
3.3925781,3.5820312,5.7666016,1.5029297,1.625
3.0927734,4.3339844,4.149414,1.4140625,2.5283203
3.6132812,4.890625,3.0214844,2.0634766,2.8310547
3.5195312,6.024414,1.6513672,2.1728516,3.0419922
3.6035156,6.430664,1.3730469,2.265625,4.5009766
3.5117188,7.0908203,1.796875,2.8935547,3.194336
4.3398438,6.760742,1.9912109,3.953125,3.4746094
5.3447266,6.658203,3.1074219,3.7089844,3.5449219
6.791992,7.848633,3.352539,3.6611328,4.5839844
8.005859,9.6484375,4.1591797,4.5722656,6.8447266
9.272461,11.060547,6.080078,5.868164,7.0029297
10.644531,13.4140625,8.355469,7.7246094,8.624023
11.819336,10.181641,9.673828,8.821289,9.863281
11.097656,11.514648,8.922852,8.246094,6.336914
7.861328,7.604492,7.1503906,6.448242,4.584961
3.8496094,6.8876953,5.0546875,5.7382812,5.4072266
4.569336,5.8125,2.4257812,3.821289,4.703125
5.9033203,6.830078,3.3134766,3.1875,3.4941406
6.419922,9.333984,2.5664062,3.6357422,4.0771484
6.459961,9.4375,4.6689453,4.1171875,4.163086
6.176758,9.087891,5.1376953,3.584961,5.2382812
5.998047,8.500977,4.413086,3.1845703,5.2060547
5.7353516,9.583008,4.7939453,3.4101562,5.274414
6.107422,8.77832,4.9960938,3.9863281,5.7333984
6.5498047,7.104492,4.4746094,3.7001953,4.2617188
6.368164,6.4765625,4.2841797,3.1894531,4.0654297
5.4033203,5.6132812,2.3271484,3.3984375,4.6796875
4.6035156,5.8134766,3.6953125,3.524414,3.2939453
4.2558594,7.796875,3.821289,3.8828125,3.9873047
4.4697266,7.838867,3.9785156,3.227539,3.381836
4.013672,8.286133,3.6933594,2.4072266,4.3359375
4.2216797,7.595703,4.2226562,3.4892578,4.0371094
4.4365234,8.829102,2.9335938,3.6455078,4.1572266
6.5585938,9.829102,3.7011719,4.1416016,5.0410156
9.010742,11.387695,3.9667969,5.145508,6.7216797
7.8808594,9.685547,5.397461,5.602539,4.241211
9.155273,6.4541016,3.9414062,4.8359375,2.836914
9.381836,11.262695,2.7978516,2.4335938,5.6777344
8.396484,12.618164,2.1953125,2.8759766,8.691406
6.3828125,9.745117,4.044922,2.272461,5.7441406
4.6416016,7.0058594,6.254883,4.319336,3.6992188
5.491211,9.099609,5.234375,3.508789,3.2910156
6.1376953,7.6103516,2.40625,2.7519531,2.5302734
6.350586,6.6796875,1.1640625,2.4814453,1.6835938
5.1572266,4.0410156,1.2392578,2.5019531,1.3007812
4.158203,3.9423828,1.7119141,2.3232422,2.008789
3.600586,3.883789,1.2587891,2.0029297,1.5810547
3.703125,2.5292969,1.1113281,1.7304688,2.1123047
3.2324219,6.767578,1.2285156,1.5263672,2.6757812
3.633789,7.3515625,1.1943359,1.4472656,3.3251953
4.620117,9.231445,0.81347656,1.453125,4.1054688
2.8779297,9.061523,1.6083984,1.9980469,4.154297
3.5908203,8.220703,2.2304688,2.7314453,3.4140625
3.3916016,6.453125,4.0117188,2.319336,3.1083984
3.5078125,5.676758,2.3535156,2.2451172,2.6601562
4.4140625,6.2626953,3.0419922,2.2949219,2.866211
4.395508,4.1972656,2.8574219,3.0527344,2.4277344
4.4970703,4.352539,3.2949219,2.928711,2.7490234
7.7285156,6.8085938,4.4970703,2.586914,5.0478516
7.805664,12.422852,3.024414,2.243164,6.5996094
4.301758,10.824219,3.1689453,3.5136719,6.9726562
3.6767578,9.947266,4.310547,5.3828125,6.961914
5.2265625,10.095703,4.966797,6.0351562,6.8896484
5.6289062,8.016602,5.8095703,5.4257812,5.229492
4.4472656,6.1240234,4.8779297,4.3759766,2.9960938
2.600586,5.3095703,4.1210938,3.0429688,2.2158203
0.99609375,2.350586,2.6308594,2.3457031,2.0947266
1.1806641,5.501953,2.850586,2.5419922,2.4882812
2.4335938,7.953125,2.65625,2.9667969,3.8789062
3.1923828,11.166016,4.100586,2.9824219,5.7646484
4.3378906,12.475586,4.125,2.9628906,7.354492
5.1904297,13.720703,5.8984375,3.5859375,8.1015625
5.348633,13.046875,6.8164062,5.0117188,6.6953125
5.225586,10.348633,5.0507812,3.678711,5.649414
6.9345703,13.878906,4.426758,4.3222656,8.795898
10.046875,16.316406,7.6992188,5.8779297,11.608398
10.161133,13.683594,9.28418,5.926758,10.125977
7.616211,13.592773,8.606445,6.1523438,10.470703
6.8378906,14.640625,9.248047,6.725586,10.563477
6.4179688,14.9921875,9.260742,7.727539,10.251953
6.1552734,14.423828,7.890625,6.9277344,9.446289
5.9814453,12.426758,6.040039,6.133789,8.413086
6.6367188,11.6484375,6.013672,4.7197266,7.8984375
5.6503906,11.837891,6.1728516,4.727539,7.301758
5.7441406,12.926758,6.899414,4.6035156,8.758789
6.7978516,15.206055,7.1748047,5.1367188,9.673828
7.7304688,12.022461,8.041992,5.754883,7.491211
5.836914,11.50293,7.147461,6.008789,7.4785156
5.745117,12.5234375,7.138672,5.955078,7.208008
5.1015625,12.574219,7.022461,5.6035156,7.1835938
4.9296875,12.908203,6.2666016,5.395508,7.4345703
4.8134766,12.362305,5.3535156,4.620117,6.838867
5.0429688,13.788086,6.1376953,6.2460938,8.314453
5.600586,15.050781,7.241211,6.4960938,8.549805
6.4521484,14.333008,6.958008,6.745117,8.833008
5.9921875,14.967773,9.032227,8.229492,9.46875
6.0439453,16.511719,8.793945,8.258789,10.824219
7.923828,18.486328,10.615234,9.609375,12.431641
9.69043,19.694336,11.464844,9.983398,13.646484
10.383789,18.292969,8.892578,7.6884766,12.517578
9.501953,16.019531,8.326172,8.183594,10.589844
7.814453,14.113281,7.8564453,7.723633,9.134766
7.4296875,12.459961,6.7265625,5.8945312,8.4453125
7.067383,10.995117,7.703125,6.158203,7.861328
5.513672,10.672852,6.3242188,5.5166016,6.765625
5.1396484,10.530273,6.0195312,3.9697266,6.7128906
4.2929688,11.643555,4.0927734,4.0146484,7.7939453
3.6699219,12.201172,1.9140625,3.1201172,5.213867
2.038086,6.7333984,2.3144531,2.9453125,2.6865234
1.6240234,7.7158203,1.6894531,2.850586,3.296875
1.7529297,6.9765625,2.1396484,3.2285156,2.9169922
3.2167969,5.2041016,2.5048828,3.9326172,3.3730469
2.803711,6.803711,3.5751953,4.006836,4.1572266
2.1230469,7.779297,2.8574219,4.4316406,3.9990234
2.9042969,7.5009766,1.5136719,4.9023438,4.4091797
3.180664,9.115234,3.5878906,4.6015625,4.2734375
2.3759766,8.1953125,4.064453,3.8261719,4.6660156
1.8017578,7.6601562,3.6992188,3.2832031,4.0097656
1.6894531,4.3408203,2.819336,2.4482422,2.4794922
1.3017578,1.8085938,1.6191406,1.1474609,2.6455078
1.3291016,3.7529297,2.0898438,2.5654297,2.4707031
2.8066406,7.151367,2.6533203,3.3017578,3.4277344
4.444336,12.207031,3.2919922,4.4804688,5.916992
7.046875,16.734375,5.8007812,6.1816406,10.051758
10.069336,16.288086,7.6552734,8.647461,10.368164
8.452148,13.614258,8.02832,6.4882812,7.705078
5.5527344,14.197266,5.767578,3.7792969,9.19043
6.946289,13.607422,7.116211,6.6289062,9.433594
6.1289062,13.374023,7.461914,6.7216797,7.1953125
5.3896484,12.989258,7.520508,5.669922,6.9365234
5.5117188,12.099609,6.4902344,6.2646484,6.748047
5.345703,11.819336,6.1445312,5.482422,6.196289
4.8271484,9.322266,6.1757812,4.7109375,4.8759766
3.9414062,4.8408203,5.073242,3.5517578,4.600586
2.6289062,3.0732422,4.6777344,3.805664,3.140625
2.9423828,5.6347656,4.3339844,3.413086,3.2509766
2.8876953,5.182617,4.3632812,2.7353516,2.109375
3.1640625,3.1054688,3.9716797,2.5917969,1.53125
5.010742,5.805664,1.6884766,2.2978516,2.765625
6.8007812,12.048828,2.0898438,2.897461,6.506836
6.4208984,12.013672,3.4472656,2.9404297,6.6347656
4.791992,12.24707,4.4140625,3.5185547,6.135742
4.5166016,12.258789,5.0751953,3.6542969,6.2226562
5.5390625,11.27832,5.086914,4.7783203,6.6279297
4.5976562,9.553711,4.727539,4.9873047,4.7353516
3.803711,8.444336,5.334961,3.6728516,3.8544922
3.9560547,5.7773438,4.6289062,3.6015625,2.3466797
4.3359375,7.8134766,4.1689453,3.4863281,3.743164
4.3720703,9.092773,2.5585938,3.3603516,3.8447266
8.055664,8.619141,3.0332031,3.8144531,8.165039
12.686523,9.267578,6.6484375,5.2773438,9.988281
9.915039,12.263672,9.495117,5.1376953,6.1171875
6.708008,12.413086,8.676758,5.671875,9.055664
7.6904297,9.901367,6.413086,6.423828,7.7695312
8.075195,12.182617,6.3623047,5.416992,6.2382812
9.037109,17.370117,6.7646484,3.6425781,11.193359
10.086914,17.25293,8.5859375,6.267578,11.943359
10.830078,15.235352,11.082031,9.651367,10.527344
9.894531,15.083008,11.889648,11.0546875,9.902344
9.697266,14.120117,11.420898,10.939453,9.34668
7.9023438,11.238281,9.02832,8.057617,6.5615234
5.408203,8.388672,6.3359375,5.4521484,3.9814453
3.3417969,6.489258,4.5751953,3.8457031,2.8945312
2.7666016,6.569336,4.5166016,3.084961,3.3564453
3.8017578,11.419922,2.4013672,3.4277344,6.9921875
6.504883,11.544922,2.9355469,5.470703,8.077148
6.5009766,10.338867,3.5966797,5.5683594,8.118164
5.611328,10.298828,1.5224609,5.2490234,8.760742
5.9033203,11.298828,4.758789,4.836914,9.02832
6.171875,11.892578,6.758789,4.9716797,9.417969
6.475586,13.443359,8.185547,7.286133,9.845703
6.189453,14.145508,8.724609,7.6464844,10.327148
6.7773438,14.19043,8.62793,7.5898438,10.713867
7.1865234,14.578125,8.317383,7.526367,11.4375
7.923828,15.830078,8.626953,8.739258,11.813477
7.75,15.574219,8.753906,8.881836,11.689453
7.9589844,14.094727,8.300781,6.428711,10.449219
7.4726562,10.360352,6.004883,2.7158203,6.107422
6.251953,4.314453,2.6660156,1.6572266,1.4111328
4.7314453,4.1015625,1.8056641,2.9453125,3.0175781
2.4833984,5.7773438,2.2060547,1.9501953,3.4433594
2.4326172,6.0146484,3.2792969,2.1835938,3.7705078
2.9414062,8.052734,3.6904297,3.1132812,6.0097656
4.830078,12.083984,5.8945312,4.3740234,9.166992
6.376953,14.887695,7.979492,7.65625,11.682617
7.7783203,16.479492,10.852539,8.744141,12.354492
8.294922,14.722656,7.899414,5.5615234,9.537109
8.634766,12.246094,8.461914,5.4316406,7.725586
7.533203,14.030273,8.444336,5.381836,10.232422
6.836914,14.681641,9.575195,6.5458984,10.9765625
6.029297,15.4140625,11.240234,8.142578,11.4140625
6.5771484,15.618164,9.670898,8.264648,11.5390625
7.4501953,16.026367,8.250977,8.459961,12.412109
7.2177734,16.02832,8.542969,9.412109,11.947266
6.9414062,15.474609,7.96875,8.78418,11.711914
7.4316406,16.411133,8.201172,9.044922,12.419922
9.077148,14.119141,9.005859,7.9746094,10.543945
9.30957,7.6816406,4.375,2.2910156,4.2509766
5.1591797,7.915039,3.9472656,3.6972656,4.8066406
5.6328125,6.71875,3.6669922,2.8544922,3.4560547
3.8203125,9.338867,4.0908203,2.5478516,3.8925781
3.8867188,9.941406,3.7939453,2.5273438,4.711914
3.5302734,11.1953125,3.828125,4.463867,6.123047
3.6113281,10.549805,4.9179688,4.138672,5.921875
3.4189453,9.692383,5.928711,4.6845703,4.5615234
3.4296875,9.358398,5.8027344,5.0683594,4.9716797
4.2177734,9.347656,4.4570312,3.9921875,5.385742
3.9501953,9.711914,5.133789,5.041992,6.3808594
3.2138672,11.037109,4.234375,4.4208984,6.5078125
1.9873047,10.605469,2.6572266,4.743164,5.973633
1.6728516,10.038086,2.8173828,4.709961,4.5371094
1.4921875,8.670898,2.6757812,3.5957031,3.1699219
1.3857422,6.705078,2.4335938,2.3730469,2.828125
2.0947266,4.948242,1.8955078,2.3759766,3.133789
1.7080078,3.9023438,1.2441406,2.2753906,2.0195312
1.6240234,2.9824219,1.4472656,2.8740234,1.8632812
2.633789,6.3320312,1.9443359,3.3388672,2.7929688
3.008789,7.779297,3.0107422,3.2734375,4.5126953
4.0058594,8.793945,5.048828,3.5439453,5.0195312
4.333008,11.236328,5.491211,4.120117,6.1054688
4.529297,11.790039,6.776367,5.7910156,6.948242
4.7998047,11.162109,6.3242188,5.569336,5.651367
4.604492,10.701172,6.4570312,6.1396484,6.3964844
5.9921875,11.847656,7.2685547,6.642578,8.265625
5.7626953,11.949219,8.201172,6.713867,7.685547
5.1308594,12.243164,6.986328,6.004883,7.086914
4.564453,12.625977,6.176758,6.145508,7.6259766
