"[299, 255]","[227, 248]","[287, 319]","[279, 328]","[230, 262]"
2.6679688,3.2714844,4.111328,3.2529297,2.899414
4.8408203,2.2285156,3.1416016,3.133789,2.2607422
2.71875,2.0048828,1.71875,1.7451172,1.6240234
3.0058594,3.1308594,1.1435547,1.2412109,2.4951172
2.71875,5.701172,1.4589844,2.0878906,3.2851562
3.5009766,5.669922,5.345703,3.2324219,3.772461
5.6240234,4.919922,5.9414062,4.154297,2.7138672
7.3378906,4.814453,5.0927734,2.9697266,3.3642578
6.7734375,2.6660156,5.473633,2.6591797,2.4169922
1.265625,1.5146484,4.3183594,2.6210938,1.7119141
1.8515625,1.7910156,3.1269531,1.4882812,3.1601562
1.8720703,4.3398438,0.77246094,1.0927734,3.625
2.1035156,5.8408203,1.4326172,2.5673828,3.9716797
2.6083984,6.34375,3.3535156,2.133789,3.9179688
2.6201172,5.2109375,3.3300781,1.9101562,2.961914
3.8457031,4.9023438,3.0166016,2.6171875,2.6640625
2.6933594,4.0810547,2.209961,2.7607422,2.7333984
1.5283203,2.9892578,1.9501953,1.9199219,2.1230469
1.5419922,2.1298828,1.8769531,1.6835938,2.790039
2.7216797,6.0859375,3.3808594,2.836914,4.555664
3.4638672,7.6435547,3.2822266,3.1621094,4.5
4.182617,6.504883,7.022461,4.1191406,5.185547
6.0908203,5.274414,6.2265625,3.3867188,4.5839844
8.097656,4.689453,4.4873047,3.4941406,3.8359375
8.658203,1.1328125,1.7578125,3.8125,5.555664
5.5654297,4.529297,2.5478516,4.084961,6.685547
3.8554688,7.4570312,3.7470703,4.6064453,7.131836
3.6748047,9.4296875,4.333008,4.291992,6.716797
4.486328,8.685547,4.614258,4.506836,5.864258
4.5751953,8.891602,4.879883,4.4990234,5.6015625
4.2851562,7.5390625,3.975586,3.6972656,4.7333984
3.2978516,5.3789062,2.6796875,2.6542969,4.754883
3.328125,3.6757812,2.2763672,1.7714844,4.5371094
1.9072266,3.3701172,1.3876953,1.2314453,2.9208984
1.0195312,2.3271484,0.87890625,0.9160156,1.0380859
2.1669922,2.899414,2.9697266,3.8847656,1.8710938
2.578125,3.5507812,4.180664,4.048828,2.6582031
4.1640625,2.375,3.8457031,4.2216797,2.7128906
3.4375,0.7451172,3.1191406,3.2441406,2.0820312
2.6464844,1.0673828,2.4394531,2.0546875,2.015625
2.4882812,1.6503906,2.0576172,2.6171875,2.4003906
2.288086,1.5761719,0.7421875,2.3027344,2.3310547
2.4677734,2.6542969,0.44335938,0.98828125,2.7167969
2.0419922,3.2402344,1.1523438,0.9482422,2.6689453
1.7666016,3.116211,2.6103516,2.0039062,3.0234375
2.2958984,2.2207031,7.071289,3.9433594,2.9492188
8.043945,3.4023438,6.790039,4.540039,2.4921875
9.285156,6.4560547,6.2304688,4.033203,4.038086
8.649414,7.560547,5.432617,4.158203,6.21875
8.333984,6.232422,4.048828,4.9160156,5.6845703
7.8496094,2.1523438,5.5126953,4.40625,7.5839844
5.9648438,4.0585938,5.665039,3.7001953,8.344727
6.6484375,5.734375,6.758789,5.1152344,7.850586
7.3408203,6.4960938,7.631836,5.9853516,7.723633
7.6328125,7.2421875,6.9208984,4.661133,6.379883
11.168945,7.859375,6.6621094,3.9033203,8.759766
11.614258,4.6796875,6.798828,4.131836,9.723633
10.753906,6.291992,7.4091797,4.2382812,8.890625
9.643555,8.006836,8.235352,4.6884766,9.547852
9.583984,8.985352,7.748047,5.1796875,9.270508
11.0859375,9.013672,8.316406,6.5390625,7.770508
9.461914,5.9414062,8.910156,6.0585938,7.3046875
8.244141,6.033203,7.3310547,3.2851562,6.6728516
7.9414062,7.4257812,6.2216797,1.265625,6.4384766
5.626953,4.6064453,5.256836,1.7490234,5.0507812
4.260742,4.6865234,4.821289,1.6220703,2.5009766
5.2070312,6.09375,3.725586,2.375,4.998047
5.1484375,4.8515625,3.6523438,3.5410156,5.1884766
5.1816406,4.0908203,4.0478516,3.0517578,3.9199219
5.5634766,2.3798828,1.7871094,2.288086,2.7529297
4.567383,3.2685547,2.7617188,2.727539,1.7080078
4.6748047,3.8847656,2.7021484,2.7304688,2.0341797
4.2089844,3.2314453,3.2519531,2.2792969,2.5263672
3.7050781,0.8652344,2.5175781,2.3632812,1.5576172
4.241211,2.9228516,1.3964844,2.5507812,2.6777344
3.5683594,6.348633,2.9042969,3.131836,4.807617
2.8251953,8.961914,5.948242,2.6259766,6.805664
5.9628906,9.634766,6.0390625,4.7089844,8.334961
3.8574219,9.933594,4.3945312,4.4873047,7.359375
3.3339844,9.675781,3.6376953,3.7216797,6.7929688
3.899414,8.165039,4.203125,4.604492,5.8759766
3.9355469,6.8476562,4.9941406,4.586914,4.326172
3.915039,3.7509766,5.7402344,4.732422,3.6142578
3.7929688,2.4267578,5.625,4.890625,2.883789
2.8457031,5.8203125,4.6933594,4.586914,4.7285156
4.5341797,6.0371094,4.0498047,2.7763672,5.3310547
5.0498047,5.754883,2.6591797,2.5146484,4.7197266
5.182617,5.8476562,2.9804688,3.196289,3.7958984
5.0996094,6.7470703,2.883789,2.7578125,3.6113281
5.006836,7.2509766,1.7001953,2.4003906,3.640625
6.020508,7.2148438,2.8691406,2.53125,5.1904297
5.638672,6.5,2.796875,2.2177734,5.661133
5.5566406,5.6464844,3.1826172,2.8476562,5.4003906
5.8945312,5.328125,1.4697266,2.140625,5.0664062
4.8134766,6.116211,1.6982422,1.2783203,3.1796875
3.7636719,3.178711,1.7177734,0.91796875,2.5039062
1.4941406,4.790039,2.522461,1.5244141,2.1191406
2.0507812,5.2460938,2.1933594,2.053711,2.7988281
2.953125,6.3671875,1.5429688,2.6816406,4.6679688
2.852539,6.751953,3.7470703,3.274414,5.0458984
4.489258,6.625,4.8134766,1.3320312,4.8671875
3.0341797,7.7666016,4.3935547,3.5507812,4.5039062
4.7509766,8.849609,1.9101562,2.9501953,5.432617
4.868164,9.155273,2.4541016,2.9101562,4.828125
6.1152344,6.6816406,3.5976562,4.022461,3.1113281
6.881836,5.7714844,1.9414062,2.7539062,1.6679688
6.588867,3.7080078,2.9824219,3.6171875,2.0458984
2.5664062,10.419922,1.9306641,2.3291016,7.6347656
4.6171875,7.913086,0.7783203,1.9384766,6.1865234
5.868164,4.548828,4.147461,5.1503906,4.084961
5.1328125,4.0322266,4.7666016,5.336914,2.8984375
4.189453,5.149414,4.665039,4.3183594,3.6035156
4.1591797,7.716797,3.6152344,4.051758,4.5078125
4.692383,7.694336,4.3759766,4.7597656,4.6484375
6.573242,8.833008,4.5195312,4.698242,6.0742188
6.8271484,8.526367,4.6992188,4.6259766,6.3183594
6.7939453,7.21875,5.245117,3.6269531,5.4140625
6.165039,6.4248047,3.3476562,3.4101562,4.8085938
5.2695312,4.798828,4.7871094,3.5996094,3.5917969
4.154297,4.305664,2.1240234,4.3710938,2.7666016
3.4863281,4.2646484,3.2333984,4.760742,2.9179688
3.4541016,5.2246094,3.9853516,3.9228516,3.0166016
5.5839844,5.748047,4.9375,4.508789,4.517578
5.4658203,5.4628906,4.6015625,4.1875,4.381836
5.676758,4.1552734,3.6708984,4.3115234,3.4326172
4.357422,2.8046875,3.459961,4.033203,1.0087891
2.915039,4.727539,3.1796875,3.0751953,2.6884766
2.194336,5.2001953,2.602539,2.0371094,2.7363281
2.897461,6.0117188,2.3798828,3.0332031,3.696289
3.9345703,9.027344,2.4677734,4.1376953,4.654297
5.022461,11.4375,3.2607422,4.580078,7.5214844
5.3007812,12.613281,6.6259766,6.3408203,8.875
5.9833984,12.698242,6.9433594,7.102539,9.878906
7.0410156,13.861328,7.883789,7.9658203,11.165039
6.245117,14.512695,9.25,6.6367188,9.913086
6.560547,12.981445,6.352539,3.921875,7.0703125
5.2783203,13.549805,5.1123047,4.4990234,8.254883
5.338867,13.564453,6.5302734,4.4248047,8.972656
6.541992,13.024414,6.8242188,5.870117,9.764648
8.333008,9.3046875,8.482422,8.489258,8.078125
7.9921875,6.142578,8.8515625,8.011719,6.4277344
7.1748047,5.2041016,7.3720703,6.7001953,4.654297
4.142578,3.9726562,5.631836,4.861328,3.2646484
2.069336,1.5107422,3.5234375,3.350586,2.1679688
1.8427734,3.3339844,2.7490234,2.4951172,2.506836
1.5488281,2.930664,1.9423828,2.288086,1.2646484
1.7373047,1.0771484,1.3271484,2.3359375,2.3398438
2.9453125,2.368164,1.5888672,2.953125,3.6357422
2.428711,3.7373047,1.8046875,3.272461,3.7216797
2.805664,5.591797,2.493164,4.118164,4.1279297
3.2675781,4.6103516,1.7744141,3.0791016,2.9248047
1.6787109,6.291992,1.75,2.4169922,2.2636719
1.4892578,5.6396484,1.9726562,2.2167969,2.234375
1.2578125,6.8935547,2.1689453,2.7158203,3.3466797
2.428711,7.5498047,3.1523438,3.774414,4.7666016
3.7392578,6.794922,3.8203125,3.859375,5.2578125
4.0351562,4.0439453,4.2246094,4.6220703,4.194336
4.364258,4.7890625,4.3740234,1.5693359,3.9169922
3.2773438,5.7685547,2.116211,2.375,3.1230469
2.0644531,3.0947266,2.3408203,2.0478516,2.0703125
2.7597656,4.2373047,2.272461,1.9248047,2.5117188
4.131836,6.0214844,1.6875,1.296875,3.1171875
4.9960938,6.7958984,2.6289062,1.7705078,5.6396484
4.725586,8.4375,4.194336,1.7910156,5.647461
5.578125,8.537109,3.4169922,3.0449219,6.2460938
5.2460938,10.592773,3.3935547,3.3652344,8.250977
3.7646484,11.004883,1.7021484,2.9511719,8.138672
3.4248047,10.421875,2.694336,3.2304688,6.2695312
1.5166016,8.504883,3.3417969,3.9082031,4.3408203
2.734375,9.667969,3.6513672,4.609375,5.9101562
4.5097656,9.84082,5.4453125,5.5166016,6.9365234
6.569336,9.245117,4.8203125,4.9208984,6.7314453
6.491211,7.8671875,4.5371094,4.5966797,6.8466797
5.9560547,4.9746094,5.444336,5.810547,5.165039
5.4335938,3.8710938,3.2060547,4.8378906,2.7578125
3.6298828,3.1445312,3.2773438,4.520508,1.1601562
2.584961,2.1171875,1.2958984,2.8554688,1.7041016
1.4990234,3.7871094,1.4560547,1.1064453,2.0126953
2.0976562,6.4804688,1.5869141,1.625,3.2607422
2.8779297,6.979492,3.2167969,1.9638672,5.1308594
3.5341797,7.923828,3.8486328,3.2949219,5.5078125
4.0009766,9.128906,3.3027344,4.303711,6.4033203
5.0078125,7.9941406,2.1152344,4.1796875,5.7158203
4.6123047,7.567383,3.9140625,3.3515625,3.5976562
3.8642578,8.09375,3.866211,2.734375,2.3339844
3.6523438,7.3896484,3.6689453,3.8759766,4.533203
4.1728516,6.671875,4.6367188,4.961914,4.506836
5.5439453,7.2158203,5.713867,5.8935547,5.1240234
6.553711,5.095703,6.114258,6.1933594,5.022461
6.334961,2.1621094,6.4453125,6.4648438,3.109375
4.8066406,4.3789062,4.520508,4.623047,3.5576172
2.055664,5.0078125,3.0048828,3.4667969,3.5107422
2.3359375,5.533203,2.0625,2.2841797,3.4238281
2.7753906,5.3339844,3.4248047,2.9980469,2.9433594
2.7050781,4.6132812,4.3984375,4.9628906,3.6582031
3.1572266,6.022461,4.864258,4.9472656,4.151367
1.9765625,7.745117,5.495117,4.666992,6.3115234
1.9814453,6.9179688,4.571289,4.001953,5.946289
2.3623047,5.5722656,3.2617188,2.6044922,4.0214844
3.3320312,3.7529297,2.1191406,2.0351562,3.1455078
3.1679688,5.743164,2.881836,2.171875,3.4921875
3.6835938,6.1640625,3.5986328,3.6123047,4.0058594
4.8808594,5.2060547,4.3183594,3.2861328,3.5205078
3.9814453,4.6445312,3.4238281,2.9794922,3.633789
4.5458984,4.9365234,3.4628906,3.3251953,3.8378906
5.1123047,6.814453,4.7783203,5.6816406,5.3828125
3.7460938,8.855469,4.6835938,4.6875,5.7890625
3.1357422,9.595703,4.4052734,3.3144531,5.5097656
3.915039,11.224609,3.421875,3.6699219,6.341797
4.8242188,10.600586,5.9648438,5.381836,6.0322266
6.015625,9.264648,6.5839844,6.7929688,6.513672
6.4472656,6.84375,7.2685547,5.1464844,5.8320312
5.7753906,6.373047,7.9746094,6.7460938,5.694336
5.381836,10.15918,5.9345703,6.3720703,6.9765625
3.9697266,10.0078125,4.96875,3.7451172,5.7060547
4.0146484,9.513672,3.15625,2.5283203,4.4814453
4.4316406,8.920898,3.8564453,3.0917969,5.510742
5.423828,10.964844,5.7558594,2.6904297,6.455078
5.2998047,9.794922,5.017578,1.9052734,6.479492
5.2929688,6.5009766,3.9941406,3.774414,6.1875
4.9716797,7.270508,7.1083984,6.229492,5.830078
6.430664,5.024414,6.120117,5.125,5.288086
4.6064453,5.3759766,5.008789,4.7382812,5.1015625
2.7333984,9.81543,4.2617188,4.2382812,5.6816406
2.6435547,10.0,3.7734375,3.647461,4.864258
3.6123047,9.587891,3.3984375,4.3066406,4.399414
4.385742,8.819336,5.604492,4.705078,5.8164062
5.654297,7.1796875,5.0722656,5.458008,6.1748047
6.2421875,6.609375,5.0751953,5.258789,4.9277344
5.754883,4.4296875,3.991211,4.5146484,3.5146484
3.741211,3.4257812,3.0332031,3.9101562,1.6767578
1.5185547,4.4726562,3.288086,2.7841797,1.3710938
1.578125,3.1230469,2.7558594,2.6464844,2.0019531
1.2021484,3.8984375,1.6503906,1.6777344,2.4199219
2.140625,3.6708984,1.7617188,1.6513672,3.383789
3.0439453,4.2158203,3.0546875,2.9384766,3.7890625
3.1572266,3.4101562,4.176758,4.245117,3.6445312
3.9990234,2.921875,4.2626953,3.477539,3.1865234
3.296875,4.25,2.96875,2.3896484,3.1044922
2.444336,4.486328,2.7324219,2.5927734,3.2011719
