"[299, 255]","[227, 248]","[287, 319]","[279, 328]","[230, 262]"
8.728516,13.639648,7.267578,7.1816406,8.089844
9.078125,13.499023,7.9541016,8.099609,7.7041016
8.833008,12.442383,7.4384766,7.658203,7.25
9.724609,10.93457,7.5625,7.7734375,7.1191406
9.466797,11.106445,5.9716797,6.9257812,5.9414062
8.303711,6.567383,3.4736328,6.2285156,5.642578
7.0195312,4.8398438,3.1074219,5.2333984,3.7333984
4.979492,6.3564453,3.8544922,4.6865234,2.9248047
4.7470703,3.1699219,3.4853516,4.6816406,1.9550781
4.743164,2.4316406,2.9052734,4.3046875,1.6123047
4.522461,0.8457031,2.9882812,3.883789,1.2275391
3.803711,3.546875,2.4042969,2.9345703,1.4765625
2.9365234,3.553711,2.5429688,2.7060547,2.2021484
3.290039,2.4394531,2.959961,3.0029297,2.0771484
3.7324219,4.5507812,2.0634766,3.0390625,2.6015625
4.451172,7.3046875,1.8183594,3.3886719,3.9736328
4.751953,8.418945,2.9199219,3.649414,5.25
5.723633,11.670898,4.9521484,4.4033203,6.598633
6.705078,14.359375,5.6259766,5.698242,8.213867
8.897461,16.479492,7.192383,7.3867188,10.516602
10.043945,13.702148,7.741211,7.3535156,9.722656
9.130859,10.630859,7.5908203,6.640625,6.4033203
7.1416016,8.839844,5.0898438,4.8847656,3.4453125
7.7871094,9.217773,4.1904297,3.7988281,6.053711
7.9873047,10.607422,5.0214844,5.5595703,5.239258
7.748047,11.31543,6.2353516,4.145508,8.663086
6.373047,10.655273,5.6845703,4.661133,8.056641
5.1689453,9.996094,6.4228516,4.3935547,6.859375
4.609375,7.3095703,4.7626953,4.1621094,5.336914
3.2080078,7.743164,3.5595703,3.1582031,3.7148438
3.1835938,8.5625,2.9433594,3.0810547,3.4492188
3.3984375,7.1308594,3.671875,2.6220703,2.7978516
3.4365234,7.5859375,2.9882812,2.9824219,3.4658203
3.0283203,7.4541016,2.9433594,2.4980469,3.2636719
2.7695312,8.30957,2.2333984,2.727539,4.046875
3.3554688,7.935547,3.8261719,2.8408203,3.4033203
3.3330078,7.5478516,3.2705078,3.272461,4.0185547
3.0722656,8.140625,3.3144531,2.8671875,3.8955078
3.352539,8.520508,4.661133,2.8632812,3.9941406
3.5175781,9.246094,4.5908203,3.3730469,4.0634766
3.5917969,9.521484,3.6904297,2.8515625,4.086914
3.8808594,8.548828,3.8154297,2.977539,4.0498047
4.772461,8.696289,2.9501953,3.2626953,5.1533203
5.1552734,11.140625,4.404297,4.888672,7.461914
6.180664,12.988281,7.069336,5.4521484,8.7265625
7.4384766,14.777344,8.140625,5.879883,10.424805
8.512695,16.107422,9.986328,7.614258,11.920898
9.805664,17.482422,9.650391,8.5234375,12.792969
10.383789,17.583008,10.37207,8.961914,13.15332
10.984375,12.060547,11.316406,7.767578,8.973633
8.133789,12.106445,7.4921875,4.756836,8.908203
7.1308594,13.313477,9.336914,6.2998047,7.9902344
7.1445312,13.393555,9.621094,5.060547,7.71875
6.5859375,13.234375,6.998047,3.4589844,7.640625
6.114258,13.657227,5.834961,4.0195312,7.897461
6.359375,12.105469,5.5878906,4.1708984,7.086914
5.0283203,10.50293,4.9501953,4.8808594,5.9072266
3.7265625,8.793945,4.3779297,3.0273438,3.8408203
3.1279297,8.00293,4.3720703,4.1845703,3.4208984
2.8154297,7.006836,4.0117188,2.6513672,3.2548828
3.3105469,6.866211,3.803711,2.2949219,4.1171875
3.6298828,4.3271484,2.671875,2.4921875,2.7910156
3.5488281,5.2929688,3.9091797,2.1298828,2.819336
3.0390625,5.9208984,3.9589844,2.459961,2.8066406
2.515625,6.859375,2.9501953,2.2705078,3.3720703
2.303711,6.334961,3.8691406,2.2558594,2.9033203
2.303711,5.9472656,3.9248047,2.4589844,2.7509766
2.5449219,8.202148,3.6435547,2.258789,3.7460938
3.1445312,10.323242,3.461914,3.2988281,5.9404297
4.573242,11.724609,4.939453,4.4208984,8.036133
6.3066406,13.443359,7.4052734,6.0595703,9.626953
7.3466797,15.821289,9.286133,7.3564453,11.483398
8.6796875,18.140625,9.231445,8.75,13.176758
9.604492,14.546875,10.678711,7.8632812,9.344727
7.408203,13.208984,8.165039,6.536133,7.9140625
6.298828,13.416992,8.261719,4.9501953,8.511719
5.810547,13.0390625,5.9941406,5.3789062,8.174805
4.8535156,11.21582,6.432617,5.9160156,6.6533203
4.5996094,11.102539,6.1015625,4.2578125,6.1035156
3.9628906,10.616211,5.0722656,3.9667969,5.3564453
4.2265625,9.973633,4.8896484,3.9853516,5.0566406
4.169922,9.248047,5.5742188,3.8251953,4.40625
3.6923828,8.827148,4.852539,3.2402344,3.609375
3.3388672,8.694336,3.4804688,2.4648438,4.4257812
3.9638672,7.9521484,4.317383,3.0371094,4.932617
5.1933594,10.270508,4.4726562,4.227539,5.4521484
6.8847656,13.474609,5.7666016,5.7285156,8.802734
8.693359,16.875,7.9414062,8.239258,11.576172
10.423828,14.225586,9.544922,8.150391,9.689453
7.359375,14.060547,8.813477,5.9101562,7.9746094
6.314453,14.141602,5.819336,4.551758,7.946289
6.0283203,14.354492,7.0791016,6.883789,8.727539
6.897461,14.891602,5.7714844,5.600586,9.578125
6.3007812,15.366211,6.411133,5.7910156,9.423828
6.8935547,15.776367,7.716797,6.6972656,10.270508
7.5166016,15.043945,9.09082,9.099609,10.457031
7.8720703,12.22168,6.783203,7.352539,8.1328125
6.341797,10.076172,7.2509766,6.5546875,5.8652344
4.5273438,8.683594,6.2841797,5.7685547,5.2197266
3.321289,6.682617,4.9345703,3.8808594,3.8486328
3.1416016,6.866211,3.4482422,2.515625,4.4375
4.0029297,8.433594,2.694336,2.7167969,5.5771484
4.4960938,9.541992,4.0458984,4.1240234,6.083008
5.444336,11.993164,6.350586,4.852539,7.6347656
6.3564453,14.604492,8.551758,6.5371094,10.2578125
7.4560547,17.28711,11.518555,7.1064453,12.143555
8.139648,18.00586,10.5,6.709961,12.578125
8.826172,15.964844,8.895508,7.7753906,10.876953
8.364258,13.044922,8.108398,6.209961,8.626953
6.0410156,10.943359,6.2773438,4.274414,6.1748047
6.1552734,12.603516,2.4736328,2.5302734,7.5166016
7.638672,15.530273,1.9287109,3.256836,10.772461
8.4296875,17.086914,8.792969,5.5273438,11.576172
8.80957,18.577148,11.024414,8.641602,13.057617
9.545898,19.50293,11.584961,10.594727,14.075195
9.6171875,17.24707,11.657227,10.723633,12.59082
9.241211,11.121094,7.041992,6.9990234,7.1015625
5.897461,9.013672,7.0,6.501953,4.5908203
4.0585938,8.228516,5.591797,5.1748047,4.0634766
2.6757812,6.0722656,4.7382812,3.227539,2.9296875
2.4179688,5.15625,3.9267578,3.2421875,2.5146484
2.3515625,4.1347656,3.5742188,3.0048828,2.3291016
2.3007812,3.2460938,3.5136719,3.0097656,1.8144531
2.0478516,4.9257812,3.1035156,2.1201172,2.2626953
2.5839844,5.4853516,2.8896484,1.1025391,2.2763672
3.8886719,5.560547,2.1269531,2.0195312,4.213867
6.8896484,5.904297,0.3935547,1.5302734,6.189453
5.767578,3.8535156,1.7197266,1.2460938,4.9814453
5.8808594,9.09668,2.5996094,0.6933594,2.2558594
6.020508,12.81543,3.1064453,0.8203125,1.9912109
4.977539,12.178711,3.46875,0.44433594,4.1601562
5.3964844,12.151367,3.9902344,1.1699219,8.271484
5.6835938,12.786133,2.7822266,0.95703125,8.825195
6.123047,13.584961,2.6699219,0.8798828,9.450195
6.126953,13.238281,2.1328125,1.7226562,8.924805
6.0195312,9.066406,2.243164,3.171875,3.6152344
5.145508,6.459961,2.8466797,2.883789,3.258789
3.5322266,6.663086,3.2089844,3.265625,3.6259766
2.9316406,6.760742,4.991211,3.7011719,3.0566406
3.9208984,6.7109375,3.9472656,3.7470703,3.6230469
4.2314453,6.4941406,4.004883,4.2617188,3.2519531
2.7949219,7.2421875,4.1191406,3.7421875,3.225586
0.9794922,5.5898438,2.5126953,3.4257812,2.4160156
0.59765625,4.3125,2.2617188,2.3398438,2.6044922
1.2373047,4.303711,1.8251953,1.6855469,1.9345703
1.1171875,4.116211,0.55859375,1.9179688,1.5527344
1.4023438,2.4169922,1.9677734,2.0292969,2.102539
0.5283203,2.4238281,1.0986328,1.5400391,1.0957031
1.0908203,1.4863281,0.8173828,1.6396484,0.96484375
1.6972656,1.7333984,1.6396484,2.5917969,1.5566406
2.6289062,2.4042969,1.8925781,2.7792969,1.9765625
2.7333984,2.616211,1.7148438,2.8535156,2.3603516
2.6513672,3.046875,2.2167969,2.8251953,2.6611328
2.4023438,3.6923828,1.9013672,2.9003906,2.8007812
2.9169922,3.7138672,2.3388672,3.163086,2.9492188
2.5605469,4.8447266,1.6474609,3.1396484,2.9228516
2.3330078,5.475586,0.86035156,3.0830078,3.1171875
3.4052734,5.1914062,2.4589844,3.383789,2.9970703
3.6972656,5.0117188,2.8652344,3.6894531,3.3691406
3.758789,5.7890625,2.890625,3.4941406,3.7089844
3.5703125,6.0097656,3.413086,3.3515625,3.5117188
3.2089844,5.96875,5.1523438,3.9628906,3.3544922
3.305664,7.9804688,5.5117188,3.4423828,3.0107422
2.8828125,8.091797,4.1865234,2.8486328,4.4375
3.0888672,7.658203,4.1503906,2.2529297,4.166992
3.703125,6.6777344,4.375,2.553711,3.1601562
3.9052734,6.236328,4.1416016,3.140625,3.3798828
4.109375,7.5273438,2.100586,3.5458984,3.6289062
4.6904297,6.307617,1.4414062,3.9736328,3.3164062
4.836914,7.1640625,1.4716797,3.7714844,3.2509766
5.288086,8.34082,2.4951172,3.609375,3.5732422
5.955078,8.016602,2.3447266,3.8417969,3.7861328
6.0664062,7.790039,2.2666016,3.975586,4.533203
5.7646484,7.6992188,2.3320312,4.2353516,3.8867188
4.5439453,8.220703,2.2646484,4.020508,4.305664
4.600586,9.831055,2.3330078,4.301758,4.6308594
4.9609375,10.748047,1.7900391,3.9472656,5.857422
4.708008,9.667969,1.2265625,4.1435547,5.442383
5.8632812,10.040039,1.3603516,3.9345703,6.2890625
6.0908203,9.991211,6.3251953,4.366211,6.739258
6.201172,10.688477,6.611328,4.5410156,7.2871094
5.567383,9.771484,4.9921875,4.727539,7.236328
4.9345703,9.848633,4.6103516,4.638672,6.7177734
4.5498047,9.522461,4.0859375,4.517578,6.0927734
4.7060547,8.849609,3.4716797,4.267578,6.359375
5.254883,9.25,3.102539,4.3310547,5.626953
5.3095703,9.662109,3.977539,4.3222656,6.091797
5.1523438,10.154297,4.274414,5.080078,6.3964844
4.9414062,10.438477,4.6054688,5.3583984,6.939453
5.1591797,10.783203,3.2236328,4.2470703,7.5771484
5.7402344,10.94043,2.8964844,4.428711,7.350586
5.9404297,11.709961,5.3408203,4.848633,8.599609
5.5371094,10.719727,6.779297,4.4873047,8.030273
5.4433594,8.604492,7.8896484,3.9638672,6.0966797
4.736328,5.973633,5.607422,3.836914,3.2421875
3.2841797,4.263672,2.6640625,2.7607422,2.2763672
2.2539062,2.3261719,1.9287109,2.1542969,1.6474609
1.1621094,1.9355469,2.8271484,2.7841797,2.078125
1.3994141,3.7773438,1.6542969,2.9033203,2.6103516
2.616211,4.9804688,2.225586,3.321289,2.4580078
3.821289,5.5722656,2.866211,3.4140625,3.1455078
4.123047,8.379883,2.7070312,4.03125,4.810547
4.6279297,10.919922,1.9609375,4.2158203,8.319336
6.283203,12.686523,5.9179688,5.227539,9.87793
7.2382812,12.251953,9.144531,5.6259766,10.75
7.1035156,12.037109,6.595703,4.2626953,10.385742
6.4033203,11.824219,3.2998047,4.165039,8.244141
7.6396484,13.071289,4.616211,5.3935547,7.713867
8.652344,13.104492,6.3623047,5.654297,8.821289
8.658203,14.026367,6.7890625,6.0859375,10.041016
8.269531,14.756836,8.436523,6.2070312,11.30957
8.498047,14.40625,8.71582,7.4882812,11.217773
8.188477,14.099609,7.8808594,7.6123047,10.896484
7.9335938,12.991211,10.006836,5.939453,9.0625
8.225586,4.6679688,8.181641,7.373047,2.6464844
7.7001953,5.2197266,5.0771484,4.0390625,3.4824219
3.1503906,5.6796875,3.9335938,2.2216797,2.8417969
1.6640625,3.4990234,3.1738281,2.7060547,1.2558594
1.3212891,3.3945312,2.3134766,2.0830078,0.94433594
2.8134766,3.6914062,0.84472656,1.4414062,2.2705078
5.7783203,6.4140625,1.4052734,1.3310547,3.1201172
6.805664,7.5820312,2.6035156,1.2939453,3.8330078
6.5302734,8.908203,1.6914062,3.4716797,5.4228516
6.4023438,7.341797,3.5673828,4.513672,5.0791016
6.776367,4.4433594,3.8320312,1.9492188,1.8378906
6.491211,2.9667969,3.0332031,2.663086,1.4746094
7.0898438,5.6748047,2.4560547,3.8476562,2.4023438
7.661133,10.46582,6.388672,4.5371094,6.15625
7.7421875,13.198242,8.44043,6.0966797,9.365234
7.4404297,15.654297,6.580078,8.276367,10.5234375
8.832031,17.433594,7.520508,8.766602,12.344727
10.100586,19.426758,9.771484,8.092773,14.311523
10.913086,11.827148,11.371094,9.118164,8.104492
7.6933594,9.272461,6.345703,4.833008,4.6845703
4.0322266,10.65918,3.6826172,3.3759766,4.6708984
5.2382812,12.182617,6.3310547,4.2695312,7.163086
7.125,13.944336,8.146484,6.3154297,7.4179688
6.4726562,14.647461,7.076172,6.1123047,8.040039
6.171875,16.511719,7.4384766,6.7158203,9.588867
6.359375,16.64746,8.072266,8.172852,9.768555
