"[299, 255]","[227, 248]","[287, 319]","[279, 328]","[230, 262]"
0.84765625,2.421875,2.711914,4.286133,1.9228516
0.9140625,4.368164,2.741211,4.3867188,5.232422
0.5839844,8.141602,2.9042969,4.2314453,7.2089844
1.8271484,9.171875,4.8515625,5.658203,7.4501953
3.8300781,10.03125,5.1552734,6.4228516,7.817383
5.0996094,9.220703,5.0478516,5.864258,6.517578
2.84375,8.571289,3.6123047,5.979492,6.470703
3.453125,9.626953,6.4296875,6.881836,8.328125
6.5390625,10.859375,8.482422,7.216797,8.819336
7.9628906,10.151367,6.5478516,7.2802734,8.701172
6.5898438,11.295898,5.158203,6.9375,9.837891
8.764648,11.801758,6.0546875,6.9316406,10.547852
8.883789,10.504883,6.7001953,6.34375,9.392578
8.081055,7.5439453,6.109375,5.455078,6.5859375
5.3095703,7.682617,3.3408203,3.444336,5.7304688
3.7636719,7.0546875,2.6894531,2.7636719,4.6728516
2.8085938,2.0234375,2.5771484,3.022461,2.9072266
2.913086,4.28125,2.4179688,2.6035156,2.3095703
2.2050781,3.8945312,1.6904297,1.4960938,3.3886719
2.944336,3.0058594,2.9882812,2.7607422,3.180664
2.703125,2.8867188,4.4003906,2.274414,3.303711
3.6728516,2.711914,2.8300781,1.9199219,3.5722656
2.5009766,4.8164062,3.1748047,2.0634766,2.8066406
2.71875,6.588867,2.7861328,3.4042969,4.069336
4.5683594,7.6416016,2.9013672,3.5019531,5.892578
4.2695312,7.9384766,3.1894531,3.7128906,6.453125
3.4980469,9.0234375,3.7695312,4.5927734,6.34375
4.6308594,11.732422,4.3242188,4.5078125,8.044922
6.3876953,13.470703,4.7109375,5.7128906,9.463867
7.080078,15.108398,5.161133,6.5810547,10.916016
8.025391,14.879883,6.390625,6.9433594,10.608398
7.979492,11.848633,5.788086,6.602539,8.772461
6.8134766,9.662109,5.626953,5.4453125,6.845703
5.416992,9.930664,5.970703,5.0302734,7.3867188
6.165039,10.4296875,8.513672,6.392578,7.8427734
6.533203,12.988281,7.0742188,7.557617,9.654297
7.423828,13.720703,7.135742,6.607422,12.176758
6.7470703,14.068359,7.84375,6.868164,11.545898
5.430664,13.415039,7.3466797,5.334961,8.794922
5.2060547,11.397461,5.5078125,3.5927734,6.720703
4.5654297,9.270508,4.463867,3.0175781,5.9560547
4.604492,7.7441406,4.6347656,3.5605469,5.3691406
7.053711,10.5390625,4.067383,5.2460938,4.4785156
8.977539,14.665039,6.8476562,4.790039,10.712891
7.9765625,12.947266,8.792969,6.783203,9.750977
6.977539,9.082031,7.213867,4.638672,7.0771484
6.526367,4.7285156,4.2910156,2.4453125,4.0683594
6.6679688,3.3046875,1.8642578,1.3535156,2.5214844
7.0664062,2.631836,1.4238281,0.98339844,1.7578125
6.4208984,2.3583984,2.2246094,2.649414,1.8291016
4.946289,1.0146484,1.8320312,1.8476562,2.0175781
3.4707031,1.1962891,1.1328125,0.8173828,2.1074219
1.9492188,3.618164,2.2490234,1.3730469,2.0185547
2.5322266,5.8359375,1.921875,1.9746094,3.0185547
1.9912109,6.3320312,1.9746094,1.1796875,3.7402344
1.3857422,6.546875,1.7519531,1.7353516,4.006836
1.4648438,7.03125,2.2285156,2.8291016,4.560547
3.8408203,7.25,1.5136719,2.5839844,4.821289
5.220703,7.044922,1.1328125,2.8164062,4.948242
5.897461,7.120117,1.3037109,3.0449219,5.333008
6.385742,7.0527344,4.959961,2.9423828,5.4677734
6.756836,7.0458984,5.083008,2.8984375,5.0947266
6.796875,7.2490234,3.9980469,2.3144531,4.763672
8.03125,7.1933594,3.9208984,2.383789,4.705078
8.549805,6.623047,4.2490234,2.7529297,5.0058594
9.068359,7.2148438,3.7421875,2.0546875,5.5546875
9.6796875,6.895508,4.71875,0.65722656,6.9296875
9.233398,7.426758,6.213867,2.0927734,7.1914062
7.8164062,8.920898,6.314453,3.515625,6.8740234
7.682617,8.490234,5.9003906,3.8632812,6.7041016
3.8134766,7.5839844,3.9804688,4.0253906,6.4902344
3.2490234,5.098633,3.1855469,3.0673828,6.791992
4.116211,4.5097656,3.3027344,2.2988281,7.2353516
4.4589844,5.008789,2.8115234,1.5634766,7.6347656
5.1152344,3.7421875,3.3447266,1.5322266,8.977539
4.7197266,2.6503906,6.779297,1.6142578,9.1171875
5.354492,4.5283203,6.763672,4.0195312,7.6210938
5.495117,7.15625,6.734375,5.2148438,6.3623047
4.0878906,5.9033203,5.6396484,4.588867,6.7109375
2.9365234,4.6972656,3.9501953,1.7900391,7.192383
3.2089844,3.9638672,3.5546875,1.5800781,7.2978516
3.3984375,3.2041016,3.9716797,3.2373047,7.5195312
4.3779297,3.0810547,4.8066406,3.7441406,8.292969
4.5839844,3.0986328,5.0810547,4.3496094,8.239258
4.602539,5.7490234,5.2958984,4.8554688,7.040039
4.866211,8.399414,5.5839844,5.133789,5.845703
4.2617188,6.803711,4.9472656,4.5527344,5.5751953
3.7822266,5.493164,3.899414,3.0625,6.203125
3.078125,4.1103516,3.756836,2.6796875,5.211914
3.5507812,5.6748047,3.696289,3.4697266,5.4072266
4.1621094,6.6621094,4.307617,3.743164,5.9091797
4.3740234,7.7617188,4.616211,3.9658203,5.5253906
4.448242,7.404297,3.7705078,3.5234375,5.147461
4.8154297,6.8583984,3.5234375,3.1875,4.5214844
3.961914,4.8310547,1.9140625,2.288086,3.9580078
2.5410156,1.84375,2.4169922,2.2001953,2.8330078
2.2011719,1.4794922,3.0917969,2.8251953,2.9345703
3.1748047,2.2675781,3.2929688,3.1191406,3.5771484
5.1835938,2.1533203,4.2890625,4.7998047,4.819336
5.6220703,4.9296875,4.772461,5.385742,4.3408203
5.817383,5.725586,5.2285156,5.276367,5.111328
5.9316406,5.899414,4.6591797,5.4902344,4.515625
4.7783203,3.8027344,2.453125,4.0273438,3.383789
4.368164,3.3544922,1.4716797,3.28125,3.7158203
2.805664,2.3623047,1.8251953,2.6933594,3.7539062
2.6386719,2.7333984,1.6123047,1.3203125,3.6542969
1.5654297,2.2578125,0.86328125,0.46777344,4.0722656
1.9697266,4.073242,1.984375,2.2226562,2.3847656
2.1230469,4.2089844,2.8173828,3.243164,2.2734375
2.3691406,2.4970703,3.0517578,2.868164,1.5957031
2.578125,2.7646484,4.4208984,2.3896484,2.0986328
2.6875,1.4716797,2.9326172,1.9033203,2.0478516
2.3564453,0.8720703,1.9414062,2.5214844,2.5605469
2.665039,1.65625,1.1181641,2.359375,3.5078125
2.2734375,3.993164,0.6230469,1.6787109,5.4433594
2.8222656,7.517578,2.3046875,2.6621094,4.6689453
3.4111328,8.234375,3.6611328,3.2470703,5.126953
4.998047,5.142578,3.6816406,4.1503906,6.6552734
3.09375,5.080078,3.1982422,5.180664,6.6367188
1.4521484,4.741211,4.498047,3.6328125,6.0126953
2.0917969,5.6679688,4.083008,1.9560547,5.2714844
1.2822266,6.953125,2.7851562,1.9091797,4.444336
2.6035156,7.944336,1.1582031,1.8701172,6.1601562
2.4814453,8.701172,2.1826172,3.0019531,5.290039
2.8095703,8.633789,3.4199219,2.6982422,5.5283203
1.6630859,6.6484375,3.3232422,2.7714844,5.7597656
2.7392578,5.9492188,2.9033203,1.7490234,4.923828
3.0341797,4.791992,4.4501953,3.100586,4.145508
1.8701172,3.9101562,4.142578,2.7763672,4.6376953
1.0527344,4.6865234,4.213867,2.0341797,4.024414
1.1289062,6.0371094,2.1435547,1.2988281,4.2265625
2.2646484,8.839844,2.9794922,3.140625,4.0439453
3.0839844,9.080078,3.4550781,3.1201172,4.5283203
2.1894531,6.376953,2.836914,2.9414062,5.0664062
1.8886719,5.038086,2.2763672,2.2578125,5.0097656
2.1357422,3.8183594,3.6796875,2.9091797,5.0664062
1.6962891,5.961914,1.890625,2.5917969,5.1865234
0.95410156,7.071289,2.8447266,2.8984375,5.7714844
2.0683594,7.932617,3.515625,3.359375,7.165039
4.4921875,9.939453,4.5927734,3.4375,7.334961
5.001953,9.415039,4.196289,3.491211,7.173828
5.1083984,7.993164,4.3125,4.895508,7.489258
4.265625,7.3203125,3.9257812,5.573242,6.694336
4.0742188,7.2753906,2.3085938,3.819336,6.5996094
4.413086,7.696289,2.2890625,2.9521484,6.883789
4.7021484,8.642578,2.0507812,2.6669922,6.508789
4.826172,9.208984,3.8701172,3.7548828,7.833008
4.7939453,9.044922,4.8203125,4.2128906,8.699219
5.073242,7.7109375,4.5908203,4.5341797,7.9453125
4.6367188,8.06543,4.4101562,5.142578,8.453125
4.2089844,9.755859,2.7929688,3.7753906,7.1015625
5.5195312,6.1679688,2.0605469,2.9628906,5.6103516
2.8886719,6.111328,3.2509766,3.328125,3.8398438
2.0996094,4.928711,3.0097656,4.1210938,3.9550781
2.53125,5.600586,4.1171875,4.0927734,4.0771484
3.038086,5.243164,4.201172,3.7529297,3.8564453
2.852539,6.0029297,3.9794922,4.0566406,3.8544922
2.8125,5.2773438,4.1708984,4.3125,3.4140625
2.6289062,4.520508,2.4111328,2.8710938,2.6367188
2.3896484,1.3984375,3.1308594,1.5712891,2.7138672
2.1230469,3.586914,2.5986328,2.2607422,3.9707031
2.1259766,3.2197266,1.125,1.9941406,2.5078125
2.9228516,4.161133,2.3095703,3.399414,3.1132812
2.2695312,4.439453,3.0498047,3.1367188,3.0742188
2.9472656,5.2539062,3.4423828,3.5039062,4.9570312
3.3779297,6.2851562,4.2939453,4.189453,4.243164
4.189453,5.7998047,3.296875,3.2353516,3.272461
5.180664,3.203125,2.6708984,2.7402344,3.6689453
4.6689453,2.3886719,2.46875,2.1259766,3.9648438
2.0019531,3.696289,1.2617188,1.6269531,3.227539
2.3291016,3.5,1.9384766,1.7519531,3.1855469
4.201172,3.1279297,3.4589844,2.0966797,3.2978516
3.7373047,4.948242,2.772461,2.3417969,3.2529297
2.9511719,4.640625,3.015625,3.2753906,2.3466797
2.977539,3.0566406,3.3847656,2.7529297,2.2666016
4.435547,4.0214844,2.8535156,2.694336,2.2421875
2.7226562,3.0410156,2.6582031,3.2197266,1.0957031
2.0488281,1.9296875,1.8466797,2.758789,1.15625
1.7470703,0.7792969,3.8515625,1.7705078,1.4736328
3.0761719,2.1103516,4.1757812,2.8300781,3.3115234
4.9453125,3.2695312,3.9824219,3.9892578,3.8886719
5.3320312,3.375,4.428711,4.3623047,2.8652344
4.948242,4.8203125,4.323242,4.4658203,3.2607422
4.7597656,3.9882812,3.493164,4.569336,3.8310547
4.4785156,5.7753906,3.7158203,5.0214844,5.020508
5.352539,7.857422,4.067383,4.7851562,5.5722656
4.504883,8.533203,4.4785156,4.9052734,6.1865234
4.5722656,6.489258,5.6220703,5.453125,5.623047
4.7041016,7.6464844,5.8691406,5.126953,5.564453
5.548828,6.5390625,5.0908203,4.7373047,5.1191406
5.135742,5.392578,3.5146484,3.3984375,3.9345703
2.9726562,3.9335938,2.4335938,1.7519531,2.1298828
1.9296875,1.5341797,1.1367188,0.9658203,2.2148438
1.1308594,3.1210938,2.0498047,1.3330078,3.1611328
1.4443359,3.3076172,3.0166016,1.7734375,3.7509766
3.1240234,4.841797,2.5361328,3.618164,4.213867
5.376953,6.102539,3.8398438,3.071289,4.2617188
5.0771484,4.057617,3.7148438,4.584961,3.828125
4.2773438,5.118164,4.248047,4.526367,3.7470703
2.1113281,4.8203125,2.8095703,2.415039,4.3808594
3.0253906,5.0742188,2.1757812,3.008789,4.5439453
2.9960938,5.1220703,2.0859375,2.0878906,3.7070312
3.8925781,4.823242,2.1816406,3.1640625,3.6923828
4.5585938,3.6503906,2.6826172,4.008789,3.7197266
5.5751953,4.083008,4.4091797,4.236328,3.4394531
5.5742188,2.7978516,4.9189453,4.9501953,1.6894531
4.541992,3.9628906,4.4882812,4.385742,2.2714844
3.4970703,4.2177734,3.522461,2.9628906,1.9267578
3.4541016,4.9648438,2.5517578,2.4736328,2.665039
2.3779297,4.1064453,2.274414,2.3300781,3.4345703
2.4003906,3.2871094,3.9980469,4.026367,4.1416016
4.145508,2.0429688,4.3984375,4.7148438,4.241211
4.6503906,2.3876953,5.743164,4.9677734,4.5927734
4.501953,6.15625,5.5947266,4.5458984,6.024414
3.1103516,7.501953,5.1279297,4.163086,5.9365234
2.569336,6.754883,4.848633,3.2539062,3.6298828
3.109375,4.482422,3.9892578,2.444336,4.3066406
3.5234375,4.9101562,3.7705078,3.3017578,4.8408203
4.9414062,7.258789,6.665039,5.0820312,5.709961
4.4189453,6.9804688,6.225586,5.8476562,5.524414
3.5644531,6.6904297,5.2998047,5.65625,4.459961
3.8300781,7.6884766,5.5927734,4.9052734,5.411133
2.2021484,7.6171875,3.9863281,3.8652344,5.078125
1.9648438,6.776367,4.415039,3.118164,3.774414
3.0488281,2.578125,3.6845703,2.9648438,2.2978516
2.8144531,2.9482422,2.6572266,2.4472656,2.5253906
2.4746094,5.4072266,3.4257812,4.0195312,3.4248047
1.9453125,5.708008,5.2246094,4.701172,4.576172
2.1142578,7.2109375,5.567383,5.8398438,5.3867188
2.069336,7.8603516,5.959961,5.321289,6.2285156
1.4755859,6.8623047,5.0273438,3.6542969,5.676758
1.5546875,6.458008,1.7998047,2.8642578,5.2734375
2.116211,6.298828,2.1796875,3.3183594,4.404297
2.0625,5.4492188,2.1591797,3.3115234,3.765625
2.2226562,4.4472656,2.4951172,3.3261719,3.6171875
3.8457031,2.7607422,2.7753906,3.015625,2.883789
4.7226562,2.9804688,2.4667969,2.711914,3.0908203
5.3466797,3.913086,2.078125,2.8544922,2.9511719
5.4765625,2.5664062,1.0996094,2.3095703,2.9189453
4.479492,5.2558594,1.5126953,1.4638672,2.0947266
