"[299, 255]","[227, 248]","[287, 319]","[279, 328]","[230, 262]"
2.243164,13.21875,4.640625,2.7939453,8.244141
2.7773438,11.120117,4.4902344,3.109375,6.1884766
3.9433594,7.5820312,4.4257812,4.2939453,3.5458984
4.446289,4.9277344,4.1640625,5.314453,2.4033203
5.0859375,6.614258,4.1279297,6.0498047,4.651367
6.258789,9.978516,4.71875,6.7089844,5.495117
8.647461,13.567383,5.6054688,8.4453125,7.694336
10.640625,17.192383,8.166992,10.357422,10.020508
12.592773,12.540039,10.203125,12.415039,8.636719
10.826172,6.75,10.0234375,11.652344,4.578125
6.0253906,7.8515625,8.194336,9.109375,4.368164
5.426758,10.076172,6.40625,6.098633,6.0947266
5.899414,9.620117,5.0703125,4.703125,6.9970703
5.213867,10.532227,4.0947266,4.885742,7.1884766
5.263672,11.234375,4.1816406,4.1328125,7.149414
5.5498047,11.262695,4.442383,4.5654297,6.254883
4.826172,10.896484,4.5625,3.243164,5.6054688
4.526367,11.666016,3.8330078,3.4765625,6.2128906
4.7373047,9.910156,4.2695312,4.3789062,4.857422
4.258789,8.319336,4.446289,4.2470703,4.154297
3.7841797,7.243164,3.8916016,3.9404297,5.126953
3.1992188,7.9960938,3.0986328,3.6152344,3.8564453
3.7265625,7.6953125,3.7773438,3.1328125,4.4091797
3.9482422,9.080078,2.7402344,3.1240234,4.7373047
4.5,9.621094,3.3886719,3.2236328,4.334961
5.0478516,8.80957,4.301758,3.5859375,4.0908203
6.135742,8.65332,5.3623047,3.5722656,3.8808594
6.5410156,7.395508,6.5751953,4.0029297,3.6835938
6.319336,5.430664,7.524414,5.4052734,2.0791016
5.123047,5.3476562,7.09375,4.251953,2.21875
4.970703,6.0283203,6.1816406,3.0996094,2.9433594
5.069336,7.2021484,5.555664,3.3447266,3.3896484
5.1289062,5.935547,3.8476562,2.0253906,3.1855469
5.958008,4.540039,4.470703,2.5126953,2.6728516
6.4658203,3.1748047,5.0966797,2.2011719,2.4365234
5.484375,2.234375,5.203125,1.5810547,2.3554688
4.7578125,1.6269531,5.578125,2.9140625,1.2402344
4.1484375,3.9677734,4.0478516,3.2451172,1.5742188
4.470703,1.5039062,2.6230469,4.734375,1.5273438
3.993164,2.7753906,3.2080078,3.9257812,1.6015625
3.296875,3.0966797,3.1289062,2.8359375,1.7226562
2.9482422,2.3623047,3.8730469,2.5410156,1.8525391
3.6601562,2.3291016,3.4892578,2.5527344,1.6005859
3.0800781,1.6582031,3.4169922,2.0419922,0.6533203
2.7763672,1.7890625,2.7910156,1.1650391,2.1884766
3.071289,3.7675781,3.553711,1.6318359,1.8125
4.3632812,3.0166016,4.1640625,4.125,1.5878906
6.1914062,1.8320312,3.7480469,4.6689453,1.7041016
6.53125,1.5273438,3.7070312,4.185547,1.5
5.036133,2.0253906,3.2363281,2.678711,2.8134766
3.4716797,3.3046875,3.453125,1.3417969,4.790039
4.051758,4.515625,4.5410156,2.15625,5.647461
4.057617,5.932617,5.330078,4.732422,5.694336
3.4111328,5.104492,3.921875,3.508789,4.995117
3.1572266,6.397461,2.788086,2.7177734,5.129883
3.194336,6.2539062,2.2246094,2.3652344,3.8417969
3.7158203,4.5029297,2.6240234,2.2041016,1.4072266
3.2490234,4.3134766,2.7001953,2.0908203,0.9121094
3.852539,6.2197266,2.546875,1.8964844,1.6220703
3.5273438,6.279297,0.8017578,0.9814453,2.484375
2.7734375,5.4902344,0.6982422,0.8310547,2.8115234
2.5507812,5.5615234,1.6044922,1.4589844,2.40625
3.0742188,6.591797,1.7744141,1.6416016,2.7832031
3.5908203,6.254883,1.7402344,1.4785156,2.6533203
3.3642578,4.8632812,1.2646484,1.2216797,2.6767578
2.8769531,5.1679688,1.0263672,1.6025391,2.8476562
2.7480469,3.7509766,1.1669922,1.7275391,2.2558594
1.0947266,3.678711,0.8173828,1.2167969,1.8964844
0.9707031,3.1591797,1.3886719,2.319336,2.3115234
1.3740234,3.5820312,2.4394531,2.227539,2.6767578
2.4072266,4.506836,2.7373047,2.46875,2.819336
2.711914,3.772461,2.5917969,2.803711,2.7216797
2.665039,3.2226562,1.9375,2.84375,1.8867188
2.2304688,2.6347656,1.1679688,2.7421875,1.2138672
2.3486328,2.6376953,1.203125,2.4794922,1.5800781
1.8173828,2.3427734,1.6855469,2.671875,1.6064453
2.3613281,2.0263672,3.303711,3.368164,3.0683594
2.7666016,4.9345703,2.7919922,2.9570312,3.5107422
2.8388672,4.6015625,2.7871094,3.0253906,2.9375
2.7490234,4.0791016,2.2285156,2.834961,3.1171875
2.3076172,4.1152344,1.0986328,2.5361328,2.8496094
2.0166016,3.1679688,1.1796875,2.319336,2.9804688
2.2714844,3.3496094,1.9921875,2.1982422,2.875
2.225586,3.4208984,2.5117188,2.897461,3.0673828
3.1845703,5.2246094,3.6503906,3.8554688,4.2539062
2.6777344,6.213867,3.6865234,3.7626953,4.1933594
3.3027344,6.1416016,3.7226562,3.493164,3.34375
2.6484375,5.5625,3.4404297,3.274414,3.381836
2.3076172,4.9726562,2.883789,3.5585938,3.4638672
2.7548828,3.8759766,3.3564453,3.446289,3.3007812
2.1035156,3.2089844,3.100586,3.1298828,3.0800781
4.3125,4.881836,3.2294922,2.7919922,4.2626953
5.830078,7.239258,5.4404297,3.59375,5.120117
5.0458984,7.432617,3.2041016,3.2548828,4.3447266
3.0478516,4.7177734,1.9287109,3.1425781,3.1308594
1.7490234,3.9111328,2.9697266,2.3808594,3.5302734
2.7578125,4.673828,2.0390625,2.6367188,4.0722656
2.4501953,4.791992,2.0292969,2.7011719,3.3740234
4.2265625,4.9833984,1.4589844,1.8251953,1.9863281
4.694336,5.067383,1.6337891,0.56933594,1.5791016
4.470703,5.4804688,3.9091797,2.0732422,5.0664062
2.9335938,5.5439453,3.274414,2.953125,3.8798828
3.4375,4.423828,3.3544922,3.3291016,3.2294922
4.9121094,4.489258,3.4394531,3.0351562,5.026367
6.1835938,5.185547,3.0205078,2.0947266,4.5371094
4.4746094,3.9414062,2.9326172,1.7255859,4.8164062
7.3710938,5.9726562,4.5703125,3.0898438,5.647461
8.141602,8.024414,8.243164,6.448242,2.9970703
7.4492188,9.801758,7.635742,7.5966797,6.8789062
7.7304688,9.425781,7.6396484,7.0947266,5.3359375
9.930664,7.6816406,6.580078,7.569336,2.5117188
10.655273,8.19043,5.663086,7.142578,2.4316406
10.366211,8.02832,6.6796875,7.9345703,2.446289
11.799805,15.108398,7.392578,8.571289,5.189453
13.271484,14.956055,9.444336,9.326172,6.1689453
12.728516,15.313477,11.203125,10.442383,5.9804688
11.592773,14.46582,11.150391,9.699219,7.9521484
12.176758,14.035156,9.808594,8.704102,6.4882812
11.402344,13.109375,8.250977,7.661133,6.1796875
9.802734,11.331055,6.435547,8.238281,5.2578125
8.895508,8.760742,5.7060547,6.2041016,5.7558594
8.011719,5.239258,5.7265625,4.359375,3.977539
6.635742,2.413086,4.3691406,3.9902344,1.640625
3.828125,2.0107422,3.1210938,2.7148438,1.9589844
1.1962891,4.3310547,0.6513672,1.0078125,3.2734375
1.2832031,3.493164,1.1191406,2.2021484,2.1748047
2.4160156,3.7734375,3.4814453,1.2519531,2.4248047
3.5058594,2.9433594,3.6220703,2.3642578,3.0126953
4.7109375,5.6240234,3.7773438,3.6894531,2.9726562
4.772461,5.9677734,3.1386719,4.361328,3.540039
6.7148438,4.7460938,3.3183594,4.338867,2.7939453
7.852539,3.8271484,4.411133,6.133789,4.1552734
9.359375,5.8935547,5.21875,5.9160156,4.029297
9.126953,8.688477,6.4658203,7.455078,4.517578
8.671875,12.228516,4.5878906,7.1728516,7.642578
7.2226562,12.027344,6.0507812,6.540039,6.961914
7.5253906,11.65918,3.1552734,4.7910156,7.0195312
8.02832,10.235352,4.2177734,4.493164,6.7939453
7.9414062,8.869141,7.379883,5.3007812,6.0
6.138672,9.483398,6.0751953,5.178711,6.8564453
5.942383,10.061523,6.6748047,5.5839844,7.4785156
5.5029297,7.510742,6.004883,5.0625,4.9853516
7.6953125,10.603516,3.3632812,3.8564453,6.1679688
7.3808594,11.519531,7.015625,5.040039,8.361328
7.1035156,10.77832,4.6347656,5.004883,6.8652344
7.5664062,12.139648,5.533203,5.645508,7.4716797
8.4921875,11.931641,7.1191406,6.5771484,8.750977
8.188477,11.457031,6.8808594,7.165039,8.176758
8.250977,11.828125,6.1376953,5.4501953,8.094727
6.9433594,10.665039,6.3164062,5.5751953,7.560547
6.3378906,10.506836,5.895508,5.182617,7.3496094
6.291992,9.913086,5.8583984,5.4277344,7.0615234
6.8466797,10.108398,7.2197266,5.5859375,5.9804688
5.3515625,9.353516,7.227539,5.5595703,4.5722656
4.9160156,7.3984375,5.7246094,4.213867,3.9697266
3.569336,5.588867,5.125,5.029297,4.4921875
1.2236328,5.8808594,4.385742,2.946289,4.4902344
2.9941406,5.838867,3.3691406,3.2285156,3.8222656
2.6621094,9.4921875,3.046875,2.9267578,4.2197266
3.477539,10.412109,4.234375,3.1855469,4.569336
3.8222656,10.365234,3.2382812,3.0097656,4.689453
3.8105469,9.640625,4.245117,3.4570312,4.640625
4.265625,9.462891,5.3789062,4.0527344,4.290039
4.463867,9.147461,6.2714844,4.8740234,6.3046875
4.1279297,7.4609375,6.520508,5.303711,6.3125
2.9726562,6.5371094,4.600586,3.178711,4.326172
2.5263672,6.078125,3.96875,3.2714844,3.2841797
2.046875,5.8808594,3.1669922,2.7617188,3.163086
2.0703125,5.5283203,3.5644531,2.9394531,2.4003906
2.4560547,6.1503906,4.3427734,3.100586,2.6933594
2.5078125,6.6083984,2.3417969,2.2958984,2.9482422
2.96875,7.5927734,3.9208984,3.1416016,5.1289062
3.9716797,8.253906,5.067383,4.783203,6.34375
3.8544922,8.933594,4.491211,4.107422,5.4765625
5.908203,13.22168,4.573242,4.9873047,7.2373047
9.433594,17.754883,8.073242,7.6132812,12.417969
10.646484,16.13086,10.786133,9.541992,12.114258
8.814453,15.319336,10.300781,8.595703,11.515625
8.616211,13.705078,10.564453,8.261719,9.645508
6.0214844,15.0,11.447266,9.887695,10.717773
4.915039,15.203125,12.196289,9.600586,12.196289
7.5585938,15.416992,11.844727,9.316406,11.526367
6.5214844,14.334961,11.408203,9.220703,10.086914
5.723633,11.884766,10.575195,8.448242,8.313477
5.1953125,10.420898,8.18457,7.493164,6.479492
4.0947266,8.811523,6.239258,3.774414,5.1552734
3.165039,7.7470703,4.814453,2.2373047,3.2304688
4.1376953,7.8271484,3.609375,2.0546875,4.919922
5.140625,7.323242,4.185547,4.0253906,4.8476562
4.6679688,6.100586,3.7802734,3.1875,3.9667969
3.453125,8.447266,3.008789,3.7001953,4.180664
3.6171875,9.1328125,4.0234375,3.2890625,4.321289
3.9072266,7.076172,5.3623047,4.3222656,3.5722656
3.2509766,6.8466797,5.647461,3.6259766,2.913086
2.6855469,7.5625,5.1708984,3.0517578,3.4882812
4.0771484,8.754883,5.2314453,3.7001953,6.1152344
5.0996094,12.231445,7.0595703,5.9658203,9.224609
5.7597656,15.907227,8.9609375,8.1875,11.2578125
7.2128906,16.961914,10.78125,8.220703,11.71875
7.604492,16.363281,10.391602,7.245117,12.166992
7.9960938,16.71289,10.80957,8.033203,12.491211
8.326172,18.395508,11.061523,8.84668,13.925781
9.59082,19.426758,10.25,9.378906,15.068359
10.46582,20.80371,10.616211,10.636719,16.161133
12.097656,22.166992,14.319336,11.474609,17.142578
12.49707,18.960938,15.592773,12.3359375,13.84082
10.828125,12.381836,9.975586,7.3847656,7.666992
6.1054688,13.271484,8.563477,6.794922,7.977539
5.6748047,12.792969,8.208008,7.71875,7.345703
4.8115234,12.709961,6.569336,5.036133,6.6484375
4.6503906,11.035156,4.6220703,2.7353516,5.6240234
5.7753906,8.772461,4.658203,4.0078125,5.46875
6.595703,10.356445,5.5966797,5.546875,6.4472656
4.3027344,10.556641,4.826172,4.071289,5.939453
3.9980469,11.825195,4.169922,5.739258,6.3896484
4.051758,9.561523,5.098633,5.1396484,5.555664
4.3222656,9.34668,5.6523438,4.4853516,4.7783203
3.4140625,8.758789,4.868164,4.3291016,4.1904297
3.4228516,9.19043,4.1533203,3.8730469,3.9980469
3.9814453,9.963867,5.0166016,5.5253906,6.7871094
5.033203,11.46875,7.131836,6.026367,7.6152344
4.609375,12.423828,6.8222656,6.076172,8.24707
5.375,13.575195,7.317383,6.288086,8.97168
6.897461,16.867188,8.7421875,6.875,11.87793
8.970703,16.222656,10.264648,8.669922,10.52832
8.808594,12.216797,7.864258,5.810547,6.9433594
5.977539,12.832031,7.0859375,6.1591797,7.4072266
7.517578,12.87207,7.9404297,7.649414,9.243164
8.541992,12.166016,9.104492,8.385742,9.231445
7.5546875,11.244141,8.175781,7.701172,7.9033203
6.0371094,11.848633,6.4121094,6.6591797,6.4902344
5.1992188,10.837891,6.3046875,5.9404297,6.2646484
5.080078,10.463867,6.671875,5.3945312,5.71875
5.239258,10.4921875,5.961914,4.288086,5.8242188
5.095703,8.435547,5.868164,3.6074219,5.727539
5.801758,11.978516,5.6152344,3.4873047,7.428711
7.5507812,13.833008,5.3476562,4.114258,9.138672
8.013672,15.432617,8.048828,6.046875,9.878906
8.746094,16.645508,9.644531,7.5751953,10.513672
7.9003906,17.320312,9.55957,9.011719,10.895508
