"[299, 255]","[227, 248]","[287, 319]","[279, 328]","[230, 262]"
6.9052734,4.8789062,3.6660156,3.5234375,3.7646484
7.0878906,5.786133,3.2294922,3.3955078,3.1777344
7.3964844,4.708008,5.178711,3.6230469,4.3779297
6.546875,4.9990234,6.383789,4.651367,6.6953125
6.5039062,5.4140625,6.703125,4.8789062,5.879883
5.2382812,4.123047,7.321289,5.5751953,3.7548828
6.8652344,5.491211,6.2070312,4.96875,5.133789
7.8710938,5.2197266,6.0195312,4.569336,5.8515625
6.178711,5.8623047,6.7578125,3.34375,2.6171875
5.0039062,6.598633,5.899414,2.1542969,2.59375
5.4501953,7.276367,5.9589844,3.4960938,4.961914
6.3789062,10.208008,4.859375,4.5966797,6.557617
5.491211,12.001953,5.330078,6.0185547,9.265625
3.4472656,10.1171875,5.3623047,5.598633,8.891602
3.2441406,8.948242,4.0771484,3.9648438,6.823242
2.1777344,7.8359375,1.6181641,3.1123047,4.8759766
3.3476562,7.776367,1.3261719,2.8320312,4.25
5.060547,7.970703,2.1191406,2.8027344,4.9072266
5.251953,6.3603516,3.5722656,3.4101562,5.8623047
4.546875,5.774414,3.9560547,4.051758,5.7490234
3.0917969,5.7958984,2.9941406,2.5878906,5.879883
3.1357422,6.3916016,3.0009766,2.5966797,5.7041016
2.7353516,4.9453125,2.53125,3.1015625,4.4589844
2.0888672,6.15625,2.1582031,1.7001953,4.0966797
1.8955078,6.4277344,1.9013672,2.3134766,4.3203125
1.9472656,6.161133,1.9306641,2.4072266,3.9667969
3.0146484,5.28125,2.703125,2.0332031,4.118164
3.5976562,3.6777344,3.7304688,3.1669922,3.8935547
3.8359375,1.9638672,4.1367188,3.4482422,3.2597656
4.0351562,5.6103516,2.930664,3.180664,3.6591797
4.4628906,3.274414,2.149414,1.9833984,2.9804688
3.6298828,3.9560547,2.4658203,1.9902344,3.5253906
2.7578125,2.1298828,3.038086,2.5507812,2.3769531
1.6279297,2.0234375,1.8291016,2.2988281,1.0820312
1.5634766,1.9521484,1.2382812,2.2949219,1.2363281
1.5585938,3.4970703,1.8837891,1.625,2.4023438
2.6103516,3.3544922,0.8808594,1.4785156,1.1611328
1.9179688,5.473633,3.0996094,3.4716797,2.9716797
1.1513672,7.4570312,2.5888672,1.671875,5.060547
2.0791016,8.660156,4.7929688,2.1845703,6.408203
3.7519531,10.035156,3.3447266,2.5498047,7.2597656
4.4941406,9.535156,3.461914,3.0683594,6.501953
5.671875,9.675781,3.9814453,4.9873047,5.442383
5.921875,9.575195,5.607422,5.701172,5.408203
5.1240234,10.078125,6.495117,5.9404297,7.989258
5.629883,10.870117,6.9248047,5.866211,8.939453
4.213867,11.393555,6.4570312,5.9257812,8.4921875
4.4521484,10.740234,6.3759766,5.1816406,8.0234375
4.5976562,10.022461,6.616211,4.6367188,7.010742
4.2128906,9.361328,5.9785156,3.4980469,5.4003906
4.8623047,7.8154297,5.205078,3.7792969,4.703125
4.006836,7.510742,5.245117,4.671875,5.631836
3.1142578,7.696289,5.1259766,5.383789,6.916992
1.9707031,7.7304688,4.3847656,4.3291016,7.272461
1.9472656,7.2958984,2.5185547,3.046875,6.1445312
1.7753906,6.388672,1.8603516,3.3222656,5.114258
1.6357422,5.6748047,1.6103516,2.8984375,4.2128906
2.3828125,4.176758,1.2783203,3.209961,2.7773438
3.0205078,2.147461,1.5019531,3.1972656,1.796875
3.8945312,2.3378906,1.9208984,3.0458984,2.4365234
4.897461,5.926758,2.2324219,4.2148438,3.6435547
2.9609375,4.5195312,1.8876953,3.0683594,2.2734375
1.2744141,4.1191406,0.8535156,2.1074219,1.3945312
2.1728516,1.7460938,1.8789062,1.4355469,1.8457031
3.3515625,4.416992,1.7929688,1.7070312,2.9208984
2.3544922,4.1621094,2.046875,0.88378906,3.2871094
2.1035156,3.772461,1.4257812,0.50390625,3.6445312
2.609375,6.067383,4.354492,2.741211,4.2539062
2.8916016,8.616211,5.533203,3.4951172,7.114258
2.4404297,8.94043,5.6445312,4.442383,7.1035156
2.3798828,8.824219,3.3095703,3.415039,6.680664
1.8242188,7.060547,2.4990234,2.9960938,4.760742
1.7666016,6.4990234,2.540039,2.1796875,3.7490234
3.0683594,6.0439453,1.5556641,2.5976562,3.9785156
4.1591797,6.807617,3.109375,2.1757812,4.647461
3.8603516,7.294922,3.7558594,2.8144531,4.7871094
2.9667969,8.833008,5.095703,2.959961,6.495117
3.180664,9.0234375,4.9316406,4.6552734,6.21875
3.0419922,7.4726562,4.645508,4.21875,4.416992
3.788086,5.915039,4.892578,3.4052734,2.711914
3.1884766,3.1904297,3.6464844,2.8603516,1.2646484
3.2675781,2.6728516,3.3935547,2.9970703,1.3408203
2.225586,5.975586,4.388672,4.274414,3.3867188
3.0810547,7.9033203,5.0195312,4.9248047,5.8466797
2.881836,9.094727,5.3115234,4.8320312,6.9375
2.3769531,9.748047,5.3222656,4.8984375,6.9296875
3.6582031,8.404297,4.6240234,3.65625,5.1777344
2.6757812,6.223633,3.883789,2.40625,3.2841797
2.7460938,2.5361328,2.959961,2.5566406,2.5595703
2.484375,2.227539,3.3740234,1.4023438,2.2402344
2.1376953,2.8496094,3.9716797,1.8759766,2.7333984
2.8613281,6.8359375,4.873047,5.2685547,4.739258
3.790039,7.7958984,4.4472656,5.0029297,6.361328
2.6269531,7.2529297,4.7685547,4.548828,6.776367
2.0175781,8.245117,3.1699219,2.4990234,6.963867
1.6904297,9.259766,2.625,3.1679688,6.2929688
2.8496094,9.5234375,5.953125,4.4990234,5.7177734
3.7207031,7.419922,5.0351562,3.8427734,4.3720703
3.4121094,7.0791016,3.8007812,2.7128906,4.5996094
3.711914,5.4541016,4.8945312,4.1728516,5.5146484
5.076172,4.5253906,6.2402344,5.6015625,5.2197266
5.1347656,6.1435547,5.783203,5.84375,4.6523438
3.7919922,5.522461,4.951172,4.3935547,3.8105469
1.6015625,3.5498047,4.493164,2.6953125,2.5166016
2.084961,4.8466797,3.9580078,2.1367188,3.1201172
2.2998047,6.2246094,3.9970703,2.6582031,4.258789
2.9853516,7.895508,4.5097656,2.8789062,6.203125
3.4550781,10.214844,7.3398438,5.5302734,8.37207
4.546875,13.294922,9.71582,9.131836,9.831055
4.4365234,13.12207,8.606445,6.3867188,10.044922
3.8759766,10.919922,7.7939453,4.6210938,6.897461
5.026367,8.1328125,5.5703125,2.743164,5.1376953
5.020508,9.424805,2.8339844,3.4521484,6.1054688
5.120117,9.1953125,3.5429688,3.9365234,5.495117
5.4121094,8.494141,4.8554688,5.4365234,5.557617
4.9101562,9.954102,4.6552734,4.791992,6.7197266
4.526367,7.734375,4.876953,5.1845703,6.1972656
5.743164,5.291992,4.4970703,4.883789,5.251953
4.5478516,5.0126953,4.3359375,4.498047,5.2128906
4.15625,8.110352,3.0800781,2.6552734,4.0791016
3.0917969,6.9902344,2.6992188,2.9003906,3.6933594
1.6191406,7.1220703,2.8222656,3.2822266,4.397461
2.9902344,7.109375,4.779297,4.078125,5.828125
4.5996094,7.7246094,4.9433594,4.6289062,5.3115234
5.033203,8.6015625,4.9003906,5.461914,5.2617188
6.006836,3.1357422,5.9873047,6.173828,3.0322266
4.6816406,2.4921875,4.7314453,5.2939453,1.7626953
3.6669922,5.9726562,3.8242188,3.984375,3.5546875
3.9882812,5.7851562,3.5800781,3.2636719,3.9355469
4.540039,6.555664,3.352539,3.8916016,5.1728516
5.7685547,7.807617,4.3466797,5.1416016,5.1064453
5.8710938,5.7216797,5.881836,5.4345703,5.6552734
5.7158203,4.163086,6.3779297,6.015625,5.9960938
6.020508,3.8496094,6.486328,6.350586,4.1445312
6.013672,3.2978516,5.1484375,5.8847656,2.3242188
5.4873047,3.4921875,4.8125,4.9814453,2.491211
5.890625,4.8535156,5.291992,5.182617,3.3388672
6.1523438,5.3222656,5.114258,5.015625,3.8916016
6.819336,5.998047,5.4560547,5.564453,5.2939453
6.4003906,5.9404297,5.8896484,5.9970703,5.7802734
6.055664,4.5634766,5.9316406,5.984375,4.834961
5.6992188,2.8671875,6.126953,6.036133,4.171875
5.0322266,3.7529297,5.2958984,5.4716797,3.3867188
4.850586,3.5136719,4.8027344,4.821289,2.0839844
3.897461,2.6220703,3.8222656,4.2216797,2.8544922
3.0,3.790039,3.2705078,4.0283203,3.9794922
2.375,2.756836,3.0771484,3.4121094,4.260742
2.102539,3.8730469,2.6542969,2.5800781,3.7646484
2.6279297,5.4746094,2.3613281,2.9335938,2.8408203
3.5029297,3.9638672,3.4824219,3.7148438,2.3095703
2.8164062,2.7783203,3.5195312,3.0214844,1.1269531
1.9941406,2.1083984,2.3828125,2.0898438,1.7822266
2.0,1.8076172,2.915039,1.8398438,2.2011719
1.65625,3.3105469,3.7207031,2.5761719,2.8886719
1.1591797,2.8964844,4.296875,2.868164,2.6826172
2.3779297,2.1572266,4.8671875,4.901367,3.2246094
2.6796875,5.2617188,6.819336,5.6748047,4.9375
3.3398438,6.7333984,6.5126953,4.3476562,5.2246094
2.805664,6.404297,4.5664062,2.725586,5.564453
1.4970703,7.2070312,4.8652344,2.368164,5.120117
2.1464844,7.0878906,5.2353516,2.8164062,4.616211
2.2949219,6.8779297,5.2978516,3.538086,4.1552734
2.928711,6.786133,6.569336,3.4453125,5.9570312
3.9736328,8.172852,7.8154297,3.5498047,6.6503906
4.9453125,8.314453,5.9697266,4.291992,7.526367
5.201172,8.5078125,4.946289,3.8857422,7.411133
4.336914,9.891602,3.2021484,2.7626953,6.6552734
4.2871094,9.5546875,3.7832031,1.9140625,5.2197266
4.276367,7.3095703,3.2460938,1.9169922,4.0039062
4.9570312,6.006836,3.5644531,2.4570312,4.526367
5.1640625,5.9492188,5.3134766,4.2402344,5.2734375
6.1240234,5.357422,6.786133,5.864258,4.7490234
5.5810547,3.5820312,6.9658203,5.6191406,4.4228516
4.8945312,4.3447266,5.6015625,5.2939453,3.725586
2.850586,6.0996094,4.1103516,3.7158203,3.8583984
1.6132812,5.3046875,2.3535156,2.5957031,4.0185547
2.0410156,6.8046875,2.3330078,2.359375,5.1191406
2.7832031,7.4882812,1.4482422,3.3291016,5.4560547
3.7128906,8.095703,2.0273438,4.2871094,6.919922
3.9472656,8.532227,4.640625,4.899414,7.3154297
3.8378906,8.896484,5.0185547,4.3945312,8.577148
4.2802734,9.8046875,5.8007812,4.739258,9.537109
4.171875,11.224609,6.823242,5.0283203,9.15625
4.5126953,12.005859,8.444336,5.6953125,9.27832
4.4785156,11.432617,10.2109375,4.8535156,7.8789062
4.8476562,6.776367,4.9345703,3.0205078,3.9277344
4.3251953,5.0283203,5.125,4.4521484,4.1875
3.3623047,5.0898438,6.4833984,6.828125,5.142578
5.5527344,5.788086,7.2734375,7.7617188,4.9882812
5.9091797,6.5009766,6.959961,6.8603516,4.6689453
4.352539,4.3066406,5.348633,4.9033203,3.0878906
2.3144531,4.4433594,3.3876953,4.430664,2.4082031
2.1875,6.3085938,3.5234375,3.5097656,3.4941406
3.413086,5.5527344,4.2441406,3.6298828,3.4658203
4.5966797,5.2666016,4.986328,4.8007812,3.9707031
5.0703125,6.5429688,4.1796875,3.2695312,4.416992
4.463867,6.7626953,3.0878906,3.2148438,4.586914
4.432617,5.9804688,3.0927734,3.6621094,3.8125
3.7802734,4.3164062,3.3085938,3.2783203,2.805664
2.5605469,2.8964844,3.6503906,3.0410156,2.5908203
1.8232422,2.7861328,2.209961,2.5341797,2.4970703
1.6923828,2.1572266,2.0898438,1.8730469,1.5976562
1.8271484,1.0146484,1.8769531,2.7919922,1.1396484
3.3251953,1.4716797,3.2871094,3.4423828,0.6142578
3.6728516,4.3007812,3.4179688,3.4658203,2.1582031
3.741211,2.3232422,2.9345703,2.8242188,2.21875
2.5859375,1.3994141,2.8808594,2.1582031,2.3798828
2.8251953,1.1328125,2.241211,1.6113281,2.2089844
3.1152344,1.3974609,1.1757812,2.1035156,1.7636719
2.40625,1.6943359,1.296875,2.569336,2.1728516
0.8828125,1.6181641,0.9951172,2.1083984,1.8730469
1.9482422,3.147461,3.1757812,2.28125,2.953125
2.5107422,3.4355469,4.15625,4.109375,3.8769531
2.5478516,2.3417969,3.9257812,3.9609375,3.1015625
2.7001953,2.0751953,2.7109375,2.3173828,2.0273438
2.7197266,1.5498047,2.9042969,1.7099609,2.399414
2.5625,1.2529297,2.0644531,2.1503906,2.3095703
2.7636719,1.7666016,0.93359375,1.4072266,1.8730469
1.7216797,0.9970703,1.2011719,0.6425781,1.15625
2.2539062,2.3251953,2.3427734,3.0126953,1.7529297
2.25,4.598633,3.8769531,3.5732422,3.1767578
2.4267578,5.6132812,3.2041016,3.1445312,2.625
2.9042969,4.5634766,2.8828125,2.6621094,2.2558594
2.8896484,4.388672,2.6083984,2.3476562,2.6386719
1.7412109,4.024414,2.0283203,1.2529297,2.6904297
2.0820312,4.3007812,1.3447266,1.2041016,2.524414
1.0019531,2.7363281,0.9589844,1.2167969,2.852539
1.9726562,1.2226562,3.1113281,3.6601562,3.1923828
2.4589844,4.1015625,3.8847656,3.8740234,3.2548828
3.3007812,5.6621094,3.3291016,3.4970703,3.0771484
2.8740234,5.080078,2.9267578,2.7050781,3.1757812
2.7207031,5.8847656,2.5527344,2.4238281,3.5332031
2.7246094,7.0253906,1.6474609,1.3984375,3.9111328
1.5068359,6.739258,1.0830078,2.040039,3.5722656
0.5859375,4.5234375,0.4404297,1.2050781,3.7958984
1.1845703,2.7978516,0.9042969,0.62109375,4.1171875
1.0751953,4.6660156,0.86621094,0.5654297,4.001953
1.8046875,6.0,1.2958984,0.94140625,4.317383
3.9052734,7.8554688,4.133789,2.7958984,4.055664
7.651367,7.4404297,4.944336,3.8720703,5.4208984
