"[299, 255]","[227, 248]","[287, 319]","[279, 328]","[230, 262]"
3.9902344,2.7539062,1.9804688,3.3671875,2.9121094
4.4921875,3.1347656,2.6123047,3.4921875,3.1367188
5.1884766,3.4326172,3.100586,3.7753906,3.086914
5.3291016,3.8447266,2.3984375,3.741211,2.703125
4.984375,4.9658203,2.8583984,3.9658203,3.1123047
5.6289062,5.963867,3.8007812,4.370117,4.307617
6.3935547,6.307617,3.975586,4.930664,4.3408203
6.2929688,6.3808594,4.0253906,4.9404297,3.7324219
6.385742,4.810547,4.3222656,5.0498047,3.6865234
6.1376953,3.8632812,4.654297,5.1796875,3.4902344
5.8125,3.868164,4.2226562,4.9814453,3.0927734
5.3759766,2.459961,2.3183594,4.1640625,2.350586
5.0546875,2.4980469,2.2128906,3.1699219,1.3359375
5.361328,2.4335938,3.4785156,3.711914,2.15625
6.1152344,1.8242188,3.5732422,3.8359375,2.5927734
6.0,2.7363281,3.40625,3.8652344,2.6660156
5.7939453,3.5419922,3.3251953,4.2109375,1.9042969
5.6132812,2.8652344,2.7666016,3.9697266,1.2333984
5.783203,1.8759766,3.475586,3.3652344,2.774414
5.4316406,2.6386719,3.4541016,2.4042969,2.4296875
5.6689453,1.953125,4.8320312,3.1171875,2.0732422
6.0966797,2.5810547,4.6865234,4.256836,1.7763672
5.432617,5.748047,3.3183594,4.254883,3.4697266
4.3945312,6.182617,2.959961,4.4941406,3.522461
3.9550781,7.553711,2.8476562,3.4052734,3.9345703
3.7597656,7.5458984,1.9345703,3.805664,5.0341797
3.4804688,6.888672,1.8798828,4.051758,4.7578125
3.5722656,6.4404297,2.4394531,4.319336,4.807617
3.4052734,8.03418,3.8251953,3.1416016,5.408203
3.140625,8.0625,3.5283203,2.7519531,4.336914
2.6796875,7.466797,3.9052734,3.540039,3.9365234
2.6640625,7.798828,3.9179688,3.0771484,4.4804688
2.7148438,8.31543,4.2539062,3.5966797,4.7890625
3.7109375,8.6328125,4.158203,3.991211,5.352539
3.921875,8.75293,4.0009766,4.796875,5.604492
4.8496094,9.272461,5.823242,5.571289,6.3046875
5.760742,9.199219,4.9990234,4.817383,7.0615234
5.745117,9.8125,4.107422,4.584961,6.4873047
5.7509766,10.134766,4.1210938,4.397461,6.004883
5.015625,9.395508,3.991211,3.9335938,4.958008
3.515625,7.9785156,3.709961,3.428711,4.0683594
2.8769531,7.178711,2.7919922,3.1123047,3.6074219
2.475586,6.330078,2.8554688,3.0683594,3.3857422
3.9873047,5.9072266,4.395508,3.741211,4.060547
4.0683594,5.727539,4.2802734,4.892578,4.7666016
4.1503906,7.008789,3.3671875,4.1484375,3.678711
2.8183594,5.8027344,3.3154297,3.5878906,4.5664062
2.6845703,7.029297,3.7285156,4.9023438,4.732422
2.678711,5.5253906,2.7666016,3.5009766,4.0722656
2.0927734,5.7558594,3.0234375,3.0263672,3.0458984
3.3134766,2.984375,2.1298828,2.8388672,2.5136719
5.205078,3.1259766,1.4892578,2.1376953,4.051758
4.392578,3.3261719,3.2128906,1.9814453,4.6728516
2.9697266,4.0039062,3.040039,3.3105469,3.7988281
3.046875,4.482422,2.7646484,3.3535156,2.6748047
3.5039062,3.734375,1.9980469,3.0429688,2.1103516
3.3183594,4.533203,2.6533203,3.0722656,2.758789
3.6523438,4.4365234,2.9296875,3.3652344,2.8808594
4.6259766,3.3916016,2.6298828,3.2480469,2.5166016
4.830078,4.623047,2.5175781,3.6445312,2.1455078
4.8046875,5.473633,3.4042969,4.4121094,2.9873047
3.6298828,3.7714844,3.0771484,3.2978516,2.3554688
4.4658203,4.5097656,3.1757812,3.9921875,2.8232422
6.0458984,4.004883,3.2646484,4.0009766,2.2451172
6.135742,3.4101562,3.0673828,4.1992188,2.7333984
6.2177734,2.9648438,3.1357422,4.260742,2.7753906
6.133789,2.9052734,2.7626953,4.3203125,2.4833984
6.1171875,2.350586,2.125,4.8916016,1.2597656
5.7617188,1.2001953,2.6845703,5.178711,1.6435547
6.1972656,3.0195312,3.0361328,4.658203,2.3574219
6.790039,5.180664,3.334961,4.9335938,3.1083984
6.5966797,5.959961,2.9824219,4.8359375,3.2226562
6.3027344,5.8847656,2.3164062,4.0878906,3.6796875
5.783203,6.2685547,1.3583984,3.8603516,3.4228516
5.3203125,7.3876953,1.7148438,3.7910156,4.0166016
5.303711,7.4521484,1.0722656,3.7109375,4.638672
4.5966797,7.1816406,0.875,3.7041016,4.4365234
4.705078,6.633789,2.0751953,3.46875,3.2246094
5.538086,7.1279297,2.5703125,4.067383,3.7919922
5.3691406,8.4921875,3.3798828,4.245117,3.9189453
5.1591797,8.12793,2.7519531,4.411133,3.602539
5.0996094,8.280273,1.9013672,3.9970703,3.6259766
5.1123047,7.9873047,2.0410156,4.2460938,4.169922
5.291992,7.5703125,1.5263672,4.1289062,4.1132812
5.0058594,6.8085938,1.1425781,3.3720703,4.151367
4.65625,5.107422,2.8222656,3.5361328,2.7529297
4.6279297,3.8173828,2.1123047,3.4316406,2.609375
4.3759766,3.116211,2.1611328,3.3183594,2.586914
3.397461,1.4570312,2.7294922,3.3408203,2.3740234
2.5908203,1.9199219,2.2509766,2.9892578,2.1152344
1.9521484,2.944336,0.7080078,1.8251953,2.125
1.3876953,1.7617188,1.4169922,0.9580078,0.83984375
1.7646484,1.4511719,2.2578125,2.2675781,2.1591797
2.1738281,4.598633,2.2226562,1.9482422,3.2539062
2.6259766,4.3183594,1.1308594,1.6699219,3.1513672
2.5234375,2.9228516,1.7919922,2.413086,2.8388672
2.256836,1.3603516,1.1416016,2.1455078,2.6035156
2.8964844,1.7548828,0.65234375,2.1601562,2.1064453
2.7841797,1.8515625,1.3144531,2.0722656,1.5585938
1.4970703,1.1601562,1.4003906,1.3925781,0.9111328
1.9560547,0.8105469,2.8251953,2.8720703,0.44140625
2.2236328,2.3046875,3.1875,2.4609375,1.4101562
2.7636719,2.5332031,2.7519531,2.3798828,2.2636719
2.7675781,1.9082031,2.1748047,2.368164,1.7792969
2.8828125,1.8417969,1.6660156,2.272461,1.109375
3.0576172,0.91308594,2.0048828,2.4248047,1.8037109
3.140625,1.7099609,1.7265625,2.5517578,2.5986328
1.6113281,2.040039,0.4189453,1.6054688,1.2578125
1.3798828,1.2548828,0.31347656,0.85839844,1.0419922
1.6464844,3.1591797,1.3076172,1.5107422,2.959961
4.7978516,2.4394531,3.0791016,3.0771484,3.493164
5.416992,3.1484375,3.4560547,3.71875,2.319336
6.169922,3.125,3.8789062,4.0039062,1.9970703
6.9492188,3.4541016,3.5722656,3.9667969,3.2158203
7.404297,2.8183594,3.288086,4.390625,3.2529297
8.384766,1.6591797,3.5908203,4.7695312,2.6894531
8.086914,2.0673828,3.7138672,4.9589844,2.8291016
9.074219,3.8095703,5.0039062,6.1347656,3.9111328
9.2734375,3.774414,5.229492,5.897461,3.5576172
8.463867,2.2080078,4.53125,6.508789,4.4541016
9.038086,3.6982422,5.7617188,6.65625,3.2958984
8.444336,4.301758,6.711914,6.258789,3.6464844
8.051758,4.397461,4.7998047,5.2958984,2.772461
6.790039,2.631836,3.836914,5.1445312,2.4941406
5.6914062,1.234375,4.5615234,4.6015625,1.9121094
5.8916016,2.3232422,3.8496094,3.2763672,1.3603516
3.1513672,1.5966797,3.3085938,3.8486328,1.1972656
3.8183594,1.3095703,3.1171875,2.4638672,1.3271484
3.7392578,3.9365234,3.2753906,1.7119141,1.6337891
3.5390625,5.602539,2.256836,1.9091797,2.3984375
3.8613281,6.0390625,2.3027344,3.4453125,3.9296875
4.1503906,8.22168,2.8320312,3.5664062,4.9902344
4.682617,7.9541016,4.022461,4.439453,4.5527344
4.807617,8.057617,4.3779297,4.7460938,4.7373047
4.5634766,8.15332,3.0585938,3.4550781,4.0039062
3.6523438,8.475586,3.803711,2.5166016,4.375
3.1582031,8.285156,3.149414,1.6875,3.9824219
3.0029297,8.254883,3.671875,2.9423828,3.7705078
3.2353516,7.5585938,2.9013672,2.7714844,3.0371094
3.7333984,8.100586,2.2246094,3.3378906,3.868164
3.5263672,8.365234,4.5722656,3.6083984,5.350586
3.4042969,9.009766,3.4189453,3.4052734,4.470703
3.6591797,9.0859375,4.4189453,3.5810547,4.573242
3.9394531,10.219727,3.5976562,3.7822266,4.993164
3.9453125,10.763672,4.729492,4.5410156,5.970703
4.4345703,10.99707,5.588867,4.8720703,6.182617
4.5507812,11.731445,4.8691406,3.1083984,6.3066406
4.2597656,10.246094,4.091797,1.859375,6.5371094
4.368164,10.389648,4.614258,2.9013672,7.0771484
3.680664,8.935547,5.158203,4.723633,4.821289
3.2148438,8.852539,4.9716797,4.428711,4.995117
2.6923828,5.4882812,4.680664,3.6572266,2.8554688
2.9179688,3.0205078,3.711914,2.6513672,2.2363281
2.7089844,4.1376953,1.2792969,2.4863281,2.4960938
2.8583984,3.9990234,2.0175781,2.6484375,2.477539
1.796875,2.586914,1.2167969,1.84375,1.1855469
1.2636719,3.5791016,0.89160156,1.2021484,1.9990234
2.3779297,4.15625,2.0986328,1.5390625,2.9833984
3.7089844,3.7197266,2.5048828,1.7001953,2.0
4.8740234,4.8251953,3.0957031,2.116211,2.5488281
6.466797,3.9853516,3.2402344,3.3251953,2.7822266
6.805664,5.166992,4.151367,4.071289,2.6054688
7.109375,7.958008,4.8310547,4.854492,4.0878906
7.8496094,10.65918,4.8164062,5.6210938,4.5185547
9.19043,10.373047,4.8447266,6.7617188,4.819336
9.334961,7.955078,6.0410156,6.959961,4.84375
9.5625,9.567383,5.7089844,7.3203125,5.854492
10.8125,7.604492,6.3789062,7.986328,3.6347656
11.261719,8.5859375,6.723633,8.219727,2.2138672
10.236328,7.2304688,8.149414,7.9941406,3.2324219
8.0703125,9.451172,7.9990234,7.9833984,4.8466797
5.647461,7.859375,5.0625,6.432617,4.3535156
2.8398438,6.623047,4.453125,5.21875,3.9794922
0.6230469,4.553711,4.055664,3.9765625,2.5283203
0.6191406,2.7636719,3.9902344,3.1074219,1.7480469
1.3828125,2.8720703,3.602539,2.8466797,2.4335938
1.3183594,3.366211,3.1767578,2.9277344,2.6796875
0.91308594,4.076172,3.1484375,2.397461,2.9404297
3.5966797,4.6259766,4.0302734,2.203125,3.2392578
5.8779297,6.9101562,4.9101562,2.2265625,4.142578
5.401367,6.760742,5.765625,3.5,5.9179688
6.6328125,8.28418,5.791992,3.993164,7.4052734
7.1552734,7.5097656,5.444336,4.9277344,8.576172
8.454102,8.15918,6.135742,5.28125,9.231445
8.125,12.092773,6.6367188,4.5751953,9.362305
8.089844,11.873047,7.7197266,5.2460938,9.577148
9.751953,11.251953,8.053711,5.504883,8.948242
9.392578,9.279297,6.986328,5.7314453,9.59668
9.058594,9.515625,7.301758,6.1503906,9.044922
8.294922,10.0625,5.9726562,5.0371094,8.603516
7.229492,10.353516,4.801758,3.3085938,8.205078
8.472656,10.078125,4.607422,2.9667969,7.8476562
8.933594,10.586914,2.96875,3.2802734,6.870117
7.510742,9.380859,2.9628906,3.2675781,6.069336
4.258789,7.984375,2.5859375,3.2802734,5.5585938
3.9853516,6.649414,3.5976562,3.7363281,5.2773438
4.448242,6.7177734,3.071289,3.4628906,5.0009766
3.696289,5.9365234,2.928711,3.859375,4.3720703
3.805664,5.935547,3.9033203,3.7080078,3.5058594
2.5839844,7.8515625,4.2470703,4.0039062,3.3242188
2.5195312,6.5185547,4.1992188,3.8828125,4.291992
2.430664,6.6679688,4.401367,4.0078125,3.859375
2.3789062,5.8554688,3.9033203,3.9882812,3.0136719
2.3623047,4.53125,3.991211,3.696289,3.0566406
3.0898438,5.696289,3.5302734,2.6777344,2.9189453
2.3320312,9.158203,2.5634766,2.7832031,3.5761719
1.4677734,10.68457,2.3271484,2.0263672,5.709961
1.2763672,10.508789,1.9335938,2.1904297,5.4882812
1.5146484,10.112305,2.2636719,2.1845703,4.4052734
2.1142578,8.876953,2.5146484,3.5576172,4.46875
2.328125,6.546875,2.453125,3.4609375,3.375
1.3759766,4.4365234,0.6923828,1.6679688,2.6542969
2.359375,4.888672,3.0664062,2.7363281,2.8330078
2.3496094,5.7666016,3.5214844,2.6259766,2.515625
3.0654297,8.225586,3.2402344,3.1523438,4.126953
4.060547,11.3984375,2.8261719,3.5273438,5.6523438
5.3134766,12.446289,3.421875,5.276367,7.455078
6.1777344,13.067383,3.1425781,5.794922,8.162109
6.838867,14.056641,3.9414062,5.2353516,9.261719
6.7783203,13.079102,6.189453,5.979492,8.641602
6.569336,7.100586,7.236328,5.3808594,4.0625
5.7773438,7.678711,6.7216797,3.1503906,3.4121094
3.696289,6.774414,3.1972656,3.8300781,3.3076172
1.7900391,5.53125,1.1455078,3.3632812,2.7753906
1.8935547,5.2041016,3.6259766,2.6533203,2.5009766
2.084961,7.522461,4.2578125,2.8847656,2.9667969
2.600586,8.733398,3.2548828,2.9785156,4.0947266
3.3564453,10.5859375,2.7324219,3.8623047,6.0683594
4.294922,11.1875,7.004883,4.1679688,6.8339844
4.9765625,8.530273,4.8310547,4.1845703,4.154297
3.9238281,7.3134766,4.283203,3.6132812,3.3535156
2.897461,6.4072266,4.2841797,3.711914,3.102539
2.9082031,6.756836,3.6777344,2.9169922,3.5253906
3.46875,8.797852,2.0683594,3.4824219,5.6884766
4.7509766,9.925781,3.4414062,4.4882812,6.698242
5.0410156,10.702148,5.1552734,4.5771484,7.364258
5.65625,11.564453,4.276367,5.107422,7.819336
5.8671875,11.365234,5.629883,5.5429688,7.254883
6.930664,12.818359,5.59375,6.758789,7.6464844
7.661133,12.505859,6.9882812,6.739258,8.474609
