"[299, 255]","[227, 248]","[287, 319]","[279, 328]","[230, 262]"
2.7929688,8.212891,5.8789062,3.4716797,5.998047
3.0703125,7.4990234,5.2753906,3.28125,5.1884766
2.8759766,6.203125,3.5996094,3.4316406,4.350586
2.866211,6.133789,4.8222656,4.4375,4.376953
2.6777344,6.6679688,4.7851562,4.4248047,4.751953
2.2695312,6.120117,4.1503906,3.9511719,3.5800781
2.8740234,6.267578,4.963867,4.2158203,3.1640625
2.7089844,5.448242,5.069336,4.310547,3.5117188
2.055664,4.7070312,3.78125,3.6455078,3.6728516
2.1669922,6.283203,2.9970703,2.9482422,4.4453125
2.5634766,6.2802734,2.8916016,2.2910156,4.9970703
2.8378906,5.868164,2.8691406,2.3671875,5.2529297
2.8613281,5.7041016,4.3242188,2.6035156,4.088867
3.296875,6.4140625,2.8623047,2.5888672,4.758789
3.8603516,5.620117,2.5654297,3.1201172,4.1259766
4.3466797,8.836914,4.1064453,2.8183594,5.272461
4.783203,9.8515625,3.8300781,2.7207031,5.3066406
4.8427734,9.3359375,4.2958984,3.2246094,4.9716797
4.317383,8.989258,2.9677734,3.1767578,5.696289
4.163086,7.848633,2.631836,3.640625,5.2285156
3.6425781,9.017578,2.9853516,4.205078,4.9677734
2.7451172,9.636719,1.8710938,2.9453125,5.114258
3.4814453,8.491211,1.0917969,2.9541016,4.6845703
4.352539,7.8310547,1.1103516,3.0058594,5.0683594
4.1660156,8.433594,1.1367188,3.5322266,5.004883
4.713867,8.763672,1.5292969,3.4902344,4.5009766
5.3759766,9.520508,1.9423828,3.7890625,4.6103516
5.338867,9.173828,1.3359375,3.852539,5.9277344
6.2626953,9.37207,2.5615234,4.321289,6.805664
6.3964844,9.047852,3.6054688,4.4726562,6.098633
6.7890625,8.640625,3.3466797,4.3183594,6.020508
6.645508,9.287109,2.4638672,4.647461,6.076172
6.419922,8.635742,3.0507812,4.7734375,5.595703
6.426758,9.125977,2.975586,4.0253906,5.868164
6.239258,8.942383,2.4697266,4.1240234,5.703125
6.7382812,9.6640625,1.7294922,4.955078,6.5654297
5.729492,9.551758,1.8496094,4.506836,6.8623047
5.6259766,9.874023,1.0585938,3.725586,5.126953
5.6435547,9.34082,1.78125,4.3242188,4.189453
5.7148438,8.09375,1.5107422,5.140625,2.7050781
6.0966797,10.689453,1.8574219,4.986328,6.618164
5.4375,9.498047,1.7373047,4.3564453,7.0429688
4.602539,8.842773,2.046875,4.0078125,6.176758
4.2041016,7.921875,3.7792969,3.0820312,5.9814453
4.123047,7.2070312,4.2490234,3.303711,5.854492
4.357422,6.6660156,3.5527344,2.7685547,5.4072266
4.7285156,6.586914,2.1357422,2.7080078,5.1552734
4.913086,7.696289,2.0419922,2.8916016,5.442383
5.0507812,8.389648,2.4111328,3.1347656,6.1865234
5.1777344,9.332031,3.8398438,4.5234375,6.6679688
5.203125,10.050781,2.5732422,4.0546875,6.9091797
5.379883,10.625,3.2910156,4.6171875,7.897461
5.334961,10.393555,4.9414062,3.3710938,7.9785156
4.805664,7.7441406,5.8671875,3.2333984,5.9921875
3.7089844,7.0927734,5.4902344,2.5097656,4.2246094
4.3789062,5.029297,2.4267578,2.5673828,2.6142578
4.2890625,4.3271484,2.4550781,2.866211,2.1279297
2.6132812,3.4511719,3.7597656,2.5458984,2.4580078
1.5039062,3.7460938,3.6171875,2.7929688,2.5605469
1.5400391,4.6884766,4.6308594,2.5214844,2.883789
1.4921875,5.4501953,6.348633,3.1601562,4.256836
2.7607422,6.888672,6.317383,2.7421875,4.3242188
3.4941406,8.918945,3.9589844,3.1074219,6.3466797
3.8867188,9.936523,5.0898438,3.8320312,7.8134766
4.982422,11.746094,5.169922,4.8046875,8.660156
5.7958984,12.455078,7.416992,5.961914,8.518555
5.5585938,11.700195,8.245117,6.388672,8.546875
4.9345703,11.216797,7.8066406,6.3935547,8.307617
4.6708984,11.111328,7.6347656,5.9052734,8.43457
4.2373047,10.6875,8.174805,6.178711,8.525391
5.3066406,11.879883,7.629883,5.709961,8.5078125
5.185547,11.393555,10.745117,7.147461,9.436523
5.1748047,10.347656,10.995117,7.930664,8.928711
5.0390625,9.8203125,8.751953,7.279297,8.49707
4.9853516,11.666016,9.074219,7.147461,8.862305
4.859375,9.700195,8.733398,6.1054688,7.791992
4.5898438,10.288086,6.7714844,4.2304688,7.276367
4.2929688,8.788086,1.8535156,1.3085938,3.883789
4.1347656,2.7041016,2.6240234,2.586914,1.3125
3.8613281,2.5771484,2.6044922,2.7158203,0.7871094
3.7890625,1.7392578,1.1914062,2.4677734,0.62402344
3.2890625,2.5107422,1.7167969,2.7392578,0.71484375
2.5136719,3.3232422,2.3984375,2.7695312,1.6191406
2.9638672,2.9560547,2.2705078,2.4345703,2.3720703
3.1083984,8.639648,2.1269531,2.586914,4.411133
3.6699219,9.787109,2.8388672,3.6464844,6.9501953
4.3671875,9.861328,6.6445312,4.694336,7.015625
5.3183594,9.74707,4.788086,5.1914062,6.8535156
5.3125,11.0703125,6.140625,5.1416016,7.2314453
5.665039,12.543945,6.3027344,4.9375,7.3447266
6.0595703,12.44043,4.9589844,5.5322266,8.198242
7.5039062,13.829102,6.176758,6.3251953,9.450195
8.1328125,14.680664,6.819336,5.6015625,9.907227
8.152344,15.900391,5.973633,6.1708984,9.967773
9.21582,17.655273,4.1376953,8.03418,11.771484
9.300781,17.049805,5.915039,8.90332,11.84668
10.266602,13.84082,9.717773,8.635742,9.276367
8.506836,10.568359,8.373047,7.1835938,5.9072266
5.788086,11.147461,5.1464844,4.5615234,6.276367
4.975586,11.2734375,5.189453,5.033203,6.5097656
5.307617,11.53418,6.004883,5.4453125,6.7285156
4.3535156,11.080078,4.3583984,3.8125,5.8134766
4.9228516,11.737305,5.455078,4.794922,8.118164
7.234375,17.855469,8.205078,6.7246094,12.6640625
10.5234375,21.316406,12.740234,10.313477,15.333984
9.777344,17.273438,10.537109,9.540039,11.647461
6.3867188,13.966797,8.698242,8.470703,9.017578
5.788086,11.499023,7.9570312,7.942383,6.7490234
5.692383,10.828125,6.498047,7.5302734,6.609375
4.4101562,9.397461,4.8554688,3.9091797,5.2509766
3.4072266,3.3955078,4.8408203,4.1835938,2.834961
5.1191406,9.9609375,5.5214844,3.7929688,4.794922
6.2128906,13.466797,3.165039,3.788086,8.864258
7.743164,16.750977,4.919922,3.7636719,11.024414
9.509766,19.742188,9.697266,6.2470703,14.537109
10.540039,20.624023,11.828125,9.504883,14.394531
10.291016,17.475586,8.9609375,7.151367,11.611328
9.519531,10.141602,5.392578,5.7421875,6.5976562
4.3945312,8.50293,4.9404297,4.5595703,4.897461
4.4521484,9.46582,4.4140625,3.9023438,4.9472656
4.4648438,10.34375,4.7714844,4.9453125,5.1621094
5.3251953,11.05957,4.5654297,6.057617,6.274414
5.158203,12.298828,6.7109375,6.2089844,6.5595703
5.8564453,13.300781,8.061523,8.055664,8.230469
7.254883,13.5,9.3984375,9.204102,9.098633
6.9833984,13.003906,8.628906,8.959961,9.178711
5.9853516,11.875,8.060547,8.558594,7.9414062
5.4941406,11.248047,7.010742,6.6728516,6.3310547
4.073242,9.407227,7.198242,5.7373047,4.783203
3.6054688,7.885742,6.3046875,4.495117,3.6542969
2.8222656,6.4033203,5.3583984,3.5351562,2.897461
2.53125,7.1884766,5.140625,3.194336,3.28125
2.8398438,8.924805,3.1240234,2.7949219,4.571289
5.1552734,12.1484375,3.7236328,4.0927734,8.4921875
6.8271484,13.689453,6.5791016,5.6572266,9.825195
6.84375,14.418945,9.347656,7.1132812,10.518555
7.120117,13.711914,11.286133,8.735352,11.276367
6.9316406,14.640625,11.764648,8.842773,11.104492
6.3984375,14.923828,11.506836,9.5078125,10.064453
5.875,14.355469,9.936523,9.345703,10.500977
6.0009766,14.1015625,9.474609,8.19043,10.993164
6.1777344,14.416016,10.717773,8.625,11.0078125
6.4208984,14.848633,12.285156,9.386719,11.743164
6.098633,14.142578,12.811523,9.81543,11.503906
6.836914,14.941406,12.449219,8.420898,12.009766
7.428711,15.871094,11.481445,9.106445,11.613281
7.4189453,15.768555,11.149414,10.255859,11.959961
8.836914,17.09082,11.448242,10.734375,12.613281
8.557617,16.195312,10.038086,8.06543,11.379883
8.785156,14.764648,7.020508,4.4257812,9.763672
7.5283203,13.635742,3.8105469,1.5507812,8.782227
6.9804688,13.448242,4.482422,1.6210938,8.368164
6.635742,13.056641,6.451172,1.5019531,8.533203
7.083008,13.128906,7.001953,2.5429688,8.599609
6.385742,11.198242,6.463867,4.310547,7.3339844
6.9384766,10.550781,6.6503906,5.283203,6.828125
6.529297,10.227539,4.7597656,4.598633,6.7070312
4.8691406,11.755859,6.4365234,5.1220703,7.9501953
6.0322266,14.376953,8.519531,5.470703,9.484375
8.298828,17.182617,9.34082,7.970703,11.751953
9.000977,17.59668,10.783203,10.113281,12.15625
8.849609,17.833984,10.839844,9.019531,12.124023
9.672852,18.99414,10.855469,7.921875,12.938477
9.597656,17.90918,7.6679688,7.338867,11.542969
8.808594,14.145508,8.019531,8.136719,10.424805
8.115234,14.310547,9.026367,8.569336,10.193359
8.09375,15.825195,9.214844,9.374023,10.520508
8.366211,15.510742,9.15332,9.606445,10.307617
7.8740234,14.837891,9.145508,9.24707,9.342773
7.1933594,12.307617,7.3154297,6.678711,7.1884766
5.4189453,9.480469,5.3310547,4.305664,4.6191406
4.1347656,7.4697266,3.647461,2.9560547,3.8632812
3.6826172,8.2421875,3.9277344,2.0107422,4.279297
4.696289,11.378906,3.2441406,3.6425781,6.6279297
7.7333984,16.136719,7.564453,6.783203,11.292969
9.439453,17.03711,10.807617,8.118164,12.619141
9.402344,19.69629,13.011719,10.322266,14.114258
11.369141,21.512695,13.293945,11.758789,14.357422
11.197266,23.266602,14.15625,13.782227,16.61621
12.9765625,22.34082,15.493164,15.139648,16.447266
12.37207,21.307617,14.96875,15.629883,15.8203125
12.015625,19.396484,12.834961,14.787109,14.094727
11.71582,19.010742,12.753906,13.458008,13.12793
11.027344,18.007812,13.038086,13.053711,12.62207
11.041992,17.17871,12.019531,11.401367,11.913086
10.064453,16.055664,10.727539,10.297852,10.231445
8.581055,14.205078,7.9873047,8.259766,8.833984
7.852539,12.799805,7.942383,8.067383,8.276367
7.580078,11.025391,8.134766,7.1660156,7.0927734
5.2197266,10.202148,5.9628906,4.8710938,5.493164
4.3320312,11.395508,5.6259766,3.616211,6.2216797
5.5390625,13.108398,6.486328,4.8710938,8.94043
7.678711,16.90625,7.4804688,4.8222656,12.123047
8.27832,17.134766,7.3945312,6.4833984,11.197266
6.3271484,12.079102,5.2597656,5.084961,7.4052734
5.0878906,8.208008,5.517578,4.7958984,5.3515625
4.015625,8.089844,5.3095703,5.513672,6.033203
4.4765625,6.584961,5.501953,4.3583984,5.4472656
3.7011719,6.286133,6.2578125,3.5878906,3.7998047
2.6269531,3.961914,5.5478516,3.8701172,2.7207031
2.5878906,3.484375,4.040039,3.359375,2.3242188
0.8730469,2.8964844,4.8271484,1.9208984,1.9433594
2.203125,4.9941406,3.6279297,1.9394531,1.2314453
5.0283203,7.631836,2.9589844,2.265625,4.120117
7.241211,9.489258,3.0195312,1.6943359,6.185547
4.4072266,8.769531,2.118164,2.9550781,4.303711
3.6308594,5.6289062,2.7519531,3.2949219,3.508789
2.9433594,7.729492,3.3242188,2.7851562,3.633789
2.6455078,10.152344,2.046875,1.9638672,4.364258
2.5048828,9.74707,2.1123047,2.9794922,5.0820312
2.8466797,10.124023,2.4072266,3.4833984,4.834961
2.3125,10.785156,2.131836,4.0859375,5.529297
3.3691406,11.793945,4.158203,4.8154297,7.682617
3.8789062,10.216797,4.178711,5.3808594,6.3554688
3.6279297,9.28125,3.9580078,5.40625,6.4570312
3.1640625,10.379883,4.794922,5.270508,7.3564453
3.4550781,10.316406,3.915039,5.794922,7.3847656
3.3300781,8.081055,2.9042969,5.399414,6.265625
3.178711,8.548828,3.1347656,4.6875,4.631836
3.2578125,9.557617,3.1044922,3.7558594,5.0859375
3.09375,8.766602,3.3730469,2.8632812,4.9365234
2.4521484,8.544922,2.4892578,2.8457031,3.7832031
3.0146484,7.4179688,2.8144531,2.647461,4.303711
2.3623047,8.086914,3.0175781,2.4804688,4.2226562
1.7441406,5.9921875,2.709961,1.4707031,2.7480469
2.75,4.2333984,1.640625,1.6972656,2.2324219
3.133789,2.0859375,1.8837891,2.75,2.4423828
1.7773438,3.0078125,1.8017578,2.4326172,2.3017578
0.91015625,5.6523438,1.6787109,2.6396484,2.5146484
2.834961,5.71875,2.4560547,3.5263672,2.946289
3.7050781,6.7177734,2.53125,3.9648438,4.463867
4.3720703,8.149414,2.9345703,4.3242188,5.274414
5.154297,11.110352,3.3476562,4.248047,5.4814453
5.6748047,12.529297,3.2109375,3.9326172,6.5771484
6.2265625,13.000977,2.665039,4.4521484,7.3984375
6.6777344,13.383789,2.6210938,5.1689453,9.269531
6.129883,14.022461,5.833008,6.086914,10.12793
6.189453,13.339844,7.6835938,5.6689453,9.5390625
6.598633,12.3515625,10.025391,6.203125,8.663086
6.3623047,11.838867,9.046875,5.1640625,8.841797
