"[299, 255]","[227, 248]","[287, 319]","[279, 328]","[230, 262]"
7.413086,4.7841797,4.015625,2.9804688,4.4052734
5.3847656,1.9072266,3.9814453,2.8046875,4.4277344
1.1191406,1.7021484,3.1074219,2.7714844,3.6103516
2.305664,3.1826172,1.7041016,2.0390625,3.4902344
1.4189453,4.294922,1.5927734,1.3261719,2.8828125
1.5419922,3.7177734,1.7685547,3.2246094,2.508789
3.8017578,2.7148438,2.9804688,2.8378906,2.4638672
5.4746094,4.6835938,3.0996094,2.4257812,2.7529297
3.0175781,4.2695312,2.8632812,2.8789062,3.0
2.8203125,4.4960938,2.3945312,2.508789,2.8671875
0.9238281,3.3144531,0.65527344,0.640625,3.6455078
0.7675781,3.2333984,1.4511719,1.9150391,3.8046875
1.2578125,4.361328,1.96875,2.7314453,3.9345703
1.8759766,5.399414,3.3945312,3.8964844,3.3535156
4.1904297,5.1796875,3.6591797,3.274414,2.272461
5.453125,5.0029297,4.334961,2.84375,2.5732422
3.2509766,4.475586,3.7998047,3.5576172,2.944336
1.9345703,3.9560547,3.6591797,3.3046875,2.4082031
2.4492188,2.2871094,3.7861328,2.4472656,1.6943359
3.2294922,3.6738281,4.1191406,2.109375,0.91503906
3.3027344,4.0117188,2.953125,2.4873047,3.225586
4.048828,3.8105469,3.8955078,3.2509766,3.4160156
5.165039,4.2734375,5.498047,4.5722656,2.9003906
7.1015625,4.321289,4.5878906,4.498047,3.834961
5.868164,3.538086,3.5595703,4.158203,3.3574219
4.618164,1.9082031,3.2949219,3.3779297,3.2373047
2.7441406,1.8535156,3.4589844,2.616211,1.4179688
2.4609375,3.1992188,3.2939453,2.0927734,2.9199219
2.430664,4.4160156,3.2333984,2.649414,3.3710938
2.7714844,5.182617,3.243164,3.3320312,2.7792969
4.680664,2.6572266,4.703125,3.2861328,2.5625
6.515625,4.5634766,4.0,3.4882812,2.7607422
2.9824219,3.3984375,3.6298828,3.1464844,2.9375
0.8457031,1.6982422,3.4951172,2.3271484,3.2578125
0.7080078,1.3779297,3.8251953,1.4150391,4.1210938
3.3759766,4.928711,3.9160156,1.4345703,4.790039
4.036133,7.6992188,4.5507812,3.4052734,5.3066406
4.5351562,7.5683594,5.8154297,4.633789,4.852539
5.3964844,5.928711,4.864258,2.709961,4.323242
7.0654297,5.151367,4.8896484,1.6025391,5.8115234
8.418945,3.6679688,3.9609375,1.7822266,6.3310547
7.8789062,4.732422,2.0625,2.9902344,5.0654297
7.5439453,7.584961,1.078125,3.4335938,5.96875
7.725586,7.850586,5.055664,4.541992,6.350586
6.3466797,7.850586,7.080078,5.3203125,6.4921875
6.557617,7.3632812,6.8916016,3.834961,5.868164
6.466797,6.6083984,5.067383,2.5888672,6.234375
7.180664,5.783203,4.8310547,1.390625,6.7939453
6.0878906,4.2929688,3.9345703,2.821289,6.828125
5.399414,5.4052734,3.883789,2.9404297,5.801758
4.930664,5.892578,3.1640625,3.7949219,6.5039062
4.779297,7.0810547,4.0839844,3.7607422,6.330078
4.7109375,7.9785156,4.647461,4.116211,5.178711
4.7822266,7.2783203,4.921875,4.3603516,5.1875
3.6220703,4.90625,4.7509766,2.9580078,3.8398438
4.961914,4.986328,4.3164062,1.9580078,3.8535156
6.2373047,4.0302734,3.828125,1.4550781,3.9804688
3.5888672,3.6933594,4.540039,1.9736328,3.3632812
1.3916016,2.9072266,3.2363281,0.671875,3.3466797
2.459961,4.6035156,0.85546875,1.8056641,3.2167969
3.2207031,5.698242,3.3632812,3.7236328,3.5126953
3.7597656,4.013672,4.0615234,4.2714844,3.5703125
4.317383,4.15625,3.178711,3.100586,2.2851562
3.4667969,2.727539,2.3105469,2.524414,2.2539062
2.7539062,2.5039062,2.7558594,3.4267578,2.524414
2.7265625,2.3085938,3.3896484,3.3671875,2.4121094
3.4921875,2.3486328,3.3164062,3.508789,3.7578125
4.6748047,7.5302734,3.8691406,4.0585938,5.1347656
5.6601562,8.733398,4.923828,3.836914,5.8847656
6.0820312,7.203125,4.53125,4.383789,6.2490234
4.466797,4.0527344,3.584961,2.8173828,5.926758
3.1455078,4.161133,3.5478516,2.633789,4.694336
2.7832031,5.841797,2.5947266,2.0791016,4.4160156
2.5957031,6.182617,1.5625,1.9189453,4.475586
2.631836,6.2910156,0.9160156,1.4033203,5.354492
3.7822266,8.342773,0.60546875,1.9716797,6.665039
3.9111328,8.4296875,1.7617188,2.4296875,6.5908203
4.736328,7.2529297,4.7021484,3.084961,7.073242
6.125,7.055664,5.1777344,3.2050781,6.4316406
1.2773438,6.0126953,5.4072266,1.8027344,5.2460938
1.6464844,3.640625,4.819336,1.4121094,4.0791016
3.1230469,2.1484375,3.9941406,1.9013672,2.5742188
2.0722656,1.0449219,3.5644531,1.2128906,2.6992188
2.1269531,5.133789,1.4316406,0.9980469,3.053711
1.9375,5.5322266,1.8125,3.3935547,5.3447266
2.9003906,6.3183594,3.3808594,3.4570312,5.4960938
2.5166016,5.6035156,2.6386719,3.765625,4.0371094
3.5410156,4.588867,2.897461,3.7197266,3.553711
3.1142578,5.3046875,2.1884766,3.578125,3.1396484
2.2871094,4.5810547,1.9570312,3.227539,2.4726562
1.6757812,4.0410156,1.6435547,2.3408203,2.9355469
2.8652344,6.033203,2.6513672,2.5800781,3.4345703
3.84375,8.542969,3.3046875,3.2226562,3.9921875
4.25,6.0566406,3.618164,3.2851562,3.6601562
3.5458984,4.647461,3.4082031,3.4833984,2.9169922
1.7822266,3.8789062,2.696289,3.2021484,2.7441406
1.4794922,3.7519531,1.8027344,2.03125,2.8046875
1.1455078,4.879883,1.1503906,1.2744141,2.383789
0.8857422,4.455078,1.578125,1.6259766,3.352539
1.7773438,4.713867,2.4492188,2.6679688,3.8574219
2.5263672,7.955078,3.0673828,3.4560547,3.9345703
4.126953,5.2070312,4.1816406,3.9072266,3.453125
3.5878906,4.9609375,3.9033203,3.7285156,2.4003906
2.5039062,4.6445312,3.3955078,3.1191406,2.2675781
1.0087891,4.251953,2.8398438,2.834961,2.6083984
2.1503906,4.296875,2.2011719,2.5917969,2.7265625
1.8203125,3.7353516,2.2558594,2.5966797,2.9960938
2.7148438,3.881836,2.4853516,3.2753906,3.866211
3.4521484,6.256836,3.4853516,3.6777344,3.428711
4.2646484,4.602539,3.6572266,3.3457031,3.0126953
3.334961,4.776367,3.1064453,2.9140625,2.3798828
2.446289,4.5683594,3.084961,2.694336,2.1894531
1.9980469,4.4882812,2.5488281,1.3730469,2.3574219
1.5498047,5.0566406,0.8564453,1.5966797,3.0351562
1.6923828,3.0957031,0.4111328,0.95996094,3.3789062
1.7666016,3.3320312,1.0205078,1.4912109,2.930664
2.8154297,4.4785156,3.2519531,3.803711,3.5664062
3.7597656,5.2089844,4.7998047,3.7734375,2.9501953
3.71875,5.024414,3.3115234,2.071289,2.649414
4.2246094,4.883789,2.0039062,2.116211,3.34375
3.6914062,4.1445312,1.7783203,3.2148438,3.850586
3.2421875,2.3789062,2.8642578,3.3417969,2.5322266
1.0488281,1.1552734,1.5273438,2.2001953,1.1289062
1.5244141,2.8925781,3.2011719,2.7158203,2.0732422
2.640625,4.0214844,3.9873047,4.4414062,3.2285156
3.2734375,3.7070312,4.1621094,3.8417969,2.6015625
3.850586,5.1123047,3.0009766,2.8066406,3.1835938
4.430664,4.4433594,1.7910156,1.8798828,3.430664
4.0908203,2.930664,3.163086,3.2490234,3.4013672
3.6757812,1.3095703,2.2246094,3.3847656,2.4384766
2.0273438,1.3759766,1.5800781,1.8818359,2.227539
1.4404297,3.3378906,2.805664,1.7021484,2.5917969
1.5361328,3.8964844,3.774414,4.3027344,3.430664
2.334961,3.4208984,4.4492188,4.2460938,2.8173828
3.46875,4.364258,3.350586,2.8828125,2.3046875
4.1152344,4.3291016,2.9707031,1.8847656,2.8222656
3.6621094,3.850586,2.4169922,2.6220703,2.7929688
2.8730469,3.859375,1.8144531,1.3095703,2.7480469
1.4003906,3.9365234,0.83496094,1.5449219,3.0263672
2.4482422,7.1376953,2.7070312,3.6240234,3.5
4.616211,6.9814453,5.129883,4.756836,3.8798828
5.1503906,3.7011719,5.5976562,5.557617,3.1923828
4.100586,2.899414,3.5048828,4.176758,2.3408203
2.8613281,3.9736328,3.6220703,3.8164062,1.3798828
1.2167969,3.7822266,4.6591797,3.9296875,1.8447266
1.7275391,5.629883,2.2783203,2.069336,3.7509766
4.466797,7.0029297,3.6953125,4.251953,3.8867188
4.5966797,6.6748047,5.3867188,4.455078,5.3476562
6.133789,9.081055,5.2939453,5.248047,6.506836
4.9296875,8.501953,4.0566406,3.647461,5.9970703
3.977539,6.8623047,2.2509766,2.7001953,4.5410156
5.334961,5.5908203,3.0703125,1.5791016,4.0351562
5.1240234,5.1279297,2.9609375,2.5078125,3.3466797
1.9804688,5.5283203,2.0761719,2.4238281,3.1123047
1.2304688,5.876953,1.0888672,2.1289062,4.555664
2.6230469,6.326172,3.5673828,3.3642578,5.4501953
4.3935547,6.6503906,4.2177734,4.0859375,5.0625
4.607422,6.716797,4.0009766,3.5742188,4.671875
3.2548828,5.868164,3.3408203,2.6503906,3.2558594
3.602539,5.821289,2.1054688,2.3828125,2.6826172
5.0527344,5.350586,1.9824219,1.7929688,2.7294922
4.5634766,4.234375,2.1416016,2.7246094,2.461914
2.7773438,2.555664,1.8740234,2.0634766,2.0078125
1.6728516,3.4248047,3.4482422,2.7070312,2.946289
2.272461,5.5683594,3.5175781,3.2919922,3.65625
3.1074219,5.073242,3.7597656,3.2763672,2.6132812
3.2773438,3.7021484,2.8105469,2.4052734,2.2617188
2.8544922,3.3476562,2.1669922,1.9599609,1.9541016
2.7783203,1.4589844,2.4501953,1.9765625,1.7900391
2.3222656,0.49609375,1.3808594,2.4628906,2.2392578
1.2792969,1.9023438,1.7021484,2.0898438,2.4833984
2.2041016,5.28125,4.6816406,3.9570312,4.540039
3.0732422,6.734375,5.5097656,5.116211,4.9345703
2.881836,6.935547,4.883789,4.595703,4.7871094
2.741211,6.1875,4.2402344,3.4169922,4.995117
2.727539,5.7578125,3.1699219,3.6611328,4.892578
1.9462891,6.46875,4.116211,3.4628906,4.913086
3.555664,6.625,7.2666016,3.8320312,4.2841797
2.2421875,5.986328,6.4335938,4.7216797,4.098633
2.288086,7.2597656,5.1601562,4.692383,5.213867
2.9384766,8.766602,5.493164,5.7626953,6.283203
3.493164,8.4375,5.176758,5.1132812,6.3271484
2.334961,8.285156,5.151367,4.0791016,5.3896484
2.4296875,6.551758,5.1210938,3.2246094,3.25
2.9111328,4.9589844,3.5449219,2.4472656,2.9492188
2.5791016,5.9521484,3.383789,1.8261719,3.618164
2.9179688,7.631836,5.3134766,1.9169922,5.6289062
4.263672,8.927734,5.7314453,5.1054688,7.254883
4.9453125,9.740234,7.2910156,5.7060547,9.027344
5.088867,10.8671875,6.3291016,5.223633,8.856445
3.4726562,10.576172,6.59375,4.916992,7.3291016
2.8916016,10.435547,5.8251953,3.328125,6.857422
3.9482422,10.125977,5.705078,2.5722656,6.2089844
4.7285156,7.7246094,2.5605469,1.6894531,4.2265625
4.4697266,7.0410156,2.7070312,2.5888672,4.911133
4.9091797,7.713867,4.9814453,3.9794922,6.8027344
5.9765625,6.2373047,5.2285156,5.4091797,6.3623047
6.328125,6.1240234,6.4384766,5.751953,5.274414
3.9833984,6.765625,4.1845703,3.7792969,4.6591797
3.4179688,7.923828,4.024414,3.0966797,5.0185547
3.6484375,9.634766,3.584961,2.4277344,5.461914
4.1367188,9.337891,2.6972656,4.0214844,5.4101562
5.336914,9.118164,4.75,4.3066406,5.9101562
5.486328,8.073242,7.1689453,6.4677734,7.0810547
6.131836,7.383789,8.105469,6.883789,6.8535156
6.6884766,5.966797,7.7529297,6.225586,6.1367188
4.8183594,6.6884766,4.251953,4.033203,3.413086
3.7597656,8.885742,4.4208984,4.098633,3.0429688
2.8085938,8.490234,5.2441406,4.1035156,4.5585938
3.21875,5.838867,5.2783203,3.9365234,3.1972656
4.1445312,5.3779297,5.852539,4.6845703,3.0371094
5.0585938,5.864258,6.274414,5.0351562,4.475586
4.1757812,7.2851562,5.5478516,5.1191406,5.8671875
3.1132812,8.639648,3.334961,2.3085938,6.801758
4.3183594,9.040039,2.5888672,3.7021484,6.2802734
5.444336,9.249023,4.7421875,3.8798828,6.4189453
4.895508,9.435547,6.114258,4.588867,6.669922
4.051758,7.883789,4.2978516,3.8251953,5.895508
4.526367,8.451172,4.979492,4.616211,7.2597656
5.953125,9.029297,4.2646484,3.5195312,7.6347656
6.6523438,6.9726562,3.4638672,3.6845703,6.830078
6.317383,3.9677734,2.9794922,2.6972656,4.7285156
3.883789,2.8457031,3.1259766,1.9667969,1.5615234
2.0761719,3.8115234,3.1328125,0.9326172,1.2460938
1.4189453,5.6416016,3.7607422,1.9296875,5.326172
5.711914,8.371094,5.1308594,1.6796875,8.326172
8.37207,4.5029297,5.845703,1.2783203,7.786133
7.852539,5.4384766,6.588867,3.3603516,7.129883
7.6748047,3.1416016,5.430664,3.180664,7.1152344
6.645508,2.6542969,5.020508,3.515625,6.1396484
6.598633,1.484375,4.892578,2.875,4.4589844
7.5146484,1.9541016,4.383789,3.4677734,2.9111328
7.8535156,3.0625,3.5878906,3.8789062,3.0830078
7.489258,4.703125,3.8603516,3.7753906,2.5742188
7.2646484,4.9365234,4.3896484,4.024414,2.03125
6.1679688,3.7353516,4.538086,5.2734375,2.8867188
3.4638672,3.0576172,4.645508,5.236328,1.9375
3.7167969,4.3339844,4.8085938,2.3242188,3.3115234
4.3447266,6.171875,3.6953125,1.2568359,4.3427734
4.2978516,6.7353516,3.703125,1.34375,3.1083984
