"[299, 255]","[227, 248]","[287, 319]","[279, 328]","[230, 262]"
3.506836,2.9160156,1.7167969,1.9882812,2.0585938
3.1689453,3.4482422,0.7998047,2.727539,2.4003906
2.4609375,5.041992,1.4941406,2.8115234,3.163086
1.9863281,6.147461,3.4052734,3.7470703,5.3964844
2.3007812,6.5283203,4.6171875,4.263672,5.345703
1.5830078,6.2734375,4.9492188,4.53125,4.513672
1.2675781,4.6796875,2.9648438,2.2636719,1.9521484
1.1455078,3.2158203,2.647461,1.5908203,1.9677734
0.71972656,5.774414,3.1230469,2.9121094,2.5859375
0.92285156,5.263672,3.7451172,3.3427734,3.5048828
2.7851562,5.326172,3.546875,2.9921875,2.7421875
3.8203125,4.979492,3.6679688,3.3232422,3.4365234
4.1914062,5.6308594,4.345703,3.7294922,4.4003906
3.7636719,6.379883,3.3085938,2.4833984,3.75
2.0771484,5.234375,2.5615234,2.3457031,2.7607422
1.7685547,3.7871094,2.1933594,2.3496094,2.1132812
0.6435547,3.5820312,2.0576172,2.3310547,1.9335938
0.9472656,5.604492,1.6484375,1.3457031,1.96875
0.98339844,5.3740234,0.60253906,1.5810547,2.211914
2.3847656,5.310547,1.5371094,1.8183594,3.9892578
2.7041016,6.2695312,4.3203125,3.5742188,4.946289
1.9169922,7.2353516,4.544922,2.8613281,5.006836
3.2041016,7.8291016,5.826172,2.5820312,4.9560547
4.0908203,9.182617,6.0126953,4.7851562,6.3847656
5.448242,10.961914,5.8603516,5.3320312,6.279297
5.9316406,11.586914,5.7529297,5.7070312,6.491211
5.6523438,10.430664,5.979492,5.9560547,6.4375
6.3535156,10.9453125,7.208008,7.584961,8.135742
7.404297,11.866211,6.618164,7.256836,8.236328
5.5214844,10.979492,5.5634766,6.2871094,8.192383
4.046875,10.173828,5.3447266,5.9746094,7.317383
3.8134766,9.447266,4.2890625,4.620117,6.6621094
3.3945312,10.25,4.194336,3.4482422,6.1660156
3.2763672,10.501953,2.868164,3.0898438,6.2177734
2.5,8.422852,2.0625,2.852539,6.475586
4.0507812,7.8720703,2.8671875,2.5917969,6.833008
4.303711,7.517578,3.6220703,2.9189453,5.6123047
3.1728516,8.227539,2.2148438,1.1923828,5.9521484
2.84375,8.016602,2.0673828,2.5498047,4.857422
2.9140625,6.711914,2.4990234,2.7792969,3.5039062
2.6386719,4.0810547,1.6455078,2.4111328,2.59375
2.0332031,2.8857422,1.6367188,1.7558594,2.0576172
1.640625,1.6875,1.4257812,0.8300781,1.1777344
1.7099609,0.8779297,2.334961,0.4970703,0.7626953
2.0439453,1.890625,2.5351562,2.5458984,2.3554688
2.7529297,2.9453125,2.9667969,3.3125,2.65625
4.102539,4.286133,2.5097656,3.2080078,2.8886719
4.524414,3.8271484,2.5273438,2.5878906,4.723633
3.0585938,3.5078125,3.2451172,2.5019531,4.482422
3.428711,2.4384766,2.2939453,2.640625,4.767578
3.1972656,2.8027344,1.3242188,1.7373047,5.0371094
3.6845703,1.9931641,2.6826172,0.4873047,5.338867
3.928711,4.319336,5.1054688,2.9736328,5.8623047
3.5019531,5.067383,4.461914,3.321289,4.9248047
4.413086,4.6884766,2.9609375,3.4335938,4.290039
4.533203,5.34375,3.1201172,2.8388672,5.607422
4.4121094,4.411133,3.1142578,2.640625,5.901367
4.963867,5.5273438,3.6308594,3.6386719,5.4023438
6.0039062,6.303711,3.5517578,3.1796875,6.258789
6.9375,7.586914,6.4257812,5.888672,7.7773438
6.3046875,7.0214844,6.4541016,5.7304688,7.415039
5.227539,6.0195312,5.5439453,5.185547,6.060547
4.685547,5.341797,5.0722656,4.7509766,6.5097656
5.8222656,5.611328,4.463867,5.2646484,7.4257812
4.4257812,5.9208984,3.5507812,3.7763672,6.763672
3.040039,6.1103516,2.6542969,2.6396484,5.9453125
3.4091797,5.28125,1.2070312,2.274414,4.466797
5.4384766,7.229492,5.046875,4.9023438,7.276367
6.4589844,7.805664,6.5078125,5.3085938,7.520508
6.4248047,8.008789,5.6435547,5.086914,6.685547
7.2470703,7.1210938,3.8173828,3.803711,6.208008
3.9980469,4.729492,3.2167969,4.2421875,6.0146484
4.272461,5.908203,3.6484375,4.182617,5.5058594
5.0185547,5.6533203,2.821289,3.0742188,5.9697266
5.3408203,6.498047,4.4541016,3.4091797,6.9804688
6.0585938,5.432617,6.489258,5.198242,7.623047
6.3066406,7.3251953,6.729492,5.9345703,7.0126953
5.4277344,7.296875,5.1552734,5.109375,7.2314453
5.1152344,5.578125,4.444336,2.828125,7.225586
4.729492,5.495117,2.8300781,3.2910156,5.7871094
4.6445312,4.977539,3.647461,2.694336,4.0722656
3.7089844,5.1728516,3.1621094,2.834961,5.314453
3.5351562,6.2802734,2.8710938,2.4814453,5.736328
4.948242,7.2978516,5.8339844,4.201172,5.915039
5.2314453,6.848633,6.392578,5.2646484,5.9990234
4.248047,7.0878906,4.9228516,4.442383,5.0810547
4.109375,7.3496094,2.6601562,3.1074219,5.7490234
4.833008,7.629883,2.6376953,2.9082031,5.649414
4.821289,7.4960938,2.149414,2.477539,5.370117
3.5898438,7.0722656,2.6757812,2.3623047,6.1523438
3.8730469,7.4873047,3.6015625,2.390625,6.4697266
3.9746094,8.293945,3.9785156,3.0185547,7.2246094
5.5166016,8.313477,4.78125,1.5078125,6.463867
6.6748047,8.1796875,4.0214844,2.7158203,5.9492188
5.743164,8.09668,3.9550781,2.772461,5.921875
6.0742188,7.4003906,5.28125,3.1816406,5.526367
4.7695312,7.0234375,4.836914,3.0039062,5.227539
3.8896484,6.370117,4.6816406,3.2333984,5.169922
4.1884766,5.1152344,5.3740234,3.3730469,5.5634766
4.633789,4.798828,5.7158203,4.0351562,5.376953
5.8945312,4.4570312,5.5820312,4.8867188,5.2783203
5.4570312,6.9472656,5.383789,3.6503906,5.2890625
4.881836,5.803711,5.3496094,2.9208984,5.888672
4.4453125,5.8476562,5.234375,3.0351562,6.541992
4.5908203,5.3759766,3.9804688,2.5214844,5.9375
4.026367,6.129883,4.4560547,2.6992188,6.3564453
4.3896484,6.5791016,4.8554688,2.6259766,6.5302734
5.1484375,4.8779297,5.8779297,1.9853516,7.510742
4.911133,3.9238281,6.2304688,3.1767578,7.958008
3.6230469,8.104492,5.482422,3.2382812,6.366211
5.0791016,6.4003906,3.1708984,1.6201172,5.5595703
4.498047,5.701172,2.7832031,2.3222656,5.6396484
4.7890625,4.6103516,2.0917969,2.8759766,5.7070312
5.2265625,4.0234375,2.8857422,2.415039,5.4882812
4.517578,4.095703,4.1035156,2.303711,5.4628906
4.676758,2.9970703,5.3398438,3.7158203,6.578125
4.8847656,4.4658203,5.7646484,5.1464844,6.430664
3.9648438,3.6679688,4.966797,3.1279297,5.685547
3.6748047,4.125,4.498047,1.4365234,6.225586
3.6611328,2.3388672,4.1533203,2.4570312,6.2617188
3.6367188,3.171875,3.7402344,2.4765625,4.9140625
6.6523438,3.5048828,3.3925781,1.9990234,4.7978516
8.145508,3.444336,4.6972656,1.3378906,4.614258
5.6992188,2.5732422,5.8603516,3.881836,4.6914062
4.544922,2.078125,5.3085938,4.8027344,4.569336
3.2832031,2.1992188,4.2265625,3.5947266,4.794922
2.8945312,2.6044922,2.8603516,2.0546875,4.1660156
3.1259766,2.6201172,2.1513672,2.491211,4.8378906
2.9365234,2.381836,2.2207031,1.3740234,4.254883
1.9111328,2.9414062,1.1494141,2.3652344,4.133789
2.2939453,3.5703125,1.5244141,1.8339844,3.211914
2.9169922,3.6552734,2.2714844,2.4101562,4.5341797
3.8769531,6.7402344,3.7490234,3.2597656,4.5654297
3.0371094,7.1445312,2.430664,3.4140625,4.4160156
2.8486328,5.736328,1.7275391,2.5390625,4.1865234
2.7304688,4.4833984,1.953125,2.5371094,3.5830078
4.09375,4.426758,1.5791016,2.6865234,3.0332031
3.8720703,3.9941406,1.7900391,2.3554688,2.7050781
4.4101562,4.533203,1.7285156,2.1611328,2.7666016
5.038086,5.203125,1.8857422,3.1435547,4.2841797
3.243164,5.7802734,1.5996094,2.7138672,4.192383
2.1074219,6.5195312,1.8417969,2.1992188,3.2441406
2.8115234,5.4804688,1.4199219,2.2734375,2.7207031
3.1357422,4.6904297,2.1748047,2.4570312,2.758789
3.9648438,2.381836,2.5732422,2.5732422,3.2822266
2.2294922,2.8847656,1.1230469,2.0253906,2.3339844
2.2138672,4.086914,1.5458984,2.4707031,3.3779297
2.9345703,5.4316406,1.8017578,3.7861328,4.323242
4.9560547,6.161133,3.663086,5.1220703,4.3603516
4.635742,6.004883,2.4960938,4.620117,4.0097656
6.1083984,6.267578,2.140625,4.3154297,4.3447266
4.6210938,8.136719,3.3945312,3.1845703,5.970703
2.3613281,7.140625,3.7753906,2.9257812,5.198242
2.9121094,6.2070312,3.5058594,3.7558594,4.8447266
2.711914,6.6689453,3.6445312,3.9199219,4.8564453
4.0039062,6.774414,4.2041016,5.0058594,5.819336
5.03125,6.720703,5.2714844,5.776367,5.09375
4.288086,6.4746094,3.7070312,4.2529297,4.489258
2.8632812,5.8603516,3.5390625,3.28125,3.459961
2.7441406,2.821289,2.4042969,2.7382812,3.5
2.1142578,2.6396484,2.5185547,2.75,2.4355469
2.3730469,2.8085938,2.2265625,2.421875,1.8076172
1.84375,2.0839844,1.7226562,1.8603516,1.7900391
1.8710938,0.59277344,1.4433594,1.625,2.180664
3.3339844,0.9375,2.9257812,2.9736328,2.4296875
3.0263672,3.4228516,2.8134766,2.0322266,2.3007812
2.5800781,3.7128906,2.5927734,1.8212891,1.4355469
2.0996094,2.4072266,1.8095703,1.5693359,1.7011719
2.1035156,2.2441406,2.4248047,2.0722656,2.524414
1.7607422,0.734375,0.79589844,2.413086,2.7675781
1.2314453,2.3007812,0.73535156,2.1054688,2.078125
1.1318359,2.6142578,0.80371094,1.2880859,1.9091797
1.8828125,2.1748047,1.8769531,1.8623047,2.2636719
1.6894531,2.375,3.2705078,2.4277344,1.3662109
1.2744141,1.8291016,1.9970703,2.2158203,1.4941406
1.5615234,2.381836,1.7451172,2.3173828,1.3574219
2.0273438,1.9003906,0.82421875,2.5058594,1.5478516
2.3447266,2.0126953,0.91796875,2.5546875,2.0517578
1.8935547,2.1767578,0.5800781,2.055664,1.7197266
1.1152344,1.2207031,0.81640625,0.8935547,0.859375
1.6123047,1.5566406,3.0644531,2.3916016,1.5439453
1.7705078,3.4033203,2.9003906,2.0966797,2.4628906
2.9726562,3.9384766,2.1708984,1.3935547,2.515625
3.3427734,3.165039,1.3037109,1.125,2.1904297
3.3486328,2.59375,2.2988281,2.7646484,2.5751953
3.4570312,3.3623047,1.7783203,2.836914,2.5839844
4.254883,3.9179688,1.5927734,2.4384766,3.0722656
3.75,4.540039,1.7226562,1.3105469,3.0253906
3.0908203,1.3671875,2.9257812,2.3388672,2.1533203
2.3408203,4.4375,2.5908203,2.7451172,3.3291016
2.6171875,4.553711,2.788086,1.8691406,3.4853516
2.975586,4.4375,2.0302734,1.3974609,3.3095703
3.1777344,4.1083984,0.9707031,1.6728516,3.0839844
2.4072266,4.723633,1.0654297,1.9785156,3.0449219
3.3144531,4.1816406,1.2216797,1.1923828,2.2929688
4.2871094,5.2421875,3.4902344,1.1728516,3.1259766
4.671875,6.5996094,4.448242,2.3417969,5.0117188
4.709961,7.522461,3.2294922,2.4667969,4.633789
4.211914,5.9648438,2.5390625,2.8896484,4.6933594
3.9990234,6.2978516,2.383789,3.046875,5.4873047
4.006836,7.1689453,2.9375,3.459961,5.3154297
4.254883,7.598633,2.9052734,3.3671875,5.3789062
4.854492,7.2265625,2.9609375,3.2089844,5.529297
5.5029297,8.444336,3.015625,3.6171875,6.5439453
5.2060547,9.208008,4.421875,3.6054688,6.8515625
4.4677734,6.705078,3.2216797,3.1425781,5.901367
5.495117,8.15625,2.3779297,3.274414,7.0166016
4.689453,8.794922,2.2333984,3.7802734,6.694336
3.9414062,10.016602,2.6132812,3.1982422,6.419922
3.6523438,9.089844,2.3359375,2.8310547,6.4658203
4.321289,8.133789,2.678711,3.4345703,6.5214844
4.598633,6.486328,3.9873047,3.4765625,6.7148438
4.767578,8.267578,5.645508,4.0234375,7.0458984
3.4667969,8.96582,3.6826172,2.4228516,4.8828125
2.9208984,6.3603516,2.7460938,1.9589844,4.350586
3.9589844,5.0351562,2.6601562,1.6132812,3.3388672
4.0322266,2.9267578,1.8564453,2.2050781,3.3564453
3.6191406,2.9189453,1.5751953,2.0986328,2.5634766
4.381836,2.21875,1.5625,1.9765625,2.0107422
2.4589844,1.1484375,0.3046875,1.0693359,1.5410156
1.0136719,1.3300781,0.51171875,1.3681641,1.3037109
1.8632812,3.8867188,2.4677734,2.2363281,2.0292969
2.850586,4.705078,2.5996094,2.9404297,2.5605469
3.2519531,5.9697266,2.8583984,3.7832031,3.790039
3.1640625,7.3095703,2.2373047,3.743164,5.078125
3.2871094,8.795898,2.2070312,4.375,5.5341797
3.9882812,8.678711,2.053711,3.953125,5.883789
4.2958984,7.3271484,5.4716797,2.7695312,4.9033203
3.9121094,6.116211,4.614258,2.3066406,4.388672
3.7539062,6.5039062,4.6835938,2.3564453,4.326172
2.9316406,6.7441406,5.073242,2.8632812,4.201172
3.1357422,6.538086,3.2294922,3.5927734,3.5839844
2.7558594,6.0478516,3.6103516,3.069336,3.2773438
2.3095703,5.6689453,2.133789,2.2910156,2.8154297
2.4707031,6.1464844,1.5341797,2.1845703,3.0751953
3.196289,6.3427734,2.2207031,2.3886719,4.5253906
4.5566406,9.432617,4.7802734,3.569336,5.9140625
6.0742188,12.824219,4.491211,5.192383,8.236328
7.46875,15.467773,7.5546875,5.413086,11.5390625
8.222656,17.94336,9.46875,7.0898438,13.24707
