"[299, 255]","[227, 248]","[287, 319]","[279, 328]","[230, 262]"
4.8183594,6.135742,1.7939453,2.3730469,4.4404297
4.71875,6.1152344,2.203125,2.4355469,3.2138672
4.279297,5.4609375,1.7529297,2.1933594,2.5917969
4.4990234,6.1435547,1.1552734,0.9277344,3.9716797
4.0859375,6.875,1.9638672,1.9423828,5.4072266
2.3730469,7.2939453,2.234375,2.303711,3.8027344
2.3330078,5.357422,2.5205078,2.5,3.008789
2.5605469,4.361328,2.0810547,2.1455078,1.8291016
3.4746094,3.7529297,0.6152344,1.6660156,1.8994141
3.4208984,3.6220703,0.93652344,1.2177734,1.9072266
1.9296875,2.4189453,0.5576172,1.8935547,1.5996094
0.98828125,2.7597656,0.28027344,0.9394531,1.1933594
1.7890625,2.1074219,0.6904297,0.60058594,1.8164062
1.5097656,3.1757812,1.2783203,1.5888672,2.0732422
1.0673828,4.3027344,1.9384766,2.1523438,1.6865234
1.9335938,7.326172,1.1904297,2.5664062,2.9267578
2.4091797,4.626953,1.6416016,2.727539,3.366211
2.6552734,5.895508,1.59375,2.7558594,2.7011719
2.8457031,5.9433594,1.8857422,2.8945312,3.0458984
2.2304688,6.4541016,1.4375,2.4990234,3.6552734
2.6923828,4.6904297,0.6796875,2.0175781,2.8447266
3.6279297,6.2617188,2.4208984,2.8232422,2.9492188
4.8066406,6.942383,2.758789,2.928711,2.8427734
5.0507812,5.8554688,2.5722656,2.8447266,2.9941406
5.7578125,6.7626953,3.2890625,2.8671875,5.5566406
8.34375,6.1845703,3.7783203,1.8173828,6.4179688
7.671875,4.448242,2.9658203,2.118164,6.7470703
4.515625,4.4960938,0.9404297,1.6396484,7.352539
4.6503906,3.8134766,1.8623047,0.9785156,5.7529297
3.5771484,4.5390625,3.024414,2.4580078,3.7167969
6.734375,5.995117,3.8125,3.6914062,2.9248047
7.6396484,7.995117,4.4384766,4.7304688,3.0898438
8.850586,8.87207,4.928711,6.114258,3.6279297
10.522461,11.325195,6.6171875,7.486328,4.6240234
11.874023,15.759766,10.163086,10.272461,7.6523438
12.670898,21.03711,8.956055,10.935547,10.707031
13.095703,17.081055,8.920898,12.030273,10.891602
8.683594,12.451172,8.178711,8.5703125,7.7177734
5.185547,10.200195,8.109375,5.6416016,6.5166016
4.774414,7.9414062,6.4648438,5.057617,5.6103516
4.944336,8.380859,4.8320312,3.725586,6.245117
4.2109375,7.229492,2.8984375,3.6054688,4.401367
4.8652344,6.8984375,3.866211,3.0722656,4.0
3.8564453,7.0585938,4.96875,2.2080078,4.392578
3.663086,8.689453,4.2773438,2.5351562,5.9052734
3.9501953,9.609375,3.6582031,3.3095703,6.263672
4.3310547,9.639648,4.432617,3.5292969,6.368164
5.0683594,9.545898,4.59375,3.4365234,5.4804688
4.810547,8.178711,5.111328,2.9580078,4.368164
4.5898438,8.353516,4.388672,2.8398438,5.1689453
4.475586,7.116211,4.239258,2.9863281,3.3925781
4.2177734,6.4541016,2.734375,2.9882812,3.8251953
3.5195312,6.2617188,1.7509766,3.0078125,4.689453
2.7607422,6.6708984,0.90625,2.7294922,4.1152344
3.7597656,6.919922,1.7607422,2.428711,3.1953125
4.4345703,7.491211,2.6210938,2.5292969,3.6396484
4.1875,5.803711,3.5625,2.25,3.0126953
4.0927734,4.4033203,3.743164,1.3300781,2.5742188
4.196289,3.1416016,2.7509766,2.805664,2.1767578
4.9560547,4.2460938,1.5097656,2.34375,5.338867
3.9365234,8.451172,1.5039062,4.4628906,6.0195312
5.060547,10.442383,3.0742188,4.678711,7.7910156
6.4990234,11.427734,4.0546875,4.1123047,8.12793
4.404297,10.485352,5.104492,4.381836,7.470703
3.1757812,9.162109,4.7685547,4.463867,6.680664
2.665039,9.532227,4.482422,4.1503906,6.260742
2.694336,8.576172,4.466797,4.7753906,6.1435547
3.5927734,8.767578,5.4404297,4.9121094,7.3583984
5.7285156,9.258789,5.4160156,5.0585938,6.661133
4.453125,9.924805,4.4560547,4.1904297,5.8359375
2.125,10.741211,2.7363281,4.161133,5.939453
2.2138672,9.623047,2.8730469,3.383789,5.3242188
2.7109375,9.357422,3.1191406,3.584961,4.673828
2.084961,8.24707,2.1953125,3.6728516,4.1875
1.7011719,5.470703,1.1308594,2.6083984,2.694336
1.6005859,3.7939453,0.69628906,1.7939453,2.9570312
2.4033203,5.6835938,3.5527344,3.3457031,4.6054688
3.0419922,6.696289,5.5654297,3.5175781,4.2578125
3.5498047,9.50293,5.307617,4.9960938,4.888672
4.4541016,11.183594,7.2714844,6.524414,6.413086
5.2226562,11.509766,7.801758,7.008789,7.1728516
6.041992,13.313477,8.027344,7.7070312,8.473633
7.2402344,13.083984,6.415039,6.0859375,8.21875
5.885742,9.581055,6.1464844,5.970703,5.0859375
5.5703125,8.388672,6.338867,5.8183594,5.970703
4.540039,6.8964844,3.5205078,3.9082031,4.274414
2.5214844,4.3134766,2.5585938,2.8085938,2.84375
2.2929688,1.0273438,2.3652344,2.5644531,1.8242188
1.9462891,1.7177734,2.5292969,2.7080078,1.0419922
2.84375,2.1835938,1.6113281,2.4169922,1.2773438
3.1875,3.2480469,0.8515625,1.5507812,2.8701172
2.6386719,3.7792969,0.4921875,0.53125,4.4365234
2.4199219,4.2490234,0.8300781,0.90527344,4.2353516
3.6123047,4.9677734,3.0341797,2.4746094,2.0332031
5.9101562,3.7832031,3.3613281,3.8007812,2.5253906
7.6796875,5.982422,4.0283203,4.1689453,3.1269531
8.791016,6.34375,4.541992,4.5195312,3.6728516
9.364258,8.999023,4.5585938,5.6435547,4.272461
10.169922,8.94043,6.557617,6.772461,3.2177734
9.777344,8.236328,7.071289,7.9023438,4.263672
9.493164,9.53125,7.536133,8.443359,5.0566406
8.817383,12.083008,9.130859,7.7177734,6.745117
7.9521484,9.652344,8.326172,7.357422,6.801758
5.9746094,7.828125,6.1083984,6.4472656,6.0410156
4.647461,5.642578,4.9521484,3.366211,3.8798828
4.352539,3.5322266,4.3720703,3.8222656,2.7333984
6.006836,5.2265625,5.4296875,3.5761719,4.198242
8.787109,6.2958984,5.870117,1.5332031,7.140625
6.1591797,11.589844,6.274414,1.8759766,7.8876953
5.2929688,13.033203,6.3740234,4.260742,8.458008
6.4990234,10.724609,5.916992,1.90625,5.6933594
6.256836,6.21875,4.8740234,1.7314453,4.1689453
3.930664,9.94043,2.2871094,3.4042969,3.133789
2.006836,10.68457,2.4208984,2.5820312,4.3652344
3.2265625,9.068359,1.6318359,2.0517578,5.1601562
4.357422,7.3027344,0.8154297,1.2558594,5.524414
4.6308594,7.3916016,0.94140625,0.7734375,4.9873047
3.0566406,7.2841797,1.375,1.3837891,4.1953125
2.4570312,6.7929688,1.9375,2.1347656,3.7216797
3.0507812,7.5078125,2.0673828,3.366211,4.7158203
5.501953,9.174805,3.3095703,3.8457031,4.852539
8.582031,12.411133,4.786133,5.826172,5.776367
8.689453,11.498047,5.7421875,7.607422,8.404297
5.283203,9.761719,5.8515625,5.2490234,7.4453125
4.4296875,9.0,5.1865234,2.727539,7.0341797
4.147461,9.485352,4.178711,2.8447266,5.9277344
4.3251953,10.413086,3.319336,3.2460938,6.3603516
5.5283203,10.2421875,5.198242,3.7265625,6.736328
4.90625,9.499023,5.038086,3.8691406,5.401367
3.9101562,9.489258,5.2998047,4.211914,5.479492
3.8925781,7.2509766,5.604492,3.5761719,4.7617188
4.5029297,7.9746094,6.1972656,2.7470703,6.654297
4.694336,8.6171875,6.442383,5.048828,8.030273
4.129883,8.609375,3.453125,3.8710938,6.729492
5.4873047,10.8125,3.3046875,3.7392578,5.333008
6.7529297,11.419922,3.8730469,3.9697266,8.016602
6.114258,8.024414,4.5654297,4.522461,5.09375
3.8828125,6.709961,3.1621094,3.1826172,4.046875
3.540039,7.897461,2.3447266,2.2148438,4.296875
4.4179688,7.283203,2.0439453,2.5126953,4.6679688
3.8183594,6.375,2.2138672,2.6328125,4.173828
3.3642578,6.3632812,2.0283203,3.102539,4.0390625
2.6816406,7.482422,2.4433594,2.7636719,3.709961
3.881836,5.265625,2.5048828,2.5976562,3.4921875
4.203125,3.8496094,3.3554688,2.1044922,2.453125
3.165039,4.2685547,2.4794922,1.5800781,2.5791016
2.321289,2.7402344,1.0673828,1.2304688,1.1855469
0.82714844,2.2470703,1.9707031,0.7080078,1.2167969
2.4267578,1.859375,3.7607422,1.9316406,2.9423828
2.9882812,5.171875,4.7460938,2.4794922,4.6171875
6.169922,5.1708984,5.189453,1.5273438,5.4277344
7.067383,7.3115234,5.3603516,3.0419922,6.8007812
8.2734375,10.229492,5.073242,3.3496094,8.389648
7.138672,12.583008,5.225586,3.7226562,8.263672
6.640625,12.0390625,4.6601562,3.1503906,7.9277344
6.836914,10.9375,5.580078,3.4765625,7.616211
6.53125,9.8984375,6.458008,3.7236328,6.8671875
6.5,8.326172,4.8164062,3.3173828,5.600586
6.413086,7.080078,2.5957031,3.2441406,3.5986328
5.546875,5.4853516,2.140625,2.600586,2.4941406
4.5390625,4.2373047,1.7373047,2.3007812,2.1308594
4.0878906,3.7167969,1.3105469,2.2324219,2.3115234
3.0341797,4.564453,1.2646484,1.8798828,1.4541016
2.4589844,5.048828,0.3984375,0.5390625,3.4863281
2.3671875,4.336914,2.3896484,1.2548828,4.1660156
1.8935547,4.336914,1.5908203,1.65625,3.515625
1.8505859,5.198242,2.6210938,1.9433594,2.796875
1.9228516,4.5810547,1.1962891,2.1210938,2.5039062
2.3398438,5.4160156,1.8662109,2.5195312,2.9033203
3.1513672,6.3154297,1.5117188,3.0517578,4.2460938
3.616211,8.224609,1.9580078,3.5546875,5.248047
4.458008,8.4921875,2.6113281,4.4316406,6.1796875
6.135742,10.163086,4.5341797,5.7373047,7.830078
6.701172,10.078125,3.993164,6.4726562,6.310547
8.113281,13.142578,5.03125,5.814453,8.130859
8.3828125,13.290039,7.0146484,7.4697266,8.978516
9.478516,14.017578,8.65625,8.206055,8.168945
9.571289,16.341797,8.09375,10.31543,10.503906
9.999023,17.069336,7.310547,11.229492,11.604492
9.681641,14.416016,8.780273,8.514648,10.501953
8.234375,10.004883,8.019531,6.4804688,7.517578
6.776367,8.18457,6.2285156,6.3095703,6.526367
5.5214844,8.005859,4.256836,4.2998047,5.4404297
4.1777344,7.419922,3.6845703,4.4404297,4.830078
3.2041016,5.7939453,4.0234375,3.430664,4.0966797
3.3779297,4.709961,1.4492188,2.821289,3.9726562
3.084961,4.2929688,1.1210938,3.0146484,3.2539062
1.8359375,3.1816406,1.0791016,2.8125,3.1679688
0.8515625,3.1259766,1.1425781,1.6025391,2.5039062
1.2783203,2.2705078,0.9404297,1.7470703,1.9130859
2.2734375,2.2373047,1.7324219,2.3271484,1.7617188
2.6669922,1.1259766,1.8310547,2.100586,1.3554688
1.4912109,0.8798828,1.2744141,2.2158203,1.0996094
2.3740234,1.0419922,1.2773438,2.0175781,0.9785156
1.6445312,2.421875,1.2119141,1.9169922,0.8017578
1.6367188,4.116211,1.4355469,1.9228516,2.2041016
1.8769531,5.5078125,2.0439453,2.805664,4.544922
3.4570312,5.727539,2.8642578,3.8398438,4.883789
5.225586,9.50293,3.4082031,4.790039,6.4453125
6.442383,14.5546875,6.4365234,5.8291016,9.546875
7.7285156,15.716797,7.7734375,7.5390625,11.543945
8.413086,13.738281,7.984375,6.5498047,8.4453125
6.3671875,13.076172,6.0322266,5.5771484,8.360352
7.415039,12.686523,7.9853516,7.279297,9.749023
8.25293,12.066406,9.3203125,7.8378906,9.430664
6.8720703,11.229492,8.713867,6.989258,7.432617
5.0273438,10.480469,6.576172,5.435547,6.40625
5.0585938,8.3828125,5.739258,3.7763672,5.779297
4.598633,9.035156,4.78125,3.1201172,5.307617
6.1796875,10.305664,2.4677734,3.7822266,6.1621094
7.5615234,12.37793,3.3105469,4.919922,8.666016
6.6552734,13.963867,3.7773438,5.2617188,9.2421875
7.432617,13.912109,7.6875,4.870117,9.426758
6.6054688,12.931641,8.364258,6.508789,9.950195
5.1835938,11.586914,7.705078,4.4716797,10.214844
5.9492188,11.625,3.102539,4.451172,10.891602
6.323242,12.595703,7.0341797,4.748047,10.47168
6.8671875,13.650391,8.8046875,6.2958984,9.822266
7.9208984,14.116211,5.8154297,5.9960938,9.662109
8.301758,13.59375,5.5859375,7.3671875,10.041992
8.359375,11.408203,5.692383,8.253906,9.441406
7.7597656,10.34082,5.276367,7.7021484,8.5625
7.1708984,11.230469,5.4501953,6.977539,8.296875
7.0185547,11.956055,5.6289062,6.801758,9.019531
7.3007812,12.119141,7.060547,6.098633,8.994141
8.249023,13.4140625,9.112305,5.2314453,10.511719
9.65625,14.588867,9.458984,7.8378906,11.124023
8.80957,14.167969,8.963867,8.956055,10.526367
9.069336,14.141602,7.930664,7.216797,10.759766
8.001953,12.764648,9.589844,7.5478516,10.310547
5.953125,11.576172,7.017578,4.095703,9.107422
5.913086,10.779297,7.998047,4.6367188,7.817383
5.9335938,10.670898,6.694336,5.044922,7.583008
7.254883,12.935547,5.2197266,5.3310547,8.924805
8.4296875,14.750977,6.0859375,6.9541016,10.385742
8.3984375,15.911133,6.979492,7.6132812,11.9453125
8.250977,15.8671875,6.8691406,8.230469,12.739258
7.966797,16.426758,7.2353516,6.9335938,13.138672
9.191406,16.267578,9.330078,6.567383,13.163086
9.436523,16.46582,12.666992,5.78125,13.302734
