"[299, 255]","[227, 248]","[287, 319]","[279, 328]","[230, 262]"
2.6220703,5.913086,4.3740234,3.991211,4.4414062
2.9160156,5.0341797,3.7451172,2.3496094,3.7470703
3.3544922,4.6816406,2.7871094,1.71875,3.84375
3.868164,4.986328,4.0029297,2.6992188,4.4560547
4.256836,6.8095703,6.555664,4.486328,5.7441406
3.303711,7.1152344,6.1347656,4.404297,5.8007812
1.5263672,6.2666016,6.0341797,3.5234375,5.689453
1.9443359,6.8339844,6.060547,2.413086,5.379883
2.2529297,5.7539062,4.5195312,2.3085938,4.651367
2.2558594,5.9804688,3.680664,1.6513672,4.216797
2.2763672,6.345703,3.3251953,1.0283203,4.451172
2.3984375,5.5341797,3.8076172,0.74316406,5.0146484
1.7070312,6.176758,3.4873047,1.1953125,5.2998047
1.5126953,5.9902344,2.8378906,1.2988281,5.078125
1.4912109,4.9902344,2.4003906,1.2753906,4.176758
1.0849609,4.7841797,1.5976562,2.3779297,3.390625
1.3623047,4.211914,1.0078125,2.4521484,3.2285156
1.4365234,4.7998047,1.0429688,2.0498047,3.305664
1.9931641,4.236328,1.0351562,2.1582031,3.4228516
2.2949219,4.7910156,1.5498047,2.0976562,3.3652344
1.6142578,4.399414,2.1230469,2.1816406,4.5253906
2.2421875,4.1708984,2.765625,1.8916016,3.9238281
1.0478516,3.1386719,2.9716797,1.3691406,2.4882812
1.1533203,2.6845703,3.7451172,1.5107422,1.9853516
1.6328125,2.9746094,2.9570312,1.0136719,1.7333984
1.1181641,3.2373047,1.9853516,0.3251953,1.4804688
1.1894531,2.8154297,1.3740234,0.9033203,2.6699219
1.9375,2.9785156,2.2060547,0.88183594,2.8964844
2.6445312,2.1982422,1.3808594,1.546875,3.7128906
3.180664,2.3710938,1.640625,3.4267578,3.0947266
3.3105469,3.5820312,2.0791016,2.9482422,2.9882812
2.9414062,4.810547,2.3710938,2.8496094,3.3720703
3.1748047,7.8632812,3.234375,3.6455078,4.5595703
4.2851562,8.56543,5.015625,4.5039062,6.169922
5.274414,9.84668,7.451172,6.107422,6.9365234
6.4873047,8.834961,6.576172,6.180664,6.114258
5.901367,7.274414,5.6064453,5.8320312,4.5771484
5.1064453,5.317383,5.0683594,5.036133,2.959961
3.3222656,4.4140625,3.9550781,3.8066406,1.6630859
2.6777344,2.7373047,2.8144531,2.8798828,2.0136719
3.2695312,1.6738281,1.5517578,1.6074219,1.9091797
3.4375,2.1015625,1.5517578,2.4794922,1.8496094
3.9267578,0.9609375,0.81152344,2.0732422,1.1933594
3.8359375,2.8203125,2.0800781,1.7470703,0.87402344
3.4257812,3.2919922,2.9990234,3.1933594,4.4677734
3.5117188,1.4072266,2.3964844,3.6533203,3.8486328
3.9101562,1.4873047,2.4960938,2.5488281,2.2216797
5.6054688,2.694336,3.4550781,3.1767578,2.834961
6.446289,5.975586,4.4072266,3.8378906,3.5009766
5.8310547,8.024414,6.848633,3.8378906,4.479492
6.7910156,9.225586,5.919922,6.2578125,5.9365234
6.9003906,10.027344,6.8046875,7.3671875,8.31543
6.286133,9.495117,7.1728516,6.7148438,8.72168
5.008789,10.397461,5.640625,5.3691406,7.958008
3.5830078,12.308594,3.6611328,3.9248047,7.2685547
6.350586,11.248047,7.0595703,7.598633,6.0283203
7.435547,12.93457,8.074219,6.553711,6.7890625
7.2216797,12.170898,6.993164,6.6845703,6.796875
8.547852,11.9765625,6.9804688,6.8203125,8.4921875
7.973633,11.950195,8.444336,7.7998047,8.30957
7.8779297,10.169922,8.506836,7.75,6.8515625
8.962891,8.696289,7.6972656,8.202148,6.7490234
7.2441406,7.9882812,7.6533203,7.65625,5.34375
5.126953,8.045898,6.616211,5.6679688,4.4941406
5.0498047,8.360352,4.7871094,4.540039,4.1289062
3.647461,8.785156,3.788086,4.1152344,3.5009766
5.6835938,9.301758,4.399414,4.8789062,5.645508
6.28125,8.229492,5.828125,5.1796875,5.8291016
6.375,7.5029297,5.678711,4.616211,5.194336
6.258789,5.2910156,4.3515625,3.6376953,3.6240234
4.6259766,4.4335938,2.7890625,2.4267578,2.6210938
3.0605469,2.6777344,2.178711,2.4765625,1.6132812
3.4960938,1.6914062,2.8359375,2.725586,1.3251953
2.5253906,1.7558594,2.2353516,2.6201172,1.6455078
2.2089844,2.3769531,1.7197266,1.875,2.1972656
3.5732422,2.821289,1.2304688,2.4697266,2.0458984
3.1767578,5.1533203,4.6796875,1.9423828,2.600586
3.584961,5.9404297,5.017578,2.8798828,2.8574219
2.930664,4.5634766,3.4160156,4.080078,2.1035156
4.9023438,3.4267578,2.9208984,3.1552734,2.133789
5.036133,1.6582031,2.4453125,3.0742188,3.078125
4.0722656,1.953125,2.7949219,2.8261719,2.163086
2.4160156,0.8388672,2.1044922,3.1865234,2.0800781
2.3447266,2.8457031,2.4316406,3.0029297,2.100586
2.3183594,3.1445312,2.211914,2.5351562,2.0185547
2.5195312,2.8623047,3.6279297,2.3486328,1.3652344
3.444336,2.430664,3.6572266,3.7001953,1.2548828
5.0878906,1.3857422,2.6757812,3.2197266,1.3564453
4.584961,1.9199219,3.6103516,2.7363281,1.8916016
3.663086,1.7148438,3.506836,2.3378906,2.2402344
0.7988281,1.3027344,3.5283203,1.7597656,1.1386719
1.4052734,2.7734375,4.567383,0.79589844,2.1171875
2.6210938,4.850586,4.986328,1.3349609,1.578125
1.2070312,4.6533203,5.6748047,2.4765625,2.290039
1.5205078,3.540039,4.9804688,2.368164,2.1103516
2.7822266,4.4492188,4.1689453,1.9824219,1.6992188
2.9511719,2.9169922,2.913086,2.9169922,1.0371094
2.0410156,3.7441406,2.2265625,2.0419922,3.1982422
1.2451172,6.5507812,3.0771484,2.6367188,4.513672
1.2421875,7.1679688,4.178711,3.3115234,5.3691406
2.8720703,8.208984,3.4882812,2.7734375,6.080078
2.9511719,8.930664,1.609375,2.4960938,6.229492
4.241211,10.058594,2.8330078,3.1425781,6.3779297
4.629883,9.241211,1.2998047,2.0957031,5.850586
2.725586,7.638672,3.272461,2.4199219,4.3183594
1.8183594,7.2841797,2.1601562,2.946289,4.142578
0.55566406,6.892578,1.6220703,2.4453125,4.486328
0.6796875,7.6953125,1.8779297,2.5703125,4.0273438
1.8339844,8.462891,2.9492188,2.4228516,4.4433594
2.2470703,7.2939453,3.9179688,2.1845703,4.7695312
2.3027344,5.817383,3.196289,3.084961,4.301758
3.4501953,5.595703,2.758789,3.4814453,3.8476562
3.8720703,4.0625,2.4111328,3.3378906,2.8740234
4.951172,2.3203125,1.7695312,3.0195312,1.9550781
4.8554688,2.5292969,2.578125,3.506836,3.8515625
5.359375,6.8320312,3.4003906,4.1796875,5.3554688
5.932617,6.196289,5.2753906,4.685547,5.3310547
5.439453,5.504883,5.010742,4.9472656,6.194336
4.1279297,4.3691406,2.8916016,4.2822266,5.6103516
6.321289,5.236328,2.640625,3.2109375,4.2382812
8.458984,6.977539,2.3007812,2.8955078,3.6396484
8.788086,7.073242,1.7109375,2.5683594,3.5947266
6.7382812,6.6279297,1.1992188,2.3310547,4.8203125
5.9335938,7.0595703,3.0078125,2.4033203,4.6054688
5.616211,6.2265625,4.682617,3.3945312,5.142578
4.826172,6.2304688,4.2226562,4.0283203,5.185547
4.109375,3.9453125,3.3867188,3.6142578,3.5703125
3.5566406,2.9560547,2.9121094,3.4033203,3.196289
5.0117188,3.3847656,2.6035156,3.4648438,3.1328125
4.0,4.352539,2.8574219,3.21875,4.0625
6.0283203,5.2158203,2.2919922,3.3554688,6.053711
6.4560547,6.3476562,4.5351562,4.294922,6.776367
6.5976562,7.088867,6.0478516,5.5371094,7.6689453
7.2490234,5.1640625,4.455078,6.013672,7.3378906
5.9316406,4.484375,3.7294922,5.0810547,6.350586
6.970703,6.1914062,3.5800781,4.0947266,4.3115234
6.1904297,9.136719,2.9453125,4.109375,3.890625
5.7402344,8.796875,2.9746094,4.6621094,6.0410156
7.3066406,9.692383,4.498047,5.40625,8.09375
6.126953,9.616211,6.5390625,6.0527344,7.5029297
7.0439453,8.720703,3.913086,5.864258,6.3564453
8.883789,7.7041016,5.2822266,5.555664,5.859375
7.4589844,6.814453,3.3583984,5.0976562,5.053711
4.5097656,6.4648438,1.90625,4.3554688,5.3007812
2.234375,7.2666016,2.765625,3.1533203,4.9384766
1.9394531,8.751953,3.1523438,3.211914,4.807617
4.3916016,8.944336,4.801758,4.5283203,6.095703
4.239258,8.474609,4.875,4.4501953,5.7998047
4.0927734,7.522461,4.041992,4.5546875,5.243164
4.2089844,7.120117,4.2060547,4.6523438,5.2685547
4.1953125,5.642578,3.25,3.4951172,3.8828125
3.8671875,3.3447266,2.633789,2.522461,4.5214844
2.0898438,2.3896484,2.6240234,2.1015625,4.475586
1.5917969,2.540039,1.5478516,2.180664,4.6279297
3.921875,2.2050781,1.421875,2.1679688,5.3759766
3.953125,6.2470703,2.319336,2.9492188,4.923828
3.540039,7.1464844,2.4716797,2.618164,4.583008
3.7998047,6.694336,3.3808594,2.6982422,4.540039
3.7607422,6.0898438,4.5908203,2.8232422,3.3730469
3.6220703,4.9560547,4.4365234,2.790039,2.5419922
1.1962891,2.8261719,4.0439453,2.883789,3.3320312
2.1269531,2.5234375,4.4853516,2.2226562,3.5800781
3.2626953,1.7011719,4.359375,1.0566406,4.692383
3.569336,5.330078,2.9658203,1.2832031,5.34375
4.2783203,7.131836,4.020508,2.930664,5.620117
4.5117188,7.6220703,5.301758,3.6064453,4.9052734
4.151367,7.345703,5.0810547,2.5205078,3.2949219
3.6269531,4.4023438,3.9941406,2.8125,3.484375
3.0927734,3.53125,3.5839844,2.2929688,4.2158203
2.9746094,2.586914,4.3671875,1.2695312,5.5742188
3.4746094,2.006836,4.602539,1.1083984,7.323242
4.0302734,2.7607422,5.3720703,0.7050781,7.7695312
4.461914,4.466797,6.038086,1.1826172,7.1708984
4.9697266,2.7421875,6.291992,2.4169922,6.1933594
6.336914,2.6230469,6.057617,3.1113281,3.9570312
8.041016,3.2529297,5.5751953,2.3701172,4.0996094
6.885742,2.9267578,5.7177734,2.1142578,4.0029297
1.4550781,2.8310547,5.8408203,2.4980469,4.064453
2.7314453,1.6542969,5.541992,2.9257812,2.8134766
2.7685547,3.5263672,4.765625,3.1796875,2.8017578
2.984375,4.8359375,4.3515625,2.8095703,3.3515625
3.0048828,5.571289,3.7080078,3.0019531,3.0214844
3.0722656,4.4140625,3.4707031,3.3466797,2.7763672
4.8007812,3.8251953,3.0039062,3.0488281,2.7353516
3.2197266,2.8339844,2.4033203,2.7089844,2.8759766
1.1601562,1.2460938,1.5722656,2.0097656,1.6152344
0.74316406,1.2792969,1.0341797,0.92578125,1.5888672
1.4091797,2.7060547,1.3798828,1.6142578,2.5742188
1.7978516,2.4199219,1.7119141,2.1748047,2.9746094
1.8740234,1.6005859,2.8730469,3.5634766,2.296875
1.6962891,1.953125,3.1816406,2.7158203,1.5917969
2.5136719,1.6865234,2.5976562,2.290039,1.921875
2.6992188,2.7109375,1.5302734,1.8222656,2.3896484
1.9863281,2.7333984,0.79785156,1.4238281,1.953125
1.1337891,2.5439453,0.7158203,0.90625,2.1972656
2.2070312,4.709961,2.1884766,2.515625,3.0605469
2.7841797,5.4472656,3.6328125,3.790039,2.8886719
3.2851562,5.1865234,5.428711,2.6728516,3.0263672
3.5654297,3.2626953,5.6552734,2.390625,2.5449219
6.4257812,3.4667969,5.6777344,2.7617188,2.618164
6.6992188,3.03125,4.8583984,2.8632812,2.6152344
5.430664,1.8203125,4.6523438,3.3496094,2.3134766
3.9355469,1.0175781,2.6767578,3.5810547,2.9609375
2.8574219,3.1582031,1.0966797,1.4121094,3.4404297
2.3447266,2.7353516,2.2705078,2.859375,3.46875
2.584961,2.921875,2.383789,1.4482422,2.4804688
2.8300781,3.6396484,2.4335938,2.6796875,1.7617188
2.0859375,3.4121094,2.5722656,2.3916016,1.5634766
1.5322266,3.1660156,2.7314453,2.538086,1.4990234
1.2304688,2.0615234,1.5615234,2.5986328,1.0654297
1.796875,1.3154297,3.3720703,2.1914062,1.2402344
2.665039,2.7548828,4.8828125,2.4863281,2.7382812
3.1191406,3.5859375,5.4804688,3.2158203,3.1396484
4.616211,4.4228516,4.8632812,3.8730469,3.2304688
6.2001953,4.5546875,5.4189453,2.7890625,2.6992188
6.807617,3.7041016,4.515625,2.415039,2.4179688
2.5830078,2.1240234,4.1083984,2.4169922,4.294922
2.2041016,2.2646484,4.2509766,2.6054688,3.915039
2.6376953,1.2519531,3.6660156,1.921875,4.4492188
2.0878906,3.7626953,1.8310547,0.6484375,4.9316406
2.3496094,4.3720703,1.1083984,0.9326172,4.415039
2.2392578,5.328125,1.984375,2.334961,3.3759766
2.8320312,5.348633,3.4853516,2.305664,2.9111328
4.921875,4.7978516,3.084961,2.5439453,3.211914
2.9609375,2.5732422,2.4160156,3.1542969,3.0507812
1.1494141,1.4462891,1.8466797,2.5488281,1.5332031
1.2832031,1.1894531,0.94628906,1.0644531,1.5107422
1.9189453,3.4121094,0.78808594,1.6884766,2.3027344
1.8632812,5.439453,0.40625,2.1308594,3.7646484
2.4521484,5.4785156,1.1923828,3.4716797,3.149414
2.663086,4.6972656,2.928711,2.7158203,2.6777344
4.5351562,4.998047,2.8515625,2.0673828,3.2294922
2.6376953,2.6669922,0.94628906,1.5712891,3.508789
1.9882812,2.2949219,0.53515625,2.0136719,2.7304688
1.5976562,1.7392578,0.7783203,0.6689453,1.8847656
1.8710938,4.041992,1.3828125,2.3720703,2.9570312
2.9384766,5.6328125,2.477539,2.4638672,3.6757812
3.1015625,6.4785156,1.2441406,3.609375,3.7177734
3.4980469,5.5742188,3.6855469,3.4404297,2.078125
4.7597656,3.4941406,3.9882812,2.9472656,1.7988281
