"[299, 255]","[227, 248]","[287, 319]","[279, 328]","[230, 262]"
5.841797,11.098633,6.1445312,6.3027344,6.0322266
5.310547,10.361328,5.1904297,4.416992,5.1728516
3.8378906,9.938477,4.3066406,3.4355469,5.109375
5.2490234,13.082031,5.6240234,3.680664,8.141602
6.6757812,15.689453,7.727539,6.4091797,11.618164
6.879883,16.53418,9.420898,7.998047,12.931641
8.089844,16.46289,10.631836,7.477539,12.873047
8.078125,17.838867,9.96582,8.8203125,13.802734
8.182617,18.391602,11.010742,11.029297,14.305664
9.192383,17.93457,11.02832,9.870117,13.154297
9.232422,15.693359,10.426758,8.583008,10.631836
7.0078125,14.62207,8.746094,7.4765625,9.6875
7.2070312,14.03418,7.623047,7.5195312,9.381836
6.0742188,13.84668,8.53418,7.176758,8.499023
5.959961,13.245117,8.057617,7.208008,8.166016
5.2089844,13.924805,7.9091797,7.473633,8.598633
6.3408203,14.1328125,8.154297,7.7060547,8.988281
6.2177734,12.970703,7.571289,8.203125,8.282227
6.232422,12.361328,8.049805,8.599609,7.555664
6.895508,11.717773,8.370117,8.291992,7.669922
6.895508,10.615234,8.098633,7.7382812,7.3466797
5.5351562,10.96582,7.772461,6.522461,6.2646484
5.0058594,11.993164,7.2382812,6.669922,7.591797
5.5927734,13.483398,8.024414,7.3476562,8.133789
5.6503906,12.902344,8.7109375,8.393555,8.463867
5.466797,13.588867,9.036133,8.291992,8.988281
6.5214844,13.162109,6.4453125,7.4023438,7.163086
6.580078,9.331055,6.916992,6.6679688,6.4785156
5.7783203,7.334961,6.6884766,6.0498047,5.368164
3.6054688,6.9072266,4.798828,3.8701172,4.024414
3.796875,10.922852,5.4345703,3.336914,7.2646484
5.8251953,13.680664,7.451172,5.232422,9.750977
6.5771484,15.739258,9.206055,7.415039,11.671875
6.9091797,16.592773,11.171875,8.853516,12.990234
8.479492,17.115234,13.323242,7.5185547,13.307617
8.618164,17.172852,10.5,7.5126953,13.208984
8.384766,17.114258,10.52832,6.897461,12.395508
8.020508,15.745117,9.378906,6.834961,11.016602
7.4541016,13.103516,7.5039062,5.5478516,8.15625
6.649414,8.884766,4.4345703,3.7265625,5.40625
4.538086,8.922852,5.2373047,4.080078,5.6660156
4.5507812,9.586914,4.6328125,3.2753906,5.3154297
4.810547,10.735352,4.8359375,3.7304688,5.8554688
4.961914,11.40332,5.676758,5.053711,6.890625
5.354492,10.848633,6.892578,5.6591797,7.176758
4.0185547,11.033203,6.4033203,6.0527344,6.5996094
4.383789,11.379883,5.3125,5.0507812,6.004883
4.7109375,11.647461,4.7246094,4.8476562,6.8623047
4.09375,12.229492,5.2558594,6.026367,7.0742188
5.4345703,12.5546875,6.2158203,7.379883,6.8310547
4.5566406,11.459961,7.3564453,6.71875,5.8740234
4.560547,10.549805,6.158203,6.9179688,6.321289
4.6904297,8.744141,6.3007812,5.9785156,5.977539
3.7773438,9.133789,5.198242,4.7851562,4.1035156
3.821289,9.7578125,4.5527344,4.0351562,5.4228516
5.0390625,13.6875,3.7480469,3.7402344,8.173828
6.838867,15.746094,7.9873047,6.446289,12.154297
8.216797,17.92871,10.160156,7.196289,14.225586
8.71582,17.713867,10.672852,9.416992,13.260742
8.682617,13.3515625,8.329102,6.4589844,9.339844
7.3359375,10.052734,8.021484,6.2460938,7.185547
5.4716797,10.826172,9.196289,5.7910156,7.40625
4.3476562,8.808594,7.6015625,4.838867,5.0585938
4.114258,8.400391,6.182617,3.8154297,5.8242188
6.098633,12.899414,7.548828,5.1816406,7.517578
9.556641,18.626953,7.4697266,5.830078,13.608398
9.75,18.226562,11.525391,8.573242,13.104492
9.334961,17.613281,10.036133,8.609375,12.584961
8.694336,16.233398,9.494141,7.1992188,11.46875
7.9033203,12.908203,8.458984,8.488281,8.641602
6.029297,9.700195,6.1845703,6.017578,6.334961
5.1679688,12.024414,6.5839844,5.5146484,6.6640625
5.573242,11.912109,7.466797,6.3007812,6.9521484
5.59375,12.699219,7.4814453,6.254883,7.3046875
5.4072266,12.817383,7.732422,5.4521484,6.9091797
5.419922,12.890625,7.1064453,5.8066406,7.2070312
5.8740234,12.140625,7.4472656,7.1591797,7.7958984
4.879883,12.958984,6.232422,6.0820312,7.533203
5.0654297,13.186523,6.7539062,6.645508,7.553711
4.9384766,12.650391,6.0146484,5.828125,7.185547
5.310547,13.086914,7.006836,6.1621094,7.3916016
5.3603516,12.875977,7.913086,6.4179688,7.118164
5.671875,13.3671875,7.385742,6.8720703,7.7998047
6.5566406,13.956055,6.9726562,6.9189453,8.958984
7.5595703,14.330078,7.9658203,7.834961,10.533203
7.5507812,14.675781,8.498047,8.374023,9.598633
7.1953125,13.551758,9.0859375,9.181641,8.461914
7.6083984,12.811523,7.8115234,7.470703,7.4804688
6.8583984,12.84375,7.4589844,7.0625,7.798828
5.555664,12.435547,6.8476562,6.5429688,6.9179688
4.618164,11.392578,6.7841797,5.7539062,5.8476562
4.1904297,10.388672,7.0117188,6.6123047,6.3007812
4.9335938,9.729492,6.7939453,6.0810547,6.5585938
3.8828125,9.897461,4.350586,4.7421875,5.2177734
3.5585938,9.327148,2.8320312,4.3320312,4.6953125
3.0859375,8.045898,4.6103516,3.9423828,3.7998047
2.9814453,7.9384766,5.3623047,3.9492188,4.0039062
2.8339844,7.2871094,4.944336,4.401367,3.258789
2.6669922,6.15625,2.8828125,3.7685547,3.2167969
2.6513672,3.930664,2.5009766,2.8408203,1.6044922
3.0273438,3.7978516,2.7402344,2.336914,2.4335938
2.5136719,4.676758,2.4902344,2.1152344,2.0683594
3.288086,6.1660156,2.084961,2.2792969,3.2109375
3.6865234,7.491211,2.4921875,2.9033203,4.555664
4.260742,9.666016,2.8085938,2.9580078,4.7783203
6.560547,12.387695,3.6240234,2.4541016,7.276367
9.374023,12.033203,5.3427734,3.6923828,9.727539
10.986328,6.7685547,7.1416016,2.28125,10.299805
9.97168,11.3671875,5.9345703,2.0820312,11.704102
8.875,17.014648,5.4970703,3.5166016,12.5859375
7.5341797,15.4375,3.8222656,3.984375,12.435547
7.022461,14.541992,2.7177734,3.9433594,10.839844
8.454102,13.15625,3.6210938,3.8583984,8.717773
7.182617,10.555664,3.8095703,3.665039,7.0146484
4.2773438,5.8007812,3.7265625,3.4804688,4.8945312
3.3203125,2.859375,2.1201172,1.8222656,3.2158203
2.3955078,0.6533203,0.8935547,1.7265625,2.1259766
1.4492188,1.5341797,1.1513672,2.2441406,1.3339844
1.4707031,3.9423828,1.8251953,2.9345703,2.7773438
2.6533203,6.923828,2.0166016,3.0263672,3.6679688
2.9052734,9.522461,1.7880859,3.3427734,4.5820312
4.1533203,12.175781,2.2021484,4.0625,7.333008
5.223633,12.837891,4.067383,4.7958984,8.236328
5.743164,13.170898,7.84375,4.915039,10.047852
6.8964844,13.915039,10.068359,5.080078,10.0859375
6.301758,13.763672,6.1640625,4.1708984,8.900391
6.0273438,11.337891,3.3701172,2.4492188,5.163086
5.8828125,5.1123047,2.4404297,2.3183594,1.3007812
6.0371094,2.0332031,2.3330078,2.3798828,1.4638672
6.341797,4.069336,2.2929688,3.0048828,1.5205078
6.0166016,3.7402344,2.0927734,2.8330078,2.0820312
6.0996094,6.1708984,0.85253906,1.6826172,2.578125
6.6396484,9.444336,1.0664062,1.3652344,3.9980469
4.8066406,5.4960938,1.0039062,1.1025391,2.5732422
3.3027344,6.178711,1.7470703,2.0576172,3.3261719
5.286133,10.49707,2.7705078,2.5107422,4.0898438
4.607422,9.979492,3.040039,3.53125,6.0283203
4.7216797,10.607422,3.0527344,3.9609375,6.4335938
5.1220703,12.301758,6.4072266,4.4433594,8.890625
5.9375,13.350586,9.027344,7.083008,9.9921875
7.0595703,15.948242,7.4492188,7.368164,11.9609375
8.134766,15.631836,9.416016,7.2626953,12.24707
8.208008,11.916016,9.080078,5.9716797,8.514648
7.698242,6.5341797,5.051758,2.915039,3.2226562
4.4677734,4.0498047,4.2441406,1.8818359,2.5595703
3.2539062,4.5351562,4.658203,3.1328125,2.7460938
2.5351562,4.8916016,3.4824219,2.4941406,2.7324219
3.6708984,7.022461,2.2558594,3.0810547,4.209961
7.2041016,8.194336,3.694336,4.482422,4.3085938
9.670898,14.008789,6.7070312,7.064453,8.077148
9.255859,16.933594,8.621094,9.299805,11.717773
9.678711,22.314453,9.561523,7.4941406,15.5390625
11.573242,22.375977,12.837891,9.786133,16.273438
9.675781,16.725586,12.268555,11.567383,11.672852
7.8691406,15.2890625,9.489258,7.725586,10.260742
7.6367188,13.958984,9.698242,8.411133,9.454102
7.711914,13.395508,8.489258,7.3623047,8.9765625
6.3554688,12.216797,6.3066406,5.455078,7.133789
4.7978516,12.075195,6.5458984,5.8242188,6.698242
5.1992188,11.106445,6.501953,5.774414,6.3095703
4.745117,11.0234375,6.229492,5.767578,5.713867
4.4316406,11.1640625,5.7226562,5.178711,5.484375
3.9423828,9.764648,4.446289,3.7519531,4.7509766
3.711914,8.807617,4.5898438,3.4882812,5.017578
3.9257812,8.115234,5.118164,4.1083984,5.1445312
2.8515625,6.3466797,4.5615234,3.4013672,3.7890625
3.3486328,6.8154297,3.7236328,3.0175781,3.866211
4.290039,8.774414,2.7919922,3.5791016,5.3652344
5.6035156,10.145508,3.9804688,4.123047,5.178711
8.12793,13.753906,5.8134766,6.538086,7.8359375
12.21875,18.264648,8.575195,8.421875,10.662109
12.65625,19.018555,10.90625,8.521484,12.750977
8.494141,17.032227,11.491211,6.3154297,12.942383
6.510742,16.65625,11.008789,8.393555,12.1875
6.3271484,14.80957,10.329102,7.810547,9.794922
5.4228516,12.56543,7.416992,5.883789,8.217773
5.0683594,11.543945,5.100586,4.40625,6.46875
4.296875,12.036133,3.7578125,3.7841797,5.7246094
3.4628906,11.306641,4.651367,4.029297,5.517578
4.017578,10.926758,5.8847656,5.5527344,6.6416016
5.3632812,12.1015625,7.1660156,7.0908203,7.913086
5.111328,11.889648,6.4902344,5.7333984,8.170898
5.5253906,12.151367,6.301758,5.8027344,8.452148
5.9160156,13.020508,7.2490234,5.415039,9.042969
6.5234375,14.263672,8.240234,6.600586,10.299805
7.3740234,15.986328,8.947266,7.4472656,11.975586
7.6621094,16.861328,9.15625,7.0898438,12.916016
8.282227,18.103516,9.958008,8.200195,13.833008
8.889648,19.045898,10.110352,8.472656,14.816406
8.597656,18.388672,10.606445,9.533203,13.904297
9.0234375,18.049805,12.18457,9.868164,14.231445
9.501953,19.1875,12.794922,10.743164,14.725586
9.4609375,18.819336,11.910156,9.775391,13.168945
9.46582,12.953125,7.1289062,6.361328,7.2978516
5.6777344,13.732422,7.2646484,6.274414,7.5146484
6.1796875,13.652344,7.623047,7.1591797,8.579102
6.336914,11.428711,7.165039,6.7529297,8.192383
5.091797,10.822266,6.7558594,6.426758,6.4345703
4.678711,12.415039,6.955078,6.7978516,7.3984375
4.5039062,13.9765625,8.106445,6.536133,8.389648
5.0507812,13.5703125,7.283203,7.357422,8.193359
5.2373047,12.352539,7.3535156,7.102539,7.7158203
5.0898438,11.740234,6.8623047,6.5996094,6.3535156
5.338867,11.082031,6.9697266,6.6445312,7.290039
6.205078,10.713867,6.397461,6.482422,7.421875
6.366211,10.456055,5.196289,5.2460938,6.5410156
5.2353516,10.073242,6.2666016,3.9472656,5.9882812
5.1728516,10.058594,5.930664,4.4345703,5.411133
4.9658203,11.256836,6.357422,4.276367,6.4589844
5.192383,10.671875,6.439453,3.8652344,7.1103516
4.5810547,10.805664,5.6308594,3.9394531,6.864258
5.3916016,11.365234,6.267578,4.2421875,8.057617
5.848633,12.0546875,7.765625,5.548828,8.839844
5.640625,11.660156,9.624023,7.3720703,8.59082
5.0322266,10.171875,9.796875,7.3085938,8.571289
4.373047,9.405273,9.6171875,6.4414062,7.5527344
4.2285156,9.400391,7.3339844,4.754883,7.446289
4.3066406,10.19043,3.9638672,2.930664,8.080078
5.852539,12.333984,4.296875,4.102539,10.375
7.2783203,12.853516,4.2734375,4.6777344,10.894531
8.34375,15.93457,7.453125,6.536133,11.902344
8.479492,17.768555,5.5117188,7.0898438,12.631836
9.881836,18.125977,8.118164,8.416016,13.572266
8.800781,15.59668,10.8125,8.106445,11.993164
9.129883,14.452148,10.591797,8.381836,10.824219
7.723633,14.609375,10.412109,7.8320312,10.188477
7.341797,13.9609375,8.473633,7.3085938,9.260742
7.548828,14.711914,8.956055,7.734375,10.524414
8.633789,15.09082,9.966797,9.058594,10.885742
8.310547,16.063477,10.066406,9.1328125,10.456055
8.727539,15.548828,9.775391,9.266602,11.066406
9.285156,15.537109,8.989258,8.87793,11.31543
9.597656,14.869141,9.076172,9.798828,10.869141
9.064453,14.183594,9.072266,9.140625,10.145508
7.9882812,12.9140625,8.467773,8.1015625,8.749023
7.2871094,12.152344,7.9296875,7.498047,7.711914
6.301758,9.466797,7.067383,6.928711,6.4902344
5.6757812,6.0,4.7460938,5.2714844,3.459961
4.2539062,4.2666016,3.8583984,3.6767578,2.118164
2.5820312,2.4570312,2.3583984,2.3583984,2.1865234
