"[299, 255]","[227, 248]","[287, 319]","[279, 328]","[230, 262]"
4.9101562,7.084961,3.633789,4.791992,5.2226562
2.4960938,6.8339844,1.3242188,3.4033203,4.3945312
2.7392578,7.192383,1.7236328,2.7509766,4.2304688
2.34375,5.696289,2.4121094,2.366211,5.6660156
2.1113281,5.0566406,3.1865234,2.734375,6.107422
2.8183594,4.9316406,4.631836,3.6523438,4.930664
4.9365234,6.7939453,2.2128906,1.6142578,4.75
4.8154297,6.2021484,2.4257812,2.3867188,3.6240234
3.1679688,6.919922,3.678711,3.5488281,3.6972656
4.9277344,8.900391,3.3515625,2.9794922,4.4628906
5.6416016,8.750977,3.522461,2.7919922,5.3564453
6.0195312,8.15332,3.0458984,3.7050781,6.0166016
6.879883,6.7939453,4.213867,5.001953,6.126953
6.0126953,8.204102,6.3085938,6.2695312,5.5703125
4.4179688,7.578125,4.9902344,4.9208984,4.4921875
4.446289,9.702148,5.711914,5.258789,5.291992
4.022461,9.165039,5.1601562,4.8867188,5.368164
4.298828,9.231445,4.897461,4.381836,5.2666016
4.4853516,9.305664,5.286133,4.9472656,5.705078
5.114258,7.301758,5.6621094,5.0146484,5.975586
4.767578,5.9433594,5.9677734,5.4833984,4.6972656
5.8671875,3.8447266,5.7646484,5.868164,3.9550781
3.8759766,5.138672,4.321289,4.0634766,4.3378906
4.216797,9.631836,3.8564453,3.9570312,7.2460938
3.7480469,11.90332,4.489258,4.435547,7.015625
3.4199219,10.081055,3.086914,4.6904297,6.6533203
4.3964844,10.535156,5.1875,6.5029297,7.0947266
6.932617,10.6796875,7.1777344,7.698242,8.524414
7.258789,12.063477,7.5029297,7.5458984,8.901367
6.9257812,11.390625,6.1845703,6.8896484,8.7578125
5.458008,8.858398,5.8720703,5.8808594,4.692383
6.4023438,11.611328,5.180664,5.8867188,5.928711
5.754883,10.735352,6.8466797,6.9003906,6.288086
6.334961,9.733398,6.334961,5.883789,6.1708984
6.350586,9.400391,7.6210938,6.8583984,6.2929688
6.8789062,11.033203,8.341797,7.578125,8.365234
7.5908203,11.163086,7.9628906,7.397461,8.426758
6.741211,10.196289,7.0947266,6.946289,7.7685547
4.2978516,10.009766,5.254883,5.3115234,6.963867
2.9628906,10.474609,4.9853516,4.930664,6.055664
2.3154297,7.3623047,3.7841797,4.8183594,4.2216797
1.7714844,6.3964844,3.7421875,4.65625,4.2871094
1.4248047,6.173828,4.5458984,4.6347656,3.8583984
2.6357422,5.0527344,5.5664062,5.288086,5.2998047
3.7226562,7.135742,6.5625,5.9804688,5.7402344
3.7226562,8.285156,4.640625,4.9785156,5.6816406
3.6591797,7.479492,1.984375,2.9345703,5.8935547
5.654297,7.743164,1.9882812,3.1347656,5.7685547
5.6953125,9.453125,2.6015625,3.2451172,5.7539062
3.2832031,9.246094,2.9335938,3.3798828,5.3134766
3.3261719,7.850586,3.790039,3.9248047,5.8554688
4.182617,7.6972656,4.3447266,4.817383,6.6308594
3.7705078,8.073242,3.1230469,4.9833984,6.4814453
2.616211,8.222656,3.7705078,5.364258,7.1757812
2.0732422,9.267578,2.2832031,3.975586,6.2929688
3.2353516,8.256836,3.1816406,3.180664,5.7333984
2.446289,8.173828,3.5166016,3.4501953,4.4814453
2.5595703,7.004883,3.506836,3.5791016,4.986328
2.8603516,7.1396484,4.7216797,3.7324219,5.0839844
3.381836,7.7177734,3.9208984,3.8457031,5.7509766
3.1054688,6.5117188,4.5664062,4.0097656,4.8027344
3.9111328,5.6640625,3.8154297,3.5166016,3.9277344
1.8535156,5.176758,2.6816406,3.4550781,2.3359375
1.1289062,4.665039,2.6279297,3.4179688,1.9404297
0.8046875,3.631836,1.8896484,2.180664,1.9707031
0.8515625,3.8007812,3.0039062,2.0927734,2.1669922
2.2773438,4.3740234,3.2529297,2.7539062,3.5732422
3.118164,5.0478516,4.0546875,4.448242,4.694336
2.9824219,6.2646484,5.3632812,5.4101562,5.4873047
2.8339844,8.783203,5.8652344,5.7714844,6.171875
2.3232422,9.541992,5.495117,4.9033203,5.4648438
3.2871094,8.296875,5.798828,3.7216797,4.3710938
3.828125,8.297852,4.966797,4.100586,5.8828125
4.15625,6.7333984,4.3222656,2.5302734,3.6572266
4.4033203,6.9316406,3.8378906,3.4951172,3.7783203
1.8105469,7.0351562,4.5742188,3.4970703,5.1992188
3.8964844,9.128906,3.8486328,4.598633,5.426758
4.477539,9.990234,5.290039,4.776367,7.8359375
2.2314453,10.005859,4.3554688,4.7978516,7.21875
1.8085938,10.949219,2.640625,2.9052734,7.0859375
2.3085938,8.318359,3.7802734,3.6191406,6.223633
2.5595703,8.006836,3.0507812,3.6416016,5.8896484
4.475586,9.364258,4.7001953,5.0927734,6.4208984
5.5683594,9.390625,5.609375,5.504883,6.8623047
5.955078,9.8203125,6.4296875,5.689453,6.1367188
5.4814453,8.837891,6.265625,5.65625,5.919922
2.8261719,7.6875,3.2626953,3.8955078,4.640625
2.680664,6.4541016,3.2617188,3.272461,4.013672
2.678711,3.0097656,3.9111328,3.3925781,3.5126953
2.2832031,3.4160156,3.6533203,3.1816406,3.0761719
1.8544922,4.2626953,3.9541016,3.0371094,2.9296875
3.3076172,3.5273438,4.6123047,3.7666016,3.538086
3.6708984,4.451172,4.868164,5.0341797,3.96875
3.678711,4.439453,4.8779297,4.821289,2.9121094
2.5371094,3.9814453,2.15625,2.8330078,1.7597656
2.1552734,3.2695312,2.5751953,2.0898438,1.9013672
2.625,2.459961,2.2636719,2.508789,3.3867188
1.8730469,2.0351562,2.0214844,2.7207031,3.3242188
1.265625,3.1054688,1.1435547,1.9462891,3.2783203
1.7050781,2.8701172,1.6220703,1.6894531,4.1601562
1.5439453,2.4609375,1.7958984,1.9472656,4.600586
1.5917969,3.8603516,2.7470703,2.3710938,4.1757812
2.1015625,7.1367188,3.3710938,2.8007812,3.9042969
5.2441406,3.8623047,3.0839844,1.8330078,3.609375
5.8720703,2.0761719,2.9521484,1.6738281,2.1132812
5.5546875,3.53125,3.0517578,2.234375,2.4511719
4.984375,3.6015625,2.834961,1.5810547,2.5126953
4.2226562,6.484375,3.0009766,2.6601562,3.9541016
4.6748047,6.4492188,3.6103516,4.1328125,5.557617
4.9052734,8.166992,4.2382812,4.666992,4.8134766
5.807617,10.4609375,5.654297,5.6435547,5.232422
7.3115234,11.009766,5.751953,6.7509766,7.4726562
4.901367,8.0625,4.7773438,6.4765625,5.2304688
4.4121094,7.517578,2.522461,3.1240234,4.459961
4.696289,7.7460938,4.428711,3.6044922,5.272461
5.5664062,7.5859375,5.350586,3.9228516,6.21875
4.5820312,6.720703,6.123047,4.9414062,6.868164
4.2373047,6.084961,5.0810547,4.6884766,5.008789
4.998047,7.8242188,2.399414,3.1992188,4.803711
8.333008,14.264648,3.9941406,4.495117,8.863281
7.5439453,12.699219,6.504883,5.698242,9.760742
6.5039062,14.983398,6.046875,3.9589844,9.558594
9.780273,16.63086,7.220703,4.7353516,9.572266
10.541992,16.801758,2.9013672,3.4140625,11.90625
11.072266,15.495117,8.027344,7.109375,12.342773
10.3671875,12.78418,9.704102,8.751953,10.949219
8.572266,11.921875,8.060547,7.5898438,8.995117
7.5742188,12.168945,5.5302734,4.4433594,8.044922
6.317383,12.344727,6.989258,6.0654297,8.00293
4.8378906,9.962891,5.961914,4.5722656,6.2998047
5.6992188,12.918945,5.7998047,3.397461,8.828125
6.504883,13.477539,6.7998047,5.7978516,9.736328
6.430664,12.124023,8.594727,7.732422,8.1796875
8.161133,13.0546875,7.8378906,6.4472656,9.293945
6.7958984,13.097656,6.5625,5.1220703,8.4140625
5.6152344,12.706055,7.0839844,6.0478516,7.510742
5.15625,12.233398,8.069336,6.8466797,7.2773438
5.463867,12.133789,8.780273,7.2314453,6.8535156
6.8515625,10.883789,7.5214844,7.326172,7.709961
7.879883,9.928711,7.830078,7.0527344,7.5927734
7.53125,10.086914,5.8085938,5.951172,7.2021484
6.2265625,10.9296875,6.166992,5.9375,7.763672
4.475586,10.488281,5.0546875,3.8964844,6.022461
3.446289,9.435547,4.598633,3.1054688,5.6259766
3.5898438,7.620117,5.5078125,2.7089844,4.788086
4.401367,7.3398438,2.5859375,2.5283203,4.1904297
4.1748047,4.8408203,1.6464844,2.7021484,3.1699219
4.1064453,2.8544922,2.15625,2.2978516,2.4003906
4.0322266,2.9765625,1.1669922,1.4277344,1.7871094
2.4970703,4.551758,5.071289,4.2109375,4.2666016
2.1894531,5.9902344,3.0175781,2.3232422,3.5175781
2.7128906,6.6191406,1.2568359,2.7001953,4.229492
4.807617,6.5009766,1.2578125,3.1816406,3.9111328
5.3564453,5.993164,2.944336,3.515625,4.3476562
4.540039,8.145508,3.2236328,4.0585938,4.381836
3.725586,6.022461,4.7402344,4.154297,5.3164062
4.823242,7.767578,4.4882812,4.1416016,4.336914
4.7509766,7.3808594,4.5859375,3.8544922,5.3251953
2.9365234,6.1865234,3.4667969,2.46875,3.774414
1.6201172,5.7382812,2.3808594,2.7207031,3.2861328
1.5029297,5.151367,2.9570312,3.1669922,2.6953125
1.4589844,4.9501953,2.5478516,2.4902344,2.6416016
1.375,4.3466797,1.7070312,2.008789,2.4853516
2.7294922,5.069336,2.5,3.7177734,3.8671875
3.5166016,4.125,3.6298828,4.2441406,3.8632812
3.9628906,1.4130859,4.5302734,5.1396484,2.3798828
3.1708984,4.017578,3.9433594,2.7460938,2.3945312
2.3701172,5.580078,1.890625,1.3769531,2.8789062
1.9287109,5.0839844,1.7441406,1.1767578,2.9960938
1.5634766,7.7939453,0.7451172,1.1494141,3.5898438
3.649414,7.9814453,1.5439453,2.828125,4.751953
5.1835938,8.591797,3.9902344,3.5341797,6.0996094
5.75,6.977539,3.7548828,3.946289,5.0322266
5.614258,4.098633,3.8554688,4.0439453,3.2783203
3.399414,4.3398438,3.9414062,3.9082031,2.649414
1.2304688,3.930664,2.7294922,1.8632812,2.600586
1.046875,3.883789,1.2646484,2.2128906,3.383789
2.3427734,7.071289,2.515625,2.6230469,3.5888672
4.3007812,7.685547,3.40625,3.774414,6.4726562
3.9199219,9.693359,4.9882812,4.635742,7.169922
4.0634766,8.771484,5.803711,4.6083984,6.692383
5.288086,8.818359,4.463867,4.911133,6.3398438
3.2011719,11.118164,2.453125,2.680664,7.21875
1.8193359,10.614258,3.4550781,4.017578,6.479492
2.6171875,9.041992,5.4970703,4.9921875,6.294922
3.1455078,9.005859,6.5195312,6.296875,7.2304688
5.415039,10.850586,7.368164,6.8759766,8.4296875
6.756836,10.635742,7.5947266,7.0566406,8.042969
5.8935547,9.810547,6.796875,6.883789,6.8632812
4.986328,9.916016,6.419922,6.5966797,7.209961
4.166992,10.05957,5.0507812,5.4023438,5.5039062
4.2148438,7.7285156,4.1875,4.9873047,4.288086
3.234375,7.036133,4.5771484,4.828125,4.8808594
2.8261719,7.0283203,4.2460938,3.8740234,3.7226562
4.348633,6.484375,4.0351562,3.6435547,4.0390625
4.5322266,5.473633,4.1435547,3.6855469,4.2695312
4.0566406,6.7978516,3.4003906,2.8251953,3.4980469
4.439453,3.3105469,2.6074219,3.3564453,2.2382812
2.9267578,5.3427734,2.741211,2.5429688,3.0126953
1.4091797,8.782227,4.9921875,2.5195312,4.6904297
2.540039,10.850586,4.286133,3.0947266,6.5283203
3.6142578,11.189453,3.8496094,3.4570312,7.9316406
4.7646484,11.493164,7.9814453,6.3564453,8.230469
4.765625,8.430664,6.0527344,5.4970703,5.814453
4.2441406,7.3027344,5.048828,5.961914,7.0908203
5.7070312,4.392578,6.7470703,6.267578,5.1035156
4.125,4.466797,4.53125,4.538086,2.6445312
2.0810547,5.8251953,4.838867,2.8271484,2.977539
2.3095703,8.069336,5.040039,2.8095703,3.6611328
2.421875,8.643555,4.4873047,2.8320312,4.428711
4.1367188,8.6328125,5.508789,4.5927734,5.9091797
5.4765625,8.256836,6.4941406,5.84375,6.6904297
5.2685547,10.869141,6.984375,5.803711,8.558594
5.4160156,13.791016,6.8808594,5.7460938,10.714844
6.8603516,14.697266,8.066406,5.341797,11.140625
8.274414,15.155273,8.165039,5.084961,10.650391
9.370117,16.393555,9.625977,7.4072266,11.527344
9.353516,16.82129,9.705078,8.441406,11.603516
8.873047,14.824219,8.897461,8.134766,9.807617
8.183594,12.801758,10.602539,9.154297,8.977539
10.579102,15.232422,11.311523,10.067383,10.540039
10.005859,15.486328,10.09668,9.256836,11.633789
8.342773,16.12207,6.875,7.142578,10.604492
8.794922,14.240234,5.2783203,7.7158203,9.75
7.296875,14.46582,6.0751953,7.732422,8.519531
6.451172,14.796875,6.7060547,7.307617,8.176758
7.7158203,15.083008,8.863281,8.332031,10.114258
9.21582,13.452148,9.588867,9.0234375,11.711914
8.6640625,13.769531,8.729492,8.432617,9.722656
7.395508,10.326172,8.011719,7.2177734,8.482422
5.868164,10.887695,5.194336,4.669922,6.96875
5.426758,11.271484,4.725586,3.836914,7.0908203
5.5478516,11.462891,4.7089844,4.7197266,7.5253906
6.107422,11.890625,4.7304688,4.770508,8.155273
6.560547,11.391602,6.2070312,4.951172,7.038086
6.0195312,9.336914,6.732422,6.2021484,6.870117
7.4833984,7.9023438,7.0371094,6.791992,6.6533203
7.4609375,6.6552734,5.8564453,6.2089844,4.8378906
5.336914,5.801758,3.5830078,4.176758,3.4042969
4.0791016,6.5166016,1.2822266,2.1445312,3.0576172
