"[299, 255]","[227, 248]","[287, 319]","[279, 328]","[230, 262]"
4.3291016,5.154297,2.7597656,1.3642578,2.9794922
3.961914,4.3134766,2.7871094,2.1259766,3.9541016
3.5390625,4.791992,3.5429688,2.9570312,4.4345703
4.1552734,6.0214844,4.899414,4.9189453,4.373047
5.0410156,3.3066406,5.984375,5.435547,4.1367188
5.423828,2.5488281,5.064453,4.7333984,3.6308594
3.3691406,3.890625,4.026367,3.8486328,2.5976562
1.9189453,4.3320312,1.8730469,2.5488281,2.1347656
1.4423828,4.0439453,1.2734375,1.6464844,2.4667969
2.2636719,6.3652344,1.9667969,1.8408203,2.9902344
1.8544922,7.741211,3.4160156,2.069336,6.088867
3.1513672,6.897461,5.0527344,4.616211,7.357422
3.6855469,8.473633,6.270508,5.279297,8.255859
3.5576172,10.0078125,5.0478516,5.0078125,8.761719
2.9228516,9.677734,3.90625,4.876953,8.108398
2.9072266,9.169922,4.611328,4.416992,7.2285156
2.834961,8.598633,4.1552734,3.4589844,6.2695312
2.959961,7.8251953,6.0039062,3.0214844,4.899414
3.1425781,6.4921875,5.114258,2.5742188,3.4658203
3.65625,5.661133,3.9824219,3.3925781,2.3164062
4.020508,6.029297,3.9501953,4.2841797,2.3105469
3.9570312,8.166992,3.9365234,4.1640625,4.7490234
3.4326172,7.4628906,3.2363281,3.1113281,4.3710938
2.0625,4.758789,3.2734375,2.0615234,3.5126953
3.1416016,0.7451172,2.4394531,2.0332031,1.3955078
2.3339844,0.7519531,2.8828125,1.7294922,0.84277344
2.9814453,4.0996094,3.2705078,2.7265625,1.5009766
3.0390625,2.4140625,2.8251953,2.8486328,1.2177734
3.006836,5.754883,4.256836,3.2441406,2.7597656
1.7949219,4.642578,2.9746094,3.9609375,2.3701172
2.3828125,1.2099609,2.7910156,2.7978516,0.8720703
1.9863281,1.4404297,1.7763672,2.5019531,1.6220703
2.350586,2.71875,2.0458984,1.5136719,1.9501953
1.9023438,1.5058594,1.1904297,1.7636719,2.2197266
1.9257812,3.7539062,1.8896484,1.8935547,3.5205078
3.0009766,7.0742188,2.2851562,3.0908203,3.3857422
2.9970703,7.4453125,3.609375,3.7607422,4.604492
4.466797,6.833008,4.0146484,4.654297,3.8408203
3.9472656,6.7353516,3.8427734,3.8339844,4.1328125
2.6835938,8.079102,3.2402344,4.1191406,4.703125
1.9589844,8.515625,2.7675781,3.3798828,4.9140625
1.5439453,8.361328,2.6132812,2.4111328,5.1308594
1.8613281,7.0615234,1.2451172,2.1816406,5.7441406
2.0839844,8.463867,1.9609375,2.5488281,5.611328
4.1083984,7.3066406,2.4257812,1.9765625,4.506836
4.526367,3.9228516,3.015625,3.4658203,2.7177734
3.3154297,4.2216797,3.319336,3.165039,2.0791016
1.828125,4.961914,2.3671875,2.3730469,3.1171875
1.8105469,6.1171875,3.796875,2.584961,3.1083984
1.0498047,4.1884766,3.7792969,2.540039,2.4189453
2.4433594,2.7167969,4.848633,3.8427734,3.4140625
3.131836,6.2246094,7.0429688,5.1123047,5.4101562
3.7597656,7.6796875,6.5898438,5.236328,6.015625
4.544922,7.415039,5.4765625,4.8066406,5.3671875
2.9638672,6.694336,3.9355469,4.15625,4.3779297
1.5390625,6.59375,4.033203,3.819336,3.9472656
1.4912109,6.84375,3.5458984,3.0507812,3.9746094
1.578125,6.198242,2.6513672,2.1113281,3.7529297
1.5419922,6.3183594,2.9267578,2.6914062,4.841797
2.1923828,5.7314453,3.4033203,2.524414,5.3515625
2.7314453,5.626953,4.3085938,2.9980469,5.328125
2.3789062,6.3554688,3.446289,3.3408203,5.3271484
1.4580078,5.4541016,2.9052734,2.4033203,4.7333984
2.1191406,4.838867,2.1259766,2.25,3.4267578
2.1904297,4.341797,2.709961,2.6601562,2.508789
3.131836,2.8896484,2.256836,2.196289,2.0527344
2.6933594,1.4560547,1.3271484,1.0029297,1.4287109
3.3339844,2.6679688,1.0537109,1.7333984,0.9560547
2.7607422,3.8867188,2.2285156,2.1738281,3.4951172
1.03125,4.388672,2.0742188,2.571289,3.4628906
3.4423828,6.165039,5.0029297,1.8642578,3.5625
6.0546875,7.2890625,5.7177734,3.475586,3.6259766
7.4765625,5.0751953,4.635742,3.6425781,2.850586
6.5273438,4.2060547,4.2246094,3.3945312,2.7509766
5.560547,3.790039,4.8945312,3.7753906,4.3203125
4.595703,4.379883,5.0126953,4.294922,6.0878906
3.2382812,2.9423828,4.8964844,3.8251953,5.6259766
4.051758,5.1640625,4.635742,3.461914,5.294922
5.388672,6.756836,3.9638672,4.1660156,4.3134766
6.7773438,5.3652344,2.0898438,2.9111328,3.8398438
5.6933594,2.9189453,1.3378906,2.7148438,4.4902344
4.8808594,4.5390625,2.0166016,3.149414,3.9208984
1.2636719,5.133789,3.0273438,3.2617188,4.5810547
2.2998047,4.522461,3.3330078,3.5644531,4.553711
3.1552734,5.2910156,3.5078125,4.2734375,4.540039
3.2753906,4.2851562,4.776367,4.5351562,3.9677734
5.4277344,4.5839844,4.379883,4.276367,2.7558594
7.0791016,2.8154297,4.4228516,2.4472656,1.75
7.611328,1.84375,4.6757812,2.2910156,1.5986328
7.6083984,0.96191406,5.0429688,1.3955078,1.8496094
5.6875,1.2226562,5.5898438,2.553711,1.2333984
4.4960938,2.2871094,5.5654297,3.9501953,2.459961
4.109375,3.8242188,4.8916016,4.517578,2.602539
3.866211,3.1875,4.8935547,4.6533203,3.0507812
6.461914,1.2734375,5.4453125,4.1591797,2.4179688
8.213867,2.8496094,5.8310547,3.633789,2.2919922
7.0078125,3.46875,4.9453125,4.038086,1.8974609
4.732422,3.9228516,3.9853516,4.169922,2.984375
4.044922,3.6513672,3.1152344,3.9785156,3.196289
2.8955078,2.118164,2.3144531,3.7675781,3.3916016
3.6738281,3.977539,2.7226562,2.0058594,4.5390625
3.4472656,3.6904297,4.7285156,2.5917969,3.3554688
4.0146484,3.756836,4.8603516,3.2177734,3.0410156
6.5908203,4.6064453,6.0058594,3.8085938,3.5458984
7.658203,5.1308594,4.0117188,4.225586,3.852539
8.727539,6.9003906,3.9335938,4.5898438,3.296875
9.298828,3.538086,6.3310547,5.665039,2.7529297
9.819336,4.138672,6.8164062,6.845703,3.6845703
8.206055,5.1503906,6.4052734,5.9052734,4.2529297
6.694336,5.423828,7.7353516,5.698242,5.2460938
4.448242,5.732422,8.208008,4.21875,4.060547
2.0214844,4.2148438,6.760742,3.3847656,2.1054688
1.4511719,4.0273438,3.984375,2.8613281,1.8486328
1.4628906,4.5478516,3.7871094,2.2822266,2.0253906
1.5996094,4.9365234,4.859375,2.0566406,3.3867188
1.5957031,6.15625,3.8691406,3.3769531,3.953125
3.2783203,5.5703125,2.5488281,1.7275391,4.6748047
2.3789062,6.850586,2.8720703,2.1855469,4.8476562
1.8486328,5.477539,2.4335938,2.618164,2.7109375
1.8125,4.5664062,2.9580078,2.9179688,2.1708984
2.0498047,3.7382812,2.4033203,2.9716797,1.8525391
4.8291016,1.9755859,2.2558594,2.6513672,1.1015625
3.9541016,2.3222656,2.1826172,1.4287109,0.9628906
2.1513672,3.3330078,2.140625,0.7011719,2.7695312
0.99121094,3.8300781,0.35742188,2.5634766,4.241211
1.4160156,5.0664062,2.5615234,2.1708984,4.057617
1.9013672,5.2753906,2.5830078,2.1054688,2.8574219
2.6533203,4.71875,2.7177734,1.8671875,2.1894531
2.6855469,3.8515625,1.8300781,1.6132812,2.288086
2.3447266,3.2509766,2.5107422,0.9238281,1.8632812
1.1201172,3.1992188,3.2294922,0.5732422,2.2822266
2.2763672,7.2265625,1.65625,1.5947266,4.151367
1.9501953,7.9785156,2.0517578,2.9238281,4.098633
1.9970703,7.060547,5.586914,2.991211,3.1855469
2.6845703,6.147461,4.966797,3.7958984,2.8857422
5.239258,5.567383,4.2197266,3.3515625,2.9472656
4.6865234,5.3046875,3.2841797,2.8857422,3.5917969
2.352539,4.881836,1.9433594,2.5615234,3.084961
0.8408203,4.580078,0.8359375,1.0976562,4.0234375
1.6669922,5.984375,1.4560547,1.9990234,4.201172
1.7666016,6.9375,2.6992188,3.1083984,4.4121094
2.96875,5.0820312,3.399414,3.2783203,3.3242188
3.2011719,4.0810547,2.1533203,2.4199219,2.399414
2.7382812,3.506836,2.5185547,2.4365234,1.9589844
2.7382812,2.352539,1.875,3.1933594,1.2578125
2.7919922,2.4111328,3.0791016,2.4003906,1.0644531
3.5517578,4.1308594,4.9853516,4.6816406,3.2607422
4.1503906,4.53125,4.6914062,4.3134766,4.442383
5.2890625,3.196289,4.8740234,4.2910156,3.8417969
5.4472656,4.1933594,4.334961,4.0664062,3.9980469
3.6201172,6.828125,4.2929688,3.7451172,4.645508
1.7568359,6.4335938,5.6689453,3.2060547,4.419922
1.7988281,5.1054688,4.0058594,1.7060547,3.5214844
1.9384766,5.0722656,2.4111328,2.4648438,3.0410156
2.7441406,4.260742,2.6503906,3.0009766,3.0859375
3.8144531,3.163086,2.7783203,3.4111328,2.6953125
3.8388672,3.796875,3.8105469,4.0722656,2.8183594
3.991211,2.7636719,4.2978516,4.8466797,2.0048828
3.2548828,2.475586,3.6220703,3.7783203,1.8466797
2.3828125,1.8447266,3.1582031,2.493164,2.1523438
2.3359375,2.2460938,2.4169922,1.5244141,1.8759766
1.3164062,2.8964844,1.2412109,1.4101562,2.1953125
1.0839844,3.321289,1.4257812,1.2861328,3.3251953
1.1416016,3.3007812,2.0175781,2.328125,3.5703125
1.7636719,3.015625,3.6992188,3.7988281,4.125
1.6279297,1.015625,4.3876953,3.5019531,2.915039
1.9960938,0.9453125,3.0751953,2.9101562,1.6992188
2.9169922,3.2919922,2.3554688,1.7832031,1.5517578
4.4501953,3.8710938,1.859375,2.7060547,2.9990234
4.279297,4.3115234,2.25,2.6230469,3.8457031
3.8496094,4.9658203,3.3125,3.2402344,5.421875
3.7763672,5.2314453,5.578125,4.661133,5.875
3.0683594,5.46875,5.5507812,5.251953,5.475586
1.4189453,6.088867,3.6591797,3.8564453,5.098633
1.8076172,4.5976562,2.5800781,3.0205078,3.2939453
3.2207031,5.133789,2.9736328,3.1132812,2.7763672
4.4052734,4.7734375,3.3935547,3.6865234,3.4550781
5.428711,5.0498047,3.241211,3.1777344,3.6210938
4.588867,7.1601562,3.3886719,4.111328,5.864258
5.073242,9.469727,5.2714844,5.404297,7.8554688
5.6865234,10.37207,5.654297,6.038086,9.40332
5.118164,11.053711,5.3632812,5.9589844,10.410156
3.6367188,11.6015625,4.2333984,5.317383,9.780273
3.3339844,10.94043,5.4833984,5.0839844,8.873047
4.6416016,9.822266,6.5654297,4.3515625,7.5771484
5.330078,7.7421875,5.8554688,3.8066406,4.640625
5.725586,5.666992,6.015625,2.6103516,3.7246094
5.046875,4.9853516,4.248047,3.3603516,3.5058594
3.171875,3.7167969,2.0595703,3.2382812,3.7705078
3.546875,3.821289,3.546875,4.2304688,3.7197266
2.413086,5.932617,3.8535156,3.4072266,3.9082031
1.7509766,5.9101562,2.8076172,2.7548828,2.8222656
1.8242188,6.272461,2.4765625,2.5664062,2.899414
1.7773438,6.126953,1.8369141,2.0888672,2.6669922
1.9658203,5.4541016,1.9599609,2.100586,3.7294922
3.5429688,4.3271484,3.1455078,3.149414,3.3847656
3.993164,4.8408203,4.0625,3.8466797,4.0058594
3.618164,2.8623047,3.5146484,4.03125,2.4667969
2.5888672,4.1816406,3.59375,3.4169922,1.8125
2.4570312,2.9736328,2.5019531,3.1728516,1.8017578
2.5751953,2.9814453,2.678711,2.7607422,1.2773438
2.444336,2.600586,0.8964844,1.421875,1.53125
1.5732422,1.5117188,0.66796875,1.1972656,1.5302734
2.165039,3.2861328,1.3466797,2.1328125,2.7480469
2.15625,5.9609375,1.9697266,3.3076172,2.8261719
2.1992188,6.1972656,3.1572266,2.803711,2.7773438
2.9101562,5.7822266,2.6777344,2.3798828,2.6542969
3.5478516,3.4648438,1.6328125,1.3525391,2.758789
4.861328,2.0146484,1.7216797,1.1025391,2.899414
4.928711,2.0966797,0.95410156,1.6601562,2.9814453
4.310547,1.0742188,0.6923828,1.2509766,1.9570312
3.0576172,2.3740234,1.8994141,0.8544922,2.0410156
1.7617188,4.0566406,2.203125,1.5419922,3.0488281
1.7070312,2.8427734,2.6054688,2.3623047,2.65625
1.9082031,2.8945312,2.977539,2.7626953,2.3486328
3.1347656,2.5566406,2.3486328,1.9599609,2.7470703
3.9023438,2.0703125,1.6845703,1.6787109,2.3691406
3.633789,1.6904297,1.6230469,1.5039062,2.6767578
2.2070312,1.0136719,0.546875,1.1884766,0.81347656
1.3027344,1.3505859,1.9541016,0.8339844,1.7792969
1.234375,3.1074219,2.2148438,0.2763672,2.7998047
1.5478516,2.4863281,2.3867188,1.3789062,2.319336
1.8398438,2.600586,3.0654297,2.3779297,1.9287109
3.0283203,1.3066406,1.5703125,2.2763672,2.1103516
3.8515625,2.3574219,1.9394531,1.9873047,2.2207031
3.1230469,3.2626953,1.7939453,1.6240234,2.6865234
1.0537109,2.7519531,0.58496094,0.6152344,1.2539062
1.6904297,4.5566406,0.8144531,0.6640625,2.7460938
1.6142578,6.5791016,0.96972656,1.6416016,3.0839844
1.8652344,5.541992,1.9179688,2.4121094,2.8388672
3.0078125,3.8886719,2.7148438,2.6503906,2.665039
1.8056641,3.4042969,2.008789,1.6025391,2.4296875
1.8779297,4.379883,2.5917969,1.6318359,2.899414
1.6064453,5.466797,2.4140625,1.4785156,3.8398438
2.008789,5.4658203,1.1582031,1.0654297,4.0585938
2.3457031,7.28125,0.9316406,1.0527344,4.7822266
3.5996094,7.5185547,2.3173828,2.6044922,4.560547
4.4375,5.0859375,2.5664062,3.9072266,2.8095703
3.7109375,3.6386719,2.9765625,2.5351562,1.4404297
2.868164,2.7333984,2.7792969,2.3466797,1.3759766
