"[299, 255]","[227, 248]","[287, 319]","[279, 328]","[230, 262]"
3.9511719,3.1074219,2.6533203,3.1816406,2.5966797
3.586914,2.8886719,3.0039062,3.1933594,2.7460938
3.506836,3.1484375,2.8105469,3.3710938,2.953125
2.4140625,5.8359375,2.1132812,3.0488281,3.140625
2.1289062,6.6416016,1.8144531,3.2402344,3.5771484
3.4677734,6.7822266,3.6035156,3.5546875,3.5947266
3.8916016,7.638672,1.8583984,3.9375,4.4921875
4.4140625,9.732422,1.5048828,4.0029297,5.9365234
4.647461,10.197266,1.71875,4.508789,6.760742
4.2470703,10.87793,3.0058594,3.6259766,5.8466797
4.006836,10.030273,6.2558594,3.1396484,6.169922
3.9453125,10.088867,6.838867,3.2646484,6.040039
4.010742,10.9375,6.359375,3.209961,6.1777344
4.274414,11.015625,7.0,3.0439453,7.453125
4.4492188,10.274414,6.4033203,3.3632812,6.9160156
4.114258,10.683594,6.4404297,3.9824219,7.1015625
4.3466797,10.094727,5.635742,3.491211,6.7216797
4.739258,8.923828,4.4970703,3.4521484,5.1328125
3.5283203,6.0009766,3.7265625,3.5136719,3.0009766
2.4296875,3.8486328,3.0625,3.1113281,1.8554688
1.9775391,2.6875,2.3359375,2.1757812,1.8564453
1.9423828,5.1904297,1.4912109,2.0771484,3.1347656
2.9833984,6.0253906,2.1113281,2.709961,4.192383
3.515625,8.416016,4.2822266,3.7421875,6.0722656
4.083008,10.245117,4.7128906,4.010742,7.6591797
4.953125,12.029297,5.7597656,4.709961,8.740234
6.048828,13.912109,7.2783203,6.060547,9.530273
6.401367,14.806641,9.96582,8.081055,10.503906
6.6064453,15.633789,11.211914,8.6875,11.176758
6.3779297,15.722656,10.420898,8.327148,10.923828
6.2871094,15.546875,10.086914,7.754883,10.84082
6.0341797,14.286133,10.5078125,7.765625,10.379883
5.5273438,13.826172,10.1640625,8.631836,9.930664
5.6015625,12.518555,9.488281,9.467773,9.779297
5.6289062,11.895508,11.370117,8.642578,9.723633
6.0166016,12.71582,11.724609,6.923828,10.203125
6.408203,13.610352,8.637695,5.913086,10.844727
6.75,13.21875,9.026367,7.798828,10.990234
6.375,13.241211,10.34668,8.075195,10.15918
6.0527344,12.922852,7.926758,6.0234375,9.1953125
5.4960938,7.9921875,4.388672,3.928711,4.2998047
4.536133,6.388672,3.8867188,3.0449219,3.8378906
2.977539,4.8154297,3.7851562,2.6748047,1.2988281
1.9824219,3.2675781,0.9326172,2.0751953,1.3466797
1.4238281,2.9267578,1.6083984,2.2148438,0.9658203
3.8574219,3.9814453,2.4228516,1.9990234,2.5820312
5.2773438,4.9941406,2.381836,2.7490234,4.0195312
4.9570312,9.105469,3.5722656,2.3095703,4.430664
5.251953,9.451172,4.4902344,4.1601562,5.1601562
5.4658203,10.174805,2.8427734,4.336914,6.1972656
5.4697266,10.845703,2.9736328,3.7626953,6.8476562
6.091797,11.404297,4.1757812,4.958008,7.211914
6.1484375,10.167969,4.8515625,5.0771484,7.9052734
5.9257812,10.751953,3.1044922,3.7216797,8.081055
5.7871094,11.108398,4.9726562,4.245117,8.30957
4.7402344,11.431641,3.415039,4.7617188,7.8222656
4.7041016,9.87207,3.4638672,4.5527344,7.046875
5.4589844,9.373047,1.9931641,3.8916016,6.328125
4.635742,8.762695,2.1611328,3.5976562,5.2490234
3.9589844,7.208008,2.6259766,3.928711,4.6992188
3.7626953,6.5214844,2.3095703,3.7246094,2.631836
5.029297,4.2685547,2.897461,3.8603516,1.7138672
5.0253906,3.0498047,1.8222656,3.2177734,1.3769531
4.1904297,4.8066406,3.165039,3.5498047,1.7255859
3.3779297,6.4433594,2.6845703,3.7226562,1.8974609
4.461914,6.430664,3.0078125,2.6464844,1.4423828
6.7939453,5.895508,3.1464844,2.8740234,1.7568359
8.055664,5.5820312,4.0410156,4.0898438,2.3105469
7.9003906,4.256836,5.736328,5.211914,2.3398438
7.2490234,4.8427734,5.5253906,4.423828,2.3164062
8.636719,5.6171875,4.0351562,5.0039062,2.2382812
7.517578,5.245117,3.5634766,4.993164,1.0927734
6.3085938,4.7773438,3.59375,4.3466797,1.828125
6.0039062,3.2441406,4.439453,3.5390625,1.8710938
5.131836,3.350586,5.0498047,4.3623047,2.3046875
6.6523438,4.5351562,4.7373047,4.2490234,3.765625
7.3427734,5.765625,5.5234375,5.801758,3.0654297
6.9140625,5.491211,5.067383,5.7441406,2.5371094
6.501953,6.504883,4.5302734,5.7666016,2.6699219
5.551758,5.6953125,3.9765625,4.709961,2.9990234
4.5498047,7.142578,4.203125,4.4873047,3.2695312
5.4003906,8.575195,3.7265625,4.814453,3.6269531
5.9472656,9.453125,2.7939453,3.694336,3.921875
7.522461,9.240234,2.2011719,3.75,4.6552734
6.583008,5.3427734,3.3945312,3.9697266,5.663086
6.9746094,6.504883,2.8496094,2.788086,6.4990234
6.6259766,6.8476562,2.7265625,1.6035156,6.084961
5.540039,6.145508,2.1347656,1.5644531,4.821289
5.3447266,5.817383,1.3818359,1.7607422,3.5214844
4.7734375,5.4746094,1.0224609,1.6269531,2.993164
2.8769531,5.546875,0.8925781,1.3642578,2.7050781
0.53515625,3.6044922,0.45507812,0.7832031,2.0791016
0.91796875,3.5058594,1.2490234,1.6005859,1.1337891
1.3564453,2.102539,2.4677734,1.6806641,1.6337891
1.6650391,3.9824219,3.3896484,1.7958984,2.2363281
2.1435547,3.709961,3.4423828,2.1464844,1.9082031
2.8476562,4.84375,3.5986328,2.350586,2.6914062
2.7080078,6.5976562,3.8359375,2.5644531,3.4697266
2.9482422,9.636719,5.8564453,3.4921875,6.149414
4.2558594,12.044922,7.8310547,4.7158203,7.8935547
5.6523438,11.317383,8.324219,6.359375,7.03125
4.8466797,8.517578,5.801758,6.1279297,5.055664
5.0273438,9.918945,5.756836,5.415039,5.0458984
3.7734375,9.1328125,5.685547,4.361328,3.9960938
3.0136719,8.334961,5.5078125,3.2714844,3.9589844
3.46875,9.084961,5.8720703,4.557617,4.473633
3.7304688,10.118164,6.0146484,4.2333984,5.0878906
4.3271484,11.220703,6.1464844,6.095703,6.8828125
4.8154297,12.727539,7.0908203,6.2060547,8.34668
4.7783203,12.230469,4.6816406,3.7294922,6.341797
4.0185547,11.886719,4.241211,3.9267578,5.368164
3.9023438,13.6875,4.4316406,4.633789,7.3466797
4.216797,12.897461,4.7333984,5.616211,7.618164
5.017578,13.650391,5.3535156,4.470703,7.883789
5.772461,14.949219,4.9941406,3.852539,8.739258
3.7705078,14.646484,3.4804688,5.0214844,8.444336
4.645508,12.980469,4.8759766,5.0195312,8.06543
3.1533203,10.598633,4.104492,3.5449219,5.729492
2.5166016,8.014648,2.5966797,3.4697266,3.131836
2.4277344,7.5654297,2.7138672,2.7949219,3.2705078
2.6269531,8.425781,3.6572266,3.116211,4.1015625
3.7285156,11.321289,5.1533203,3.803711,6.620117
5.7148438,12.057617,7.057617,5.123047,9.37207
6.419922,12.293945,11.394531,6.6328125,9.647461
6.6875,12.743164,10.967773,9.123047,9.296875
6.3251953,11.53125,9.884766,7.2460938,8.490234
7.741211,11.3671875,7.0458984,8.144531,8.701172
7.5146484,12.15332,7.4101562,7.9921875,8.779297
7.7304688,13.524414,7.5898438,7.921875,9.825195
8.147461,13.22168,8.587891,7.8085938,9.172852
8.09668,12.484375,8.90332,8.709961,9.103516
8.510742,12.956055,9.370117,9.564453,9.447266
8.8046875,13.444336,9.714844,10.712891,9.979492
7.9921875,13.365234,9.597656,9.231445,9.087891
6.6992188,12.700195,9.915039,9.668945,8.295898
6.7441406,12.849609,10.058594,9.839844,8.574219
7.3154297,12.736328,9.306641,8.779297,8.396484
6.6533203,12.533203,7.7402344,8.97168,7.870117
6.763672,11.782227,7.9140625,7.9726562,7.069336
6.4873047,11.003906,8.128906,6.984375,7.0283203
6.4746094,9.864258,8.504883,7.6308594,7.0458984
4.982422,9.505859,7.5126953,6.546875,4.953125
3.9833984,9.490234,6.234375,5.5908203,4.7460938
3.5517578,9.348633,4.9375,5.2265625,4.604492
2.725586,9.1328125,4.821289,4.723633,4.7617188
2.7539062,9.853516,5.663086,4.919922,5.2246094
2.3066406,9.693359,4.8408203,4.649414,5.1396484
2.4902344,8.936523,4.326172,4.560547,5.6904297
4.0771484,8.332031,5.2070312,5.3828125,5.6054688
3.1083984,7.091797,4.041992,3.6533203,3.7988281
1.3212891,4.392578,2.5517578,3.3085938,3.3808594
1.9746094,3.2304688,2.4667969,2.6796875,2.46875
2.415039,3.9316406,1.8056641,2.1699219,2.1455078
3.147461,1.8955078,1.3535156,2.4453125,1.9921875
3.0146484,3.336914,1.4873047,2.7021484,2.6689453
1.0917969,5.4560547,1.2451172,2.1826172,2.5605469
1.2900391,6.2646484,1.1816406,2.3476562,2.9199219
3.0976562,6.75,2.8417969,3.3808594,3.1572266
4.1171875,6.3828125,2.9726562,4.0791016,3.6933594
4.8007812,8.918945,2.8076172,4.2265625,4.5078125
5.4375,9.482422,2.727539,5.203125,4.4902344
5.7060547,9.873047,2.4345703,5.161133,5.0908203
6.0322266,11.068359,3.5761719,5.1220703,5.7841797
6.4296875,12.454102,3.9091797,4.4589844,7.3242188
6.2265625,12.743164,5.673828,5.890625,8.169922
6.9052734,12.769531,5.211914,5.8789062,6.4726562
8.701172,12.768555,5.0097656,6.567383,6.192383
9.913086,13.25293,5.3691406,7.4873047,6.7333984
10.477539,13.360352,6.15625,7.8671875,7.682617
10.097656,14.787109,6.973633,8.092773,8.461914
10.469727,14.552734,6.5283203,8.082031,8.043945
10.522461,14.71582,6.0234375,7.055664,9.345703
8.364258,10.43457,5.4228516,5.75,7.0185547
4.8007812,11.612305,5.6816406,4.3466797,6.3935547
4.951172,14.630859,5.446289,5.1367188,9.400391
8.011719,16.536133,7.8291016,7.5410156,10.483398
8.838867,16.458008,9.1015625,8.035156,10.086914
7.3134766,16.017578,8.185547,7.3759766,9.963867
7.0703125,14.53418,7.0664062,6.4882812,8.574219
6.830078,12.495117,5.7998047,6.7695312,7.573242
7.491211,10.081055,5.7578125,5.9541016,6.569336
3.7646484,6.876953,3.4892578,4.1660156,3.3896484
1.96875,5.993164,2.4785156,2.421875,2.9482422
1.8662109,6.5302734,2.9589844,2.821289,3.0751953
2.3095703,7.198242,4.158203,2.991211,3.5146484
3.375,9.513672,2.5048828,3.7597656,5.9414062
4.725586,11.939453,3.2871094,4.4726562,9.012695
5.8115234,13.764648,9.984375,5.213867,10.060547
6.4814453,14.685547,10.108398,5.614258,10.608398
6.404297,14.665039,9.847656,6.4677734,10.480469
6.5039062,14.2265625,8.474609,5.578125,9.625
6.9472656,13.447266,6.975586,3.491211,8.220703
6.7939453,9.371094,3.0458984,1.9824219,4.5527344
6.767578,3.4970703,1.7197266,1.7021484,1.8535156
2.5732422,3.9746094,3.0009766,1.7177734,2.7451172
1.7304688,4.9296875,3.1191406,2.8779297,3.0605469
3.0097656,7.1835938,3.5703125,3.7490234,4.010742
3.4365234,8.555664,3.2958984,3.5898438,4.354492
2.875,9.808594,3.4238281,3.7363281,5.1914062
3.0830078,11.0546875,3.6484375,4.6054688,5.4160156
3.665039,11.861328,5.142578,4.390625,6.208008
4.9921875,13.553711,5.607422,5.4404297,8.080078
5.6103516,13.7421875,6.8125,7.017578,8.461914
6.7226562,13.411133,7.3339844,7.4345703,9.078125
7.6376953,13.543945,8.048828,8.099609,9.467773
6.4365234,13.391602,7.5429688,7.1708984,8.063477
6.751953,12.881836,6.680664,6.2910156,7.892578
7.0585938,12.2890625,5.888672,5.859375,8.1640625
7.0507812,11.728516,6.053711,5.455078,7.498047
6.4609375,10.00293,6.135742,6.147461,6.9189453
5.602539,10.118164,6.3935547,6.1308594,7.370117
6.1845703,10.672852,6.5839844,7.515625,8.194336
6.319336,11.955078,7.9179688,6.8789062,8.729492
6.4628906,14.135742,7.8945312,6.8515625,9.744141
7.8740234,17.104492,9.240234,7.680664,11.397461
8.458984,16.671875,9.629883,8.375,11.125977
8.064453,11.314453,7.526367,7.0429688,9.326172
7.1796875,11.323242,6.4560547,7.3320312,8.296875
6.873047,12.883789,7.2714844,7.279297,7.9501953
7.5322266,12.737305,7.7148438,7.245117,8.355469
8.4609375,12.662109,7.9472656,7.6933594,9.011719
8.011719,12.231445,7.6601562,7.5742188,7.8447266
6.788086,11.8203125,6.8251953,6.4560547,6.845703
5.982422,10.342773,6.2734375,5.1572266,5.6279297
5.2773438,9.1015625,5.7060547,4.1748047,4.698242
4.430664,8.174805,3.946289,3.3017578,3.84375
3.3330078,7.8134766,4.533203,3.2080078,3.421875
2.8359375,7.189453,4.1875,3.256836,4.178711
4.1328125,7.8427734,4.3007812,3.555664,6.2041016
3.2695312,8.40625,5.8964844,3.8515625,6.5810547
3.609375,8.598633,7.0,4.2158203,6.555664
3.8027344,8.144531,5.982422,3.6132812,6.2148438
3.3574219,7.3310547,6.524414,3.7832031,5.4785156
2.8720703,6.5791016,5.5664062,2.546875,4.3183594
3.2373047,7.142578,5.0546875,2.5664062,4.2089844
3.2148438,7.361328,4.7314453,2.383789,4.3154297
3.4638672,6.7490234,4.5996094,2.7617188,5.165039
3.366211,5.598633,2.4892578,2.8789062,4.5625
3.8427734,3.7001953,2.2490234,2.5800781,3.1142578
4.140625,4.663086,3.9326172,3.5097656,2.6835938
