"[299, 255]","[227, 248]","[287, 319]","[279, 328]","[230, 262]"
9.509766,3.1416016,5.001953,4.8251953,2.2509766
3.5126953,3.3339844,4.756836,4.319336,2.147461
1.6162109,4.788086,3.5263672,2.897461,2.640625
1.7558594,6.705078,3.2080078,4.1279297,3.803711
2.5566406,5.4492188,1.9160156,3.196289,4.790039
1.8017578,6.338867,3.055664,2.7910156,3.6201172
2.0234375,4.665039,2.2519531,2.5595703,3.8701172
2.8046875,4.1660156,2.2558594,3.2685547,2.1035156
3.9921875,6.0273438,2.0898438,3.5429688,2.2832031
4.5820312,4.8691406,2.9580078,2.7011719,1.6835938
6.665039,6.1904297,1.7373047,2.203125,2.9355469
5.2753906,5.959961,2.8300781,4.060547,4.3535156
6.7714844,9.074219,6.017578,5.5195312,6.9589844
7.7001953,11.28418,5.6484375,5.4384766,7.6035156
5.631836,10.678711,4.5771484,4.977539,6.7666016
5.125,12.324219,3.897461,5.8007812,7.263672
4.7001953,11.881836,3.975586,6.1992188,7.40625
5.413086,12.665039,4.616211,6.8603516,7.8632812
6.513672,13.615234,6.129883,7.1123047,8.745117
6.8408203,13.498047,7.5009766,7.0771484,9.279297
6.2285156,12.8359375,6.9345703,5.7773438,9.509766
4.5898438,10.202148,4.7460938,4.919922,6.618164
2.8642578,7.7001953,2.7705078,3.40625,3.709961
2.0976562,6.8134766,2.6269531,2.6357422,2.9199219
2.0419922,4.203125,1.6708984,1.9628906,1.9941406
2.959961,2.0322266,1.9013672,2.147461,2.4179688
1.4736328,1.3662109,0.9560547,2.0449219,2.1289062
1.9677734,3.475586,0.5341797,1.2998047,2.631836
2.1376953,3.053711,1.8935547,0.96777344,3.2792969
1.8300781,3.506836,3.4785156,2.1347656,2.7314453
3.0927734,4.1777344,3.2050781,2.0048828,2.8105469
4.0273438,6.489258,2.944336,3.1220703,3.0410156
4.2617188,7.6083984,2.9453125,3.4453125,3.6298828
4.975586,7.3691406,3.2548828,3.5498047,3.5800781
5.553711,8.250977,3.024414,4.6464844,4.7041016
6.9853516,9.348633,4.9375,5.5683594,6.7929688
9.255859,8.704102,6.2685547,6.6591797,6.373047
9.489258,7.7939453,5.836914,6.5283203,4.8710938
10.6171875,8.298828,5.3007812,7.5527344,3.477539
10.253906,12.478516,5.28125,7.915039,7.0976562
8.53125,12.849609,4.1884766,6.2382812,7.513672
6.4414062,13.580078,2.8955078,4.0234375,8.754883
7.904297,9.387695,1.8310547,2.5292969,7.560547
7.830078,6.864258,5.0498047,4.6132812,5.942383
4.883789,10.428711,5.5253906,4.4716797,7.834961
5.1259766,12.599609,5.8496094,5.010742,9.365234
5.1884766,12.279297,7.8867188,5.984375,7.946289
5.375,10.862305,7.010742,6.064453,7.908203
5.3945312,11.53418,6.145508,5.208008,8.737305
6.2509766,13.467773,8.354492,3.828125,10.4296875
6.4970703,13.408203,8.833984,3.9453125,10.368164
6.6123047,13.894531,7.767578,4.151367,9.657227
7.5,13.519531,6.9316406,4.522461,8.746094
6.852539,11.293945,3.930664,4.9560547,6.4257812
5.814453,7.1748047,5.4248047,3.743164,3.609375
3.2089844,5.0771484,3.881836,3.4423828,2.6259766
1.796875,5.524414,2.7167969,3.1923828,3.0439453
2.7197266,7.5976562,2.2314453,3.0595703,5.618164
3.2910156,8.651367,1.2470703,2.8769531,7.060547
4.3164062,7.4189453,2.1904297,2.7373047,7.225586
4.9697266,7.073242,2.022461,3.2841797,7.140625
4.4570312,6.810547,1.6621094,3.0078125,5.8720703
4.633789,4.6523438,2.8222656,3.5273438,4.135742
5.0751953,6.0634766,3.1796875,3.8300781,4.1083984
4.9902344,7.0253906,3.211914,4.0058594,3.9228516
5.9433594,8.93457,4.0791016,4.5390625,4.0908203
6.205078,7.526367,3.2421875,4.4414062,3.4716797
6.055664,5.9970703,1.5917969,4.357422,2.4414062
6.0507812,4.8378906,2.1201172,4.584961,2.381836
5.9208984,4.9472656,2.7011719,3.7021484,3.1435547
6.8828125,5.588867,4.4609375,3.663086,3.8300781
7.703125,5.1367188,4.010742,4.463867,3.5
7.1103516,5.645508,4.607422,5.274414,3.4628906
7.8310547,5.1914062,5.1552734,5.6621094,3.7392578
8.692383,5.3876953,4.649414,5.711914,3.53125
8.474609,7.3828125,5.125,5.6083984,2.913086
8.34375,8.240234,5.9833984,6.2958984,3.8203125
9.010742,6.881836,6.413086,6.544922,5.5878906
10.729492,7.2373047,6.1972656,6.008789,6.3310547
10.821289,9.050781,6.8242188,6.3203125,5.4189453
10.294922,8.092773,5.732422,4.873047,5.196289
8.552734,5.166992,4.868164,5.883789,5.317383
8.189453,4.4804688,5.383789,6.2802734,5.883789
9.28125,4.4941406,5.8222656,5.526367,7.2177734
9.708008,4.7460938,7.1679688,5.265625,8.2421875
7.897461,4.3447266,5.7128906,4.3466797,8.111328
8.568359,5.6376953,5.7265625,3.1279297,8.577148
8.223633,6.28125,5.9697266,2.0263672,6.9179688
5.0146484,4.2421875,5.7177734,0.9638672,7.8007812
5.2089844,4.727539,5.4648438,1.9267578,7.442383
5.776367,2.9501953,5.178711,2.765625,8.544922
7.0341797,2.9863281,6.3564453,3.6142578,9.744141
8.3515625,7.5722656,6.970703,4.6054688,9.847656
7.7841797,7.1835938,6.6953125,2.4394531,8.907227
7.6845703,5.8291016,6.3134766,2.6308594,8.46582
8.616211,5.276367,6.0058594,2.2734375,8.503906
8.673828,2.5966797,6.4033203,2.2646484,8.454102
8.141602,1.5732422,5.7822266,1.6220703,8.139648
9.022461,3.1845703,4.9814453,0.95703125,8.706055
10.428711,8.05957,5.307617,3.9892578,8.696289
9.833984,10.517578,5.879883,6.236328,7.513672
6.8085938,10.041992,5.5507812,6.870117,6.870117
7.088867,9.8671875,5.9804688,5.8164062,7.7802734
10.702148,5.489258,7.466797,2.8603516,8.359375
8.634766,3.8476562,6.6289062,2.459961,8.078125
6.1865234,4.515625,5.4003906,1.3164062,7.953125
5.301758,4.9990234,5.338867,1.8271484,8.24707
5.53125,6.6904297,7.453125,1.5742188,8.574219
6.4140625,5.251953,7.8652344,4.1289062,8.072266
7.6210938,6.3320312,6.8085938,5.7578125,5.2753906
7.5410156,5.5234375,5.2197266,4.834961,4.739258
3.696289,6.2333984,4.75,2.6064453,5.220703
3.1894531,4.6953125,3.975586,1.7021484,4.263672
3.8496094,5.4033203,3.5830078,2.3740234,4.2646484
4.794922,4.569336,4.875,1.2207031,4.8740234
4.2265625,3.6015625,4.9335938,2.5546875,5.4960938
3.6367188,2.7578125,4.307617,3.6484375,4.9814453
3.5439453,2.4492188,4.0996094,3.5878906,4.2998047
2.5488281,5.189453,3.2734375,2.9580078,2.8935547
2.3896484,4.2773438,2.3388672,2.6152344,2.2529297
2.350586,2.0410156,1.8027344,2.258789,2.100586
2.1357422,2.897461,2.15625,1.4091797,1.7880859
1.9492188,3.3632812,2.3095703,1.4394531,0.88671875
1.3408203,1.3251953,1.5859375,1.6142578,0.6748047
0.6875,1.5175781,0.45214844,1.1328125,1.2578125
1.3681641,1.5771484,1.4052734,1.9833984,1.3417969
1.3037109,2.0419922,1.8974609,1.1162109,1.2128906
0.7246094,2.7822266,1.7705078,1.2451172,1.8896484
0.94140625,2.069336,1.8027344,1.2822266,1.6835938
1.0751953,1.9453125,1.4609375,1.0410156,1.8857422
0.94921875,2.4101562,1.4521484,0.6748047,1.2060547
1.8505859,1.9169922,2.3125,2.8710938,2.274414
2.2871094,3.446289,3.28125,3.2509766,2.4257812
2.5439453,3.7929688,3.008789,3.2333984,2.6708984
1.6201172,2.3691406,2.0488281,1.6220703,1.4150391
1.0751953,2.3457031,1.8076172,1.7119141,1.9082031
1.2626953,3.2216797,1.9179688,2.0898438,1.6796875
1.4619141,3.8085938,1.3994141,3.0478516,1.3740234
3.6699219,1.8574219,4.251953,3.8115234,1.7236328
6.0615234,1.0410156,4.7470703,4.6865234,3.1191406
4.3554688,5.1191406,6.0117188,4.989258,5.7558594
4.173828,8.838867,5.423828,5.2871094,5.4990234
5.6035156,7.2226562,2.4042969,3.5458984,4.3759766
5.4404297,6.2509766,2.5585938,3.084961,5.591797
4.3632812,6.251953,2.6279297,2.5722656,3.8632812
2.303711,4.020508,2.553711,2.7470703,2.6933594
2.321289,3.288086,1.6318359,2.2333984,2.6357422
2.734375,2.8076172,3.4023438,3.2197266,3.5761719
3.4199219,4.553711,4.0322266,4.0751953,3.5546875
3.821289,5.7578125,4.2685547,3.4238281,3.2617188
2.7558594,4.201172,1.9199219,2.6757812,2.2070312
1.8681641,4.9091797,1.9794922,2.1328125,2.6171875
2.5820312,5.7929688,2.6435547,2.5888672,3.3320312
2.3222656,4.5195312,3.0439453,3.2265625,3.2548828
2.5078125,5.0996094,2.8603516,3.1835938,3.7294922
3.2890625,5.4921875,4.538086,3.946289,4.1679688
4.2001953,5.975586,5.0390625,4.34375,4.3027344
4.6816406,6.46875,4.602539,4.5585938,3.7246094
3.2001953,4.8164062,3.649414,3.0722656,2.4814453
1.3701172,4.2958984,2.7265625,3.0625,3.0332031
1.7880859,2.7753906,2.6308594,4.036133,2.368164
2.0195312,2.609375,2.6513672,3.9980469,1.7294922
1.3515625,1.5380859,2.0566406,3.4882812,1.6601562
2.28125,2.5361328,2.7822266,2.4667969,1.2421875
1.1269531,4.333008,2.0605469,2.680664,2.6875
1.0859375,5.7373047,2.506836,3.7167969,3.0810547
4.4257812,5.5166016,2.3828125,3.1904297,1.4902344
5.873047,4.5839844,3.0253906,3.3154297,4.3154297
5.169922,8.357422,3.375,3.5625,6.654297
3.8476562,6.495117,3.7792969,3.8046875,5.1679688
3.9521484,9.675781,5.0322266,4.0625,6.6416016
4.977539,9.8828125,5.963867,5.75,7.9609375
6.1103516,10.864258,6.754883,6.783203,7.8867188
6.2246094,10.354492,6.961914,6.5185547,7.470703
3.8388672,10.620117,4.8945312,5.301758,6.892578
3.65625,10.5234375,3.1464844,4.8095703,6.486328
3.078125,8.151367,2.944336,4.165039,5.5947266
2.3652344,7.3046875,2.4902344,3.6523438,4.8134766
3.381836,7.073242,3.2802734,4.4853516,4.2128906
5.3876953,5.4560547,5.428711,5.1835938,4.055664
5.928711,4.5195312,5.8447266,5.498047,4.2578125
5.203125,2.4257812,4.7265625,4.526367,2.9365234
2.3125,1.2275391,4.078125,3.2177734,1.8085938
1.6191406,2.540039,2.038086,2.040039,1.9453125
2.6533203,5.6376953,1.875,2.2421875,2.2734375
3.3183594,7.5371094,2.8330078,2.3027344,2.6132812
4.241211,6.548828,3.3378906,1.4755859,3.2041016
4.743164,5.3476562,4.0458984,1.3173828,6.845703
4.036133,6.2158203,3.1728516,2.4316406,6.459961
2.9941406,5.9316406,3.5117188,3.1455078,4.1240234
3.0341797,3.3564453,2.2265625,3.2646484,2.5322266
3.055664,3.734375,2.453125,2.7548828,3.071289
2.6220703,4.915039,3.0302734,3.125,3.3232422
2.3808594,2.5957031,2.915039,3.2851562,2.46875
2.3916016,4.7851562,2.4501953,2.8203125,3.5996094
2.9121094,5.708008,2.461914,2.9570312,5.046875
2.8652344,5.5664062,3.4316406,3.569336,3.9902344
3.0039062,5.1308594,3.3515625,2.586914,3.053711
2.0654297,4.5839844,2.2470703,2.5517578,2.2548828
3.1748047,3.234375,2.196289,2.609375,2.3242188
2.4853516,0.86621094,2.5595703,2.7451172,2.7177734
2.5478516,2.9375,2.8867188,2.9345703,3.0019531
2.4589844,3.0771484,2.4638672,2.8173828,2.5898438
3.1386719,4.0771484,3.2392578,3.2890625,3.8232422
2.8642578,4.348633,3.147461,2.9960938,3.2519531
2.0566406,5.466797,3.0751953,2.5253906,2.7001953
1.6103516,5.59375,1.875,2.1240234,2.5800781
2.6875,4.7265625,1.6386719,2.131836,2.3671875
3.9765625,1.6025391,1.0820312,2.2470703,2.9853516
3.6884766,1.9335938,1.6103516,2.3105469,1.5351562
3.2929688,3.078125,0.9589844,1.9511719,1.828125
1.6298828,3.7011719,0.5029297,0.76464844,1.7382812
1.3349609,3.0566406,1.484375,0.98828125,2.2060547
1.5605469,4.111328,2.2734375,2.1064453,3.3300781
2.649414,6.6992188,2.4736328,2.3642578,3.5175781
4.602539,4.5,3.7314453,2.921875,3.8300781
4.635742,3.15625,3.0302734,3.0996094,2.6855469
4.5966797,2.8652344,3.1201172,2.803711,1.6015625
3.0742188,3.1328125,2.7451172,2.2363281,1.7753906
2.0761719,3.1855469,2.3164062,1.4863281,2.4072266
2.7597656,2.0898438,2.663086,0.7910156,5.3427734
3.0019531,3.446289,3.4628906,1.3339844,6.1777344
3.243164,4.7158203,3.7636719,2.5722656,3.8173828
5.71875,3.3007812,3.2832031,1.8730469,3.4707031
4.3691406,3.7041016,2.5185547,1.8320312,3.9726562
2.7646484,3.3730469,1.9589844,1.8085938,3.3789062
2.2617188,2.3173828,1.5693359,1.1445312,4.4072266
2.711914,2.1611328,1.1152344,0.6347656,4.6503906
2.5546875,4.288086,1.3564453,1.4462891,4.716797
2.2324219,5.421875,1.96875,2.6416016,4.272461
2.3798828,5.975586,2.8251953,2.4960938,2.6259766
2.709961,3.8378906,2.5410156,1.5771484,2.180664
1.8457031,1.4814453,1.5126953,1.6953125,1.6914062
1.8857422,2.694336,2.4355469,1.8847656,2.0947266
1.9941406,2.5302734,1.4794922,1.3759766,1.9580078
3.6611328,2.8613281,3.0498047,4.1123047,2.9140625
4.7910156,2.5341797,4.7021484,4.698242,3.4814453
4.7871094,2.3242188,4.0234375,3.944336,3.5634766
2.3105469,4.216797,2.2470703,2.9550781,3.2597656
2.3466797,4.6123047,2.78125,1.9501953,3.4921875
