"[299, 255]","[227, 248]","[287, 319]","[279, 328]","[230, 262]"
2.0927734,4.053711,0.9550781,1.5292969,2.9091797
2.3447266,3.8408203,1.4423828,1.5380859,3.196289
1.1982422,2.5917969,2.3408203,2.5458984,2.3378906
2.2480469,3.8984375,3.0517578,3.234375,2.15625
2.5966797,5.9365234,3.008789,3.1044922,3.4257812
2.6767578,6.526367,2.6601562,2.7597656,2.8652344
2.3017578,3.6328125,1.2558594,2.491211,1.4746094
1.8251953,3.1123047,2.234375,1.6435547,1.8662109
1.4443359,1.5400391,1.6933594,1.2753906,2.4638672
1.8320312,1.2685547,0.85058594,1.0107422,1.7128906
0.9404297,0.54296875,0.49804688,1.2148438,1.2851562
2.4111328,1.0664062,1.4804688,3.5722656,1.8271484
2.7548828,3.7685547,4.1464844,4.5439453,3.3388672
3.640625,5.051758,5.665039,5.3916016,3.7402344
4.9208984,6.006836,3.4736328,4.1445312,4.2314453
4.5585938,10.836914,3.2666016,2.788086,6.541992
2.9404297,9.34375,3.8164062,2.7373047,4.6953125
2.7958984,6.260742,3.649414,3.4179688,4.4873047
3.4003906,7.084961,4.0478516,4.3251953,5.2783203
4.3935547,6.8867188,5.1083984,5.475586,5.645508
4.4257812,6.426758,5.9052734,4.9609375,5.1152344
4.9433594,7.364258,4.294922,5.5898438,5.8095703
3.7070312,7.239258,3.0820312,3.9746094,4.5
2.991211,5.939453,3.1982422,3.1992188,4.0322266
2.5029297,3.9355469,2.631836,4.0273438,3.459961
1.9404297,5.0703125,3.8271484,3.6220703,2.9384766
2.7539062,5.0058594,4.013672,3.625,3.758789
2.9785156,5.8066406,3.790039,3.2207031,4.3789062
3.4580078,5.3720703,3.7646484,2.8515625,3.788086
2.8984375,5.234375,3.3339844,3.2958984,2.8330078
2.334961,4.0390625,2.4697266,2.3046875,2.1044922
1.7382812,2.4091797,2.2011719,2.0527344,1.6835938
1.5253906,1.4013672,2.8271484,2.2148438,2.0615234
2.3173828,1.6513672,2.5585938,1.7148438,2.1621094
1.8769531,2.3476562,1.4414062,0.9970703,1.9160156
1.9091797,1.8222656,2.4189453,2.5859375,1.8720703
2.1582031,4.4433594,2.4726562,2.796875,2.6728516
1.8974609,3.6455078,2.7070312,2.928711,2.0615234
2.1679688,4.0683594,2.65625,2.2333984,2.6689453
3.7607422,4.1679688,2.0927734,2.0615234,3.0654297
4.3652344,5.0976562,2.0361328,2.3925781,3.2226562
5.9189453,5.263672,2.4052734,1.4589844,3.3085938
7.5595703,6.0898438,2.6259766,2.9101562,5.4990234
6.1347656,6.8779297,5.051758,4.774414,5.9160156
5.323242,8.619141,4.720703,4.435547,5.5859375
5.163086,8.519531,5.751953,4.745117,5.584961
4.338867,7.095703,3.0214844,3.4873047,5.1123047
3.2050781,6.4160156,2.4560547,2.9121094,4.3447266
2.9003906,4.6884766,2.6875,3.2070312,3.3955078
2.7871094,4.1865234,2.7207031,3.1220703,3.3691406
3.4404297,4.7851562,3.2363281,3.0625,4.4023438
4.0166016,6.3564453,3.203125,2.9541016,4.7558594
3.8710938,6.173828,1.9248047,3.1572266,4.5566406
2.4433594,6.727539,2.5039062,3.444336,4.96875
2.0830078,6.9228516,2.3671875,2.6992188,4.013672
1.5742188,6.8564453,1.8535156,2.4384766,4.9365234
2.6035156,4.533203,3.0263672,2.8398438,2.9501953
2.9345703,3.5117188,2.84375,2.8691406,2.0214844
3.7519531,4.326172,3.225586,3.1826172,4.046875
4.873047,6.538086,4.3847656,4.4814453,5.2373047
5.265625,6.921875,4.5898438,4.848633,5.5146484
5.635742,7.533203,4.7753906,4.7460938,5.6884766
4.198242,6.635742,3.2421875,3.4628906,3.678711
3.461914,3.8798828,3.5507812,3.116211,3.6230469
2.71875,3.4101562,3.2939453,3.555664,3.2783203
2.5341797,3.9892578,2.7460938,3.8046875,3.0107422
2.5048828,3.7011719,3.7314453,3.2060547,3.508789
4.033203,3.9658203,4.6435547,3.8896484,4.4414062
4.6279297,7.008789,5.288086,3.8447266,4.5146484
5.2304688,7.373047,4.602539,3.8066406,4.7128906
3.3017578,5.3164062,3.4990234,4.0322266,2.5595703
1.9648438,5.126953,3.71875,4.4384766,2.8427734
2.711914,6.161133,3.9570312,4.489258,3.399414
4.2197266,7.7958984,2.1923828,4.9746094,4.6445312
5.071289,10.988281,4.661133,5.7910156,6.888672
6.361328,11.186523,6.0546875,6.578125,7.6191406
6.4853516,10.094727,6.017578,7.194336,6.544922
5.841797,8.856445,6.6396484,6.2382812,6.211914
5.2851562,8.254883,3.1445312,4.040039,6.1591797
4.323242,9.22168,1.3037109,2.1171875,6.4882812
3.7363281,7.857422,1.4296875,1.7265625,6.088867
1.2617188,7.0976562,1.4599609,1.2265625,4.263672
0.53808594,4.794922,0.5625,0.98828125,3.234375
1.7207031,4.7353516,1.8857422,1.9824219,3.4267578
2.1464844,4.4160156,1.7675781,1.3896484,4.3984375
2.4628906,3.7792969,3.2539062,1.6611328,3.21875
1.8740234,6.1220703,3.616211,1.7451172,3.4677734
1.796875,6.7597656,3.5888672,1.6865234,2.9423828
1.8632812,4.5742188,2.368164,1.4638672,2.7304688
2.2509766,4.2617188,2.053711,1.6962891,2.8623047
1.5917969,4.2460938,0.80371094,1.6347656,3.4121094
1.2802734,5.5527344,0.5205078,1.1582031,4.3603516
2.2265625,3.8955078,1.2666016,1.5341797,3.7216797
2.1279297,4.9521484,3.0126953,1.8242188,3.4804688
3.4677734,3.696289,2.413086,1.8935547,1.9824219
4.1552734,4.4072266,3.2705078,3.2851562,2.1396484
4.1503906,5.7128906,3.5449219,3.3125,3.1767578
5.3203125,5.3066406,3.7646484,3.053711,4.828125
6.5546875,5.2246094,5.1601562,4.0810547,6.4453125
7.301758,5.8320312,6.3398438,5.772461,8.486328
8.349609,6.5253906,7.1972656,6.6523438,7.3916016
8.113281,6.2851562,6.857422,6.0683594,5.5771484
9.443359,5.026367,6.0126953,4.796875,7.4160156
8.852539,5.854492,5.614258,4.703125,7.701172
8.235352,7.416992,5.7783203,2.5371094,7.3095703
8.516602,9.323242,5.803711,2.0175781,7.161133
10.194336,10.383789,5.4804688,3.2363281,7.885742
10.363281,11.291992,5.3183594,3.7246094,7.8222656
8.165039,10.186523,5.5507812,4.5791016,6.904297
6.669922,8.663086,5.1328125,3.8378906,6.5810547
5.2109375,7.1621094,3.475586,2.2890625,4.7753906
3.600586,6.0195312,2.1289062,1.8066406,3.5439453
2.1708984,4.0322266,1.5224609,1.0117188,1.7207031
1.4677734,2.1816406,1.6865234,1.4990234,1.0703125
0.63378906,1.3916016,1.7802734,3.3564453,1.9013672
1.2636719,5.439453,3.3359375,2.5361328,4.4853516
2.0585938,5.5683594,4.8847656,2.7861328,4.3222656
3.4833984,2.0332031,4.5742188,4.9414062,2.0097656
2.3466797,3.3574219,3.6132812,3.4169922,2.6894531
1.9628906,4.013672,1.6923828,2.8623047,2.4765625
2.7363281,4.638672,2.3720703,2.3720703,2.6679688
2.9355469,3.803711,1.7177734,1.9853516,1.9335938
1.8447266,3.2070312,1.1386719,0.9296875,1.1220703
1.0,2.8652344,1.1552734,1.5566406,3.709961
1.890625,6.15625,3.008789,2.1142578,3.8867188
2.2851562,8.03418,2.7333984,2.7001953,4.158203
2.9726562,6.6289062,3.0048828,2.5742188,3.3173828
2.2949219,5.118164,2.3115234,2.1171875,2.9833984
1.6796875,4.408203,1.6494141,1.9902344,2.7451172
0.79589844,6.1240234,1.7851562,2.3242188,2.7890625
1.9023438,5.9472656,0.6328125,1.0371094,3.7451172
3.4863281,5.5507812,2.109375,1.6914062,4.352539
4.142578,4.381836,5.3476562,3.0751953,4.3671875
4.4726562,5.5371094,1.9160156,2.1884766,4.9833984
2.6435547,7.3134766,2.915039,1.9375,4.2314453
1.9306641,6.5146484,3.7207031,2.5146484,2.0810547
2.7148438,4.120117,2.546875,2.538086,2.024414
3.2060547,3.7265625,2.1875,2.6816406,1.9101562
3.8574219,5.2685547,2.3398438,2.5175781,2.8613281
4.0771484,6.379883,3.1455078,3.5078125,3.1640625
4.774414,5.098633,2.7089844,3.9853516,2.9726562
3.868164,2.7109375,4.341797,2.8222656,2.8564453
4.3564453,6.3554688,4.6679688,4.4882812,2.8730469
4.8027344,7.944336,5.4365234,4.5439453,4.7070312
5.609375,9.508789,4.3876953,3.1113281,6.3710938
5.8759766,9.660156,4.036133,2.515625,7.5478516
6.125,10.035156,5.7539062,2.96875,8.280273
6.350586,10.016602,7.2578125,3.0908203,8.750977
6.0058594,7.408203,5.7041016,4.2666016,7.4746094
7.5615234,6.303711,5.8242188,4.571289,7.854492
7.9960938,7.248047,4.5839844,2.4746094,6.9648438
8.25293,7.290039,4.442383,2.7382812,6.5039062
7.8466797,6.7773438,5.0478516,3.4716797,5.498047
6.944336,6.8164062,4.09375,3.584961,3.8320312
5.895508,6.3740234,4.21875,3.53125,3.350586
2.4960938,3.8232422,3.4541016,3.6884766,4.149414
1.3613281,4.9541016,4.0195312,2.2763672,3.8232422
3.0,4.245117,4.7509766,2.6269531,3.3115234
2.2158203,3.7128906,5.53125,2.9433594,1.6523438
5.564453,1.6425781,5.2441406,4.1445312,1.2744141
5.6875,1.6367188,5.404297,4.024414,1.8515625
5.651367,4.001953,5.0810547,4.5742188,2.2988281
6.1533203,4.8125,5.977539,6.3779297,2.3886719
6.182617,6.6289062,6.123047,7.4277344,4.53125
6.004883,10.891602,7.6328125,7.4902344,6.102539
6.7646484,12.1328125,7.6640625,7.3916016,7.5351562
7.165039,9.5625,5.9345703,6.5810547,6.463867
4.7929688,7.5478516,5.3935547,4.7998047,3.553711
4.2529297,8.544922,3.4785156,2.3613281,4.3134766
4.001953,8.821289,4.051758,1.9863281,4.9501953
4.4414062,8.3671875,4.8759766,2.5859375,6.267578
5.366211,9.801758,6.5976562,3.9248047,7.5351562
5.6220703,11.364258,6.463867,5.9072266,8.941406
5.932617,12.192383,4.904297,5.2773438,9.589844
4.9345703,11.9609375,5.022461,4.291992,8.074219
5.1289062,11.925781,4.9335938,4.3554688,8.2734375
6.0439453,11.000977,5.3095703,3.7089844,7.836914
7.0976562,9.147461,6.0029297,4.088867,5.821289
7.0,8.970703,6.1523438,4.663086,5.9414062
6.2470703,9.378906,6.9277344,4.791992,7.8759766
5.8066406,12.0078125,7.6259766,6.125,9.161133
5.0908203,13.049805,7.6259766,6.569336,10.28418
5.9335938,13.339844,7.548828,6.3134766,10.094727
6.413086,13.985352,7.2851562,5.6240234,9.625
6.995117,14.071289,7.270508,4.2041016,9.294922
7.25,13.50293,6.4609375,3.5664062,8.550781
7.1347656,12.533203,6.989258,5.225586,8.499023
7.40625,11.22168,7.7128906,6.411133,8.286133
7.770508,7.9189453,8.293945,6.8271484,6.760742
4.395508,9.152344,8.361328,7.2304688,5.6123047
3.8486328,6.491211,5.6191406,5.4853516,3.8457031
3.3310547,5.9589844,3.743164,3.9189453,3.1376953
2.9746094,5.232422,3.8144531,3.711914,2.915039
2.4404297,4.868164,4.209961,3.899414,2.8554688
2.3134766,4.4257812,4.888672,4.2158203,3.5205078
2.7294922,4.7197266,4.8291016,4.5976562,3.609375
3.8564453,5.4541016,5.2783203,4.713867,3.975586
4.0908203,5.5214844,4.708008,4.1572266,3.1748047
3.1884766,4.6679688,2.9970703,2.8251953,2.1611328
2.0146484,3.9140625,2.9638672,3.1992188,2.4384766
1.5244141,2.741211,2.6748047,2.7929688,2.4716797
1.4414062,2.9951172,1.6669922,2.5,2.2363281
1.7636719,2.868164,1.0664062,1.2324219,2.0664062
1.7392578,3.9707031,2.28125,1.5976562,3.2988281
1.8623047,3.0371094,1.4648438,2.2080078,2.991211
3.0361328,1.9853516,2.5673828,2.071289,3.2978516
5.2734375,1.1240234,3.6572266,2.2041016,2.6923828
6.4140625,1.5273438,3.040039,2.5273438,3.5283203
7.1708984,3.1845703,3.5019531,3.3398438,3.8730469
8.746094,4.8066406,4.9033203,2.9199219,4.885742
8.629883,5.1708984,6.036133,3.03125,6.973633
6.4921875,4.817383,6.2265625,4.881836,7.3203125
6.165039,6.254883,6.4345703,4.9902344,6.9433594
6.9248047,7.4072266,6.5791016,5.036133,6.03125
6.857422,6.345703,5.348633,2.881836,6.189453
7.5458984,6.807617,4.770508,2.5839844,6.5615234
6.0078125,8.635742,4.65625,3.0927734,6.9472656
5.6259766,9.96875,4.4052734,3.9345703,6.5507812
8.720703,9.686523,5.5429688,5.8720703,7.142578
13.024414,10.199219,6.567383,5.0810547,8.077148
11.662109,9.709961,7.3759766,5.3623047,8.624023
11.544922,8.980469,5.138672,5.916992,8.166016
12.063477,7.1416016,4.5527344,3.9365234,7.6933594
10.606445,9.399414,3.555664,3.1357422,7.586914
7.6533203,9.479492,2.9726562,2.046875,6.805664
7.276367,8.225586,1.6240234,3.3330078,5.3134766
6.017578,6.635742,3.6552734,3.2890625,4.8603516
4.567383,6.6875,3.1699219,4.3759766,5.2841797
3.8583984,5.591797,3.8154297,4.4560547,4.8125
4.3125,4.7265625,5.2773438,4.236328,4.154297
3.9990234,3.5859375,2.859375,3.3515625,3.2070312
3.3427734,1.6367188,1.78125,3.2236328,2.9169922
2.5185547,2.0029297,2.0019531,2.977539,2.6357422
2.2470703,1.8408203,2.8623047,2.836914,2.3427734
3.600586,1.3652344,3.6503906,2.7861328,1.5283203
4.7802734,2.524414,4.2216797,3.453125,3.03125
5.9697266,5.3876953,4.272461,4.350586,5.267578
5.908203,3.2509766,4.875,4.901367,3.694336
4.4023438,4.1132812,3.2070312,3.390625,1.8125
4.088867,6.0439453,3.5888672,3.5332031,3.0039062
