"[299, 255]","[227, 248]","[287, 319]","[279, 328]","[230, 262]"
3.024414,2.116211,2.3574219,2.9248047,1.6796875
3.1357422,2.4824219,1.6259766,2.4228516,1.9804688
3.0742188,3.7480469,1.9160156,3.3076172,2.4628906
3.2021484,5.211914,2.194336,2.96875,2.883789
3.4140625,6.220703,2.7402344,2.8408203,4.642578
3.131836,7.120117,2.234375,2.6914062,4.609375
2.9726562,7.9160156,1.7460938,2.9951172,4.5029297
2.1738281,7.635742,3.21875,2.9833984,4.1914062
2.8623047,9.238281,5.6601562,3.6640625,5.192383
4.0527344,9.583008,5.138672,4.3339844,4.7910156
3.6484375,8.249023,4.739258,4.875,3.915039
3.7207031,8.605469,4.9248047,4.709961,4.7001953
4.5625,9.444336,5.5996094,5.979492,6.1884766
4.7470703,10.255859,6.6103516,6.044922,6.196289
4.508789,11.067383,6.876953,6.633789,6.5283203
4.5585938,11.524414,6.826172,6.3007812,7.348633
5.4970703,11.875977,8.001953,6.3046875,7.533203
5.1220703,10.142578,7.3876953,5.8759766,6.779297
5.461914,8.871094,5.338867,4.439453,6.578125
5.466797,7.9003906,4.3496094,4.4033203,6.5078125
5.4589844,8.174805,8.073242,6.680664,7.102539
6.2402344,9.037109,8.581055,8.748047,8.691406
6.9414062,9.227539,8.80957,9.146484,8.464844
7.479492,10.02832,9.9140625,8.621094,8.658203
9.066406,8.40332,10.959961,7.8222656,8.6484375
8.963867,8.44043,8.546875,6.7578125,8.495117
7.7714844,7.852539,7.9296875,7.010742,7.873047
7.0996094,7.0546875,8.426758,7.1103516,7.1035156
6.9404297,6.1083984,7.819336,6.7177734,5.638672
5.7929688,4.602539,6.2001953,6.2558594,4.8466797
5.0341797,5.6728516,5.2490234,5.013672,3.6425781
4.7910156,8.588867,5.3935547,4.1679688,3.8486328
2.5644531,7.8378906,4.7646484,3.4423828,5.3720703
3.9638672,7.828125,3.6884766,3.0146484,4.8515625
4.1796875,8.28125,6.421875,4.368164,5.2822266
4.276367,8.25293,6.232422,5.307617,5.4882812
4.4189453,7.2539062,6.2978516,5.154297,5.486328
4.088867,7.8916016,6.4345703,5.7314453,5.1884766
3.9072266,8.082031,6.3398438,5.4384766,5.057617
3.4726562,7.666992,6.5585938,4.348633,5.5097656
3.618164,7.135742,4.946289,2.086914,5.109375
3.3359375,6.3222656,4.0039062,2.1533203,4.555664
3.1386719,6.2216797,4.7802734,3.28125,4.213867
3.4003906,6.8115234,4.2265625,2.5605469,4.5546875
3.647461,7.654297,4.185547,3.8613281,5.203125
4.263672,8.327148,4.1796875,4.3027344,5.9414062
5.3496094,10.417969,4.625,4.1083984,7.921875
5.8789062,12.583984,8.074219,7.0615234,9.561523
6.823242,14.305664,9.733398,7.2197266,10.7265625
7.430664,15.108398,10.05957,8.0234375,10.671875
7.3740234,8.452148,5.8789062,5.166992,5.100586
2.9169922,4.868164,5.4785156,4.6523438,3.0361328
3.5517578,3.2460938,4.7001953,4.2197266,2.6855469
1.84375,1.8427734,4.2558594,2.9277344,1.6582031
1.6523438,3.647461,3.8496094,2.859375,1.8613281
3.5625,5.479492,1.7539062,2.7802734,2.2324219
4.3945312,9.923828,2.3945312,3.8232422,6.2070312
5.048828,9.634766,2.6054688,4.649414,7.8203125
5.453125,10.28418,5.8154297,3.7490234,8.875
6.241211,10.702148,5.040039,4.28125,9.34082
5.9375,12.233398,7.958008,5.8222656,9.100586
6.736328,12.544922,7.338867,5.392578,9.31543
7.607422,14.004883,7.4570312,6.201172,10.102539
8.724609,13.52832,7.5634766,7.2216797,10.231445
7.9179688,11.322266,8.092773,6.1240234,8.749023
6.8203125,12.550781,7.6376953,4.7646484,8.649414
8.044922,12.751953,6.0507812,5.3095703,8.5625
8.680664,12.298828,6.5859375,4.498047,7.0195312
8.03125,12.09082,5.321289,3.8554688,7.5478516
6.388672,18.586914,6.421875,2.3486328,12.407227
7.75,18.644531,6.713867,7.7578125,12.893555
8.27832,15.963867,7.913086,6.428711,9.928711
6.5615234,13.8046875,6.163086,6.5195312,7.734375
5.6914062,10.358398,4.8720703,5.2197266,5.5507812
4.015625,9.779297,2.2832031,3.6484375,4.151367
2.5263672,9.131836,1.1416016,3.609375,5.004883
2.6835938,6.838867,1.1904297,3.6308594,4.015625
2.3945312,5.520508,3.7841797,2.9511719,2.7978516
1.7314453,5.5927734,4.6123047,3.5195312,2.8066406
2.0615234,6.7871094,6.7851562,4.9414062,3.6152344
2.8476562,8.125,6.578125,5.116211,4.151367
3.1298828,9.081055,6.836914,5.334961,4.7509766
3.2177734,9.574219,7.0439453,5.607422,5.2802734
3.5458984,9.991211,6.8085938,5.4003906,5.783203
4.4970703,9.832031,7.1953125,5.9179688,6.673828
4.359375,9.893555,7.741211,6.260742,6.178711
3.9404297,9.981445,8.136719,6.279297,5.7851562
4.0927734,10.223633,6.541992,4.6552734,5.9658203
4.602539,10.136719,6.0595703,4.2617188,6.040039
4.8339844,9.769531,6.4414062,4.671875,6.1904297
4.6083984,9.015625,6.873047,4.8876953,5.140625
4.944336,9.480469,6.7333984,5.0634766,5.2714844
4.8808594,9.582031,6.1308594,5.533203,5.875
3.3769531,10.02832,4.453125,4.7158203,6.0058594
3.8857422,8.490234,3.3574219,3.7734375,5.711914
3.9248047,9.605469,5.828125,3.8642578,5.9804688
3.9990234,10.427734,6.848633,4.1777344,6.725586
4.65625,10.004883,6.6904297,3.9501953,6.9648438
4.4960938,10.055664,6.7148438,5.4765625,6.701172
4.173828,9.599609,9.7578125,5.7646484,8.0390625
4.3095703,10.264648,10.738281,7.0976562,8.172852
4.8222656,11.163086,10.606445,6.8046875,8.3671875
5.591797,12.291016,9.9765625,6.232422,8.970703
5.828125,12.425781,8.779297,6.538086,9.068359
6.022461,12.730469,7.4033203,6.083008,9.43457
6.185547,14.109375,7.9316406,7.256836,10.927734
7.9833984,14.238281,8.612305,6.635742,10.396484
8.455078,10.253906,6.8339844,6.0117188,6.711914
5.982422,8.436523,5.4716797,4.836914,4.2109375
4.328125,8.905273,3.4101562,3.0019531,4.326172
2.4833984,8.935547,3.836914,3.3173828,4.459961
3.1308594,9.22168,4.064453,2.6103516,4.307617
3.600586,9.71875,3.9355469,3.609375,4.4501953
4.104492,9.230469,3.5654297,3.0166016,4.6054688
4.1933594,10.263672,4.2851562,3.2382812,5.9140625
4.598633,12.62207,2.7265625,2.2333984,8.28125
4.7929688,13.568359,2.1103516,2.2939453,8.901367
3.9824219,14.819336,4.723633,4.9902344,9.749023
5.1865234,14.044922,6.9257812,6.3427734,9.729492
5.6396484,13.09668,6.4121094,6.3632812,9.140625
4.6210938,12.462891,6.288086,5.408203,8.90918
4.3222656,11.293945,4.8652344,5.533203,7.6367188
3.366211,12.543945,4.0625,5.8242188,7.78125
4.2109375,10.878906,4.935547,5.9072266,8.0234375
5.489258,11.466797,5.692383,5.888672,7.857422
4.3945312,11.541992,4.640625,5.361328,7.680664
3.9521484,10.043945,4.1640625,5.1572266,7.4970703
3.3554688,9.017578,4.5722656,5.203125,7.354492
3.2519531,11.12207,4.4697266,5.0166016,7.135742
3.1601562,10.888672,4.080078,4.6054688,6.9902344
3.022461,9.621094,3.5634766,3.6591797,5.885742
2.305664,8.948242,2.6708984,3.4794922,5.75
2.6074219,7.4257812,2.7861328,2.8271484,4.7490234
2.5166016,5.470703,2.4433594,2.0009766,2.225586
2.7958984,5.3310547,1.2705078,2.303711,2.6611328
2.336914,8.453125,1.7685547,1.8203125,3.5986328
1.9238281,10.313477,1.7949219,1.8789062,5.279297
0.9589844,10.796875,1.7998047,2.5722656,6.095703
1.5498047,9.419922,1.8232422,3.5390625,6.423828
2.0996094,11.3046875,3.2792969,3.5888672,5.5273438
2.8730469,9.641602,4.647461,4.868164,6.305664
3.649414,9.935547,4.720703,5.239258,6.9970703
3.4248047,9.947266,4.448242,5.2841797,7.3095703
3.352539,11.019531,5.3027344,4.602539,7.354492
2.352539,10.34375,5.845703,4.758789,7.388672
2.2236328,9.7890625,6.2929688,5.6591797,7.198242
2.1679688,9.916992,5.578125,5.4072266,6.923828
2.8642578,10.185547,5.286133,4.7226562,6.3847656
4.3222656,7.5429688,4.959961,4.208008,5.540039
2.6230469,6.939453,3.5625,3.6054688,3.40625
2.5390625,3.6777344,2.7109375,2.8720703,1.9716797
2.4970703,1.4853516,1.9189453,2.2763672,2.2832031
1.9658203,2.9980469,2.1923828,2.8984375,2.6074219
2.0673828,5.7695312,1.6962891,2.9433594,2.8300781
2.8984375,8.263672,3.9326172,3.3857422,3.1738281
2.9238281,7.90625,3.243164,2.6894531,4.5302734
2.9384766,8.3203125,3.7636719,2.7529297,3.484375
3.8427734,10.138672,3.9042969,3.1054688,4.9296875
4.198242,10.444336,3.6923828,2.9736328,5.4072266
4.4033203,11.957031,4.3808594,3.2285156,6.5546875
4.881836,11.913086,2.609375,4.0351562,7.2978516
5.5546875,11.941406,2.1308594,4.029297,7.727539
5.7734375,13.198242,1.84375,4.7910156,9.501953
6.504883,13.767578,3.4345703,5.506836,9.7421875
6.631836,14.828125,4.794922,6.163086,10.441406
6.455078,13.432617,4.1279297,6.953125,9.532227
6.7685547,13.317383,6.573242,6.618164,8.759766
7.0039062,14.083008,5.036133,6.361328,9.763672
7.2783203,14.768555,5.529297,6.2333984,9.545898
8.775391,13.876953,4.7441406,6.125,8.455078
9.512695,14.751953,4.9882812,7.7089844,7.0195312
10.444336,14.299805,5.841797,6.048828,8.78418
10.540039,15.5390625,5.098633,6.1328125,9.785156
10.9375,15.889648,3.6914062,6.286133,10.450195
11.089844,15.811523,8.5,6.3808594,9.919922
9.2109375,12.318359,5.84375,5.245117,8.416016
6.930664,8.71582,3.9980469,5.131836,4.5996094
4.6191406,8.858398,2.7070312,3.4638672,3.7314453
2.3115234,7.5322266,1.7265625,1.8642578,3.3652344
1.4550781,5.7529297,1.2880859,1.1367188,2.8476562
2.4052734,4.15625,1.6630859,0.77734375,2.2939453
1.8779297,2.7841797,2.3691406,1.9160156,2.4707031
1.2929688,4.348633,2.2978516,2.9365234,2.9492188
2.5419922,6.419922,2.086914,3.4394531,3.8203125
3.758789,10.0078125,3.1210938,3.9765625,5.763672
5.4560547,13.806641,3.8564453,5.651367,7.890625
7.567383,16.317383,5.604492,6.946289,10.508789
10.052734,19.40039,7.8603516,8.204102,12.203125
11.591797,16.541016,8.78418,9.022461,11.4296875
10.716797,8.958984,8.665039,7.8867188,4.6191406
6.446289,7.944336,7.3066406,6.0585938,3.8466797
3.868164,7.9277344,4.3710938,3.3740234,3.5410156
3.2890625,7.2910156,3.7597656,2.7714844,3.078125
2.5703125,7.2753906,3.0830078,2.7734375,2.9511719
2.7304688,6.9052734,3.2919922,2.8017578,3.1289062
2.3583984,6.9570312,1.3994141,2.6503906,3.0185547
2.3496094,6.3710938,1.8349609,2.4697266,3.6357422
3.0527344,7.0009766,1.8496094,2.5273438,3.069336
3.4638672,5.845703,1.7060547,2.819336,2.5859375
3.3007812,4.883789,2.0507812,3.0732422,2.5566406
3.8642578,5.21875,2.0527344,2.8984375,2.663086
4.5458984,7.0898438,2.5410156,3.2910156,3.3564453
5.838867,7.241211,3.428711,3.774414,3.3945312
7.584961,9.574219,4.6640625,4.223633,4.1484375
7.9091797,10.207031,6.8085938,5.2753906,5.8359375
7.727539,8.230469,7.040039,4.493164,8.519531
9.217773,8.113281,7.5429688,5.3759766,9.869141
10.794922,10.180664,8.371094,5.6279297,10.910156
13.149414,11.038086,7.850586,6.3583984,10.861328
13.756836,6.495117,8.72168,6.9121094,9.564453
12.832031,4.223633,9.37207,6.373047,6.7617188
8.030273,2.828125,9.119141,5.7089844,2.9833984
2.4521484,3.381836,7.998047,3.4609375,1.8115234
2.0253906,6.330078,7.0029297,2.493164,2.7646484
1.8203125,8.323242,4.5371094,3.5595703,3.2021484
1.7353516,8.443359,5.2333984,4.8945312,2.7529297
1.6708984,8.015625,2.7011719,2.9667969,3.0791016
1.0488281,5.841797,1.7197266,2.5146484,2.1152344
0.77441406,4.426758,2.3291016,2.7392578,2.7910156
1.8017578,5.0751953,3.7177734,3.2548828,3.897461
2.4423828,7.696289,5.088867,3.9648438,6.0664062
2.022461,10.204102,4.7158203,4.223633,7.6816406
1.7666016,10.225586,3.7373047,4.189453,8.613281
2.0195312,10.306641,3.6884766,3.734375,8.306641
2.5302734,10.28125,3.5654297,4.3007812,7.9375
2.0986328,9.435547,3.1552734,4.0898438,7.6347656
1.8974609,7.9902344,2.9541016,4.0058594,6.6572266
1.1132812,6.404297,1.8994141,2.7539062,5.192383
1.4775391,5.3398438,1.9091797,2.022461,3.8652344
2.1083984,3.7988281,1.5302734,2.6708984,1.9121094
1.9785156,2.5175781,1.8271484,1.6191406,1.359375
2.461914,2.0439453,2.8085938,1.9794922,1.8515625
3.0205078,3.2705078,1.4707031,1.5771484,1.8828125
2.9667969,6.4570312,1.1181641,1.4365234,2.0546875
3.6669922,5.6015625,2.2304688,2.0234375,2.4980469
3.8857422,5.522461,2.461914,2.7626953,2.4394531
3.2802734,4.774414,1.8740234,2.7167969,2.15625
3.5361328,3.8828125,2.303711,3.0019531,1.8515625
4.1796875,2.9042969,2.6083984,3.1083984,1.9912109
4.8564453,2.421875,2.890625,3.131836,1.6259766
