"[299, 255]","[227, 248]","[287, 319]","[279, 328]","[230, 262]"
4.7421875,11.49707,4.7460938,4.2158203,7.0898438
4.6484375,11.052734,5.060547,5.0859375,7.203125
5.629883,10.876953,6.810547,5.1435547,8.723633
5.6523438,11.696289,6.845703,6.8691406,9.389648
5.1191406,11.560547,7.3710938,6.7851562,9.138672
4.5439453,11.261719,6.857422,6.642578,9.267578
3.2978516,9.833008,5.0039062,5.310547,7.2333984
3.9052734,7.3115234,4.7851562,3.9375,3.78125
3.8730469,6.7353516,4.0947266,2.8232422,3.7626953
2.5039062,5.9033203,1.8759766,1.9667969,3.4042969
1.8017578,4.993164,2.703125,2.0625,3.4121094
2.6455078,5.3535156,2.4580078,2.8261719,4.2109375
3.5957031,3.265625,2.4355469,3.7363281,4.185547
4.6240234,3.2871094,3.5078125,4.178711,4.0546875
3.7773438,3.0771484,3.0947266,2.8076172,2.7548828
3.0791016,3.9072266,3.2138672,3.453125,3.0292969
2.8916016,4.8183594,2.9472656,3.0742188,3.640625
2.4804688,5.2265625,1.6435547,1.6103516,4.3691406
3.1044922,6.7001953,2.7841797,2.743164,6.1279297
3.0410156,7.921875,3.5390625,3.1347656,5.9765625
4.951172,7.8408203,3.946289,3.6396484,5.6367188
5.138672,7.350586,3.5566406,3.6669922,5.7460938
2.90625,7.466797,2.4677734,2.9628906,5.1591797
1.4775391,8.170898,2.5009766,2.5234375,5.4228516
1.5263672,8.716797,2.0175781,2.2783203,5.3535156
3.3496094,8.463867,2.6367188,2.1875,5.6728516
4.2939453,10.103516,1.1660156,2.6230469,7.0273438
3.3925781,10.982422,1.7666016,2.8291016,7.6279297
3.6142578,10.916016,3.100586,3.3388672,7.086914
3.3984375,8.233398,3.4101562,2.9970703,6.748047
3.2919922,5.0771484,3.2333984,2.4873047,4.5146484
2.0166016,6.169922,1.6035156,2.1591797,4.6416016
1.1640625,7.756836,3.006836,3.696289,4.9384766
3.0947266,6.692383,3.5107422,4.2597656,4.0322266
5.084961,4.9921875,4.9091797,4.7109375,4.298828
5.1220703,4.1914062,5.055664,5.116211,4.251953
4.897461,4.1777344,5.7128906,5.5976562,4.491211
4.4384766,7.8603516,6.466797,6.2666016,5.921875
2.977539,7.751953,5.3632812,4.3720703,4.698242
2.243164,5.986328,3.9990234,3.2421875,3.0429688
3.0029297,6.541992,3.8408203,3.071289,2.5576172
3.1347656,4.7333984,2.3330078,2.2314453,2.3007812
2.8203125,4.458008,3.578125,2.6367188,3.7050781
3.0390625,5.4296875,5.830078,5.357422,4.616211
2.8955078,5.1464844,5.763672,4.9316406,4.4765625
2.2558594,1.9882812,4.6865234,3.9628906,2.8896484
2.2949219,1.2011719,2.6875,2.1083984,2.4072266
4.107422,2.9921875,2.6503906,2.4550781,3.6171875
6.086914,3.7548828,3.6425781,3.2832031,4.5458984
6.283203,3.4863281,3.7753906,3.258789,4.270508
6.2509766,2.0517578,4.90625,4.0771484,3.5351562
6.595703,2.2548828,6.1552734,6.4228516,3.6113281
6.051758,2.741211,6.2197266,6.232422,3.1259766
5.5283203,3.5839844,6.044922,6.819336,3.8730469
5.625,4.5996094,5.6503906,5.739258,3.0410156
7.6601562,5.203125,6.116211,5.1064453,3.6582031
8.591797,5.458008,5.930664,5.3896484,3.2890625
7.794922,5.739258,6.2822266,5.2382812,3.1591797
8.303711,6.1796875,5.864258,5.5058594,5.958008
7.1445312,5.748047,6.123047,7.3779297,6.399414
4.8720703,6.4609375,3.9121094,3.7988281,6.319336
3.3203125,7.857422,3.4208984,2.2333984,6.2998047
4.428711,11.568359,2.6728516,2.1240234,8.240234
5.838867,12.951172,4.689453,3.5673828,9.006836
6.366211,13.496094,6.0097656,6.814453,10.21582
6.044922,13.237305,6.932617,6.9296875,9.801758
6.048828,12.254883,8.587891,7.149414,9.015625
5.5898438,10.586914,8.833008,7.2851562,7.8134766
4.9433594,8.644531,6.274414,6.211914,7.8115234
3.328125,8.396484,5.571289,5.182617,7.666992
1.5732422,6.758789,2.1621094,2.8359375,5.366211
1.1855469,6.370117,1.96875,2.7558594,4.2128906
1.4023438,6.3876953,1.9960938,2.171875,4.3828125
1.6552734,6.3583984,1.2851562,2.0195312,3.8085938
2.7128906,6.3134766,1.4755859,2.5654297,4.432617
2.4541016,5.9882812,3.7421875,3.5078125,3.7490234
3.6357422,6.5566406,4.4023438,4.142578,4.9785156
4.1728516,7.754883,4.8242188,3.8769531,6.189453
3.3378906,6.296875,4.2197266,3.5771484,4.392578
2.2089844,4.5146484,2.3378906,1.7958984,3.2617188
1.5917969,4.4277344,2.1240234,1.6933594,2.7890625
1.2919922,5.986328,1.5722656,1.0898438,2.875
2.8896484,4.9716797,1.8359375,2.7666016,3.9042969
2.227539,5.852539,3.1611328,3.5986328,5.0390625
2.7138672,3.5957031,2.6708984,4.642578,4.220703
4.6777344,4.25,3.6191406,4.7373047,3.7333984
3.7011719,4.107422,3.6484375,3.1953125,2.9580078
3.2832031,3.359375,3.3769531,3.7998047,2.2636719
2.2001953,5.2128906,3.1191406,3.1855469,3.256836
1.8378906,4.6708984,2.477539,3.0791016,2.9560547
3.6699219,4.6865234,3.038086,3.290039,3.6669922
4.3203125,5.680664,3.2197266,3.2714844,3.8847656
4.482422,5.53125,2.4433594,2.477539,3.7519531
4.5166016,4.114258,2.3857422,3.4179688,2.3310547
3.5820312,4.4990234,3.2402344,2.7539062,2.4472656
2.234375,4.786133,2.5263672,2.6914062,2.6289062
2.234375,4.9960938,2.59375,2.836914,3.0458984
1.7226562,5.729492,1.5361328,2.3603516,3.9189453
1.2578125,6.114258,2.1376953,2.5146484,4.430664
2.0009766,7.8291016,4.553711,4.4453125,6.354492
2.3720703,8.635742,5.109375,5.3320312,8.088867
3.540039,8.722656,4.2197266,4.4257812,7.3359375
2.3701172,7.946289,2.5615234,3.9550781,5.5615234
2.296875,7.3632812,0.9765625,3.0019531,4.7597656
3.274414,6.5146484,1.5234375,3.1152344,4.4052734
3.6064453,5.591797,2.3007812,2.6464844,3.4003906
3.4980469,3.1142578,3.015625,3.0546875,1.5585938
3.3671875,1.2773438,3.930664,3.5419922,2.6054688
3.3955078,1.0751953,4.796875,4.6132812,2.6708984
2.6386719,2.8076172,4.3115234,4.4882812,4.0742188
1.1181641,5.158203,4.1308594,3.4316406,4.501953
1.3261719,6.395508,4.4677734,3.0625,3.6132812
2.303711,6.2578125,3.4648438,2.9550781,3.4970703
3.0283203,7.805664,2.6542969,2.78125,5.2148438
3.3076172,8.701172,4.5,3.5966797,6.6035156
4.8310547,8.547852,3.709961,4.1347656,6.805664
3.8447266,9.6015625,3.5791016,3.866211,8.388672
4.1308594,8.776367,2.649414,3.2070312,7.451172
4.5097656,8.349609,4.026367,2.6201172,5.6347656
4.595703,7.495117,3.3085938,1.5527344,4.9941406
3.4726562,6.5771484,3.6914062,2.555664,4.2148438
2.9716797,5.9472656,3.2539062,1.8310547,4.536133
3.194336,7.3125,2.9394531,2.7353516,5.5703125
3.8076172,7.9921875,3.618164,4.2558594,7.1123047
4.713867,7.7304688,4.6835938,4.6503906,7.083008
5.147461,8.318359,5.008789,3.2148438,6.376953
4.463867,8.410156,3.7783203,2.1884766,6.3115234
5.024414,10.467773,3.430664,1.6035156,5.330078
4.9902344,7.196289,3.694336,2.4902344,4.473633
4.901367,5.7060547,4.336914,4.234375,4.564453
4.5791016,6.961914,5.879883,5.8085938,5.649414
6.029297,7.879883,6.8896484,6.5273438,6.211914
6.8691406,7.084961,6.4716797,6.213867,4.680664
6.765625,6.0439453,6.430664,6.4414062,4.600586
6.173828,6.2958984,6.073242,6.373047,4.810547
5.088867,5.213867,5.3779297,5.631836,4.2558594
4.8603516,7.4589844,5.4404297,5.017578,4.3554688
6.2558594,7.8828125,5.834961,4.760742,4.326172
6.5322266,7.149414,5.734375,5.8984375,5.5810547
6.979492,6.8027344,6.576172,6.9804688,5.7753906
7.029297,5.0507812,6.6416016,6.959961,4.9160156
6.9248047,5.430664,6.076172,6.2490234,4.7617188
5.0976562,6.713867,4.7871094,5.385742,3.0341797
3.3251953,3.7421875,3.2675781,3.2646484,0.94628906
2.8173828,1.5966797,3.2177734,3.0478516,0.9609375
2.100586,1.5820312,1.9384766,1.8886719,1.5898438
3.4814453,3.305664,2.6308594,3.1992188,3.1230469
4.5742188,4.375,3.6572266,3.8359375,4.5683594
4.932617,5.3984375,5.444336,3.8300781,5.2841797
4.198242,4.919922,5.8320312,2.4492188,5.671875
3.0917969,5.2617188,5.1503906,3.1904297,5.173828
5.2958984,5.5078125,5.805664,5.3115234,5.0351562
5.6376953,5.7597656,4.1484375,4.017578,4.2646484
4.770508,5.0996094,2.5957031,2.1767578,4.6572266
4.3134766,4.060547,4.7285156,2.4072266,5.729492
4.692383,3.3417969,4.541992,2.586914,6.7773438
5.2109375,4.0839844,6.654297,5.6367188,7.1191406
6.3984375,4.041992,6.2070312,5.739258,5.270508
5.03125,5.504883,3.930664,4.123047,4.024414
4.1279297,5.486328,3.8583984,4.4472656,4.4492188
3.772461,5.807617,6.932617,6.220703,5.3828125
4.546875,5.892578,5.453125,5.1396484,5.788086
6.0478516,5.7578125,5.189453,4.75,5.7197266
5.2490234,5.067383,5.9052734,6.1171875,5.151367
5.685547,4.0371094,6.1552734,6.810547,4.5439453
6.5820312,2.3652344,5.791992,6.4658203,3.2265625
6.1523438,3.8173828,5.4765625,5.71875,2.4667969
4.5625,3.7851562,5.4921875,5.178711,2.1074219
4.845703,2.7548828,5.370117,4.9140625,1.2392578
5.625,3.3808594,5.080078,5.2626953,2.7988281
5.743164,6.1503906,5.6416016,5.864258,4.6523438
5.8095703,5.955078,5.7841797,5.923828,4.765625
6.0498047,3.8242188,6.4833984,6.698242,4.3183594
6.1064453,3.116211,6.1875,6.419922,3.5986328
4.6523438,5.399414,4.6914062,4.6445312,4.4814453
2.5673828,5.6376953,3.2558594,2.8115234,4.095703
2.6904297,6.3271484,2.680664,2.1523438,3.4824219
1.8154297,5.008789,1.4003906,1.1113281,3.1054688
2.165039,3.0664062,3.1220703,3.5498047,3.6767578
3.6708984,3.2373047,2.9345703,2.9902344,4.3398438
4.2978516,3.334961,3.2148438,3.4677734,4.375
4.544922,4.4091797,3.5214844,3.4384766,3.8261719
4.0615234,5.2958984,3.0117188,2.5966797,3.375
3.3134766,3.5615234,3.0507812,2.8847656,3.1044922
2.522461,3.7666016,3.9638672,4.234375,2.109375
3.5478516,2.2060547,4.135742,4.2070312,2.1357422
5.1308594,4.6171875,5.6445312,5.4521484,4.725586
5.489258,3.9267578,5.209961,4.915039,4.2158203
5.1777344,1.9824219,5.0527344,4.591797,3.7246094
5.0927734,1.8193359,5.129883,4.770508,2.7978516
4.1689453,3.8417969,4.4833984,3.790039,3.3867188
2.3691406,2.475586,4.064453,2.8427734,3.0625
1.1162109,3.1533203,3.6660156,2.0976562,3.4472656
0.96972656,3.743164,3.1142578,3.1972656,2.6689453
1.96875,2.6689453,4.4589844,4.100586,1.8759766
3.7949219,2.8378906,3.8798828,3.6308594,3.3955078
4.086914,3.9003906,3.2802734,2.836914,3.6386719
3.5302734,5.3095703,1.9667969,1.6357422,2.649414
2.3486328,4.75,2.2197266,2.0214844,2.3789062
3.1113281,5.758789,4.1748047,2.4013672,2.7998047
6.6523438,4.879883,3.9091797,2.6416016,3.4335938
6.6884766,5.048828,4.3691406,3.4423828,4.239258
7.080078,2.6845703,4.571289,3.6201172,3.9580078
6.6884766,3.9052734,4.147461,3.28125,5.5458984
5.5898438,3.225586,3.2236328,3.5966797,5.9257812
5.7001953,3.7509766,4.65625,3.4941406,5.600586
8.416992,5.288086,5.3291016,4.046875,3.836914
9.641602,4.0429688,4.9140625,5.0410156,5.739258
9.147461,4.0585938,4.3779297,4.2460938,5.126953
8.958008,3.5195312,3.9736328,4.4589844,5.506836
5.1054688,1.9980469,4.788086,4.5234375,6.0302734
4.290039,4.120117,3.1142578,3.2929688,4.5078125
3.4433594,4.7998047,2.6289062,3.0166016,3.8730469
2.8339844,3.2626953,2.0126953,2.6455078,2.7666016
3.3291016,2.2998047,3.0917969,2.8955078,1.8583984
5.9492188,1.3417969,3.118164,3.0117188,2.1679688
5.0996094,3.2167969,3.3085938,3.8095703,2.6748047
4.625,4.9648438,2.086914,3.7871094,3.5878906
4.208008,6.484375,1.2441406,3.6953125,5.1601562
3.4648438,6.0625,4.673828,3.4609375,6.0839844
3.0742188,7.1953125,4.5683594,3.9824219,6.006836
2.4267578,6.2822266,3.8857422,3.1875,4.2490234
2.7177734,1.7050781,3.3867188,3.368164,1.4169922
2.1279297,3.1582031,3.0205078,2.209961,2.163086
2.366211,5.8740234,1.5878906,2.1083984,3.6748047
1.9042969,7.086914,3.038086,2.5205078,4.161133
5.2021484,10.040039,5.4873047,5.158203,8.46875
6.2089844,12.299805,9.821289,7.1064453,10.894531
7.0,13.180664,8.049805,5.25,9.244141
5.8222656,10.964844,6.6328125,5.823242,7.3427734
5.7021484,7.388672,5.0839844,4.53125,5.1845703
4.3408203,6.9765625,2.6875,2.3623047,4.6376953
3.6689453,8.674805,3.1738281,2.8291016,4.1054688
3.9384766,9.758789,4.741211,3.8076172,5.4814453
5.8320312,9.46582,6.897461,5.7353516,6.9208984
6.3251953,9.6953125,7.357422,6.5439453,6.814453
6.314453,9.461914,7.984375,7.3496094,7.408203
5.944336,8.574219,6.932617,7.78125,7.088867
4.6689453,9.030273,5.6757812,6.873047,5.2578125
4.182617,10.473633,6.504883,6.432617,6.3398438
