"[299, 255]","[227, 248]","[287, 319]","[279, 328]","[230, 262]"
4.0058594,8.652344,4.3964844,4.776367,4.0664062
3.1757812,9.157227,4.2626953,4.383789,4.7021484
3.6621094,8.503906,4.439453,4.0195312,4.09375
3.765625,7.8066406,3.4765625,2.1289062,4.3222656
4.116211,8.160156,4.067383,2.415039,4.676758
3.493164,9.379883,3.71875,3.227539,4.5341797
4.4472656,10.348633,4.6503906,4.1523438,6.0322266
6.0625,14.589844,6.0078125,4.9365234,9.6484375
7.6728516,17.370117,7.9814453,6.7539062,12.87793
8.672852,18.40918,11.646484,7.5097656,13.366211
9.333984,17.069336,9.253906,7.4785156,11.831055
8.878906,11.808594,8.115234,6.5976562,8.119141
6.760742,11.344727,6.4189453,6.064453,7.370117
4.9345703,11.995117,6.890625,5.9902344,8.395508
5.989258,13.404297,7.7421875,6.4248047,8.556641
5.6503906,13.556641,7.5439453,6.328125,8.604492
5.8945312,13.866211,8.069336,6.729492,8.503906
5.928711,14.308594,8.728516,8.277344,8.697266
5.9726562,14.285156,8.969727,8.572266,8.6640625
6.0839844,14.202148,8.571289,7.9765625,8.401367
6.725586,13.532227,7.828125,8.2109375,8.884766
6.317383,13.767578,6.868164,7.7246094,8.68457
6.455078,13.579102,7.301758,7.9941406,8.584961
7.0566406,13.544922,8.595703,8.498047,8.551758
7.067383,11.985352,7.1035156,8.012695,7.5234375
5.3759766,10.233398,6.243164,6.3710938,5.095703
3.1699219,10.549805,5.955078,5.892578,5.848633
4.163086,11.044922,6.118164,6.149414,6.336914
5.7128906,9.558594,6.493164,6.2910156,5.6972656
3.930664,8.913086,5.368164,4.6210938,4.5078125
3.1083984,9.730469,5.6914062,4.254883,5.270508
3.296875,10.480469,5.805664,4.3203125,6.024414
4.366211,10.96875,5.3896484,4.263672,6.836914
5.1708984,12.72168,6.588867,5.1992188,8.401367
5.868164,13.391602,7.232422,6.4316406,9.165039
6.6308594,14.042969,9.058594,7.1210938,9.932617
6.6845703,14.516602,9.55957,7.638672,10.207031
5.961914,13.873047,8.794922,7.265625,9.6640625
5.3935547,12.541016,8.324219,6.609375,9.143555
5.7265625,12.426758,8.1484375,7.017578,9.760742
6.8583984,12.994141,8.759766,6.926758,10.021484
6.814453,13.759766,10.082031,7.7158203,10.583984
7.100586,14.319336,8.110352,6.9853516,10.681641
7.5654297,16.185547,10.661133,8.483398,11.96582
7.270508,15.663086,11.416016,8.197266,12.391602
7.154297,15.177734,9.981445,7.881836,11.745117
7.4101562,15.266602,9.183594,6.3320312,11.4921875
7.6601562,13.856445,6.2089844,4.008789,6.368164
7.8291016,4.201172,2.696289,3.3535156,2.2832031
5.232422,2.3300781,4.6552734,3.9697266,1.6962891
1.3720703,6.364258,5.7373047,4.4365234,3.7226562
1.2070312,6.3632812,5.352539,2.8408203,4.088867
2.4863281,6.0341797,4.25,3.4765625,3.1669922
2.8544922,6.4941406,4.616211,4.3984375,3.0351562
4.234375,5.7617188,3.3583984,4.323242,2.9140625
4.0507812,2.7705078,4.383789,3.7246094,1.6103516
1.9384766,4.296875,3.5615234,3.9453125,2.868164
1.4501953,6.901367,2.2636719,3.7851562,2.8789062
2.046875,5.5351562,1.8769531,3.4785156,2.7617188
1.8476562,3.3398438,1.3779297,3.3017578,1.7451172
1.5478516,3.2861328,1.3339844,3.1953125,1.8857422
0.9824219,2.6748047,2.7089844,3.334961,1.7070312
1.6005859,2.4853516,2.366211,2.2148438,1.9326172
2.399414,3.1455078,1.7294922,2.8632812,2.4804688
2.1396484,3.5019531,1.0761719,2.836914,2.7246094
3.1035156,3.522461,1.9433594,3.0947266,2.8134766
3.696289,3.7822266,2.7753906,3.147461,3.0771484
3.4990234,4.861328,1.8134766,2.5634766,2.6523438
4.658203,4.428711,1.5458984,3.008789,2.7822266
5.870117,6.484375,3.053711,4.223633,2.444336
6.4228516,7.5302734,3.1503906,4.2851562,3.461914
6.205078,8.865234,2.2666016,4.109375,4.546875
6.4628906,9.270508,1.8876953,4.446289,4.6953125
5.9833984,9.166016,1.8583984,4.2578125,4.698242
5.508789,7.529297,0.9921875,4.25,4.216797
5.801758,6.6289062,1.3291016,4.2197266,3.9541016
5.392578,5.8828125,1.3271484,4.4335938,3.7050781
5.6035156,6.0751953,2.2646484,3.9316406,2.8691406
5.3203125,7.0214844,2.303711,3.3564453,2.586914
5.279297,7.6884766,1.7392578,2.8671875,2.8779297
4.6816406,7.9277344,2.9560547,3.040039,3.0810547
3.7675781,7.501953,2.9501953,2.9951172,3.6279297
3.71875,6.836914,1.6582031,3.015625,3.1367188
3.6357422,5.515625,2.538086,2.3261719,2.5507812
3.5107422,5.638672,2.9541016,2.109375,2.3828125
3.2998047,5.4296875,3.2695312,2.6523438,2.5986328
3.8623047,6.748047,2.5732422,3.0351562,2.680664
4.2695312,8.573242,2.3886719,3.3544922,4.084961
4.680664,10.139648,2.3740234,3.4736328,5.067383
4.7939453,11.6328125,2.8076172,4.0253906,7.084961
5.6376953,11.227539,2.8925781,4.8691406,7.751953
6.491211,11.71875,2.7138672,5.4296875,8.082031
6.283203,12.124023,2.7734375,4.6660156,8.428711
6.258789,13.216797,4.955078,5.895508,9.061523
6.3203125,14.018555,6.8583984,6.7539062,9.969727
6.9453125,13.3828125,7.8183594,7.1835938,9.825195
7.995117,13.600586,7.625,7.576172,11.212891
8.788086,14.65918,9.089844,7.3564453,12.407227
8.670898,15.240234,12.722656,8.477539,12.143555
8.795898,16.136719,12.734375,9.456055,12.089844
8.557617,16.958008,10.798828,8.680664,12.59668
8.807617,17.858398,9.868164,7.2998047,13.017578
8.876953,18.219727,9.456055,8.650391,13.787109
8.90918,18.511719,10.143555,9.286133,14.592773
8.87207,16.158203,11.592773,10.020508,12.233398
8.475586,12.891602,8.225586,5.821289,9.173828
7.8710938,12.208984,4.8535156,2.8320312,8.290039
7.8007812,14.561523,4.9121094,2.1308594,10.25
8.707031,14.379883,6.748047,3.1015625,11.640625
9.1953125,15.741211,8.729492,5.5839844,11.704102
8.577148,15.566406,8.943359,5.1289062,11.083008
8.308594,14.186523,8.109375,1.9453125,9.97168
8.149414,13.918945,7.8154297,1.5673828,9.3671875
8.113281,14.860352,6.1289062,3.0517578,10.769531
8.140625,15.019531,8.813477,4.748047,11.22168
8.87207,14.417969,9.267578,7.236328,10.56543
8.198242,12.860352,9.52832,7.4365234,9.913086
6.370117,13.060547,9.264648,8.139648,8.953125
6.9921875,12.755859,7.123047,8.328125,8.484375
6.123047,13.5703125,8.495117,8.22168,8.470703
6.7978516,14.724609,9.347656,9.597656,8.71582
7.3320312,15.4765625,8.473633,9.344727,9.535156
7.1845703,15.591797,8.271484,7.823242,10.161133
7.5810547,13.866211,9.1875,7.213867,9.540039
7.790039,12.907227,9.130859,8.47168,8.145508
6.5390625,12.774414,7.551758,8.02832,7.3535156
6.1308594,13.151367,8.324219,8.46582,7.291992
6.979492,12.837891,8.731445,7.932617,7.4365234
6.536133,12.681641,8.330078,6.694336,7.879883
6.7958984,13.102539,7.6416016,6.3710938,8.360352
5.430664,12.193359,5.095703,5.6835938,6.899414
4.033203,11.047852,2.8867188,5.1171875,6.548828
4.7646484,10.170898,3.6123047,5.2773438,6.458008
3.2050781,9.993164,3.0800781,4.180664,5.5742188
2.4550781,10.818359,2.633789,3.4111328,6.248047
2.149414,8.673828,2.9121094,3.1523438,5.173828
2.1689453,7.1279297,2.9238281,2.9277344,4.123047
2.2949219,7.642578,2.6523438,2.2324219,3.4140625
1.9033203,7.288086,0.8300781,1.5800781,4.0966797
1.0878906,8.7890625,0.75390625,1.6572266,5.2177734
2.6240234,8.009766,1.6816406,4.529297,5.354492
3.140625,7.8759766,3.5292969,3.75,4.0527344
3.4882812,5.720703,2.1503906,3.1513672,2.6035156
2.131836,4.0185547,1.8125,2.875,2.413086
2.640625,2.4277344,1.7089844,1.9267578,1.7714844
1.4853516,3.671875,1.3476562,1.421875,1.9335938
1.7314453,3.303711,1.6435547,2.1611328,1.4492188
1.6816406,3.8623047,1.1728516,1.8847656,1.8623047
2.0205078,5.529297,3.9189453,2.2666016,3.2597656
1.9287109,6.484375,4.1679688,3.2851562,3.8730469
2.711914,7.8203125,3.1484375,3.6728516,4.6152344
3.3417969,8.793945,3.1298828,2.7285156,4.609375
4.071289,9.771484,4.165039,3.1083984,7.026367
4.4804688,11.602539,7.493164,5.4765625,8.8125
5.3808594,13.256836,7.0634766,5.0966797,8.394531
5.7978516,8.053711,5.6152344,5.5478516,5.2958984
5.475586,7.6289062,5.673828,5.805664,4.9101562
3.7207031,6.8203125,4.9072266,4.5185547,3.2949219
3.0673828,7.120117,4.9121094,3.8935547,2.6542969
2.6386719,7.8164062,4.310547,3.553711,3.491211
2.6660156,8.194336,4.3583984,3.8164062,3.7792969
3.055664,7.7060547,4.459961,3.6816406,3.6689453
3.4609375,8.185547,4.3808594,3.9882812,4.147461
4.0527344,7.4570312,4.8291016,3.8710938,5.1679688
4.826172,9.027344,5.5078125,4.689453,6.484375
4.6816406,9.613281,5.051758,4.9160156,6.411133
5.3125,12.40332,10.328125,6.4941406,9.46582
6.779297,13.890625,11.34375,7.6660156,10.142578
6.513672,11.47168,7.6777344,6.321289,7.955078
5.6660156,9.7265625,6.046875,4.703125,6.8447266
4.852539,9.535156,5.631836,4.2773438,6.7070312
4.944336,9.97168,6.260742,4.7285156,7.2304688
6.080078,9.3515625,6.7978516,6.0341797,7.291992
5.6103516,11.033203,9.189453,6.6132812,8.59668
6.4873047,10.2109375,10.145508,7.260742,8.556641
7.928711,10.522461,12.212891,7.901367,9.151367
8.546875,10.807617,12.7109375,9.383789,9.09668
9.828125,11.245117,10.546875,8.729492,8.277344
8.737305,10.491211,7.379883,6.932617,7.8183594
6.7734375,10.263672,4.6914062,4.448242,8.34668
6.415039,9.879883,7.2158203,5.216797,7.993164
5.073242,11.817383,10.819336,6.1572266,8.758789
7.0625,13.861328,9.858398,6.5634766,10.358398
7.5966797,14.548828,9.225586,8.050781,11.391602
7.772461,15.6171875,10.9296875,10.94043,11.519531
9.318359,12.208008,10.212891,11.173828,9.344727
9.399414,12.041016,9.765625,10.797852,8.592773
8.802734,12.250977,9.313477,9.402344,8.9375
10.3515625,12.069336,10.607422,8.674805,8.8671875
8.318359,11.5546875,8.936523,7.7421875,7.4921875
7.0009766,11.444336,8.19043,7.328125,6.9765625
6.6035156,11.106445,7.850586,6.817383,6.234375
5.3183594,9.791992,6.5078125,5.8242188,5.4677734
5.8535156,9.113281,5.4697266,5.2226562,5.0283203
4.9658203,10.396484,4.651367,5.8007812,5.9873047
4.9648438,10.115234,6.0058594,5.9365234,6.6689453
6.9472656,10.6796875,6.7978516,6.642578,7.560547
6.251953,10.696289,7.9345703,7.3222656,6.995117
5.4960938,11.482422,7.866211,7.819336,7.239258
4.7578125,12.56543,9.709961,7.708008,8.186523
5.0742188,13.163086,9.854492,7.3007812,9.177734
6.408203,13.728516,9.728516,7.8867188,9.515625
7.3408203,14.442383,8.609375,6.923828,9.618164
7.1972656,12.94043,4.1445312,3.9833984,8.363281
6.5615234,10.560547,3.7939453,3.133789,5.9521484
5.149414,5.088867,2.3730469,1.6669922,4.1083984
3.7421875,5.6708984,2.8291016,1.3388672,3.2646484
2.4453125,6.6835938,3.5722656,2.2617188,4.0410156
3.1298828,8.041016,3.25,2.4550781,5.598633
3.9384766,8.705078,5.0878906,2.9990234,6.036133
4.745117,9.407227,6.0234375,3.5996094,7.0947266
5.1191406,9.213867,7.4814453,6.5595703,7.3632812
4.126953,9.518555,7.908203,6.6728516,8.020508
4.2685547,10.714844,9.730469,7.3339844,8.544922
5.5478516,13.057617,9.663086,6.1601562,9.175781
5.807617,14.505859,7.6220703,5.8623047,11.0625
7.1953125,15.109375,10.7109375,9.794922,11.950195
7.0195312,16.87207,11.522461,9.359375,13.130859
8.71582,17.514648,11.77832,9.044922,12.527344
9.65332,13.048828,6.0595703,5.9941406,7.772461
7.475586,15.637695,7.708008,7.176758,9.224609
7.5507812,14.999023,7.5996094,7.225586,9.098633
7.0283203,16.174805,7.057617,7.116211,10.049805
7.4375,14.303711,7.2333984,7.203125,8.59668
6.3603516,12.615234,8.555664,8.830078,7.4589844
5.743164,11.854492,8.103516,7.3789062,6.7285156
5.1054688,12.053711,6.7148438,6.0371094,6.7841797
5.0664062,10.8828125,7.064453,6.6933594,7.004883
5.180664,9.819336,7.1103516,6.3085938,7.6484375
5.416992,11.53418,5.2646484,3.8779297,6.9248047
6.7265625,14.112305,6.879883,5.541992,9.208984
8.649414,17.922852,8.018555,7.736328,12.396484
10.818359,19.384766,10.083984,8.385742,14.393555
11.22168,15.326172,11.858398,9.176758,10.125
7.323242,14.255859,7.370117,7.098633,8.615234
7.2128906,16.11914,8.685547,8.3046875,10.706055
8.376953,16.171875,9.518555,9.457031,11.353516
8.418945,16.59668,9.625,9.4453125,10.864258
7.9365234,15.020508,9.671875,9.733398,10.4296875
7.4257812,14.611328,9.389648,9.147461,9.205078
