"[299, 255]","[227, 248]","[287, 319]","[279, 328]","[230, 262]"
3.296875,7.989258,1.8261719,3.0371094,3.9589844
3.4765625,8.37793,4.283203,3.1044922,5.897461
4.1464844,10.366211,5.0185547,4.848633,8.327148
5.6523438,11.897461,5.024414,5.841797,10.194336
6.6777344,10.884766,8.4765625,8.291016,10.041016
5.522461,11.116211,11.241211,8.008789,9.438477
4.7509766,9.451172,8.366211,6.2558594,7.921875
4.8222656,7.84375,5.307617,5.6796875,6.415039
4.1289062,6.6757812,3.3134766,1.9365234,5.0595703
2.930664,5.076172,1.5839844,1.9765625,3.5771484
2.850586,2.9023438,2.8251953,2.8222656,2.678711
2.4628906,2.4980469,3.241211,2.852539,2.6464844
2.3330078,2.515625,4.0722656,2.890625,3.2734375
3.288086,4.506836,1.9277344,2.7783203,4.0410156
5.510742,4.1728516,2.2861328,2.5361328,3.0458984
7.4804688,2.9365234,4.024414,5.2158203,2.96875
8.393555,3.7939453,3.961914,5.1591797,2.446289
7.185547,3.022461,4.291992,4.1748047,1.9013672
6.2998047,5.4990234,2.7236328,3.2197266,4.34375
4.6396484,7.0859375,2.8564453,1.9814453,5.8125
4.8466797,5.942383,3.4023438,3.836914,5.123047
6.4003906,2.5126953,5.663086,5.283203,4.036133
4.845703,4.845703,4.7470703,4.975586,3.5664062
2.805664,7.229492,3.7939453,2.6816406,3.9697266
2.133789,7.739258,3.0947266,2.3564453,4.428711
2.1728516,6.9453125,3.0253906,2.3242188,3.4199219
3.3300781,4.7304688,4.173828,4.265625,4.2773438
4.5097656,4.4384766,4.419922,4.754883,4.6708984
4.526367,4.1660156,5.1347656,5.4277344,4.116211
4.658203,6.142578,4.5478516,5.294922,4.334961
3.3173828,5.442383,3.7236328,4.376953,3.7871094
2.4560547,3.2207031,2.5634766,3.1767578,2.2441406
2.4921875,1.4257812,3.540039,3.1103516,1.5761719
1.6318359,1.53125,3.600586,3.0742188,1.9111328
1.8271484,2.5507812,3.9785156,4.3203125,2.2363281
4.3828125,4.455078,3.9990234,3.8779297,3.084961
5.1171875,4.2597656,4.2783203,4.004883,3.1455078
5.4248047,4.2373047,5.2177734,4.8632812,2.336914
4.109375,4.544922,3.9072266,2.9960938,2.6884766
1.8681641,4.9316406,2.0449219,2.4628906,2.9208984
1.4384766,6.6445312,0.71777344,2.178711,4.1992188
1.3642578,5.1484375,1.9433594,2.3984375,3.5820312
2.453125,3.015625,3.8632812,2.3486328,3.5927734
2.7324219,1.3720703,4.274414,3.4589844,3.9521484
3.8447266,3.3984375,4.770508,4.4335938,4.1464844
4.154297,5.171875,4.526367,4.359375,3.694336
2.7001953,5.1220703,4.3291016,2.9013672,4.5195312
1.0498047,4.669922,4.2353516,2.1464844,4.2382812
2.2832031,5.15625,3.2578125,2.78125,3.9345703
2.116211,4.0625,3.9970703,2.296875,3.1777344
1.7099609,3.3232422,4.9140625,1.9707031,3.4355469
3.1103516,2.006836,4.5273438,4.251953,3.5546875
4.3916016,0.56152344,4.6259766,4.6875,2.7558594
3.8378906,1.4121094,4.9257812,5.0771484,2.2998047
2.7958984,2.040039,3.7304688,3.4033203,1.8369141
1.8447266,0.74902344,1.5791016,2.584961,1.1787109
2.0839844,2.2685547,1.5673828,1.7802734,1.3886719
1.5410156,2.0097656,1.3691406,1.4013672,1.5029297
1.1591797,2.8134766,2.5673828,3.078125,2.7666016
2.8154297,5.2539062,4.258789,4.8310547,3.5175781
4.236328,5.482422,5.810547,5.9052734,3.9501953
5.0097656,3.9091797,5.7753906,5.7353516,3.1660156
5.1035156,4.4501953,4.116211,4.3779297,2.4804688
4.057617,5.211914,3.671875,4.34375,3.2558594
3.7509766,5.8535156,4.2490234,4.3603516,3.3671875
4.3242188,5.3466797,4.446289,4.6308594,3.1552734
5.140625,5.6914062,4.995117,4.9472656,4.0253906
5.2695312,5.857422,5.0097656,4.614258,3.6933594
5.9521484,3.8847656,5.241211,5.2109375,3.3955078
5.595703,2.7998047,4.4277344,5.064453,2.961914
3.4550781,5.7597656,4.171875,3.6923828,5.1601562
2.203125,5.9208984,5.7714844,3.4003906,4.6914062
2.6914062,4.0839844,4.711914,2.8115234,4.395508
5.3945312,3.3330078,4.751953,4.838867,4.4765625
5.515625,3.8984375,4.7304688,7.006836,5.1816406
6.3154297,5.057617,7.1523438,7.7666016,5.458008
6.6064453,6.6689453,8.8359375,7.796875,6.5478516
6.208008,6.5478516,7.390625,7.9003906,5.6064453
4.890625,4.370117,6.125,6.272461,5.2978516
3.899414,4.629883,6.3984375,5.7197266,5.2626953
4.4472656,6.3603516,5.9101562,5.3847656,5.375
4.5908203,6.6533203,4.8603516,4.5195312,4.8652344
4.1503906,7.5273438,5.788086,5.1757812,5.5498047
5.290039,7.161133,5.629883,5.040039,5.477539
6.0595703,6.756836,2.8105469,3.9052734,4.9189453
4.9335938,6.6054688,3.0175781,3.8261719,4.9628906
3.2626953,6.6132812,4.9365234,2.8300781,4.8554688
2.8564453,6.8339844,3.3291016,3.102539,5.060547
4.5273438,6.701172,3.3496094,2.9121094,4.3632812
4.9501953,3.5771484,3.5507812,2.209961,3.2207031
3.9550781,3.7851562,4.1464844,2.2373047,3.352539
3.8203125,6.796875,3.803711,1.3740234,3.5205078
3.0302734,6.3896484,2.1972656,1.8105469,4.5791016
4.854492,6.788086,2.444336,2.8134766,4.9160156
6.0810547,6.5898438,4.145508,3.7285156,4.151367
6.4101562,4.754883,3.4882812,3.9814453,3.5214844
5.951172,2.8925781,2.5361328,3.2949219,2.7871094
3.9033203,2.3427734,2.1835938,2.649414,1.6953125
2.6660156,1.9794922,1.6142578,0.9707031,2.2949219
1.6591797,3.3769531,2.2617188,2.8955078,3.6640625
0.53808594,3.6923828,2.522461,2.3203125,3.9238281
1.9296875,4.6679688,2.1884766,1.7685547,3.5488281
2.805664,3.1728516,4.0283203,2.8710938,2.8261719
5.8515625,4.638672,3.4179688,3.102539,2.6376953
6.272461,4.6103516,3.0800781,3.1669922,2.7314453
4.8759766,3.4580078,1.8642578,2.5683594,2.5351562
3.694336,3.4853516,1.9638672,1.2490234,3.3515625
2.305664,7.482422,2.8183594,2.2871094,4.2646484
2.5566406,8.425781,3.131836,3.5595703,4.328125
3.3417969,6.1464844,3.5927734,3.368164,3.9023438
3.4570312,5.9091797,3.0703125,2.9853516,3.4814453
2.6044922,5.1845703,2.9199219,3.0527344,2.8779297
1.9082031,5.3085938,1.9511719,2.1611328,2.711914
1.9482422,3.8847656,0.7089844,0.9628906,2.4511719
2.0,4.2783203,1.0517578,0.89160156,2.9541016
2.2548828,7.6503906,1.5419922,1.3408203,4.0253906
2.7167969,8.228516,1.8574219,3.0771484,4.073242
3.303711,5.859375,3.1699219,2.8339844,4.1533203
3.3095703,5.239258,2.9326172,3.4101562,3.7060547
2.584961,6.173828,3.1611328,3.3867188,3.7441406
1.6005859,7.256836,2.2324219,3.0429688,3.5332031
0.8720703,6.602539,1.7285156,2.5673828,3.6142578
1.7783203,5.301758,1.6347656,2.453125,4.041992
2.7919922,7.5390625,1.8212891,2.4296875,4.5322266
3.256836,8.74707,2.4140625,2.8339844,5.3447266
4.3291016,6.4589844,3.6269531,3.5429688,4.466797
4.180664,5.2441406,3.477539,4.1015625,3.6669922
2.6103516,4.7685547,1.8886719,2.8847656,3.328125
1.3847656,5.6191406,2.4384766,2.4882812,3.8261719
1.2333984,6.283203,1.2939453,2.2509766,4.7421875
2.3466797,6.4589844,1.8730469,2.4199219,5.1259766
3.102539,6.3759766,1.265625,2.5439453,4.551758
4.073242,6.2353516,1.5126953,3.1113281,4.2021484
4.7265625,3.9970703,4.6757812,4.958008,3.1826172
4.631836,3.1425781,4.0458984,4.1992188,2.4208984
3.602539,3.5332031,3.5234375,3.4726562,2.3417969
2.7333984,5.625,3.4609375,3.375,2.0957031
2.3925781,3.6044922,3.2314453,3.6240234,2.734375
4.385742,4.9208984,4.1328125,4.1103516,2.7705078
5.0771484,5.5527344,3.8984375,4.0429688,3.866211
5.7109375,5.5546875,3.336914,3.8789062,4.088867
5.4072266,4.7685547,3.6748047,3.7988281,3.2138672
4.1796875,3.8417969,3.7666016,2.805664,2.6455078
3.0009766,3.946289,2.7050781,1.6904297,2.5136719
1.9931641,1.9472656,1.5947266,1.9023438,1.9892578
1.3759766,2.0966797,1.0800781,1.8398438,1.8222656
1.7207031,1.0634766,1.921875,3.3125,2.522461
2.8125,5.111328,2.8535156,2.3623047,3.5322266
3.4404297,7.3603516,3.9091797,2.2705078,4.0341797
3.834961,6.4472656,3.3955078,2.3398438,3.2910156
3.5175781,4.0410156,3.0576172,1.3837891,2.0488281
1.2246094,3.1875,2.5927734,2.4296875,1.2841797
1.3535156,2.0771484,2.1679688,2.8378906,1.8134766
1.4404297,1.9277344,1.9345703,1.6025391,1.1201172
1.4746094,1.4638672,2.5175781,0.9765625,0.44335938
2.5019531,2.7734375,2.4111328,3.1689453,2.2617188
3.2617188,4.9335938,3.0048828,4.3945312,3.8730469
4.046875,2.7695312,4.129883,4.708008,2.3984375
3.930664,2.4013672,3.428711,3.1894531,2.6347656
2.6601562,0.86328125,1.7578125,3.0898438,2.1777344
2.0292969,1.8564453,1.0859375,2.7363281,3.2177734
1.1660156,3.8652344,2.0732422,2.8134766,2.8554688
2.4990234,6.9990234,3.1328125,4.2695312,6.260742
4.819336,10.196289,4.489258,5.2314453,8.34375
6.5429688,9.977539,4.1904297,3.5410156,8.321289
6.7783203,10.763672,3.6123047,4.1689453,9.017578
5.932617,10.698242,2.5175781,3.209961,8.097656
3.3378906,9.749023,1.9677734,1.8085938,6.709961
1.5136719,8.128906,2.6347656,3.2714844,4.953125
2.5039062,7.6367188,2.8554688,3.1621094,4.3876953
4.4658203,8.436523,4.0839844,5.2714844,6.057617
6.935547,9.540039,5.7421875,5.220703,7.4052734
6.123047,7.7490234,7.357422,7.4853516,5.8378906
8.074219,7.4697266,6.638672,5.8564453,5.8251953
6.75,7.0742188,3.2578125,3.7519531,6.2441406
4.701172,10.167969,3.0419922,2.5898438,5.711914
2.6015625,10.128906,3.8027344,3.7646484,6.379883
2.2890625,9.298828,3.4111328,4.044922,5.6816406
3.5478516,9.022461,4.086914,4.890625,6.5097656
5.6835938,7.9414062,5.6748047,5.7421875,5.859375
6.618164,5.9023438,6.151367,5.932617,5.0166016
6.732422,4.9697266,6.0722656,6.5722656,4.1748047
5.3710938,5.458008,5.6972656,6.3789062,4.5058594
4.573242,5.921875,5.333008,5.7070312,3.7861328
4.8408203,8.253906,4.5820312,5.7734375,4.303711
5.0527344,9.234375,6.1435547,5.567383,5.301758
7.2285156,8.225586,7.611328,7.1601562,6.711914
6.916992,6.8603516,7.2314453,7.2958984,5.848633
7.033203,5.623047,7.357422,6.8984375,5.185547
6.3125,6.671875,6.9414062,5.9101562,5.4033203
4.6171875,6.7685547,5.5351562,5.4160156,5.2216797
2.7197266,4.1748047,4.75,3.7509766,3.5458984
3.0449219,5.388672,3.6503906,3.3291016,2.3115234
2.9160156,5.6757812,3.2685547,2.8408203,3.5927734
4.0791016,6.6777344,4.2158203,3.741211,4.671875
4.5839844,8.466797,6.09375,4.8408203,6.419922
4.8242188,11.452148,7.2021484,5.2666016,8.7734375
5.9746094,12.99707,7.3759766,4.1259766,9.80957
6.0976562,12.68457,7.5810547,5.060547,9.541992
7.091797,13.241211,5.426758,3.555664,8.941406
6.6640625,13.288086,5.6123047,2.944336,8.53418
6.7246094,10.758789,5.861328,4.84375,6.9121094
6.1328125,9.361328,6.678711,5.7714844,6.442383
5.6035156,9.139648,7.1328125,5.40625,6.783203
6.1132812,9.457031,8.015625,5.975586,6.9072266
5.790039,9.743164,8.884766,6.3896484,6.673828
4.5253906,9.549805,7.198242,5.0390625,5.5546875
4.21875,7.533203,5.1914062,3.3671875,3.4570312
4.4628906,4.7314453,3.178711,3.0048828,1.6855469
3.2324219,1.9091797,3.625,3.2148438,2.6738281
2.9726562,3.921875,4.859375,3.7861328,4.5273438
3.3759766,4.7353516,4.7470703,4.142578,4.2304688
3.0996094,3.5097656,4.868164,4.1191406,3.8095703
3.2138672,2.640625,3.5644531,3.1533203,3.1445312
2.5361328,1.6503906,2.7138672,2.6035156,2.368164
1.9130859,1.2675781,1.8564453,1.796875,1.5947266
2.2705078,2.4423828,1.3779297,1.9853516,2.734375
2.2978516,3.741211,1.4033203,3.1279297,2.5878906
1.8798828,3.8203125,3.3105469,3.2578125,2.2626953
2.4541016,6.6308594,3.540039,3.3378906,3.4199219
3.8935547,5.7158203,4.6064453,3.6044922,4.330078
6.711914,5.8027344,5.4970703,3.836914,4.90625
6.4257812,5.6640625,4.6601562,2.9765625,3.7763672
6.296875,3.9609375,3.9863281,2.0839844,2.5507812
6.248047,1.1953125,3.2138672,2.0058594,3.4501953
5.6464844,0.93066406,3.0859375,2.1347656,3.1835938
3.569336,1.2734375,2.9160156,2.2705078,3.334961
1.1210938,3.265625,1.3486328,1.4726562,3.5361328
1.1943359,3.5625,1.2783203,1.2167969,2.366211
1.4990234,1.3896484,2.772461,1.9169922,2.3984375
2.7636719,3.415039,3.2089844,1.8203125,2.2333984
5.584961,4.3789062,2.9003906,2.0458984,2.8251953
5.6464844,5.482422,2.2324219,3.3798828,3.9697266
5.428711,6.5253906,2.0341797,3.1904297,5.227539
4.5703125,6.8808594,2.0898438,4.013672,5.9179688
3.0019531,7.149414,2.5361328,3.2265625,6.120117
3.1601562,6.533203,2.6103516,3.446289,6.307617
2.7363281,5.7041016,2.6445312,3.1035156,5.2382812
2.0429688,4.8632812,1.9648438,2.350586,4.013672
1.5976562,2.9384766,1.5302734,1.2587891,2.5546875
