"[299, 255]","[227, 248]","[287, 319]","[279, 328]","[230, 262]"
2.8320312,3.7109375,2.40625,2.1435547,1.8847656
2.765625,6.0273438,0.9482422,0.9003906,2.7451172
2.4472656,5.1875,1.1572266,2.0517578,3.274414
3.227539,6.6552734,2.53125,3.6083984,4.3183594
4.817383,4.5214844,4.0273438,4.1435547,3.8095703
4.857422,3.2080078,4.6308594,4.609375,2.6728516
3.0478516,5.6171875,3.3164062,3.4316406,3.1367188
2.0986328,4.544922,2.4101562,3.1054688,2.8378906
2.0126953,4.133789,2.5117188,1.9716797,2.4326172
2.2001953,4.2939453,1.7021484,1.5654297,2.4169922
1.8945312,4.2910156,1.5175781,1.7568359,2.9609375
2.5410156,4.095703,3.9326172,3.4013672,3.9472656
3.368164,3.381836,3.9355469,4.963867,4.216797
4.2148438,4.5185547,3.3720703,4.5908203,4.0898438
2.8417969,7.073242,2.5644531,3.1210938,4.5322266
1.6123047,6.71875,2.6679688,2.078125,4.263672
2.3828125,5.260742,1.2988281,2.2177734,2.6367188
3.178711,5.6640625,1.7246094,2.0478516,2.7011719
3.1669922,6.928711,2.2783203,2.1464844,4.7148438
3.4873047,6.8134766,3.4941406,3.5986328,4.1328125
3.397461,7.8125,3.9453125,3.4433594,4.071289
3.071289,8.000977,1.6884766,1.7714844,3.7792969
3.5410156,7.211914,1.3105469,1.3730469,2.9560547
4.926758,7.044922,2.3759766,1.8925781,1.9990234
4.765625,5.6308594,2.4667969,2.0986328,1.1660156
4.1503906,4.9501953,2.0615234,1.6914062,1.578125
3.3886719,3.2109375,1.3349609,0.23632812,1.8261719
3.5058594,3.5878906,0.5966797,0.6171875,2.8496094
3.2070312,5.182617,0.64453125,0.61035156,2.8388672
3.5595703,3.2734375,3.4658203,2.1933594,2.5683594
2.6582031,5.0302734,3.9248047,2.2451172,3.5976562
1.4912109,7.2382812,3.4541016,1.984375,4.758789
2.1347656,8.321289,2.1660156,2.71875,5.5634766
3.875,11.105469,4.2246094,4.301758,6.8222656
5.1845703,12.258789,6.1660156,4.484375,8.086914
5.4179688,13.220703,8.107422,5.3496094,8.705078
6.5341797,12.689453,7.0683594,5.8867188,8.4609375
6.4433594,10.734375,6.5302734,6.1367188,6.5429688
6.1865234,8.305664,5.5742188,4.915039,4.9941406
4.665039,8.463867,4.9121094,3.741211,5.3847656
4.591797,8.708008,5.140625,3.546875,5.53125
4.640625,9.7265625,5.211914,4.3632812,5.7001953
5.2460938,10.329102,6.211914,5.008789,6.7226562
6.0566406,9.026367,5.9228516,5.942383,6.7578125
5.635742,7.908203,6.9804688,5.8789062,5.6933594
5.010742,9.112305,5.5966797,5.048828,6.53125
2.0800781,8.792969,4.9589844,4.020508,5.899414
2.5390625,7.776367,5.879883,2.6240234,5.294922
3.2519531,8.605469,5.0351562,3.7011719,5.973633
4.326172,9.662109,1.9277344,3.9677734,6.640625
5.0273438,9.228516,4.1054688,4.6992188,6.169922
5.5771484,9.748047,5.288086,4.6464844,7.291992
6.7539062,9.056641,7.022461,5.694336,7.2685547
5.0439453,8.575195,6.8447266,5.5742188,7.3398438
4.826172,9.6875,4.618164,3.1347656,6.7402344
4.4404297,10.358398,3.6269531,2.4023438,6.0039062
4.678711,9.387695,3.274414,2.40625,4.9990234
4.5439453,9.954102,3.4638672,2.415039,5.328125
6.0351562,10.286133,5.6289062,2.6923828,6.0654297
5.9677734,10.80957,6.770508,4.8320312,7.1240234
5.991211,10.764648,6.142578,4.770508,6.9902344
5.995117,8.438477,6.1064453,4.7089844,6.248047
4.692383,3.625,5.241211,4.3789062,3.0078125
2.9384766,6.614258,3.9960938,3.7167969,4.6992188
3.859375,9.134766,4.9765625,5.3652344,4.4814453
4.314453,8.668945,5.2148438,6.7558594,4.805664
5.171875,7.7226562,6.5585938,6.5878906,5.8095703
6.921875,6.017578,6.2646484,6.4501953,5.364258
6.3095703,4.3935547,6.451172,5.9140625,4.3828125
4.942383,6.0429688,5.9521484,5.7597656,4.359375
2.6826172,7.5458984,4.2441406,3.5273438,4.388672
0.92089844,6.6308594,3.2832031,2.6425781,4.2216797
2.484375,7.2128906,1.6542969,2.2402344,5.0058594
3.0449219,6.9228516,1.6816406,2.7001953,4.2490234
3.3740234,7.0498047,2.522461,2.8125,4.46875
3.7490234,7.7041016,3.5322266,3.0166016,4.705078
3.2861328,8.500977,4.423828,3.9726562,5.8876953
2.1328125,8.858398,3.1240234,3.4863281,6.930664
1.6005859,7.765625,1.2626953,2.8789062,6.149414
2.975586,7.0195312,2.0605469,3.3222656,4.6210938
3.0605469,6.9746094,2.5644531,3.3759766,4.2958984
3.2109375,5.647461,2.7333984,3.4541016,4.3583984
3.475586,4.6689453,1.6455078,2.5634766,2.5263672
2.5195312,4.0859375,1.2617188,2.3535156,3.2324219
1.6376953,3.0019531,1.0117188,1.8779297,2.1103516
2.0791016,3.1523438,1.4882812,1.5556641,2.5478516
4.1416016,3.9726562,2.7822266,1.8662109,3.2167969
6.6328125,3.8847656,2.5673828,1.3955078,3.6064453
7.2783203,4.6914062,3.0683594,1.4179688,3.0625
8.150391,5.2626953,3.4423828,1.1699219,4.8964844
8.743164,5.6953125,5.3876953,0.73339844,6.9501953
9.552734,3.6992188,6.598633,3.3125,7.848633
9.391602,2.6513672,6.7978516,4.1152344,6.9658203
7.1777344,3.2197266,6.421875,5.3398438,7.1289062
4.8779297,5.205078,5.4375,3.3642578,6.3828125
8.249023,5.7314453,5.198242,1.2177734,7.145508
9.958008,6.682617,4.3876953,1.3310547,7.3964844
9.09082,7.6103516,4.161133,1.9521484,7.790039
7.9316406,6.620117,5.4023438,1.1845703,8.157227
7.323242,6.192383,6.3115234,1.0449219,8.107422
6.5253906,7.489258,6.720703,2.6220703,7.506836
7.8310547,7.607422,6.9052734,3.3095703,6.544922
5.1679688,5.5429688,5.5458984,2.3847656,5.7646484
8.012695,6.1210938,4.716797,1.40625,6.7910156
9.547852,6.229492,4.388672,1.5712891,6.6591797
11.001953,6.6064453,4.8125,1.6640625,6.9589844
10.677734,6.5458984,5.9873047,1.1054688,7.1123047
9.824219,10.703125,6.7128906,2.3447266,6.0927734
6.522461,9.646484,6.629883,4.6054688,6.7460938
6.1445312,8.376953,6.0996094,3.0107422,5.8203125
9.694336,7.2753906,2.3876953,3.3388672,4.986328
4.9072266,6.379883,2.3603516,3.1748047,4.5527344
2.0585938,5.5908203,1.8740234,3.2392578,2.8779297
2.5351562,5.5234375,2.084961,2.6904297,2.6669922
2.0800781,2.741211,2.0908203,2.3496094,3.0117188
2.0439453,3.9716797,1.7294922,1.7294922,3.618164
2.4765625,4.9160156,1.9130859,2.1015625,3.3691406
2.2675781,6.076172,2.21875,1.5986328,2.227539
2.0322266,3.9169922,3.4003906,1.9423828,2.3496094
1.90625,3.125,2.1982422,2.4140625,2.4609375
1.5449219,3.0673828,2.3007812,2.3144531,2.2285156
1.0107422,2.711914,2.100586,2.102539,1.6621094
1.6367188,2.8935547,1.2119141,1.2910156,1.5898438
2.2861328,2.6621094,1.5009766,1.0292969,2.4833984
1.9794922,4.961914,2.0166016,1.2548828,2.5185547
2.0517578,5.2382812,2.859375,2.397461,2.2509766
1.9677734,4.4404297,3.953125,2.5097656,2.1611328
4.642578,4.3203125,3.9560547,3.0009766,2.3652344
5.821289,3.4121094,3.4736328,3.1640625,2.6123047
5.7666016,1.6972656,2.9316406,3.1611328,3.0039062
4.977539,0.7363281,2.484375,3.1708984,1.4384766
2.9980469,2.6259766,2.1533203,3.3701172,1.3837891
1.3115234,3.5830078,2.3261719,3.4082031,2.5810547
1.5791016,3.6875,3.5214844,2.0996094,2.390625
2.743164,4.1220703,3.9873047,2.4296875,1.8779297
5.576172,4.5478516,2.8583984,3.3632812,2.0322266
5.1191406,3.390625,2.5986328,3.1240234,2.5292969
2.6298828,3.7177734,2.2177734,2.6835938,2.4335938
1.0175781,1.3125,0.8076172,0.7138672,1.9707031
1.1425781,1.7705078,1.3994141,0.9394531,2.3242188
1.8027344,3.290039,2.4960938,2.2607422,2.6679688
1.7333984,2.944336,2.618164,1.9677734,2.2548828
1.4970703,3.8632812,2.7626953,2.569336,2.0996094
3.2363281,3.9541016,2.0732422,2.1132812,2.5175781
3.1484375,3.524414,2.0107422,1.8847656,2.7109375
2.4023438,2.9794922,1.0351562,1.2724609,2.6816406
1.0849609,1.7998047,0.38378906,0.5839844,1.6484375
1.3789062,1.4111328,0.6044922,0.9501953,2.1914062
2.3691406,3.4677734,1.3320312,1.7958984,3.147461
2.6933594,3.6669922,2.5234375,2.5195312,2.9111328
3.2490234,4.3339844,3.5703125,2.8339844,2.1289062
4.8720703,4.888672,3.9511719,2.921875,2.4169922
4.4560547,2.6435547,4.111328,2.883789,2.4560547
1.1083984,1.7304688,4.7001953,2.790039,2.2070312
2.7373047,0.56347656,4.625,3.0361328,1.8847656
3.2089844,2.2148438,3.6699219,1.8007812,3.1376953
3.5888672,3.9697266,3.2666016,2.4267578,4.8554688
4.0771484,3.1699219,4.9335938,3.9228516,3.90625
2.8095703,6.1152344,2.9746094,3.046875,2.9091797
2.890625,5.4296875,1.5253906,2.0673828,3.4228516
2.5185547,2.3310547,1.3076172,2.0498047,3.024414
2.727539,3.3115234,2.3066406,1.7617188,2.453125
3.0820312,2.6621094,4.185547,1.2695312,2.6835938
3.0488281,2.024414,4.5966797,0.796875,4.1660156
2.5517578,4.413086,4.7978516,2.5302734,3.2988281
3.6503906,3.647461,4.7714844,3.859375,2.5683594
4.2177734,1.0908203,4.526367,3.352539,1.5634766
6.3935547,1.7988281,4.0742188,2.8496094,1.9003906
4.9160156,1.2304688,3.9472656,2.4677734,1.8046875
1.609375,2.0,4.6279297,2.9716797,1.8232422
3.055664,1.7080078,4.0,3.4121094,1.0419922
2.9541016,1.8974609,2.9335938,3.8613281,2.0283203
2.6953125,3.1113281,1.9287109,3.6113281,2.2265625
2.4951172,2.5703125,2.5566406,2.96875,2.2304688
3.5664062,1.5371094,4.84375,3.4365234,1.2675781
5.8271484,3.991211,3.9072266,4.0478516,2.3769531
4.1884766,4.861328,2.90625,3.2617188,2.1923828
2.5800781,10.4375,2.4238281,3.3603516,4.9677734
1.9794922,9.830078,2.4482422,3.1445312,5.5234375
3.9638672,7.6484375,3.4628906,4.026367,5.513672
5.4189453,5.7646484,5.1445312,5.1396484,5.423828
6.1347656,5.3632812,5.1601562,5.033203,4.857422
3.4296875,4.5996094,3.7353516,3.4482422,2.9003906
2.4853516,4.8164062,3.1152344,2.9375,2.8613281
1.9765625,5.1376953,2.6738281,2.540039,2.7607422
2.0234375,3.743164,1.8134766,2.1269531,1.859375
1.7314453,5.3476562,2.2402344,2.0957031,2.2958984
2.6689453,6.263672,2.959961,1.8662109,4.1777344
4.048828,8.880859,3.8457031,2.8046875,3.022461
4.020508,4.961914,1.8847656,2.5292969,3.5654297
6.5625,5.4609375,3.1396484,1.7939453,3.125
5.6367188,4.482422,4.1054688,1.7392578,3.194336
3.8388672,6.989258,6.147461,3.5634766,3.3789062
2.1542969,7.022461,5.1054688,4.213867,4.5283203
2.8007812,8.400391,9.34668,5.426758,7.4921875
2.0986328,11.946289,8.75,6.3828125,10.069336
2.7939453,13.119141,4.1191406,3.8095703,9.74707
3.0732422,12.415039,4.357422,4.9316406,9.3671875
3.7783203,10.010742,3.8330078,3.5410156,6.6445312
4.6621094,6.8134766,2.131836,3.2333984,5.086914
4.8134766,5.5253906,2.0927734,2.7666016,2.7011719
3.125,3.5722656,0.984375,2.7626953,2.390625
2.5283203,1.5400391,2.4677734,1.0898438,0.9433594
2.3779297,2.2578125,3.8564453,2.6240234,1.8554688
2.4736328,4.1083984,2.4384766,2.609375,2.0136719
1.6972656,2.631836,2.6699219,1.6865234,2.6992188
1.2001953,3.5595703,2.0878906,1.4316406,2.6123047
1.4707031,3.8046875,3.1220703,2.1074219,2.1220703
1.8203125,5.3603516,3.4228516,2.1230469,1.8691406
1.5136719,5.3847656,3.461914,1.6777344,2.75
1.8876953,5.955078,1.7011719,1.6806641,4.4716797
2.609375,7.0039062,3.0791016,3.5898438,5.364258
4.2695312,6.026367,3.84375,4.470703,4.7128906
5.2685547,4.0478516,5.0058594,4.8066406,3.0478516
3.2890625,2.6679688,3.6484375,4.0664062,1.8417969
1.7197266,3.9375,2.756836,3.3339844,2.1015625
1.3466797,4.705078,2.4404297,2.9638672,2.6201172
0.95214844,3.5810547,1.5361328,1.6982422,2.515625
1.6181641,2.3271484,0.6357422,2.1816406,1.7490234
3.5996094,1.2285156,2.8896484,3.3642578,2.2539062
3.609375,1.8339844,2.9589844,3.9970703,3.5390625
1.4023438,2.7382812,3.7919922,3.2919922,3.6191406
2.6416016,5.1152344,3.305664,2.625,2.4853516
3.5810547,8.71582,2.9316406,2.3642578,3.975586
4.7148438,11.455078,2.4873047,2.9736328,6.709961
6.307617,7.8964844,2.90625,4.0029297,4.9677734
5.421875,6.4697266,2.5292969,4.1845703,3.8154297
4.4492188,5.0283203,2.7519531,3.274414,3.1113281
3.5,5.2871094,3.2646484,3.3359375,2.5332031
3.0322266,6.6533203,3.946289,3.5234375,3.727539
2.0917969,5.296875,2.3632812,1.9873047,2.8427734
2.4570312,5.7529297,2.1308594,1.0419922,4.205078
1.4423828,7.1523438,2.3964844,3.3769531,5.176758
3.3125,8.396484,4.086914,4.2773438,4.569336
4.7246094,7.3203125,4.1816406,3.1591797,4.8476562
5.166992,6.975586,3.0195312,2.5058594,5.5322266
5.227539,6.451172,3.7216797,3.7441406,4.991211
5.0927734,4.4609375,4.357422,4.348633,3.7050781
3.4072266,2.8740234,3.4384766,3.4638672,1.6806641
1.9453125,2.9472656,2.881836,2.8808594,1.6494141
