"[299, 255]","[227, 248]","[287, 319]","[279, 328]","[230, 262]"
2.6835938,5.588867,2.6533203,2.5615234,3.1015625
2.571289,2.805664,2.0859375,2.4990234,2.0439453
2.0898438,0.98828125,0.6513672,1.5947266,1.3730469
2.484375,1.8457031,0.41503906,1.1728516,2.2128906
2.7597656,3.6113281,1.8837891,2.9345703,2.8798828
2.2158203,2.6855469,3.1455078,2.1269531,1.9541016
1.1386719,1.9521484,2.8457031,1.5605469,2.0654297
1.7333984,4.948242,2.9609375,2.1660156,3.3183594
2.1972656,6.4716797,4.263672,2.0644531,3.8173828
2.6464844,6.435547,5.4501953,3.194336,3.6386719
2.7509766,7.044922,4.841797,2.6074219,4.9072266
3.0117188,8.661133,5.296875,3.9941406,7.0029297
3.421875,8.666016,6.5585938,4.7978516,7.861328
2.7470703,8.62207,5.510742,4.923828,7.3808594
2.5566406,8.426758,5.010742,4.379883,6.154297
2.5917969,8.144531,5.573242,4.6953125,5.9804688
3.28125,7.798828,4.553711,3.6103516,5.0058594
3.8183594,8.166016,3.2763672,3.6552734,5.466797
4.448242,9.111328,3.8554688,4.1220703,6.736328
5.107422,10.036133,4.3720703,4.783203,8.850586
4.2304688,11.223633,6.1367188,6.1992188,9.7109375
3.8300781,11.515625,6.459961,5.5166016,9.265625
4.1640625,11.300781,6.3759766,5.248047,8.735352
4.4902344,11.041016,4.866211,5.223633,9.790039
4.7626953,11.332031,6.640625,4.790039,9.225586
4.6308594,10.662109,7.334961,4.0527344,8.092773
4.211914,9.686523,6.451172,4.1191406,7.883789
4.5654297,9.439453,5.966797,3.8935547,7.8779297
2.8779297,9.03418,6.633789,4.727539,7.7998047
1.8017578,8.449219,8.926758,5.625,7.3652344
2.9326172,8.921875,8.212891,6.209961,7.9609375
3.9824219,9.50293,3.8867188,3.7636719,7.7177734
4.265625,9.779297,3.0205078,4.376953,8.136719
4.6367188,9.822266,3.5683594,4.0507812,8.029297
4.7216797,9.28418,3.1708984,3.7949219,7.2958984
4.6572266,8.756836,4.303711,4.076172,8.662109
4.5878906,8.603516,2.7851562,3.7929688,8.193359
2.5898438,8.501953,1.9658203,3.0498047,6.760742
2.8427734,7.4189453,2.0195312,3.2070312,5.2753906
3.3261719,7.120117,2.109375,3.2832031,5.0009766
3.3935547,7.4248047,1.4648438,3.086914,4.8564453
3.5654297,7.4052734,1.125,3.834961,4.5390625
3.1376953,6.7021484,2.1982422,2.6660156,3.6699219
2.9707031,3.4453125,3.2333984,2.0136719,3.1152344
2.703125,3.6035156,2.4355469,1.7138672,3.2792969
1.7158203,5.390625,2.4873047,2.6191406,3.881836
3.1044922,5.5,1.6328125,1.5605469,2.8769531
4.567383,5.669922,1.3457031,1.5976562,2.8701172
2.4492188,5.708008,0.96875,1.1416016,2.6152344
2.5175781,6.3808594,0.8574219,1.1376953,2.5605469
2.203125,5.0703125,1.0400391,0.8066406,2.6435547
1.4355469,4.538086,1.3671875,1.5693359,2.2460938
3.2050781,3.1513672,3.008789,2.8857422,1.5283203
4.165039,6.3916016,3.5253906,3.5341797,2.9072266
3.866211,4.4609375,3.899414,3.211914,2.3867188
3.4765625,6.2578125,4.4072266,3.1123047,2.8183594
2.6533203,6.614258,3.6142578,2.796875,2.984375
2.6884766,6.1640625,2.8896484,3.5214844,3.024414
2.2402344,5.5742188,3.2363281,3.9101562,2.8300781
3.2128906,6.1757812,3.7177734,4.133789,5.1376953
4.2929688,9.166016,5.149414,4.8935547,7.3359375
4.774414,10.55957,5.5039062,5.4697266,6.6054688
2.8554688,12.076172,5.1679688,5.1972656,6.8339844
3.1728516,11.427734,4.598633,5.3046875,6.15625
3.7861328,10.862305,5.5302734,5.4023438,6.540039
4.1064453,9.230469,3.9902344,4.5820312,5.107422
3.397461,8.442383,3.6904297,4.0146484,3.7001953
4.6289062,7.185547,3.9736328,4.375,5.4765625
5.5585938,7.180664,5.388672,4.8007812,5.5683594
4.7460938,10.170898,5.1914062,4.9033203,6.3632812
5.1591797,14.775391,7.4433594,5.734375,9.761719
7.5566406,16.532227,11.341797,6.955078,10.956055
8.0390625,14.392578,5.727539,4.611328,9.480469
6.551758,11.774414,5.0214844,4.600586,5.9091797
5.4023438,10.370117,5.9365234,4.90625,7.489258
7.5410156,10.438477,7.5302734,6.7246094,8.493164
7.916992,10.268555,8.047852,7.088867,8.066406
5.5234375,12.87793,7.213867,7.1308594,7.415039
5.908203,13.791016,5.9091797,6.080078,8.616211
5.9521484,14.189453,6.310547,6.5527344,9.038086
6.458008,14.625977,7.4560547,7.1689453,9.456055
7.0039062,14.420898,7.432617,7.734375,9.407227
7.75,14.05957,6.720703,8.249023,8.983398
8.253906,13.783203,7.857422,8.641602,9.77832
7.716797,13.928711,7.8964844,8.222656,8.831055
7.1123047,13.083984,6.9472656,6.7851562,8.044922
5.725586,12.639648,4.555664,5.823242,6.823242
4.567383,9.520508,2.9423828,4.883789,5.154297
3.1816406,6.6132812,3.0341797,4.34375,2.8486328
2.1738281,5.1191406,2.2919922,2.9238281,2.3984375
2.3105469,6.930664,1.7539062,2.9042969,2.9072266
3.9716797,10.238281,2.5878906,3.538086,5.640625
5.267578,13.130859,4.515625,5.0429688,9.186523
8.143555,13.3828125,6.8242188,6.8583984,9.572266
6.823242,12.189453,8.463867,5.4365234,7.9433594
6.7177734,11.211914,5.8095703,4.298828,5.770508
4.3027344,11.03418,5.5908203,5.0166016,5.9677734
4.3339844,10.951172,5.7871094,5.3183594,5.7304688
4.9023438,12.363281,6.828125,4.751953,6.9677734
6.810547,12.792969,6.1308594,5.989258,9.052734
7.4052734,13.370117,7.3271484,8.665039,9.486328
6.2089844,12.189453,6.064453,6.533203,7.2998047
5.166992,9.397461,5.8515625,4.1259766,5.272461
4.9589844,10.701172,6.2060547,3.2792969,5.7216797
5.350586,11.777344,7.8378906,4.734375,6.638672
5.823242,12.350586,6.7939453,5.9228516,7.1435547
5.970703,12.953125,7.135742,6.6220703,7.7558594
7.361328,12.551758,8.384766,7.9570312,9.350586
7.573242,11.734375,7.9414062,7.709961,8.569336
5.9335938,11.109375,7.515625,6.2382812,6.8515625
5.053711,10.452148,6.444336,4.5078125,5.743164
4.4365234,10.291992,6.004883,4.5429688,5.3515625
4.6083984,10.142578,4.9746094,4.4921875,5.7304688
5.161133,10.743164,5.794922,4.2773438,7.569336
6.5478516,13.966797,7.147461,4.258789,10.112305
7.9365234,17.043945,9.524414,6.6445312,13.324219
7.786133,15.0390625,8.904297,7.173828,10.842773
8.288086,11.863281,7.1484375,4.2304688,7.6748047
7.774414,9.348633,5.6259766,4.526367,6.225586
6.4189453,9.863281,7.4609375,7.786133,7.1640625
5.8671875,10.139648,4.7841797,5.580078,6.333008
4.8427734,8.597656,5.1660156,5.0390625,5.2001953
2.8447266,8.183594,6.3427734,4.810547,4.491211
3.5058594,7.3095703,7.328125,6.0664062,4.859375
4.223633,8.3125,6.107422,5.864258,5.4804688
4.1083984,7.421875,4.3984375,4.791992,4.5898438
3.3183594,8.248047,3.5917969,2.4335938,4.2402344
2.984375,9.426758,4.0546875,2.7734375,4.2402344
2.9121094,8.807617,3.40625,3.7363281,4.0976562
2.725586,7.4121094,2.211914,3.8242188,4.1171875
2.375,6.1123047,2.4267578,2.8730469,3.5107422
2.9208984,6.6191406,3.9472656,3.649414,4.998047
4.4208984,6.0302734,3.8291016,4.4746094,4.6816406
3.5966797,5.1884766,3.0839844,3.1191406,3.0742188
1.3125,2.3242188,2.3857422,3.0126953,2.2246094
1.3808594,4.1083984,2.4902344,1.3681641,2.7890625
1.2822266,5.180664,1.2275391,1.7226562,2.2802734
1.1689453,4.2197266,1.4287109,2.428711,1.9882812
1.2138672,3.227539,1.1083984,2.272461,1.5029297
1.2138672,3.1533203,1.0205078,2.1796875,2.4013672
2.3300781,4.7695312,3.7929688,2.3271484,3.7695312
1.8994141,4.830078,2.991211,2.2216797,2.9658203
2.5546875,4.9501953,3.8798828,2.5634766,2.6240234
3.0078125,5.551758,1.2363281,2.8632812,2.569336
3.475586,6.004883,1.8349609,3.0,3.4589844
4.421875,8.267578,1.2333984,3.2861328,4.626953
5.1220703,10.083984,2.4511719,3.8095703,5.7265625
5.817383,11.041016,5.584961,5.258789,7.4384766
6.6054688,11.688477,5.8154297,6.591797,7.3935547
7.4072266,12.887695,6.0117188,7.069336,7.7939453
8.074219,13.729492,7.4160156,7.676758,8.0078125
9.80957,16.500977,7.256836,8.576172,11.418945
10.09082,16.658203,8.830078,8.37207,12.299805
9.708008,15.526367,9.478516,7.120117,11.125
8.713867,12.74707,9.40918,5.819336,8.551758
6.564453,9.900391,8.605469,5.75,7.3095703
6.6289062,10.083008,5.9316406,6.9746094,7.6660156
6.7509766,11.833984,6.916992,6.475586,8.297852
6.508789,12.6171875,6.484375,5.307617,7.381836
4.8671875,12.425781,4.9746094,4.763672,7.6689453
5.4257812,12.166992,5.2939453,4.586914,7.826172
5.576172,11.942383,7.161133,6.057617,7.477539
6.161133,12.120117,7.873047,6.6464844,8.133789
8.178711,11.477539,9.413086,8.855469,9.333008
7.557617,9.844727,9.785156,10.162109,7.9375
5.1210938,8.239258,6.7197266,8.22168,5.3847656
2.5449219,6.819336,3.3701172,4.9560547,3.2734375
2.7158203,9.385742,4.2021484,3.1386719,4.104492
4.533203,11.261719,4.6933594,4.357422,6.6591797
5.448242,10.545898,6.725586,5.536133,7.071289
4.9453125,11.919922,5.4628906,5.8632812,6.7734375
6.5820312,11.144531,7.243164,6.5214844,8.268555
6.629883,10.712891,7.8740234,7.9726562,7.9316406
4.946289,11.0390625,5.8623047,6.6103516,5.961914
3.2089844,10.513672,6.017578,5.458008,5.2529297
1.3896484,8.6796875,4.9833984,3.8828125,3.9980469
2.03125,6.203125,3.9648438,2.8945312,3.1933594
1.7099609,4.680664,2.2675781,2.8867188,2.8164062
1.6386719,3.1611328,1.6503906,2.2871094,1.6777344
1.0449219,2.375,1.4863281,1.6425781,0.87109375
0.34765625,1.6308594,1.6992188,1.4941406,1.5878906
1.921875,3.7060547,1.4501953,2.1738281,2.5996094
4.2001953,5.618164,3.3925781,2.9238281,3.8154297
5.5615234,5.1865234,3.928711,3.116211,3.9160156
6.2626953,10.064453,4.5185547,3.4384766,5.2314453
7.524414,12.4140625,4.7998047,3.6884766,5.7695312
8.032227,12.142578,5.0214844,3.9003906,7.5507812
9.177734,11.75,6.473633,6.2714844,6.6757812
10.099609,13.824219,7.5898438,8.375,6.2333984
11.509766,14.058594,6.7851562,8.165039,6.203125
12.229492,13.421875,6.046875,9.119141,7.3515625
10.744141,11.817383,8.987305,5.361328,7.4882812
8.733398,10.948242,7.1523438,5.9814453,6.1396484
7.1572266,10.324219,3.0986328,4.3115234,6.7695312
7.1220703,12.723633,3.9472656,4.748047,8.223633
8.651367,15.260742,7.2695312,7.3183594,10.972656
7.763672,14.907227,8.96875,7.919922,11.887695
7.4648438,12.783203,7.751953,7.508789,10.291016
7.5820312,10.740234,8.650391,5.2753906,8.880859
6.8027344,10.613281,6.1748047,4.4941406,8.506836
4.8779297,10.885742,5.482422,3.4121094,8.4765625
5.2382812,11.538086,5.727539,3.852539,9.013672
6.0585938,12.538086,6.348633,5.1396484,9.893555
6.7695312,13.369141,9.363281,9.044922,10.439453
7.470703,14.006836,10.950195,10.265625,11.089844
6.873047,13.97168,9.547852,8.260742,11.453125
6.392578,14.616211,8.948242,6.2109375,11.310547
7.142578,12.376953,8.292969,7.319336,8.053711
5.9052734,9.333984,6.928711,5.6191406,5.482422
4.7265625,8.50293,6.220703,5.1054688,4.8027344
4.125,7.689453,5.8671875,5.390625,5.4853516
5.8320312,7.3652344,6.5478516,6.4121094,6.1708984
6.185547,6.573242,6.3623047,5.5927734,5.3691406
4.689453,4.1259766,4.614258,4.790039,2.875
3.5048828,3.2285156,4.125,3.8535156,1.7294922
2.5361328,2.6191406,3.4853516,3.1064453,1.1279297
2.3261719,2.046875,2.3251953,2.9785156,1.0175781
1.9345703,2.1435547,1.9902344,2.3496094,1.1376953
1.7294922,1.6787109,1.9150391,1.1923828,0.8876953
2.7148438,1.9521484,0.8535156,1.0927734,2.1064453
2.8867188,2.8203125,1.8642578,2.4902344,2.3164062
2.3613281,3.0673828,2.1572266,1.9765625,1.9931641
2.4785156,3.3789062,2.0507812,2.4423828,1.6474609
2.5830078,3.2197266,0.83984375,1.7509766,1.9970703
2.415039,2.84375,1.2666016,1.7539062,1.8144531
1.9384766,2.3291016,0.6298828,2.2919922,2.1738281
1.6123047,2.2128906,0.8808594,2.053711,1.53125
1.3574219,1.6015625,0.45507812,0.74121094,1.4042969
2.4677734,0.9423828,1.5839844,1.4208984,1.7412109
1.7548828,1.5556641,1.4736328,1.6972656,1.9042969
2.055664,3.1347656,1.2675781,1.1787109,2.5009766
2.2050781,2.2753906,1.3466797,2.1992188,2.2519531
2.2509766,1.4755859,0.6738281,1.6132812,2.8066406
2.3652344,1.8925781,1.0253906,0.99902344,2.5527344
3.0458984,1.9716797,0.5654297,0.57910156,1.9433594
0.92578125,1.9501953,0.7753906,0.58984375,2.805664
2.0009766,2.3798828,2.7548828,0.47753906,4.1191406
2.3085938,5.7539062,3.1953125,1.6865234,3.5966797
4.397461,4.3466797,3.5195312,1.9550781,3.336914
1.9199219,3.3291016,3.2958984,1.7285156,4.5527344
