"[299, 255]","[227, 248]","[287, 319]","[279, 328]","[230, 262]"
7.5898438,16.499023,9.540039,8.055664,10.042969
6.870117,15.977539,8.305664,7.6367188,9.417969
7.1240234,14.955078,8.766602,7.8652344,9.354492
7.678711,14.922852,7.8183594,5.991211,9.913086
8.126953,11.871094,5.026367,5.620117,6.336914
3.4326172,10.21582,4.283203,3.930664,5.709961
3.0527344,9.630859,4.685547,3.665039,4.352539
2.0810547,7.758789,4.4882812,2.6748047,3.5791016
2.6757812,8.013672,4.5498047,2.8867188,4.0546875
2.9707031,11.124023,4.201172,3.2958984,5.703125
3.866211,9.189453,3.3984375,3.0976562,5.1748047
4.131836,11.259766,3.194336,2.7236328,8.060547
3.1982422,12.396484,3.28125,2.258789,8.719727
2.9628906,12.149414,3.0351562,2.5722656,7.848633
2.21875,10.774414,2.4697266,3.2910156,6.088867
1.7626953,9.219727,2.7949219,4.2822266,7.5078125
2.0361328,12.65918,5.1132812,5.357422,8.719727
2.140625,11.699219,5.5078125,5.267578,7.8623047
3.4140625,9.109375,5.2441406,4.583008,6.904297
4.7226562,8.317383,4.921875,5.0166016,6.267578
4.0703125,7.4248047,4.5429688,4.1845703,5.3808594
3.3027344,7.0996094,2.868164,3.0419922,3.803711
2.2148438,4.5527344,2.3535156,2.0439453,1.9423828
2.1748047,1.9765625,2.6210938,2.665039,1.7666016
2.3779297,4.586914,2.1826172,2.96875,2.5166016
3.34375,6.09375,1.7763672,3.1845703,3.1113281
3.2626953,7.3007812,2.241211,3.2578125,3.5625
3.5146484,8.165039,2.6875,3.4638672,5.0566406
3.6386719,8.767578,4.2910156,4.7871094,6.399414
3.7246094,8.874023,3.4375,4.2148438,5.6376953
4.4208984,9.291992,3.765625,3.9414062,4.868164
5.3984375,10.165039,4.881836,5.0722656,6.1523438
5.9375,11.704102,5.9179688,5.9023438,7.3203125
6.504883,12.594727,6.3896484,6.435547,8.350586
7.5126953,14.708984,7.205078,6.8251953,9.610352
8.21875,14.348633,6.2470703,7.7265625,9.760742
8.566406,14.785156,7.930664,6.9833984,9.75
8.543945,14.458008,6.3359375,6.583008,9.896484
8.166992,13.299805,7.442383,5.6689453,8.484375
8.091797,6.4384766,6.463867,5.239258,3.4970703
7.65625,2.3935547,4.1845703,3.7958984,1.6416016
5.7509766,4.7353516,5.149414,2.553711,2.2197266
3.4511719,4.626953,3.415039,1.515625,2.2207031
3.2998047,5.455078,2.3300781,2.1835938,4.15625
3.1289062,7.194336,3.696289,3.2138672,6.0820312
1.6132812,7.3740234,3.602539,3.3486328,5.7373047
2.5800781,7.8447266,3.225586,3.0322266,3.8623047
2.6044922,8.244141,3.7021484,2.9199219,4.086914
2.5878906,8.211914,3.6679688,3.1132812,3.8310547
3.2382812,8.946289,3.7207031,3.0634766,3.1152344
2.8339844,8.402344,3.4482422,3.0019531,3.4697266
3.4541016,8.669922,5.154297,4.892578,6.59375
4.236328,10.209961,6.213867,5.4501953,8.504883
4.303711,11.0234375,5.823242,5.580078,7.8554688
5.3378906,9.196289,7.171875,4.817383,6.3154297
5.5058594,7.8691406,6.504883,3.7451172,5.1660156
3.944336,7.263672,5.1679688,3.3154297,5.2246094
3.1699219,6.7773438,4.430664,3.2792969,5.0166016
3.046875,6.34375,4.4160156,2.6582031,4.6347656
2.8310547,5.5683594,3.7666016,1.9082031,4.421875
2.883789,4.569336,3.5527344,2.4941406,4.6376953
2.6357422,3.5175781,3.4892578,2.7265625,4.147461
3.0703125,3.7246094,3.2939453,2.006836,2.953125
2.7783203,4.9453125,1.7138672,2.305664,3.6103516
2.5332031,4.984375,0.99609375,2.6386719,3.5214844
2.6376953,4.4316406,1.4160156,2.3603516,3.4111328
2.5888672,3.6552734,1.390625,2.1230469,3.0791016
2.4658203,3.3730469,2.2714844,2.1679688,2.6142578
2.1933594,3.899414,3.1171875,1.8505859,2.4804688
1.8486328,3.7958984,3.821289,3.0146484,2.1689453
2.4355469,2.3154297,1.5097656,1.5322266,1.3183594
2.9257812,1.4599609,1.3642578,2.4521484,1.7167969
3.1210938,1.4208984,1.8662109,2.3261719,1.6396484
3.5332031,1.3125,2.2695312,2.5234375,1.5253906
4.3554688,2.8320312,1.9453125,2.5908203,2.3476562
4.5625,3.3515625,2.5742188,3.3320312,2.6611328
4.876953,2.8945312,3.6738281,3.7265625,3.8544922
4.7382812,4.7470703,4.145508,4.352539,4.805664
5.109375,4.888672,3.2207031,4.0566406,2.9257812
6.919922,4.790039,2.8535156,4.6640625,3.118164
7.748047,6.614258,3.2421875,4.578125,1.3535156
7.8125,4.817383,2.8085938,4.041992,1.6835938
8.326172,4.080078,3.578125,4.6103516,3.4091797
8.707031,1.8125,4.908203,5.307617,6.9335938
7.745117,2.6503906,6.3447266,5.3671875,8.472656
8.439453,4.0371094,6.491211,4.5126953,6.9052734
9.3203125,2.7167969,5.866211,3.6367188,7.1259766
7.6240234,3.3378906,6.4023438,1.7304688,6.975586
3.9472656,6.1875,7.5166016,1.2236328,7.3945312
4.1572266,6.352539,6.432617,1.3779297,7.0126953
4.3515625,6.546875,6.7333984,1.0058594,6.4570312
5.7060547,6.2089844,6.330078,2.2617188,6.895508
5.6914062,4.6748047,7.375,4.2910156,7.1289062
4.8251953,5.051758,6.9140625,3.2480469,5.951172
3.796875,3.4804688,5.220703,1.5546875,3.1621094
3.2167969,4.4316406,4.9335938,2.5439453,4.211914
3.0478516,4.526367,3.1044922,2.415039,4.9990234
6.3203125,3.2763672,2.3144531,1.6074219,5.3691406
8.839844,4.7666016,3.8984375,1.0019531,6.5791016
8.662109,3.5273438,4.5439453,1.0947266,7.751953
8.133789,2.2490234,4.4316406,1.7236328,7.4189453
5.716797,3.9296875,4.1503906,2.928711,5.395508
5.3271484,5.4189453,4.4316406,3.1591797,4.1914062
5.8808594,6.0371094,4.7109375,1.8349609,4.109375
5.680664,7.739258,3.84375,0.80859375,4.8320312
5.4746094,8.608398,3.5361328,0.80078125,5.491211
5.2353516,9.113281,2.6523438,0.92578125,6.024414
4.192383,9.425781,1.1552734,2.6914062,6.0371094
3.4267578,10.56543,1.9492188,2.9375,6.776367
4.9970703,7.2314453,4.658203,4.2402344,4.743164
5.7265625,6.9052734,4.176758,3.6503906,3.1796875
4.276367,8.917969,4.2910156,3.9423828,4.932617
4.5351562,11.048828,3.2675781,2.6279297,6.185547
5.3095703,10.696289,4.169922,3.319336,5.90625
4.830078,11.699219,4.196289,2.328125,6.723633
4.7353516,12.417969,4.7617188,4.6679688,8.390625
6.140625,12.113281,6.6914062,4.7890625,8.124023
7.3154297,11.516602,6.430664,5.4941406,7.5771484
5.0996094,13.188477,5.0595703,4.0302734,7.651367
5.75,15.3671875,5.4697266,1.9423828,9.131836
6.9492188,13.623047,5.0859375,2.694336,9.079102
6.5097656,11.314453,4.8720703,3.4238281,6.8496094
5.823242,10.228516,6.9414062,6.2753906,6.658203
7.3408203,10.643555,7.8222656,7.9677734,8.412109
7.8740234,10.775391,7.4189453,7.7001953,8.380859
5.838867,8.777344,6.548828,5.9960938,7.0585938
4.4414062,7.916992,3.1923828,4.618164,4.5683594
3.296875,8.753906,3.3632812,4.298828,4.647461
2.883789,7.9179688,2.171875,3.336914,4.098633
2.390625,6.4873047,1.8271484,3.178711,3.9521484
2.0751953,7.2089844,1.6279297,1.2226562,4.078125
3.6074219,7.323242,2.8183594,1.7910156,4.7177734
4.3847656,6.203125,3.3720703,3.0507812,3.6845703
4.1933594,5.1464844,3.5009766,2.9375,3.8544922
2.5009766,5.673828,3.241211,4.2490234,2.875
1.4082031,5.982422,4.7148438,4.5810547,4.1972656
1.3027344,7.9746094,5.3623047,4.819336,5.6210938
2.3642578,9.146484,4.0546875,4.6845703,5.9023438
3.397461,5.951172,3.8144531,4.614258,4.5253906
4.9492188,4.294922,5.0351562,4.8095703,3.8466797
5.1279297,5.213867,5.3710938,5.2939453,4.495117
3.515625,7.288086,5.4492188,5.2490234,4.352539
2.0546875,7.161133,4.182617,3.086914,3.0527344
4.1484375,6.138672,1.7802734,2.5,3.0341797
5.008789,6.395508,1.8271484,1.5400391,2.5605469
3.5107422,6.651367,2.9121094,3.2128906,2.915039
2.8417969,6.7910156,4.2929688,4.064453,3.515625
4.5751953,5.3398438,7.1123047,6.7402344,4.435547
5.140625,3.2958984,6.8447266,6.0703125,3.709961
3.8447266,1.546875,5.3964844,4.2578125,2.4990234
2.1503906,1.1894531,2.328125,2.2392578,1.2666016
3.211914,3.703125,2.6259766,2.3271484,2.0947266
5.0654297,3.4882812,2.3085938,2.625,2.6289062
6.0947266,4.716797,2.2128906,2.1269531,4.1523438
6.2001953,4.171875,2.0976562,1.0234375,4.2783203
4.6152344,3.4228516,4.236328,1.4482422,3.5839844
5.6884766,1.4765625,4.5439453,4.6601562,5.805664
7.4746094,3.0351562,4.2441406,4.654297,5.5507812
7.776367,3.2011719,3.4472656,3.368164,3.9179688
5.0507812,3.6699219,2.4990234,2.0576172,2.1845703
0.6503906,1.6494141,1.3320312,1.7998047,1.25
0.7011719,1.3339844,1.1972656,1.7871094,1.6015625
1.7177734,1.4794922,0.8173828,1.4208984,1.2802734
2.0527344,1.9121094,1.2626953,0.95410156,2.7802734
3.6210938,5.5966797,2.1523438,3.4570312,4.1308594
5.8085938,4.9921875,4.2783203,4.4521484,4.203125
3.5898438,10.056641,4.182617,3.3808594,5.8339844
3.8896484,13.270508,4.885742,5.1376953,8.151367
6.361328,13.083008,7.5498047,7.9833984,7.453125
5.9990234,14.829102,7.631836,8.145508,8.831055
6.3564453,15.014648,7.9941406,7.473633,8.9375
7.9296875,12.7578125,8.760742,7.649414,8.881836
8.298828,9.600586,8.674805,9.0703125,7.573242
6.9648438,8.073242,7.25,7.21875,5.8447266
3.5800781,9.761719,4.0166016,3.0507812,5.4882812
3.444336,10.161133,3.2861328,2.8544922,7.0429688
4.7158203,12.1015625,3.5078125,2.991211,9.137695
5.9609375,14.077148,4.540039,4.2841797,10.310547
7.7216797,15.797852,7.6123047,6.4716797,12.305664
7.9609375,13.3203125,8.557617,6.834961,9.975586
6.373047,11.394531,7.5898438,6.78125,8.623047
6.4589844,9.342773,6.6748047,5.9433594,5.5908203
4.381836,6.616211,5.209961,4.1679688,3.4277344
2.9160156,4.7460938,3.6953125,3.7421875,2.9394531
2.3730469,3.1757812,4.0273438,3.3466797,2.7607422
2.6689453,5.1396484,4.9179688,3.8095703,2.727539
2.7441406,7.536133,3.6933594,2.6513672,3.9169922
4.229492,7.9003906,3.6914062,3.8427734,6.5703125
6.711914,8.0234375,4.2246094,5.0615234,5.180664
6.828125,11.974609,5.2871094,5.5820312,7.8535156
7.1777344,12.583984,6.026367,6.125,8.722656
6.7841797,11.569336,5.805664,4.8779297,7.0097656
5.4277344,11.005859,5.1328125,4.1777344,7.3916016
5.8779297,10.881836,5.0810547,3.9316406,6.3291016
5.290039,10.058594,6.428711,5.541992,6.7773438
6.446289,11.330078,6.7753906,5.381836,7.9833984
6.548828,11.000977,7.5214844,6.2714844,8.707031
6.5498047,11.001953,7.6953125,6.071289,8.701172
4.8203125,9.342773,6.2822266,3.6845703,5.870117
4.2626953,6.810547,5.716797,3.8876953,4.7910156
3.5527344,6.6816406,4.3984375,3.0263672,4.044922
3.1445312,5.9433594,3.9941406,2.6914062,3.5927734
2.8574219,5.276367,1.8789062,2.415039,3.8144531
2.7148438,6.182617,2.8134766,2.6035156,5.5947266
2.241211,8.381836,2.3388672,3.2197266,6.9121094
4.2714844,9.05957,1.7080078,2.0625,6.8222656
3.6230469,10.439453,4.560547,3.1201172,5.946289
4.8789062,11.474609,4.569336,2.6621094,5.357422
4.8945312,11.950195,4.080078,3.131836,7.7402344
5.4179688,11.1953125,5.4228516,2.5664062,7.1171875
5.623047,12.041992,5.908203,2.9638672,8.191406
6.2871094,12.296875,7.178711,5.0009766,9.168945
7.9228516,12.935547,6.5439453,5.9404297,9.53125
7.354492,13.15625,8.038086,6.3603516,8.5859375
6.3671875,10.581055,6.8847656,5.4765625,6.241211
4.998047,10.53125,6.0097656,5.138672,6.2304688
4.6689453,10.392578,6.3945312,4.833008,5.892578
3.7539062,10.0078125,6.4091797,4.5927734,5.208008
4.4804688,9.604492,6.260742,4.2578125,5.6308594
6.3359375,9.332031,6.9189453,5.6416016,6.776367
6.0966797,9.424805,7.416992,5.7714844,7.5820312
5.254883,9.646484,5.9023438,4.4003906,7.640625
3.3759766,8.1015625,2.609375,2.9873047,4.803711
4.0947266,8.62793,2.5947266,2.9609375,3.9707031
4.84375,8.265625,2.1152344,3.3710938,5.026367
5.3847656,8.31543,2.540039,2.6484375,4.3466797
4.272461,8.575195,1.9238281,2.7353516,3.3447266
4.854492,7.71875,0.7675781,2.8271484,6.180664
6.0507812,5.3496094,2.2236328,3.171875,5.333008
5.834961,2.2148438,3.7988281,2.5322266,1.9072266
1.7128906,3.3515625,1.7089844,2.0791016,1.4892578
2.7695312,4.0664062,1.9462891,2.2402344,2.875
3.578125,5.3408203,2.53125,3.21875,2.2705078
5.3115234,6.0839844,3.2695312,3.6826172,4.5507812
5.0654297,7.6015625,5.426758,5.227539,5.3671875
6.790039,7.9414062,6.9921875,6.064453,5.4472656
8.387695,7.069336,7.020508,6.513672,5.807617
7.8935547,4.4365234,6.241211,5.8671875,4.6083984
5.5947266,4.989258,4.8066406,3.7060547,2.6035156
4.1259766,4.939453,3.2919922,3.2480469,2.5517578
