"[299, 255]","[227, 248]","[287, 319]","[279, 328]","[230, 262]"
3.4804688,4.4248047,2.6748047,3.194336,2.7529297
3.4042969,4.9521484,2.430664,3.2753906,2.8769531
3.6914062,4.982422,2.5283203,2.9990234,2.9990234
3.3847656,5.7626953,2.243164,3.4033203,3.3867188
3.0507812,6.765625,1.3056641,3.3769531,3.446289
3.3242188,5.821289,1.9619141,3.3085938,2.9013672
3.944336,4.7177734,2.0927734,3.4921875,3.274414
4.216797,5.095703,2.2021484,3.7597656,3.5205078
4.495117,5.1875,2.3515625,4.2021484,3.538086
4.9228516,5.78125,2.4335938,4.2617188,3.6455078
5.8339844,5.9257812,2.961914,5.185547,3.7841797
6.288086,8.475586,2.678711,5.5654297,4.5683594
6.149414,9.771484,2.2460938,5.2314453,5.3046875
6.458008,10.756836,2.4101562,5.5771484,5.5859375
7.399414,11.296875,2.0058594,5.666992,6.1396484
7.3095703,12.314453,1.6494141,4.9746094,8.65918
7.477539,13.15918,2.8632812,5.6503906,9.268555
7.515625,13.637695,6.2470703,6.0771484,9.842773
7.2998047,12.521484,9.680664,5.1367188,8.626953
6.381836,12.341797,8.140625,3.5136719,7.9023438
5.845703,8.535156,7.395508,4.946289,5.4257812
5.0097656,6.375,5.6660156,5.209961,4.2695312
4.7734375,6.745117,6.288086,4.024414,4.6796875
4.7841797,7.7890625,6.6757812,3.671875,5.6191406
5.4248047,9.259766,6.4433594,4.3535156,6.9658203
6.123047,11.40332,6.723633,5.455078,8.4296875
7.7617188,14.420898,7.0996094,5.333008,11.387695
9.8671875,17.475586,10.291992,7.6123047,12.805664
10.860352,17.333984,11.014648,8.928711,13.097656
9.62207,17.417969,11.8671875,9.140625,12.350586
10.2578125,14.231445,10.879883,9.713867,10.169922
8.444336,13.447266,8.962891,8.400391,8.6796875
8.78125,13.0078125,8.977539,8.611328,8.543945
8.5078125,13.428711,9.279297,8.508789,8.890625
8.229492,12.685547,8.125,8.708984,8.444336
8.125977,12.592773,8.594727,7.993164,8.123047
7.9501953,11.387695,8.172852,7.314453,7.96875
6.46875,10.043945,8.025391,6.2197266,5.8466797
4.5507812,10.50293,5.9492188,4.756836,5.794922
4.0439453,9.558594,5.2070312,3.6611328,5.1416016
4.088867,9.785156,3.9707031,3.0146484,6.5595703
5.0839844,11.869141,5.0664062,3.1367188,9.116211
6.8291016,14.669922,6.510742,4.8515625,10.7734375
7.3603516,14.201172,10.033203,6.100586,10.036133
8.152344,15.606445,10.324219,6.7626953,11.505859
9.030273,16.555664,10.826172,7.301758,12.073242
8.501953,14.75293,9.643555,7.3320312,10.016602
7.1621094,11.052734,4.546875,4.4414062,6.7109375
5.276367,10.421875,5.609375,5.663086,5.9414062
4.9277344,13.545898,7.475586,8.029297,8.760742
6.0214844,15.790039,8.608398,8.147461,9.707031
7.5273438,17.401367,9.603516,9.551758,11.734375
9.511719,17.286133,10.870117,11.02832,12.390625
8.935547,16.121094,11.561523,11.390625,11.380859
7.0751953,12.4453125,10.038086,10.716797,8.722656
5.2597656,11.012695,7.0078125,7.84375,7.1972656
5.798828,10.191406,6.4677734,4.3134766,6.823242
5.2460938,5.633789,7.817383,5.5625,4.510742
5.4658203,9.826172,6.301758,4.4521484,5.5410156
7.225586,13.364258,3.234375,3.444336,9.412109
6.8085938,13.043945,6.9472656,2.7314453,9.037109
6.7617188,11.583984,6.0859375,4.3808594,7.665039
5.7089844,13.741211,6.3671875,5.658203,8.675781
7.2509766,12.2734375,6.1748047,5.260742,6.836914
5.5898438,10.873047,4.9277344,4.5478516,5.4248047
4.216797,10.740234,4.5273438,5.1054688,5.7197266
4.1601562,10.96875,5.076172,4.798828,6.001953
5.4179688,12.568359,5.975586,5.5185547,7.6601562
6.6845703,12.259766,6.620117,6.640625,8.154297
6.0634766,12.402344,6.6123047,6.8007812,7.600586
6.455078,12.853516,6.243164,5.7333984,8.467773
5.408203,11.59668,2.8476562,4.4521484,6.6396484
3.4707031,10.402344,1.9042969,2.9394531,5.538086
3.741211,9.446289,1.9404297,3.28125,4.5654297
2.8886719,6.6367188,1.7978516,3.4902344,3.055664
1.8066406,5.0996094,0.8828125,1.8867188,2.4394531
2.9882812,5.0820312,0.75,1.1132812,3.0761719
2.274414,5.9853516,2.9404297,1.8945312,2.9648438
3.1347656,7.223633,2.0605469,2.6152344,3.7314453
3.8691406,8.879883,1.7607422,3.2617188,4.6328125
4.538086,9.677734,2.1669922,3.5117188,4.6210938
5.2226562,10.369141,2.7539062,3.8808594,4.776367
6.4873047,10.626953,3.3183594,4.7226562,5.979492
7.411133,10.330078,4.03125,5.0878906,6.6279297
8.248047,11.21582,4.375,5.263672,6.6679688
8.571289,12.188477,4.564453,6.430664,6.0253906
9.374023,13.694336,5.2060547,6.977539,6.338867
9.896484,13.2734375,5.8896484,6.75,6.305664
10.6484375,10.350586,5.083008,6.28125,7.408203
10.970703,4.7695312,4.993164,5.020508,6.0351562
10.2109375,2.3154297,4.794922,4.8935547,2.8876953
9.37793,3.4355469,3.055664,5.0654297,1.8867188
7.7373047,3.0019531,3.881836,4.7539062,1.9589844
7.086914,6.020508,3.4160156,4.625,2.9628906
6.245117,8.303711,3.8632812,5.7402344,4.765625
6.001953,10.099609,4.333008,6.053711,6.395508
5.649414,11.02832,3.2373047,5.46875,7.553711
6.0908203,12.301758,3.8544922,5.913086,8.71582
5.7216797,9.251953,6.2734375,5.3154297,6.439453
3.7207031,7.5458984,6.015625,4.6972656,4.828125
3.5898438,7.314453,5.1552734,4.201172,5.2490234
3.055664,6.5185547,4.0234375,3.725586,3.8740234
4.7802734,9.365234,3.8691406,4.0234375,5.283203
7.8466797,14.7734375,5.5195312,6.03125,10.575195
8.075195,15.824219,10.046875,7.8320312,11.052734
6.2353516,12.43457,10.026367,9.792969,8.505859
4.7617188,10.368164,7.006836,8.71875,6.263672
3.8984375,10.907227,6.8740234,6.805664,6.09375
5.0585938,9.303711,5.1865234,5.756836,6.1054688
3.8359375,8.232422,4.859375,4.0947266,4.276367
4.0722656,6.495117,5.8066406,3.6699219,3.3115234
5.0478516,8.912109,4.135742,3.5585938,4.6416016
6.8632812,8.255859,3.1875,4.211914,4.7216797
10.655273,11.025391,4.711914,5.209961,8.885742
10.704102,11.913086,8.7109375,6.473633,5.9726562
5.9833984,11.066406,7.0195312,5.8867188,7.4365234
5.6777344,8.94043,3.5517578,2.8935547,6.5742188
6.0625,19.742188,5.979492,5.489258,12.754883
11.076172,18.691406,10.359375,9.515625,12.363281
10.988281,17.083984,9.905273,9.665039,10.863281
8.884766,14.482422,8.392578,8.774414,8.576172
6.5283203,13.040039,7.3115234,5.7871094,7.2958984
4.8964844,11.360352,5.3691406,4.352539,6.2998047
7.451172,15.927734,5.4140625,5.323242,11.008789
9.288086,15.436523,8.321289,5.201172,9.844727
7.0634766,13.996094,6.59375,5.125,8.236328
5.5351562,14.100586,6.555664,5.8984375,8.786133
5.3134766,15.7734375,7.067383,6.2910156,9.212891
6.461914,16.176758,8.526367,7.446289,11.066406
8.2734375,16.951172,10.567383,9.984375,11.126953
8.014648,16.666992,10.305664,10.288086,11.591797
9.889648,17.917969,11.602539,12.010742,12.420898
10.733398,17.754883,12.788086,12.978516,12.803711
9.40625,15.481445,9.586914,8.875,10.636719
6.734375,11.0078125,7.010742,6.9716797,6.307617
4.557617,5.9658203,4.9960938,4.0009766,3.1259766
2.7802734,5.25,2.5117188,2.8251953,3.0410156
4.352539,9.416992,2.625,3.883789,4.703125
7.5410156,13.005859,4.029297,5.286133,6.5595703
9.8671875,14.457031,5.9501953,7.6367188,8.254883
9.975586,14.751953,8.491211,9.012695,10.46875
9.908203,15.654297,7.8623047,7.2822266,11.77832
10.359375,14.485352,9.989258,8.066406,10.421875
7.6484375,10.899414,8.514648,6.466797,7.53125
4.823242,11.09668,5.548828,4.4677734,6.588867
4.7871094,11.285156,4.4902344,4.151367,7.4414062
5.7841797,13.634766,6.390625,4.7314453,9.15918
6.642578,12.439453,7.5927734,6.2216797,8.600586
7.0810547,12.925781,8.154297,6.4179688,9.670898
8.918945,15.767578,7.4765625,6.96875,10.137695
12.405273,19.419922,10.412109,9.6875,13.96875
9.636719,18.871094,10.150391,8.8359375,12.339844
11.714844,21.799805,10.12793,7.069336,16.375
11.499023,18.792969,12.750977,12.322266,14.020508
8.504883,16.077148,11.793945,11.381836,10.233398
7.6621094,14.733398,10.020508,8.969727,9.677734
7.118164,14.738281,8.3828125,8.091797,9.900391
6.584961,17.576172,8.482422,7.1464844,11.168945
8.459961,17.947266,7.294922,6.2685547,11.896484
9.108398,16.844727,6.5117188,6.611328,11.220703
8.728516,16.219727,7.6279297,7.9003906,11.783203
9.167969,16.048828,9.033203,9.131836,12.333984
9.43457,15.995117,10.293945,9.96875,12.50293
9.237305,14.707031,9.658203,8.728516,11.161133
9.859375,14.1953125,8.519531,7.9941406,11.082031
9.800781,13.59668,8.869141,8.00293,10.121094
9.371094,14.810547,9.658203,9.116211,10.323242
9.717773,14.480469,9.451172,9.416992,10.141602
9.911133,13.69043,9.285156,9.37793,9.635742
9.633789,12.793945,9.053711,8.293945,8.374023
8.626953,12.467773,8.026367,7.4033203,8.073242
7.930664,12.643555,6.7089844,6.551758,8.615234
7.8691406,10.671875,6.779297,6.864258,7.5966797
6.6953125,9.689453,6.6035156,6.3779297,6.109375
5.0654297,8.269531,6.4472656,5.8398438,5.015625
4.6240234,10.431641,5.8125,4.8652344,6.3789062
5.9365234,13.000977,5.1953125,4.538086,7.928711
6.6865234,13.25,5.2089844,5.1308594,8.174805
6.004883,15.487305,5.7246094,5.5214844,9.5234375
5.5654297,15.022461,6.180664,5.779297,9.769531
7.463867,14.610352,8.171875,8.018555,9.99707
6.616211,12.897461,8.740234,7.567383,7.9589844
6.0566406,11.098633,6.774414,6.1884766,6.498047
4.915039,9.59082,3.7197266,5.458008,4.7001953
4.4033203,7.6435547,1.0869141,3.5527344,3.538086
2.9541016,7.290039,2.71875,2.7685547,3.4511719
2.8242188,8.124023,4.948242,3.2197266,4.7539062
3.1992188,9.692383,5.3740234,3.4414062,6.294922
5.010742,12.383789,8.28125,5.276367,9.744141
6.158203,13.5078125,8.744141,6.963867,10.293945
6.341797,13.602539,8.96875,6.2128906,10.383789
6.504883,13.572266,7.9785156,6.4921875,10.130859
6.3378906,13.203125,9.100586,5.314453,10.041016
6.1376953,12.696289,6.4960938,3.3310547,10.266602
5.930664,12.106445,10.197266,7.1279297,10.625977
6.458008,12.756836,10.672852,8.707031,10.355469
6.75,13.40332,9.852539,6.4375,9.287109
6.629883,13.896484,8.541016,6.5371094,10.288086
6.7871094,13.844727,7.4453125,5.7958984,11.12793
7.133789,12.853516,7.7353516,4.9560547,9.446289
6.9121094,9.239258,7.4990234,5.279297,6.8203125
6.2285156,9.083008,6.6972656,4.791992,6.404297
5.0351562,8.056641,3.2373047,2.2919922,5.2773438
5.711914,10.623047,4.7646484,3.9404297,7.029297
6.8095703,12.508789,6.576172,5.6376953,8.610352
6.4052734,12.308594,6.9658203,6.798828,7.5253906
5.770508,11.830078,7.140625,5.7021484,6.9716797
5.008789,11.589844,6.3134766,5.330078,6.321289
4.567383,11.890625,6.064453,4.682617,7.4228516
5.848633,14.270508,6.2851562,4.158203,9.87793
7.555664,15.140625,7.8222656,5.5341797,10.799805
7.7109375,14.545898,9.949219,9.081055,10.578125
8.504883,12.746094,9.112305,9.219727,9.65625
6.8554688,11.2421875,7.875,8.446289,7.541992
6.682617,11.080078,8.1171875,8.203125,6.8867188
7.0664062,13.379883,8.4453125,5.442383,8.4921875
7.310547,12.947266,8.614258,7.626953,9.577148
7.5429688,10.802734,8.449219,9.673828,8.045898
7.953125,8.1875,7.7783203,9.280273,7.689453
9.613281,7.8867188,7.1728516,9.4375,7.283203
9.393555,10.136719,8.433594,7.1640625,6.973633
5.901367,8.376953,7.9648438,4.515625,6.107422
4.064453,9.666992,7.3251953,4.435547,5.9960938
4.9628906,11.53125,5.5751953,4.0791016,7.4345703
6.1835938,12.347656,4.020508,3.086914,8.196289
7.629883,12.99707,5.1132812,2.2216797,8.931641
7.7539062,13.44043,5.1347656,2.444336,9.051758
8.369141,15.0703125,1.9335938,2.9345703,10.050781
7.955078,14.360352,4.5820312,3.8603516,8.477539
7.5039062,8.775391,6.251953,6.2246094,6.3476562
6.848633,8.410156,5.948242,4.5410156,5.986328
5.9785156,10.046875,7.163086,5.5820312,5.9941406
5.0429688,8.529297,5.026367,4.4882812,4.6933594
3.3183594,7.274414,4.823242,4.0126953,3.4101562
2.2714844,5.428711,4.1708984,2.7832031,2.5986328
2.4472656,6.0615234,4.3710938,2.7304688,3.5126953
2.9824219,7.526367,5.7001953,5.4472656,5.873047
3.3867188,7.078125,6.1220703,3.8554688,4.5195312
3.5800781,7.9140625,6.3085938,5.963867,5.8623047
3.3447266,8.360352,5.208008,6.397461,5.2529297
