"[299, 255]","[227, 248]","[287, 319]","[279, 328]","[230, 262]"
2.6826046,4.6660542,1.7597823,2.329081,2.7412393
0.65827143,-0.091632664,1.7735391,0.97372824,0.9395493
0.73155165,4.3751516,1.6319716,1.1358669,2.3487632
-2.0740974,1.1534443,-0.77329755,-0.75671744,-0.0711745
2.45806,5.440533,2.8575163,1.8975384,3.4375732
3.784205,7.579153,3.6592383,3.2588134,5.038139
2.422895,3.4668732,2.6582866,2.0176446,2.260796
6.1269565,11.275427,5.0703416,4.7607365,8.289112
4.7988605,1.2530308,3.5488658,1.3017617,0.904368
-1.6952709,-5.321191,-0.31049034,-0.9022775,-2.000924
3.1015959,4.932768,3.0118396,2.7559505,3.4678535
3.0772047,6.1368437,1.919046,2.502024,3.6153152
4.6181593,10.337941,7.6104307,5.6396646,7.1641192
2.7324522,0.87998605,1.9785802,0.9111775,1.2266288
1.0840263,-4.692248,-0.4081531,-0.84567124,-2.9979696
-3.7978187,-11.027333,-3.3964186,-3.7421105,-7.7646337
-2.53906,-7.785151,-1.1259377,-1.3222351,-4.4736223
-1.7851516,-9.862273,-2.2226093,-2.947221,-6.016575
-2.504876,-7.4277453,-2.7450562,-2.9208443,-4.6718707
2.307591,7.8818274,2.6836224,2.5732143,4.0859394
5.8427377,13.275384,3.5195255,5.0370665,8.958033
8.037012,13.682535,4.774373,5.2929063,8.807592
1.082008,-1.2938805,1.6015713,1.8134604,0.39847124
6.4345107,9.721678,5.3075614,4.968675,6.628903
2.6855407,1.9141712,2.0078218,2.359354,1.6055064
2.7850358,3.012571,1.7909234,2.8349018,1.2186455
1.0770441,-2.7441318,-0.1886156,-1.0655097,-0.32621923
-0.98241925,-6.9072356,-2.2558825,-3.1982377,-4.8222985
-0.4658286,-5.316431,-0.72068566,-2.2412066,-3.6728752
2.4628432,3.6317983,1.2411839,1.9091585,1.6757616
-0.13676482,-1.8066791,0.09569199,-0.655255,-0.7578345
3.998982,8.445271,1.3827875,2.4149976,4.304668
4.657243,7.5733275,3.896531,3.2792866,5.231519
4.8721023,7.2842464,4.301822,3.0029545,5.0440073
2.6181474,2.7314618,1.0370764,1.040022,1.4238343
0.65533435,-2.6053936,-0.10345067,-0.8114625,-0.75189894
-1.1054024,-5.0223265,-0.5966216,-1.2343125,-2.1590996
3.8368819,6.592731,1.725575,1.8749887,3.2646253
1.349541,-3.551796,-0.77250576,-0.392609,-2.6728928
-1.1913002,-6.639485,-4.0780435,-4.536078,-4.045796
-3.6210735,-7.788092,-3.2548294,-3.736283,-4.982419
0.6279151,0.48831025,-0.4804491,0.20802696,1.25587
-1.0586083,-0.99709713,-0.10252791,-0.78807175,-0.76857316
3.152316,7.800768,2.0253909,3.006808,4.3632717
4.498008,8.20899,2.219706,3.2440913,4.971694
3.659213,7.753987,4.104549,3.1630847,5.239332
0.9424304,3.0410852,2.1768546,1.7178336,2.0400958
2.05669,4.7100687,2.2832787,1.7695786,3.090903
-0.9658061,-1.9335428,-0.50878054,-0.7704981,-0.87399244
6.3573465,11.534145,3.9628563,5.114201,7.7822266
4.9677796,8.279379,4.410179,4.0234404,5.659235
-0.37985286,-3.467665,-0.16402395,-0.24606605,-1.7860739
1.216839,2.3877816,1.6787568,1.1240541,1.8301299
5.2519035,9.462878,4.216746,4.344664,5.9912095
-0.5664959,-3.0176454,-0.71982014,-0.9951712,-2.138744
-7.3184037,-12.455145,-5.1455173,-5.9072447,-8.889708
-4.773449,-8.842806,-3.6308172,-3.9091423,-6.1797147
-2.356403,-6.1854854,-2.2343187,-2.8690782,-3.3495631
-3.3711066,-4.841841,-2.5771418,-2.9501898,-2.9853885
-1.0703815,-0.532312,-0.7314645,-1.1621377,0.4032456
-1.930712,-3.0059574,-0.7978296,-2.0332065,-1.2168698
-1.5742112,-2.170889,-0.45213458,-0.59470725,0.1318593
-2.181619,-5.6171784,-2.7489746,-2.7782764,-3.45019
-1.7568376,-1.641617,-0.94333684,-1.8310299,-0.57323784
-1.5839893,-2.721679,-0.6074025,-1.770477,-1.1620965
-1.5800097,-5.400274,-1.3993454,-1.9413201,-2.496018
-0.5409551,-0.9442273,-0.010664641,-0.34953937,-0.07610719
1.8837678,3.512675,1.6113513,1.5068434,1.4804599
-0.7841784,-1.8789077,-0.048812162,-0.12889847,-0.6796707
3.267523,6.344687,1.4442922,2.7821755,3.134742
4.043728,7.555452,2.405077,5.9236665,1.0340093
1.299568,7.2772317,2.956792,6.167821,1.9676563
3.4569352,7.5751605,1.7537581,5.2157507,4.1767383
4.045831,6.2216268,1.7929138,3.212838,3.2919583
2.6815603,4.53414,0.9256622,4.4559946,3.124982
2.3173459,4.581039,1.5223873,3.3915715,3.0527353
-0.7021566,1.1826205,0.43163067,0.14257851,0.52052
1.0624949,0.96776235,1.7519643,0.4540901,0.8857379
6.8212156,12.247,4.7020855,5.0721908,8.371067
2.148494,3.1436882,0.6953159,1.4121205,1.6045853
1.6494714,4.8252697,0.009807565,-0.7441189,2.9473193
5.15813,9.695258,3.070249,3.9042242,6.426733
3.7099094,4.927738,2.8847313,2.6064014,3.467784
3.5643942,6.2812066,1.7089185,3.409112,3.947244
5.0399246,7.1317163,2.5594637,4.5877876,2.38176
2.4364953,5.1533494,1.6327636,3.4042547,2.9531476
4.3212337,7.3632245,3.0400052,3.321242,4.0780964
1.4238158,0.34565422,0.9277128,0.04784329,-0.15141872
-0.8476277,-4.947232,-2.3856988,-2.3837516,-2.792946
0.7236404,1.0331956,-0.42189106,-0.6660327,0.5976532
2.9950998,5.4180036,1.9189197,2.0331683,2.7285278
-1.2880875,-4.058549,-1.7773235,-2.5400372,-1.9619217
-1.1445353,-4.3262057,-2.2021768,-3.3056755,-2.4707346
-1.9063095,-2.4707956,-0.51469505,-2.423857,-1.4141469
1.4344769,0.36319762,0.40525085,0.7490064,-0.595789
4.580971,-2.6202114,0.8544155,-0.88285667,-1.4229444
0.99704325,-4.813421,-0.14750655,-0.538114,-2.0400312
-0.8895635,-12.483222,-4.5077395,-4.747008,-8.0926695
-4.729419,-11.550646,-5.0653567,-4.4511104,-7.2147517
0.6308467,0.49507916,-0.20705016,-0.48633453,-0.017616821
0.3308696,-0.6534086,1.0633389,2.8436775,-0.096817285
1.3241507,4.8905764,1.4511149,2.4755554,2.1669545
-1.3272367,-3.3819096,-0.8652803,-0.75979614,-2.174865
-7.1749063,-9.829179,-2.4775605,-4.1836357,-5.819383
-1.5361123,0.04302052,0.8486659,1.0966905,0.06645919
2.1992762,6.269626,4.1710205,2.4268663,4.0869975
1.2383704,7.288189,3.0430763,2.8086681,5.128996
1.8672587,5.1055484,2.4493303,1.6407018,3.69051
2.433532,2.5302567,2.8447223,3.1562347,2.4062338
0.023473125,1.0605723,0.33306155,0.34574243,0.50589234
-1.094716,0.34963343,1.579167,1.347715,0.44045666
2.5185935,4.8692303,2.925837,1.562532,3.153386
-5.326073,-10.759631,-5.90322,-5.698146,-7.2596755
-2.35541,-2.768452,-0.76945406,-1.2694421,-1.5223802
-1.0897173,-0.59452677,-0.5828511,-1.2566842,-0.74496657
-3.5780494,-5.6747036,-3.4989498,-3.3719883,-3.6102815
-0.79098463,-0.30951196,0.5400737,0.29396626,-0.361279
-1.7284939,-0.3828033,-0.6972309,-1.2997756,-0.65039855
1.1786766,-0.92090577,0.32520726,-0.33593166,0.13764799
1.4306216,-0.4980614,0.99605733,1.8935324,0.3534682
1.2626319,-0.78907937,1.5966713,1.6855242,-0.06839381
1.6874624,-0.63281983,2.210934,2.0126681,-0.23537621
0.6854752,-2.6562626,1.6356808,2.1103265,-1.2617633
0.044897195,-2.6054478,1.4061943,1.2148254,-1.8437468
2.6903942,3.3232806,2.2802777,2.9638562,2.7060795
3.4111078,1.9541421,1.9882798,2.4511557,2.185565
3.8925583,6.444336,1.8837872,2.7802505,4.4502063
0.0029500907,0.06350504,0.61723286,-0.41695532,0.08109847
-4.054619,-8.32026,-3.2928889,-3.2489355,-5.4589334
-3.765599,-8.510733,-3.8144147,-4.0565996,-6.1210747
-3.700128,-8.115148,-3.6679015,-4.117122,-5.6044226
-2.776352,-5.349608,-2.4296503,-2.2958608,-3.1523404
-1.2519095,0.07525561,-1.225522,-1.2470088,0.3848082
0.27536708,0.5156284,0.25094745,0.8320072,1.1093512
3.2196348,5.378842,3.1512861,4.205012,3.5644093
2.4520805,-1.9091697,1.3827571,3.2196822,-2.067372
-1.3584087,-4.3573976,0.09470044,0.26660302,-2.6533182
3.1385925,5.3339314,2.309491,4.0048213,3.4472299
2.2558472,2.044009,1.0263146,2.4862854,0.50199336
-0.37979212,0.17202526,0.06549617,-1.4286455,0.13388918
-1.991185,-4.4276986,-2.7011404,-2.680647,-2.957994
4.2206984,9.108432,4.0683804,4.30468,6.466835
2.864307,5.328263,3.023506,2.1621542,3.759855
3.0088232,5.910222,1.5742334,2.0605505,3.8769977
1.7664975,1.0985509,0.9559523,1.8710139,0.52628565
3.6445043,-2.3017464,0.7606997,0.048793156,-2.0273445
0.78612363,-3.493177,-0.50095266,-2.1484318,-3.023452
4.861299,7.6601915,4.434557,4.610323,4.845722
4.9902163,6.1367254,3.6435544,3.742178,4.1093845
0.06629658,-3.164136,0.80070966,0.95502895,-1.855548
-1.0723653,-3.2285595,0.13077736,-1.2090112,-1.79893
1.89934,1.7158047,0.040963836,-0.32230386,0.8974126
6.277337,12.137754,6.742177,5.9355187,8.607467
3.0956964,6.1338034,3.1181881,3.182632,3.813489
2.1649532,1.3202667,2.135681,2.9433026,0.35052064
0.9968871,-1.2559458,0.95593745,2.8847115,-0.5890055
0.14436574,-1.772514,1.6590536,1.8300602,-0.944475
0.26647738,-2.0595875,1.3690464,3.1493855,-0.5518432
-0.20808372,-3.502989,1.1493431,-0.07620093,-1.2842518
-1.1944201,-2.9141178,0.7557859,-1.8252358,-1.7227657
2.4052231,4.134768,1.8993869,2.6630664,1.88769
0.88095117,2.544103,2.2520666,1.9376014,1.7345084
3.9814675,8.392603,2.7422326,2.9697573,5.6953397
4.7598,10.376081,5.382873,5.13382,7.692468
5.151445,11.244286,5.734484,4.643637,7.7774544
6.5557246,9.9152,5.560615,4.775437,6.774529
-2.6004817,-5.7693605,-2.1707735,-2.2430377,-2.8289738
-1.0184648,-4.259599,-1.6502817,-1.2977433,-2.101444
-2.1757174,-2.2157135,-1.8475823,-1.5585234,-1.619073
4.140593,9.640558,2.2675645,3.3974302,5.680629
5.273411,7.559577,3.2177572,3.1337485,4.8564587
0.31061235,-0.44423512,-0.010692791,-0.3808048,-0.36418498
-0.9276759,-5.5262475,-0.8202916,-1.5234119,-3.2977753
-1.4179009,-0.49891347,-0.64248973,-0.7411261,-0.6288279
6.471659,11.889672,6.4209166,5.2831855,8.278351
4.0635395,8.753055,4.7334733,3.7598202,5.8526263
4.765667,9.249137,5.271549,4.4853916,6.2207785
2.2881615,4.58413,3.094823,2.1035993,2.8672812
4.8584347,9.739352,5.30084,4.358433,7.056713
5.0303593,10.361498,5.469836,4.0147257,6.943481
-0.41105288,2.5606601,-0.26943162,-0.7831104,1.0127791
5.334985,11.718823,5.5264015,5.6650486,8.305727
2.228626,5.8986,2.8565693,2.1036208,3.8311841
-0.31146178,0.4903315,0.7237319,0.6387568,0.62506676
-1.917946,-4.2314577,-1.6357126,-1.4833564,-2.822272
1.7450553,-1.4199269,1.3339804,1.2001897,-1.3799154
1.9628145,-0.79494554,1.8603106,2.5292556,-0.12800232
2.1209962,-0.6874964,1.7499468,3.2489908,-0.7041301
1.4052178,-1.8681554,1.0625014,0.73143286,-1.0683746
1.0263196,-2.2460928,0.8974262,1.2187363,-0.69728637
0.28998446,-0.8330177,1.0087355,2.3749714,0.24898145
0.8466186,-0.6171951,1.6610909,2.765596,0.16013299
-0.01958345,-1.0497994,1.0175369,1.4492022,-0.51957387
-0.14556897,-2.6816993,0.96772367,2.4091575,-1.6729196
-2.560667,-3.6807303,0.5546269,-1.4668409,-2.4815063
-3.0782764,-6.0743356,1.2918954,-2.63383,-3.4112387
-2.319474,-5.808712,0.84950286,-1.1474996,-3.832141
-3.0304012,-6.099709,1.363201,-3.5254452,-3.528427
-2.3751867,-6.272574,1.8827007,-1.4492673,-3.2999287
-0.908377,-4.6836724,2.5780087,-0.58009607,-2.729647
-1.9385835,-5.4659133,0.3309759,-3.0166488,-2.508912
-0.7695261,-3.2041266,-0.36326015,-1.6728305,-1.8438148
-0.43367597,-3.1572375,1.1796013,0.8368783,-2.6553104
-0.2324263,-3.9472325,1.3232355,-0.7754063,-3.8447082
-2.320327,-5.5781717,-2.783203,-3.2900383,-3.6533477
-1.1649761,-5.5526724,-1.4316103,-2.2567964,-3.9765098
-1.879819,-3.22552,-1.5517,-1.5126256,-2.4394064
-1.0517215,-4.235309,-1.041024,-1.4999887,-2.7665677
-2.2607589,-4.84178,-1.363276,-2.1328137,-3.302737
-0.49215862,0.12014426,1.3877331,0.5928065,0.40335456
-1.1317878,-0.931589,-1.4335443,-1.5321826,-1.1669612
-1.7099249,-1.4491998,1.568389,-0.20309703,-1.5693156
-1.7079611,-2.6035173,-0.3622897,-0.4501799,-1.8134658
-0.3379591,-4.3779263,0.4589117,0.51071304,-3.1640728
-1.2490349,-3.0380588,0.8398199,0.23143865,-2.786129
-0.026424354,-5.82219,0.665968,-0.9511923,-3.48826
-0.5429705,-7.254843,1.0625201,0.22658631,-4.8329744
-1.4462465,-3.5487626,-1.2236074,-1.294886,-2.2704666
1.3017927,6.7490783,2.8838344,2.8076403,4.913128
2.1582491,2.0762362,0.32035807,-0.25777918,0.3496494
-0.46969637,0.65140116,0.2910763,-0.35150582,0.044950966
-1.5380585,-5.2382445,-0.07324405,0.10157801,-3.9101264
-1.9696546,-2.8251183,-0.8710515,-0.9677224,-1.7421263
-1.074177,-3.6336837,-1.6884279,-1.7567836,-3.0448472
-3.0809917,-4.335893,-2.6142008,-2.808521,-3.0722277
-2.2450604,0.29203793,-1.0077721,-1.1327554,-0.34174553
-1.9413693,-1.4648128,-0.765602,-1.1044539,-1.8554461
-1.9237915,1.8271742,-1.0439065,-0.52535826,1.2471033
-2.0790827,-2.165018,-0.23730774,-0.6054469,-2.1210816
0.45115668,-4.025384,1.8662027,0.9687566,-2.6161985
-0.1328149,-0.531259,1.0517856,-0.04391566,0.3642386
1.2597271,0.14453715,1.3144649,1.2822316,1.3818246
3.1366923,0.93945676,2.257837,1.9502022,1.9638753
1.4462087,-5.286208,0.325149,0.67283726,-3.4033728
-0.563596,-2.69142,1.5145413,2.338852,-1.7364002
0.51745707,-2.090825,1.0819252,3.7157815,-1.0029806
-0.42491648,-0.23932317,1.4510634,2.668922,-0.9366331
-0.89558625,-2.2012312,0.7879819,-0.69729686,-1.4590856
-1.2402611,-3.744153,0.5067958,-0.5400463,-2.2715013
0.30075353,-2.144529,0.75483674,0.38962796,-1.6757944
1.8260803,2.0819974,1.093661,3.1161654,0.8427591
3.0526621,5.27344,1.6883652,3.1190648,3.1435487
2.4180422,3.0441067,2.587956,2.1279762,2.3165183
-1.4970186,-1.3690786,-0.89640266,-0.5165216,-0.65718484
0.28711295,2.4394877,1.0488379,1.13965,2.250989
0.29790306,0.3897488,1.7666515,0.6260245,-0.14934233
-1.0468192,-1.6688659,-0.75289583,-1.1093435,-0.62298954
-0.34278825,-2.8281622,0.8622583,2.0527146,-2.2597837
0.31832495,-4.3652577,0.53415734,0.45312566,-3.341803
-1.5605056,-6.260722,-2.1513245,-2.2343278,-4.44041
-2.455029,-5.9355235,-2.2040644,-2.3202543,-4.879847
-1.7030739,-1.0204709,-1.2489927,-0.8563859,-1.1942922
-2.0263116,-3.7665603,-1.6181041,-1.7440736,-2.525359
-1.7030891,0.46294063,-0.80366486,-0.6142114,0.40922886
-0.382794,-0.39353958,-0.16791555,-0.19332153,0.11623502
2.354446,5.275368,0.8163537,0.44040936,2.3788877
0.7021467,-5.509725,-1.3730572,-3.0126998,-4.3085604
-1.449208,-5.967723,-1.5575807,-1.5009369,-3.7069993
-1.742165,-4.6503563,-1.4316087,-1.0946939,-2.8603268
-1.5985953,-3.6210246,-0.47845617,-0.969668,-2.3788521
-2.9287024,-5.8144145,-2.3154042,-2.4433212,-5.487276
-2.9189656,-5.4423685,-2.3896601,-2.6435618,-4.457992
-1.4052955,-1.9003747,-0.17384356,-0.5380792,-1.4394605
-0.857401,-0.2870918,-0.27341703,0.20509908,-0.08200467
-0.6161836,2.5937905,-0.17280126,-0.18354279,1.715861
-2.5322475,-4.365235,-0.8623364,-2.0605745,-2.7265713
-2.16019,-2.2968733,-0.4042831,-0.8818125,-0.5967196
-1.1269361,-0.777342,-0.034156673,0.5517674,-0.62399876
-1.2304622,0.72169983,1.4082346,0.78615695,1.3701413
-1.5810493,-0.5576087,-0.025374202,-0.18358298,-0.4599533
-1.3115097,-1.998028,-0.7050619,-0.1552622,-1.3037056
-0.48142898,-3.50387,1.1894779,0.3857518,-2.744108
-2.1406498,-4.1621127,-1.3232646,-1.9336091,-3.6093774
-1.1718774,-1.9482623,0.27735963,0.20411144,-1.4258059
-2.3534753,-3.8056593,-2.067337,-2.2147915,-3.082022
-1.4218607,-5.3183455,-1.6816037,-1.7235954,-4.323234
-1.7382586,-4.087891,-1.9208525,-2.3095171,-3.8046842
-1.9530939,-1.8056421,-1.5312003,-1.6005256,-1.5742012
-1.4443115,0.4912479,-0.30171564,-0.15425327,0.11917632
-1.1249776,1.6670282,0.16413338,0.195376,0.6973013
-0.20505656,2.286168,2.3741014,1.3506516,1.8633183
1.9755619,3.1630952,2.7695706,2.4424062,3.1875157
6.066344,7.1503997,4.611302,5.0790653,5.421887
3.0391223,5.1661525,3.677814,3.0615792,3.6602561
0.8399285,2.0226157,1.5762746,0.9454102,1.3760757
0.90727377,2.3350668,2.286212,1.4688246,1.7012423
-0.18745004,-0.21768866,0.9082867,0.40730006,0.16998588
-1.0410066,-0.47167727,0.14946489,0.041064072,0.63087076
0.81931514,0.47168347,1.5820599,1.5380933,1.1679572
1.8104967,-0.7587989,1.7050743,2.167962,0.48240232
1.1288118,-1.2851948,1.8456479,2.7187154,0.13274123
0.869059,0.3242093,1.4843104,2.8320029,0.9101153
3.136749,5.66804,3.4932058,3.1845872,4.17584
0.7529695,-0.6444339,0.92972606,0.59476656,0.014711465
0.5069025,-4.3230743,-0.39152047,-0.96281314,-1.4793799
-3.163998,-10.347514,-3.3495495,-3.836844,-6.0262756
-0.24020407,0.33797687,0.39066812,-0.11911612,1.0820879
1.599636,5.5655165,2.704158,2.3183734,3.4131489
-0.8153907,-1.2919279,-0.15619542,-0.055615317,-0.34174654
-1.0791276,1.9697385,1.1406281,1.3515613,1.0976495
0.93358856,3.292029,2.044948,2.5869217,2.7383049
-1.8691148,-5.040023,-1.8310083,-1.9150014,-2.5663795
1.1855755,-0.40615758,1.2871586,0.80764663,0.6836587
-3.399338,-8.938376,-3.4139774,-3.6747153,-5.47453
-2.8994162,-8.298816,-1.9540695,-1.796844,-5.4970517
-1.590858,-1.8867328,-0.3213126,-1.5390738,-0.8525594
-0.5567071,-0.08209795,-0.6250423,-0.1133135,-0.09481952
0.91396165,1.4745033,1.3856562,2.1991453,0.875856
-1.0538015,-0.9590997,-0.50397635,-0.5137393,0.11707052
-1.8682553,-1.6612406,-2.0938256,-2.3613873,-1.3311738
-1.9629629,-3.2081115,-1.5889345,-1.7568862,-1.2872055
-2.1895356,-4.728628,-1.0381542,-1.8730739,-2.0460048
-0.5489152,-3.2373912,-0.54502034,-1.3369725,-0.9307641
-0.59480935,-3.2393458,-0.5274297,-0.15921463,-0.49816588
0.2723796,-1.2598238,0.35929626,0.6542462,-0.2979619
0.39346752,-0.50785655,0.5477767,1.7528896,0.24307789
-1.1377417,-3.2354078,-0.7451391,-1.7207124,-1.3789728
-1.310608,-3.7051399,-0.3857242,-2.2968779,-1.8281684
-3.0693774,-4.1553226,-1.4999826,-3.1503901,-3.0713305
-3.291997,-4.5186186,-3.0312207,-3.646467,-3.7256339
-2.1611278,-0.48342493,-0.88668364,-1.3749728,-0.5908184
0.5097636,0.905282,-0.092751294,1.0244172,1.4394721
-0.33888847,-0.20608468,-0.4560386,0.18358897,0.41503158
0.396426,0.023376403,1.420869,1.6581831,0.40522066
-0.81452173,-3.06649,-0.37503785,-0.8183728,-0.9951864
-2.7276118,-5.2969823,-2.2597756,-2.923842,-3.3038054
-1.3369819,-4.3409376,-0.769578,-2.229514,-1.6934593
0.30268407,1.7880707,0.91894263,1.7246089,1.2529141
2.80469,5.22566,2.358425,1.9443288,3.2383351
4.157242,8.170978,3.7295163,3.0869133,5.4424396
1.4122281,2.3156307,2.0235965,1.1505375,2.059713
1.5283418,0.7852349,0.29496643,0.30082384,0.6103775
1.2099317,-0.41989145,0.5136046,0.55466706,0.32032502
1.643567,-3.0994678,0.45497793,-0.659204,-1.3915144
3.1942713,4.674809,1.5038394,1.4696804,2.7060452
-0.8603722,-3.8515582,-1.3506274,-2.2334008,-2.9004161
-1.6895264,-2.3311465,-1.3837552,-2.7216616,-1.1074866
-0.44245893,-0.5235119,-0.16603701,-0.95605814,0.016515557
0.19034165,-0.16708441,1.1259391,0.530262,0.12198208
3.7050104,7.4100814,2.8837469,3.8778882,3.6386373
7.470606,13.066327,4.1268997,6.056571,6.7568073
2.6396284,2.559595,2.162107,2.7138398,1.5937608
6.9423656,12.546013,7.2695208,6.6103215,8.8877735
4.6113687,4.270699,4.3330884,3.2402966,3.1387756
2.039047,1.4092783,2.951207,2.4316394,1.6230767
3.088835,4.0097666,2.068347,2.6064115,2.75196
2.1963356,0.8702758,2.3662648,1.8867567,0.7627853
-1.2353103,-3.1053915,-1.3153756,-1.3993696,-1.1981922
4.7958546,9.658159,2.3222313,3.5477996,5.6484256
7.127892,11.711928,5.895529,4.602507,8.056676
0.67092955,-2.8475983,0.009816348,-1.3769084,-2.194297
0.4687232,1.0683441,0.55860627,1.2519395,-0.052749556
2.4628978,3.5332742,2.0586443,1.8086184,1.9326613
0.4453605,0.18466146,1.3262432,0.7295431,0.71684766
2.8623242,4.9600587,2.6201882,2.6660597,3.1016233
2.4316518,5.7002287,2.1484997,2.4453175,2.8340178
0.10053253,-0.10256672,0.70800865,-0.7167968,-0.73147595
1.6522341,0.2489568,1.4833393,2.5859141,0.3095248
2.449149,1.3710669,1.1904088,2.6122875,0.82420826
0.984379,5.048842,1.6953353,2.3505647,2.8144643
