"[299, 255]","[227, 248]","[287, 319]","[279, 328]","[230, 262]"
1.1797239,0.8858485,0.60942966,0.64946,0.9746632
3.2832708,3.9718473,3.4141483,2.3672705,3.0870295
-3.4208038,-6.9754105,-2.8045728,-3.2059436,-3.5233316
-1.1679732,-3.7645879,0.10743101,-0.79686284,-0.8866957
4.0165634,8.232435,1.2275323,3.3085485,5.9170194
3.6035686,7.995238,3.4649339,2.266635,5.1075144
1.0537623,0.32034633,-0.33490694,-1.0614781,-0.01852996
-0.36036474,-3.5313163,-0.34862092,-0.8544814,-1.6113657
2.4258018,4.6944366,2.8584752,2.6748292,3.301819
-0.75969094,-1.2801718,0.36336797,-0.36711314,-0.43841037
4.062509,9.110389,3.6836445,3.5703056,6.017624
2.922949,3.3547177,2.859507,2.4386125,2.7286696
1.8301612,-1.452896,0.74130213,-0.2469682,-0.24399558
-1.7147096,-8.138393,-2.677581,-2.4461384,-4.858214
-4.438414,-12.593652,-4.9393578,-4.5106544,-7.9061947
-2.9384375,-9.729453,-3.2958288,-3.6678867,-6.2870755
-1.4365346,-2.1367495,-0.6611228,-1.769496,-0.9072231
0.6708349,0.6366419,1.2040659,1.3603442,0.81927955
1.3661206,-0.39949283,1.6738034,1.3984343,-0.3740943
2.2440417,0.4823672,2.3837657,3.007779,0.42674255
0.87790966,0.9667684,1.0175687,1.6249834,1.3896375
0.16006552,0.011672784,1.4110671,2.9462683,0.16984917
0.057579543,-0.617219,1.7763041,1.8955058,-0.017604617
2.4003367,1.1025002,2.201143,2.5624704,0.4189267
6.4628296,9.798807,3.9824045,4.4521046,5.697268
3.0859795,2.389791,2.7070866,2.3310802,2.0362105
1.1406871,-4.294742,1.0752549,0.18656132,-2.2186432
-3.5497584,-9.900257,-3.4852908,-3.6805985,-6.125893
0.5957749,-0.024243243,1.3955857,0.60846037,0.8262736
1.482545,2.026625,1.9903811,1.5099101,1.6935226
1.0381643,-1.3669891,0.78720164,0.069435336,-0.20300205
-3.0771055,-10.466674,-2.3114583,-3.091721,-5.449141
-2.666985,-4.8418136,-1.5214533,-2.6161623,-3.324226
1.1669647,6.4150352,2.0898519,2.7802444,3.9775393
2.0371242,3.9971747,1.5918518,0.7695665,2.495183
1.2080054,3.9062665,1.1865389,1.9609255,2.153335
4.3359156,9.861307,3.5185459,4.1288857,5.744134
6.29882,12.913072,6.7344027,5.4179454,9.122096
5.3652325,5.864272,4.329147,3.128928,4.2812786
4.022411,6.10547,3.5663853,3.9423642,4.2275395
2.842809,2.835001,2.117242,1.6484808,1.643595
3.2909958,2.7744486,2.1171873,2.4716654,1.6093943
1.2149589,1.87328,2.4522846,1.9932925,1.7120578
4.559619,8.164191,4.835048,3.3115783,5.7129755
0.08897825,-1.1433473,-0.09560609,-0.75479215,-0.49693486
1.7881683,1.7033432,0.14065096,-0.16503623,0.5313894
-0.67176116,-4.7038784,-1.2254661,-1.5330839,-2.4451694
-3.2684746,-10.365074,-3.9842658,-3.7567234,-5.9061427
-2.8935282,-7.846645,-2.5614696,-2.8114626,-4.414034
1.1796551,6.2860723,1.5488135,2.4423432,3.655245
6.7616158,11.908117,3.9286306,5.8700314,6.6112814
1.4931008,2.5049245,1.3710169,2.2831812,0.90037704
-0.5430414,1.3505335,0.66499853,0.19821432,0.68155897
3.906104,5.607389,1.6834576,3.205939,2.6015356
-0.2462377,-2.9962204,0.45302847,-0.65145534,0.23029819
-1.9004257,-2.415109,-0.9120786,-1.70604,-1.2568794
1.4570745,-0.88952076,0.7451915,0.089906946,0.44735807
-3.0136323,-8.383778,-2.921815,-3.4100854,-6.0976405
-3.430651,-7.707056,-3.2294178,-3.7440853,-5.561544
-2.4189465,-5.7920203,-2.6181247,-2.8280787,-3.82131
-1.9512285,-2.0010767,-1.3798627,-1.8915936,-0.7246665
-0.28126284,2.658193,0.14161114,0.67479986,1.4638615
2.1747625,4.1396027,1.3193177,2.1171572,2.352516
1.0467652,0.57412934,1.1112796,1.5810425,0.6258843
5.923721,9.33294,2.9325364,5.8544188,4.426725
4.1962857,7.6650877,3.581087,2.5732164,4.7637115
3.7167943,6.5429873,2.3857534,2.2646208,3.61037
-0.81939673,-4.1475315,-0.6386749,-2.5400364,-3.2490788
-2.9042685,-8.987277,-2.583921,-2.8583362,-5.8495855
-0.10250769,-2.2704165,1.064504,0.65141696,-0.6776708
-0.13860506,-0.99499476,-0.8944438,-1.5507009,-0.7421061
2.093695,1.4765034,0.24900678,0.6816357,0.21773018
4.6082644,7.551686,1.1942114,5.5350804,3.3153887
3.79095,4.270466,1.6883785,1.8163844,2.5585463
0.23831046,1.9395616,0.34472984,-0.112312086,1.2022053
3.6904247,6.997133,2.752931,3.227517,4.17876
3.3115554,7.7930126,3.2539573,2.8428,5.2510185
3.5829964,6.180673,1.9941334,2.4032946,3.5136719
0.90423745,-2.344774,0.39740324,0.7294767,-0.96977854
-4.2149253,-7.7901134,-1.7217561,-2.354528,-4.3233094
-1.6142402,-0.18939759,0.5029334,-0.25000256,0.18168053
4.6679235,9.013629,2.8691106,4.096631,6.136705
7.161072,11.706028,6.5907955,7.1034775,7.9726543
1.6230216,2.1357458,0.60450995,1.2832031,1.7754049
2.2900236,5.145503,2.132801,2.7304435,3.5351622
4.188556,7.812653,4.3536124,4.0176525,5.348742
5.079123,10.621156,3.7519863,3.493152,7.605532
7.197235,12.294926,5.9580226,6.714839,9.247099
7.045902,12.268594,7.2705593,5.6787257,9.130915
8.084959,14.875985,7.293968,6.275376,11.132853
6.807645,11.8731,8.172929,6.913143,9.220772
3.928713,3.9160213,1.6875027,1.0634582,2.7461011
2.877939,5.5771875,2.4502518,2.0918117,4.3340373
1.0302116,2.0800757,0.8613019,1.4706845,1.8398398
4.50677,6.4384723,3.8222249,4.442344,4.51757
6.7684884,11.329058,6.243129,6.702103,8.043934
4.591813,8.426778,4.1094093,4.064467,5.8808937
8.559537,14.316428,7.4677515,7.8681345,10.212921
2.8096497,3.7286794,3.1495214,2.4200208,2.8145561
-0.23145063,0.52836215,1.4521635,1.4667948,1.2148728
5.082968,10.016599,4.9911995,4.9745774,6.3623095
3.7430847,5.3915405,2.4706516,3.757766,3.332968
3.0575712,6.32323,2.2274933,3.0780802,3.6933515
4.498052,7.371143,4.419951,3.555671,5.1719203
1.2168545,5.7354455,3.141675,2.6953576,4.076235
2.174821,4.349635,2.747094,2.7431724,3.4131052
7.026289,10.663982,5.801719,4.996031,6.946255
5.579077,12.431702,6.4111357,6.4667983,8.888729
4.6865144,4.11528,2.8076324,2.596668,2.9238737
-1.8808321,-4.1152115,-1.4697138,-2.8271437,-2.7548673
-1.4229147,-5.0029116,0.059500128,-1.0928128,-2.5859532
-2.0859652,-1.5303001,0.10838815,-1.6523517,-0.8379182
-2.891622,-1.7061077,-1.7822548,-2.2070615,-0.83694804
0.73728967,4.4394426,1.4511778,1.9824142,2.917965
2.5312324,7.982414,1.1494073,2.390584,5.4736543
4.747032,7.8730383,2.5761516,2.5292616,5.125006
-0.5204321,1.3565781,0.48348755,0.31453073,0.75594646
4.5810885,7.767709,5.0547338,3.6347926,4.7090726
6.015682,8.621254,5.312577,4.4551353,5.5372157
0.10850192,-1.788857,0.7950306,0.4209972,-0.81137717
2.6231716,4.9631085,2.5841196,2.0284424,3.368314
0.41909304,-0.065183215,-0.25959843,-0.096525885,-0.18341546
-0.6473204,-3.1736004,-1.2801158,-1.2400813,-1.9031581
-0.95691454,-0.7302819,-0.67467195,-0.66588646,-0.026241962
-0.6180487,-0.2312806,-0.62877256,-1.177625,-0.16100737
-2.2324092,-4.676747,-1.8788776,-2.1923575,-2.7285137
0.03415414,0.13865404,0.43847698,0.20018943,0.4726313
0.7274616,0.6093308,1.335859,2.2411642,0.72258466
0.08972172,0.42469093,0.2713729,1.396406,0.054580167
-3.2608058,-5.7188687,-2.9619849,-3.287166,-3.5293972
-3.2725115,-5.6748805,-3.3320818,-3.509806,-4.130926
-3.4824455,-6.5898786,-2.7617328,-3.0996006,-4.5625215
-1.921874,-5.1816325,-2.16795,-2.729481,-3.1591754
-2.1171885,-7.2216735,-3.1132634,-3.2783072,-5.075188
-1.7773196,-4.537066,-2.3847218,-2.0458634,-2.7802463
0.8828241,-0.18064436,0.18945846,-0.6015606,0.058608335
-3.3183527,-8.33197,-3.799755,-4.0263176,-6.033169
-1.4022884,-1.5809551,-0.9559856,-1.2665311,-0.53509384
4.5224733,5.175888,4.6592064,3.7080135,3.2022133
2.613368,3.5343535,4.1827345,3.1007104,2.6963997
1.6602457,2.9220383,0.7354734,-0.16395652,1.134866
5.5663304,7.3602767,2.662033,3.2128215,4.436464
8.146557,7.618342,6.9746823,5.646532,4.9688706
0.35359222,1.0909619,0.9971739,0.8741254,0.5391592
-0.5693128,-1.3124759,-0.4130403,-0.1972188,0.00588851
-1.972641,-3.3965137,-1.0732218,-1.2997773,-2.0967004
2.6572201,4.7177744,2.486347,2.5087924,3.6201267
7.450231,12.063618,6.042001,5.46775,8.500097
3.520658,5.24438,4.443529,2.9308293,3.5372791
0.4112355,1.421045,0.3556011,0.113401234,0.4473791
3.8925974,9.184591,3.483438,3.6826215,7.2637105
3.9502215,8.312552,4.5567074,3.5137105,5.84966
-0.90720505,-1.3847233,-0.042904682,-0.09758675,-0.83003885
-0.6288871,3.4082527,1.8662694,2.0176175,3.3115668
-1.601478,1.8438399,-0.47351757,-0.5975517,0.63972664
-2.801672,3.3662724,-0.61221576,-0.48525965,2.248116
-2.985297,-4.0244,-2.4110835,-2.055601,-2.6328049
-0.7305099,-3.980509,0.4579469,-0.58987033,-2.6709313
0.8954696,-1.254884,0.6337784,1.0507714,-0.56548405
-0.8671493,3.5644948,0.09186462,-0.047812086,2.39653
-0.5117589,-2.4443233,0.6747389,-0.33693388,-1.7734509
3.2450495,1.6240616,1.4462446,2.5556326,1.37502
3.0527458,5.6826415,3.1015995,3.090836,5.156296
1.8554428,1.3769941,0.647374,0.15911436,1.2861607
-1.2305151,-5.4013944,-0.819389,-2.9053054,-3.3184
-2.9844334,-7.0234866,-2.374041,-3.6142857,-4.6943665
-0.50881463,-4.1210575,0.46191993,-1.512679,-2.4579883
-1.2919636,-1.8593378,-0.79683596,-0.9442904,-1.0800344
-1.0126595,-2.3456328,0.16994916,-1.1396049,-1.4413561
-0.655236,-0.64352876,-0.06636236,0.23929368,-0.51559705
1.0664097,4.6484895,2.757851,2.1084263,3.4639106
-0.021502107,0.08106821,1.6230582,0.9179688,0.81836194
2.4492006,-0.5966716,1.0966905,0.9296804,-0.43946728
-0.68744934,-5.4491534,0.095755,-0.013635521,-3.4032576
-2.0166202,-6.370122,-1.0566586,-1.797848,-4.1416006
-2.7619078,-3.788198,-0.77356225,-2.037187,-1.6827619
-0.7354463,-2.0556993,-8.367796e-05,-1.8057137,-1.0362327
1.5810143,2.588882,1.5449055,1.0039017,2.1357493
2.9521673,8.781248,2.1601553,3.4335885,6.920918
4.463835,3.7597632,3.8496163,3.974602,4.081065
2.3711004,4.061588,2.6074455,1.4394717,2.9004226
2.9580173,3.8310738,2.5918322,1.449244,3.26759
2.1278367,0.892547,1.7109023,1.5390278,0.4062248
-0.20319138,-2.7617135,1.825132,-2.5644674,-1.9882965
-0.57919556,1.3466974,2.22356,-2.5703526,0.5029363
1.0693465,1.1475377,0.30175665,-0.48631656,0.1670504
4.9229336,8.101706,4.400466,4.16021,5.726674
3.2031348,5.3662534,3.443396,3.1494172,4.2217207
-0.72552603,-0.14348051,-0.018475909,0.27351254,-0.48430777
-1.3544403,0.7510063,-0.9208406,-0.17572138,0.67094034
-2.408145,-1.0595192,-2.1141918,-1.8817675,-1.266572
-2.1689186,-0.37887326,-1.5966477,-1.5634501,-0.859349
-2.500005,-4.2382607,-1.9511626,-2.0312376,-4.246079
-3.0654504,-4.4579897,-1.764672,-2.663101,-3.583976
-4.6562924,-3.7471116,-1.8330522,-2.5547113,-2.188521
-2.7129333,-4.5381336,0.7138238,-0.89943624,-1.8223144
-0.22167419,1.0439655,2.4922156,0.37403172,1.3340051
1.8202963,4.303756,2.377944,2.724607,4.452192
-1.176717,0.057678267,0.5889095,-0.107388414,0.06743451
-1.9794171,-4.740128,-2.6610746,-2.1923265,-2.6268842
-1.0448502,-1.7919009,-1.2010962,-1.2391773,-1.581963
3.0634694,4.012694,1.355482,0.90820885,1.6581889
3.5810306,4.538132,2.3593812,2.7812428,3.6562915
-0.7841753,-1.0331913,0.5126887,-0.35447738,-1.7695328
-0.9882782,-2.583977,0.6474814,0.19337595,-1.0273572
-1.7206662,1.1299174,2.1114025,1.086968,1.3291515
-1.5116475,0.24320821,-0.93255067,-1.1356727,-1.1405658
-2.5966523,-9.570267,-3.1269188,-3.9228165,-6.9052296
-3.9325771,-10.423769,-4.4403806,-4.235312,-6.959916
-3.9726532,-4.302759,-2.3915825,-3.37108,-3.1963027
-2.6748354,-3.6338327,-1.1230539,-3.2021682,-2.458033
-2.823261,-4.0546837,-1.7910254,-3.1728554,-3.0732453
-2.707003,-2.2275095,-1.5487862,-2.0653965,-1.8427386
-2.504836,-1.620086,-1.09567,-1.0751591,-1.2792643
-2.5810208,-3.5087912,-0.24901795,-1.248018,-2.1748102
0.6542765,-2.6757739,0.67672145,0.4316349,-1.5527525
0.99900156,0.10840379,1.1923763,0.31152263,0.16795796
1.3026365,-0.8359378,0.86710584,2.6874607,0.24411294
-0.118287496,-3.6094296,1.2157153,1.5732123,-2.4531875
-1.0957532,-1.4716974,0.7958316,0.20701142,-1.5049136
-0.1640749,-2.5282984,0.49803108,-0.42091456,-1.719732
0.95503736,0.5390916,0.38374826,1.8710696,-0.15136155
-2.08207,-6.3017483,-1.1025815,-2.6582406,-4.253898
-2.3671298,-4.979412,-2.1308072,-1.9179156,-2.8681052
0.5752568,2.7979698,0.73639935,0.42096704,1.9629663
0.24516352,0.71297294,0.5693639,-0.19918405,0.5889288
0.79000366,0.883788,0.6122255,2.0644162,0.29685575
1.3798376,4.692437,1.0975403,2.6044385,2.488298
0.2666359,5.8057075,1.2167361,2.5087636,4.6211333
2.9912302,5.913149,2.8232744,2.5517685,4.1797276
0.17587419,-1.8738598,-0.25186306,-0.48038077,-1.139539
0.87993187,-1.317357,-0.03312821,-0.5038342,-0.5615098
4.588896,2.6592994,3.307625,3.4130912,2.3526194
-0.010641001,-0.51842195,-0.09167247,-0.36023983,-0.12686063
3.291025,7.8252296,1.8760114,2.3330288,5.1230645
2.950234,7.480573,4.169974,3.6035466,5.236402
4.3828526,9.155396,4.829157,4.0547185,5.960038
-0.19134204,0.46982795,0.68073994,0.36042318,0.7578833
1.1279508,4.8496842,1.3242489,1.5332284,4.132859
3.8916361,4.797992,3.440455,2.4316354,2.950286
-2.691312,-6.565327,-3.5682902,-3.926695,-4.555594
3.5312812,7.634833,2.322308,1.8349766,4.900432
2.7305434,5.5548086,2.8662832,1.4453609,3.3584747
-0.98626477,-1.7870197,-1.0126266,-1.2596934,-1.141544
3.898478,8.782351,4.231495,4.269563,5.668052
0.9102497,2.2364905,0.80773133,0.13194178,0.973752
3.7627537,7.210048,3.0244863,2.9316878,4.7461553
2.211995,5.0694833,3.149502,2.3340418,3.4327147
-0.542878,-1.8133353,-0.7411166,-1.0692481,-1.6161126
4.169039,6.65839,3.6182594,2.5059233,4.5177155
-0.21473996,0.99136305,-0.30848086,-0.8104417,0.54209435
0.06348859,-2.7753978,-0.9198954,-1.1933187,-1.849609
-1.5751725,-4.7831893,-1.4804398,-1.600552,-2.8378816
-1.3779148,-3.7060535,0.33889112,-1.5234172,-2.3613257
-0.31738403,-2.097666,1.2070549,0.057622302,-0.8271596
-1.3749632,0.56353205,1.5645115,0.94242907,1.0654823
-2.452102,-4.1903963,-1.8505405,-1.6620575,-2.416969
-1.7265462,-0.87501055,-1.3398157,-1.0702797,-0.97948426
-1.1376934,0.6972842,0.44044507,-0.0839665,0.43361053
2.5116992,4.5937448,1.307601,1.3085775,2.4062457
0.568336,-0.5165442,1.4872789,1.0498027,-0.4072039
1.0820514,3.3994343,1.3672221,1.3388871,1.8926013
-0.02733297,0.8271336,0.65724456,0.3955144,0.665993
4.3740273,7.777392,3.7793245,4.440431,6.82525
2.0918534,4.336058,3.5323172,2.4697952,2.920986
0.012788339,-0.35336944,0.04502264,-0.15517184,-0.04775058
3.3759966,4.583086,1.3720893,0.69337606,2.319377
-2.236241,-6.3866043,-2.1718214,-2.467729,-3.8114498
0.32914796,2.7725432,0.32914573,0.27152234,2.448299
5.1933575,6.5918827,4.2412343,3.316399,4.199276
0.9463262,1.3008455,0.4287567,0.06938443,0.37014556
1.1895392,3.1739886,1.723738,0.97859466,1.7003083
1.6709756,3.7716224,2.3526382,1.8028197,2.936614
-0.22161666,-0.6864117,0.23446682,0.19148727,0.069407314
-0.24413444,-0.13471328,0.6230936,0.44046694,0.43460974
-0.8799718,-2.0459788,0.87495744,1.2841551,-0.21686946
0.19030236,-6.6925364,-1.7061678,-1.9306989,-3.2237911
-0.7353522,-2.6777213,-0.04586519,-0.5380648,-1.3320317
1.2139531,1.7960665,1.6338952,0.7989272,1.338004
0.42783397,-0.78984904,0.985469,0.6788081,0.19446866
-0.50088286,-4.3074446,-1.1346557,-1.724503,-1.8924642
0.7783275,-1.8388436,-0.10742961,-0.4287052,-0.6542812
-4.481497,-6.7607756,-2.3652322,-3.1318328,-4.0918217
-0.92186105,-1.5810168,-0.18063852,-0.1425646,-0.66012454
0.8290852,2.4091997,0.9843523,0.93650675,1.151376
1.3183628,5.5479174,2.50297,2.3984473,3.831104
0.6113808,4.785237,2.1729238,1.5674405,3.042055
-1.0400248,1.4238356,-0.111273736,-0.3749628,0.8808602
0.51457703,-0.29883116,1.3105161,1.9286861,-0.13188845
-0.75786513,-2.3477163,0.9149836,2.1054568,-1.4141221
-2.286152,-2.918,-1.4277453,-1.9902469,-1.8496237
0.2812218,-1.0009547,0.9335731,0.6923671,-0.25875896
2.2519386,0.36327213,1.4346076,1.1396698,0.6845677
2.401315,0.3915692,2.2519314,2.5497806,0.86130303
1.6766806,0.52046096,1.6141989,2.5868661,-0.08109596
0.9559437,-0.31740317,1.0595,2.8944905,0.20795248
1.2909263,-0.15431811,1.5077518,3.3769176,0.16598268
-0.07429089,-0.625013,0.9921151,2.9042704,-0.23540252
0.529197,-1.250985,1.0770708,3.0946944,-0.30084357
1.5350623,-1.3955152,1.663029,3.1757457,-0.43068603
1.3505378,-0.40332782,2.1494062,2.0800526,1.0126845
2.7577608,1.7509599,2.290991,2.8153918,1.995096
4.0194845,3.5713263,2.6942885,3.8261318,2.419939
-1.5097295,-8.238213,-0.72652996,-1.0341582,-4.8124394
0.19433618,-3.060515,0.14647341,0.2021466,-0.76755625
2.2470224,2.198195,1.5761341,1.5488213,1.2167702
3.4247117,3.285031,1.6640041,2.3681211,0.91592073
1.1346341,-2.3115854,1.1835189,3.0429351,-0.66905785
-0.51770663,-2.2558942,1.193254,2.9013472,-0.91711956
1.5097244,0.53810334,1.6347333,3.0439246,0.64843357
3.9658463,9.470751,5.056688,4.6875167,6.825247
3.336844,1.9364717,1.8505361,3.1903899,1.8583498
3.3876183,-0.21878876,3.132781,2.614215,0.59957373
1.3270404,-0.7324791,1.830004,3.269505,-0.37213156
1.4344519,-1.38478,2.0389938,3.6279027,-0.30667922
2.0067298,0.706971,2.6278944,3.6259484,0.44232634
2.4100876,0.14159264,2.8818023,3.5595415,1.2304565
3.2470162,1.7119113,2.2548635,2.9442968,2.3134658
3.2997646,4.842791,1.4482338,2.7411888,3.9629202
0.75974023,1.6132911,1.598631,1.657205,2.0078216
1.8964297,3.1025283,2.1259484,2.5800521,2.4892504
4.063413,6.193327,2.6913574,4.000928,3.4491975
2.6405976,3.4795153,2.363287,2.190418,2.2998273
5.253876,10.000022,4.423814,4.394501,6.134779
3.4687963,6.294115,3.380938,3.5069063,4.0606394
5.8427877,7.51382,5.751995,3.9004037,4.9952106
1.6641383,0.31756532,0.74617,0.095774226,0.39268792
2.0917916,1.5176426,0.9677653,1.4462627,1.2803168
2.6093943,6.3750606,3.618214,3.0283256,4.664114
3.4512362,7.837027,3.9385653,2.8868008,4.999094
1.1319047,5.5391717,2.2373917,1.1905315,3.52937
0.7265531,2.9130638,1.9043121,0.46582565,1.9794824
2.3290496,1.257758,1.0341382,1.831028,0.84762573
3.0419042,2.979408,1.2421073,2.7997415,0.77044797
4.049704,1.2352725,2.0731661,3.8055866,1.5487438
3.9354951,8.167936,1.7489896,3.8358946,4.907219
4.968733,9.767611,4.451181,4.3427596,6.770548
0.18361539,-4.9765115,-0.19136257,-1.2558342,-2.5224159
1.6504043,1.7979522,2.079121,1.6406182,1.6240634
3.0829594,4.9960675,2.499995,2.297819,2.1152165
2.689335,1.2948514,1.5428519,2.8729866,0.67276245
1.9121541,-1.4207504,1.5781951,-0.08687645,-0.6268619
-3.6513238,-9.546823,-2.9931154,-4.15129,-5.846637
-2.818357,-5.820295,-0.9384441,-1.5898257,-3.197245
-1.9374886,-3.4706295,-0.2831777,-0.51950574,-0.64448553
-0.026359405,0.7432017,1.7949668,1.4599779,1.3838147
1.9296972,4.933643,1.7129525,1.8818763,2.8799164
1.2656572,4.5537677,1.0733145,1.5732694,2.8867695
1.4550403,0.40720582,1.8085871,2.2655928,1.5048447
3.2216644,4.843774,2.4355547,2.6005511,2.4951406
1.2285095,-1.2900025,1.1553081,0.6699401,0.01467502
1.7314191,5.709944,1.4882731,2.6405976,3.3466733
2.7284777,6.8193407,1.2158169,2.435514,4.0244308
1.9589586,3.792964,1.5673833,1.7304392,2.5410135
3.0654206,5.995123,1.4912106,2.6415706,3.2753952
2.7753983,5.7910624,2.2520092,2.2236526,3.4023812
1.3163738,3.8466492,1.0996013,2.2226412,2.1660001
2.9403143,2.5477712,2.1591103,3.888608,0.017517319
5.140506,3.71769,2.6083126,5.9149637,0.55856055
5.399287,9.62096,1.545805,4.746998,5.5252957
