"[299, 255]","[227, 248]","[287, 319]","[279, 328]","[230, 262]"
1.2830659,-0.6289832,1.6502764,3.185494,0.18446153
0.9764742,0.2509492,1.134672,0.71384025,0.63568187
4.1474004,5.486247,1.6630452,2.8710532,1.9872484
4.2254844,6.168864,1.7987344,3.9940593,2.5956442
5.3026814,7.341741,3.8827794,2.8075776,4.49216
3.6523342,5.389671,2.6259804,2.8505785,2.3193393
5.829141,4.5987344,1.5263785,1.5039136,1.7539496
2.944356,1.5840493,0.42577866,1.1806612,0.5957213
2.3515353,2.5205328,1.7031164,2.0556455,1.4599557
-2.3095691,-7.2109385,-2.4823802,-3.1445127,-3.8623114
3.7324345,7.410276,3.279346,2.8798878,4.462953
7.172872,12.652444,6.8731046,5.568385,8.615315
4.9434056,6.6437387,5.0518355,3.7139142,4.631946
4.3106337,6.0119834,4.7169223,4.162226,4.546059
2.2784436,1.5412538,1.5137969,0.40733895,1.2003547
-0.5859006,-5.811478,-0.9843364,-2.09174,-2.5194929
-0.22363228,-0.91112494,-0.540998,-0.2529183,-0.2119004
4.2031612,6.7736025,4.185592,3.3281467,4.3663063
3.4111536,3.0459597,2.6406891,2.4258223,2.0420337
2.253967,2.7697005,1.9854201,1.6895086,1.8047701
4.9608483,5.176716,2.780197,3.4022875,3.1923463
1.4952571,-2.3503516,-0.00766663,-0.8543677,-1.0096161
5.220692,10.504905,3.6337984,4.1562276,7.486364
7.1445317,12.356493,6.567445,6.122097,8.613333
4.2969136,8.643649,4.057678,3.5742502,5.8545704
6.060608,13.118279,6.7901397,6.5049467,9.383887
3.4482872,1.8468121,2.7432244,2.2344232,1.9151154
0.14849405,-5.197111,-0.398356,-1.0799947,-2.1522517
0.88378114,-0.18253094,1.0879064,1.0995992,0.8301237
1.7803478,-0.08573015,2.1661313,1.7686563,0.5567653
-0.6317268,-2.7653947,-0.6610021,-0.5906972,-1.0975055
-2.2695036,-6.478397,-0.8515375,-0.9296596,-2.9696524
1.278342,4.106523,1.5635123,2.2861512,2.5195758
3.1318295,1.8926263,2.2021832,1.5693499,1.7685921
0.07031571,-1.5526862,0.5449516,1.1689503,0.63284045
-2.4032117e-05,1.344715,1.1201077,1.3505644,1.2099698
3.7382667,4.0811267,3.1797051,2.8105474,3.0840278
0.3047293,-3.2176208,0.19243726,0.49615157,-0.66007483
3.4590225,6.267716,4.329166,2.6064692,4.073331
1.5596343,2.6163573,2.0625942,2.0723383,1.9756743
2.018664,1.9621207,-0.6093338,-0.66597843,0.8604798
-0.44029802,-2.6169493,-0.2469369,-0.6092362,-0.7752364
-1.3143659,-5.595494,-2.1659346,-2.2498994,-2.883656
-0.44136015,-6.9744344,-1.3974003,-1.8114454,-3.5575159
-1.0761894,-2.095706,-0.106431834,-0.27049845,-0.58203346
1.6864836,4.015576,1.0224454,2.3329759,2.0107074
4.431628,1.6593089,3.165025,2.7812092,1.6924429
1.4785477,-3.3055856,-1.2636634,-2.139634,-2.5624673
-1.1279016,-6.267492,-1.422806,-1.5741695,-3.4159667
1.6045315,-2.500808,1.3203559,0.72462773,-0.61708754
0.045920882,-4.785083,-0.1288686,-0.4101253,-1.6854966
1.7314416,1.521494,0.5976573,0.65137035,1.2568426
3.9842472,5.4822927,2.5175002,3.9559827,1.6766899
3.7332866,6.454019,1.2840891,4.774362,1.7470267
3.3105335,4.40432,1.7509509,2.3974283,3.2549026
-0.62400544,-0.45793808,1.060527,1.2285041,-0.016559906
5.418853,9.406166,3.0975797,5.153238,5.3466434
3.5575545,4.679659,1.7196933,3.5126505,2.1454873
4.084932,9.335965,2.4618723,4.311462,6.421906
1.3349578,-0.21278197,0.45598674,2.1161802,0.08306018
1.8739339,3.427764,1.5565513,4.396412,2.0996232
5.605412,8.827193,4.414957,5.220611,5.810574
3.8935447,7.702204,3.576167,3.1679394,4.177761
4.0243545,6.076114,1.2889585,2.1259208,1.7646022
2.9169278,1.8251657,1.0106655,0.9491785,0.6054507
0.95208544,-1.0966805,0.916929,1.9443066,0.03416865
0.12590076,2.1483684,0.60247225,1.8232005,0.14054893
0.4159562,2.9881947,0.8417858,0.64256996,0.76461655
-0.24612156,1.1220087,-0.7060329,-1.0048661,0.34956715
-1.9101796,-1.7725028,-1.50681,-2.295868,-1.0468899
-2.4335942,-4.144554,-1.6776998,-2.4765317,-2.9257832
-2.259798,-2.5596435,-1.1533306,-2.002941,-1.5654862
0.106390946,1.6747193,0.90132654,1.348601,0.94427955
4.1981273,4.1893487,2.9168987,3.8407521,1.6825469
5.5779386,8.748837,3.1971126,7.427645,0.9002942
1.8036398,-0.2666377,1.2030691,2.1162004,-0.833046
5.6639814,6.179639,3.1464245,4.777286,3.3378556
6.2148314,8.924826,4.1601615,4.0663977,5.7783484
7.0419607,10.093748,5.6855226,5.186481,7.0937595
2.8867486,3.2452312,3.7715397,3.0420308,1.9766294
3.16602,4.898548,3.8154774,2.938508,3.2119722
3.4843795,7.1748614,3.7109582,3.3066394,4.78323
6.295956,12.003078,9.207144,7.9512486,8.829212
1.4180284,0.060684085,2.0166748,1.1690048,0.66999924
3.0420527,7.2823563,4.511818,3.7608068,5.4209843
9.494153,15.781346,10.546934,8.823271,11.724691
3.5176373,2.7394457,2.7920747,1.8409028,1.9024475
4.036161,7.9542136,4.7559214,3.7695858,5.418034
4.2969637,5.1525426,3.962023,3.5362318,3.6807897
5.484435,8.980632,4.7823133,3.8086514,5.6495156
2.601652,0.6847854,2.1524534,1.2051737,1.1573508
1.1425934,-5.374908,0.93559664,0.58010775,-3.692332
-2.5312457,-7.726553,-2.2148106,-2.9560292,-4.808579
3.0058246,7.710917,2.8574076,3.3398144,4.599604
7.036077,11.9081745,6.591782,5.4139996,7.9111366
2.2636714,1.3252845,2.5586278,1.7470809,1.7959535
2.7256246,5.2481575,3.8213477,2.9570718,3.9541643
2.9248111,5.1572456,2.8848095,1.9795172,3.9160476
2.1572092,2.9658337,1.6250138,0.99607897,2.0156386
2.648368,1.4755421,1.9628556,2.737268,1.0243697
1.2537612,-0.38677,1.3856546,3.457963,-0.22958463
0.23722325,-0.39169624,0.48620757,1.1660016,-0.27159503
0.34949026,-2.898488,0.32121605,1.2187318,-1.9200175
0.86523217,-6.231398,-0.22948569,-1.3329747,-3.5771253
2.765703,4.1867294,2.7715595,1.6611843,2.4600866
1.3057582,-3.592615,0.07919982,-0.74209434,-2.1395354
-1.3749602,-4.3817644,-1.8554294,-2.0536747,-2.6972194
-0.510707,-2.0839474,-1.2977887,-1.1327484,-1.8681363
-0.4413631,-1.7919415,0.26470974,-0.3397942,-0.48726732
-0.7588985,0.2489756,1.2724097,0.9491836,0.33977038
-1.369104,-2.0136094,-0.81539255,-0.93355155,-1.0136162
-0.873923,0.3029131,-1.1668742,-1.2528156,0.20812707
4.7226934,9.238362,3.9121716,3.3935902,6.460028
4.3554645,7.32131,3.709014,3.3506,4.767599
2.96981,7.4268827,3.1876018,2.8028076,4.8936477
2.7617393,6.293049,2.241242,2.1220782,4.0117784
4.0733232,7.722817,3.674899,3.0449808,5.069444
2.5049503,6.050894,2.8174644,2.3613873,4.0059304
2.1631231,0.58598924,-0.46192676,-0.7343979,-0.28024593
-3.7909622,-4.5321865,-3.4921362,-3.6669438,-3.227513
-1.4003297,-2.6708393,-1.0204427,-1.0175111,-2.0292528
-1.549756,-1.6376724,-1.3847173,-1.1708432,-0.59567064
0.27631572,-0.29792923,0.3642089,0.7929499,0.008706399
-0.8633519,-4.376014,-0.99027014,-1.2851721,-2.2832696
-3.2138824,-6.8017573,-2.6240494,-3.1386938,-4.0712886
0.118160635,-2.2255402,0.12987477,-0.26367712,-1.3105173
-1.3292239,-3.4854589,0.090730466,-0.15922827,-1.2276466
0.5399947,-1.753924,0.6698986,0.8271477,-1.6680005
-0.66898906,-4.7774377,0.14056665,-1.0263922,-3.0723414
-1.533232,-6.5029736,-2.138654,-3.0449169,-3.792026
0.48824784,-1.180641,-0.18463485,0.52535325,-0.6865215
2.0282037,1.4305594,1.8748964,2.393482,0.7000904
2.567315,2.2548764,1.5009046,2.5849042,1.4687383
-0.991237,-5.41004,0.8085439,-0.415063,-3.2235596
-2.292986,-4.3261423,-1.2822298,-2.3945274,-2.3144562
-0.54400516,-0.36328983,1.1835387,2.0927572,-0.43463767
1.2108686,-0.5752094,1.1562179,1.3505671,-0.4043365
0.95309836,-1.4687634,0.07521479,-0.22070675,-1.3886932
-1.0732162,-4.166979,-2.0790539,-1.6151823,-2.9277332
-2.6405656,-3.6083295,-2.1356819,-2.2304087,-2.3935044
0.6709666,0.9776938,0.05183022,-0.8583525,0.32920307
-3.729461,-8.965812,-3.8202493,-3.6688848,-6.468742
-2.3134246,-2.4276547,-1.7968112,-2.2391903,-1.8036624
2.8935814,7.238363,2.7012036,3.1416104,5.085023
5.5400515,10.504916,6.7109785,5.3144574,7.589884
2.6503901,4.6397147,2.784192,2.7021413,2.757857
-0.2157842,-1.697202,0.4961693,0.39656338,-0.94623566
-1.7743201,-3.5838814,-2.4833024,-2.6297817,-3.0272694
-0.55369395,2.0205047,0.7363445,-0.56444407,1.2910082
5.1396427,9.985379,4.7060547,4.913065,7.1543183
2.3535457,5.825295,3.7695782,3.2402518,4.2178345
-0.7314078,-0.96279436,0.99028057,0.6826699,-0.0038405494
-1.2480041,-0.10831615,0.60455024,0.051819183,0.59088105
-0.4901621,-2.5984752,-0.69912744,-0.66984034,-1.675666
-4.7246165,-9.374967,-3.7617218,-4.1552672,-6.9023247
-3.7890859,-3.8672214,-3.1103597,-3.2558708,-2.9785347
-3.1328032,-2.1591668,-2.2744007,-3.0497925,-1.6318414
-2.1943238,-0.5409886,-0.3828023,-1.8027167,-1.0849417
-0.7763369,1.6142702,0.966834,-0.48142877,0.84474576
0.13084169,0.31831652,-0.103533186,-1.0537137,-0.33011684
-3.2559714,-6.1710005,-1.3653176,-3.2500546,-4.0372124
-4.0010567,-4.9141297,-1.786188,-2.6660461,-4.4404955
-1.4853251,2.3261964,1.8623252,-0.2451065,1.1230721
3.2422047,8.442409,2.9834137,3.371088,6.2568736
3.602535,5.910206,2.842772,2.9208791,4.2344074
1.3661432,-0.6309158,0.28217244,0.4296679,-0.4307407
1.3877119,-0.5761581,-0.8076394,-2.3730824,0.33692488
2.7587829,4.177782,1.9101416,2.0400429,2.9990609
3.0742347,4.7539725,3.0576444,2.838879,3.505915
3.877909,5.355474,2.6279254,3.17088,3.4375012
5.1181593,6.751026,3.4716814,3.695291,4.2812743
4.9374914,6.2881036,3.811542,3.0859342,3.6103773
2.9569883,1.2343657,2.4736094,1.524392,0.69529855
-2.862279,-5.4491653,-2.3408358,-3.333024,-4.493136
-2.6444757,-2.9179072,-2.0028784,-2.0341356,-3.0741782
3.541031,5.7558985,3.4893007,2.7773817,4.752963
2.5419917,5.7783804,2.3437579,2.2519398,3.9365594
1.7890705,3.9199548,2.6787455,1.5322388,3.0527604
-1.6132715,-2.1327696,-0.7744154,-1.64453,-1.7372779
-2.9315898,-4.8417425,-3.0233977,-3.3837612,-4.2880373
-3.1532292,-4.6962223,-3.3466206,-3.4423199,-4.1444664
-2.6366634,-1.6610848,-1.6464436,-1.6229984,-1.408161
0.17871855,4.442398,2.2207372,1.2460885,3.900424
0.17678924,3.141661,2.956102,1.8467046,2.409234
2.876013,6.9649467,3.950241,3.0117412,4.867256
2.1865368,5.095775,2.1406589,2.1953275,3.6504238
-0.6191273,-1.4891866,-0.4560528,-0.9433654,-1.0868798
0.3525095,-6.0839458,0.7694901,0.39646864,-3.9911926
0.00779746,-3.980454,-0.84275657,-0.44821262,-2.275376
-0.5634903,-1.6015756,-0.21190083,-0.42577535,-0.7295371
1.4755127,-1.7744316,1.3896345,1.0976459,-0.26467597
0.650304,-1.452156,1.0546182,1.964811,-0.5918801
0.21967621,-2.6836169,1.3553996,1.7284975,-1.0156769
2.2733557,1.0107409,0.9930967,2.097633,1.2958927
0.19523025,0.9775701,0.8944795,0.21191278,-0.25878695
2.1181712,7.459007,2.2724977,2.4677908,5.203166
3.5381017,6.017621,3.1045227,3.184576,4.201209
2.4638865,4.353579,2.299821,2.2714798,3.5225039
0.7305177,4.9580903,3.300855,2.3525896,3.767644
-0.32615852,0.46782038,0.986375,-0.41793817,0.4834363
-1.2401724,-4.0887737,-0.2089548,-1.4413602,-2.449166
-1.0702419,-2.8651402,-0.52829874,-1.3564091,-2.0438795
-0.48438576,-2.6992524,-0.13967869,0.9228469,-1.7715029
1.7519094,-1.0165967,1.1942986,0.8075998,-0.53712416
3.815394,3.3124897,1.1650232,1.9062241,1.9316409
1.1972061,-1.5917917,0.9111248,0.77929085,-1.2910385
-0.6269484,2.2256267,1.9209356,1.0752068,1.7646824
-0.73336405,-0.7499678,0.043995738,-0.9579582,-0.43746796
1.0527731,6.114326,2.515663,2.3017673,4.3770075
2.8535867,7.9014487,4.32234,3.1221142,5.5166626
-0.76068157,0.034239136,-0.60051787,-0.046812057,-0.54584163
1.7783412,6.8164597,2.9229002,3.2314694,5.667042
2.039093,4.336011,3.2295406,2.010776,2.335007
1.1006068,-0.9736201,1.3017963,0.50687206,-0.14061892
-2.40818,-5.018523,-1.8466445,-1.914018,-3.1884608
-1.6025063,-4.656195,-1.3779019,-1.4374696,-3.0566065
-0.37300897,4.4932246,2.7686315,2.2549372,3.072316
1.0546962,5.1240597,2.0234802,1.7314796,4.0498424
1.8241888,-1.1142746,1.4316175,1.7470573,-0.26956308
0.31045166,-3.481489,0.7362504,1.3837433,-1.8985003
-1.7168546,-3.9638824,-0.999063,-2.402381,-3.3027513
1.2186447,-1.1406082,0.8709964,2.1855085,0.00095252536
3.1386182,0.34081966,1.3661466,2.3573847,0.5624737
3.0526288,3.3886817,1.6649263,3.7636135,2.225589
-0.4531129,3.7295396,0.8290412,0.6845471,2.391624
-0.072300605,-1.9013966,0.27343348,-1.2617164,-1.1318657
-0.033208344,-4.9579763,0.30855075,0.32812282,-2.7734272
-0.4062406,-4.455044,1.0810679,-0.009748823,-2.7968402
-1.6601,1.0234727,-0.60344726,-0.6112648,1.0898874
-1.0107101,-0.43061575,-0.833932,-1.0224081,-0.5165668
-0.62109184,1.4843981,0.70315474,0.38479927,2.0635033
1.7177514,3.9551244,2.8300927,3.0419948,3.8057005
3.7441413,8.240288,4.0195503,4.5136776,6.732477
1.9345908,0.8741004,2.2939863,0.98246044,0.82134914
-1.0859118,-3.3075666,-1.4774936,-1.1181111,-1.819298
-1.9003928,-2.2363353,-1.1191182,-1.1366879,-0.9502279
1.0214654,-1.259767,0.87696975,-0.43260682,-1.1191778
0.55565053,-0.30564374,1.2021629,-0.09960505,-0.591811
-0.12598054,-3.3495975,-0.14939564,-0.86814433,-2.1044986
-1.9198922,-4.7167664,0.34668675,-0.25876313,-2.7421596
-2.8524938,-3.6347399,-1.668893,-1.5018941,-1.8232214
-3.2860844,-2.5712526,-1.7577523,-1.692315,-1.7812063
-2.5761316,-3.6757505,-1.8935167,-1.6415557,-2.2587721
-1.4911964,-2.6210814,1.5224882,-1.308584,-1.5917983
-1.2265604,-1.3584036,-0.5888487,-0.99119407,-0.85160375
1.7254974,-2.646492,1.3915683,1.854483,-2.2402735
0.017456265,-2.1123219,1.0702338,2.7792711,-1.2637566
-1.6154027,-4.593841,1.6336752,0.519515,-2.5001185
-0.19348277,-0.065435566,1.6366192,0.5878847,-0.16994156
-1.6513407,-0.7841419,-0.29295656,-1.9120905,-0.7050307
-1.7324265,-5.632764,-1.9062518,-3.001949,-4.7011375
-0.76074916,-5.169889,0.632786,-2.4121182,-3.3876917
-1.3095399,-3.2655869,-0.59079957,-1.2753605,-2.2919598
-2.3202653,-0.381809,-1.0282749,-0.8056115,-0.84957
-2.0028791,-5.723575,-2.028256,-2.0761044,-3.6688967
-2.4247575,-7.227439,-2.1522977,-2.1181266,-4.357349
-0.8847487,0.79595107,-0.0780942,-0.2704802,0.93559533
-0.15035313,-0.82317287,0.8027687,1.0547091,-0.37494013
0.32136318,3.1700213,2.482514,1.635822,2.236409
-0.6854866,0.66315,2.062587,1.1992881,1.2725227
-0.862262,-0.35734993,-0.6337719,-0.9550342,-0.85542554
-0.5996069,2.6816611,1.9463102,1.984376,2.1474888
-0.89257115,4.171905,2.8603992,2.2695496,3.5478902
-1.3935177,-0.5868906,0.5391356,0.118230864,-0.39351207
-1.4892529,-3.5449722,-0.38964915,-0.87987274,-2.310577
1.2635869,-1.6435543,1.5087587,2.3036928,-0.8477026
0.21870214,-0.3320222,1.6054496,1.5976368,-0.95025736
-0.16217338,-2.2050729,1.4218413,1.5292858,-1.2685935
-0.22956131,-1.3808609,1.3876646,-0.0009783164,-1.5508286
-1.545883,-5.0214834,-0.4345702,-0.5507722,-3.644524
-1.7695876,-5.1367483,-0.3720934,-1.6308738,-3.479514
-0.7119559,-6.0273223,-0.027351243,-0.13183504,-3.383779
-0.5341704,-3.7050753,-0.018527254,-0.14353426,-2.3300622
-2.2910056,-3.8525414,-1.6318007,-1.7939048,-2.9521444
0.5497467,-3.211927,0.6132391,1.0234286,-2.2920172
1.6474013,-0.72852564,1.7646286,2.018531,-0.023459975
0.96576124,-2.5244331,1.4755845,1.4775277,-0.8720912
-1.7187322,-2.7568066,-1.0390208,-0.77436817,-1.8007592
3.572312,6.311655,3.055754,2.6641262,4.086998
-0.07123781,0.06061163,0.5537838,0.40436485,0.066459484
-0.2236479,-2.5000153,1.5107626,0.8506043,-0.9414067
1.6102988,-2.1445413,1.1758019,1.0986402,-1.2676034
0.81928205,-3.4160633,0.5029394,0.30078566,-2.3955543
0.38177904,-1.4941442,1.940431,1.3320231,-0.9922212
0.37981975,-1.031255,0.9072267,0.5497996,-0.68561655
2.5711663,-1.138712,2.3896158,2.885713,-0.110409185
2.8963828,0.0292416,2.8876626,3.7851217,-0.19146425
1.5887282,0.79678726,2.1258962,3.451124,-0.08408198
3.0272014,3.115187,1.6990972,4.384703,1.059509
1.2089325,-0.5400143,2.1014657,3.7440987,-0.16501981
0.87598807,5.64357,2.2685509,1.681615,3.6611426
3.3046951,3.376056,2.6171901,3.0917907,2.133844
-4.1190863,-8.963804,-3.6620336,-3.5165272,-5.453073
-0.1484232,3.75586,-0.11130338,-0.49705434,2.2900543
1.6172659,-0.6540946,1.7120072,1.3789839,0.38783118
-1.3299836,-5.0974774,-1.5106523,-2.0047948,-2.5887434
-0.097698085,1.5234292,1.6611211,1.6874901,1.4619253
3.8124707,3.5302572,2.2119193,2.454085,2.2109392
-1.6181833,-5.0244527,-1.2109158,-1.7792768,-3.2890904
-1.2929817,-2.4394615,-0.5029133,-0.016594399,-2.0361328
-2.3203106,-4.815439,-1.7685162,-2.0712435,-3.6337798
-2.1015322,-4.5859256,-1.4706664,-1.7792501,-2.4853249
-2.0273046,-3.3290572,-0.9081387,-1.0946617,-1.2724217
-2.6054235,-2.8398037,-1.1874515,-1.250923,-1.0136402
-1.5614781,-1.0234001,0.2793657,0.118228845,-0.15426433
0.9961057,3.5274081,3.1358285,1.6904929,2.237344
1.9325988,3.5654376,2.0771663,2.281254,2.8691516
3.4950757,5.5546675,2.3984196,3.074183,3.448227
4.1981654,5.4628544,3.3944914,4.20015,3.1952827
5.371038,6.878914,2.7226305,3.7470267,5.366227
3.2734196,7.8476644,2.5712962,3.177711,6.3183913
4.51557,5.3134828,3.6181371,3.5419538,3.9794984
4.5585837,6.990257,4.238303,3.7451243,5.4394817
-0.33399254,2.0927753,2.0722773,2.3583941,1.7998013
-0.13587214,-5.568452,0.44035617,0.56637603,-2.9454033
-1.0087514,-6.2733493,-2.253847,-2.7938905,-4.297797
0.14166105,-4.267446,1.3731047,1.0508313,-1.5526553
-1.2470353,-5.6044188,-2.2929368,-2.8505645,-3.8583653
-5.044913,-10.355512,-5.5136333,-5.3525043,-7.271526
-2.2646625,-7.2109504,-2.2187111,-2.5429444,-4.3193417
1.0918313,-1.3651649,0.9404632,0.28614488,-0.032178793
-1.9785194,-5.811502,-1.6298624,-2.346677,-3.5146575
-3.34665,-4.9365263,-2.7509203,-2.7099204,-3.1474576
-4.069298,-10.860337,-4.2909465,-4.515561,-7.3056374
-3.5644124,-10.173772,-3.5097032,-3.9452393,-5.7323675
-2.4091475,-5.79197,-1.4159653,-2.2108872,-2.8300476
4.8017755,9.807763,6.465901,5.3359694,7.000095
7.391651,8.94453,6.524501,5.298901,6.6876373
2.087971,-4.5300894,0.266693,-0.8817581,-2.53015
-4.237231,-11.644406,-4.20792,-4.4422855,-6.9559674
-1.3427489,-7.6707764,-1.9618673,-1.7079688,-3.903256
-3.346661,-8.057635,-4.4618726,-3.830031,-5.626974
-3.3984687,-6.5244617,-3.5752034,-3.3867142,-4.802787
-1.8271717,-2.0459354,-1.0575846,-1.9335669,-1.4609597
-1.9599245,-5.0936637,-0.55954295,-1.6122541,-1.8436949
-2.3007743,-5.763677,-1.7441069,-2.156214,-4.207029
-1.7324407,-1.1406661,-0.32713553,-0.38378426,-1.3252348
-1.3379067,-0.4922066,-0.2841621,0.051760435,0.0078120288
-1.4716926,-2.2968903,-0.1298745,-0.2080109,-1.4833847
-0.9053484,1.1825793,1.2665718,0.07323233,-0.333048
1.8056322,4.5849643,2.167963,2.5605197,2.8486352
3.4404566,6.9913354,4.169064,3.217865,4.8682566
-1.8661517,-5.2694383,-2.2538223,-2.4003081,-3.15423
-1.2822384,-2.456065,-0.548809,-0.8857185,-0.85936725
2.2421794,3.1348174,2.6211338,2.25095,2.5547154
1.6913873,5.5185905,3.4863865,1.9267695,3.2285542
3.193327,7.3163953,1.3046999,2.7431457,3.9130812
2.0009403,4.058575,1.4306514,2.2763395,2.4374998
5.269491,10.615226,3.6855268,4.4911704,6.6806736
6.554712,7.9366364,5.6543355,4.5341835,5.3809276
1.8399374,-0.59546137,2.3809836,1.6885836,-0.010592494
0.51567477,-3.42858,-0.9198554,-0.9022837,-1.3827404
-1.4882903,-3.1728363,-0.13280337,0.16797224,-0.72556746
4.9433255,7.3056765,4.148431,4.0575876,4.861341
1.2725168,-1.4969089,1.479546,0.720761,0.06259116
5.3935237,12.4589815,5.629881,4.8886294,8.449235
7.5165987,13.234429,6.6504445,4.2812576,9.371159
5.775333,9.133767,4.3056655,4.883768,6.8671956
-0.21685246,0.5302634,1.2138343,1.1884564,1.3925604
0.48427546,-0.6699208,1.4286587,2.9921625,-0.124049045
