"[299, 255]","[227, 248]","[287, 319]","[279, 328]","[230, 262]"
-23.700684,-61.7937,-25.087402,-34.123535,-36.108643
-38.260498,-108.34204,-48.243652,-56.63208,-67.13208
-74.01587,-109.37378,-56.264893,-72.59766,-69.16626
-64.447266,-87.148926,-51.313965,-58.285645,-57.604736
-0.67333984,-5.3303223,-3.369629,-1.1364746,-3.5996094
-27.799316,-51.756104,-41.65381,-38.33667,-41.868164
-72.075195,-94.73877,-53.377197,-57.210205,-75.76904
-51.811523,-91.2688,-50.14917,-47.455566,-62.591553
-27.025635,-39.03833,-28.674805,-25.477783,-26.110352
-4.036133,-41.802002,-8.493652,-5.418701,-28.888672
-40.161377,-86.33032,-46.218018,-57.22583,-57.471924
-15.381836,-38.696533,-19.68335,-18.786865,-26.242432
-17.16626,-67.21704,-35.808105,-35.5083,-41.27173
-14.9592285,-29.129639,-19.849854,-16.973877,-16.49292
-0.32592773,2.8242188,-3.822754,-1.3703613,-1.2006836
-1.3054199,2.1872559,-2.3388672,-1.8093262,-1.9304199
-5.005615,-12.363037,-14.151611,-11.781982,-8.92041
-68.57373,-81.036865,-55.631348,-64.73535,-61.500732
-62.888184,-67.447754,-39.17041,-45.18701,-44.17578
-46.76245,-76.53931,-13.595703,-13.45874,-58.383057
-36.54248,-44.09546,-15.751221,-10.468262,-19.70459
-31.208252,-54.717773,-33.047607,-45.32422,-41.9646
-7.814209,-21.256348,-24.178223,-21.400635,-15.859375
-20.358887,-47.818848,-33.09839,-35.165527,-36.303467
-19.928955,-71.11133,-37.156006,-48.029785,-50.724365
-35.92505,-40.258057,-34.65674,-35.339844,-25.588135
-48.484863,-81.609375,-61.366943,-60.06787,-65.93286
-28.991455,-58.202393,-37.70215,-36.697266,-37.645996
-2.3234863,-2.8359375,-6.7419434,-7.0097656,-2.5593262
-3.5395508,-12.113281,-15.770264,-17.128418,-17.114014
-45.223877,-85.69409,-60.447754,-58.20117,-61.6875
-22.113281,-54.644043,-43.590088,-43.098633,-40.755615
-2.334961,-7.6394043,-7.434082,-4.529297,-9.380127
-13.315186,-35.409424,-8.304932,-7.8464355,-29.055908
-3.9995117,-0.8508301,-2.9138184,-4.3427734,-2.21875
-36.18701,-54.991455,-41.0896,-37.100098,-41.71924
-66.213135,-107.05444,-70.610596,-60.01587,-71.605225
-35.826416,-92.88135,-50.290527,-54.062256,-65.63159
-16.912598,-33.8208,-13.217285,-15.295898,-15.847412
-7.7541504,-64.05054,-13.768799,-21.470459,-36.61084
-42.943115,-54.914062,-32.118896,-36.306396,-32.11792
-0.49169922,-0.6237793,-0.14575195,0.30566406,-0.9199219
-30.208984,-77.27905,-46.378418,-60.144775,-58.17993
-74.62573,-92.05347,-60.740723,-65.93042,-66.03711
-66.81787,-97.63281,-64.997314,-62.595215,-71.26709
-64.20386,-77.858154,-39.024414,-37.234375,-60.684814
-71.249756,-92.95508,-42.936768,-33.098633,-47.091553
-69.70386,-87.15674,-30.688965,-26.390625,-53.64453
-79.029785,-74.44458,-68.177734,-72.48218,-48.80249
-9.987549,-51.6167,-7.2731934,-10.784668,-25.867432
-26.251465,-49.324463,-26.009766,-39.750732,-25.426025
-9.963379,-31.692139,-6.91333,-4.7248535,-12.120605
-35.247314,-60.975098,-49.019775,-46.03003,-45.442627
-22.165283,-67.502686,-28.519043,-31.73462,-50.49536
-41.51465,-92.288086,-74.042725,-71.19922,-73.142334
-76.67505,-87.808105,-44.394287,-52.908936,-70.171875
-23.374023,-13.493164,-26.701172,-27.133057,-10.639648
-18.226318,-25.502197,-18.260254,-23.290527,-42.59082
-40.3042,-49.126953,-34.78784,-58.011475,-48.322754
-45.02832,-79.24341,-50.025635,-65.227295,-66.20215
-81.129395,-95.33545,-47.769775,-86.97974,-74.235596
-65.947266,-73.01245,-31.61206,-80.71338,-46.022705
-34.890625,-34.67212,-28.254395,-37.475098,-16.396729
-26.090332,-35.305176,-28.954834,-27.512207,-32.53589
-54.3313,-43.000732,-39.829834,-38.82007,-36.15576
-32.716553,-26.645264,-22.973145,-23.186035,-22.077148
-68.95068,-39.715332,-47.414062,-47.824707,-38.60913
-78.86133,-36.908936,-60.02954,-55.721436,-34.25659
-10.172852,-1.6760254,-16.184814,-9.597168,-8.705811
-6.3759766,1.8254395,-8.094971,-5.6899414,-4.6445312
-10.061523,-20.8396,-14.505127,-12.460449,-16.36499
-14.465576,-44.65918,-37.249023,-39.042236,-38.75708
-7.1289062,-15.172607,-18.751709,-19.17041,-18.618164
-16.69165,-38.760742,-28.312744,-33.8208,-29.169434
-13.224609,-50.27173,-19.275879,-17.227295,-31.46045
-35.603027,-77.96362,-50.789307,-55.77002,-49.005615
-70.231445,-93.342285,-72.5022,-76.06152,-76.48779
-5.887451,-6.585449,-8.790039,-7.6032715,-3.4887695
-2.8933105,4.038574,-0.79833984,-1.2897949,-1.6208496
-16.64038,-48.516113,-40.73828,-40.431396,-42.215088
-10.46875,-43.817627,-31.177246,-36.41577,-34.861816
-5.713135,-15.3396,-11.171875,-11.17041,-13.973633
-33.219727,-47.27368,-38.496582,-35.059814,-33.59131
-23.042725,-49.86206,-30.024658,-34.71118,-37.227295
-35.394775,-81.802734,-59.712646,-61.601807,-54.83081
-56.781982,-77.58276,-65.30884,-71.157715,-65.07056
-72.71289,-81.237305,-80.01953,-79.76636,-75.52319
-3.24292,-8.68335,-15.8811035,-6.7524414,-3.4465332
-1.8967285,-22.682129,-7.3825684,-8.223145,-11.86377
-23.384766,-52.60205,-47.31201,-53.443604,-46.541016
-7.418213,-43.825195,-29.567139,-33.37085,-28.027344
-24.960205,-45.43799,-29.447266,-41.742676,-46.698486
-34.656494,-22.32959,-39.166992,-47.96289,-23.395264
-47.398926,-66.16821,-33.70752,-44.976807,-54.088867
-32.28076,-37.405518,-30.514893,-25.811768,-31.187256
-0.69873047,4.1469727,-17.215088,-18.642822,-1.7338867
-10.93457,-28.811523,-27.32666,-33.67505,-29.301758
-45.93335,-84.1897,-56.708008,-62.820312,-68.80884
-15.889893,-70.78711,-55.436035,-61.417725,-52.908936
-46.689453,-73.74585,-60.92456,-69.86865,-71.05127
-64.98047,-82.616455,-65.48291,-71.18164,-72.80078
-4.511963,-8.742432,-8.994629,-6.71875,-4.345459
-1.9343262,-6.046875,-9.328613,-6.9208984,-7.041992
-26.342041,-78.1084,-58.354492,-60.35083,-64.903076
-44.040527,-71.1626,-78.2229,-79.764404,-66.57959
-16.087402,-28.267578,-26.03247,-25.547852,-20.21167
-27.340088,-59.887695,-39.833496,-40.720703,-47.87964
-53.112305,-82.72119,-60.855713,-67.29199,-77.87134
-70.38721,-88.73682,-76.79321,-77.45044,-66.64526
-86.313965,-91.62402,-81.111084,-80.576904,-82.28589
-53.8667,-36.581055,-41.132812,-37.427734,-26.568604
-8.701904,-31.594482,-26.368408,-31.458984,-30.505127
-28.744629,-53.816162,-38.219482,-47.352783,-45.065918
-23.023926,-38.063232,-25.532959,-20.204346,-22.34497
-22.073486,-51.278564,-26.203613,-15.388428,-37.808838
-34.37744,-54.33496,-40.73828,-42.879883,-52.857178
-51.861816,-62.15625,-56.800293,-74.098145,-60.745605
-35.427246,-27.7229,-31.811523,-28.177002,-20.384521
-5.855957,-8.330078,-4.701172,-7.6484375,-10.653076
-5.557617,-0.41137695,-10.048828,-8.280273,-4.4023438
-40.903076,-28.453125,-39.959473,-26.593506,-36.22754
-54.992676,-44.31201,-55.15747,-53.498047,-45.77832
-31.561768,-53.32837,-45.774414,-47.219727,-48.21753
-50.46704,-62.95703,-59.934082,-60.924072,-63.10742
-53.61963,-52.835205,-62.368896,-65.006836,-45.67334
-35.38623,-65.69946,-51.131104,-55.10913,-51.560303
-65.54712,-73.98071,-64.14697,-67.13037,-66.79053
-69.05347,-91.19507,-77.00586,-82.7793,-80.32959
-77.07959,-88.614746,-72.55835,-83.91821,-79.64136
-70.34863,-72.35425,-62.82617,-54.635254,-60.599854
-54.454834,-74.31421,-64.75708,-63.63208,-69.357666
-43.87671,-37.882324,-37.931396,-39.04883,-38.193848
-53.607178,-87.998535,-42.835205,-43.61035,-80.26172
-56.20166,-79.299805,-78.74341,-74.30127,-75.87671
-48.088867,-56.159424,-55.6167,-62.082764,-50.239014
-23.292236,-64.39575,-35.226074,-37.845703,-52.20581
-45.264893,-39.063965,-59.630615,-55.51831,-34.69287
-13.623047,-16.707275,-9.729248,-14.776367,-19.192383
-47.22339,-87.45752,-77.258545,-73.4397,-90.27466
-73.49365,-85.22998,-74.97974,-89.22095,-85.063965
-86.86963,-50.817627,-85.92993,-94.85449,-57.166504
-34.34131,-47.04248,-24.0625,-24.16333,-32.198975
-24.784424,-56.480225,-37.180664,-35.26538,-57.66626
-50.29077,-82.812744,-75.823,-79.48755,-63.29956
-67.157715,-66.73242,-57.46118,-64.45239,-66.5459
-70.625244,-104.67285,-80.54077,-89.54907,-87.048584
-72.809326,-87.243164,-80.2771,-86.11792,-86.203125
-65.54468,-71.542725,-69.39722,-72.73755,-69.79639
-9.794678,-19.204346,-18.061768,-18.793213,-22.170898
-52.603027,-65.31763,-55.600098,-60.72827,-72.964355
-52.618896,-73.65332,-60.595947,-69.9834,-82.062744
-38.281982,-31.812256,-16.509766,-20.334473,-24.358398
-90.67261,-65.08765,-58.683838,-56.772217,-72.7229
-57.109863,-32.379883,-39.97461,-43.007812,-32.985596
-37.21582,-63.429688,-51.090576,-70.06641,-71.85132
-56.63794,-55.510498,-55.248047,-52.98828,-56.41748
-68.70337,-75.84668,-54.097168,-70.26001,-75.78784
-50.374268,-27.378662,-38.366455,-33.870605,-21.424805
-4.5983887,-2.996338,-4.260742,-9.621582,-11.868652
-17.458984,-24.655273,-50.214844,-50.00757,-50.066162
-46.354736,-69.09302,-66.017334,-67.673584,-72.764404
-55.93799,-56.767822,-45.597656,-47.125,-60.636963
-61.107666,-66.78003,-58.648926,-76.23364,-61.592773
-27.313965,-15.085205,-8.996338,-10.688232,-13.71167
-5.9179688,-8.371826,-18.4646,-23.198486,-17.520996
-26.115967,-34.00708,-23.289307,-21.21167,-39.58545
-45.34546,-67.40234,-68.93872,-62.573975,-71.948975
-76.28052,-79.79297,-74.555176,-77.091064,-86.80054
-62.202393,-59.78784,-58.97412,-57.90869,-59.798584
-69.150635,-96.47681,-89.36743,-95.19873,-99.54468
-63.208008,-50.044678,-59.741943,-55.36084,-50.538086
-54.135986,-75.839355,-65.633545,-68.23682,-65.11914
-48.18628,-50.413574,-52.808105,-56.62036,-49.355713
-9.60498,-13.864502,-19.164062,-17.854248,-16.45874
-16.641602,-28.931396,-28.101807,-26.405518,-20.388672
-45.474854,-75.701904,-76.35303,-79.599365,-78.56006
-6.4353027,-5.335205,-10.064453,-13.653564,-5.452881
-4.658203,-23.576904,-7.140625,-8.924561,-18.714111
-17.187988,-41.980225,-56.283203,-57.632812,-50.242676
-55.176514,-80.101074,-54.475586,-58.801514,-78.49097
-19.483643,-26.309814,-22.845459,-24.331299,-12.383789
-60.46924,-42.45923,-57.84082,-52.89795,-49.870117
-35.620117,-50.097168,-41.037598,-47.728516,-60.882812
-43.944336,-39.49341,-39.058105,-46.913574,-51.789795
-46.472656,-38.065918,-38.1709,-47.72583,-45.09912
-43.46753,-40.95117,-54.141113,-50.4375,-44.92627
-45.763916,-26.558594,-37.176758,-42.975586,-30.894287
-44.552734,-48.092773,-47.4187,-51.36377,-47.958984
-38.997314,-58.137207,-49.29419,-59.670654,-69.418945
-41.038574,-49.987305,-56.553467,-56.67627,-43.17334
-25.846436,-27.317383,-25.176025,-27.569336,-29.564209
-17.092041,-28.1604,-28.725586,-33.11743,-24.216064
-71.27661,-73.61377,-51.166992,-56.777832,-76.33765
-56.588135,-27.937988,-41.951416,-41.397705,-28.28711
-16.452148,-24.146729,-32.62793,-43.18042,-41.124756
-20.41504,-13.556152,-11.484131,-12.396484,-19.538086
-35.956543,-26.293945,-39.59619,-39.09204,-25.901855
-34.306885,-38.482666,-44.924805,-43.886963,-27.115967
-39.097656,-58.576416,-18.817871,-14.516113,-45.508545
-35.442627,-45.63452,-39.750977,-39.800537,-37.739746
-11.611328,-18.744385,-15.934326,-17.51416,-9.657959
-19.29712,-37.138916,-44.04541,-41.85791,-40.25952
-6.911133,-9.038574,-7.433838,-9.506592,-7.8149414
-37.405273,-48.914307,-51.498535,-51.272705,-47.03955
-46.862793,-62.555664,-60.99951,-64.52124,-66.2395
-45.638184,-34.87085,-42.9292,-43.251953,-32.785645
-8.5390625,-13.32959,-14.125244,-18.449463,-12.586426
-7.715332,-17.216309,-12.124023,-16.333984,-12.594727
-36.28076,-63.441406,-44.658203,-42.59912,-67.51636
-24.605957,-39.464844,-36.099854,-31.707031,-36.970947
-9.375977,-23.374023,-35.237305,-39.806396,-24.750977
-37.748535,-57.839355,-62.641113,-68.72778,-62.562744
-87.54932,-73.70703,-82.5647,-83.58154,-77.92651
-24.747803,-19.71753,-52.68042,-52.333984,-16.754883
-22.625,-23.490967,-33.643066,-39.63794,-28.713623
-36.38623,-28.58374,-30.163086,-38.983643,-29.53247
-39.329834,-14.979736,-17.299316,-17.07788,-16.56543
-36.19873,-39.09619,-41.683105,-51.531982,-53.049316
-51.09912,-79.87012,-62.453613,-80.97583,-83.55298
-66.79419,-53.628418,-73.458984,-80.84619,-60.06958
-17.427002,-15.596191,-28.496094,-39.85083,-21.238281
-32.436523,-12.293945,-25.404297,-25.198242,-20.64746
-37.383545,-36.71753,-43.61206,-53.967285,-47.766846
-47.471924,-18.122314,-30.481445,-29.300537,-19.150879
-30.021484,-47.835693,-56.576416,-60.20337,-61.80835
-57.280273,-67.92554,-71.95337,-80.76318,-68.64111
-83.204346,-60.892334,-75.284424,-79.29077,-71.006836
-78.89673,-59.556152,-64.33423,-65.17529,-67.07739
-56.133545,-33.38916,-29.790527,-49.90332,-40.354492
-73.08789,-75.25586,-72.108154,-74.095215,-71.10181
-39.69043,-37.357178,-39.97119,-48.869385,-37.38965
-61.789307,-60.925537,-64.30005,-69.923096,-61.79248
-79.38623,-49.68506,-73.38379,-83.71362,-61.581787
-20.245117,-25.377441,-72.00293,-95.39966,-38.277832
-32.262695,-61.21826,-51.11914,-63.36133,-58.085693
-28.797363,-16.054443,-29.32666,-36.172607,-18.55371
-52.04541,-64.85864,-57.385986,-64.880615,-61.073242
-36.394043,-22.062256,-24.333984,-23.365234,-15.385498
-32.44873,-50.689697,-37.438965,-51.970703,-48.06201
-60.880127,-54.595703,-52.66748,-67.15259,-58.22876
-78.59717,-59.77539,-71.2251,-78.21069,-69.264404
-54.34326,-42.190918,-31.061523,-28.65625,-43.638916
-45.036133,-31.719727,-33.279785,-41.74414,-41.014893
-58.101807,-52.799316,-57.97046,-58.828857,-64.697266
-73.05957,-60.472656,-63.763916,-65.59741,-55.971924
-53.218994,-88.81372,-45.70752,-51.193115,-83.40137
-72.694336,-58.710205,-55.460693,-56.547607,-64.6897
-81.98779,-63.13794,-76.36011,-82.17236,-77.11743
-74.38379,-67.97656,-78.90576,-84.096924,-79.08008
-83.898926,-67.63989,-74.82544,-73.920166,-73.95288
-75.26953,-45.628174,-52.81079,-53.042725,-52.47876
-57.791748,-58.90674,-46.92578,-46.229004,-69.501465
-89.985596,-81.17383,-81.93506,-85.15625,-86.40796
-76.65332,-82.38428,-44.90503,-54.60132,-77.19287
-39.88745,-48.13867,-34.58252,-47.06958,-46.367188
-63.10962,-62.166504,-36.76367,-37.745117,-52.66455
-60.794678,-61.9917,-46.638916,-52.280273,-59.949463
-64.43115,-56.900146,-58.105225,-61.696045,-39.18921
-47.171875,-58.432373,-24.843018,-32.498047,-47.893555
-65.31201,-55.69043,-51.079346,-47.20166,-55.44043
-84.31323,-65.08447,-74.55029,-74.28174,-64.25659
-76.87744,-45.85376,-48.44409,-48.00415,-45.70923
-49.64038,-33.44702,-31.444336,-35.57007,-26.560791
-62.450195,-55.776123,-60.752686,-62.516846,-53.215332
-48.006104,-65.18823,-42.648438,-35.765625,-54.02832
-40.604736,-67.42993,-47.36133,-49.5,-52.693115
-32.47827,-53.711914,-30.91333,-31.656006,-42.47119
-18.378418,-42.194824,-30.769043,-27.865234,-29.89502
-36.91455,-83.142334,-41.558838,-41.814453,-67.80444
-66.6416,-84.10083,-60.223145,-58.42798,-58.799316
-23.153809,-71.70703,-29.715332,-38.752686,-43.62451
-39.12915,-25.219727,-32.59619,-29.223389,-15.964111
-17.916992,-35.726562,-30.476074,-33.98047,-22.71582
-20.08789,-35.010742,-31.424316,-32.220703,-28.662598
-30.646729,-53.15381,-50.29248,-45.831543,-48.80493
-59.650635,-39.667725,-51.645264,-47.581543,-35.52002
-5.866211,-8.053467,-6.7304688,-5.2006836,-11.932861
-3.3376465,-15.457031,-9.703613,-17.641602,-18.680908
-42.54663,-60.747314,-79.53833,-81.193115,-67.70093
-84.29028,-66.86377,-70.49536,-71.66528,-64.71973
-72.39502,-71.07544,-64.249756,-68.34912,-68.65015
-76.10596,-79.40332,-65.240234,-67.47974,-69.220215
-25.261475,-39.3584,-25.287842,-20.325684,-32.738037
-36.520996,-69.57031,-35.69629,-50.472168,-58.2146
-42.439453,-41.338623,-38.323975,-34.385254,-34.9563
-28.65332,-61.613525,-61.291504,-57.26367,-61.41211
-58.124023,-69.11255,-70.961426,-75.47803,-60.52588
-26.85791,-32.291504,-36.7334,-40.020264,-23.743164
-9.44165,-11.797607,-22.25586,-21.389648,-20.489258
-31.270996,-38.737305,-34.75,-37.460938,-42.81787
-66.499756,-59.986572,-42.307617,-43.78369,-66.54956
-72.1499,-57.52661,-62.93091,-64.69922,-62.823486
-64.438965,-45.93042,-24.648682,-39.243896,-42.662598
-75.806885,-88.3772,-40.78418,-54.201904,-74.12451
-74.24487,-61.619385,-64.59204,-68.97632,-58.458008
-28.375977,-22.947266,-23.307129,-21.152344,-18.391846
-26.85205,-45.424072,-43.95459,-39.448242,-39.61328
-32.513428,-62.54785,-44.529785,-49.001465,-50.372803
-23.259033,-18.00122,-21.185547,-17.572754,-15.168457
-48.31787,-77.81421,-68.11865,-62.216797,-72.2312
-44.233643,-64.60913,-54.911865,-47.14331,-51.791504
-16.142822,-21.019043,-11.994873,-9.705078,-14.54248
-16.48462,-28.245605,-18.950928,-17.36377,-29.098877
-37.614502,-46.63867,-50.862305,-58.217773,-51.818604
-44.314697,-55.13867,-52.49536,-55.62549,-46.67993
-36.145264,-63.43994,-38.643555,-38.71167,-52.647217
-37.009033,-8.232422,-11.248779,-7.341797,-6.9821777
-55.84619,-14.101807,-25.29419,-19.600342,-16.755371
-26.850586,-9.867676,-19.446777,-20.135498,-14.070068
-11.875488,-2.5424805,-12.403809,-14.239258,-6.300537
-50.10132,-76.64087,-57.28247,-60.781006,-65.54126
-48.385254,-32.88159,-39.070557,-46.952393,-31.635742
-78.66455,-53.736816,-46.121582,-56.406494,-56.531982
-81.073975,-71.387695,-69.551025,-75.48169,-67.78247
-82.39331,-79.204834,-58.451904,-67.25,-72.87158
-74.793945,-90.58862,-32.28369,-70.60693,-83.4353
-90.00903,-85.1709,-83.2041,-85.1333,-74.35327
-82.77612,-68.72949,-70.4043,-73.90161,-62.705566
-82.15381,-66.63989,-66.62207,-72.49756,-60.686768
-78.80737,-57.67749,-68.29785,-73.19336,-49.495605
-79.24219,-69.80249,-68.461426,-72.30591,-62.043213
-85.635254,-63.385254,-68.33984,-75.02832,-52.638916
-83.954346,-84.03052,-76.38818,-74.72266,-64.28345
-61.186768,-17.652588,-68.954834,-73.81738,-10.54248
-31.489014,-50.72705,-27.821045,-32.488037,-31.320557
-59.355957,-66.46875,-30.51416,-34.99756,-55.032715
-51.072998,-42.07007,-28.396484,-28.408203,-28.267822
-2.8312988,-1.6376953,-5.7541504,-6.9799805,-2.5700684
-57.986084,-73.15137,-31.433594,-46.97412,-52.700195
-65.8208,-79.622314,-60.195312,-56.390625,-61.381836
-22.595703,-76.01929,-34.718506,-32.67627,-55.97827
-20.233643,-21.74292,-19.531494,-27.30664,-10.738525
-45.172363,-64.87158,-29.286133,-37.947266,-45.554443
-39.39087,-57.478027,-31.108643,-36.7041,-40.625977
-23.407227,-52.497803,-43.677246,-50.627686,-30.851562
-87.1416,-86.86182,-63.201416,-78.25879,-61.602783
-27.665771,-50.929688,-35.778564,-29.967285,-37.777588
-10.925537,-22.812012,-12.238525,-11.9123535,-10.981689
-32.697266,-55.921875,-42.160645,-45.03882,-47.89502
-75.19873,-76.538574,-48.666748,-54.56299,-55.051758
-83.94751,-103.46533,-49.430664,-48.03711,-73.711426
-75.403076,-104.299805,-54.156494,-65.336426,-68.17847
-44.887207,-69.84619,-61.74536,-66.0332,-58.454834
-11.901611,-52.083496,-16.280518,-37.583984,-38.023193
-19.712402,-71.8125,-26.405762,-26.13208,-17.932129
-32.67749,-61.86206,-43.226562,-42.07422,-22.314697
-44.604736,-93.981445,-37.58203,-42.346924,-54.26587
-71.51807,-121.450195,-57.506836,-53.13867,-84.14868
-76.77637,-121.89453,-46.77295,-59.279785,-78.56616
-36.6062,-105.81885,-16.537354,-22.605713,-72.24243
-64.42432,-107.19678,-38.450684,-64.045166,-77.302734
-55.012207,-102.552246,-59.297363,-67.22583,-51.157227
-63.491943,-112.901855,-65.009766,-70.08081,-68.166016
-76.93628,-107.596436,-65.683105,-72.42114,-68.70337
-31.60791,-100.247314,-49.93506,-49.463135,-64.47485
-29.283447,-112.30859,-13.577393,-26.506104,-68.76587
-20.125977,-104.72461,-18.779785,-44.870117,-43.76709
-26.028809,-62.380127,-23.447266,-40.960205,-37.470947
-0.89868164,-40.099365,-6.4421387,-9.970215,-26.796875
-55.72632,-97.01074,-51.740234,-72.33179,-70.30835
