"[299, 255]","[227, 248]","[287, 319]","[279, 328]","[230, 262]"
-31.204102,-60.855713,-24.937988,-27.545166,-51.38794
-5.8217773,-24.95288,-19.184082,-13.238281,-15.866455
-10.018555,-10.24292,-11.5271,-16.367676,-5.5300293
-4.0126953,-13.256592,-3.8676758,-4.760498,-10.72876
-14.388672,-25.702637,-20.897705,-23.094238,-21.356201
-8.720703,-41.881836,-15.16333,-20.522217,-32.732178
-19.21582,-30.699219,-31.134521,-32.628418,-30.624512
-21.01294,-42.57007,-35.722412,-38.843506,-37.67505
-26.98584,-35.486084,-30.61206,-28.846436,-27.721191
-5.8325195,-24.269531,-14.622559,-10.26416,-11.291992
-39.188232,-98.85205,-60.698242,-66.53638,-64.9812
-32.053955,-68.65576,-51.418213,-52.401367,-49.026367
-18.01294,-79.0061,-35.6416,-39.638428,-48.63086
-27.070312,-57.830566,-47.0271,-48.43457,-35.411865
-3.3874512,-38.62671,-9.895264,-8.748535,-17.622803
-22.69458,-68.9646,-16.794434,-21.156006,-49.6521
-6.4206543,-50.219482,-21.312988,-24.198242,-15.036865
-45.02124,-67.08618,-42.916992,-43.87964,-32.694336
-1.1796875,-22.387207,-3.2265625,-2.989502,-9.136719
-14.193115,-78.183105,-33.408936,-26.717285,-57.169678
-43.86792,-81.4707,-69.3418,-76.39038,-55.823242
-77.00049,-115.697266,-65.84595,-69.569336,-75.354004
-52.65674,-106.578125,-51.107178,-60.724365,-66.031006
-30.388428,-48.88745,-33.17163,-36.53076,-14.148193
-1.7097168,-42.595215,-1.0419922,-3.4707031,-24.214111
-12.205322,-38.351562,-15.952637,-17.660156,-24.975098
-11.697998,-53.697266,-7.480957,-12.927002,-31.603271
-13.241943,-27.127197,-9.041748,-9.501709,-13.763916
-12.884033,-33.104004,-12.990234,-16.066162,-21.698486
-22.607422,-60.349854,-37.157227,-33.784912,-51.853027
-16.286377,-35.1792,-15.5625,-13.496826,-21.94458
-56.183594,-83.08057,-35.25659,-34.48047,-51.160156
-25.56372,-81.68042,-10.8396,-8.156738,-65.58179
-50.347168,-94.436035,-53.469727,-47.538574,-68.440186
-37.17993,-82.621826,-43.73462,-42.13086,-42.14453
-13.327637,-90.25073,-8.531738,-8.269531,-57.784424
-37.048096,-50.574463,-38.084473,-33.604492,-28.713135
-39.303955,-52.506104,-26.625977,-24.741943,-37.302246
-31.45166,-38.554688,-21.71753,-47.762207,-18.850586
-28.425537,-65.14551,-9.742432,-11.5625,-34.739502
-48.260254,-42.51709,-47.91919,-46.146484,-17.075928
-52.191895,-60.006348,-50.59497,-61.044678,-34.466797
-33.882812,-71.25879,-38.181152,-54.123535,-40.135986
-27.06958,-64.01953,-36.493164,-35.027832,-42.2146
-31.784424,-51.291748,-36.25757,-46.301514,-41.185547
-27.73706,-79.78076,-54.672363,-54.936768,-50.465088
-22.036377,-48.33545,-37.487305,-31.087158,-28.923584
-1.7416992,-11.51709,-4.705078,-7.6245117,-8.052002
-30.529541,-29.463623,-28.84668,-22.801514,-33.98535
-37.21045,-63.33496,-48.09082,-48.73828,-56.21875
-4.338379,-9.064697,-10.193115,-15.359131,-4.258789
-22.794678,-46.657715,-40.33496,-41.415283,-44.301025
-29.306885,-91.113525,-63.7334,-63.46704,-74.03076
-30.978027,-78.87158,-71.471436,-65.16626,-69.83032
-41.41455,-71.39282,-51.15576,-58.18994,-50.320557
-79.79248,-77.75415,-50.487793,-61.866455,-49.0542
-51.854248,-77.52295,-34.215332,-42.852295,-59.862793
-25.72876,-86.79126,-57.18164,-57.643555,-63.222412
-16.929932,-53.54297,-43.387207,-45.692627,-32.417236
-35.199463,-61.932373,-36.220703,-43.352295,-37.54541
-41.472656,-36.147217,-22.569824,-18.708984,-19.885986
-27.263672,-83.97534,-44.983643,-58.734375,-65.27075
-52.554443,-62.988525,-31.635742,-38.736084,-49.499023
-17.146484,-21.78247,-35.571045,-31.364746,-18.10962
-2.9160156,-6.6779785,-9.79126,-11.096191,-9.794189
-24.849854,-76.28223,-55.226074,-53.02661,-56.519775
-9.4921875,-82.07861,-38.522217,-40.18213,-61.271973
-17.771729,-19.999756,-41.443604,-41.726562,-9.21582
-23.746094,-75.363525,-58.991455,-55.338867,-62.03711
-32.510986,-78.95972,-67.77173,-69.16968,-61.460205
-59.579834,-89.72681,-57.803467,-63.12451,-65.78174
-88.53638,-107.08374,-86.77344,-88.315186,-84.87402
-78.32568,-111.90405,-72.3916,-77.61719,-77.28418
-46.104736,-45.83203,-15.391602,-24.484863,-31.51538
-20.101807,-52.974854,-37.850586,-36.17627,-43.725586
-26.218994,-35.737305,-39.555664,-35.55078,-27.761475
-24.208008,-56.664307,-48.219727,-49.17041,-46.15454
-34.770264,-87.48999,-67.410645,-65.71216,-74.92212
-7.088135,-21.774902,-33.731934,-32.901367,-14.122803
-2.8444824,-22.10962,-7.1574707,-7.119873,-14.477051
-63.224365,-89.892334,-70.91797,-73.45117,-72.35303
-25.188232,-29.135986,-24.667236,-23.893555,-20.845215
-49.83496,-98.77197,-76.89429,-67.1145,-70.93115
-6.315918,-20.293945,-57.05127,-53.25293,-11.708984
-48.908936,-9.301758,-51.884277,-60.54834,-8.738525
-3.789795,-9.878662,-16.598877,-12.143311,-17.993164
-3.6428223,-16.841797,-15.371826,-24.200195,-19.586914
-17.135986,-39.96338,-23.581299,-27.173096,-38.65088
-44.677246,-6.536621,-14.41626,-32.802002,-15.946777
-63.965332,-9.643066,-31.296875,-59.005615,-18.759277
-60.997803,-6.885742,-7.507324,-14.102051,-5.044922
-36.59253,-73.12793,-56.788574,-62.723633,-47.252197
-31.579346,-46.900635,-33.030273,-31.994873,-36.824707
-12.927246,-21.925781,-26.791016,-20.305664,-18.485107
-29.758545,-38.872314,-39.524902,-50.795654,-42.832764
-9.377686,-25.956299,-12.450928,-13.687012,-16.146973
-4.084717,-12.530273,-9.640381,-8.092773,-14.140625
-4.4558105,-9.54248,-11.229736,-8.662598,-10.426758
-6.5966797,-11.171387,-14.800537,-12.015869,-13.96582
-13.9765625,-23.428955,-23.404297,-25.974854,-25.125244
-5.472168,-23.58252,-9.820068,-12.911377,-22.132324
-7.6533203,-28.419434,-22.489014,-17.785889,-20.859863
-30.74878,-66.26538,-59.492676,-54.44507,-56.293945
-34.346436,-54.699707,-25.637207,-23.204102,-47.21704
-20.533447,-50.088867,-29.591309,-36.8208,-39.802734
-50.937256,-84.49536,-62.0813,-66.64429,-74.76489
-25.903564,-37.87622,-38.236084,-35.52246,-26.320312
-15.700195,-37.20166,-36.026123,-39.076904,-17.195557
-58.729004,-74.8125,-71.11572,-72.48755,-71.41968
-10.040527,-2.4943848,-5.7419434,-10.098877,-4.2072754
-3.487793,-19.378662,-10.648193,-16.852783,-13.732666
-33.96704,-48.35083,-57.644043,-55.733887,-40.225098
-6.00708,-11.544922,-14.669922,-14.478516,-7.928711
-16.901611,-28.240723,-20.996582,-19.994629,-21.791016
-12.390869,-38.385254,-25.0083,-25.79248,-28.350098
-66.45166,-94.16431,-82.66455,-82.31763,-63.95215
-83.35791,-108.12036,-81.656006,-82.54663,-89.173584
-79.02222,-93.06299,-60.00537,-47.37378,-65.42407
-55.441162,-70.936035,-81.4458,-78.203125,-76.15234
-48.111816,-26.011963,-40.240234,-35.23706,-31.34497
-19.62207,-13.672119,-19.601807,-21.35669,-19.855225
-20.47583,-51.156494,-32.526367,-35.597656,-48.902832
-26.007812,-56.712646,-48.62207,-50.996338,-50.134033
-53.148926,-77.83716,-58.120605,-68.07446,-59.155518
-63.31201,-79.57568,-65.497314,-64.448,-62.629883
-52.51587,-66.704834,-28.813477,-38.62036,-51.57129
-47.095947,-72.6167,-35.509277,-45.256836,-53.369385
-55.354248,-77.28784,-50.461914,-59.790283,-70.72095
-25.308105,-40.24414,-27.382568,-28.64331,-35.912598
-25.207031,-56.776123,-43.968994,-50.021973,-52.063232
-68.62378,-90.96216,-77.85718,-78.39795,-80.61792
-71.26489,-109.29907,-76.47681,-75.09766,-94.714355
-88.18799,-98.78125,-67.77197,-76.048096,-91.25757
-55.885254,-21.746094,-67.506836,-69.611084,-27.14624
-25.656494,-23.607422,-38.34619,-36.99341,-41.905273
-13.95874,-31.682373,-31.915283,-28.295654,-36.931885
-26.251953,-55.50659,-40.42041,-36.578857,-53.505615
-60.591553,-83.77661,-31.198242,-29.012451,-79.6355
-38.184082,-45.417725,-31.292969,-36.015625,-42.76465
-52.71118,-69.41919,-66.999756,-59.18457,-52.81665
-70.34619,-67.156006,-61.515625,-62.972168,-63.158936
-45.219482,-75.64868,-52.78662,-52.066162,-62.239014
-78.53052,-90.77368,-65.46387,-69.49072,-79.51587
-59.66577,-99.91577,-71.53247,-76.1311,-82.93701
-72.30444,-96.12036,-88.0542,-87.41846,-80.87109
-30.34375,-41.301514,-37.660645,-39.09082,-41.352295
-26.445557,-38.04834,-37.101074,-27.928223,-35.196777
-20.715332,-37.736084,-39.041748,-40.998535,-39.64038
-25.021484,-69.53076,-52.28369,-55.109863,-55.934326
-35.724854,-70.91626,-53.77588,-56.80957,-63.18799
-59.421875,-90.82129,-79.42163,-83.812744,-92.058105
-23.853516,-16.430664,-25.895752,-37.130615,-17.218506
-9.979004,-11.467041,-7.2685547,-7.9594727,-10.358154
-17.89331,-29.303467,-42.691162,-51.898438,-38.41797
-22.107666,-18.675293,-24.918701,-25.848389,-23.868652
-47.982666,-69.34082,-58.676514,-54.39453,-67.26782
-44.32202,-64.06421,-52.394775,-56.533203,-60.333984
-41.40576,-65.15039,-62.578613,-81.63037,-62.46826
-60.01294,-76.73218,-70.91919,-69.07129,-68.914795
-78.602295,-95.66919,-64.329834,-69.711914,-87.098145
-85.007324,-72.869385,-84.26099,-79.034424,-76.378174
-33.87207,-55.96997,-46.94873,-53.851807,-57.238037
-79.727295,-65.78198,-63.76758,-59.299805,-64.20361
-44.972168,-35.964844,-32.764404,-33.051758,-53.30591
-91.80957,-60.666016,-78.79736,-86.89038,-83.8772
-97.80664,-76.20923,-94.374756,-95.83276,-92.18872
-98.37964,-79.793945,-92.6521,-96.96802,-92.363525
-83.46509,-59.593994,-72.62891,-83.128174,-65.09326
-95.239746,-60.684326,-61.253174,-64.91333,-65.8103
-66.832275,-48.030273,-51.729736,-53.111084,-44.097168
-30.612549,-65.30737,-59.762207,-53.15625,-60.666992
-15.536621,-37.340088,-37.96997,-38.522705,-26.43628
-56.402344,-89.84839,-54.363037,-64.12207,-75.07422
-50.19751,-55.38965,-58.24707,-62.549072,-51.664795
-8.435547,-17.78711,-18.935547,-21.628418,-16.459229
-36.524414,-57.85327,-40.460693,-43.86963,-55.041016
-65.105225,-72.305664,-67.9895,-79.629395,-68.32568
-23.106201,-18.456787,-31.492432,-32.245117,-15.606201
-29.831299,-29.464355,-31.38794,-28.99585,-33.279785
-39.358154,-48.13452,-49.839355,-47.18994,-53.996338
-62.55591,-69.2168,-55.566406,-57.66992,-72.47876
-87.95068,-75.36841,-62.37378,-65.82202,-81.72461
-46.410645,-44.62744,-28.147217,-22.959229,-44.617188
-33.686523,-34.559082,-37.76709,-31.660156,-56.49243
-16.779297,-22.281738,-21.5542,-28.22876,-25.083984
-61.9541,-69.68213,-72.051025,-69.95532,-70.279785
-61.24292,-77.428955,-57.47754,-67.95581,-68.16919
-23.806152,-26.558594,-47.07544,-54.660645,-15.530518
-7.368408,-27.102295,-22.754395,-19.58081,-27.217773
-58.285645,-59.839355,-33.10083,-32.70752,-55.958008
-48.573975,-44.31128,-23.736328,-25.23291,-41.986816
-32.900146,-30.039062,-58.108154,-67.17627,-43.401367
-55.236816,-74.89209,-61.84253,-68.270996,-72.99048
-22.889404,-49.594482,-20.07788,-24.255127,-43.375732
-3.480713,-16.074707,-6.8549805,-7.970703,-10.7248535
-40.075195,-48.960205,-61.583252,-57.770996,-46.53418
-63.036865,-63.818604,-57.30371,-67.045654,-74.923096
-71.783936,-81.45508,-56.902588,-64.541504,-79.01929
-30.316406,-41.221924,-33.067627,-38.019287,-41.70752
-68.68506,-84.55298,-75.59253,-86.9917,-83.34326
-44.584717,-57.225586,-48.260498,-52.411865,-56.074463
-29.540771,-56.321777,-20.861816,-20.917725,-51.58203
-33.81201,-61.177002,-45.668213,-49.075928,-65.87427
-54.615234,-67.620605,-90.88672,-94.801025,-66.64673
-81.22754,-79.385254,-76.60693,-79.53491,-88.67041
-70.15625,-69.757324,-76.483154,-89.001465,-76.41821
-67.16528,-86.585205,-84.67334,-91.75,-93.880615
-67.66455,-71.44971,-68.35547,-66.19629,-81.359375
-66.914795,-71.13208,-79.63599,-80.248535,-77.10864
-54.177246,-53.167236,-37.63965,-43.125977,-59.313477
-59.242676,-57.108887,-79.62109,-89.42383,-58.696533
-69.07739,-72.776855,-48.87085,-50.553223,-83.87329
-66.97681,-59.041992,-59.239258,-65.150635,-72.74609
-74.02661,-83.961914,-63.088135,-64.87744,-86.514404
-84.910645,-96.67407,-88.08472,-101.91699,-97.39087
-84.46777,-84.262695,-78.93921,-82.65918,-84.305664
-51.65503,-40.60205,-42.907715,-42.58496,-48.00171
-22.407959,-39.406006,-28.125732,-31.809326,-39.111084
-17.80957,-30.82129,-26.951172,-28.31128,-31.062256
-68.809814,-83.906494,-92.05005,-96.51929,-87.6145
-62.302002,-42.958496,-48.448486,-49.083496,-43.007324
-52.980957,-58.94507,-64.73779,-59.490723,-66.12109
-75.28662,-59.768066,-62.0708,-77.26831,-71.31641
-78.354004,-48.195312,-82.390625,-90.961914,-74.09155
-69.159424,-38.843018,-50.786377,-54.92993,-43.6521
-55.44043,-50.551514,-59.42798,-67.76782,-56.830322
-67.33423,-29.858643,-49.51538,-54.238037,-27.686523
-29.972412,-45.891113,-37.38379,-42.666992,-48.971924
-43.77124,-45.18994,-52.311523,-47.734375,-43.59497
-66.86963,-64.2168,-53.194824,-57.713135,-65.84155
-12.614014,-24.195068,-17.080078,-25.07666,-14.20752
-31.730225,-43.887207,-55.497803,-57.097656,-42.646973
-19.50708,-17.974121,-32.18921,-26.930664,-21.095459
-18.371582,-31.833984,-25.81665,-32.875732,-30.792725
-34.769775,-43.279785,-54.226074,-61.19507,-45.31201
-45.394043,-57.05835,-56.81372,-63.07129,-51.111084
-56.71118,-35.71045,-22.545654,-25.969727,-28.720215
-68.44531,-61.212402,-53.803955,-57.191406,-58.772217
-67.72534,-67.62695,-59.99341,-65.28418,-69.91504
-83.109375,-79.49634,-77.4458,-82.46362,-71.43359
-53.30298,-48.281982,-28.995605,-38.00757,-44.653076
-48.167725,-43.059326,-46.97705,-45.52832,-48.35327
-49.681396,-65.4917,-54.80298,-65.77905,-60.105225
-93.68994,-89.32886,-87.700195,-97.75635,-71.700195
-88.645996,-70.816895,-76.28662,-78.06787,-76.39453
-56.5791,-56.496094,-41.257812,-47.985596,-59.9563
-45.10913,-35.472412,-45.472168,-50.22583,-34.207764
-92.048584,-93.42212,-97.59155,-100.58838,-85.73535
-89.80005,-82.941895,-79.71655,-80.99463,-80.99658
-69.306885,-57.00049,-46.30957,-46.15918,-47.826416
-57.368164,-72.52344,-55.73828,-56.93286,-66.79297
-75.52783,-77.67456,-60.408203,-66.50586,-69.07153
-72.59839,-73.305176,-62.629395,-67.64282,-72.6333
-77.22681,-46.654297,-54.02002,-50.942627,-47.627686
-47.8291,-55.068115,-44.75952,-55.337402,-60.583252
-65.8042,-46.58618,-63.726074,-59.144043,-54.366455
-35.36035,-61.166748,-48.010254,-50.82959,-56.766846
-18.591797,-39.028076,-30.630127,-30.978027,-29.45337
-17.367188,-40.97046,-58.55005,-63.592773,-47.580322
-37.30078,-56.869385,-53.766357,-64.02905,-61.25586
-25.39087,-39.717285,-46.865234,-45.222656,-36.450684
-17.782715,-33.7146,-38.095215,-43.69702,-29.606201
-17.86914,-52.266113,-39.43286,-34.28662,-35.9292
-17.838379,-48.90674,-24.45166,-26.497559,-38.558105
-38.981934,-41.49121,-35.30542,-50.279785,-34.410645
-15.07251,-31.563965,-16.716309,-18.905518,-24.099365
-11.368164,-37.29297,-15.21875,-16.777344,-20.331543
-18.356934,-30.702148,-18.493408,-20.881836,-32.103516
-15.439453,-11.766846,-12.233887,-17.663086,-11.3688965
-16.312256,-16.348389,-13.421875,-20.207764,-17.02246
-38.988037,-18.86914,-16.63379,-15.677002,-17.723145
-37.502197,-35.750244,-32.292236,-22.055908,-32.887207
-43.874756,-34.55786,-27.925537,-25.175293,-34.75293
-38.311768,-45.94409,-50.35205,-67.44702,-40.397705
-20.503906,-41.87964,-45.41626,-52.281494,-30.545166
-17.720703,-19.255615,-16.779785,-19.06958,-17.445312
-49.91992,-67.14526,-55.846924,-61.222656,-53.446045
-60.842285,-67.371826,-49.77539,-54.08716,-61.69995
-60.766113,-75.69922,-51.041748,-53.03076,-65.31421
-29.687744,-53.7959,-56.54248,-58.5188,-42.04492
-74.11987,-72.45923,-73.16528,-77.98633,-72.57373
-76.691895,-74.7793,-64.37427,-73.86426,-76.61011
-88.41431,-72.57471,-79.901855,-81.398926,-75.60889
-91.89526,-67.29126,-83.32764,-86.23047,-76.93091
-75.549805,-51.575684,-68.35913,-68.86914,-46.390625
-46.04492,-65.05371,-46.488037,-50.252686,-56.651855
-46.69751,-68.63379,-42.70923,-35.312256,-47.37915
-57.058838,-49.368164,-31.223145,-28.06958,-39.059814
-25.42041,-17.300537,-9.29248,-15.976807,-16.227783
-54.316162,-30.013672,-39.05298,-33.583252,-28.745117
-24.710938,-54.56665,-39.740967,-32.776367,-47.120605
-39.53076,-79.694336,-48.25171,-54.172363,-65.120605
-73.87622,-82.88208,-56.51538,-73.4563,-65.01611
-63.30713,-91.21484,-52.605225,-62.838135,-72.75952
-60.065674,-82.31763,-51.332764,-61.504883,-63.18921
-77.58862,-82.916016,-72.2063,-79.680176,-57.85498
-56.844482,-63.784912,-56.61548,-67.619385,-62.232178
-48.930176,-34.777832,-34.23584,-34.333496,-35.335938
-59.9292,-27.259521,-41.18042,-48.95703,-38.849365
-37.453857,-32.3479,-33.23242,-34.697998,-41.971436
-34.279297,-31.590576,-28.942871,-35.226562,-32.197266
-39.049316,-67.11865,-40.340576,-53.358154,-53.62915
-11.023926,-19.908203,-10.205811,-10.079346,-12.920654
-1.0996094,-14.825684,-5.928467,-6.9138184,-13.899902
-16.331787,-17.11914,-10.942871,-12.774658,-14.420898
-30.643555,-11.54541,-9.099121,-6.8063965,-12.912598
-74.885254,-62.82715,-55.972168,-52.57617,-55.916016
-77.733154,-71.29419,-64.36426,-61.21118,-55.200195
-72.8396,-69.67847,-36.13965,-36.109863,-58.101562
-21.125732,-30.09253,-25.706787,-32.597656,-28.014893
-26.012695,-30.699463,-17.027588,-23.123291,-27.689941
-39.621338,-58.886475,-20.066406,-33.78418,-47.17627
-14.198242,-36.52002,-29.283691,-37.070557,-27.554688
-27.588379,-39.352783,-24.56836,-21.992188,-37.010498
-62.672363,-55.562744,-51.379395,-62.075195,-50.513428
-42.293213,-12.416504,-21.046875,-18.469482,-6.9296875
-39.51172,-68.31006,-41.88037,-46.172607,-59.56836
-38.507812,-46.07373,-38.75757,-42.048584,-37.776123
-37.961426,-55.32251,-40.266846,-32.794434,-42.958496
-28.788574,-54.9458,-26.729004,-24.33081,-34.859863
-26.832275,-70.59424,-53.32373,-72.08276,-46.128662
-45.68042,-64.637695,-54.449707,-63.5625,-43.898193
-8.880859,-19.743164,-15.788818,-11.374512,-9.047119
-39.340576,-57.8833,-32.20581,-24.630615,-43.292725
-27.832031,-62.566895,-37.783203,-38.458252,-45.688232
-36.457764,-43.135742,-31.777588,-39.98755,-24.9104
-10.947754,-71.68506,-39.405273,-43.723633,-53.65332
-47.193848,-95.724365,-68.0061,-73.65747,-64.80127
-53.119873,-84.1333,-52.322266,-50.5437,-61.93701
-69.25586,-66.11743,-38.26465,-37.442383,-43.939697
-68.237305,-85.14917,-55.10742,-46.376465,-55.69458
-29.827393,-26.748047,-14.028809,-20.427002,-7.0473633
-26.900635,-18.35962,-3.7138672,-6.02124,-8.286133
-8.942383,-22.647217,-14.970703,-16.659912,-14.067871
-35.496826,-69.723145,-53.08545,-54.936035,-49.622314
-27.27539,-57.50757,-23.080322,-26.329346,-31.26831
-15.93042,-54.233887,-30.474854,-34.17798,-36.491943
-36.65796,-78.52002,-64.36133,-59.676514,-51.047607
-35.007324,-37.385498,-29.786621,-30.754639,-18.692627
-18.255615,-27.159912,-23.089355,-27.97168,-16.031006
-69.6521,-81.41943,-61.578613,-69.07495,-53.58081
-6.045166,-31.084473,-3.975586,-3.5478516,-14.430664
-10.271484,-49.70752,-8.793945,-12.33252,-28.574951
-24.237793,-93.75049,-34.43799,-35.813232,-56.19751
-20.28125,-45.7146,-27.854004,-27.516357,-23.28125
-28.205322,-52.761475,-33.399902,-38.64624,-54.370117
-33.297363,-59.793213,-28.290771,-32.713867,-46.105225
-17.057373,-63.918457,-34.810547,-48.99463,-36.68286
-42.173096,-86.465576,-47.612305,-51.030518,-54.920166
-33.329346,-92.34961,-57.182373,-58.318848,-56.324707
-69.109375,-83.485596,-59.1084,-57.203613,-60.80371
-43.22583,-44.973877,-53.406982,-59.655518,-20.758057
1.2099609,-7.428467,-2.222412,-2.6279297,-1.7282715
-26.455078,-64.67432,-48.251465,-38.448242,-49.864258
-10.603027,-43.990723,-11.606445,-14.476318,-23.942871
-29.634277,-42.027588,-26.732666,-24.583252,-34.716064
-36.556885,-66.55908,-44.95703,-46.94287,-51.367188
-12.43042,-58.857666,-10.731445,-14.100342,-37.999268
-54.49243,-67.02295,-55.624268,-60.447998,-48.06372
-49.083496,-74.80176,-36.871582,-41.58545,-52.17993
