"[299, 255]","[227, 248]","[287, 319]","[279, 328]","[230, 262]"
-44.03174,-28.92871,-30.384277,-35.272705,-26.775146
-2.6699219,-10.86084,-13.570557,-8.008545,-9.818848
-37.09839,-75.43555,-45.710693,-49.732666,-68.96069
-27.421875,-78.82129,-46.438477,-42.46704,-46.648926
-32.562256,-50.625732,-32.75659,-35.17041,-32.739746
-27.825684,-45.09131,-38.594727,-30.01831,-26.089355
-3.236084,-48.72534,-9.213135,-9.291748,-25.205078
-12.384277,-57.15869,-25.730469,-36.336426,-37.621338
-35.250977,-72.58569,-41.750977,-39.655518,-53.467285
-48.19336,-74.88916,-42.048584,-54.563232,-47.191162
-51.49292,-72.92407,-64.778076,-69.20337,-39.42871
-46.907227,-59.17798,-24.629395,-37.777588,-30.339355
-1.4291992,-13.752197,-4.2148438,-3.136963,-4.371338
-23.41626,-73.95972,-42.52124,-45.23169,-52.193604
-33.7312,-82.538574,-63.363525,-63.671143,-60.23828
-14.433105,-50.840088,-31.03247,-32.702637,-29.708008
-12.517334,-47.63037,-34.356445,-33.19629,-33.38501
-58.02002,-63.557373,-63.377686,-70.71631,-46.552734
-19.095215,-25.091309,-17.8479,-18.37622,-13.495117
-11.757568,-38.685547,-23.160645,-22.996094,-33.694336
-35.94336,-69.4729,-45.443848,-40.023926,-48.486816
-54.938232,-68.841064,-61.763184,-63.22412,-47.53296
-5.284424,-9.919678,-1.8063965,-1.8383789,-3.6298828
-0.8195801,-4.2663574,-14.4470215,-12.581299,-3.3549805
-19.998291,-63.82007,-45.340088,-47.520996,-45.721924
-14.859375,-80.86963,-51.768555,-51.587402,-57.021973
-10.749756,-45.432617,-25.400879,-36.195557,-33.90869
-16.748047,-36.346436,-24.55127,-27.270264,-29.090332
-7.008545,-20.942627,-25.621582,-28.103516,-21.827148
-1.4953613,-8.643311,-5.4453125,-4.3654785,-5.307617
-6.210449,-22.707031,-11.840332,-12.555176,-15.568848
-7.288574,-16.416992,-6.774658,-13.156982,-12.351807
-17.245117,-16.640625,-3.9125977,-8.684814,-7.5151367
-27.510498,-15.709717,-3.1875,-7.4890137,-8.575439
-60.795166,-74.648926,-62.46582,-71.46875,-44.00464
-72.04004,-72.6272,-59.263428,-67.2605,-43.92993
-50.66748,-44.09961,-33.707764,-43.85034,-22.732422
-14.267334,-20.248535,-11.423584,-17.09961,-17.922363
-13.3479,-23.280273,-10.093262,-14.839844,-16.143799
-10.338867,-16.913574,-12.3811035,-12.106934,-11.566895
-3.3845215,-1.1728516,-5.3930664,-10.6154785,-3.25
-57.6062,-70.36011,-55.61133,-60.789062,-66.48169
-30.345703,-51.309814,-46.263916,-50.07788,-38.90576
-38.93164,-38.01001,-41.023438,-41.309082,-23.029541
-21.35205,-15.802246,-35.765625,-36.582764,-9.885742
-37.433594,-77.19556,-66.68799,-62.039307,-62.234375
-30.266113,-43.168213,-23.44629,-31.595215,-34.10547
-26.06665,-45.572998,-31.29126,-30.312256,-41.656006
-11.295166,-24.373291,-13.300537,-14.889648,-14.079102
-33.713135,-64.44263,-38.5188,-35.912354,-47.33911
-29.365967,-78.69287,-27.294922,-34.118896,-56.177246
-52.69165,-82.05884,-67.934326,-69.93384,-56.48169
-39.28174,-86.46973,-53.46875,-52.195557,-55.68799
-15.961914,-51.197266,-41.58838,-45.470947,-29.414062
-54.190186,-94.31348,-63.45288,-59.9292,-72.71509
-22.740234,-43.22046,-39.33667,-44.85327,-24.913818
-35.737305,-75.5918,-58.071533,-52.98877,-52.96289
-26.073486,-59.870605,-52.48169,-56.394043,-43.049072
-15.883789,-54.21582,-34.29297,-34.581787,-31.691162
-32.25879,-75.752686,-46.468018,-57.723145,-55.344482
-71.91138,-74.64917,-63.93628,-66.78027,-53.79297
-17.841309,-43.10327,-23.768555,-31.276855,-37.108643
-52.714355,-91.24414,-45.13257,-42.482666,-71.93408
-25.083496,-52.065674,-30.44873,-34.78711,-40.56787
-6.4296875,-23.56543,-25.545654,-23.798096,-12.185547
2.1003418,0.66674805,-5.9196777,-7.770996,-0.5769043
-2.5620117,-5.4091797,-12.590332,-11.194092,-4.2807617
-1.5524902,2.8649902,-1.9152832,-3.9504395,-1.7077637
-15.050537,-15.911621,-11.202637,-7.063965,-14.683105
-27.432129,-44.147705,-22.202393,-26.831787,-32.618164
-20.0542,-34.29297,-32.392822,-18.926514,-26.051514
-38.277588,-66.76099,-29.021729,-29.047363,-53.160156
-45.11914,-66.53589,-34.569336,-41.125,-58.390137
-25.255127,-59.12207,-36.66797,-40.55249,-45.223633
-26.573975,-62.344727,-46.39795,-55.27124,-47.536377
-32.083496,-80.68652,-53.14209,-52.603027,-65.96045
-16.833008,-66.46704,-37.335205,-35.11499,-41.5791
-58.128662,-81.08325,-63.46924,-76.247314,-64.43628
-34.107666,-69.71924,-57.727295,-61.553955,-54.37549
-69.416504,-77.323,-63.905518,-64.50415,-53.96826
-42.242676,-68.741455,-41.645996,-46.086914,-62.427246
-61.560547,-61.202393,-61.504395,-57.085205,-50.63159
-32.09839,-43.308594,-36.226562,-39.028564,-33.18286
-14.197754,-27.909424,-35.83423,-33.86133,-12.457031
-35.468018,-38.098145,-30.456299,-32.683594,-31.616455
-20.494629,-50.310547,-20.322266,-28.02246,-36.485596
-15.22876,-50.672607,-26.474365,-32.32666,-35.974365
-29.32788,-83.63281,-62.09961,-71.08618,-62.459717
-65.88037,-74.8645,-68.61548,-68.111084,-60.898926
-20.597412,-16.56128,-9.782715,-7.880371,-13.595703
-17.900146,-41.15454,-28.399902,-33.26953,-40.056396
-30.27246,-71.67847,-55.08203,-69.019775,-61.25708
-13.697754,-19.671387,-14.136963,-14.795166,-15.605713
-9.907715,-16.76831,-30.358643,-27.521484,-21.247314
-27.482178,-39.55957,-39.12085,-41.550537,-35.670166
-20.346436,-3.020996,-3.1560059,-6.935547,-4.3986816
-12.898193,-13.154541,-11.292725,-20.429443,-12.202637
-17.507812,-8.612549,-14.301758,-16.288086,-7.998535
-7.510498,-16.593262,-10.179443,-8.668457,-17.50586
-24.006836,-50.87378,-35.337646,-36.873535,-44.813965
-6.7944336,-19.999756,-11.000732,-10.132568,-16.169922
-11.439697,-21.850342,-17.197021,-15.832764,-22.85791
-11.295654,-23.39746,-26.81958,-29.735107,-23.185547
-26.997803,-56.06909,-46.714844,-46.618652,-45.102295
-7.8044434,-14.90625,-12.201172,-10.2907715,-15.531982
-16.842285,-25.735596,-25.523438,-20.36914,-20.689697
-41.837646,-48.424072,-33.336914,-33.69922,-44.303223
-4.3134766,-1.6928711,-5.7595215,-5.7575684,-6.1987305
-11.05127,-18.693115,-16.499512,-15.342529,-17.90039
-54.28247,-76.41138,-53.514404,-53.605225,-68.076416
-17.962158,-20.597168,-17.980713,-22.196533,-19.172607
-17.35083,-33.792236,-32.150635,-32.020508,-27.536865
-51.624756,-76.37427,-70.6875,-72.59326,-70.20288
-20.023682,-32.709717,-18.297852,-17.389404,-21.861328
-22.41626,-14.230957,-21.076904,-28.04956,-17.616943
-38.262695,-78.22876,-47.12793,-51.285156,-70.56128
-35.604492,-64.0957,-46.605957,-49.428467,-49.86963
-18.777344,-42.962402,-48.00415,-52.91333,-39.788086
-16.561523,-41.722656,-36.779785,-25.026367,-31.236572
-12.450928,-41.77417,-40.237305,-29.84668,-25.439941
-13.013916,-49.06372,-27.784668,-20.970215,-31.406494
-68.622314,-98.159424,-51.19409,-41.116943,-79.124756
-15.6484375,-57.054688,-29.135742,-31.327637,-47.463135
-50.33423,-75.328125,-65.015625,-70.58594,-64.33911
-70.809814,-77.82056,-65.80298,-67.137695,-79.03931
-9.621582,-19.716064,-19.693848,-18.976074,-16.553223
-27.068604,-52.694336,-47.192627,-55.511475,-48.390137
-28.598145,-72.97632,-54.75,-64.815674,-64.028564
-7.7504883,-29.456055,-15.0,-14.07666,-22.500244
-5.632324,-6.533203,-11.529785,-12.1328125,-10.6875
-11.778809,-20.635986,-24.473145,-23.67041,-29.236572
-73.44629,-50.114258,-61.70874,-68.88696,-48.4209
-8.529297,-27.84961,-15.432129,-15.672607,-22.009521
-52.21411,-53.04663,-51.039062,-55.26538,-45.53882
-48.294434,-81.73413,-75.003174,-65.135254,-65.06738
-59.118164,-97.04932,-66.40332,-62.542725,-91.437744
-29.404785,-50.129395,-27.809082,-25.304688,-49.209717
-31.33081,-28.52246,-16.384521,-24.972168,-29.9104
-15.804199,-10.491699,-20.123047,-23.508057,-14.175293
-7.69751,-7.9104004,-33.727783,-36.576416,-14.047852
-21.174805,-34.47412,-74.82666,-79.52954,-44.626465
-7.768799,-4.012451,-16.20044,-23.749756,-6.370117
-11.0979,-1.4462891,-6.9802246,-14.147217,-3.564209
-47.09839,-76.519775,-56.30493,-63.867188,-69.895996
-53.237305,-76.54346,-54.534668,-57.550293,-83.67212
-56.154297,-85.95386,-71.43091,-68.753174,-79.23169
-82.56543,-71.30347,-76.485596,-82.744385,-62.706055
-8.462891,-39.281982,-10.560059,-11.461914,-35.585693
-13.403076,-47.95874,-13.647705,-15.17627,-39.690674
-38.401367,-42.009033,-26.43457,-28.066406,-31.123535
-39.163086,-36.591064,-22.586426,-30.057129,-28.863281
-35.708496,-40.875732,-40.06543,-44.328613,-46.398926
-89.616455,-76.07471,-85.09326,-78.38428,-81.6875
-41.453857,-18.67456,-34.431152,-37.348633,-15.006592
-25.290283,-37.93286,-13.435547,-18.944824,-37.066895
-14.058105,-11.586182,-13.7438965,-16.626465,-12.785156
-2.6237793,-9.900391,-9.38916,-10.666016,-7.8686523
-15.964111,-11.687988,-33.80957,-39.841064,-15.594238
-75.50195,-65.73389,-97.586426,-99.32715,-92.41675
-95.120605,-89.16406,-90.44556,-93.79956,-99.13599
-69.73486,-85.66504,-70.54297,-70.89673,-91.5249
-61.170654,-92.70703,-68.01758,-65.01929,-77.57446
-66.704834,-80.103516,-75.93091,-73.92456,-88.05884
-65.76074,-86.906494,-71.40796,-76.32788,-89.18872
-65.99634,-86.06055,-69.302246,-84.075195,-93.26953
-73.9707,-69.00366,-69.02661,-77.624756,-79.29712
-36.193115,-54.953857,-45.71411,-60.595947,-72.81543
-47.01538,-49.968018,-72.86255,-77.362305,-67.73804
-29.388428,-35.960938,-67.14429,-75.736084,-45.25464
-45.46045,-62.380615,-42.81909,-42.37793,-58.390137
-37.533936,-46.58545,-45.226074,-53.26001,-58.91577
-64.673096,-80.322266,-55.879395,-51.90747,-83.601074
-74.00244,-80.864746,-81.653076,-89.15405,-76.06006
-34.40381,-48.049316,-38.865723,-38.9834,-58.278564
-52.353027,-59.583496,-36.962402,-50.54883,-57.87964
-34.678223,-52.552246,-62.571777,-65.46387,-51.74536
-39.00049,-44.18042,-34.27246,-39.66919,-46.72583
-25.94043,-27.260254,-38.368164,-41.889404,-34.963135
-31.730713,-52.283936,-58.922363,-72.45215,-52.479004
-23.944824,-14.797852,-29.500488,-33.693115,-21.388184
-35.321045,-40.04004,-27.565186,-38.03003,-48.86914
-69.43408,-60.07715,-74.88916,-71.2229,-70.5332
-30.36792,-60.466064,-58.88208,-64.19165,-64.92847
-75.89258,-81.94116,-83.4751,-86.34985,-84.31445
-72.48193,-63.252197,-65.17261,-76.1709,-77.640625
-45.284424,-43.255127,-59.771973,-58.479736,-62.22046
-70.78589,-73.80078,-73.74097,-72.58765,-83.684326
-51.00586,-48.614746,-41.378662,-49.738525,-42.54419
-106.582275,-90.42383,-99.31079,-102.56177,-92.33496
-56.4646,-42.51245,-35.99536,-40.8938,-44.497803
-64.351074,-68.34204,-65.690186,-67.241455,-71.1228
-87.1604,-89.05859,-75.500244,-82.836426,-86.271484
-105.229004,-101.51709,-99.10962,-103.86792,-102.25098
-98.56445,-96.8374,-90.96167,-97.748535,-101.768555
-96.130615,-82.45386,-83.43677,-90.850586,-93.92432
-50.07959,-65.47754,-59.159912,-57.864258,-64.17529
-60.53076,-83.799805,-74.87012,-84.128174,-87.792725
-97.11182,-83.319824,-89.73242,-95.39551,-88.24658
-100.447754,-70.41699,-101.880615,-108.812256,-89.203125
-69.81372,-69.65796,-81.14966,-99.02515,-82.543945
-78.14868,-67.97046,-88.10327,-98.27002,-85.49829
-99.06714,-63.030518,-86.11157,-99.90332,-83.864746
-102.56665,-63.833252,-82.36377,-94.12158,-85.88257
-101.95923,-65.44849,-82.31372,-95.18628,-85.8855
-76.07031,-73.59009,-75.60278,-88.58057,-87.78711
-107.56445,-80.49048,-97.57886,-105.36987,-96.930176
-67.07007,-42.24048,-83.33008,-99.367676,-61.5979
-64.369385,-33.8833,-66.5874,-74.805176,-46.082764
-53.214844,-34.300537,-78.98511,-89.51001,-65.44336
-96.374756,-64.80176,-91.61719,-103.50635,-88.98511
-96.7251,-73.86035,-84.34082,-97.12671,-84.73633
-95.819336,-70.581055,-93.32056,-106.62256,-86.22656
-110.57373,-70.35278,-103.72363,-118.15283,-84.15405
-112.73462,-74.30469,-87.04321,-101.60132,-83.92383
-95.87793,-81.546875,-84.03052,-96.20654,-91.509766
-70.761475,-57.067627,-67.35376,-71.00049,-61.539307
-61.755615,-40.520996,-58.25293,-63.70337,-55.041016
-31.29541,-36.89673,-38.72461,-40.52417,-41.003418
-46.389404,-63.27173,-45.189697,-49.635254,-54.16577
-76.25952,-71.25781,-68.37427,-63.67749,-71.66675
-95.0459,-86.099365,-88.27051,-91.34839,-92.977295
-103.73364,-60.156982,-45.80249,-41.68213,-54.40576
-79.325195,-32.910156,-28.825195,-32.50464,-40.08423
-71.74194,-32.906982,-27.450928,-31.556885,-46.81543
-63.899414,-32.991455,-36.119873,-42.041016,-43.33789
-46.089355,-38.421875,-24.36084,-29.057617,-56.65088
-50.281494,-47.328613,-51.955322,-58.794678,-57.08008
-64.45166,-64.38696,-52.2229,-54.221436,-62.46411
-53.995117,-50.519775,-53.11743,-57.255615,-62.168457
-89.32422,-41.15332,-88.4082,-96.5332,-44.19629
-66.76465,-51.921143,-48.789062,-49.863525,-59.540527
-54.027832,-13.61377,-29.699707,-34.594727,-15.22876
-34.286377,-18.316406,-25.160889,-23.575195,-24.133545
-14.213135,-15.26123,-32.60083,-38.219482,-22.388428
-45.46997,-57.497314,-48.591553,-52.67871,-43.868652
-64.486084,-58.872314,-46.345947,-58.577393,-63.31494
-35.26416,-18.322754,-27.273193,-25.841553,-21.242432
-48.739746,-55.02173,-49.93042,-49.74292,-53.118896
-74.014404,-74.448,-64.33374,-73.95117,-74.50049
-63.44873,-52.61914,-39.973633,-34.875,-52.9646
-65.53638,-71.13916,-62.08838,-72.97974,-76.47949
-56.541992,-31.155273,-29.093994,-25.860107,-25.790527
-55.63452,-67.06836,-42.49707,-47.7959,-74.3667
-83.47778,-82.80176,-78.235596,-80.68823,-80.142334
-105.59375,-85.98389,-91.72778,-97.91748,-91.2959
-106.561035,-88.678955,-88.82886,-94.9187,-80.07056
-65.27124,-25.320557,-38.05786,-36.94702,-27.983154
-40.335693,-48.63086,-57.01245,-53.510742,-51.015625
-80.20581,-73.18848,-62.244385,-71.78882,-76.791504
-70.73877,-18.092285,-38.68042,-41.170166,-23.32373
-47.006104,-41.367676,-47.74243,-51.10327,-48.940186
-78.7417,-89.60181,-69.90381,-84.55713,-88.83862
-84.59473,-84.35132,-71.59375,-78.9353,-88.354004
-71.64429,-71.829346,-68.555176,-72.81543,-73.95337
-78.74219,-67.97168,-66.48877,-74.91211,-75.6167
-67.019775,-51.47461,-57.87964,-72.131836,-57.710205
-54.52539,-79.64551,-38.6709,-44.423096,-75.9917
-71.72217,-72.621826,-56.893555,-64.25659,-74.42407
-62.876953,-68.7688,-72.024414,-81.08057,-64.31787
-73.781006,-80.66406,-87.89551,-96.23193,-79.559814
-79.59985,-69.03296,-52.866943,-54.634277,-62.078125
-33.960693,-20.770508,-31.657715,-39.73462,-22.122559
-77.39966,-58.09082,-57.84326,-55.17627,-57.141113
-92.87378,-76.04224,-67.941895,-75.80664,-81.57446
-77.22485,-39.298096,-42.530518,-45.83252,-47.368896
-28.25,-36.7146,-23.124756,-23.490479,-30.298096
-38.347656,-62.591553,-72.254395,-79.326416,-54.23706
-14.693115,-26.151123,-24.267578,-25.06958,-27.456299
-15.097656,-30.363525,-44.050537,-42.768066,-26.213623
-42.99585,-29.531494,-37.615723,-42.70752,-30.010986
-23.423828,-33.01465,-23.155762,-24.186035,-35.216797
-18.541748,-39.67627,-28.983643,-30.499756,-31.961914
-36.439697,-71.426025,-46.497803,-47.722656,-55.290527
-38.397217,-78.068115,-27.625488,-38.846436,-57.30957
-40.635742,-43.8479,-35.09497,-29.424072,-39.69165
-52.92041,-64.80542,-53.411377,-62.025146,-54.60742
-39.1333,-62.549805,-30.194336,-29.333008,-49.878174
-56.773193,-68.52026,-60.370605,-59.956055,-69.259766
-62.475098,-25.477783,-19.012695,-16.841553,-27.452148
-13.407227,-22.846924,-30.884033,-65.33423,-11.44043
-38.218018,-48.875244,-22.13208,-21.074463,-38.859863
-57.429688,-32.75464,-34.219727,-30.552246,-27.898193
-65.73804,-81.895996,-47.29492,-46.320557,-70.29346
-81.70215,-84.883545,-67.714355,-73.35474,-71.39404
-80.83667,-79.486084,-65.61035,-69.408936,-71.295166
-82.4917,-79.73584,-67.792725,-72.81079,-71.6228
-84.24365,-82.36328,-71.37793,-73.41333,-75.4375
-49.39453,-31.895264,-20.726074,-24.45752,-19.609375
-24.888184,-46.511475,-21.739746,-24.293457,-30.167969
-26.02539,-51.171387,-17.262207,-23.49121,-37.589355
-31.20166,-42.185547,-24.957764,-27.33789,-26.770264
-18.057617,-26.855713,-33.60132,-27.525879,-21.945557
-10.599609,-30.479004,-19.41333,-18.108398,-22.90747
-21.66626,-58.523926,-27.38501,-21.439453,-25.28418
-48.591553,-82.579346,-47.97534,-44.259766,-52.61084
-15.119385,-27.313965,-31.884766,-34.813232,-16.42334
-18.648193,-37.266846,-27.683594,-28.431885,-29.236572
-31.080566,-70.73511,-56.35327,-44.457275,-49.205566
-18.860107,-38.075928,-37.619385,-43.36499,-31.771973
-27.825928,-66.72412,-52.38159,-52.048584,-51.460205
-23.63379,-62.656982,-37.70923,-35.48462,-47.990723
-22.597412,-43.56787,-42.145264,-35.62549,-35.04419
-16.134521,-37.040283,-33.93628,-36.622803,-37.81372
-41.512207,-87.77222,-65.40381,-58.56543,-60.7312
-41.03247,-57.828125,-40.601562,-40.21167,-35.536133
-1.5610352,-5.7453613,-12.191895,-17.82373,-3.133789
-15.920166,-51.059326,-42.018555,-37.41284,-36.051025
-49.715332,-82.26538,-68.60083,-79.659424,-57.385742
-78.17139,-94.04443,-70.52612,-75.57715,-62.884033
-19.371826,-32.46045,-15.064697,-12.782227,-11.859863
-0.3239746,-5.260742,-7.3288574,-4.025635,-6.7487793
-3.1135254,-8.994629,-10.216064,-5.82666,-8.840088
-0.33032227,-4.001465,-7.489258,-6.948242,-5.390625
-15.767822,-19.55127,-33.38867,-40.657715,-17.954102
-73.3374,-52.104492,-68.41211,-66.69409,-37.67578
-85.29004,-94.25342,-71.170166,-77.999756,-78.30054
-38.089844,-31.872559,-24.543457,-30.42456,-29.287354
-8.26123,-23.328125,-9.739014,-10.708252,-9.223145
-71.108154,-98.24072,-66.80078,-71.728516,-59.284668
-80.59009,-108.495605,-68.83008,-78.07739,-80.465576
-85.8645,-115.15381,-80.593506,-80.59863,-81.3689
-39.104492,-90.68262,-30.514404,-41.229004,-67.60181
-94.60986,-110.55737,-77.08203,-78.8645,-89.9646
-90.731445,-101.36841,-85.6543,-85.16211,-85.79346
-80.59375,-70.818115,-74.987305,-76.02246,-53.405273
-82.255615,-90.35669,-78.5542,-80.29419,-73.661865
-73.342285,-66.291016,-71.56665,-73.68823,-62.88208
-30.780518,-17.16504,-22.594238,-26.480225,-17.751709
-30.928467,-50.33008,-35.91089,-37.33618,-43.957764
-8.4626465,-8.689697,-12.613525,-17.511963,-12.029053
-38.509766,-81.836914,-66.730225,-64.2561,-67.210205
-12.628906,-27.495117,-17.538574,-12.406738,-16.145752
-21.678223,-83.54614,-42.00464,-43.541992,-52.781982
-6.6853027,-13.13916,-21.969727,-18.972656,-8.689453
-38.069336,-72.21655,-55.435303,-45.865234,-57.38794
-35.218018,-70.54224,-32.539062,-37.34253,-43.22705
-63.9021,-70.975586,-72.5166,-71.71265,-47.720703
-24.222656,-68.73682,-53.44043,-48.38794,-42.09961
-13.614502,-30.260986,-24.407959,-25.036865,-14.407471
-0.6467285,-2.9560547,-3.0429688,0.9238281,-3.942871
-10.996826,-56.823242,-21.93872,-26.83545,-31.110107
-17.502686,-88.069336,-59.979492,-69.88867,-55.49829
-76.9436,-91.48413,-63.07007,-77.637695,-69.35181
-46.364502,-56.006104,-37.97632,-42.19287,-31.214844
-36.006104,-67.43457,-30.554443,-32.1167,-54.06421
-30.507568,-22.861328,-36.172607,-30.898926,-20.0625
-7.4785156,-27.264404,-13.935303,-15.311035,-24.024658
-64.11328,-77.25073,-62.128662,-68.00903,-60.70044
-41.302246,-59.60083,-22.134766,-25.634521,-44.703613
-31.849365,-37.292236,-13.579102,-25.794922,-23.116943
-59.92993,-81.82153,-49.086914,-44.256348,-67.533936
-44.700684,-82.336426,-41.868896,-37.79297,-74.36865
-65.71387,-61.26294,-46.617676,-58.07544,-46.949463
-21.54419,-64.25903,-31.818604,-35.205566,-44.349854
-13.046387,-42.12085,-8.221191,-19.53418,-31.878174
-20.043457,-49.458008,-27.126465,-27.013428,-33.71704
-42.185547,-44.74829,-33.073242,-35.836914,-29.720459
-35.64453,-56.044678,-35.631348,-29.149902,-41.105225
-16.199951,-54.5979,-25.256592,-23.42456,-39.35913
-9.306641,-45.460205,-27.00122,-22.312012,-36.81836
