"[299, 255]","[227, 248]","[287, 319]","[279, 328]","[230, 262]"
-20.369629,-93.98755,-18.337646,-23.364014,-45.872803
-60.100098,-94.18335,-42.138916,-42.375732,-63.829346
-43.793457,-67.39917,-28.102783,-20.894287,-34.332764
0.2006836,-17.520752,-0.91186523,-1.4057617,-1.2392578
-3.8234863,-14.533447,-5.100586,-4.050049,-11.208984
-3.9394531,-17.214844,-5.7890625,-6.5671387,-6.789551
-10.563232,-37.24536,-9.591064,-8.653809,-15.905518
-34.493164,-77.29248,-13.380127,-20.196045,-51.366943
-29.270264,-57.514404,-25.195312,-27.149414,-38.84839
-10.44458,-29.771484,-12.5373535,-15.256348,-6.171631
-24.346436,-57.556885,-29.01123,-47.57495,-40.632812
-57.892822,-107.05762,-43.86743,-59.443848,-82.196045
-49.669434,-109.86401,-33.92871,-43.21338,-52.29126
-76.73779,-120.53003,-47.14795,-62.020752,-71.39795
-53.8042,-106.20557,-29.215088,-40.229736,-43.979736
-34.839355,-77.11157,-37.5166,-40.198975,-48.763184
-10.190918,-51.988037,-28.038818,-37.072266,-21.76831
-19.576172,-58.173584,-34.13086,-31.593262,-26.115723
-35.841064,-103.71045,-54.623535,-57.296387,-47.927002
-25.101562,-88.43115,-35.713623,-38.67041,-57.14673
-9.949951,-65.75903,-17.377686,-12.868164,-43.047363
-4.8586426,-37.154053,-10.503418,-9.435059,-10.87915
-17.807617,-62.381348,-29.944824,-46.894287,-44.265137
-32.65918,-52.96997,-13.977539,-22.48999,-28.247803
-4.669922,-24.289062,-10.836182,-8.462158,-17.36914
-6.039795,-18.57837,-5.3447266,-4.7041016,-5.492676
-4.390869,-62.884033,-3.40625,-6.078369,-28.086182
-40.393555,-72.677734,-33.26758,-43.462402,-39.090088
-25.388184,-94.51416,-35.963867,-46.243652,-38.93506
-29.41211,-89.133545,-66.031006,-67.65161,-55.17334
-49.319824,-61.402344,-42.401855,-41.438965,-30.648682
-5.0393066,-26.79248,-7.371338,-5.9592285,-18.457764
-5.209961,-43.298584,-7.2353516,-10.41748,-31.39331
-15.261719,-39.374756,-24.465088,-30.209717,-21.510742
-21.97168,-37.09326,-20.139648,-22.019531,-17.216309
-1.7614746,-18.14917,-7.439453,-14.520264,-14.661377
-8.328857,-10.030029,-3.75,-3.5617676,-6.748291
-0.15258789,5.681885,-8.275635,-8.040527,-3.6791992
-4.2023926,0.11645508,-6.0820312,-7.661621,-4.779297
-14.980713,-32.25244,-49.964355,-49.917236,-35.36792
-68.08374,-74.323,-58.545654,-62.708496,-62.320557
-12.556152,-38.128906,-27.915527,-29.735352,-35.510986
-21.88379,-78.01904,-46.31006,-46.121338,-60.11255
-9.793213,-24.801758,-20.213867,-22.068115,-22.45752
-10.906982,-46.20874,-29.23877,-34.419434,-29.461426
-36.138428,-66.14551,-38.747803,-54.700684,-50.565186
-20.922607,-36.504395,-15.408203,-26.534424,-27.028076
-9.54541,-13.20874,-7.157959,-10.172363,-10.517578
-5.1081543,-29.29126,-9.558105,-10.437256,-16.53247
-36.697754,-87.418945,-31.939941,-44.393066,-59.45166
-6.23999,-35.61621,-11.512451,-18.691895,-17.470459
-52.98584,-76.62402,-40.66797,-42.071777,-62.36548
-8.744629,-51.17163,-13.950928,-17.541992,-40.684814
-18.183594,-36.93213,-29.39624,-19.085693,-30.026123
-58.31494,-68.60034,-46.34375,-44.88501,-61.447754
-9.418701,-14.760986,-15.4279785,-14.77832,-11.898682
-10.020264,-23.320312,-17.88208,-23.99292,-21.10962
-2.4416504,4.3603516,-2.635498,-4.8842773,-1.5253906
-7.2229004,-18.001709,-17.85083,-18.745361,-17.481934
-25.721191,-65.90234,-30.915527,-33.034668,-57.9729
-15.810059,-26.52417,-27.444092,-25.989014,-24.010986
-3.6381836,-11.355225,-10.823975,-15.999756,-17.870117
-31.206543,-61.845703,-55.91748,-59.431885,-46.029297
-22.645508,-51.664795,-43.820312,-43.174072,-40.903564
-0.0043945312,-6.6154785,-2.6347656,-1.199707,-4.942627
-2.105957,-2.7939453,-10.638916,-4.4731445,-8.4140625
-9.451904,-13.249512,-20.068115,-21.066162,-14.160156
-39.86499,-12.543701,-16.361816,-33.692627,-4.9890137
-23.000732,-43.743652,-31.88501,-39.470947,-34.55591
-12.554932,-10.104004,-5.9328613,-6.907715,-6.3222656
-4.2438965,0.74975586,-3.7658691,-3.685791,-2.2199707
-16.448242,-9.714355,-7.993408,-8.224365,-6.355957
-6.7504883,-26.843994,-14.363525,-20.103027,-18.185303
-22.029785,-74.07715,-53.8938,-58.373535,-51.09619
-24.350098,-16.853271,-14.137451,-12.600342,-9.910889
-55.683105,-81.82495,-55.4375,-61.605957,-69.430176
-30.283203,-60.841553,-35.365723,-44.84131,-41.581787
-51.362305,-33.178223,-27.960693,-36.09204,-29.146484
-58.740234,-80.42847,-64.59985,-66.981445,-73.251465
-40.512695,-19.798584,-27.61206,-26.514404,-21.858643
-2.953125,-7.29541,-10.61084,-12.500977,-6.7248535
-12.135986,-78.59448,-32.071045,-36.94702,-59.88672
-18.430664,-29.798584,-22.757324,-28.77002,-20.77417
-2.915039,-5.3759766,-19.925537,-25.974365,-4.42041
-4.23999,-2.7907715,-3.9438477,-13.452637,-4.203369
-13.758301,-33.949463,-35.848145,-30.05835,-37.72827
-53.631104,-52.152832,-20.220703,-24.374512,-57.642334
-32.624756,-22.346924,-16.55371,-20.43628,-19.963379
-21.323975,-35.269043,-28.937744,-22.708984,-29.118408
-32.936768,-44.079834,-36.68042,-32.206787,-36.70215
-62.9021,-101.908936,-75.52832,-81.38501,-72.32324
-18.200928,-21.428955,-14.04541,-17.240967,-13.9904785
-13.453857,-8.276855,-32.11255,-38.641357,-10.939209
-11.503174,-0.6616211,-3.578125,-3.666504,-1.9970703
-36.88501,-56.81836,-36.471436,-40.926025,-44.38159
-53.58618,-48.916992,-41.703613,-46.022217,-34.65381
-36.80298,-76.877686,-62.026367,-59.219727,-65.39673
-26.644775,-51.926025,-43.629395,-44.436035,-39.955322
-11.780518,-34.720947,-12.093994,-14.975098,-24.453613
-17.870117,-35.996094,-45.184326,-41.94995,-37.384766
-23.346191,-41.602783,-42.617676,-40.736084,-42.331543
-43.506104,-62.01172,-48.854736,-52.392334,-49.405518
-75.81641,-93.13135,-61.683838,-66.71924,-86.70752
-75.39624,-77.802246,-69.60132,-68.430664,-61.603516
-86.08569,-93.52539,-63.345947,-59.410645,-80.29297
-76.81787,-83.93506,-75.96924,-79.56152,-75.498535
-37.848633,-64.61206,-51.472656,-57.32202,-55.124023
-74.92505,-92.711914,-63.979492,-55.96045,-82.400635
-73.51904,-105.23755,-58.673096,-58.004395,-82.62085
-85.53345,-108.38672,-87.100586,-92.21631,-87.32446
-39.23828,-47.394043,-36.209473,-36.26245,-43.98047
-12.04541,-13.993652,-27.632324,-20.834473,-18.015137
-8.791748,-11.977051,-12.773193,-11.194824,-12.5390625
-6.4733887,-28.052002,-11.328369,-9.734619,-26.581787
-24.387207,-38.31372,-37.63452,-44.237305,-39.452393
-19.026611,-27.113037,-32.35083,-37.668945,-27.697266
-58.765625,-83.7959,-67.62988,-63.486084,-68.666016
-13.449707,-32.607666,-20.61914,-17.167236,-23.072998
-51.083496,-60.92578,-61.509766,-68.90625,-53.66333
-80.44165,-90.26782,-91.33301,-92.64526,-82.528564
-56.804443,-44.427002,-76.73901,-62.505615,-47.671875
-48.571045,-46.062744,-49.454834,-53.576416,-47.41748
-61.078857,-88.87378,-66.93237,-74.58057,-77.795166
-95.82617,-91.523926,-90.69458,-91.02734,-88.81738
-90.07446,-94.59497,-81.20923,-83.04639,-86.02905
-93.36401,-91.41943,-84.02515,-90.22119,-87.18921
-95.93945,-89.937744,-85.33252,-89.371826,-89.295654
-76.706055,-49.928223,-64.958984,-67.63599,-56.14673
-24.040527,-20.507812,-23.46753,-20.80835,-22.697998
-37.7854,-39.368652,-43.490234,-52.471924,-47.520752
-89.730225,-96.27783,-88.51782,-87.37793,-92.447266
-82.79785,-83.56299,-76.11597,-75.93848,-78.7063
-25.15625,-43.538086,-25.427246,-26.061523,-38.35327
-82.34766,-48.090332,-81.93506,-75.883545,-67.37549
-91.80371,-93.58276,-86.69531,-86.45801,-84.852295
-91.499756,-86.63208,-48.09424,-64.470215,-80.07251
-88.43213,-77.06714,-63.230225,-49.946777,-81.82202
-97.8938,-70.87329,-89.75928,-92.70532,-77.85864
-68.95459,-59.740967,-54.43335,-53.528076,-59.346924
-81.54712,-50.46216,-67.802,-71.97705,-56.855957
-55.056885,-48.356934,-51.36084,-46.14624,-46.559326
-17.152588,-9.97168,-24.296387,-27.598633,-10.141113
-62.947266,-41.21411,-49.06006,-47.770508,-66.6062
-61.321533,-29.762207,-42.372803,-44.236084,-33.65918
-70.694336,-46.9104,-61.418213,-69.897705,-64.56714
-68.937744,-37.691895,-62.275635,-61.027588,-56.36621
-30.681885,-11.291992,-35.534668,-36.863525,-22.727783
-30.076416,-34.407715,-17.727295,-19.61206,-38.696045
-11.663086,-26.305176,-25.663818,-29.875488,-24.114014
-29.486328,-14.979004,-23.500488,-22.722656,-12.88623
-12.997314,-30.403564,-33.456787,-37.999023,-15.39209
-98.630615,-100.14526,-100.3999,-93.84326,-93.371826
-76.9646,-101.08594,-75.58374,-73.9978,-101.94751
-98.90137,-99.176025,-61.90625,-64.4397,-92.58569
-74.688965,-97.476074,-59.98706,-76.00903,-95.3584
-45.52466,-67.94824,-53.84961,-59.760254,-59.2417
-94.95288,-51.258545,-84.12402,-79.581055,-56.640625
-13.509277,-48.473633,-23.061523,-26.96045,-30.550781
-28.279297,-20.776611,-15.32373,-17.020996,-26.459473
-21.025635,-14.575928,-9.724121,-14.917725,-20.121826
-27.423584,-37.20508,-17.221436,-27.77124,-37.706055
-61.184082,-27.182373,-45.350098,-41.696045,-30.805908
-44.658936,-51.593018,-45.83374,-44.0166,-60.10132
-51.18335,-63.81494,-27.580078,-30.84375,-65.122314
-50.831787,-65.76465,-45.270996,-48.40503,-67.47168
-43.985107,-43.640137,-57.548096,-50.668213,-55.44458
-47.801758,-23.267822,-48.589355,-38.0083,-38.31128
-16.110352,-13.454102,-6.955078,-7.979004,-8.789795
-28.933594,-55.801758,-28.638672,-30.466797,-45.877686
-42.120117,-86.556885,-31.78955,-26.33667,-74.42627
-51.887207,-82.08008,-50.894775,-46.430176,-70.27344
-84.68286,-70.41333,-52.205322,-50.031494,-79.74536
-59.228027,-36.800537,-39.504883,-41.03076,-50.188477
-40.68457,-32.125244,-36.282227,-46.426758,-45.13379
-42.88745,-42.57544,-41.175537,-35.903564,-39.125
-16.391113,-50.341553,-29.136475,-30.417236,-41.06372
-34.92212,-62.847168,-47.746826,-55.796875,-61.038086
-15.792725,-52.06299,-22.029541,-27.010986,-38.59546
-56.244873,-71.751465,-47.56958,-51.167725,-56.736084
-58.787354,-71.77612,-46.399414,-47.504395,-59.63086
-63.81714,-83.023926,-65.53516,-65.20972,-79.440674
-30.118652,-88.178955,-22.403809,-27.665771,-74.231445
-52.09961,-47.17285,-59.925293,-83.52368,-41.46216
-30.893066,-39.058838,-58.639893,-70.13965,-35.394043
-54.433105,-63.006104,-52.0542,-49.950195,-59.458008
-62.121582,-75.55249,-71.99414,-65.23096,-76.87964
-49.684082,-62.305664,-54.321533,-71.143555,-75.37598
-29.853516,-21.467773,-33.68164,-35.103516,-17.248535
-14.27417,-25.329102,-32.55127,-31.859375,-30.842041
-73.80908,-74.8125,-79.112305,-70.27466,-83.109375
-79.129395,-79.825195,-76.76123,-69.301025,-84.05713
-37.076904,-37.62744,-46.75879,-52.632812,-29.85254
-17.038086,-9.3828125,-12.546631,-12.540283,-8.483643
-18.089844,-11.595459,-12.4001465,-13.135498,-7.057373
-28.15625,-44.520752,-30.980225,-23.684814,-33.369385
-66.47339,-43.56958,-51.748535,-64.43799,-48.01245
-25.04956,-16.479736,-27.636963,-26.250488,-19.16333
-10.804932,-12.124512,-8.251953,-7.7199707,-7.701416
-19.469238,-22.29834,-21.035645,-25.572754,-24.91626
-19.542725,-39.02173,-20.257568,-14.529785,-35.838135
-36.00659,-56.9458,-70.240234,-55.14502,-65.39331
-25.842773,-15.308105,-15.325439,-16.320068,-15.587402
-33.12036,-68.02026,-16.662354,-22.998291,-60.62964
-40.76465,-59.067383,-27.728027,-25.791016,-63.26123
-50.02832,-86.49707,-42.238525,-52.445557,-72.272705
-32.53003,-23.498535,-27.82251,-27.820312,-16.63794
-34.13159,-66.05054,-40.16577,-45.66162,-65.89844
-60.03076,-45.967285,-67.954834,-71.65137,-49.51587
-20.090332,-15.158447,-11.358154,-9.058594,-7.1120605
-68.32617,-10.3203125,-50.2312,-30.63623,-12.626465
-29.090332,-16.673096,-50.20996,-56.865723,-32.166504
-21.235352,-7.4404297,-28.14331,-28.847168,-19.333984
-8.394043,-2.8996582,-18.968994,-22.221924,-13.308594
-60.12256,-55.631348,-46.209717,-62.50586,-56.378418
-12.9104,-12.357422,-16.42627,-19.555664,-9.711182
-16.088867,-36.51831,-21.104004,-27.019531,-39.68335
-14.858154,-28.177979,-24.419678,-24.779053,-21.03955
-40.399902,-68.1936,-59.99951,-56.118652,-65.29126
-51.207764,-49.396973,-51.536133,-56.226562,-61.333008
-72.30444,-78.616455,-77.34985,-79.426025,-77.2666
-91.73291,-83.611084,-54.86255,-71.93213,-64.63623
-22.907959,-27.940186,-40.81201,-51.060547,-27.244629
-21.375,-20.514893,-10.592285,-10.156738,-19.671387
-32.179443,-54.611084,-29.855469,-33.43335,-49.150635
-53.843994,-29.160156,-41.26465,-51.57495,-27.097412
-41.24756,-21.060303,-32.15869,-26.986328,-15.824463
-26.261719,-34.027344,-49.59131,-53.591553,-47.442627
-18.04956,-9.175293,-12.403076,-15.111572,-7.4694824
-22.430176,-25.39746,-35.76245,-30.351807,-23.274658
-10.917725,-19.141846,-20.497559,-24.121338,-17.915771
-22.833984,-35.37671,-32.338623,-29.5542,-30.753418
-4.415039,-3.1662598,-5.73584,-5.911621,-4.0009766
-7.6242676,-16.509766,-23.627441,-18.229248,-20.740234
-42.474365,-54.6438,-26.07788,-30.009521,-49.14258
-39.59253,-35.987305,-25.516357,-29.493652,-33.31421
-5.361084,-9.515869,-40.287354,-41.1084,-19.685303
-29.345703,-22.452393,-32.94214,-36.76172,-21.335205
-20.74585,-34.152832,-34.05835,-32.57715,-33.855225
-34.762695,-59.29004,-45.596924,-48.286865,-51.166504
-39.010742,-51.085205,-42.545166,-50.966553,-46.408447
-55.0,-58.547607,-47.271973,-54.840576,-56.996338
-60.394775,-53.064453,-51.416992,-57.63745,-56.438477
-42.85742,-23.209717,-32.95117,-37.134766,-16.376709
-20.852295,-25.678223,-35.369873,-55.311768,-30.839844
-8.593262,-14.543945,-15.062256,-17.611328,-12.3046875
-31.519287,-45.455566,-45.541504,-40.959473,-39.890137
-16.630371,-10.999023,-22.704102,-28.572754,-16.748047
-18.30835,-23.234375,-27.049805,-29.442139,-26.590332
-45.87622,-65.68994,-35.686035,-37.90039,-56.629395
-31.693848,-22.801758,-25.18628,-25.71997,-15.978027
-33.346436,-17.144531,-16.48999,-13.986328,-14.214111
-53.245605,-39.71338,-41.55005,-40.55786,-57.492676
-41.26245,-51.481934,-74.8772,-75.80078,-48.933105
-23.00415,-35.05371,-27.942139,-35.741943,-20.026367
-34.539795,-53.802002,-58.693604,-62.79785,-62.936523
-64.12305,-85.404785,-59.65625,-63.416504,-80.28247
-60.98291,-47.997803,-59.165527,-61.73999,-58.229736
-69.76538,-64.08594,-73.41382,-76.231445,-76.68848
-76.47534,-72.03613,-67.91992,-75.4939,-81.06299
-62.449463,-73.198975,-72.12378,-83.13135,-78.678955
-56.45215,-65.670166,-56.123535,-69.10278,-62.590576
-65.74634,-37.752197,-47.669434,-65.05322,-36.668945
-30.781494,-57.67798,-43.54785,-53.04126,-53.95996
-40.67627,-50.6958,-47.385986,-43.576904,-29.71167
-52.990234,-34.86035,-26.17871,-21.571045,-19.727295
-49.825684,-51.145752,-30.95459,-43.399902,-35.25415
-35.883545,-54.09253,-46.10742,-51.087646,-54.58667
-66.467285,-52.32837,-58.198242,-68.07861,-65.4978
-15.064453,-12.437256,-25.800537,-24.108643,-9.177246
-43.491455,-67.88599,-38.1792,-51.898926,-53.823486
-68.66211,-58.663086,-59.67285,-65.890625,-51.76001
-48.24829,-43.561523,-38.471924,-45.255615,-36.217285
-19.149414,-39.42041,-33.86035,-38.586914,-41.540283
-56.14453,-77.45776,-48.748535,-42.81421,-69.59033
-50.485596,-52.669434,-43.57373,-37.838623,-51.169678
-8.383545,-17.050293,-15.5354,-13.698486,-8.69043
-82.21948,-46.12622,-76.10181,-67.15503,-57.426514
-75.64429,-75.93286,-57.683105,-49.966064,-69.68823
-67.06079,-64.04639,-58.93091,-55.038086,-62.64966
-62.965576,-66.06177,-54.77466,-54.79297,-60.338135
-56.354004,-72.0459,-56.697266,-56.455322,-65.24219
-54.518066,-49.677002,-46.77002,-57.1604,-46.289307
-86.68237,-88.698975,-75.9458,-76.998535,-80.02368
-86.71948,-84.53076,-76.4707,-79.04932,-72.79004
-64.73535,-70.289795,-54.746094,-68.34619,-62.957275
-33.038086,-70.483154,-27.942627,-25.550537,-59.4834
-48.76001,-46.644287,-57.43506,-57.58203,-47.108154
-40.809814,-55.965088,-20.636963,-26.677246,-43.101074
-54.574463,-68.34277,-42.30298,-53.958252,-52.04956
-45.961914,-40.50659,-19.422852,-27.90039,-33.15454
-44.507324,-61.313965,-45.87036,-50.43286,-53.033447
-52.940186,-69.551025,-35.391846,-42.743164,-55.319336
-77.54346,-80.716064,-51.836426,-50.99878,-70.690186
-75.39429,-63.027832,-69.11182,-70.947754,-59.654785
-34.457275,-28.312256,-35.617676,-39.173096,-30.716797
-49.083008,-24.570312,-44.10327,-49.646484,-35.709717
-47.64087,-36.683838,-39.38257,-43.802246,-38.50293
-73.41943,-60.20166,-67.96094,-69.66333,-63.813965
-79.17139,-69.55054,-73.5874,-74.92432,-76.24902
-80.8208,-56.38672,-75.91846,-76.958496,-64.11499
-24.623535,-62.35034,-52.745117,-52.67871,-56.979248
-30.16504,-54.99341,-29.993408,-42.60376,-44.049316
-29.051025,-10.280273,-26.45166,-23.935303,-9.415283
-36.52417,-50.52295,-44.797363,-44.76709,-46.10669
-33.611816,-56.32373,-38.294678,-43.531494,-37.48413
-46.03247,-83.789795,-47.491943,-58.615723,-54.75415
-22.296875,-43.78247,-25.75293,-25.576904,-10.779541
-50.33911,-68.484375,-59.391846,-63.97046,-45.45703
-87.92139,-108.68628,-76.53076,-79.14209,-79.21069
-77.03735,-95.048584,-44.786133,-57.490723,-69.965576
-85.781494,-98.64111,-69.58545,-56.851562,-74.660645
-56.225098,-55.872314,-63.91211,-67.309326,-48.103516
-25.069824,-27.64331,-22.288818,-26.8396,-24.422852
-36.686035,-55.493652,-39.829834,-34.318115,-45.514893
-47.230957,-55.21118,-49.71631,-52.13867,-39.128418
-21.1333,-43.682373,-31.112549,-38.75,-36.092773
-31.177246,-59.90088,-37.396484,-33.73999,-43.160156
-58.925537,-68.811035,-36.674316,-40.754395,-36.79712
-48.668945,-45.60791,-37.660645,-41.492188,-37.051025
-32.76001,-40.41284,-32.41919,-33.89746,-29.121826
-30.515137,-42.084473,-30.621582,-29.411865,-25.4458
-23.935791,-38.311768,-25.726562,-25.603027,-26.406494
-39.507812,-73.78052,-58.47119,-64.648926,-71.50537
-13.78418,-32.174072,-18.702637,-22.150146,-19.834473
-16.951904,-49.427002,-56.23242,-53.730225,-54.55542
-20.900635,-13.258789,-7.010254,-6.4748535,-6.7873535
-31.202148,-22.845703,-12.910889,-29.13916,-20.75
-33.19409,-23.844727,-19.833252,-25.973389,-27.956055
-39.744385,-15.682129,-20.093506,-20.81372,-15.681641
-46.295654,-26.16455,-7.568115,-18.128418,-25.743408
-70.17139,-61.46631,-56.681152,-60.90161,-61.64673
-70.32153,-64.7793,-61.6438,-64.59961,-59.57373
-71.53247,-67.166504,-63.489014,-65.02612,-57.838623
-33.388184,-29.270752,-23.00293,-31.960693,-27.206543
-5.2773438,-34.322266,-22.276611,-21.461426,-21.32666
-50.635498,-65.80493,-42.628418,-47.28125,-42.958496
-72.62109,-112.548096,-49.43799,-65.002686,-60.6521
-85.717285,-118.01709,-76.106445,-78.729004,-76.33423
-91.70093,-113.2832,-80.11841,-84.266846,-68.70215
-69.88501,-86.476074,-58.124023,-61.141357,-55.27954
-68.855225,-67.21802,-48.510986,-61.51123,-41.147217
-71.049805,-77.14722,-32.668213,-37.85376,-52.54126
-70.21338,-97.30151,-34.90674,-32.024902,-51.86963
-67.009766,-103.38965,-46.135742,-58.53247,-65.59009
-35.81079,-97.61572,-48.31909,-53.301758,-69.666504
-15.924316,-30.459717,-26.411865,-29.583984,-11.833008
-9.022217,-36.279297,-9.714844,-7.5354004,-20.436035
-57.468506,-87.75195,-47.6687,-48.180664,-66.75513
-27.510254,-54.43579,-32.209717,-32.341064,-36.9729
-67.3291,-68.58154,-61.506104,-57.97534,-65.43799
-29.374023,-30.48291,-43.334473,-46.951904,-11.901855
-3.689209,-59.1521,-7.511963,-9.885254,-33.12329
-13.278809,-73.52515,-15.916992,-13.768799,-52.671387
-8.654053,-33.20874,-22.869873,-22.692383,-10.498779
-21.553467,-61.031494,-28.375488,-38.63452,-24.513184
-47.03076,-64.14575,-56.12793,-62.019287,-42.67627
-26.575195,-68.20166,-41.34131,-48.50659,-48.15747
-6.76001,-43.360596,-15.551758,-17.864502,-22.932373
-24.497314,-50.80542,-33.35034,-36.958008,-35.08423
-26.427734,-28.4729,-17.0896,-18.091797,-16.575195
