Program Version,EnergyPlus, Version 9.3.0-baff08990c, YMD=2020.12.18 23:25,
   ************* Beginning Zone Sizing Calculations
   ** Warning ** Weather file location will be used rather than entered (IDF) Location object.
   **   ~~~   ** ..Location object=VICTORIA INT'L
   **   ~~~   ** ..Weather File Location=Victoria-Univ of Victoria BC CAN CWEC2016 WMO#=717830
   **   ~~~   ** ..due to location differences, Latitude difference=[0.19] degrees, Longitude difference=[0.13] degrees.
   **   ~~~   ** ..Time Zone difference=[0.0] hour(s), Elevation difference=[216.32] percent, [41.10] meters.
   ** Severe  ** FenestrationSurface:Detailed="SKYLIGHTS_R1C1", invalid Frame and Divider Name="SKYLIGHT FRAME R-0.02 5.2 IN. WIDE"
   ** Severe  ** FenestrationSurface:Detailed="SKYLIGHTS_R1C2", invalid Frame and Divider Name="SKYLIGHT FRAME R-0.02 5.2 IN. WIDE"
   ** Severe  ** FenestrationSurface:Detailed="SKYLIGHTS_R1C3", invalid Frame and Divider Name="SKYLIGHT FRAME R-0.02 5.2 IN. WIDE"
   ** Severe  ** FenestrationSurface:Detailed="SKYLIGHTS_R1C4", invalid Frame and Divider Name="SKYLIGHT FRAME R-0.02 5.2 IN. WIDE"
   ** Severe  ** FenestrationSurface:Detailed="SKYLIGHTS_R2C1", invalid Frame and Divider Name="SKYLIGHT FRAME R-0.02 5.2 IN. WIDE"
   ** Severe  ** FenestrationSurface:Detailed="SKYLIGHTS_R2C2", invalid Frame and Divider Name="SKYLIGHT FRAME R-0.02 5.2 IN. WIDE"
   ** Severe  ** FenestrationSurface:Detailed="SKYLIGHTS_R2C3", invalid Frame and Divider Name="SKYLIGHT FRAME R-0.02 5.2 IN. WIDE"
   ** Severe  ** FenestrationSurface:Detailed="SKYLIGHTS_R2C4", invalid Frame and Divider Name="SKYLIGHT FRAME R-0.02 5.2 IN. WIDE"
   ** Severe  ** FenestrationSurface:Detailed="SKYLIGHTS_R3C1", invalid Frame and Divider Name="SKYLIGHT FRAME R-0.02 5.2 IN. WIDE"
   ** Severe  ** FenestrationSurface:Detailed="SKYLIGHTS_R3C2", invalid Frame and Divider Name="SKYLIGHT FRAME R-0.02 5.2 IN. WIDE"
   ** Severe  ** FenestrationSurface:Detailed="SKYLIGHTS_R3C3", invalid Frame and Divider Name="SKYLIGHT FRAME R-0.02 5.2 IN. WIDE"
   ** Severe  ** FenestrationSurface:Detailed="SKYLIGHTS_R3C4", invalid Frame and Divider Name="SKYLIGHT FRAME R-0.02 5.2 IN. WIDE"
   ** Severe  ** FenestrationSurface:Detailed="SKYLIGHTS_R4C1", invalid Frame and Divider Name="SKYLIGHT FRAME R-0.02 5.2 IN. WIDE"
   ** Severe  ** FenestrationSurface:Detailed="SKYLIGHTS_R4C2", invalid Frame and Divider Name="SKYLIGHT FRAME R-0.02 5.2 IN. WIDE"
   ** Severe  ** FenestrationSurface:Detailed="SKYLIGHTS_R4C3", invalid Frame and Divider Name="SKYLIGHT FRAME R-0.02 5.2 IN. WIDE"
   ** Severe  ** FenestrationSurface:Detailed="SKYLIGHTS_R4C4", invalid Frame and Divider Name="SKYLIGHT FRAME R-0.02 5.2 IN. WIDE"
   **  Fatal  ** GetSurfaceData: Errors discovered, program terminates.
   ...Summary of Errors that led to program termination:
   ..... Reference severe error count=16
   ..... Last severe error=FenestrationSurface:Detailed="SKYLIGHTS_R4C4", invalid Frame and Divider Name="SKYLIGHT FRAME R-0.02 5.2 IN. WIDE"
   ************* Warning:  Node connection errors not checked - most system input has not been read (see previous warning).
   ************* Fatal error -- final processing.  Program exited before simulations began.  See previous error messages.
   ************* EnergyPlus Warmup Error Summary. During Warmup: 0 Warning; 0 Severe Errors.
   ************* EnergyPlus Sizing Error Summary. During Sizing: 1 Warning; 16 Severe Errors.
   ************* EnergyPlus Terminated--Fatal Error Detected. 1 Warning; 16 Severe Errors; Elapsed Time=00hr 00min  0.37sec
