"[299, 255]","[227, 248]","[287, 319]","[279, 328]","[230, 262]"
2.492484,1.0739217,1.1771957,0.08952307,3.4004824
3.1812727,0.3981588,0.89669853,1.0263861,1.9385456
3.7695656,4.9617687e-05,2.3134966,3.8426754,0.020354183
6.6977477,0.023486545,3.5280676,1.8456045,0.33323392
2.545513,1.3723212,0.2990629,0.9367155,1.3567758e-05
0.7093087,3.941321e-05,0.23712742,0.00012631295,2.4274143e-06
1.2205875e-06,3.9111103e-07,0.00013369061,4.7118493e-07,3.270062e-07
5.6433186e-07,1.4162091e-06,1.2725476e-06,4.1710592e-07,6.812919e-07
8.361526e-07,9.495444e-06,2.9317133e-07,1.3364266e-07,5.7793784e-07
0.2870321,6.7670805e-07,0.00028256193,0.0033827305,1.0718342e-06
2.9058608e-06,1.8775421e-06,1.3119101e-06,1.212974e-05,9.060903e-07
1.6373376e-06,2.2871384e-06,0.00020116988,0.046262216,1.0658141e-06
4.1040357e-06,0.0005998744,2.4502058e-06,0.059757248,7.408147e-07
4.4166013e-06,1.1768383e-06,8.841804e-06,0.23202774,1.3461366e-06
3.919879e-06,0.002478961,1.0585687e-06,2.1643464e-06,5.2751574e-07
2.472136e-06,6.7434216e-06,0.01531755,0.20823057,1.269414e-06
1.140681e-06,1.3381218e-06,0.014930792,0.18084079,1.153358e-06
2.6691266e-06,3.7163184e-07,0.0056870827,0.02597681,1.4701426e-06
1.5631581e-06,1.0669338e-06,8.9512934e-05,0.010844037,8.152385e-07
1.6931118e-06,1.8763451e-06,0.0005853253,0.5468383,4.3901017e-07
0.11185966,7.6608694e-07,0.0062685567,5.308213e-06,7.143471e-07
0.095521875,1.7572136e-06,0.009917992,0.029067632,1.1065246e-06
6.263747e-05,4.6395926e-06,0.001543318,0.21525985,5.805651e-08
0.00035088093,8.153026e-07,1.1658921e-05,1.2737233e-07,5.173522e-07
3.354729e-06,1.4393119e-06,3.5328198e-05,0.01375563,7.745606e-07
1.7125024e-06,8.148814e-07,0.03828691,0.20467274,1.3561821e-06
8.147844e-07,1.0734768e-06,2.539479e-07,3.058946e-07,1.1413161e-06
0.4612107,1.6802603e-06,1.246856e-06,0.0071597863,2.6091006e-06
2.7140518e-07,1.2913428e-06,0.021498783,0.000121740275,4.1656194e-06
9.3367976e-07,2.6531325e-06,5.348927e-07,1.8283998e-06,4.1003065e-07
1.5773766e-06,3.822519e-06,0.01144304,0.1358034,1.769896e-06
9.74131e-07,1.0370823e-06,0.56878585,7.349011e-06,1.7768251e-07
8.7749197e-07,3.7231558e-07,0.80261296,0.2638044,2.102667e-07
9.4365976e-07,4.222226e-07,0.17295216,0.0038486568,2.8605766e-07
0.2692742,7.635578e-07,2.3686293e-07,9.660345e-07,1.857931e-06
4.005319e-06,1.2395685e-06,0.57088965,1.6114816e-06,1.0539575e-06
1.7619258e-06,2.798563e-06,0.07149669,0.039167207,9.867503e-07
0.30055225,1.500087e-06,0.4088138,0.5114692,3.3894723e-06
0.000463478,1.4818213e-06,0.01843146,3.3494278e-05,4.8264715e-06
2.2239738e-06,1.05747574e-07,0.0009656845,7.2542293e-06,2.251835e-06
2.66129e-06,1.1585039e-06,3.3327392e-06,1.2279318e-06,4.3387627e-06
4.043183e-06,2.1735348e-06,1.3526242e-06,5.3353688e-06,1.6333524e-06
3.4113004e-06,0.41345844,0.00023053933,0.23031202,2.391079e-06
2.951056e-06,0.4773846,2.1853107e-06,1.1270292e-06,1.178575e-05
2.2206248e-05,0.13480483,4.2850493e-07,6.4078104e-06,0.8548531
4.196944e-05,1.6985963e-06,2.9424643e-07,3.931115e-06,0.008171923
1.7113795,0.1261808,1.7867144e-06,6.581916e-07,5.2343484e-07
0.030918887,1.6738033e-05,3.3080227e-07,5.358395e-07,9.1351825e-07
0.00064825086,1.1664736e-06,2.8430023e-07,7.6751826e-07,0.36997443
0.835903,1.6547987e-06,8.728859e-07,1.3374737e-06,2.0317692e-07
0.003283106,1.3780335e-06,4.10963e-06,4.73852e-07,1.5174317e-07
0.0018650437,7.505359e-07,0.2671675,1.9755082e-07,1.4237418e-06
0.00033661997,1.0641784e-06,2.8962276e-07,1.2535604e-07,4.2810214e-07
0.0003184819,3.395663e-07,8.14845e-07,1.3198996e-07,9.357707e-08
6.911908e-05,1.3197366e-06,1.2529506e-06,7.550887e-05,8.9656953e-07
0.009385815,4.8817196e-07,9.062749e-06,0.016298546,1.1343261e-06
0.0024225097,1.9335996e-06,2.50076e-07,0.058330543,1.561349e-07
2.5350653e-05,6.8671704e-07,7.8521225e-07,0.0006129503,1.414029e-06
9.846015e-07,8.242426e-07,1.165914e-06,0.0029579839,8.276907e-07
1.4653238e-05,4.9568757e-06,1.007011,0.011168736,1.0732201e-06
3.7000063e-06,2.9816863e-06,0.35769108,1.1392306e-06,1.1231971e-06
0.06564265,0.00032639378,1.2646116e-06,1.8421497e-06,9.044776e-07
0.08668694,4.4576313e-06,0.00028836587,3.216835e-06,0.08117635
0.00011719249,0.00017236678,1.1952535e-05,0.000118349,1.5282515e-06
0.09895359,2.092522e-05,1.5493844e-06,1.4443924,2.4141348e-06
1.1001079e-05,1.2832513e-06,5.4250604e-06,0.025352415,0.0038169287
0.0013665486,9.762014e-07,9.585766e-07,1.8036993,0.016994728
4.7991034e-07,0.020004638,9.3557844e-07,2.0527003,0.12499339
0.0004820214,0.0023124688,1.431987e-05,0.24853082,1.4089854e-06
0.32435554,1.2395752e-06,5.628285e-05,0.15701647,1.8250861e-06
0.0033024712,2.7536576e-06,1.6785878e-05,3.4713,8.426518e-06
0.0022591734,2.541944e-06,2.2474363,3.6765698e-06,5.8628115e-07
1.1139981e-06,2.2069235e-06,0.00042378917,4.953047e-07,1.1913579e-05
0.5143797,1.6977517e-06,0.0027112328,4.2786036e-07,7.4947906e-07
0.6884864,3.8687504e-06,0.75880677,1.519287e-07,1.6096096e-06
0.0018307759,1.3759085e-06,7.421372e-07,0.03302987,3.6699444e-07
3.0384529,9.496141e-07,0.4928676,0.14372797,1.9873462e-06
5.408688e-05,2.3969806e-06,0.1433039,0.023304101,2.700202e-06
0.00041372477,3.6059723e-06,0.1253471,2.327616e-06,7.4033807e-07
0.5062982,3.3669212e-07,1.1519122e-06,5.1785076e-07,1.4690173e-06
0.004246345,4.243095e-06,8.501394e-06,2.2449916e-05,7.477115e-07
0.031453393,1.798677e-06,1.529515,5.227554e-06,2.0895802e-06
0.27348134,3.1853342e-06,3.6524056e-05,1.4252162e-06,9.467377e-07
0.008097628,4.5714262e-07,0.021830395,0.009237669,4.2936454e-06
0.23735759,2.415915e-07,0.112461135,0.024113968,2.0422738e-06
4.6801324e-06,4.7229773e-06,0.5221229,0.99723023,0.19580749
1.3225325,9.916758e-06,1.4447135,3.6408034e-07,0.90541404
1.7253401e-06,1.2117087e-05,7.2225585e-06,1.2139687e-06,1.3823294e-06
2.1455708e-06,0.0069208853,1.9159436e-06,0.0017131212,1.4470938e-06
1.3919022e-05,1.0814089e-06,1.3169512e-06,2.8767938e-05,3.7854907e-06
0.23459686,2.0030866e-06,3.6879968e-07,1.3932706e-07,2.80422e-07
0.052444547,2.298036e-06,3.0732707e-07,4.819081e-07,2.0187254e-06
0.14367531,1.0169645e-06,2.6083686e-07,6.709928e-07,1.3259784e-06
1.2642608e-06,1.4352717e-06,1.7345226e-07,1.3701253e-07,7.946291e-07
3.2279608e-05,1.4626492e-06,1.0074076e-06,1.0132067e-06,2.1382081e-07
1.2859256e-07,1.5273448e-06,1.8671655e-07,2.3896625e-06,5.162043e-07
0.039163645,2.3792754e-06,1.2918251e-06,1.597326e-07,5.6206574e-07
0.29612643,1.8180697e-06,8.6592095e-08,2.3232649e-07,1.323247e-07
0.00069305766,1.0787857e-05,7.888481e-07,3.4666394e-07,1.0803758e-06
2.6036769e-05,5.4416746e-06,1.7915705e-06,9.969568e-07,6.457763e-07
4.308586e-05,2.374741e-06,1.1723193e-07,3.8756934e-08,4.1344865e-05
2.012708e-06,3.918138e-05,4.8800565e-08,1.9541742e-08,0.00050941843
6.080597e-07,0.0010121015,1.7592531e-06,1.0585986e-06,7.4301556e-07
2.4118677e-07,0.0040988913,5.404235e-06,1.0589198e-05,0.000249555
0.0020186165,0.0015901545,2.2210783e-05,1.9786126e-05,0.00035524895
0.0021068125,0.05751915,1.7276143e-05,1.5521104e-07,0.10940593
0.00062046933,0.6686598,1.9502746e-05,1.1804028e-05,0.91233844
0.0010073605,0.503095,1.5688628e-06,8.8490214e-07,0.121698044
0.20070373,0.74253273,3.223367e-05,1.5882422e-06,0.49868736
0.8518563,1.3394562,1.8343812e-06,0.0061845523,1.2848041
1.2241548,2.9189637,0.1657091,0.004551037,2.306902
2.4871964,2.700034,0.18786803,0.43237433,2.7834594
1.1897465,2.0695179,0.17171255,0.3485757,3.38222
0.6327268,3.6286294,0.40857318,0.9095356,2.8478236
1.3219484,2.2387943,0.35523567,0.9331195,2.5427053
1.8694588,0.27663195,1.1489774,1.2330358,0.43762848
1.6451637,0.13518307,1.5955384,2.49137,0.029832188
2.290839,0.2493207,0.4976669,1.4166943,0.018023985
1.5995306,0.2238097,0.35764477,0.089275986,0.45878676
0.008385217,0.0002901837,0.17519869,0.20732032,0.032141805
0.0016269048,0.17488614,0.9403482,0.26886487,0.092559926
0.31140143,0.4364381,0.06011839,0.00077465933,0.4348255
0.00020871765,0.7513752,0.003908821,0.001311953,0.5368881
0.019500349,4.1248484,0.22237888,0.092581585,3.2945704
0.04746813,1.1434851,0.051715776,0.22424668,4.2211146
0.2930146,0.0008003125,0.16483282,0.36206105,0.27290308
0.5064179,7.7611827e-07,0.059952132,1.5035906,0.008785872
7.318189,3.6978918e-07,0.0011357428,0.050003555,4.3130188e-07
2.8712564,0.028090606,0.057027288,1.4150374,0.017354224
1.1882216e-06,1.9240967,0.71210396,1.3403023,0.66727555
1.9764204e-05,0.73343205,0.05359149,0.035984,0.3982104
0.0011632715,1.079805,0.9048337,0.12444814,0.88388604
0.11027491,1.1740885,0.6607023,0.17565823,1.0812181
0.046356887,0.74408525,0.9221269,0.35649055,2.367265
0.21260393,0.5710768,0.9473833,0.14040144,0.116737515
0.18720973,1.335549,0.4305698,0.18641077,0.7159934
1.4705449,0.119858965,0.5153527,0.062562816,0.47832885
0.16026047,0.32478002,0.7224308,0.2174717,0.11207748
1.2622176,0.6706022,0.24097231,0.03298734,0.092762895
0.2662499,9.1915115e-07,0.5794288,0.03172341,5.0944723e-06
1.189677,1.3048075e-06,1.683451,3.023356e-06,0.0001938414
0.2975129,2.786301e-07,0.6496586,0.06149405,7.1431725e-07
1.0275979,8.660084e-08,0.96825135,0.092784874,9.4038825e-07
6.06648e-05,5.8381676e-07,0.013702137,0.5898441,0.021943126
0.6152095,2.5741772e-06,0.07263265,0.13291371,0.07447624
0.7102723,0.27579385,0.9417388,1.0549601,0.37274358
0.22316518,0.070649974,0.0021623587,1.6431831,0.7622295
0.8153221,0.0006429291,0.51655,0.27523974,0.099155
3.2231352,9.634936e-07,0.14701204,0.0052253213,7.761789e-07
0.91611415,8.480964e-07,0.013725747,0.018202594,1.63743e-06
0.09046951,1.0939837e-06,0.08071686,0.015998373,1.6117677e-06
0.0025635508,3.9817255e-06,0.0351317,0.0013655684,1.2141556e-06
0.10497435,3.3277638e-06,0.6078144,2.2899895,1.430257e-06
0.8916455,5.0668627e-06,1.3131993,6.28617,3.9263246e-06
1.7075942,2.7209674e-06,0.648155,3.0620015,3.1929908e-06
1.0959078,4.0006435e-06,0.023108648,0.11376457,2.6970804e-06
6.868587e-07,9.55307e-07,0.00023111752,3.1519564e-06,1.3342508e-06
1.9018319e-06,2.6943164e-07,2.5762333e-06,2.5304437e-06,1.993211e-06
1.0855445e-06,1.8065705e-06,2.2201539e-06,2.1297624e-06,7.5702746e-06
4.8075734e-05,6.229281e-06,1.2339749e-06,1.4766745e-06,4.140619e-07
3.467326e-06,0.0,6.24832e-07,4.0920176e-07,7.173352e-07
6.562961e-05,2.472925e-06,4.4124255e-07,1.4277617e-07,7.040243e-07
5.3480187e-07,7.483779e-08,5.457592e-07,9.058101e-07,1.1464126e-09
1.9419713e-06,0.0,9.910761e-07,1.6793242e-08,8.973207e-08
1.8242085e-06,5.080367e-08,1.0047047e-06,2.6643919e-08,2.0427815e-07
1.5951076e-05,1.3496989e-06,3.390069e-07,1.15837224e-07,1.2099844e-06
9.5997475e-06,6.8040326e-06,4.2835072e-07,3.0299753e-07,5.7300895e-06
5.7904003e-06,2.915421e-05,1.29615705e-08,0.0,2.014914e-05
1.206489e-06,2.5407518e-05,3.8152656e-10,2.677205e-06,1.9330146e-05
4.531435e-06,1.104395e-05,3.1399924e-08,7.027864e-07,6.9599478e-06
2.2695449e-05,0.15160903,1.3559625e-07,6.4391674e-07,0.00027721844
1.2901345e-05,0.5549163,1.409427e-06,1.6026632e-06,0.11507691
0.0001579724,0.3993858,2.7302993e-05,9.796892e-06,1.0802779
8.9029745e-06,0.72162414,6.169103e-06,6.1680435e-06,1.2150409
0.44477266,0.73744375,7.686353e-06,2.8415873e-06,0.8765153
1.2414905,0.70197755,0.00043931272,0.031027136,1.0174696
2.7630286,1.0603694,0.2681581,0.07389589,0.7118135
0.96856433,0.8890413,0.69849885,1.0380799,0.73793846
0.13467397,0.39375535,1.5358472,0.34195924,0.7254082
0.08934464,0.19347964,1.4520143,0.15003704,0.42821476
0.18040408,0.13650568,1.6390781,0.07139493,0.2317586
0.17693013,0.19941124,0.21004042,0.098586805,0.24716064
0.12911507,0.18434107,0.13582408,0.081028946,0.24995056
0.10245419,0.14396214,0.27522308,0.06290638,0.19389609
0.5317729,0.1238758,0.29279625,0.088463485,0.15069956
0.89758635,0.07329477,0.26210096,0.08175156,0.06121884
1.4972364,0.0077062496,0.21633579,0.04681581,0.022716127
0.013529968,0.00061999174,0.15226379,0.047074378,0.014276211
0.011545637,0.028526412,0.1785002,0.06527251,0.0013860934
0.0017599118,0.03258454,0.050663777,0.009494782,1.2706282e-05
0.00012867525,3.3731021e-06,0.7574443,0.84095794,8.607498e-06
0.030727712,5.409273e-06,1.7098305,1.2958713,6.195037e-05
4.33403e-06,1.029686e-05,0.3563929,7.649941e-05,1.8175423e-07
5.7504576e-06,2.484978e-06,0.0013775975,1.6788627e-07,3.791446e-07
1.0394903e-05,0.00056490547,0.002961215,1.3497885e-07,1.211622e-06
2.0777425e-06,0.2743831,1.1657665e-07,6.2365736e-08,3.0624753e-06
6.782411e-07,2.2402965e-06,8.074193e-08,2.015939e-07,1.405215
4.206271e-06,3.1801758e-06,9.281295e-08,1.220219e-07,0.24805072
2.0448915e-06,2.2037182,4.157152e-07,5.041846e-07,0.82104766
3.5883377e-07,7.7113225e-07,0.0035808869,4.627026e-08,0.0016078524
5.9398328e-05,0.1321334,0.043211758,0.0012391481,8.613681e-05
0.7352864,3.3222215e-05,2.1533155,0.037139136,6.033584e-06
2.6664734e-06,0.10002145,1.6629443,0.51653653,2.5017907e-06
0.419454,1.4194204e-07,0.85969263,0.33304963,4.075947e-06
0.09964209,5.019384e-07,1.3588533,0.00031492964,3.3550668e-07
0.22539411,7.557049e-08,0.09477664,0.019927427,1.0593699e-06
0.00015899313,0.45732218,0.026313355,0.0043603606,2.7014976e-06
1.4294125e-06,0.667411,0.004854196,0.00033234977,1.6744956e-06
2.4621198,0.00063786027,5.0686253e-06,2.1656815e-05,3.7959944e-07
12.851226,0.00012863474,1.9228748e-06,1.0807047e-06,1.0117112e-06
0.87878263,0.6471249,9.197237e-07,0.0099448655,0.00071137294
7.959937e-05,1.2069698e-06,5.5157952e-06,0.19188577,8.208773e-06
0.009320293,0.19789931,0.01649096,0.0864987,1.6722857e-06
1.5313648e-05,0.050660715,4.4864183e-07,1.1596053e-06,2.083459e-06
1.705582e-05,0.02069078,1.3373474e-06,1.3575977e-06,1.4205137e-05
5.3566027e-06,0.10636243,1.9917566e-06,0.00052202295,0.00048654273
0.0008553338,0.3016472,0.074942715,0.0043668407,0.8516275
1.8497963,0.11021523,0.011502651,0.030289244,0.84458303
1.5231997,1.520708e-06,7.1304356e-07,8.232909e-07,0.00015912572
1.5847644,1.5614287e-06,1.3622382e-07,8.3635246e-07,7.582487e-07
1.2568419,1.1651599e-06,1.5620478e-06,1.9982149e-06,1.2808343e-06
0.092386894,1.8317346e-06,3.325336e-07,3.7427768e-07,5.2446785e-06
6.71427e-07,1.0898946e-06,9.026641e-08,6.9293506e-08,4.2122142e-07
3.2236696e-07,1.7090631e-06,7.951098e-07,3.4454496e-07,5.9145935e-07
0.012160648,2.4536516e-06,1.7038138e-06,8.5144603e-07,3.7567114e-07
8.67515e-07,5.0946625e-07,9.1612276e-07,1.1878499e-06,1.843141e-07
2.0062203e-06,6.718633e-07,1.0961667e-06,2.2893823e-06,1.3013058e-06
2.2945073e-06,1.4105781e-06,7.5846475e-07,7.522546e-07,1.7049986e-07
9.935927e-07,2.444549e-07,8.0089336e-07,1.2804913e-06,0.0
2.0836947e-06,0.0,2.3626721e-06,8.875657e-07,0.0
1.6849646e-06,0.0,0.00012518956,2.5975398e-06,1.2550026e-07
3.1610257e-06,3.189577e-06,1.7638124e-05,1.1023737e-06,1.2600446e-09
4.0261957e-06,3.0021997e-06,6.7745054e-07,2.6621822e-06,1.4076567e-06
1.7194964e-06,1.6948528e-06,4.162349e-06,0.00027037668,1.9337415e-06
1.4869744e-07,6.2795806e-07,0.002455549,1.970484e-06,1.187329e-06
4.5347042e-07,4.4761273e-06,0.0112355575,5.535698e-05,0.0074477214
7.978345e-07,5.2109717e-06,2.7219658e-05,8.495567e-07,1.6695452e-05
5.3762574e-06,0.019653106,1.1714927e-06,3.7155488e-07,1.3383219e-06
2.2829965e-05,6.221518e-06,6.9480234e-07,1.6899402e-07,3.9501047e-06
0.062940195,7.4488808e-06,1.0448973e-06,5.093964e-06,5.6557615e-06
8.375355e-06,3.458266e-06,3.9974566e-06,0.0,1.4331664e-05
1.2833389e-06,8.204736e-06,0.0,0.0,4.262579e-06
4.0660147e-05,6.0512608e-05,0.0,0.0,0.22613762
0.47296607,0.0007663074,0.0,2.1413305e-08,2.6677748e-05
0.00032764458,1.5925928e-06,0.0,0.0,8.89616e-06
0.0004100997,1.73492e-06,0.0,0.0,0.014749396
0.0010693849,1.0341612e-05,0.0,0.0,0.008261574
2.509927e-06,2.4474637e-06,0.0,0.0,9.3352675e-05
4.231394e-06,1.28168365e-08,0.0,0.0,5.2323367e-07
9.370446e-08,4.5470605e-09,0.0,0.0,0.0
1.39873e-06,5.105646e-07,0.0,0.0,5.9081174e-07
3.0241253e-07,2.4194642e-07,0.0,0.0,4.2370144e-07
0.000102492384,1.0393649e-06,0.0,0.0,3.6336512e-08
0.0001264861,1.277293e-05,0.0,4.3380675e-07,4.0155628e-05
1.5097445e-05,0.00021102917,4.421594e-10,1.127734e-06,2.435728e-07
9.219701e-07,0.4404732,5.1498903e-09,5.960237e-07,2.4042004e-07
0.20931977,0.0057858834,0.002671329,1.5575271e-06,1.0854486e-06
0.10807016,1.090062e-06,0.04753613,4.0773742e-07,2.9626508e-06
3.956757e-05,2.6796044e-06,5.038379e-06,1.5766283e-06,2.1519779e-07
8.125073e-05,2.626036e-06,3.6594436e-06,1.1754012e-06,5.373316e-08
1.8424839e-06,1.1287273e-05,7.752702e-06,1.5958328e-07,1.9099662e-07
0.0,1.5001755e-05,1.5530867e-08,0.0,1.2456695e-06
3.6202463e-10,5.294634e-06,0.0,2.8167662e-07,1.0935398e-06
8.987706e-10,7.264685e-06,0.0,6.4894203e-07,9.793321e-09
0.0,1.0142698e-05,0.0,0.0,5.086575e-06
0.0,2.1550657e-06,0.0,0.0,4.958367e-06
0.0,4.00543e-06,0.0,0.0,3.890863e-06
0.0,0.054773286,0.0,0.0,1.0265742e-05
0.0,4.585719e-05,0.0,0.0,3.5181515e-08
0.0,0.0,0.0,0.0,1.1384787e-08
0.0,5.4761058e-05,0.0,0.0,7.334436e-08
0.0,1.676111e-05,0.0,0.0,8.8399355e-10
0.0,3.058396e-07,0.0,0.0,1.2527573e-06
0.0,3.084961e-05,0.0,0.0,1.3635522e-06
0.0,0.00012986305,0.0,0.0,4.994672e-07
2.987636e-08,3.5230375e-06,0.0,1.9927385e-10,0.0014035918
1.935793e-07,7.0453694e-05,7.570866e-09,2.8240171e-07,0.03666442
2.2480922e-06,7.119088e-05,3.0960203e-07,1.7475435e-06,0.06645686
2.3378552e-06,3.777023e-06,2.7355147e-06,1.4373024e-06,0.029339876
8.6277885e-07,0.00166469,1.934897e-06,1.8669488e-06,2.0725645e-05
3.143604e-07,2.659885e-06,9.839928e-08,6.157691e-05,3.5747784e-05
2.67445e-08,0.00093007326,2.8174882e-06,2.3725545e-06,7.956137e-06
3.2553921e-06,0.001455798,2.9913042e-06,3.1237394e-06,8.864605e-06
4.87236e-06,4.67129e-05,1.0690993e-06,2.0615919e-10,2.6220723e-06
1.8127892e-05,7.749282e-06,1.9696271e-08,2.17223e-06,3.9763174e-07
0.002307035,0.00027129505,2.0736031e-06,2.2409515e-07,2.9100778e-07
0.0197028,0.10984982,6.2475397e-07,2.6013772e-08,2.7161264e-05
0.000106952204,0.0016461185,2.8956222e-08,0.0,2.164186
6.2049708e-06,6.699293e-07,0.0,0.0,0.009424396
7.194106e-05,0.7741,0.0,0.0,9.029876e-07
0.010900704,1.2242401,0.0,0.0,1.6020898e-06
0.051338527,0.43794316,0.0,0.0,1.7053222e-06
0.00730633,0.00016512694,4.9001653e-08,0.0,0.004515308
0.014881802,0.59264374,6.543254e-08,0.0,3.167952e-06
0.008979676,0.28556603,3.257765e-07,0.0,9.942702e-07
0.003859874,0.016333196,6.804376e-07,1.9554265e-09,2.0078742e-06
2.4314959e-05,8.795589e-07,7.869966e-07,9.724446e-10,5.26769e-07
5.6727754e-06,1.9520762e-06,2.7831431e-08,1.4884617e-08,1.0517741e-06
4.890168e-07,1.7702051e-06,7.277814e-07,1.544457e-09,1.1941723e-06
0.020565273,0.00015719392,7.100436e-07,1.1894566e-06,3.3300317e-08
0.120268665,0.08762859,8.8290614e-07,1.0144676e-06,2.45312e-07
1.339599,2.1333957e-05,1.4873174e-06,6.2977633e-06,1.8372775e-06
0.075137325,0.0005004096,0.00033811922,2.2391228e-06,2.9776098e-05
0.0013365386,2.9954852e-05,3.0730519e-06,3.089859e-06,0.0001698518
0.01295066,1.8274488e-07,3.7566722e-06,2.6820303e-06,1.2827018e-09
7.962534e-06,0.062830575,9.550389e-07,1.6604075e-05,2.4923252e-06
4.1705403e-06,1.4774598e-06,1.1381429e-05,1.1074936e-07,0.00010433872
1.9577226e-05,9.644593e-06,3.1373424e-06,4.9268998e-09,7.908032e-05
1.8934367e-06,1.3520045e-06,4.4428427e-07,8.5341206e-10,0.023638245
7.056301e-07,3.447213e-06,2.885104e-07,0.0,2.08471e-06
3.2367103e-07,2.3854374e-08,6.061386e-07,0.0,1.5763288e-06
1.2175025e-07,5.986676e-07,2.1177827e-07,4.177973e-09,4.4494022e-06
5.1024417e-05,7.182116e-08,3.9543934e-08,0.0,2.526463e-05
3.8447426e-05,1.277217,8.1272375e-08,0.0,1.1723095e-06
2.584952e-07,0.005387908,7.2478565e-07,0.0,3.2743187e-06
2.6873158e-07,3.4473127e-05,2.8622363e-08,0.0,1.3472912e-06
1.4607864e-05,0.002988063,2.7319305e-07,0.0,8.63072e-07
1.764137e-08,0.007666114,3.7136758e-07,1.6126938e-07,3.6545345e-05
5.660776e-07,2.5294185e-07,2.5399913e-07,8.8378994e-07,1.1322983e-06
5.2942426e-08,0.040110692,2.175702e-08,1.18848355e-07,3.8708413e-07
0.0,5.1459515e-06,2.7995174e-08,6.987992e-08,3.8024375e-06
1.2501418e-07,1.075613e-06,1.6182949e-07,1.2160656e-07,1.119589e-06
1.0681952e-06,7.068521e-07,1.059398e-06,1.845576e-07,9.998453e-07
1.2364793e-06,1.5922001e-06,2.878534e-06,2.5155084e-06,6.0078344e-07
2.6843472e-06,1.1264036e-05,4.905824e-06,4.1915077e-06,1.1681827e-06
9.013672e-07,5.2692835e-06,7.5161637e-07,3.140674e-06,8.6975774e-07
6.1783585e-06,2.3817365e-06,2.2593808e-06,2.6732125e-06,8.2798266e-07
3.0253918e-06,0.009002313,0.0012559125,0.280191,1.6178468e-07
5.9161625e-06,6.710819e-07,0.00048886496,0.11559821,8.51997e-05
3.593472e-06,2.3791284e-07,5.5130727e-07,7.853012e-07,8.039489e-07
2.033919e-06,1.8689965e-05,1.0851819e-06,7.1077975e-06,9.341749e-07
6.596598e-07,6.062269e-07,1.1591537e-06,1.6203272e-06,5.266022e-07
1.0188724e-06,5.2316597e-08,3.0812544e-07,2.1725966e-06,2.2928147e-07
8.895949e-08,7.952025e-06,1.4483886e-07,6.94034e-07,1.453632e-06
8.7860536e-07,2.6360037e-06,7.857647e-08,5.075339e-06,1.5317261e-06
1.288352e-06,4.228697e-06,2.804403e-07,2.7854773e-07,4.4887858e-07
2.513838e-07,1.4083741e-05,4.79578e-07,3.5875827e-10,3.0124145e-06
4.279077e-07,0.00024298822,5.334987e-06,0.0,0.006392476
9.2055234e-07,1.5128875e-06,3.9978095e-06,1.0642085e-07,2.6528417e-06
4.1621674e-06,0.05984106,2.6583882e-06,5.796668e-08,0.001498884
1.3988813e-07,4.1567626e-05,9.117973e-05,6.799914e-07,1.7049988e-06
1.019301e-05,5.1337165e-06,0.00022360809,3.7544912e-06,1.8432098e-06
2.6093377e-07,2.9895293e-07,2.2446404e-05,5.8453215e-06,3.996737e-06
1.1505851e-07,5.433349e-07,7.333079e-06,4.055038e-05,2.5645693e-06
6.067797e-06,5.5010014e-06,8.891602e-06,1.0908392e-05,5.538833e-07
2.923278e-06,1.2506855e-06,4.236447e-07,2.0595187e-06,3.4460722e-06
7.577307e-07,4.4033754e-06,1.7080459e-06,1.2578222e-06,0.15009557
1.5494956e-06,1.9022993e-06,1.8203147e-06,3.7184165e-07,0.2919872
2.1175836e-06,1.7096758e-06,7.9693274e-07,7.175027e-07,1.9489244e-06
2.2335785e-06,0.0,2.3785365e-06,1.1789064e-06,4.9732984e-07
2.2249644e-06,0.0,2.3618386e-06,1.7182177e-06,2.4310927e-07
2.5728484e-06,0.0,2.8004422e-06,4.0687173e-06,0.0
6.615629e-07,3.4676773e-09,4.1607763e-07,1.0219821e-06,5.163022e-06
1.6551704e-06,4.8189036e-06,3.4439176e-07,1.4336556e-06,1.910898e-06
1.1966275e-05,6.472469e-06,7.55276e-07,3.369095e-06,8.046923e-07
3.1305271e-06,5.987861e-06,1.4569931e-06,9.498422e-06,3.483641e-06
7.390248e-07,1.4797284e-06,2.1469832e-06,2.879479e-06,2.518443e-06
4.3551543e-07,6.22107e-07,6.470118e-06,3.642499e-06,6.0516427e-06
1.6834612e-07,4.1941935e-06,2.1010683e-06,3.7120438e-07,2.701063e-06
3.1309347e-07,1.430934e-06,4.778427e-07,8.3567477e-07,1.23872e-05
1.2779417e-06,1.2552272e-07,2.4991334e-07,2.142411e-06,2.9319358e-06
3.1615778e-07,2.5474526e-06,1.0321973e-07,5.829815e-07,6.497604e-07
3.820337e-06,1.3051479e-06,1.9343288e-07,1.3105641e-07,3.3403485e-06
5.997628e-07,4.779633e-06,1.0424412e-07,2.9736882e-06,1.04222686e-07
1.1063863e-06,4.0352397e-06,4.1155054e-06,8.0193786e-05,1.01738145e-07
7.4973734e-08,1.9000737e-06,7.138225e-05,6.558211e-05,1.0627776e-06
3.0902203e-07,3.0783448e-07,1.276827e-06,0.08301557,1.1431556e-05
2.354552e-06,6.155421e-07,0.015457536,0.048951283,1.4859986e-06
3.706259e-06,3.558876e-07,0.13031562,0.110167794,3.0862507e-06
1.7420127e-06,1.2160624e-06,0.1745725,0.056256983,7.637777e-06
7.759311e-07,5.3088403e-08,0.12892973,0.00045257556,2.6681877e-07
8.937256e-07,2.7402922e-07,0.046915013,1.4203304e-06,1.2909659e-06
2.131826e-06,1.9461828e-09,0.0001774732,3.0097003e-06,2.3033695e-07
4.2074525e-06,0.0,2.3154673e-06,3.0661084e-07,1.8076063e-06
1.0942432e-05,0.0,2.5114791e-06,3.1657319e-06,1.24299e-07
6.5877134e-06,0.0,1.4162005e-06,1.0403838e-06,0.0
3.1297425e-06,0.0,1.4329656e-06,1.144134e-06,0.0
8.5401496e-07,0.0,3.4164725e-07,1.0312805e-06,0.0
9.180577e-07,0.0,7.529115e-07,1.7097624e-06,9.47031e-11
2.3566179e-06,0.0,7.882473e-08,1.521623e-05,0.0
3.2278801e-06,0.0,6.3581103e-07,1.4346381e-05,0.0
7.115237e-08,0.0,1.7036271e-07,1.1111201e-06,0.0
0.0,0.0,3.3481424e-06,4.5386574e-07,0.0
0.0,0.0,3.4616282e-06,1.38206315e-05,0.0
0.0,0.0,1.1787369e-06,2.549688e-06,0.0
0.0,1.8168402e-07,1.0085774e-06,2.1966148e-06,0.0
1.22196475e-08,4.160062e-08,9.353302e-07,1.2963002e-06,1.7284442e-07
1.4060323e-07,0.0,9.342623e-07,6.377632e-06,0.0
0.0,0.0,5.994631e-07,0.00024585938,0.0
0.0,0.0,1.5186324e-06,0.00023260065,0.0
0.0,0.0,6.594265e-07,6.238188e-06,0.0
0.0,0.0,4.360692e-08,1.5329218e-06,0.0
0.0,0.0,0.0,5.0978034e-08,0.0
0.0,0.0,0.0,3.229162e-08,0.0
0.0,0.0,0.0,6.1749086e-09,0.0
0.0,2.8039788e-06,0.0,0.0,0.0
0.0,9.617931e-07,0.0,0.0,0.0
0.0,0.0,0.0,0.0,0.0
0.0,0.0,0.0,0.0,0.0
0.0,0.0,0.0,0.0,0.0
0.0,3.257346e-10,0.0,0.0,0.0
0.0,1.4135361e-08,0.0,0.0,6.1129746e-10
0.0,1.1073043e-06,0.0,0.0,3.0879414e-07
0.0,0.0,0.0,0.0,3.592837e-05
0.0,2.8658008e-07,1.5113665e-09,0.0,2.548796e-05
0.0,4.0523196e-07,9.686733e-09,7.590586e-12,2.8223305e-05
0.0,2.340802e-06,2.5701577e-10,7.640808e-08,1.3215064e-05
0.0,7.014608e-05,7.659966e-06,3.397135e-10,3.497515e-05
2.5597242e-09,3.0411053e-05,1.5583984e-05,2.0145578e-08,9.814941e-05
0.0,0.1298254,2.2761316e-08,1.0696131e-06,0.19104144
0.0,1.2849072e-05,6.4146394e-07,8.463763e-06,0.3197997
1.4853196e-06,0.0010566695,1.0417485e-06,2.5267168e-06,0.0074316
5.6013478e-06,8.031046e-06,0.0030505203,8.0592035e-06,1.7186854e-06
5.864975e-05,5.699447e-06,0.85900366,1.6264269e-07,9.1077817e-07
1.8062805e-05,0.00988393,0.9482972,2.900893e-07,7.4130544e-06
0.22071633,6.990083e-05,0.5066474,2.5322652e-06,4.2926013e-06
0.33663937,0.34633192,0.4493809,5.174821e-06,0.18836457
0.6064553,0.9669813,7.5407615e-06,0.0017886161,0.055872582
0.096768424,0.05399219,7.9175993e-07,0.00020476793,0.5990491
0.04477677,0.013907219,1.4483751e-06,0.08361784,0.35468972
0.010942605,0.034388453,0.14212647,0.049452722,3.93899e-06
0.006240463,1.8178007e-06,0.14044015,0.062213335,6.2563217e-06
2.1653244e-05,1.9129734e-06,0.00020190977,0.013585003,2.1265193e-06
0.046619616,2.0179666e-06,9.320903e-07,0.013879222,2.3723194e-06
0.3122846,3.993905e-07,5.727412e-07,0.05201732,6.261941e-07
0.3130925,3.4672512e-06,7.6435435e-07,0.26498404,2.8847815e-06
0.012709905,7.009468e-07,4.813318e-07,0.0031131199,1.0249668e-06
0.0017628066,4.2396508e-07,5.3586456e-07,3.5928602e-07,3.3371697e-07
6.7911415e-06,9.245161e-07,1.9809535e-07,2.125583e-06,6.092225e-07
4.6162268e-06,1.9987733e-07,8.203127e-07,8.662165e-07,1.107935e-07
2.9408014e-07,4.2272706e-08,0.6078172,1.6501788e-07,7.9960756e-07
1.03333805e-05,5.0533566e-07,0.070902124,0.0010640307,2.0545622e-06
3.7257348e-06,0.00952102,3.0289473e-07,0.0074604545,7.1564336e-06
0.031943396,0.20668767,1.7485739e-06,1.3263408e-05,0.096534856
9.511197e-06,0.01450098,0.089305975,0.14252311,0.041224103
1.0235392e-05,0.48585272,0.27869225,0.19988443,0.0034331125
5.3111785e-06,0.24167474,0.5697033,0.31077972,0.09300831
9.506604e-06,0.17045431,0.6300647,0.15911272,0.01544233
8.01155e-06,0.24392994,0.833933,0.19896522,2.729003e-06
0.04639652,0.39897576,0.5408245,0.36382684,0.13946237
0.21700688,0.033520326,0.7029395,0.5613286,0.029482437
0.4577276,3.474149e-06,0.00077512464,0.6266384,0.08927537
0.4517894,1.0188256e-06,0.18315497,0.45664725,2.6577181e-06
0.625701,2.387248e-07,0.3129701,0.3600405,2.1239737e-06
1.7433301,3.6094784e-07,0.12324569,0.088185064,1.5708429e-06
4.442894,5.986524e-07,1.7377432e-05,2.5276765e-06,1.4607365e-06
1.5458455,6.9461134e-06,1.3843338e-06,2.562889e-06,1.2582342e-06
1.4425782,8.128728e-06,2.3905864e-06,2.8695827e-06,1.4255073e-06
0.036759228,1.2390607e-06,1.830852e-06,2.085928e-06,6.9628527e-07
0.014925048,3.6439776e-06,6.3937046e-07,0.0002671575,1.0298087e-06
6.089995e-07,0.00016047058,2.6417347e-06,1.3245356e-07,4.9656574e-06
1.707022e-06,2.578547e-06,2.4129873e-05,3.0411554e-06,3.5526318e-07
2.682819e-06,9.4951116e-07,1.3450748e-06,1.00977795e-05,2.5061127e-07
0.00020561968,9.993774e-07,3.534476e-07,3.7654784e-06,6.859988e-07
0.0001185479,2.1163332e-05,2.036848e-05,3.6232257e-05,1.8343361e-07
9.146541e-05,2.585833e-06,2.2586382e-06,9.202037e-07,1.460982e-06
2.5852496e-05,1.5801309e-06,2.462037e-06,3.4753684e-06,2.2956934e-07
1.4527644e-05,1.5278332e-06,1.2257972e-06,1.4736623e-05,2.2232894e-07
2.1754643e-07,3.603437e-07,1.9299334e-06,4.7276926e-06,1.1451267e-06
7.610262e-08,2.5600605e-06,1.6211077e-07,4.974294e-06,1.4093465e-06
2.4510595e-07,8.23227e-07,4.192495e-07,3.6542178e-07,1.9703846e-06
4.6883008e-05,1.7646944e-06,1.5089512e-06,1.9771025e-07,2.6245677e-06
0.6160302,1.2947824e-06,3.2269284e-07,3.6962868e-07,1.5279629e-06
0.46280554,6.023937e-07,8.433297e-07,0.30382973,1.57144e-06
7.7202174e-05,5.09414e-07,1.4980654e-06,5.770324e-07,1.2839264e-06
2.875503e-06,3.5699912e-07,1.5318449e-06,0.00028233769,2.1856256e-07
3.768285e-05,4.3220098e-06,1.413769e-06,9.742655e-07,1.0620786e-06
0.023903854,8.2400953e-07,1.5826225e-06,1.0428078e-06,1.1661775e-06
1.3661901,6.1217276e-07,1.1354006e-06,1.3440524e-06,6.526935e-07
1.148804e-06,1.570775e-07,2.3293906e-06,1.4545586e-06,6.8768094e-07
5.9041275e-07,2.420487e-06,7.919899e-07,1.7054675e-06,2.670461e-06
0.00016414949,2.8914353e-06,7.4009324e-07,2.086592e-06,2.7109495e-06
7.9658116e-07,1.1735757e-05,3.9302863e-06,2.6577768e-06,4.632811e-07
3.4780305e-07,2.366798e-06,0.0069027846,5.0852063e-06,1.5421355e-06
9.7083e-07,1.0601404e-06,5.137934e-07,1.690364e-06,9.254701e-07
1.2514066e-06,3.4832185e-06,9.800386e-08,1.1012298e-06,5.3139195e-07
1.7758742e-06,1.02217e-06,1.4940669e-07,2.8642003e-07,9.279368e-07
9.283142e-06,1.24101e-06,7.660487e-07,8.2738563e-07,4.397986e-06
7.233041e-08,0.00015301372,2.4743196e-07,2.2763221e-07,6.1358005e-05
2.1412605e-07,2.70355e-06,2.6780237e-08,1.1090252e-06,0.00026865557
1.3444125e-06,1.1125312e-06,6.3754425e-07,9.685234e-07,3.256018e-06
2.747342e-06,7.865148e-06,1.7714796e-06,3.9388624e-06,1.1240572e-05
0.00016258031,7.1862187e-06,1.3626627e-06,5.555816e-07,4.411033e-06
0.000100431265,0.026854945,1.6209376e-06,4.9533764e-07,0.045224726
1.1410405e-05,0.10685112,2.6893651e-06,2.0411493e-07,0.18587768
0.00016573412,0.15672988,1.2119424e-06,3.0130138e-06,0.2562242
0.0006071891,0.034871794,0.016271545,0.0051656766,0.12235863
0.12100477,1.2410564e-05,0.05403928,0.038855687,0.0059085637
0.13188833,0.0025865461,0.054461982,0.043565597,0.0116925
0.07670598,0.009955988,0.053950395,0.012745601,0.016142841
0.031715292,0.0055621895,0.14919655,1.5559957e-05,0.011297479
6.974479e-06,0.010847822,0.19286774,0.0020935228,0.013394149
1.13056385e-05,0.00856906,0.1711364,0.00015229097,0.013360083
4.411068e-06,0.00059374573,0.114761874,1.9241055e-05,0.011005652
5.4772454e-07,8.59302e-06,0.12846424,7.3604824e-06,0.004543308
1.4510636e-06,0.00054880674,0.13407427,0.004523936,0.005691765
0.028056473,8.958734e-05,0.12960082,0.005235992,0.0071770055
0.009081012,0.008197798,0.15826367,0.0021783584,0.01732238
0.02726202,0.06299457,0.23504485,0.012865833,0.021280397
0.00029363445,0.26816183,0.5706476,0.049426552,0.50293714
2.5092813e-05,1.0617703,0.52004987,0.08243389,0.9828315
7.3039904e-05,2.0622652,0.52160794,0.17295372,2.6728609
0.0648991,1.1623712,0.5013805,0.36047953,2.2828488
0.04681987,0.48485935,0.8140725,0.3800058,1.0987461
1.5890371,0.3623531,1.1393372,0.14995277,0.08332102
2.0371306,0.143503,0.41502222,0.16830453,0.0011403338
3.8001554,0.00018765224,0.038781337,7.1831387e-06,0.008500126
0.7287421,1.7260318e-06,6.53688e-06,1.8163041e-06,3.945075e-05
0.501867,3.5467478e-05,4.4078435e-05,0.044122573,4.265949e-06
0.48476738,0.002947661,9.631169e-06,5.1142564e-07,3.3587326e-05
0.5599414,7.5197313e-06,1.9195235e-07,2.1533543e-08,1.5697833e-05
0.2453147,0.0,0.0,0.0,1.6007943e-06
0.14226325,2.386281e-06,0.0,0.0,2.2247702e-06
0.03649533,1.0931077e-06,2.2695677e-07,1.6145416e-10,3.3893574e-08
0.00016728943,6.8217776e-07,4.068771e-07,9.632502e-07,6.966262e-07
9.60607e-06,1.0199808e-06,2.8228962e-06,2.8561517e-06,1.4300849e-06
2.7554402e-06,1.0196353,1.5098909e-06,0.00017923083,0.59539706
3.0944054e-06,0.07453157,7.309029e-07,1.442879e-05,0.15945767
0.0005401455,1.297733e-06,1.4903034e-05,3.401291e-05,1.2787083e-06
0.13078435,2.9224816e-07,1.4043452,0.7995001,7.008459e-07
1.0879456e-06,7.1043723e-07,0.8544513,0.0010329912,2.2831207e-05
0.00027885166,1.854726e-06,7.4545346e-07,5.5317023e-06,8.031853e-05
1.028455e-06,2.0146688e-06,2.2754804e-08,0.36519125,8.6291305e-07
9.0141157e-07,1.2093722e-06,2.2083478e-07,1.2127863e-07,2.6139437e-06
0.000107843785,7.7936545e-07,3.316672e-07,0.0005960009,2.4424882e-05
6.851018e-07,4.5680254e-06,1.3607447e-06,1.7014656e-07,4.3329474e-06
6.6998797e-07,3.857673e-06,2.3216147e-08,1.3742974e-06,6.275618e-07
2.2724015e-07,1.3991494e-06,1.5035747e-07,7.485171e-07,9.039421e-07
2.06243e-07,7.612954e-07,2.4810532e-07,5.5954644e-07,5.571876e-07
4.0032873e-07,3.2026128e-07,4.795266e-05,9.78751e-08,1.1052332e-06
3.2597706e-07,1.5483808e-07,0.0,5.0089152e-08,1.5884594e-06
1.3400351e-07,1.2761359e-07,2.1500954e-07,3.506297e-10,8.1731645e-07
1.3599656e-07,0.0,2.0431015e-08,2.5662569e-08,5.35338e-07
6.06647e-08,0.0,1.2473652e-09,9.691916e-08,1.3915489e-07
1.326808e-07,3.625448e-07,0.0,2.7052658e-07,7.9466713e-07
5.102869e-07,6.3391155e-08,5.145832e-07,1.918448e-07,5.8589148e-08
4.3302936e-07,5.9657715e-08,1.2552771e-06,8.8923866e-07,1.2724636e-06
1.511946e-06,4.2996544e-06,1.487813e-06,2.907364e-06,9.4765403e-07
1.2440661e-06,0.0021455218,1.2801239e-06,1.0636377e-06,1.6354712e-06
2.4706446e-06,0.063911974,2.4811584e-06,1.3885128e-06,0.86446023
1.8597264e-06,2.0712037,0.08608072,8.469687e-06,2.7016585
5.0114013e-06,2.034342,1.5383815,0.12272271,3.4371018
0.8889369,0.18107523,2.5797114,0.45680523,2.3713622
1.3317866,7.130499e-05,2.3717082,1.3817427,0.0010510526
2.3940725,1.0131694e-06,5.0232253,2.0864546,1.3080348e-06
4.017312,1.3172978e-07,1.8063456,1.6212784,5.1969255e-06
7.6135435,9.3103637e-07,0.7967716,1.3442397,5.100529e-06
8.764579,7.744969e-07,0.6668185,0.3971139,0.009384761
5.4026384,1.1159456e-06,0.45933625,0.0016125587,0.09033282
0.2831537,5.199513e-07,0.09013303,0.6289307,0.13555774
0.17236085,5.4320117e-07,0.056277696,0.78261,0.21948555
0.037837554,0.08956494,0.48459235,1.7961069,8.9365983e-07
1.5143974,0.76585454,0.26737264,0.00023726633,4.5138881e-07
5.035279e-06,5.3767894e-07,2.934875,0.06932637,0.11297077
5.967906e-06,0.0016455357,0.0017421538,3.166014e-07,0.46478203
1.0991553,9.046338e-05,3.5251102e-07,4.359755e-07,4.3153875e-07
0.02408915,1.5726205e-07,1.9649134e-07,3.0651384e-07,0.015388038
2.5103069e-05,9.177127e-07,3.3030724e-07,1.5698067e-06,0.024341892
2.4849307e-06,1.1039981e-05,1.08586974e-07,1.6525042e-06,0.11798737
1.0849847e-06,0.01158221,2.491674e-07,3.3636087e-07,0.1497102
0.01615576,0.011537857,7.1417105e-07,8.195259e-07,0.0025369264
0.02564417,0.07280227,8.988356e-06,6.4014705e-07,8.290809e-06
1.8681978e-05,2.6499954e-06,0.04695137,1.2393216e-05,1.7132556e-05
0.037547242,1.1846491e-05,0.03497773,1.1409824e-06,1.6460053e-05
0.4641338,1.9939173e-06,0.037281968,2.278738e-06,0.062344182
1.1351892,9.023695e-06,0.07021485,0.3508308,0.14932749
2.5600636,3.2090084e-06,0.044269625,0.04922364,0.07942759
1.9809966,5.580331e-07,0.09260701,0.0933999,0.022539837
1.3807074,1.9906935e-07,0.17889094,0.1379429,0.0004942642
0.9344057,1.205479e-07,0.21038848,0.18949683,0.00020608019
0.12534058,3.2277196e-08,0.17654428,0.19309266,0.00065098255
0.35618263,1.04840474e-07,0.15051173,0.1929338,7.524278e-07
0.28191152,5.6374924e-06,0.117759004,0.3259743,1.0791082e-06
0.046545133,2.8696982e-06,0.14331359,0.13399005,8.568211e-07
0.000152355,2.2284631e-07,0.112687945,0.26698157,4.7521132e-07
3.2718795e-05,6.8486393e-06,0.10317829,0.18222101,1.0893048e-06
1.8020393e-06,4.7466543e-08,0.123263314,0.22388826,3.51083e-06
1.7340391e-06,5.7437866e-08,0.21551068,0.21389292,3.738594e-06
5.5040828e-06,3.4818896e-08,0.2885042,0.27011666,4.063593e-06
4.6981968e-05,3.4193795e-06,0.1943309,0.92439944,1.6004968e-05
0.00018284924,8.309845e-06,0.18835482,0.9812118,2.0291613e-05
0.003757382,3.5414619e-06,0.32429552,0.36161694,1.0094201e-05
0.035883967,4.3465793e-06,0.17217156,0.36595035,4.6755245e-06
0.052035253,1.0564255e-05,0.18795386,0.32166612,6.642043e-06
0.00041638027,7.326327e-06,0.1581065,0.37621942,1.6244227e-05
3.0213919e-06,1.0858382e-05,0.13930859,0.23660834,2.0905047e-05
0.51934814,1.1596856e-06,0.16937856,0.17624344,3.133968e-05
0.10827514,1.71755e-06,0.15344211,0.054350004,2.4116691e-06
0.27791092,1.4107541e-05,0.13869609,0.005002122,4.4720597e-05
1.4065701e-07,0.002198819,0.15056045,0.004212913,0.0023061163
1.510354e-06,0.004243938,0.1889255,0.009258662,0.007895141
2.2171065e-05,0.0024067303,0.19963792,0.018671783,0.011337719
0.00028724078,0.005219159,0.23660886,0.035597615,0.018889142
0.016485846,0.0031324448,0.3360209,0.007060142,0.023832578
0.031037992,0.003309031,0.46857473,0.68868464,0.3467972
0.03489988,0.0018249556,0.7370711,1.2678192,0.6745829
0.004001841,0.0073693627,0.64276385,0.9430058,7.560145
0.0003270074,0.0047601536,1.9427032,0.7669611,1.6773627
0.00026280593,1.4325763e-05,1.5773919,0.66875064,0.00010654635
6.8829668e-06,7.0990623e-06,0.6508429,0.83412975,9.66408e-06
6.42166e-05,0.0014099927,0.4846619,0.3889488,0.00013100563
1.3158531e-05,0.012417681,0.66215575,0.12901555,0.0080394065
0.0026790714,0.009115157,0.3318725,0.4123299,0.024598824
0.0063119517,0.0023578487,0.22470292,0.3214545,0.004694175
0.00085322285,0.0030194698,0.14112331,0.12405552,0.04552415
0.00012175075,0.011961147,0.11442081,0.13959502,0.009391744
5.6325312e-05,0.00080446835,0.09907422,0.20807631,3.602936e-05
4.0477735e-06,4.579784e-05,0.08801479,0.22699134,5.666375e-06
1.273635e-05,9.480744e-06,0.09302518,0.20529605,1.2689859e-06
9.17594e-06,7.683844e-06,0.12022274,0.1750174,3.7844063e-06
1.533537e-06,9.912582e-06,0.10130755,0.06432865,1.6581835e-05
1.4042185e-05,8.848971e-06,0.06897396,0.03262735,1.1875186e-05
1.2227359e-05,1.1088569e-05,0.059274476,0.065003134,3.7383344e-07
7.540135e-07,0.00022210125,0.028122775,0.065806925,1.1715617e-07
1.056954e-06,0.0002452975,0.028255133,0.12197442,1.3796814e-05
5.643733e-06,0.0002899807,0.024608344,0.14049312,2.174314e-05
1.3482071e-05,0.00027801708,0.026181074,0.08942757,1.8530305e-05
4.9184177e-06,0.00022466156,0.025686767,0.061918054,8.537212e-05
1.47068085e-05,0.00038539997,0.031193262,0.043795183,0.0007403804
0.00025025877,0.000672262,0.029211352,0.046959057,0.0014798271
0.0008772601,0.0009186374,0.039998956,0.082049936,0.0019893053
0.0015948687,0.0011222614,0.0637594,0.04607582,0.0030131838
0.0026066436,0.001144211,0.07146591,0.047780856,0.0029529133
0.0062794005,0.0026505664,0.062631406,0.074455984,0.0035445357
0.00997403,0.006564276,0.0711903,0.06948372,0.008007165
0.013912311,0.0065298323,0.052266993,0.06295935,0.014692104
0.018878395,0.003038935,0.027785996,0.044095144,0.024380038
0.015212293,0.0017700347,0.013473535,0.034919053,0.018889904
0.005734859,0.0011873258,0.022587473,0.016002119,0.008503913
0.001778042,0.0007797,0.044180542,0.008075837,0.00850271
0.0024648819,0.0001906023,0.0598606,0.007739706,0.00815015
0.0022720727,0.00015475752,0.06510514,0.012218324,0.0059859133
0.00040636503,0.00016736088,0.073569536,0.013224516,0.000895836
1.0632615e-05,7.629958e-05,0.075930245,0.0075406735,0.00039409788
7.514392e-06,0.00026295506,0.09475279,0.0012471869,3.195083e-05
1.1191456e-06,0.0013716248,0.098872125,8.35197e-06,9.5075986e-05
3.4297234e-06,0.00062880554,0.078548625,6.065561e-05,0.0003727608
8.757394e-07,1.2929434e-05,0.051195547,0.0010937213,0.0002800843
1.2070594e-06,1.9878704e-05,0.022578863,0.012059907,0.00019344912
4.82541e-07,0.00023050106,0.025172962,0.024557717,0.0010627017
3.012003e-06,0.0011859961,0.053998612,0.017583441,0.0019832856
2.2033735e-06,0.00033591353,0.04476849,3.7383445e-06,0.00837376
3.8320724e-07,0.0001963,0.011080578,1.285595e-06,0.010981375
2.304562e-06,3.2298056e-05,0.027539844,5.502332e-07,0.00404489
5.3910685e-06,6.823115e-05,0.0043979273,2.0854857e-06,0.0015971648
6.7689143e-06,0.0001268188,0.056715596,2.6960538e-07,0.00062051887
2.293526e-05,4.6173587e-05,0.050813638,0.017135346,0.0006284393
0.0014120131,5.7951784e-06,0.0007823756,0.00040917174,0.00066172396
7.1242803e-06,6.00225e-06,6.318366e-05,1.5791351e-06,6.3697325e-06
8.731952e-06,8.868251e-07,0.02271604,1.3522471e-06,6.2790073e-06
2.2732725e-05,0.0012547885,0.041687794,0.0043316106,3.823654e-05
1.1128186e-05,0.0052443678,0.042299554,0.01522565,4.9759587e-05
5.735413e-06,3.8872586e-06,0.09750444,0.023484971,0.052785225
2.4000024e-05,0.044792168,0.11524047,0.028983619,0.031148592
1.119819e-05,0.05318104,0.1357096,0.024088232,0.07974027
3.663466e-06,0.040257942,0.16050854,0.020710433,0.057678755
1.4099846e-06,0.040473834,0.25650182,0.03643155,0.022603255
3.6741458e-06,0.029405124,0.3508829,0.0674869,0.0026068604
1.0519608e-06,0.018953713,0.33468258,0.05228401,0.0045470083
8.814303e-07,0.0067237928,0.43582433,0.032348596,6.569375e-06
7.1408795e-07,4.6914834e-06,0.43434596,0.016660195,3.3033662e-06
2.6049082e-07,2.4509848e-06,0.29442856,0.014215863,1.8070427e-06
4.601556e-07,0.0149733275,0.20332219,0.006339202,1.3120314e-06
2.0225034e-06,0.018464096,0.097456835,0.00076941703,0.0044085775
1.0352918e-06,0.0074498807,0.045998327,2.3662735e-05,0.08215228
1.600101e-06,0.02257524,0.036319595,1.1838887e-05,0.054956052
1.7564432e-06,0.05208044,0.0027270939,4.20433e-05,0.10443035
1.782522e-06,0.08768463,0.0005519286,0.005069265,0.15553258
1.3959204e-06,0.1435207,0.035298284,6.483695e-05,0.17323439
6.412244e-06,0.041510165,0.0802244,7.810064e-07,0.16593033
6.8289967e-07,1.0475419e-06,0.19269276,4.6595952e-07,0.0037695186
2.0436155e-06,4.580571e-06,0.06300301,8.6692035e-07,4.939865e-06
2.226199e-06,8.156417e-07,0.09807662,4.2602216e-05,5.4354714e-06
7.276919e-07,5.845221e-07,0.07330272,0.008502463,8.6088846e-07
0.0043669688,0.009733824,0.122234225,0.02392365,0.0028711457
1.7746664e-06,0.006650389,0.19805935,0.015564685,0.039712075
2.537643e-06,2.1325593,0.2316149,0.09233898,3.3796227
8.1878636e-07,1.1456246,0.6388475,0.09330503,0.6785641
0.052902464,0.7869547,0.31465542,0.02633418,0.026241396
3.3348888e-07,0.102027535,0.13655488,0.002764207,0.046578467
0.026228566,2.9515806e-07,1.1340369e-05,0.013030995,1.8788899e-07
0.2896036,4.1297693e-07,1.090822e-06,1.6869722e-06,7.969723e-07
0.09279607,2.4451545e-08,1.0094441e-06,1.3595643e-06,8.688446e-07
0.00025246164,1.7341504e-09,7.210333e-07,2.3305142e-06,6.883254e-09
0.072092295,5.2702745e-07,6.3706e-07,3.1236254e-06,0.0
6.883827e-07,5.2908717e-09,1.220127e-07,8.4251195e-07,1.915929e-06
9.303874e-07,3.703563e-08,0.00060483033,1.9156753e-06,6.6523063e-07
8.2365926e-07,4.947426e-07,0.004349111,1.0638287e-06,8.50309e-06
1.6054884e-06,8.920653e-07,2.2023314e-06,1.0569405e-06,2.1499554e-05
1.5890795e-07,2.1454767e-05,1.1615441e-06,2.5721158e-06,6.349953e-05
6.368752e-07,5.8553496e-06,3.4822307e-07,2.0976022e-07,4.9412236e-05
0.0,3.7139591e-06,6.846453e-08,1.2347557e-06,5.7846014e-06
0.0,1.1590006e-05,2.0999675e-08,1.9940737e-06,1.7705534e-05
0.0,1.7333363e-05,2.0183807e-06,5.287803e-09,7.376753e-06
0.0,9.036668e-06,1.1149493e-05,4.3189883e-07,9.164307e-06
0.0,9.896506e-06,1.1120425e-06,4.3195232e-05,1.14906015e-05
1.8095282e-06,1.07961576e-07,1.1090146e-05,0.00014500356,2.8992126e-05
8.43042e-07,1.1572113e-05,1.9622214e-06,4.0836865e-05,7.746276e-05
1.5857021e-06,3.639325e-05,1.3888613e-06,2.0619744e-05,1.679416e-05
1.2461826e-05,8.4553086e-08,1.8375747e-06,2.2537506e-05,3.710795e-05
1.2899628e-05,6.452061e-05,5.981523e-07,1.8226586e-07,4.6613644e-05
5.549894e-06,6.115631e-05,4.832479e-07,3.3759764e-07,1.821675e-06
2.0381185e-07,4.520266e-05,1.4991356e-08,1.5085304e-06,1.1084703e-07
5.630164e-05,2.5050888e-06,6.5299037e-07,1.8635069e-06,2.3179996e-07
3.4628795e-06,1.2123004e-07,8.0378385e-07,1.7388321e-07,6.537896e-07
8.801085e-07,1.260263e-07,8.2296816e-07,8.2293684e-07,3.528349e-07
2.286164e-06,0.0,2.304944e-06,1.563851e-07,1.2282044e-06
1.9095326e-06,0.0,2.2892393e-06,1.759749e-08,1.5514448e-06
2.6606347e-07,0.0,3.3950223e-06,1.892792e-09,1.4837763e-10
1.2200903e-06,0.0,3.5171945e-06,6.4128477e-07,0.0
1.2247192e-06,3.0334817e-08,7.821366e-07,7.395256e-07,0.0
2.7559295e-06,2.1473258e-07,2.1083288e-06,1.1397455e-06,0.0
1.6874876e-07,0.0,1.5765199e-06,0.0,0.0
0.0,0.0,2.99872e-09,0.0,0.0
0.0,0.0,1.2351393e-07,0.0,0.0
0.0,0.0,1.3541274e-06,0.0,0.0
0.0,0.0,5.27369e-08,0.0,0.0
0.0,0.0,0.0,0.0,0.0
0.0,0.0,0.0,0.0,0.0
0.0,6.189161e-08,0.0,3.086425e-09,0.0
