"[299, 255]","[227, 248]","[287, 319]","[279, 328]","[230, 262]"
0.23591757,1.0359625,0.81892246,0.3211881,0.89862895
0.041746907,2.1391294,1.1211274,0.2476878,0.19548436
0.06269218,1.8135356,1.1652379,0.36512184,1.5326003
0.031317167,1.3419728,0.91018015,0.48948795,0.8796249
0.064063825,1.072602,1.0304317,0.1639031,0.3620795
1.3945113,1.0517613,0.83331513,0.0015329372,0.0024405238
0.31622544,0.24995354,0.14805116,0.0073315245,1.9394507e-05
0.35860384,0.43001562,0.00061948533,0.00010466766,7.069959e-07
0.33726618,4.161562e-06,0.00010672246,0.04259291,7.235899e-07
0.14921896,1.4992897e-06,0.0029945625,1.6232041e-05,1.3358209e-06
0.046939634,1.2822063e-06,2.8042157e-06,9.403137e-06,8.050027e-07
0.07050374,1.5501198e-06,2.8701095e-06,5.721352e-07,6.3350153e-06
0.13717988,5.132148e-07,0.06915604,2.2908514e-06,1.9436297e-06
1.4783286e-06,1.4386638e-06,6.0798728e-05,2.9283845e-07,2.946075e-07
1.5202952e-06,2.2469142e-06,1.7262747e-06,7.250521e-07,1.3199035e-06
4.841998e-07,1.677301e-06,1.2896274e-06,0.035468735,1.2869821e-06
1.38316e-06,7.365774e-07,2.3200168e-06,9.324419e-06,1.671398e-06
1.1851228e-06,1.4974778e-06,1.9028919e-06,0.0025942444,0.062186297
4.0868025e-07,0.0724133,0.0069535,1.7803401e-06,1.6477294e-06
7.539031e-07,2.1653789e-06,0.013767816,0.066654764,3.2727146e-06
7.281041e-07,1.0651817e-06,1.3819001e-05,0.0039745527,1.8584042e-06
1.7872026e-06,1.969548e-06,0.0010049063,0.0003152325,2.0747345e-06
0.093703315,1.6725196e-06,2.247998e-06,0.00045105838,2.2680629e-06
3.2148564e-06,5.414688e-07,0.00014101548,1.5554531e-05,1.9354468e-06
6.403679e-06,0.00049339177,1.688769e-05,0.074831836,2.8008083e-06
0.07829233,4.2583812e-07,0.0099158995,0.019878972,2.143652e-06
3.0102447e-07,8.6239595e-07,1.9501308e-06,3.7241265e-05,3.4940826e-06
1.2393261e-06,1.2518515e-06,1.4805643e-06,1.0447545e-06,1.482364e-06
5.4748824e-07,5.795151e-07,7.286391e-06,1.5709866e-06,1.917026e-06
4.2236883e-07,3.7029035e-06,2.0770628e-06,1.6138807e-07,4.6735504e-06
1.0947577e-06,3.6416966e-06,2.6212101e-06,8.014398e-07,3.117623e-06
0.023208449,1.8668902e-06,1.790211e-06,1.277001e-06,1.47419e-06
5.4871402e-06,1.4222701e-07,5.073847e-07,2.8263e-06,1.2520758e-06
6.9897624e-06,2.323036e-06,5.3496162e-05,2.9357693e-06,2.1087048e-06
1.7666295e-06,7.9019856e-07,9.123505e-06,2.3735402e-06,2.0411915e-06
7.8099714e-07,1.0581384e-06,8.473959e-06,4.2472055e-07,6.955877e-07
3.3982046e-06,3.7680813e-06,1.1501278e-05,4.9393856e-07,3.1640966e-06
5.391622e-06,2.1796368e-06,7.7977387e-07,3.5090318e-07,1.0802626e-06
4.119945e-06,4.567535e-07,1.1831181e-06,3.4162045e-07,5.6944504e-07
3.0143426e-07,9.580589e-07,2.6678046e-07,1.7348257e-06,1.2824731e-06
3.0026675e-07,4.9085673e-07,2.036031e-06,8.632169e-07,2.6805237e-06
8.2677026e-08,0.0,3.5536789e-06,2.354708e-06,5.279792e-07
9.145197e-08,0.0,1.581109e-07,1.7526618e-07,8.5497487e-07
3.0410146e-08,0.0,7.022647e-07,1.1802184e-06,6.2784444e-08
7.776621e-08,0.0,7.6441125e-07,2.737469e-06,3.5810043e-08
3.8675115e-08,0.0,4.9427676e-08,1.5914725e-07,0.000918327
8.496164e-10,1.0818273e-05,1.8382665e-06,1.0612402e-07,0.0043868897
1.3617142e-06,7.428835e-05,2.2516701e-06,2.6027887e-08,1.11791124e-07
1.2710974e-08,7.6388e-06,4.186872e-07,7.0905695e-09,3.8724597e-06
1.3250299e-07,1.2006247e-07,8.716981e-07,1.459612e-06,2.338941e-06
4.000878e-09,1.221326e-06,2.4671808e-06,3.0258228e-08,1.6003942e-06
0.0,7.375137e-08,3.5159171e-06,1.4960918e-08,2.4354574e-06
0.0,5.7925087e-07,6.2101424e-07,4.5380794e-08,3.1897225e-06
0.0,3.860251e-07,1.6657201e-06,1.5169722e-06,1.8117785e-07
0.0,3.0815686e-06,1.7156127e-07,7.054627e-07,9.3290186e-07
0.0,8.355728e-08,2.452433e-07,6.9789423e-09,2.7623813e-07
0.0,0.0,2.265646e-06,1.1818251e-07,7.09157e-07
0.0,2.3578367e-10,6.39834e-06,2.4080543e-07,2.6653734e-07
7.298721e-10,5.323048e-07,2.8803631e-06,3.6702468e-07,1.3059469e-06
3.2730358e-09,1.2747166e-05,1.5461972e-06,7.268726e-08,3.4310463e-06
0.0,9.833609e-07,6.3231096e-07,4.27289e-08,6.6222765e-07
5.202724e-07,2.6903479e-06,1.413211e-06,3.71096e-07,1.2962178e-06
6.929711e-07,1.7624867e-06,7.1081837e-07,4.25905e-08,3.0546087e-06
9.0624205e-08,1.7729302e-06,1.2988535e-06,3.9885097e-07,6.617709e-07
1.518568e-07,2.6201267e-06,1.5377309e-06,6.7577915e-08,4.8464674e-08
2.9101831e-05,3.12437e-06,1.2838461e-06,2.2642928e-07,1.7192367e-06
9.741542e-05,3.7349883e-09,5.7241294e-07,4.4101768e-08,1.1888836e-06
0.00023009235,7.4883204e-08,8.028717e-06,1.0354264e-07,1.6236797e-06
0.0008160363,6.0311286e-06,7.773752e-08,1.7650626e-08,4.758169e-06
0.0010128792,7.943364e-06,5.0125715e-07,9.82466e-07,1.5927162e-06
0.0039707217,1.2188773e-06,3.7151929e-06,2.1794534e-07,5.2356467e-07
0.0015518734,2.6140793e-07,0.0001492912,8.1732776e-07,3.5875632e-07
0.00036764803,1.8568438e-10,3.3913355e-07,9.616205e-07,3.85502e-07
2.9801054e-06,2.1292783e-07,2.4233532e-05,1.9741027e-07,3.1623324e-07
1.5857811e-05,0.0,2.6977122e-07,1.4206947e-07,1.8993564e-09
0.0010934523,0.0,1.1951705e-05,8.483685e-08,2.1468593e-06
0.0032559566,0.0,3.7951673e-07,1.3502539e-07,9.5339806e-07
0.0029831708,0.0,6.2762615e-07,4.521168e-07,0.0
0.00021583374,9.0548674e-08,7.118946e-07,1.3731903e-06,8.8139313e-07
5.8273713e-07,2.4865037e-07,3.2193152e-06,4.6791293e-08,1.673527e-07
0.0,1.2035109e-06,4.824112e-06,0.0,4.0389054e-07
0.0,2.7029517e-07,0.00035090014,0.0,1.3752314e-06
0.0,0.0,0.00015132352,0.0,0.0
0.0,0.0,6.4975643e-06,0.0,0.0
0.0,0.0,5.4687835e-06,0.0,0.0
0.0,1.5747023e-08,8.398465e-07,0.0,9.590595e-09
0.0,5.508072e-06,8.4431875e-09,0.0,7.461653e-07
0.0,3.715015e-06,4.780814e-09,8.432944e-08,1.5734518e-05
0.0,1.5550806e-06,6.6206817e-06,6.080252e-05,0.00013789862
0.0,0.00012200182,0.00020705425,0.0005795737,0.0006040231
2.3323051e-05,3.9756906e-06,0.0010352706,0.00045609658,1.7090001e-06
0.00014296453,0.0016449861,0.00046732344,5.682221e-07,8.292053e-06
0.0001323265,0.0022373137,1.2877283e-06,1.174633e-06,0.0049458113
0.00022600568,0.003263819,1.1344678e-06,0.0009352761,0.008120135
0.0010436659,0.0008534313,2.3834122e-07,0.00024169727,0.0012470079
0.0023019589,0.006055513,1.1621291e-06,1.2132733e-07,0.09413347
0.0030094015,0.013948662,1.5425009e-06,3.1963253e-05,0.043563776
0.00078427594,1.0632782e-05,2.1642163e-06,0.11321677,0.0005260695
0.021200478,0.20453806,0.2910953,0.0016030277,0.13500334
1.1930507e-06,0.283834,0.04283823,0.051614206,0.35382
9.1825007e-07,1.3379354,0.13176996,0.059642278,1.5952868
0.018086411,2.9678128,0.08622445,0.0010045434,2.7484725
1.2463062,2.5096052,0.045274146,0.039920174,8.488626
2.7607813,2.735485,0.044615455,0.0007640746,3.5028749
3.3175333,4.293701,0.0725792,0.0062091704,3.179437
1.4711963,6.3201556,0.20658463,0.747939,4.733948
6.78801,2.399709,0.17696308,1.0730555,0.009173529
6.6366744,0.28631127,0.30852273,0.5769651,0.0004587926
5.765971,0.00013155198,0.20806603,0.49160323,0.0012106908
0.772081,0.008258252,0.17040782,0.72967803,0.030781996
0.006877814,0.0398657,0.07051504,0.4194325,0.013258565
0.009756945,9.966548e-06,0.1366205,0.33041838,7.356399e-06
0.116117515,5.5597416e-06,0.018321522,0.4604829,3.0708643e-06
0.45328972,6.164218e-06,0.02484341,0.15107277,2.5851382e-06
0.43062028,2.9575624e-06,0.04093503,0.17149761,4.5560387e-06
0.49476016,7.991065e-07,0.12415002,0.22465368,4.760963e-06
1.0835057,9.210765e-06,1.7511402,0.89468133,1.6916601e-07
1.0534956,1.1625773e-05,0.1720066,1.1183553,0.07964009
0.6894337,0.3025973,2.1036762e-07,0.079523824,0.0017732548
1.6126325,0.18334281,1.4059619e-06,0.00087311276,0.2202235
3.63463,0.17458911,1.7058121e-06,0.0035431196,5.562831e-07
20.62904,1.9143332,0.00823936,0.07010997,0.25568056
6.747402,1.7911474,0.19444658,1.824514,3.0103252
2.7478273,8.799831,6.742881e-05,0.0149301635,2.3071978
2.5614166,5.345038,0.29236174,0.00013683958,1.8098907
2.4568787,2.7893803,0.8304701,0.04779952,2.3710084
1.99381,3.2551973,0.3031789,0.11217759,2.315146
3.3511,2.4282176,0.70076686,0.7626153,2.7328224
4.0737414,0.20735946,1.4448141,0.055762798,0.25699475
2.865981,0.24433994,0.14061362,4.5373836e-06,1.9449024e-05
2.602874,1.0606378e-05,1.0997343,8.7975246e-07,2.669807e-07
3.808519,1.2431543e-06,0.43741503,0.122516744,1.2425611e-06
1.6488025,2.5970287e-06,3.840399e-05,0.00032869677,1.2433778e-05
0.20502494,7.681446e-07,1.4066449e-06,3.909918e-06,1.9665858e-06
5.351512e-06,0.040333454,2.104455e-06,9.10198e-06,2.5864356e-06
1.2174619e-06,2.9009e-05,1.0404511e-07,7.2282994e-08,0.003182134
0.00010160246,4.370447e-05,0.0,7.510036e-07,7.446228e-08
9.5282e-05,3.055649e-07,1.5305201e-07,2.6281687e-06,2.9186388e-06
4.5556667e-06,1.1036017e-06,0.0,0.0006578976,2.4974468e-06
1.8462845e-07,1.9533334e-06,1.5337734e-07,0.06435539,1.6230939e-06
1.01096205e-07,1.3398657e-06,2.9954765e-07,1.05497676e-07,9.289502e-07
8.575036e-08,6.8161758e-06,6.745624e-07,0.008258359,2.52544e-07
3.549524e-08,3.2765647e-07,2.0769808e-07,2.130428e-06,6.545748e-07
1.9555862e-06,2.7112887e-07,2.5759724e-07,1.5166389e-06,7.0093815e-09
6.2952716e-07,6.980481e-07,1.5834078e-07,9.683465e-07,2.4058219e-08
5.097498e-08,4.163537e-07,2.0307725e-07,1.5766771e-07,1.7887822e-07
1.4256449e-08,1.5244816e-06,1.504158e-07,1.5917006e-07,5.776109e-09
8.743814e-09,8.83483e-07,0.00087084074,2.418493e-05,1.1588888e-06
4.318805e-09,2.094561e-06,0.0009216352,2.795027e-07,2.5210926e-07
7.523667e-08,2.5270494e-06,0.00011289999,1.3843813e-06,5.386742e-07
6.4239493e-06,4.2705487e-06,0.13271612,1.3805423e-07,1.5637535e-06
4.0507718e-08,3.634508e-06,0.09094758,1.7273891e-07,1.082944e-06
9.344832e-07,1.6893167e-06,6.471155e-07,6.5866107e-07,1.3320955e-06
1.1098758e-06,5.9713398e-06,4.3510934e-07,7.2879095e-07,6.10019e-07
1.229125e-05,7.9937126e-07,2.9296738e-05,6.619042e-06,1.3122101e-07
7.702266e-06,6.07291e-06,0.0019472765,1.1976501e-06,6.592e-07
4.9502296e-07,1.5946961e-06,9.752058e-07,3.797125e-07,1.69443e-06
2.3166517e-07,3.3447628e-07,0.0061877137,9.234832e-07,5.0446256e-09
2.695561e-07,8.3167873e-07,6.86535e-07,4.50004e-06,1.240901e-06
2.3213536e-07,7.6166754e-07,1.15718e-06,2.0639006e-06,2.446947e-08
8.058779e-07,2.6883938e-06,5.094588e-06,0.47769493,9.832545e-07
1.7588307e-07,1.9594286e-06,0.0074238623,9.028657e-06,4.978693e-07
4.700945e-07,1.028149e-06,0.41878211,1.7756722e-06,1.0663297e-06
2.0231612e-07,3.853765e-07,0.0024982123,7.4525195e-07,1.1958588e-06
5.0772763e-07,2.16859e-06,0.3612834,3.629041e-07,1.3583332e-06
6.218546e-07,1.5311396e-06,0.0023058378,4.2800963e-07,2.5301256e-08
3.444489e-07,2.0930995e-06,3.5680039e-06,7.166728e-07,3.400823e-07
4.5248336e-07,1.4261888e-06,0.0024595698,8.054518e-07,1.245347e-06
7.916227e-07,1.5897391e-06,0.0012320747,0.041244466,1.0820082e-06
1.4891371e-07,2.4767767e-06,2.4971823e-05,9.238587e-07,4.13693e-07
1.1706802e-07,1.4240587e-06,0.013816889,2.9594878e-07,1.522395e-07
7.613237e-08,3.6014947e-07,8.6373416e-07,1.8233059e-06,5.4121983e-07
2.938001e-07,2.9017397e-07,2.3214515e-07,3.182515e-06,5.542391e-07
8.7628035e-07,1.277629e-06,8.6515996e-08,6.056149e-07,1.2240615e-06
4.591138e-07,5.831568e-07,0.3191393,5.7338784e-08,7.7013675e-07
1.9712054e-06,2.7259994e-06,0.024785409,2.4689146e-07,4.19743e-07
2.9672665e-06,1.1892421e-06,4.922876e-07,1.1884282e-06,8.34421e-07
4.3918684e-05,9.782486e-07,1.8837488e-07,1.244752e-06,1.2597666e-06
2.65781e-06,1.0020241e-06,0.14125118,4.4071186e-07,3.1266463e-06
6.0161865e-06,3.7631007e-06,0.17539144,1.1394575e-06,1.173122
5.620265e-07,7.671329e-07,0.003581248,2.324622e-06,2.5276872e-06
1.2997131e-05,4.94141e-07,0.0024779413,1.6943886e-06,2.8722694e-08
2.7860253e-06,1.0136697e-06,6.169797e-07,1.5290221e-06,9.79336e-07
1.1250093e-05,3.7415066e-07,1.837826e-07,2.6440568e-07,2.1227997e-07
1.1586631e-05,2.7399842e-06,4.4083613e-06,0.05348436,7.290904e-07
2.1359735e-06,2.497313e-06,2.2397285e-07,7.1303193e-06,7.645467e-07
3.9396295e-07,2.1532665e-06,1.4250182e-06,9.338305e-07,1.2101469e-06
2.4074897e-08,1.0120293e-06,0.0003742223,5.018431e-07,3.5978667e-07
1.3776233e-07,6.7440476e-07,3.5063024e-08,1.8297885e-07,5.9818876e-07
1.9221353e-07,1.2578946e-07,1.2067424e-06,0.40451023,2.3328394e-06
2.3322569e-07,3.2755028e-07,1.3148392e-06,4.717811e-07,8.790828e-07
2.431839e-07,1.4902298e-07,2.210616e-06,9.856998e-07,3.0399651e-06
1.2978511e-06,8.382958e-07,1.7972437e-05,0.007910674,2.0597004e-06
3.9708053e-07,3.7692166e-06,2.961038e-05,4.4230514e-08,1.3484125e-06
7.4208536e-08,7.5714306e-06,4.7947738e-06,4.208104e-08,3.4354335e-07
1.2756091e-07,9.5316994e-07,1.5821617e-07,1.094219e-07,2.2656654e-07
4.555527e-07,3.5857678e-07,4.2782258e-07,3.0097758e-07,8.1122863e-07
2.0428282e-05,1.068834e-06,1.7895e-09,1.8358222e-07,1.7399259e-07
5.1127096e-05,1.0970535e-06,1.05270255e-08,0.07448568,2.9377668e-08
6.75521e-06,1.5203433e-06,2.6705097e-08,0.0028554972,4.671545e-07
8.560611e-06,2.0781588e-06,4.153903e-07,2.1635925e-07,4.3965806e-06
1.3553981e-06,0.004216456,9.774206e-06,4.635138e-06,1.0374291e-05
2.3270363e-07,0.6643488,0.0048985938,2.416249e-06,0.12204156
3.5943302e-07,0.867352,0.03248806,0.23734401,0.5514898
4.5151523e-06,1.3144621,0.15479131,0.06851759,1.0758045
0.572019,1.9765096,0.5005685,0.65409666,1.6918017
3.140306,0.8682008,0.26718396,2.0939984,1.3478103
3.3616693,0.7454098,1.6386892,0.4388841,0.47163188
1.2497679,1.3909177,1.7499392,0.78024316,1.5977054
1.1009687,0.07683196,2.1729352,3.3041656,0.8242825
1.8209949,0.0039600288,3.4478936,1.5452613,0.019773293
0.49656254,8.7786725e-07,5.043428,0.21815349,4.7053677e-06
0.076674804,6.528749e-07,0.74436724,1.847935,1.6272476e-06
0.0023548696,7.993297e-05,0.06436299,0.45181867,1.2414653e-05
1.9936736,0.018778728,0.2876869,1.2007619,5.1786657e-05
0.8099399,1.604776,0.03375611,0.07475043,0.0013201165
0.3192789,0.07605837,0.85828704,4.000558,2.3625905e-06
2.0597322,0.13819726,1.7513115,8.1510217e-07,0.27980262
0.5867765,0.13984875,4.7202747e-07,4.734814e-06,6.953358e-06
0.11058964,5.779304e-07,3.673792e-07,0.017459296,0.0017391895
0.026428746,2.870821e-05,0.051591877,2.1403644e-06,0.00203705
0.012981331,1.3501768e-06,1.9586096e-06,1.8767937e-06,8.6852333e-07
0.025944293,3.4107493e-06,6.545913e-07,0.06995989,0.00045196613
0.018953089,0.0023385542,2.1217162e-05,0.35618246,0.0249734
0.045235418,0.033271447,0.04437716,0.046385005,0.12457644
0.8951268,0.1283641,0.082818,0.17628309,0.039987992
0.30450666,0.025652695,0.17493524,1.1355063,6.126159e-06
0.1125069,0.0052172868,0.7202062,1.6187679,2.5057949e-05
0.033919267,2.3689672e-06,0.3107111,0.0043433444,1.713129e-05
0.026002169,1.4258698e-06,0.39807308,0.8641395,1.1924379e-06
0.08946542,2.5195877e-06,1.1705891,0.6080733,1.325928e-06
1.5291467e-05,1.7646271e-06,0.5763233,0.0098959105,1.8891079e-06
9.398763e-06,1.5106195e-06,0.18765274,0.04690748,1.3207855e-06
1.4208411e-05,2.1197704e-06,0.22478086,0.0006979593,1.0336995e-06
3.1453835e-06,1.657899e-06,0.57754135,0.022472989,4.2932388e-07
1.4245015e-06,1.7549597e-06,0.13751192,0.8496237,1.5332685e-07
7.8290077e-07,7.220583e-07,0.41549316,0.0020490652,1.192657e-07
3.5487477e-07,3.3826657e-06,0.3149947,0.3949871,3.2541567e-07
1.1130276e-06,8.4414705e-07,0.060251288,0.3866803,8.895901e-07
2.1746985e-06,9.72051e-07,0.073146366,0.0003283369,7.433622e-07
3.9762986e-07,3.6863838e-07,0.038108286,8.452884e-07,1.2033595e-06
1.8167422e-06,6.870563e-07,1.8502371e-06,2.208249e-06,1.4803984e-06
1.5135729e-06,0.0,2.485765e-06,3.4616917e-06,4.4746084e-06
5.964082e-08,9.786171e-11,2.1654596e-06,1.6910857e-06,2.8433221e-06
4.972949e-07,1.0637056e-06,4.850458e-06,1.889936e-06,2.3441692e-06
1.1571155e-06,1.6734103e-07,8.946031e-07,2.035299e-06,7.812114e-08
1.7088119e-06,2.4005853e-10,1.3898327e-06,4.325484e-07,5.5059303e-07
1.9924364e-06,2.5806457e-06,1.281419e-06,4.0519626e-07,5.364848e-06
3.0064382e-06,1.4899869e-06,2.9613766e-06,5.621241e-07,7.662109e-06
3.7790816e-08,6.614743e-07,1.174677e-06,1.2466182e-06,1.8720649e-06
7.095069e-06,5.0867857e-06,3.901321e-07,1.7934964e-06,2.4176306e-06
1.94255e-06,3.4907728e-06,6.504836e-07,2.2124657e-07,2.0934997e-06
1.2118412e-06,2.2850238e-06,1.7765121e-08,8.969718e-07,2.0566245e-06
3.091364e-06,3.4958152e-06,1.9716883e-07,3.859951e-07,1.4479712e-06
1.0279141e-06,1.1139214e-06,1.3618634e-07,2.1278441e-07,1.45291015e-08
5.2235043e-07,2.5040124e-06,6.1072063e-07,3.5278028e-06,1.8405422e-09
4.5800044e-07,3.6223162e-07,1.0811683e-07,5.301756e-07,5.5402463e-08
6.424903e-07,2.3855819e-06,1.8771018e-09,1.5016126e-09,1.2898867e-06
2.0386175e-08,4.502783e-05,1.0872364e-07,1.6383913e-08,2.5329357e-05
1.0725906e-07,0.0001032976,9.56018e-08,1.7015375e-07,0.00031370664
5.908935e-07,0.00017168112,3.296354e-07,5.8663727e-06,0.00043958574
1.4475309e-05,0.00028308656,1.2840747e-05,7.054012e-06,0.00020584253
0.0001118347,0.002734136,5.8822432e-05,2.0903722e-06,0.003855428
0.00017261929,0.20445171,0.00024266764,8.533143e-05,0.019339057
0.00011032886,0.095445454,5.034931e-05,2.2597801e-07,0.5333301
0.00033668167,1.6191015e-06,0.0010020856,0.0007094061,1.1272471e-05
0.0022035283,5.7009015e-07,1.0718718,1.1671126,1.7277853e-06
0.007624636,0.00030051902,0.2160911,2.2302408,0.0006710289
0.030405795,0.01264885,0.13744196,0.5877052,0.055991504
0.0019470827,0.017667536,0.00053001737,5.5994755e-05,0.023393735
0.0023972585,0.05778941,0.000494498,0.0002637715,0.050121497
0.007191685,0.073217124,0.0003371487,0.00012657949,0.120797314
1.0397092,0.03972287,0.043414876,0.00010421989,0.13566475
0.7760273,0.017193548,0.085291624,0.010806284,0.1938136
0.058229495,0.046397362,0.13729733,0.013201612,0.37999678
0.267182,1.3603656e-06,0.16112918,0.007688532,1.2715232e-06
0.215971,4.1394676e-05,0.44171634,0.0058504646,8.052982e-06
0.09724689,2.2740898e-05,0.20567621,0.007845059,1.3954856e-06
0.072396934,0.00035615067,0.10824973,0.01244669,8.6176055e-07
0.22669443,7.253484e-05,0.0048673116,3.0598105e-05,4.872825e-06
0.012972877,8.0401844e-07,4.8630613e-07,5.555628e-07,2.1241835e-06
0.0047398703,9.88542e-06,3.907688e-07,4.3662716e-08,10.334597
0.0002631798,0.0041430076,0.1318127,5.9150193e-06,1.030617
9.0729515e-07,0.91275615,2.2986317,0.041310012,0.002505484
1.6378941e-06,2.3664315e-05,0.010500973,0.62954676,1.1573945e-06
2.8908727,2.868471e-06,2.8441402e-06,1.3505907e-05,2.2930117e-06
0.62897134,6.2025333e-07,3.0026055e-07,1.4409485e-05,7.9154177e-07
0.0074891355,1.2589588e-06,0.000105075604,1.9288877e-06,1.9459826e-06
6.2285835e-05,1.7494049e-06,0.0013352468,4.872393e-07,1.4171151e-06
0.00012741033,2.8478046e-06,6.418848e-06,9.389311e-07,2.2169754e-06
0.04337258,1.4367687e-06,3.1498055e-07,0.19872068,5.5295425e-07
0.11085703,6.312811e-07,0.0020006425,0.1833205,3.9777157e-07
7.36883e-05,7.23228e-07,1.2906394e-06,0.09489983,2.0436322e-07
1.7724241,7.515603e-07,5.404979e-07,1.2886037e-06,4.7070725e-06
0.37814638,9.576937e-07,0.0011309845,0.22293077,0.00012829849
0.1064032,0.004202853,1.8239948,2.424279,0.56155527
0.0017801059,0.00036477318,1.3182447,1.8393458,0.52968526
1.2062949,1.1971558e-06,0.24838641,0.13272934,8.3388994e-07
1.292639,1.2953565e-06,9.0458496e-05,1.3857834e-06,9.398774e-07
0.2833341,6.421194e-07,0.11763899,2.1753751e-06,1.483012e-06
9.890291e-07,3.028758e-07,1.6185263e-07,4.993558e-07,1.232153e-06
1.7529476e-06,4.1097123e-06,7.913514e-07,0.039858423,7.625399e-07
3.2195003e-05,3.5199516e-06,0.18868221,0.08458664,1.7649061e-06
0.015301709,6.996315e-07,3.664166e-07,6.4973324e-07,2.0988512e-06
8.80932e-07,5.598741e-06,3.4200177e-05,7.3277135e-07,2.5905167e-06
6.673706e-07,3.763149e-06,3.7835207e-06,1.6519922e-07,3.3075376e-06
0.06235791,8.53446e-07,1.9557716e-07,2.884894e-07,2.1167953e-06
9.054466e-07,2.5262666e-06,2.6477592e-06,0.0034810847,9.861909e-07
2.8872648e-07,5.841458e-06,6.704545e-06,0.012838017,2.5745583e-06
5.547575e-07,3.4865116e-06,1.1842076e-06,1.7115991e-06,1.6199937e-08
3.7508344e-06,1.5894999e-06,2.1363169e-06,1.0442457e-07,1.7431094e-07
2.4397707e-07,2.5974714e-07,1.5511149e-06,1.1122014e-06,1.736091e-08
1.6681216e-07,2.8951235e-06,2.650297e-07,5.911139e-07,1.3174323e-06
1.8644415e-07,9.405003e-07,4.3968373e-07,7.109515e-07,6.50376e-07
3.1249847e-06,1.1683763e-06,2.50706e-09,3.7709208e-06,5.7317975e-06
0.00014424801,2.7101673e-06,3.3185364e-07,1.2185684e-06,1.7843447e-06
0.00010228813,0.000121602054,8.731978e-07,1.1689507e-06,1.2891622e-05
1.3629736e-05,4.214497e-05,1.05416504e-07,8.43656e-08,1.51642425e-05
1.971556e-07,0.0015114683,7.708719e-07,4.2156563e-07,0.0033103966
7.706006e-06,0.00033638437,4.122704e-06,4.4346366e-06,2.7798928e-06
1.8928384e-06,1.5540569e-06,1.9070447e-06,8.1637353e-07,3.6162467e-07
4.6872687e-05,0.11049579,0.00013829084,2.4215424e-06,0.045099065
7.853368e-06,0.014257218,0.013794796,0.051232547,1.7896553
3.826112e-07,0.13054076,0.102927,0.503515,0.029763741
6.488756e-07,0.055601258,0.42624098,0.42211682,0.030072562
0.0035788761,0.3658717,0.03293922,0.0133503135,0.17533025
7.1737254e-06,0.7969895,0.045639187,0.014823792,0.60985535
0.00990285,2.1109235,0.3196536,0.007594299,2.4203844
0.12679595,3.480601,0.94203854,0.014993702,4.3157067
0.8365531,5.0555124,0.56357604,0.25116396,9.217776
0.75805295,4.0313735,0.50740755,0.055190314,7.638243
1.7811068,2.603906,0.9717993,0.0080047455,9.052317
4.8981056,7.2578564,0.9482953,0.057379857,3.6264808
1.9438214,3.1411636,0.50079864,0.26640642,0.6375654
4.5993776,0.33239424,0.5785037,0.2683322,0.6686181
1.7737125,3.0419044,0.32090718,0.212026,1.149501
0.0134402495,5.2368727,0.20430683,0.37788203,1.0443462
1.4637929,4.324403,0.38027778,0.18806471,0.100669935
1.1940281,1.1232595,0.09389667,0.12899421,1.0368905
5.799292,0.474163,0.15321258,0.14138179,1.147803
0.7841172,7.689664e-05,0.10764633,0.17769316,0.6719502
0.7056917,0.1810158,0.114695124,0.127656,1.7789919
0.11560813,0.8242861,0.094007,0.18793292,1.1702425
0.00016904023,0.002611107,0.05400651,0.070503406,0.8514621
0.00010569729,3.6960155e-06,0.028634265,0.0770382,2.1126785
0.004216162,0.057236,0.049008578,0.12334205,4.3746896
0.91894156,0.12758838,0.02066449,0.026507067,2.4718175
0.73970026,1.1451125,0.021944022,0.10446369,0.5805255
0.07932661,2.0754306,0.053078655,0.0922831,1.7311562
0.8954321,2.6238928,0.3461912,3.89538,1.2172856
2.462651,1.5132507,2.7221305,1.2538283,1.7617708
2.9489808,2.4371247,0.84194636,0.028180473,3.1744008
1.6367743,3.3254693,0.14578709,0.053687688,6.6280828
2.0310862,1.6027511,0.22343527,0.04220252,2.6103735
3.6731486,3.0675924,0.5565152,0.05975741,0.57117885
0.015375066,0.9600986,0.2781452,0.18513353,2.6486468
4.1498137,1.3392463,0.052706376,0.30265903,3.1092145
4.7739697,2.8291306,0.043102674,0.2147165,1.8347299
4.133391,1.1949997,0.02509937,0.2161526,1.2914509
4.2041016,1.8303761,4.9773043e-05,0.25213167,1.1797084
5.0857396,2.2108457,1.9208468e-05,0.23512682,1.2333523
6.092508,1.2338984,6.160267e-06,0.1060274,3.5301056
3.2561853,4.0191116,6.0303973e-06,0.053511813,1.348534
3.796877,4.878162,2.247239e-06,0.009867914,0.053275093
4.193924,2.6904314,0.010489557,1.126549e-05,1.284994
2.3194125,1.429449,0.053265575,0.00045969535,0.7785192
1.6922094,0.045412607,3.4947272e-05,0.00086312636,0.055258095
1.5567415,0.17221038,0.72301376,0.020919569,0.18472606
1.7043251,0.047129758,2.1725116,5.0389357e-05,0.01595603
1.1416062,0.039763436,2.2296326,0.2635066,0.056245536
0.11753415,0.03490528,2.3138678,0.124561526,0.079354905
0.3318125,0.30119824,4.32631,0.24221164,1.3214127
1.681317,7.703513,2.6944652,4.8047395,0.8755031
2.7257133,3.0524952,2.9784107,0.92990196,3.177228
1.4964658,1.2306706,1.701094,4.5588813,5.9451823
2.9135866,3.901615,1.2639318,2.3854434,2.7117398
3.172221,3.10197,4.5767043e-05,0.7847315,0.35140455
2.2614975,0.7209809,0.000853119,0.05742244,2.8678136
3.2527092,3.8037026,0.07779495,0.009191759,0.8186306
3.4545782,6.0825286,0.011375461,3.0483041e-05,2.9440067
1.5580207,1.6548487,0.08274291,2.6280126e-05,1.964876
0.21683367,5.9287667,0.16684048,0.022020405,0.6136481
0.15734804,3.9167414,1.6361263,0.5954924,1.1706427
0.47711742,2.5001986,1.9299891,1.382967,3.7000809
0.77898276,4.4405246,0.7545908,4.1219063,4.862435
0.69339365,3.4542363,1.1986624,0.36171177,1.4934452
0.2095798,2.2093651,0.6088714,1.059894,1.3746654
0.002401217,1.1426473,1.8019139,1.9453628,0.24580672
0.0002529522,0.5131904,1.5752019,1.7378728,0.18216106
8.420824e-05,1.248395,1.1250812,0.5772517,0.6826164
4.6581958e-05,1.2289847,1.7978103,1.4107811,1.1519239
3.0401774e-05,0.6939045,0.18884584,0.12818643,2.066382
2.6889811e-05,4.2992635,0.016992724,0.50650233,0.25446323
7.639836e-05,1.5108551,0.36785662,0.70226896,2.163626
0.006191027,0.0024103601,0.93675655,1.0417796,0.88429195
1.3109769,0.38121137,1.088804,1.5153706,2.3691964
8.211962,1.375036,1.502873,0.10964681,2.600567
1.4652436,1.2180837,0.50289965,0.08069,0.63841426
2.1827679,1.2021455,0.1797337,5.617066e-06,0.94348013
2.512963,0.66889167,0.000129111,2.8274603e-06,1.1740425
2.3622978,0.10445104,0.00015160468,0.000523035,0.070434265
0.8995496,0.037535246,0.0007235942,0.007230166,0.04510176
1.2404228,0.010239332,0.00017135007,0.0122273555,0.8615291
0.21074086,6.841984e-05,2.7494382e-06,1.592319e-06,1.1538168e-06
0.02869465,0.0005925441,6.7189586e-07,4.1287338e-05,1.88603e-06
0.042803284,1.3121979e-06,5.469038e-07,9.370737e-07,1.978456e-06
0.07169961,1.3885549e-06,2.6708472e-06,5.1751715e-07,2.4176798e-06
6.1736e-07,3.130314e-06,7.551326e-07,1.3706871e-07,9.981827e-07
9.283318e-06,4.94652e-06,2.8402153e-06,8.0625614e-07,3.451178e-07
3.133839e-07,4.3997916e-06,4.3364635e-06,3.1356453e-08,1.9863921e-07
6.8402485e-08,5.069157e-07,1.7615971e-06,1.3992885e-06,1.6176499e-06
4.5413604e-08,1.0961928e-06,5.113038e-07,1.7864829e-06,5.69038e-07
9.4433075e-09,1.1188273e-06,4.943787e-06,5.1184e-07,1.257969e-06
1.5235314e-07,1.3725576e-06,3.733155e-07,1.9473747e-07,1.2930965e-06
7.997795e-08,1.3005341e-06,2.1001435e-06,8.265238e-08,5.059542e-07
5.115523e-07,1.6626636e-06,4.3706414e-06,3.527909e-08,5.4328626e-07
2.200193e-06,2.409191e-06,1.3526588e-06,5.240332e-08,2.4341819e-07
8.609411e-06,1.0535072e-06,2.8115692e-06,1.998681e-07,8.457285e-07
9.775377e-06,5.307944e-06,2.5663553e-06,1.7981532e-07,1.4197154e-07
2.0991945e-06,1.82506e-06,1.3607475e-06,5.5064795e-08,1.8025191e-06
1.220071e-06,3.806832e-06,1.5068591e-06,0.0,6.3722e-06
1.1587318e-06,2.6295315e-06,1.1808182e-06,0.0,4.656953e-06
1.0935072e-06,9.1717476e-07,6.979206e-07,0.0,1.977375e-06
4.3047177e-07,3.23739e-06,1.3996974e-07,0.0,2.3945537e-07
8.578752e-07,2.2171942e-06,3.42109e-07,0.0,1.5057577e-06
2.939457e-08,1.7238806e-06,3.1107163e-06,0.0,1.4033886e-06
1.349259e-07,1.3989032e-06,3.1413977e-06,0.0,3.2547298e-08
0.0,2.2544599e-08,2.4336296e-07,1.7386053e-08,4.096367e-07
4.073581e-07,0.0,3.832093e-07,2.2351128e-09,1.5772594e-08
3.4601694e-06,0.0,3.3790474e-08,0.0,5.649343e-08
3.8231396e-09,0.0,0.0,8.957781e-09,0.0
0.0,2.202491e-06,0.0,0.0,9.5249575e-08
0.0,4.1124345e-06,0.0,0.0,1.2839712e-06
3.631187e-10,5.586794e-07,2.6530117e-07,6.0677943e-09,2.8357243e-07
0.0,1.0142155e-08,2.1181978e-07,2.9136575e-07,4.8962227e-07
0.0,8.307112e-08,5.248149e-07,2.1426713e-07,4.4285954e-07
0.0,1.3862588e-06,2.6255934e-06,2.7277816e-10,8.153264e-07
0.0,3.1880575e-06,1.1929228e-06,1.9019708e-08,2.9965167e-06
6.8890295e-06,5.5429523e-06,1.5311322e-06,0.0,3.3448675e-06
4.5090255e-06,3.5726703e-06,7.588273e-08,0.0,2.4076132e-06
0.00013215687,6.454061e-07,6.521607e-08,3.2225664e-08,1.436221e-06
1.100117e-06,1.4574928e-06,2.274919e-06,3.085185e-07,3.1970508e-06
0.0,6.9765446e-07,4.4872268e-06,4.0861796e-08,1.1034749e-06
0.0,2.2899462e-06,3.282202e-06,3.3778228e-08,1.1257519e-06
0.0,4.5560125e-07,2.0098819e-06,8.584701e-07,5.811475e-06
0.0,4.4806563e-07,5.8634814e-06,1.4428792e-06,6.5911587e-07
0.0,1.4665529e-06,3.2823674e-08,2.940336e-06,8.881987e-07
6.36618e-12,9.865918e-07,6.2110316e-06,5.0920033e-07,4.2696374e-06
2.830346e-09,1.9064164e-06,8.011674e-07,4.6771495e-07,1.7733479e-05
2.0666992e-08,2.2581257e-06,2.9073535e-06,1.5260687e-06,0.0071487622
8.732491e-06,1.3805289e-06,1.00463666e-07,6.112695e-07,5.722252e-06
7.3697454e-05,3.42072e-07,0.0027485786,2.3398352e-06,5.5206e-06
9.452124e-05,1.2046239e-06,1.750445e-06,1.9123113e-06,1.63947e-06
7.5241885e-05,8.8362656e-05,4.152637e-06,3.3308976e-07,8.569235e-07
1.844463e-05,0.001235274,4.33462e-06,1.3628411e-06,5.463329e-07
3.1185334e-07,0.015239924,9.612764e-07,1.4155561e-06,3.8628397e-07
3.380029e-07,1.2493493e-06,2.3021802e-07,1.3514365e-06,1.1559808e-06
1.0119103e-07,1.3983605e-06,2.3974627e-07,2.9966287e-07,4.5233682e-07
7.195311e-08,6.673167e-07,7.349475e-07,5.08609e-07,2.1839442e-06
1.0600423e-07,1.3677255e-06,1.0815862e-06,5.8536796e-07,3.80526e-07
4.4352961e-07,2.0362973e-05,3.0030054e-07,5.082272e-07,2.4944245e-07
2.707623e-06,4.7917575e-07,4.618557e-07,1.0445582e-06,0.0
1.0600412e-06,3.0473682e-08,3.1973161e-06,5.3670365e-06,0.0
4.175472e-06,2.8933434e-07,9.6888e-06,0.0028070156,0.0
4.909393e-05,3.976661e-07,0.006131602,0.021681817,0.0
5.6851393e-05,2.855153e-06,0.004650083,0.091080576,6.804672e-07
1.1726399e-05,1.3386689e-06,0.0027915328,0.10650908,6.4922773e-07
5.1307193e-06,9.431438e-07,1.604347e-05,0.05215931,4.0583986e-06
5.2134055e-05,1.5291212e-06,9.300128e-06,0.03134625,1.1435043e-07
2.5553121e-05,1.5389384e-06,1.25216575e-05,0.0074277055,3.153265e-07
3.2416472e-06,9.4857154e-07,0.0005892013,0.005854224,1.5113541e-07
1.4947714e-08,6.021388e-07,0.04764799,0.021514026,1.7637121e-06
5.1338364e-11,2.4398858e-07,0.034389656,0.10085037,2.7954664e-07
9.84661e-07,1.6530253e-06,0.02520821,0.05668951,6.386005e-06
3.604346e-06,1.5144765e-06,0.032043103,0.05100968,5.788759e-07
1.348016e-06,1.725352e-06,0.029165376,0.007465902,2.3733728e-07
6.0597574e-07,7.8635526e-07,0.005546165,0.0038832019,5.1919125e-07
1.5790891e-07,1.2553921e-06,9.694668e-06,0.001823878,3.077357e-06
8.8726904e-07,1.68807e-07,4.795349e-07,6.664315e-05,7.950994e-06
5.066388e-07,1.4105685e-06,9.5323784e-08,1.7368446e-05,3.2711645e-07
2.6545347e-06,1.3526682e-06,1.1515467e-06,3.410846e-07,5.952733e-07
1.0275839e-07,3.2393186e-07,1.463551e-06,9.916779e-08,6.552052e-08
3.8681404e-07,2.565325e-06,1.27283165e-05,8.1870587e-07,1.8174636e-06
2.5421958e-08,7.4320997e-07,2.2611105e-06,1.8466353e-05,4.765234e-06
5.4490425e-07,4.4967624e-07,2.1600729e-06,8.7532084e-05,1.0801076e-07
3.940725e-07,1.8573978e-07,1.3905843e-07,1.9596715e-05,1.8755885e-05
1.7679204e-07,4.7526104e-08,6.4269295e-07,2.8576576e-06,4.8457523e-06
7.521274e-08,1.4147272e-05,1.9410572e-07,3.2193347e-07,1.990262e-07
2.962688e-06,4.7607067e-05,9.758074e-07,2.7686542e-06,5.563053e-07
6.692439e-06,0.00017739956,7.484443e-07,1.382131e-06,5.779868e-06
2.684609e-05,1.0775434e-05,1.4782922e-06,9.133707e-06,3.6810702e-06
1.624702e-05,4.45042e-06,3.1200973e-06,0.0046812436,1.9651094e-05
3.5292564e-06,9.4241904e-07,1.1727147e-05,0.48839238,3.8010427e-07
5.4351026e-06,2.0511254e-06,0.5988921,0.0003605709,1.2094486e-06
2.0759435e-06,3.6510444e-06,2.1131786e-05,1.4445499e-05,8.227186e-07
0.0015722046,3.1411769e-06,1.2401945e-05,9.366084e-06,1.1009579e-06
3.1521766e-05,0.0005987022,0.0067746714,0.012014718,0.0007965462
7.008209e-05,0.10461078,0.08716895,0.014943578,0.34709397
1.2602713e-06,0.23369715,0.11591284,0.27520385,0.89893144
0.011456618,9.248145e-07,1.3360744,0.34046474,5.672521e-05
1.0344948,2.1052233e-06,1.5139638,0.43401822,0.16167183
0.37725502,0.17960022,0.2769183,0.018342404,5.7767806
0.80631775,0.0041195885,0.027873034,0.004468183,0.25509375
0.11182309,0.003042446,0.013505622,0.0076063094,0.05556454
3.7267907,4.8670006,0.0039754203,4.7763983e-06,2.2284426e-06
0.3567519,0.00023521225,2.0252502e-07,6.09806e-07,1.6372229e-06
0.0007462942,9.630589e-07,6.12664e-07,1.1902868e-06,1.9943104e-06
3.288489e-06,2.2983102e-06,5.744393e-07,3.6463073e-06,0.0001820419
6.0595704e-07,2.9225423e-05,6.5010374e-07,4.0712538e-07,0.004699178
3.567749e-06,2.1531566e-06,3.1421546e-06,4.3208698e-07,4.0169925e-06
2.764727e-08,3.9224274e-06,2.684643e-06,6.373708e-08,1.197806e-06
4.982025e-07,8.055115e-06,1.4346143e-06,3.1990413e-09,2.0308707e-06
2.0763828e-07,2.0167756e-06,5.842123e-07,5.304334e-10,2.7776205e-06
5.8108628e-05,1.3708496e-06,5.4978887e-06,3.2171965e-06,1.2430786e-06
0.00024897917,5.995218e-07,1.0529446e-06,1.0588283e-06,1.9184477e-06
3.4830055e-06,3.079082e-06,1.9332829e-07,7.5152805e-08,9.827962e-07
1.2155352e-06,1.12812e-06,1.5011388e-07,1.7429444e-06,6.2524606e-07
1.3216553e-06,2.6686082e-06,2.1881489e-07,3.6403975e-07,9.3915526e-07
4.7937497e-06,1.3935086e-06,8.0793524e-07,1.3456996e-06,9.026054e-07
1.5460798e-06,5.863291e-07,1.0883634e-06,9.704947e-07,1.0486035e-06
4.773793e-07,5.00247e-06,8.613899e-07,5.724733e-07,1.3136626e-06
1.1414521e-06,3.1280001e-06,5.519652e-07,2.5064833e-06,1.0085133e-06
4.053394e-07,0.58509535,1.2126509,1.2142743e-05,0.16975631
1.04196644e-07,0.54520756,0.03853809,0.011215244,1.062418
6.512866e-07,0.74113554,0.53228974,0.03480703,0.40701863
0.48012483,1.6394591,0.27827594,0.25557244,1.5726237
2.725895,0.2661196,1.5791258,1.5447364,0.6096349
1.8991995,0.6564543,3.313654,1.7209,0.82310295
0.16609617,0.3751444,1.3512235,0.19558035,0.85202
0.4346225,0.19104895,1.7063044,0.48043936,0.0983025
0.36645582,0.00073163095,2.3870494,0.24103904,5.4373386e-06
0.102496386,7.11177e-06,2.300886,0.1828715,0.11075427
0.057434294,0.039974555,1.781905,0.80370384,0.384702
0.6909304,0.24940489,1.1249487,0.8005851,0.43567425
0.665404,0.2207215,0.459112,0.25423303,0.1286339
0.2420993,0.031003762,0.043321487,0.09537768,2.0345017e-06
0.0019191031,2.6565522e-06,0.042394735,0.04882606,1.8915357e-06
3.929458e-06,0.0023162612,0.10346975,0.10358026,7.7796685e-06
5.4232638e-05,0.00036546166,0.16006446,0.13107818,0.029869663
0.032026928,0.002438477,0.036914404,0.08585025,0.00013568
0.042477824,9.523845e-07,0.0056825266,9.0815473e-07,2.1723386e-06
0.0073511507,2.3679019e-07,2.26945e-06,1.1394966e-06,7.5823243e-07
1.6636511e-06,6.3239133e-07,2.1269535e-07,4.836729e-07,1.8391206e-06
2.7421538e-06,1.1740684e-06,2.4578637e-07,1.2382114e-06,8.49828e-07
7.138937e-07,1.6435419e-06,6.2480474e-08,1.14037995e-07,1.5271901e-06
6.140623e-05,2.4850306e-06,1.1822427e-07,4.6232734e-07,1.6875982e-06
6.227741e-07,5.290978e-05,1.0155229e-06,2.7101692e-07,7.518048e-06
9.822751e-05,6.185787e-07,1.7389958e-07,3.878461e-06,7.5852266e-05
2.1341308e-05,0.0005665421,1.3884155e-06,1.5505141e-06,0.22390355
5.8551188e-05,0.12539448,4.9440996e-06,1.1432121e-06,0.18960316
2.6030082e-06,1.1105863,1.0347495e-06,0.00046479894,0.63661695
0.06399078,1.0888156,2.7983032e-07,1.685805e-06,1.1138891
0.15966007,0.3091867,6.472056e-07,3.3261188e-07,0.24757876
0.00090071175,0.43442482,0.0020500298,1.8085118e-05,0.6953726
0.17185323,0.018038511,0.015732087,0.009320438,0.16752854
0.33357888,4.1400813e-06,0.13674897,0.12728822,2.692378e-06
0.11490274,5.764666e-07,0.42138404,0.33807153,4.606627e-07
0.047894802,1.3597594e-07,0.06385327,0.004299136,7.320702e-07
0.009638448,6.6401765e-07,1.0295773e-06,7.710612e-07,1.2712766e-06
8.582809e-06,7.202559e-07,8.307793e-07,1.7291676e-06,3.8302937e-06
0.11816295,2.0651312e-07,5.7080234e-07,6.731569e-07,3.7056475e-07
8.406594e-05,1.626334e-05,2.0466085e-07,8.8529686e-07,5.905319e-07
1.15719956e-07,0.0010562765,1.0816003e-07,0.010079537,6.5020214e-07
3.540095e-07,0.0070491317,7.393397e-08,0.01084322,2.7358014e-06
0.0001246555,0.19090502,0.10024149,3.559573,0.0026569273
0.025974719,0.0016550927,0.36634845,0.043990757,8.325088e-05
0.0018051706,8.665051e-06,0.0719942,1.3236207,0.017549818
1.8074414e-07,7.168786e-07,0.0055023986,0.0005720213,0.032294173
4.0724038e-07,1.0176184e-06,6.213182,1.0818845,0.0004111228
0.030780815,5.6145745e-07,0.0013009656,1.9109766,9.646194e-07
4.5784432e-07,6.3731414e-07,0.20409615,0.13319786,0.15557896
5.7684156e-07,1.2327516e-06,0.56293094,4.1145984e-07,5.123106e-07
4.593638e-07,9.784783e-07,3.8115888,4.098632e-07,6.807551e-07
2.1747424e-07,4.4501417e-07,7.2779596e-07,7.5725205e-07,0.029962815
3.4629159e-07,1.1242978e-06,0.0009567273,0.001187608,0.00023064917
1.4982639e-06,6.2208087e-06,0.4367577,1.4086423,0.14088766
0.0068961894,0.0015639291,1.1581506,0.5491596,0.30468953
0.01448532,6.696441e-07,0.115025,0.06253937,0.020650648
0.04329192,2.866396e-06,0.55176777,0.0642525,0.0053471476
0.4177911,2.3309697e-06,0.029867003,8.191408e-07,1.0410332e-06
0.00049374456,8.3118135e-07,1.5463803e-06,0.03983254,1.4159989e-06
2.5697846e-05,1.7421636e-06,0.95527357,0.0032401192,7.643484e-07
1.5076453e-06,9.630693e-07,0.49110845,9.542968e-07,7.3245917e-07
1.4890602e-06,1.4702842e-06,0.0899136,5.796674e-07,9.845222e-07
0.051797997,9.94928e-07,0.10074419,0.11093326,1.0054415e-06
6.5905488e-06,8.3246516e-07,2.55996,0.33327603,1.2381504e-06
0.0012223964,1.9248323e-06,0.07487653,0.069058605,9.209314e-07
1.5092091e-06,2.1103288e-06,1.1209403e-06,7.377057e-07,3.1619215e-06
1.6474697e-06,1.4510956e-06,2.2264427e-07,8.5337217e-07,2.251525e-06
1.0025631e-05,3.1284758e-06,1.3264086e-06,7.1522436e-07,2.2721808e-06
0.33901814,1.868141e-06,5.3969857e-06,0.008237005,1.1758299e-06
1.5877395e-05,1.7639563e-06,1.0996608e-06,4.8756847e-06,1.3897336e-06
7.2123107e-06,2.023745e-06,3.0334077e-06,2.0952818e-06,1.8880643e-06
2.4780365e-05,1.9666402e-06,2.6153637e-06,4.93485e-06,6.605193e-06
0.12800829,1.5328145e-06,2.063865e-06,7.547549e-07,1.4885989e-06
0.00017759137,4.8838274e-06,3.575387e-07,0.0,8.267683e-06
5.7338536e-07,1.2245827e-06,1.1696854e-06,0.0,1.7218449e-06
5.2706093e-07,4.1000433e-07,8.035329e-07,0.0,1.5809942e-06
8.8477015e-07,6.300118e-07,5.2687017e-07,4.8121773e-10,2.4416115e-06
5.1152193e-07,0.0,3.3360473e-07,0.0,9.568009e-07
2.4537079e-07,0.0,6.8583006e-07,0.0,0.0
1.4936107e-06,0.0,4.6788255e-06,0.0,0.0
2.6441842e-06,7.001793e-08,1.9632341e-06,0.0,9.522315e-08
7.127146e-07,2.7642495e-06,0.0,7.537203e-08,2.3931775e-06
2.342915e-06,1.8719378e-06,2.8919349e-08,1.7588209e-06,1.8898843e-06
1.6648089e-06,2.382759e-05,5.918422e-08,3.462573e-07,1.9109975e-05
8.369318e-08,1.8368274e-06,4.8264866e-07,1.3771423e-06,1.9901196e-05
2.3432895e-07,2.0078824e-05,1.8736237e-06,3.2280923e-06,1.1529895e-05
7.86512e-06,1.2777657e-05,2.7268945e-06,4.7311494e-07,3.736778e-05
2.2567142e-06,5.116724e-06,4.958201e-07,3.7552513e-06,1.3861512e-05
8.002929e-06,2.550291e-05,5.398615e-07,1.0685906e-06,8.7123386e-05
3.500793e-05,7.3206243e-06,6.824307e-05,3.083462e-05,1.9601266e-05
0.00055875815,0.0029693018,0.01026019,0.5480674,3.8878185e-05
0.0022032375,0.021301817,0.009148246,0.63942796,0.13599819
0.008215177,5.0316333e-07,7.1340396e-06,0.004726638,0.18422386
2.14708,0.15024698,0.15882301,0.03915827,0.007172456
1.2546456,1.0051037,1.1467202,0.19946837,0.86594015
1.5927135,0.7228737,2.5925288,0.3316758,0.9265781
0.03819225,1.7364306,2.4308314,0.24216188,2.2653627
0.0046974616,0.2918412,2.1947937,0.32272893,7.881651
0.00077451195,0.5545869,3.0899591,0.25913548,6.503844
0.0005026908,6.164546,1.3684464,0.081412226,5.2175274
0.3307381,0.65034765,5.25226,0.5603069,1.8768804
2.2151859,0.5874487,5.2332063,0.28640714,1.8097069
3.6650906,0.00011437639,1.3088,0.14187303,0.018408539
0.7776866,1.2126765e-06,2.0900474,0.5648241,0.000100333564
2.2024684,4.8353293e-05,0.6354071,0.1791176,3.4175544e-05
0.7623506,0.0008625491,0.0005069131,1.0332974e-06,5.44289e-08
0.009663336,0.045549713,6.1855116e-07,3.4098983e-07,2.6191721e-05
0.0078090345,8.4425466e-07,6.815174e-08,1.120605e-07,4.270287e-06
8.811913e-05,9.40874e-07,0.0,4.770869e-08,4.596635e-06
1.3284263e-05,1.4020058e-07,4.5475942e-10,1.7830335e-07,2.290989e-06
5.301617e-06,1.0913823e-08,4.6367738e-08,0.14245449,1.9225283e-07
3.7299592e-06,1.1603845e-06,1.8367321e-07,4.6183764e-06,4.2426512e-07
3.6338456e-08,0.0,2.3863902e-07,3.0408688e-07,3.108045e-07
3.2107582e-07,0.0,0.0,1.4609356e-07,4.2344024e-07
8.038276e-07,0.0,0.0,3.9636492e-07,3.24154e-07
2.240301e-06,0.0,1.0955396e-06,3.6386407e-07,2.6545413e-07
3.2122213e-07,0.0,4.6681842e-07,5.613908e-08,0.0
1.3489324e-06,0.0,2.6431591e-08,1.8155045e-08,1.176479e-06
1.0115375e-06,2.1412725e-09,1.3756407e-08,9.61357e-09,0.0
7.20476e-07,0.0,0.0,1.07234186e-07,1.7956802e-09
3.9025927e-06,9.04485e-08,6.518915e-08,3.2207672e-07,5.1427282e-08
0.0,0.0,1.02558246e-07,2.5305266e-05,0.0
0.0,3.07737e-07,3.952034e-08,9.405028e-07,0.0
6.0629714e-07,6.0201097e-07,7.3596397e-07,1.7135066e-07,1.7609166e-07
9.592417e-08,1.7152402e-06,4.6419686e-08,2.5956166e-07,1.082482e-06
1.0643128e-06,0.7156815,5.978023e-08,1.250196e-08,1.1341368e-06
1.7069998e-06,2.7694152e-06,0.0006368847,0.0,0.057048436
0.08693227,0.0036183174,0.0003728148,4.4539698e-07,0.6177044
0.001274771,0.6089826,1.4165227e-06,1.0260862e-06,0.7388291
8.00918e-07,6.2124934e-07,1.1013085e-06,0.06778517,0.4599732
3.874267e-07,1.7377745,0.70510674,1.3098488,0.8137399
2.0887023e-06,3.4235642,2.1907873,0.3556342,2.577929
1.6557167e-05,3.108668,0.5932517,0.20055267,3.7146144
0.47503284,2.3491426,3.436225,0.7025929,1.5659914
0.66599977,2.1630674e-06,3.325977,0.8618894,1.0532046e-06
2.9769216,1.5883392e-06,1.5990503,3.0161428,1.2289918e-06
1.7222434,2.0310306e-06,1.004527,0.15793417,2.9773457e-06
3.3481515e-06,3.7138577e-06,0.32281905,0.6945165,1.3998975e-06
0.22589622,2.5958543e-06,0.19026187,7.474508e-05,1.4132985e-06
0.37801933,1.136869e-06,0.13635972,0.6025177,6.843351e-07
4.252939e-06,2.0226457e-06,0.00013585569,0.00014373755,4.5951188e-07
4.3211094e-05,4.3588e-08,0.063126944,0.00014018893,4.913405e-07
0.043574467,9.350655e-10,5.223837e-06,0.000360329,8.9965533e-07
0.4469369,2.4975213e-07,7.858522e-06,1.5810472e-06,5.106262e-07
1.2636355e-05,0.0,4.660935e-08,8.693788e-08,8.154646e-08
1.2184705e-06,0.0,8.1823134e-07,1.4469507e-06,2.6643374e-10
5.935256e-06,7.263315e-09,1.9105407e-06,3.8919516e-06,6.7700796e-08
1.269878e-06,1.003104e-06,1.7556508e-06,7.031351e-07,5.0428434e-07
3.3226406e-05,1.1064858e-06,1.3479259e-09,1.9346264e-07,2.8341294e-06
8.0398595e-06,0.09737574,1.6693992e-08,1.2422946e-07,0.18954633
1.010501e-05,1.5162336,6.653021e-06,1.5549336e-06,1.3694237
1.0398742e-05,0.2918385,1.767099e-05,1.0018148e-05,0.69543487
0.44266888,0.12603839,0.004638983,2.37495e-06,0.009474741
0.011528683,0.29295138,0.22767136,5.4686275e-06,0.039405897
0.00018900355,2.0067816e-06,0.1964669,0.09397479,0.18262407
0.0014243489,0.16998635,0.15552902,0.051257238,0.76812255
0.00022049395,0.84216803,0.2412984,0.005231754,1.7459458
0.14994785,1.7185382,0.3040902,6.3093194e-07,2.0639381
0.0069252807,2.1612456,0.27473447,5.224891e-06,2.1274347
1.6617714e-05,2.5394115,0.29497138,1.3232614e-05,2.894307
0.02215412,2.9120631,0.34142026,4.5496895e-07,3.462322
0.14846876,2.642033,1.1140696,0.00013248352,4.3171473
0.70065516,1.0163813,1.7080244,0.08439877,4.2533803
1.3430694,0.4342724,2.8670242,1.022085,4.9687986
2.4450996,0.13066842,3.9950297,3.2801178,1.1223907
0.71459305,0.71471196,4.257044,2.828213,0.9911104
0.0022150828,0.9856454,4.0072536,2.2976203,2.2664888
0.0038232193,0.6859128,4.0129247,1.2887863,1.2166692
0.008944974,0.7038863,4.500512,0.6976312,0.8177205
0.11204784,0.75235915,2.8707922,0.52248377,1.3399488
0.077936634,0.3633404,1.9245715,0.42177758,2.3781495
0.07491909,0.052836206,1.1766448,0.3321131,1.7975012
0.08233605,0.08421285,1.8185261,0.52254206,2.846501
0.045947723,0.32948503,1.4144081,0.6435944,2.4773867
0.0022439782,0.382979,1.200105,0.81566125,2.1599498
0.0046420274,0.3854126,1.2626776,0.7009337,1.8240517
0.0071111135,0.46258724,1.3512933,0.5359731,0.3956307
0.015521829,0.84706026,2.1091077,0.7107786,6.8325817e-06
0.039942488,1.0261489,1.9589648,1.2200218,0.5571432
0.079251215,0.7808175,2.0854373,1.5522605,1.2045002
0.09239234,0.43451476,2.2356865,1.4092088,1.4311266
0.09702047,0.28157267,3.3598542,0.897881,1.240757
0.080357105,0.1111509,2.6455216,2.6759667,1.2604948
0.07547062,0.16452697,2.3262453,2.6314688,1.0759416
0.058170658,0.7373431,2.8736274,1.987278,2.0670888
0.056260068,2.1410353,2.4909775,1.841572,1.1158257
0.142607,2.605125,5.7128077,1.1250228,0.37344235
0.6099164,0.8082029,1.9672333,0.9362628,1.1041528
0.16353887,0.3383238,0.8468533,1.0581639,2.0496883
0.92343426,0.22642769,1.449619,1.0134234,2.6988235
0.479305,2.530956e-05,0.9346681,0.46655905,0.008167
5.4063735,8.302344e-06,8.3421364e-05,0.045270927,0.14625826
4.525381,0.28529742,0.11528967,0.05429301,0.13031158
0.7833153,0.0013415063,3.2095004e-06,3.3387962e-06,8.3765696e-07
0.81231713,7.9299065e-07,3.1611419e-06,0.04323574,1.8100975e-06
8.087577e-05,1.505138e-06,0.65987766,0.009934626,3.282291e-06
0.0002410688,6.3901985e-07,0.028560778,9.3420044e-07,1.4346468e-05
2.0886998e-06,1.010097e-06,6.6466916e-09,1.287366e-06,3.7611628e-07
