"[299, 255]","[227, 248]","[287, 319]","[279, 328]","[230, 262]"
1.0142481e-06,4.8236157e-06,2.8010223e-07,2.4957775e-10,4.416134e-06
1.5946816e-07,0.0014732125,7.14525e-07,1.14652246e-10,0.05111452
7.3884513e-07,0.000103470426,9.9245405e-08,1.1031977e-06,2.2268048e-06
5.38167e-07,1.5808844e-05,3.5918224e-06,3.3970114e-06,1.5854673e-06
4.857498e-07,3.2320912e-07,1.6506442e-06,0.007609543,1.0680766e-06
2.921094e-07,1.0628879e-06,6.458736e-06,1.4001872e-05,1.4055848e-06
8.6791374e-07,4.5156824e-07,1.501978e-05,9.677809e-07,1.1293653e-06
5.8659464e-07,9.2519184e-07,1.950362e-06,9.246219e-07,1.7340733e-06
5.467996e-07,1.4989349e-06,3.5650635e-05,1.1292491e-06,1.4079466e-06
1.2752316e-06,2.453498e-06,1.6404247e-05,2.122404e-06,1.5976748e-06
2.562148e-06,8.8824476e-07,2.5530027e-05,2.4855744e-06,3.1605239e-06
0.11250092,4.976512e-06,4.04234e-06,2.5940835e-06,3.012537e-06
0.04492011,1.4006208e-06,9.083406e-06,6.2263837e-07,2.6607117e-06
3.6220383e-06,1.3964964e-06,3.4930592e-05,9.32171e-07,8.438086e-07
1.956541e-06,1.8439873e-06,2.7052693e-06,1.2968495e-06,1.2538366e-06
2.0733612e-06,2.0179345e-06,3.3658674e-07,2.601498e-06,2.406417e-06
4.4002675e-07,5.383042e-06,2.7829979e-06,4.1822912e-07,4.774147e-06
5.9833296e-06,5.4664915e-06,5.6658615e-07,1.8718723e-06,4.9001123e-06
5.8010364e-06,9.8444886e-08,4.0760656e-07,4.0128415e-07,4.9599794e-07
4.3415665e-07,6.3749627e-07,1.4205763e-07,0.0,1.1847573e-06
8.2557415e-07,1.7088475e-09,3.7109686e-08,6.120799e-07,1.262957e-06
5.133087e-07,3.0517015e-08,7.3955243e-07,1.5942192e-06,9.654184e-08
6.7524795e-08,3.4257744e-05,6.7869047e-07,9.1539704e-08,2.9189819e-06
1.9277492e-07,2.7393867e-06,9.4804015e-08,1.3263526e-08,5.209635e-07
6.84429e-08,2.2536387e-08,4.8570716e-09,0.0,0.0
7.644062e-07,0.0,0.0,3.488078e-08,0.0
4.6197925e-07,9.856709e-09,0.0,8.609597e-08,9.328468e-08
3.5729954e-07,1.58116e-05,0.0,0.0,2.036782e-06
4.5158426e-08,5.858546e-06,1.5512515e-09,0.0,2.5757085e-06
0.0,0.69027346,5.0643473e-07,1.202034e-07,1.1973745e-05
4.260759e-08,2.665798e-06,1.5934904e-07,5.094607e-07,1.7490942e-05
5.395059e-07,5.179294e-06,3.8471878e-08,9.767178e-07,5.176415e-06
1.0170032e-06,4.569092e-06,1.1498827e-06,1.2353757e-06,0.11257581
1.3276838e-06,0.026128376,2.1214073e-06,6.3545923e-07,3.1321877e-06
1.9413162e-06,2.0955067e-05,2.6410703e-06,2.5604115e-06,3.346458e-06
3.198448e-06,5.93854e-07,2.075405e-06,2.6330426e-07,1.1370093e-06
1.2703406e-06,1.8021584e-09,2.126475e-06,2.3100652e-06,0.20706557
0.03686805,0.059687007,1.3877943e-06,4.779636e-06,1.0319207
0.60133934,2.7649414e-06,4.658139e-06,3.0935684e-05,3.6719039e-06
0.0010397224,4.589849e-06,0.0031259404,8.145599e-06,3.3216272e-06
1.1816865e-06,7.8645655e-07,0.000479007,1.7380431e-06,7.447771e-07
5.094372e-06,2.623789e-06,0.00043316348,2.779051e-06,2.610442e-06
3.8784024e-06,3.6084305e-06,5.329136e-06,3.0441595e-06,4.209038e-06
1.902994e-06,2.764874e-06,1.5045901e-05,3.2774103e-06,3.345329e-06
2.377845e-06,1.4193239e-06,0.00013151027,1.0898789e-06,2.9111357e-06
1.3125119e-06,6.2702856e-07,4.742611e-06,2.290557e-06,1.0942164e-06
3.0059238e-07,8.6550176e-07,1.7585021e-06,1.6788529e-06,6.0664445e-07
1.3604848e-07,3.1156503e-08,1.5307886e-06,1.466699e-06,1.7466758e-06
6.529851e-07,1.4392015e-09,2.7059777e-06,1.3148732e-06,5.051634e-09
3.3716626e-07,1.3518764e-08,2.3961904e-06,1.0273811e-06,3.2776958e-07
5.4976874e-07,5.258503e-10,4.7018997e-07,1.0428668e-06,7.411974e-07
3.9963695e-07,0.0,1.0601361e-06,2.361848e-06,1.0691801e-07
1.0282569e-07,1.7174752e-07,4.1711537e-06,5.4639354e-06,1.535588e-06
7.036982e-07,2.5602895e-07,7.6206885e-07,2.3901016e-06,6.8976425e-07
6.577304e-07,0.0,1.0591565e-06,2.417509e-06,3.849665e-08
1.7962952e-07,2.8900524e-09,1.4835094e-06,3.190522e-06,8.0467214e-07
2.8636308e-07,1.0297412e-06,2.0058687e-06,2.4812397e-07,2.1449216e-06
7.7637526e-07,1.3004026e-08,2.1858748e-06,4.084368e-06,5.7952104e-07
4.87363e-07,2.8341458e-07,6.976491e-07,4.0116497e-06,8.601129e-08
2.5530805e-06,4.5904775e-07,6.0746734e-06,2.9657192e-06,8.9007255e-09
2.163812e-06,5.694114e-09,1.9684358e-06,2.1814078e-06,4.869425e-09
2.2023762e-06,7.274975e-08,9.719998e-07,1.9849647e-06,8.164249e-07
1.6372493e-06,6.781446e-07,1.2106158e-06,2.8349848e-06,1.5859648e-06
1.7365535e-06,6.14153e-07,2.899107e-06,5.123946e-06,7.5713206e-07
1.023159e-06,1.2341514e-05,1.6113174e-06,1.8022956e-05,2.1104418e-06
6.207294e-07,9.030894e-06,1.0874447e-06,2.33192e-06,2.7273186e-06
6.249768e-07,3.1885224e-06,5.557118e-05,9.8266755e-06,2.0113093e-06
6.453467e-06,1.0161006e-05,1.4212487e-06,5.693278e-06,5.187045e-07
1.0684139e-05,1.4029618e-05,2.7137778e-05,8.372063e-05,3.6375639e-06
8.813686e-05,4.5693046e-06,1.3731708e-05,0.00010633856,3.6488047e-06
8.433476e-05,1.9135967e-05,2.7428678e-05,0.00019401051,3.8847948e-06
1.6950651e-05,4.794737e-06,3.0474034e-06,4.2928074e-05,2.6214773e-06
1.1497628e-05,1.1047323e-06,6.2264053e-06,7.5694556e-06,2.3636435e-06
2.271271e-05,1.7583828e-06,1.1811559e-06,5.4358384e-07,1.929904e-06
1.445822e-05,1.819822e-06,3.2825146e-06,1.5385286e-06,1.0619424e-06
0.000106369785,8.896045e-07,8.287617e-06,7.806993e-07,7.143928e-07
0.0001364224,1.4581636e-06,3.3467802e-06,2.1955002e-06,1.7293693e-06
3.3046524e-06,2.4760368e-06,4.0070395e-06,2.5058705e-06,1.6303001e-07
5.146823e-06,1.1801327e-06,3.496926e-06,7.8286695e-07,2.1233704e-07
3.3026245e-06,3.0840187e-07,2.4780065e-06,1.4252219e-06,1.097463e-07
0.0020904338,5.6687554e-07,2.0230075e-06,0.0016428722,1.0690684e-06
0.0126680005,6.022772e-07,9.1116266e-07,2.0162208e-05,5.9486542e-06
0.012420359,1.1412968e-06,1.965871e-06,2.2934157e-06,3.085672e-06
0.0016226493,1.9082904e-06,6.046977e-07,3.2311746e-06,9.20231e-07
5.65844e-06,8.8766376e-07,6.1587326e-07,1.0862522e-06,3.3830122e-06
2.1657866e-06,1.3379403e-07,1.0817914e-06,1.2639101e-06,2.555792e-06
1.2384961e-06,5.078505e-07,2.7794636e-06,1.7981134e-06,4.2583886e-07
1.1050536e-06,3.789809e-06,8.581889e-07,2.1887058e-06,2.1453031e-06
1.4045054e-06,5.802054e-06,1.8473273e-06,2.311675e-06,6.5086247e-06
2.4991525e-06,4.1643685e-07,1.3812601e-06,2.9439743e-05,8.868717e-06
8.1703087e-07,2.046622e-05,1.0386718e-06,0.0022969362,1.2166097e-05
1.4170418e-07,1.0749602e-05,0.000383234,0.019465685,1.3942146e-05
3.1452768e-07,3.4135607e-07,5.771536e-07,6.485933e-07,8.14508e-06
1.9424473e-07,8.978661e-06,7.44939e-07,1.3594741e-06,7.627335e-06
9.2592764e-08,7.384031e-06,4.7078547e-06,0.0076649114,1.4522453e-06
2.863378e-06,1.5414384e-05,2.5658696e-06,3.815442e-06,6.20203e-06
2.3177749e-07,4.0856935e-06,1.3339734e-06,0.00033215375,1.8612719e-06
1.1798803e-06,3.5003372e-06,0.0012019133,0.05775674,9.4976974e-07
1.2536993e-06,1.9681186e-06,1.3000724e-07,0.014471799,7.1213763e-06
2.4808023e-06,8.63638e-06,3.205573e-06,4.1591848e-06,8.430686e-07
9.811061e-06,9.781721e-07,1.5936818e-06,2.781446e-06,1.2877027e-06
1.182125e-06,5.637158e-06,1.6724243e-07,3.5978125e-08,4.186278e-06
6.951357e-05,3.0643635e-06,1.2508114e-07,1.8237205e-07,6.8869423e-07
0.00015823435,4.6989676e-06,1.255729e-06,1.2266835e-06,3.4705838e-06
1.0944666e-05,2.0737773e-06,3.1114844e-06,3.764153e-06,1.8035231e-06
4.862212e-06,2.7523386e-06,3.3872768e-06,1.4226383e-06,2.6791652e-06
4.2440397e-06,1.6597896e-06,1.7096432e-06,2.485056e-06,2.9703942e-06
4.74749e-06,4.502887e-07,0.00013733972,2.5558804e-06,9.280568e-07
3.5904511e-06,6.653757e-06,0.00021969767,1.0961766e-06,7.003935e-07
2.3933374e-06,4.61339e-06,6.4487756e-07,2.8590555e-06,1.3352595e-06
5.908083e-06,2.0253548e-05,1.1378496e-06,2.0712762e-06,1.7313542e-06
3.571247e-06,8.484693e-07,4.0713367e-06,9.860921e-07,5.4435424e-07
3.3675055e-06,5.5512857e-07,3.2049506e-06,1.2035408e-06,2.56081e-06
3.924709e-07,1.629001e-05,1.3608569e-06,1.4435457e-06,7.3443666e-06
7.8618115e-07,3.9380293e-06,3.30261e-06,2.8845912e-07,5.2921555e-06
3.0228675e-06,1.778001e-06,3.099028e-06,2.8568616e-07,8.479833e-07
1.8441812e-06,3.006909e-06,2.272034e-06,8.7517844e-07,9.0491574e-07
3.198617e-07,6.827555e-07,2.4229442e-07,6.87217e-07,1.0922638e-05
2.4564442e-06,2.9474656e-06,3.5293297e-07,3.8593205e-07,4.2708043e-06
6.214635e-06,2.762153e-06,3.8448962e-07,3.9118882e-07,1.8913057e-06
2.1245974e-06,5.960876e-07,5.340059e-07,6.8167884e-07,2.0067632e-06
1.3219709e-05,2.343134e-06,0.0010480501,9.756461e-07,1.7296476e-06
3.1501952e-06,8.320894e-07,9.8714245e-06,1.6073442e-06,6.952103e-06
0.0037599204,1.6228323e-06,3.0372143e-05,0.001053731,8.75586e-06
0.0002649284,1.8080611e-06,2.180124e-05,0.0022717074,1.1561127e-05
4.1613544e-06,0.0076060663,0.0014647931,1.5920923e-05,4.844914e-07
8.263054e-06,9.3152096e-07,8.857812e-06,9.373485e-06,2.1008784e-06
7.700596e-06,6.0790107e-06,1.1813969e-05,4.814732e-06,3.6960455e-06
0.0132312495,7.110179e-06,0.00012400282,0.007881786,1.045508e-05
4.5510924e-06,8.557815e-06,0.016751962,0.089153044,4.1541566e-06
4.145334e-06,1.0403615e-05,0.04577154,0.07835226,4.5879605e-07
1.0702763e-06,5.382996e-06,0.030257456,0.06062131,2.1316364e-06
0.00015906937,9.393622e-06,0.03121239,0.060252827,1.8513054e-05
0.00053789787,2.6823009e-06,0.010943574,0.04898365,1.4845919e-05
0.0063328873,7.2423745e-06,0.005181908,0.043698147,7.953692e-06
0.00051973434,2.8005163e-06,0.0107422825,0.029790148,1.9983914e-05
5.3432236e-06,7.830565e-06,0.046040185,0.009852697,7.584595e-07
1.4401832e-07,1.6149392e-05,0.059077494,2.3994191e-06,1.3797435e-05
8.4691345e-07,0.013584918,0.028482152,5.286279e-07,1.0006228e-07
2.6636217e-06,0.6529732,0.011123898,3.9540743e-07,0.9282876
6.8538815e-05,1.2737585,1.4842981e-05,8.363971e-07,0.67886555
0.042391896,0.6870742,3.189848e-07,6.1687984e-07,3.678266e-06
0.08730025,0.16153036,2.1673932e-07,8.188264e-07,0.038813323
0.15091883,0.026850812,2.2148858e-07,8.630692e-07,0.22221649
0.27510786,0.18748571,9.3702425e-07,2.0936359e-06,0.20383947
0.4320369,0.005953625,2.1292757e-07,2.0907628e-06,0.17769426
0.37236458,0.00077041116,4.771834e-07,3.322025e-07,0.0002059922
0.35674572,0.0111576365,1.2152249e-07,8.783578e-07,0.0007884261
0.31795624,0.6191552,3.5942335e-07,7.2972006e-07,1.1466124e-05
0.2671267,1.3722583,1.2221065e-07,2.0160334e-07,1.4520975e-05
0.22377513,1.4387566,5.823766e-07,2.9251975e-08,0.5002567
0.23444511,1.6135018,4.471149e-07,2.4699426e-07,1.2019191
0.24805349,1.7437514,4.4221463e-07,3.977776e-07,1.1114585
0.32674447,1.6065068,9.137068e-07,2.2230258e-06,0.639807
1.0895147,0.9373368,2.398792e-06,1.6360154e-06,0.58558774
1.2239304,0.6276002,4.3868104e-07,9.820417e-07,0.88808656
1.4538487,1.093274,8.5554024e-07,0.00036298452,0.21437506
2.6195772,0.4755182,2.1592555e-06,0.005860123,0.048251785
1.5064648,4.3876335e-05,0.001807044,2.5963109e-06,0.014357259
1.331241,0.07100306,0.00024933595,0.021186745,0.017115366
1.2687443,0.2561692,8.5992615e-06,1.5685542e-06,0.00014470406
0.24618617,3.7516327e-06,7.861017e-07,1.2646889e-06,6.540838e-06
0.17960258,3.0307694e-06,2.0960173e-05,2.1249955e-06,2.9870296e-06
0.01901675,3.1807667e-06,0.0015011003,0.92902744,0.5855265
9.087202e-06,0.10078706,2.5079432,4.560133e-05,0.10534398
0.000103598475,0.0002858879,2.9997166e-06,2.3600944e-07,0.00033703458
9.741818e-05,1.8069398e-06,7.720808e-07,1.5030623e-06,2.3964738e-05
0.12320033,1.5128683e-06,3.413817e-07,6.108086e-07,8.381042e-07
0.00014544962,1.396095e-06,1.4306573e-07,2.917734e-07,8.9582693e-07
1.281811e-06,8.554431e-07,1.8455893e-06,1.652494e-05,9.306726e-08
3.3983365e-06,7.430308e-07,3.4076954e-06,1.4035159,8.8141707e-07
0.000113466725,1.5295251e-06,1.4295841,0.0002646099,1.3185494e-06
0.0029918742,3.1937319e-07,8.820842e-07,0.009808697,7.1175606e-07
0.062181972,5.019972e-07,8.925483e-07,3.0271215e-07,1.2808727e-06
0.033394624,2.3919422e-06,7.5999407e-07,0.042082135,2.5017755e-07
0.0019132502,9.583165e-07,0.24323218,2.4459706e-07,4.898453e-07
0.0002059486,3.3643864e-06,0.0094270855,7.5172284e-06,1.6263998e-06
0.04042023,2.7487278e-07,0.42548767,4.574963e-06,8.252596e-07
0.63622093,2.2012373e-06,0.008987121,1.8682897e-06,3.4713017e-07
0.4196559,1.4866671e-06,0.8874713,1.0006088e-06,7.33319e-07
0.01017244,3.872178e-06,1.32566e-06,8.2970035e-07,1.3524768e-06
0.11496226,3.6300655e-06,3.6095693e-07,2.1334993e-06,3.043883e-06
7.4417894e-06,9.1175454e-05,3.583302e-06,0.103400216,2.3552145e-06
0.0154780205,0.0969729,0.0037692343,0.5848797,2.1004736e-05
1.3204805,8.043287e-07,0.5107181,0.10891048,0.00019031757
5.827486e-06,6.4008163e-06,4.0485593e-06,0.08053457,0.000100902995
2.7601716e-06,3.3471135e-06,1.0447037e-06,0.03789593,2.011154e-06
0.15295106,3.3714323,0.0008867069,1.0471847,1.1708169e-06
0.005572789,0.10858704,0.00023932866,2.2597944e-06,2.985287e-06
8.064522e-07,0.018019225,2.5624272e-06,2.3922096e-06,2.637352e-06
0.00047904951,2.6418566e-06,4.3002652e-07,1.6323091e-06,1.4291901e-06
1.936301,2.3395498e-06,5.041501e-07,1.2121211e-06,1.4330279e-06
0.044027988,0.00023852006,5.9427084e-08,2.0776272e-06,1.6975417e-06
0.60841733,1.7917923e-06,8.864994e-07,2.364965e-07,1.3128472e-06
3.0142212,3.6107629e-06,2.8038853e-06,6.1610865e-07,6.249471e-07
0.029478688,1.960305e-06,6.795429e-06,2.1205192e-06,2.0023244e-06
0.013323908,1.5311258e-06,2.2355264e-06,4.808611e-06,0.0038832147
1.4690368,5.3853482e-06,1.1443998e-05,1.3563802e-06,1.2674302e-06
0.09531468,0.0019697354,6.77283e-06,2.6789455e-06,2.1651729e-06
0.09717513,5.002544e-06,6.7866167e-06,9.642569e-07,2.7202746e-06
0.0002069136,3.546109e-06,1.1929286e-06,1.569985e-06,1.761114e-06
8.770057e-07,1.9190845e-06,1.1746787e-06,3.6302202e-07,1.3258901e-06
1.6297687e-06,2.8250722e-06,1.2112056e-06,8.309758e-07,1.5840035e-06
1.5244116e-06,0.23570803,3.4711377e-06,1.852695e-06,8.7413764e-07
0.0013433584,0.0019867553,2.8846086e-06,5.2314663e-06,1.3866926e-06
0.054438993,9.0456915e-06,2.700445e-06,1.9005228e-06,1.1459819e-06
0.03606055,2.0209754e-06,3.7042385e-06,2.98127e-06,3.228896e-06
0.0056449226,1.4083982e-08,2.095313e-05,0.0030797133,8.563808e-07
1.4820167,7.11511e-08,0.014796375,9.23456e-06,2.7355657e-06
2.0048453e-06,4.0740865e-08,0.005354484,1.0694474e-06,1.368143e-06
3.0973113e-06,5.2293018e-08,9.1900966e-07,3.5949352e-06,9.4415566e-07
6.9905595e-06,3.3633563e-07,9.315771e-07,1.6169481e-07,1.3140016e-06
6.114869e-07,3.867437e-06,7.29686e-07,1.1854784e-06,1.0523046e-06
3.24624e-07,4.1065605e-06,4.113715e-08,6.9416177e-07,2.352338e-06
3.1944942e-09,1.1452912e-06,0.0,9.900288e-08,9.885366e-07
1.6347623e-07,4.9461105e-06,1.6630306e-08,4.2078425e-09,2.562074e-05
0.0,1.7828677e-06,3.1945255e-08,0.0,9.570742e-06
8.085051e-09,0.023116592,1.3045619e-07,0.0,9.876603e-05
4.7327347e-08,7.4027585e-06,5.9778074e-08,0.0,8.124879e-06
5.9641125e-06,5.345119e-06,3.8256694e-08,0.0,5.301897e-06
2.4750632e-05,1.4927552e-06,5.0706063e-07,0.0,1.8057084e-06
5.7947673e-06,2.733238e-07,1.4202404e-06,0.0,9.424691e-07
1.1797193e-08,2.6584084e-07,9.1278935e-08,0.0,0.07599411
5.1687625e-08,4.85433e-07,8.152711e-07,0.0,0.0020324895
0.0,6.150953e-11,2.5510024e-06,2.3492243e-08,8.581607e-07
5.861224e-08,2.3975538e-06,2.6868756e-07,3.528921e-08,5.904871e-07
5.924652e-08,1.8844963e-07,0.0,0.0,9.0163255e-08
6.373842e-08,9.644084e-06,0.0,2.598085e-07,1.270197e-06
4.9199065e-07,7.365817e-07,3.6364858e-07,4.4163554e-07,1.9456256e-06
2.6846487e-07,5.1021457e-06,4.4638427e-06,3.3119873e-06,2.7368346e-06
1.7090945e-06,4.818142e-06,2.0645948e-06,2.0652813e-06,2.408158e-05
2.2275353e-06,5.8173913e-07,6.9857665e-06,1.8248345e-06,1.6379043e-05
7.690158e-07,8.564204e-06,1.1312242e-06,9.6964e-06,1.2723087e-05
3.948704e-07,1.7441437e-06,2.2016407e-06,9.433533e-06,1.342472e-05
2.9377768e-06,2.4622645e-06,1.3012073e-05,8.802237e-06,1.0331385e-06
1.18605314e-07,7.849334e-06,2.0622725e-05,7.2687784e-05,6.414096e-07
1.4464034e-06,3.8379667e-06,7.823124e-06,0.00012184817,7.920768e-07
9.312822e-06,3.1956747e-06,8.233998e-07,8.84019e-06,7.9470894e-08
6.026593e-06,2.3371613e-05,9.1555885e-06,2.7819558e-05,1.05164045e-05
3.8070211e-06,3.045777e-06,2.4036942e-06,1.3714917e-06,3.0169362e-05
4.6679515e-06,0.010319145,1.3613435e-06,1.2418604e-06,7.8670004e-05
5.692448e-06,1.7664565e-06,3.1101965e-07,1.0226406e-06,0.06877927
2.134201e-06,0.002487708,3.338236e-07,2.969935e-06,0.15218005
7.380999e-08,0.002531948,0.0017729494,0.00031912306,1.0803038e-06
1.04707425e-07,0.004949848,0.026385037,0.015079798,0.30229154
6.481622e-07,0.06727246,0.05500021,0.02414062,0.37058017
0.22846901,0.44138777,0.045885477,0.023963105,0.3659791
0.109368965,0.44533497,0.0379175,0.32278427,0.41164047
0.0990758,0.28979966,0.28377402,0.595961,0.27856523
0.11373406,0.003111002,0.3466889,1.1087235,0.10528245
0.21352983,3.7451125e-06,0.14179179,1.3151875,4.276589e-06
0.3829439,5.077408e-06,0.09296636,0.4838517,1.0453367e-06
0.9780447,3.564487e-06,0.019233912,0.018567435,8.607781e-06
1.1137234,1.584874e-06,0.022939702,0.06852572,5.565832e-06
0.26590064,5.489382e-07,0.009034379,0.3068905,0.010475264
0.038413007,0.038883466,0.016993068,0.013704038,0.0021997618
5.097191e-06,0.0028612462,0.05649877,0.00014607693,1.1878794e-05
0.013497111,6.194377e-07,0.13825244,0.10378769,1.2873926e-05
1.1932883e-06,1.0728219e-06,0.14757198,1.9450733e-06,1.5038138e-05
9.95384e-07,3.433969e-07,0.06687669,2.0754858e-06,6.36629e-06
3.4235006e-06,8.975057e-07,0.0673486,6.0935795e-06,1.0936504e-06
1.640401e-06,1.2390306e-06,0.023020688,1.9571567e-06,8.4629215e-07
5.9466024e-06,3.480581e-05,0.012040939,0.008535649,0.006185381
1.2856289e-06,0.06775784,1.2078866,0.19266865,6.861668e-06
1.4195727e-08,0.028099056,1.4140089,0.14224194,0.013047635
1.4299625e-06,0.10981524,0.6676573,0.09328288,0.04136624
5.3759954e-06,0.03721706,0.5524358,0.065648176,0.022215227
0.10348364,0.21562517,0.98646504,0.2145753,0.631644
0.3298048,0.0064354027,0.1307106,2.1446149e-05,2.754553e-06
0.44678718,6.3427815e-06,0.00074218126,8.12428e-06,0.0007960435
0.12706035,1.1891695e-05,0.18288812,9.199515e-07,5.462995e-07
0.00036503014,5.070016e-08,8.0533516e-07,0.19393505,1.2586539e-06
6.759433e-08,2.483522e-07,5.972176e-07,0.0002068054,3.0423143e-06
1.1719402e-06,0.0,3.7155687e-07,4.9326013e-07,3.313445e-06
8.1119407e-07,8.206936e-08,1.7495655e-06,1.2504638e-06,2.9829303e-06
2.9426942e-06,3.702361e-08,2.8730287e-06,1.9079603e-06,1.8752318e-06
4.219785e-06,5.4698285e-07,2.7842577e-06,3.8115286e-06,1.8103972e-06
4.312389e-06,9.0505193e-07,1.7366299e-06,5.733132e-07,1.452779e-06
3.652776e-06,2.5124914e-06,1.3683663e-06,1.512374e-06,0.042994965
1.3611472e-06,1.4152578e-06,1.1826211e-06,1.675547e-06,0.09641797
1.0180438e-06,0.00034157475,1.1577048e-06,0.23733068,5.9306996e-07
3.5519083e-06,0.033849526,2.4079677e-06,4.0588147e-05,4.3011732e-06
4.895344e-07,1.949498e-05,5.500905e-07,0.934031,0.00022609485
9.552399e-07,1.0491844,0.077028744,0.018106122,1.3951496e-05
2.135321e-06,0.9987818,0.06387764,0.0011869734,5.968642e-06
0.02961065,1.3336871e-06,0.16833149,1.8041213,0.041397557
0.036990795,3.7281916e-07,2.797658,0.3212762,1.666683e-05
0.020563042,3.0641343e-06,0.014116257,0.090336695,6.6070234e-06
0.5128131,2.2038043,6.4984604e-05,1.2972944,2.8662375e-06
1.3833048,0.15666047,0.0029201955,1.1782781e-06,1.930122e-06
0.018732896,1.1835176e-06,1.7557406,0.048987616,1.5843274e-06
0.00016590962,1.2083e-06,6.4457305e-07,1.3776165e-07,1.8459089e-06
1.0334168e-07,9.988848e-07,3.7385582e-06,5.519234e-07,6.108377e-06
5.7469624e-08,1.0587045e-06,1.4234612e-07,4.6629475e-07,1.0153904e-06
4.856455e-06,1.8876383e-06,1.6988861e-06,3.137612e-07,7.5369036e-07
1.3618136e-07,8.1662284e-07,8.913268e-06,2.3078813e-07,1.6103476e-06
2.1089456e-07,1.6037347e-06,1.3549187e-05,0.00039534728,2.2890836e-06
1.3418904e-06,5.010776e-06,0.0009882569,0.0007844805,1.2481795e-06
1.7234496e-06,4.7403537e-07,0.0031498338,0.07539589,5.4606414e-07
5.387598e-06,1.8390921e-06,0.19977662,1.3886447e-06,1.8241874e-06
3.4363825e-06,2.6035507e-06,6.581114e-07,0.00026220732,2.8431145e-06
0.04693157,0.09039245,0.3646372,0.055934418,0.057790343
0.0037121938,1.6096797,0.31414938,1.728787e-06,0.0009788355
2.0739682e-05,0.009312606,0.1923656,4.453912e-05,3.0965346e-06
3.854602e-06,4.4167544e-05,1.5718222e-06,0.0011958566,0.025028469
2.9428807e-06,0.30166543,1.5655721e-06,0.00050545385,1.1130021
0.19099796,4.4929357e-06,2.376939e-06,0.0036473172,0.010522466
0.2909972,3.3380792e-07,0.743704,0.7180554,0.00962737
0.461699,0.046752527,0.25252518,3.361762e-05,4.372764
0.2744476,0.28164575,0.4133664,0.5010055,1.6122383
0.0006648985,6.22089e-05,1.311767e-06,0.0016621549,0.88923025
0.576232,0.4675113,7.599705e-06,1.1631213,2.599546
0.8956624,0.1880413,0.00020180656,0.36568996,0.20058733
0.855292,0.7882678,0.8851051,0.06086337,0.013105504
1.3608469,1.2140428e-05,0.48109192,6.155329e-05,0.16395684
0.5383987,0.012954112,5.509803e-07,5.5121484e-07,6.3178755e-05
0.000966732,1.5649183e-06,7.6724035e-08,1.2606758e-06,3.3796687e-07
0.54073995,1.2582196e-06,6.5191705e-07,6.60418e-07,0.49133667
0.19114867,1.1142855e-06,1.7675861e-06,5.9641064e-07,1.4823657e-06
0.74101067,2.5148718e-06,8.45059e-08,3.5454285e-08,8.978439e-07
1.3516909e-05,6.0096077e-06,7.250546e-07,3.1337444e-07,9.986651e-07
0.0069162585,2.6933908e-06,4.1503176e-06,5.1693155e-07,2.7155481e-06
0.4570742,3.2950404e-06,2.5223031e-05,1.40262e-06,2.757306e-06
9.978924e-07,3.9582314e-06,5.70685e-06,2.1887731e-06,1.9384645e-06
4.5747615e-06,3.3716158e-06,4.481471e-06,1.6055307e-06,1.277562e-06
4.3599434e-06,1.6678952e-06,1.2034096e-06,1.7347985e-06,4.8244726e-07
0.15122448,9.2615034e-07,1.9977938e-06,1.8829969e-06,4.4028187e-07
0.45203993,7.1499204e-07,1.1383058e-06,7.560263e-06,9.812267e-07
1.7963069e-07,2.468727e-06,6.3574487e-07,6.521577e-05,2.6439168e-06
2.4287995e-06,5.2779924e-06,8.821045e-07,6.902736e-08,1.577987e-06
1.1871671e-06,1.6368757e-06,5.699324e-07,2.1043803e-05,8.551106e-08
7.492127e-07,1.5607841e-06,1.5427096e-07,6.1456354e-05,4.022413e-06
5.750416e-06,5.4016374e-07,3.2597136e-06,6.59416e-06,1.6884811e-05
1.2560226e-07,2.303591e-05,4.205349e-06,2.4559943e-08,1.6431841e-07
1.0507382e-07,0.048533358,1.2580391e-06,8.004182e-08,7.659685e-06
6.435253e-07,0.1037727,0.024730314,9.847243e-06,1.8482925e-06
9.675992e-07,0.51077837,0.010740765,1.0150489e-05,0.12533179
2.0058262e-06,1.0002593,5.2255683e-07,1.4710978e-05,0.15262961
3.9249474e-07,1.4780085,9.782024e-09,0.00018318433,0.6152891
2.893601e-07,0.75253356,6.1022284e-08,5.633873e-07,0.64834845
1.0304111e-08,1.0607352,1.0153758e-06,0.00012320124,0.381306
4.529532e-06,0.11193589,3.7901666e-06,0.00035910448,0.5754005
6.644427e-06,0.0026210912,1.4043261e-06,5.760383e-07,0.097730935
9.865658e-06,0.20742719,2.0412097e-06,2.0261474e-07,0.0005247195
0.00010897028,0.20816487,1.057148e-06,5.9766796e-07,0.00018999424
0.38917753,1.3044084,2.2264176e-06,2.0556304e-06,3.9221126e-07
0.37934428,0.52746964,3.0978817e-06,5.7706213e-05,0.0005324572
1.2022443e-06,0.19430844,1.4091576e-06,1.8898165e-05,1.619888e-06
0.37738276,0.21208906,8.0665865e-07,2.2240417e-06,2.9875696e-06
0.015705142,1.0221483,4.5420543e-06,9.413325e-08,7.6971435e-07
0.0030960469,2.2778522e-06,2.1944727e-06,3.0226668e-06,1.8622917e-06
4.476187e-06,1.4340185e-06,7.68649e-05,2.6907625,2.240328e-06
0.0034655028,1.975375e-06,9.977484e-05,7.284017,3.0869728e-06
8.0653845e-05,4.341039e-06,1.331852,0.001879989,7.3775044e-07
9.223036e-05,3.3755366e-06,0.013515408,2.3070986e-06,1.5909274e-06
0.5098631,2.702392e-06,1.0866038e-06,1.0575842e-06,3.2547769e-06
1.3205892e-05,8.896113e-06,1.2695521e-08,5.18363e-08,6.294577e-06
8.832964e-07,1.1941099e-06,2.7855178e-06,1.0090448e-08,2.5868635e-06
3.9976484e-07,0.56788653,6.816805e-08,5.291693e-07,1.2419745e-05
4.1294325e-07,0.002055778,8.957343e-07,1.5587258e-07,0.000645732
0.0,0.3002362,1.1134073e-06,7.540409e-07,4.0013919e-07
6.921414e-08,7.746404e-07,5.6977956e-07,4.569135e-07,0.0084339315
4.8964988e-09,1.9639981e-05,2.6791454e-07,2.2593506e-06,0.0014282081
1.5598301e-08,6.5149384e-06,1.9787192e-06,1.163553e-06,8.7789317e-07
5.3195492e-08,1.0500149e-06,3.5463297e-06,7.216502e-07,1.073655e-06
0.00011570939,5.3143674e-05,2.5491855e-07,9.1229396e-08,3.4054967e-06
4.411787e-06,1.3210054e-06,2.0471216e-06,7.111738e-07,1.2575143e-06
4.613677e-06,1.0347535e-05,1.5793273e-06,5.4446735e-07,3.5833145e-06
5.8521086e-06,2.9772987e-06,5.7930333e-07,2.1958877e-08,9.892165e-07
1.2202962e-06,1.4141704e-06,1.9935136e-07,1.5442264e-06,3.6763815e-06
1.3155101e-06,7.9944164e-07,9.080855e-07,4.021046e-06,1.0796898e-06
2.0677696e-06,1.4328969e-06,3.3786694e-06,2.3074115e-06,1.8282398e-06
1.2592851e-06,5.493668e-07,1.6696712e-06,2.4798112e-06,1.0693219e-06
1.8748179e-06,1.9360605e-06,4.8361303e-06,5.6161666e-06,2.7549997e-06
2.9300559e-06,6.737435e-07,0.039881423,4.46114e-06,2.1383598e-06
5.651663e-06,1.8408946e-06,2.7472036e-06,1.8170932e-06,1.9483525e-06
0.0005927482,3.5271373e-06,2.0644213e-06,8.039245e-07,8.682923e-07
0.33532384,1.3542107e-06,4.96262e-07,6.4185286e-07,3.798159e-06
0.000821891,1.3872325e-05,1.8845487e-06,1.7750957e-06,1.1872071e-05
1.2302718e-06,0.08691897,9.411072e-07,3.8173638e-07,1.4302065e-05
5.8591576e-07,1.6485461e-06,2.641198e-06,1.4301983e-06,7.1438367e-06
2.0999197e-07,1.785081e-06,1.7184638e-07,7.327496e-07,4.7727764e-07
5.11933e-07,9.7028405e-06,6.9051896e-07,1.805255e-07,2.1892333e-06
6.1764154e-06,3.423593e-06,3.5295457e-07,3.3735003e-07,1.8461666e-06
5.023555e-06,1.0927359e-06,5.679947e-07,4.3859131e-07,1.4133242e-06
1.01528876e-07,6.5364037e-07,2.6053496e-07,3.4767882e-07,1.2443371e-06
8.578435e-07,9.653533e-07,2.4541225e-07,9.7700116e-08,1.5432016e-06
8.4702833e-07,5.818739e-07,2.8293965e-08,6.0871554e-07,1.7465919e-06
4.643412e-07,1.5943861e-07,2.29371e-07,2.8082952e-06,6.7778495e-07
2.7278202e-06,1.1720521e-07,1.2141352e-06,6.903291e-07,1.5638441e-06
0.34727028,8.174853e-07,1.9583102e-07,0.0002034875,1.0961979e-06
0.19314621,6.8300875e-07,0.00298371,0.03262184,6.949689e-07
0.0006875621,6.924232e-07,6.515571e-07,3.3978495e-07,1.1311929e-06
0.001324455,8.767963e-06,1.945387e-06,1.5818704e-06,3.7112264e-07
0.01636823,5.5583205e-06,2.179464e-06,0.0081424685,1.5202821e-06
0.30140665,4.1517656e-06,0.14424475,0.28014222,2.680326e-07
5.138821e-06,6.0077177e-06,0.32357138,6.390163e-06,3.1910642e-07
0.0076649706,4.0921645e-07,0.00034433737,0.56611824,4.5738548e-06
0.0035853288,3.4857073e-06,3.97257e-06,0.0004944308,2.6426892e-07
2.7514284e-06,1.7673544e-06,2.6913797e-06,0.15407833,1.2715791e-06
3.0196093e-06,7.652048e-06,5.502289e-06,2.1726173e-06,2.5437888e-07
1.252088e-06,1.6948453e-06,9.1302405e-07,4.199244e-07,7.066517e-06
1.2936133e-05,8.949079e-06,1.7855837e-06,4.109001e-07,1.7324486e-06
4.0026885e-06,2.6340501e-06,6.5903686e-07,1.018299e-06,2.4161585e-07
2.6513833e-06,0.0002225073,8.98642e-07,2.3852826e-06,3.941388e-06
2.7242966e-06,8.1811453e-07,9.2913587e-07,2.2767391e-07,0.087094754
5.8843864e-07,0.0013061769,3.9653534e-07,1.4329777e-06,0.010796683
1.2708038e-07,0.018314213,1.4127113e-06,5.9691774e-07,0.15755259
1.085565e-06,1.0169342,0.009658579,5.3365136e-07,0.55663216
5.7696357e-06,0.6598847,0.060506567,3.3367553e-07,0.7165289
0.5990751,0.66191095,0.024636311,0.14473416,0.7514794
0.8972839,0.14399801,0.048806887,0.20050907,0.6057698
0.7691336,0.071147464,0.0135800615,0.0031001451,0.1352482
0.17266433,0.014703166,0.7634716,0.09621779,0.018963652
0.26366255,0.0034182498,0.19408719,0.004498317,0.0018099694
0.13097689,6.9808026e-05,0.12976408,0.008319958,8.459253e-06
0.0664987,4.810527e-07,0.062515885,0.006647256,5.8184523e-06
0.034676094,2.9119522e-06,0.0071263127,0.011265162,4.5815773e-06
0.017266689,4.375779e-06,4.800717e-06,0.027959371,1.2886616e-06
0.001305996,3.53479e-07,1.6685717e-06,0.0009220455,2.5497755e-07
2.327853e-06,5.854306e-06,2.5233333e-06,3.2167982e-06,1.6822006e-06
3.846738e-06,2.1150895e-06,4.2704696e-06,1.0652537e-06,2.5690365e-06
1.582672e-06,1.5282607e-06,2.733853e-06,1.3852632e-06,9.2765845e-07
2.565896e-06,7.204816e-06,1.3337874e-06,1.1621858e-06,1.3327665e-06
2.5512459e-06,3.1361424e-06,3.875824e-06,6.807228e-07,1.7434e-06
3.3903589e-06,6.4746234e-07,5.6712192e-06,1.6898806e-06,1.950565e-06
7.0632694e-07,6.810169e-07,1.4352588e-06,1.78351e-07,1.6198189e-06
0.0035470566,2.3723967e-06,3.679133e-06,1.5494722e-06,2.2896538e-06
1.3082692e-06,5.748088e-06,7.026197e-06,7.250666e-07,6.75345e-05
4.277429e-07,0.34020764,0.00012386222,3.232463e-06,0.4640573
6.5367107e-07,1.6638877,0.0005354378,1.9368686e-06,0.9064517
0.390239,1.9844058,1.9441036,0.10301481,1.4139521
1.3418963,0.5105748,0.045167334,0.19861402,2.4798415
2.1048398,0.058679026,0.45082605,0.7756805,1.4503202
0.63618296,0.015449738,0.03768104,0.27813524,0.17242222
0.09004958,0.008689598,0.0072085382,0.37916163,0.030191109
0.091168426,0.008517913,0.06942692,0.763361,0.019763952
0.029636635,0.006518957,0.3985583,0.57258755,0.019376526
0.0007311683,0.0041276556,0.26079446,1.3050684,0.28659785
0.0002661566,0.0024262902,0.25754967,0.11145377,2.155151
1.0764079,0.9069299,0.18362802,0.26477286,1.3147542
1.6860704,0.7077624,0.54123574,0.48145798,0.09153205
0.19309747,0.019597843,0.99215657,0.65897256,0.03144921
9.949466e-06,0.1365283,1.7141467,0.15607531,0.4344146
0.0001486623,1.479759,1.6258448,0.37913918,0.60757506
0.3387447,0.75104254,2.734801,0.8558223,2.4469404
1.0277305,0.18952475,3.6723855,1.4874955,1.1384398
0.6389837,0.47920963,3.791318,0.68075347,1.6806997
0.43741518,0.9288201,2.2564218,0.15181588,3.116392
0.4679948,0.74212176,1.6139553,0.53016007,0.64517146
1.4773315,0.90744454,1.533885,0.842028,0.62472075
6.2047796,1.0720508,1.686135,1.6296303,0.37610123
2.3178,0.0009938735,2.0152924,0.65076816,0.2660747
2.1114411,1.5368707e-06,0.3050191,4.7673805e-07,0.16000286
2.4693263,2.44767e-06,7.5116336e-06,3.0343782e-07,1.3156558e-06
1.8917997,7.660795e-06,0.09832315,0.12602484,9.0153884e-07
0.85748214,3.348361e-07,0.58595085,0.43311492,8.140557e-07
1.0883759,0.18670046,0.00039479823,1.2568931e-07,5.478813e-07
0.98327166,1.7860591e-06,0.13213876,0.0005596436,3.4563686e-07
0.14393196,5.596676e-07,0.9144126,2.4020455,2.8101567e-07
0.11781375,4.7406388e-08,0.25331914,0.008325096,5.0438416e-07
0.031583972,4.5118647e-08,7.3442907e-06,0.0001625488,1.6372807e-07
3.5727082e-06,2.382531e-07,2.5234035e-06,1.6343478e-07,3.9750667e-08
8.131769e-07,2.9952938e-07,1.3250164e-08,2.8948811e-08,5.186876e-07
2.0005471e-07,9.249597e-07,2.7832147e-07,9.985692e-07,5.819719e-07
0.056634307,6.0077906e-07,7.1748815e-07,2.542947e-06,1.0327385e-06
2.5018024,1.3488399e-06,3.5460566e-06,2.083956e-06,8.844922e-07
6.07004e-06,2.988474e-05,2.093274e-06,3.39926e-06,0.0675178
2.4794176e-06,0.000605094,0.6214261,0.0024608555,0.25095057
0.00020911846,1.3631924e-06,0.018556602,0.23912008,7.213397e-06
0.046344362,0.000120091136,0.08493681,0.24091512,0.07688869
2.2040451e-06,0.09517185,0.06725048,2.0478024,0.0029535322
0.7140174,1.0276478e-06,1.0317311,1.1791171,0.22440042
0.0005202535,0.0051609213,0.67870134,0.26017916,0.047664292
8.6511445e-06,2.350436e-05,1.9579849,2.1721065,0.00028273754
0.029925497,9.455876e-07,0.4825489,1.3892813,1.9380301
8.988598e-05,0.20423822,0.7391632,0.026109122,1.1582106e-05
0.15578477,0.2429098,0.1487568,0.00023007284,1.3245616e-06
0.4456565,2.012467e-06,0.00011156822,0.22721428,1.6794868e-06
0.28860795,5.0915827e-07,0.009193235,0.52838093,0.11224687
2.0112782e-06,9.44641e-07,0.48720598,0.0051723556,0.6461871
0.002255811,1.4692405e-06,0.00049855554,2.5940213e-05,0.14051846
0.28725514,1.1104477e-06,6.3682717e-07,9.538997e-05,3.2267155e-07
1.6051393,5.7063653e-07,9.430919e-07,0.00026876494,8.60788e-07
0.02096216,5.6541415e-07,3.7116232e-07,9.246057e-08,7.9040154e-05
1.9769438e-06,0.00017577935,3.0238613e-07,1.3742556e-07,0.20685224
2.4429464,2.065038e-05,7.771328e-07,2.614581e-07,1.4404465e-05
0.65042436,3.967284e-06,7.912667e-07,5.519982e-07,1.6310258e-06
3.595998e-06,1.7143549e-06,6.803595e-07,1.2163355e-06,0.0009597684
0.0018649162,1.0347102e-06,2.4707392e-06,1.2667184e-06,0.0002352557
2.5767076,1.1576939e-06,1.376651e-06,2.4374503e-06,8.458449e-07
0.0036568865,5.603603e-07,3.974156e-06,1.7063572e-06,3.0292645e-07
1.3946975e-06,2.3081268e-06,5.806841e-07,2.1583176e-06,0.0003763268
1.2268458e-06,0.0005919146,3.0820693e-06,1.7052892e-06,2.2490362e-05
0.512371,0.117580526,5.7397597e-06,2.4907424,1.5158572e-05
0.020912426,1.0976573,1.4074076,0.24816392,0.0029230108
1.8367198e-06,0.14816345,0.01959523,0.11906516,4.016577e-06
2.1511298e-06,5.9521165e-07,0.00063668384,0.0001053882,7.014916e-07
1.9308773e-06,0.021710325,0.04036164,5.4975453e-07,1.0658949e-06
1.4220493e-06,1.8277071e-06,2.734673e-06,4.9816447e-07,7.684838e-07
1.9906776e-07,4.077936e-06,1.3185004e-07,6.555417e-07,2.709955e-06
1.5492043e-06,9.961749e-07,8.024074e-07,8.176843e-07,6.3128385e-07
1.635171e-06,0.0012079512,4.473165e-07,3.9483e-07,9.575812e-07
1.7949637e-06,0.025096478,0.003054221,3.095974e-07,1.5109305e-06
1.0108446e-06,0.017118908,1.8162547e-07,9.781688e-07,1.1412983e-06
8.0530526e-07,0.07095698,3.7151875e-07,8.0554366e-07,1.7215593e-06
3.298365e-07,1.4184058e-06,4.4296317e-07,2.6968999e-06,7.439027e-07
1.4762546e-07,1.5438576e-06,5.2578054e-07,2.1002492e-07,6.1983246e-07
8.0146367e-07,1.1241143e-06,1.9781007e-07,3.9979685e-08,1.8144593e-07
3.435107e-07,4.6137635e-07,7.7654036e-08,1.2583384e-07,7.5814754e-08
8.6102716e-07,0.0,2.1326133e-07,4.8203447e-07,0.0
2.9578678e-06,0.0,1.1586619e-06,4.7754902e-08,0.0
1.2446867e-06,9.614446e-07,5.551635e-07,3.2976286e-06,7.70352e-09
1.779375e-06,4.259067e-06,5.994993e-07,4.4594378e-07,3.2813318e-07
1.5035458e-06,4.303673e-07,1.3666224e-06,2.715546e-06,1.6583475e-06
3.7517382e-06,2.1635203e-06,1.6738755e-06,1.6133572e-06,8.734292e-07
4.384864e-06,3.2621801e-06,3.097615e-06,1.9520317e-06,9.058371e-07
1.374417e-06,6.712385e-07,3.0876517e-06,1.6635179e-06,7.547514e-09
3.2901514e-06,6.263394e-06,8.773468e-06,3.6784884e-06,0.0
1.7696868e-06,5.323217e-07,9.62967e-07,3.3060173e-06,0.0
4.552729e-06,1.0381494e-07,2.9492544e-06,2.7049546e-06,3.7977635e-10
2.060361e-06,2.720657e-06,1.7107044e-06,1.3156889e-06,2.7380693e-07
5.0916543e-07,9.654839e-07,7.897029e-07,7.7351075e-07,8.9139206e-07
8.638572e-06,8.7420185e-06,7.8225315e-07,5.3521453e-06,2.612761e-05
9.223197e-07,3.6847796e-06,2.3342396e-05,7.217147e-06,3.369639e-06
2.6420645e-07,0.00054344395,0.00047814046,0.00051327853,7.4744285e-06
2.4614528e-07,0.0018541364,0.00085143175,0.003006835,0.016060729
1.0003461e-06,0.01050283,0.0020543663,0.0022546886,0.00036881954
0.0061651175,0.30280402,2.3343314e-06,1.4664862e-06,0.20041746
0.076946005,0.28050575,0.30139452,1.3321114e-06,0.13584544
0.22508448,0.42049706,2.2557233e-06,0.01249316,0.5341702
0.16219449,1.4458677,0.0013435233,1.3709765e-06,0.63378257
0.08748723,0.78164065,0.012309237,0.0009850527,0.6290375
0.05791093,0.5544017,0.03720749,0.005464345,0.33817503
0.039721772,0.44722062,0.026960367,9.349761e-06,0.4141206
0.022339411,0.2293485,0.016176956,1.2691423e-05,0.40361002
0.04653482,0.12357981,0.105253235,0.35163948,0.11279403
0.07748274,0.024196565,0.52119774,0.8761167,0.021301659
0.18313554,0.011469799,0.015940245,5.8759974e-06,0.0111567965
0.32189783,0.003270357,4.5985125e-06,4.0713367e-06,0.009208193
0.17087959,0.00015579267,3.3132793e-07,7.649943e-06,0.0036229438
0.21097425,4.5968394e-05,9.50321e-07,8.968555e-06,0.013359839
0.33804494,5.093052e-07,3.246477e-06,0.000101047524,6.7192746e-06
0.52671015,1.4535449e-06,1.8085639e-06,0.0008171837,1.5644957e-06
0.16110036,7.608169e-06,3.497171e-06,0.0024267335,2.0912641e-05
0.009147725,7.069055e-06,3.7445927e-06,0.026284778,0.0014093909
0.00045651844,5.235283e-06,0.0036416976,0.08265739,0.0021578441
0.0018482296,0.020535994,0.021276774,0.169242,0.068442285
0.3017135,0.0074608205,0.035367448,0.38852707,0.044948485
0.43393162,0.053998373,0.06330633,0.38098526,0.24805616
0.356796,0.021446912,0.078093566,0.13532631,0.1466262
0.007383287,0.180819,0.0004609485,3.0511899e-06,5.16583e-07
1.4587664e-05,0.00016391011,5.700666e-07,1.6706978e-06,9.947052e-06
2.5349666e-06,1.955485e-06,2.0261703e-06,4.5455255e-07,1.8383311e-06
2.8768702e-06,3.9359097e-06,0.008395771,1.3245258e-06,2.8100387e-06
1.2013351e-06,3.125437e-07,1.05139385e-07,6.8400004e-06,7.374324e-05
8.8366136e-07,0.0017569447,0.009750744,0.0001816624,6.268716e-07
3.0503127e-06,0.0036340728,8.90751e-05,0.5166988,3.5815208e-07
7.1829646e-07,8.3501703e-07,9.730691e-06,0.00013884898,1.9778554e-06
2.2202576e-06,1.3967149e-06,4.6910304e-06,6.602874e-07,2.306244e-06
1.3274165e-06,9.6996455e-06,0.017264739,0.039907854,1.0761481e-06
2.1780165e-06,1.2558097e-06,5.4557336e-06,3.0483612e-05,1.3362124e-06
0.0015716983,1.8003395e-06,0.08920996,0.16529705,7.740052e-07
2.6475493e-05,2.931338e-06,0.15280886,0.017313123,0.043755278
1.8352721e-06,2.4717237e-06,0.114460625,9.3888746e-05,0.007324947
2.0351956e-06,2.9022794e-06,0.17258798,1.3771794e-06,7.015914e-07
2.0676807e-06,1.0345685e-06,0.012668466,3.318669e-06,0.026889244
2.2451518e-06,3.0009935e-06,0.019870132,4.4676082e-05,1.7917304e-06
2.4569365e-06,1.6043155e-06,0.0009864308,1.3498499e-06,1.6218419e-06
3.0270317e-06,4.5580427e-06,0.054663323,0.022933409,6.315256e-06
4.539378e-06,9.780487e-06,0.00026806613,0.00932141,1.3732933e-05
0.008300877,1.7336422e-06,0.000746653,0.7219874,0.0014816403
9.1805545e-05,1.0231872e-06,9.8325545e-06,3.1461794,2.1097896e-06
0.00057405024,0.08449261,0.24371515,1.3216805,0.05898606
0.043770462,0.002698761,0.0002157049,9.3425715e-06,2.437164e-06
0.029191282,0.00095395336,2.969868,1.8604914e-06,9.252949e-06
4.386613e-06,1.3142571e-06,0.01904278,0.0019428752,2.7301187e-06
3.7536952e-07,3.5705666e-06,0.09448551,0.4690284,1.942422e-06
4.8295897e-07,0.0011094771,0.00026584507,2.0356543,1.0745359e-06
3.6620096e-07,0.0032236977,0.00026538223,7.142934e-07,7.674098e-07
7.2209623e-06,1.6654129e-06,0.002638494,9.4600637e-07,0.00046910864
6.7953246e-05,0.75417125,3.6073837e-07,0.00035054935,0.7872023
6.3508355e-06,0.03406323,8.132872e-07,2.203336e-07,1.8107334e-06
1.76855e-05,3.4636125e-06,2.1620026e-06,5.7109554e-07,1.8322024e-06
1.5247288e-06,5.692375e-07,1.0699526,0.15370807,7.0545593e-07
2.9394598e-06,1.7252813e-06,5.883336e-06,0.0051660477,1.4871617e-06
1.3428335e-06,1.9065743e-06,4.6106175e-06,1.4815968e-05,8.4819834e-07
1.3700522e-06,0.013912888,0.07451946,0.23534912,3.805066e-06
6.3861667e-06,0.16072422,0.0361772,1.0122262,0.90150815
0.061707053,0.15168016,7.139238e-06,0.051312562,0.008708921
0.00092037796,0.46967638,1.2755798e-06,8.057471e-07,0.010418135
0.035587754,3.2144944e-06,0.011670265,9.765256e-07,1.3847349e-06
2.8796373e-06,1.2359724e-06,0.10645341,0.026010057,7.46562e-07
1.0371698e-06,2.1114834e-06,0.062378816,0.10145324,1.6219566e-06
7.479063e-05,5.0102877e-05,3.3626908e-05,0.55306286,1.3451967e-06
0.09853484,1.4293892e-06,1.5215023e-05,0.008936317,1.0973374
0.20217556,4.346261e-07,2.2037623e-06,0.0016743174,1.84995e-08
0.00047359022,5.186479e-07,5.51411e-07,4.4456453e-07,4.0748965e-08
0.051655352,1.7949471e-06,7.05174e-06,3.1629838e-06,1.3245749e-06
0.0016129315,5.233175e-07,0.36224607,3.2372996e-06,1.11931755e-07
6.4779706e-06,3.2546939e-06,9.684002e-06,2.757393e-07,1.266518e-06
1.7243624e-07,1.6174715e-06,3.731546e-07,2.3538813e-07,4.4417425e-07
0.04239076,2.2310956e-06,2.9582097e-08,2.1084784e-06,1.0726079e-06
0.29738846,5.5476414e-07,5.113611e-07,5.1956e-07,1.4039258e-06
0.00057350734,2.727658e-06,0.00089042314,1.8905567e-07,2.8117225e-07
0.046923302,1.638366e-06,7.5773306e-07,1.0945394e-07,3.229403e-07
0.0009196097,8.276476e-07,6.8633057e-07,1.9229839e-07,6.9002664e-07
0.010419586,1.6401558e-06,3.1099069e-07,2.3046887e-05,1.0304755e-06
0.068115644,4.1510788e-07,0.0028300257,0.0025762657,1.5695367e-06
0.12980132,8.7089535e-07,1.8584228e-06,8.7344904e-07,1.2573976e-06
0.023210922,5.254398e-07,0.0132201845,0.015556251,1.694963e-06
2.3036628e-06,1.8445769e-06,0.0003839404,9.971632e-05,1.1369424e-06
0.0073105535,2.4051046e-06,0.016153628,1.7796181e-06,1.4098664e-06
0.0003524482,2.2396946e-06,0.16828774,5.7524215e-07,1.5350839e-06
2.607519e-06,6.1581375e-07,2.6522464e-06,4.7458303e-05,4.276325e-05
0.6119375,0.17050114,9.800408e-05,2.0567247e-06,0.097029805
0.83076954,1.620808e-05,9.612422e-07,3.897198e-06,0.40920398
1.6004433e-06,2.486354e-05,2.372533e-06,6.824538e-07,1.4995389e-06
1.37029e-06,3.0520785e-06,1.712105e-05,8.8199465e-07,9.1899057e-07
2.3484558e-06,2.304837e-06,1.3645528e-06,7.3975e-07,8.502029e-07
2.8150993e-07,1.1429114e-06,1.0889833e-06,9.444273e-07,1.3843481e-06
6.8818326e-06,3.2203789e-06,1.915562e-07,3.9841422e-07,2.0183313e-07
6.6582857e-07,9.748737e-07,2.9572445e-07,6.592837e-07,1.6137379e-07
4.5529723e-06,3.40832e-06,6.1296424e-07,1.335692e-07,1.2728829e-06
6.1870367e-07,3.7508696e-06,8.2257185e-07,1.2723848e-07,2.6704752e-06
1.1007116e-06,2.074959e-06,5.615514e-07,4.826952e-07,3.011566e-05
2.870131e-06,1.4329479e-06,7.1103777e-06,3.2199537e-06,4.2902675e-06
1.1758349e-06,1.3187256e-06,6.2984905e-06,1.9985125e-06,0.0021753893
0.011052312,2.2253935e-06,8.480694e-06,6.45575e-05,0.1127274
0.24652083,0.07546082,5.150402e-06,2.1700862e-06,0.0685827
0.00014423659,0.21277416,8.214892e-08,5.246263e-06,0.17920941
2.6326409e-06,2.2225756e-06,5.126652e-06,0.0012673005,6.001752e-06
0.034265928,6.9974146e-07,0.025971483,0.015825877,6.7728593e-06
0.032018196,1.1659805e-06,0.055207662,0.027461443,3.3654467e-06
4.278742e-06,9.332323e-07,0.11645087,0.09069576,7.4154144e-07
0.041883267,1.4196252e-06,0.043853678,0.0061607566,1.4444151e-06
0.028222105,4.230503e-06,0.006108565,1.6604721e-06,1.345498e-06
0.0087426035,9.149785e-07,0.0013970832,8.6079865e-07,2.8978538e-06
7.867648e-06,1.9344299e-07,0.00028478733,1.5026073e-06,2.594952e-06
2.6533115e-05,1.7302268e-06,0.00038975952,2.0357938e-06,1.8956002e-06
0.016577354,1.1968128e-06,0.019332523,1.5368134e-06,5.779864e-07
9.001421e-07,1.0719317e-06,0.012358707,2.6838695e-06,3.5191874e-06
8.908367e-07,1.1623351e-06,0.07091147,1.8158235e-05,3.1787783e-06
1.989752e-06,2.0716636e-06,1.5456082,0.028231231,3.5528276e-06
3.3430792e-06,1.7350065e-05,1.7862401,0.20158301,0.0023184267
5.9399093e-07,0.0056714886,2.2407973,0.43573597,0.00024206293
1.8070391e-06,0.011532307,1.3397814,0.12108826,0.017211752
1.4222152e-06,0.027764842,1.0678406,0.12020197,0.023155216
0.00024232344,0.19312438,0.9558251,0.15536647,0.06760122
0.00043590533,0.48005015,0.8793003,0.1431588,0.33341235
0.0014171972,0.29541218,1.2145756,0.08623769,0.6689171
0.005235792,0.26918226,2.2816331,0.10934336,1.0476838
0.052626014,0.38193002,2.105366,2.4640005,2.0182295
0.05918092,0.66836405,2.6443424,1.7437015,2.743289
0.0007063932,2.0239275,2.304252,1.4642936,2.432773
2.8345537e-06,3.730424,2.3796828,1.0786254,3.3962238
1.9752124e-06,3.6577811,1.9818717,1.2225759,2.23498
1.0561174e-06,1.7572362,2.1425245,1.0997678,2.1880977
2.392099e-06,1.2686291,1.4600652,1.314125,1.3616731
0.00050460146,3.1387548,0.44852513,0.62238216,1.6592383
0.87933993,1.9869716,0.3869546,0.0022280933,1.6429974
4.634305e-05,1.4615698,0.2779223,0.16554813,1.2254637
0.49518004,1.2699598,0.5274529,0.0036808983,0.4241802
0.5630838,0.03375588,0.10272294,1.7022194e-06,0.06195011
1.6854435,0.00033337498,0.029541278,5.9613944e-06,0.022742897
2.7580996,1.4521669e-05,0.19440487,0.000107983265,8.1960496e-07
1.6438972,1.2560564e-07,0.08794714,2.1837688e-05,1.5536923e-06
1.2473204,1.6976314e-06,0.011253247,7.532612e-06,5.3095673e-06
0.13144492,1.0021756e-06,0.22261222,1.6365689,0.5413085
0.4036583,8.534916e-07,0.17680801,0.014218691,5.2456486e-05
0.054381248,7.292084e-05,1.9207651e-05,0.010349714,3.3768392e-05
4.881062e-07,0.0010738184,8.424957e-07,0.011507747,1.367948e-06
9.172977e-08,1.0315189e-06,1.0178624e-06,3.2103014e-06,2.2041402e-06
9.342852e-08,1.9720828e-06,0.011598083,7.084237e-05,1.6205591
5.3030288e-08,1.6040815e-06,0.62315935,0.37211835,0.6356034
2.388803e-07,8.971306e-08,0.0024344784,6.409013e-06,3.5716468e-07
5.8550466e-08,2.0648728e-05,0.0028221034,6.339303e-06,3.2585024e-09
7.437682e-08,1.2908435,0.00018267115,2.1917253e-07,2.199714e-06
6.13446e-07,0.007971476,3.8983097e-05,0.11956211,6.8470596e-05
1.6220312e-06,1.9675192e-06,2.5760235e-07,0.62325394,3.966739e-05
4.4825384e-07,1.0404493e-06,2.75763e-07,1.13397206e-07,0.00060937373
5.466467e-07,1.5958161e-06,5.7209525e-07,9.1303787e-07,5.5520263e-07
1.0649302e-06,5.5469295e-06,1.2501662e-06,2.3683433e-06,1.126188e-06
0.19632684,1.7762281e-06,1.3310574e-06,3.0159026e-06,2.0606205e-06
0.17550129,8.5343044e-07,2.6609803e-07,1.9699347e-07,1.1641741e-08
7.455347e-07,7.491546e-07,1.1619125e-06,1.3285496e-06,1.2674695e-06
0.0033404073,1.3016407e-06,1.5814526e-06,7.282952e-07,2.8611555e-07
0.010565046,1.0895766e-06,1.1040848e-06,6.172694e-07,7.764948e-07
0.0069083734,0.0017866096,1.0214528e-06,1.7388401e-06,2.0156016e-05
4.4393514e-06,0.2816374,5.672348e-06,4.9903497e-07,7.1849804e-06
4.752904e-06,1.6538132e-07,0.0001338578,0.05659728,8.7926895e-07
1.3491829e-06,0.00039859657,0.098183565,0.3760014,5.411721e-07
0.0012289066,6.7708953e-07,0.08282824,0.005832549,6.01245e-07
0.0974768,1.162374e-06,0.0049022934,0.54930395,3.210268e-07
1.5325655e-06,1.8646102e-06,0.5188586,0.00029312444,9.939756e-07
1.0371082e-06,3.246774e-06,0.060488515,0.020027505,3.4990796e-07
3.703953e-06,8.2340915e-07,0.34387144,0.09019612,2.1547744e-07
8.446125e-06,1.2019683e-06,1.4515163e-06,1.0402678,3.1910827e-07
1.9954405e-06,3.1980906e-07,5.516576e-07,0.18057662,7.661023e-07
1.1388014e-06,7.715429e-07,1.3112501,1.4985383e-06,8.910738e-07
6.299247e-06,1.871148,1.6800647e-07,1.5648111e-06,8.1689313e-07
1.4421415e-05,3.7256445e-06,2.2658938e-07,0.66281956,7.196879e-06
4.5521533e-06,2.4141214e-06,0.047340974,1.4720483e-06,1.6764058e-06
9.988442e-06,0.0035250948,4.1486848e-07,2.063438e-06,1.5385252e-06
1.8990144e-06,4.2552662e-07,4.93891e-07,1.5817653e-06,0.009324398
7.7972726e-07,3.6431422e-07,1.3876534e-06,1.3732273e-06,0.015319354
1.5243495e-06,1.5530136e-07,5.1450115e-06,2.5819006,1.7975271e-06
0.0013280786,4.2212994e-07,0.0025485952,0.9492986,2.3783482e-06
1.4538424e-06,3.2261976e-06,1.2781247e-06,2.4777472,5.080342e-07
1.0062369e-06,0.11989787,1.4610875,0.0025193407,0.056033038
5.4776184e-08,8.17534e-06,0.29542646,0.0010816319,0.06425129
2.628338e-06,2.2845986e-06,0.21237768,0.20462508,0.0015140822
0.0009665452,4.5793454e-06,0.2640462,1.1613922e-05,4.3183168e-06
0.67980325,1.0005176e-06,0.22530435,1.23686e-06,6.2582703e-06
2.5790783e-08,4.834845e-07,5.0296086e-07,6.59035e-08,1.9109728e-05
3.7366997e-06,2.2734994e-07,1.6826984e-07,8.8433964e-08,1.2851719e-07
0.0020364916,2.9264618e-06,4.0299855e-07,1.2871448e-07,4.3477556e-07
1.2568294e-06,2.875565e-06,8.704042e-07,1.33373e-06,3.6001714e-07
3.9566517e-06,2.8622978e-06,0.011888548,1.5278679e-06,1.3037504e-06
9.6345566e-08,4.860558e-06,0.070116974,0.22063982,2.0803877e-06
