"[299, 255]","[227, 248]","[287, 319]","[279, 328]","[230, 262]"
0.0,0.0,0.0,0.0,0.0
0.0,0.0,3.0549447e-07,0.0,4.5511683e-09
0.0,1.6074997e-08,3.108198e-07,2.437147e-09,9.2955624e-08
0.0,2.2073483e-07,4.5409925e-07,0.0,8.6512824e-07
0.0,6.7314616e-08,1.8122876e-07,2.6645083e-07,7.0253435e-08
4.5668096e-09,1.3479358e-08,3.0651698e-08,1.4212252e-06,7.32311e-08
1.1053176e-09,4.524028e-08,3.4595596e-10,1.38134055e-08,1.6701165e-07
5.471611e-10,1.4940648e-06,0.0,7.507308e-11,2.8208112e-07
0.0,8.4548566e-07,0.0,1.0756967e-07,1.8779777e-07
4.893908e-09,2.5526535e-06,0.0,2.8263647e-08,4.902717e-07
6.235646e-08,2.1995687e-07,0.0,0.0,3.2646124e-06
0.0,6.333882e-08,0.0,0.0,6.9839324e-08
1.7543226e-08,1.878833e-09,0.0,0.0,4.5300155e-08
3.42524e-09,2.2455822e-09,0.0,1.4097092e-08,1.4621791e-07
0.0,1.9059021e-07,0.0,4.717761e-06,1.4825952e-06
5.4669705e-08,2.0131718e-05,4.9507584e-08,1.2845242e-06,5.6281828e-05
1.2062739e-08,6.4223536e-06,3.3186127e-06,1.1682433e-05,7.0739757e-06
3.787098e-09,2.641048e-06,1.0499549e-05,4.567403e-05,1.7931488e-05
1.50654e-07,5.7457993e-07,2.454933e-06,5.7820078e-05,2.0312931e-05
6.8667634e-07,3.369162e-05,4.8046177e-06,1.6768604e-07,2.8163513e-06
5.589866e-09,8.801784e-06,2.2002744e-06,7.605758e-05,1.18826065e-05
4.883355e-08,1.045411e-06,4.3444106e-06,2.6186672e-07,2.1066378e-06
2.3937474e-08,3.0954027e-06,3.0129622e-06,2.5325282e-05,1.0076933e-05
3.8646675e-08,2.5454188e-05,1.4864984e-06,1.8977434e-07,1.9942898e-05
2.895665e-07,0.034448493,1.2548408e-06,1.8301851e-05,1.2035103e-05
1.1390101e-06,2.0200945e-07,7.879447e-06,1.7429535e-05,0.17510642
6.594786e-06,4.0498335e-06,2.5354364e-05,0.24711382,2.0833337
2.3062669e-06,8.1236485e-06,0.00022863966,0.015505516,0.28217727
1.1502071e-06,9.765791e-06,0.0017031818,1.2802581e-06,0.05537061
3.9667356e-07,1.6362495e-05,0.008482074,0.32107526,0.59579265
1.741981e-05,0.0014068034,0.06654062,0.011249494,0.117228515
1.1203141e-05,0.01663518,0.07410843,0.5158259,0.05226767
2.1301903e-06,5.546798e-06,0.13334069,0.016033052,0.00018353634
3.3490815e-06,0.001112459,0.114322215,0.28545088,0.12627932
2.7902752e-07,0.0059002354,0.096066475,0.24412803,0.0468958
1.78494e-05,1.2447965e-06,0.07457459,0.0005201474,0.0036865727
5.9639347e-05,1.5892444e-06,0.18393901,0.0016861183,0.18338673
8.3433355e-05,6.296019e-06,0.22007795,0.0022511063,1.6633606
0.0018222026,0.004852485,0.17794916,0.061799247,1.4654807
0.037736356,0.4575326,0.4086684,0.3319917,1.3697023
0.16366228,0.03319399,0.32822213,0.6545363,1.1995267
0.012078333,0.5926513,0.3560613,2.8644001,1.455652
0.052678816,0.5307939,0.20377645,0.042049263,1.5741333
0.03193765,0.027576914,0.43247598,0.58599764,0.0051094415
2.5226308e-07,0.09961061,1.1729198,0.10913825,0.8046211
0.49018767,1.2531503e-06,1.690765,1.2525364,0.98505056
0.59733635,0.22450988,0.91593665,0.14966263,0.18031305
6.392494e-05,0.026558597,0.49308437,0.04093679,0.015294092
2.4462777e-06,0.54341626,0.13083725,0.028986258,1.6347243
0.5558585,0.016815437,0.008497496,9.42892e-07,1.3171668
0.97514254,0.33321157,0.002247816,5.238912e-05,1.1479032
0.5549062,0.66955215,0.020848509,0.00048633557,0.3415833
0.055253807,0.15852106,0.0081030885,0.008155551,0.09837638
0.08088456,4.1720295e-06,0.011524226,0.016188992,1.3492215e-06
0.20790645,3.714689e-06,0.012759955,0.03648406,0.10307858
0.12454867,4.0973355e-06,0.00804351,0.034634113,0.11182878
0.14922184,0.00088689005,0.0016172122,0.00014263538,0.03698969
0.0966703,0.00419208,8.562212e-07,2.5860678e-07,0.02006887
0.09664154,0.00025145995,0.0011019707,1.2682145e-06,0.059994034
0.14994334,0.00018775101,4.2968333e-07,4.847607e-06,0.07712037
0.13812786,3.7112666e-06,1.7951005e-06,2.0729253e-06,0.08517087
0.124276645,3.7733244e-06,4.280996e-07,4.3628307e-07,0.06431355
0.106695004,5.0839926e-06,4.1097582e-07,1.2284849e-05,0.0033685374
0.18774731,4.4537196e-06,2.2685151e-06,2.4574207e-05,0.001195284
0.12570216,7.488851e-06,5.269646e-07,1.9763017e-06,3.854597e-06
0.05464593,1.7504342e-05,1.2971828e-06,2.4109862e-05,6.7794817e-06
0.0151194455,7.951491e-06,3.6136123e-07,9.02999e-06,2.1058237e-05
0.017818898,1.7598603e-06,3.248544e-05,1.1564582e-06,3.9927845e-06
0.018561544,5.26069e-06,0.0036944663,2.0064158e-06,0.013603365
0.013735751,1.4232964e-05,0.19465807,1.1989736e-06,0.0014172096
0.008922978,4.635445e-06,0.0006998928,0.0018491505,4.860109e-06
0.0057456912,6.372805e-06,0.0014519815,2.399171e-07,2.049071e-06
0.010738573,1.09932835e-05,0.0076687816,3.35875e-07,3.4165123e-06
0.005482827,9.383597e-07,0.001334036,9.200962e-07,5.0369806e-07
0.0023751503,2.1766018e-06,0.010769623,2.4705088e-07,0.00018236905
0.0005486704,0.0039660144,0.1067898,1.7403816e-05,0.017821996
0.00040099394,2.5243796e-07,0.799445,0.004102559,2.3578905e-06
0.0002845924,3.8211597e-06,0.66485184,0.07521683,1.4349187e-05
0.00027080622,4.3094155e-06,0.18219693,0.009887366,1.3922105e-05
3.3356406e-05,1.6007896e-06,0.41453847,0.021464227,1.5069068e-05
6.2369704e-06,3.8813214e-06,0.5805203,0.008566732,8.77634e-06
1.5999965e-06,1.0901341e-06,0.4406806,0.021144645,3.4653545e-05
1.9116553e-06,1.7789206e-06,0.38787836,0.7143714,0.016259557
1.8910948e-06,1.8072767e-06,0.44769752,0.7982497,0.018355157
3.7270456e-07,5.0673935e-07,1.5168878,0.4404096,1.8441034e-07
0.10773841,1.3068359e-06,0.9129592,0.33808684,4.273603e-07
0.0017426714,1.4491159e-06,0.7883832,0.27656028,7.9249736e-07
6.142999e-07,1.2005789e-07,0.57122856,0.044697043,7.197791e-07
5.518029e-07,5.0099976e-07,0.5065718,0.06049397,2.6719583e-06
6.837558e-07,2.650394e-06,0.3925122,0.06922013,1.7137033e-08
1.789611e-06,3.5561718e-06,0.25681567,0.060470194,5.509138e-08
1.4330257e-06,2.2195973e-06,0.23837554,0.036435224,1.3166796e-06
5.4971673e-07,3.8906414e-06,0.1648148,0.08450363,2.0031134e-06
1.6826118e-06,1.7112815e-06,0.16198097,0.25366995,1.6292016e-06
4.1279986e-06,9.97773e-07,0.16895144,0.22488756,2.0112498e-06
3.182696e-07,1.8625786e-06,0.1403444,0.18775958,4.8891087e-07
6.189045e-06,3.326677e-06,0.12178059,0.08897716,8.151706e-07
7.42426e-06,1.596345e-06,0.126436,0.1448945,3.2350065e-06
5.641009e-06,4.957019e-06,0.24832168,0.061826058,2.2861152e-06
1.5071831e-05,1.0338891e-05,0.1009454,0.024593268,1.294061e-06
0.0011862181,2.7584863e-06,0.01445949,0.008703183,7.0141056e-07
0.0036815496,2.8446332e-06,0.000394688,7.5091357e-06,3.0136068e-06
7.226436e-06,1.4670153e-06,0.029458327,6.433061e-08,3.068887e-06
1.2354209e-05,1.8141452e-06,0.07522863,8.3303667e-07,1.367726e-06
8.355014e-07,0.07706811,0.18374987,0.004854625,0.004811634
1.0890789e-06,0.023569243,0.24215546,0.019111702,7.424205e-07
1.1686021e-06,2.0273546e-06,0.2896182,0.0008575231,8.5287985e-07
1.076975e-06,2.8377633e-06,0.13970323,1.102914e-05,1.9711078e-06
5.3382966e-05,3.128405e-06,0.13124442,3.0336696e-05,4.9456053e-06
2.0369887e-06,2.1613778e-06,0.10524506,3.0183444e-06,7.590547e-07
7.877945e-07,1.371016e-06,7.4705995e-06,6.8877466e-07,4.190202e-06
5.1044003e-06,5.024025e-07,1.555416e-06,1.113775e-06,4.037047e-07
4.5232237e-06,8.05207e-07,1.5456391e-06,4.3463856e-06,6.120306e-07
1.4356544e-06,4.2440615e-07,0.0022911653,0.011678915,5.0078455e-07
8.759274e-07,1.972598e-06,0.08282329,0.05717784,5.8013126e-07
7.3611704e-07,1.641073e-06,0.235769,0.12630308,4.1011864e-07
3.2478565e-07,1.8705817e-06,0.4827532,0.12351261,4.8280885e-06
1.172319e-07,4.915644e-06,0.3154069,5.61143,0.119579926
4.0603356e-07,0.0032443053,0.19259727,1.9240417,0.10555536
4.984606e-07,0.364645,0.7719483,0.11453757,0.26581666
5.929793e-07,0.80605507,0.009176241,0.07670259,0.20171477
1.3038639e-06,0.07181998,4.2703555e-06,0.14911748,0.16109532
3.5343027e-07,0.11411052,0.0036904942,0.19628327,0.4343172
0.021142267,0.6609043,0.01332921,0.09972751,0.67794067
0.4616891,0.41236633,0.0019499448,9.9164696e-05,0.5595934
0.4660927,0.18769762,2.3652885e-06,3.6976678e-06,0.08201784
0.17947125,0.07054644,3.6193414e-05,4.4797457e-07,0.031183807
0.117039524,4.4252818e-05,8.4780055e-07,3.4491957e-06,1.94769e-06
0.04873397,2.9787805e-07,4.1807698e-07,9.199554e-07,4.6894664e-07
0.055646755,3.3305332e-05,1.3266865e-07,1.1290791e-06,3.7878366e-05
0.02523542,6.7316076e-05,3.8522363e-09,0.0,2.8432883e-06
2.0423133e-05,2.261547e-05,0.0,1.20537935e-08,1.2330036e-05
5.6693767e-05,6.984844e-05,4.159796e-07,9.517849e-10,4.532159e-07
0.00021419265,2.785904e-05,5.874487e-07,4.4684903e-08,2.1310258e-05
0.0307418,0.22105381,1.1860524e-05,1.9180873e-06,7.791227e-06
0.09856073,0.12856819,0.00019366828,7.86375e-06,0.2931611
0.12689814,0.12526467,0.00084239925,0.0004486713,0.8033165
0.053826477,0.22867498,0.010051045,0.0003321634,0.30095202
0.010121682,0.27963662,0.26694357,0.13567977,0.47553283
0.017017202,0.099931814,0.2717412,0.3695212,0.43044913
0.005461354,7.0454473e-07,0.65944195,0.43473876,0.05712381
0.0012931942,4.8670422e-08,0.8589435,0.5227559,6.7113683e-07
0.00036134943,4.0114156e-07,0.35367507,0.9335309,9.086336e-07
3.6366757e-05,6.081175e-06,0.2685059,0.35738814,7.299892e-08
0.000534647,4.4086414e-07,0.0756602,0.064292684,2.2202719e-06
0.00015022089,1.2829474e-07,8.165672e-06,0.001259233,4.1613685e-06
0.00017346813,0.059867036,1.14865394e-07,1.0053004e-06,0.15361327
8.161981e-05,1.0990617e-05,0.008831338,5.8989055e-05,1.7366962e-06
1.703566e-05,2.263293e-07,0.07747832,0.27704814,4.5292e-07
0.00011001167,4.1738392e-07,5.4000247e-05,0.46381894,3.9869718e-07
0.0003761721,0.043288667,0.20985933,0.025111385,3.734694e-07
0.009486875,4.1653834e-07,0.09652656,0.0011769002,0.17926785
5.70852e-06,2.482025e-07,2.5023496e-07,6.515779e-05,5.390062e-07
3.5859584e-06,5.661818e-07,1.9148151e-06,0.0005558228,8.681019e-07
2.3859561e-06,3.6547982e-07,1.5146663e-06,0.005100002,1.139621e-06
2.2775887e-06,0.03988801,1.2272351e-06,1.4202523e-06,1.7202163e-06
1.7383165e-06,0.00077401375,1.5628747e-06,2.0894536e-06,1.1734384e-06
7.204908e-07,0.6108772,3.6665898e-07,3.1778934e-06,2.482806e-06
6.994306e-07,0.2278776,1.0989437e-06,8.2275676e-07,0.08434492
7.5338767e-06,0.14503221,7.9922467e-07,1.9713617e-08,0.054604266
4.044024e-06,4.3041445e-07,1.2344605e-06,1.0888107e-06,0.0009025912
3.2330237e-07,1.0178941e-06,0.00019022988,1.7032335e-05,7.03211e-07
1.1098604e-06,6.2919173e-07,0.0052655344,2.2990373e-06,1.0937863e-06
7.923872e-06,5.5744515e-08,0.011830025,4.5014338e-07,7.4180974e-07
0.0039171753,1.009541e-07,6.1377074e-07,1.5672403e-07,1.2179198e-06
0.0013026453,1.4260947e-07,7.16736e-07,1.0144586e-06,1.7346474e-06
0.0023088052,1.9119464e-06,3.8557616e-07,1.843645e-06,2.0273562e-06
0.0066211578,6.856564e-07,3.776204e-08,6.567846e-07,1.8216186e-06
0.0009097719,8.352852e-06,2.2107074e-07,7.922018e-06,2.41452e-06
8.894128e-06,1.9075553e-06,7.946044e-07,4.6489145e-06,1.9393524e-06
1.3554387e-06,2.1177095e-06,3.4451198e-06,1.6268058e-06,1.4618205e-06
1.0245236e-05,5.925139e-06,1.910481e-06,1.5519573e-06,9.3412837e-07
3.5086862e-06,0.08415705,2.8601742e-06,1.3357593e-06,7.483756e-07
1.729658e-05,3.358155e-07,3.370303e-06,2.993396e-06,6.568658e-07
3.2838523e-06,6.855128e-07,1.6455677e-06,1.7361162e-05,8.172846e-07
6.266141e-06,4.0944815e-07,9.397025e-07,3.078583e-06,2.1976061e-06
7.6196297e-06,2.7172614e-06,3.1491703e-07,9.4580776e-07,2.5615026e-07
3.750779e-06,1.4060918e-06,1.3864338e-08,2.9553162e-06,4.151343e-06
4.3865307e-06,1.1505481e-06,0.020182494,4.782382e-07,1.066958e-05
1.2893197e-06,3.0506577e-05,5.448345e-07,9.482434e-07,2.0354298e-06
1.774975e-06,6.463998e-07,6.764269e-06,2.3753519e-07,1.174965e-05
5.6157813e-07,6.156224e-06,1.4528861e-06,7.963725e-07,1.8571038e-06
6.6689853e-07,3.3060805e-06,2.2958836e-06,1.4003862e-06,6.564061e-06
9.2753714e-07,3.2487884e-07,1.3349612e-06,1.3442045e-06,2.5183851e-06
3.6667536e-06,4.835279e-07,1.4162002e-06,1.2140924e-05,9.156032e-06
5.6344037e-05,9.6352245e-08,6.534192e-07,2.0372624e-06,3.5781133e-05
0.00014385811,1.6242082e-07,9.68162e-07,1.5271078e-07,2.629188e-05
4.2342813e-06,1.2701616e-06,4.7227283e-07,2.0269265e-07,2.3454636e-07
2.5772933e-06,1.2387621e-06,7.4618356e-08,4.861509e-07,1.4815506e-06
1.9471547e-05,1.0477976e-06,2.5070622e-07,3.5991695e-07,3.3996182e-07
2.46257e-07,1.0922578e-05,8.0114324e-07,3.048367e-06,6.7863825e-06
0.007067291,3.631653e-06,1.754489e-06,7.668856e-08,3.2486423e-06
0.00046167563,1.9148633e-06,1.8239674e-06,4.2909332e-06,1.8680137e-05
6.7824476e-06,2.2892084e-05,1.0880793e-06,2.0265702e-06,3.9129773e-05
0.007418274,6.6609246e-06,5.5707e-07,2.6230418e-06,1.6140719e-05
0.042686664,4.829705e-06,1.67667e-06,1.3244836e-06,4.0788495e-06
1.2389359e-06,2.9524783e-05,0.003392642,0.00018784826,2.6837176e-07
3.3076487e-06,3.0410032e-05,0.018973771,5.7129523e-06,4.5342167e-05
9.0907764e-05,1.0276966e-05,0.054123044,0.14969836,7.48046e-07
0.00022765528,8.944294e-06,6.5742296e-07,0.000515115,4.7740497e-07
0.0017568414,2.3976938e-05,1.4748063e-07,9.90707e-07,8.203301e-06
0.0036355273,2.2371237e-06,8.1426566e-07,1.3474796e-06,2.785199e-06
0.0022998163,3.2283482e-05,2.675316e-07,6.3905065e-07,9.984929e-07
0.0031536827,1.0640942e-06,1.6096589e-06,9.089643e-07,8.6717193e-07
0.0004122052,9.845874e-08,2.8452168e-06,9.182295e-07,1.4367354e-06
4.72201e-05,1.1948208e-06,2.9901607e-06,2.490108e-06,2.5559875e-06
2.8750748e-05,2.9467192e-06,1.7053377e-06,1.8842596e-07,5.1019592e-06
2.0309453e-06,2.4240221e-06,1.1017654e-06,9.463483e-07,3.1859088e-06
6.095003e-06,1.4134742e-05,2.5052645e-07,7.668557e-08,1.6752663e-06
0.0010860567,4.522923e-07,4.0268603e-07,1.5117841e-08,8.330395e-07
0.0017810478,6.9494985e-05,3.077697e-07,1.1740275e-07,5.97003e-08
0.0033857957,3.2443907e-06,5.4189246e-07,4.7516113e-10,1.1291273e-05
0.003387346,1.228012e-07,1.0791231e-06,0.0,2.4684564e-07
0.003462293,4.161003e-07,5.475954e-06,0.0,2.0802659e-06
0.008414547,2.6573093e-07,1.9125089e-06,0.0,2.718083e-07
0.00892062,3.6165613e-07,1.2552665e-07,6.516425e-07,2.9029088e-06
0.011005954,3.0249598e-07,1.2015693e-06,5.0687066e-07,4.215498e-06
0.038694035,6.3413427e-07,4.301595e-06,4.4514477e-06,1.7031113e-06
0.058990773,4.3200967e-06,1.9840438e-06,3.3289084e-06,1.3149432e-05
0.016536586,2.0424077e-06,2.9733262e-06,1.218634e-06,8.259286e-06
0.040756598,2.2816853e-06,5.482206e-06,1.5670158e-06,1.1924715e-05
0.012255719,6.042833e-07,5.9474273e-06,2.3239868e-07,6.7237033e-07
0.03802268,1.2142943e-06,2.2149175e-06,1.2969873e-07,6.299104e-06
0.19826278,2.3641671e-07,4.8743163e-06,2.3624919e-08,7.830556e-07
0.4925516,4.171698e-07,3.277047e-06,5.891139e-07,4.4176292e-07
0.66573054,5.6117962e-08,3.7815842e-06,2.5349377e-07,1.3998005e-06
0.70899826,9.644373e-07,1.157548e-06,5.1897337e-07,1.9772195e-07
0.34389678,1.5037743e-06,5.217176e-07,2.818003e-07,7.5004004e-07
0.1580227,7.6386493e-07,2.5246925e-06,7.4016256e-08,1.2693175e-06
0.052380178,1.0764757e-06,0.0012327717,3.1189788e-06,1.396521e-06
0.026781056,1.7380673e-06,0.00028873823,1.4112394e-06,1.1830759e-06
0.01803458,9.382853e-07,7.3703544e-05,8.718334e-07,1.9306058e-06
0.015690135,0.04801953,0.00022835964,6.323404e-07,3.3162982e-07
0.00867864,0.012603206,0.0030401028,4.839854e-06,0.00017545589
0.007885312,3.5429142e-07,1.5562435e-06,0.0072071655,0.00524841
0.033672336,4.0144747e-07,7.5338414e-07,1.426428e-06,6.57968e-07
0.026859391,1.6193601e-07,9.782532e-07,1.3292073e-06,2.3381435e-06
0.36913654,1.3103049e-06,2.878309e-07,1.9323726e-07,9.799212e-07
0.02602525,5.5184137e-07,1.60711e-07,1.9018785e-07,3.2572922e-07
0.025193807,1.0788941e-06,2.2833806e-06,9.4605966e-08,1.6391648e-06
0.0111608,1.9934694e-06,9.601594e-07,9.761106e-07,9.2856163e-07
0.00038976118,4.2912762e-07,7.0044183e-07,4.6093353e-07,2.9720215e-07
0.00019910795,2.5951083e-05,3.4099044e-06,6.008842e-07,5.3932496e-07
0.010246006,0.0017586952,3.5947232e-06,2.668231e-06,3.050581e-07
0.0006885657,0.001762374,1.2163681e-06,4.9475307e-07,4.29489e-07
0.01281786,0.00441084,3.1426995e-07,9.727071e-07,6.562699e-06
0.01597044,0.002096422,1.5851945e-06,9.848579e-07,1.070351e-06
4.1891846e-05,0.00037003896,2.509748e-06,3.7329448e-06,8.477477e-06
0.015812889,0.0029773964,8.533454e-07,1.5362878e-06,2.1863352e-05
0.00012289813,0.020929404,1.0490885e-06,2.5998528e-07,2.688409e-06
1.7439688e-05,0.0004524704,4.525698e-06,5.8735545e-06,1.2781932e-06
2.2787892e-05,0.010219549,1.7963856e-06,1.924343e-06,2.3054733e-06
0.002247067,8.0414675e-06,1.2613547e-06,1.3571475e-06,5.1579323e-06
0.006577255,5.6450426e-07,2.0944893e-07,4.312205e-06,2.7919943e-06
0.0025770436,4.3488282e-07,1.9750232e-06,6.887079e-07,5.63186e-07
7.297189e-05,9.8635844e-08,1.410118e-06,2.1552016e-06,1.6632913e-06
0.0012167707,0.05136479,1.4854448e-06,2.973147e-08,5.7569383e-07
0.00041071506,1.0608064,5.35911e-07,2.654064e-07,2.6168611e-06
0.0003985364,0.8490826,1.0028283e-06,3.1372667e-07,2.9237097e-07
0.002326815,1.3888841,1.4935073e-06,1.3885304e-07,8.798542e-07
0.0023256757,0.88044494,2.7797064e-06,5.908335e-07,7.871293e-07
0.0014022683,0.07857539,9.208211e-07,4.854774e-07,1.6086973e-06
0.00010943413,0.263033,3.354575e-06,3.0564496e-07,0.05878744
9.729245e-06,0.13059722,1.811461e-06,1.5907211e-06,0.08835842
4.8663034e-05,0.014745481,4.0197742e-07,1.3178205e-06,2.436646e-05
3.079084e-05,0.004067377,8.659905e-07,7.16505e-07,1.1771814e-07
1.4917173e-05,5.6669533e-06,3.352833e-06,1.3900511e-07,8.803664e-07
3.1625845e-05,1.1254562e-07,5.100892e-07,5.997873e-08,6.979952e-07
2.8149345e-05,1.6162898e-06,1.0647664e-07,1.8388963e-07,1.5204778e-07
1.488693e-05,5.290634e-07,2.0680034e-05,2.114009e-06,2.1938213e-06
1.8024277e-05,6.72312e-07,1.572893e-05,2.5598007e-07,1.5181603e-05
1.0555686e-05,1.425402e-06,7.2108505e-06,3.5069036e-06,0.021217912
3.100225e-06,5.4222033e-07,1.3062571e-06,2.1139533e-06,0.111030765
1.6297624e-06,1.750762e-07,4.635019e-07,5.497857e-06,0.0013432587
6.853674e-06,1.6719018e-07,3.3004076e-06,8.248883e-07,4.968988e-06
4.9347204e-06,4.4902426e-06,1.5810003e-06,1.3955878e-06,5.1127495e-07
9.4305125e-07,1.0819175e-06,0.021714287,4.2683038e-07,7.1756745e-07
1.4268271e-06,1.3347968e-06,5.9799396e-07,1.645732e-06,1.6961582e-07
3.9151246e-06,3.7162422e-06,1.3960412e-06,3.821428e-06,5.1700806e-07
0.0067811785,5.179745e-07,2.6420767e-06,2.8016022e-06,1.1947227e-06
0.00068803004,1.0522246e-05,3.79461e-06,1.7778675e-06,0.00025696986
4.97125e-06,1.5218247e-05,9.664803e-07,1.3201638e-06,0.029975276
7.4898606e-05,0.04650165,1.2906652e-06,1.5455648e-06,1.4886158e-06
0.00063616136,2.4434792e-06,2.9908705e-07,5.774323e-06,1.2565075e-06
0.00095874985,7.29703e-06,2.2100037e-06,6.8573117e-06,1.8480454e-05
0.0008994266,2.9627367e-06,2.7355654e-06,0.00079142634,4.5064603e-06
0.0007886042,2.5804063e-06,0.0016692405,0.00060203526,9.5180184e-07
0.001710002,5.1141234e-07,0.00046914254,6.861799e-06,0.00019073191
0.037012834,1.9660579e-06,0.00011896652,1.7722921e-05,2.0027035e-05
0.060061436,1.3552692e-05,9.432351e-06,2.2379461e-07,9.112103e-06
0.0023107363,1.1602422e-05,5.243863e-07,2.0677012e-06,1.9724888e-05
0.0002808672,0.00041472286,7.669127e-07,1.99418e-07,0.00039395623
4.386466e-05,0.0004902108,4.28206e-06,4.714391e-06,8.880171e-06
6.7578446e-07,0.0007921498,4.006645e-06,2.5374468e-06,2.2223869e-05
1.4085388e-06,0.058593918,0.05462764,2.128914e-06,0.5737896
4.3738523e-06,0.61163664,0.6225978,0.12320573,0.69892794
1.0970591e-06,0.48905706,1.7486924,2.1803997,0.32883072
0.007450601,0.09665213,1.9007063,0.4650327,0.16799477
0.6891901,0.20962799,0.103274405,0.0864774,0.62519664
0.7730951,0.6334716,0.14118697,0.06503845,0.77892935
0.21338196,0.9029334,0.079216346,0.00550564,0.85776407
0.027396474,0.40498525,0.025549615,0.015646553,0.17234261
0.24171735,0.024260636,0.019050555,0.08090615,0.09386755
0.5169389,0.0071755433,0.11789316,0.0024276876,0.5795601
0.9996357,0.1353545,2.920639e-06,1.553236e-07,1.9153272e-07
1.1030945,2.0789573e-06,2.2766028e-06,8.077151e-06,4.5970055e-06
0.04341844,1.3565094e-06,6.30981e-07,6.450184e-07,0.019582072
0.053980708,1.1206928e-06,5.1647896e-07,9.001988e-06,0.0090164095
8.247278e-07,1.9582977e-09,2.6979876e-06,3.2132416e-06,5.1783422e-06
1.163303e-07,2.301993e-06,1.9567844e-06,3.858303e-07,2.2188326e-06
1.3150633e-06,3.6883755e-06,2.018153e-06,1.4202041e-06,4.3567416e-06
8.9436827e-07,5.042676e-06,2.4447354e-07,1.6217688e-05,3.4769396e-06
4.2778706e-06,5.1002858e-06,2.3525542e-06,8.007149e-05,4.372459e-06
1.3488464e-06,3.5771454e-06,3.3817358e-07,3.47055e-06,4.615333e-06
7.832874e-06,1.9248876e-06,1.4021119e-06,6.9731453e-07,2.4430567e-06
5.716951e-07,3.823903e-06,4.770922e-07,1.1921562e-06,1.0565849e-06
5.5497053e-06,3.039674e-06,2.4995174e-06,1.6693693e-07,3.4344587e-06
0.030441443,7.2740772e-06,5.359753e-07,7.7945106e-07,2.6883422e-06
5.299374e-07,3.8768934e-07,1.4618777e-05,1.2453545e-06,2.6452642e-06
1.4509095e-07,6.7560626e-07,0.00013031281,2.1530323e-07,7.9310803e-07
4.90111e-07,2.4269737e-06,0.0005626355,0.00066445227,1.9774716e-07
5.46473e-07,1.1519098e-06,1.548822e-07,3.9017968e-07,1.8997959e-07
1.3423241e-07,9.800091e-08,7.177551e-08,0.0073209875,1.3138837e-08
8.5925514e-08,1.6634772e-06,1.8810724e-07,4.296539e-07,7.184909e-07
2.3626109e-07,2.8108936e-06,1.4232492e-07,4.3005383e-07,1.1897712e-06
3.369587e-07,9.0855053e-07,0.14963704,0.040016446,1.1366693e-06
1.0839512e-07,2.857435e-06,1.4073159,0.25404078,0.00012485434
0.091369204,2.1074476,0.8347279,0.3616477,0.38988018
2.2801166,3.1572328,2.969775,0.015692888,0.5317816
4.185182,1.0793189,3.472689e-07,3.7292405e-06,1.1546819e-06
0.019238252,2.3254802e-06,3.1902973e-06,5.763287e-07,2.8472825e-05
0.19328375,0.0002778532,2.932876e-07,2.3024074e-06,0.032164376
0.14051493,7.8807926e-07,1.2282276e-06,3.1068412e-06,0.058807258
0.014327075,2.1055978e-06,3.7046362e-07,4.0358628e-07,3.0843223e-06
0.488418,8.825955e-07,8.093856e-06,1.0778338e-06,3.1818797e-07
7.4964846e-05,5.4964084e-07,5.6660645e-07,0.0006425333,6.1872714e-07
0.00016274457,2.0895484e-07,8.679111e-07,1.217308e-06,4.8708387e-07
9.000901e-05,8.503803e-07,0.00031437053,4.448737e-05,2.7529742e-07
0.00647208,1.7647023e-06,1.0182283e-06,0.00010821318,4.6149253e-07
0.022163939,1.1572239e-06,4.0707144e-07,0.0013876074,4.8121376e-07
0.8993555,1.7825987e-06,3.2463286e-06,7.7547077e-07,4.7124993e-07
0.39152384,0.7181359,3.1408618e-07,7.829869e-06,1.5999819
0.008003802,0.5871654,3.0347549e-06,0.005870345,0.0035713
0.018452993,1.7968916e-06,0.010962397,0.0011991044,5.2133186e-05
0.07618423,0.3671718,0.01409306,9.0328825e-07,0.0046222736
0.008308465,1.2243431e-06,9.778632e-07,3.7267245e-07,0.37472248
0.003177873,0.3687823,1.4244475e-06,1.2190375e-07,0.0002316133
5.942337e-05,1.0469335,4.4344432e-07,2.5750037e-07,8.547513e-06
0.0032386722,2.0005702e-06,3.947248e-07,8.7433605e-08,2.2918653e-06
8.849256e-07,0.19198126,1.1997925e-06,9.999428e-08,1.7458447e-06
9.3892476e-07,1.1165927e-06,4.4082984e-07,2.132161e-07,0.116115175
6.7214415e-07,7.3080564e-06,9.231567e-07,3.4755715e-07,0.047767885
1.17513636e-07,0.00081394386,1.0572083e-07,1.1388174e-08,0.02862909
3.2836147e-07,1.4218408e-06,8.5106606e-08,0.0,8.655618e-05
4.8353144e-09,2.7624126e-06,8.8307e-09,0.0,7.554397e-07
0.0,0.0063056517,2.2014524e-06,0.0,0.00010974416
5.685156e-08,0.71451765,5.390768e-06,5.5292624e-09,2.4237004e-06
1.1032171e-05,1.6412683,1.8122655e-05,8.998027e-06,1.3332009e-07
2.298873e-07,1.6394614e-06,1.7694803e-05,7.5200996e-06,5.729047e-07
2.1702483e-06,4.4159802e-05,4.9925086e-07,7.271356e-07,2.9183146e-05
3.391638e-06,2.135481e-05,5.258437e-07,1.0118974e-05,3.0170851e-05
0.052907053,1.9804515e-06,6.262963e-07,2.3279663e-06,2.2985007e-06
2.874478e-06,1.1646714e-06,4.057511e-07,2.7614703e-06,3.6789748e-07
4.4445023e-06,2.8692275e-06,8.889992e-07,2.3873547e-06,5.103177e-07
2.2151207e-06,3.3023773e-06,2.9333703e-06,1.7377528e-06,5.902158e-07
5.808569e-07,2.0097872e-05,0.018044293,0.000108770684,0.040665727
9.5461665e-08,0.026157344,0.059731077,0.0002701801,0.20387383
2.3579871e-06,0.1540197,0.13630927,0.017120585,0.4158844
2.5300646e-06,0.304975,0.22661099,0.03819697,0.6473644
0.0016504668,1.0616336,0.19214007,0.16975915,1.6523764
1.0685312,0.0024278478,0.28994256,0.67467386,0.0010524936
0.9778535,1.15707335e-05,0.18817599,0.08139378,2.7208688e-07
0.36566672,1.1474031e-05,0.12005827,0.107509695,7.3507367e-06
0.09342971,3.1830405e-05,0.1105942,0.11717892,1.2204109e-05
0.0019025422,1.2070964e-05,0.119774945,0.12747766,9.41235e-06
0.00022948977,6.436074e-06,0.14338528,0.17253542,7.0151045e-06
0.004652521,5.4617076e-06,0.12856534,0.18832943,3.140615e-06
0.05734594,9.858113e-07,0.0817387,0.07549522,2.8507875e-06
0.13504852,1.6527515e-06,0.051193014,0.0021475358,2.622349e-06
0.16795091,3.6002464e-07,0.057895847,0.0062155426,0.0004270292
0.33687717,7.2564274e-07,5.3355493e-06,0.06834487,0.05815807
0.27364016,6.2888124e-05,5.263042e-07,0.633911,0.06387396
0.15983841,4.2315745e-07,0.19877437,2.1151282e-05,0.04715863
0.0049974085,2.2632462e-06,1.8649844e-05,3.6132496e-06,0.24221618
3.4856042e-05,0.119328804,3.105342e-06,1.4583785e-06,3.312334e-05
0.17744738,0.03239872,1.1111042e-06,0.030757727,2.170032e-06
6.412328e-05,0.0035655303,2.4568428e-06,0.60895807,3.1166849e-06
6.87858e-07,1.9604897e-06,0.0005282268,0.84684587,1.8424372e-06
1.4110861e-06,2.5946729e-06,7.4400823e-06,1.0534045,1.567128e-06
1.8789382e-06,7.659604e-06,0.00027520536,0.00010137085,2.3184905e-06
1.4670817e-06,5.3979884e-06,2.2663893e-05,7.60792e-07,2.4848052e-06
1.3064829e-06,2.6781454e-06,6.2854554e-07,1.3929691e-05,4.9474147e-07
7.648581e-07,5.215079e-06,2.4968844e-07,1.958178e-06,4.3031278e-07
1.7016899e-06,3.5685375e-06,0.11635665,0.00061077473,8.483235e-07
1.3235563e-06,2.138873e-06,5.31578e-07,0.05442462,8.213724e-07
9.005753e-07,1.1550159e-06,8.0239516e-07,0.12119907,8.482631e-07
2.663192e-06,3.7225855e-06,1.741212e-06,1.4675277e-06,1.3010696e-06
5.4146813e-06,1.2524109e-06,1.819755e-06,0.015156689,3.843405e-06
0.0003172031,1.7006965e-06,8.7316124e-07,0.030638633,1.4766193e-06
0.031892285,0.0007446457,4.053583e-06,0.7287304,3.0272006e-06
0.062248126,2.5289046e-06,0.01228179,9.71534e-06,1.3584346e-06
1.381473,5.2048733e-07,0.00037831865,0.0007360731,3.2504183e-06
0.14028153,8.2601224e-07,3.535026e-07,0.0024276804,1.9907425e-06
0.00599774,2.5198824e-06,3.203034e-07,0.0020404218,0.08892376
4.150708e-07,1.8273967e-06,1.8318462e-07,1.3428577e-06,1.4829712e-06
0.00021497229,3.278026e-06,1.1573292e-05,0.0945144,3.1244444e-06
0.15666479,1.1948813e-06,8.4248006e-07,0.00047197993,3.392587e-06
0.9331715,2.1917233e-06,1.2779941e-07,0.0025269545,6.195724e-06
0.25879452,2.0982209e-06,3.175764e-07,0.0002084491,3.230593e-06
0.0027966888,1.0224784e-06,5.1039493e-05,1.0423588,1.4135392e-06
0.00012911452,6.500279e-07,3.0065728e-05,0.5261838,3.2885302e-07
2.9881926e-06,2.0184345e-06,0.21713075,0.07152131,2.0740845e-06
5.55385e-06,4.0742842e-07,0.4996105,0.01289027,4.4186e-07
0.29828182,1.6069689e-06,0.029172303,0.1527047,1.5059707e-06
0.00013333611,1.21268e-06,0.031625774,0.48882818,2.0133878e-06
3.0472268e-06,1.1404207e-06,5.2517707e-06,0.013765811,9.2077016e-07
5.2582527e-06,2.0119728e-06,0.23296942,0.0686645,5.2493533e-07
0.09358581,1.6256434e-06,0.19334914,0.07266685,5.9606566e-07
0.6239951,1.6237497e-06,4.0122493e-05,3.9531216e-07,6.058311e-07
0.0047284444,3.3210679e-06,0.04837464,6.110121e-07,9.5053576e-07
0.0021533107,1.6154206e-06,6.1972844e-07,1.6264097e-06,1.4044474e-06
0.0022823624,2.365548e-06,3.8182125e-07,5.148041e-07,1.2507242e-06
3.135682e-05,3.7553161e-06,7.8661225e-07,5.5937653e-07,4.0580235e-06
7.2222483e-06,4.048172e-06,0.008860439,0.33758947,3.2880218e-06
1.6163574e-06,1.1000119e-05,1.0560475e-06,6.580238e-07,0.41005558
0.00039165324,1.2710826e-05,3.6751192e-07,0.0057633566,1.3368668e-06
3.562668e-05,0.20930268,0.23061326,1.5158614e-05,0.34064344
0.26310784,1.6420825e-06,4.4061935e-06,1.575761e-05,0.17310674
0.73311424,3.3008305e-06,0.00012473548,2.0695334e-06,1.7799756e-06
0.1213308,1.4730681,2.9431547e-07,2.4948135e-05,1.1996706e-06
0.0017805403,2.1913763e-06,0.04130787,0.41157404,1.955045e-06
4.1131196e-05,6.4973847e-06,3.2248338e-06,4.417082e-07,1.2628894e-06
0.071699806,4.4428216e-06,3.9026207e-07,0.008341382,5.425979e-07
1.4511067,1.9343754e-06,6.2377176e-06,0.12472089,5.669277e-07
0.20472573,6.9950465e-07,4.0312324e-07,5.360861e-07,9.4054263e-07
0.039224286,1.408477e-06,0.024703356,0.0005111966,2.216419e-06
0.17046857,1.7073321e-06,0.006570244,2.3905343e-07,1.7136168e-06
0.00028264557,1.5312106e-06,2.8343068e-06,7.00638e-08,4.9207904e-07
0.25867367,2.4054398e-06,1.0064579e-06,6.4246217e-07,8.8703877e-07
0.00016354199,1.9898796e-06,2.3437165e-06,1.01174024e-07,1.0750651e-06
4.8017555e-05,3.361292e-06,2.5841516e-06,9.929531e-07,2.101862e-06
0.03167476,2.1358223e-06,2.0235701e-07,3.211866e-08,1.1523282e-06
0.6327916,3.5608277e-06,2.0954322e-07,1.06017355e-08,1.3736319e-06
0.04406102,3.234971e-06,1.8814042e-07,4.583316e-06,1.8336966e-06
0.16105857,1.5207689e-06,1.1640783e-06,2.0526967e-07,1.0484131e-06
6.72974e-06,1.1027541e-06,1.614317e-06,1.9977111e-07,5.3138488e-06
2.6565422e-07,1.4348084e-06,6.185991e-07,3.1008388e-10,2.130885e-06
2.809514e-06,6.393204e-07,6.3418327e-07,1.2654165e-06,1.1361874e-06
1.7345604e-06,3.4603572e-06,1.0390332e-06,4.379681e-06,3.1682766e-06
2.2880395e-09,4.3882257e-05,3.6614467e-06,1.0395112e-06,1.2033236e-06
4.2388197e-06,1.1154232,3.3994908e-07,0.0,3.846561e-06
1.2430768e-05,1.0492396,8.007717e-08,0.0,1.2211628e-06
2.1840186e-05,0.0014309831,7.57741e-07,0.0,3.1415564e-07
1.5174484e-06,0.4415198,3.596685e-06,0.0,0.15859325
0.0,4.8573334e-06,1.0295516e-06,0.0,0.13032411
0.0,4.079757e-06,5.919205e-07,0.0,0.012355467
0.0,1.4140518e-06,6.250059e-05,0.0,7.880447e-06
0.0,3.4802376e-06,4.661396e-06,0.0,1.146043e-05
0.0,7.1552763e-06,9.607474e-08,0.0,1.5850948e-06
0.0,3.7019863e-06,3.1993654e-08,0.0,0.0
0.0,1.7772874e-06,9.1156416e-10,0.0,2.0274744e-07
0.0,1.533619e-06,0.0,0.0,3.0937284e-07
0.0,3.199095e-07,0.0,0.0,3.8894146e-07
0.0,5.334484e-07,0.0,0.0,6.3658157e-10
0.0,1.4604643e-06,0.0,0.0,0.0
0.0,4.0278238e-07,0.0,0.0,8.960413e-08
0.0,5.1948587e-06,0.0,0.0,2.9591394e-05
0.0,1.7477088e-06,0.0,0.0,0.0003851049
0.0,4.6811036e-07,0.0,0.0,1.7798264e-05
0.0,1.673432e-06,0.0,0.0,2.0461032e-06
0.0,6.344383e-06,0.0,0.0,2.5667612e-07
0.0,0.00031181364,0.0,0.0,4.662851e-06
0.0,1.2800821e-06,0.0,2.3102992e-10,2.506385e-05
0.0,9.443389e-08,0.0,0.0,2.125714e-06
0.0,8.72874e-08,2.8078315e-10,0.0,4.476101e-07
0.0,3.6203849e-06,7.537756e-10,0.0,1.3954609e-06
0.0,4.710542e-06,3.877875e-11,3.4568544e-08,4.4228367e-05
0.0,2.4916083e-06,2.2432951e-11,6.635336e-07,2.1946319e-06
0.0,3.6838028e-06,4.5087223e-09,4.704708e-06,2.912431e-06
0.0,1.8725087e-06,1.5397355e-08,2.8832878e-07,1.3621573e-06
0.0,0.0,8.512451e-09,0.0,9.578725e-07
6.670498e-10,0.0,2.2445004e-08,0.0,0.0
6.6705326e-08,7.164735e-11,0.0,0.0,0.0
3.8509285e-07,2.57305e-07,0.0,0.0,7.9167145e-10
3.1791128e-08,5.5494365e-09,0.0,0.0,1.7968148e-07
0.0,1.4068369e-05,0.0,0.0,2.5593272e-07
0.0,4.736867e-05,0.0,2.900569e-07,9.664578e-06
4.67114e-11,2.077089e-05,0.0,4.3677332e-07,9.616225e-06
2.1838509e-09,9.462833e-06,1.7475318e-06,3.5590958e-06,2.4374456e-06
1.9240419e-07,4.589858e-09,2.0228608e-06,1.4483859e-06,2.3400864e-07
3.9106176e-09,1.1981622e-07,1.5195552e-05,1.0720676e-07,0.0
1.4959919e-09,1.0867491e-06,2.7445988e-06,2.7403237e-07,2.4869706e-08
0.0,1.1852886e-06,1.038242e-07,0.0,5.541997e-07
6.299874e-09,4.1979683e-06,0.0,0.0,6.0141747e-06
0.0,2.5130203e-06,0.0,0.0,3.7318484e-06
0.0,6.1720243e-06,0.0,0.0,4.2227352e-06
0.0,4.858144e-06,0.0,0.0,1.7002917e-06
8.171342e-07,5.165892e-06,0.0,0.0,3.3794072e-06
6.0545735e-06,6.0810858e-06,3.2735633e-07,4.7044352e-07,3.9663873e-06
2.3059671e-07,5.359191e-06,4.2365906e-07,1.471475e-07,6.1202684e-08
1.11020995e-07,1.7152072e-06,5.4652793e-07,0.00046945724,7.816259e-07
1.9198811e-07,1.149743e-06,2.1344902e-06,0.017331256,2.3215873e-06
2.7511271e-08,4.2754054e-06,1.9548258e-06,1.2282108e-05,0.0004347857
3.4140502e-08,0.0018676592,4.925643e-06,9.284663e-06,0.16927831
2.8391972e-07,0.17127801,9.509839e-07,0.09439206,0.011011567
2.63746e-07,0.08660164,0.0056239697,1.0319331,0.16191816
1.2777909e-07,0.023958813,0.00022800751,0.012139183,0.0006432816
0.021722771,5.9897757e-06,0.0003924376,0.006046061,2.864249e-07
0.102969326,7.9448915e-07,0.00063640747,0.10598502,2.0383196e-07
0.08436343,0.0020956802,0.00024762994,0.0013068338,0.012458365
4.664846e-07,0.19927372,0.00040528225,0.00156682,0.59142196
0.039122794,0.13998,0.0018611824,0.0013696684,0.43902186
0.25155747,2.0653849,0.006157031,1.292011e-05,1.9833199
0.2669621,0.5089663,0.22476584,0.009031902,0.18513466
0.052984077,0.09973992,0.6252829,0.017495021,0.09945097
0.21751699,0.1543775,0.5820614,1.8146435,0.13720803
1.4593731,0.10174344,1.3963693,5.7987247,0.123941734
1.5061045,0.0068832943,1.2782059,0.32954,0.19750449
0.14620633,1.4751774,0.5560942,0.039878942,6.151392e-07
0.32811224,1.9352797e-06,0.28226694,0.019080332,1.33055e-06
0.026137484,1.4970558e-06,0.021379236,0.21471311,8.411955e-07
0.001562878,0.32170415,0.06982503,0.7487219,0.40079755
0.00014186399,2.1556632e-06,1.0536736,4.115977e-07,0.31706524
0.0020082954,1.5047301e-06,0.52297765,0.010394205,3.176989e-06
0.9470043,1.3592861e-06,0.0040071965,0.062784344,3.4763295e-06
0.24527444,3.6691347e-06,0.2703724,1.4778961,1.1671298e-06
0.98258287,1.409938e-07,0.13420404,0.57301396,6.640682e-07
2.5665102,1.4958385e-06,0.31239656,0.65572065,4.576101e-06
0.73548645,1.419548e-07,0.05235749,0.1945643,8.628809e-08
0.87327164,5.476402e-07,3.196066e-05,3.4979143e-07,2.0905284e-07
0.38492787,2.7528515e-06,0.081452504,0.045622196,1.0708243e-06
0.012327912,1.9897525e-06,4.117291e-06,1.36563785e-05,4.375137e-06
0.0010385939,2.9029923e-06,1.28737265e-05,8.849689e-07,1.6261389e-06
1.128914e-05,7.030321e-07,9.458869e-07,3.0251306e-07,4.9774457e-07
0.00017901672,7.7787683e-07,2.474983e-07,0.0,1.2383207e-06
0.0048198435,2.498035e-06,1.0437268e-08,8.532041e-07,1.6476923e-06
1.3136411e-05,3.6255044e-06,9.079551e-07,7.366676e-07,4.5309847e-07
3.4091863e-07,5.2199834e-07,4.816976e-07,4.0253887e-08,1.7947937e-06
8.93951e-08,1.4854256e-06,2.7439165e-07,9.684063e-09,1.9973866e-06
1.0774794e-06,1.8371188e-06,6.3523913e-07,7.2742176e-07,1.3973336e-06
2.1389296e-06,6.23817e-07,2.6238272e-06,2.1039411e-06,1.4700855e-06
1.6802965e-06,4.7510446e-07,2.1784285e-06,0.0,9.15192e-07
1.3493134e-06,2.282052e-06,2.169187e-07,0.0,8.085346e-07
4.2814133e-07,2.1258188e-06,6.239067e-07,1.7024482e-07,8.0052104e-07
3.5511022e-07,2.0616071e-06,1.5221767e-06,5.479099e-10,9.467748e-07
3.3907597e-06,2.5399286e-06,1.3407498e-07,4.0509545e-07,4.8557064e-07
5.8405403e-05,1.9010832e-06,1.8019558e-07,1.5446474e-06,9.557764e-07
6.458515e-05,2.40579e-06,1.8022718e-07,1.5021329e-06,7.410512e-07
2.868083e-07,2.0262535e-06,5.3439766e-08,1.9602741e-07,1.1681882e-07
0.0005577005,3.3157532e-06,1.503741e-08,9.754303e-08,1.2841625e-08
0.0005260204,2.164614e-06,1.0600554e-06,3.5577497e-05,2.0929624e-06
0.00040111056,2.780295e-06,4.8548935e-07,1.6766325e-07,1.9068873e-06
1.5629561e-05,3.6432293e-06,4.186117e-08,2.5200752e-08,5.704991e-07
1.8269961e-06,3.3029141e-06,8.3208e-07,5.206112e-06,1.3896946e-06
0.0,4.7189965e-06,2.007355e-07,1.3183659e-06,3.2319415e-06
1.7440003e-07,7.4498585e-06,1.2898225e-06,3.4727805e-07,1.9635206e-06
1.2861986e-08,3.1971308e-06,4.636671e-07,1.3531158e-07,1.673413e-06
1.6136671e-09,2.7250312e-06,4.816714e-06,2.4896724e-07,4.3394482e-07
2.1699764e-06,6.1500605e-06,2.644383e-07,8.1031715e-07,4.5187235e-06
1.3048074e-06,4.5788765e-06,1.4290111e-06,0.00010944702,1.5423331e-05
8.37431e-07,4.493629e-06,1.5262123e-06,2.014016e-06,0.017547086
6.5192753e-06,0.0001658277,0.0014800528,6.993362e-07,0.40757933
5.4238476e-06,1.2301629e-06,0.07321537,9.4210286e-08,1.4073366
2.1708877e-07,0.22104666,0.12961297,1.7138215e-06,2.689262
3.2406666e-07,0.40014753,0.10198243,1.40819e-05,2.6354828
6.4342064e-05,0.8024004,0.14851788,0.0031518566,0.6902855
0.5982098,0.33601028,0.329471,0.39588785,2.0931883
0.12470198,0.015110677,0.53813106,1.2584153,3.135436
0.49364203,0.008110075,0.87365305,0.7685093,1.9003335
1.1812779,0.001388193,0.8933625,0.24407998,2.467657
3.0750823,1.6008958,0.9020268,0.19695622,3.5279503
2.888172,3.1158347,0.58310044,0.13216098,3.7362037
1.8993657,3.2652068,0.3327427,0.0018138062,2.6930737
1.6213006,3.110614,0.57143664,0.0757204,3.0681021
2.1798599,2.9490302,0.8668465,0.68786716,4.7137504
2.2647164,4.4792223,1.7907299,1.2557752,3.5628707
3.1651165,3.2364638,1.6961852,0.3124732,2.2229154
5.784037,3.5946412,1.7389282,0.3265683,2.727605
3.7167115,2.6247709,1.4711485,1.5385536,2.899588
2.864006,3.1343544,1.695205,0.9744984,2.2355611
5.0978117,1.5975696,2.3454351,0.30104882,1.3517997
3.2650027,1.4790709,1.5624859,0.12094236,1.1438069
1.6785383,0.9190548,0.5414431,0.1583132,1.800409
1.5322651,1.1739143,1.5276896,5.5700907e-06,1.2090782
0.97972053,1.7866752,0.13477217,1.4466812e-07,1.1644258
0.97281677,1.5884607,3.5428093e-07,6.963449e-08,0.104664475
1.8206898,0.19149712,2.4289443e-07,1.9316415e-07,0.009994341
1.2639191,0.26753962,1.7380759e-07,8.894116e-08,1.3456104e-06
1.3300352,2.0738426e-06,1.208605e-07,1.0842421e-07,9.623138e-07
1.670914,2.2361157e-06,2.597306e-07,1.0487751,1.1233336e-06
0.22289325,4.385458e-07,1.5669502e-06,2.0669296e-07,8.83349e-07
0.00019336777,6.3785656e-06,6.7063223e-07,0.0001432513,7.064852e-07
2.1701317e-05,2.5091429e-06,0.0007101662,2.0234988e-06,2.150205e-06
2.5262628e-07,4.10818e-06,0.007815615,1.2641607e-07,2.5640525e-06
2.669141e-07,3.910994e-06,0.23363617,6.885017e-06,0.02345548
6.6565563e-06,9.058098e-07,2.860702e-07,9.421395e-08,6.4734326e-07
1.9550432e-06,1.2038962,1.8328967e-07,3.730711e-08,7.4585677e-07
0.8759775,9.597255e-07,8.4478734e-07,3.9192278e-06,9.057435e-07
0.31167397,3.6594224e-06,1.3394892e-06,1.6135975e-05,1.251381e-06
0.019543536,7.8066483e-07,9.791014e-06,1.113078e-06,1.252127e-06
0.021194162,7.4360446e-07,4.863955e-07,1.7391507e-07,6.973917e-07
0.955171,7.482802e-07,6.988141e-08,4.27368e-08,2.961374e-07
0.2927523,4.5712574e-07,6.8041544e-08,2.436802e-07,2.1522219e-07
0.5635847,4.5472535e-07,5.2856547e-07,9.859724e-08,3.836689e-07
7.719439e-05,8.127425e-07,0.00014604468,1.6223477e-07,1.231757e-06
9.1635964e-05,6.6635334e-07,1.2376353e-07,0.00011025391,4.6651726e-07
9.626496e-06,1.6168059e-06,8.3603214e-07,0.40261135,1.5961984e-06
0.9225567,8.344332e-07,0.12267048,0.28044003,9.468559e-08
0.2549213,2.3847076e-06,0.21285062,1.0803924,3.8306084e-06
0.005045877,2.0068599e-06,0.00020060751,0.0023435915,1.1480518e-06
2.271824,1.1138776e-06,0.011450028,0.2390131,7.2725453e-07
0.95791095,1.8505301e-06,0.0022658985,0.9712149,9.976276e-07
0.049980156,2.135505e-06,0.12212488,0.115072384,1.6118248e-06
0.008822658,1.3295196e-06,1.9603345,0.89165515,7.674654e-07
2.010818,2.279219e-06,0.013999425,0.6911704,8.724736e-07
3.8912482,1.5364744e-06,0.08529022,1.1407803e-05,0.1459951
0.30174208,0.00047730375,4.3420325e-05,0.10397429,1.16033
1.2459763e-06,2.9677499e-06,0.004232106,0.00036522944,0.14130196
1.4476636e-06,1.6011566e-06,0.027500955,0.06791543,4.097714e-07
0.0035556136,0.005490517,4.8819805e-07,4.2737324e-07,4.5531957e-05
0.00047941806,1.6243789e-06,0.2715554,0.35918358,6.6435985e-07
0.9468209,5.803266e-07,0.020122817,0.019108815,6.676419e-07
0.009127952,1.408525e-06,0.15261856,0.25481033,0.12002223
0.39536655,1.5103823e-06,0.42832574,0.22386447,9.765698e-07
0.2392133,8.7453566e-07,0.08305968,0.008937759,4.7834334e-07
0.13238078,8.4151594e-07,2.999233e-07,8.3779796e-08,3.778702e-07
0.00013908946,2.5000002e-06,2.2795945e-07,2.639331e-07,8.052116e-07
0.006226267,1.9540782e-06,0.07974849,0.003072741,1.7210219e-06
0.32527003,3.1432683e-06,0.014843566,0.020264778,9.037291e-07
0.027327469,1.3183864e-06,0.0010992337,0.006338046,1.1282577e-06
0.02667385,1.4061167e-06,0.028815811,0.24974158,1.3644845e-06
4.9095044e-05,2.6513015e-07,0.0052039223,0.064994164,2.9216403e-06
4.289247e-05,5.682181e-06,0.04033335,0.07336664,2.8223423e-05
0.32468316,2.8912638e-05,0.0100319395,0.08856796,0.21878849
0.5732797,7.0661877e-06,0.0017886987,0.00056226127,1.1460999e-06
0.26619276,0.048013177,6.871019e-07,2.0689026e-06,4.2321253e-06
9.545776e-05,1.2613724e-06,9.909895e-07,5.3787807e-07,1.2324729e-06
0.017881498,1.2793737e-06,0.000112260626,0.01485001,1.1843615e-06
0.00059549586,1.3825742e-06,9.9612276e-05,0.00016532908,5.4288057e-07
0.0001508367,1.1050901e-06,0.026596118,0.07816479,0.0003581376
2.8665143e-06,1.1717694e-06,0.25132725,0.92769617,0.08662211
0.05972759,1.1823787e-06,0.30301586,1.3224567,0.0039002588
0.5637085,9.70914e-07,0.5436702,1.5756518,1.7031808e-06
0.5174478,2.6125655e-05,0.98819673,2.273448,3.064263e-07
0.23767783,0.6157056,0.5447003,1.7334212,2.0726416e-06
1.0695394,4.7756177e-05,0.5968878,2.6240957,7.272883e-07
1.0110795e-06,4.9087257e-06,0.44720963,2.0308568,1.0651183e-06
0.18464288,0.3058523,0.24134475,0.97594094,6.135246e-07
0.0434057,0.5621194,0.0010062215,4.359655,0.00095830695
1.6076597,0.45031056,1.3658135,0.9732503,3.796349e-07
1.2360101,6.8676803e-07,1.8478017,0.0119375335,1.2449308e-06
0.7588538,0.0025122762,1.664916e-06,1.1215045e-07,5.3135545e-07
0.5652288,1.0011231e-06,2.9047618e-07,2.375424e-05,1.1111036e-06
8.734599e-07,7.493283e-07,3.2608477e-07,3.7581765e-06,0.34332588
0.074649386,1.810819,4.6411026e-07,0.030968191,0.1727963
1.7952805,6.1563003e-07,1.2747344e-07,3.2558978e-06,5.353095e-07
0.008354981,2.524426e-06,1.0445418,6.197262e-07,3.2804965e-07
3.4229638e-06,1.9144397e-06,0.9722134,0.0010334471,1.1928669e-06
0.57643086,7.90024e-07,0.35054135,2.7729203e-07,0.15962003
0.85844916,4.136036e-06,3.775495e-06,0.0009234099,0.05555686
6.9374624e-07,1.3195018e-06,0.0038617933,4.302148e-06,1.3573072e-06
1.0968944e-06,3.295815e-06,0.0014741865,1.4142151,6.262845e-07
0.0416572,3.511318e-06,0.5180663,1.0602473,7.422548e-07
0.44613084,5.903845e-06,0.05891869,0.0092759505,1.0812074e-06
0.32329628,1.2346183e-06,3.1550806e-07,9.955944e-07,8.9486366e-07
0.0015871593,4.0529803e-06,4.544227e-07,9.0683265e-08,0.42322028
0.018551348,5.676979e-07,1.4896723e-06,7.838634e-07,0.0001908285
1.2260356e-06,2.1669266e-06,0.18740731,0.030264856,6.7350703e-07
1.2565242e-06,1.6351403e-06,3.6563142e-07,2.050698e-06,3.793313e-07
4.797015e-07,1.1971289e-06,5.241812e-06,3.3163212e-06,1.0084299e-06
1.1225763e-07,7.513652e-07,1.882118e-07,1.5984077e-07,4.4569242e-07
2.0995371e-06,6.910757e-07,4.4477702e-07,4.6382112e-07,6.8888935e-06
1.5300545e-06,4.5768783e-07,8.2537565e-07,6.293454e-07,2.2214316e-07
2.1351725e-06,1.564832e-06,3.5924716e-06,9.2755363e-07,1.113547e-06
0.0002797765,1.7479196e-07,4.346374e-06,4.8847e-07,4.1783716e-07
0.0008116469,4.709392e-07,8.51803e-07,1.6679124e-07,1.8949325e-07
0.00017424817,3.1091832e-07,0.0050204117,0.13103157,6.709504e-07
0.0001369454,1.1296415e-05,4.3661765e-07,0.022197329,1.2933684e-07
8.173065e-06,1.2312871e-06,1.1422297e-07,1.5021014e-07,3.031566e-06
0.0014795385,1.2433894e-07,7.0613066e-07,7.823307e-07,2.981376e-07
1.5562345e-07,2.9808558e-07,6.500893e-08,1.2217039e-07,6.3935454e-07
2.1140183e-06,9.552232e-07,1.2492053e-07,4.249214e-08,9.684624e-08
1.4378163e-06,2.6994583e-06,1.7131879e-07,5.9660486e-08,1.2785388e-08
4.804731e-06,3.4365055e-06,6.1205765e-07,5.163788e-07,2.660976e-06
5.798048e-07,3.5030134e-06,7.9395966e-07,7.387224e-07,1.2721458e-06
1.1178827e-07,1.6539782e-06,1.4646413e-06,2.0584405e-07,1.0515654e-06
5.2945444e-07,1.767605e-05,8.012749e-07,1.2524597e-06,7.2640233e-07
2.4603565e-07,4.9067276e-06,3.084063e-07,2.0332966e-05,1.0641828e-06
4.372842e-06,3.9558954e-06,1.6464114e-07,7.673921e-06,7.956788e-07
6.607038e-06,3.003636e-06,1.1399614e-07,3.4845627e-06,0.02107009
1.3683119e-07,1.02315e-05,0.0010470184,0.0016788908,0.023292065
1.3460863e-06,0.03128174,0.021597445,0.015133353,0.018147327
3.177135e-06,0.029189982,0.04955247,0.01223428,0.005930073
2.2980405e-06,0.0022046585,0.06633612,6.289441e-05,0.025319785
4.0673226e-06,0.012431859,0.044430956,8.703077e-07,0.029986527
0.00015001564,0.013249168,0.013936682,1.8526308e-06,0.02797119
0.0013620099,0.006345691,0.0028004437,9.3218296e-07,0.025846835
0.0051224916,0.0062198797,0.00080122164,2.918255e-07,0.03331594
0.0067393463,0.0054467255,0.0010300246,3.0167648e-06,0.036345102
0.0094414605,0.007726119,0.0023276322,4.2077977e-06,0.0414124
0.010904366,0.0022145417,0.00064977416,1.3233608e-06,0.041201275
0.011192441,0.00016320565,0.00024285066,6.151781e-07,0.02453207
0.008157568,0.0016418289,0.00016278283,4.56879e-06,0.014596168
0.005918967,0.28352115,0.00022361403,7.53844e-07,0.012220041
0.0019525263,0.15249713,0.0008125678,1.242053e-07,0.035237256
0.0006079125,0.010202382,0.0008895284,8.6283103e-07,0.43136024
0.0001395676,0.11024716,1.8454966e-05,2.666451e-06,0.004696737
4.2805903e-05,4.993399e-06,6.224867e-06,2.9348662e-06,2.193092e-05
4.582408e-06,4.0396424e-07,7.494907e-06,3.5224951e-07,4.4824433e-06
1.807742e-05,2.8150087e-06,9.075057e-06,6.7889806e-07,5.3760214e-06
9.579731e-06,8.153868e-07,9.389838e-06,7.491688e-07,2.028749e-06
5.9853955e-06,3.7416496e-07,2.0298885e-06,1.4167308e-07,1.7966081e-06
5.284602e-06,2.150114e-06,6.903835e-06,1.8452654e-06,6.7368837e-06
1.0761699e-07,4.317904e-06,1.3436211e-05,5.9397404e-05,5.5311534e-07
1.8533246e-05,3.2297082e-06,7.4886257e-06,0.019599047,3.7159855e-06
0.00012059789,2.1865874e-07,1.2648854e-06,0.01248904,1.4218444e-06
2.3255818e-06,1.5327943e-08,2.3687755e-06,0.00017438948,7.725581e-06
4.8512534e-06,1.6913107e-06,9.8470935e-08,7.6124076e-07,8.038983e-05
4.1445287e-06,4.269066e-07,2.00466e-07,1.5121731e-06,2.8847775e-05
2.171773e-06,8.014517e-07,3.0953916e-07,5.8450364e-06,7.649291e-07
