"[299, 255]","[227, 248]","[287, 319]","[279, 328]","[230, 262]"
1.05538504e-07,0.0,3.1719392e-06,1.1294805e-07,4.4602456e-07
3.8892207e-07,0.0,2.3949851e-06,1.2904637e-06,1.5461123e-07
5.050265e-07,0.0,8.7968044e-07,6.074066e-07,5.9679167e-10
2.169452e-06,0.0,2.8124948e-06,0.0,1.0839587e-09
1.3664213e-07,2.0078975e-08,3.4252767e-07,0.0,1.0570172e-08
1.9860192e-06,1.0143474e-06,4.6504866e-07,8.439652e-08,5.4338216e-08
8.863823e-07,0.0,4.079727e-07,4.256123e-08,1.3920493e-08
7.734128e-07,0.0,1.3241333e-06,2.615842e-06,8.962552e-07
0.00070945476,0.0,2.0255159e-06,2.4161918e-06,4.5644388e-08
2.1448764e-06,7.069788e-08,3.2062594e-06,4.0762413e-07,7.8706745e-07
1.5005775e-06,9.691672e-07,1.0387627e-06,3.1404372e-06,4.0154123e-06
2.6197467e-06,1.9542877e-06,1.337778e-06,2.2423285e-06,3.9281e-06
2.318566e-06,1.3824962e-06,1.5760787e-06,2.625439e-06,2.2759145e-06
2.3622051e-06,4.2032766e-06,2.0917805e-06,1.6076958e-06,1.7315227e-06
6.229114e-07,4.949715e-07,2.2345955e-06,5.10048e-06,4.0067866e-06
0.005943942,1.0101759e-06,5.3175745e-07,7.5248463e-06,1.8365929e-06
0.040404927,0.0,2.429185e-06,6.1210725e-05,0.14996685
1.1126694e-05,0.0,7.3107576e-06,4.811176e-08,6.6939566e-07
5.5293127e-05,0.0,9.348601e-07,2.8124168e-07,2.1190247e-06
0.26814422,0.0,6.6852713e-06,1.9685226e-07,3.5921673e-06
0.0115759075,0.0,3.4121163e-06,2.40546e-07,2.4048256e-06
0.055853926,0.0,1.599235e-06,1.6713699e-06,9.760728e-07
0.003629951,6.985088e-08,0.01095612,1.1672364e-06,5.904234e-07
4.7490136e-07,1.6683234e-06,1.3439709e-06,6.3504035e-07,4.2023726e-07
1.8293987e-06,1.2540126e-07,8.874266e-07,6.374596e-07,2.616529e-07
1.7597322e-06,5.2645446e-06,7.43699e-05,3.6723727e-06,5.743469e-07
0.0041897283,6.4574783e-07,2.5042937e-07,4.1422211e-07,1.2463436e-06
5.927013e-06,4.2994174e-07,1.2165776e-06,2.6109967e-06,8.30619e-07
5.252356e-06,6.8551094e-09,0.022829607,4.6706805e-07,2.397917e-07
2.511545e-06,1.8595996e-08,0.055048514,9.984635e-07,6.0698966e-07
3.7564844e-06,0.0,4.861028e-07,4.4710345e-07,2.2023607e-07
0.00017441841,0.0,1.1712516e-06,7.311658e-07,9.73178e-06
1.0140395e-06,0.0,7.40974e-07,3.0581936e-07,0.06370627
1.37871475e-05,0.0,9.734291e-07,2.4483774e-07,7.4712534e-07
7.538399e-07,1.0363076e-08,0.015762588,8.339977e-07,4.292797e-07
9.100912e-07,7.3747947e-07,0.017803684,4.897376e-07,4.2469924e-07
9.4966157e-07,3.458317e-07,1.036194e-06,1.8504406e-06,4.6285382e-07
5.8842365e-06,3.384083e-08,0.26604035,1.3242507e-06,1.4284115e-06
1.3622252e-06,1.1681454e-06,0.0047239424,0.012652925,2.8224556e-06
1.1127995e-06,2.5751212e-06,9.503681e-07,0.0029438052,6.5865436e-07
1.3605538e-06,1.2050538e-06,4.233536e-06,1.7702189e-07,3.222505e-06
1.2915679e-06,2.3092888e-07,8.2398054e-07,3.8249604e-07,0.00041336333
4.2374944e-07,0.0,5.062089e-07,2.8880478e-07,0.00037038818
3.533792e-07,0.0,7.46945e-07,4.822157e-07,6.8717127e-06
1.1251349e-06,5.7540916e-08,4.5024294e-06,2.0679254e-08,1.0437407e-06
7.787718e-06,0.0,4.0340078e-07,3.9248243e-07,8.618573e-07
6.044288e-06,0.0,9.2966775e-07,6.533579e-07,7.8871113e-07
7.5705243e-06,0.0,7.2491565e-07,8.2369394e-07,1.829578e-07
6.0258712e-06,0.0,2.3488656e-07,6.378062e-07,9.941262e-09
2.5424945e-06,0.0,2.9772903e-07,9.000946e-07,0.0
5.740138e-06,0.0,1.0339596e-06,2.588169e-06,0.0
7.677234e-06,0.0,2.2002467e-07,9.278368e-09,0.0
2.4996705e-05,0.0,4.447123e-08,5.5554995e-07,0.0
9.814248e-06,2.5402747e-10,5.013708e-07,6.357472e-08,0.0
5.011767e-06,1.0511138e-09,3.7290832e-07,3.3526916e-07,0.0
1.138577e-06,1.5859854e-07,7.907006e-07,3.8618722e-07,4.1116852e-08
0.0,8.535665e-06,6.338163e-08,1.1810251e-06,7.496324e-08
1.537208e-07,1.8430184e-05,3.756827e-07,7.697711e-07,1.735728e-07
1.079108e-06,2.605581e-05,1.4348487e-06,1.1778351e-06,3.991038e-07
3.3077544e-05,1.4728802e-06,2.8578359e-06,3.7638972e-07,5.9033425e-07
0.00090035493,0.00013579389,7.3334195e-07,3.1050895e-06,4.5405363e-07
0.0030946764,7.792294e-05,2.4789692e-06,2.7842927e-06,0.00018861487
0.061091933,1.092711e-06,3.2105334e-06,8.686946e-07,8.7021635e-06
0.29758212,2.3392793e-06,1.0993675e-06,2.1607445e-06,2.9141484e-05
1.5891988,0.41423967,8.191853e-06,2.179086e-06,0.020240804
0.57172626,0.9206914,5.7053154e-07,5.9354466e-07,0.044382893
0.015505981,0.38966364,1.7394648e-05,1.3190946e-07,6.5667103e-07
0.017865738,0.98701423,0.00034502597,1.2413893e-06,5.7818716e-07
0.641394,1.1551067,0.9217738,8.072798e-07,8.1378914e-07
0.6755184,0.33356783,1.5031031,9.127402e-05,0.0048319492
0.7373492,0.0072784675,1.1043282,0.2667614,1.0374066e-06
0.4017689,3.4902262e-06,1.7135313,0.6653109,8.167857e-07
0.0895647,5.2809e-07,1.3492619,0.3043799,3.622601e-06
0.12245651,0.0006369732,1.3439965,0.28993356,0.0018896995
0.060735174,0.0013991207,1.744677,0.86952305,0.00043404519
0.03405345,1.489242e-06,0.839134,1.1272619,2.4698982e-06
0.020829665,1.1651214e-06,0.00054083025,0.3995928,2.2991831e-07
0.0100238,1.0159083e-06,0.051831987,0.0015502402,2.133008e-06
0.0023042506,4.9108166e-07,8.097092e-07,0.10543297,1.7335983e-06
0.0002677074,2.2113026e-07,9.700863e-06,0.034876194,6.6804483e-07
3.101856e-05,2.7567918e-07,2.799246e-06,6.227192e-07,3.190175e-07
6.0272345e-05,6.310734e-07,1.919188e-06,2.7713243e-06,5.8827005e-08
5.4753677e-06,1.594849e-06,8.426943e-06,8.3812296e-08,7.190322e-08
3.9172223e-06,2.937238e-06,1.4603825e-06,1.1254494e-06,2.0020296e-07
4.1606554e-06,2.185803e-07,1.0962007e-06,1.4043892e-06,2.181114e-06
5.93229e-07,2.12833e-07,9.129095e-06,1.2829054e-06,4.3489547e-07
8.003332e-06,6.392201e-06,5.6913536e-06,7.3001165e-06,1.5299217e-07
2.1424452e-05,5.186569e-07,8.4251906e-07,4.6296705e-07,7.882318e-06
0.00088928227,3.1995063e-07,4.2633226e-07,1.4566533e-06,3.1241975e-06
0.0011196533,0.0010218591,1.5164814e-07,3.2748035e-06,2.7348392e-06
0.00019920757,0.55576265,7.832023e-08,7.716977e-06,6.503251e-06
0.52460915,0.49788213,5.776041e-07,3.8588714e-06,0.058120076
0.7555512,0.18568175,5.849092e-07,5.836305e-06,0.14407566
0.81054205,1.5985202,0.46284413,1.3716014e-05,0.19389053
0.19304356,0.76464343,0.99209076,0.9336984,0.77284044
0.2011163,2.397353,2.324684,0.58000314,0.5346848
0.0033006184,0.1080664,0.66226786,0.54892975,1.2556481
1.3878515,1.1289397e-07,1.3214964,1.2617712,0.0043152487
2.7086766,7.006836e-07,0.53531474,1.5663172,1.3523505e-06
0.008888346,1.9309667e-07,0.23821065,0.0023834698,1.584203e-07
0.014352011,0.0030583637,0.0007009113,3.8529868e-07,3.8145137
0.018763952,0.7557775,0.21523327,3.8460087e-07,1.2825543
1.6514636,1.5942564,1.2071543e-05,0.00016248848,0.060917173
1.7375596,1.1647219e-05,0.11468509,0.0021840069,1.7082193e-05
0.03129717,1.9862487e-06,2.2517863e-06,2.1912876e-06,1.5926817e-05
0.23112588,5.871136e-06,0.0198502,0.0448902,4.294478e-06
5.2790194,3.1279021e-06,1.207733,0.001404173,2.8596116e-06
0.41105404,7.971544e-06,5.5206704e-07,0.0049168337,2.0163417e-07
0.3732363,5.803632e-08,8.99207e-07,0.014696688,1.0865366e-06
0.47207776,1.560396e-06,1.5515138e-07,0.0051737833,2.8790026e-07
0.18335824,1.0416941e-06,3.0392872e-07,2.407486e-05,5.114157e-07
1.0274516,9.7355354e-08,3.16848e-06,9.886206e-06,1.510528e-06
0.33731142,3.6166482e-06,4.8644876e-07,7.1580685e-06,2.96862e-07
9.8007244e-05,2.8747465e-07,1.830116e-06,0.00090453535,3.3683628e-07
0.3578148,2.8734524e-07,4.841763e-06,0.001121821,1.3430343e-07
1.6160675,1.2777859e-07,1.5461984e-06,5.4889624e-06,2.4641568e-07
2.2242217,1.632088e-07,8.1381095e-06,9.819686e-06,4.2856428e-07
0.6702877,5.055843e-07,2.7096078e-06,6.272767e-06,4.636255e-07
0.098733015,4.1406884e-06,1.4438525e-06,5.4711632e-05,5.9395313e-07
2.2684288,5.0891285e-06,4.854899e-06,0.0007001512,3.55387e-06
2.427707,1.3303625e-06,7.2544162e-06,0.0016909142,2.5135616e-05
0.07916896,5.268721e-05,2.1238748e-06,0.0013292679,9.471176e-05
3.4994354,8.609655e-06,4.5823424e-07,0.0013983625,2.8878138e-05
2.7596018,1.2998898e-05,0.0031321652,0.00084300595,8.043617e-05
0.006099209,1.2327807e-07,8.571055e-06,0.0015553854,0.0018276521
0.0047590453,0.009634397,5.5288797e-06,0.0014711556,0.013254544
0.15728223,3.600788e-05,0.0020041212,0.00046690935,0.04063615
0.04188075,2.8979464e-06,0.00042264003,0.00030690484,0.08002967
6.1540586e-06,3.8017438e-06,3.219851e-06,0.00049409986,0.002290214
8.064521e-07,9.660349e-07,7.817928e-07,0.0022173552,4.9495966e-06
1.8141238e-06,1.8928843e-06,0.013903827,5.771132e-06,1.5774534e-06
7.4930413e-06,4.0620744e-06,4.1874426e-07,0.008746441,1.5695298e-06
3.862881e-06,1.0279073e-06,8.374495e-07,2.1048374e-06,1.7283025e-06
3.5053836e-06,1.7446014e-07,2.2260878e-07,5.7919596e-07,1.627039e-06
1.3936141e-06,9.1269754e-07,5.266882e-08,2.1256624e-06,1.9467103e-07
1.0879704e-06,2.3503023e-06,1.2045838e-08,8.804497e-07,8.3413795e-08
1.6464286e-07,1.5430407e-05,2.1342149e-07,3.5752126e-07,1.4926272e-06
4.691331e-08,2.5159203e-05,9.528391e-08,4.80237e-07,0.013866753
5.9227426e-07,1.2442664e-06,1.2755245e-07,2.0988894e-07,0.40460175
3.1667903e-05,1.6220757e-06,4.032258e-07,9.852041e-08,0.010477193
4.7659327e-05,3.9974466e-06,1.1998426e-06,4.583658e-07,1.8518575e-06
0.00023576939,8.586114e-06,3.3581446e-06,3.2946204e-07,4.9244754e-06
0.00013145436,5.6606486e-06,3.3187575e-06,8.928795e-07,8.563353e-06
0.00016722294,3.4652985e-06,4.6393245e-07,3.251257e-08,2.9705977e-06
0.0022375847,6.5558957e-06,1.2030218e-06,3.0103737e-07,7.970398e-07
0.0078942105,0.0002839357,7.3850185e-07,6.1772766e-07,0.0001858846
0.0035125446,0.003892783,4.538795e-07,1.0943911e-07,0.003949446
0.0006337923,6.0051112e-05,6.1991057e-07,2.0227537e-07,1.2685319e-05
0.00022393893,2.2436664e-06,1.4479622e-06,0.00074102875,6.2956865e-06
0.00013796042,3.8448593e-07,9.826274e-07,0.0058881836,8.789265e-06
3.6765876e-05,1.8253264e-07,1.2991985e-06,0.0011430138,2.3331042e-06
6.5375624,4.3136023e-07,1.7095757e-06,0.012712375,9.037168e-07
4.3788424,3.8137796e-07,0.36176157,1.5335468,3.138158e-06
0.20079894,6.7362896e-07,1.193724e-07,1.4050968e-06,1.0898967e-06
0.00088484504,4.411726e-06,4.6120593e-07,1.966499e-06,9.047137e-07
3.9741803e-07,4.3282859e-07,8.422576e-07,1.6063539e-05,1.5530206e-06
3.8598814e-06,1.6217722e-06,1.9751617e-06,1.5045392e-06,2.1719877e-06
6.0582107e-07,1.7511533e-06,2.7204385e-06,1.4854027e-06,2.9422852e-06
5.5792556e-05,2.633324e-06,1.3974783e-06,5.9387175e-06,3.1606833e-06
2.8700706e-05,3.1273335e-06,3.4602342e-06,4.862815e-07,4.1186954e-06
0.0001910695,9.450437e-07,1.3441221e-06,8.855478e-07,5.243798e-07
9.858786e-07,0.10310219,2.8150336e-07,9.843357e-07,0.005933476
1.6929068e-06,0.25517747,4.3320517e-07,1.4732581e-06,0.33675635
1.8120988e-06,0.11069263,5.4646645e-08,8.5230545e-07,0.023727058
4.8936604e-06,0.1136875,3.9862041e-07,4.8342844e-07,3.486664e-07
4.2821825e-06,3.2566757,1.7256906e-06,2.6720463e-07,2.2133195
3.930797e-06,1.438637,0.06557149,1.4235717e-06,3.5558887
4.5079887e-06,0.0023774686,1.11858935e-05,2.0801781e-07,0.7272417
9.282263e-07,1.9403547e-06,0.030133275,0.022192838,9.175974
0.22681661,1.3707829e-06,1.3020825,0.64847535,0.0032947185
0.15275875,1.8618473e-06,0.09342791,0.010069395,3.8780675e-07
0.0032134657,5.036325e-06,0.07345079,0.27717987,2.3094246e-07
0.0068440745,1.8711057e-06,0.35932738,0.43612406,8.0302027e-07
3.1321015e-06,1.529312e-06,0.00082328264,2.6878468e-05,2.0425166e-06
4.51383e-06,8.7369656e-08,3.2964083e-06,4.455309e-07,1.0640011e-06
2.367499e-05,1.7143839e-07,1.357461e-07,1.0215801e-07,2.1814476e-06
8.378479e-05,3.938123e-05,2.612678e-07,9.4018435e-07,5.773398e-07
8.413831e-06,1.0609791e-05,5.56266e-07,1.0307024e-06,1.6138805e-05
7.7203995e-06,2.478559e-06,6.101938e-07,1.1453948e-06,1.8076778e-06
9.298367e-07,2.7637604e-06,1.8524414e-06,8.7801953e-07,8.513368e-07
1.1767052e-06,9.75076e-07,1.8253746e-06,1.3628389e-06,1.2764741
0.038480245,2.7713354e-06,3.567767e-05,5.117709e-07,1.771583
0.0011900008,6.076148e-07,1.944649e-06,2.6262154e-07,0.057364378
0.00034243695,4.2441457e-06,2.9725476e-07,1.2284584e-06,1.4593937e-06
0.21259977,0.871731,6.3025226e-07,8.503536e-07,8.4651695e-08
1.1508642e-05,1.1500481,1.4643211e-07,8.1154106e-08,1.4671739e-06
0.9919232,1.9518336e-06,5.0948665e-07,1.9751505e-07,4.3754005e-07
0.7540329,3.3234508e-06,2.4934644e-07,4.0182803e-07,2.1479736e-06
0.01245425,2.1308479e-06,3.2588906e-07,1.7170746e-07,1.859735e-06
0.27546066,2.148291e-06,1.4176609e-06,2.3906935e-07,8.485947e-07
0.038155492,4.5642496e-06,2.7762144e-06,0.0028100456,7.784664e-07
0.13589558,4.4181716e-06,1.8991122e-06,3.5885304e-07,1.5129807e-06
0.0001891479,1.1281645e-06,1.4635883e-07,1.8678931e-07,3.9344434e-07
0.0002648581,8.673958e-08,3.4296113e-07,1.3742765e-07,0.0
0.07647392,2.0893526e-10,3.0511097e-07,1.6462515e-07,2.3474857e-07
1.4434374e-05,0.0,2.6196474e-07,1.906984e-07,0.0
2.0586288e-06,1.4903615e-07,1.9284488e-07,2.6997185e-08,0.0
2.0346406e-06,2.2685226e-06,2.3278679e-07,5.198559e-07,0.0
2.5486604e-06,1.912461e-06,1.0957577e-06,3.2820026e-07,3.5273383e-06
1.2663802e-06,2.4267983e-06,0.0,1.0253262e-07,4.196421e-06
0.0,3.3331282e-06,0.0,0.0,6.3420275e-06
8.234417e-08,5.219827e-06,4.3781753e-07,6.1548474e-07,2.5690258e-06
2.41831e-08,0.061968464,3.5770174e-06,7.398014e-07,4.546206e-07
1.6301301e-09,0.012220376,1.8760057e-06,1.6970439e-06,1.5657725e-06
5.190853e-08,7.325241e-05,4.815625e-07,1.5896751e-06,1.2821415e-06
6.3787087e-07,0.00010605116,3.8392918e-07,1.1127061e-06,8.738353e-07
8.3453386e-07,3.2707587e-06,2.0355526e-07,2.4612127e-06,3.2689206e-07
0.00012701585,6.0802944e-07,9.915937e-07,1.1105979e-06,3.9989213e-06
0.00010353542,3.8006652e-07,2.201449e-07,3.941527e-07,8.0891687e-07
2.1235414e-06,1.8269593e-07,2.3752557e-06,1.3499159e-06,6.800541e-07
4.5356664e-06,1.1852401e-07,2.4364538e-06,4.7043895e-07,5.5305793e-07
3.285736e-06,7.3428083e-07,2.4440178e-06,3.2946681e-07,3.9060347e-07
1.0450017e-06,2.2462592e-07,2.4047558e-05,0.013564371,2.4990752e-07
3.30654e-07,0.030872455,0.0002246561,7.5341795e-06,0.11426737
3.809494e-07,0.00022349245,0.0010516279,0.009764371,1.0869587e-06
3.248701e-08,0.0048700706,0.00031500167,0.00016272948,0.02655963
9.036941e-07,5.675213e-07,2.2126189e-05,1.0372255e-05,0.025912883
1.0552865e-06,9.642989e-07,2.2168763e-06,1.3854311e-06,8.593649e-07
1.729949e-06,1.2835775e-06,1.1267798e-06,1.5333883e-07,1.3669842e-06
1.3867805e-06,0.08330073,8.1431196e-08,1.04027585e-07,0.011197306
5.973131e-07,1.0606587,0.09551728,7.9200856e-07,1.0890758
1.0423921e-06,6.860248,0.7862685,0.35199657,6.92576
9.232228e-07,3.6645334,2.4306877,0.52479804,3.3686092
0.76840675,1.99116,1.9227957,0.36035737,2.4299922
3.9409919,2.3678405,2.8371356,0.44488192,1.5151104
0.04797603,0.18728478,1.895269,0.23643558,0.120624155
0.5967958,0.0018879108,0.5051298,0.36185867,0.00018788943
0.1946562,0.0001930114,0.54248303,0.41419348,2.2136399e-05
0.4825296,3.0828633e-06,0.28239605,0.00045801315,2.5374713e-06
1.1387469,0.0001466405,5.8875355e-07,8.344619e-07,4.4107917e-05
0.82528764,0.00015531313,4.604182e-08,7.6403836e-07,3.085852e-05
0.6087621,9.50275e-06,0.00032310706,2.3139917e-07,3.5954892e-07
0.76648664,5.684615e-06,7.221772e-05,2.172278e-08,2.8513784e-07
0.04886642,1.3462475e-06,4.2427723e-06,6.369139e-10,4.5842415e-07
1.6966615e-05,2.7036442e-06,5.957223e-06,3.1620277e-07,1.260177e-06
6.083563e-05,1.640181e-07,3.1429893e-06,5.328878e-07,1.3514164e-06
6.596269e-05,1.00157116e-07,5.2655116e-07,2.0879042e-06,1.5805055e-06
4.0779563e-05,1.111045e-06,2.1337023e-07,6.7792826e-07,1.508713e-07
1.3321721e-06,3.3349835e-08,4.454275e-07,8.368323e-07,1.2952386e-06
5.447548e-07,0.00092370744,0.10122307,4.726775e-08,1.8543296e-06
3.2471726e-07,0.061252054,4.9091034e-07,5.9389606e-07,2.1979487e-05
9.803425e-06,8.080361e-07,2.2887757e-08,1.3867394e-07,3.3214412e-06
0.06921183,6.1349334e-07,2.0032716e-07,8.329393e-07,0.022631573
0.11103208,7.085874e-06,6.8024633e-07,5.6714094e-07,0.2757759
0.00010820616,7.103603e-07,1.039546e-06,8.253119e-08,3.0784378e-08
2.3253272e-06,7.353533e-06,1.612677e-07,9.4782064e-07,2.4224246e-07
0.00018307833,4.5554693e-06,5.549886e-07,1.9765985e-06,4.027627e-07
0.0015940178,2.1027956e-06,4.882011e-08,4.439642e-07,1.387735e-06
1.847399e-05,1.6525743e-06,2.839899e-07,1.9514909e-08,2.2952294
1.404615e-06,1.8884631,1.0815425e-06,1.018278e-06,0.020825997
2.1900837e-06,8.2177394e-05,1.3894369e-06,0.00040242777,0.005209265
2.7067586e-06,2.7876793e-05,6.391567e-05,0.029025974,2.2273645e-05
1.2405183e-06,4.6194516e-05,1.0340145e-06,0.8573065,5.2195835e-05
2.2134766e-06,0.0002149268,2.0190366e-06,4.4980974,0.012850355
6.121183e-06,0.35749897,2.7537035e-05,3.9502626e-07,0.54273266
2.3575578e-06,0.015777748,2.8172692e-06,3.5843696e-06,0.24259083
0.36814827,0.2161755,0.0006028925,0.016141985,0.052336045
0.43817657,1.5221653,0.42485675,0.18673794,0.0028406407
1.3477348,2.2220595,1.1681647,0.10402486,0.60319054
2.0660145,2.2653768,0.21035819,0.11806047,1.1096644
3.3498251,3.358148,0.4752141,0.50550854,1.3522577
1.1049098,2.0326324,1.0064427,0.4011906,0.124752395
0.50331205,2.5874329,1.3723909,0.7132405,0.7560645
2.3755043,1.9000194,1.3286573,1.190655,0.7873089
1.0471063,0.34343994,3.2992404,0.8867437,0.073353276
2.153148,2.9817745e-06,1.0609435,1.1159803,4.7979495e-07
0.07817612,2.088327e-06,3.9821694,2.5648181,6.138113e-07
0.54359686,3.2942296e-07,1.6447103,0.97664964,6.1015703e-07
4.9067905e-05,2.657583e-07,0.09463972,7.9376056e-05,7.512609e-08
2.3175505e-06,0.22848813,7.0274973e-07,4.8721948e-05,1.2666218e-06
8.3060826e-07,2.9914156e-06,4.4465583e-07,6.3058286e-07,8.295782e-06
6.8393655e-07,0.7830757,3.0531137e-07,3.155759e-05,5.34101e-07
1.7069857e-07,0.003903524,3.0158213e-07,1.2531624e-05,6.9302955e-06
0.0020590979,1.549148e-06,1.6022364e-06,5.605166e-06,6.953499e-07
3.73228e-06,1.0923171e-06,1.65381e-07,2.4023138e-06,9.399846e-07
4.8944403e-06,0.055796497,5.9815545e-07,1.064305e-06,1.1247765e-06
1.2265762e-06,3.9910334e-05,1.1408612e-06,8.3725354e-07,6.688371e-07
1.6242376e-06,0.57124,1.4340233e-06,6.985082e-07,0.22156039
5.264863e-07,3.5938373,2.3685513e-07,0.13445562,5.05381
2.3501916e-06,0.01434679,0.0014517623,0.010441725,2.5005376
0.0010714935,8.3752053e-07,0.004275394,1.838426e-06,0.012018846
3.438904e-07,3.7297692,1.6041459e-07,0.01701525,0.013526657
7.714998e-06,0.05089141,0.0021675136,0.05033508,3.8848922
2.099623,1.5109722e-06,7.5260606,0.5088862,0.078194045
0.12923923,1.7756512e-06,0.051654086,4.306456,0.018637335
0.10393239,3.6729148e-06,1.2337116e-06,1.0988023,4.565073
0.6435835,1.1634248e-06,0.9569728,1.4850183,1.114109e-06
0.10963356,0.00049169053,0.045317933,0.39758578,2.421271e-06
1.0660329,0.0029298554,1.0379585,0.11661674,0.93608683
0.21961306,0.002131906,1.4136345,0.13076976,3.6947094e-06
0.7303651,3.5699984e-06,1.0143754,0.010840354,1.4018934e-06
5.739598,1.3516421e-06,0.78869915,0.026227962,3.861178e-06
0.73192424,1.0768924e-06,3.0394955,0.039485022,3.4368768e-06
0.00024346208,7.430689e-07,0.00077314704,0.0123363165,0.44230807
0.6258236,1.4157528e-06,3.073105e-07,0.058259714,2.708025e-06
0.19207798,0.019074783,0.00035538225,0.0065828785,0.57450384
5.8800793,0.0041573485,0.030718988,0.396315,7.183801e-06
5.639312,3.1569543e-06,0.3631786,0.2204615,1.2904976e-06
3.979166,2.0059094e-06,0.11051785,0.08833334,1.9187007e-06
2.453227,1.4617357e-06,0.04545109,0.31172118,2.1996996e-06
1.5688851,3.3405863e-06,0.29630306,0.2550168,0.8643692
2.9944606,0.22083709,0.078474455,1.1112947,0.49647254
6.3597713,0.0756263,0.5949494,0.18789235,0.09931208
4.997971,0.00015034254,0.09369195,0.21727237,3.4612265e-06
3.012999,0.0001625175,0.11379443,0.59986216,4.4175217e-06
4.3545985,4.6058926e-06,0.570295,0.20899318,4.639403e-06
1.6606683,5.9727427e-06,0.036283035,1.4012996,3.6038161e-06
0.03800706,4.658937e-06,1.0887134,1.4386467,2.4111157e-06
6.1805076e-06,2.1872822e-06,0.7920914,0.6044037,1.1683107e-06
0.0009343424,8.768869e-07,0.39736563,0.04759125,5.8132673e-06
4.6565816e-05,5.070892e-06,2.9909947e-05,0.009935193,1.251105e-05
0.2956941,4.8367533e-06,0.033573564,0.016535148,2.3443195e-05
0.0027512673,4.678146e-06,1.3279773e-05,1.4927674e-06,9.988369e-07
0.05505062,2.566373e-06,2.470981e-06,1.301127e-06,1.306786e-06
0.1996014,8.038372e-06,1.1415903e-05,2.4033864e-06,1.7234446e-06
0.08192673,5.1213256e-06,0.001677007,0.0829111,1.532691e-06
0.11458618,1.3655251e-06,0.08084988,0.06588547,2.1230624e-06
0.06234979,6.3804e-06,0.040478226,0.017024659,5.1533257e-06
0.5257208,1.0589604e-05,0.033907812,0.007363273,1.9636582e-06
0.07628838,2.5745103e-06,0.002315963,0.008235761,1.8818653e-06
0.050872963,2.0955151e-06,0.0071408674,0.0144328615,2.638858e-06
0.1840089,1.1710505e-06,0.0024108107,0.0003417473,6.2431227e-06
0.05088673,3.5169535e-06,7.3422954e-05,7.6013107e-06,4.1348767e-06
0.3093151,2.0579903e-06,0.020577794,8.489501e-07,2.7088345e-06
0.16282041,2.0567448e-07,2.910204e-06,1.8981304e-06,5.2386895e-07
8.074655e-07,2.8962552e-06,2.3872342e-06,5.631037e-07,4.810514e-06
4.6594073e-06,5.7028064e-06,1.1748836e-06,8.225605e-07,3.3445287e-06
1.7813962e-06,0.5591984,9.754326e-07,2.968862e-07,0.46637842
1.095122e-05,1.4806505,3.6497757e-05,7.096185e-05,3.1643105
0.00019751854,0.4542543,6.314931e-05,0.041078884,1.0033486
0.28241292,0.34150833,0.5049014,0.8445442,1.2082231
0.30702433,1.4181299,0.120509334,0.3296185,1.4095769
3.9776802e-07,2.5982225,0.08886648,0.03789239,2.8034668
0.00046741226,4.5985956,0.5148518,0.013717407,5.6978626
2.581224,6.745422,1.0785642,0.0728876,4.229414
3.152227,1.9418712,1.3265474,1.086739,2.3939226
5.5539804,1.5675657,1.3404049,0.27917767,2.0548086
6.090933,0.000404376,0.55314565,0.17943352,0.002276311
2.396867,7.2220923e-06,1.2424138,0.03326856,1.6651557e-06
2.6022635,2.6737525e-06,0.7035013,0.006226605,2.1989185e-06
2.0335515,1.9321944e-06,0.20995481,0.7265268,7.5375516e-07
0.20566027,3.170811e-07,0.4394356,5.6634957e-07,4.312554e-08
3.723753e-07,2.7747083e-07,7.4184146e-07,2.2053327e-07,6.4385425e-08
3.4121026e-06,1.6713303e-06,6.390856e-07,2.8940594e-08,1.6142174e-07
2.725393e-06,1.7197144e-06,9.666667e-07,3.567313e-06,4.813424e-07
0.93839294,3.659614e-07,0.0,9.376105e-07,8.464584e-07
0.12845102,7.000937e-07,2.3099925e-07,1.8610694e-06,8.151058e-07
0.0016387291,3.2806607e-08,2.594908e-07,0.011268999,6.823712e-07
1.1506572e-06,1.7772143e-07,5.4640893e-08,0.0092885615,8.862207e-07
1.0381424e-06,3.490267e-07,2.4563669e-09,0.7525633,8.410672e-07
7.859711e-07,9.229319e-08,1.0110548e-06,2.7973647e-06,2.5334032e-06
3.572924e-06,2.557253e-07,1.1356165e-06,6.011422e-07,1.8691206e-06
9.3029365e-07,3.0608714e-06,1.213953e-06,2.4811055e-07,9.774504e-07
5.472531e-07,6.3156667e-06,0.5533925,6.413102e-05,3.9146435e-06
7.2239e-07,1.5214371e-06,4.6743864e-07,0.09781852,7.5546427e-07
6.349484e-08,6.687318e-07,0.00057494955,2.6023388,4.0438367e-06
1.4217085e-06,2.0912898e-06,0.0043752943,0.00063098565,1.8708292e-06
6.894367e-07,2.2817248e-06,0.09001039,0.003701497,1.4296284e-06
4.1630622e-07,2.1659862e-06,6.559341e-07,1.30956e-07,1.1704584e-06
1.4297237e-06,0.16460562,0.00032421644,1.4297618e-07,3.9826236e-06
2.3508185e-06,0.22600175,0.001351511,1.0769795e-05,0.0004415208
7.8841447e-07,2.3863815e-06,9.484412e-07,3.3519652e-06,0.0023476353
4.925465e-07,0.1387578,1.041667e-05,1.9294164e-07,0.0001035046
1.0224402e-06,7.5795623e-07,7.668538e-06,1.055963e-06,0.00054765074
0.27894813,1.8858227e-06,0.00050873554,0.0038337908,1.3429402e-06
0.09238904,3.779206e-05,0.12093721,2.9262753e-07,7.496709e-07
7.0627993e-06,5.9080793e-07,5.519042e-07,6.773355e-07,1.5965819e-06
1.172219e-06,1.4183018e-06,4.6345303e-06,0.016038692,0.0026756478
7.990938e-07,7.826707e-07,0.15862884,0.013414099,2.4782932e-07
1.0726413e-06,1.2580764e-06,0.0052503003,0.32339144,2.9882298e-07
4.0502837e-07,3.159725e-07,0.050723232,2.5492299,1.4173006e-06
2.6553928e-07,8.635642e-07,7.171637e-07,0.009827601,5.6535276e-07
7.7092915e-07,9.087049e-07,9.585206e-07,2.0631733e-06,1.5714232e-06
4.5479214e-07,4.870792e-07,6.7997337e-07,0.005198074,1.3324805e-06
4.498537e-07,1.8092519e-06,0.0044201077,8.490645e-07,4.5715876e-07
3.0457733e-07,2.5597867e-06,0.00086176646,0.0016737665,6.4466275e-07
0.00035071783,0.065247685,8.423252e-07,6.2639383e-06,1.8141473e-06
0.00010213256,0.13717154,0.040446732,0.19065937,0.34272748
2.6137626e-05,0.0038781504,0.0048325616,0.21755058,0.5869688
7.654037e-07,0.03466671,0.0070277234,2.8882062e-07,0.09346076
6.677056e-06,0.573331,0.17933267,0.021394249,1.9979861
7.3756073e-06,1.3553241,0.16959725,0.23012507,1.7167002
1.0812598e-05,2.1941059,0.1184215,0.06805148,2.8073926
0.17848834,2.0183518,0.09187729,0.014316759,3.9380221
1.0622483,1.9200668,0.21944496,0.0027717464,3.480953
0.34532988,0.49285805,0.38818735,0.027363373,0.054227326
0.3046024,0.111088686,0.45057228,0.09911374,4.4503126e-06
0.875599,1.4948337e-05,0.8482665,0.050250445,5.9342074e-06
0.8391263,6.695944e-07,0.5359491,0.00045442113,3.077425e-06
0.25001723,9.623867e-07,0.28643733,1.0889925e-05,5.7244547e-06
0.102757774,2.8871434e-06,0.25736824,0.0006029799,0.10150853
0.18344793,0.18566535,1.1885644,0.3910824,0.33693844
1.0591433,0.556484,2.5221212,1.357894,0.5070223
2.8716211,0.6577204,2.4718122,0.6465455,0.6439307
1.49412035e-05,0.1223377,2.10409,0.60987455,0.66251725
0.0060683694,0.016385816,1.1916659,0.7687976,1.0276434
0.14325322,0.000113428105,0.7657748,6.813064e-07,5.056976e-07
0.5773744,0.0,2.4929354e-06,3.1496281e-06,8.146408e-07
2.9398534e-05,4.3585104e-08,2.7681864e-07,0.1752753,2.0963424e-07
5.3336487e-07,1.2793636e-06,0.53585935,8.547791e-08,4.6540077e-07
1.1852042e-06,2.661802e-06,2.176089e-07,2.7154292e-07,1.066962e-06
2.5999714e-06,1.4768049e-06,1.3652755e-06,3.3042753e-07,7.0131443e-07
7.328387e-07,9.0923857e-07,8.999155e-06,8.6911676e-08,2.4576466e-06
1.5736116e-06,2.3955744e-07,5.2009023e-06,5.525164e-06,5.587605e-07
2.4880271e-06,1.5840445e-06,2.8457143e-07,8.559715e-07,1.9010207e-06
2.9214084e-07,1.8576578e-06,3.0443155e-07,3.3220094e-06,1.7686932e-06
1.8636798e-07,6.5196036e-07,1.8428427e-07,1.055328e-06,1.42565e-06
1.3548596e-06,1.1416897e-08,6.3548775e-08,8.800987e-07,1.0246879e-06
3.776814e-07,3.746417e-07,3.4774928e-07,5.126819e-06,1.2570823e-06
2.9407587e-07,1.8993912e-06,5.5533627e-07,1.0090752e-07,1.5031478e-06
1.1720206e-07,5.2271224e-07,3.9283216e-07,0.013551775,1.2917349e-06
7.833678e-08,1.7680795e-06,8.9081203e-07,0.119928665,6.0194077e-07
1.9730123e-07,1.3175749e-06,3.0725187e-07,1.3533541e-07,2.5985667e-06
2.2379953e-07,6.5760145e-07,1.4050976e-06,4.1927924e-06,8.721158e-07
1.3626932e-06,3.5219728e-06,1.6697165e-06,1.656789e-06,1.278092e-06
2.836271e-06,1.2770377e-06,2.0715236e-06,4.383454e-07,2.8607876e-06
1.5698264e-06,3.6980898e-06,6.556732e-07,1.3475767e-09,2.1027545e-06
3.8628886e-07,1.9639338e-06,1.6246155e-07,3.669053e-08,1.2384803e-06
1.5873732e-07,6.4312854e-07,1.015976e-06,2.0333401e-07,1.9572972e-06
4.6287298e-08,1.6257651e-06,8.840742e-07,3.001543e-06,7.355673e-07
5.712239e-07,7.970526e-07,6.301234e-07,1.933112e-06,1.3850013e-06
1.2132025e-06,5.95912e-07,1.2095007e-06,3.5261262e-06,3.120002e-06
8.027198e-07,1.1725632e-06,1.0862259e-06,5.1910644e-07,1.4761864e-06
4.38453e-07,6.2209324e-07,1.0032152e-06,3.9332886e-07,1.7247666e-07
3.840623e-06,1.3453067e-05,1.1829483e-05,7.6804344e-07,1.3151763e-06
2.833863e-06,3.8147227e-06,2.1269072e-06,2.015037e-07,6.46719e-07
2.571554e-07,5.9856816e-06,1.5234572e-06,1.2667311e-07,1.5498284e-06
1.1975067e-07,4.1220837e-06,6.70397e-07,4.4917346e-08,3.3173503e-06
2.6411018e-07,1.4607505e-06,0.029914321,2.3529608e-06,1.1323775e-06
1.5244848e-06,4.3040327e-06,0.027719723,1.0777549e-06,1.2307654e-06
2.9024918e-06,2.1399292e-06,1.9392803e-06,7.6971145e-07,4.2176634e-06
1.6889926e-07,5.089045e-06,8.928992e-06,3.3175438e-05,1.9069118e-06
3.1522157e-07,0.08178378,3.0978643e-07,5.851836e-07,1.7606136e-06
1.5530813e-05,4.0395444e-06,8.264572e-07,0.08711213,0.008990338
1.7850921e-06,0.00023954263,1.7079584e-06,9.1765304e-07,0.010877578
9.593955e-07,7.885475e-06,8.7673845e-07,1.4149134e-06,1.9953047e-06
5.5101864e-06,3.8753888e-06,1.6168269e-06,0.0002647111,4.596104e-06
4.8280654e-06,7.6068577e-06,2.3829555e-06,1.0249653e-06,2.4106723e-06
3.5223097e-06,7.828307e-06,1.3495879e-06,1.8769123e-06,0.015236781
2.5705165e-06,2.8184286e-06,0.0026267092,1.5434694e-06,2.1802298e-06
3.65801e-06,2.2925462e-06,1.0091124e-05,1.1982406e-06,1.5371401e-06
1.0868154e-06,4.981576e-06,2.5517838e-06,9.0474697e-07,1.2964837e-06
4.0419272e-07,4.3299465e-06,2.9952389e-05,0.00089197623,1.08135e-06
2.9449794e-07,2.5045154e-06,0.10833606,2.3644363e-06,0.0056862845
1.1266566e-06,2.036278e-06,0.24940012,0.000102113154,2.140018e-06
4.6668285e-07,1.4292154e-06,0.342863,7.233385e-05,3.0969015e-06
2.7834437e-06,2.7063975e-06,0.48665717,0.0032800953,1.6426837e-06
2.2260099e-06,1.6298658e-06,0.6695416,0.0017570027,0.0008616872
2.038173e-06,6.924536e-05,0.6392731,0.058621924,0.0052247
1.0739788e-06,3.4614436e-06,0.73246354,0.29713255,0.0063909297
2.533353e-06,2.4842373e-07,0.7964675,0.42539528,0.0028380016
2.9769114e-06,2.0558127e-06,0.73246783,0.4256457,0.00090143294
1.847273e-05,0.0077067227,0.72242343,0.4677127,0.023483897
0.0008222088,0.019818453,0.71793497,0.5416513,0.09179984
0.0053874925,0.010503233,0.8781178,0.483828,0.011340319
0.008532327,2.915449e-05,1.0480148,0.47507146,0.00016598223
0.004749036,1.0223581e-06,1.4317636,0.4768383,2.4853084e-06
1.7153154e-05,0.02109801,1.5466788,0.38319016,8.1427027e-07
6.247025e-06,0.013004622,1.14692,0.22240134,0.013853441
6.664196e-07,0.032912467,0.7310458,0.72649974,0.00812515
5.354248e-06,0.00022203868,1.3468449,0.94110805,0.008534078
4.0093864e-06,3.245667e-06,1.7126255,0.93261075,0.004351901
1.3616503e-06,0.057492156,1.2586539,0.5374182,0.02916035
2.0741088e-06,0.07686824,1.4222788,0.18502294,0.0498157
5.173135e-06,0.17720571,1.1826795,0.15097135,0.22894818
0.000611194,0.03949789,0.85603124,0.20305452,0.009214534
2.8899132e-05,0.00381717,0.5766436,0.16539045,6.294214e-05
0.07027766,0.0066014,0.21090432,0.109876156,1.08647355e-05
0.12995468,0.004448205,0.04628635,0.011719204,1.896127e-05
0.065223776,0.004141072,0.004214229,3.026895e-07,2.0163408e-05
0.09654099,0.0044015227,3.8866622e-07,1.6440048e-06,0.0020388034
0.21839237,0.0001946239,7.030767e-07,7.535416e-07,0.000804194
0.22252588,6.9447287e-06,1.5715506e-07,1.919907e-06,0.006102077
0.16971034,7.3370575e-05,3.571904e-08,3.2128455e-07,1.320569e-06
0.2238732,0.00010458207,1.6768585e-06,4.4545773e-06,6.265171e-06
0.6187792,7.7648765e-06,0.00024749702,9.286028e-08,1.5251342e-06
0.16794012,7.2942294e-06,6.586564e-05,3.8214296e-07,1.12147276e-07
0.071533404,2.9719602e-05,2.4324218e-06,2.3725572e-06,4.5478107e-05
0.44047084,2.3560474e-06,1.04017815e-07,7.54099e-07,2.2859993e-05
2.9802794,9.934652e-06,1.1021006e-06,2.2544758e-07,1.869026e-05
3.3113644,0.00024271473,2.6672333e-07,1.1682312e-06,1.32811265e-05
1.6225145,2.3357738e-06,1.2260817e-06,1.4169985e-06,9.794605e-06
0.065155536,2.9119058e-06,2.0744402e-07,1.7081754e-06,4.549224e-06
2.35185,0.016982507,8.689865e-07,1.0553501e-07,1.8048424e-06
2.0339372,5.1155293e-06,2.3846032e-06,1.1782438e-07,2.8463498e-06
0.6030022,1.4568816e-06,1.4925091e-07,0.28134394,7.2135094e-07
8.3449504e-07,2.8587835e-06,2.2727706,0.1831282,0.039774586
1.2995473e-07,1.6679305e-06,2.1554756,0.32183656,0.000121203615
7.105973e-07,2.8066356e-07,3.4951503e-07,0.021089688,5.216029e-07
1.927961e-06,1.7476165e-06,0.0005975583,0.0005467724,7.4945814e-07
1.0722058e-06,8.3798983e-07,0.0006317006,0.83022416,9.977122e-07
1.116834e-06,3.330696e-07,0.084106736,0.00018287601,8.70381e-07
3.2640698e-06,3.837116e-10,8.493107e-07,6.7316614e-05,3.691972e-07
1.6303659e-06,3.830341e-07,7.9171883e-07,0.2901636,1.5556799e-06
4.1818525e-06,2.3444137e-07,2.8268494e-05,1.9292127e-08,8.346457e-07
3.0198984e-07,2.0638406e-06,1.3371613e-07,0.018516287,2.085914e-06
6.7159175e-07,2.957912e-06,0.0030575248,2.099609e-06,1.5876535e-06
5.1162665e-06,0.00014933353,0.00063985924,0.015494497,1.7521958e-06
1.4775438e-05,5.119643e-07,0.6893425,1.1525294e-08,1.3916957
0.00010313915,0.059531827,1.3232051,0.060966462,3.3231331e-06
3.1041116e-06,0.10784911,6.2625644e-05,0.00079249474,1.0175169e-06
4.867876e-06,2.00208e-06,0.001588043,3.3242017e-10,7.2847104e-07
2.566153e-06,1.0776349e-06,0.30454016,9.0079977e-10,2.1417834e-06
3.930025e-07,1.7960731e-06,3.119744e-08,0.0029121581,2.635707e-06
1.5990605e-05,1.3851433e-06,1.333157e-09,0.10315457,9.3706694e-07
1.2088963e-05,1.5384063e-06,1.4964326e-07,0.026429696,9.0877984e-07
9.1843003e-07,7.037456e-07,0.36352715,2.1443739e-06,1.8208832e-06
2.5840268e-06,1.7301056e-06,0.21496232,7.2717944e-06,1.8392005e-06
2.7027813e-06,7.4101927e-06,0.22437266,0.07906525,8.1255735e-07
1.703424e-06,1.1554906e-06,0.25555715,0.22797294,0.0008227252
3.7231703e-06,7.439686e-07,0.85737485,0.0060850135,4.099488e-06
0.010134719,4.025574e-06,0.389143,3.131443,0.15243675
0.0021790531,3.7476661e-06,0.01587397,0.010751036,0.18427363
1.0741381e-06,0.041536886,0.2399806,0.831397,0.042617194
5.660882e-07,0.5503183,0.36090085,0.47894153,0.11374222
1.3276129,0.0029408387,1.4772792,1.1023287,1.6606101e-06
3.7043247,0.046442863,0.9463627,2.9675582e-06,4.8680613e-06
0.23263556,2.680415e-06,0.20406497,5.065786e-07,1.1768207e-06
1.4787853,1.0201554e-06,0.00021745813,2.1739977e-06,5.3621447e-05
0.57233703,5.0723334e-06,0.0200273,2.3492801e-05,4.3938953e-06
2.8237587e-06,0.000803131,3.0131042e-07,1.4065874e-06,3.2866665e-06
1.1754566e-06,0.0008740786,0.028171273,0.0093770195,3.1984032e-06
1.8622667e-06,4.1203708e-05,0.07729626,1.253774,1.053349e-06
8.9181304e-07,0.057882477,1.5980666e-05,1.5068855e-07,0.40525776
2.93168e-08,1.3074566e-06,0.002115763,0.121387236,0.5045822
1.3245682e-06,2.621613e-06,1.8193929e-06,0.18473957,2.9103223e-06
6.370263e-07,7.913063e-07,6.0164897e-05,0.0004036695,2.0433328e-07
0.0022643548,2.8152687e-07,2.018142e-06,8.4126606e-07,6.593613e-07
0.0003004204,4.148167e-07,4.291781e-07,1.7391805e-07,1.3538389e-07
0.004667579,6.994217e-07,2.8848368e-07,2.2771633e-07,8.873442e-07
0.001324807,1.7428015e-06,3.2781674e-07,1.1849079e-06,5.889179e-07
0.0034134034,9.0389074e-07,0.19005007,5.971054e-07,1.5512245e-06
0.005702661,8.053167e-07,0.008066002,0.014289053,1.2554601e-06
0.6076902,1.012231e-06,0.31270984,0.00021248605,0.00062214374
0.105398186,8.5769983e-07,5.6797372e-08,8.5560366e-08,5.3302125e-07
0.0051476113,5.9534915e-07,1.2514198e-07,1.9270244e-07,3.2378875e-06
0.0060170144,1.585983e-06,3.054359e-07,2.0000211e-06,8.079588e-08
0.6828932,1.2756832e-06,2.1144285e-06,4.778794e-06,3.4675838e-07
0.0030126413,6.9337307e-07,5.925355e-07,3.7403188e-07,3.2211547e-06
0.32809612,6.714039e-06,6.5983176e-07,0.7899725,1.6495135e-06
2.205275e-05,1.7774684e-06,0.014501,0.00011653448,1.8524596e-06
6.912376e-07,8.2200154e-07,4.8278154e-05,2.6421407e-07,1.7943661e-06
3.2433772e-07,3.2938128e-06,1.7047952e-07,1.5896736,3.68069e-07
1.9321038e-07,1.9777165e-06,1.7380875,0.849621,2.8213307e-07
8.113582e-07,1.3676588e-06,0.12883924,0.022405792,6.8750655e-06
1.3074498e-06,1.72045e-06,0.6454773,5.439598e-07,2.9657508e-06
1.7939476e-06,3.651561e-06,0.12562379,4.5379843e-06,8.278784e-06
7.6493774e-07,0.001546233,0.0005890115,7.2963708e-06,0.026735
1.2768226e-06,1.9618853e-06,0.15230958,0.008157478,0.06929595
5.072263e-07,0.37293857,0.36939362,4.901385e-06,1.2627671e-06
2.4001936e-06,0.2394361,0.0014892449,0.069772445,1.8841829e-05
2.2635293e-06,0.3779263,1.7705578e-07,0.000299769,0.29323965
0.034631614,1.3888725,1.0224636e-07,4.6657835e-08,1.6552006
0.6640466,5.2467,1.8407655e-07,1.7223473e-07,3.9309957
2.199344,9.2308655,0.014182724,3.8088834e-07,8.475123
4.674266,1.9913732,0.066244856,0.004623456,6.1345944
11.147021,0.89872766,0.10455754,0.14978956,1.7921462
9.103947,0.009437171,0.5505324,0.53620535,1.1887248
1.85227,0.049243946,3.0455472,0.9994244,0.0075975987
0.11050109,0.02240122,3.7187977,1.6228393,0.048877373
0.060774542,0.0045004017,2.9252398,2.8115418,2.002451e-06
0.35467398,1.0777416e-06,1.1832154,0.70879555,0.0001678672
0.18691447,0.011587883,0.19769698,0.071933284,0.0074328827
1.6670836,0.019577442,0.18853897,0.013140569,1.2060475e-06
3.3002913,0.016075082,0.62769675,0.0072704325,1.0758783
0.400483,0.42071787,0.22613586,8.071095e-07,1.9652852
0.30534416,0.43034095,0.4818204,3.303121e-05,3.373148e-05
0.30839106,0.025012786,0.1570983,0.00011309916,0.0008962107
0.1257815,0.91186714,2.5599297e-06,3.9408053e-05,0.4035423
0.88218045,0.14908603,5.787031e-07,0.00027937492,0.71867687
0.4652931,1.4365271,0.081903204,0.00016765777,0.12961394
0.0085034035,2.58071,1.3930954e-06,6.482174e-06,3.5216829e-06
0.12929505,0.7585952,5.6050027e-07,0.0015518055,0.013984233
0.0086420765,0.0171102,0.0013010913,0.73286605,0.4985182
0.0054374402,0.20398189,0.10399038,0.031771462,0.35137376
0.018935967,0.3185725,0.1407622,0.8248872,0.017798828
0.019117566,1.0692825,0.73002964,0.07939886,0.09435008
0.0035417564,3.6017282,0.63032883,1.6943741e-06,0.08606179
0.064821705,0.86813235,0.0650249,0.6263128,0.48908573
0.09968078,0.8132207,0.12740475,1.3114387,2.1590217e-06
2.4984856e-06,1.6969084,0.7554928,0.22700109,8.2091333e-07
4.5460226e-07,0.0027534575,0.3083125,0.18490365,1.9203383e-06
1.3353957e-06,2.0041948e-06,0.07286631,7.147504e-06,9.253636e-05
6.363959e-05,0.08692291,0.42947316,3.7513125e-06,0.9928386
1.9159538e-06,0.3467161,0.00072151,9.44285e-07,0.26802185
8.4562157e-07,6.7916967e-06,3.8383863e-05,9.009672e-07,1.1078757e-06
2.0200528e-06,1.8365125e-05,2.1751252e-06,2.3308824e-07,0.008781644
3.7797029e-06,1.6185065e-06,7.365919e-07,4.892055e-07,2.8003203e-06
1.9461077e-06,2.087487e-06,1.5263904e-06,2.9229957e-06,1.8895441e-06
1.5441345e-06,4.2308466e-06,4.9003324e-06,2.819991e-06,3.1696886e-06
5.52516e-07,0.008929656,6.0452936e-07,5.912579e-07,9.1126196e-07
2.501369e-06,2.7136891e-06,4.3966015e-06,1.8835918e-06,5.978199e-07
1.5252783e-06,3.543876e-06,1.3503133e-06,3.3369375e-07,9.370206e-06
1.2609842e-06,6.76204e-06,1.2741224e-06,1.3106965e-06,4.1330906e-05
1.131056e-06,0.17386957,8.6342374e-07,3.6044264e-07,0.0039832084
2.949158e-06,5.388554e-06,1.5227384e-06,7.472006e-08,0.00043038785
1.3817382,3.077516e-05,9.3156854e-07,7.9032424e-07,8.346316e-06
4.1259922e-05,1.2505823e-06,1.4943835e-06,1.2915334e-07,0.0025118103
0.0021789388,9.609413e-07,9.5626355e-08,4.8033172e-08,2.291776
1.6792011,1.518819e-06,1.0047959e-06,2.5571174e-07,1.3116633e-05
0.00090741686,1.7106578e-06,2.2022834e-06,1.1679889e-06,1.3229239
0.0013128181,2.624638e-06,6.292706e-07,1.682139e-07,0.07876304
0.15463752,1.00694e-06,1.7804554e-06,0.0,3.4648956e-06
0.004578951,6.147794e-07,1.2646259e-06,0.0,8.578809e-07
0.016945912,1.7244726e-06,1.0373044e-06,0.0,9.083305e-07
0.017801471,2.4263086e-06,1.1039894e-07,0.0,8.0492065e-08
0.017971339,1.5907011e-06,3.1915463e-06,6.4662333e-09,2.9152082e-07
0.05556768,1.3494857e-06,3.707908e-07,2.4379018e-08,8.8689075e-07
0.010763474,6.1295196e-07,2.4717388e-06,0.0,2.3707524e-05
0.008592614,1.04991514e-07,1.5366802e-06,9.825061e-09,0.00023506279
0.014749652,3.4286393e-06,2.7994133e-07,3.786882e-09,2.0383828
0.0034583858,1.0926056e-05,1.7785497e-07,0.0,0.002080238
7.3337096e-06,0.00012938521,1.9565487e-10,2.6959627e-08,0.50374156
6.5252143e-06,2.6334571e-06,0.0,0.0,2.5058305
3.0370786e-06,2.4406652e-06,4.1171955e-09,8.582643e-06,0.9329396
1.0500008e-05,0.038408842,9.563326e-06,4.476598e-06,9.559219e-07
1.89791e-06,6.2238496e-06,2.7241828e-07,1.2676603e-06,2.86533e-06
0.00018886256,3.8405573,6.8270407e-07,1.0836944e-06,7.682576e-06
0.001210018,2.4378712e-06,3.3315196e-06,1.2820345e-07,2.882315e-05
0.00066785945,0.17429835,1.2709343e-07,2.0059979e-07,1.7174701e-06
0.00067278545,0.7682355,1.4346881e-07,9.914169e-07,2.5780246e-06
2.8503577e-05,2.4534256,1.2441242e-06,1.8743434e-07,6.921798e-07
9.959969e-06,2.5044067e-06,9.592445e-07,2.9169763e-07,3.2839066e-07
4.0351898e-07,7.76864e-07,3.1481716e-06,7.620171e-08,1.0583279e-06
1.6872386e-07,0.077200234,7.1902405e-06,3.9509322e-07,1.8259136e-07
1.6755118e-07,7.959907e-07,1.0754952e-06,9.3951274e-07,6.4769074e-07
2.236383e-06,1.1169585e-06,1.1219924e-07,1.5009531e-06,0.16799673
0.00015082465,2.1216538e-06,1.3862771e-06,1.4742982e-06,7.1988664
2.7054288e-05,4.280457e-07,6.337703e-07,2.2221489e-06,0.007565656
0.002236654,1.0874836,2.7825826e-07,5.8332025e-06,0.30491054
0.007335106,1.3246703e-06,1.5722767e-07,4.9678392e-06,2.204792e-06
0.009712572,3.3183574e-06,1.1875222e-06,2.5681757e-06,2.0894251e-07
0.0019199192,4.804848e-06,1.4503752e-06,2.1692817e-06,5.0057916e-11
0.0031278138,5.483547e-06,3.1187953e-06,1.0156015e-06,9.727703e-08
0.00017110737,1.1220944e-06,3.4135223e-06,2.9179653e-06,6.6010313e-09
8.106039e-06,4.200692e-06,2.5715608e-06,3.021256e-06,6.2246954e-07
4.3459268e-06,2.136808e-06,1.1898561e-07,8.128145e-07,1.6067761e-06
5.1904686e-07,3.147819e-06,2.8871964e-06,5.961628e-08,1.7728187e-06
1.4131629e-06,1.7968171e-06,3.195552e-06,8.894994e-10,3.2064231e-06
3.6717936e-06,6.208317e-07,4.3971102e-07,1.2398655e-07,5.4520535e-07
1.8103107e-06,1.0724054e-05,2.3253911e-07,5.9980874e-07,4.154449e-06
1.299903e-06,0.00041196824,2.827747e-07,2.2213788e-07,3.5580368e-05
2.5183033e-07,0.0047774683,0.0,1.5185773e-07,0.00017363024
7.2727585e-07,0.0036049518,0.0,3.57077e-09,0.0069316532
2.5348136e-06,0.0063347416,2.332229e-10,0.0,0.0060647717
3.2733103e-06,0.027961714,1.4239242e-07,0.0,0.002372713
0.00012549046,0.44483268,1.9162225e-07,1.1563127e-08,1.4634532e-05
0.0050490354,0.2164512,4.633732e-08,7.667564e-07,0.2857323
0.0010582705,0.19208533,8.62203e-07,2.8629672e-06,0.87631613
0.00012985297,0.11563335,1.1148986e-06,0.00020833247,0.938171
4.05085e-06,0.49017143,9.757207e-07,0.00019833294,1.9542137
0.0006740784,0.3024546,1.5792244e-06,1.9204495e-05,2.7539613
0.23851094,1.5257078,2.0511794e-05,0.00043860753,4.0448875
0.05791526,0.89373046,5.268489e-07,1.7046099e-05,3.8580885
0.21041875,0.32440153,1.7510534e-06,1.7762251e-05,2.326843
0.65591407,0.0059639974,0.00018688513,0.3777798,0.79754394
1.3090856,8.83282e-06,0.038280606,0.7491665,0.0015005572
1.774622,2.6655911e-05,0.037167594,0.6977222,0.00013094967
1.6708155,0.05323823,0.7736804,0.4199634,0.04356384
1.6030258,0.0717643,1.035347,1.4352567,0.0939058
0.62941974,2.2245215e-06,2.0943615,1.9059702,0.09457618
0.023523388,6.509813e-07,2.504061,0.09908566,0.022485143
0.03436844,3.6049605e-07,0.030620907,0.0074104555,0.005188251
0.015641896,6.6226636e-07,0.0039711595,0.0005848084,3.2471899e-06
0.029688586,2.8663248e-07,0.016108042,1.4847317e-06,6.039865e-07
0.019133084,7.746019e-08,0.027333196,7.5202443e-06,1.4249783e-07
0.008921562,1.8592667e-07,0.03914229,0.06453085,1.0108683e-06
0.002263517,2.272918e-08,0.0008304539,0.11927892,2.2282063e-07
0.0006506154,1.8003658e-07,0.01409759,0.0040531084,2.8267823e-07
6.765353e-05,3.0587114e-06,0.0065927273,0.0009110822,1.984986e-06
3.1400155e-05,9.800507e-07,0.0007661146,0.0012244567,0.0002893513
1.9371882e-05,5.0534635e-07,4.565454e-06,0.0015310792,1.3780044e-05
5.527514e-06,7.4709726e-07,7.8828924e-07,0.00013082352,1.8520609e-06
4.1934686e-06,8.012818e-08,1.4784971e-06,0.10373835,0.00025859792
4.0808698e-07,4.6297305e-07,4.5675997e-06,0.022025779,4.887268e-05
1.3220424e-06,1.5295782e-07,7.777827e-06,0.0023913595,8.069595e-07
6.056815e-08,2.7061085e-06,2.100869e-06,0.0071234726,7.880856e-07
5.0384824e-07,4.554898e-06,2.1895771e-06,0.1907504,9.770858e-07
6.5826896e-07,7.4876775e-06,5.4683676e-07,0.29168758,2.5811378e-05
4.015145e-06,1.2927625e-05,1.16987806e-07,8.67033e-06,2.851843e-06
6.4184787e-06,2.8109496e-06,1.1101149e-06,4.4982173e-07,1.2745622e-05
1.612945e-06,4.5987244e-06,4.489368e-07,2.2154686e-07,6.7855444e-07
5.6162684e-05,1.6798194e-06,4.0114514e-06,3.5742073e-07,1.1192848e-06
0.0026387484,1.2749746e-06,8.255916e-06,1.4926708e-07,5.232086e-06
6.8666355e-05,0.00018074858,3.2145172e-06,6.831297e-07,9.683947e-05
1.1813427e-05,9.516899e-05,3.4570252e-07,1.7402103e-06,0.001235482
0.008934755,4.0258083e-06,4.4595646e-07,2.4876688e-06,0.019517489
0.07201101,2.1123121e-06,5.910336e-07,3.6754557e-07,0.07622919
0.055928983,2.046223e-06,8.397097e-07,8.3035917e-07,0.009844298
0.15245758,1.718422e-06,4.8852587e-07,1.628906e-07,4.1524387e-07
0.06674425,2.5074942e-07,9.786786e-07,8.388551e-07,1.3220659e-06
0.015093285,4.078424e-07,2.5927454e-06,9.692761e-05,1.1843799e-06
0.016501186,0.15053235,1.6735416e-06,7.641664e-05,1.7411833e-07
0.040251542,1.2439523,3.3707586e-06,0.0066331313,0.9839742
0.17801532,1.2061479e-05,1.6964196e-06,0.0027697906,9.929551e-06
0.097370036,8.0442434e-05,1.0548059e-06,1.0614265e-06,1.9077232e-05
0.042650536,0.61084026,1.8978926e-06,3.683637e-06,6.1055835e-06
0.008433425,0.47387567,7.2807535e-07,3.5253825e-06,2.7815513e-06
1.6165766e-06,0.05810539,1.5128667e-06,0.31544006,2.6925807e-06
4.116608e-06,0.016959755,2.932231e-06,0.10402105,2.485096e-06
1.8546894e-05,3.4690496e-05,1.1813188e-06,0.13827543,3.7613645e-05
0.078022934,1.5654679e-07,3.4734921e-07,2.9820476e-06,2.995197e-06
0.05390429,1.2491356e-07,4.0926107e-06,0.0077804313,1.1666132e-05
0.026683327,2.6898766e-07,1.6254095e-05,2.1513092e-06,0.20451808
0.026204905,3.1158626e-07,1.1245045e-05,1.9899858e-08,0.43834957
0.011288791,9.6991855e-08,1.7603375e-05,8.4440566e-05,0.0029297485
0.014495992,5.1663115e-08,4.4078797e-06,0.020167584,0.5008363
0.9268501,0.052527342,8.8657935e-06,0.014247062,0.52339405
0.9773383,0.07340549,7.1411428e-06,1.4891575e-06,0.1309201
0.17309982,0.013575902,1.9273682e-07,1.1258533e-06,6.013171e-08
0.032049514,0.0060087536,5.5914745e-07,5.0454946e-07,0.39725155
0.009117283,6.899336e-05,7.629517e-07,0.13641699,0.89038485
0.0047574854,2.9592861e-06,5.3779597e-05,0.800566,0.116140306
0.0085553415,9.2099907e-07,0.00030289215,0.92629313,2.4726032e-06
0.005671097,0.00013677431,2.8304648e-05,1.1509227,7.120269e-07
0.14931984,9.085484e-08,3.039134e-06,0.32893878,1.953672e-07
1.1579521,2.5438027e-07,1.110889e-07,0.19217324,1.0571966e-06
0.6393505,1.0905084e-06,0.8886719,0.057612866,9.989336e-07
0.4669257,2.2626546e-06,0.06823168,0.0032722547,9.937185e-07
0.43995854,3.5777316e-06,0.033166092,1.895777e-05,8.093724e-08
