"[299, 255]","[227, 248]","[287, 319]","[279, 328]","[230, 262]"
3.8191587e-07,9.009174e-07,1.5222278e-07,3.1639968e-06,9.0737394e-08
1.3714973e-06,2.4632864e-06,6.4849024e-07,3.8444136e-06,4.3040977e-06
2.7561592e-07,0.00012752615,6.693215e-07,1.6396591e-07,6.621483e-07
1.9009563e-07,5.4698735e-06,8.263954e-08,9.0655556e-07,7.443469e-07
4.798596e-07,7.55755e-06,1.3590565e-07,2.2896587e-07,9.4765916e-08
7.637416e-07,8.64362e-07,3.9161733e-07,1.2418863e-07,8.139076e-07
1.4273068e-07,5.3905876e-07,1.4908725e-08,2.0619201e-07,1.1932344e-06
6.15667e-07,2.3580735e-06,5.264146e-07,1.9629866e-07,3.1540552e-07
1.086937e-06,3.927589e-06,6.503057e-07,7.128858e-07,3.2283008e-06
8.9197397e-07,4.3558296e-07,6.660608e-07,1.196589e-06,1.5259905e-06
8.0181496e-07,0.00018178033,8.512023e-07,4.4802198e-07,2.2136264e-06
1.6912481e-06,1.5625469e-06,7.3066474e-07,2.3211503e-06,2.9198593e-06
1.2767317e-06,6.132565e-06,2.1406109e-07,0.0013765038,8.097324e-06
2.8878449e-05,3.319386e-06,7.734673e-06,0.020427475,8.485885e-06
2.045345e-05,5.1854835e-07,3.9692723e-06,0.0020478666,5.454126e-06
2.907825e-05,1.5360865e-06,0.014268268,1.4059674e-06,1.7169432e-06
5.1733205e-05,8.498634e-07,0.03421211,0.032862645,2.1745016e-06
0.020996954,1.2883809e-06,5.049564e-06,0.0015047577,1.6017843e-07
0.06131362,2.3217622e-06,2.1692672e-06,1.6769266e-06,2.091211e-05
7.3156144e-08,1.8745499e-07,2.227241e-06,3.1476538e-06,8.40637e-06
2.5118936e-07,2.1426624e-07,6.256321e-06,2.883311e-06,6.480024e-07
2.812663e-08,1.6448116e-07,3.9386168e-07,2.1690153e-06,3.5876164e-07
3.028239e-07,3.4770082e-07,7.309303e-08,4.533785e-08,2.6848527e-08
4.511031e-07,2.3585731e-07,2.0244136e-06,1.2264276e-07,3.004563e-06
1.7739175e-07,4.6514153e-08,2.548957e-07,6.9842537e-07,1.00208915e-07
8.4901944e-07,1.1186241e-06,1.688197e-07,2.795439e-07,0.0
6.846368e-07,5.9587995e-07,7.3707634e-10,3.790414e-08,0.0
1.5070286e-07,4.0277834e-07,0.0,0.0,0.0
1.9760206e-07,7.2470625e-09,0.0,0.0,0.0
6.234394e-11,8.2935445e-09,0.0,0.0,0.0
0.0,0.0,0.0,0.0,0.0
0.0,0.0,0.0,0.0,0.0
1.390041e-10,0.0,0.0,2.2647181e-10,0.0
1.883226e-07,8.587919e-09,1.4003605e-07,6.909952e-08,0.0
2.711378e-07,4.1528186e-10,2.3062937e-07,8.968544e-11,0.0
2.378781e-07,0.0,3.505225e-07,0.0,0.0
5.8569842e-08,0.0,0.0,0.0,0.0
7.54681e-09,0.0,0.0,0.0,0.0
0.0,0.0,0.0,0.0,0.0
0.0,0.0,0.0,0.0,0.0
0.0,0.0,0.0,0.0,0.0
5.0073066e-07,0.0,0.0,0.0,0.0
9.634605e-05,0.0,0.0,0.0,0.0
0.000109403314,0.0,4.5456436e-06,0.0,0.0
1.17062355e-05,0.0,2.0059408e-05,1.900849e-08,0.0
2.7824228e-06,0.0,1.4418687e-05,5.6012245e-06,0.0
1.3400514e-06,0.0,1.4025242e-06,3.5481162e-06,0.0
1.2631305e-06,0.0,2.2618302e-07,9.376305e-07,0.0
1.5759737e-07,0.0,2.618508e-09,6.5442913e-07,0.0
3.193199e-06,0.0,3.5303362e-09,4.969756e-08,0.0
2.227894e-05,0.0,5.1946273e-07,3.087496e-08,0.0
5.4023158e-06,0.0,1.7198894e-05,1.4048597e-08,0.0
2.4300887e-06,0.0,1.2403133e-05,3.7938193e-08,0.0
1.02363e-05,0.0,1.9402212e-05,6.3383993e-07,1.0704599e-08
6.70526e-06,0.0,2.4161067e-05,3.665548e-07,5.2091256e-09
1.5563528e-05,0.0,3.314574e-05,9.41617e-07,1.8976694e-10
1.5881469e-06,0.0,2.0221526e-06,1.5605106e-06,0.0
3.1465603e-07,0.0,4.4722532e-07,5.1629854e-06,0.0
1.0909863e-06,0.0,1.3649196e-06,3.7389168e-06,0.0
3.3145866e-06,0.0,3.1427608e-06,4.1972376e-06,0.0
2.3615562e-06,0.0,1.5523211e-06,1.5170247e-06,0.0
0.003951047,0.0,3.1653808e-06,2.0364891e-06,0.0
1.343014e-06,0.0,2.0533112e-06,2.0909497e-06,0.0
6.7247566e-07,9.4960214e-08,1.6924599e-06,2.4241137e-06,1.2610546e-09
2.8172014e-06,1.9698755e-05,9.781919e-07,1.2281841e-06,1.846215e-07
1.0495647e-06,1.1397461e-05,6.8692664e-08,2.42519e-07,3.2337482e-07
4.7349747e-08,3.330573e-05,3.4137193e-09,7.4125387e-07,1.8207779e-06
0.0,4.8063716e-06,2.5712437e-08,2.6982706e-08,1.5312386e-05
0.0,1.5880265e-06,6.5563337e-09,1.2719823e-08,8.214348e-06
4.3749505e-08,1.3661119e-07,1.3528928e-07,0.0,1.0500657e-05
1.1580551e-05,0.0,3.2441562e-07,3.6234877e-09,1.7675738e-06
6.8166346e-06,0.0,1.9367594e-06,1.3120231e-07,1.0625838e-06
1.2618049e-05,0.0,4.214869e-07,1.1826236e-07,1.7790401e-07
4.3221885e-06,3.3718172e-07,9.497128e-07,2.7192826e-08,7.5846026e-07
6.7819917e-07,1.7512252e-07,1.1465789e-08,4.3431765e-08,6.478124e-06
6.6572386e-07,1.0660659e-06,2.7162338e-07,1.9595557e-08,2.5137813e-06
2.654494e-07,8.2039364e-08,3.9527267e-06,2.8075556e-07,1.580966e-08
1.4885254e-06,8.1253596e-08,3.4986406e-06,3.848025e-06,6.123519e-08
3.49284e-06,2.5566278e-06,5.7314783e-06,2.7154183e-06,6.0341886e-06
2.714579e-07,5.6737673e-07,1.2448182e-06,1.8005142e-09,1.3076774e-06
0.0007360412,6.9473873e-07,9.350578e-07,1.5889649e-08,1.7356374e-06
0.019424643,1.3592608e-06,2.914249e-06,2.3301978e-07,1.7857332e-06
0.03069802,2.057826e-07,8.5753396e-07,4.989692e-06,3.7948723e-07
0.017820282,3.7358888e-07,1.8819626e-06,2.2106629e-07,3.1328138e-06
0.0017698237,1.408426e-05,4.2659467e-06,1.5959964e-07,4.2772604e-06
1.1888508e-06,2.3385476e-07,3.8427147e-06,3.8875262e-07,8.0716376e-07
1.7761714e-06,1.0338818e-05,3.8257145e-08,1.4694053e-06,1.2137185e-06
1.5335214e-06,6.5019e-06,9.24802e-07,8.430185e-07,7.493484e-06
3.062117e-08,1.3104466e-07,1.2794305e-07,3.0033223e-06,5.255049e-06
4.6167906e-06,6.827002e-08,1.9450001e-06,2.595118e-06,2.2890263e-06
1.377664e-06,8.908179e-08,4.2650154e-06,4.1543956e-08,2.8565455e-07
7.038629e-07,5.6590896e-08,1.394279e-07,0.0,1.4229809e-06
6.542193e-07,0.0,0.0,0.0,4.2398085e-07
2.0672512e-07,0.0,1.9331506e-07,0.0,2.7306973e-07
8.923399e-07,0.0,1.0834783e-06,0.0,1.164067e-08
1.0779069e-06,0.0,9.731284e-06,9.4766115e-09,1.9348144e-07
1.1422317e-07,0.0,9.771637e-06,3.879889e-09,5.457797e-07
3.880966e-08,0.0,9.3618555e-06,0.0,1.8520886e-05
4.9289036e-07,0.0,1.2387483e-05,0.0,7.722575e-06
2.0252813e-09,0.0,7.230785e-06,0.0,2.1651989e-08
0.0,0.0,1.879331e-07,0.0,0.0
0.0,0.0,0.0,0.0,0.0
8.53455e-06,0.0,0.0,0.0,0.0
8.539631e-06,0.0,0.0,0.0,0.0
1.3111866e-06,0.0,0.0,0.0,0.0
7.74396e-06,0.0,0.0,0.0,0.0
1.3723387e-05,0.0,0.0,0.0,0.0
1.1916536e-06,0.0,0.0,5.7343993e-07,0.0
9.156937e-08,0.0,0.0,2.1960557e-06,3.1635764e-08
5.54798e-07,7.484359e-08,0.0,1.5156229e-06,1.7096314e-06
1.4221075e-06,7.987894e-06,6.888243e-07,0.0,1.2648067e-05
3.4205082e-06,6.0980155e-06,2.9830424e-06,0.0,6.153455e-06
5.903112e-06,3.3131532e-06,9.9195e-07,2.4309329e-11,2.9651571e-06
4.195858e-07,4.1714306e-06,2.4489826e-05,1.7311395e-07,5.1141587e-06
8.6565916e-07,2.9530437e-07,1.0056322e-05,1.9245404e-06,6.1704495e-06
3.6648618e-07,1.0207631e-06,0.000108086555,6.165506e-07,2.416608e-06
7.146992e-07,2.3479854e-06,1.4261958e-05,1.2872913e-06,6.9834987e-06
8.222665e-07,2.1701483e-06,4.224629e-05,2.8024797e-06,1.9475378e-06
1.0197305e-06,2.5453468e-07,8.1326725e-06,7.924135e-07,2.3107664e-06
1.7308381e-06,6.1393445e-07,3.8593177e-07,2.9405144e-06,5.7983025e-06
6.8281342e-06,0.0,3.593231e-06,1.0289931e-06,3.4851214e-06
1.3560502e-06,0.0,3.5544292e-06,4.207494e-07,1.034654e-06
6.3217403e-06,0.0,3.8628656e-07,3.1532813e-06,4.3364537e-07
2.9578015e-07,0.0,3.935832e-07,1.4887808e-06,9.82748e-08
6.5073785e-08,0.0,1.209522e-07,1.042335e-06,5.0944937e-08
0.0,0.0,0.0,8.712491e-07,9.474669e-08
0.0,0.0,0.0,6.996525e-08,1.04490525e-07
0.0,0.0,0.0,0.0,0.0
0.0,0.0,0.0,0.0,0.0
0.0,0.0,0.0,0.0,0.0
0.0,0.0,0.0,0.0,0.0
7.246712e-07,0.0,0.0,0.0,0.0
1.4408521e-06,2.3259773e-10,0.0,0.0,0.0
7.884681e-08,0.0,0.0,0.0,0.0
4.5256378e-08,0.0,0.0,0.0,0.0
0.0,0.0,0.0,0.0,0.0
0.0,0.0,0.0,0.0,0.0
0.0,0.0,0.0,0.0,0.0
0.0,0.0,0.0,0.0,0.0
0.0,0.0,0.0,0.0,0.0
0.0,0.0,0.0,0.0,0.0
0.0,0.0,0.0,1.9766267e-08,0.0
0.0,0.0,0.0,1.8373832e-07,0.0
0.0,0.0,3.8771304e-08,9.76562e-07,0.0
0.0,0.0,8.649131e-06,3.5226553e-06,0.0
0.0,0.0,6.887842e-06,4.788236e-06,0.0
5.340508e-09,0.0,1.1350366e-05,5.663804e-07,0.0
1.3648096e-06,0.0,9.925374e-07,1.171336e-07,4.6993065e-07
3.2631224e-06,0.0,1.7410396e-07,5.1253414e-07,1.0345476e-06
1.1490943e-05,3.0272442e-08,1.74968e-06,1.1311977e-06,2.6061368e-06
5.0412978e-06,7.012131e-07,1.1789972e-09,1.1824046e-09,8.180868e-06
2.037461e-06,1.7048496e-06,0.0,1.8572749e-09,2.7997876e-06
8.109039e-07,6.945417e-06,0.0,0.0,1.2649008e-06
6.768006e-06,1.5309993e-07,0.0,0.0,3.946871e-07
5.1755385e-05,1.3592329e-06,1.249876e-06,8.465651e-07,1.5843069e-06
1.8481707e-05,1.9333324e-06,2.3412856e-06,1.6678573e-06,5.524361e-09
5.4595234e-06,1.4496658e-07,4.130644e-06,4.6770006e-06,0.0
3.4435267e-08,7.22155e-08,1.2206326e-06,3.5121323e-06,0.0
1.5805238e-06,5.032243e-08,2.3834378e-08,3.0922915e-06,0.0
1.311644e-06,6.8882366e-10,2.122456e-06,1.0420562e-06,0.0
9.198068e-06,0.0,1.4816133e-06,1.0473217e-06,0.0
1.0471813e-06,0.0,4.332341e-07,2.2434495e-08,1.4781628e-07
0.0040747547,2.2910528e-07,7.829526e-08,9.432992e-10,1.9301298e-07
0.011176103,1.6524052e-07,2.2937274e-10,0.0,1.2756589e-06
0.018702641,1.9074704e-07,2.4316973e-09,4.0310055e-10,3.2650241e-06
0.037733447,6.871505e-06,2.647775e-09,2.5700792e-06,2.1210224e-07
0.005994458,1.0125186e-06,1.9284252e-08,2.6557384e-06,7.444219e-07
0.008937806,5.3132203e-07,1.921634e-07,2.4772323e-06,6.0758197e-07
0.0066794087,2.2964355e-06,3.1589022e-07,5.3999674e-06,1.1322405e-06
0.004739764,1.6056548e-07,2.4602843e-07,1.0392295e-06,6.9895674e-07
0.021996425,6.8153855e-07,3.5100837e-07,5.151906e-06,1.3365631e-06
0.014520208,6.841166e-07,3.1600473e-07,7.4567574e-06,2.0720045e-06
0.0017893467,2.3122591e-07,2.084399e-06,7.023733e-06,8.2251375e-07
0.000104825966,6.6031727e-09,8.6062687e-07,2.1625399e-06,1.8834454e-06
4.623433e-06,0.0,2.0753073e-06,5.37246e-07,4.7716326e-06
2.8445547e-06,0.0,1.8592511e-06,1.2188133e-06,4.7410586e-07
1.7272072e-06,0.0,1.2711479e-06,1.2913677e-06,2.1757933e-07
1.0380693e-06,0.0,6.5521243e-07,3.220105e-07,4.850111e-06
0.0,0.0,1.3313252e-06,7.13245e-07,3.9592696e-06
0.0,0.0,4.855427e-07,9.429153e-08,2.7466292e-06
0.0,0.0,1.2815318e-07,0.0,2.5553142e-08
0.0,0.0,0.0,0.0,0.0
0.0,0.0,0.0,0.0,0.0
0.0,0.0,0.0,0.0,0.0
2.1435882e-08,0.0,0.0,0.0,0.0
9.7743914e-08,0.0,4.8900057e-07,2.4462336e-08,0.0
2.5104694e-07,0.0,2.7355884e-06,6.784133e-07,0.0
1.8485517e-06,0.0,1.8962428e-06,3.7050454e-06,0.0
3.844883e-06,0.0,4.1177486e-06,1.0018113e-06,0.0
1.2650104e-06,0.0,2.4110702e-06,2.8807897e-06,0.0
3.8954894e-07,0.0,2.0386458e-06,6.55997e-06,0.0
1.2658699e-06,0.0,3.510268e-06,1.0292756e-06,1.012751e-08
9.933044e-07,0.0,4.730632e-06,3.9318488e-07,2.058439e-06
1.5591847e-06,0.0,7.464661e-06,1.0021384e-06,4.4462413e-07
2.1101318e-06,0.0,4.910305e-06,8.095731e-07,2.971854e-06
7.9585504e-07,1.0848269e-07,2.065127e-06,2.1204387e-06,5.182617e-07
1.7300459e-06,2.0211376e-10,5.699943e-07,9.329083e-07,1.7883895e-06
1.6067056e-06,0.0,9.3306113e-07,2.8640466e-06,1.1430552e-06
1.0043188e-06,2.3563999e-07,2.3650477e-06,1.6398915e-06,1.0404859e-06
8.5498976e-07,2.6718646e-07,2.5402446e-06,2.637347e-06,8.75141e-07
2.5541788e-06,3.9994424e-07,1.3574337e-06,6.775535e-07,1.539944e-06
1.0741703e-06,2.5416625e-08,9.222139e-07,1.7765299e-08,4.880739e-06
2.6315613e-06,0.0,1.3341375e-07,0.0,6.6763977e-07
3.828901e-07,0.0,1.2201495e-07,4.2037943e-08,1.3200543e-07
1.2708516e-07,0.0,7.119034e-07,2.9336613e-07,5.5251217e-08
5.6655233e-07,0.0,3.9842226e-07,5.4442282e-08,0.0
1.6688061e-07,0.0,5.9563416e-08,2.0683786e-09,0.0
0.0,0.0,1.0659192e-07,4.6839074e-07,0.0
6.255403e-11,0.0,1.3378284e-06,1.2828373e-06,0.0
6.3019594e-09,0.0,2.3993962e-07,4.396672e-06,0.0
3.5050703e-06,0.0,0.0,8.675071e-09,0.0
1.695955e-08,0.0,0.0,0.0,0.0
0.0,0.0,0.0,0.0,0.0
4.562883e-08,0.0,0.0,0.0,0.0
0.0,0.0,0.0,8.4694264e-08,0.0
0.0,0.0,6.6954725e-10,4.8396264e-06,0.0
1.3755412e-06,0.0,2.2026678e-07,2.415825e-07,0.0
4.3471726e-07,0.0,7.730218e-07,1.2098714e-06,0.0
7.637394e-07,0.0,9.958144e-07,6.355495e-06,0.0
6.1759147e-07,0.0,2.2737369e-07,1.1749981e-07,0.0
3.9734948e-07,0.0,1.2175046e-07,1.0238615e-06,0.0
0.0,0.0,9.296686e-08,8.893739e-07,0.0
1.7339292e-07,0.0,9.560764e-07,4.6637822e-07,8.467923e-09
8.606502e-07,8.588366e-10,6.556427e-06,5.864878e-08,1.2045197e-07
1.8694027e-07,6.211935e-08,3.964185e-06,1.4001756e-06,1.1693208e-07
0.0,1.8526421e-06,4.535218e-07,2.7486396e-07,9.2024726e-07
7.3930275e-09,2.655492e-06,1.0300771e-05,2.7812144e-08,3.4551064e-07
5.6275535e-08,2.9713935e-06,6.561844e-06,5.9132606e-07,1.2873554e-06
1.9822219e-06,5.85186e-07,4.2614497e-06,3.813346e-06,1.3701805e-06
5.7267025e-06,8.021684e-07,2.3551975e-06,1.9383606e-06,1.4661133e-05
1.5506936e-06,4.757468e-07,2.2865509e-06,4.8635766e-06,1.8975401e-05
6.6799305e-07,5.9653934e-07,3.133476e-06,3.446721e-06,1.3078615e-06
2.612995e-07,3.7310937e-07,3.1578593e-06,1.1098315e-05,3.463201e-06
2.781609e-06,1.4178097e-06,9.3189874e-07,2.6437067e-06,1.0177811e-05
7.8957737e-07,7.855558e-06,5.9394813e-07,7.714926e-08,4.484474e-06
2.5021689e-07,3.3716417e-06,2.626579e-06,1.34099455e-05,1.2549971e-05
1.265114e-06,2.5730203e-06,1.1822186e-06,3.5216974e-06,7.75658e-07
1.5412556e-06,3.8850185e-06,8.647962e-07,1.4733926e-06,3.3284084e-06
8.7395975e-08,2.7960991e-06,3.2089342e-06,1.648403e-05,2.7736696e-06
1.7048797e-07,1.8494812e-07,8.523977e-06,0.0027611218,2.1414493e-07
2.9997864e-08,1.7257686e-06,0.08405212,0.0006087,1.07457645e-07
0.0,1.13945575e-07,0.58067405,0.47913003,7.670213e-08
3.3542484e-09,1.0457485e-06,0.68021697,0.3210537,6.091952e-06
2.1759739e-05,2.7282314e-07,1.2929919,0.81138045,5.70098e-07
9.053933e-06,3.365157e-07,0.083626084,0.18422098,1.0283417e-06
1.2130283e-06,3.0262802e-06,0.0063896207,2.0923485e-06,7.827153e-06
7.975051e-05,8.048535e-06,3.4504455e-07,1.7839236e-06,6.557837e-07
0.00055837055,1.31900815e-05,7.673894e-07,4.7653046e-07,2.54366e-05
0.00017198756,1.002622e-05,9.5206474e-07,9.649699e-07,3.5668178e-05
5.167143e-06,1.4041499e-06,0.38898632,1.1495366e-06,8.74415e-06
1.6789834e-06,2.5669553e-06,1.2543732e-06,1.0801923e-06,3.2247417e-06
2.7168999e-06,1.6094252e-06,5.831184e-07,9.802623e-07,1.8251457e-06
0.005710077,4.37563e-07,4.4716153e-06,1.4960004e-06,8.3023133e-07
0.0011907916,1.7495167e-06,3.7376367e-06,9.084793e-07,3.2979494e-06
0.08515929,0.0,1.2709465e-06,1.2181542e-05,7.3673135e-07
4.1028584e-06,2.380358e-07,1.1051785e-06,6.731956e-07,3.280418e-06
3.0885842e-06,4.445907e-07,2.2866186e-06,1.4408675e-07,1.7897339e-06
9.317405e-07,8.153373e-07,2.2304969e-06,6.1727667e-07,9.293642e-07
1.3138986e-06,4.023161e-06,9.767921e-07,0.0,1.7815415e-06
8.0721173e-07,9.817381e-07,1.7518366e-06,0.0,1.3773075e-06
7.4591225e-07,3.4341354e-06,1.6407058e-06,4.015062e-10,6.0728485e-07
7.034021e-09,1.4100007e-06,8.438584e-07,5.8913585e-08,4.5892074e-07
0.0,1.533397e-06,6.3158785e-07,2.075072e-07,0.0
1.7293979e-07,4.2588285e-06,1.1142766e-06,1.3109676e-08,3.062167e-09
1.3323781e-08,1.4006528e-06,9.3579484e-07,1.9723434e-06,0.0
8.567865e-07,3.844444e-06,2.642454e-07,3.96089e-07,0.0
4.5051792e-07,0.0,1.3619652e-07,3.5953968e-07,2.1863538e-07
7.4357774e-07,0.0,2.7045863e-07,4.6646812e-07,2.1378238e-08
3.1831107e-07,5.682007e-07,2.2578647e-07,9.674013e-07,2.0474304e-06
2.4640272e-07,1.2760152e-06,8.401171e-07,3.421482e-07,6.8879723e-07
1.1368195e-06,5.982759e-07,6.515727e-07,7.642079e-07,1.3935712e-06
1.3429134e-06,0.00058903097,9.720804e-07,0.03519852,2.007521e-06
1.0125419e-06,6.629221e-07,0.02057027,4.2979555e-06,1.208422e-06
1.0237721e-06,2.1738408e-06,0.006860619,0.00014665585,3.2179562e-06
6.673004e-07,1.1538063e-07,0.0005438409,1.5766188,2.2406869e-06
0.0024142575,8.587282e-07,0.0012075688,0.006122085,1.4196598e-06
7.37442e-07,0.11432484,0.0003195948,0.6618125,9.874009e-07
2.7526125e-06,2.41149e-06,4.646869e-05,0.4477542,3.4776235e-07
6.690514e-07,1.3602403e-06,0.03716997,0.19138576,6.690674e-07
7.530832e-06,1.3831286e-06,0.0013676061,4.1795138e-05,8.051503e-09
0.0010746073,1.0085245e-06,4.349543e-05,1.0179116e-06,5.305769e-07
0.5582028,1.0535542e-06,0.0010571133,8.3245986e-08,5.1477095e-06
7.4603613e-06,1.6486212e-06,8.374732e-05,7.069197e-07,6.147979e-07
0.27981377,0.3315555,1.1472565e-07,1.4657231e-06,7.728282e-06
2.5918943e-08,0.0012833517,6.016034e-07,7.549594e-07,1.537805e-06
2.9975826e-07,3.1711306e-08,4.4758693e-07,2.1053899e-07,3.125129e-07
1.5483836e-07,2.0438934e-08,4.2542325e-07,1.0077634e-07,4.064167e-06
6.063871e-07,0.00069839397,2.0590596e-07,0.0,5.894854e-06
2.3978956e-07,0.00038368252,6.351163e-08,5.25982e-10,6.5543867e-07
5.8596278e-08,5.2456403e-07,3.1631856e-08,0.0,3.4573293e-07
0.0,4.7242634e-06,9.231807e-07,4.245572e-08,4.8056006e-07
0.0,7.910123e-06,5.1066434e-07,3.357074e-07,3.7580003e-06
0.0,3.4263903e-07,3.123962e-07,1.003844e-07,8.231104e-08
0.0,1.5693018e-08,1.3681455e-06,1.3672894e-07,2.4589556e-07
1.8464382e-09,4.6203337e-07,4.5622912e-07,2.1107583e-07,1.4383005e-07
6.586957e-07,9.590804e-07,6.4771905e-07,1.4127673e-06,1.4670834e-10
4.235886e-07,9.690885e-07,9.4391504e-07,2.8228399e-06,6.1467387e-07
5.698938e-07,7.651386e-07,5.1149696e-06,6.2588447e-07,7.995147e-07
4.380544e-07,2.2921702e-06,2.8566392e-06,0.0053596473,5.427317e-07
4.8469553e-07,9.867321e-07,8.807692e-06,0.00016722037,0.0
0.00012709307,6.8632437e-07,0.2323065,1.6747766e-06,0.0
0.0007548772,0.0,0.10819938,5.830257e-07,0.0
0.00014741156,0.0,0.05367437,1.8860613e-06,0.0
1.1730388e-08,0.0,0.07016068,1.3954553e-05,0.0
5.659377e-06,0.0,3.1260327e-06,2.4691846e-05,0.0
0.028944647,0.0,0.04207557,1.4258221e-08,0.0
0.027142882,0.0,0.00036151847,8.9622966e-07,0.0
3.0824835e-06,0.0,3.3084547e-07,1.7796181e-07,0.0
0.0054133576,0.0,2.385229e-07,5.405702e-07,0.0
1.4013261e-07,0.0,2.2905433e-06,2.75442e-06,0.0
1.7084998e-06,0.0,6.9196057e-07,1.5890439e-05,0.0
1.01931455e-05,0.0,3.2030394e-07,3.0032603e-05,0.0
1.3681417e-06,0.0,2.7887958e-07,0.00027374353,1.1312067e-08
5.825548e-07,0.0,2.960489e-06,0.00043748034,1.3788079e-07
1.6737607e-06,4.94528e-08,2.2372312e-06,2.7924347e-07,7.854547e-07
0.0005666083,1.138934e-06,5.937668e-07,6.5138084e-07,2.835034e-06
0.18929796,2.2633353e-06,8.600929e-07,1.6438521e-06,2.1750332e-06
0.04274719,2.676983e-07,1.8748323e-06,8.258366e-08,9.4303056e-07
1.5050531e-07,1.3566873e-06,2.845075e-07,4.625692e-06,0.7213057
6.9720335e-07,1.9699514e-06,3.3948368e-08,4.345676e-05,1.8471976e-06
2.5196633e-07,6.352131e-06,1.852313e-07,1.8630259e-06,3.779422e-06
5.6060514e-07,1.3208572e-06,1.0664266e-06,1.5269053e-06,1.5752618e-06
4.7036283e-07,4.6268732e-07,1.3538415e-06,3.8571324e-07,1.3048466e-05
1.5565685e-06,2.0218772e-06,1.0822256e-06,1.3407412e-06,8.2485565e-07
3.4757096e-07,8.878305e-06,3.744586e-06,2.4213343e-06,1.8049014e-06
1.9875479e-05,1.2589442e-06,6.753877e-08,1.1930849e-06,2.6667649e-06
0.046999294,5.4113516e-06,7.840701e-07,3.5194654e-07,1.6735688e-06
9.854976e-06,1.1112793e-05,2.9072746e-06,2.7437031e-06,9.30682e-07
0.01317034,1.01761625e-05,7.975818e-07,3.1631864e-06,1.2328113e-06
0.010981396,1.8154546e-07,1.365097e-06,1.4268963e-06,1.9752021e-07
0.1878567,2.86286e-07,7.1934636e-07,1.3747358e-06,8.278445e-07
0.37974107,0.0886207,2.7939284e-06,9.410368e-08,0.11500514
3.99087e-07,0.11210192,1.1201838e-06,1.187684e-07,0.018198483
9.738217e-07,0.1641521,1.1466249e-07,7.2164454e-08,0.06672322
1.9444856e-07,0.08790381,9.1338956e-07,1.8079895e-08,0.00031401878
3.559387e-07,0.0118280165,4.1402477e-06,1.4483886e-08,0.0369539
2.089079e-06,0.06039633,2.859113e-06,5.0364246e-08,5.1457042e-05
1.441802e-07,0.003861653,5.46219e-05,2.5114863e-08,2.3897414e-06
1.3088287e-06,5.9743393e-06,1.0420441e-05,1.6379292e-06,8.827433e-05
4.4921085e-06,0.31257302,1.4148026e-06,4.053596e-08,0.060485397
3.2110565e-06,0.34169516,9.2749576e-07,9.2554224e-08,0.73654616
1.6451626e-06,0.94328773,1.3378711e-06,5.8985665e-07,0.0001921258
2.5803877e-06,2.4897926e-07,1.0422779e-06,0.12595199,3.300725e-06
1.0780258e-06,2.660518e-06,5.666344e-07,0.44193622,1.093553e-06
7.461782e-05,5.616926e-07,0.2561939,7.2724737e-07,5.684582e-07
0.0007650245,3.170016e-07,0.29209965,8.0977804e-07,9.0841786e-07
1.5004955e-06,0.0058412654,1.1396695e-06,6.0130725e-07,3.323153e-06
8.5365784e-05,1.8184774e-06,5.078259e-07,1.9490858e-06,8.009125e-07
3.0748263e-06,3.086876e-06,1.1095455e-06,5.596161e-08,2.1343428e-06
4.1391377e-06,0.45116228,0.07308953,8.219601e-07,6.8409634e-07
9.785283e-07,0.89834523,1.3766983,0.00020869145,1.3851726e-06
0.0020879887,6.553275e-06,4.387708,2.4510946,1.8158365e-08
1.5099438e-06,6.5421077e-06,0.5555776,5.363988,1.2880403e-07
8.949649e-07,3.18975e-09,5.2826363e-06,3.6408527,4.997678e-07
2.2582476e-07,1.4727401e-05,0.20353547,0.17287168,2.7262578e-07
4.1645668e-05,3.0890287e-06,0.004594055,0.00025989875,6.9970395e-07
8.7017963e-07,5.0974427e-06,0.037338335,4.34726e-06,3.247318e-06
7.685057e-08,1.0483887e-05,8.486012e-08,8.7451144e-07,1.0119645e-05
1.0252175e-07,4.2726864e-05,1.7162536e-06,5.389472e-06,2.468514e-05
1.7562854e-07,3.1645588e-05,4.0061614e-06,6.462726e-06,6.4817796e-06
4.169645e-07,0.0013562584,1.8389779e-06,4.521412e-06,1.5928394e-05
1.8608457e-06,0.0010199449,1.195981e-07,5.083746e-06,8.351159e-06
4.4951864e-08,0.0005930428,6.2265464e-08,3.9833576e-06,3.2274143e-05
7.2578846e-06,0.00028990387,2.7885587e-08,4.3741045e-07,1.2087029e-05
3.5302853e-07,7.927575e-06,1.5897052e-07,4.970833e-07,2.0397318e-05
9.640775e-08,2.009082e-05,8.4577357e-07,5.949261e-07,0.00010721441
1.0661952e-06,2.652386e-06,6.021041e-07,6.227294e-07,1.4889469e-05
3.9416165e-07,7.6887745e-06,3.5531261e-06,3.2533553e-06,7.406806e-07
7.6970156e-07,1.0435421e-05,1.2262533e-06,7.964967e-06,0.082077436
1.2087238e-06,3.13134e-07,7.007287e-06,3.1799286e-07,0.5386706
1.3633362e-06,3.1948873e-06,6.9800586e-07,4.0064183e-06,1.4035358
0.04747681,4.8262307e-05,4.7362485e-07,3.4794593e-07,1.6031256e-06
4.911849,3.644976e-05,2.392442e-06,1.5559297e-06,6.6094907e-07
0.30139038,1.1271467e-06,2.5138118e-06,1.2230012,4.4271582e-07
2.4565636e-06,4.8334005e-07,2.5054371e-06,1.434536,2.1794354e-05
8.607028e-07,3.5447776e-08,3.5969656e-06,8.641728e-05,4.793025e-05
4.0888617e-07,5.3358815e-07,0.0009821834,4.9845556e-07,4.021435e-06
9.623777e-07,7.438075e-06,0.0014852362,1.3802265e-06,2.2146158e-07
7.593492e-07,0.0,8.464276e-06,1.576623e-06,5.088549e-07
1.3827113e-06,1.5223164e-07,6.2903823e-06,7.405377e-06,6.4443225e-07
3.834846e-06,4.02605e-07,2.439206e-05,1.0859798e-06,1.0645721e-06
2.0212217e-07,8.4334864e-08,6.9685107e-06,5.9142836e-05,1.4146966e-06
2.3806438e-06,1.2981071e-06,1.9179292e-06,7.328692e-06,8.2315324e-07
2.9531384e-07,1.4865403e-06,3.0525478e-06,1.4018996e-05,6.833716e-08
6.2108467e-07,4.4494914e-06,1.140716e-06,1.0992924e-07,1.0238047e-06
1.6868916e-07,9.233642e-06,2.4935946e-07,8.7500965e-05,6.9710285e-07
5.0949967e-07,5.5434782e-08,1.3904825e-07,2.4543426e-05,8.8175234e-08
3.4340383e-07,3.2629598e-06,0.2860963,0.042417593,1.9287302e-06
1.07856835e-07,3.7810198e-06,0.3541736,0.045372546,2.9037872e-06
1.8421545e-07,1.6097432e-06,0.011971092,0.03223652,5.613965e-06
5.054072e-08,3.4720563e-07,5.0546544e-07,3.056781e-06,2.1606327e-06
4.7924163e-07,1.3081099e-07,8.2814864e-08,6.003026e-07,2.1563385e-06
1.3877823e-06,1.3533075e-08,3.1997324e-06,9.252909e-07,3.9464004e-07
4.260927e-07,1.04385585e-07,6.629217e-06,0.00022475638,1.1210434e-06
3.056938e-06,1.4114216e-06,0.20561044,1.0978396e-06,1.0309329e-06
1.6550634e-06,1.7189022,0.0058687804,8.998784e-05,3.9556767e-07
1.7140839e-06,0.85151786,0.62688875,1.9023157e-06,7.299497e-07
1.1132119e-07,7.1226525e-05,0.0037210374,2.465143e-06,4.0354107e-07
2.0073016e-06,0.00040951508,2.0578198e-06,2.1557723e-06,1.9651877e-06
1.06978504e-07,0.0001203502,1.4410213e-06,1.4425427e-06,0.0
2.713187e-06,0.0005755858,1.6395874e-06,4.415547e-06,1.6107316e-06
2.5387312e-06,1.2906407e-05,2.4052338e-06,3.7244488e-06,2.8697598e-06
0.008021789,5.1767944e-07,5.8971714e-06,6.51129e-06,1.2211436e-07
3.034028e-07,8.784336e-08,2.5898066e-06,4.181273e-07,5.4290748e-08
9.582453e-06,7.342857e-07,1.3868592e-07,2.6576738e-06,8.5787735e-07
1.4208322e-06,7.0107335e-06,6.741968e-06,3.43029e-06,1.0000116e-06
0.19793683,6.9468792e-06,2.2429388e-06,9.858305e-07,2.9605671e-06
0.009329247,1.0233608e-05,5.295908e-07,3.4075333e-07,4.689071e-06
2.1541977e-05,1.0392029e-06,8.36213e-07,8.2385867e-07,2.156372e-06
8.003224e-06,2.2588559e-07,2.3086577e-06,8.674658e-07,2.7012834e-06
4.4798035e-06,7.848231e-06,3.9221078e-07,1.8884392e-06,9.9569e-06
3.041948e-07,1.3459008e-05,7.193371e-08,4.5226747e-07,1.8233412e-06
3.3068925e-06,2.3208357e-05,2.808252e-06,7.9472227e-07,1.3673566e-06
1.3519019e-05,9.1111286e-07,2.2629965e-07,3.5630345e-07,2.470101e-06
2.2112877e-06,1.150278e-06,6.080314e-07,1.6387957e-06,2.2082797e-06
1.0230004e-06,1.9665608e-06,1.5524369e-06,4.732089e-06,4.018503e-06
4.2085105e-07,1.2853611e-06,5.5166333e-06,5.481567e-06,1.8430727e-06
9.1011486e-07,3.444828e-06,2.3241798e-06,1.5717715e-06,2.1496232e-06
2.6210998e-06,1.6133639e-06,1.0368266e-06,1.018535e-06,1.4904447e-06
1.0085604e-06,2.0098669e-06,0.00063855626,0.007279245,1.6345276e-06
3.6752397e-06,1.3524484e-06,0.055618104,0.00044673323,5.053872e-07
1.6779562e-06,1.0051125e-06,0.37656268,0.12370754,7.657475e-08
1.2253368e-05,6.3830515e-07,1.6793753e-06,0.39516822,8.3031165e-07
1.7661107e-06,1.9213098e-06,1.8147465e-06,2.7532342e-06,2.8885873e-07
5.397302e-07,7.856674e-07,2.2964934e-06,1.7577455e-06,1.04115806e-07
1.8909004e-06,9.1788735e-07,6.5661123e-07,1.3245962e-06,5.026417e-07
3.7165822e-07,1.993511e-06,1.6410667e-06,5.480852e-06,5.3525787e-07
0.00078056444,2.3442947e-06,0.000497573,2.3794248e-06,9.3678955e-07
1.0044159e-06,1.9886795e-06,1.4437732e-06,4.3812608e-05,9.2970834e-07
2.8318027e-06,0.06368712,7.2625187e-07,3.322849e-06,7.6800866
3.2800795e-06,1.1867949,1.3710757e-06,0.00025815974,0.008726854
0.49963728,1.0079242e-06,1.231883e-06,0.14710389,3.38173e-06
0.2572177,1.5904843e-06,7.8231903e-07,8.5175367e-07,1.4405211e-06
6.530126e-07,4.95505e-06,1.5356313e-06,1.0830442e-05,9.4943414e-07
1.2488613e-06,6.328186e-07,7.3130826e-07,2.5512543e-06,1.2382677e-06
9.658013e-07,9.697933e-07,5.5317685e-07,6.500493e-07,0.03273594
1.8252795e-05,5.315219e-06,8.490594e-07,6.748806e-07,8.462793e-05
0.0019554703,2.2629347e-06,9.306754e-07,2.177031e-06,5.782084e-05
5.4718953e-06,1.5257284e-06,8.4227946e-07,0.07255559,0.015113297
1.5007544e-05,0.10101269,1.3092783e-06,0.14923587,0.0047459165
0.06723333,1.5040458e-06,1.364088e-06,0.2502863,0.5872245
0.008876831,1.8328667e-06,3.0234532e-06,8.6395075e-06,3.3238375e-06
0.016481027,4.6919226e-06,3.8337284e-06,2.3223463e-06,1.1357694e-06
0.20758514,3.4336522e-06,2.511435e-06,1.9933518e-06,2.1496596e-06
0.047909204,2.5046977e-06,1.8031151e-06,3.0319966e-06,2.3096427e-06
2.6255693e-05,2.26209e-06,2.156273e-06,2.5432125e-06,5.2318455e-07
5.0861644e-07,5.473271e-06,1.7683296e-06,4.4605185e-06,8.526995e-07
2.2615786e-06,3.1056531e-06,3.109776e-06,3.4560278e-06,1.1301978e-06
1.7696007e-06,5.4247807e-06,2.2611225e-06,1.4800324e-06,2.3145626e-07
1.7995152e-06,5.903094e-06,2.4983478e-06,3.851777e-06,5.2622045e-07
1.5246949e-06,3.753666e-06,1.9829613e-06,1.3027856e-06,1.416949e-06
1.0333681e-06,1.3602959e-06,8.1979215e-07,2.056799e-06,1.6673945e-05
1.297039e-06,9.999276e-06,1.7735545e-06,9.764576e-07,1.5019257e-06
1.289774e-06,0.14991717,4.363897e-08,1.3819752e-06,1.6181225e-06
4.4805978e-07,3.998528e-06,6.3990285e-08,2.1437288e-06,9.084353e-07
1.5979416e-06,1.708284e-08,3.930069e-07,2.0069274e-06,8.323913e-07
4.2813193e-07,2.4983311e-08,8.983257e-07,5.607685e-06,1.3226239e-06
8.5403735e-07,4.996597e-06,4.2779416e-07,1.9230824e-06,1.4128241e-06
1.1372514e-06,9.770613e-07,2.6428836e-06,1.5747034e-06,8.508856e-06
4.4491185e-06,1.1352098e-06,2.6655964e-06,1.7375662e-07,6.9443913e-06
6.6890635e-07,2.214991e-08,4.770256e-07,1.0713319e-06,8.3735875e-07
1.9722795e-06,3.3629698e-05,3.4551334e-07,3.4048912e-07,3.4625443e-06
2.0018424e-06,6.440994e-07,1.3881258e-07,1.1055918e-06,7.8356203e-07
4.3208132e-07,1.30466e-06,1.1953344e-06,5.5421685e-07,3.888525e-07
1.3721245e-06,2.2520867e-06,3.4564548e-06,1.2436527e-06,4.633233e-07
2.2969673e-06,1.243134e-07,3.4778648e-06,3.7989205e-06,5.462302e-07
8.6679256e-07,6.9456604e-07,1.2624629e-06,4.2004926e-06,6.9878547e-07
1.4540885e-06,5.334649e-07,2.587744e-06,1.1548165e-06,2.3280185e-08
2.0070638e-06,3.5374068e-08,1.4486766e-06,2.0981465e-06,2.5727384e-10
2.4932826e-06,7.075133e-08,1.4957441e-06,1.7545127e-06,0.0
1.3336766e-06,0.0,2.100043e-06,1.1110347e-06,0.0
2.3824543e-06,0.0,4.9036607e-06,5.039941e-06,0.0
3.6707576e-07,0.0,1.8382235e-07,1.1586728e-06,0.0
1.760676e-07,0.0,3.35675e-06,7.4779527e-06,0.0
4.7364426e-07,0.0,1.2010207e-06,4.5002334e-06,0.0
8.138741e-07,0.0,1.3603176e-07,2.4811288e-06,0.0
5.705248e-07,0.0,2.264219e-06,4.0739098e-07,0.0
3.900404e-07,0.0,1.4061434e-06,9.21017e-08,0.0
8.938259e-07,0.0,1.0468301e-06,0.0,0.0
8.906058e-07,0.0,0.0,0.0,0.0
1.5719723e-06,0.0,8.4557215e-08,0.0,0.0
7.79867e-07,0.0,1.1203423e-07,0.0,0.0
8.735746e-07,0.0,7.79465e-08,0.0,0.0
3.6981152e-07,0.0,0.0,0.0,0.0
5.682711e-07,0.0,1.4679186e-09,0.0,0.0
3.5840534e-07,0.0,3.0034087e-08,9.6789e-06,0.0
2.1092832e-07,0.0,1.4452534e-08,0.000118382806,0.0
2.3241004e-07,0.0,8.5386816e-08,4.6320532e-05,0.0
3.084709e-07,0.0,5.5832027e-07,0.00033082245,6.456133e-11
2.357226e-06,0.0,1.0588564e-06,0.00013918945,1.5215351e-06
1.7995527e-06,0.0,1.4700937e-05,1.0226563e-06,0.0
1.0109375e-06,1.5808241e-09,1.5487325e-05,6.4577483e-07,0.0
3.9039805e-06,3.1432378e-07,1.5353461e-07,4.0975445e-07,0.0
7.513808e-07,1.1907792e-06,6.8023883e-06,7.980361e-07,9.873434e-07
3.4486666e-06,9.6207e-07,4.901273e-06,5.1527577e-06,7.5496746e-06
3.190557e-06,1.791998e-06,3.2876788e-08,9.368197e-06,1.1839221e-06
5.451715e-06,4.8083402e-06,1.5220198e-06,6.426024e-08,1.7398583e-05
5.9339864e-06,9.874679e-08,9.38122e-06,2.0065684e-06,0.00015736056
3.6768686e-09,7.232061e-07,4.986235e-06,9.191152e-06,0.00011330031
1.4684899e-08,3.31521e-08,7.3972715e-06,3.4906876e-07,8.642825e-07
4.170938e-06,2.3144176e-07,2.841117e-07,1.3042119e-06,1.4744395e-06
8.578741e-06,5.891624e-07,2.6697325e-07,6.219635e-07,8.1925486e-07
4.7757587e-10,7.290794e-07,5.74416e-07,1.1780463e-08,1.1484909e-05
0.0,1.3886842e-07,4.6388646e-08,9.440206e-09,2.44065e-06
2.6603322e-08,5.555343e-07,1.5786722e-10,2.7060944e-08,3.1067924e-07
2.0732641e-07,5.0032013e-06,8.700593e-09,1.32904825e-08,2.3484641e-07
4.2654325e-08,6.35028e-07,5.1659583e-08,2.207355e-08,1.6400867e-07
9.170504e-08,0.0,6.423304e-08,3.3170352e-08,0.0
2.4488086e-06,0.0,4.0084768e-08,2.2588589e-08,1.4826276e-08
1.1417841e-06,0.0,2.8449392e-08,1.0153559e-09,6.105353e-07
2.7277409e-08,0.0,1.2158516e-08,0.0,2.4644693e-09
3.137307e-07,0.0,1.9852913e-09,0.0,0.0
1.5936749e-06,0.0,1.2540974e-06,5.0772155e-09,0.0
1.1376826e-06,0.0,1.1045301e-07,0.0,0.0
2.29807e-06,0.0,8.521246e-07,4.3554795e-07,0.0
2.5595887e-06,0.0,2.1432113e-06,7.1847575e-07,0.0
1.3432658e-06,0.0,1.0545166e-06,3.127177e-06,0.0
5.9697413e-06,0.0,1.9530744e-06,4.365675e-06,0.0
2.2785694e-06,0.0,6.088716e-06,3.6031158e-06,0.0
9.599655e-07,0.0,4.4775284e-06,5.3663266e-06,0.0
3.4434063e-06,0.0,1.1485739e-05,4.579528e-06,0.0
9.022991e-06,0.0,2.6026668e-05,3.7007962e-07,0.0
8.637307e-08,0.0,2.7999923e-07,7.874721e-06,0.0
6.4001036e-08,0.0,1.0208994e-06,1.1107609e-06,0.0
5.381555e-08,1.940904e-09,4.6795972e-07,5.2374196e-07,0.0
3.529949e-07,1.5459063e-08,8.6686276e-07,9.464863e-07,0.0
2.486348e-07,1.2349822e-07,5.2252377e-05,2.3626998e-07,0.0
3.1029765e-07,3.4870502e-07,1.2213978e-06,4.8042953e-06,0.0
2.945089e-07,1.715358e-06,3.0934092e-07,5.242874e-11,3.481632e-07
2.3522604e-07,4.7044164e-08,1.1854438e-06,0.0,1.552762e-07
2.6187427e-06,1.5907526e-06,2.5522416e-08,0.0,2.64556e-08
5.504441e-06,9.675803e-07,1.5919414e-10,5.8349507e-09,4.234397e-08
1.5905193e-06,7.2140807e-07,0.0,2.425531e-08,3.8897166e-08
0.0,1.2037456e-06,0.0,0.0,2.2569637e-07
0.0,4.55725e-07,0.0,0.0,5.3141633e-07
0.0,3.0740352e-06,0.0,0.0,9.2753896e-07
0.0,1.0337411e-06,0.0,0.0,1.2365732e-07
0.0,4.5344738e-08,3.5446313e-08,0.0,0.0
0.0,0.0,1.3705212e-06,3.5398116e-07,0.0
2.5666163e-08,0.0,1.6231498e-06,3.0484532e-06,0.0
2.7307738e-07,0.0,3.4118245e-06,2.964991e-06,0.0
1.2152991e-06,0.0,5.760921e-08,3.564457e-06,3.9706234e-09
0.0,0.0,8.926548e-06,1.2067594e-06,0.0
0.0,0.0,0.0,2.7327578e-06,0.0
0.0,0.0,0.0,3.781846e-08,0.0
0.0,2.6529173e-10,0.0,3.4637194e-06,0.0
0.0,4.555913e-10,0.0,3.0102342e-08,0.0
5.0720794e-10,0.0,0.0,1.492071e-09,0.0
1.6670789e-07,0.0,0.0,9.728716e-09,0.0
5.059539e-06,0.0,0.0,6.115991e-07,0.0
4.1217963e-06,5.0920892e-08,7.0066517e-09,1.6697714e-07,2.6775568e-10
5.7820635e-06,0.00033152013,2.9587532e-10,2.9051162e-06,4.5814245e-06
2.2972308e-07,0.11583047,0.0,6.076513e-06,0.62228113
2.3328329e-07,1.4458836,0.0,1.769473e-06,2.1564941
0.0,0.6404903,0.0,0.0,1.3345425
0.0,0.4899476,0.0,0.0,0.8763283
0.0,1.0117799,2.2759855e-10,0.0,0.7617748
3.6740737e-08,1.0798521,0.0,0.0,0.869869
4.7099616e-07,0.5887151,6.478392e-09,5.2364058e-11,0.69552016
1.1124272e-06,1.6659075,8.984109e-09,2.2175068e-06,0.48919186
5.794661e-06,1.3760394,3.4323912e-06,2.684984e-05,1.953332
4.3823425e-06,1.5176878,1.1736784e-07,0.00038956554,1.2975827
3.5176858e-05,1.166692,1.4377417e-06,1.3050367e-05,3.1288593
4.0124346e-06,0.81365913,2.2206239e-06,1.7217743e-06,0.54140854
0.22284502,1.8296216,5.480961e-06,5.7133775e-07,0.89440054
0.9489737,1.0032868,0.00014109498,5.917917e-06,1.4246063
1.726354,0.45569575,0.16444586,0.17340854,0.9455666
0.3721138,0.40822563,0.3197533,0.12735221,0.15964228
3.7576958e-06,1.0434285,0.5437333,0.06494961,1.8583384
0.4327064,0.008091985,0.75547814,0.0018980236,0.3549201
1.4211495,1.659799e-06,1.6683805,0.049380537,7.4159186e-07
1.416021,5.565505e-08,0.94880295,0.11198829,3.2653503e-07
0.16999671,7.145577e-07,0.68695074,0.09322482,7.386407e-08
0.3702901,2.2728165e-07,0.56916267,0.118066914,3.965314e-07
0.023504827,7.4097116e-08,0.39700973,2.2006749e-07,1.4986326e-06
1.5705082e-06,6.736801e-07,2.7291613e-08,1.633293e-07,1.1124804e-06
8.6178136e-07,1.2250078e-06,0.12491963,1.4665918e-07,6.138479e-07
2.487914e-06,2.26161e-06,0.005198375,0.2759744,2.3020833e-07
4.454607e-06,1.3970794e-06,2.321474e-06,1.2121282e-05,4.439868e-07
2.010059e-06,8.8539787e-07,1.440002,5.417474e-06,8.474832e-07
6.5638045e-07,2.7666147e-06,0.4943193,1.1030726,9.852625e-08
2.1867195e-06,2.9094463e-07,1.6455064e-07,1.873032,6.8397844e-07
9.250416e-06,9.2831755e-07,8.4378166e-07,0.8613091,6.202533e-07
1.4936811e-06,3.844806e-06,1.4051242e-06,7.8569334e-05,8.489378e-07
1.0650749e-06,8.7218984e-07,1.3860272e-06,5.8367746e-06,1.7551092e-06
5.844238e-07,2.1777252e-07,5.913555,1.7055213e-06,1.6581915e-06
0.079070866,9.482017e-08,1.237727,6.970892e-07,3.885776e-06
1.4639558,0.0,6.975316e-05,0.0026276615,8.77132e-07
8.1155196e-07,0.0,10.000541,2.0957457e-06,2.0058162e-06
1.3445195e-06,0.0,0.15447368,1.2734165e-07,2.3792113e-07
2.5890552e-06,0.0,5.3169026e-07,6.5151437e-07,0.0
5.5332646e-07,0.0,1.3415217e-06,1.4242232e-06,0.0
3.153492e-07,0.0,2.436301e-06,3.4667796e-08,0.0
1.8785933e-06,0.0,4.9644e-07,7.498305e-07,0.0
0.0,0.0,5.4127685e-07,6.032585e-07,0.0
0.0,0.0,1.2837723e-06,1.5763253e-06,0.0
0.0,0.0,6.411146e-06,1.3816223e-06,0.0
0.0,0.0,2.2203517e-06,6.0609375e-07,0.0
0.0,5.94177e-07,7.087269e-07,3.4186595e-08,5.445965e-09
0.0,6.151494e-05,2.7450643e-08,0.0,3.4277837e-05
0.0,4.8686907e-05,0.0,0.0,0.0001253991
0.0,0.00040035506,3.458964e-09,0.0,0.00026526497
5.4444627e-06,0.0005890279,3.07159e-07,1.2336452e-06,0.00028065054
4.1866429e-07,0.00019067194,2.1097607e-07,1.2635885e-06,1.1077116e-05
1.0376924e-06,0.0003826924,1.0129328e-06,1.2126045e-06,2.3836465e-05
2.6777634e-06,0.0012409823,5.857712e-07,2.6571345e-07,0.0004986824
4.9233336e-07,0.0028179348,8.520974e-07,6.515967e-08,0.0014450127
8.2608926e-07,0.0035354209,5.0815797e-06,5.0945448e-05,0.002148467
0.0002718336,0.005502313,1.5535952e-05,2.436682e-06,0.0054075513
0.00010261455,0.0010829394,9.692901e-06,3.0899523e-06,0.0020613328
2.24125e-06,0.0008378103,3.1349864e-06,1.6635524e-05,0.006931203
2.5506572e-06,0.00088398607,7.691577e-05,7.334172e-05,0.00091327995
1.0129561e-06,0.0022251494,1.7479646e-06,8.8882385e-05,0.00078156317
1.0179377e-06,0.0066754515,2.7392905e-06,3.0863723e-06,0.00080682256
0.00058194593,0.0067035793,7.769134e-07,2.9101388e-06,0.0050448165
0.0007701766,0.011556025,1.6043499e-06,1.5399125e-06,0.0066717057
0.0005185274,0.0035559626,2.5059812e-06,1.8930473e-06,0.005376918
5.478138e-06,0.006195929,4.408547e-05,8.749619e-05,0.004174668
1.6789985e-05,0.0042772167,5.2038863e-06,4.5684763e-05,0.0052438057
0.0001878452,0.00036838115,1.713934e-05,9.534524e-05,0.0023793343
9.070003e-05,0.0013416181,2.2855822e-06,2.8125834e-05,0.0004207965
3.074651e-05,3.751144e-05,8.7977077e-07,0.00046609566,0.0026197038
6.777048e-05,0.00018524054,4.6638906e-06,1.5356661e-06,0.0010217299
7.672941e-05,0.0026017798,1.7622677e-06,6.8186355e-06,2.9746749e-05
8.502401e-05,0.00094496534,8.903381e-05,0.00022405412,1.6428949e-05
1.370222e-06,0.00011831202,1.6164096e-05,0.00013949619,0.0068697874
2.3361135e-06,2.0053052e-05,6.6563036e-05,0.0003886813,3.956379e-05
0.0002796476,0.00033515395,0.0002532158,0.00020763182,7.9366066e-05
0.0015403223,7.3465606e-05,2.7139942e-05,6.538384e-05,0.0041128765
0.0030955279,5.447975e-06,0.0010664754,0.00019736165,1.31609495e-05
0.0010293712,8.3407445e-05,0.0018782625,0.00020890191,1.1434889e-05
0.0017038783,4.6598492e-05,5.896246e-05,0.00030045834,7.428217e-06
0.0009884745,1.8779729e-05,0.00046715865,8.267019e-05,0.00022933153
9.091299e-05,5.5610008e-06,0.00037777371,3.7863563e-05,1.28627025e-05
1.9131836e-05,0.00016642983,0.000138223,0.00035280627,0.07663891
2.0715339e-05,0.003936721,0.86309606,8.87803e-05,0.69349724
3.1853745e-07,0.0040626875,9.766132e-05,4.9316932e-05,4.8019934
0.8192466,5.0195654e-06,2.9194038,1.0699284,11.064447
3.5232348,0.25447923,1.0556482,0.510743,12.892264
2.9793475,0.0043001813,0.66978526,0.2527894,5.237072
1.1120853,2.6000694e-06,1.4252368e-05,0.9354298,0.5137091
2.3608415,1.6539227e-06,0.023192884,0.3937382,0.00020588472
1.1781125,3.397479e-07,6.647489,0.6230284,0.00077927596
1.701587,1.0921632e-06,2.0399723,1.3234335,0.0012855795
0.6723536,0.0010930663,0.19599779,0.049166683,0.39632967
0.3871587,0.27335912,2.7242218e-06,0.51658064,0.37714154
0.2985048,0.9586196,8.174264e-05,0.35017112,0.65639037
1.0222834,0.3896206,0.0001377571,0.5327253,0.38442677
0.83513886,2.3226256e-05,0.00015242452,5.3391086e-06,2.8828985e-05
0.7442907,3.95303e-07,1.8071564e-06,2.0379152e-07,2.0306863e-06
0.5001526,2.2296806e-06,8.89669e-07,5.9078195e-07,2.5517706e-06
0.00015922189,3.0006468e-06,3.4400239e-06,1.05280535e-07,1.7414729e-06
5.6108377e-07,5.937115e-06,4.14177e-06,1.1010009e-06,7.1926627e-07
1.1366177e-05,2.3733342e-06,4.8630403e-07,8.966049e-07,1.8675642e-06
1.0033551e-06,1.4277804e-06,4.636411e-08,4.2020338e-07,1.0248496e-06
3.8466914e-07,6.0704474e-07,2.0106863e-07,1.0206401e-06,7.298221e-07
1.1425187e-06,7.828766e-06,1.9055929e-06,1.9301133e-06,2.5530567e-06
7.075391e-07,8.265363e-06,9.992241e-07,1.557801e-06,9.417102e-06
7.2669343e-07,5.8467696e-05,2.5865045e-06,2.5541783e-06,2.2439444e-06
1.1048835e-06,3.1645527e-08,9.832752e-07,3.004508e-06,7.030152e-08
5.296461e-07,1.4530073e-07,1.1298437e-06,1.45054e-06,0.0
1.5403697e-05,3.6924317e-07,5.625683e-07,1.9359074e-06,0.0
8.172325e-07,1.1812853e-06,1.083668e-06,5.373443e-07,0.0
1.7270323e-06,1.2369354e-06,2.141715e-06,3.723202e-06,0.0
1.7156782e-06,1.4121904e-08,1.0941305e-06,3.3345882e-06,0.0
6.357992e-07,0.0,3.095723e-06,8.770494e-08,0.0
9.340998e-07,0.0,0.0,0.0,0.0
0.0,0.0,0.0,0.0,0.0
0.0,0.0,0.0,0.0,0.0
0.0,1.614339e-08,0.0,0.0,0.0
0.0,0.0,0.0,0.0,0.0
0.0,0.0,0.0,0.0,0.0
0.0,0.0,0.0,0.0,0.0
0.0,0.0,0.0,0.0,0.0
0.0,0.0,0.0,0.0,0.0
0.0,0.0,0.0,0.0,0.0
0.0,0.0,0.0,0.0,0.0
2.9334478e-07,0.0,0.0,0.0,0.0
1.0162214e-06,0.0,0.0,0.0,5.0380297e-08
6.9854167e-07,0.0,0.0,0.0,8.095322e-09
2.6091266e-07,0.0,0.0,0.0,0.0
2.085981e-06,0.0,3.340328e-07,0.0,0.0
1.2491585e-06,0.0,4.5840582e-07,8.3159915e-09,0.0
6.433479e-07,0.0,6.5426207e-07,0.0,0.0
8.261005e-07,0.0,4.440169e-06,2.4873498e-07,0.0
2.415014e-06,0.0,3.0681697e-06,1.0762075e-06,0.0
2.016994e-06,0.0,1.5495582e-06,1.9108081e-06,0.0
1.5259957e-06,0.0,2.6751006e-06,2.713177e-06,0.0
8.6863605e-07,1.5143415e-08,1.935876e-09,2.9575822e-06,0.0
1.3099855e-06,0.0,0.0,6.337079e-07,3.4625426e-08
1.7908029e-07,2.8150684e-09,0.0,1.398059e-07,9.7854045e-09
0.0,2.3273856e-08,0.0,1.601416e-07,2.158177e-06
0.0,2.4825594e-08,0.0,4.4400367e-06,8.385214e-07
0.0,0.0,0.0,0.0,0.0
0.0,0.0,0.0,0.0,0.0
0.0,0.0,0.0,0.0,0.0
8.5976177e-07,0.0,0.0,0.0,0.0
5.2501787e-06,0.0,0.0,0.0,3.7069356e-08
6.3782363e-06,0.0,0.0,0.0,2.2672015e-07
4.781501e-06,0.0,0.0,0.0,0.0
2.729333e-06,0.0,0.0,0.0,0.0
1.6493344e-05,3.6328657e-08,2.5215794e-09,0.0,6.664771e-07
7.765573e-06,3.6293414e-07,7.150531e-09,0.0,4.1403146e-06
4.730677e-06,3.256738e-06,4.7015982e-07,0.0,1.2998021e-05
2.667402e-06,0.0,7.76274e-07,1.3707122e-08,0.0
3.6143301e-06,0.0,2.9897146e-07,2.6037515e-07,0.0
1.4903324e-06,0.0,8.080756e-08,8.735973e-08,0.0
7.9682206e-07,0.0,5.727394e-07,2.721963e-07,0.0
1.433865e-06,0.0,3.9361717e-07,1.1641164e-06,0.0
2.5352347e-06,1.6604207e-07,4.887141e-07,1.5022255e-06,0.0
4.7193663e-07,2.2737709e-06,8.0974587e-07,1.6647657e-06,3.5945433e-08
1.2446087e-06,4.871471e-07,2.978798e-07,1.754076e-06,4.0222892e-07
2.4893468e-06,5.9028594e-07,2.1486588e-07,2.716075e-06,2.888085e-05
1.4682013e-06,1.0525182e-06,1.36984e-06,2.67776e-06,1.3901002e-05
1.179459e-06,2.1206156e-06,8.804261e-06,8.4507843e-07,3.2927649e-06
0.0,4.0828243e-07,0.0,5.5440773e-06,3.1637985e-06
0.0,4.919023e-06,5.6251416e-08,3.8811865e-07,1.7603479e-06
0.0,1.700155e-06,1.798665e-06,9.605906e-07,1.2726974e-05
0.0,4.4511245e-07,4.180254e-07,1.1352261e-06,3.5217245e-06
0.0,0.0,4.725521e-07,5.4230433e-08,0.0
