"[299, 255]","[227, 248]","[287, 319]","[279, 328]","[230, 262]"
0.0,0.006506954,0.029278891,1.1253871e-06,0.026391983
0.0,0.007998218,0.03000825,2.804246e-07,0.023735525
0.0,0.0020661626,0.022604482,1.5836179e-07,0.029161502
0.0,9.558475e-06,0.014510541,2.7177487e-06,0.034158323
0.0,0.006674359,0.010168077,7.7352715e-06,0.039999567
0.0,0.008783521,0.0098070735,4.1238005e-07,0.039513584
0.0,0.004696957,0.00980955,8.163857e-08,0.02143529
0.0,0.004876135,0.009463427,3.6324434e-07,0.024935156
0.0,0.010295537,0.024470326,1.3538542e-07,0.035695214
0.0,0.007418451,0.033085536,9.399784e-07,0.04702433
0.0,0.018740628,0.014468993,2.263523e-06,0.03983408
0.0,0.014296669,0.017510826,2.4247845e-07,0.062173
0.0,0.03547697,0.054955393,6.1162914e-06,0.065224804
0.0,0.015604101,0.11495642,5.3033723e-06,0.081038
0.0,0.0021124787,0.11373149,2.155808e-06,0.037344746
0.0,0.04606533,0.114590436,0.0006821461,0.101735234
1.5439049e-06,0.0050340625,0.07085555,1.661864e-06,0.0010346518
1.6559582e-06,0.01236976,0.37788293,0.0017325324,4.6800305e-06
2.9371624e-06,8.294134e-05,0.03402172,0.0045626694,5.2316677e-06
1.050319e-06,0.0071856934,0.07336185,0.022294981,0.056171507
1.4587386e-06,1.1166872e-05,0.12455042,0.037695564,7.7617715e-06
2.5929553e-06,1.0239246,0.088783436,0.33260432,2.0665433
9.972038e-06,2.4959943,0.36065876,0.7984616,3.2196736
0.24375494,0.19633912,0.018789291,0.21387585,0.33449066
2.7777898,5.7765794e-07,0.00023883587,5.229993e-08,4.3169348e-07
0.90476686,7.4673216e-07,2.0464195e-07,3.0290556e-07,6.7639263e-07
1.1303713,1.109372e-06,1.5501979e-07,1.3498428e-07,1.0452015e-06
5.330852e-07,1.907533e-06,7.7784364e-07,7.463218e-08,8.5473977e-07
3.075475e-06,1.1087264e-05,7.3815556e-07,4.4434395e-07,1.2586216e-06
0.0010505298,1.535339e-06,0.0001425093,2.9146777e-06,1.0593316e-06
2.0789512e-06,1.3394523e-06,1.5353085e-06,1.6641646e-07,9.506799e-07
4.995542e-07,2.2204154e-06,2.1033647e-07,4.782045e-07,2.2522995e-06
1.4736623e-06,3.2176083e-06,1.2795064e-07,3.269391e-08,1.2716548e-06
1.9538181e-06,8.3411925e-07,5.459226e-07,5.7180984e-07,2.1757282e-06
2.1097464e-06,8.015433e-07,5.575991e-07,1.6326887e-06,7.655937e-07
2.514268e-06,1.6321957e-06,7.451797e-07,1.6353944e-06,2.1003912e-06
2.329981e-06,8.730961e-07,1.2930412e-06,1.9375807e-06,0.9079185
0.06606709,7.1929435e-07,5.024672e-06,3.233437e-06,0.19964911
1.9847594e-06,5.0991696e-07,1.1973342e-05,6.3127577e-06,0.304346
3.0933534e-06,1.1608354e-06,3.4171526e-06,8.131128e-06,1.1376665
2.4180522e-06,1.5626842e-06,2.5459009e-05,0.0001681677,0.00018169027
4.8442284e-06,0.00020516939,1.0691758e-05,1.2063426e-05,1.8805111e-06
3.2853159e-06,2.0256089e-06,2.9377682e-06,2.5929964e-07,1.4911797e-06
1.2943686e-06,6.1746977e-07,1.0862993e-06,3.1341451e-06,2.3785183e-06
3.501446e-07,3.479313e-07,1.3620157e-06,3.3984827e-07,1.1242514e-06
0.0020304036,6.048953e-06,1.1055935e-06,4.8029065e-08,2.9566804e-06
2.358354e-07,7.362823e-06,1.6221554e-07,0.0,4.3766704e-06
1.678543e-06,8.632369e-07,7.655938e-09,0.0,2.0116722e-06
7.09034e-08,1.0201311e-06,0.0,6.1548214e-08,1.3417822e-06
9.275596e-10,1.2300627e-06,1.9242189e-06,5.944469e-07,6.836057e-07
0.0,5.4944985e-07,1.591595e-07,1.6281518e-06,2.18672e-07
8.086251e-08,8.898547e-07,3.3063415e-07,6.0798845e-07,8.5540773e-07
7.164944e-07,1.9460551e-06,5.576802e-07,3.0191293e-06,1.1230042e-06
7.21183e-08,1.700754e-06,8.213638e-08,1.9062695e-06,4.118027e-06
4.0965924e-07,9.700516e-07,2.1326248e-07,4.2014094e-07,2.6800325e-07
8.4840957e-07,3.8547054e-07,1.1336843e-06,1.367623e-07,9.033568e-06
3.7527936e-06,7.918557e-09,2.0566108e-07,7.9264254e-07,2.4632098e-07
3.7943728e-06,1.9335357e-06,7.3985952e-06,0.0019913823,9.816673e-07
1.9319255e-06,4.7240937e-06,6.209917e-07,2.4132437e-06,4.8937627e-06
2.0382613e-06,3.1979166e-06,8.264584e-06,0.0020051012,1.2810298e-06
1.607589e-06,2.9128944e-06,8.4313297e-07,2.4540275e-06,2.2549405e-06
2.4019412e-06,1.1824092e-05,4.4584402e-07,1.4356706e-06,3.489865e-06
3.2864211e-06,7.971852e-06,1.5724365e-06,1.6844432e-06,6.2626614e-06
4.1432068e-06,4.800437e-06,3.28886e-06,6.1362134e-06,2.5583972e-06
4.4858807e-05,5.614071e-06,1.2563553e-06,3.9343863e-06,8.3888784e-07
4.010303e-05,1.1352558e-05,1.2785482e-06,1.3331062e-06,3.4638665e-06
0.014044119,9.0577345e-07,1.716843e-06,2.0723358e-07,1.0324195e-06
0.16842023,5.865093e-06,5.482419e-07,4.352127e-06,4.560223e-06
0.024510253,5.4848774e-06,9.737456e-07,1.7729578e-06,3.2168987e-06
0.0061636344,6.509546e-06,1.1406094e-06,4.792569e-06,4.123805e-06
8.32067e-05,6.7122346e-06,9.631887e-07,9.607372e-07,3.8401736e-06
6.5296354e-07,3.8800154e-05,6.7214132e-06,1.2291571e-06,3.1799455e-06
2.2786012e-06,5.6305335e-06,2.178463e-06,1.3319893e-06,3.2107707e-06
3.4928865e-07,9.151343e-06,9.4092127e-07,1.2069794e-06,0.0026759238
8.6509976e-07,3.0317556e-06,1.338314e-06,1.497745e-06,0.00012845584
7.717237e-07,5.4085895e-06,7.0882e-07,9.179597e-07,4.8421175e-06
5.3725734e-07,1.66297e-05,1.9870095e-06,4.0741775e-06,5.0460312e-05
3.9430583e-06,2.9630817e-06,2.1263388e-06,4.993492e-06,6.243614e-05
1.8208766e-06,2.9948728e-06,1.5145756e-06,0.0028049913,0.00041203247
1.4664387e-06,1.3196602e-06,1.6302317e-06,0.004615145,9.463796e-07
3.3552564e-07,2.4128542e-07,1.3001094e-06,7.5208495e-06,0.0009918526
1.0054979e-06,1.0980895e-07,2.0025107e-06,3.0979386e-06,9.013756e-07
7.886175e-07,7.0126373e-07,2.3179118e-06,1.8975603e-06,7.726448e-07
3.5734827e-06,5.519035e-07,2.60716e-06,3.5828332e-06,1.4636773e-06
4.255699e-06,9.3443134e-07,0.017543154,7.5542107e-06,7.6455274e-07
3.695015e-06,6.6828295e-07,0.04629544,7.1927193e-06,1.8436152e-06
4.8847994e-07,5.332251e-07,0.007994676,4.7816593e-06,3.501551e-06
0.00010828722,7.872264e-06,1.5024345e-06,2.2337779e-06,8.571288e-06
6.7385345e-06,7.587075e-06,2.7785364e-07,1.1827159e-06,0.013824969
2.5257525e-06,3.6717825e-06,0.0001843722,0.013160604,1.0060946e-06
1.0072324e-06,8.879325e-07,2.6250368e-06,6.651947e-07,3.0051902e-07
0.00043814717,1.8972721e-06,2.746819e-06,9.1616147e-07,0.16975142
0.029856127,1.1468029e-06,1.1996196e-06,0.021248594,0.00011465007
9.2439154e-07,1.6353948e-05,0.11872861,0.2511934,2.5380632e-06
2.704844e-06,2.018284e-06,0.0007300154,0.019952374,1.1255191e-06
9.653847e-07,2.5151508e-06,0.67381775,0.016773298,1.4805125e-05
0.00032383818,2.211831e-06,0.0015051134,0.00021186491,4.4949582e-05
1.4796136e-06,5.5979585e-06,0.00037327147,1.3766707e-05,0.07061706
1.1744529e-06,3.929699e-06,5.745982e-06,3.3148248e-07,0.08419102
1.3902178e-06,3.608758e-06,1.3071904e-06,0.043937445,3.162365e-06
1.2557214e-06,3.4501306e-06,3.8264307e-06,0.00043934336,2.2545903e-06
9.0105783e-07,2.9027717e-06,6.8920076e-07,3.2363198e-07,9.2314355e-07
1.0868476e-06,1.9091128e-06,5.394462e-07,2.0407079e-07,1.6116342e-06
5.2912134e-07,4.070288e-06,8.9309987e-07,1.9613706e-06,1.9052086e-06
1.157641e-06,3.1227273e-06,5.071427e-07,0.003065769,1.0041773e-06
3.3712697e-06,8.2672e-06,0.021230886,0.534864,8.9605584e-07
2.6020327e-06,2.0193897e-06,0.16969076,1.2387753e-05,6.9260034e-07
4.3370806e-06,2.6014309e-06,6.2883496e-06,1.6086797e-06,1.6684644e-06
2.7547846e-06,2.1460462e-06,1.9291977e-06,1.7610683e-06,1.363011e-06
3.0347019e-06,1.1954774e-06,3.442747e-06,1.0212855e-05,2.651415e-06
0.00076029304,6.0819366e-06,0.0015484117,1.0948205e-06,1.4647609e-06
0.19680473,6.511315e-07,3.6122838e-06,0.00460992,2.4241572e-06
3.9458237e-06,1.2685905e-06,9.0739086e-05,1.8953435e-05,1.2277518e-05
1.2650545e-06,5.571982e-07,0.01853695,0.012577746,3.2072048e-06
2.0774553e-06,2.6572134e-06,0.0053403494,0.13998605,4.0253312e-06
6.938843e-07,1.382004e-06,1.7510188e-06,4.0681581e-07,2.5846637e-06
2.7569383e-06,2.9138941e-06,2.7770798e-07,3.3304264e-07,3.7849627e-06
5.245042e-07,2.8093643e-06,1.0291898e-06,4.6345042e-07,1.408972e-06
1.322531e-06,5.100562e-06,4.0777192e-07,0.050926104,3.4218417e-06
1.0287558e-06,6.8937698e-06,0.0006252879,0.9341782,2.2785676e-05
1.1326962e-06,1.7857516e-06,3.5705196e-07,0.11159247,3.521352e-06
5.8862105e-07,5.0597004e-07,4.1076175e-05,0.0069841095,6.845941e-07
2.787952e-07,1.0772246e-06,0.19991143,0.0011359373,7.753254e-07
3.6715443e-07,4.2943893e-07,6.0207316e-07,0.0004853749,2.755722e-06
5.1524773e-07,9.421109e-07,4.016507e-06,3.7908188e-07,2.436223e-06
4.347478e-06,1.813123e-06,1.0100088e-06,0.0039088866,3.2408796e-05
1.7794486e-06,0.0017562888,1.9459326e-06,1.2319218e-06,1.582774e-06
3.782189e-06,0.4874139,2.7744536e-06,5.4113235e-07,6.1480716e-07
4.575421e-05,0.42014608,0.039057393,7.365294e-07,0.6269
0.33103332,0.5536749,3.0043768e-07,0.03128669,0.49805227
0.6310126,0.3459942,0.47372898,0.0015814872,0.20755719
0.6682392,0.8719407,0.45382008,4.1119915e-06,0.7473943
0.9298879,2.1437218,0.8657088,0.01878527,1.5841329
0.5988198,1.286644,0.42631003,3.057358e-06,1.9723475
0.2532072,0.34664175,0.0042111543,0.34184584,0.47381872
0.2752133,0.02230208,0.0012933022,0.012800373,0.1859256
0.2243391,5.984546e-05,3.095753e-05,0.009712432,0.063059784
1.0952749,0.0045531797,0.009286411,0.02591288,0.00831567
0.5580951,5.716999e-06,0.000328208,5.686226e-06,4.166351e-06
0.44198844,3.0426218e-06,0.010931942,1.1625173e-06,2.5318202e-06
0.0850405,9.65039e-08,6.3644625e-06,4.9497567e-07,2.316483e-06
0.00034245974,1.637123e-07,5.2181696e-07,6.6266004e-08,0.020086955
0.00035684378,2.609982e-07,5.025316e-07,1.1412479e-07,4.2294323e-06
0.13003042,1.3438687e-06,9.988416e-07,5.7612624e-07,5.492053e-07
2.7231692e-05,3.8408843e-06,6.741477e-07,2.4161952e-07,9.973577e-08
1.3317304e-05,3.0548927e-06,4.714688e-07,9.794036e-07,3.2225657e-07
0.004417015,2.050616e-06,5.4391035e-07,6.325868e-07,4.024199e-06
2.595e-06,7.395325e-06,4.9094683e-06,2.3432318e-05,1.6266868e-05
1.6605794e-06,1.345569e-06,0.0002979202,4.5196302e-06,3.4234424e-07
6.647595e-06,1.6084878e-06,1.3866389e-06,8.062355e-07,1.7978749e-07
5.1734783e-06,2.6218127e-06,1.0484038e-06,9.616293e-07,6.343213e-07
0.013545449,7.42752e-07,1.5265825e-06,0.0014279777,8.253336e-07
0.003296447,1.899637e-06,0.010463713,0.15320122,7.532159e-07
4.3058735e-06,3.1965618e-07,0.109122895,0.2746597,3.0031779e-06
8.8155124e-05,1.5014219e-06,0.035843402,0.13529512,3.3011062e-07
0.01146909,1.3744027e-07,0.029870458,0.148349,6.4235195e-07
0.10405659,3.075573e-06,0.029113539,0.1781665,7.953394e-07
0.18718201,1.0448667e-06,0.043740936,0.20308243,7.636055e-07
0.1342548,1.1195764e-06,0.038198333,0.20206293,1.6822847e-06
0.1076115,8.72998e-07,0.039729282,0.20933089,7.3291085e-07
0.13714129,1.0915685e-06,0.044850584,0.14446804,1.2478648e-06
0.19870935,1.2213333e-07,0.054940395,0.111613594,4.0601813e-07
0.35022026,2.0348652e-06,0.047321938,0.064930685,2.5995216e-06
0.45624852,7.329164e-07,0.013878893,0.027204623,3.1929048e-06
0.29060376,2.8923043e-07,0.00025457938,0.011160086,4.1716943e-05
0.12093161,8.62861e-08,8.3579647e-07,0.0033957877,1.3590146e-05
0.00067813526,9.186086e-07,1.9925697e-07,0.00028545407,8.764295e-07
4.7140793e-06,2.5408153e-07,2.3819741e-06,3.3559154e-05,6.249711e-06
3.980093e-05,4.6488654e-07,3.6569688e-06,7.285967e-06,5.7323465e-08
0.000413526,8.950056e-08,1.66966e-05,6.4357235e-05,1.431427e-05
0.021678992,5.072891e-07,3.8891408e-06,2.316238e-06,1.804151e-05
0.047890898,2.5562003e-06,7.9354595e-07,3.6171365e-05,1.2645942e-06
0.077763274,1.7622243e-06,2.7478345e-06,0.00015904002,1.1462513e-06
0.11111639,7.2854236e-06,0.00013764513,6.91064e-06,6.5677966e-07
0.35655245,0.0011985567,1.1551125e-06,5.3969375e-06,9.458379e-06
0.18601047,0.011038668,6.00908e-07,8.662785e-06,0.00017363344
0.017159762,0.020851552,1.5700313e-06,0.0010302477,0.00221041
0.12573744,0.006998374,1.0394751e-06,0.016523374,0.008022589
0.1483085,0.020007811,2.9103765e-06,6.057616e-05,0.00040427115
0.14841738,0.0038138859,1.2710049e-06,2.1409602e-05,6.3247026e-06
0.07747809,6.6421285e-06,1.3694166e-06,1.1477192e-05,3.5037128e-06
0.034072697,0.021215409,8.788528e-07,5.3814974e-06,1.8474806e-06
0.08400011,0.003209642,3.3433362e-06,2.4877752e-06,0.00023516144
0.009515836,0.014148562,2.1509366e-06,1.5156045e-06,3.7944467e-06
0.0273824,0.028558921,4.2182205e-06,2.4627138e-06,4.686337e-07
0.005351272,0.00012652534,1.1555978e-06,1.7527857e-06,5.4838415e-07
0.007931011,1.7809584e-06,2.414092e-06,2.2382826e-06,1.9654694e-06
0.017220352,5.6587595e-07,2.133546e-06,1.3467338e-06,1.2438651e-05
0.0039970684,7.329791e-07,4.6806017e-06,3.1094116e-06,6.98054e-06
1.2592739e-06,1.1550886e-06,7.226863e-05,1.2797052e-05,8.0393465e-07
0.011140802,2.72057e-06,0.00021659031,2.8848073e-05,0.013650009
0.020443125,2.7254205e-06,0.0010474122,0.00141619,0.0116714835
0.011233775,4.273217e-06,0.010852638,0.0030349905,1.5732839e-07
0.02251572,1.4725211e-06,0.0010160425,7.304207e-06,1.3324651e-06
0.10476651,4.6429335e-07,2.8837073e-06,1.0211577e-06,3.020638e-06
0.06958259,0.002005493,8.78698e-07,1.2451476e-06,1.4549997e-06
0.05747129,5.9292306e-06,2.038674e-06,8.1734754e-07,0.021702997
0.07001938,0.00067563355,3.0735146e-07,1.0952895e-06,0.015464784
0.028510807,0.017116638,1.2711591e-06,6.540739e-06,0.016672362
0.0036099846,0.0027236154,1.977227e-06,3.4688735e-06,0.00010103332
1.530321e-06,0.020413417,2.1187109e-06,1.3393075e-06,0.02585488
0.028794577,0.010715456,2.8757152e-06,1.3121003e-06,0.0068306783
0.062603116,0.005035616,1.1882858e-06,1.0156543e-06,0.0005849425
5.781985e-05,1.4971037e-06,8.7568685e-07,0.025676982,2.706384e-06
0.0014542965,0.012709547,6.9917264e-06,0.00028877426,0.00021086058
0.0049432702,9.829475e-07,3.6922213e-06,1.1481092e-06,8.002484e-05
3.472283e-06,3.7558048e-06,4.9716577e-06,3.4513848e-06,3.3428384e-07
1.5004755e-06,2.4402568e-06,3.1743361e-06,2.9248495e-06,2.7129477e-07
9.0753696e-07,9.385249e-06,3.0945491e-06,8.3843724e-07,2.300273e-06
1.4936506e-07,5.90523e-06,2.3501918e-06,3.821348e-06,5.4535976e-06
9.735917e-07,1.8477518e-05,3.215114e-06,0.0003564921,5.5397754e-06
9.301489e-07,2.1560092e-05,0.0040838346,0.03755326,5.316236e-06
3.775235e-06,1.20740815e-05,0.013703848,0.10292901,1.5732487e-05
0.0009734406,0.06593336,8.0383563e-07,4.0253633e-07,0.059864633
0.0007223824,0.16014016,3.0939725e-06,5.4960304e-07,0.006323201
0.025623443,0.37443793,7.34052e-07,2.8051352e-07,2.0112943e-06
0.29388383,1.6999734e-06,1.2631002e-06,5.106727e-07,0.0102797
1.8228111e-06,0.027468832,2.92952e-06,7.700338e-07,1.26478235e-05
5.0968106e-07,3.9990812e-07,3.1904212e-06,4.559374e-06,1.053648e-05
3.921652e-06,2.820247e-06,2.1038861e-06,2.3765529e-06,5.6075413e-07
4.4803681e-07,6.8829495e-06,1.6994438e-06,3.1899604e-06,7.887271e-07
9.586457e-07,3.8203484e-06,4.103364e-06,1.4617932e-06,3.2382226e-07
0.00036899932,2.0909647e-05,3.9658045e-07,4.6414237e-07,1.1327862e-06
0.14052479,3.1863433e-06,4.4756183e-07,1.196262e-06,1.2773341e-06
0.0010057209,2.3829589e-06,2.4793536e-07,2.1543249e-06,1.2817596e-06
1.5161339e-06,2.9432837e-07,1.7280187e-06,8.921956e-07,2.4921674e-06
0.07336208,2.0871278e-06,4.57283e-06,6.3890807e-06,1.1771303e-06
0.037738375,3.979183e-06,2.3278571e-06,2.5246816e-06,1.5551984e-06
1.6700833e-05,4.8125694e-06,2.4399599e-06,3.9672473e-06,4.418974e-06
6.487416e-05,1.6116803e-05,6.022423e-06,5.6576114e-06,3.060104e-06
0.005179659,1.9792417e-06,4.823326e-06,2.5356428e-06,8.995891e-07
7.599806e-07,2.9809025e-06,4.515858e-06,9.118449e-07,2.169168e-06
2.173137e-06,1.2642133e-06,3.7538916e-06,3.921571e-06,3.168592e-06
9.598535e-07,3.958391e-06,8.140855e-07,1.041415e-06,4.2147326e-06
1.040936e-06,6.6618254e-06,1.2930574e-06,2.5622123e-06,1.22731e-06
6.2874636e-07,2.4756496e-06,7.2188334e-07,1.13147e-06,9.562368e-07
5.786151e-07,2.7656475e-07,1.2211742e-06,3.442613e-07,3.7504572e-06
7.935024e-07,1.5491286e-06,3.0919268e-06,6.039835e-07,2.3929115e-06
7.014261e-06,9.751319e-07,1.204673e-06,1.5720908e-06,2.8677374e-07
5.2558808e-06,2.232967e-06,0.02869665,4.9696305e-06,2.1307439e-07
3.4418676e-06,1.9105362e-06,0.044350855,5.6157586e-07,1.1369173e-06
9.2156015e-06,1.6472442e-06,9.845334e-06,1.8389418e-06,5.7776356e-07
9.819505e-06,9.801456e-07,0.020284647,0.00093078305,0.0004620391
0.017758992,0.0032408426,0.028525634,0.0050930604,0.0059083225
0.20291975,0.0017411314,0.028230673,0.009023342,6.857388e-06
0.3813334,0.00036696307,0.1804774,0.03177232,1.2044037e-06
0.4308239,4.6305568e-06,0.30194432,0.022541204,3.0296274e-05
0.62511116,2.5929842e-06,0.27191186,0.009843215,0.0075651766
0.060374476,0.31444967,0.004466183,1.6637599e-06,1.7366798e-06
1.0838658e-05,0.028710851,1.205294e-06,1.9357337e-06,1.2663504e-06
1.9257236e-06,8.947304e-06,1.5254487e-06,1.4144015e-06,2.0635957e-06
2.2521056e-06,3.1224588e-06,2.9703908e-06,1.3310466e-06,3.135903e-06
1.6218314e-06,2.9573982e-06,5.537598e-07,1.7005833e-06,2.1189942e-06
1.2189004e-06,8.155823e-06,1.2840699e-06,1.373723e-07,1.9940253e-06
1.9626252e-06,5.8974856e-06,3.3045753e-06,1.3946714e-06,1.9490255e-06
2.2285908e-06,5.4567868e-06,2.4334097e-06,8.216345e-08,1.4241646e-06
8.935624e-07,2.0126963e-06,1.761171e-07,3.9136253e-06,1.0324452e-06
2.7418635e-06,1.6224121e-05,3.989777e-06,3.4244826e-05,1.315781e-06
0.00023735766,1.3757946e-05,4.2551002e-07,0.21365367,1.8275734e-06
0.0023046595,5.692639e-07,0.07739024,0.15397453,2.2415873e-06
0.0038750018,1.677482e-07,0.038988825,2.5071306e-06,1.0500312e-07
1.4848422e-06,1.2048907e-06,5.2871036e-07,1.0920798e-05,1.2625077e-06
9.3500516e-05,2.6525204e-06,1.1204764e-05,8.6042655e-06,1.6970471e-06
0.005716114,3.0058217e-07,2.343643e-06,1.0711586e-06,1.5241071e-06
0.0036586882,7.613677e-07,1.5955418e-06,4.8579723e-06,1.7542408e-08
0.004382277,8.7891016e-07,3.726602e-07,5.5946016e-06,1.1372449e-07
0.032649666,1.0365172e-06,8.9299357e-07,5.681876e-06,1.6062594e-07
0.10814872,6.8611433e-07,1.674574e-06,4.8631482e-05,8.3590805e-08
0.18568312,8.4713696e-07,3.0862589e-06,5.4311977e-06,5.852275e-07
0.20401326,2.100975e-06,2.8986904e-07,2.417376e-06,7.112637e-07
0.19670022,4.528395e-06,1.8023137e-06,0.0038083792,6.898039e-07
0.12638716,3.5599123e-06,1.6561428e-06,0.009147324,2.7714266e-06
0.06693277,8.191696e-07,1.9794445e-06,0.0003848709,2.4062283e-06
0.008510778,4.3737773e-06,2.8249453e-06,1.2328599e-06,2.8446782e-06
2.5946242e-06,1.0173885e-06,1.749137e-06,2.0047487e-06,2.1782173e-06
9.082764e-07,1.4586046e-06,9.15265e-07,1.5822261e-06,1.9774218e-06
1.2065262e-07,5.5190644e-06,3.5099831e-06,2.5780325e-06,0.006889213
1.6946374e-06,1.2160646e-06,1.5900155e-06,7.9661424e-07,0.00074816565
4.6503146e-06,5.4907237e-06,2.8290829e-06,1.8740999e-06,1.38074065e-05
4.4636963e-06,9.3391514e-05,3.651834e-06,4.4625617e-06,6.870931e-07
4.6759546e-06,1.1709422e-05,3.0271312e-06,3.0638735e-06,8.706033e-07
1.5684516e-06,1.6888421e-06,2.9618382e-06,7.7849944e-07,1.4556412e-06
9.67421e-07,2.0885479e-07,1.4438942e-06,9.889449e-05,1.6889312e-06
3.7241787e-07,3.2282855e-07,7.2032244e-06,5.8504554e-07,1.4789183e-07
8.714983e-07,3.4216102e-06,0.0004541819,0.010732731,1.8040375e-06
2.8930253e-06,3.5539347e-06,0.0035258215,0.0014693643,4.180894e-06
2.5147904e-06,2.8653642e-06,0.0138696,3.3087312e-07,9.421125e-07
1.63528e-06,1.1143208e-06,0.0028526818,2.957405e-07,7.6085234e-06
1.3270421e-05,1.2018435e-06,0.005725616,7.633151e-07,2.99395e-06
0.03772085,8.8102223e-07,0.00016388316,0.048358537,4.3609794e-05
1.6441619e-06,1.1532279e-06,0.10654258,0.16788276,6.0933276e-06
8.389751e-07,2.8302106e-06,1.1066631,0.19008952,0.07888729
1.1433037e-06,5.559011e-06,0.050404746,1.0580674e-06,0.043793198
1.7555647e-06,5.465887e-07,0.0272174,1.5286693e-07,5.3670756e-05
0.2205004,2.2336949e-06,7.053899e-06,1.538378e-06,3.9298713e-05
0.27360338,8.358715e-05,0.0,9.0053425e-07,4.3838263e-06
3.399545e-05,0.00029017802,1.4168841e-06,1.4758845e-07,1.1470148e-06
2.679618e-06,8.559336e-09,1.2561255e-06,7.372015e-07,9.989119e-07
1.8894898e-06,2.7414342e-06,0.0005911055,1.4292295e-06,3.2145326e-06
2.094531e-06,1.3195358e-06,0.00032922282,3.2921762e-06,2.0478442e-06
2.7124725e-06,1.0032637e-06,2.7157182e-07,2.806967e-06,4.5466886e-06
1.0649641e-06,1.3884171e-06,1.760573e-07,3.1775146e-06,2.2325248e-06
2.4423105e-06,8.8863214e-07,2.3649469e-05,0.11868851,1.4621548e-06
2.5541706e-06,4.9669413e-08,0.0118332235,0.13219146,1.0627406e-06
2.8949164e-06,1.40784105e-05,0.10634304,0.06731127,8.597379e-07
2.0973098e-06,2.8402885e-06,0.25984874,1.0037742e-05,5.4701063e-06
6.9190935e-07,3.0420813e-06,0.03711578,1.5508132e-05,4.0126197e-06
1.030283e-06,9.774005e-07,8.65064e-07,1.572059e-06,3.357856e-05
1.1392107e-06,4.053225e-07,3.9278683e-07,1.1577011e-06,1.1425656e-06
0.0009877601,0.00022023075,3.903372e-07,4.363499e-07,5.40544e-07
7.585798e-07,5.3942404e-07,1.8535202e-07,4.4659495e-07,8.834635e-07
4.1384983e-06,1.5312279e-06,1.4159863e-07,9.273437e-07,2.8230934e-07
2.5647655e-06,9.957637e-07,0.2351034,7.4481677e-06,7.194739e-07
3.8024456e-07,1.942673e-06,4.391459e-06,3.7536945e-06,3.5915437e-07
6.807355e-07,1.2658506e-06,3.0989466e-07,7.8805283e-07,1.5651418e-06
2.6666696e-06,2.0864918e-07,2.9224993e-06,2.3533818e-07,2.75108e-07
3.992753e-06,9.4288714e-07,6.451596e-08,3.5021841e-07,6.8102844e-07
3.022497e-06,4.061005e-07,8.505933e-08,1.8665034e-07,2.0426144e-06
7.5233976e-07,3.328897e-07,7.5562497e-07,3.1199167e-07,1.309683e-06
8.441501e-07,1.0046398e-06,6.2239195e-07,1.2039704e-06,1.2805238e-07
1.6906993e-07,1.1862481e-06,0.003545611,0.0025036028,1.9971949e-06
7.0548697e-07,9.985719e-07,0.017592335,0.00012721005,3.1558167e-07
4.177249e-06,4.612469e-06,2.1526823e-06,7.58331e-06,2.2234556e-06
4.1736316e-06,6.776921e-07,2.0845634e-06,2.3900136e-06,3.9896975e-07
1.7992278e-06,5.7277066e-07,1.0978542e-06,3.401588e-08,1.840698e-06
3.0678802e-06,1.0054845e-06,0.10583289,6.997736e-06,1.3375428e-06
3.8122678e-06,2.1661195e-07,0.010890233,5.5085566e-06,3.16469e-06
1.3680826e-06,1.5014343e-06,0.059861246,2.7413635e-06,2.7887475e-06
2.357491e-06,1.6174619e-07,0.27744284,0.31238484,4.325331e-06
2.5606998e-06,3.0695433e-06,2.3154447,1.310021,1.5048738e-06
1.4321316e-06,1.0675684e-06,3.793723,0.7055079,2.8230452e-06
2.7579504e-06,1.7864655e-06,2.487178,0.87941736,0.012322626
2.3295672e-06,1.1583409e-06,0.46707684,0.22046627,0.0009474714
4.8122656e-06,1.0378945e-06,0.99381167,0.05216996,1.5190797
1.5161691e-05,0.54119426,0.37339708,0.0032483959,2.2066164
2.2694807e-05,0.45007274,0.6013901,0.0034716043,1.6906965
0.0042498717,0.058930293,0.1570286,0.005665686,0.71465725
0.0036427826,0.00070364436,0.5893222,0.002313896,4.694593e-06
6.1569394e-06,2.0835242,0.8789368,0.0015679492,0.7612627
0.02402434,1.402554,0.8450897,0.02719874,0.7271949
8.680772e-07,0.97248894,0.3645077,0.11074832,2.026987
0.011516539,2.0125904,0.64419025,1.0177044,2.8346446
0.11461852,2.146629,2.2092738,3.000012,3.9953456
0.97066075,3.6778328,5.045295,4.545642,3.1864269
1.7301364,2.5365026,6.1478534,5.6337633,2.7697067
1.2638447,0.63182634,1.4779365,2.4571066,0.9950982
1.475002,2.4284346,1.7548105,0.25309154,1.1088276
3.9282858,1.272235e-06,0.20424536,0.022818359,0.001981218
1.4825089,0.44491652,7.154455e-07,0.020101612,1.68937e-06
0.31807408,1.2954926e-06,0.00070897915,2.7860374e-06,1.7099512e-06
0.49271536,0.00011006497,1.1386362,1.903704e-06,1.7497828e-06
0.02974968,1.1706474e-06,5.595647e-07,0.007574609,1.158921e-06
0.016695913,7.560705e-06,0.2603493,6.362557e-07,1.1429722e-05
6.429405e-06,3.0411827e-06,0.078583956,1.479568e-08,0.45382556
0.00018410599,8.7206763e-07,0.05092275,6.5355175e-07,8.321635e-05
9.170287e-07,2.622888,7.446404e-07,0.3260059,1.8736117e-06
1.5923828e-06,7.5085075e-07,0.016024593,5.0857943e-07,0.04743865
0.13474037,8.489764e-07,0.7812442,0.936182,0.00011951483
0.046600416,4.572481e-07,1.1733216e-05,0.0002706624,2.7415654e-06
0.1984933,2.8835307e-06,1.3254662e-07,0.00020069283,1.1644188e-06
1.9633278e-06,3.3695187e-07,3.2321532e-07,0.00014127571,4.34664e-07
9.087425e-07,7.4043936e-07,4.4123135e-07,0.00203692,5.365453e-07
1.2052286e-06,7.5744697e-07,3.45083e-05,0.0004032875,1.0759987e-06
2.2386342e-07,7.8585634e-07,1.0086262e-06,0.007455996,4.9573697e-07
4.906104e-07,2.1004855e-07,2.4389326e-05,0.0009816935,4.4214337e-07
1.9168354e-07,2.8700367e-07,0.0003246045,2.702129e-07,8.571798e-07
4.6020133e-07,2.6705365e-07,3.7343494e-07,7.3442135e-07,5.756845e-07
3.0992493e-07,9.208389e-07,1.0714832e-06,7.1957055e-07,9.729354e-07
6.514269e-07,2.372402e-07,0.59619254,7.3121146e-07,1.1815612e-07
1.058238e-06,3.37851e-07,0.0007669787,2.0958032e-06,1.0476831e-06
0.8479952,1.1513013e-06,5.5328014e-06,1.7171814e-06,4.036354e-07
0.50425273,3.7814817e-07,0.01647283,1.8746418e-06,2.7442832e-07
3.9640483e-05,6.068625e-06,2.0238003e-06,2.4755377e-06,6.2048167e-07
4.988897e-07,7.60148e-05,1.7372441e-06,2.8214665e-06,9.08091e-07
0.0004237358,3.1447328e-06,8.666296e-07,1.0630363e-06,4.933199e-07
4.717864e-05,2.5843624e-06,1.1194065e-05,6.407667e-07,1.6798033e-06
4.2373495e-06,1.6958011e-06,1.6593162e-06,0.0006142226,5.438662e-07
4.4750127e-06,0.010830945,4.2079428e-05,0.00014700746,3.4407576e-06
9.784137e-05,0.005725773,1.6386075e-06,0.75174576,1.4386275e-06
5.303152e-05,1.5227011e-05,1.6804884e-06,0.0018289604,3.6406855e-06
3.5445112e-07,5.4422463e-07,1.6904156e-06,0.24682434,2.3793891e-06
2.1459439e-06,1.6647978e-06,0.02731452,4.3799237e-06,1.4212884e-06
2.915583e-06,1.3702229e-06,0.3104457,8.5182114e-07,1.7002158e-06
3.631641e-08,1.4465456e-06,0.006563592,3.0181386e-06,2.6417367e-06
0.0021579976,1.5098797e-06,3.028394e-07,4.3695158e-07,1.179324e-08
1.5504194e-06,3.5335398e-07,5.247537e-07,1.3341299e-06,2.452792e-07
1.5206277e-07,4.678388e-08,3.2791448e-08,4.4395978e-07,1.687551e-06
2.350603e-07,6.4152164e-07,8.712721e-09,4.5380705e-07,3.1046446e-07
1.8581581e-07,7.942166e-07,1.6087762e-09,1.3690048e-07,1.3429349e-06
1.1479563e-07,4.0648615e-07,8.63259e-09,4.6161e-08,9.5849355e-06
2.1987749e-07,5.11854e-07,1.503358e-07,1.2765996e-07,2.7066058e-05
7.772819e-08,2.2291151e-06,7.965786e-08,5.4133523e-08,7.274357e-06
1.2085326e-07,1.0065625e-06,2.5428548e-07,4.8890917e-07,4.3433903e-07
7.343885e-07,7.899957e-06,1.369134e-06,1.1366253,1.1560714e-06
1.3830193e-06,2.4011488e-06,1.3636252e-06,1.1570985,4.235092e-06
1.2158796e-06,0.545547,0.7642961,1.9367008e-06,0.008624488
1.5135039e-06,0.847557,0.013458561,3.125454e-06,0.56350577
0.08445681,0.042347275,0.031660806,2.2145578e-06,0.8124247
0.65623397,0.046262693,0.00065853103,0.4616688,0.14267856
9.3911774e-05,0.09460849,0.036909007,0.020504843,0.45645282
0.16280605,0.064100824,0.0033793717,0.00028934318,0.36919048
0.64623904,0.013178854,8.473894e-06,0.31446195,0.34811935
0.23996317,0.012952802,0.043319385,0.08016725,0.076962605
0.7307161,7.3244587e-06,0.11015197,0.024800835,0.0020314942
0.5774488,9.875552e-07,1.0233289,0.028973393,3.1149184e-06
0.010301899,1.362312e-06,2.0899873e-07,0.07454975,7.138216e-07
0.47434494,4.142269e-07,0.009090816,0.28424507,3.410634e-07
0.2984363,2.2317383e-07,0.12412742,0.035354618,1.5676977e-07
0.00040570894,1.4373875e-07,0.019620758,0.012489992,1.7600368e-07
0.07019641,6.261917e-07,0.0017437594,0.049378738,3.2457532e-07
3.8202074e-06,3.4224428e-07,0.19355182,0.4854748,3.6919027e-07
3.6121066e-06,8.2113064e-07,0.015296725,0.3594085,1.9466898e-07
0.12964289,1.8639227e-07,0.0059907073,0.0891919,4.0667734e-07
0.00018076705,1.8267937e-07,0.0007661423,0.28406593,3.658266e-07
1.9904242e-07,2.9522593e-07,3.678708e-05,0.93302697,1.1519327e-06
4.059053e-07,3.3170835e-07,1.1795867e-05,0.020889778,5.1871405e-07
8.720108e-07,4.28771e-06,4.2797433e-06,0.06317783,3.687533e-07
3.1455667e-07,6.7793153e-06,0.013685996,0.05724414,9.003991e-07
1.1963407e-06,3.565005e-06,5.3364724e-06,0.48856553,5.13179e-06
1.4039446e-06,8.302391e-07,2.9021091e-06,1.5800378,0.107774764
5.240624e-06,6.9163127e-07,0.41565394,1.8990229e-06,1.106346
2.358206e-06,7.244683e-08,2.1375968e-06,1.2522465e-06,0.08152849
2.9092614e-06,6.033306e-07,0.00042340244,1.1942548e-06,0.516483
0.8591129,3.6302065e-06,1.572533e-06,0.40805897,0.020119289
0.0005637287,0.050672106,6.544405e-07,2.1116254e-07,0.01138748
0.001438417,1.037654e-06,5.961536e-06,7.548889e-06,0.0030546654
0.00026972604,3.0841888e-06,4.2086676e-06,1.182452e-06,4.106789e-06
0.000421754,2.7660153e-06,9.843047e-07,2.3657799e-07,0.99884784
0.073820636,3.229335e-06,5.174345e-07,4.7273926e-07,0.00017484964
0.00017225392,0.04137273,2.080734e-07,1.3450532e-06,4.3732412e-05
2.1042992e-05,0.65249705,6.0142787e-07,9.542766e-08,1.0580997e-06
3.7119075e-06,3.421217e-06,8.7889407e-07,7.4089808e-06,7.143608e-07
3.1071067e-05,1.7894262e-06,1.9626339e-07,2.6357138e-06,7.758636e-07
6.9269237e-07,5.7865606e-07,1.0530991e-07,4.5887268e-07,3.106427e-06
3.101313e-07,2.1636301e-06,1.058967e-06,7.02021e-07,2.7486333e-06
1.2317044e-07,1.7262175e-06,8.4104124e-07,2.7805272e-06,1.0686774e-06
4.5989822e-07,1.3548033e-06,5.9166024e-07,0.0,2.0672903e-06
9.8039166e-08,1.4051446e-06,2.0156883e-06,0.0,1.7808743e-06
1.3445953e-07,9.137449e-07,1.8025303e-06,0.0,2.6938096e-07
6.5681667e-07,1.1741237e-06,3.1488664e-06,0.0,1.3991057e-06
1.8397408e-06,7.212619e-07,2.6967712e-07,1.2991012e-08,1.5315959e-06
1.310182e-06,2.938036e-07,0.0,4.6141187e-07,2.622701e-07
9.68268e-07,1.077176e-06,3.6931695e-07,3.2303058e-06,1.4434772e-06
1.2600094e-06,2.28378e-06,2.4787846e-06,4.940945e-06,5.7148804e-07
0.00024987693,5.693592e-07,0.42880765,0.07402156,5.839232e-07
0.00051653886,1.026074e-06,0.12365495,0.018896509,3.7609897e-07
8.388953e-06,5.994414e-08,0.8423049,2.084737e-06,2.4532696e-07
1.6913199e-06,1.3406598e-06,0.5455131,1.0984963e-06,1.1600065e-06
2.476394e-06,9.965435e-06,7.874081e-07,8.124651e-06,4.6827392e-07
3.5166986e-06,5.2721234e-06,6.4630617e-06,1.9260792e-06,1.8757576e-06
8.9417745e-07,8.5045085e-06,3.9066617e-06,7.1447703e-06,3.47128e-06
1.3853409e-07,7.70949e-07,1.6645815e-08,8.0913844e-07,1.9168532e-05
6.553364e-07,3.0775157e-06,1.3960513e-07,2.7555908e-08,6.761994e-06
0.00031332907,6.622789e-07,2.1033386e-06,1.4234753e-06,1.0738656e-07
0.00045415497,1.0005007e-06,7.7408106e-07,8.871314e-06,6.7913693e-06
0.00055949437,7.0295636e-07,1.7919938e-07,6.99079e-07,3.188597e-07
0.00046288312,2.1128962e-07,7.033298e-07,0.00020129491,5.783745e-07
9.703298e-07,0.087437905,9.334016e-05,0.0010339449,0.16120772
8.2585615e-07,0.16999018,9.450651e-05,0.008846465,1.1401348
3.5526386e-06,0.0005169941,1.8270198e-06,3.4514208e-06,0.02718255
3.3572724e-06,0.10514176,0.025861554,0.000465881,0.26486662
6.9249154e-07,0.15090317,0.048935257,0.034572557,0.45553464
0.01537318,0.051863752,3.8162466e-06,0.0016772625,0.018763775
0.6519951,0.02764985,0.018331733,0.015537809,0.029783666
0.38991714,0.026936913,0.08221313,1.2056842e-07,0.055788513
2.5185704e-05,0.02084653,0.15869445,2.1473285e-05,0.055832144
4.9273303e-06,0.017725546,0.19005708,0.01240048,0.050025884
3.4827424e-06,0.0047036866,0.14569212,4.2173183e-06,0.03564279
1.4884196e-05,0.0002905189,0.18678582,4.301554e-06,0.015212435
8.2590095e-06,0.0030675663,0.27914762,4.503525e-06,0.010546821
3.910431e-06,0.002460326,0.23166423,2.2294987e-06,0.012690184
1.6837124e-06,0.0026230896,0.1263506,5.416913e-05,0.011512063
5.265284e-07,0.0027651573,0.103607334,7.86521e-08,0.013312345
3.891044e-06,0.0019673365,0.10868261,2.5888478e-06,0.014958604
2.6706882e-06,0.003367105,0.13377407,4.3875093e-06,0.022319816
4.8390357e-06,0.012261795,0.09614835,4.9956734e-06,0.029463997
8.05718e-06,0.016827062,0.0843999,4.0602777e-06,0.030405471
4.5409492e-06,0.0098016355,0.055258818,5.7490915e-06,0.020629682
0.0008444363,0.009590572,0.047263607,1.4260959e-06,0.025635723
1.9453132e-06,0.007692837,0.05099722,3.7849886e-06,0.03143358
0.0009238818,0.0077252337,0.07099178,4.4507565e-06,0.018222779
0.0056311414,0.0046558175,0.10502744,0.0036162243,0.020974075
0.0033597765,0.0020372313,0.09496456,0.0042793457,0.0379559
0.005772615,0.0003315776,0.07908612,0.0951872,0.027662065
0.006057549,0.00033866882,0.14016981,0.17110033,0.030943207
0.013652574,0.0028111194,0.21342555,0.07460789,0.08026251
0.017321555,0.10399247,0.051947717,0.13651808,0.21675552
3.4280914e-05,0.62420475,0.13798578,0.037367884,0.12000644
3.7865175e-06,0.1742696,0.09777024,3.582167e-06,0.14431588
0.029910536,0.105523996,0.21258642,4.312531e-06,0.09553922
0.5374349,0.2119596,0.086793736,1.2502035e-05,0.3176365
1.3684533,0.21151584,0.0028931904,0.016672498,0.7754463
2.3332171,1.7923541,1.0205547e-06,1.2106289,0.22186992
1.6014905,1.1792821,0.052969303,0.12824048,0.7845786
0.97973424,2.0224779,0.059952226,7.470867e-07,1.9970965
0.7794079,1.9418263,0.052410454,0.28922248,1.343328
0.4007886,0.9549324,2.315187e-05,0.3146069,0.61024666
1.0668856,0.35342246,0.1195184,0.16930737,0.08625475
1.0328879,0.71193856,0.73751926,0.3252684,0.5176961
1.40903,0.20667389,0.48559022,0.08008884,1.9379027e-05
1.8904101,3.1281259e-06,0.00036086747,6.279381e-05,1.0092549e-06
1.0913175,1.3126204e-06,1.6373016e-05,6.0888487e-06,8.769329e-07
0.80896634,1.4586749e-06,1.951068e-07,1.833382e-08,1.0681706e-05
0.0034018967,1.2050748e-06,8.560339e-08,4.954503e-09,1.2088341e-06
1.0225574e-06,3.8800085e-06,7.287969e-08,3.9085553e-08,2.68648e-06
1.1422348e-07,1.3911283e-06,1.3505806e-07,2.3509985e-08,2.0609284e-06
2.293621e-07,1.0603737e-06,5.169755e-07,6.076351e-07,1.6828196e-06
2.6067752e-07,1.2006957e-06,1.0717734e-07,1.0457152e-07,1.8347066e-07
3.4830614e-06,0.0,1.073146e-08,4.4351044e-11,0.0
1.1145576e-06,5.0155523e-07,0.0,3.0798216e-08,2.7696296e-07
1.0611998e-06,7.37266e-07,0.0,2.902495e-07,4.5112574e-07
9.414012e-08,8.406968e-07,2.8016183e-07,2.6588618e-06,0.059719108
5.447237e-07,1.6840386e-05,0.06408926,1.0774598,0.27644128
5.4633966e-07,5.5803224e-07,0.6336238,0.90949076,7.533321e-07
2.2536574e-06,3.7538748e-06,0.72401714,0.13631463,1.5905933e-06
9.868004e-07,9.991815e-07,0.3814921,1.2086958,1.3750445e-06
4.664142e-07,7.831723e-06,0.34715107,0.0004910526,2.5013908e-06
2.170717e-06,4.620525e-06,1.5731398e-06,0.40004724,5.0064295e-07
0.26366484,2.5281388e-06,1.8336581e-06,3.7720144,1.1724791e-06
0.41022933,1.6376968e-06,1.2128512e-06,5.873972e-06,2.866678e-07
6.7508864e-07,2.3548118e-06,0.00017306344,0.00039061147,2.1733072e-06
0.28973362,6.0645875e-06,0.07355616,9.530524e-06,0.39112642
0.00042842116,3.7899526e-06,2.7511298e-05,4.9075544e-07,0.37400672
0.34715292,8.463647e-06,8.0910395e-06,0.055920124,0.44174698
0.35220423,1.5241712e-06,1.1633206e-05,5.0286167e-06,1.4690604e-05
0.0013248937,3.3316837e-06,4.255883e-06,1.3030351e-06,1.2216029e-06
0.13587135,1.279602e-06,1.8251879e-07,8.5173255e-08,1.2386522e-05
0.04095759,0.00011275068,2.8017146e-06,1.1822063e-06,0.35309052
0.016105536,0.6083597,3.3263498e-07,1.6120582e-07,5.7126215e-07
2.0029263e-06,1.033052,1.0526107e-06,4.9703243e-07,0.020544492
1.2669709e-05,0.5258283,4.1327235e-07,2.9921674e-07,0.026099036
8.111058e-05,0.038307644,4.43745e-07,9.1662656e-07,0.08079111
3.0905235e-06,1.474985e-07,1.3837221e-06,3.9616148e-07,9.239871e-05
2.6986102e-06,3.6253056e-07,0.00034955458,1.1205568e-06,3.9864648e-07
3.9951074e-06,0.22815302,0.01310687,0.013039485,3.6581346e-07
1.2730058e-05,0.9228774,0.10335728,0.17502457,5.368608e-07
7.1205723e-06,1.0358994,0.13770099,0.17966476,1.4511448e-05
2.9388996e-06,0.774347,0.1576771,0.17992264,1.0614809
0.09301969,0.76183283,0.24735704,0.21459204,1.1284978
0.35102084,1.0692163,0.5384424,0.21027173,1.071774
0.5102612,1.8729742,0.5085789,0.10511967,1.2415394
1.0138239,2.1381304,0.16749702,0.054107744,2.0542893
0.91188025,2.210733,0.3959754,0.120939456,2.469464
0.65973896,2.8555224,0.80284846,0.24684815,3.2321682
0.73478967,2.22911,1.0272543,0.39872524,3.2270095
1.200797,0.2300838,0.5451315,0.19903225,1.8764219
1.1257682,1.5425947,0.78091675,0.3477382,0.8392868
0.13590342,0.70948845,0.8959173,0.61056423,0.071684726
4.2002184e-06,0.497558,0.92505366,0.7514826,0.13735239
3.7853317e-06,0.29989076,2.1432536,0.39014354,0.033493213
0.0004525379,0.13333237,1.1281222,1.4343332,0.3842118
0.0907918,0.018207835,1.1404803,1.3563596,0.4252671
0.12938614,3.2084364e-07,1.6704274,0.8143717,0.67151827
1.0306756,1.0716714e-06,2.4316018,0.36276266,6.2390623e-06
0.5947889,3.0089168e-06,1.5229359,0.86300665,0.07082424
0.0028450051,1.850388e-05,0.1733549,0.15719968,0.043484833
0.0029809752,0.003326099,0.061044037,0.17632739,0.008419635
7.7367355e-07,0.061027758,1.0856279,0.19529246,0.24110767
6.0475086e-05,0.27614444,1.3108804,0.42082384,1.4535881
6.2749046e-07,2.018299,1.4330745,0.25617686,4.8140426
6.404689e-07,4.4930477,0.46397334,0.16957378,4.252833
1.1616899e-06,0.9776673,1.7473689,0.1294862,1.0175506
2.0431685e-06,1.2016714e-06,2.602652,0.37457192,3.2673545e-06
0.10027825,7.664009e-07,1.9721309,0.39375666,8.0971495e-07
0.22102207,0.0009560512,1.1029955,0.02284523,0.01256378
0.8690484,2.0694417e-06,0.018894952,3.6097401e-06,0.24403304
0.49483582,1.7743666e-06,0.03246728,0.00053603697,1.5166262e-06
1.6567534e-05,1.4605276e-06,3.0521736,0.40519425,1.9262059e-06
1.5563619e-06,9.762938e-07,0.00069873343,9.812082e-07,1.7297755e-06
2.8005966e-06,0.0007761864,0.004482507,0.091999635,8.8441965e-07
4.348457e-06,0.08810012,0.47917795,0.43380594,0.000549235
3.5040675e-06,1.1439418,0.46337596,1.3693327,2.0123742
1.5791508e-06,1.8657825,0.09784219,0.20130315,2.6251476
1.2402292e-06,0.20466638,2.1990666,0.25579092,2.6624653
0.084012896,0.6299711,0.3323875,1.0683059e-06,0.42992574
0.4977755,3.113365e-06,0.31130707,1.140204,0.32658878
0.9748452,1.8259766,0.6089335,1.6881144,1.1813829e-06
0.41203105,0.16380857,4.070237,1.0149219,2.308753e-05
0.57003546,0.09858648,0.9033894,0.46973637,0.0010847342
4.105319,0.083267525,0.3311577,0.003063049,0.5472117
3.0166993,0.30805522,0.0029666515,0.011629833,0.0625175
0.5960162,0.020221058,0.009644411,0.0055037346,0.1802965
0.00042142594,0.22594719,0.001257179,0.008690061,6.404626e-06
5.2771827e-07,0.014724668,0.0777924,2.9896242e-05,7.972561e-07
0.0060231765,3.924718e-06,0.020770961,0.014597933,1.949051e-06
0.05031107,1.35786e-06,0.0053884108,2.147276e-05,4.5251863e-07
2.016015e-06,2.6024788e-06,0.07315167,0.22075945,1.7904384e-06
1.6279582e-05,2.6726862e-06,0.08260979,0.12200257,6.3656967e-06
6.777123e-05,1.8262411e-06,0.34408855,0.31581122,3.667339e-06
1.8886473e-06,6.7856913e-06,0.49372312,0.013882288,3.080048e-07
1.5165735e-06,2.6451798e-06,0.24724692,0.18003024,2.0828206e-06
2.3668229e-06,2.7531612e-06,0.07061706,1.1160878,1.9524375e-06
1.0613185e-06,3.7374307e-06,0.0022875608,0.15606433,4.2637807e-06
0.0053959587,1.9335143e-06,3.620738e-05,4.0078735e-06,2.2659e-06
0.0347575,2.8201205e-07,7.884397e-07,1.8055379e-06,1.9437696e-06
0.10019049,9.1338967e-07,1.00477655e-05,2.7356186e-06,1.8745451e-06
0.09551616,1.2067791e-06,1.8319344e-06,1.818769e-06,3.6992777e-05
0.018540565,4.7251565e-06,1.4439779e-06,3.5818252e-06,3.476826e-07
2.2005288e-06,6.9171797e-06,4.291379e-08,7.392378e-07,0.0061812303
2.2224572e-06,0.54846513,8.703856e-08,3.857695e-08,0.018962976
1.671979e-05,0.00018844346,0.0,4.4579616e-09,0.024225352
0.017151913,0.00027813483,6.585609e-07,0.0,0.00050409103
0.80075425,6.5232557e-06,1.5840331e-07,0.0,0.19312984
0.6546607,0.010384732,3.3680232e-07,2.5017124e-08,0.00013146449
0.0020763087,5.6818837e-05,4.1340872e-08,0.0,1.6954822e-05
0.003729612,1.457439e-05,5.008018e-08,0.0,2.82563e-06
0.00013587493,1.5477207e-06,0.0,0.0,5.8388272e-05
1.4058203e-06,9.307195e-07,0.0,0.0,0.0007794665
3.262133e-07,1.1050411,1.4538831e-10,0.0,0.6010722
1.6247124e-07,0.0005256706,0.0,5.968746e-08,2.9878578
0.0011599624,0.0019477102,0.0,6.218e-07,0.26343936
0.59055305,0.000113571696,1.2058528e-06,9.530957e-07,1.4003808
0.0077354014,0.0002022129,2.0708587e-05,1.107463e-06,2.5940537e-06
1.8773055e-06,1.3840196e-06,0.000270456,6.586316e-08,1.9043087e-05
0.013939753,3.064022e-05,5.565046e-05,2.6847454e-07,0.0010349603
0.053974863,3.1518048e-06,0.31989607,0.004111068,1.5585101e-05
6.2621825e-07,3.593106e-07,0.7731968,0.25378373,3.1327966e-07
6.401818e-07,5.098849e-07,0.056201663,0.002770272,9.070957e-08
7.682298e-05,1.0593935e-06,0.010315122,0.00031533663,3.9376636e-07
3.3895847e-06,2.7390823e-07,1.6447839e-05,0.31002197,2.8317518e-05
1.1231787e-06,6.5623965e-08,0.00012854699,1.3024448,0.58516204
2.9110254e-07,1.3481778e-06,0.0007464058,0.0015832855,6.195388e-05
6.1180954e-06,4.5135045e-07,0.0010672205,1.3275443e-05,5.8352427
0.0009802622,1.9224856e-10,4.2650387e-05,6.215668e-07,0.017926663
0.0050122477,3.7961296e-09,1.6659585e-06,3.016735e-08,0.32265276
1.3413312e-06,0.00073026755,4.026018e-07,6.163538e-07,0.073507175
6.849983e-07,0.00075188954,8.6953804e-08,0.0,1.794121e-05
8.872632e-08,1.9415381e-06,2.3472984e-07,1.0329594e-08,1.1454473e-06
5.5698827e-08,0.0,1.4698504e-07,0.0,1.432337e-07
1.5511703e-06,3.28033e-10,1.7889715e-07,0.0,0.0
4.7453335e-07,4.020076e-11,0.0030958788,5.813025e-07,4.2375388e-09
7.8174484e-10,1.4335933e-07,0.0008937555,2.0674925e-06,3.6934313e-07
0.0,4.187406e-06,1.0255569e-07,1.1094894e-06,8.2336584e-07
0.0,2.750042e-06,3.479925e-07,2.1830567e-06,6.0457586e-07
4.935549e-07,4.3626417e-07,1.4361892e-07,3.882642e-06,2.7457859e-06
6.823361e-07,2.2816579e-07,1.5841535e-07,1.1366268e-06,1.1431657e-06
1.0260243e-06,2.3620987e-06,0.00038032053,4.1383032e-07,6.809469e-08
3.5208345e-06,1.3098781e-07,0.5410302,2.8497273e-06,2.2942176e-07
2.1754024e-06,2.9156775e-09,1.7400043e-06,1.6649627e-06,0.0
1.10811875e-07,0.0,2.5567604e-06,1.4523313e-07,0.0
8.1070275e-06,1.04324035e-05,1.4311399e-06,1.0729036e-07,0.0
1.5970707e-05,0.0,5.2651694e-06,0.0,0.0
5.417241e-07,0.0,2.4924393e-06,0.0,0.0
4.054399e-06,0.0,0.0,0.0,0.0
1.3960079e-07,0.0,0.0,0.0,0.0
0.0,0.0,0.0,0.0,0.0
0.0,0.0,0.0,6.801989e-07,0.0
0.0,0.0,1.3308083e-07,1.3452876e-06,0.0
0.0,0.0,9.1603295e-07,8.967055e-06,0.0
0.0,0.0,0.0,8.138225e-07,0.0
0.0,0.0,0.0,4.0171194e-10,0.0
0.0,0.0,0.0,0.0,0.0
0.0,0.0,0.0,4.214678e-09,0.0
0.0,0.0,3.1739006e-08,5.6091085e-06,3.200971e-07
0.0,0.0,3.8665944e-06,0.00011467564,1.733182e-06
0.0,6.781779e-10,9.927375e-05,0.00020152109,1.8847146e-06
0.0,8.735083e-06,3.846935e-05,1.8329394e-05,4.406309e-06
1.0518369e-07,2.0388313e-06,1.555296e-05,5.679945e-06,6.643268e-05
1.0853268e-07,4.0800996e-06,1.0991047e-07,1.1128935e-06,1.8439504e-06
4.309703e-09,6.9611733e-06,7.332662e-07,1.3831651e-06,2.3510384e-07
5.2559344e-09,7.7340744e-08,5.816058e-07,6.03475e-07,1.2830918e-06
4.3262858e-07,1.02639286e-10,6.0869706e-07,3.616212e-06,5.67913e-07
2.252976e-06,1.6711168e-07,1.7206245e-06,1.7459984e-06,3.8489675e-06
0.0011889415,1.0270496e-08,1.3874505e-06,2.4127555e-06,3.6285207e-06
0.12967514,0.0,1.7665085e-06,0.02176251,2.1586754e-06
0.032628816,6.2472856e-07,0.00055753795,0.035601616,1.5280422e-06
0.00089700596,1.7419492e-06,1.8250767e-06,2.0679695e-06,1.0430715e-06
2.4959186e-06,5.8711885e-06,2.1926264e-06,5.573548e-06,5.712555e-07
1.8762192e-07,6.46633e-07,1.7516335e-06,0.025590673,3.175534e-06
7.18373e-07,2.2739446e-06,1.6553668e-06,3.442397,1.9205522e-06
2.383888e-06,0.9407035,1.1988536e-05,0.13708188,5.696314e-06
3.9484607e-07,0.9793789,1.00184925e-05,8.304004e-07,1.1889352e-05
2.745163e-06,1.527416e-06,7.694952e-07,2.3664074e-06,2.1947692e-06
2.0075441e-07,3.3712001e-06,1.153607e-07,8.590201e-08,1.0493856e-06
9.097603e-07,3.4196853e-06,8.411441e-07,2.8113745e-05,1.9236143e-06
6.0470035e-07,1.5923318e-06,1.9264553e-06,0.0017979665,7.266283e-07
1.8894558e-07,6.489544e-06,1.7681616e-06,4.2853185e-07,1.1174242e-06
3.782524e-07,7.776809e-06,1.2510337e-07,2.0961615e-07,8.0005265e-07
2.3306536e-07,2.9796765e-06,5.2925446e-07,1.79624e-07,1.431998e-07
2.7215237e-06,8.029602e-07,5.456938e-08,1.8945564e-06,0.0
8.658328e-06,5.8393493e-07,1.29097e-06,9.608954e-07,0.0
8.038752e-06,2.0074188e-08,6.603145e-07,6.3392423e-07,0.0
1.5259329e-06,0.0,1.3222285e-07,5.458143e-07,0.0
1.6571425e-06,0.0,2.8743611e-06,2.6109595e-07,0.0
5.839935e-07,5.7519437e-06,9.182523e-07,1.6350998e-07,8.415675e-09
1.103631e-07,4.959502e-05,3.9611073e-06,1.282992e-06,0.0
1.6831608e-06,2.2661927e-06,7.110596e-06,0.0,0.0
3.809028e-06,0.0,6.2691356e-06,0.0,3.1327865e-08
1.8239018e-06,1.1979035e-08,0.0,0.0,0.0
9.554899e-06,6.947625e-05,0.0,0.0,1.7766189e-06
4.3965506e-06,6.3067164e-05,0.0,0.0,0.00013678202
8.584815e-05,0.0003633472,0.0,0.0,0.0002324106
9.977027e-05,0.00022112967,0.0,0.0,0.00053839805
0.00031265922,0.001470906,0.0,0.0,0.0007608329
0.00020006867,0.0067851674,1.0491711e-06,2.6564444e-09,0.003126122
0.005110483,0.0022496204,5.536036e-06,5.178461e-07,0.0037327462
0.0027263213,0.0015064781,0.00016718572,5.009693e-05,0.0025740142
0.00037491435,0.0023031337,0.0002356484,0.00011243193,0.0017485587
0.00089886854,0.00040524037,7.73824e-05,0.0002670109,0.0026670296
0.0004771449,6.7736155e-06,1.2547237e-05,2.2691334e-05,0.0036005038
6.338357e-05,4.4042295e-06,2.307999e-05,5.7629248e-05,1.8393106e-05
0.00015593,8.8019664e-07,1.1158521e-05,1.2190412e-05,3.1048505e-06
1.18638945e-05,6.438369e-07,1.540732e-05,6.172826e-06,6.52124e-07
3.065356e-07,1.350837e-06,8.5356885e-05,0.036530238,3.981897e-07
4.7830375e-09,1.5650588e-06,3.4250137e-05,0.00018613935,1.1335088e-05
0.0,2.6352147e-05,4.385442e-06,1.2614055e-05,5.667491e-06
0.0,3.9596744e-06,3.4020815e-08,4.5167862e-06,1.6784667e-05
0.0,8.777257e-06,6.9607165e-07,2.4153273e-06,3.8974344e-05
1.4939477e-06,1.404732e-05,3.8978195e-07,1.0096734e-06,8.180938e-06
5.4117636e-06,1.1906625e-06,1.5666828e-10,3.131071e-07,7.3041188e-06
1.4436711e-05,7.0235525e-05,1.2309594e-09,0.0,1.77772e-05
3.148287e-06,9.756893e-05,1.4778195e-05,2.8515999e-05,8.989283e-05
5.1036973e-06,8.023689e-05,3.3781193e-06,2.8910941e-05,0.00036088412
0.7108833,3.7888665e-05,0.00032714126,8.175688e-06,8.996386e-05
3.8243413,1.4493381,5.3535445e-05,1.642805e-05,0.7037811
2.2596598,3.8291705e-06,0.002293024,9.055324e-06,0.15836948
3.5240798e-06,6.5454897e-06,1.4366549,1.2928084e-06,8.3063014e-07
1.5753144e-06,1.0979132e-05,1.8609562,0.2630089,1.0210344e-05
9.349913e-07,8.568328e-06,0.03911542,1.5594281,3.1029138e-06
8.3659796e-07,0.0039753723,0.0052161785,0.017746251,0.006087879
