"[299, 255]","[227, 248]","[287, 319]","[279, 328]","[230, 262]"
0.0009733522,3.8220148e-07,1.5622227,0.00013381444,2.4386925e-06
0.00066593545,1.3397276e-06,1.1827677e-06,6.4096713e-07,5.4989636e-07
0.000106432824,5.595419e-07,9.899459e-07,6.5657736e-07,4.054465e-07
1.2490603,6.6617173e-07,1.5693622e-07,7.7062947e-07,8.3305815e-07
0.15287083,3.101411e-06,0.06981072,3.7600364e-07,6.767557e-07
1.5667405,3.077959e-06,0.60471207,5.243399e-07,6.584262e-07
0.002473795,1.1653367e-06,1.766799e-07,2.3651748e-07,9.4031725e-07
0.28542048,2.0884002e-06,5.60173e-07,1.3768653e-06,1.7188527e-06
0.50433934,1.3383075e-06,2.0396683e-06,2.8748473e-06,2.794787e-06
1.1986064e-06,8.9565305e-07,3.3856375e-06,1.0181757e-05,9.026406e-07
0.21147715,1.9184656e-06,1.9139518e-06,5.9014328e-05,1.6744203e-06
0.34959352,2.1263004e-06,0.43112916,3.0651343e-06,8.9350596e-07
0.2855229,8.820879e-07,0.000312215,1.1369996e-06,5.85699e-07
1.8903474e-06,2.5842128e-06,6.0566936e-07,8.146305e-07,1.3439832e-06
2.266558,2.98573e-06,1.4983054e-06,8.1917756e-07,1.1625533e-06
0.00047224888,5.283906e-06,1.9688298e-06,7.6896856e-07,1.0331258e-06
4.08591e-06,2.3119208e-06,1.4706748e-06,1.6503432e-06,1.812506e-06
1.7623577e-06,7.9578524e-07,0.00196085,1.6040914e-06,0.00014884629
6.9208465e-07,0.16186628,8.8429823e-07,2.6763598e-06,3.9573526e-05
1.1334048e-06,2.602555,1.1133769e-06,1.2034553e-06,5.6497487e-07
4.6424765e-07,0.22066672,0.0892879,6.880015e-06,0.00029753582
1.1454241e-06,4.261573e-06,0.00014163656,4.8556547e-07,3.195414e-06
1.7430569e-06,1.195834e-06,9.965486e-07,4.4144528e-07,4.446007e-06
1.0896667e-06,6.341244e-07,1.9442252e-06,1.0199653e-06,1.9616384e-06
1.8692411e-06,8.587911e-07,3.3446515e-06,1.1404923e-06,6.166282e-07
7.081429e-07,2.921421e-06,1.9063447e-06,7.462813e-07,1.9201034e-06
1.772662e-06,1.1141244e-06,2.8011448e-07,0.06154242,3.5916932e-07
1.824963e-06,1.2506466e-07,8.035126e-07,0.07351199,1.0827257e-06
1.2413551e-05,7.4310935e-07,9.580202e-07,4.7660052e-07,3.345454e-06
0.01170443,5.663931e-07,2.5748046e-05,3.4693286e-08,2.7082792e-06
0.00048449717,6.1577055e-08,5.815036e-07,0.011657396,2.9017917e-07
8.045918e-07,0.0,1.5236434e-07,1.9225125e-07,7.763189e-07
6.7843524e-07,7.5351897e-10,6.361252e-07,8.95198e-07,2.1726412e-06
4.1768357e-07,4.0304224e-07,1.2187788e-06,0.00017552054,2.1309827e-06
1.6718989e-06,6.304388e-08,1.8763733e-06,0.091982946,3.7343889e-06
1.0152163e-06,6.328475e-07,1.2529667e-06,0.34875783,3.0427655e-06
2.64927e-06,4.2524975e-09,0.00016381043,0.00023208883,1.6331269e-06
0.5477085,2.219891e-07,0.056476787,0.00031322255,3.3752926e-07
0.62448907,1.2086796e-06,0.0007627192,2.714361e-06,1.1505849e-06
1.74917e-06,3.871062e-06,1.2881864e-06,2.5750795e-05,1.6225108e-06
8.4667096e-07,1.5639369e-05,3.412273e-06,5.4841644e-07,2.1773592e-06
0.00029284353,6.0399575e-06,1.0721212e-06,6.001502e-07,1.5065308e-06
8.57476e-06,7.7018836e-07,0.0,9.900444e-07,1.5021374e-06
3.0083017e-06,1.1118507e-06,7.754369e-08,2.4683668e-06,9.422187e-07
3.988697e-06,5.299546e-07,3.7204106e-07,2.3405984e-07,2.128903e-06
1.3550726e-06,2.469297e-07,0.0011850663,3.4459086e-07,0.0003990816
7.2762293e-07,4.5499926,1.501604e-07,0.000113945294,0.0032132694
9.895921e-07,4.890825,1.0391843,1.436307,9.535826e-07
0.0046096724,1.909964e-06,0.00029115615,0.01742709,3.0113204e-06
0.49196178,1.7683541e-06,1.857495e-07,0.0014263625,1.4920381e-06
8.270967e-05,1.5174805e-06,3.3352842e-07,0.6622976,5.1115796e-07
9.062628e-06,2.2671943e-06,0.38713956,1.33584,9.714072e-07
0.00118888,1.1493432e-06,0.0031250564,0.54310465,1.0017958e-06
0.0011475482,7.8462773e-07,4.58633e-05,1.47373585e-05,1.6655433e-06
0.0006561829,6.342072e-07,2.4612386e-06,2.3664334,1.5700654e-07
9.185743e-06,2.9063111e-08,1.3827574e-07,0.0007038529,1.6369695e-06
1.6170884e-06,4.017307e-07,1.7201435e-06,3.6141026e-07,1.7870245e-07
5.217063e-07,2.5119366e-08,2.1929493e-07,7.4758555e-07,1.0853684e-06
1.8603548e-06,6.7888595e-07,0.0178635,3.5146418e-06,5.3969507e-07
6.8859856e-07,1.7866184e-07,0.20621234,0.19985127,3.2144825e-07
1.6827431e-06,3.019228e-06,12.183819,4.677365e-06,2.2259223e-06
6.0440443e-06,3.850604e-08,13.58232,1.962125e-06,1.4389242e-06
9.132664e-07,0.0,7.665417,7.51229e-07,6.060655e-08
3.9249728e-05,0.0,0.25525987,9.212778e-07,9.957446e-07
0.009561122,1.2970164e-08,8.4556564e-07,5.1097455,4.112718e-10
0.0012704257,6.901085e-08,1.6573773e-06,0.029498756,0.0
1.3271925e-06,4.395928e-09,6.968174e-07,3.6722716e-07,0.0
2.1910793e-07,1.8051024e-08,8.4592506e-07,3.118723e-07,0.0
0.0,2.9263483e-06,1.1998768e-06,2.8249525e-07,0.0
0.0,4.8932122e-08,3.9521756e-06,1.3945369e-07,0.0
0.0,2.28096e-09,2.2298316e-06,8.942274e-08,8.859661e-07
1.5084886e-09,0.0,4.5039903e-07,1.9574237e-07,8.34019e-07
1.5289649e-07,0.0,1.6301897e-08,2.6603922e-07,3.3593912e-09
5.4067595e-08,0.0,1.5835867e-07,3.3874022e-07,0.0
0.0,0.0,4.5290412e-06,7.426313e-08,0.0
3.863381e-09,2.7425465e-06,5.932761e-06,8.9252217e-07,0.0
0.0,4.136235e-06,2.762717e-07,6.960108e-07,4.480353e-10
0.0,3.6365711e-06,7.1804944e-09,5.281869e-07,6.272732e-07
0.0,3.6377157e-06,0.0,3.0334554e-08,2.6731584e-06
1.0957769e-09,2.6881776e-06,2.5351895e-07,4.979112e-10,4.3756354e-06
9.0779656e-07,1.4391556e-07,4.2092806e-06,0.0,3.0407032e-06
2.5810832e-07,5.286502e-07,2.587192e-06,1.1334121e-07,8.403589e-06
2.0022036e-07,2.3373093e-07,1.5532137e-09,6.765281e-07,6.37531e-07
1.5517303e-06,3.5518365e-06,3.6905146e-06,4.858864e-07,1.3584782e-06
1.1179688e-05,5.357739e-05,1.6046744e-06,7.2198477e-06,1.9200486e-06
4.1923663e-06,0.00036065464,3.2068829e-06,3.3185472e-06,2.574753e-06
2.026592e-06,0.02842782,4.5145316e-06,2.8188033e-06,0.00032650135
1.1233892e-06,0.0135285435,1.3204673e-06,2.30417e-06,1.0434881e-05
6.483956e-06,0.079600334,8.512371e-07,5.7492986e-07,0.0040410687
0.00033475336,0.3786958,9.262174e-07,1.0451382e-06,0.06688406
2.1099475e-05,1.5328411,9.941735e-07,8.970982e-06,0.35244566
0.49923423,1.2294235,9.192743e-06,1.0851163e-05,1.8136353
1.5502796,0.1886399,3.6846327e-08,1.0173761e-05,1.1348993
1.8817251,0.0010875457,0.017083768,2.2495406e-06,1.6699971
2.6135085,0.0005080217,0.42738953,0.10713227,0.696921
0.7438685,5.948267e-05,0.077920906,0.00838115,0.39209884
0.28806242,2.2082496e-07,0.013722598,0.0017447369,0.023616275
0.27187043,3.917365e-07,0.09632187,4.1783787e-06,2.0513128e-06
0.25887364,0.073745795,0.22290353,5.5084324e-06,8.650809e-07
0.1985666,2.0064259,0.06973314,2.7964006e-06,0.14193368
1.4846344,5.763191,0.013349199,1.6444666e-06,0.82085913
0.22908042,5.423073,3.1441665e-05,2.1516878e-06,3.6805804
0.24809456,1.1654071,0.26077384,8.4054494e-07,6.6084104
1.4382954,0.024449833,2.3231437,4.0636182e-06,1.026574
1.1573528,0.067849874,1.0537082,0.17461716,0.4298419
3.144436,4.6603495e-06,0.21155706,0.99077964,3.3757527
2.209475,1.3252618e-05,0.64728105,0.66974,1.667357e-06
2.464855,0.02477191,2.7423,0.80317634,0.0020312865
2.7003505,0.027860902,0.63004553,0.32613686,0.00012535836
8.860564,7.591478e-07,2.6167772,0.005845904,3.7897141e-06
7.749646,0.00094252394,2.1049693,0.3120245,6.259234e-07
1.7552125,0.06760164,1.220832,0.71698385,9.390274e-08
0.34150395,1.228512e-06,1.1325675,0.59457445,6.245379e-07
9.768671e-07,9.0224097e-07,0.22574477,0.07680561,4.161074e-07
2.156085e-06,1.5371918e-06,3.5202333e-07,3.8939575e-07,6.04614e-07
1.4679731e-06,0.36103317,1.7403526e-07,6.1629356e-07,4.523403e-06
4.5710352e-05,0.26756,4.6037235e-07,1.6619033e-07,0.020400554
0.0019885204,0.0010280991,1.1106792e-06,4.3431953e-07,0.01933796
0.0015296307,4.5690635e-06,8.9771e-07,6.4294335e-07,5.794889e-06
0.07417802,2.0541904e-06,8.7257564e-07,4.3401764e-07,4.6743394e-06
0.74177426,9.363692e-07,1.9496882e-05,2.5599002e-07,2.4993717e-05
0.34639016,1.0813746e-06,1.1106364e-05,3.1435577e-06,6.950887e-06
0.00070754014,1.0585929e-06,0.40360978,5.362078e-07,5.498655e-06
2.669226e-05,3.636892e-06,2.805359,0.00884295,2.216209e-06
1.4994803e-06,3.9366046e-06,0.13966814,0.099996604,3.6325355e-07
1.0393197e-06,7.875108e-08,1.2563262,1.2672867,2.5520094e-07
6.747045e-07,1.4926885e-06,1.6036892,0.005838875,1.968767e-06
3.7372793e-06,4.2494952e-07,1.7024711,0.20415829,1.343608e-06
2.5234738e-06,7.187865e-06,0.002226064,3.2172093,0.07142322
8.4543314e-07,7.566696e-07,6.592715e-07,0.53434896,7.655636e-05
1.3534873e-06,2.8974569e-07,1.3487352e-06,4.5443885e-06,5.613184e-07
2.5889354,3.9318314e-07,1.8613578e-07,1.629517e-06,5.759777e-07
0.16914809,1.6410381e-06,6.332732e-05,8.737423e-07,1.4248457e-06
2.5988703,1.878038e-07,5.3962896e-07,1.8715903e-06,4.166371e-06
0.05842525,3.4345658e-06,1.7967392e-06,1.33364e-06,2.1605345e-06
2.7463473e-06,3.1427794e-07,2.855618e-06,2.0122534e-06,6.9448424e-07
2.1387361e-06,7.8189214e-07,1.7508693e-06,2.221218e-06,3.569531e-07
3.221114e-05,7.9106877e-07,5.4785176e-07,1.3180639e-06,6.7643913e-07
1.5471579e-06,2.122578e-06,1.6748404e-06,2.276613e-06,7.8974983e-07
1.3364743e-06,1.7753133e-06,2.1236021e-05,2.7984343e-06,2.3696912e-06
1.6539193e-06,6.414365e-07,9.002123e-07,8.623018e-07,1.1850319e-05
4.923162e-06,0.33309513,2.5387799e-06,1.360574e-06,1.5097835e-05
1.1536146e-05,3.2851708e-06,1.644745e-07,9.5127575e-07,1.1645567e-05
5.332525e-05,9.101251e-07,2.122745e-07,3.3240138e-07,3.9102275e-07
0.30919793,3.3011843e-06,1.355357e-07,8.798024e-07,1.3678405e-06
0.27410877,3.0179163e-07,6.855481e-08,3.776129e-07,4.7405743e-07
0.13022338,3.554036e-07,3.5197996e-07,1.894922e-06,2.0607905e-07
0.25967434,3.3151895e-07,5.8055673e-07,1.1913208e-06,1.9478341e-07
5.22677e-05,5.613309e-07,0.0011594415,3.913195e-06,6.7922434e-07
4.3433697e-06,2.5048968e-07,0.0022843967,2.6237767e-06,8.9889676e-07
0.047444385,7.901108e-06,4.532923e-07,1.033806e-06,1.2247693e-06
4.639262e-06,3.6985546e-06,5.040059e-07,2.2376564e-06,1.0471498e-06
2.3499233e-06,1.0955716e-06,2.6580358e-06,1.8490985e-06,3.9809597e-06
1.2248908e-06,1.1075548e-06,0.006370461,2.278165e-06,2.4840836e-07
1.408589e-06,7.281879e-07,0.08324828,0.0024303077,6.6081253e-07
1.4358303e-06,2.5717614e-05,6.4751315e-05,1.4121161e-06,3.2368834e-07
1.5526329e-06,4.607321e-06,0.004303849,1.1068645e-06,1.2966136e-06
8.8013377e-07,2.908825e-07,8.062882e-07,1.2901343e-06,1.7710395e-06
3.0763513e-06,8.557987e-06,8.90386e-07,1.5773171e-06,8.0359194e-07
0.013072066,3.1769054e-05,0.006515266,1.6245219e-06,3.0918235e-07
1.6949732e-06,2.1961246e-06,3.782768e-05,7.1002813e-07,1.2304644e-06
4.932865e-06,9.3589995e-07,2.711115e-05,0.32188052,8.044817e-07
2.564435e-06,1.6555201e-06,3.0418087e-07,7.9077845e-06,6.11909e-07
4.288864e-06,2.6986074e-06,1.1137175e-07,2.2035983e-06,3.6207646e-06
6.6042986e-07,5.79728e-08,6.697184e-07,5.8976275e-07,6.3795693e-07
7.220627e-08,2.6763007e-06,4.3648807e-08,1.551469e-06,6.096875e-07
1.4721817e-05,3.6916233e-06,3.61682e-07,3.1231806e-07,1.2016121e-06
2.1439062e-07,0.037283733,1.840279e-06,4.225374e-07,3.43536e-07
2.4547236e-07,0.028762616,1.1569128e-07,9.7329206e-08,0.36839002
3.8170228e-07,1.2586395,3.9078407e-07,1.0052854e-09,0.38585287
1.1095253e-06,0.50782174,3.650028e-07,8.25487e-08,0.27593347
6.989708e-06,0.2770273,2.8492952e-06,2.1107454e-07,0.042389393
0.00012993526,0.061835434,0.5185096,1.4149784e-07,8.8081373e-07
2.6668845e-06,1.5923923e-06,0.10725376,2.5124143e-07,6.924118e-07
6.1121823e-06,0.6562183,3.353409e-07,1.2586202e-06,0.32714266
0.010626807,1.9497337,0.052057505,5.0018684e-07,1.36038
0.15953206,0.06359903,0.067182876,0.016644547,1.2977656
1.284166,0.14420252,0.051089153,0.9512941,0.22538565
0.74310136,0.29083323,0.049346484,1.9590011,0.019659327
0.9724706,0.3902838,0.02347809,0.38966602,0.153374
1.0868841,0.076320924,0.14747995,0.0072299954,0.00033686918
0.012337505,0.6691332,0.16236417,0.018275827,0.6114612
4.9912546e-06,3.1714494,0.3846624,0.04738612,0.7038228
0.0062981932,1.854752,2.1223397,0.30929238,4.0924406
2.7845303e-07,0.5346268,2.6517131,0.5049498,1.2254031
2.045164,0.39429045,3.906049,1.245823,5.79419
6.636645,0.18646409,0.558726,1.2703846,3.63513
2.7114286,0.7718948,0.6423267,0.5088003,3.3836215
1.0492551,0.4056582,0.691237,1.0017041,0.85499185
0.042839635,0.33266664,1.7420148,2.4813788,0.53177774
0.08265972,2.5838554,1.5788724,0.12842736,4.5927234
0.053078134,2.4290283,0.51374215,0.777233,1.8672762
0.032115966,0.36941278,2.8805273,1.2832848,2.009638
0.03546161,0.0076382654,1.3287213,0.0666344,0.22041176
0.048653394,0.0012824144,2.3147023,0.7427988,0.38929653
0.042008,0.013313329,0.6145658,0.007282635,0.008632099
0.01940167,1.8702866e-07,0.22324984,0.034364775,0.070222504
0.015959421,2.6873988e-06,0.06480706,0.0800609,0.037726637
0.008561176,1.1744659e-08,0.088032395,0.0086018145,0.06516045
0.0075345985,9.6122094e-05,0.04483864,0.006954164,0.14352627
0.541303,2.5678972e-05,0.051965132,0.11875551,0.061420504
0.20010856,0.104863785,0.044739503,0.08009341,0.15330559
0.0001217789,0.041496173,0.013026411,0.03780339,0.13509355
0.00030276773,0.015015592,2.5072119e-05,0.0010598339,0.011640831
0.037794318,1.7180631e-05,4.843442e-06,8.564093e-05,2.379349e-07
0.0019698376,5.4562233e-06,0.14532721,0.025295688,5.0349357e-05
0.45953375,1.67736e-07,0.026529325,1.5804175e-05,1.2879191e-07
0.24542943,1.663515e-07,1.7981176e-06,2.1149364e-05,8.0872474e-07
2.2712015e-06,2.1358018e-07,4.1704172e-07,8.756831e-07,5.7675817e-07
7.987718e-07,2.6366115e-07,8.203324e-07,9.683736e-07,5.8889236e-07
8.945888e-07,6.749328e-07,0.00042843175,9.4378686e-07,8.364634e-07
1.3662516e-06,0.0056993756,0.00042206468,2.1135311e-07,0.00010651468
4.6184957e-07,0.12219361,3.2652918e-07,4.8379667e-07,0.07048939
8.195859e-07,0.4793666,1.2887632e-06,0.0468544,2.766481
2.886581e-07,0.016079701,0.5238382,0.088268615,2.4065192
0.029932732,0.066291474,1.8829899,1.0016326,1.5273137e-05
0.051992133,3.0336514e-07,2.1642458,1.6650126,0.51410615
0.25826257,2.0152002e-07,7.280625,0.3412771,7.9540274e-07
8.792704e-07,9.58095e-06,1.4929945,0.43624994,9.668101e-07
0.09344809,9.263632e-06,1.8670406,0.8903645,0.17158018
0.3527909,6.917538e-07,0.0011574557,0.04346718,8.539211e-07
0.036132235,2.148943e-07,1.5317111,0.02354977,6.96946e-06
0.040439863,5.884463e-07,0.0002895361,5.071647e-07,9.780324e-07
0.0033586514,4.6912385e-07,1.2207184e-06,1.6337036e-07,1.0979342e-06
1.7191908e-06,2.2087094e-07,0.21999258,0.17509216,1.2734297e-06
4.6247501e-07,3.8309483e-07,0.00015330683,1.3908476e-06,7.0199474e-07
7.5489146e-07,1.1647295e-06,1.7206567e-06,0.22662824,1.5161602e-06
2.4947628e-06,2.2593028e-07,1.2552855e-06,0.0032406705,4.568896e-06
2.1342635e-06,5.90444e-05,2.632703e-06,0.13361658,1.216006e-06
3.289198e-06,2.017921e-07,3.5048033e-06,0.008433084,1.3350407e-06
2.9556043e-06,0.31177554,0.11862457,0.022068728,2.0158743e-06
0.7761599,2.6745429e-06,3.5497226e-06,0.001900946,3.1342781e-06
0.16998968,4.6930245e-06,8.7852766e-07,0.22089422,3.0219946e-06
0.23122919,2.1539915e-06,1.409646e-06,4.7973267e-06,5.8426003e-06
6.466635e-07,1.0518826e-06,2.221158e-06,1.8872268e-05,3.3162573e-06
3.0216066e-07,1.28594e-06,6.5788015e-07,8.200786e-06,6.1179867e-06
3.1281e-07,1.0544047e-06,1.2920282e-06,1.7427466e-06,1.4014307e-06
5.63576e-07,1.7091504e-06,0.30442023,2.5783202e-06,4.435904e-05
1.2117885e-06,4.2631073e-06,0.26704693,9.88517e-08,1.1940646e-06
4.605748e-06,5.62749e-06,0.000537725,9.781945e-07,7.4391573e-07
1.98442e-06,3.7691761e-06,7.448337e-07,1.6055286e-07,5.310803e-07
4.5438986e-07,2.0105288e-05,2.002769e-06,2.5024622e-07,8.516288e-07
2.4678403e-08,2.6076665e-07,3.1656093e-06,1.9371969e-07,1.7417152e-06
2.653694e-07,7.069429e-07,2.4077858e-07,4.4865382e-07,1.5170739e-06
6.2448345e-07,1.9840287e-07,1.4643007e-07,5.913328e-07,6.252483e-07
2.3537265e-07,2.6714642e-07,1.8499519e-07,3.4782263e-07,2.2169861e-07
8.394454e-08,1.1258877e-06,1.6063865e-07,5.805591e-07,1.2451906e-07
5.873121e-07,7.881226e-07,9.183255e-07,1.339671e-06,2.597191e-07
1.0974986e-06,9.1166794e-07,1.503133e-06,1.9263914e-06,4.029163e-07
2.221496e-06,1.0483964e-05,6.709626e-07,1.7803029e-06,9.719932e-07
1.3047194e-06,2.128653e-06,1.225395e-05,7.045231e-07,2.273756e-06
1.9947418e-06,7.6857737e-07,1.3418593e-06,1.6620526e-06,8.776274e-07
1.5839879e-06,2.1051408e-06,1.288069e-06,8.5076766e-07,1.9010977e-06
1.2168991e-06,1.1325606e-06,1.908295e-06,1.3795362e-06,1.4782406e-06
1.9995775e-06,5.8122732e-06,6.784017e-07,1.2373862e-06,7.4634627e-06
7.3166166e-07,5.546687e-07,5.1792153e-06,2.1269163e-06,5.2041304e-07
4.0048603e-06,4.2695692e-07,1.6302034e-06,6.2837876e-07,3.3719041e-07
6.6626154e-07,3.267998e-07,1.235546e-06,3.2488222e-06,7.704899e-08
7.0365365e-07,2.5257496e-06,4.3015885e-07,1.6854838e-06,5.6842094e-07
1.09621915e-05,8.076567e-07,1.4120108e-06,2.1971683e-08,6.4761167e-07
3.3255267e-06,4.5964163e-07,2.0365105e-06,4.0717177e-07,1.9052553e-07
2.7360916e-06,7.478051e-07,3.0678584e-06,1.5879422e-07,2.4248764e-06
3.1477794e-06,9.0853035e-07,1.1924762e-06,7.788496e-07,0.007236873
1.7931528e-06,1.1004695e-06,2.00332e-06,1.3222454e-05,0.1155563
0.00035267457,1.047455e-05,0.18100026,0.00031787175,1.7385244e-06
0.012726776,0.997181,0.8078083,0.11430379,0.9588622
4.437504e-06,1.4825,0.3529352,0.0021973718,1.3035824
1.1702538e-05,0.9857861,0.00010857862,0.0054194396,1.1898396
0.006538144,0.20718196,1.0791581,0.27020502,0.12483077
2.097607,1.0555099e-06,0.85812503,0.10435659,5.1762095e-07
0.25060338,4.774875e-07,0.80482143,0.12507221,2.461406e-07
1.8180084e-06,3.7269473e-08,0.032051343,6.9522724,7.981674e-08
9.821788e-07,1.3843771e-06,0.7774407,5.920279e-07,4.950537e-07
1.0261604e-06,1.398999e-06,0.07949265,5.35415e-07,2.8937112e-07
1.1745308e-06,1.0424464,1.3630175e-06,8.746951e-07,1.667245e-06
0.05255292,2.887494e-07,0.551503,0.006303263,4.6336808e-07
1.5299724,3.2391745e-07,2.5442182e-06,1.8247375e-06,1.2637983e-06
0.40010113,0.10316313,2.5772322e-06,2.1446401e-06,5.699884e-07
0.0015683695,0.0029115232,1.9003166e-06,3.877015e-06,3.554743e-07
0.43299156,1.0285103e-06,7.792861e-07,2.6474338e-06,1.8624037e-06
8.1631475e-07,0.00012038127,0.026680082,5.3865404e-07,0.0005168134
3.4749267,2.7649883e-06,3.1877732,1.9876186e-06,0.00010316877
0.020782068,2.5517475e-06,2.0193994e-07,0.032492433,1.6683186e-06
3.4698303e-07,5.456211e-06,7.050685e-07,2.2639227e-07,3.9559964e-05
2.0112523e-06,6.51771e-07,1.6914453e-07,2.127583e-06,5.832611e-07
4.1479026e-07,4.2618433e-07,6.1618215e-07,1.5398829e-06,1.8477684e-05
2.2468812e-06,4.71864e-05,1.0331716e-08,9.129623e-08,6.920299e-05
4.090147e-06,6.9014563e-06,0.0,0.0,5.8151936e-06
2.0079742e-06,3.7497106e-05,0.0,2.2340414e-09,1.9570418e-06
1.1458427e-07,2.289341e-05,0.0,2.4591859e-07,1.635118e-05
5.941153e-07,1.5404541e-05,0.0,2.2066406e-07,2.3312256e-05
2.3386845e-07,3.4142424e-05,6.3122565e-07,3.6458396e-06,1.8656445e-05
5.2997226e-08,7.860643e-06,1.057288e-05,5.7920806e-06,2.8157585e-05
1.8124116e-06,8.278126e-06,1.2018791e-05,2.4343883e-05,5.5115026e-07
3.1457996e-06,1.2086009,4.496331e-05,0.00014518957,0.9229245
0.51592785,0.8268147,1.837116e-05,0.041127995,1.338337
1.8804559,3.011678,0.017943079,0.99333125,0.92300636
2.6629717,0.5500125,0.39682648,0.31056273,0.8189177
1.7856394,0.35481986,0.9800184,0.6027723,0.46541575
0.1730448,0.023563989,1.1289315,0.13860086,0.089521304
0.10601357,7.452844e-06,0.7494337,0.077468835,0.0015333452
0.27240527,2.148155e-06,0.83991313,0.0752099,3.5022967e-06
0.061424572,3.1845832e-07,0.11947822,0.00033652267,3.4876687e-06
3.6348416e-07,4.7016667e-07,1.719873,0.10539805,0.012877037
4.8336864e-07,8.261219e-07,4.787395,1.6147196e-06,7.029192e-07
8.502888e-07,2.6080062e-07,5.7099294e-07,1.7774528e-06,6.706846e-07
6.61008e-07,2.482743e-07,5.4342524e-07,5.333175e-07,0.018120943
2.162208e-06,1.8623942e-06,5.375974e-07,3.5701314e-07,7.571208e-06
2.0432259e-07,4.4495287e-06,4.790981e-07,7.010706e-07,8.325819e-07
2.660596e-07,1.9035605e-06,0.07683095,7.9307233e-07,1.3502465e-06
1.7919576e-06,1.9326767e-06,5.949845e-05,0.0001817678,1.8981566e-06
1.7466716e-06,1.1954914e-06,1.9373854e-06,0.015927425,2.8225663e-06
0.0031025866,8.507942e-07,1.8660331e-06,0.00030040828,2.85802e-06
0.16745707,4.4730114e-06,7.343833e-07,0.0001711603,1.5803132e-06
0.18072611,8.351327e-07,6.813324e-07,6.449756e-06,7.047011e-07
6.3954826e-07,7.374678e-07,0.0044004177,1.8995489e-06,2.0247599e-07
1.01552686e-07,2.3014525e-06,0.041451756,9.7991126e-08,4.264858e-07
0.00015228221,1.7516159e-06,2.567094e-06,2.219532e-06,1.1105765e-07
1.3555429e-07,1.1583944e-06,7.5216794e-06,1.6891622e-07,1.2763705e-06
5.4126684e-07,1.8654234e-06,1.6595579e-06,6.6369316e-06,1.6923043e-06
2.1042254e-06,9.711762e-07,0.00025023325,1.12165e-06,6.2394374e-06
8.3341763e-07,2.2810362e-07,0.006825257,1.4866254e-06,6.8193344e-07
4.012401e-06,7.6147955e-07,4.694663e-05,1.1011156e-06,6.343721e-07
2.7843694e-06,3.3146946e-06,4.184374e-06,1.2176698e-06,3.4796813e-07
8.9374555e-07,5.220298e-06,0.0014096552,2.361085e-06,2.801252e-06
2.6076343e-06,1.8522516e-06,3.223412e-06,1.3070635e-06,7.3107167e-06
1.0832194e-06,4.3001482e-06,0.00012313458,2.2908268e-06,1.0536477e-06
1.6190772e-06,8.564017e-06,1.6812065e-06,2.2474355e-06,1.6069762e-05
1.0827292e-06,1.4434867e-06,2.6960543e-06,0.031084582,3.9185093e-06
9.418408e-07,2.395131e-06,0.0063358177,0.06775123,1.3236279e-05
0.0021177079,4.3991013e-06,0.0022943488,6.3881157e-06,3.4893224e-06
9.16873e-07,2.9982277e-06,1.021309,5.9467307e-06,1.5616972e-06
3.2125342e-07,1.895968e-06,0.0823155,0.0001717971,2.1596152e-06
3.0556184e-06,3.3034303e-05,7.851952e-07,1.2251964e-05,0.0002727596
2.8465217e-06,6.4796797e-07,8.839708e-07,7.3161965e-07,2.2835357e-06
0.00015086224,2.6240111e-06,3.177353e-07,0.08219612,1.7120981e-06
6.383755e-07,7.38493e-07,2.289129e-07,3.5235127e-05,5.87499e-07
1.132158e-06,1.8848478e-06,2.2135082e-05,0.35934943,5.938943e-07
0.15179563,1.3335105e-06,0.010211666,2.8504635e-07,4.4055085e-07
1.226084e-05,1.496484e-06,3.1244517e-07,6.715698e-07,1.0830445e-06
0.014143479,1.6572137e-06,3.649915e-07,0.06761508,3.471598e-07
0.0008541315,9.4480424e-07,1.1047811e-07,0.00036247767,1.3084885e-07
0.08135083,4.0044458e-07,1.078581e-07,4.618561e-07,2.6202715e-06
0.0056568906,9.916283e-07,1.1573509e-06,7.9589023e-07,7.732221e-07
0.08735996,5.284914e-07,1.474146e-06,0.14138573,6.3520685e-07
0.053000644,5.9581737e-07,6.3307465e-07,7.5050207e-07,1.0064514e-06
0.013284102,1.3095371e-06,2.1408782e-06,0.021718852,1.3818825e-06
2.7965548e-06,2.2448864e-06,0.4627372,0.012395719,0.0040073134
0.27391875,0.00066996925,0.007892077,0.901283,0.00027872968
0.37730685,0.16654009,0.5057272,0.0132046165,8.576217e-05
0.9742003,0.64528656,0.040123675,0.065571494,0.8974244
2.739427e-05,6.9308103e-06,6.914203e-05,0.21362786,6.5370466e-07
4.774964e-05,0.00064448867,3.4143035e-05,8.650125e-05,4.83337e-06
6.273701e-07,1.2800266e-06,0.0003569275,0.2770089,1.0170402e-06
0.00015767151,1.496729e-05,0.5205937,0.09774199,1.659177e-06
0.012028316,0.179651,0.108218074,0.0005473107,1.036536e-06
0.00033952406,0.009779498,2.1566382e-06,0.005386013,6.4322808e-06
3.5903267e-05,0.00031425204,0.004160704,0.13511038,2.4459164e-06
0.68755656,2.5819595e-06,0.00027743244,7.542923e-06,2.9052605e-06
0.019310372,5.775852e-07,4.381091e-07,8.7966345e-07,2.6756334e-06
2.231784,9.1038015e-07,2.0793127e-07,2.5700234e-07,2.270652e-06
0.04778074,3.7241998e-07,6.1070516e-08,4.8224126e-07,1.181447e-06
0.17510144,5.1234775e-07,3.1208353e-07,3.3874394e-07,3.6797786e-07
6.0256665e-05,1.0024272e-06,8.0203904e-08,1.8590823e-08,5.195092e-07
1.6603395e-06,5.284417e-07,6.0083283e-07,8.626681e-07,1.0499003e-06
1.8638243e-06,2.6400849e-06,1.6459026e-06,7.0756855e-06,4.191724e-07
3.1309826e-06,5.728464e-07,2.4587011e-06,3.3127074e-07,5.9308684e-07
0.014669395,1.1610443e-06,8.7166444e-07,8.884065e-07,5.5734415e-07
1.6228812e-06,4.1852687e-07,2.12557e-06,1.1235131e-06,7.357197e-07
8.578937e-05,1.7852722e-06,4.3103273e-06,1.1704818e-06,5.088755e-07
8.992264e-07,1.5463319e-06,3.1525833e-06,7.9574585e-07,5.473378e-07
1.2085951e-06,1.7801682e-06,2.0113723e-06,2.541043e-06,1.274172e-06
3.8381e-06,1.0289368e-06,3.2445917e-06,8.216065e-07,1.197142e-06
2.4081671e-06,7.10103e-07,2.8870556e-06,2.57857e-06,6.809448e-07
2.7961844e-06,6.34418e-07,6.1142537e-06,3.650074e-06,8.5792516e-07
1.977776e-06,3.5103815e-07,2.7822557e-06,3.8323797e-06,3.041047e-07
2.1761025e-06,1.7220499e-06,1.8270425e-06,2.2742931e-06,3.1200216e-06
9.52467e-07,6.7810635e-07,1.4603686e-06,7.002803e-06,1.4695522e-07
7.5527754e-07,1.7459598e-06,2.6129803e-06,2.369917e-06,1.045089e-05
6.5723066e-07,1.6090653e-05,1.35173e-06,1.3452332e-06,5.429853e-06
2.7586955e-07,5.4565965e-07,1.3925443e-06,5.4146636e-07,6.388705e-06
5.280238e-09,4.068794e-07,7.8136264e-07,4.2106084e-08,6.188378e-07
0.0,2.0040428e-05,2.4285819e-06,3.027955e-07,4.152999e-06
8.243864e-07,3.9775637e-06,0.0,0.0,6.7479127e-06
7.700154e-07,3.6821134e-06,0.0,0.0,1.2048891e-06
1.5006594e-06,9.039804e-07,0.0,0.0,2.9443868e-06
7.231839e-07,1.4216269e-08,0.0,0.0,7.2448165e-07
2.1629081e-07,3.3396927e-07,0.0,5.711044e-07,1.9292872e-06
1.5086043e-08,1.14466395e-07,2.5235406e-07,5.9288927e-06,4.0433447e-06
0.0,1.2240848e-07,3.291305e-07,1.5100472e-06,8.575034e-07
0.0,3.8834438e-07,1.5478011e-09,5.3579285e-08,4.6730918e-07
2.021793e-09,1.3758971e-07,2.4240154e-10,5.598067e-07,3.7827894e-07
3.1499734e-08,3.5832213e-07,1.704662e-07,1.9367863e-07,2.6359416e-07
2.3253973e-07,8.424351e-07,9.972844e-07,9.1217083e-07,9.634279e-07
2.2604604e-06,5.669406e-05,3.8822174e-07,3.1113966e-06,1.6996098e-06
1.3722035e-06,0.00025360862,0.00023027328,1.4809499e-06,3.6376807e-07
5.9223553e-06,0.0030310545,0.28862455,1.2774444e-06,1.9758586e-06
1.9844217e-06,0.008393249,6.856236e-05,1.7870127e-06,1.2407509e-06
1.4709448e-06,0.00017662843,2.464064e-05,0.0004544674,0.000115453695
3.4921102e-06,4.6083645e-05,6.5927848e-06,2.3850814e-06,4.7953627e-06
3.0731078e-06,0.054871675,9.958492e-07,2.3919665e-06,0.024216488
1.6542386e-07,0.116492584,1.4566001e-06,3.903475e-06,0.011113032
7.9695315e-07,0.017149549,2.1729095e-06,0.3207458,3.5841373e-07
4.7976255e-06,1.16442e-06,7.2115495e-07,0.40108272,3.1650666e-06
1.5413379e-07,1.5232579e-06,0.27035964,0.05060666,2.1397013e-06
5.457799e-07,4.936292e-07,0.09169167,0.008301294,3.9960688e-07
3.3154463e-06,6.501815e-08,0.18464084,0.13590692,1.181527e-06
0.018232549,1.6938633e-06,0.02940089,0.21517591,1.9583933e-06
0.06229879,1.0389549e-06,0.018221099,0.025238065,8.1626376e-07
0.050418545,5.4762033e-08,0.021229217,1.7955327e-06,1.0425596e-06
5.984583e-07,1.3781916e-07,0.037343528,2.3268447e-05,1.3902242e-06
1.088346e-06,3.0437033e-07,0.030494366,0.0018539336,3.2902467e-08
5.18037e-06,7.439101e-07,0.028605258,0.0014045496,2.3822524e-07
2.0979826e-07,1.2997444e-06,0.035248768,0.005281007,9.832308e-07
1.7727364e-06,1.552775e-06,0.037478693,0.0054363143,3.1793928e-07
3.567525e-06,3.9737165e-07,0.037296526,2.4576117e-05,1.1248458e-06
1.0299298e-06,2.6498978e-07,0.031109646,7.7496015e-06,5.798413e-07
1.8019899e-06,1.2214436e-07,0.025201822,1.1985396e-06,5.549171e-07
1.7714016e-06,2.33412e-07,0.013087698,1.4512373e-06,3.1619984e-07
1.5125462e-06,5.555227e-07,0.0017862208,2.3175685e-06,4.3634697e-07
1.9560123e-06,5.7101613e-07,1.6694423e-06,1.8056954e-06,4.6315995e-07
1.5617666e-06,1.0052499e-06,2.1092662e-06,3.4989184e-06,1.3912528e-06
4.7676594e-06,6.25787e-07,1.4931434e-06,6.9355144e-07,1.6700104e-06
2.4652232e-07,1.5919128e-06,1.6425859e-06,4.1787675e-06,1.669668e-06
1.317058e-07,1.5123704e-05,5.0544127e-06,7.6257415e-06,3.3095301e-07
3.6395384e-06,0.0,9.436424e-06,8.236241e-06,0.0
1.18544946e-07,0.0,1.8553742e-07,1.0645318e-06,0.0
5.6592353e-06,5.4852197e-08,6.5819684e-08,8.8278034e-07,2.4724232e-09
1.198559e-05,1.5846462e-06,1.0624175e-07,1.6347595e-07,2.6346556e-09
6.7337182e-06,5.467521e-08,2.4763372e-06,1.5344507e-07,2.177631e-08
7.843049e-07,1.2409907e-07,1.1880949e-06,8.701294e-09,1.5006829e-07
1.6722318e-07,4.2797606e-06,1.01574145e-07,4.7504147e-09,7.839374e-07
7.291276e-06,2.9632872e-07,5.758358e-10,8.618996e-09,2.570313e-07
2.2885818e-06,3.6478875e-07,2.089935e-08,5.5438014e-09,1.4584333e-06
4.0729695e-08,1.3547662e-05,1.1169706e-07,0.0,1.6233714e-06
3.7517666e-06,4.2356254e-07,1.2535405e-06,1.9114248e-11,1.11074e-05
3.8517535e-07,9.402986e-09,2.1381693e-07,4.0562886e-06,4.5093425e-06
1.1860951e-06,1.7870859e-08,3.6889414e-05,2.6357468e-05,1.5236861e-07
2.689168e-06,7.3929573e-07,1.0716769e-06,6.814823e-08,1.618056e-06
4.9361927e-07,8.95418e-05,5.6003546e-07,3.4043135e-10,1.523496e-06
1.791419e-06,0.000104176586,1.3491843e-06,6.0576753e-05,1.7487275e-06
1.0859178e-08,1.4187551e-06,2.1442685e-05,1.36083e-06,2.4464255e-06
5.1120624e-06,2.393702e-06,2.0330926e-05,1.4689743e-06,1.290986e-06
5.8731594e-06,1.1662257e-06,5.368082e-07,2.9724347e-07,1.1046134e-06
0.0,4.0930323e-07,2.388864e-06,0.0019339455,9.841355e-07
0.0,2.8800005e-06,0.06502695,0.0136536425,2.4802027e-06
0.0,6.3998897e-07,0.06740248,0.00417805,0.0036311608
5.783146e-10,1.7876303e-06,0.14664246,3.3471965e-06,0.003732563
1.680226e-06,2.7969463e-06,0.0005979756,0.0034350439,1.7510869e-06
1.3715429e-06,6.6687953e-06,0.03860606,4.7104706e-07,2.1201133e-06
2.2619008e-06,0.0052085975,1.18579685e-07,6.734327e-07,7.588774e-06
1.923536e-06,0.020874027,5.928949e-07,4.202809e-07,0.0040746103
2.527987e-06,0.013455072,1.8200507e-07,4.219729e-06,0.0066362214
4.7169183e-06,0.0019409584,1.4359854e-08,1.1265351e-07,0.0057755387
0.00018367005,0.00017167171,0.0,5.547682e-07,0.008307191
0.0013535747,3.4106174e-07,0.0,2.2858276e-06,0.009569852
0.0005840636,0.0,0.0,7.743376e-06,0.0069900234
0.00025959132,0.0,4.3078202e-07,5.734485e-07,9.213944e-05
0.00041610227,1.2625983e-08,0.0,7.399452e-08,0.0
0.0019996571,4.8899994e-07,0.0,1.9777566e-08,6.979602e-07
0.0015271638,2.4663237e-07,0.0,0.0,6.085283e-07
0.00025789673,1.398592e-08,0.0,0.0,3.046829e-06
4.516703e-06,0.0,0.0,0.0,2.61869e-06
1.4204736e-06,0.0,0.0,5.418256e-09,2.7269476e-07
1.0293555e-08,0.0,6.978259e-07,1.0868489e-06,0.0
0.0,0.0,5.988302e-06,4.1526823e-06,0.0
0.0,0.0,4.130209e-06,8.9152815e-07,0.00010394994
0.0,2.1819811e-05,3.738673e-06,2.6185744e-06,0.00025296138
2.730742e-07,0.0001459024,1.8172773e-06,1.563841e-08,0.00017075632
1.1597483e-05,4.5883076e-05,1.6816218e-08,1.6861689e-07,4.2369305e-05
4.577231e-05,2.1504431e-05,2.8391278e-07,3.9515928e-07,2.297959e-06
4.2688524e-05,1.183119e-08,1.966636e-05,5.5395583e-07,1.7257338e-05
0.000117670876,0.0,4.172793e-05,6.0163866e-06,9.604942e-09
4.2023396e-05,1.6807887e-07,1.8230894e-05,0.000106796164,3.7598875e-05
4.6350106e-06,1.6101837e-06,2.4480696e-05,3.2742733e-05,5.571271e-05
1.1334938e-05,9.5797195e-06,1.521054e-05,0.0001813688,6.099184e-05
4.7831873e-06,0.00015008423,0.00010378602,0.00010995339,5.971446e-05
7.056461e-06,0.0004380607,3.0317768e-05,0.00013923344,0.00013134543
8.259006e-06,0.0020629722,6.5388725e-05,0.0003384799,0.002744943
3.8638558e-05,0.0013703404,0.0003305967,0.0005080659,0.00014320719
4.3508288e-07,0.00053045974,0.0021590998,0.00037422605,0.00033342093
0.000550242,2.2843855e-05,0.00022223685,6.638594e-05,0.00087093265
0.00018787435,1.8317049e-05,5.3553704e-05,0.000248393,0.0001310968
6.816247e-05,3.4965599e-06,2.1327434e-05,1.3980436e-05,2.0548812e-05
1.6065196e-07,1.9175623e-05,1.0647973e-05,9.983909e-05,4.2910913e-05
3.516482e-05,6.0072507e-06,0.000718614,4.5019347e-05,1.64304e-05
4.9261903e-06,3.0282363e-05,0.0024240618,3.2768996e-05,4.6419973e-05
5.1219395e-06,9.89358e-05,0.00013623819,2.152756e-05,8.7623936e-05
3.2372234e-06,5.5579676e-05,0.000100187484,5.5847402e-05,0.00037160824
9.139572e-08,1.5302476e-05,0.000105995874,2.8121927e-05,0.00010232834
9.1310267e-07,5.1635885e-07,1.8196694e-06,3.5261473e-05,4.100584e-05
4.6425116e-06,0.0,5.911622e-05,1.5372842e-05,0.0
2.57828e-05,0.0,2.6680598e-07,2.728501e-06,5.100502e-08
2.1479043e-05,0.0,3.582304e-06,1.1079611e-06,3.556163e-08
4.020889e-06,1.803911e-08,1.4739816e-05,1.3418682e-08,9.731011e-06
3.35025e-09,8.865663e-08,1.1237738e-08,0.0,1.4210647e-05
1.0149213e-10,1.7156095e-08,3.6771766e-07,4.027048e-09,1.3071296e-05
0.0,9.761476e-07,9.086301e-08,2.8612726e-09,4.2328105e-05
0.0,1.5799801e-06,1.3322868e-10,1.2868313e-07,2.8911962e-05
2.3622674e-07,8.673844e-06,1.8353076e-07,1.4859021e-06,6.504865e-05
1.0225978e-06,5.5236713e-05,1.384624e-06,1.5694233e-05,7.567601e-05
4.5547995e-07,1.1326654e-05,9.7470895e-08,1.4195067e-08,1.4437503e-05
2.5957936e-06,5.7831054e-05,8.2905996e-07,0.0,5.8285434e-05
8.694702e-06,5.715209e-06,1.55281e-05,9.3804385e-07,2.1604944e-06
2.6084226e-06,0.047792215,2.3990006e-05,0.00010922005,6.160839e-05
2.0056015e-05,0.06602061,1.4846935e-06,2.8057962e-05,0.096517175
2.5222967e-05,1.0869801e-05,5.415443e-06,4.9183354e-06,0.0043667974
7.5720372e-06,7.059367e-05,1.5435078e-05,1.8666176e-05,0.000113486894
1.10265155e-05,0.00040369027,2.4774124e-06,2.728315e-05,0.0033061039
1.0346565e-05,1.8439092e-06,2.746918e-05,1.954651e-05,7.092569e-06
7.24937e-07,2.3348566e-06,4.0500883e-05,1.1247713e-06,1.8376469e-06
2.0750959e-07,0.07290047,2.7770438e-05,2.945516e-07,0.30102828
5.663054e-07,0.12172552,1.9380873e-06,1.358266e-06,0.07181469
1.8067617e-06,7.780061e-05,1.5450112e-06,5.562695e-07,0.0035618972
3.9966295e-07,5.0081746e-07,1.1696586e-06,1.5408772e-06,4.1844172e-07
4.8338694e-07,1.6447143e-07,0.06866182,0.0775159,1.7423966e-06
0.00100155,0.022530535,0.056669503,0.0005851407,0.0384298
9.1092056e-07,0.5700158,2.114465e-06,1.6851033e-06,0.3698038
0.022281509,3.6670133e-07,0.16386528,0.01973447,1.3642789e-07
0.07277204,4.3157243e-06,2.4301996,0.37965506,5.9123426e-08
0.44919032,0.0,1.2051414e-06,9.397648e-07,2.569273e-10
2.5179224e-07,0.0,5.7712003e-07,0.016738303,1.1181955e-07
3.1708007,3.8261035e-08,2.0195625e-07,7.986128e-07,2.9897902e-07
5.179629e-06,4.1558167e-07,1.9843873e-07,3.0000874e-07,1.0254664e-07
3.4340738e-07,2.3388905e-07,1.5282724e-06,7.120457e-07,2.81668e-07
3.7536807e-07,4.812995e-06,1.951823e-06,2.054705e-06,2.6598948e-07
2.194048e-07,2.0821801e-06,5.0936643e-07,9.155908e-08,4.080405e-07
3.350188e-05,1.3650453e-07,1.0955112e-06,1.2212155e-06,3.6171485e-07
2.711645e-07,2.2912336e-06,1.6161891e-06,0.00022207618,3.2796308e-07
1.9540121e-07,0.00074726925,9.0202667e-07,7.4575e-07,5.8777306e-07
1.5322694e-07,0.053304587,0.11075755,0.009796097,0.14984865
8.658996e-08,0.0049841576,0.007176361,1.6668754e-07,5.748322e-07
9.35081e-07,4.034961e-07,0.3864728,6.5093736e-06,1.0321921e-07
3.154359e-06,5.1554144e-07,5.86006e-07,0.38668248,2.794306e-07
5.7139465e-07,0.00028577182,0.00025596673,6.947645e-07,8.494756e-07
0.6152348,6.417464e-07,0.28619394,0.0738031,1.0961777e-06
0.014909626,3.1430093e-07,0.35014698,0.14910975,5.2570675e-07
0.003173024,0.00041813837,0.15459819,0.029709728,4.1354787e-07
3.7818713e-06,6.7734885e-07,0.6320954,0.00027309664,7.093386e-07
0.0049015265,0.13544251,1.7458842,1.1602174e-06,6.109118e-07
0.007987364,1.0170393e-05,0.00011559216,6.600045e-07,6.7254274e-07
0.0042092,0.0009693304,8.320801e-06,2.5482611e-06,2.8559043e-06
0.0006625486,0.8010937,1.2839475e-06,0.040335484,0.010905793
0.075955436,1.0488985e-06,0.0040460206,7.863185e-07,4.707835e-07
8.1730144e-07,6.651873e-07,0.0039393124,1.2666009e-06,3.6287352e-07
0.067583114,3.870222e-07,0.044412967,1.0741269e-06,5.129646e-07
0.075336374,1.2928023e-06,0.054526664,0.04079575,6.152441e-07
7.1901985e-07,4.8537066e-07,4.3749587e-05,0.6633717,1.0487549e-06
3.0638262e-07,7.0149184e-07,0.15432891,0.2830781,5.027492e-07
1.6793578e-07,7.4278414e-06,0.15216485,0.025001107,9.5066684e-07
3.8845204e-07,8.8699435e-06,0.30609924,0.43700865,4.3264532e-07
1.3365613e-07,4.2904216e-07,0.3975718,0.0354754,7.458974e-07
0.014065845,0.0005878478,1.4549022,0.21368147,0.05482326
2.5344936e-05,5.1987104e-07,0.42213443,2.3178097e-07,2.5590685e-07
0.09085371,1.1084435e-06,0.58960557,0.15332668,3.2700098e-06
0.7604472,1.0367332e-06,0.41075915,0.00029362118,5.992298e-07
0.001740314,2.6950268e-06,0.0001588641,0.31243178,1.2802427e-07
0.5279791,7.652609e-06,0.40199322,2.0182385,2.975585e-07
5.4596836e-07,3.210145e-05,2.676636,8.8416823e-07,6.725737e-06
0.6254706,8.1610705e-07,0.0001396451,6.8794765e-07,4.6795083e-07
7.7205044e-07,4.993035e-06,7.747465e-05,0.15910755,5.2405613e-07
1.0798716e-06,8.7353675e-07,1.3505593e-06,0.0014115939,1.3600634e-06
3.490849e-07,0.0037302757,1.0369545e-06,0.0025065704,7.0872113e-07
0.0009834055,1.002904e-06,0.117579006,0.14311472,0.0077515687
0.0033220667,0.43310365,1.4328988e-06,0.05450635,2.8863492
0.19951868,9.0063605e-07,0.043780964,1.281331e-06,4.797434e-07
0.13483654,0.13087668,0.062349573,6.206882e-07,6.924928e-07
1.3336973,0.01691284,0.24766108,0.029411856,5.612781e-07
1.0742832,3.1824774e-07,0.06923356,4.7643294e-07,6.5487066e-06
1.3529543,0.093944766,0.5025891,0.21102998,1.3222266e-06
3.8106507e-06,1.0961267,1.3528504,0.9201433,8.976713e-06
8.465212e-06,1.4908392e-06,5.891236,5.794455,3.847625e-07
1.7343984e-05,8.5589386e-07,14.061095,1.1416607,2.2164094
1.11785785e-05,1.455042e-06,1.2799588,0.31864935,0.028675165
0.19951823,0.079242334,1.0448154,5.6147022e-05,0.041903682
0.18275613,7.926533e-07,0.00024857296,3.0649161e-07,4.2090292e-07
1.6600811,9.038978e-07,4.2724818e-07,1.0622147,7.4769478e-06
1.2283967e-06,1.927393e-06,1.1388253,1.7720726e-07,1.0282548e-05
4.4080574e-07,9.559014e-07,0.00027082724,0.04599121,1.5645514e-06
1.5244592e-06,8.05173e-06,0.54519963,1.1427886e-06,1.2181616e-06
1.8939074e-05,1.2045001e-06,2.6903062e-05,7.014196e-08,1.0174613e-06
2.6494806e-07,1.1340423e-07,9.441505e-05,2.1407374e-07,4.768031e-07
1.1112053e-07,5.887556e-07,8.063172e-07,9.1550885e-07,1.0069431e-06
5.6665465e-07,5.6288735e-07,1.7806012e-06,1.8437388e-06,1.4408337e-06
2.633067e-06,6.8489584e-07,1.3091721e-06,2.2088022e-06,4.896828e-07
8.558667e-07,6.3538494e-07,1.4529062e-06,1.6405634e-06,1.3631836e-06
1.6761352e-06,2.3354382e-06,3.3529352e-06,2.02973e-06,1.5608347e-06
1.7646894e-06,2.0077232e-06,1.5991209e-06,1.9420506e-06,2.1826588e-06
0.0055601574,1.8378416e-06,2.1128662e-06,2.9350513e-06,6.5923774e-07
2.5790448e-06,5.131092e-07,0.0007501202,1.0847217e-06,1.4049209e-06
2.8260818e-05,6.731632e-06,0.52462023,1.7524226e-06,0.031475347
2.7515803e-06,1.5812013e-06,0.008339448,0.0031801555,5.6567956e-07
0.054983974,1.016233e-06,3.3161738e-05,0.18594234,4.5582394e-07
0.015948633,5.8728693e-07,0.0010821508,0.44579947,4.568547e-06
4.6803896e-07,6.945289e-06,4.836139e-07,1.5844624,4.315058e-06
8.6313145e-07,4.6907138e-07,6.3012076e-06,0.058084007,7.7858607e-07
2.1318472e-07,6.8150365e-07,1.171378e-06,1.9082936,5.1924476e-06
4.6658857e-07,8.604574e-07,0.054875094,1.06765865e-05,6.569089e-07
2.0827963e-07,4.9194244e-07,0.00081973476,2.4577923e-07,1.6784186e-07
6.7826267e-07,7.756703e-07,2.1145486e-06,1.2519281e-07,6.269398e-07
3.748303e-07,9.1599935e-07,1.385826e-07,2.7219366e-07,6.371786e-07
2.2690626e-06,2.8348597e-06,4.3848427e-08,4.084669e-07,3.4478558e-07
2.7201818e-06,1.1301613e-06,3.0529975e-08,1.549373e-07,3.233165e-07
0.0063460795,9.947547e-07,9.089702e-08,4.3501277e-07,1.1301008e-06
0.0035248927,8.044985e-07,1.5544987e-06,9.389496e-08,6.3077863e-07
1.6524122e-07,8.596501e-07,8.8439414e-08,2.1872658e-07,7.198772e-07
9.607509e-07,4.3298405e-07,3.1254167e-06,7.2369323e-07,6.778634e-07
1.87303e-06,4.1740114e-07,1.2444245e-06,1.9382314e-06,1.1331871e-06
1.555059e-06,8.996337e-07,6.474308e-07,6.6389515e-07,8.395902e-07
9.051221e-07,5.800711e-07,3.1744353e-06,2.6428313e-06,7.8896653e-07
9.270336e-07,8.411944e-08,6.193359e-07,1.4787695e-06,2.7281268e-07
3.988091e-06,0.000759081,6.6082924e-07,1.70884e-06,3.247403e-06
4.312052e-06,0.0019999072,9.522147e-07,3.014027e-06,1.2711245e-06
1.0817257e-05,1.6120475e-06,2.8162378e-06,2.8958434e-06,1.0775542e-06
1.5675307e-06,6.685533e-07,1.5367872e-06,1.5478323e-06,4.9203766e-07
1.1712801e-06,0.0005818145,5.362922e-06,4.1521494e-06,8.9903995e-07
2.050222e-06,0.10639676,0.00023192732,1.3352588e-06,0.13650805
8.851985e-07,0.12090909,4.859913e-07,2.3634773e-06,0.7683729
0.0003333858,0.80123365,2.4365586e-06,0.00043280242,1.689326
8.208206e-06,1.6930377,0.00086839404,0.49998334,2.217957
0.0029893576,1.312469,0.013076557,0.0011618667,2.0570128
0.10978165,0.9917097,0.011958667,6.8756316e-07,1.5095823
0.17097794,0.1781756,0.043024972,0.21942107,2.1595218
0.5491639,0.7100132,0.9768684,0.2550974,4.468418
0.07347891,0.1552882,1.8716924,0.21930386,1.6726599
0.31880173,4.3598845e-07,0.40443003,0.09212845,0.30668232
0.22038753,0.6661157,0.07202667,0.064343825,3.3926127
0.00021104775,8.092838e-07,0.035750937,0.07519985,0.00031584283
3.8187078e-05,0.06451986,0.021700105,0.0333068,0.7220546
4.8531965e-05,1.622326,0.036210626,0.044379033,0.0047103725
0.013441177,0.0029410205,1.3978539,0.061870173,0.0051529747
0.24391414,0.0051582963,0.12161117,0.077030234,0.005480487
1.6728349e-05,0.005472859,0.03092524,0.030280817,0.0026835673
3.6166828e-05,0.003636688,0.051437628,0.021561518,0.0009412537
0.01867299,0.0017091059,0.05013325,0.012311639,6.973586e-05
0.008236061,0.0007606494,9.675064e-07,0.0054481435,0.007247496
4.4583207e-06,0.00020632496,1.2336087e-06,3.4935672e-07,0.042392965
2.102513e-06,3.9707444e-05,3.6895262e-06,9.2176884e-07,2.7427404e-05
2.1672827e-06,2.0161924e-05,5.380511e-06,1.6201086e-06,2.0555064e-05
0.006771541,1.7697563e-05,3.7668149e-06,3.5956145e-06,6.4372894e-06
0.020706782,1.3294208e-05,1.3171307e-06,7.0740975e-07,1.895623e-05
0.0012766159,1.7020697e-05,1.0294714e-06,2.1829317e-06,9.149036e-06
1.399038e-06,6.2007007e-06,4.1854284e-07,1.488941e-06,4.6311243e-06
8.0865624e-07,4.3866944e-06,1.7139286e-06,4.6721857e-07,3.6944132e-06
3.0025951e-06,5.8771143e-06,1.9724257e-06,2.4453064e-07,3.819854e-06
1.1950147e-05,5.7503116e-06,2.4433882e-07,5.7002086e-07,6.23484e-07
0.0001259933,3.5952612e-06,1.3664004e-07,4.3607147e-07,9.53819e-07
0.000210705,2.697066e-06,1.15038276e-07,1.4072311e-06,5.1555826e-06
0.0005099723,1.04394085e-05,2.3501973e-07,1.5680725e-06,9.919834e-07
0.00049843633,3.0994775e-06,8.9229076e-07,1.02818525e-07,3.0101794e-06
6.344251e-05,4.7632016e-06,7.712945e-08,4.090121e-07,3.7855339e-06
2.4352401e-05,1.8598847e-07,2.2508122e-07,6.2749905e-08,2.066909e-06
3.388139e-06,1.8169412e-06,1.2303561e-06,4.2191076e-08,2.695251e-07
8.139782e-07,4.73613e-07,8.1677183e-07,2.3844486e-06,4.9835053e-06
7.000072e-07,3.297011e-06,3.2763198e-06,1.4274558e-06,4.50678e-06
1.2983011e-06,5.6183853e-06,6.5702005e-07,2.4534052e-07,2.1646721e-07
1.099087e-06,2.7786689e-06,1.1696543e-06,1.9841666e-06,1.0556123e-06
1.1894231e-06,1.5982431e-06,1.2683212e-06,1.808157e-06,6.43132e-06
1.4188228e-06,3.0810213e-07,1.8835649e-06,2.3759974e-06,4.66285e-06
1.6007864e-06,5.2417556e-07,1.8234326e-06,2.8902186e-06,1.2695538e-06
1.7985483e-06,6.8223294e-08,3.6761662e-07,4.3931404e-06,1.6559638e-06
1.4825766e-06,3.1068032e-07,1.178524e-06,1.2984212e-06,1.7976356e-06
5.790759e-06,2.2672162e-05,7.719201e-07,4.279118e-07,1.208564e-06
2.4020728e-06,6.4257497e-06,1.4992213e-06,2.390395e-06,1.3965557e-06
2.8944012e-06,2.6788125e-06,4.3676678e-06,7.066655e-06,1.1391006e-06
2.936394e-06,3.6835522e-06,3.1607973e-07,3.4691573e-06,3.3296342e-07
1.95588e-06,1.4262177e-07,2.3323166e-06,2.253494e-06,2.9768875e-08
5.321977e-06,1.15109394e-07,1.1900264e-06,3.9421417e-07,0.0
1.3989616e-06,5.5869545e-09,2.4469423e-07,7.4449775e-07,0.0
1.07248825e-05,0.0,4.2306567e-07,4.4225558e-07,0.0
3.9783476e-06,0.0,4.5425728e-07,7.643609e-07,7.878084e-10
2.353863e-06,2.8311895e-09,3.7441893e-07,5.708613e-07,8.306927e-08
1.2019574e-06,2.3209454e-08,1.7882346e-07,1.1207316e-06,1.9218423e-07
1.2338566e-06,7.401571e-08,2.6265678e-07,1.4783866e-07,1.8124047e-07
9.746813e-07,1.4856324e-08,2.8336643e-07,7.5239626e-07,7.741754e-09
5.296483e-06,0.0,7.707266e-08,2.4522444e-07,0.0
6.8793506e-06,0.0,5.651724e-09,1.954973e-06,0.0
8.942737e-06,0.0,7.3630886e-08,5.518049e-06,0.0
2.436364e-08,0.0,1.7633627e-06,2.8733407e-07,0.0
2.5258768e-07,0.0,3.3517094e-07,4.0131904e-06,0.0
3.5565554e-07,0.0,2.0905572e-06,1.95129e-06,0.0
2.308557e-06,0.0,5.640665e-07,1.3236647e-06,4.0682725e-08
5.50011e-07,0.0,4.2684164e-06,3.3309589e-06,1.589823e-06
1.0849387e-08,3.2580456e-07,7.4569766e-06,5.5858146e-07,1.7254386e-06
7.3148376e-06,8.161235e-07,4.568214e-06,1.5691411e-06,7.992536e-08
3.5432133e-06,6.1018245e-06,4.655689e-06,1.051214e-06,2.1140645e-06
3.1221534e-06,3.9824886e-06,1.3087304e-06,1.4577462e-07,4.9500118e-06
6.6394036e-06,2.556402e-06,8.739805e-08,5.804137e-06,1.1531974e-06
9.148763e-06,0.0,1.7575162e-07,2.5018753e-07,1.5120545e-06
3.2290347e-06,0.0,2.7905147e-08,1.6340024e-06,2.283881e-06
9.764188e-07,0.0,4.2378895e-05,2.1759621e-07,1.7560048e-07
1.5200767e-06,0.0,1.8697401e-05,1.8866283e-06,0.0
3.9842314e-07,0.0,1.9766307e-05,8.284737e-06,0.0
2.1989032e-07,0.0,0.0,0.0,0.0
4.3018257e-08,0.0,0.0,0.0,0.0
0.0,0.0,1.0736639e-10,7.653611e-09,5.287197e-07
0.0,0.0,1.2639366e-10,4.901874e-09,9.2175407e-07
1.5491638e-07,3.3476333e-11,2.1487307e-07,2.6299165e-06,1.3500627e-05
5.449896e-06,2.5910605e-09,2.476746e-07,1.0492688e-06,7.215468e-05
6.3051393e-06,3.003369e-06,5.695362e-07,3.6495308e-08,3.9407165e-05
5.6843496e-06,8.94905e-06,1.2429102e-06,1.5641896e-06,1.7353634e-05
5.067712e-05,2.9611778e-05,3.204961e-06,1.946458e-06,3.6175788e-07
9.0645684e-05,7.5246667e-06,3.2941637e-06,0.000115908355,1.866301e-05
5.947892e-06,1.7243063e-06,1.8537826e-06,0.009963204,4.1116086e-06
1.1702329e-05,9.948952e-07,0.0026025902,0.00032797488,0.0041330764
5.8063724e-06,7.5834544e-07,3.807015e-06,0.0023785876,0.00015236142
0.03429795,4.2782867e-07,1.2968418e-06,0.0030992546,0.00810016
0.012774403,0.0013708457,2.1844455e-06,1.2827869e-06,0.1162388
2.4625167e-06,0.00021978878,2.618895e-06,2.1950605e-06,0.0114214495
1.4401916e-06,2.1208696e-06,7.3464066e-06,1.9748798e-06,9.728276e-07
4.9417304e-06,2.4734604e-06,2.4449744e-06,1.8466359e-06,3.2176874e-06
3.5596263e-06,2.3086477e-06,1.4395823e-06,1.4515061e-06,7.1828517e-06
1.060094e-06,5.2077013e-07,3.1476256e-06,1.8488227e-07,3.44927e-07
0.00024729056,4.9199666e-06,1.8177393e-07,4.9566606e-06,8.274911e-07
1.11430765e-07,9.470029e-07,1.2165694e-06,1.1762697e-06,1.4869928e-06
2.0380281e-07,2.1273427e-06,1.045885e-06,1.1181475e-06,3.4648724e-07
1.7724751e-06,1.2292443e-06,1.1207688e-06,1.3652948e-05,3.684165e-07
3.295901e-05,8.3522326e-07,1.1734279e-06,8.890919e-05,2.338059e-07
8.4248046e-07,1.9942236e-06,7.907426e-06,6.429315e-06,7.2322786e-07
1.6970456e-05,2.2558065e-06,7.718467e-07,1.6868938e-06,2.17399e-06
