"[299, 255]","[227, 248]","[287, 319]","[279, 328]","[230, 262]"
2.838401,2.838754,0.6860379,0.026374178,2.9101741
2.7374296,0.67795026,0.60808474,0.16116285,1.2411808
0.0013389864,0.056837514,0.41502056,0.27743077,0.00052124396
1.1170685,3.923445e-06,0.44958982,0.16801038,2.8517404e-06
1.3607937,5.812374e-06,0.3312865,2.5584122e-06,1.2292492e-06
1.4137919,1.6840144e-06,4.8685497e-08,3.1590673e-07,1.885694e-06
0.92769533,1.4602402e-06,5.0725697e-07,5.6233134e-06,1.4316433e-06
0.25277746,4.334935e-05,1.9418636e-07,3.711495e-07,8.235447e-07
0.016389767,3.816574e-06,0.0051302197,4.695113e-08,5.519543e-06
0.0038354795,2.2267868e-07,1.4069246e-06,2.470225e-07,3.9751146e-07
7.237587e-05,6.682702e-07,7.845318e-07,1.378022e-06,4.5100867e-07
1.2700625e-06,4.1173672e-07,2.634462e-06,4.3648997e-06,1.5261813e-06
3.5488229e-06,7.573937e-07,0.012420276,7.634382e-07,4.4734045e-07
2.9481455e-06,3.4323176e-07,0.015672013,1.6025643e-06,4.112041e-07
3.5588512e-06,1.0448188e-06,0.0038213383,0.010923749,1.8172358e-06
2.2169306e-06,9.966108e-08,0.00018821777,0.90159494,6.371482e-07
3.7348675e-06,0.014722884,5.3477528e-05,5.795984e-07,2.1218e-05
8.99688e-05,0.000389826,2.4817346e-06,0.00026009398,3.8715034e-06
1.5747012e-06,2.0780842e-06,2.1225443,2.1451109e-07,4.0605883e-06
4.701615e-06,1.3292449e-06,0.4219387,3.032927e-07,9.950738e-07
7.681858e-07,4.5456145e-06,0.0155779375,7.392431e-08,1.9597287e-06
1.510554e-07,6.956525e-07,2.1934331e-06,6.357258e-07,3.580532e-08
1.3558e-06,1.7944792e-06,0.30497718,3.956074e-07,2.7597702e-07
4.4529684e-06,3.133171e-06,0.0042757173,3.8704428e-07,4.97861e-07
0.0028525328,8.0017816e-07,3.2082457e-07,1.9342151e-07,8.289725e-07
0.000815166,9.000585e-07,5.043938e-07,4.0514905e-07,3.6291598e-07
0.0033612002,7.898314e-07,2.2334882e-07,6.1055545e-08,1.2503224e-07
1.691498e-05,4.125249e-06,6.881072e-07,2.0274119e-07,6.980204e-07
2.2654413e-05,1.850947e-06,2.6498594e-06,1.5154966e-07,5.236247e-07
1.1292026e-05,3.986497e-06,2.4263943e-06,1.2194762e-07,1.3312635e-06
0.26779726,1.0516562e-06,6.2297017e-06,1.5708082e-07,4.869891e-07
0.00056573795,9.619062e-08,2.0590037e-06,3.0529606e-07,1.6046689e-06
7.735309e-06,6.5955777e-07,2.1366548e-06,8.702448e-07,8.30969e-07
8.78217e-06,2.682313e-06,1.3575959e-06,2.6454947e-07,3.030629e-07
1.4569817e-06,8.562375e-07,8.439133e-07,1.6958708e-07,4.1329614e-07
3.5043252e-06,2.1928026e-06,4.174417e-07,1.3455056e-06,1.4305492e-06
3.778583e-06,1.5565128e-06,2.2449442e-06,2.1480773e-06,1.9617472e-07
3.5420906e-06,8.7517543e-07,3.2352393e-06,2.3387759e-06,8.6039205e-07
4.762606e-06,3.7411155e-06,1.7010881e-06,4.7385765e-06,7.1345056e-07
1.932126e-06,4.7285447e-08,2.4330902e-06,1.5239728e-05,2.0525621e-07
1.5736538e-06,5.7815157e-07,7.973549e-06,2.0630332e-06,1.4271109e-07
2.275803e-06,1.3496594e-06,7.389633e-06,9.601127e-07,2.9887e-06
1.632459e-06,3.259567e-08,1.6283825e-06,6.010661e-07,9.537494e-06
6.157294e-07,1.6017794e-06,6.62273e-07,3.7555688e-07,1.109858e-06
3.639667e-06,1.4871824e-06,2.2870168e-07,2.4324223e-10,3.0125948e-06
5.208245e-06,1.4633324e-06,0.0,0.0,2.445708e-07
1.3698792e-06,2.5979473e-06,1.3103278e-09,4.2236098e-07,1.4133816e-05
0.0008617694,6.089366e-07,6.114628e-08,4.3320122e-07,1.9793013e-05
0.002061414,5.901417e-07,7.2827186e-07,7.832451e-06,7.284469e-07
0.004482467,7.279882e-07,1.8211333e-07,2.3453958e-07,9.879943e-07
0.008347076,8.652293e-07,0.00016413297,4.6917086e-07,2.7930741e-07
1.559033e-05,9.699792e-07,1.4312612e-05,9.01086e-07,4.904318e-08
5.0551075e-06,0.00023033889,2.3120072e-05,1.365823e-06,4.1718818e-06
5.0153385e-06,0.0008323221,5.275512e-05,0.0002551235,0.00053269416
2.3190385e-06,5.043743e-05,0.06775075,4.7979523e-07,7.3392526e-05
1.3289989e-06,3.7039536e-06,1.1919047e-06,1.4760618e-06,6.43677e-05
6.7997353e-06,1.7546978e-06,1.2868887e-06,5.3533404e-07,2.119074e-06
7.95577e-06,0.0029590628,7.921894e-07,4.3895378e-07,6.7970395e-06
2.110798e-06,1.3471345e-06,3.2892572e-07,4.4836776e-07,4.3599138e-07
9.0963624e-07,1.2822019e-06,1.805189e-06,3.6869023e-06,2.2110821e-06
2.3287064e-06,1.60734e-06,3.635797e-06,3.04961e-06,1.6347736e-06
3.3845731e-06,8.7501274e-07,1.8056704e-06,3.2302594e-06,1.2089097e-06
2.6169084e-06,1.7085204e-06,9.595646e-06,1.1843929e-06,1.2202157e-06
2.9971906e-07,2.1156534e-07,2.621562e-05,1.7984507e-07,1.830677e-06
6.8705936e-07,5.379994e-07,0.0018622666,2.55559e-05,2.8952454e-06
1.7237959e-06,5.6764943e-06,0.018222257,0.0031370127,7.2243356e-06
2.0887662e-06,9.146531e-06,0.033526815,0.025292955,0.042776898
2.1080237e-07,4.919443e-06,0.040027495,0.0025053464,0.22465432
3.4180034e-06,1.1404521e-05,0.027484981,0.011063174,0.10936578
0.0061557638,0.03309385,0.033940714,0.08226049,0.58080494
0.10029815,0.4763875,0.11928338,0.00029083958,1.5478616
0.13657258,0.81489694,0.047422152,0.017478446,2.1828325
0.11767226,0.59801537,0.0565012,0.06390711,0.57736087
0.5297474,0.22625811,0.079005376,0.096066706,7.288621e-05
0.5303876,0.097936235,0.05703084,0.09555426,9.955426e-05
0.42524424,2.9928313e-05,0.050318282,0.058407936,0.00018922742
0.477993,0.00057981483,0.020064188,0.14688548,0.00047366752
0.5655281,0.0012814488,0.010265324,0.12437669,0.0004260717
0.40471438,0.061396368,0.12146572,3.3370142e-07,0.38594514
0.42261848,0.099011935,1.6563736e-06,8.7077586e-07,0.020847807
0.6160814,0.11352073,2.0960246e-07,7.678754e-07,0.00023350152
0.7314983,4.0705792e-05,1.665841e-07,1.0466894e-06,0.0001803193
0.7741151,0.013464815,4.951232e-07,2.3618206e-06,2.1438698e-05
0.32492617,2.5538657e-05,5.177511e-06,1.2161465e-06,1.7690562e-07
0.17062911,6.515947e-05,2.053819e-06,2.3351965e-06,1.9846728e-05
8.139125e-06,1.850162e-06,1.2486482e-06,2.6870173e-06,2.0658476e-06
8.7216256e-07,5.60786e-06,6.2266627e-06,5.3909835e-06,1.3758797e-06
6.0864966e-07,1.5133897e-05,4.0423934e-06,2.0009263e-06,4.603666e-07
1.073957e-06,4.9358327e-06,3.2087098e-06,1.4809954e-06,2.8036607e-06
2.3257608e-06,8.566344e-06,5.8341925e-07,9.657826e-07,8.655679e-06
3.7405034e-06,3.096602e-06,5.243393e-07,1.7137192e-07,4.377301e-06
3.153752e-06,3.2826479e-06,9.231018e-07,1.1278097e-06,5.4805487e-06
3.2970007e-07,8.701671e-07,0.042538516,0.023706198,4.826974e-06
3.3461657e-07,2.2702939e-06,0.5080176,3.4493215e-07,1.1751893e-06
1.7839412e-08,1.5162578e-06,5.377461e-07,1.9471945e-06,3.165741e-07
5.4332065e-07,3.3826186e-07,8.3908253e-07,8.5938865e-07,3.0311887e-07
1.2695097e-06,2.309573e-07,1.6543339e-06,5.144779e-07,1.5235094e-07
3.2342637e-06,1.265364e-06,1.1803444e-06,1.3995657e-07,2.9530506e-07
5.047247e-05,7.286723e-07,2.631331e-07,5.0491394e-07,8.230533e-07
0.0015153348,5.407855e-07,6.1317174e-08,4.2320767e-07,5.6450733e-07
0.0023712139,1.8519818e-06,7.374433e-08,4.438321e-07,5.480788e-07
0.014781478,4.244048e-06,1.0603563e-07,1.12491456e-07,4.0237136e-08
0.012945491,4.164723e-07,8.659502e-07,7.943532e-09,9.436653e-08
0.005292553,9.853854e-08,3.454787e-08,8.454378e-08,4.1276246e-07
0.0011568839,2.668478e-07,2.7258932e-07,1.3095604e-06,4.6939098e-07
1.1735689e-05,3.856881e-06,1.7924458e-06,5.95346e-07,4.81551e-07
2.107253e-06,1.6381712e-06,3.8025073e-07,7.8294937e-07,1.3135863e-06
4.837331e-07,1.3457409e-06,1.32581e-06,2.4804501e-06,0.00082801096
1.5690348e-06,0.0008479151,4.7547067e-07,2.55165e-06,0.012107618
6.0646204e-07,0.0013664229,1.1465526e-06,1.7575617e-06,0.00079640705
0.013329546,0.000606238,4.775401e-06,2.5343043e-06,0.00092304684
4.182542e-06,4.9690538e-05,7.7750093e-07,2.7894187e-06,4.942536e-05
2.890775e-06,0.00033138142,1.5486685e-06,1.7572502e-07,4.8148835e-05
2.8456843e-05,0.0005006484,9.664992e-07,1.5909785e-06,0.00012172988
5.3778946e-05,0.000998325,8.623063e-06,1.9768997e-06,0.00070097
1.4402641e-05,0.0009809873,2.0601854e-06,2.4086569e-06,0.0009630565
1.1271213e-05,0.0003765999,3.803758e-06,2.3576717e-06,0.00017649482
1.0279762e-05,1.1834066e-05,1.379579e-05,2.9375956e-06,2.4836838e-06
1.879916e-06,1.3956062e-05,4.301734e-06,3.1429687e-07,1.8528325e-06
4.4800134e-07,8.410915e-06,2.9761819e-05,8.582662e-06,1.2052191e-05
9.998507e-07,0.29173934,0.00047892073,2.4379453e-06,0.011131634
6.707229e-07,0.008086769,0.013803206,3.915097e-06,0.09809596
9.1896163e-07,0.026896562,0.06349565,0.059271116,0.13811673
7.5469035e-07,0.038760945,0.08558501,0.039344203,0.16096957
1.3918815e-06,0.0010324306,0.085080944,0.0050599067,0.05303939
2.7432798e-06,0.018062389,0.1720063,0.0075221285,0.058957055
6.360966e-05,0.08736098,0.116069295,0.01703363,0.020616772
6.0042603e-05,0.02268182,0.15483291,0.009898017,0.05302219
8.347508e-06,0.00040087276,0.031435557,0.02054196,0.04413291
4.058542e-06,7.731981e-06,0.09064338,0.0039549163,0.04205527
3.966983e-06,0.0010809572,0.19424914,3.4542688e-07,0.013442494
8.956859e-07,1.5553316e-05,0.06020575,1.2050335e-06,0.019059917
6.981877e-07,8.461494e-06,0.034138307,1.3439568e-06,0.003969095
1.626123e-06,2.461633e-07,0.05877272,1.3670699e-06,2.7066687e-06
3.5317987e-07,1.2224672e-06,0.051070627,3.56717e-06,1.8359862e-06
9.5181844e-07,1.2670774e-06,0.0690219,9.077524e-07,1.4124247e-06
6.0007274e-08,1.4924794e-06,0.025198208,1.9728286e-06,8.793778e-06
5.6971277e-07,4.716245e-07,0.03698151,7.6796744e-07,1.3694044e-05
8.892311e-07,1.830169e-06,0.043160044,1.2968345e-06,0.0018396667
3.7020283e-07,2.4822045e-06,0.012957464,3.520867e-07,7.812642e-05
5.961813e-07,1.3136051e-06,0.018172225,2.274131e-06,0.005399939
2.8620627e-07,8.9815245e-07,0.003924403,8.418482e-08,0.0013511927
6.052324e-08,5.5472015e-06,0.015860422,2.396813e-06,1.7200628e-05
2.9626906e-06,1.4377686e-07,0.03462319,5.129356e-06,0.017718796
5.39715e-07,0.013895229,0.04064102,1.6838998e-06,0.03179265
1.5885358e-06,0.0039847447,0.08184464,4.3271034e-06,0.038202766
5.3255917e-06,2.3568498e-06,0.065455556,4.6760837e-05,0.0015791837
3.7964878e-06,1.7833416e-05,0.036861703,0.000118834476,5.4797856e-06
1.4633429e-05,5.660731e-07,0.19948956,0.050869197,1.6931193e-05
1.530507e-05,0.06571248,0.10748236,0.013517536,0.06928539
4.366588e-06,0.0021929154,0.3087898,2.514608e-07,0.04815964
9.573571e-06,0.0037192747,0.337995,3.3047744e-08,0.15216304
8.546672e-06,0.45288807,0.26444212,6.506261e-07,0.20165972
5.0752615e-06,0.13335596,0.23197389,1.7101997e-06,5.4627075e-05
1.6838345e-06,0.00016945801,0.10632487,1.6345448e-06,4.2018737e-06
8.921596e-08,4.749779e-06,0.026330043,2.5615732e-06,9.449291e-06
8.8476264e-07,6.1547047e-07,0.018439991,1.9979216e-06,4.7928593e-06
1.2101636e-06,4.159741e-06,0.01262274,2.5575405e-06,3.7768593e-06
1.2773345e-06,5.0333524e-06,8.7691814e-07,1.1994159e-07,9.741892e-06
2.647424e-06,2.4962465e-06,6.236139e-08,3.0870993e-07,1.0928724e-05
3.1606558e-06,4.170942e-06,3.2279227e-06,3.1614854e-06,3.23578e-06
5.115325e-07,4.65577e-07,8.4033e-08,8.622196e-07,3.7122788e-06
1.8793233e-07,2.8465018e-07,1.5392473e-08,7.9024e-07,2.3471862e-06
1.7188339e-07,2.7129272e-07,8.7389714e-07,2.0151305e-08,4.1514136e-06
2.1721821e-06,1.2099351e-06,3.5451737e-07,6.8591235e-06,1.7183654e-06
3.7387872e-05,3.7477996e-06,4.8566613e-07,0.00035992803,3.2161122e-07
1.941185e-06,0.04048919,0.022973292,6.91088e-05,5.452048e-07
5.575115e-07,1.7154475,0.011431226,4.4049278e-07,0.03324489
1.8806045e-06,1.2177286,0.16885825,2.5696986e-06,0.1482379
1.2797411e-06,6.8266286e-07,0.026356325,1.12133506e-07,0.72071326
5.002128e-05,1.18621024e-07,0.00015196577,1.2716899e-07,0.00044668038
1.393448,2.3540367e-06,0.12815093,4.1318543e-08,7.3121355e-06
0.09758718,7.3422957e-06,0.15515362,2.051672e-07,5.342831e-06
8.671784e-05,8.415488e-06,0.0012011947,7.543946e-07,0.01875931
0.00583893,2.407146e-06,1.7771094e-06,5.5985433e-06,0.8149527
0.00017782506,6.0768175e-06,6.853531e-05,2.3834943e-06,0.0005151136
0.00015001124,9.3940474e-07,4.896841e-05,1.2147984e-05,0.066603154
2.0475363e-06,1.5376116e-06,3.4705847e-06,0.013813015,3.3328504e-06
0.32755706,0.00107305,2.2996014e-06,0.013997687,0.0074669286
6.949462e-07,0.008246852,1.7375089e-06,6.064973e-06,0.05421685
1.0217765e-06,9.84691e-05,2.9244377e-06,1.7088406e-06,0.04470963
1.3324285e-06,0.005848016,1.80084e-07,2.1675778e-06,0.028954433
5.2533244e-07,0.0013603527,2.4265055e-06,4.3688897e-06,0.041682716
2.430774e-06,0.018186195,2.320344e-06,3.4711793e-06,0.011070998
6.116605e-06,0.03835194,7.884492e-07,1.490344e-06,0.051466454
1.0880525e-05,0.05918734,1.550446e-06,2.2663378e-06,0.09476384
3.7199356e-06,0.00042332147,1.7873335e-06,0.00014693706,0.05707923
6.871971e-06,4.692896e-06,1.451132e-06,0.034663226,4.1709054e-06
0.0077955974,3.8365956e-06,2.1690502e-07,2.4068024e-06,3.497967e-06
0.07562378,2.0573896e-06,4.1765575e-06,4.400524e-06,0.0024650532
0.08441217,9.5350845e-07,3.4576037e-06,3.2565156e-06,4.590953e-07
0.0015677314,0.020451276,6.0335346e-06,2.5646739e-06,1.9191455e-06
7.031316e-05,0.025106164,1.08834e-06,5.5255605e-06,0.014346297
0.03406675,0.016722834,1.7356972e-06,0.0016991585,0.00501419
0.00060396665,0.037856814,3.065824e-06,0.0036857778,0.033678852
0.010584158,0.041536886,1.1043962e-06,5.9214053e-06,0.060167428
0.00027442994,0.07738217,0.20665574,0.8100018,0.05102388
0.02555519,0.5970286,0.23007962,0.61571085,0.33036917
0.27699685,0.24691552,1.6494456e-06,0.19512393,0.30446878
0.17390318,0.61704224,0.04138022,0.0074847243,0.57858616
0.2352159,0.6588736,0.29638097,0.038251843,0.13523956
0.45844328,1.2379733,0.14244345,0.0028475202,0.13996725
0.06123106,1.6472108,0.0002538399,3.3869503e-07,1.3309878
0.008165097,1.3521204,0.025287218,0.0869496,1.0298346
0.00469807,1.3853471,0.12920193,0.15711114,1.18342
0.07161385,1.6929,1.2014186,0.4531971,1.9408045
1.1867943,1.1348071,1.7757703,0.73092294,1.5907128
1.8856704,1.1518363,0.9714501,0.298438,1.2431378
2.373641,0.10223011,0.82459164,0.048993632,0.54393023
1.8677353,2.5058446e-07,0.7067386,0.0078924075,4.4857634e-06
3.1621869,2.6314488e-06,0.046624646,0.0013618921,5.1340463e-05
3.8724673,7.2527514e-06,1.2675277,0.7644783,7.772011e-06
2.858488,9.4023424e-05,1.1779991,0.28111076,7.595585e-06
0.9197454,6.7842666e-06,0.61990154,0.09268315,2.856633e-05
0.012087148,1.582383e-06,2.655723e-07,0.011706284,4.482189e-07
3.0074798e-05,9.140853e-11,1.2143888e-05,2.9404198e-06,1.76116e-07
2.2505237e-07,3.324952e-07,8.644897e-06,5.8901096e-06,7.0318267e-09
2.530962e-07,7.822309e-08,7.0229426e-08,1.7876129e-06,7.978145e-07
1.3956102e-06,0.52858305,6.6080155e-08,8.680928e-07,0.46391627
3.170728e-05,0.7890999,2.275293e-06,0.012778026,0.804997
0.0007802498,0.6480872,0.0024829956,0.012772989,0.6495442
0.030096186,1.6659867e-06,9.1717015e-07,1.5621032e-06,1.4747276e-06
0.53939235,4.903601e-07,4.930037e-07,8.853097e-07,3.9779823e-07
0.3076203,1.122305e-06,1.1634204e-06,7.627219e-07,1.0164023e-06
0.60791725,6.456686e-07,2.1440694e-06,3.6711378e-07,7.23194e-07
0.39899373,1.8347093e-06,1.5939094e-06,6.6972193e-06,1.2539126e-06
8.999131e-07,1.6440184e-06,4.556462e-06,1.3039753e-06,5.0680416e-07
0.3697516,1.7268189e-06,9.1438017e-07,2.694338e-06,6.615803e-07
1.9235972e-06,1.5890307e-06,4.2524102e-06,5.238128e-06,1.0048295e-06
0.985702,2.0905434e-06,0.41390467,1.1293803,8.7536637e-07
0.66151285,1.5024984e-06,0.0803018,0.0008695086,2.0170685e-06
4.2894353e-06,9.2117693e-07,3.4081654e-06,3.1788695e-05,3.8727896e-07
2.918877e-06,4.214283e-06,1.0578065e-06,1.2418164e-06,7.3423325e-06
0.07713538,2.2823422e-06,5.8790624e-07,5.3526776e-07,1.9242475e-06
1.1148401e-06,5.817738e-06,1.4592059e-06,5.906735e-07,5.8289083e-06
1.8513836e-07,0.20606472,4.190214e-06,1.1536241e-06,0.000849442
3.027615e-07,0.103083216,1.2717584e-06,3.4249155e-07,6.442987e-07
5.874767e-07,8.9904734e-07,0.15404636,0.20737061,5.77834e-07
0.23027742,1.02638516e-07,0.03581584,0.61784226,4.214947e-07
0.051720195,2.6667607e-07,2.021896e-07,0.041505545,4.342888e-07
0.18715654,6.8458684e-07,2.444459e-07,4.5709572e-07,1.8337201e-06
0.00012957226,7.4656435e-07,1.757668e-07,8.420915e-07,3.5659227e-07
9.835312e-05,1.082563e-06,8.3829383e-07,0.009036463,2.6425036e-07
9.468606e-05,1.5579875e-06,0.0003724169,0.13286231,7.2103313e-07
5.0755716e-05,8.5452194e-07,0.002977951,1.6807181e-07,4.6404145e-07
4.019732e-05,1.3714624e-06,5.709904e-07,8.069886e-07,3.356827e-07
2.7508886e-06,5.9861685e-07,4.2867384e-07,1.368738e-06,3.1196885e-07
1.7062076e-06,1.7502496e-06,0.015208534,1.5557854e-06,5.543018e-07
1.2288566e-06,1.7515215e-06,0.019439086,2.9209787e-06,3.0994036e-06
1.0819842e-06,0.006458034,0.08362028,1.9857903e-06,1.1556695e-06
0.01819247,2.3566685e-05,0.00635519,1.4857682e-06,2.0357256e-06
0.09518248,0.9770004,0.0504346,2.608716e-06,0.5943792
0.0009604953,1.2123914,0.1150804,1.3473754e-06,1.3463243
0.30499431,1.0597967,0.29982665,3.417861e-06,1.8384336
0.42339045,1.1421816,0.39332142,0.0025610183,2.3081362
0.21023129,2.0928426,0.754592,0.010481277,2.522747
0.53060794,1.1821018,0.41025984,0.015745413,1.4327997
0.2792898,0.0571631,0.86826384,0.11229377,0.18528733
0.3964968,0.034474906,0.35290638,0.37079194,0.045070007
0.033998553,0.02408926,0.5982776,0.3416348,0.02108263
0.13893329,0.0092720445,0.3870925,0.17882314,0.14210916
0.22243695,0.00025354317,0.23597401,0.19000806,0.128302
0.07555923,2.8887453e-06,0.2517743,0.44298542,0.0017142422
0.044777032,5.4539953e-07,0.2260522,0.58543515,3.9064733e-07
0.5121091,3.3322206e-07,0.10267423,0.17448789,5.258534e-06
0.39636895,1.4364396e-06,0.017639466,0.053266913,3.2708638e-08
0.29290625,5.6985048e-08,0.02054252,0.0735514,8.904976e-06
0.22701162,8.869938e-07,0.028899493,0.07869548,1.4763286e-05
0.14882824,6.279738e-07,0.03705045,0.052749693,6.401095e-07
0.15934688,4.2813951e-07,0.0047623217,0.041003462,9.2990473e-07
0.16395012,3.2501927e-07,2.7530834e-06,0.00823279,3.5522595e-07
0.21148528,3.3465906e-07,5.308891e-07,4.2535936e-07,1.1897348e-06
0.071790054,7.072493e-07,4.0297965e-07,6.377936e-07,1.4007475e-06
0.048378445,1.5836127e-06,1.4399756e-06,4.5969713e-07,1.7869816e-06
2.7876818e-06,2.1071733e-06,3.0914975e-06,1.2066355e-06,1.2510912e-06
2.339943e-06,2.8066652e-06,1.562508e-06,4.4230223e-06,1.3510969e-06
2.3467508e-06,2.3366058e-06,6.4986293e-06,3.1409825e-06,2.6192845e-06
2.4422836e-06,3.1706834e-06,3.477629e-06,3.5741557e-06,3.4953564e-06
3.013561e-06,1.8129642e-06,4.1681033e-06,1.4733929e-06,5.296749e-06
0.0077174874,1.2247356e-06,4.620654e-06,0.0002011431,4.034838e-06
2.6764494e-06,3.9397405e-06,2.0422915e-06,9.673516e-07,2.6257294e-06
5.605076e-07,1.1876276e-06,1.664083e-06,1.8756231e-06,7.4154977e-06
2.793895e-06,8.7466555e-07,1.2448425e-06,6.734682e-07,2.1396136e-06
1.1321555e-06,1.856536e-06,1.5055318e-06,1.1980674e-06,6.5493623e-07
1.787355e-06,4.676866e-07,1.8962344e-07,7.733504e-07,9.2140243e-07
3.6046725e-07,5.0483425e-07,8.0293296e-07,1.4082324e-06,2.3686832e-06
5.8767404e-07,2.7656063e-06,1.0800377e-07,1.1810545e-06,4.547367e-05
2.696076e-06,2.5177978e-06,3.245544e-07,8.022203e-07,9.439841e-06
1.6708955e-05,1.2970218e-06,6.898955e-07,3.2270195e-06,3.7155046e-06
1.4154094e-05,2.451764e-06,6.427664e-07,9.0342405e-07,1.5077275e-06
0.01358056,1.4889911e-06,1.1455759e-06,1.1112331e-06,3.1391282e-06
3.502516e-06,0.49838984,7.2973023e-07,2.2917727e-06,0.4716861
9.42464e-06,0.49176913,0.00011186499,1.6694273e-06,0.3626703
2.3604936e-05,0.017729908,0.081303135,0.021581953,7.089979e-05
0.1297071,0.004447409,0.14406118,0.06061516,0.0051826877
0.029909836,3.5516086,0.21811908,0.096311696,1.9556338
4.157704e-06,1.25863,0.20251016,0.09175641,2.3945577
0.7622148,2.2652578,0.12292788,0.063243136,2.6305099
2.7938933,3.9554033,0.09783523,0.04576841,1.6423905
5.5986166,1.7946671,0.039715145,0.009832148,0.7579363
4.590453,3.7613532e-07,0.02350067,0.084670216,0.028178819
4.734403,0.017956043,0.108073585,0.11158798,0.09236747
0.39620858,0.2785986,0.023218406,0.027924288,0.040763833
0.16056132,4.5182892e-07,0.029940447,1.3943411e-06,0.011204832
0.38327274,4.3861295e-05,1.6833113e-06,2.9460648e-06,1.7272127e-06
2.5982843e-07,4.843253e-06,2.0342245e-06,0.019162435,9.318349e-06
7.449781e-07,7.707769e-06,3.993655e-06,6.37441e-07,6.6591165e-06
1.3722605e-06,3.5482528e-06,1.1106005e-06,0.089237936,4.066127e-06
5.777087e-07,1.3208646e-05,3.732916e-07,3.9400166e-07,3.0222727e-06
1.6049489e-06,3.9638584e-05,0.022275614,4.2197055e-07,5.349166e-06
2.7990257e-07,9.2576335e-07,0.022495337,1.7358765e-06,6.101344e-07
1.3217024e-05,5.185813e-07,5.265706e-08,2.3220788e-07,9.667135e-07
0.0010882389,5.692358e-07,1.9579537e-07,8.704101e-08,2.0382656e-06
0.000796473,6.5561056e-07,0.03921454,1.509413e-06,4.817681e-07
0.018271554,1.9705017e-06,7.1807376e-06,0.06704666,1.1028183e-06
5.1500338e-06,1.0660088e-06,0.0003180246,6.7364095e-07,1.3991183e-06
0.03638052,1.5826358e-06,0.10550367,1.5474959e-06,1.6309833e-06
0.00045271768,4.335301e-06,4.173834e-07,1.0403653e-06,2.337349e-06
0.00011008203,1.4757251e-06,0.0070345663,0.03677737,1.1500304e-06
1.355982e-06,1.5110969e-06,0.04749653,0.48371303,1.499769e-06
0.49117282,1.3800236e-06,0.21174274,1.3374214e-05,5.701996e-07
6.09452e-07,2.7064305e-06,0.8411,0.00010154978,4.2720677e-07
0.027906634,8.701708e-07,3.4679775e-07,1.7577917e-06,6.0391034e-07
2.796251e-06,2.7653941e-06,1.5191679e-06,1.5192928e-06,2.839697e-06
1.2852445e-06,1.9144218e-06,6.389317e-07,1.5439886e-06,6.479419e-07
1.4391796e-06,4.315091e-06,1.5326136e-06,0.12584984,9.699861e-07
3.3769902e-06,3.6097981e-06,2.719347e-06,0.01237101,1.2486581e-06
0.00084713724,6.500322e-07,1.8067426e-06,1.0222554e-06,2.1864194e-06
1.1470705e-06,1.3239821e-07,1.1340286e-06,1.391343e-06,7.745735e-07
1.6585337e-06,5.5021137e-06,2.5415332e-07,9.158704e-07,9.695644e-07
1.2100412e-06,1.684656e-06,1.9717006e-06,8.683172e-07,1.5947219e-06
1.0396794e-06,0.04206624,5.7020316e-06,1.02626955e-05,2.7260678e-05
2.1973162e-06,1.5752075,1.8826005e-06,2.6621712e-05,0.45783156
1.3552084e-06,1.6346656,5.295474e-07,1.6361707e-06,1.610605
0.3609024,2.5227003,0.0034051274,0.18276627,2.269131
1.0706823,0.84538275,0.86210245,1.1845764,0.74624676
0.95231897,0.55710095,0.3204579,0.5097104,0.60998154
0.71901333,0.0954992,0.15399335,0.48283973,0.32891026
0.48837405,0.20325194,0.014374617,0.06313728,0.4393044
0.5426552,0.010157174,2.169916,0.91803455,0.49653918
1.274062,0.008409626,0.2917483,3.3047652,0.030819524
0.89530826,0.0045881444,0.49284637,1.5383362,0.009165418
0.19449453,0.0008916755,0.27840754,0.3998664,0.0009532711
0.006337734,0.0009822587,0.38786328,0.69327044,0.0603414
0.035989363,8.3937715e-07,0.42482087,0.5620846,0.10199775
0.3431626,3.503086e-07,0.30696842,0.35029757,0.08359275
0.04972663,1.2394541e-06,0.16466957,0.15118265,0.007516921
0.14670762,1.4864092e-06,0.10436824,0.11365358,2.8670775e-07
1.8028743e-06,1.8993989e-06,0.0029423102,0.09632991,2.2016195e-06
0.0005361842,2.5100976e-06,0.00027690653,0.08183371,2.4223116e-06
4.8233403e-07,6.476049e-06,1.6510173e-06,0.0133425305,1.831666e-06
8.396808e-07,4.354732e-07,4.119122e-06,1.3491646e-06,7.958395e-06
2.270482e-06,3.4933094e-06,4.4008743e-06,1.7382072e-06,2.7767967e-06
7.765484e-07,6.228104e-06,3.7019367e-06,3.5327816e-06,7.058593e-06
3.7814692e-07,4.227064e-06,2.466103e-06,3.4746363e-06,2.1027683e-06
1.2281349e-06,3.1801812e-06,4.430804e-06,1.7907957e-06,5.819058e-06
1.5355982e-06,2.7910758e-06,6.605146e-06,1.6969268e-06,1.5211982e-06
7.6206857e-07,7.756846e-07,1.6013654e-06,1.3686293e-06,4.2523784e-06
8.267443e-07,2.000241e-06,2.3042976e-06,1.7402383e-06,2.3422426e-06
1.878782e-06,4.557927e-07,5.629152e-06,7.1532685e-07,2.7341653e-06
5.575558e-07,3.463083e-06,2.0922537e-06,1.584271e-06,4.4469707e-06
5.625527e-07,1.6325786e-06,6.6211974e-06,2.7734973e-06,2.527012e-06
2.0197276e-06,4.4714028e-07,2.8739812e-06,6.8334595e-07,3.2074115e-06
2.2660586e-06,2.0432678e-06,3.017013e-06,1.0874982e-06,5.403882e-07
1.6139089e-06,6.5535414e-07,9.556229e-07,1.8764906e-06,3.8013613e-07
3.3371905e-06,9.1552397e-07,1.231496e-06,2.2675476e-06,5.67396e-07
1.3153418e-06,0.0075721056,2.4036226e-06,3.055282e-06,9.578229e-06
1.1585402e-05,0.12687927,2.034295e-06,7.3715196e-06,0.091837235
4.4323474e-06,0.09279263,1.8333612e-06,2.7749812e-07,0.17229693
0.0036117323,0.06346704,0.00014995664,1.6733965e-06,0.0975915
6.937332e-05,0.059729293,0.14856975,0.005510905,0.028913017
9.539999e-06,0.06234552,0.35629225,0.071254626,0.06284159
1.1502502e-05,0.05420127,0.30587646,0.26945367,0.06590895
1.5951623e-06,0.03096705,0.10751913,0.041416455,0.08414976
2.9833728e-07,0.17291029,0.23788401,0.13444646,0.63803416
1.0224636e-06,0.3915524,2.4378557,3.2587354,0.37825358
0.0008362456,2.1857889,2.9532192,3.6960282,3.1331003
0.35833114,0.036147043,6.6294475,2.7786655,0.009557776
0.08133293,5.837977e-07,1.2577319,1.3845489,0.008323912
0.00011247564,1.7754483e-05,1.4660971,0.57862276,0.45694348
4.5608977e-07,2.0302148e-05,2.0457735e-06,1.2302253e-06,7.149708e-07
9.9815494e-05,1.4935122e-07,0.0002687265,2.4224191e-06,4.4690606e-07
4.2078096e-07,1.6877136e-08,5.3437584e-06,3.2527151e-07,3.0664867e-07
4.983622e-07,2.497112e-07,5.245153e-08,5.236246e-07,4.3774514e-07
5.9600336e-07,2.9012048e-07,8.945528e-08,0.013027987,3.291952e-07
8.0972006e-07,1.0941395e-07,4.4282461e-07,2.0708485e-07,1.7186207e-07
4.0752118e-07,3.3253636e-07,1.02333075e-07,2.248864e-07,2.0219842e-08
4.3479176e-07,1.3496341e-07,3.379994e-07,8.2180003e-07,1.3197764e-07
8.4779106e-07,9.99767e-08,5.040467e-07,1.906278e-07,3.3031148e-07
5.6007616e-07,1.02494845e-07,3.1661213e-07,2.39472e-07,3.7608905e-07
7.5732925e-07,4.0532524e-07,1.9098856e-07,4.395936e-07,9.761408e-09
1.2884269e-07,5.817312e-08,2.3357696e-07,7.091994e-07,4.139551e-08
6.723338e-08,2.4863263e-08,1.3259965e-06,9.937379e-07,1.5433511e-06
1.7475147e-06,2.0948161e-07,1.4914647e-06,1.3372318e-06,1.3173062e-07
2.7982883e-06,0.0006894266,3.618613e-06,1.8976185e-06,5.842855e-07
3.3211088e-06,0.013167959,0.0002053694,0.0017128375,0.001979568
0.00025883058,0.00031460426,0.50301206,0.12350926,0.07874806
9.10618e-06,0.1693543,2.720436,0.05047953,0.4052732
0.091471694,0.10391087,3.83273,0.37223175,0.17497951
0.059413936,3.4182227e-05,5.8701253,2.016177,0.004894232
0.27308518,0.0018846841,5.658305,3.5955238,0.0067619276
0.02896176,1.0703773e-05,8.519704,1.9850365,3.0314661e-06
1.19938e-06,1.0751538e-06,6.788157,3.2348056,1.9874128e-06
2.935827e-06,1.2742263e-06,5.5655046,3.7181363,1.3159183e-06
3.968311e-07,0.00038479996,2.0895514,0.28113195,3.7426619e-06
1.5450764e-06,0.00032973412,1.4142436,0.22849645,1.1715135e-05
4.9046234e-06,0.00035967107,1.1530491,0.14991075,1.1204602e-06
1.2103079e-05,7.0004245e-07,0.82912165,0.458871,3.803901e-06
2.0159849e-05,1.4697191e-06,2.1284652,2.623091,2.4955375e-06
3.8377034e-06,5.9854517e-07,1.1568918,4.1320868,1.7086426e-06
1.2742386e-08,1.9797833e-05,1.6088382,0.064103186,9.777496e-07
8.865997e-08,1.4607925e-05,2.5880337,0.18141298,1.7419018e-06
0.084758796,2.0000556e-07,0.014398396,0.9141162,9.287047e-06
0.59292287,5.483172e-06,0.0042345193,0.6530558,1.6154934e-05
0.5977844,7.919111e-06,0.024194462,0.08765679,6.8413037e-06
0.3185643,1.4991534e-05,0.04347676,0.020107651,0.00015195036
1.3905729,0.0014273702,0.43889967,0.25151667,0.0024870767
0.91617984,0.001149467,0.5589683,0.9885601,0.007945839
0.00011329456,1.6426586e-05,0.9265866,0.22899711,0.002862292
2.524947e-05,7.862077e-06,0.47184032,0.12625682,0.00044088636
7.7378405e-05,7.3865904e-06,0.39221781,0.3480576,0.0005970631
7.2071716e-06,4.884994e-06,1.1770564,0.38308638,1.7768596e-05
5.042731e-06,5.0966193e-08,1.9207923,0.45688874,5.408315e-06
1.6942457e-06,2.295041e-06,1.0353824,1.5463475,7.188102e-08
1.2605271e-06,8.717305e-07,0.79219043,1.006645,2.4325887e-05
1.2770008e-06,1.81625e-06,0.79556954,1.2160692,2.4448443e-06
1.7494484e-06,6.006151e-07,0.36236882,0.095992856,6.081465e-07
2.0738396e-06,1.1913453e-06,0.13717616,1.2448452e-06,6.6584556e-07
1.7947406e-06,1.7305804e-07,0.08531325,3.703097e-07,1.5476473e-06
1.2981726e-06,2.3159879e-07,0.11044437,2.4357985e-06,5.8782393e-07
8.1603696e-07,8.891457e-08,0.027911028,0.0001752861,1.7845671e-06
2.433215e-06,5.3286544e-07,0.028579202,1.484833e-06,1.6954704e-06
0.00010140626,0.004982323,0.057433568,7.9761594e-07,3.1238246e-06
6.0134196e-05,0.00056032033,0.056565102,1.5554771e-06,0.029171672
9.148658e-07,0.02915797,0.025341125,2.2802114e-05,0.21276337
1.0431853e-06,0.047527615,0.08197465,1.3375272e-06,0.15410976
9.174042e-07,0.0023052592,0.15555225,0.012862566,6.166849e-06
1.063465e-06,0.026809355,0.24343923,0.011667423,0.00590812
2.0900802e-06,0.059746135,0.09838683,0.044141915,0.07738203
0.0026016259,0.034612805,0.04343487,0.043480273,0.015178607
0.0032866732,0.0051134275,0.037746243,0.0072529535,0.08969164
0.041076846,5.485017e-07,0.05257571,0.00051631534,9.426968e-06
0.00018287626,0.011328106,0.0073455446,0.00087516307,0.00352004
0.00034832227,9.80063e-06,0.0008489147,0.00043745502,0.00028758726
1.4438623e-06,4.6545583e-06,1.2259202e-06,2.3887906e-06,0.007921016
0.00021213685,4.378717e-06,1.9223114e-06,2.3231987e-06,0.0057621403
2.7804008e-06,8.706704e-06,1.4587534e-06,2.7329204e-06,0.001842249
1.7408366e-06,1.080928,6.3876695e-07,4.1085596e-06,2.4218752
1.1889928e-06,1.9248618,8.4727213e-07,0.024004752,2.6562653
0.003735132,1.4124488,0.4666832,0.31109956,2.313382
0.14838497,1.4424868e-05,2.215762,0.74554044,0.00973213
0.1280169,7.765691e-06,2.9520507,0.9352666,1.638701e-05
0.80365413,7.464934e-05,2.1980762,0.52164066,6.545031e-05
4.2561575e-07,3.5646875e-07,0.019943453,7.100499e-06,2.1503258e-06
4.852064e-07,1.2884342e-06,9.790199e-07,2.3932637e-07,5.3827364e-07
5.163918e-07,8.0064854e-07,1.3464633e-07,2.1838534e-07,6.916762e-07
4.2759575e-07,8.999534e-07,7.294671e-08,2.5106663e-06,9.801652e-07
1.0971651e-06,1.1631162e-06,0.031676814,0.0010716998,8.629601e-07
7.0527904e-07,4.238252e-07,0.3283622,0.28796834,1.5325456e-07
8.2235624e-07,1.3113367e-07,0.03871471,0.000326298,3.189978e-07
1.0620067e-07,1.17943455e-05,2.7821588e-07,3.2600778e-07,2.428678e-07
8.902235e-08,1.3673574e-05,0.0038139296,2.9403847e-07,2.5352767e-07
4.9146223e-07,7.0578767e-07,0.010235515,1.2283574e-07,3.2673435e-07
6.250724e-07,1.5862612e-06,1.0888755e-07,1.2779585e-06,1.139741e-06
1.3635671e-06,2.914497e-07,0.004134941,9.794005e-07,5.407119e-07
0.0074933353,4.6738355e-06,0.036843885,6.4513966e-07,1.4505222e-06
2.9997461e-06,1.8856096e-07,0.006847034,0.26271477,2.202842e-06
2.2757151e-06,2.2285774e-06,0.12581721,1.1220754e-06,9.808086e-07
5.1015745e-06,8.575821e-07,0.14499053,0.16018239,2.7916312e-07
3.3887345e-06,5.707818e-07,0.13341463,1.6448841,1.6181851e-06
0.021783274,7.0690126e-06,2.1741153e-06,0.0011277432,2.796077e-06
0.11838619,8.216049e-07,8.878203e-07,0.6317921,4.337913e-06
0.011027527,8.195636e-06,0.0002632315,0.37496758,8.535697e-07
7.071873e-07,4.5196584e-06,6.8784175e-07,0.21744534,1.4747181e-06
2.3390426e-06,2.2489337e-06,0.000950473,0.010876054,5.72276e-06
9.1306833e-07,3.81445e-07,3.634998e-07,2.8371377e-07,5.256482e-07
1.0025595e-07,6.461047e-07,2.0774812e-07,8.9667634e-07,1.2496668e-06
1.510392e-06,1.5443538e-07,4.011978e-08,2.4964047e-06,1.3333226e-06
2.4246364e-07,2.4818226e-07,4.0538222e-07,2.3159721e-07,1.0054258e-06
6.269418e-08,1.1611809e-07,7.1646434e-07,1.1268094e-06,4.884555e-06
2.1241064e-07,2.1933005e-07,1.3666498e-07,9.340975e-08,7.488891e-07
1.15845346e-07,4.0220925e-07,2.6860684e-07,7.868226e-07,1.4291828e-07
1.3666734e-07,5.53703e-07,5.9124824e-07,5.103138e-07,9.101495e-07
1.0141784e-07,0.00013836264,1.2129398e-06,7.716688e-07,0.019826155
0.018280732,8.5661835e-05,0.0028216345,1.4877098e-05,0.72426933
0.0022794069,4.0347607e-07,0.05912706,0.01805783,0.8680606
2.70066e-06,6.8975055e-07,0.1214021,0.07435833,0.094347976
4.063649e-06,2.7850132e-07,0.13590342,0.082429126,0.22935975
1.2922654e-07,1.1428408e-06,0.33941704,0.04874353,0.17260128
1.949916e-06,1.7769913e-06,0.5238721,0.24864216,1.6350664e-06
0.004611383,8.497768e-07,0.9702079,0.05805815,6.3289294e-06
0.042122394,0.055331077,0.8508002,0.0010258226,4.7023896e-05
3.178621e-06,1.8908625e-07,0.7400126,0.0010745783,0.049354963
6.873401e-05,1.0282666e-06,0.83686507,0.00053937355,2.3749435e-06
0.00054220913,8.446643e-07,0.9633314,0.005763333,2.1259161e-06
1.5496403e-06,8.325252e-08,0.5671815,0.012575686,4.8598467e-06
8.718178e-07,4.215256e-07,0.0789843,0.044409823,1.4638934e-08
9.076629e-07,1.3818141e-06,0.38288045,0.08280278,2.0001369e-06
2.2925137e-06,5.621992e-07,0.31706592,0.049323227,1.0546507e-06
3.5980443e-06,1.2767313e-06,0.035833016,0.0144083295,6.669235e-07
2.3415475e-06,2.0461075e-08,8.7865365e-06,0.0034606373,1.2918513e-06
1.2228943e-06,3.111558e-07,4.4641324e-06,1.1349575e-05,2.4202636e-06
7.5685836e-07,1.0613773e-07,5.285093e-07,3.2227529e-06,3.7013397e-06
1.5599459e-06,7.3804347e-07,1.2858497e-07,0.00016340245,1.2497887e-06
6.634476e-07,2.2215279e-07,0.002200296,0.00019613028,1.3619743e-07
9.709474e-07,0.11113285,2.5338063e-06,0.0012486894,1.1956729
2.0275997e-06,1.755544e-08,8.2822487e-07,0.019425802,0.095456414
1.4331744e-06,1.6868065e-06,0.113937214,0.22073737,7.3928254e-07
9.0111416e-07,1.0961027e-06,0.06915179,0.38179216,1.5541535e-07
7.620702e-07,0.7665375,0.16725485,0.12767866,0.508845
3.188443e-05,3.7908657,0.00035050305,0.2246926,1.6948125
0.13541776,0.21182045,0.31869572,0.62980324,0.1616618
0.68268836,0.33684275,1.4987277,0.31555477,0.23266044
0.03372187,1.1573607,0.13761277,3.5350542e-06,2.760189
0.061628956,0.28416997,1.5524187,0.59062093,0.5421149
4.573912e-06,0.14211524,4.916836,0.70101947,0.23961556
0.018916896,5.9981176e-07,0.6181615,0.24268168,2.2912263e-06
0.07404203,3.04161e-07,0.58678985,0.24746482,2.0140162e-06
0.38559145,6.558227e-08,1.0165819e-06,3.423433e-07,1.283469e-06
1.049182e-06,6.0126854e-07,1.0389557e-06,0.013103295,6.6483256e-07
8.507928e-06,5.066069e-07,0.0006450916,5.6031115e-07,2.6586374e-06
1.3731085e-06,7.5639045e-06,0.19341639,2.4809975e-07,1.0622931e-05
2.5825639e-06,1.6587709e-06,4.756312e-07,1.3097673e-06,0.01771048
1.23569e-07,0.007105592,3.9492347e-06,5.485587e-07,0.0037100841
5.60914e-07,0.4455608,0.29257807,4.2720942,0.5352744
5.7532446e-07,7.303289e-05,2.412994,0.00426296,0.0002027949
5.0503223e-07,4.9997097e-06,4.795524e-07,1.7500525e-07,1.7612136e-07
1.1619792e-06,2.464151e-07,3.6618493e-07,5.400723e-07,4.2861104
1.8361771e-07,0.6107364,2.33843e-07,1.5059129e-07,1.1582313e-05
1.7713448e-06,6.970729e-06,6.79269e-08,9.002905e-08,3.331003e-07
7.1392515e-07,1.8222372e-06,7.4823866e-08,3.9039023e-08,2.669875e-06
3.0868827e-07,2.5734178e-07,0.00023239276,3.0659024e-07,4.9016194e-07
2.856149e-07,0.0033476301,0.2477646,5.389363e-07,1.200568e-07
1.2029693e-06,1.7886437e-06,0.010325961,0.23905109,2.1395705e-07
0.009149587,9.4409344e-08,0.83733696,2.4914175e-07,3.7370788e-07
0.7868167,1.259173e-09,0.0053994986,1.0210731e-07,1.7236465e-08
7.7655807e-07,6.792072e-08,4.1959836e-07,5.6092244e-07,0.0
1.1632026e-06,1.028583e-08,1.1890421e-06,1.914603e-06,5.260583e-08
7.9793637e-07,0.0,1.0464121e-06,8.3587065e-07,0.0
0.00014348507,0.0,7.025131e-07,1.3908506e-06,0.0
2.8911904e-06,1.2302536e-07,1.7821186e-06,9.102234e-07,5.196574e-07
2.1468866e-06,3.0278736e-07,1.0523797e-06,1.1298837e-06,4.091047e-07
1.6095581e-06,7.991011e-07,9.19706e-07,1.120163e-06,2.436877e-06
1.0571748e-06,4.932012e-07,1.1071174e-06,1.1180042e-06,9.746256e-07
3.7997518e-06,4.5069552e-07,3.4715958e-06,7.3165546e-07,9.409142e-07
1.7490147e-06,3.5786377e-06,6.3998397e-07,1.1456725e-06,1.1197031e-06
5.6573003e-06,0.00011168083,2.1559495e-06,3.3179646e-07,8.060792e-07
5.185509e-07,1.4701485e-05,1.2715206e-07,9.2843425e-07,2.8939378e-06
0.0069552762,0.061662085,6.4926596e-08,3.663938e-06,8.69008e-06
0.00051853585,1.2519561,2.990765e-06,1.8155483e-06,0.68125546
0.19457129,2.1453354,0.00017447227,1.8427187e-05,1.1708323
0.745767,3.3555725,0.263639,0.03273929,1.3407623
1.3115237,2.359991,1.9312619,0.4067227,2.9773586
1.0235397,1.626703,4.803304,2.5387156,0.8850048
1.3341883,0.09138827,3.953575,3.0946014,1.0906138
0.6311047,6.9916445e-07,3.2097642,1.1052,1.1254933e-06
0.69497436,1.3550484e-06,1.161789,0.21165581,2.4272827e-06
7.321058e-07,2.1153994e-06,1.7003837,0.08917167,8.475902e-07
2.36679e-07,1.0578076e-06,5.4154882,2.715429,4.143849e-07
1.9797203e-06,1.3979208e-06,5.9138956,1.8277205,9.931916e-07
2.799289e-07,7.3618025e-07,3.938987,0.43018794,2.6408702e-07
6.243346e-07,1.276005e-06,3.6295447,0.8203746,2.5893767e-06
3.885866e-06,3.2545609e-07,0.6683277,0.6112441,2.4679675e-06
3.309343e-06,7.489209e-07,0.2481363,0.73242694,2.1817727e-06
3.0136105e-06,1.6581512e-06,0.03490089,0.30729485,2.0508478e-06
9.2388126e-07,2.647262e-07,4.5109286e-06,0.03582613,1.0099901e-06
2.7420501e-06,1.8730741e-05,2.1970172e-06,1.285391e-06,5.203873e-07
1.6425894e-06,0.0027678087,5.6331487e-07,1.3001309e-06,0.0029374415
0.0001404337,0.0021047145,1.4854496e-06,1.5803729e-06,0.31092077
0.004030104,0.16038375,4.7639404e-07,5.3529675e-07,0.23191333
0.046393443,0.8552923,1.258154e-07,4.1373737e-06,0.5915195
0.19784638,3.1552184,1.3721603e-05,0.00027394595,0.8116352
0.31664428,1.1904583,3.490537e-05,2.316724e-05,4.3910546
1.9599446,2.905929,0.00024935935,0.21814737,2.9472303
2.9370635,3.0436814,0.9047724,3.5726924,4.3803086
0.2880699,1.3949566,2.3965268,4.8720207,5.578517
0.0038183636,0.94762415,2.9306118,2.6543164,6.4834733
0.0032301885,1.2005072,3.6179886,1.4011717,5.3565383
5.260961e-05,1.3146025,3.795422,1.4982786,5.046151
0.08451736,1.21918,2.543542,1.4259597,4.047519
0.018985834,1.9580449,1.1677418,1.258547,4.4499555
0.17196028,1.296212,1.0029536,0.017730748,2.9166908
0.19372419,1.6191329,2.5191557,0.6521143,2.1297596
0.67539835,1.0885141,2.604577,0.9724793,0.5872726
0.6610994,1.5128397e-06,4.2592773,1.8345759,4.773376e-06
0.14153554,4.997725e-07,1.9948018,0.6389332,4.343119e-06
0.05478477,9.4337855e-07,0.00027040797,8.558592e-06,2.1092272e-05
0.04683571,0.016184524,0.012255792,0.0016845408,0.24632318
1.3521487e-06,0.27251422,0.0074255215,1.6657311,0.00013045405
0.00016280948,1.3819325,1.0082504,0.011199511,0.0011618007
1.3776647e-06,0.031480983,1.3993228e-07,4.1483338e-07,4.148059e-05
1.6423827e-06,6.9911897e-07,7.9514814e-07,8.146061e-07,2.2204679e-06
5.1560896e-06,1.013402,1.1771699e-06,9.702017e-07,0.033522513
4.43846e-07,0.5611161,6.239662e-05,6.954535e-07,1.3643757
6.252195e-07,1.2008366e-06,2.454263,7.039518e-07,1.8524785
1.9291172e-06,1.1269944e-06,2.8906963,2.6443481,9.2529785e-07
1.016609,0.008115163,6.1029105,0.33969098,0.00050310674
0.012367187,0.0107037695,0.04964173,0.0020632485,4.472099
7.4123955e-06,2.1981974e-05,0.17706785,0.13296543,5.3508177e-07
6.3967955e-06,1.016805e-06,0.06718303,1.4462394e-06,1.30662e-06
0.009795656,1.3518493e-06,7.138426e-07,0.0061968053,5.740393e-07
0.0021883307,1.1845999e-06,1.3778264e-05,0.0006422861,7.5671244e-07
4.046256e-06,5.244517e-07,3.5891966e-07,5.0202874e-07,1.5333328e-06
6.193245e-06,1.7201083e-07,3.2519586e-07,7.098023e-07,1.6976019e-06
4.470227e-06,9.364842e-07,5.4693027e-07,6.533183e-07,7.6147904e-07
0.027499443,1.6471741e-06,3.7513905e-07,1.6069961e-06,7.33502e-07
8.328945e-07,1.7008755e-06,4.0778474e-07,1.4338205e-07,1.2450631e-06
1.9021325e-06,8.937208e-07,1.4255177e-07,3.421905e-07,3.0742376e-06
9.540952e-07,7.235988e-07,1.1707041e-06,5.2228205e-07,9.901001e-07
0.07348177,9.275734e-07,2.2096065e-06,1.3841259e-06,9.611518e-07
0.10048542,2.4988203e-06,1.8194111e-06,0.0011566594,3.866003e-07
0.112280466,2.0309028e-06,1.0361917e-05,1.3027407e-06,6.625646e-08
0.19630514,0.0,0.000507523,0.6386738,2.5596538e-08
2.4448605e-06,0.0,0.58611226,2.1195977,0.0
1.3716575e-06,0.0,0.008051201,0.31711805,1.8716226e-07
1.0331869e-06,1.7328842e-06,2.295811e-06,6.188088e-07,1.3481945e-05
7.8450626e-07,0.0089910915,3.5772941e-06,4.2298666e-06,1.123254e-06
2.6703542e-06,0.005437322,6.595344e-07,0.0038444435,2.2220154e-06
4.706712e-06,1.2264164e-05,5.2004875e-06,0.0001122065,2.9322946e-06
1.7263299e-06,2.8244467e-06,4.6832643e-06,2.2801191e-06,4.1077883e-06
1.5064229e-06,1.4632104e-06,4.8671836e-06,1.141355e-06,1.8189486e-06
2.1232614e-05,1.8814977e-07,3.4353939e-06,1.2100479e-06,1.6045491e-05
0.47086048,1.2560304e-10,1.7507142e-06,8.36117e-07,8.916311e-06
1.2383957,0.0,3.3891558e-07,2.8192176e-06,2.45199e-06
1.0231895e-06,7.4763655e-08,3.7767467e-07,5.0249914e-06,6.571581e-07
2.5164212e-07,3.0004946e-07,3.3959688e-07,3.6736928e-06,5.493763e-06
1.3392949e-07,2.9149746e-06,2.177713e-07,9.4285845e-08,8.714048e-06
1.098189e-05,4.5010736e-07,5.6742266e-07,1.5198535e-06,7.571634e-07
2.2096565e-06,7.5353006e-07,8.213056e-08,3.7830935e-07,7.038919e-07
2.9990838e-07,4.701753e-07,1.1232231e-07,7.5607954e-07,8.9603634e-07
6.7093373e-07,6.1464914e-07,1.4129756e-06,5.8193064e-07,7.5869116e-07
4.6233154e-06,6.30591e-07,2.3107786e-07,2.0310425e-07,2.1496196e-06
1.3646086e-06,2.3520404e-06,1.5392371e-07,5.0630024e-07,2.1523704e-06
8.4576453e-07,1.2308263e-05,5.514261e-07,1.7321414e-06,3.0704817e-07
1.9241181e-06,1.9022396e-05,7.3350344e-07,1.7887947e-06,4.1308522e-07
1.8764832e-06,9.5495e-06,0.03361076,0.00028861917,0.08149038
0.002008553,0.763099,0.2319094,3.0495958e-06,1.0377084
0.0043193097,1.656344,3.7781663e-06,1.7433244e-06,1.8051643
3.0158503e-06,5.5455422,0.6669984,0.32198063,0.0009423951
0.47874948,0.0031054984,0.67171067,0.18629777,0.7392196
2.492732,0.0002603249,1.2328213,0.96920294,0.010293585
0.12422362,1.6828342e-05,0.82092816,1.8198161,1.500441e-06
2.6579435,1.5754728e-06,0.009619408,2.5346863,1.0639887e-06
0.010967163,2.565917e-06,9.128389e-07,2.1869482e-06,7.6890115e-05
0.028993608,7.6922134e-07,2.5218608e-07,2.4929845e-06,8.421442e-07
5.9357495e-07,4.640423e-07,0.0024704412,2.8211136e-07,3.0196463e-06
0.72612095,7.0729163e-07,3.7871607e-07,3.4179308e-07,1.7407583e-05
1.4590254e-06,1.3398907e-06,0.013216809,1.17730586e-07,1.3620934e-07
0.0024887822,1.5405487e-06,4.5924426e-05,2.399375e-07,6.813904e-07
0.0070760287,9.639461e-07,1.6447473e-07,7.452158e-08,6.3416525e-07
0.42351374,1.3738456e-06,3.802189e-07,1.9718532e-07,7.5811096e-07
0.32132182,1.3678272e-06,4.3460454e-07,4.062783e-07,1.5231768e-06
0.24812636,0.54776174,0.16154432,0.117667556,1.3138975e-06
0.00013918965,1.1884198e-06,0.24231736,7.47978e-07,1.7795904e-06
0.000155904,0.23339894,0.0021330619,6.7103014e-07,1.0059985e-06
0.0003097194,8.278315e-07,0.00021185083,7.210511e-07,1.4257388e-06
6.8375434e-06,4.669984e-07,0.028663987,4.803368,6.1151246e-07
0.18420246,1.2106515e-06,1.2334771,0.16932559,1.903888e-06
0.66595405,1.634679e-06,0.48490724,4.9698615,8.6977315e-07
1.0112589e-06,8.218445e-07,0.032510914,1.0282158,8.742924e-07
0.0006567225,1.3784089e-06,3.4718396e-06,3.1367184e-05,1.3986486e-06
0.05900103,2.9334462e-06,0.5104415,0.30670756,0.15375729
0.023194592,0.00040115888,1.6594127,0.15072754,0.36128774
0.13202854,5.357013e-07,0.09577135,0.00048849714,0.03461935
0.0002148538,1.2439474e-06,0.27897483,0.006470855,0.0020579775
1.2932665e-06,8.126921e-07,0.019715147,7.670746e-06,6.751135e-06
1.1451666e-06,4.224257e-07,1.7080309e-06,1.3055957e-05,2.6199357e-06
1.0287637e-06,1.17938935e-05,2.4935537e-06,7.551566e-07,1.4637404e-06
1.1978436e-05,1.5956794e-06,2.547086e-06,0.0,5.1458223e-06
1.709321e-05,3.3747207e-07,2.1982414e-06,4.9788594e-07,8.720097e-06
6.4664974e-08,1.1650154e-06,1.152135e-06,1.4351681e-06,1.747886e-06
0.21411173,2.3049238e-06,4.4051358e-08,1.263209e-06,6.0419836e-07
0.3534765,1.0849226e-05,3.097326e-07,3.1179259e-06,1.6383657e-06
0.058186162,3.0098786e-06,3.1015174e-06,1.0924342e-06,1.5784397e-05
2.1137357e-07,2.035524e-06,0.00023100855,0.0045329146,9.962985e-08
5.891151e-07,4.492036e-07,0.042059466,0.10448815,1.9099932e-06
4.0617093e-07,7.672664e-07,0.0001287215,0.007055273,1.015104e-06
5.236062e-06,0.10974085,0.14023572,0.1262959,0.039918143
0.041583534,1.0312632,0.00015150548,0.00044771392,1.3543248
1.497417e-06,1.0575002,0.67447007,0.10521989,0.3831225
0.22514334,1.2590609,0.16646114,0.06942934,0.9247571
0.27752772,0.8150461,0.024844408,0.13605462,0.96502936
1.3820646,0.015870428,0.09335036,0.018473752,0.1347344
0.69522464,8.827729e-06,0.54999924,0.006813846,5.481731e-05
0.15860316,8.833764e-06,0.9800738,0.27806577,3.188119e-06
0.113883376,3.591211e-06,0.79922634,0.4127369,0.039141096
0.0240964,1.8725116e-06,3.9992676e-05,4.0793753e-07,2.5413965e-05
8.177769e-07,4.741768e-06,3.6380965e-07,1.1005275e-06,2.8946374e-06
0.13938813,5.7155594e-06,1.2714345e-06,0.020029327,3.5899352e-06
2.356671,1.5339201e-05,7.098066e-07,9.573616e-06,0.000112239955
5.1206487e-05,1.3829381e-06,5.7816874e-07,0.008245099,0.0056667924
7.749535e-07,6.0034063e-06,1.2968221e-06,2.0788805,0.028157536
5.8371967e-07,2.4697904e-06,5.055141e-07,0.12065464,5.7403545
2.3030466e-06,0.00021696958,0.13333541,1.2407094,1.0104652e-05
1.977282e-06,0.005437057,0.0647872,0.022141641,3.0433034e-06
9.3303794e-07,0.27831945,0.0017407109,0.3756815,0.02140715
4.4988396e-05,4.4703376e-07,0.0010339606,2.5295575,1.930429e-05
0.0009276341,3.680945e-05,0.032311413,0.060640574,2.3496361e-06
7.698901e-06,0.006142119,9.047858e-05,0.0008513398,2.7385042e-07
9.045252e-06,9.649305e-07,0.7720761,8.697102e-05,5.12132e-07
9.845645e-07,1.2728012e-06,9.111929e-07,0.00014028189,0.111200325
1.2535148e-06,1.1380175e-06,0.0050632907,0.0001450358,3.1226415e-07
4.4284684e-06,8.6278806e-07,0.15522388,1.6831909e-06,4.5161164e-07
0.00054438494,1.0471962e-06,0.07572962,0.00914078,2.7946953e-06
8.6924156e-05,7.611097e-07,1.0934695,0.98979664,1.7212707e-06
0.6856334,0.13327727,3.326244,0.74185437,0.03114247
2.7223651,2.8456793e-06,0.5814693,0.16814211,1.1457898e-06
0.8947624,0.0007724242,0.23034939,0.664085,8.259081e-07
0.22886221,3.290293e-07,0.29633212,0.66793114,0.00047583206
0.2752644,1.4096101e-06,0.00016899795,0.6093737,2.008208e-05
2.4070036,8.375684e-07,0.0035308988,2.7987492,1.2434828e-06
1.7574911,0.009260794,1.9899804e-05,0.40252602,0.012181278
1.6414764,5.5164406e-07,1.4837366e-06,3.9528808e-07,5.9606384e-07
0.30003604,8.1589724e-07,0.008212311,2.148041e-07,0.16601704
0.07154461,1.1629182e-06,0.7551961,1.1269827,0.0012935754
1.0862042,8.991064e-07,0.7623311,0.14562595,2.116931e-06
0.00625546,0.04424151,0.43249273,0.106084585,1.5237069e-06
0.2317413,1.3975052e-06,0.0010562232,0.03713653,5.5077217e-06
2.144327,1.0506787e-06,0.6621664,1.9416323,1.166178e-06
3.8598723,1.1545312e-06,0.8303635,4.2763887e-07,1.5930513e-06
