"[299, 255]","[227, 248]","[287, 319]","[279, 328]","[230, 262]"
4.163759e-10,0.0,2.5451925e-07,0.0,0.0
1.4959991e-07,2.8696292e-07,0.0,0.0,3.9955074e-07
5.2709805e-08,2.8536058e-06,0.0,0.0,2.0652857e-07
0.0,1.7267178e-06,0.0,0.0,1.9467933e-07
3.0757327e-10,3.1559384e-07,0.0,0.0,1.7538781e-07
3.5381524e-07,3.240276e-07,0.0,0.0,6.280199e-08
4.4850273e-07,0.00012107773,0.0,2.004066e-07,5.9664546e-07
2.3055392e-07,2.842874e-07,1.461997e-07,4.6362575e-06,8.74681e-07
1.1305022e-07,5.005427e-07,1.101886e-06,1.4845813e-06,2.8827088e-07
1.7501736e-07,0.0024918427,1.3883594e-06,7.1094706e-07,1.2418461e-06
2.6450546e-06,0.0018228455,6.866446e-06,1.3840014e-06,1.6467901e-06
1.0502953e-06,0.00043099365,8.5226975e-06,2.7860992e-06,2.196496e-06
2.3405582e-06,2.6985163e-07,4.772312e-06,9.698505e-07,2.9695718e-06
1.2920835e-06,3.039432e-06,1.6931125e-06,1.5167811e-06,1.3314308e-06
1.8314846e-06,2.6461078e-07,2.8962813e-06,3.1198597e-06,8.979719e-06
2.3877249e-06,1.0886808e-07,1.6810345e-06,4.367089e-06,0.00012722934
2.0709665e-06,8.389439e-07,2.2619315e-06,4.3079344e-06,8.4932424e-07
3.7373165e-06,1.4460963e-07,6.4244557e-07,2.2154532e-06,8.586645e-07
5.176969e-07,2.3870993e-07,1.5279313e-06,2.415642e-06,1.0825631e-06
1.093995e-06,1.4459643e-09,3.0169969e-07,9.851158e-09,1.2913178e-07
2.8416634e-08,3.389364e-08,1.5413839e-07,0.0,1.4967648e-06
4.3482544e-08,0.0,5.7412676e-06,0.0,1.9163302e-07
1.0725579e-06,1.2627825e-09,7.749222e-08,0.0,1.8399537e-07
1.6413376e-06,8.678411e-09,3.2921957e-07,1.3601818e-08,1.3319175e-06
1.1038136e-06,1.494696e-06,4.1699852e-07,2.2270406e-09,1.7941198e-06
1.7888589e-06,1.1357025e-07,5.5162144e-07,7.0908823e-10,1.2412989e-08
0.00015959545,1.4531406e-07,1.7215241e-06,2.5923887e-09,9.165088e-07
0.00064695155,6.880562e-07,1.2833029e-06,1.15275675e-07,3.7746395e-06
0.0006163519,8.163695e-08,1.663254e-06,1.2588164e-08,7.4157373e-07
0.00015500857,2.6130613e-07,6.3848847e-06,8.12831e-08,1.4746007e-06
4.672733e-06,6.1813125e-07,2.3838722e-06,8.1106157e-07,1.4239428e-06
2.5563913e-06,1.3681334e-07,1.025076e-06,1.69592e-06,3.9877415e-07
7.3037216e-07,1.7868769e-06,1.0000572e-06,1.5765518e-06,7.763936e-08
8.7139574e-07,1.8740825e-06,3.9743422e-06,2.4341616e-06,1.9452216e-07
4.236465e-09,6.983039e-07,1.0704403e-05,7.470096e-07,1.4057135e-10
6.3560432e-09,4.3370616e-07,3.7508908e-06,2.4723604e-06,1.690145e-07
0.0,4.8426216e-07,3.952628e-06,1.4598713e-06,1.1692761e-06
1.5075947e-06,2.9401997e-07,6.77766e-06,2.2894226e-06,2.2556894e-06
6.5613067e-06,3.511323e-07,2.282812e-06,3.697639e-06,1.6638279e-06
4.2052875e-06,1.5219312e-06,2.165277e-06,2.0153204e-06,6.0576674e-08
2.1041737e-06,5.699753e-07,2.535205e-07,3.8354933e-06,4.9817396e-07
1.5279857e-06,2.9481562e-06,6.796662e-07,2.4459584e-06,1.3912453e-06
1.3339907e-06,1.0650986e-06,7.7660826e-07,2.389567e-06,5.45161e-07
3.9633846e-06,2.5433646e-06,2.1333572e-06,2.112342e-06,1.0835998e-06
2.1084318e-06,1.3574013e-06,1.6287522e-06,3.1535865e-06,2.8765916e-07
1.1513107e-06,8.1921144e-08,8.974687e-07,1.0121483e-06,1.5498614e-08
3.0246772e-06,1.3700084e-06,9.900309e-07,3.6663886e-07,2.252082e-07
2.8314341e-06,1.6684255e-07,1.0931143e-06,3.963241e-06,7.3194514e-07
2.113191e-06,1.923124e-08,8.891814e-08,2.630699e-07,1.8631239e-06
9.394767e-06,5.3125143e-07,1.8800454e-06,4.4230634e-07,1.2900402e-05
0.00011815863,1.0530632e-06,1.0922523e-05,1.14809745e-05,3.4300938e-06
9.827428e-05,5.963644e-06,1.4643061e-06,3.95409e-06,1.1214335e-05
0.00010575352,7.553321e-06,8.312635e-06,2.9482894e-06,2.361002e-06
0.00011582424,1.7204687e-06,4.0658387e-07,3.8083983e-06,5.8791325e-06
3.9468985e-05,2.423938e-06,2.026916e-06,1.0030747e-05,1.3304533e-06
3.742893e-05,1.4770466e-06,4.175393e-06,1.872205e-06,2.0150849e-06
5.9564136e-06,6.031065e-06,1.3510013e-06,1.2220662e-06,9.232651e-07
1.8098705e-06,3.915406e-06,2.0746782e-06,2.1890996e-06,1.7458774e-06
1.2353071e-06,3.3077893e-07,1.9705228e-06,4.2131687e-06,3.931886e-06
1.4303405e-06,1.6185843e-09,1.0310333e-06,1.3056313e-06,2.7281772e-06
1.7042797e-06,1.1303055e-08,2.3430061e-06,4.8592183e-06,1.0787959e-06
1.0296508e-06,1.5923919e-07,1.7047985e-06,2.701139e-06,1.9261086e-06
8.661113e-07,9.8255676e-08,2.2831296e-06,5.94243e-07,2.8261516e-06
4.411561e-06,0.0,1.1859548e-07,4.2910474e-07,2.9245984e-06
1.1460729e-06,0.0,3.431754e-07,2.291252e-06,1.2185925e-08
7.838557e-07,0.0,4.857154e-06,1.6217491e-06,0.0
1.692714e-06,0.0,1.5647127e-07,1.4569895e-06,0.0
9.046883e-07,0.0,0.0,1.9979538e-09,0.0
1.0534155e-06,3.615457e-09,7.2909366e-08,0.0,0.0
4.220368e-06,0.0,9.0759734e-08,0.0,0.0
6.329128e-06,7.632252e-10,5.8370446e-08,5.2776272e-09,2.8089552e-08
9.465773e-06,2.1048386e-07,3.0669927e-08,3.587116e-08,1.6597518e-06
0.00046421494,5.409897e-07,2.9772644e-07,8.488354e-08,2.0522442e-05
0.003577898,2.4668786e-06,1.964945e-06,1.017702e-06,0.00036803744
0.0040628486,8.481481e-06,4.8864663e-06,1.0605442e-06,0.001457756
0.015808431,6.647901e-06,2.7624324e-07,1.0609682e-06,0.00077849283
0.020433707,2.1537655e-05,3.8052126e-06,1.8170493e-07,3.2535718e-05
0.009656581,2.123133e-05,2.4886833e-05,8.621268e-07,7.181039e-06
0.0048368643,1.6030508e-05,1.617572e-05,4.7401168e-06,6.7338974e-06
0.00016521645,1.8057722e-06,6.6305543e-06,1.7415247e-06,1.1925471e-06
7.622832e-06,5.1413995e-06,1.1779866e-06,1.9881597e-06,1.253744e-06
1.2628171e-06,1.7385985e-06,8.3646e-07,2.7489789e-06,8.731007e-07
9.955704e-07,2.6201528e-06,6.5672396e-07,2.3227037e-06,1.6581376e-07
3.1902545e-07,6.462167e-07,4.5259203e-06,3.1209668e-06,1.836853e-06
0.0,9.171889e-08,3.0817846e-06,4.498184e-06,4.255781e-06
0.0,1.8487212e-07,4.1706862e-08,9.59324e-07,6.7244605e-07
0.0,1.9091692e-06,6.9978584e-10,1.5788681e-06,2.192975e-06
0.0,9.80041e-07,0.0,3.1271506e-07,2.0466507e-06
0.0,0.0,0.0,1.9813686e-07,1.4526612e-06
0.0,0.0,0.0,2.4434752e-07,5.7524385e-09
0.0,0.0,0.0,6.368804e-06,0.0
0.0,0.0,0.0,1.8577082e-05,0.0
0.0,0.0,0.0,2.7558608e-06,0.0
0.0,0.0,2.0690305e-08,4.31713e-07,0.0
0.0,0.0,2.0868076e-06,1.6757167e-07,0.0
1.0993835e-10,0.0,5.3583665e-07,9.454017e-08,0.0
2.6870918e-08,0.0,3.511413e-07,2.0662126e-08,0.0
1.0598327e-08,0.0,1.1947785e-07,5.8779364e-07,0.0
3.4295113e-09,0.0,1.3507102e-06,1.531038e-06,0.0
3.60669e-08,0.0,1.4542176e-06,1.7499471e-07,0.0
0.0,5.159523e-08,2.9433095e-06,1.0522256e-06,0.0
0.0,1.4863515e-06,6.452603e-06,2.1532053e-06,0.0
0.0,1.9881819e-08,7.032999e-06,2.5732932e-06,0.0
0.0,0.0,1.2705848e-06,1.4187519e-06,0.0
0.0,0.0,8.6729835e-07,1.5599304e-06,0.0
0.0,0.0,8.779387e-07,1.2843878e-06,0.0
0.0,0.0,1.2570929e-06,8.89979e-07,0.0
0.0,0.0,3.2552057e-06,1.939327e-06,0.0
0.0,0.0,1.1693044e-06,1.4011846e-06,0.0
0.0,0.0,2.3782575e-06,9.4528616e-07,0.0
0.0,0.0,7.771412e-06,1.1942443e-07,2.238613e-07
1.3280832e-06,0.0,8.908365e-06,1.0455801e-06,1.4025656e-07
9.898311e-10,0.0,3.3918477e-07,1.5404559e-06,0.0
2.8107104e-07,0.0,5.7707993e-08,2.2544114e-07,0.0
1.5205793e-06,0.0,7.6375096e-07,2.6769421e-06,0.0
4.900032e-07,0.0,2.1447818e-08,1.690567e-06,0.0
2.6566903e-07,1.211423e-05,0.0,1.8916451e-06,0.0
5.8854243e-07,4.8538072e-06,1.1403457e-07,1.8798679e-06,4.4761574e-08
5.352578e-07,2.4064144e-05,1.0453991e-05,9.48366e-05,5.691519e-05
1.9543815e-05,1.2316103e-06,3.0569731e-06,5.456808e-05,8.836257e-05
2.2704851e-05,2.7658534e-06,1.0155852e-05,4.0769148e-05,1.7475308e-05
7.946968e-07,4.113916e-07,6.89906e-06,0.00031289193,5.5081177e-06
6.354523e-06,5.164715e-09,2.7131118e-06,3.272978e-06,0.0
4.0850184e-05,3.3205108e-06,3.4262776e-08,1.9389459e-07,2.0368843e-07
2.6660632e-06,0.0,7.0702623e-07,1.9908402e-06,1.2404759e-07
4.8979127e-06,0.0,1.3130326e-06,6.9469615e-07,5.296548e-07
0.0,0.0,5.3292285e-07,7.0159126e-07,2.90516e-07
0.0,0.0,3.779891e-06,2.6424152e-06,0.0
0.0,0.0,5.575437e-06,5.1999825e-07,0.0
0.0,0.0,6.290915e-06,3.5138743e-07,0.0
0.0,0.0,9.142375e-06,1.0019468e-06,0.0
0.0,0.0,6.223494e-07,1.3872879e-05,0.0
0.0,0.00046712172,4.2819966e-06,6.074815e-06,0.0
0.0,0.00016801643,1.5316682e-05,1.1830306e-06,1.4345726e-05
0.0,0.0,3.4171833e-06,3.45919e-06,4.242292e-07
0.0,0.0,1.8225099e-07,1.0718303e-05,7.099138e-05
0.0,0.0,0.0,2.524472e-10,6.442175e-08
0.0,2.0652541e-07,0.0,0.0,1.6093459e-07
0.0,2.8806277e-05,0.0,3.9425576e-08,1.415801e-07
0.0,2.045333e-06,0.0,1.6583879e-10,9.068614e-09
0.0,6.0582868e-05,0.0,0.0,5.1248176e-06
0.0,3.538237e-05,0.0,0.0,8.483165e-07
0.0,3.852796e-05,0.0,0.0,6.4492037e-06
0.0,8.412137e-05,0.0,0.0,1.50197675e-05
0.0,0.0,0.0,0.0,6.0634986e-05
0.0,0.0,0.0,0.0,1.6928336e-05
0.0,0.0,0.0,0.0,3.7683538e-05
0.0,2.5378366e-09,0.0,0.0,8.3102816e-07
0.0,9.88512e-08,0.0,0.0,1.8057071e-07
0.0,2.8282017e-05,0.0,0.0,6.4186713e-07
0.0,1.1422163e-06,0.0,0.0,1.672413e-06
0.0,1.1678103e-06,0.0,0.0,0.0
0.0,0.0,0.0,0.0,0.0
0.0,7.810565e-10,0.0,0.0,0.0
0.0,4.08682e-06,0.0,0.0,0.0
0.0,3.4150319e-06,0.0,0.0,9.4806204e-08
1.3961348e-06,2.8487375e-05,0.0,0.0,5.8796394e-07
8.2311925e-07,2.1769954e-06,0.0,0.0,1.393025e-05
7.2985904e-07,1.5929489e-06,0.0,0.0,1.4278247e-05
2.6205255e-06,0.005976545,0.0,0.0,3.56077e-05
6.440781e-06,8.004631e-06,0.0679334,0.0,2.3144941e-05
1.07415535e-05,5.099288e-06,0.00073719176,4.5456165e-08,0.057119142
7.0362e-07,8.953606e-06,1.9088442e-07,0.0,0.0007869668
1.0183846e-05,1.9706586e-06,0.0,0.0,2.4759847e-06
8.111006e-06,5.221008e-08,0.0,0.0,4.0965333e-06
3.373266e-06,3.992132e-06,0.0,0.0,5.2131613e-06
3.1139098e-05,6.9276007e-06,0.0,0.0,2.0397296e-07
6.4370415e-06,4.9797e-07,0.0,0.0,1.0665057e-05
0.22721107,1.8715924e-09,0.0,0.0,4.9305418e-06
0.6442373,2.931934e-06,0.0,0.0,4.1756316e-06
5.0826625e-06,7.0843325e-06,0.0,0.0,1.4147096e-07
5.1114976e-06,2.3359426e-05,1.4028733e-06,0.0,1.8831662e-07
2.578232e-05,1.5418618e-05,7.5023586e-08,2.7063185e-08,1.9174685e-07
0.00018033633,2.3210753e-06,8.094149e-08,1.2198376e-07,4.0382567e-08
1.06009875e-05,2.1106682e-06,1.3521038e-05,1.11605566e-07,8.195833e-06
6.710313e-05,3.699028e-06,1.2272099e-05,2.0035628e-05,2.603566e-09
1.4973405e-05,1.7444423e-05,3.410997e-05,9.066832e-06,1.3382821e-06
1.0242456e-06,2.7263455e-05,2.0330729e-06,3.3153232e-05,1.6199193e-06
0.11130735,4.8736204e-08,0.0,5.1664792e-06,2.106756e-06
0.6392632,3.0893275e-07,1.5505561e-09,0.0,1.5835067e-05
0.27906907,2.7437213e-07,2.5405524e-07,0.0,0.012314142
4.843998e-05,2.0397e-06,1.0933531e-06,3.4086375e-07,0.10600626
0.3150101,1.0925514e-06,9.327469e-05,7.369741e-07,4.6691002e-07
1.9352488e-05,0.0035770684,4.9930077e-06,1.7422641e-06,2.8719282e-06
1.7330419e-06,2.9859624,0.000855281,3.3359092e-07,3.6745423e-06
1.749216e-05,6.9322523e-06,2.8570428e-06,1.4836863e-06,0.005917304
1.1210513e-05,0.7934117,8.570106e-06,4.2101547e-06,1.342545e-05
5.1302304e-06,2.728902,2.3590592e-05,1.5233711e-06,3.2923882
1.1165291e-06,2.2273366,6.9053763e-06,4.774934e-05,0.14022104
1.4947916e-07,1.9355519e-05,9.395603e-06,2.9122235e-05,5.649794e-06
3.4730695e-07,1.8327072e-06,1.4714102e-06,5.343572e-07,8.637601e-06
5.73886e-06,1.0636145e-06,2.0536477e-06,3.1651552e-06,3.020352e-05
5.5725536e-06,8.3779634e-07,2.6092945e-05,1.9972124e-06,2.4560573e-05
6.853433e-07,0.0,4.4264175e-06,1.8238812e-06,1.222067e-06
2.3461094e-05,3.9276827e-08,0.0002382188,2.551237e-05,5.7563193e-07
6.598327e-05,9.421261e-06,2.7651497e-05,4.190834e-05,1.1386479e-06
0.035254188,4.2882883e-05,3.8239858e-07,2.4715195e-07,2.3581879e-06
2.4489422e-05,1.0325737e-05,0.2635957,3.0129718e-06,3.340728e-06
2.9319901e-06,9.887962e-06,1.572895e-05,6.4341903e-06,9.3588815e-06
2.326853e-07,1.0585962e-07,2.4214646e-06,9.343764e-06,2.3422014e-07
4.590002e-06,3.74851e-07,0.008911354,7.5587495e-06,2.3660457e-06
2.1042092e-06,0.00019429828,0.00025260219,0.00049034454,1.709432e-05
1.8828463e-06,8.627207e-05,0.33499163,0.010897422,7.072275e-06
1.2424737e-06,1.0662814e-06,0.00010338683,7.015323e-05,4.505087e-06
3.043756e-06,2.7048359e-06,6.431422e-05,0.00022067757,6.9195414e-07
0.30480358,8.2475964e-07,1.1482591e-05,2.2116565e-05,1.7336954e-06
0.40155828,5.0087087e-06,9.500491e-07,2.4454964e-06,4.6189916e-07
8.756006e-06,4.368854e-06,5.6783176e-07,2.6114885e-06,3.0004057e-07
1.8402852e-07,2.6921605e-06,3.7027692e-07,2.9239243e-06,1.698638e-06
3.4147963e-08,3.686815e-07,3.5237128e-06,2.5947108e-06,1.3238732e-06
0.0,8.3570585e-06,3.3111285e-06,7.7803566e-07,2.22666e-06
0.0,1.7866123e-06,2.9503776e-06,1.2636248e-05,1.4594735e-06
0.0,2.033218e-06,7.439862e-06,2.7644028e-05,8.7515247e-07
7.0683086e-09,2.0018044e-06,4.2901796e-05,7.800487e-06,3.1491643e-06
2.9905544e-07,9.396722e-08,9.617124e-06,2.8305463e-05,1.8725277e-07
1.9162106e-07,8.063954e-06,1.2697967e-07,1.1227288e-05,6.326303e-07
7.129319e-10,1.2105801e-07,5.142221e-10,2.3042398e-07,8.001942e-07
0.0,1.2467324e-06,0.0,6.1147006e-08,2.634372e-06
0.0,4.371306e-05,2.8815774e-09,6.491599e-07,1.0304163e-06
5.5097228e-08,0.00039029508,0.0,2.1793744e-07,3.9005482e-07
3.5996337e-08,9.053415e-08,1.1335133e-09,3.000303e-08,2.7040377e-07
3.5416403e-07,1.422978e-07,1.947991e-08,1.3423879e-09,1.422361e-06
6.511942e-06,1.3987382e-06,1.8466014e-07,7.0725883e-07,1.0090401e-06
4.0446744e-06,8.033947e-07,1.5901252e-05,6.0640104e-07,1.1812459e-06
1.6045766e-06,5.3046824e-07,1.8547504e-05,1.7585935e-06,7.4857985e-07
1.3321273e-06,9.372085e-07,1.781709e-06,1.3741967e-06,1.0048282e-06
5.707011e-07,6.122906e-07,1.9000381e-06,6.926298e-06,9.237648e-07
3.6804033e-07,1.8746007e-06,2.9883695e-06,1.3753729e-06,7.276088e-07
2.0686475e-06,4.7275597e-07,9.626092e-06,3.392213e-07,2.2057502e-06
3.0870228e-06,4.4087397e-08,1.1493672e-06,2.2063305e-07,9.130647e-08
1.03221e-05,7.134411e-08,9.1138594e-07,1.047628e-06,0.0
2.4186386e-07,1.2243215e-06,5.4511e-06,1.1838465e-06,0.0
1.0733332e-06,2.7677186e-07,9.223156e-07,2.5800641e-06,0.0
1.6672377e-07,5.462758e-06,7.7355014e-07,3.2742257e-06,0.0
2.9035164e-07,2.2430374e-06,8.883447e-06,4.3487353e-07,7.0680595e-09
2.5702245e-06,1.2041616e-05,4.5636375e-07,2.0232568e-08,3.7270222e-06
1.1956441e-06,6.1159926e-06,7.035432e-08,4.098507e-08,2.1769523e-05
2.7424855e-06,8.133353e-06,0.0,0.0,3.1015709e-06
5.2147006e-05,2.072839e-05,1.6848276e-08,4.5861967e-11,8.0630707e-07
2.3210348e-05,1.7220974e-06,6.0976976e-07,5.6720033e-09,4.179741e-06
4.362638e-06,1.048661e-06,1.928475e-07,4.34119e-07,1.6324404e-05
1.8022752,1.5559718e-06,5.3765287e-08,3.0522958e-07,2.3246897e-05
0.0004953171,6.828991e-06,1.8379959e-06,1.9389063e-06,2.1661393e-05
0.0021010174,1.0770293e-07,5.3457256e-07,6.334749e-07,4.1770647e-05
0.0031156898,6.382494e-07,1.1036248e-06,9.918457e-07,2.2972505e-05
0.00643559,6.3895146e-07,1.2891958e-06,1.2339268e-06,1.0144787e-05
0.0008183646,2.1326841e-06,4.391852e-06,1.0353865e-06,1.589941e-05
6.3627426e-06,3.91557e-06,1.3402717e-05,1.0246623e-06,1.4348028e-05
3.9783354e-06,1.8410071e-06,6.192465e-06,2.3557868e-05,9.238902e-06
1.0214227e-06,0.0046144854,2.1289734e-06,4.0168325e-06,3.9266356e-06
1.1472943e-06,8.813164e-07,1.5894491e-05,7.5846497e-06,2.936883e-06
1.1640342e-06,7.413498e-08,6.270862e-06,2.8327966e-06,8.904823e-07
2.4600106e-06,5.7942774e-08,8.0444124e-08,6.4873205e-07,6.674768e-07
1.7195088e-06,5.4149396e-08,1.2356866e-06,7.837787e-07,5.509125e-07
2.57799e-07,3.477117e-07,2.9507971e-06,5.0711367e-07,2.689496e-07
1.365013e-06,5.853877e-07,9.298439e-06,4.9313538e-08,3.0363464e-07
1.3866276e-07,7.096193e-09,1.7053828e-06,1.56926e-07,2.248603e-07
3.5711895e-05,3.6660313e-09,3.567632e-05,1.0022339e-08,5.5734326e-06
5.200681e-07,1.0803151e-05,1.759873e-05,3.1935208e-05,1.1520747e-06
2.1326036e-07,1.2048795e-07,7.0160326e-07,8.5288426e-05,4.3048558e-07
4.512269e-05,3.502258e-07,1.6563895e-07,6.2179183e-06,9.767888e-08
1.9037515,1.0066589e-06,2.3942806e-07,2.9878416e-07,4.2398284e-07
2.5000463e-05,5.021827e-07,3.786078e-07,4.9170353e-07,1.8164558e-06
1.3167173e-07,1.5067126e-06,1.0626199e-05,6.1993276e-08,2.2574969e-07
1.7648756e-06,6.643191e-09,7.584342e-08,1.280353e-07,1.07329406e-07
3.2909977e-08,1.1988292e-06,5.160013e-07,3.4790503e-06,1.4448975e-06
3.1652483e-09,1.441548,1.0124076e-06,2.385576e-07,7.506046e-06
6.3310864e-07,3.416953e-07,1.0587152e-06,1.6809126e-06,3.3194626e-06
2.102432e-07,5.49153e-06,3.206995e-07,1.498067e-06,2.081587e-06
1.4854713e-06,1.0448605e-05,5.6749724e-07,1.5542774e-07,4.867893e-06
1.542126e-06,2.3779708e-07,2.513514e-07,7.106672e-07,4.2434812e-07
1.8814726e-06,5.134879e-06,1.4288264e-06,2.0221926e-06,2.3883877e-06
1.4210126e-06,3.1142545e-06,1.3536652e-06,9.193194e-07,1.1887919e-06
1.2528321e-06,1.232609e-06,3.053652e-06,2.8024354e-07,1.1299229e-06
9.761058e-07,2.058248e-06,1.4579214e-06,4.5340485e-07,1.3019198e-06
1.8581288e-06,4.1177595e-06,2.8059883e-06,4.6844253e-09,1.6430457e-06
3.6699607e-06,3.3984395e-06,1.5049478e-06,0.0,4.937777e-07
3.8692388e-06,4.326782e-06,7.304531e-09,0.0,1.233647e-06
1.7963009e-06,1.9856675e-06,0.0,0.0,2.3202016e-08
3.1075772e-06,1.2869431e-06,0.0,0.0,3.252546e-10
2.005942e-06,4.930544e-07,0.0,0.0,0.0
1.05068914e-07,2.3754305e-06,0.0,0.0,0.0
7.482881e-07,6.0340155e-09,0.0,0.0,0.0
2.2972947e-06,0.0,0.0,0.0,0.0
0.0,0.0,0.0,0.0,0.0
0.0,0.0,0.0,0.0,0.0
0.0,3.010054e-07,0.0,0.0,0.0
0.0,1.3712669e-07,0.0,0.0,0.0
0.0,1.3732923e-06,0.0,0.0,1.6098612e-08
0.0,3.9950623e-06,0.0,0.0,3.1693887e-08
0.0,1.3853929e-06,0.0,0.0,4.103523e-08
2.3809964e-08,3.9687737e-07,0.0,0.0,6.038194e-05
1.1346605e-07,5.082798e-06,0.0,0.0,0.00047204373
6.6238265e-10,3.1937425e-06,0.0,0.0,0.000119130396
8.678067e-06,8.325324e-06,0.0,0.0,3.2530356e-06
1.0057157e-05,3.2975383e-06,0.0,0.0,5.580393e-07
2.9134012e-06,1.5436106e-06,0.0,0.0,5.1250733e-08
9.110629e-07,4.2554544e-07,0.0,0.0,3.876388e-06
8.426046e-07,4.8799645e-08,0.0,0.0,2.4813794e-06
3.261026e-08,0.0,0.0,0.0,2.562451e-06
1.6032064e-07,0.0,0.0,0.0,1.5411403e-07
4.0746175e-09,0.0,0.0,0.0,2.952566e-10
0.0,0.0,0.0,0.0,0.0
1.9213394e-08,0.0,0.0,0.0,0.0
5.5195005e-07,0.0,0.0,0.0,0.0
5.2272446e-07,0.0,0.0,0.0,0.0
6.5857785e-11,0.0,0.0,0.0,0.0
8.377559e-10,0.0,0.0,0.0,0.0
1.15539756e-07,1.5990587e-07,0.0,0.0,8.161625e-08
1.525501e-07,9.449423e-07,0.0,0.0,7.765946e-06
1.186287e-06,6.442197e-08,0.0,0.0,1.433309e-05
4.958854e-06,3.5907507e-07,0.0,0.0,2.848276e-06
1.53944e-05,1.030583e-06,0.0,0.0,1.1570358e-05
0.00032574497,5.2256773e-06,5.8826313e-08,4.0352765e-07,1.3387618e-07
0.00062745454,1.0436577e-06,6.1439283e-07,1.5467609e-06,1.0517891e-06
0.0013097749,3.0670249e-06,8.79316e-07,2.2987915e-06,1.251402e-06
0.0033398645,1.2072602e-06,4.450346e-06,4.869482e-06,4.812422e-07
0.0019104064,2.7800304e-06,1.2358961e-05,6.9570733e-06,2.5958577e-06
1.2820596e-05,1.0708993e-06,6.5174063e-06,4.986727e-06,6.1030023e-06
3.378665e-06,5.3241674e-06,2.9233413e-06,1.2886904e-06,1.6913563e-06
7.962256e-07,2.257214e-06,1.5874888e-06,2.7792967e-06,1.200731e-06
8.282451e-07,1.0929567e-06,7.8049544e-07,3.3938657e-06,1.1320741e-06
1.2893204e-06,6.154039e-07,2.5901256e-06,2.073757e-06,1.0581883e-06
2.7396654e-06,3.1134427e-08,2.7682752e-06,2.688963e-06,3.13289e-06
1.5335464e-06,3.4674392e-07,5.3489757e-06,3.3203455e-06,1.2816008e-06
4.0495306e-06,3.3018728e-07,5.2502382e-06,4.0144414e-06,1.4572562e-06
1.31278e-06,5.650206e-06,2.7612894e-06,3.0001386e-06,3.7976902e-06
1.2940452e-06,2.992689e-07,4.055878e-06,1.757222e-06,2.4956364e-06
5.464941e-07,1.1256838e-07,9.743383e-06,1.4157299e-06,1.3226097e-06
3.4289994e-06,1.6798258e-07,3.7158045e-06,2.5621766e-06,2.151532e-06
2.957819e-06,4.3064372e-07,1.0041524e-06,4.384687e-06,4.699507e-07
7.238512e-07,1.2135957e-06,4.3553686e-07,2.34777e-06,2.007928e-06
4.483764e-07,2.6356852e-07,2.6131495e-06,4.5205234e-06,4.812455e-06
1.4949738e-06,2.0337357e-05,3.6236047e-06,9.402101e-06,1.662548e-05
6.096689e-07,3.6721704e-05,1.617063e-06,8.717579e-07,1.0902902e-05
1.8134738e-06,1.6227545e-05,8.8164416e-07,2.8641919e-06,1.216475e-06
2.6025368e-06,3.1865054e-06,1.4000371e-06,0.05002994,0.23585989
8.445203e-06,0.0068932986,1.4249765e-05,0.106343314,0.110460594
7.813631e-08,0.014328485,0.20581731,0.0057682693,0.060965367
1.6371687e-05,0.034223836,0.031567827,6.3940497e-06,0.039967578
2.21728e-06,0.12611154,0.00040338517,0.0051392377,0.0064853565
1.5361202,0.0029270707,0.0011142037,2.6693303e-06,4.2887903e-05
1.0728624,0.00037630738,6.66316e-05,2.6609956e-07,9.309208e-06
0.3594577,0.00026480504,1.0848614e-06,1.8346101e-07,0.06718755
1.0154258,2.8118304e-06,1.4478879e-06,9.0253224e-07,9.4961026e-05
1.5752896e-05,1.1243625e-06,2.6250393e-07,2.8102468e-06,2.4418773e-06
1.3251089e-06,4.282699e-06,2.9022951e-06,2.1401015e-06,4.2028923e-06
1.2217205e-06,5.5534833e-06,1.8795115e-06,1.6219959e-06,2.5749819e-06
3.498476e-06,2.3381197e-06,1.3474829e-06,5.620554e-07,9.149776e-07
3.8635644e-06,1.2953308e-07,9.2140675e-07,7.708894e-08,8.6930896e-08
1.4042207e-07,1.5945876e-07,1.5487442e-06,1.4524689e-07,0.0
1.7583839e-06,0.0,4.3707196e-06,1.4120362e-06,2.8391614e-08
2.53259e-06,6.114165e-08,5.569538e-06,2.517289e-06,8.9579196e-08
1.224086e-05,1.2762735e-07,1.8006626e-06,1.1793635e-06,1.3524459e-06
4.959514e-06,5.2839273e-06,2.3360044e-06,0.0091129765,1.4158004e-06
9.931474e-07,2.8405093e-06,1.3312196e-06,2.6332648e-07,1.1878943e-06
1.1355967e-07,0.021860166,1.04271145e-07,2.0107002e-06,4.8019265e-06
7.1594563e-06,0.29087093,3.0870142e-06,4.4335134e-06,5.378643e-05
7.625075e-08,2.442949e-06,1.0659527e-06,1.0136755e-06,2.579617
1.4972536e-06,9.1461396e-07,5.257699e-07,4.6411405e-06,0.2917942
6.165189e-07,1.8742753e-06,1.708037e-06,1.4777163e-06,0.23706743
1.4569849e-06,2.8165578e-06,7.1836894e-07,7.921097e-07,3.7171633e-06
2.9680723e-07,0.00011550558,1.5778968e-06,1.195732e-06,4.807579e-06
9.639406e-07,0.7618766,2.7170245e-07,7.9137567e-07,2.5630422e-06
4.3460615e-05,0.00018479358,3.4087608e-07,1.808301e-07,3.1242496e-06
6.467396e-07,3.25099e-06,1.4300039e-07,5.990802e-07,2.2537797e-06
2.4589501e-06,7.2799884e-07,2.3602962e-07,4.7978455e-07,1.3966105e-06
1.3274252e-05,3.945725e-06,5.08805e-07,2.0764433e-06,2.4701774e-06
0.094972566,1.2668813e-06,1.0759366e-06,2.1059727e-06,2.3079967e-06
0.14817746,2.9554735e-06,5.0866147e-06,1.8065955e-06,1.1404353e-06
3.3328474e-06,3.9981533e-06,1.0161178e-06,0.0005242286,3.129687e-06
2.838062e-06,0.003055081,1.0226618e-06,0.009712061,2.9572473e-06
5.135389e-06,2.2703894e-06,1.2372394e-06,5.3207896e-07,1.0939386e-06
5.067748e-07,0.11408273,3.2295853e-07,1.7387172e-06,6.18473e-07
9.169687e-07,4.244097e-06,1.1307018e-06,3.1264049e-06,2.270871e-06
2.5809727,0.0011680445,1.1219641e-06,0.73366493,7.094019e-07
1.0845538e-06,4.963738e-07,1.081808e-06,1.6197115e-05,1.1091917e-06
8.228598e-07,5.4198165e-07,1.9933477e-06,4.918254e-06,3.8274734e-07
2.7330336e-06,1.043043e-06,0.011700694,1.025401,1.2613371e-07
1.9354516e-06,2.4879455e-07,1.6301687,0.16841792,2.2542436e-06
7.159544e-06,8.5688964e-07,7.5105268e-06,3.561334e-06,4.14045e-06
2.4732922e-06,1.4967577e-08,1.900603e-07,6.8187796e-07,6.244142e-06
1.4449881e-07,8.714047e-07,8.6185577e-07,1.1512633e-07,1.4521261e-06
1.2486443e-08,1.424455e-06,0.0,0.0,6.6442694e-06
1.1595656e-06,2.4928486e-06,0.0,0.0,1.6108909e-06
1.4063225e-07,1.3943107e-06,0.0,0.0,2.067458e-06
1.2658481e-06,1.6271072e-06,0.0,2.6147572e-07,7.864977e-07
2.2271633e-06,1.273439e-06,0.0,9.282294e-08,2.5766847e-06
7.0184497e-06,1.6665025e-06,0.0,0.0,6.619182e-07
3.169844e-07,2.1290143e-06,0.0,0.0,4.341349e-06
5.065014e-09,7.090987e-06,0.0,0.0,1.5993363e-06
6.6056505e-06,4.751955e-06,0.0,0.0,1.7041249e-06
4.588423e-08,2.913537e-07,0.0,0.0,1.2814065e-06
0.0,5.940695e-06,2.0183529e-07,4.0661007e-07,1.4015483e-06
7.131551e-09,2.8738823e-06,6.573189e-06,7.855517e-05,2.7756985e-07
1.0886218e-07,8.739126e-05,7.539396e-08,5.8022906e-08,5.8590445e-05
2.6197586e-07,8.9689805e-05,4.38089e-08,6.849596e-07,4.6293837e-05
1.1696648e-06,8.998319e-05,1.8324318e-06,1.076705e-06,7.209485e-05
3.4570382e-06,8.142719e-05,3.3026263e-06,2.5324282e-06,0.000105886655
4.0740733e-06,3.598245e-05,8.533727e-06,1.451314e-06,0.00015866631
3.312234e-06,0.13272572,6.2526495e-05,1.4437068e-06,0.0055711847
1.7933888e-06,0.03615872,8.596304e-06,0.0005906958,0.019313864
2.7095941e-08,0.017945027,9.108812e-05,1.1164811e-05,0.0026857972
9.311966e-08,0.011249403,0.0005682387,0.00011840501,0.014879982
0.00032362892,0.03946258,0.00015710093,0.00021408232,0.05012567
1.7523392e-06,0.026771465,5.10322e-06,6.0787274e-06,0.06617702
0.00011439288,0.034081608,4.9532177e-06,1.5757469e-05,0.1239316
0.00017099953,0.16730143,1.6386013e-05,8.647458e-06,0.26166856
0.00044606422,0.026275331,4.3875778e-05,3.955866e-05,1.3544551e-06
6.199676e-06,0.06663813,0.00022098207,0.0025025695,0.0051369453
5.5339215e-06,0.00016125456,2.1590809e-06,0.028406128,2.8597437e-06
0.19015509,0.025187816,1.068989e-05,2.332004e-06,1.7078008e-07
0.029727448,2.0483107e-05,6.1366677e-06,1.6511316e-05,1.6618078e-06
0.0390008,0.05780002,5.238382e-06,0.009100019,1.4154285e-06
0.057027772,0.053665765,1.7644246e-05,1.1486946e-05,7.723137e-06
0.015506195,0.0012423295,4.9434436e-07,1.9741317e-06,0.1065588
0.00024248436,0.07253517,1.1881009e-06,2.7466583e-06,0.21811007
2.7059816e-06,0.01065566,1.768751e-06,4.6537025e-06,2.2176471e-05
1.123606e-06,1.1806818e-05,2.3604004e-07,4.8093458e-05,0.028345251
1.8493527e-06,4.9040714e-06,1.6370826e-06,6.9784032e-06,0.06753297
1.5754947e-06,0.031665005,0.004731378,2.1878675e-05,0.011480854
1.0151142e-05,9.372938e-06,0.0031077096,1.1185646e-06,3.891784e-06
0.051760368,0.041062962,0.0011726699,1.6954388e-06,0.000112861504
0.19173306,0.03491056,4.430575e-06,9.504895e-07,0.00035309588
0.0068134204,0.00086678937,4.5766055e-06,0.048787758,8.634405e-07
1.1144143e-06,6.0491226e-07,0.24752381,0.034666184,1.4812875e-06
2.0431921e-06,2.7854287e-06,0.0017124224,7.6199575e-07,2.5720266e-07
0.0862066,4.8094275e-08,0.0019916028,9.904368e-07,5.92872e-07
0.038592357,6.607195e-08,1.6926081e-06,0.003724834,3.831989e-07
0.1815846,2.35535e-06,1.9172346e-06,0.020141855,2.0264795e-07
0.015545933,4.0981313e-06,0.0015981972,1.3016327e-06,7.122834e-06
0.007890288,1.7093257e-06,7.942295e-07,1.1668757e-06,9.724732e-06
0.0011335689,2.5492125e-06,6.8913613e-07,2.755063e-07,2.967607e-07
0.0006426254,1.2032983e-07,1.9943737e-07,6.5281483e-07,3.983635e-07
3.8164184e-05,2.7788556e-06,5.7924694e-07,1.8905793e-06,8.904885e-07
5.8254627e-06,1.0327135e-06,3.877016e-07,9.928841e-09,5.1356125e-08
0.02307432,2.789332e-06,5.4493034e-07,7.917481e-07,3.7211214e-07
0.0037552011,9.32118e-07,2.0469639e-07,1.7165094e-05,6.1885754e-07
5.961409e-06,3.734008e-07,1.5705887e-06,5.371791e-06,1.3246425e-06
1.0280557e-06,1.6506182e-06,1.5446176e-06,1.897688e-06,3.6776171e-07
9.911482e-07,2.1206257e-07,1.3991039e-06,1.0633489e-06,7.7870004e-07
1.2869813e-06,9.456931e-07,2.231474e-06,2.9051157e-06,4.1579628e-07
9.1842264e-07,2.4431824e-06,1.4987708e-06,7.798754e-07,1.6661292e-06
1.3042444e-06,2.7418796e-06,3.2151363e-06,1.1030729e-07,7.8815935e-07
2.3616738e-06,9.803904e-07,3.3803396e-06,8.124e-07,3.4416013e-07
6.2532257e-07,4.1251832e-07,3.1196182e-06,1.7968104e-06,2.3757887e-06
2.7375177e-07,5.6048416e-06,1.8711852e-06,0.00010939872,1.3752312e-06
4.2104296e-07,2.135518e-06,0.00033151248,0.008909597,4.2345196e-06
3.0157398e-06,3.081111e-05,0.006091897,0.002230934,1.4320706e-05
6.823699e-06,4.1631043e-07,0.008779199,0.00877745,7.111782e-07
4.1729595e-06,7.1772683e-06,0.0106091965,0.07390456,0.016605783
3.820914e-06,2.2878157e-07,0.020774925,0.132756,0.042344447
4.711053e-06,0.14016533,0.022495331,0.09134546,0.033323817
2.5481304e-06,0.17059784,0.009253545,0.080592886,0.00020662944
3.8673315e-06,0.035337947,1.5840445e-06,0.072351485,3.1652762e-06
0.023324808,1.9283782e-08,1.1503911e-05,0.08948719,6.4854394e-06
0.33427992,2.4365295e-07,0.011161469,0.0012849576,3.923201e-06
0.075663045,1.5965755e-06,0.0012165431,9.2769125e-07,0.0028374938
0.15375736,1.0223853e-06,1.7627543e-06,1.861252e-07,3.3969327e-06
0.08369309,8.330577e-07,2.233041e-07,4.0488436e-07,0.00015862135
2.434155e-06,7.251921e-07,2.186201e-07,1.4578976e-06,1.4879911e-06
3.3428653e-06,1.7522725e-06,3.2360912e-08,1.2555797e-06,2.0343548e-07
2.8442453e-06,9.5314977e-07,1.0392888e-06,1.452229e-06,1.8052475e-06
1.6724073e-06,6.2896293e-06,1.2300666e-06,8.483657e-07,4.7275074e-07
1.848728e-06,1.7021677e-06,1.3159893e-06,1.3052263e-06,3.297834e-06
1.8817827e-06,8.667211e-07,1.1195368e-06,3.0951683e-09,3.041455e-08
9.771823e-07,4.6916907e-06,0.0,0.0,0.0
3.8790436e-06,5.1487444e-07,1.3422988e-08,1.1228276e-05,2.5864754e-06
0.0,1.6727183e-05,1.5622e-05,1.6106338e-05,6.346839e-05
0.0,1.2843511e-05,2.3730705e-05,1.33515e-05,2.161101e-05
0.0,2.0821157e-05,2.8414756e-06,4.4030317e-06,8.343917e-06
1.9997829e-06,3.6830494e-05,2.120705e-06,1.1989373e-06,2.315002e-05
4.7367607e-06,2.7071068e-05,1.942583e-06,2.4258338e-07,7.792933e-06
3.1781132e-05,2.2526152e-05,9.4612386e-07,6.36682e-07,3.6070636e-05
1.9139186e-05,3.144707e-05,8.475973e-07,5.265175e-06,1.4264244e-05
2.8253047e-05,1.225428e-05,9.438731e-08,2.398923e-06,2.5295506e-06
5.775776e-05,3.480592e-06,1.623185e-07,2.1344654e-06,1.3006525e-07
6.3700077e-06,6.3784256e-08,9.644418e-07,0.00039492568,4.251144e-07
7.6367585e-05,1.8933235e-06,0.00023689996,0.0002854078,5.7837536e-07
1.9523755e-05,3.454406e-06,0.0015320316,0.0065928353,1.1897278e-06
1.9406221e-05,3.0394056e-06,9.873447e-05,0.07028658,9.641416e-07
6.7572805e-06,6.6245605e-07,1.839175e-06,0.22056247,1.1913703e-07
5.7731954e-06,2.101075e-07,0.0022255257,0.07813472,1.6445264e-06
0.024671568,3.5421695e-07,0.0032734324,0.08030873,2.0792824e-05
0.13623908,1.9737006e-05,0.0036159742,0.06212861,0.00030989724
0.422344,0.002837222,0.010510036,0.028954843,9.487512e-06
1.044529,8.168606e-06,0.001701808,0.016798725,2.0668318e-05
0.5772885,5.957848e-06,0.018127939,0.0077772383,0.023573916
1.143353,0.02232287,0.0041813185,2.2229058e-05,0.006093053
0.72307426,0.008666623,2.7677036e-06,2.36393e-06,0.01025591
0.3421095,0.0057486044,2.296733e-06,2.6332973e-06,0.0035480233
0.3568298,0.019712405,1.297171e-06,2.2912802e-06,0.0013864541
0.054467134,0.075710855,4.155208e-06,2.5869074e-06,1.1383775e-05
0.03961,1.5612231e-05,3.3847277e-06,2.7321298e-06,2.8368656e-06
0.019962132,3.2513035e-06,5.20724e-06,4.293892e-06,2.5212457e-06
1.7752849e-06,4.1010495e-07,1.4139001e-06,8.5681944e-07,2.5807294e-06
1.8532842e-06,3.5261724e-08,2.341489e-06,4.3136997e-06,1.2065959e-06
3.3157444e-06,1.7196195e-06,7.8388473e-07,2.8054596e-06,1.6013964e-06
6.1382786e-07,4.3749014e-06,8.7836895e-07,9.579385e-07,6.6473564e-07
6.964975e-06,2.6402015e-08,2.4090746e-06,5.0823514e-06,1.3889645e-06
2.21683e-06,1.6242742e-08,6.4356534e-08,1.8246027e-06,1.241909e-06
2.939132e-07,0.015612837,4.759896e-07,1.0191978e-06,1.0170925e-06
7.697342e-08,0.05586682,4.151001e-08,3.935171e-06,1.0199329e-07
3.3599818e-07,9.344045e-06,3.7570008e-08,9.041064e-07,5.7143247e-06
8.1225437e-07,1.9455018e-05,1.2554537e-08,4.7057162e-07,3.02976e-06
1.5429166e-07,7.610861e-06,3.5458516e-08,5.8189165e-08,2.9970734e-06
4.3955654e-07,1.8583735e-06,7.891813e-08,2.162062e-08,1.8689218e-06
2.923002e-07,8.3494103e-07,2.7499298e-06,1.225603e-07,2.2693296e-06
2.6514025e-08,1.1601526e-06,1.1892601e-08,8.147299e-08,3.8574864e-05
1.269649e-07,7.197618e-07,4.5956048e-07,1.1784638e-06,2.9486171e-05
8.983036e-08,3.8402627e-06,1.1983853e-06,2.5604e-06,7.3882275e-06
6.0413505e-08,1.4356002e-06,1.3779216e-06,6.184569e-07,1.13222995e-05
1.2511786e-07,1.439363e-06,1.3505695e-06,2.5302649e-07,2.9406723e-05
9.707373e-07,1.8404647e-06,2.820188e-07,7.7408134e-07,1.6277758e-05
3.2722091e-06,3.3600659e-06,1.1817381e-06,1.9888732e-06,9.687017e-07
2.2615436e-06,5.272768e-07,2.7189927e-07,6.335153e-06,6.9051447e-07
1.9854579e-06,3.7669245e-06,1.3315641e-06,1.2461938e-06,6.374844e-07
7.1323586e-07,1.1776104e-05,3.3335326e-07,0.19301677,1.5900091e-06
4.196627e-07,7.1571685e-06,0.027413128,0.30712712,1.0274764e-06
3.198199e-06,2.6101188e-07,8.4200167e-07,2.044631e-05,6.7720674e-07
4.5977176e-06,9.899794e-07,7.852242e-07,2.1456487,4.427191e-06
6.9547144e-07,5.628561e-07,9.760381e-07,9.173616e-07,2.134661e-06
2.9936793e-06,1.442893e-05,4.957568e-07,1.2635362e-06,2.1007371e-07
7.2978373e-06,3.8594768e-05,2.7893782e-07,9.8545165e-08,1.7554106e-06
6.031814e-07,2.0589249e-07,6.583967e-07,1.7956037e-07,5.035714e-06
2.568577e-06,9.886371e-07,2.6572874e-07,4.1561012e-07,8.2990834e-07
2.5554034e-06,3.9570443e-07,2.1842088e-07,7.0984754e-07,5.2589503e-06
1.3107966e-05,1.3916172e-06,2.9558785e-07,3.8332118e-07,2.8474162e-07
9.682416e-06,9.347474e-08,1.934501e-06,4.775764e-07,1.6772087e-06
3.1262277e-07,3.0241328e-08,1.4861147e-05,7.255521e-07,4.2319634e-06
8.060648e-08,6.9034705e-08,7.039681e-06,1.7095482e-07,5.3795006e-06
6.477448e-07,1.8681403e-08,1.3967924e-06,6.812105e-07,9.600748e-07
2.4204594e-09,3.4345152e-07,4.09158e-06,2.2562165e-06,5.3577388e-08
8.098408e-08,3.2268954e-07,9.764118e-07,3.4727989e-06,3.192375e-08
1.597419e-07,1.2431352e-07,8.686815e-06,4.7853673e-06,4.316973e-06
3.899749e-07,2.6557342e-07,2.565686e-06,1.0566765e-05,2.8623585e-06
3.5709437e-08,1.5882054e-07,1.0410754e-06,4.701545e-07,9.1475215e-07
4.3756987e-07,2.3257194e-07,3.8136628e-07,3.0646336e-06,1.3312348e-06
5.232668e-06,1.2040444e-07,2.1119087e-07,3.8447574e-06,5.586374e-07
2.2645006e-06,2.3098369e-06,8.4877223e-07,2.7874178e-06,6.5678637e-07
4.904291e-07,2.9430362e-07,0.001057631,0.006579376,3.2885367e-07
6.370937e-07,4.265978e-07,1.5988651e-06,0.0009210984,4.3947125e-07
1.0183134e-06,3.5407595e-07,1.552071e-06,1.531718e-06,1.7580089e-07
7.1242954e-07,4.7435283e-06,7.310446e-07,8.1531516e-07,4.135646e-05
8.117321e-07,1.42494655e-05,9.1777446e-07,8.497091e-07,1.4167495e-05
4.2389516e-07,5.8214766e-05,8.3556944e-07,2.038323e-06,7.273614e-07
1.8078489e-06,0.0002039585,5.773104e-07,7.076067e-07,2.8219551e-06
4.4711868e-07,2.311155e-06,3.5542325e-07,5.827242e-08,1.265091e-05
1.097944e-07,3.1662005e-06,1.8247236e-07,6.820356e-08,2.5232362e-06
2.0268857e-07,9.562386e-06,1.3558633e-07,1.5997247e-07,5.1662587e-06
8.584666e-08,6.118635e-07,3.068236e-05,2.7314385e-07,4.928515e-06
2.5480979e-08,4.602719e-06,0.0036217864,4.8766765e-07,1.7481854e-05
3.9438914e-09,1.660737e-06,0.00031827437,4.188642e-08,1.5261208e-05
2.9705218e-06,8.380984e-06,1.0966669e-06,5.4865243e-08,9.2318965e-05
3.6738136e-06,1.1529295e-07,3.0598073e-06,9.284881e-07,7.163306e-05
2.7681437e-05,1.8728986e-07,2.593933e-06,5.2680093e-07,2.4105796e-07
0.00032972737,1.2953111e-06,1.0427489e-06,1.0598483e-06,7.4642986e-07
1.5457869e-06,1.191089e-06,1.7055915e-07,6.011797e-07,6.262731e-07
5.713672e-07,5.985526e-07,3.6352017e-07,3.38409e-07,1.923574e-06
8.592457e-06,3.8531093e-06,3.9351866e-07,7.5437197e-07,3.0807976e-06
1.0037166e-05,7.3373435e-08,3.470753e-07,5.4365184e-05,9.711715e-07
0.007545385,1.1618641e-06,5.157077e-07,0.00016981126,9.126216e-07
1.3327485e-06,1.391289e-06,4.151928e-06,0.0323243,1.4066575e-06
2.0746081e-06,2.5358286e-08,2.0479272e-06,0.058994573,1.2541634e-06
6.311062e-07,1.4992193e-07,1.1245685e-06,0.0012190156,2.4462324e-06
3.0055683e-06,5.917988e-08,0.0070640226,9.052382e-07,2.607879e-07
2.9257033e-06,2.1091962e-08,2.5627826e-06,1.777658e-06,8.279634e-07
1.5491053e-06,2.709048e-07,1.1791461e-06,5.904845e-07,2.6745756e-06
1.5783997e-06,1.0527996e-05,1.4324083e-06,2.6535608e-06,4.988889e-06
1.417867e-06,1.2879447e-05,1.5953736e-06,1.6176677e-06,0.0076102754
1.711354e-06,5.5452965e-06,6.860786e-08,6.483374e-06,0.27424604
1.8833101e-06,5.8390225e-07,3.285081e-09,8.3493904e-07,0.17008528
2.2337597e-06,0.028356902,5.3162275e-08,3.3277047e-07,0.09843533
6.22884e-06,0.085449636,1.6516796e-09,1.8474659e-10,0.002843452
1.7017259e-05,0.016504833,0.0,0.0,1.0965945e-06
1.538417e-05,6.2155523e-06,0.0,0.0,6.949023e-06
3.464683e-06,2.392715e-06,0.0,0.0,4.7875596e-06
3.577129e-07,2.2867173e-06,0.0,0.0,9.006263e-07
2.9708337e-07,2.322341e-06,0.0,0.0,2.065475e-07
1.0530164e-06,5.6582024e-07,0.0,0.0,3.2297617e-08
6.009938e-07,2.4203527e-07,0.0,0.0,3.931008e-07
0.0,1.1418912e-06,0.0,0.0,3.8733447e-08
0.0,1.0878816e-06,0.0,0.0,2.0762508e-10
0.0,4.511815e-06,0.0,0.0,0.0
0.0,1.8436139e-06,0.0,0.0,0.0
0.0,2.9840427e-07,0.0,0.0,0.0
0.0,5.5560054e-07,0.0,0.0,0.0
0.0,1.3339178e-07,0.0,0.0,0.0
0.0,0.0,0.0,0.0,0.0
0.0,0.0,0.0,0.0,0.0
0.0,0.0,0.0,0.0,0.0
0.0,0.0,0.0,0.0,0.0
0.0,0.0,0.0,0.0,0.0
0.0,0.0,0.0,0.0,0.0
0.0,0.0,0.0,0.0,0.0
0.0,0.0,0.0,0.0,0.0
2.255592e-10,0.0,0.0,0.0,0.0
2.3123755e-06,0.0,0.0,1.5313139e-09,0.0
8.5162215e-09,0.0,0.0,0.0,0.0
1.8919308e-06,0.0,0.0,0.0,0.0
7.4588343e-06,0.0,1.052558e-09,0.0,0.0
6.9940747e-06,0.0,8.712532e-08,0.0,0.0
1.6332107e-09,0.0,7.435681e-08,0.0,0.0
4.987678e-07,0.0,4.377266e-07,0.0,0.0
8.417969e-13,0.0,1.4455897e-07,0.0,0.0
1.4661675e-12,4.9422417e-09,4.6412985e-09,0.0,0.0
8.609313e-10,1.5498313e-07,0.0,0.0,0.0
0.0,2.6024004e-06,0.0,0.0,0.0
0.0,3.2039688e-06,0.0,0.0,0.0
0.0,7.9442106e-07,0.0,0.0,0.0
0.0,1.4481249e-06,0.0,0.0,0.0
0.0,1.0327232e-09,0.0,0.0,0.0
0.0,0.0,0.0,0.0,0.0
0.0,0.0,0.0,0.0,0.0
0.0,0.0,0.0,0.0,0.0
0.0,0.0,0.0,0.0,0.0
0.0,0.0,0.0,0.0,0.0
0.0,0.0,0.0,0.0,0.0
0.0,0.0,0.0,0.0,0.0
0.0,0.0,0.0,0.0,0.0
0.0,0.0,0.0,0.0,0.0
0.0,0.0,0.0,0.0,0.0
0.0,0.0,0.0,0.0,0.0
0.0,0.0,0.0,0.0,0.0
0.0,0.0,0.0,0.0,0.0
0.0,0.0,0.0,0.0,0.0
0.0,0.0,0.0,0.0,0.0
0.0,0.0,0.0,0.0,0.0
0.0,0.0,0.0,0.0,0.0
0.0,0.0,0.0,0.0,0.0
0.0,0.0,0.0,0.0,0.0
0.0,0.0,0.0,0.0,0.0
0.0,0.0,0.0,0.0,0.0
0.0,0.0,0.0,0.0,0.0
0.0,0.0,0.0,0.0,0.0
0.0,0.0,0.0,0.0,0.0
0.0,0.0,0.0,0.0,0.0
0.0,0.0,0.0,0.0,0.0
0.0,0.0,0.0,0.0,0.0
0.0,0.0,0.0,0.0,0.0
0.0,0.0,0.0,0.0,0.0
0.0,0.0,0.0,0.0,0.0
0.0,0.0,0.0,0.0,0.0
0.0,0.0,0.0,0.0,0.0
0.0,0.0,0.0,0.0,0.0
0.0,0.0,0.0,0.0,0.0
0.0,0.0,0.0,0.0,0.0
0.0,0.0,0.0,0.0,0.0
0.0,0.0,0.0,0.0,0.0
0.0,0.0,0.0,0.0,0.0
0.0,0.0,0.0,0.0,0.0
0.0,0.0,0.0,0.0,0.0
0.0,0.0,0.0,0.0,0.0
0.0,0.0,0.0,0.0,0.0
0.0,0.0,0.0,0.0,0.0
0.0,0.0,0.0,0.0,0.0
0.0,0.0,0.0,0.0,0.0
0.0,0.0,0.0,0.0,0.0
0.0,0.0,0.0,0.0,0.0
0.0,0.0,0.0,0.0,0.0
0.0,0.0,0.0,0.0,0.0
0.0,0.0,0.0,0.0,0.0
0.0,0.0,0.0,0.0,0.0
0.0,0.0,0.0,0.0,0.0
0.0,0.0,0.0,0.0,0.0
0.0,0.0,0.0,0.0,0.0
0.0,0.0,0.0,0.0,0.0
0.0,0.0,0.0,0.0,0.0
0.0,0.0,0.0,0.0,0.0
0.0,0.0,0.0,0.0,0.0
0.0,0.0,0.0,0.0,0.0
0.0,0.0,0.0,0.0,0.0
0.0,0.0,0.0,0.0,0.0
0.0,0.0,0.0,0.0,0.0
0.0,0.0,0.0,0.0,0.0
0.0,0.0,0.0,0.0,0.0
0.0,0.0,0.0,0.0,0.0
0.0,0.0,0.0,0.0,0.0
0.0,0.0,0.0,0.0,0.0
0.0,0.0,0.0,0.0,0.0
0.0,3.7201813e-09,0.0,0.0,0.0
0.0,1.9403503e-09,0.0,0.0,0.0
0.0,6.963932e-08,0.0,0.0,0.0
0.0,0.0,0.0,0.0,0.0
0.0,0.0,0.0,0.0,0.0
0.0,0.0,0.0,0.0,0.0
0.0,0.0,0.0,0.0,0.0
0.0,0.0,0.0,0.0,0.0
0.0,0.0,0.0,0.0,0.0
0.0,0.0,0.0,0.0,0.0
0.0,0.0,0.0,0.0,0.0
0.0,0.0,0.0,0.0,0.0
0.0,0.0,0.0,0.0,0.0
0.0,0.0,0.0,0.0,0.0
0.0,0.0,0.0,0.0,0.0
0.0,0.0,0.0,0.0,0.0
0.0,0.0,0.0,0.0,0.0
0.0,0.0,0.0,0.0,0.0
0.0,0.0,0.0,0.0,2.6088057e-10
0.0,0.0,0.0,0.0,2.048683e-08
0.0,2.0023285e-06,0.0,0.0,3.6800375e-07
0.0,1.534392e-06,0.0,0.0,3.2715727e-07
0.0,8.415328e-06,0.0,0.0,3.387356e-08
0.0,3.820514e-06,0.0,0.0,3.9108284e-07
0.0,1.500344e-06,0.0,0.0,1.7296188e-06
0.0,5.277355e-07,0.0,0.0,1.5373e-06
0.0,1.6300997e-06,0.0,2.4256357e-11,1.7386913e-07
0.0,1.7984219e-06,0.0,1.7871118e-07,5.5780017e-08
0.0,0.0,1.4595885e-07,4.45676e-07,1.274175e-06
0.0,3.9496276e-06,5.029971e-07,3.2574908e-07,1.881672e-06
0.0,1.0765999e-07,2.5520544e-06,6.815521e-06,2.5911675e-06
0.0,1.0761789e-06,2.994898e-07,9.779344e-06,1.1751542e-06
0.0,5.710864e-07,7.671229e-07,3.0965635e-05,4.8441893e-07
0.0,2.3390295e-07,1.1635926e-07,9.720209e-05,4.792987e-07
0.0,5.9855586e-07,2.7792123e-06,0.00049134635,1.1299437e-06
1.08529235e-07,2.3996015e-06,4.840107e-06,2.3945645e-07,6.832475e-07
1.3766963e-06,0.00016809253,1.3984011e-07,0.0012857954,1.0329818e-06
1.2469691e-06,1.8505187e-05,1.2836611,3.013255,4.7713814e-07
2.6576996e-05,0.4098488,0.43955952,0.54880214,8.5674117e-07
1.8154396e-05,0.00010208298,0.016442202,1.5240829e-07,2.6526638e-07
