"[299, 255]","[227, 248]","[287, 319]","[279, 328]","[230, 262]"
4.7240016e-07,4.7269194e-07,6.325239e-08,5.777265e-06,4.2686097e-06
4.546436e-07,6.996646e-08,1.5850558e-10,5.384916e-07,2.5694958e-06
1.9417328e-07,6.373254e-07,6.9311605e-09,1.4794951e-05,5.1394e-06
5.231276e-07,3.0655425e-08,5.3888334e-06,2.1579926e-05,1.26577e-05
1.4740043e-06,5.421196e-08,8.264954e-06,2.2809407e-05,7.518855e-06
5.3107096e-06,9.982555e-07,3.0398112e-06,1.05035615e-05,4.335529e-06
3.325729e-08,1.0095221e-06,9.2736747e-07,3.9122322e-05,9.5182e-09
1.279151e-07,8.504332e-07,4.970013e-06,7.521174e-05,2.916601e-08
1.1537148e-07,2.4568163e-07,3.2888827e-06,2.2852671e-05,3.8592947e-07
6.417146e-09,4.8259876e-09,1.3849968e-06,1.2419594e-06,6.102615e-07
1.283788e-08,1.4857918e-07,7.280292e-08,6.9789253e-06,1.1258911e-06
4.696629e-08,1.4036061e-07,7.0930264e-07,3.3029416e-06,1.355295e-06
7.4661514e-08,7.2448273e-07,7.3183855e-07,9.4713937e-07,1.0309635e-07
3.6388033e-06,5.056559e-06,4.757958e-06,1.9789609e-06,1.0246582e-06
5.532056e-06,2.9578084e-07,1.0271366e-05,2.9709001e-06,1.5648196e-06
3.3309989e-06,4.754457e-07,7.3266033e-06,6.5029826e-06,2.3087325e-06
1.3198703e-06,1.7126563e-07,3.5615062e-07,8.745141e-06,5.835062e-07
2.5747468e-07,2.977827e-08,1.2332808e-06,8.2783663e-07,9.431834e-08
7.1204875e-07,2.4776451e-05,1.92896e-07,7.610908e-07,1.4793111e-08
1.12194904e-07,4.9713908e-05,2.8821913e-07,4.4364188e-07,3.0970602e-07
1.4633513e-07,3.2488392e-06,2.2103704e-07,2.3438663e-07,1.4186337e-07
4.7638977e-07,1.0190176e-06,1.1320286e-06,1.37311895e-08,1.6569566e-06
1.3052599e-07,2.7251026e-06,2.472488e-06,1.824579e-06,2.414794e-06
2.1151862e-07,1.6560727e-05,2.332356e-06,6.8505983e-07,3.7097836e-06
1.2439435e-07,4.4671222e-05,5.507215e-07,5.5552594e-08,6.925969e-07
4.6090193e-07,8.969558e-08,4.5428436e-07,8.581974e-08,2.6373964e-06
1.8466646e-07,3.7835846e-10,2.81773e-08,4.5747757e-07,6.8922624e-08
4.6346768e-06,2.3716742e-08,5.4669012e-08,3.3592474e-07,4.9905384e-07
1.922426e-06,0.0,1.0472039e-06,3.197255e-07,5.307534e-07
1.3044074e-06,0.0,1.9561344e-06,1.3348084e-06,8.8123564e-08
3.756832e-07,0.0,5.16685e-07,4.1754163e-08,4.3638022e-07
1.1273955e-06,0.0,4.0010754e-08,3.0953223e-07,3.779835e-08
2.346537e-07,0.0,3.8670464e-08,6.2712877e-07,0.0
1.4538857e-08,0.0,5.0098127e-08,2.6827138e-07,0.0
3.53414e-07,0.0,5.502809e-07,1.7960037e-06,0.0
5.643588e-07,0.0,2.0167458e-06,1.3069283e-06,0.0
1.8444828e-06,0.0,6.743973e-07,2.41262e-06,0.0
2.227069e-06,0.0,1.0615554e-06,2.2304764e-06,0.0
3.3154734e-06,5.1992665e-05,8.1265347e-07,1.3192673e-06,0.0
3.874561e-07,6.942281e-05,3.2146374e-07,5.517908e-07,5.8997788e-08
8.362121e-06,2.2706479e-06,1.0476355e-06,5.891955e-07,3.091373e-07
9.864561e-07,3.405908e-06,6.03136e-06,4.237561e-06,5.558674e-07
5.6592008e-08,3.983959e-06,7.269518e-06,0.08733168,5.264175e-06
0.0,5.6678164e-06,4.676034e-07,5.53213e-06,2.3346265e-05
0.0,2.899543e-06,2.0281674e-07,1.5085242e-07,5.1165184e-06
0.0,1.7957464e-05,8.695902e-07,1.8652743e-07,9.493033e-06
0.0,8.665901e-07,2.302044e-07,7.4349236e-07,5.684638e-07
0.0,4.934502e-06,1.1726286e-08,2.5607105e-07,9.586671e-07
0.0,3.4858704e-07,6.9177685e-07,1.0591397e-05,1.0256671e-06
0.0,0.0,2.9815187e-06,1.4617148e-05,8.6170473e-07
0.0,0.0,1.5573131e-07,1.6443726e-05,2.8436884e-07
0.0,0.0,2.6473725e-07,2.342281e-06,5.022642e-07
0.0,0.0,1.4460076e-07,5.988055e-07,0.0
0.0,0.0,4.3655498e-07,1.9523146e-07,0.0
0.0,0.0,2.0351864e-11,7.149243e-08,0.0
0.0,0.0,0.0,1.9216532e-07,0.0
0.0,0.0,0.0,5.052735e-10,0.0
0.0,0.0,0.0,0.0,0.0
0.0,0.0,0.0,0.0,0.0
0.0,0.0,0.0,0.0,0.0
0.0,0.0,0.0,0.0,0.0
0.0,0.0,0.0,0.0,0.0
0.0,0.0,0.0,0.0,0.0
0.0,0.0,0.0,0.0,0.0
0.0,0.0,0.0,0.0,0.0
0.0,0.0,0.0,0.0,0.0
0.0,0.0,0.0,0.0,0.0
0.0,0.0,0.0,0.0,0.0
0.0,0.0,0.0,0.0,0.0
0.0,0.0,0.0,0.0,0.0
0.0,0.0,0.0,0.0,0.0
0.0,0.0,0.0,0.0,0.0
0.0,0.0,0.0,0.0,0.0
0.0,0.0,0.0,0.0,0.0
0.0,0.0,0.0,0.0,0.0
0.0,0.0,0.0,0.0,0.0
0.0,0.0,0.0,0.0,0.0
0.0,0.0,0.0,0.0,0.0
0.0,0.0,0.0,0.0,0.0
0.0,0.0,0.0,0.0,0.0
0.0,0.0,0.0,0.0,0.0
0.0,0.0,0.0,0.0,0.0
0.0,0.0,0.0,0.0,0.0
0.0,0.0,0.0,0.0,0.0
0.0,0.0,0.0,0.0,0.0
0.0,0.0,0.0,0.0,0.0
0.0,0.0,0.0,0.0,0.0
0.0,0.0,0.0,0.0,0.0
0.0,0.0,0.0,0.0,0.0
0.0,0.0,0.0,0.0,0.0
0.0,0.0,0.0,0.0,0.0
0.0,0.0,0.0,0.0,0.0
0.0,0.0,0.0,0.0,0.0
0.0,0.0,0.0,0.0,0.0
0.0,0.0,0.0,0.0,0.0
0.0,0.0,0.0,0.0,0.0
0.0,0.0,0.0,0.0,0.0
0.0,0.0,0.0,0.0,0.0
0.0,0.0,0.0,0.0,0.0
0.0,0.0,0.0,0.0,0.0
0.0,0.0,0.0,0.0,0.0
0.0,0.0,0.0,0.0,0.0
0.0,0.0,0.0,0.0,0.0
0.0,0.0,0.0,0.0,0.0
0.0,0.0,0.0,0.0,0.0
0.0,0.0,0.0,0.0,0.0
0.0,0.0,0.0,0.0,0.0
0.0,0.0,0.0,0.0,0.0
0.0,0.0,0.0,0.0,0.0
0.0,0.0,0.0,0.0,0.0
0.0,0.0,0.0,0.0,0.0
0.0,0.0,0.0,0.0,0.0
0.0,0.0,0.0,0.0,0.0
0.0,0.0,0.0,0.0,0.0
0.0,0.0,0.0,0.0,0.0
0.0,0.0,0.0,0.0,0.0
0.0,0.0,0.0,0.0,0.0
0.0,0.0,0.0,0.0,0.0
0.0,0.0,0.0,0.0,0.0
0.0,0.0,0.0,0.0,0.0
0.0,0.0,0.0,0.0,0.0
0.0,0.0,0.0,0.0,0.0
0.0,0.0,0.0,0.0,0.0
0.0,0.0,0.0,0.0,0.0
0.0,0.0,0.0,0.0,0.0
0.0,0.0,0.0,0.0,0.0
0.0,0.0,0.0,0.0,0.0
0.0,0.0,0.0,0.0,0.0
0.0,0.0,0.0,0.0,0.0
0.0,0.0,0.0,0.0,0.0
0.0,0.0,0.0,0.0,0.0
0.0,0.0,0.0,0.0,0.0
0.0,0.0,0.0,0.0,0.0
0.0,0.0,0.0,0.0,0.0
0.0,0.0,0.0,1.7323345e-06,0.0
0.0,0.0,0.0,2.193316e-06,0.0
0.0,0.0,0.0,0.0,0.0
0.0,0.0,0.0,0.0,0.0
0.0,0.0,0.0,0.0,0.0
0.0,0.0,0.0,0.0,0.0
0.0,0.0,0.0,0.0,0.0
0.0,0.0,0.0,0.0,0.0
0.0,0.0,0.0,0.0,6.5657304e-08
0.0,0.0,0.0,0.0,3.445018e-06
0.0,3.0525618e-07,0.0,0.0,1.8063556e-06
0.0,5.745406e-07,0.0,0.0,2.096315e-06
0.0,1.1022436e-08,0.0,0.0,2.1907908e-06
0.0015156391,1.1186536e-06,6.622861e-09,0.0,2.457723e-06
0.008319666,1.5535525e-06,0.0,0.0,7.688142e-06
0.0028029967,1.8370421e-06,0.0,0.0,1.2336509e-05
1.2625746e-05,6.300493e-07,0.0,0.0,5.340781e-06
4.9578466e-07,1.1293193e-06,0.0,0.0,8.076881e-07
0.0,1.4238452e-06,0.0,0.0,1.4895629e-06
0.0,1.7109714e-07,0.0,0.0,2.0145594e-06
0.0,1.629787e-08,0.0,0.0,1.2886771e-06
0.0,0.0,0.0,0.0,3.113517e-07
0.0,0.0,0.0,0.0,1.4582382e-06
0.0,0.0,0.0,0.0,1.6676761e-06
0.0,0.0,0.0,0.0,1.15411446e-07
0.0,0.0,0.0,0.0,0.0
0.0,0.0,0.0,0.0,0.0
0.0,0.0,0.0,0.0,3.194094e-09
0.0,0.0,0.0,0.0,1.0444757e-06
0.0,2.504997e-10,0.0,0.0,5.9936774e-08
0.0,1.206616e-07,0.0,0.0,1.1415346e-07
0.0,2.7227664e-08,0.0,0.0,0.0
0.0,0.0,0.0,0.0,0.0
0.0,3.537134e-08,0.0,0.0,0.0
0.0,3.3187905e-07,0.0,0.0,3.090073e-08
0.0,2.931092e-07,0.0,0.0,3.6338196e-08
0.0,1.8503913e-07,8.258264e-08,0.0,2.4436129e-06
0.0,3.8445955e-07,7.337176e-07,0.0,1.6163349e-06
0.0,4.51035e-06,0.0,0.0,1.8372508e-06
0.0,2.4342785e-06,0.0,0.0,2.0390542e-06
0.0,1.3016692e-06,0.0,0.0,1.318251e-06
0.0,1.2626354e-06,0.0,0.0,7.7872636e-07
0.0,4.2309966e-07,0.0,0.0,1.0485201e-06
0.0,4.824516e-07,0.0,0.0,2.5034424e-06
0.0,2.729711e-07,0.0,0.0,9.662427e-08
0.0,0.0,0.0,0.0,6.8073945e-07
0.0,0.0,0.0,0.0,1.0486908e-06
0.0,0.0,0.0,0.0,2.2143244e-07
0.0,0.0,4.1591516e-08,0.0,0.0
0.0,0.0,6.442375e-06,0.0,0.0
0.0,0.0,1.921874e-06,0.0,0.0
0.0,0.0,1.5018065e-10,0.0,0.0
0.0,0.0,0.0,0.0,0.0
0.0,0.0,0.0,0.0,0.0
0.0,0.0,0.0,0.0,0.0
0.0,0.0,0.0,2.0152225e-08,3.0702628e-05
0.0,1.014107e-07,0.0,7.3940947e-09,8.867282e-07
0.0,3.0194346e-06,0.0,0.0,1.1449309e-06
2.3777713e-07,8.604804e-07,4.569791e-07,1.8242579e-08,1.5689418e-06
6.6393463e-06,1.0743692e-06,8.1931734e-07,1.2514761e-06,3.117176e-06
2.0209787e-05,1.6783777e-06,4.1541166e-06,5.2565965e-06,1.3505825e-06
0.00051108794,6.810894e-07,1.9473947e-07,1.7462331e-06,4.0900971e-07
0.0002192077,3.9274014e-06,4.194295e-06,6.040476e-08,2.112059e-07
1.5367908e-05,3.382974e-06,1.4208682e-06,2.9395775e-07,1.4031968e-06
1.9597305e-06,2.863071e-06,1.537043e-06,2.0693917e-06,9.680999e-07
6.0881825e-07,1.5883347e-06,1.2608612e-06,1.2691677e-06,4.2176936e-07
3.2486793e-07,8.0791796e-07,1.1129505e-06,0.0,1.9766292e-06
0.0,1.8133944e-06,3.4287305e-07,0.0,2.2976305e-06
0.0,1.0808179e-06,1.8777074e-08,0.0,2.4769286e-06
0.0,1.5385589e-06,0.0,0.0,2.2467943e-06
0.0,1.2088824e-06,0.0,0.0,1.1261053e-06
0.0,3.6930019e-06,0.0,0.0,5.8186185e-07
0.0,2.3383102e-06,0.0,0.0,6.3435624e-07
0.0,2.0366786e-06,0.0,0.0,3.7567875e-07
0.0,3.037177e-08,2.6189657e-08,0.0,0.0
0.0,4.0959014e-07,6.56932e-07,2.0015133e-10,0.0
0.0,8.286386e-09,0.0,1.3336901e-07,0.0
0.0,0.0,0.0,3.388589e-08,0.0
3.0598858e-06,0.0,2.7330224e-10,3.4907205e-07,1.3663823e-10
4.3584554e-05,0.0,2.5771048e-09,3.1095894e-07,0.0
9.287046e-08,0.0,5.877592e-06,9.654197e-10,3.710486e-09
0.0,0.0,9.314016e-06,0.0,1.3967752e-06
0.0,0.0,2.3219368e-06,0.0,1.1632161e-06
0.0,1.5588242e-08,1.0095324e-06,5.5777132e-08,6.744643e-07
0.0,3.3128497e-08,1.1149991e-06,3.483765e-08,3.981255e-08
0.0,8.042387e-09,7.933663e-08,1.0881541e-08,3.1794585e-08
3.65135e-08,1.5356376e-08,6.027588e-08,1.5282676e-07,3.041558e-06
8.200356e-09,4.3619703e-08,2.8668978e-07,3.5121232e-07,2.4179278e-06
0.0,4.2635514e-07,1.2254204e-06,4.1343018e-08,1.2037804e-06
0.0,7.191087e-07,1.2550547e-06,1.713553e-06,8.191598e-07
0.0,9.224821e-07,1.5982954e-06,1.1176982e-06,6.1614537e-07
0.0,2.4725776e-07,1.2262295e-06,1.845719e-06,3.8719183e-08
0.0,2.1761835e-07,9.724248e-07,6.637729e-07,9.529446e-11
0.0,7.6463735e-08,4.2358943e-07,5.4376954e-07,0.0
0.0,0.0,3.513587e-07,0.0,0.0
0.0,0.0,2.9534908e-07,0.0,0.0
0.0,0.0,4.59164e-09,0.0,0.0
0.0,0.0,0.0,0.0,0.0
0.0,0.0,0.0,0.0,0.0
0.0,1.12149685e-08,0.0,0.0,1.2755717e-07
0.0,3.0508107e-07,0.0,0.0,1.042663e-06
0.0,7.0713154e-06,0.0,0.0,2.29773e-06
1.0157924e-07,5.645418e-07,0.0,0.0,6.578072e-07
1.2801146e-07,5.2151336e-08,0.0,0.0,6.8469674e-09
3.8482746e-09,0.0,1.9502953e-09,7.088511e-09,1.9990927e-11
0.0,4.1428136e-09,4.0195855e-06,1.0354984e-07,2.5054692e-07
0.0,1.3241672e-07,2.8597447e-06,1.490616e-07,1.6316013e-06
0.0,1.6670059e-06,5.024351e-07,9.0028357e-07,0.0
2.596334e-08,2.3587218e-10,6.191569e-07,6.802123e-07,5.2242797e-09
1.2050282e-06,0.0,3.1892355e-07,2.4577238e-07,4.3196417e-07
3.2367595e-07,2.2195984e-06,2.1427643e-06,1.1111841e-06,1.767719e-05
0.0,8.6629007e-07,1.0540093e-06,2.3193745e-06,1.9067721e-06
0.0,2.124477e-06,1.921982e-06,3.7812126e-06,1.826267e-07
7.366914e-07,4.19448e-07,1.2018534e-06,7.6635536e-07,1.2390444e-06
1.2705083e-06,5.9376697e-07,2.2663496e-06,1.2830146e-06,1.410215e-06
1.3856031e-07,9.548338e-07,3.100699e-06,1.1063369e-06,7.1099055e-07
1.3379536e-06,4.945266e-07,1.5570664e-06,3.1419213e-06,1.596389e-06
9.3629234e-07,0.0,2.8746385e-07,2.0971692e-07,1.026754e-06
5.420003e-07,7.0736485e-07,1.1670764e-09,0.0,8.348179e-07
3.794202e-07,5.4972833e-08,0.0,0.0,8.2955114e-07
2.019653e-08,0.0,0.0,0.0,9.2418804e-07
3.0438738e-09,0.0,0.0,0.0,8.395719e-09
0.0,0.0,0.0,0.0,0.0
0.0,0.0,0.0,0.0,0.0
0.0,0.0,0.0,0.0,0.0
0.0,0.0,0.0,0.0,0.0
0.0,5.5995932e-09,0.0,0.0,0.0
0.0,1.06417275e-07,0.0,0.0,6.926071e-09
0.0,2.4665326e-07,0.0,0.0,8.312359e-09
1.0100398e-11,2.3076193e-08,0.0,0.0,1.8881211e-08
0.0,1.6063722e-11,0.0,0.0,1.105883e-07
0.0,8.759594e-07,0.0,0.0,8.89669e-07
0.0,2.5382622e-06,0.0,0.0,4.0391885e-07
0.0,7.17786e-07,0.0,0.0,7.116107e-08
0.0,5.6688564e-06,0.0,2.8789493e-08,4.281196e-08
0.0,2.304732e-05,3.8840784e-09,6.3141374e-07,2.5199495e-07
0.0,1.6370328e-05,3.2151112e-07,1.1981246e-06,1.70302e-06
0.0,7.5405233e-06,7.41828e-08,1.1125442e-06,5.1571504e-07
3.406655e-09,0.24046169,1.089809e-06,3.3844515e-06,4.199099e-08
5.142366e-07,5.2789685e-05,3.7935395e-06,2.0708526e-06,0.0021988694
3.2826105e-08,1.8781326e-05,2.5080967e-06,1.4253035e-07,3.4037837e-06
1.8894004e-07,1.3476289e-06,3.2135992e-07,2.9102544e-06,3.7217978e-07
4.3112453e-07,3.3722208e-06,5.255191e-07,1.8697835e-06,1.12264075e-07
6.047006e-06,1.672662e-05,7.883319e-08,5.128456e-07,4.0187862e-07
6.370021e-06,7.708593e-07,3.414115e-07,2.253162e-08,1.3299156e-06
3.2313947e-05,3.4169223e-06,4.011216e-08,0.0,2.816646e-07
3.0441848e-05,1.0244618e-07,0.0,0.0,7.7080904e-07
1.2474703e-06,1.3913026e-05,0.0,3.0330997e-07,1.0801997e-05
2.0953915e-07,4.427716e-06,0.0,3.9311254e-07,4.6111113e-06
0.0,1.557645e-06,0.0,1.4094659e-09,2.695969e-06
1.1897068e-09,3.6098145e-06,0.0,0.0,0.0
1.0990839e-07,1.0383372e-06,0.0,0.0,1.8282086e-07
1.03898955e-07,2.8258458e-07,0.0,0.0,0.0
1.1986263e-09,8.750032e-06,0.0,0.0,4.3133898e-07
0.0,8.474601e-06,0.0,0.0,1.5795204e-07
0.0,4.3636355e-06,0.0,0.0,3.5596393e-09
0.0,1.1714069e-06,0.0,0.0,2.4492887e-05
0.0,2.1683652e-06,0.0,0.0,1.4230513e-06
0.0,9.0119465e-06,0.0,0.0,3.7860154e-08
0.0,4.882205e-06,0.0,0.0,0.0
1.8671527e-08,2.0546183e-06,1.0077883e-10,1.0124667e-06,2.0714532e-07
1.6105844e-07,1.5608629e-07,0.0,1.2485752e-08,3.6796172e-07
9.2968705e-08,3.1246844e-07,0.0,5.266286e-10,3.2812184e-07
6.137652e-07,6.927746e-06,0.0,3.305272e-10,2.4021715e-06
8.448775e-09,9.328724e-06,0.0,0.0,2.1948026e-06
0.0,3.2530304e-06,6.521313e-10,3.7633265e-09,6.6266745e-07
0.0,6.0260754e-06,8.039473e-09,1.137992e-06,2.8870951e-07
0.0,1.273498e-07,1.663914e-06,6.5299906e-07,4.183942e-09
0.0,0.0,6.790322e-06,1.2571548e-06,0.0
0.0,0.0,6.517372e-07,3.648566e-07,0.0
0.0,0.0,2.0167438e-06,7.4788377e-06,0.0
0.0,0.0,0.0,8.923524e-06,0.0
0.0,0.0,0.0,2.6837873e-07,0.0
0.0,0.0,9.3104444e-07,7.1321784e-07,0.0
0.0,0.0,6.823644e-08,1.0187833e-08,0.0
0.0,0.0,1.194716e-06,2.3112784e-07,3.2423905e-08
0.0,2.2355567e-10,4.5008825e-08,2.5987333e-07,0.0
0.0,4.720058e-08,3.3870351e-06,6.485496e-08,8.654217e-09
0.0,4.152178e-07,8.574663e-08,6.3956367e-07,1.285386e-06
0.0,1.4703792e-07,4.5379975e-06,1.6264952e-06,8.5491274e-07
0.0,2.3432986e-07,2.8814782e-06,3.4352118e-07,7.96018e-08
0.0,5.439056e-07,1.4765365e-06,1.4923497e-06,1.2696197e-08
0.0,1.918281e-08,1.6436848e-06,9.122908e-08,1.7833901e-06
3.2585056e-08,1.3034627e-06,5.6689277e-07,7.1625643e-09,3.2005341e-06
2.41853e-07,8.8576076e-07,1.045757e-06,4.7749127e-06,3.1247505e-06
1.5949227e-05,6.3494974e-07,2.4069794e-07,3.1263717e-06,1.9713525e-06
2.105775e-05,5.648237e-07,3.3194598e-07,1.4919231e-06,1.3611493e-06
3.8430812e-06,1.5022838e-06,1.0471637e-06,1.3011361e-06,1.3312709e-06
1.4718504e-06,1.0518073e-06,6.854714e-07,1.0502092e-06,1.3953885e-06
1.3453816e-06,0.0,1.5813358e-06,1.2626249e-06,2.082242e-06
2.2425313e-06,1.4466536e-07,2.674013e-06,1.5203776e-06,5.103752e-08
5.651037e-07,2.4629398e-07,5.751599e-06,7.700581e-07,6.934787e-10
2.6203154e-06,0.0,3.101297e-07,1.2857393e-05,0.0
1.9573177e-07,0.0,5.399865e-06,2.4434178e-06,1.5706773e-11
2.5200018e-09,0.0,1.129563e-06,2.797424e-07,0.0
5.8244908e-08,0.0,1.2999965e-06,6.972979e-06,3.8747988e-10
3.4575523e-06,0.0,7.104652e-06,1.3695452e-06,0.0
3.2578998e-06,0.0,7.6207702e-06,1.205588e-06,0.0
3.8165606e-08,0.0,3.7156715e-06,1.0588665e-06,0.0
0.0,0.0,1.5588107e-07,3.2670673e-07,0.0
0.0,0.0,1.7251273e-07,1.5020828e-06,0.0
0.0,2.8665363e-07,2.2011106e-08,1.179779e-10,0.0
2.3375546e-09,1.7605782e-06,0.0,0.0,0.0
2.278271e-07,3.9030422e-07,0.0,0.0,0.0
2.82841e-07,6.403535e-05,0.0,0.0,0.0
0.0,0.00016083552,0.0,0.0,0.0
0.0,3.5735826e-07,0.0,3.9521728e-07,0.0
0.0,7.0903496e-08,0.0,2.7925449e-08,0.0
0.0,0.0,0.0,0.0,0.0
0.0,0.0,0.0,0.0,0.0
2.108916e-08,0.0,0.0,0.0,0.0
1.5048095e-06,0.0,0.0,9.920545e-07,0.0
9.702229e-07,9.015618e-08,8.0282614e-11,1.9131669e-07,0.0
1.6455573e-06,7.974176e-08,4.406604e-08,8.978149e-07,0.0
3.071205e-07,3.4413677e-06,4.4826684e-06,9.581436e-07,0.0
2.2161898e-07,6.848915e-06,2.0962457e-07,6.4390883e-06,0.0
5.7669454e-06,0.0,1.0897967e-05,2.8233349e-06,0.0
9.414554e-07,0.0,5.4962934e-06,3.9918174e-07,0.0
2.8336632e-07,5.0861928e-08,1.0712795e-06,3.3675488e-07,0.0
4.0420613e-07,0.0,4.715454e-06,2.8791618e-07,0.0
0.0,0.0,6.7577225e-06,1.05938645e-08,0.0
0.0,0.0,1.643416e-06,2.1083912e-08,0.0
0.0,0.0,0.0,7.217728e-10,0.0
0.0,0.0,1.763008e-06,1.685798e-08,0.0
0.0,1.0312173e-06,1.607984e-05,3.9949374e-10,0.0
0.0,6.631843e-07,2.8064749e-06,6.650953e-08,0.0
0.0,0.0,2.9792072e-06,1.6772308e-06,0.0
0.0,3.3389324e-07,5.226839e-07,3.993928e-06,0.0
0.0,8.869705e-07,0.0,0.0,0.0
0.0,1.9583997e-08,0.0,0.0,0.0
0.0,2.4786369e-09,0.0,0.0,0.0
0.0,0.0,0.0,0.0,0.0
0.0,0.0,0.0,0.0,0.0
0.0,0.0,0.0,0.0,0.0
0.0,0.0,0.0,0.0,0.0
0.0,0.0,0.0,0.0,0.0
0.0,0.0,1.0644382e-06,2.2819519e-08,0.0
3.5970655e-07,0.0,6.611621e-06,3.240841e-07,0.0
6.7236635e-07,0.0,1.1143966e-05,2.2793819e-07,0.0
2.8727443e-06,0.0,1.1883479e-05,1.1052695e-09,0.0
1.0372204e-06,0.0,2.604371e-06,0.0,0.0
7.918312e-06,0.0,1.0258384e-06,1.0155126e-08,0.0
1.5778922e-06,0.0,4.392511e-09,1.657475e-08,0.0
7.2654376e-07,0.0,8.689064e-11,7.184082e-10,0.0
0.0,0.0,0.0,0.0,0.0
0.0,0.0,0.0,0.0,0.0
0.0,0.0,0.0,0.0,0.0
0.0,0.0,0.0,0.0,0.0
3.7004457e-09,0.0,0.0,0.0,0.0
4.6254986e-08,0.0,0.0,0.0,0.0
2.1987974e-08,0.0,0.0,2.1518213e-08,0.0
0.0,0.0,1.0151109e-09,4.1295533e-07,0.0
0.0,0.0,5.382287e-07,1.6887649e-06,0.0
0.0,0.0,7.5281523e-06,6.188576e-07,1.3118141e-07
0.0,4.357978e-07,5.43797e-06,1.8159062e-06,1.10008365e-07
0.0,2.4401284e-06,2.8341658e-06,1.203352e-06,8.091942e-07
0.0,1.0335882e-06,5.565214e-06,1.3477394e-06,0.019407094
0.0,8.510967e-07,9.280975e-07,5.951906e-07,0.27912983
6.011565e-07,0.008649248,2.4308818e-06,2.5043223e-06,0.012764114
8.093046e-07,0.04562457,1.4998523e-06,2.0605878e-06,1.7110793e-06
2.8554705e-06,1.866655e-06,2.1924402e-06,1.881605e-06,1.306683e-06
2.2241583e-08,1.7698704e-06,2.4461033e-06,2.4635563e-06,1.9952831e-06
2.784131e-06,7.972985e-07,1.9437139e-06,2.6696925e-06,1.3891323e-06
2.0806294e-06,3.3787633e-06,9.650573e-07,5.6776884e-07,5.668466e-07
1.2821416e-06,1.8918121e-06,2.5770123e-06,6.5504406e-07,3.21348e-07
1.1229207e-06,0.0,3.457316e-06,4.1099304e-07,8.021757e-08
1.3655822e-06,7.509017e-09,1.6691071e-06,2.5508348e-06,0.0
4.3531722e-06,1.5291025e-08,2.7833806e-07,2.2999432e-06,0.0
1.0891185e-06,0.0,2.969142e-08,1.5327536e-06,0.0
1.1649284e-06,2.0921e-09,2.197054e-07,3.4526443e-06,3.511548e-08
3.0258693e-07,6.74817e-07,2.3416911e-07,5.728054e-07,2.664535e-08
0.0,1.08307574e-07,2.4301483e-08,2.0030814e-06,2.9386075e-07
0.0,0.0,2.9808331e-09,5.1959848e-08,6.0053162e-09
0.0,0.0,2.1987782e-10,8.8060105e-08,1.9348586e-07
5.7589027e-11,2.593334e-08,3.2181077e-08,1.3903663e-07,7.379006e-08
2.2699514e-07,1.1283284e-06,4.5425298e-07,5.467081e-08,6.335035e-08
1.0081949e-07,1.8553028e-08,2.0421958e-06,1.0509639e-06,2.4885853e-08
1.669554e-06,9.4854965e-07,7.701359e-06,3.4051193e-06,3.5593135e-07
2.3213095e-06,1.6437202e-06,3.4817454e-06,3.6314503e-07,8.5025626e-08
7.669741e-06,1.1924311e-06,5.464032e-06,8.955019e-07,8.893249e-09
9.171592e-06,5.0539234e-07,8.17822e-07,1.1986486e-05,1.8626419e-06
1.4602446e-06,4.6326667e-07,3.7681302e-06,0.0038746477,1.4471607e-06
1.582799e-06,1.0657999e-06,4.912261e-07,0.054485306,2.2285374e-06
1.8206472e-06,8.417176e-07,2.4428252e-06,0.07075842,4.107248e-07
2.4758624e-06,3.6864683e-06,1.4748183e-06,2.885592e-06,0.0033910165
9.2679966e-07,1.9075073e-06,1.1512124e-06,5.10169e-07,0.033219807
3.5760527e-06,2.5979477e-07,1.7207178e-06,1.7930855e-06,1.5527796e-06
1.1834369e-06,1.1872208e-08,6.988542e-07,1.6579793e-06,1.7005644e-06
1.402288e-06,6.984018e-07,6.935532e-06,3.1726734e-06,3.0574981e-06
2.803484e-07,4.5306926e-08,8.480436e-07,8.20758e-07,2.3132873e-06
3.7433888e-06,8.230514e-07,4.539888e-07,1.4240842e-07,1.6029187e-06
3.3419033e-06,5.465393e-08,6.290992e-07,7.3601444e-07,3.7076918e-06
4.1312155e-06,1.7680281e-07,1.5354015e-06,8.5364576e-07,8.078998e-08
4.89127e-06,1.5387341e-06,2.8840864e-06,2.033071e-06,5.305164e-07
3.2730695e-06,9.647709e-08,2.2415602e-06,1.631749e-06,5.533943e-07
1.1931152e-06,7.5204646e-08,1.1897131e-06,1.8908993e-06,1.8742091e-06
4.0148116e-06,9.657056e-07,1.0062408e-06,1.6987052e-06,1.2070311e-06
3.3562742e-07,1.05708605e-05,8.75237e-07,4.3044872e-07,9.083791e-07
4.2044693e-08,3.4260338e-06,6.49904e-07,1.0638624e-06,2.159596e-06
8.278514e-06,8.3199575e-07,7.993765e-07,1.1312447e-06,5.728315e-07
1.8677425e-05,3.8732026e-07,4.113623e-06,2.8144348e-07,1.7104608e-07
5.7325422e-05,2.862875e-07,1.3947055e-06,6.079556e-07,5.1963276e-08
7.2970935e-05,2.1925801e-07,2.0208469e-07,5.233413e-07,3.5584998e-07
1.0190984e-05,1.0143971e-06,7.4666605e-07,2.1471265e-06,8.911464e-07
3.909173e-06,1.8868195e-06,2.6630041e-06,6.0158413e-06,2.8182576e-06
2.0891357e-06,2.2287313e-06,2.4327276e-06,3.4676307e-06,1.7776534e-06
1.7146906e-06,0.021857807,1.1806853e-06,1.4223822e-06,4.289263e-06
2.4069361e-06,0.044841498,1.6585175e-06,1.7547281e-06,2.614512e-06
1.6681963e-06,0.0030801161,2.6087193e-06,2.0263737e-06,9.786314e-07
2.9998519e-06,6.142357e-07,2.6214768e-06,2.4762737e-06,1.7808329e-06
4.4899166e-06,1.4618217e-07,2.9285754e-06,2.8801182e-06,1.8757752e-06
1.5454931e-06,2.5006423e-07,6.3600453e-07,1.2331634e-07,1.4650963e-06
2.3861553e-06,1.7363279e-06,2.3286582e-08,9.908414e-07,9.529587e-07
6.940309e-07,5.688667e-06,5.086048e-07,3.2426487e-07,1.3404037e-06
3.9774637e-08,0.0,1.48387e-06,2.0765544e-06,1.1037814e-06
6.6796275e-07,0.0,3.3901385e-06,4.396907e-07,0.0
1.083496e-06,0.0,4.2607676e-06,2.9146834e-06,0.0
1.1880719e-06,0.0,7.303525e-07,2.8249956e-06,7.470127e-08
2.8187728e-09,0.0,3.489368e-06,1.3456082e-06,6.0611825e-07
3.5807173e-07,5.053946e-10,3.4369043e-06,2.779747e-07,1.1654455e-07
8.835609e-07,5.5293833e-07,2.42068e-07,4.223686e-07,1.2098478e-06
2.9110447e-07,1.5821182e-07,1.8323095e-07,7.616068e-07,2.6664625e-07
3.8008948e-06,5.855178e-07,1.1835573e-07,5.4568983e-07,2.4260053e-06
7.905521e-06,6.5172645e-07,9.5850275e-08,5.9308576e-07,3.2371108e-06
4.941148e-07,7.5974475e-07,7.468151e-07,9.91881e-08,2.7190092e-07
3.4414e-06,1.1078807e-06,9.208274e-06,4.213506e-07,1.6005227e-07
5.2040346e-06,4.4376102e-07,2.3358962e-05,4.0360005e-06,4.423908e-07
6.8417e-07,2.3549845e-07,1.380555e-05,5.9207414e-06,5.767156e-07
4.9833704e-07,4.5025467e-07,3.2834619e-06,3.0854194e-06,1.2649839e-06
1.500854e-06,1.6233092e-06,1.1582431e-06,1.4942118e-06,1.6584657e-06
1.2482176e-06,1.2065074e-06,8.7540457e-07,1.1454415e-06,1.1789448e-06
8.9627144e-07,4.03352e-06,2.36436e-07,6.491934e-07,2.620878e-07
9.2200236e-07,4.382577e-06,7.5058955e-07,1.877314e-06,4.8950426e-07
1.2435579e-06,1.2156273e-06,8.8578844e-07,1.4259638e-06,8.003384e-07
1.3127573e-06,4.1279227e-06,2.9390305e-06,3.5206479e-06,4.6862854e-07
1.5227724e-06,6.280567e-07,2.8056604e-06,2.5390361e-06,2.1083305e-07
1.8148471e-06,0.0,6.347318e-06,1.5808288e-06,0.0
4.069667e-06,0.0,7.2569196e-07,4.7901526e-06,0.0
1.1060276e-07,0.0,1.03448565e-05,1.5127008e-06,0.0
2.2101982e-09,0.0,2.3008693e-06,6.993479e-07,0.0
0.0,0.0,2.499516e-07,2.270223e-06,0.0
0.0,0.0,1.4258358e-05,5.338505e-06,0.0
3.646577e-07,0.0,2.4413632e-05,2.6537728e-06,0.0
0.0,0.0,1.1659249e-08,3.6012207e-08,0.0
0.0,0.0,7.232817e-08,1.7361247e-08,0.0
0.0,0.0,0.0,4.0681742e-09,0.0
0.0,5.691266e-07,0.0,0.0,0.0
0.0,1.08114506e-07,0.0,0.0,0.0
0.0,5.6740273e-06,0.0,0.0,2.3369537e-08
2.9113561e-08,7.651824e-07,0.0,0.0,5.444798e-06
5.877845e-07,3.713842e-05,0.0,0.0,2.4674135e-05
4.6949705e-11,2.1447133e-05,0.0,0.0,2.5586554e-05
9.9420774e-08,2.7015955e-07,0.0,0.0,4.1824373e-05
1.5730187e-08,2.1894124e-05,0.0,0.0,4.4549346e-05
1.4014814e-08,4.7831174e-05,0.0,0.0,1.3940732e-05
9.305663e-05,2.9103664e-06,2.3251434e-11,0.0,5.7130393e-07
4.9205937e-06,0.9146799,0.0,0.0,1.285332e-05
5.77722e-06,3.1868276e-05,0.0,0.0,4.814907e-06
0.00012289557,2.6233658e-05,0.0,0.0,1.2320668e-05
0.00500315,1.1090658e-05,6.267521e-10,6.1083654e-09,4.303665e-05
6.608982e-05,3.6877984e-06,3.6100045e-07,9.460977e-07,2.4993307e-05
1.49189955e-05,3.5396818e-06,1.8652529e-06,1.993929e-06,4.3854652e-05
1.0881238e-06,3.2979078e-06,7.1986306e-06,1.1533988e-06,8.102356e-06
2.333385e-06,1.7261827e-07,7.4616673e-06,6.098432e-07,1.0453597e-05
2.0297813e-07,1.5327865e-06,1.408976e-05,7.008377e-08,2.4817425e-06
7.035201e-07,4.1298346e-08,2.881843e-05,6.69515e-06,1.1337359e-06
0.0,2.049289e-07,0.00012684808,1.5704773e-06,2.6412104e-06
1.1827446e-10,1.2180137e-06,1.2570513e-05,2.007333e-08,6.301182e-08
1.3368691e-07,4.3079012e-06,3.1205927e-05,1.4421087e-05,3.081288e-07
3.1802523e-07,1.9569534e-05,2.1671744e-06,0.00018597262,2.0646776e-06
0.0,4.2856725e-05,1.1265864e-05,1.8188921e-06,2.0130845e-05
0.0,1.3813766e-05,2.5519883e-05,2.2030454e-06,7.906646e-06
0.0,2.1917265e-06,4.467945e-07,3.4621104e-07,2.062766e-05
4.0205014e-10,1.1759441e-07,4.5310395e-07,4.181536e-06,2.7042743e-05
1.9226741e-07,7.540554e-05,8.746603e-08,1.4706751e-06,9.259559e-06
2.2620113e-06,0.00018957724,2.70882e-07,6.530347e-06,4.8229456e-05
2.0394916e-06,1.3262317e-06,1.3506084e-07,0.00010276681,1.8805969e-06
1.6686974e-05,2.4288292e-06,5.8219193e-08,2.968456e-05,1.11821455e-05
1.0332377e-06,1.5820654e-06,5.079131e-06,6.697579e-07,1.5709713e-07
1.3637379e-06,6.011292e-06,5.739757e-06,1.2611085e-08,5.4010484e-06
7.09086e-07,6.2784334e-06,2.6223146e-05,4.1406392e-07,6.586502e-05
4.096088e-06,5.437468e-05,9.301099e-07,1.1453461e-06,0.00012550733
1.4418596e-06,2.698605e-06,1.8559875e-06,2.9930816e-05,4.4548865e-06
2.1887772e-06,8.967204e-06,0.010355983,8.782094e-07,4.841109e-06
9.512284e-06,8.087094e-06,0.0132590495,2.4180329e-06,1.7644694e-05
1.9670251e-06,8.371682e-05,8.861907e-07,3.8085348e-06,0.000116864045
9.508328e-07,5.9178485e-05,6.918937e-05,8.695002e-06,0.027025819
1.0153208e-05,2.3301363e-05,1.2719563e-05,1.5039275e-06,4.1630124e-06
2.0084844e-06,6.4049896e-06,9.426231e-07,1.4218768e-05,6.650818e-07
0.22421937,4.2971596e-06,3.907354e-06,1.2485847e-06,5.000561e-07
9.575616e-07,9.56863e-07,7.711796e-07,2.6367172e-07,1.8964918e-06
7.2996903e-07,2.7355582e-06,7.074445e-07,1.7892911e-07,3.257215e-06
1.2684059e-07,5.6520514e-07,8.555148e-06,5.0818056e-07,5.278273e-06
6.6467856e-06,1.7196172e-06,4.767145e-06,2.401226e-07,2.1408548e-06
4.1742427e-05,1.0503398e-06,2.7031017e-06,3.711921e-07,3.9519173e-06
2.8515956e-06,5.3419553e-06,2.2714462e-06,1.8125984e-05,2.7212302e-06
2.2182808e-06,6.439056e-06,9.39941e-07,2.5329808e-05,3.2227018e-07
1.4046773e-07,5.0357885e-06,2.2299528e-06,5.406143e-07,6.9472065e-08
1.2381636e-06,2.799279e-06,1.0312446e-06,9.083598e-08,2.6557334e-08
4.1146777e-07,8.818244e-07,2.1440267e-06,6.610477e-08,4.469515e-06
1.0337845e-06,1.0520338e-06,5.6448125e-06,5.2577562e-08,2.2718853e-06
1.016608e-06,1.3697633e-06,2.948725e-06,2.2737659e-06,9.852483e-07
1.7653877e-06,1.5194269e-06,1.1540413e-06,2.7489684e-06,3.3443226e-07
1.6191343e-06,3.8748144e-07,1.2443566e-06,2.0943958e-06,2.1836813e-06
8.150025e-07,1.3841475e-07,8.93592e-07,1.0833596e-05,2.747243e-06
4.732168e-06,1.8303103e-07,7.9983215e-07,6.6125085e-07,1.9614429e-06
6.9898174e-06,4.9588785e-08,12.502399,0.18672311,1.3766647e-06
8.6076847e-07,0.0,0.04424062,46.952744,1.5227555e-06
0.23002777,1.1664079e-08,8.205523,37.95142,2.3564985e-06
8.244297e-07,2.5371207e-06,0.23594636,3.736446e-06,3.8490953e-06
2.1744984e-06,2.2005368e-05,3.2011163,6.6407576,2.3615896e-05
3.2035614e-06,8.914156e-06,3.3764782,0.040114373,5.9088848e-06
6.2410174e-07,8.3273557e-07,0.038515262,5.3464237e-06,2.6700704e-06
1.6150815e-06,1.4482539e-07,3.7832658e-06,5.334149e-06,3.9856448e-07
8.147426e-06,3.1620946e-06,2.80134e-06,4.6269297e-06,7.3778406e-06
4.737252e-06,6.152874e-06,2.5817667e-06,2.572399e-06,7.920446e-07
3.0851775e-06,7.973339e-07,5.967379e-06,3.6615722e-06,4.962932e-06
3.6738093e-06,3.3301176e-06,1.1053799e-05,1.7990435e-05,2.1236935e-06
9.348434e-06,5.7807192e-08,6.9374073e-06,1.2927575e-06,3.7994022e-07
7.209453e-06,2.3672818e-07,0.0009621384,6.4648367e-07,2.4542632e-07
2.9080971e-05,6.704069e-07,0.0003932497,1.8454656e-07,6.799448e-07
0.00018142456,4.7410825e-07,3.7621478e-06,4.4972003e-06,3.7663523e-07
1.6706832e-05,1.7362495e-06,2.721392e-05,4.070142e-06,2.733973e-07
4.5556502e-05,9.220151e-07,1.6139757e-05,2.7384006e-06,1.1152658e-06
6.4946794e-06,1.348179e-06,7.194469e-06,1.7032987e-06,5.709e-07
6.8308134e-07,2.3185096e-07,9.1988096e-07,7.408705e-07,6.3687713e-07
1.1678549e-06,4.493053e-07,1.4312546e-06,1.1226674e-06,1.6686197e-06
2.7896394e-07,1.045224e-06,1.290979e-06,7.3314646e-07,2.5515862e-06
2.0708565e-06,2.1853048e-06,1.1726638e-06,1.4442732e-07,4.7815905e-07
0.0018794924,6.4958704e-07,1.5905961e-06,1.1123836e-06,1.649948e-06
11.055215,4.316524e-06,1.2038899e-07,0.0016225188,1.4008366e-06
8.443059,9.748618e-07,2.7059475e-06,26.220015,1.38193e-06
6.169135e-05,5.4020444e-07,3.0989528e-07,0.01325926,1.0348899e-06
0.35052496,2.5026515e-07,3.0039013e-07,3.6313395e-07,1.0553558e-06
19.04131,2.6535716e-07,1.3003544e-06,1.13321754e-07,2.6079751e-06
0.00012113784,5.269374e-07,10.034379,3.0428714e-07,2.0397047e-07
1.4476074e-06,2.9816113e-06,5.158728,1.4876853e-06,2.6747963e-07
1.1567704e-06,1.1114348e-06,1.5754775e-05,1.4956983e-06,5.6496685e-07
6.380438e-07,8.208807e-06,8.069628e-06,1.5872138e-06,4.3045432e-07
6.0088456e-07,1.9649822e-05,3.0566192e-05,2.1668334e-06,3.4127345e-06
2.1821123e-07,2.3853293e-08,4.3278586e-05,2.9026467e-07,6.47729e-06
3.9050406e-07,5.7368347e-08,1.3423169e-08,6.651256e-07,3.7371936e-07
3.264933e-06,6.2508934e-07,4.6413955e-08,6.11462e-06,6.643713e-08
1.2859193e-06,2.2225524e-06,1.8817708e-07,1.623536e-05,4.792672e-07
7.8470765e-07,3.498027e-07,3.2268395e-07,5.565067e-06,1.2925955e-06
9.517577e-05,5.70064e-08,1.2271191e-07,9.7318725e-06,3.0676907e-07
7.742892e-05,4.5616895e-07,4.5297924e-08,9.700502e-06,5.632603e-06
1.1715613e-05,4.3006253e-07,2.5564143e-06,1.17710755e-07,5.793693e-07
8.499663e-06,3.996822e-07,2.0474793e-07,1.3291373e-06,1.2314479e-06
2.0010407e-06,3.9504343e-07,2.535883e-06,4.559624e-07,7.865596e-07
1.6308992e-06,4.7008797e-07,1.6812384e-06,8.833151e-07,2.5275205e-07
2.9973983e-06,5.6221876e-07,0.0011098518,1.3185328e-06,1.5904528e-06
1.023489e-06,1.1399846e-06,0.031999942,2.1497974e-06,3.1167585e-07
2.3067487e-06,4.4975442e-07,0.005064756,2.0231328e-06,1.2462076e-06
0.0001754064,1.8843798e-06,9.834682e-07,2.0837572e-06,1.1754438e-06
0.00052012014,1.0130314e-06,1.6019012e-06,8.315646e-07,1.1713198e-06
0.086485595,1.1659622e-06,0.12992834,0.02335165,6.7190246e-07
0.2511547,2.2281824e-06,8.3106575,0.31148365,6.573692e-07
7.983416e-08,1.1794551e-05,0.6378632,0.6387286,1.2312432e-06
7.1302986e-07,1.05304e-06,0.5518401,2.495519e-06,8.2919394e-07
1.5608292e-06,0.0003848864,0.03428931,1.1437928e-06,6.18148e-07
8.528486e-07,0.00017691006,6.512676e-06,1.011053e-06,6.837105e-05
0.05787736,5.213201e-07,1.1794717e-06,6.478207e-07,4.5758603e-05
0.024091195,1.5322759e-06,6.9342826e-07,8.738657e-08,1.505235e-07
3.906067e-06,2.3663928e-07,1.510728e-06,1.178401e-07,4.5118853e-07
6.3227645e-07,2.0172035e-07,5.854227e-08,4.383557e-06,1.8972374e-08
3.6962703e-08,3.8904068e-07,1.391528e-07,2.1566807e-08,2.0947557e-08
1.4093018e-07,1.0777834e-06,1.1873392e-07,2.0125546e-07,6.95278e-07
1.469206e-05,5.7600903e-07,2.460644e-06,2.0536147e-07,5.130167e-08
3.5855336e-08,1.3661676e-08,1.8202038e-06,6.508906e-07,1.7530101e-06
0.118081175,9.8046684e-08,1.07086905e-07,1.3114044e-06,2.745712e-07
2.3102484,2.7153308e-07,3.417278e-08,2.0963756e-07,2.933252e-07
0.019027608,1.8816854e-06,5.2637184e-08,3.3238948e-08,8.972741e-08
1.5387149e-06,2.2727954e-06,5.471511e-07,1.6265744e-06,3.445259e-08
3.2066515e-07,1.0832692e-06,6.37271e-07,3.150978e-06,2.4844815e-07
4.989921e-08,5.1742527e-06,1.7245932e-07,1.8276156e-06,2.324858e-06
5.04837e-06,2.1051066e-07,7.883496e-07,5.750315e-07,1.4055007e-06
7.2657593e-07,6.7702007e-07,3.8535464e-07,6.753224e-07,0.0033724778
2.9564706e-07,3.9928761e-07,0.13934809,0.006881131,4.6003547e-06
2.3617233e-07,6.9457656e-07,6.7561973e-06,0.7573552,2.2895604e-06
3.1069985e-07,1.5777622e-06,1.1613182e-06,0.01565561,1.9192078e-06
3.826428e-07,4.2871043e-06,1.8246704e-06,5.369842e-07,9.952819e-08
0.085179575,3.037239e-07,2.1190137e-07,3.246509e-07,1.7064664e-07
0.0024738214,1.3455345e-07,3.8618527e-06,5.5813225e-06,1.3210641e-06
2.2024965e-07,9.308523e-06,9.961078e-06,1.4715e-06,2.1719886e-06
8.6855935e-06,5.133717e-06,2.2655684e-06,2.8030247e-06,4.288842e-06
5.4141543e-07,8.662013e-05,1.3589249e-07,9.467125e-08,1.0649123e-06
9.083969e-08,1.0324314e-05,6.9640855e-08,2.0656548e-06,3.7952125e-07
1.8308413e-06,2.7432213e-06,2.363024e-07,6.289172e-06,9.291227e-07
1.9088911e-06,1.7868367e-06,4.7474035e-07,2.7542957e-05,8.8033785e-06
4.2059082e-07,1.0647958e-06,4.4586127e-06,2.5838932e-05,1.18508076e-07
2.6873866e-07,2.6445653e-06,1.4657218e-07,8.276763e-06,0.0
1.1068847e-07,3.0463789e-06,7.557926e-08,2.9926955e-08,0.0
1.528762e-08,9.82318e-07,7.817216e-07,1.5445792e-08,0.0
1.1189842e-06,4.511721e-07,6.9186704e-06,1.93771e-08,4.9780216e-09
5.736061e-06,5.648299e-07,3.3477309e-06,5.1784053e-07,3.5364926e-07
2.8594998e-08,7.167038e-07,1.9273185e-07,5.753257e-07,3.9819747e-07
8.3602544e-08,1.204092e-06,4.1329787e-07,8.4524416e-08,7.5185636e-07
3.425384e-07,1.833216e-06,1.0751149e-07,6.610696e-07,1.6763707e-06
3.5589534e-07,2.4325416e-06,3.1143493e-06,4.831207e-08,2.7846997e-06
7.930069e-07,3.123628e-05,6.886121e-07,9.864573e-07,2.0365026e-06
3.384989e-05,4.276897e-06,7.8843226e-07,0.0037116471,3.0109563e-06
1.9303272,6.143529e-06,2.3503874e-07,11.864674,1.69149e-06
1.3136808,0.0,9.0188286e-07,3.7741435,1.8119226e-06
1.6361483e-06,0.0,0.025283914,18.010674,1.5127806e-06
0.0027123957,0.0,0.13201417,0.6244436,1.2595377e-06
1.812473e-05,4.6988592e-07,8.471062e-07,4.27048e-07,4.0284587e-07
9.497769e-06,1.031586e-07,1.4396909e-09,7.1001205e-06,1.7135184e-08
6.7055144e-06,8.464455e-08,6.873446e-10,0.030789768,2.0781171e-07
6.5386224e-08,1.1500949e-06,5.0352536e-08,6.24214e-07,4.4654385e-07
0.0,1.1084088e-06,1.7051934e-07,4.843018e-07,1.10382366e-07
0.0,1.1036904e-06,4.8924327e-09,2.9300565e-05,3.8081868e-07
0.0,2.9607236e-06,1.8769276e-08,9.986361e-07,7.4339823e-07
3.934195e-11,2.6690333e-08,4.460619e-08,7.512424e-07,3.110644e-08
1.558912e-07,1.1057426e-06,1.789576e-08,1.7094842e-06,2.2530068e-07
3.7600653e-08,2.2644521e-07,5.2251346e-07,4.731633e-07,4.1097937e-07
1.9803768e-08,8.523661e-07,1.6452555e-06,1.9548033e-07,2.04134e-06
1.9132247e-07,2.1715414e-07,2.9318032e-08,1.0619179e-08,6.2558274e-07
5.5050853e-09,5.8978078e-08,1.7693021e-06,5.403119e-07,0.19806047
2.718707e-07,1.1157831e-07,4.0557873e-07,5.494645e-06,1.45963e-07
5.4370935e-07,2.6447668e-07,6.074535e-07,1.8544118e-06,1.0852373e-07
2.2779231e-08,9.641602e-07,1.5584841e-06,8.017801e-07,3.9348026e-07
5.1529906e-07,1.2491489e-06,1.1279989e-06,7.443253e-07,0.21574253
5.3113615e-07,4.3598848e-07,2.7345334e-06,3.0942337e-07,1.0503067
5.6119416e-07,5.623079e-07,0.00033434137,0.13758677,1.511098e-06
1.2534678e-06,2.9742247e-07,0.012320852,12.078972,2.1485475e-06
1.1315436,2.8997155e-07,4.499964,0.001450324,2.8170749e-07
0.09160838,2.7337975e-07,5.70939,1.3485021e-06,7.924154e-09
6.6220707e-07,2.9917093e-11,1.655122,7.708485e-07,1.454311e-06
0.00031281167,1.7739076e-06,3.631442e-06,1.9206625e-07,1.4153073e-06
4.7056707e-05,1.0285432e-06,4.3217094e-07,2.8814459e-06,1.2329094e-06
1.759873e-06,3.9473065e-08,3.8846974e-07,1.9175516e-06,7.536145e-07
1.4268642e-06,1.2503803e-06,6.119251e-08,2.0685613e-07,4.2783756e-07
7.540947e-07,4.3777717e-07,3.5184732e-07,9.120102e-07,1.4171458e-06
1.2451156e-06,2.2479664e-07,8.963826e-07,4.8578687e-07,5.715657e-07
4.3258362e-07,1.5832055e-06,1.15992705e-07,2.0511638e-07,9.255053e-06
2.6500354e-07,1.3916256e-06,2.0518947e-07,4.145877e-07,2.2642619e-06
5.7852213e-07,1.1379573e-05,8.233385e-08,5.41621e-07,9.368552e-06
2.1969536e-06,5.236843e-07,1.0371389e-07,1.992482e-07,7.977609e-07
2.4849708e-06,4.0636382e-06,1.1070518e-07,2.7000286e-07,6.615407e-07
1.1580951e-06,3.6222892e-07,1.7978017e-08,3.27617e-08,7.371996e-07
2.108056e-07,1.344599e-06,1.03985236e-07,1.2713872e-07,4.224896e-07
9.851877e-07,2.283362e-06,2.0206336e-07,5.5059735e-07,1.0246386e-06
1.03158335e-07,7.0253816e-07,6.292164e-07,1.0554434e-06,1.3773318e-06
5.8943704e-07,7.9158315e-07,6.9729396e-07,1.6314186e-06,2.118364e-06
6.6911315e-07,1.537739e-07,1.4110307e-06,1.023047e-06,2.0301964e-06
3.0083737e-07,2.6905961e-06,6.0615645e-07,2.0368761e-06,1.9068581e-06
2.0278915e-06,6.7310134e-07,23.491854,0.08879499,2.0734049e-05
2.5255988e-06,1.5573038e-06,3.1743915,0.27150163,0.044196237
3.6272624,6.5707667e-07,0.021616807,3.0299268,0.013213088
0.2690719,9.2844255e-07,3.453732e-08,4.0494623,8.1077495e-05
3.373144e-07,4.889985e-07,2.2714867e-07,8.0053425,0.000848068
3.6806566e-07,1.0835298e-06,0.13260025,1.771425e-06,7.442996e-07
1.0837105e-06,1.4754207e-06,0.0011501537,1.3503213e-05,4.975906e-07
7.9852356e-08,1.4442044e-06,0.004977388,5.69067e-06,1.0853085e-07
1.3866231e-06,6.1150644e-07,3.3956786e-07,1.706651e-09,1.7792362e-06
2.9896478e-06,1.8036951e-07,2.453118e-10,2.0967215e-09,2.9480796e-07
9.74172e-08,1.6525903e-06,3.622544e-08,1.5391224e-07,3.6377253e-07
2.0272685e-06,7.294721e-07,1.8477709e-06,5.083952e-07,1.1762849e-06
6.3552946e-08,1.7330258e-07,2.6062025e-06,2.0258106e-08,7.3105593e-07
7.7006725e-06,6.398291e-08,1.6082586e-06,7.5115935e-08,2.0579596e-07
2.4031836e-08,4.3328296e-08,9.724165e-09,7.838496e-07,9.709873e-07
2.3626495e-07,3.4723396e-07,5.2904145e-08,3.891534e-08,7.51681e-07
4.5889067e-07,2.9226595e-07,3.1734052e-07,2.7168355e-08,4.354265e-07
2.0300852e-06,1.7027666e-06,7.4276734e-08,0.0,1.6887809e-06
4.431074e-06,4.3507637e-07,2.3069954e-07,3.5724867e-08,4.5521526e-07
1.4234435e-06,0.11419582,4.2408692e-07,1.7026355e-06,5.5594444e-07
9.0031693e-07,1.5408677,9.9993835e-09,1.9922511e-07,0.0012210676
2.8341373e-07,0.23084891,6.9283594e-08,0.0,0.6710457
1.3915117e-05,2.7028866,1.0349861e-07,2.3412225e-08,2.4817958
5.756984e-06,5.269734,4.699328e-06,6.8407545e-08,3.5432136
1.4873344e-06,0.94179285,3.756371e-07,2.4072108e-07,0.8917841
5.045863e-06,5.7052207,2.9966038e-06,2.7681145e-07,1.8764206
0.0009981744,3.012634,8.8913986e-08,1.2387408e-06,0.23558098
1.123886e-05,6.0870605e-07,1.4014172e-05,6.548878e-07,4.2297756e-07
6.7497817e-06,1.4534204e-07,1.8752762e-07,4.8485407e-07,7.765056e-07
0.0004974105,9.5020823e-07,2.832505e-06,6.694658e-07,8.88469e-07
0.00011101916,0.09775578,5.8573164e-06,5.912736e-07,3.0078408e-07
0.38577056,0.022156449,7.007694e-07,1.5194022e-06,1.8943088e-06
0.14684063,2.1700284e-06,1.0424662e-07,4.306341e-07,4.265428e-06
7.315831e-06,9.609962e-07,3.0139847e-06,1.6534584e-07,0.00017194777
0.00052963145,9.851254e-06,4.5976176e-06,6.49961e-07,1.1591933e-06
0.032161314,2.9098106e-05,1.652682e-05,9.380525e-06,1.2837666e-06
3.3877506,7.805712e-07,1.6903523e-06,3.492302e-07,1.7064654e-05
1.2698702,1.2249671e-07,2.6243583e-07,0.0,1.1542329e-05
2.6407871,2.0204165e-05,3.0623532e-06,2.8760552e-10,8.0034135e-07
