"[299, 255]","[227, 248]","[287, 319]","[279, 328]","[230, 262]"
0.3613644,1.2903707e-06,0.12663135,0.003842221,1.1557747e-05
0.25319427,2.8067182e-06,0.08453567,0.026044786,0.00015585034
0.16079319,1.2845034e-06,0.112619594,0.028483305,0.0021600472
0.12694252,6.2956824e-05,0.22047481,0.02597856,0.008860479
0.09876722,0.013829114,0.1565825,0.023703827,0.38071698
0.07828202,0.05835242,0.074161455,0.020702362,1.1227932
0.24461643,0.032192647,0.058871068,0.03168851,0.31721893
0.18623883,0.064950846,0.03330486,0.04071623,0.5384439
0.0827642,0.67260617,0.02083697,0.037132137,0.014188112
0.058565117,0.11598219,0.013358878,0.035364617,0.00087175437
0.012372621,0.014009986,0.00425481,0.014857639,0.00016736735
0.0009863166,0.0047582085,2.9342089e-06,0.0001253854,1.2850792e-05
2.3495577e-06,0.00015138461,1.3860546e-06,1.3767785e-06,3.773328e-06
1.6496259e-06,1.9678057e-06,1.2486639e-06,1.3374296e-06,8.650467e-06
9.023544e-07,1.2226154e-05,7.444074e-07,1.4444117e-06,4.6014425e-06
2.086477e-07,5.4035485e-07,1.6129782e-06,3.2986545e-06,6.3170796e-07
9.3645474e-07,1.9776073e-06,2.5853412e-06,2.565442e-06,1.6918615e-06
4.5132543e-07,2.209979e-06,2.4643882e-07,1.4774052e-06,1.076078e-06
4.4673516e-07,5.534031e-06,7.8092876e-07,6.545001e-07,4.393069e-06
3.8578335e-07,4.0299233e-07,1.6175198e-07,1.0468669e-06,1.6132835e-05
1.8794885e-06,3.991192e-06,1.3627894e-06,4.4642907e-06,4.987065e-05
2.9416694e-06,1.8776982e-06,2.3519351e-05,2.9136183e-06,0.0014753775
0.0002495491,1.2157044e-06,0.00032285237,4.509128e-06,0.0031004825
0.00017941574,3.4557308e-06,4.713982e-06,1.0643454e-06,0.0062346812
0.00054359506,2.09381e-05,0.00798159,5.739683e-07,0.006670735
0.00014731075,0.00014438923,0.0037450748,3.149489e-07,0.004512723
9.521668e-05,2.2582237e-06,5.681016e-07,3.4255136e-06,0.004426095
2.2263426e-05,5.0094786e-06,1.640529e-05,0.0025607783,0.0023055307
0.00017804801,1.4564532e-07,1.2197763e-06,0.014038536,0.00022044791
0.0002990917,1.656477e-08,2.6439508e-05,0.009476041,0.000768172
7.520356e-05,2.8652153e-07,0.00039239685,0.0046202857,0.0037453752
9.506323e-06,3.8545504e-06,3.8129136e-05,0.0012785508,3.9754967e-05
8.2168435e-06,1.4220095e-06,6.171392e-06,8.2650195e-06,1.1197122e-05
1.4289011e-05,9.0166924e-07,1.6116314e-06,1.5913788e-06,1.1348015e-05
0.0029855715,2.1809397e-07,2.4467888e-06,1.7854597e-06,1.9735166e-06
0.0075790333,1.5788306e-08,1.3644087e-06,1.4562033e-06,1.67099e-06
0.0012615895,3.558047e-08,0.14555988,1.1778078e-06,5.293295e-07
8.596521e-05,5.1447477e-09,0.21954224,2.529691e-06,1.4308598e-06
1.4005478e-07,0.0,4.6035584e-06,3.575973e-06,1.852553e-06
8.9799096e-07,0.0,9.541756e-06,2.233428e-06,1.8897947e-06
2.1239582e-06,0.0,2.4238007e-06,1.3049477e-06,1.3045458e-06
7.2471476e-06,0.0,4.4661774e-06,2.3318592e-06,1.607908e-06
9.8870984e-08,0.0,4.2631227e-06,4.7584012e-06,7.443976e-06
1.6926072e-07,2.1921792e-07,2.5710593e-08,4.4189314e-06,3.3825338e-06
9.647862e-09,6.083701e-06,3.3992908e-06,8.86248e-06,1.9658214e-07
9.032437e-08,1.5615417e-06,8.9926715e-07,1.2794729e-05,2.6409734e-06
7.204006e-07,2.5451066e-06,1.1692202e-06,3.7009602e-05,1.6730488e-05
3.8882573e-07,1.0433987e-05,2.6340537e-08,6.368675e-07,1.0485364e-06
6.8734937e-07,1.5441385e-07,0.0,2.1687404e-07,4.8058255e-09
2.9755356e-06,5.726306e-06,1.4042377e-07,3.0582802e-07,1.4628941e-06
1.537094e-06,1.1597697e-05,4.9105074e-07,1.13534455e-07,1.4358342e-06
3.5597473e-06,3.526816e-08,3.4791803e-08,0.0,3.1563413e-06
3.3679902e-07,1.016958e-06,5.0731312e-09,0.0,2.6337737e-05
0.0,1.4202614e-05,2.443312e-08,1.1273714e-08,1.3085946e-05
0.0,1.323575e-05,3.54233e-08,4.6817684e-07,5.513234e-07
0.0,1.0898051e-05,0.0,1.4790471e-07,2.999851e-05
0.0,6.5243294e-05,0.0,4.9946436e-10,1.9935283e-06
0.0,0.15486337,0.0,4.8575995e-08,1.0981373e-06
0.0,1.5030249,0.0,1.967886e-08,3.654657e-07
0.0,0.10214668,0.0,0.0,2.347405e-06
0.0,4.0544513e-05,0.0,0.0,5.0213055e-07
0.0,3.9166733e-07,0.0,8.8137476e-08,3.0263686e-06
0.0,5.2792217e-07,0.0,2.2376396e-06,1.9849554e-06
0.0,5.172367e-07,0.0,1.4791905e-06,2.2955758e-06
0.0,1.2028802e-05,0.0,5.334997e-11,1.9190818e-06
0.0,1.1909368e-06,0.0,0.0,8.369195e-07
0.0,2.4400669e-07,0.0,2.1875059e-07,6.111618e-07
0.0,1.1742884e-07,0.0,1.4966327e-05,1.1634347e-06
0.0,9.183868e-08,0.0,9.588186e-07,1.1854375e-07
0.0,3.4724028e-08,0.0,0.0,7.66937e-09
0.0,0.0,0.0,0.0,0.0
0.0,0.0,0.0,0.0,0.0
0.0,0.0,0.0,0.0,0.0
0.0,0.0,0.0,0.0,0.0
0.0,0.0,0.0,0.0,0.0
0.0,0.0,0.0,0.0,0.0
0.0,0.0,0.0,0.0,0.0
0.0,0.0,0.0,0.0,0.0
0.0,0.0,0.0,0.0,0.0
0.0,0.0,0.0,0.0,0.0
0.0,0.0,0.0,0.0,0.0
0.0,0.0,0.0,0.0,0.0
0.0,0.0,0.0,0.0,0.0
0.0,0.0,0.0,0.0,0.0
0.0,0.0,0.0,0.0,0.0
0.0,0.0,0.0,0.0,0.0
0.0,0.0,0.0,0.0,0.0
2.665453e-10,0.0,0.0,1.513174e-07,0.0
0.0,0.0,0.0,4.205725e-06,0.0
0.0,0.0,0.0,0.0,0.0
0.0,0.0,0.0,0.0,0.0
0.0,0.0,0.0,0.0,0.0
0.0,0.0,0.0,0.0,0.0
0.0,0.0,0.0,0.0,0.0
0.0,0.0,0.0,0.0,0.0
0.0,0.0,0.0,0.0,0.0
0.0,0.0,0.0,0.0,0.0
0.0,0.0,0.0,0.0,0.0
0.0,0.0,0.0,0.0,0.0
0.0,0.0,0.0,0.0,0.0
0.0,0.0,0.0,0.0,0.0
0.0,0.0,0.0,0.0,0.0
0.0,0.0,0.0,0.0,0.0
0.0,0.0,0.0,0.0,0.0
0.0,0.0,0.0,0.0,0.0
0.0,0.0,0.0,0.0,0.0
0.0,0.0,0.0,0.0,0.0
0.0,0.0,0.0,0.0,0.0
0.0,0.0,8.3537277e-10,0.0,0.0
0.0,1.3144069e-08,3.588043e-07,1.2152003e-09,1.7537545e-08
0.0,1.759391e-06,0.0,3.0359922e-06,1.5409506e-06
0.0,1.7934068e-05,0.0,6.43838e-07,3.691567e-05
0.0,3.0825333e-05,0.0,2.531737e-07,0.00012204103
0.0,3.572759e-05,0.0,0.0,8.03648e-05
2.4015439e-09,6.51557e-05,4.2946446e-09,4.919502e-05,0.00018796597
3.689447e-08,2.8587223e-05,3.3386652e-06,0.00021227436,4.8555565e-05
2.4761238e-07,2.1438095e-06,6.8371164e-06,1.3406272e-05,1.6127065e-05
4.05286e-08,5.1352067e-10,5.502884e-06,8.7376364e-05,1.4259587e-07
8.851848e-06,0.0,1.4653738e-05,0.0001060153,0.0
9.4812085e-06,3.314386e-05,5.0550087e-05,0.0005012858,0.000106055784
0.0001365497,2.1127693e-05,4.1070187e-05,0.00035721704,3.5655166e-06
2.9524708e-05,1.6883252e-05,3.8147956e-09,6.9886184e-05,9.469647e-06
1.3874366e-06,1.9650523e-07,8.203436e-09,6.0001956e-05,7.130481e-05
0.0,0.00023727391,0.00030236115,3.4179143e-06,0.0004634046
0.0,0.00031485863,1.326705e-05,0.0002671128,0.0004907232
5.4956177e-09,0.0013577704,8.114505e-05,0.00063100376,0.00051738735
9.893732e-07,0.0003132197,0.000496114,0.00011412187,4.696507e-06
1.7042407e-06,0.0023261227,0.00028206114,1.8548362e-05,9.561159e-08
9.027204e-07,1.9277107e-07,0.00043648228,1.1636763e-07,1.00372795e-07
1.1671671e-05,7.925655e-08,9.0339076e-05,1.2444332e-08,1.8775888e-06
6.584759e-05,6.1158576e-06,6.6350185e-05,2.433434e-07,4.4911617e-06
1.5845177e-05,4.340135e-06,2.3794903e-06,3.1320774e-06,1.3163058e-06
0.000532141,1.6199139e-06,2.0979599e-07,1.9980682e-06,2.0175037e-06
0.00031694904,7.666432e-07,6.2507894e-08,2.8753486e-06,2.435567e-06
6.8646536e-05,1.8730786e-06,2.5786285e-06,1.9247884e-06,2.0351504e-06
1.8223209e-05,1.3841793e-07,1.1704801e-06,2.5680597e-06,4.064068e-07
1.5639708e-08,6.7528475e-07,1.9127888e-06,3.6799927e-06,5.223629e-06
0.0,2.0165537e-06,2.3407385e-06,4.83838e-07,6.5234424e-05
4.6946633e-09,6.306693e-05,1.2080272e-07,6.379243e-06,3.9659102e-05
6.171445e-05,7.3147494e-05,4.8299694e-06,9.139585e-07,4.11652e-06
7.985014e-05,2.5456919e-05,3.2997846e-07,3.1906487e-07,6.251179e-08
5.7719e-07,2.5923277e-10,1.4030815e-06,2.1718324e-06,0.0
2.130886e-06,0.0,3.8201238e-06,9.818955e-07,8.473e-08
7.494117e-07,0.0,2.6887284e-07,7.652104e-07,1.6755043e-07
2.6688969e-07,0.0,1.07605224e-07,1.4747787e-06,3.820883e-06
2.4815363e-06,1.4996463e-06,7.6107614e-07,1.3898787e-06,1.1618503e-06
2.8008792e-06,1.2711097e-06,2.1195688e-06,4.681984e-06,7.391854e-07
9.809872e-06,4.578161e-06,1.0472064e-06,4.467932e-06,1.717862e-06
5.650326e-07,1.9647189e-06,1.6052493e-06,9.1182665e-06,1.1175482e-06
6.59374e-07,2.289592e-06,1.7432033e-08,3.2473614e-05,1.6407608e-06
8.896549e-06,7.841113e-07,3.1394566e-07,3.016643e-08,2.2848537e-06
1.4925851e-05,1.07336376e-07,8.451581e-07,1.2601137e-07,2.3268078e-06
3.3920874e-06,2.9368775e-06,3.1217758e-07,4.176805e-07,4.715546e-06
3.1384934e-06,2.2743927e-06,6.6908035e-07,3.7906088e-07,1.2751912e-06
2.388829e-06,5.9309564e-06,2.161956e-06,4.7702925e-10,6.2492234e-08
2.130956e-06,1.9366415e-07,1.1533059e-06,1.01302765e-10,9.0014504e-07
1.52743e-06,1.3877567e-05,1.5606546e-06,5.167752e-10,2.403734e-07
1.1153172e-06,1.1891907e-06,3.1388656e-06,1.3981803e-07,1.6962324e-06
3.59883e-06,7.669513e-06,2.5915367e-07,2.7466766e-07,1.2970179e-07
1.4145459e-06,3.4547048e-07,5.5826167e-06,2.2817733e-06,3.0957273e-07
1.0663104e-10,0.0,1.207589e-05,0.0,0.0
1.4400053e-10,0.0,1.2978876e-06,0.0,0.0
2.1718167e-09,0.0,6.499211e-08,0.0,0.0
4.755289e-10,0.0,1.11306164e-07,0.0,0.0
3.1757357e-09,0.0,3.2454325e-10,0.0,0.0
1.455493e-10,0.0,7.0897124e-09,1.853672e-08,0.0
6.9765497e-07,0.0,4.129937e-08,3.337423e-07,0.0
4.5363439e-07,0.0,1.4653125e-07,2.4406907e-06,0.0
1.1903488e-07,0.0,9.934062e-08,1.3074799e-07,0.0
2.9428836e-07,0.0,2.1114632e-08,4.3054715e-08,0.0
1.6696977e-06,0.0,9.160463e-08,1.3922191e-08,0.0
4.9521062e-05,0.0,1.2396883e-06,3.6913843e-08,6.323968e-08
0.00046744413,5.508671e-08,3.278601e-06,3.406317e-07,2.2806793e-07
0.0041932664,1.0351396e-06,1.5952335e-06,1.3274786e-08,7.267805e-07
0.00075999624,9.572332e-07,2.7329927e-06,1.11554364e-07,1.4462568e-06
2.8645397e-06,1.4839068e-06,3.4506513e-06,1.08652884e-07,9.367121e-07
8.2913283e-07,2.8340276e-06,1.8828295e-06,1.0802634e-05,2.7777276e-06
1.6854864e-06,3.5381781e-06,1.183435e-06,1.6161194e-07,3.8696976e-06
4.127166e-06,1.145857e-06,2.485553e-06,4.563309e-06,6.6435115e-07
4.968865e-06,0.0,1.4807226e-05,1.4590731e-05,3.8883763e-07
2.1873626e-07,0.0,8.105139e-06,0.000104883635,2.6181246e-07
5.1127845e-05,0.0,5.614665e-05,5.2662228e-05,3.2557963e-07
5.06528e-07,0.0,2.302543e-05,4.8582195e-05,3.0471128e-07
7.5693526e-07,0.0,3.2798158e-05,5.8042027e-05,2.6871263e-09
1.0074032e-06,0.0,6.0091017e-05,1.5148055e-07,0.0
2.2643188e-05,0.0,2.1416224e-06,2.920441e-07,0.0
4.9885464e-05,0.0,0.0,0.0,0.0
3.7971117e-06,0.0,1.8864321e-09,1.6641719e-09,0.0
7.2232744e-08,0.0,5.1935636e-08,5.6413796e-07,0.0
8.085262e-07,0.0,4.4118897e-07,7.768117e-07,0.0
6.3993014e-07,0.0,3.7611204e-07,9.924867e-07,8.735063e-07
3.4396066e-06,0.0,1.0179128e-06,2.5135978e-06,1.0206456e-07
5.615371e-07,9.918644e-08,1.255661e-06,1.6302471e-06,2.9094094e-06
3.6995184e-06,1.7164007e-06,7.677958e-07,5.4740767e-06,2.1862688e-06
3.6188983e-06,1.5887614e-06,6.1227445e-07,7.9491696e-07,1.8533219e-06
4.544202e-07,2.7686413e-06,2.844417e-07,7.948148e-06,2.1306885e-06
4.59541e-06,1.6518106e-06,4.978855e-06,2.060132e-05,1.9627464e-06
1.5765567e-06,3.9360555e-07,4.391331e-07,4.629145e-06,1.7301512e-06
1.5819352e-05,3.1224422e-06,5.7615143e-06,2.3083166e-07,4.3683576e-06
5.2398204e-06,1.5269048e-06,8.21581e-06,8.772666e-06,1.5980954e-06
1.0531942e-06,2.1125047e-06,1.3812617e-06,9.839454e-07,1.4733068e-06
1.5223502e-06,1.4674525e-06,2.095362e-06,1.8056936e-06,9.2493724e-07
3.4151975e-07,1.8272877e-06,1.4315291e-06,3.0356448e-06,1.6193023e-06
1.5909961e-08,1.198494e-06,5.94972e-07,1.3461538e-06,2.602548e-06
0.0,9.577146e-07,1.954e-06,7.679901e-07,4.160301e-06
0.0,1.6202871e-06,1.2089635e-06,4.638113e-07,1.4729094e-06
0.0,1.4988847e-06,2.4630826e-06,2.1754893e-07,3.1462282e-06
0.0,1.3150182e-07,1.7568043e-06,4.891126e-06,6.051601e-07
0.0,8.243433e-07,1.239636e-07,1.1087825e-05,2.8172094e-06
0.0,1.4704781e-06,1.2536074e-06,7.3366966e-05,8.453829e-07
0.0,1.5966419e-06,3.5667915e-07,0.0,6.970657e-07
1.2695787e-06,1.3548741e-07,2.5227086e-05,0.0,2.591672e-07
2.125561e-06,1.0758568e-07,1.3226721e-06,0.0,4.4480873e-07
8.139025e-06,4.2800185e-08,3.0028065e-08,0.0,1.1171243e-06
1.6886577e-05,2.0927646e-07,3.534901e-05,2.5362628e-09,6.474361e-07
2.0846132e-06,6.932558e-08,2.1163353e-07,5.034628e-07,1.0709705e-06
2.3819023e-06,4.89231e-06,8.521098e-07,1.8418261e-06,5.201373e-07
8.076819e-07,1.4160909e-05,4.589189e-07,9.423863e-07,1.3895741e-06
3.060708e-05,4.44591e-06,2.7293568e-06,5.2300556e-06,1.1708455e-06
1.2958726e-05,3.7790362e-06,1.6990747e-05,1.2762638e-06,3.7519575e-07
0.00020159547,2.3674788e-06,2.410562e-06,2.1576334e-06,1.1488266e-06
0.00037832264,6.7485405e-07,2.2906729e-08,1.0481016e-06,5.222693e-07
1.1802009e-05,1.530442e-06,9.262818e-06,2.4767198e-06,1.7923421e-06
6.6418534e-06,8.8016554e-07,1.4824942e-06,1.5152913e-06,1.1040058e-06
1.0844122e-06,7.237544e-07,1.4986874e-06,1.1940965e-06,0.0024019377
1.7533413e-06,0.046988867,8.45103e-07,4.2351442e-07,3.6102026e-06
1.4631479e-06,1.6435536e-06,0.0,2.0237944e-06,1.8795467e-06
1.9432111e-06,1.5279034e-06,0.0,5.348637e-08,2.0271896e-06
1.3814723e-06,1.9852591e-06,0.0,2.4335964e-06,2.015155e-06
1.2235342e-05,1.008083e-06,2.3325233e-06,1.131494e-06,8.978193e-07
3.0798154e-05,1.0643149e-06,2.9674216e-06,2.6551727e-06,4.060338e-07
0.00014295596,0.0,4.067051e-06,2.6463863e-06,0.0
9.822172e-06,0.0,2.5000616e-06,2.8195723e-06,9.730441e-09
4.4734716e-06,1.0035884e-06,0.00093179883,0.0010366943,1.0316312e-05
4.0801588e-06,5.3034155e-06,0.113726385,0.13921553,3.802502e-05
8.868476e-07,6.5161835e-06,0.20048651,0.14185122,1.508412e-05
4.465541e-06,1.8023105e-06,0.1766843,0.068517685,9.0792116e-07
2.221903e-06,2.248168e-06,0.2251952,0.061300322,1.3134515e-05
0.012215906,2.1800724e-06,0.90427625,0.6518201,1.7048886e-05
0.14876108,9.2226776e-07,0.0003640747,8.9436406e-07,6.5103745e-06
0.20749445,1.0444481e-06,8.817355e-07,0.00073836965,0.000109099165
0.27734536,0.005120959,6.5440186e-06,4.946817e-06,0.019572532
0.0077481894,0.015580459,3.996089e-06,1.3867559e-05,0.10542865
4.846716e-06,0.0054532625,8.8790887e-07,3.8549806e-06,0.10363929
0.0008612566,3.0600804e-06,1.722759e-06,4.3899313e-06,0.0022378024
0.023442926,0.0008278544,4.730689e-07,8.1419086e-07,2.7811443e-06
0.047381423,6.0204223e-07,2.835552e-07,7.5570733e-06,9.773989e-06
0.03276894,0.0841486,7.136582e-07,4.000323e-05,2.2724746e-06
0.018984284,0.029039124,9.2342304e-07,3.996318e-06,0.13775624
0.0027946185,7.052887e-06,3.2165448e-07,2.7733067e-06,0.16012987
0.00479611,0.015702069,1.2134565e-06,8.8003105e-07,0.39043003
0.0009743382,0.008749404,4.015366e-07,5.2267255e-06,0.00032274774
0.00024705037,0.021320233,1.2343656e-06,2.246163e-06,1.3649602e-05
0.0012824987,0.048041407,3.1124068e-06,4.190366e-06,4.634643e-06
0.00024987053,0.0053459313,3.643274e-06,3.968494e-06,6.3451644e-06
9.722887e-05,0.004415959,1.6760877e-06,3.1913937e-06,6.8776167e-06
7.152391e-05,0.0062861755,2.3395107e-06,1.8713637e-06,6.742608e-07
1.1794054e-05,0.00076472556,2.7707807e-07,2.8116344e-06,1.1040172e-05
2.2951857e-05,0.0015751797,2.6978935e-07,2.7111315e-07,8.334078e-05
0.0060472456,6.481878e-05,1.1975079e-06,1.2708675e-07,0.0006785261
0.04615714,1.2901911e-05,1.2013448e-06,1.18426584e-07,0.0019379052
0.08425092,2.7566113e-05,2.7340485e-07,8.801968e-07,0.17638037
0.12652867,0.019084197,7.8536027e-07,2.7172018e-07,0.46279603
0.26436508,0.22741331,5.6870647e-08,3.7193593e-07,0.07946972
0.23849878,1.1543332,1.5097471e-06,9.008336e-07,0.0008906019
0.2538096,0.54350054,3.4602112e-07,2.7591173e-07,0.001689027
0.22572523,0.002517269,1.502224e-06,3.6757083e-07,0.0014545822
0.118983254,0.0063102064,4.0998657e-06,6.139116e-07,0.0028723034
0.0063165007,0.0006307795,3.972895e-06,1.731706e-06,0.0027444381
0.00042366522,1.4342174e-05,4.5867628e-06,3.0225149e-06,0.0005865065
5.6573113e-05,3.4954635e-05,2.334914e-06,4.732297e-06,0.00035340732
3.1269874e-06,9.34846e-06,7.629498e-07,2.2111942e-07,7.261516e-06
3.2430414e-06,4.21666e-06,8.924592e-07,9.6445265e-06,6.8126615e-06
1.0051707e-06,0.0009660868,9.0077566e-07,2.3041096e-06,0.05493184
1.8179546e-06,1.4224272e-06,1.4310551e-06,1.356519e-06,0.0017945906
1.7030659e-06,1.6157251e-06,2.6534983e-06,1.2908797e-06,2.1945239e-06
1.6791446e-06,1.5060634e-06,3.0017434e-06,1.924237e-06,2.750946e-06
2.3791818e-06,1.8041773e-06,4.06156e-07,3.149065e-06,1.4238695e-06
9.599535e-07,5.1584387e-08,2.075542e-06,1.8109849e-06,2.4887826e-05
1.2670688e-07,2.2441761e-06,4.1895696e-06,3.8773283e-06,6.888535e-06
3.720585e-06,4.8900245e-07,1.1534362e-06,2.5825907e-06,3.324187e-07
1.6397839e-06,1.9426775e-06,3.05632e-06,2.9882704e-06,3.54109e-07
1.911585e-06,2.7093683e-06,5.340662e-06,2.2314805e-06,1.6480968e-06
1.665443e-05,2.466203e-06,1.9337597e-06,4.7693366e-06,8.37889e-08
3.2947806e-10,2.3824144e-08,1.1515608e-06,2.2301913e-07,2.0706734e-07
5.89191e-07,3.8277815e-08,3.6445894e-07,9.157581e-08,5.624328e-07
1.5468033e-05,2.8273002e-06,8.537177e-07,0.05950867,5.95056e-07
1.5154597e-05,2.0457624e-06,0.0021343026,0.032829788,5.54556e-06
4.5609813e-06,3.124045e-05,0.039629392,7.584486e-07,5.943564e-06
8.254618e-07,1.07976475e-05,2.342202e-06,3.9457447e-07,2.3723742e-06
9.835931e-06,1.3423669e-06,7.359127e-07,2.864817e-07,8.2258515e-07
3.825393e-05,1.1880994e-06,4.5300018e-07,1.6312816e-06,5.7806374e-05
0.0013349825,2.4580033e-05,6.313423e-08,6.934575e-08,5.9675453e-06
0.00088182103,1.7060858e-05,3.2763882e-08,3.0344913e-07,5.6925987e-06
0.00026333655,2.070996e-06,1.05282744e-07,5.2421024e-07,6.627522e-07
1.5310268e-05,1.324464e-06,9.570064e-07,8.4229885e-07,1.4196904e-06
6.715767e-06,1.364138e-06,7.242536e-07,2.4783594e-06,1.1507157e-06
4.2076144e-06,5.1761646e-08,1.1950905e-06,1.5795373e-06,3.7241048e-07
1.9347053e-06,3.7772884e-06,1.571782e-06,1.8742408e-06,3.8754771e-07
1.0505674e-06,8.315281e-07,1.2415204e-06,4.4768863e-06,1.6496504e-08
8.4689026e-07,1.9897452e-06,0.0044265604,2.5446498e-06,7.1109037e-07
4.216906e-06,0.0012643246,1.5096093e-06,2.7499686e-06,6.981201e-07
3.755994e-06,2.305642e-06,8.303504e-07,4.6193145e-06,1.020118e-06
3.3162341e-06,4.943395e-07,1.1614355e-06,5.4737293e-06,3.1353904e-06
1.7431834e-06,3.3866106e-06,2.1717365e-06,2.3789698e-06,5.9881404e-06
4.3073283e-06,2.7347795e-07,7.3677063e-07,2.1254657e-06,6.0086893e-07
4.702253e-06,1.6511325e-07,1.9239233e-06,4.0357854e-06,8.054316e-07
3.5223245e-06,1.8721994e-06,1.3595342e-06,1.5906816e-06,2.4494936e-06
2.2076597e-06,1.546007e-07,1.0740118e-06,1.0723794e-06,5.0439326e-07
1.322252e-07,6.456128e-07,7.853101e-07,3.0525135e-07,5.731431e-07
4.800154e-07,1.0732216e-06,8.770678e-07,4.8274246e-06,1.1374918e-05
1.0633152e-07,2.4289064e-05,2.5782506e-07,7.520316e-07,4.5703187e-06
2.00145e-06,2.419185e-07,6.5495846e-07,1.5292146e-07,4.5883323e-07
9.8420205e-06,7.4442534e-07,1.3488221e-06,5.8947528e-08,1.2044836e-07
9.667312e-07,8.057557e-07,1.7681614e-06,8.824436e-07,7.791781e-07
1.8324989e-06,9.522008e-07,6.46398e-07,3.1876758e-07,3.775996e-06
5.674022e-07,3.2723852e-07,1.3875468e-06,2.127404e-07,1.5052906e-06
3.4624802e-06,2.3100724e-06,3.4000607e-07,1.3061981e-06,1.2714762e-06
2.0256825e-06,7.4100676e-06,5.7274565e-07,3.188187e-07,4.5605607e-06
1.4749814e-06,4.736811e-06,8.4478205e-07,1.221872e-06,2.5117197e-05
1.473988e-06,9.5757005e-06,7.114715e-07,7.2976337e-07,3.9124398e-06
1.3756671e-06,5.4506273e-07,2.3866542e-06,2.24782e-06,1.3282048e-06
2.836837e-06,2.8789074e-07,1.472856e-06,0.022336211,6.038844e-07
2.5998414e-05,0.13314188,0.33205917,0.35720474,2.2325444
0.041675273,9.0979364e-07,0.27583435,0.21501681,0.08278595
0.09973723,0.13374436,0.27500597,0.27462134,0.37642393
0.14692594,1.2161198e-06,0.038367674,0.04182744,1.1819056e-05
0.11379463,2.004985e-06,0.07696042,0.2407855,1.6737999e-06
3.8971882,1.7130917e-06,0.38897237,0.008708158,5.362863e-06
0.07765657,1.0594435,0.7005278,5.3388356e-07,3.5139778e-06
0.0011480821,1.3146436e-05,1.8984788e-06,7.1672787e-07,6.932667e-06
0.022912709,2.0944964e-07,4.8250836e-06,2.683329e-06,4.0188092e-07
0.25823364,0.16721572,6.190553e-09,1.1494973e-07,2.7799974e-06
1.2444292e-06,0.0033350734,0.0,0.0,6.6247475e-07
0.0023120225,1.4795586e-06,0.0,0.0,2.1004715e-07
0.0009930801,2.931482e-07,5.8319836e-07,0.0,4.238772e-06
4.354281e-06,1.4121982e-06,6.6406955e-07,5.103777e-07,3.2239723e-06
4.106917e-06,7.426066e-07,4.6546492e-07,0.00017403945,1.4455452e-06
7.47572e-07,2.4534158e-06,8.377172e-06,0.00031073164,4.2977672e-07
2.4779472e-06,6.2213576e-07,0.38547558,3.4795497e-07,1.2319213e-06
4.3211006e-07,2.322773e-06,0.0070505748,0.61313665,6.7640383e-07
0.009784532,2.2204824e-06,8.326852e-07,4.834711e-05,6.283061e-07
2.872572e-06,1.3737763e-06,0.935646,0.0068432456,1.6502095e-06
0.29430863,4.8617153,4.6288023e-06,6.733272e-07,0.00042676684
0.12183565,1.0522632e-06,1.7655448e-06,0.0004907338,7.1771944e-07
0.02910326,1.5854832e-06,1.2619411e-06,0.007446464,5.5960663e-07
0.27052036,1.613602e-06,5.54678e-07,7.6153236e-07,9.605369e-07
2.3640583,0.011440194,5.782066e-07,0.00018949831,1.4142679e-06
0.0024681592,0.20743707,0.35165632,3.5295215,8.5617023e-07
1.729956e-06,5.594802e-06,0.3438858,7.1537e-06,5.240409e-07
1.4166345e-06,1.2949685,5.2779922,7.665136e-07,2.7785818e-06
0.015282706,7.5817576e-07,0.011745155,1.7553853e-06,1.2133503e-06
0.6300814,2.5382913e-06,3.3898727e-06,9.1010656e-07,2.4605094e-06
0.00033661272,0.06186738,2.7926535e-06,2.9035823e-06,4.8715224e-06
1.7880664e-05,0.0011353095,2.7191718e-06,8.030405e-07,8.0290107e-07
4.91575e-07,1.6024094e-06,5.3500007e-06,7.1076706e-06,6.313386e-07
3.188222e-06,3.982812e-07,2.565693e-06,1.137868e-06,3.4720997e-06
4.0705586e-07,2.382928e-06,1.9750946e-06,6.516738e-07,1.6063719e-06
2.5311328e-07,1.2577003e-06,2.278436e-07,1.0956577e-06,1.2306543e-06
7.6658915e-05,2.2578388e-06,1.3898984e-06,1.1071202e-06,1.5899775e-06
2.7483127e-06,1.8251708e-06,1.0676387e-05,3.6231065e-06,1.3248819e-06
5.3871113e-06,2.21592e-06,1.2957356e-06,0.0,5.697214e-06
1.8868952e-05,2.6949867e-05,0.0,0.0,2.2983024e-06
1.1137561e-05,4.190308e-06,1.7463008e-09,6.8132084e-07,1.8616071e-06
3.974415e-06,2.8488438e-07,1.4325842e-06,1.072621e-06,7.8682314e-07
0.0,5.9914896e-06,2.5275579e-06,5.7280596e-07,3.7510295e-06
0.0,1.031565e-06,7.923669e-07,2.8768375e-07,1.8699726
4.4278018e-08,1.982453e-06,3.8362377e-06,1.7122306e-07,1.249213e-06
6.4119454e-06,1.879903e-06,1.0589652e-06,2.2716371e-07,1.3759685e-06
8.620589e-07,8.939737e-07,1.1376908e-06,3.423126e-07,1.7914374e-06
8.012741e-07,1.4311688e-06,7.0025458e-06,5.5329735e-07,1.5588394e-06
0.08422235,8.798469e-07,2.2991458e-06,2.062888e-06,1.6148616e-06
0.0069953613,0.0,2.2749696e-06,8.836639e-07,1.1535939e-06
1.207762e-05,2.0563771e-08,1.142929e-06,1.8193534e-06,5.2472853e-07
1.2259084e-06,4.9973337e-08,3.9383185e-06,2.2110814e-06,2.439532e-07
2.5404502e-06,8.662091e-07,8.6018235e-07,9.404976e-05,1.0130145e-06
2.056449e-07,1.4184635e-06,7.5568087e-06,7.301445e-05,1.0991049e-06
2.474215e-06,1.3884132e-06,1.717906e-06,3.4951502e-06,3.4745162e-06
0.013764074,6.817065e-07,3.2055e-07,0.06712579,0.0041869995
1.3914116e-06,3.499121e-06,4.123001e-06,2.9564612e-06,0.02873099
1.1630973e-06,6.7869296e-06,9.130928e-07,3.1915717e-06,3.0495228e-06
4.4999803e-07,1.1727038e-06,4.218736e-06,1.1320473e-06,8.913633e-07
3.4527022e-06,7.987961e-07,1.8636582e-06,2.9726678e-07,6.531582e-07
0.07772946,1.7177296e-06,2.4359235e-06,1.1362828e-07,2.90128e-06
0.7736624,1.5191956e-06,1.9046828e-06,4.459819e-06,1.5934519e-06
1.7528648e-05,7.597351e-07,4.935272e-06,4.7136637e-06,5.0640836e-07
4.930996e-07,2.1281703e-06,0.3956079,0.36151165,0.12720762
7.6559644e-07,4.50589e-06,7.9746485e-07,0.9144848,0.029242685
4.8701355e-07,4.2737497e-06,3.421932e-06,0.00615307,2.2786169e-06
2.4469396e-06,4.1123665e-05,0.19101466,0.33656606,0.10186944
0.0013947474,2.2171607,1.3060362,0.31681758,0.22006094
0.20376517,3.2010722,0.25699747,0.18212378,1.978897
7.437148e-06,2.415206,0.3947129,1.3085241,2.3010972
0.08301096,3.1979017,0.5842529,0.51941127,3.9259841
0.012858964,2.319973,2.5795977,2.0463815,1.8334925
0.0035776934,0.22354564,0.27628323,2.435584,0.17348339
0.5365897,0.013120594,0.04076447,0.8794168,0.08322249
2.2858877,7.3901e-07,0.05012545,0.16014664,0.012003582
1.2255889,7.603775e-07,0.02798526,0.06294842,0.04805217
1.1370852,0.010851493,0.010878436,0.13510011,0.030898033
1.8266792,1.22798e-06,0.06266042,0.19764675,0.4890951
0.85324687,0.032864943,0.07365896,0.23467532,0.00034238747
0.15822475,0.026186168,0.08044305,0.0025628833,3.9599075e-07
0.0005198653,3.569089e-07,0.024535036,0.0032375096,1.0630805e-06
0.00072950264,4.7181103e-07,0.011187244,0.005730974,3.7244479e-06
0.00088480656,6.527979e-07,0.0012638381,0.005264192,1.3781872e-06
0.00068520266,2.6709512e-07,5.2305546e-07,0.00031630162,3.9108677e-08
0.0007336546,6.6644975e-07,2.1101843e-07,2.3565832e-07,2.2096607e-07
0.0010543799,1.1354663e-06,4.415419e-05,1.9467784e-07,1.8361844e-06
0.00070723094,1.1225301e-06,0.0005396163,1.1168721e-06,1.0549873e-06
0.018263297,0.22259453,0.14611955,0.14558683,0.38192183
0.18032429,0.0014389184,0.03786011,0.49582744,0.5813186
0.10925007,0.05735505,0.000797527,0.5952187,0.42707545
0.28100836,1.1531049e-05,0.105971135,0.19211026,3.8522794e-05
0.5789343,7.7360056e-07,0.00085674523,0.08165944,0.034741584
0.7124806,9.912003e-07,4.3730913e-07,0.14661805,4.0689083e-06
0.48489943,4.1450453e-06,9.5111676e-07,0.4008122,7.850391e-07
0.46478376,9.658619e-07,1.2738602,0.312682,1.0032221e-06
0.48121774,1.7327648e-06,0.00016606014,0.028799718,1.1745709e-06
0.25261968,1.1445471e-06,0.0005616434,0.019108742,9.2826076e-07
0.37608647,2.5571455e-07,4.6610305e-07,0.028048769,1.6312522e-06
0.1727963,6.4145814e-07,2.291558e-06,0.039230194,6.237065e-07
0.1754469,2.3430246e-06,0.000887065,0.08425175,3.885684e-07
0.13538294,3.919081e-06,1.0583016e-05,0.06622819,1.1373077e-06
0.44058546,2.7139718e-06,1.8263416e-06,0.28404468,6.699296e-06
0.17829588,4.135044e-06,1.0532866e-06,0.1346485,1.3409616e-06
0.0061333445,1.5160415e-06,1.2881173e-06,0.021606976,3.2185847e-07
1.5884736e-07,0.040762026,5.478268e-07,0.009057155,0.036383558
3.7415262e-07,5.2777374e-05,6.8069494e-07,3.7789728e-06,0.00072680047
2.4298427e-07,9.013635e-07,3.9392947e-07,3.883137e-07,3.7219363e-07
1.997753e-06,3.0045837e-07,1.9774731e-07,4.709842e-08,1.3855962e-06
7.763266e-06,5.7365533e-08,0.01864547,1.2408309e-07,5.9631e-07
2.8086004e-05,1.7624578e-06,0.028780755,3.2723375e-07,4.0802283e-07
2.6211845e-05,4.834114e-07,3.1291873e-07,5.3743094e-07,1.6573185e-06
4.26837e-06,2.4571125e-07,1.6737881e-07,8.5349456e-07,6.533172e-06
5.390848e-06,4.6319064e-07,0.005501308,0.0056077666,9.4477235e-07
4.1414523e-06,1.2597006e-07,0.04515506,0.06538097,6.733817e-07
5.744094e-07,2.927853e-07,0.027745334,0.022755617,7.850539e-07
4.863252e-06,8.258461e-07,0.031710174,0.6419072,9.938316e-07
5.8868045e-06,3.545035e-05,0.0062939413,7.801791e-06,1.3639743e-06
1.7417102e-06,3.218441e-07,0.0059944075,0.002422562,1.9031098e-06
3.9562074e-06,4.014781e-07,0.04176221,0.01982833,1.8923085e-06
1.7261794e-06,1.2327187e-07,0.07369504,0.02534527,9.426938e-07
1.2776578e-06,6.061375e-07,0.085308194,0.028779203,4.460568e-06
3.088401e-07,2.2521264e-07,0.06667009,0.042778928,7.1929236e-07
3.1474503e-06,1.2042182e-06,0.029123977,0.070562914,2.579005e-06
4.532381e-06,2.3922414e-06,0.05013247,0.03565715,5.4730986e-06
7.248377e-08,6.492564e-06,0.113137595,8.784322e-05,1.088979e-05
2.3788218e-06,1.0380675e-06,0.0841677,9.2540455e-07,3.285763e-05
1.1172151e-06,5.3005107e-07,0.025271375,6.425053e-07,1.3770496e-05
1.3278898e-05,5.393001e-07,0.0719871,3.8434382e-07,7.446597e-06
7.767504e-06,2.1358308e-06,0.07318268,1.1986452e-06,9.746443e-06
8.415308e-06,2.3710754e-06,0.15148602,3.5046577e-07,2.7169554e-06
1.3346887e-05,6.6724538e-06,0.3164747,3.5305925e-07,2.7013123e-06
1.2376532e-05,8.828579e-07,0.10641497,6.598958e-07,2.077758e-06
6.960346e-06,0.018750383,0.054316975,2.940621e-06,1.3374679e-06
7.1596346e-06,0.002019197,0.057365436,1.2623877e-06,1.1986509e-05
0.0066776266,3.1113473e-06,0.079430364,2.4715414e-06,1.1394833e-05
4.1564917e-06,2.3124088e-07,0.057139788,2.2263855e-06,3.0900103e-06
8.798416e-06,1.8381784e-06,0.038915902,1.6243589e-06,2.9040127e-06
3.264287e-06,5.79515e-07,0.013158026,0.005475836,1.1199854e-05
0.00086227007,1.0229037e-06,0.15619546,0.12190042,1.1734172e-05
2.1487956e-06,1.0812954e-06,0.616326,0.08085754,2.6019379e-08
1.7625305e-06,6.996341e-06,0.5143815,0.03652845,9.458762e-07
1.0338442e-06,1.7028339e-06,0.3740713,0.009204245,1.1675304e-05
4.855827e-06,2.0383975e-07,1.2715118,0.02027549,8.899958e-06
5.5281075e-06,5.907622e-06,0.43391383,1.525619e-06,2.4668439e-06
2.0439106e-06,7.723493e-06,0.32367837,0.012943332,3.0852767e-05
6.9039615e-08,1.5092736e-05,0.4862089,0.6753224,6.6649394e-05
0.031160058,1.3193182e-05,0.08229183,0.002511943,4.625133e-05
0.11625475,9.698542e-06,0.06640066,0.005225905,0.0005776335
0.13797094,5.80487e-06,0.15846248,0.13978487,1.2483282
0.34638777,1.2064602e-05,0.029470198,2.7793472,14.995464
5.2397943,0.82655424,8.856982e-07,1.0574394e-06,0.43914956
0.16084464,2.2749028,0.0015144668,6.366303e-07,4.6030097
0.34612092,0.6018461,0.010965007,1.2879841e-05,2.1583865
2.5514283,0.0020218685,7.931005e-06,7.758564e-06,0.08218222
0.000118634714,4.1342516,4.135151e-06,0.0,0.004261138
0.533654,0.9768767,1.9454465e-05,2.1752777e-10,9.57113e-06
11.284345,1.3724281e-06,2.3909097e-05,0.0,1.14938345e-07
1.4479882,0.00015951836,3.4190714e-05,3.0620953e-07,3.6950584e-07
0.29391783,1.9880197e-07,4.0269395e-05,3.0753322e-06,5.9256547e-07
0.0050968765,1.062579e-05,1.36082845e-05,5.8410105e-06,2.8030152e-08
0.034832582,0.03690047,1.9545516e-05,1.5598843e-07,1.9237737e-07
0.023485787,0.38434687,6.489193e-07,3.8330245e-06,0.00081636355
0.03171435,0.21598326,3.7860539e-06,8.582411e-07,0.06294331
0.1613047,0.028322497,1.9452739e-07,4.4435424e-07,0.07394294
0.086216554,0.005364275,1.7184887e-07,9.189117e-07,0.07035689
0.000114677954,0.00413319,3.4319478e-07,2.0529155e-06,0.060432952
1.5013804e-06,0.0015305433,1.1019717e-06,1.9797278e-06,0.008866376
7.24115e-06,0.0011277205,9.643754e-07,5.2944137e-07,0.0005576748
2.0961245e-06,7.762532e-06,1.4563731e-06,4.3705477e-06,1.5973124e-05
2.2623553e-06,4.1637036e-06,1.6805849e-06,7.536387e-07,3.0749684e-06
1.9183892e-06,3.0918086e-06,1.231838e-06,5.368324e-07,1.0468611e-06
3.6179047e-06,3.6073087e-07,7.963035e-07,3.0890947e-06,1.6365562e-06
1.2854655e-06,2.2003105e-06,1.1346551e-06,3.4481423e-06,2.7859232e-07
5.5245226e-07,2.7304995e-06,0.002128641,3.284552e-06,1.7961718e-06
7.800618e-07,0.003119142,0.025398774,1.5587988e-06,0.004000251
1.3935512e-06,0.00017824952,0.02343107,0.004303942,0.022080094
1.8635343e-07,9.780079e-06,0.05325662,0.0056929183,5.8196718e-05
9.407354e-07,9.838185e-07,0.102379404,0.01811388,7.189736e-06
4.660011e-07,4.6218193e-07,0.079956695,0.017619444,9.342999e-06
1.8367743e-06,1.5081534e-06,0.07279902,6.20304e-07,1.9236466e-06
6.313805e-07,1.0179305e-06,0.07683265,1.7132165e-06,2.1482085e-06
3.404993e-07,1.3409559e-06,0.07570352,4.5085454e-07,2.8116378e-06
3.2634384e-07,1.3697412e-06,0.056066886,2.8096326e-06,1.7805969e-06
9.280744e-07,1.1886058,0.86296463,2.2643788,22.450583
8.1018356e-07,2.231874,2.999105,0.9985155,13.962714
1.3484121e-08,9.58817,13.097885,1.8765082,11.952449
2.3958762e-06,1.4952164,10.025437,0.7391978,3.1485755
1.7987903,4.019786e-05,2.6696036,0.042481553,5.8140013e-06
1.750126,8.3525465e-06,0.000603982,3.0678564e-07,8.743423e-08
0.09964679,1.2098648e-06,4.586091e-07,8.0769087e-07,8.7927776e-07
8.5314036e-07,2.7409104e-07,8.406229e-07,0.21378902,6.0759425e-07
2.8694794e-06,1.4850505e-07,0.29143652,1.0626654e-05,1.7497498e-06
0.23004329,3.4769655e-06,2.0920975,1.7525799e-06,1.4185194e-06
0.050675362,0.32273483,1.4549955e-05,7.288971e-06,1.7488772e-05
0.0025125633,3.1605884e-07,0.0002701466,3.835568e-06,3.395254e-07
0.077944286,1.2500047e-06,2.489215e-06,1.7684205,2.0360058e-06
2.0108557e-06,1.0539763e-06,1.788735e-06,1.1611758e-06,1.407599e-06
2.840339e-06,7.018829e-07,1.2819658e-06,3.9985107e-06,9.860877e-07
4.009977e-06,1.125359e-06,1.1222184e-06,1.0844146e-06,1.582702e-06
2.2350616e-06,1.8108431e-06,8.909385e-07,5.967112e-07,8.2414624e-07
0.730664,1.176763e-06,2.9016851e-07,3.9604873e-07,1.5068334e-06
0.02771954,1.8593025e-06,3.0428757e-07,1.2040188e-06,0.09412964
1.1318909e-06,0.0011258472,4.732518e-07,1.3185345e-06,2.8041818e-06
3.2741715e-07,3.0661702e-06,7.006873e-07,2.4637095e-06,4.4545654e-06
1.1840084e-06,3.934661e-06,1.1391301e-06,2.2259132e-07,1.0487881e-06
0.0006876043,6.6021817e-06,2.1221297e-07,2.3591735e-07,1.0894979e-06
1.9853815e-06,1.1076556e-06,1.907087e-07,5.1455116e-09,1.5389863e-06
7.392853e-07,2.5104744e-06,2.936893e-07,9.64485e-07,2.5096754e-06
3.5418072e-06,1.8101838e-06,2.0880128e-07,2.756596e-07,2.2865925e-06
3.0439965e-06,0.20118271,3.9207896e-07,1.6037319e-07,2.1739277e-06
5.729894e-07,0.1925062,5.361103e-07,1.4870263e-07,1.5663951e-06
1.736644e-07,8.941478e-07,7.384938e-07,3.033011e-07,5.44102e-06
8.3416506e-07,3.494442e-06,5.3829433e-07,2.2834497e-06,0.46173286
1.1292249e-06,0.00017283128,7.757535e-07,3.281477e-07,1.8585947e-06
1.4982272e-06,2.4326973e-06,1.5343845e-06,2.383178e-06,4.662267e-06
1.329555e-06,2.3209875e-06,1.3327549e-06,1.8296794e-06,2.360009e-06
0.0013058305,0.076841496,1.772565e-06,1.2331808e-06,1.0729808e-06
2.4424826e-06,3.534671e-06,1.6863371e-06,2.3676075e-06,2.7996582e-06
0.33284026,0.40683368,2.3868668e-06,2.9056946e-06,0.9141636
7.1269113e-07,7.91313e-06,4.7475028e-06,2.1969984e-06,0.004711314
2.344976e-06,1.4277281e-06,3.2649505e-06,1.8886328e-06,1.7927715e-06
1.9625802e-06,4.354954e-06,7.986489e-06,3.611543e-06,2.1928397e-06
1.4402227e-05,9.979086e-06,5.5132564e-06,3.953312e-06,5.2201817e-06
3.6491674e-06,4.9316423e-06,8.274904e-05,7.5260414e-06,0.484645
4.9117483e-07,3.3912193e-06,3.0863134e-06,5.178877e-07,4.5839616e-07
7.627016e-07,2.5934517e-06,7.1796256e-07,6.163806e-05,1.6141063e-07
1.1714429e-06,2.417548e-06,3.6782563e-07,2.1269948e-06,1.9637892e-07
1.7500237e-06,1.1337205e-06,7.5022973e-07,1.141379e-06,5.626806e-06
3.444183e-06,1.8605523e-06,5.6292806e-06,7.0718943e-07,3.0739322e-06
4.9331067e-07,2.0988186e-06,4.7690964e-08,1.1860983e-06,3.7549564e-06
1.5080743e-05,2.8504844e-06,1.1173745e-05,5.4664615e-06,7.3503446e-07
0.005803347,3.4705283e-06,0.013801959,1.3436692e-06,3.4643876e-06
7.394202e-05,1.449242e-06,0.26138982,0.14763473,3.289852e-06
1.6212162e-07,1.5266696e-06,0.26898375,0.4696864,1.3663739e-06
0.015185917,2.6280368e-06,0.5780761,0.42494902,0.114455685
1.01197095e-07,0.00020056612,0.19257201,0.23041922,0.038950097
0.64778566,2.9357682e-06,0.08426513,0.7086088,3.685569e-07
0.9407037,1.7333655e-06,0.021513471,0.61896926,4.5762533e-07
1.3176504,1.995997e-06,0.0353643,0.33239046,5.457092e-07
1.7786193,4.4773878e-07,0.060698215,0.32525462,6.275952e-07
1.4744211,3.0766294e-06,0.2156954,0.2337869,3.6897718e-06
1.3365023,3.359732e-06,0.25806132,0.12304757,4.1960993e-06
2.0716891,6.583923e-06,0.12455034,0.07714831,8.464604e-07
1.4840117,3.0512704e-06,0.015658487,0.015463318,3.0288554e-06
0.62037224,5.748288e-07,0.08464849,0.28889385,2.03162e-06
0.5571102,1.2104907e-06,0.22210893,4.3342524e-07,1.2426981e-06
0.17175668,2.4817753e-06,8.9741746e-07,3.4862104e-08,1.5391399e-06
0.16622168,1.3019412e-06,3.816165e-07,1.0177782e-07,2.7614133e-06
0.8916758,3.053413e-06,1.04154715e-05,1.672761e-07,1.4118395e-06
0.30751568,2.5205024e-06,1.3603015e-05,3.371234e-07,1.3174213e-06
0.012648978,5.6957102e-05,0.03382592,0.06560399,8.0775914e-07
0.004155853,2.7200986e-06,0.11115337,0.26403224,0.0038769343
0.27043316,7.779927e-06,0.12799378,0.10036919,0.014771508
0.35845694,6.3021766e-06,0.0047873664,0.09083622,0.010345291
0.43769524,2.9860605e-06,0.006780835,0.019752968,7.0065346e-07
0.20709172,4.2313746e-07,0.0018275038,0.094736405,1.1959937e-06
0.09825884,9.958152e-07,0.07658783,0.22061543,3.1505292e-07
0.013984464,1.1591164e-06,0.11978222,0.2552295,1.9415513e-06
2.2822765e-05,9.0091265e-07,0.40035617,0.933341,1.9518538e-06
0.1752582,1.2020365e-06,0.2781733,0.3361597,9.011714e-06
0.8596764,1.9369122e-06,0.99346286,1.0183084,0.008860871
1.2645011,0.01605083,0.30761394,9.3652244e-07,0.2572956
1.8853894,0.025458204,3.312706e-07,5.4497957e-07,0.53541416
1.3998834,0.62727565,7.4819076e-07,2.3706596e-06,0.32885972
7.143542e-07,0.028113957,2.6111613e-06,2.9056619e-06,1.0521659e-06
2.3898338e-06,0.027549548,3.940056e-06,2.074452e-06,7.9558623e-07
2.1019066e-06,2.115819e-06,4.228123e-06,7.260404e-07,4.2804013e-06
2.4784024e-06,2.1310093e-06,2.1180813e-06,2.3848163e-06,5.097281e-06
4.011629e-06,8.55423e-06,1.3279849e-06,1.4630302e-06,5.0376448e-06
3.5107653e-06,3.5716762e-06,6.4155745e-07,1.0479016e-06,2.1068572e-06
1.4050012e-06,7.5779517e-06,2.9072567e-06,7.1399114e-07,2.786396e-06
2.1866904e-06,5.718749e-06,6.168582e-07,4.567047e-06,1.5778468e-06
1.5873298e-06,3.0460105e-06,3.7336778e-07,1.27202675e-05,2.363035e-06
2.1438949e-07,2.6609619e-06,0.0,5.8739764e-09,5.5388214e-06
1.080093e-05,3.4479904e-06,3.4929613e-08,0.0,7.5956007e-07
2.4811587e-08,1.5634425e-06,2.3731872e-07,0.0,3.0652639e-06
0.0,4.4398666e-06,6.791046e-08,0.0,5.1212646e-06
0.0,3.785178e-09,0.0,7.38269e-07,4.9384862e-08
0.0,0.0,0.0,0.0,0.0
0.0,0.0,0.0,1.2635795e-09,0.0
0.0,0.0,0.0,3.2292712e-07,0.0
0.0,0.0,0.0,2.025182e-06,6.2760554e-11
0.0,0.0,0.0,1.6203927e-08,1.0618409e-06
0.0,3.1393105e-07,0.0,0.0,5.0882836e-06
0.0,4.941616e-07,2.3903144e-07,0.0,5.442438e-06
0.0,4.7937606e-06,5.2532583e-09,0.0,4.0963473e-06
0.0,3.4444588e-06,0.0,0.0,2.2334775e-06
0.0,1.7793539e-06,0.0,0.0,4.364281e-06
1.6428838e-07,1.563613e-06,5.297279e-10,2.1987965e-08,7.068077e-06
1.9715928e-07,2.079345e-06,5.7450814e-07,5.039426e-07,3.2352891e-06
2.2938818e-06,5.4009774e-07,8.004707e-06,3.5688487e-07,1.8942118e-06
5.821659e-06,8.386171e-07,1.7145672e-05,4.310736e-06,3.0883136e-06
2.752252e-06,1.6787897e-06,3.1059299e-06,1.3742219e-06,3.39492e-06
5.6543e-06,3.5226427e-07,2.4614176e-06,0.00024790212,4.74855e-07
2.4034705e-05,6.56625e-07,0.00021626927,4.510676e-07,1.0420518e-07
4.58647e-06,1.2979002e-06,9.780603e-05,5.805132e-05,2.0043512e-06
3.7220866e-06,2.1298383e-06,2.8475864e-05,0.00023948099,5.014594e-05
3.7857742e-06,3.4460743e-05,0.05199291,0.45576453,0.00012226516
1.0353213e-05,0.00027315266,1.0253245,0.5449615,0.0012075434
0.00016190652,0.0017950627,0.1822505,0.088416524,0.0011788104
0.0008564503,0.0013340157,3.2739397e-06,1.1743219e-05,0.0015886283
0.00018517028,0.00069206324,0.102147914,0.06101414,0.0011370329
2.8190681e-05,0.00031565945,2.006109,0.4521453,0.0002259085
3.38817e-05,7.614708e-05,0.0077190036,1.676936e-06,6.317803e-06
0.0006595753,5.6724502e-06,0.038311016,0.00929137,1.9553413e-06
0.0027998528,3.1240694e-07,0.038391966,0.04570848,1.5756086e-06
0.055341206,7.3082043e-07,0.06565763,0.058000766,1.9011193e-06
0.026399245,9.087073e-07,0.033567637,0.018658286,6.3780694e-06
0.11619597,7.629812e-07,0.011851529,0.014217641,4.3988803e-06
0.091477446,6.778906e-06,0.0031300453,0.021022882,1.6817547e-06
0.45047382,2.8909433e-06,0.029411476,0.0014152516,0.0013154108
0.30482927,1.2892228e-05,0.028024841,2.5122754e-06,0.055353552
0.04482305,2.05312e-06,3.7867852e-07,1.3939718e-05,4.3184523e-06
0.07271464,5.5687597e-06,0.013415591,1.912551e-05,6.467777e-06
0.077357,1.6445427e-06,0.015945055,6.4862286e-07,1.5642906e-06
5.266801e-05,2.8655238e-06,0.01013365,3.9631045e-06,6.084021e-07
2.4799569e-05,9.459958e-07,0.0006396422,0.0037417524,1.1703511e-06
6.696028e-07,4.2770597e-07,0.010231643,0.19281667,1.2732596e-06
8.701754e-07,4.0096646e-07,0.029628646,0.40733227,3.8876947e-06
2.6694866e-07,6.8586337e-07,0.057671666,0.20885418,1.5150327e-06
1.6606158e-07,3.117807e-07,0.19873166,0.2021012,2.7774538e-06
1.1210319e-06,6.1334947e-07,0.13559943,0.24107262,4.924722e-06
7.8767846e-07,5.8598e-07,0.058393262,0.24500136,8.4849336e-07
1.7603085e-06,1.3001929e-06,0.10000441,0.24752997,3.8681915e-06
3.8061663e-07,9.012408e-07,0.10821664,0.3161032,1.883556e-07
8.95407e-07,1.9455318e-07,0.10388404,0.21323316,1.0342503e-06
6.353423e-07,2.2735567e-06,0.07585885,0.15462282,4.8908123e-06
9.852708e-07,3.1495433e-06,0.04041344,0.09443317,1.0728247e-05
3.226479e-06,5.037445e-07,0.027087705,0.15409377,1.8284162e-06
2.3869104e-06,1.923925e-08,0.059040625,0.328153,4.338432e-06
3.0436672e-06,7.158889e-06,0.07483927,0.37220842,9.5064877e-07
3.4281693e-06,1.0843958e-06,0.06689164,0.7878895,3.230242e-07
4.970523e-06,6.1674075e-07,0.22382353,0.8687089,8.631489e-08
2.2524912e-06,5.09234e-07,0.8166876,1.7377076,1.475231e-06
7.287284e-07,9.185156e-08,2.2634006,4.13347,2.7489623e-06
2.1702924e-06,1.4596341e-07,4.1084766,0.46207374,3.228308e-07
1.9373554e-06,3.460583e-07,3.0577054,0.3049117,3.669814e-07
2.4452445e-06,1.1322164e-06,1.7403935,0.091365114,5.761862e-07
6.802112e-06,6.9937087e-06,1.1393801,0.011550744,0.31210133
0.00015415781,5.929599e-07,0.48986766,4.4840857e-07,2.066211
0.13072705,1.782097e-07,0.33237576,6.741285e-07,3.6386964
0.6510615,5.071107e-06,0.09544968,3.5222453e-07,3.8704767
0.35708222,2.0962256e-05,0.0018296763,2.6923777e-07,8.385159
0.3928185,0.0053325705,1.1085905e-06,4.4803585e-07,8.521062
0.5555109,0.0016152412,5.425683e-07,3.9638626e-06,5.91293
0.3298459,2.450934e-06,1.2125335e-07,2.8492263e-06,4.9216113
1.4512286,8.665111e-06,2.1651343e-07,2.5312058e-06,1.0260721
0.6709017,1.5023501e-05,1.6659044e-08,8.1197703e-07,0.45901218
1.1967224,5.0555027e-06,4.330591e-08,6.710861e-06,0.3871104
0.96928716,9.7273205e-06,5.9589876e-08,3.9007987e-06,0.21605286
0.42509046,1.100026e-05,0.00019925187,2.9196246e-06,0.10066142
0.2396312,3.6841307e-06,0.16099884,2.6647498e-05,0.087003775
0.21246503,5.199173e-06,0.04259374,0.00017411416,0.09154302
0.25233322,0.025970364,0.019549463,0.00057301216,0.14910313
0.26572105,0.08304516,4.2620113e-07,0.024773894,0.22709513
0.22675343,1.8339078e-05,0.0051095467,0.05564309,0.18357386
0.14905475,2.7791032e-06,0.06346765,0.074159876,0.20956595
0.021404346,7.449676e-06,0.7130214,0.043623347,0.0875886
1.2507711e-06,2.1474364e-06,0.686136,0.71255094,0.0024723823
3.027313e-06,1.5419005e-06,0.1853683,0.3763156,1.4451547e-05
7.788181e-07,1.8958536e-06,0.27257496,0.5234707,7.427372e-07
8.143316e-07,7.3993704e-07,1.0729694,0.664651,5.3794834e-06
1.6089027e-06,3.820272e-06,0.47927618,0.46929455,1.9638692e-06
9.944763e-07,1.0867667e-06,1.0929104,0.2129696,1.0852645e-05
3.1391571e-06,0.055768248,0.124263376,0.31919414,0.18861923
4.167266e-06,0.0012348213,0.00017642595,0.033161752,0.008076227
3.8167095e-06,1.4004099e-06,0.2208484,0.96353966,0.061419163
2.7960873e-06,0.057109933,0.32489702,4.388298,0.43984917
1.2406415e-06,0.0022589262,1.2828238,0.5637201,3.8450266e-06
1.0339928e-06,3.1233812e-06,1.0924357,0.18103364,1.579975e-07
6.7012314e-07,1.83466e-05,0.79830843,0.17465909,1.3927038e-07
1.3747189e-06,1.0340974e-05,0.18749787,0.06984019,1.167816e-07
4.6312575e-06,1.8441651e-05,0.16707507,0.0021692915,6.928561e-08
6.792729e-06,3.4028287e-06,0.32887307,4.1991456e-07,1.7562834e-05
8.5827764e-07,8.6526916e-07,0.3835913,0.122758746,3.5656037e-06
3.3643832e-07,5.2177625e-06,0.38331822,0.1612942,0.13702452
7.421705e-06,6.297387e-06,0.3030424,0.054529462,0.39881268
3.5720318e-06,2.3609243e-06,0.13818426,1.3902052e-06,0.40026248
8.109117e-06,6.225201e-07,0.005635699,1.1742203e-06,0.22169878
8.130918e-08,4.1682225e-07,3.7349448e-06,1.6913144e-07,5.1107855e-07
1.4342668e-05,5.232297e-07,1.0826325e-05,2.0685886e-06,5.8259536e-07
5.140403e-06,1.8763736e-05,1.2219356e-05,2.5930486e-08,1.4762954e-06
1.594837e-06,2.8085586e-05,0.00013750789,4.2496941e-07,2.361549e-05
1.3297491e-06,1.4988815e-05,0.014604363,1.1108937e-05,1.7185259e-05
2.039761e-06,1.4839432e-05,0.023444753,0.0011686102,3.9126185e-06
2.887348e-07,7.8679395e-06,0.054353382,1.1788608e-05,1.2791009e-05
1.7693279e-06,1.3199103e-05,0.025258737,0.0002530316,0.00038503812
1.3493902e-06,1.0776307e-05,0.0055992473,4.7446247e-06,2.0710477e-05
2.6573944e-06,9.0026947e-07,0.0014456853,1.6438507e-06,8.945266e-06
6.820355e-06,2.2685194e-07,0.06768573,2.5970155e-06,9.606147e-07
1.4717303e-06,1.8855384e-07,0.058384866,7.8106295e-06,1.6088005e-06
1.0986985e-06,2.3965854e-06,2.643224e-06,2.193489e-06,2.072595e-06
1.8012862e-07,1.0754852e-05,4.5575413e-07,5.331544e-07,2.0690466e-05
4.4209557e-07,8.319321e-07,7.401256e-07,5.407326e-07,1.0077072e-05
1.6715975e-07,3.0622172e-07,7.1860404e-07,8.497983e-07,7.828497e-06
7.8552546e-07,1.1611163e-06,1.0377566e-06,9.667566e-07,6.3090242e-06
1.2542246e-06,5.084922e-07,2.7398346e-07,1.0669345e-06,6.2666265e-07
