"[299, 255]","[227, 248]","[287, 319]","[279, 328]","[230, 262]"
3.980093e-08,4.6610776e-07,1.4880217e-07,6.57351e-07,2.9233053e-07
2.9471692e-06,1.00316306e-07,1.009496e-06,7.6440824e-07,2.2298973e-07
2.808965e-05,7.0644904e-07,1.7082837e-06,0.10722623,8.9543585e-07
1.7847411e-05,3.3809933e-08,6.9465204e-07,0.19239599,5.423769e-07
4.8312424e-05,4.045892e-07,9.739795e-07,7.089998e-07,4.3325826e-06
2.2073178e-05,3.1112666e-06,4.979614e-07,1.7984968e-07,0.03207517
3.316799e-05,5.551359e-07,8.0057345e-07,0.0006526763,1.4484798
1.990606e-05,1.3806384,4.645507e-07,2.0674634e-06,0.047636293
2.5998714e-05,0.80035543,7.0388537e-06,1.8165385,8.00265e-06
1.2315122e-05,7.402847e-06,7.5066197e-07,3.155779e-05,3.7302314e-07
5.742658e-07,1.5834555e-06,0.95846623,5.1901665,2.7641292e-07
2.998404e-07,0.03598747,0.0044200956,1.6534421,8.486443e-07
3.2093214e-06,1.6188233e-07,3.1323967,0.9110235,1.1262326
6.3683465e-06,0.63705415,1.0423473,1.8731766,0.00036894437
1.8344105e-06,0.16352488,1.684646e-06,1.3843544e-06,0.0074175964
7.4036194e-07,5.4030697e-06,2.936112e-07,1.7166167e-06,7.165232e-08
2.739878e-07,1.2338222e-06,2.600373e-07,0.0069201556,5.692378e-07
1.6817407e-05,2.5852041e-05,1.0970597e-06,0.016516663,2.2518841e-05
0.0015097762,4.365071e-06,0.3555519,7.552249e-07,2.6410147e-05
2.257282e-06,2.1660828e-06,0.99355465,3.0571976,1.2059188e-05
3.0550211e-06,8.299092e-07,0.00022037479,2.134891,1.2324859e-06
8.733381e-07,0.00016772113,0.35731262,0.009861274,1.9676625e-05
3.6229635e-06,0.0059431274,0.45152837,0.62336683,0.00026240098
6.487638e-07,9.877043e-05,5.4061966,1.8876933,0.0006624255
7.6303263e-07,0.00026087422,0.30948037,9.237668,0.05003436
4.703379e-07,0.0010097427,0.025318308,0.30177778,7.156576e-05
3.417515e-08,0.00012375608,0.03234628,0.26315543,0.024111563
1.3168656e-07,1.4571182e-06,20.413021,0.004113314,9.982327e-06
4.3335234e-07,1.5296106e-06,8.244014,4.7755122e-05,9.213373e-05
2.3653831e-07,7.9511625e-07,6.606796e-07,2.9086218e-06,0.000110823734
6.6428647e-06,2.3449475e-07,1.9839763e-06,6.1318187e-06,4.32436e-05
2.2884726e-05,7.6911545e-07,4.135119e-07,2.7553377e-05,5.0376116e-06
3.2756934e-06,6.3810677e-07,9.995399e-07,2.6848572e-06,1.0339375e-06
2.136761e-06,1.2512774e-05,4.576809e-07,0.005828837,1.8613115e-06
5.724228e-07,1.5171171e-06,6.163171e-07,17.330406,2.6152352e-06
7.637985e-07,6.4336115e-07,5.0997944e-05,0.004585241,7.905891e-07
8.416368e-08,1.5950905e-05,0.019632038,3.4859266,1.4945969e-06
2.1270114e-06,2.3567832e-06,0.010585643,14.532762,3.626743e-06
1.6253275e-06,1.5267676e-06,0.14362457,7.00086,5.2645235e-05
0.029086154,8.035913e-07,3.2246945,0.2792055,6.6966e-06
0.14712104,3.7317857e-06,3.237253e-07,0.0037396892,0.00035461565
1.5039782e-06,2.1654982e-06,4.177335e-07,0.19326513,1.0937378e-06
3.7540832e-07,5.614764e-07,9.961287e-07,1.1681849e-06,1.803041e-06
1.0136622e-06,7.5389863e-07,3.0499907e-06,7.632651e-07,1.2671842e-06
0.00020138388,0.00026944303,6.79657e-08,3.272518e-07,7.486043e-07
7.155824e-05,0.00048832037,1.8813643e-06,4.0510213e-07,1.8379853e-05
1.1961254e-06,3.2672368e-05,2.9063276e-07,6.546919e-07,0.00023945198
2.2464437e-06,0.15243544,5.169748e-07,4.5549815e-08,8.2305334e-05
4.2473002e-06,4.8132806,1.1215515e-06,4.3416327e-07,1.7152967
5.2528343e-05,3.4765573,1.6492231e-06,2.090161e-06,4.4788203
0.00034844308,0.0383606,6.000396e-06,1.2021117e-06,1.7725538
0.00023152959,5.896294e-07,0.00016872778,3.4144472e-07,0.09168385
2.1611208e-07,1.4085664e-06,0.001699675,1.4983841e-06,0.0015929315
4.2311303e-06,0.0011732425,0.001298934,1.785845e-06,2.635794e-07
0.0727242,0.039503895,0.0042758416,1.2179459e-05,2.034977e-07
0.038282607,3.2898898,0.00012661876,4.624743e-06,7.4784253e-07
1.8698408e-06,1.064192,3.4763768e-06,5.139393e-06,3.7497593e-06
1.07751e-06,1.603944e-05,1.4957169e-06,8.2246e-06,1.0008395e-06
1.5746222e-06,2.5599218e-05,2.4385906e-06,1.8052024e-06,1.0095827e-06
9.915786e-07,1.824897e-06,1.9723802e-06,2.0911036e-06,1.0625337e-06
1.05276e-06,0.019463196,2.0491932e-06,2.6456453e-06,1.4803079e-06
4.0245086e-06,0.003909551,5.965501e-06,1.5466655e-06,0.4470084
3.1361626e-06,3.6574525e-07,7.358294e-07,1.6556488e-06,6.709656e-05
4.1633598e-07,9.282484e-08,2.0646614e-07,3.0673639e-06,2.328048e-06
2.3883345e-06,5.49722e-07,1.2751456e-06,4.398616e-06,1.6951776e-06
5.983085e-07,2.85601e-07,1.0804537e-07,1.2084245e-06,2.9269765e-06
1.8762852e-06,1.0630002e-07,0.25218806,4.110628e-06,2.0494697e-06
9.488373e-07,4.1296974e-07,2.72377e-07,6.5226584e-07,5.3895107e-08
1.0004908e-06,3.111129e-07,3.9103685e-05,2.5166548e-06,7.767478e-08
4.8547116e-07,9.132206e-07,5.8150974e-05,1.2003153e-06,2.3575566e-07
1.6062677e-06,1.7687328e-06,1.0631428e-06,7.9794717e-07,1.380454e-06
2.706378e-06,1.7827749e-06,1.2545273e-07,1.3123538e-07,9.350732e-08
1.5822183e-06,1.3968827e-06,3.0781126e-07,2.2886813e-07,1.9495997e-07
1.0777411e-06,8.832067e-07,7.629454e-07,5.0966935e-07,3.6042002e-06
3.5970918e-06,5.3326505e-07,1.7155104e-07,4.1228573e-06,2.1210956e-06
1.5929714e-06,2.2690257e-07,2.5550906e-07,2.752507e-08,0.015069732
1.0318818e-05,7.400542e-07,1.4756904e-07,3.9111075e-08,0.26872414
3.5412304e-05,0.0006193027,1.00507826e-07,5.317472e-08,5.7321035e-05
1.4585744e-05,1.0996439e-07,4.9037345e-07,2.483535e-07,1.3086558e-05
3.6349225e-06,2.2916734e-06,4.067994e-07,9.2283884e-08,1.6293791e-06
7.602935e-07,1.8590061e-06,4.1703777e-07,1.0984631e-08,2.8406864e-06
5.8406926e-07,6.0655634e-07,1.9355055e-06,1.6476268e-07,0.0074056555
1.1357764e-05,1.1490496e-06,1.5318969e-06,1.6497668e-06,0.0015181102
1.0127114e-06,8.967307e-07,3.5712133e-06,3.1081759e-06,7.163906e-07
2.4080819e-06,2.3271498e-06,2.8561058e-06,1.4075706e-06,1.0005894e-06
0.017527174,3.803556e-06,3.814665e-06,1.0536023e-06,1.5510589e-06
0.91044337,4.469367e-06,1.0473417e-07,3.8516912e-08,3.0376944e-07
9.404807e-07,1.48946e-06,0.36772776,1.1827651e-06,8.573917e-07
7.505627e-08,1.481875e-06,1.8125354,1.4292779e-07,1.383646e-06
3.0910326e-06,2.8014026e-06,0.08907314,5.8698964e-07,3.732145e-08
3.5344196e-06,2.105093e-06,8.727899e-06,4.888623e-07,6.652042e-07
3.3868337e-06,2.0097846e-06,3.3335493e-07,1.6173958e-06,2.39698e-06
1.1293698e-06,1.5668356e-06,8.271091e-07,2.5537838e-07,2.292265e-06
2.5070046e-06,6.148964e-07,6.1213655e-08,1.1356707e-07,2.9223818e-06
4.7924786e-06,4.9441184e-07,5.728093e-07,6.5108544e-08,1.4739538e-05
6.887365e-05,1.7518357e-06,1.2176046e-07,1.8215638e-07,1.3103177e-07
0.00038115898,1.2386197e-07,2.934544e-07,1.2295104e-07,3.743159e-06
0.0011122889,2.1823895e-07,3.9228294e-07,1.0922397e-07,2.5613062e-06
0.003213716,1.912351e-07,1.9715135e-06,1.2841977e-05,4.570612e-06
0.0064017074,1.5941989e-06,2.5001898e-06,3.5218538e-05,5.2008995e-06
0.012237036,7.494433e-07,1.5039154e-08,0.0025902092,4.184338e-06
0.008788226,7.882408e-07,4.1685034e-06,0.0026171657,5.1558227e-06
0.001537985,2.4284233e-07,0.004962441,0.0027538007,2.6307382e-07
9.137573e-05,0.005155478,0.0026688494,0.0061518727,0.1848713
2.4044186e-05,1.2210318e-06,7.901848e-06,0.0029758716,1.5149661e-05
6.091926e-06,3.163854e-06,4.4113135e-06,2.225823e-06,1.2534169e-06
4.0463988e-06,0.00039790987,6.526803e-07,1.5430927e-06,5.6381683e-05
1.2376256e-06,0.2096327,1.2872188e-06,8.4877433e-07,9.2726384e-07
8.051217e-07,0.28223342,6.0093766e-06,4.3260858e-08,7.7888996e-07
2.6713149e-06,1.0495328e-06,2.9191206e-06,0.0,5.184451e-07
6.327964e-07,1.9523534e-06,2.6208609e-06,8.874093e-07,1.3290042e-06
1.2755844e-06,4.3990576e-07,2.7851084e-07,3.244139e-06,2.5215081e-06
2.7527023e-05,1.3328092e-06,4.2189103e-07,2.5122888e-06,2.6861196e-06
1.3778357e-06,5.1893113e-07,1.1631448e-06,2.7042663e-07,2.4725548e-06
8.513662e-05,5.2228773e-07,1.1331185e-06,4.0412812e-07,1.2896591e-07
8.604834e-05,3.6623433e-07,1.1763208e-06,2.1900958e-06,9.957286e-07
5.069929e-06,6.6541617e-07,2.9789977e-08,8.206102e-06,3.2711641e-06
1.6798867e-05,2.015388e-06,9.0721e-07,8.5131454e-08,5.751288e-06
0.009698226,3.5599422e-07,5.666544e-07,1.2698335e-07,8.642158e-07
0.011164004,1.6129977e-06,2.457549e-07,9.072187e-07,2.5262756e-07
5.1926687e-05,4.0221607e-06,7.846398e-07,6.212646e-07,2.3100567e-06
1.3129867e-05,5.7679335e-07,3.175551e-08,1.2695924e-07,2.8373179e-06
3.738138e-05,1.4505291e-06,2.8739004e-07,1.0433624e-07,2.0044774e-06
2.1963746e-05,2.8969274e-07,1.1467475e-06,3.5962572e-07,1.0093437e-07
1.6756605e-05,7.628522e-05,7.272072e-06,1.2880646e-05,6.398589e-05
0.0006320825,8.335445e-05,3.129261e-06,7.328211e-06,1.5184244e-05
0.006093659,3.4831857e-05,9.570762e-07,1.9952834e-06,5.6425966e-07
2.0670745e-05,2.9847584e-07,9.278765e-07,2.14155e-06,1.0900498e-06
3.5552553e-06,9.1705044e-07,9.162435e-07,3.9829473e-07,1.7309158e-07
1.3042683e-06,0.0006202851,2.6488299e-06,7.045217e-07,1.1657505e-06
1.1743671e-06,0.002490532,1.0112592e-06,2.4211986e-06,2.7180246e-05
1.0372288e-06,0.030271702,3.6004903e-06,2.520832e-06,0.026410518
1.277222e-06,1.8944208e-06,0.036372587,0.071869686,3.7789944e-06
3.9466117e-06,2.178476e-06,0.003929666,7.867792e-07,2.2400156e-06
0.038060855,4.2191373e-06,4.995995e-05,1.7560699e-06,0.0022916065
0.00018366332,0.0007943389,0.032865513,1.6722521e-06,0.008865522
0.00016606493,2.6831538e-07,0.10413733,0.009075555,1.1485897e-06
1.3210984e-06,0.00020682874,0.024244068,0.023610761,0.011322239
3.3016388e-06,8.385603e-06,0.024401853,0.029770536,0.076792106
5.393144e-06,0.022652807,0.05778393,0.025202403,0.058975056
4.1876374e-06,0.0073734922,0.051072143,0.041177914,0.033601318
0.0035720733,0.05157711,0.5415532,0.059251416,8.188914e-07
0.017303813,1.4010764e-06,0.042784683,0.076876566,7.003756e-06
0.7393885,5.431947e-06,0.07102623,3.526929e-05,8.0524273e-07
0.56891835,1.292532e-06,1.35675e-06,1.7142276e-07,4.6223946e-07
0.018899243,2.8397335e-06,5.296493e-07,3.2791627e-07,8.945708e-08
6.9329616e-07,1.036701e-06,2.7121268e-07,9.5149005e-08,1.0542816e-06
7.523018e-07,0.11540737,1.847366e-07,3.8082968e-07,3.5001226e-06
2.7486415e-06,1.8869376e-06,1.8819112e-07,3.3669252e-07,0.020875582
1.0248232e-06,2.267079e-06,1.6537187e-07,1.0250815e-06,2.456891e-06
8.32937e-06,2.182443e-06,1.6390695e-07,1.0373349e-06,2.5907877e-06
7.698337e-06,2.224516e-06,7.6010394e-07,6.1281787e-07,0.0027151625
2.706625e-07,3.0979502e-06,7.327238e-07,6.293906e-08,1.8516901e-06
1.1601741e-06,3.8524017e-06,8.6929435e-07,1.0283637e-06,2.0792531e-06
2.8857296e-06,8.741168e-06,1.1307936e-06,3.1300585e-06,9.3952275e-07
5.8861906e-07,8.394168e-06,5.9593236e-07,2.6358157e-06,1.3946368e-06
8.274159e-08,2.291981e-06,9.4882364e-07,1.3212792e-06,2.8202815e-06
1.1406125e-06,3.5150902e-06,9.712551e-07,2.4981084e-06,1.3522678e-06
2.5168988e-06,2.2198665e-06,2.6375756e-06,1.7738241e-06,2.3575701e-07
4.298242e-06,2.8406303e-06,3.278578e-06,3.434069e-06,5.5831924e-07
4.378269e-06,2.6572937e-07,2.011972e-06,1.7114102e-06,2.7201813e-06
1.5288479e-06,9.825666e-07,1.1992422e-06,1.1434025e-06,2.749878e-06
9.645414e-07,1.0830736e-06,1.3565832e-06,1.2115268e-06,9.657045e-07
6.3780963e-06,4.889624e-07,1.2570551e-06,1.1522414e-05,3.2382807e-06
2.422618e-07,5.97255e-07,3.84696e-06,1.6205665e-07,1.6742072e-06
3.665335e-08,8.228853e-07,2.0007399e-06,3.1743787e-06,6.7235696e-06
9.125271e-07,3.1916034e-07,2.7339237e-07,2.9265448e-06,8.194479e-06
1.2276213e-06,3.603578e-07,5.35828e-07,7.535878e-07,1.4035283e-05
9.272008e-07,5.576998e-07,3.7168817e-07,6.150586e-07,2.282508e-06
1.587957e-07,8.274148e-06,1.2551466e-07,5.3103946e-07,3.3868903e-07
0.0,1.3597396e-06,2.397006e-07,1.09988e-06,4.0196426e-07
0.0,2.4363628e-06,7.198231e-07,4.783214e-07,3.2587377e-06
2.666919e-08,1.4305909e-06,1.7796365e-06,5.237979e-07,7.5671373e-06
0.0,1.7627295e-05,1.7471613e-06,3.4072187e-07,3.4031502e-06
6.0271577e-06,4.1504097e-07,2.3486066e-06,6.8395815e-07,1.8826192e-06
5.5245937e-07,7.21325e-06,1.1937863e-06,6.503879e-07,1.3316752e-06
0.0,3.6102713e-07,1.6711884e-06,9.378648e-07,2.2235668e-06
0.0,9.2532844e-07,1.4250966e-06,1.8539831e-06,4.019851e-06
4.3793582e-07,4.694323e-06,2.4055348e-06,9.844402e-07,6.5597993e-07
1.521482e-06,1.4385306e-07,2.2990241e-06,3.3017536e-06,3.1841e-06
3.0421106e-06,2.859843e-06,3.8166986e-06,4.3775435e-06,4.309495e-06
9.955345e-06,0.0,6.500135e-06,5.6135946e-06,3.2135472e-07
5.2224627e-06,0.0,1.0070493e-05,4.5044026e-06,3.3012125e-08
5.8830534e-07,0.0,8.853485e-06,6.4684236e-06,0.0
1.4899493e-06,0.0,8.194037e-06,2.291067e-06,0.0
3.0137055e-06,0.0,1.3405361e-05,3.6545919e-06,0.0
3.1067586e-06,0.0,1.05260874e-07,1.8777462e-07,0.0
2.5708707e-06,0.0,1.4329499e-05,0.0,0.0
7.8765695e-11,0.0,1.5769638e-05,0.0,0.0
0.0,0.0,0.0,0.0,0.0
4.8466666e-09,0.0,0.0,0.0,0.0
4.319208e-07,0.0,0.0,2.605631e-08,0.0
2.858714e-08,2.3637847e-09,0.0,3.3216985e-09,0.0
6.955167e-09,0.0,0.0,2.7348707e-11,0.0
0.0,6.284854e-10,3.5549945e-09,1.541473e-08,0.0
0.0,5.032062e-07,6.7931026e-08,4.048689e-07,0.0
0.0,1.6127782e-07,1.17729314e-07,3.9657712e-07,0.0
0.0,1.2849956e-06,1.1357262e-06,1.1756773e-06,7.3480805e-08
0.0,2.6617072e-06,2.5798386e-06,2.5685115e-06,1.0181127e-06
0.0,6.7764455e-07,6.22562e-07,3.4757928e-08,3.9808538e-07
0.0,1.3332456e-06,3.64346e-07,9.4928976e-07,9.922703e-07
8.756811e-08,1.2416881e-06,4.081869e-06,6.2341593e-07,2.0747507e-06
5.35008e-07,8.4102766e-07,2.6443613e-06,2.7263087e-07,2.1147362e-06
6.6376026e-07,4.9897557e-07,2.724829e-06,3.1967297e-06,1.7286986e-06
2.3045106e-06,5.899301e-08,1.1917388e-06,1.9680713e-06,2.723079e-06
4.717838e-06,1.1604748e-06,3.5143057e-07,5.5037856e-07,1.1862023e-06
1.8510391e-06,2.0184098e-07,4.3736613e-06,2.1085118e-06,5.085244e-06
1.0101504e-06,0.0,8.513201e-06,1.850211e-06,2.1831056e-06
4.1106896e-06,4.595415e-07,6.345146e-07,6.787264e-08,9.046126e-07
1.4682627e-06,1.2401133e-05,2.7897672e-08,3.2989842e-06,3.2538074e-07
9.3831574e-07,1.5315237e-07,2.7891988e-07,7.351912e-06,0.0
9.5694816e-08,1.0488043e-07,7.822488e-06,2.2255357e-05,0.0
6.279831e-10,2.629798e-07,5.4006337e-06,1.4357876e-05,0.0
1.2820051e-06,3.8256007e-07,9.577759e-07,9.241947e-06,1.2104766e-08
2.5000418e-07,0.0,1.5207174e-05,3.4296372e-05,9.6435826e-08
1.0267908e-07,0.0,1.4589605e-05,4.3063224e-06,1.8187005e-07
1.8110796e-06,5.1411877e-08,7.796323e-06,3.3918895e-05,1.8083616e-06
1.9067439e-06,1.3741747e-07,1.47881465e-05,0.010034276,1.0708074e-05
1.3979281e-06,7.8377765e-10,0.001982211,0.026159499,1.0787053e-05
1.5822758e-05,3.445961e-07,0.0155563,0.0005786108,4.0838475e-07
6.3443053e-06,1.173631e-06,5.617442e-05,1.1929091e-05,4.9381566e-07
2.5647453e-06,3.0217432e-06,0.000543716,0.0004115425,3.6572848e-07
4.4449985e-06,1.4362716e-07,1.3215735e-05,0.0002027294,2.1255055e-07
0.00013898725,2.9031248e-06,8.444844e-06,7.9978796e-05,3.5773635e-07
0.04019888,2.8964184e-06,1.4086178e-06,1.5916387e-06,1.7471732e-06
0.10063996,4.8265897e-06,1.3234086e-06,7.646957e-07,3.259789e-06
0.0676544,2.8642116e-06,3.0787334e-07,4.7029465e-07,3.9177635e-08
0.032651685,5.643601e-07,6.42616e-07,4.3357645e-08,2.1680312e-06
0.05586357,1.8043545e-06,4.579247e-08,0.0,6.268296e-06
0.03045866,5.123291e-07,0.0,0.0,2.7704168e-06
1.87908e-06,6.7196993e-07,0.0,0.0,4.6668313e-07
1.1399293e-06,1.3068862e-06,0.0,0.0,1.3751342e-06
8.8177467e-07,7.736955e-07,0.0,0.0,4.6430264e-07
5.5271353e-06,5.3593203e-06,0.0,0.0,2.1705254e-07
5.4170033e-07,1.6735697e-06,0.0,0.0,6.648568e-07
4.0050335e-08,2.2990875e-08,0.0,0.0,8.041932e-07
6.589847e-10,0.0,0.0,0.0,2.3813138e-06
1.0214951e-06,0.0,0.0,0.0,9.717019e-08
0.0,0.0,0.0,0.0,0.0
0.0,0.0,0.0,0.0,0.0
0.0,0.0,0.0,0.0,0.0
3.0516882e-12,0.0,0.0,0.0,1.3937546e-06
3.5620804e-13,0.0,0.0,0.0,6.517409e-07
0.0,0.0,0.0,0.0,1.0258343e-07
0.0,0.0,0.0,0.0,0.0
0.0,8.127541e-06,9.841839e-07,0.0,0.0
3.8693292e-07,1.1197764e-05,4.69691e-06,1.9853165e-07,0.0
5.3460794e-06,3.2871246e-06,8.115518e-07,5.0763847e-05,0.0
4.5205297e-06,5.8112397e-07,9.3426536e-07,4.2440482e-07,0.0
1.1122506e-06,7.141134e-08,6.6765836e-07,0.0,1.5922324e-05
2.7552048e-07,2.4521918e-07,0.0,0.0,3.4617442e-06
0.0,5.9709656e-08,0.0,0.0,8.1742456e-07
0.0,1.9419854e-06,0.0,8.525244e-11,1.1894517e-06
0.0,4.6685392e-07,0.0,2.2339622e-08,1.6684651e-06
4.549752e-08,9.4958943e-07,0.0,4.9701807e-08,9.5697835e-08
3.430467e-07,1.02152704e-07,0.0,0.0,1.8636227e-08
1.3809239e-06,0.0,0.0,1.3003195e-07,0.0
3.2958437e-06,0.0,0.0,8.559227e-09,0.0
4.799987e-07,0.0,0.0,2.5962734e-06,0.0
2.0372033e-06,0.0,0.0,3.9313235e-07,0.0
1.2698317e-07,0.0,0.0,0.0,0.0
0.0,0.0,0.0,0.0,0.0
0.0,0.0,0.0,0.0,0.0
0.0,0.0,0.0,0.0,0.0
0.0,0.0,0.0,0.0,0.0
0.0,0.0,0.0,0.0,0.0
0.0,0.0,0.0,0.0,0.0
0.0,0.0,0.0,0.0,0.0
0.0,0.0,0.0,0.0,0.0
0.0,0.0,0.0,0.0,0.0
0.0,0.0,0.0,0.0,0.0
0.0,0.0,0.0,0.0,0.0
0.0,0.0,0.0,0.0,0.0
0.0,0.0,0.0,8.847001e-08,0.0
0.0,0.0,0.0,1.5380303e-06,0.0
8.242216e-07,0.0,2.5511144e-07,3.210007e-07,0.0
3.343032e-08,2.9847335e-08,2.171219e-06,1.4236065e-06,0.0
6.423643e-08,9.644515e-09,3.1995974e-06,2.3932716e-06,0.0
7.6601655e-06,0.0,1.9477282e-06,3.3409466e-07,0.0
2.106934e-06,0.0,7.1614027e-06,8.113454e-06,0.0
5.5075753e-07,0.0,1.4624464e-06,1.2676456e-06,0.0
1.4453416e-06,0.0,2.239446e-06,2.8191667e-09,0.0
0.0,0.0,2.1946894e-07,0.0,0.0
0.0,0.0,1.0912477e-07,0.0,0.0
0.0,0.0,0.0,0.0,0.0
0.0,0.0,0.0,0.0,0.0
0.0,0.0,0.0,0.0,0.0
0.0,0.0,0.0,0.0,0.0
0.0,0.0,0.0,0.0,0.0
0.0,0.0,0.0,0.0,0.0
0.0,0.0,0.0,0.0,0.0
0.0,0.0,0.0,0.0,0.0
0.0,0.0,0.0,0.0,0.0
0.0,0.0,0.0,0.0,0.0
0.0,0.0,0.0,0.0,0.0
0.0,0.0,0.0,0.0,0.0
0.0,0.0,0.0,0.0,0.0
0.0,0.0,0.0,0.0,0.0
0.0,0.0,0.0,0.0,0.0
0.0,0.0,0.0,0.0,0.0
0.0,0.0,0.0,0.0,0.0
0.0,0.0,0.0,0.0,0.0
0.0,0.0,0.0,0.0,0.0
0.0,0.0,0.0,0.0,0.0
0.0,0.0,0.0,0.0,0.0
0.0,0.0,0.0,0.0,0.0
0.0,0.0,0.0,0.0,0.0
0.0,0.0,0.0,0.0,0.0
0.0,0.0,0.0,0.0,0.0
0.0,0.0,0.0,0.0,0.0
0.0,0.0,0.0,0.0,0.0
0.0,0.0,0.0,0.0,0.0
0.0,0.0,0.0,0.0,0.0
0.0,0.0,0.0,0.0,0.0
0.0,0.0,0.0,0.0,0.0
0.0,0.0,0.0,0.0,0.0
0.0,0.0,0.0,0.0,0.0
0.0,0.0,0.0,0.0,0.0
0.0,0.0,0.0,0.0,0.0
0.0,0.0,0.0,0.0,0.0
0.0,0.0,0.0,0.0,0.0
0.0,0.0,0.0,0.0,0.0
0.0,0.0,0.0,0.0,0.0
0.0,0.0,0.0,0.0,0.0
0.0,0.0,0.0,0.0,0.0
0.0,0.0,0.0,0.0,0.0
0.0,0.0,0.0,0.0,0.0
0.0,0.0,0.0,0.0,0.0
0.0,0.0,0.0,0.0,0.0
0.0,0.0,0.0,0.0,0.0
0.0,0.0,0.0,0.0,0.0
0.0,0.0,0.0,0.0,0.0
0.0,0.0,0.0,0.0,0.0
0.0,0.0,0.0,0.0,0.0
0.0,0.0,0.0,0.0,0.0
0.0,0.0,0.0,0.0,0.0
0.0,0.0,0.0,0.0,0.0
0.0,0.0,0.0,0.0,0.0
0.0,8.9929836e-07,0.0,0.0,2.7166405e-09
0.0,1.3695146e-05,0.0,0.0,3.4231882e-06
0.0,3.1748357e-06,0.0,0.0,3.1996078e-05
0.0,4.453185e-06,0.0,0.0,5.3481886e-05
0.0,8.208256e-06,0.0,0.0,8.6532145e-06
0.0,1.5766042e-06,0.0,0.0,5.883705e-06
0.0,0.010327578,0.0,0.0,0.0010357221
0.0,1.6306399e-06,0.0,0.0,1.4715858e-06
0.0,4.4714386e-07,0.0,0.0,5.301449e-06
0.0,3.0700864e-06,0.0,0.0,1.927297e-06
0.0,1.9889558e-06,0.0,0.0,1.187735e-06
0.0,1.6581685e-06,0.0,0.0,3.09105e-06
0.0,6.0111927e-07,0.0,3.148882e-07,5.9443846e-07
0.0,4.64368e-06,0.0,1.7750331e-06,4.410854e-06
7.346684e-07,2.4005205e-06,0.0,2.3107893e-06,1.3243507e-06
1.1773825e-06,3.4515133e-09,6.3774365e-05,6.34397e-07,1.762292e-06
8.5651425e-07,6.8118834e-07,2.6947766e-06,1.4383523e-05,2.5222068e-06
1.0657475e-06,1.3010068e-08,4.2659056e-07,2.0844873e-05,2.177588e-06
1.1687583e-06,4.222339e-07,7.1905873e-07,1.5523299e-06,4.2430653e-07
4.715812e-06,1.534152e-06,2.7007638e-07,3.4002865e-06,3.288356e-07
2.7123715e-06,4.5170577e-07,1.4474695e-06,3.2265984e-06,1.8542981e-06
2.2740167e-05,4.9154178e-08,3.090924e-07,4.044206e-06,1.09441345e-07
3.5310347e-06,8.9341626e-08,4.6374166e-06,1.8409162e-06,3.2009323e-06
3.640202e-05,2.5401325e-06,1.0180679e-06,4.878919e-06,8.888526e-06
0.00018886907,1.9221463e-06,5.4858683e-06,7.44817e-06,1.4884553e-07
0.0003278862,2.2933584e-06,1.2407577e-05,6.5008353e-06,1.0824256e-06
0.0021396794,3.1497077e-06,4.6377504e-06,2.694144e-06,1.1479049e-06
0.006415709,7.5905746e-08,1.9473295e-05,1.7683035e-06,1.1560106e-05
0.0045791264,1.2652564e-06,2.8661832e-06,6.698438e-06,3.5252756e-06
4.2398424e-05,1.1643522e-06,3.2741325e-06,4.7334806e-06,2.5614631e-06
7.606703e-06,3.5171117e-06,1.7295779e-06,2.123525e-06,1.2677556e-06
5.9039935e-06,1.4240721e-06,1.2992058e-06,2.2606948e-06,2.5152603e-06
1.2158481e-06,1.385215e-06,1.5007562e-06,1.4081066e-06,1.2198902e-06
2.0045698e-06,1.118118e-06,1.5004662e-06,1.9999827e-06,7.793956e-07
4.709238e-07,1.7339754e-06,3.5478172e-06,5.917067e-07,1.1332153e-06
1.0481315e-06,5.642895e-07,4.399461e-06,1.9909387e-06,2.464301e-07
2.0100376e-06,1.4287695e-06,1.6269216e-06,6.467244e-07,1.5482024e-07
2.605239e-06,2.0170972e-08,1.1731047e-06,1.5814367e-06,1.3947893e-08
4.126228e-07,0.0,2.341243e-06,3.9325406e-07,0.0
9.761413e-09,0.0,3.0342625e-07,0.0,0.0
2.1828984e-07,1.00348075e-07,4.3124894e-07,0.0,4.561335e-09
1.028506e-06,7.5131317e-07,3.7737126e-07,5.314299e-06,7.4256036e-08
7.5296026e-07,2.0697776e-06,4.81666e-07,1.9554716e-07,1.8354023e-06
3.853234e-06,1.3316706e-07,2.4140442e-07,5.331678e-07,1.1331966e-06
4.520424e-06,1.5307889e-07,1.15003154e-07,1.2799835e-07,1.2060348e-06
1.9727695e-07,3.7419738e-07,3.3468544e-07,1.3000044e-07,2.789458e-06
1.4809006e-06,1.5698319e-06,4.6215212e-07,2.5749074e-07,5.088074e-06
9.18227e-07,8.814177e-08,1.7385847e-07,1.7686442e-07,4.732264e-06
7.4443864e-07,1.0891337e-06,5.640187e-07,2.9839933e-07,6.015387e-07
8.994781e-07,1.3176563e-06,1.4422602e-07,6.197425e-07,8.700429e-08
5.2032345e-07,1.5612148e-06,1.1824644e-07,1.8481568e-07,3.2480258e-07
2.0088855e-07,1.2126189e-06,1.7787329e-07,5.8510597e-07,1.7403355e-06
2.888014e-07,3.2102937e-06,8.622159e-07,2.796981e-07,1.0814301e-06
3.2136947e-07,3.9210053e-07,1.5269167e-06,2.6589714e-07,2.377492e-06
6.487544e-07,2.2430263e-06,1.4959433e-06,9.743638e-07,2.3924602e-07
1.3627767e-06,4.1611565e-06,2.0241505e-06,1.4997427e-06,2.7415288e-06
5.8049284e-07,2.723562e-06,2.0320856e-06,6.259791e-06,1.6389581e-06
1.4309965e-06,8.778532e-07,8.1687864e-07,1.3161647e-06,3.1366442e-06
2.1377493e-06,9.612434e-07,1.738366e-06,2.445685e-06,4.689111e-07
6.2044484e-07,7.1576875e-07,2.5500515e-06,6.71199e-06,1.3762511e-06
1.8453859e-06,6.0654855e-08,3.856717e-07,3.9806767e-07,4.0706468e-08
3.28006e-06,1.1612522e-08,3.6214655e-07,2.8304344e-06,1.8730153e-06
2.306547e-06,4.032907e-08,1.5742304e-06,4.9412716e-07,5.124938e-07
2.313592e-06,2.5164807e-05,6.638553e-07,4.1970546e-07,2.6226797e-05
2.9776797e-07,3.8344842e-05,2.9114958e-06,1.6627247e-06,3.1154646e-05
9.736458e-07,1.533911e-05,1.1843103e-06,3.887712e-06,1.4673668e-05
1.6627008e-07,3.7159311e-06,1.7792687e-06,8.526672e-08,1.2415438e-06
3.1524078e-07,2.0622147e-06,1.795056e-05,2.1102412e-06,1.2467249e-06
4.796372e-07,2.0467613e-08,2.969866e-06,2.3460588e-07,8.063372e-08
4.5630404e-06,1.8795919e-07,3.825281e-07,2.7775386e-07,2.1106933e-07
3.0705317e-07,1.8410266e-07,5.6062015e-07,8.874702e-08,1.9679566e-08
1.5079449e-07,2.193593e-06,1.4461216e-06,2.6509267e-07,0.0
4.1789296e-08,1.8030991e-07,2.5897373e-07,1.2397161e-06,1.4042352e-10
1.8827095e-07,4.0838563e-07,9.518532e-08,8.856876e-07,1.5548095e-09
1.2213028e-06,2.2250672e-09,7.7801005e-08,1.16374736e-07,6.374514e-07
7.228081e-08,6.359253e-07,4.683485e-07,3.3695667e-08,2.1189746e-06
7.8275605e-08,6.840785e-07,9.9758e-08,4.854302e-08,2.2770375e-06
4.7520157e-08,1.4056525e-06,5.2838266e-07,2.2523697e-07,1.5216361e-05
1.2500831e-07,1.0150524e-06,3.0004108e-07,3.1773018e-07,1.3085772e-06
5.209784e-07,1.4643272e-05,7.2262503e-07,3.4514295e-07,1.652989e-06
2.2185246e-07,4.2419906e-05,1.6613549e-06,6.567531e-06,1.132982e-08
9.3833853e-07,2.963731e-06,2.9507532e-06,3.7160858e-06,1.0284422e-06
1.3202946e-06,1.0679762e-06,1.5841352e-06,3.449023e-06,1.1526158e-07
1.9782378e-06,3.1456017e-07,1.8980287e-06,8.2841143e-07,4.3331494e-07
2.3897244e-06,1.56876e-07,9.151283e-07,1.6799974e-06,6.5311324e-06
6.9510197e-06,3.1525907e-08,9.0853916e-07,1.5883338e-06,5.1951097e-06
2.9960788e-08,4.793899e-06,1.5010169e-06,2.1995909e-06,9.928907e-07
6.924341e-06,1.0873512e-06,3.4543884e-06,0.0032943394,1.8739066e-06
4.4521707e-06,1.5673943e-06,2.9554296e-06,4.0710784e-06,9.4767884e-08
6.941516e-07,7.276883e-07,1.680245e-05,2.4472897e-06,2.2390319e-08
2.909901e-07,4.4274788e-07,2.346034e-06,4.3748173e-06,1.3476172e-06
3.8512843e-07,3.492743e-07,1.293485,3.6969872,2.002364e-06
4.2185914e-07,6.643147e-07,0.012633851,0.048767693,1.3428267e-06
2.7655588e-08,1.4901816e-06,0.00039004473,0.0019803483,3.1258056e-05
7.466002e-08,1.0077463e-05,5.611011e-07,7.851712e-06,0.00058046123
7.003754e-08,0.003841964,1.924458e-06,1.0423324e-06,0.0066782804
1.2448893e-07,0.011782307,4.3955055e-07,1.351069e-06,0.006059966
1.769944e-07,0.03990037,1.7459959e-05,0.0031298408,0.016779615
1.3612981e-08,0.11862826,0.008331495,0.02509014,0.03142604
1.3789444e-08,1.2006091,0.31479526,0.0019467856,0.038952805
2.3060134e-07,0.7684211,7.3311053e-06,0.007579321,0.18161564
2.1089173e-07,0.044167984,9.3202607e-07,0.002125884,0.16297883
8.7025626e-07,0.10635479,3.1447316e-06,0.038860556,0.06838846
1.2517158e-05,0.08605915,4.79036e-06,0.000202882,0.08828531
0.00022646534,0.035623707,0.00010337668,3.543428e-06,0.08020311
0.012839849,8.160591e-06,0.00024192907,3.14543e-06,0.11913572
0.00035662708,1.5510811e-07,0.03398547,1.1407623e-05,0.0031528606
1.9853474e-06,2.9879757e-07,0.014439436,0.0007959146,1.8068763e-06
1.6504712e-06,1.9040868e-07,0.030697947,7.530808e-05,5.6433913e-07
0.08490714,2.8822244e-05,0.05208235,9.013335e-07,1.943078e-07
0.20222162,0.00039777465,0.29376277,2.162206e-06,1.2660585e-07
6.686374e-07,1.3442892e-06,0.02184467,3.6459608e-07,9.175833e-07
1.8746657e-07,1.1364578e-07,3.614123e-07,9.871989e-07,1.18573e-06
9.848374e-07,1.7485747e-06,2.171825e-07,1.8006692e-06,5.704201e-07
1.5797699e-06,3.283908e-07,4.3514686e-07,1.6594558e-06,7.036699e-07
2.3954271e-07,1.9081337e-07,5.618892e-07,2.536566e-06,4.3732024e-07
9.857575e-07,1.7899792e-07,8.7307603e-07,1.1530885e-06,4.2113683e-07
1.5456528e-06,1.5925696e-07,1.13608046e-07,6.2124165e-08,1.1395146e-06
1.16771525e-05,3.7661344e-08,2.0518732e-07,4.6771497e-08,2.5736568e-07
1.699609e-05,6.355344e-08,8.435615e-07,1.7254976e-06,4.7057927e-07
2.125488e-05,2.0863745e-07,4.923132e-07,4.0424504e-07,4.0286417e-07
1.5782844e-05,1.9596582e-07,6.32517e-07,1.4342271e-06,2.4526974e-08
1.532051e-07,3.754314e-07,1.7673333e-06,5.3166866e-07,2.4848532e-06
3.0738685e-09,4.7829474e-07,1.2215246e-06,1.9815661e-06,2.3855358e-07
5.728961e-07,1.845611e-07,1.4431942e-07,8.3624354e-07,1.0652341e-06
1.4982171e-06,1.1436952e-06,3.9933212e-08,6.7366375e-07,2.5708996e-06
4.4622232e-07,2.8895687e-07,4.3224054e-07,1.4448412e-06,1.2804784e-06
0.0,4.1180233e-08,9.948275e-07,1.8877475e-06,8.217773e-07
0.0,8.5378415e-05,1.0260613e-06,1.249937e-06,6.205693e-05
0.0,0.00020855323,4.388458e-07,1.2864433e-06,0.00050589384
0.0,3.5735462e-05,0.0,8.939851e-07,0.0001333896
3.7264087e-08,1.0698029e-06,0.0,3.545195e-05,5.892257e-07
3.7496657e-06,2.356797e-05,2.0543855e-05,2.4964289e-05,2.911514e-05
6.8706336e-06,2.5895906e-05,1.0226652e-06,1.4217819e-05,0.00022869716
2.1631537e-07,0.98620665,6.969019e-07,6.321887e-06,0.6672736
3.3500587e-06,0.39841598,7.0984984e-06,6.975562e-07,1.6846714
2.8611282e-06,2.0606656,7.47355e-07,2.5606164e-07,0.3445579
9.40776e-07,4.066227,7.3336327e-07,6.0174153e-07,1.2811152
5.1819025e-06,3.1664915,9.7755146e-05,2.9494686e-06,5.0168943
0.15263578,0.07542269,0.18009636,8.538446e-05,0.3624042
0.5248373,0.3434414,2.2067847,0.92459744,0.22529744
2.5984411,0.6420826,1.5705688,1.2744123,0.47913116
3.3008833,4.003378e-06,0.92066395,1.4753858,0.0012665276
1.4483261,0.0032290276,0.17855017,0.002824811,0.0131913
0.6829072,0.002517142,0.31077415,4.571445,0.0053338176
0.0005267737,1.7371415e-06,0.11874278,0.011020861,6.4635503e-07
0.004371615,3.058188e-06,1.4484768e-05,1.7452643e-06,1.0245177e-06
0.10522254,1.3095341e-06,2.5136496e-06,0.03398064,1.4676538e-06
0.18163656,1.3124795e-06,0.023318186,0.108226836,1.0104877e-06
0.13967182,7.9903026e-07,7.525e-06,0.00035947474,1.9180075e-06
8.009384e-06,4.881738e-07,9.487915e-07,0.0010942207,6.1321487e-07
1.1169564e-06,7.278929e-07,1.2382948e-06,1.6232186e-06,2.053055e-06
1.1401712e-06,1.5690955e-06,8.1991726e-07,1.7981083e-06,3.1934794e-06
1.6728799e-06,2.2068948e-06,2.7570477e-06,3.0076362e-06,7.5189126e-07
3.2452172e-06,8.8266296e-07,4.3744685e-06,1.4193353e-06,1.0009455e-06
2.4670846e-06,2.398424e-06,2.2541676e-06,2.9186333e-06,5.7507896e-07
2.5919735e-06,2.6612458e-06,6.232603e-06,1.1740842e-06,2.1390078e-07
3.629026e-06,8.1937225e-07,0.0012868,0.38655448,5.0127605e-06
1.8259207e-06,0.86311215,1.5647338e-06,4.071965e-06,4.8173655e-07
2.5678696e-06,0.96323144,8.409596e-07,1.7908309e-06,8.9637695e-08
2.3117095e-06,1.6544531e-06,1.5398624e-06,1.9147683e-06,3.919824e-07
3.4355378e-07,1.6387714e-06,5.250154e-07,1.7903079e-06,6.961474e-07
5.822031e-07,0.5147403,2.7489662e-06,2.567625e-06,1.5317695e-06
1.2105314e-06,0.7199998,2.196344e-05,2.683357e-07,1.9203367e-06
1.1140481e-06,2.7732303e-06,1.813126e-06,2.5306615e-06,3.6844156e-06
4.6527228e-07,2.620871e-06,4.9071325e-05,4.5020383e-07,2.8472527e-06
1.4599707e-06,1.215069e-06,1.08343e-06,9.766658e-06,1.9811964e-06
2.844632e-06,3.642725e-06,2.7704355e-05,6.0120474e-06,4.6884566e-07
3.7916558e-05,3.4547245e-06,0.017087867,5.881946e-06,3.5983708e-06
6.360506e-06,4.4835415e-06,6.1816155e-07,5.6511067e-06,3.951559e-06
1.8488795e-06,4.1541452e-06,8.4352865e-07,2.2160391e-07,2.8000431e-06
0.0011922425,9.715104e-06,2.9370355e-07,1.0011851e-06,7.608166e-07
0.4022101,2.6502987e-06,5.493959e-07,1.2098667e-06,4.681667e-06
0.0142795015,2.9500234e-06,3.0645134e-07,8.880691e-08,1.6331973e-06
0.05657587,3.5504352e-06,4.880647e-07,1.0066113e-06,0.07456994
3.9902295e-07,0.004325441,5.587417e-07,1.2081109e-06,1.2250024
1.4076264e-06,3.0539895e-06,7.92961e-07,7.4938903e-06,2.8531747e-06
1.5746693e-06,2.3702023e-06,1.50102e-06,1.8276868e-06,2.9883174e-06
3.0388576e-06,1.3685603e-06,4.0083764e-06,6.506819e-05,1.81421e-06
3.9830857e-06,1.7853563e-06,1.0469478e-06,0.22697738,2.1100661e-06
0.044731606,9.398319e-07,2.6799823e-06,0.0021032996,1.776009e-06
2.7536457e-06,0.0,4.3656137e-06,8.152432e-07,1.5244107e-06
0.057950605,5.1041155e-07,2.572992e-07,3.0070503e-06,6.7875994e-06
0.9684728,1.1995211e-06,2.6466307e-07,1.2798765e-06,1.9379192e-07
7.127172e-07,0.0,9.529507e-07,1.4586652e-06,4.602756e-09
3.329223e-07,6.887557e-07,5.6826065e-07,5.8651653e-06,9.9103076e-08
2.2566483e-07,2.1918784e-07,7.650322e-07,1.0599741e-06,2.7462502e-06
2.0724316e-07,5.986853e-07,2.2688941e-07,2.569083e-07,1.8722503e-06
5.628223e-08,9.877792e-07,1.2324857e-08,1.0479932e-07,1.9404517e-06
6.669998e-07,2.8789257e-06,1.1414758e-06,8.39231e-08,2.2819236e-06
2.7974227e-07,7.5762237e-06,4.2912058e-07,2.99522e-07,3.0588078e-06
3.026336e-08,5.623942e-07,6.6250703e-07,1.523027e-07,2.4868518e-06
3.187967e-07,2.1279432e-06,2.0455605e-08,9.0046036e-08,1.2844003e-05
4.96824e-07,2.7886238e-06,4.9821193e-07,1.1585174e-05,2.9049086e-06
1.3854321e-07,4.8372867e-06,3.718047e-06,1.0013548e-05,2.4898043e-06
8.150135e-06,5.8299605e-07,1.9813247e-06,7.817387e-07,9.233342e-07
7.820713e-07,1.0577432e-06,8.603796e-06,2.9937075e-07,4.503407e-07
1.0147739e-08,1.0662332e-06,4.1613393e-06,6.339865e-08,1.0612698e-06
1.0772559e-08,5.20544e-10,1.5160535e-06,2.3482936e-07,1.4734813e-07
2.351394e-10,2.1901835e-06,1.4585022e-06,2.4651612e-07,1.5775507e-06
4.6781018e-08,2.9415328e-06,2.8309543e-07,1.8397665e-07,4.6187765e-07
2.5172699e-06,5.191385e-07,1.9899055e-07,8.2786656e-08,1.4020793e-06
5.806563e-07,1.2523635e-07,2.6598047e-07,4.840852e-07,8.196249e-06
4.254153e-07,4.184885e-06,5.6802764e-06,1.7783768e-06,5.7855455e-06
2.3231248e-06,6.8202526e-06,3.655391e-06,1.9281583e-06,4.4476008e-07
1.1623968e-06,9.943748e-07,3.0240724e-06,7.6499965e-08,2.0236964e-06
3.498629e-07,3.443591e-06,2.9833102e-06,2.808822e-07,2.8038464e-06
1.2915666e-06,4.184461e-06,3.9634942e-06,5.6866196e-07,1.6121089e-06
1.8089732e-07,1.9091256e-06,3.5410144e-06,1.0554359e-06,3.8839225e-06
6.883299e-07,2.9410079e-09,5.625129e-07,1.7717849e-08,1.4989323e-06
8.894832e-07,1.7475113e-06,0.0,0.0,1.2807333e-06
1.1310768e-06,0.0,0.0,0.0,4.1388794e-06
5.0112266e-07,1.0859696e-06,0.0,0.0,1.8991259e-06
1.2205992e-06,3.0346441e-06,0.0,1.4139265e-07,7.1884856e-06
4.2909122e-07,1.1971882e-06,1.1614216e-07,2.1671372e-07,1.3696424e-05
4.5188404e-08,1.8528524e-07,5.7829897e-07,2.6545048e-09,1.4661825e-07
0.0,0.0,2.8055878e-09,2.2681272e-08,5.376646e-07
0.0,0.0,6.169357e-08,4.0344443e-09,0.0
0.0,0.0,5.1489815e-07,3.8351892e-08,3.019432e-09
0.0,0.0,1.508854e-07,2.9771373e-08,2.113507e-08
0.0,0.0,1.4758202e-06,4.262393e-08,0.0
1.1255359e-07,2.659735e-06,1.1347805e-06,8.0371996e-07,0.0
7.6330826e-07,2.5264362e-09,2.5421937e-06,1.0474165e-07,0.0
6.516982e-07,0.0,7.3464e-07,1.0491108e-06,0.0
2.061706e-06,0.0,1.910698e-06,1.862289e-06,0.0
3.39798e-06,0.0,1.4063536e-06,9.828725e-07,0.0
2.4493088e-06,0.0,4.401154e-06,2.3859652e-06,0.0
1.3744711e-06,0.0,2.2227455e-06,6.6973354e-07,0.0
1.615563e-06,2.2101176e-06,0.03931403,1.8385992e-06,0.0
5.8519067e-06,6.0074285e-07,1.452592e-06,2.1433048e-06,8.854711e-07
1.9717684e-06,1.4982173e-07,3.3185086e-06,1.9139293e-06,1.1573106e-06
2.2044765e-06,5.7609515e-07,1.8756192e-07,2.3135183e-07,4.7381113e-06
1.3752865e-06,1.4695162e-06,2.3049604e-06,2.1704222e-06,1.8517759e-06
1.2192488e-07,1.4897759e-06,6.731018e-07,2.7765583e-07,1.3463836e-06
2.5186866e-08,5.2102228e-06,1.733437e-06,2.2340353e-06,2.0067207e-06
3.5786476e-09,2.9945509e-06,6.564593e-07,1.2214614e-06,7.02443e-06
0.0029497978,8.7721624e-08,1.0099625e-06,1.6707513e-06,7.212143e-07
0.096381456,2.9178418e-07,2.2930283e-06,1.7171523e-06,1.0375973e-06
0.04566678,0.0,3.0630665e-07,5.9779984e-07,1.1649959e-06
8.3773824e-07,2.1418592e-07,1.9441677e-06,1.1930218e-06,3.590682e-07
2.2896886e-05,5.3683533e-07,1.0811865e-06,6.9008206e-07,1.581509e-06
6.5523336e-06,3.9824445e-06,4.5613015e-05,1.8844177e-06,6.126831e-07
6.9067664e-06,1.5943176e-07,5.5385698e-08,1.0020912e-06,2.6595374e-06
0.029169261,0.0,5.982655e-08,1.1324352e-06,1.8600032e-06
4.105172e-06,4.3275716e-09,5.781692e-07,1.2047867e-06,5.852488e-07
0.00035753974,0.0,4.901698e-07,7.591539e-07,1.6941057e-06
5.9662517e-07,0.0,1.0763979e-06,1.1621028e-06,1.1469236e-06
2.3485952e-06,8.6440264e-07,4.87405e-07,1.4510055e-06,1.7784594e-06
4.071585e-06,2.3006246e-06,2.3858008e-06,1.8850598e-06,7.0343975e-07
5.36895e-07,1.1990338e-06,8.5601295e-07,8.64353e-07,6.622158e-07
2.9355e-06,1.2311896e-06,1.6586206e-06,2.8597403e-06,3.7604623e-06
2.03773e-06,1.0298888e-06,1.94464e-06,1.1803322e-06,2.6911466e-06
2.1633937e-06,1.1961334e-06,1.7975245e-06,6.600632e-07,9.909635e-07
1.1435046e-06,4.7645673e-07,2.3327602e-06,3.648787e-07,1.660384e-07
8.815508e-06,1.2252867e-06,4.560821e-06,2.611879e-07,3.2135524e-06
5.5362448e-06,3.6976533e-07,1.4832448e-06,5.9039312e-08,5.0782087e-06
1.9265572e-06,0.0,1.1027116e-06,1.1409172e-06,2.993416e-06
6.171443e-07,0.0,3.5072365e-08,5.109538e-07,3.7012407e-10
6.8988203e-07,0.0,2.799702e-07,6.465691e-07,4.948666e-07
7.681489e-07,0.0,2.5522966e-06,5.1635043e-06,1.7767155e-06
1.6423304e-06,0.0,3.1177854e-06,5.5473834e-06,2.2124932e-07
6.6181707e-07,0.0,2.291265e-06,1.3760026e-08,3.4893426e-07
2.1494004e-06,0.0,1.9656445e-06,0.0,4.2568295e-06
3.3261165e-06,0.0,1.8802369e-06,0.0,2.2498223e-06
2.850296e-06,0.0,4.3807577e-07,0.0,1.9003984e-06
3.5244042e-07,0.0,6.5589427e-07,2.7397762e-08,4.3740587e-07
2.7509923e-08,0.0,5.324275e-07,6.1293423e-07,6.183664e-07
3.0336764e-08,0.0,6.8102284e-09,0.0,3.0247038e-06
1.693875e-06,0.0,3.1961176e-06,0.0,5.0603785e-06
4.8832095e-07,0.0,2.5496695e-06,1.084713e-08,1.9061274e-06
1.7551029e-06,0.0,1.9361275e-06,1.0676685e-08,6.204805e-06
1.1818213e-06,0.0,3.0907927e-06,1.8642551e-07,4.094125e-06
2.2309623e-06,0.0,1.7174116e-06,1.0257722e-06,6.9726498e-06
0.0,0.0,1.1622612e-06,0.0,4.1318735e-06
0.0,0.0,1.5443957e-06,0.0,1.1461419e-06
0.0,0.0,2.3505683e-08,0.0,1.367468e-07
0.0,0.0,6.248692e-07,0.0,0.0
0.0,0.0,6.804004e-06,1.6484772e-05,0.0
0.0,0.0,3.965012e-06,1.6200682e-06,0.0
0.0,0.0,5.472622e-06,0.0,0.0
0.0,0.0,2.2189617e-07,0.0,0.0
0.0,0.0,1.2052844e-06,0.0,0.0
0.0,0.0,8.6340316e-07,0.0,0.0
0.0,0.0,3.9960346e-07,4.4798594e-07,0.0
1.904479e-09,0.0,1.6542616e-06,3.4796496e-08,0.0
7.114177e-07,0.0,5.6836103e-07,1.4866969e-08,0.0
3.9577483e-07,0.0,7.002875e-07,7.312667e-09,0.0
3.8133785e-06,0.0,2.5990198e-07,4.1013996e-07,0.0
8.157385e-06,0.0,2.1095201e-07,1.565808e-07,5.4923696e-08
9.09462e-06,0.0,5.116128e-08,6.970256e-07,1.6332308e-07
7.867678e-06,0.0,2.7588263e-07,2.1270232e-06,8.0745144e-07
9.891486e-06,0.0,1.5974498e-06,1.1296712e-06,4.6413067e-08
9.225839e-06,0.0,6.747486e-07,5.58784e-07,1.6333198e-08
6.058482e-07,0.0,1.6560151e-06,1.3294532e-06,5.2150546e-07
1.7530914e-07,0.0,9.330846e-07,8.2153133e-07,3.9624675e-07
1.8417326e-06,3.0241725e-07,6.6201136e-07,1.5585296e-06,4.914991e-08
8.791377e-06,8.766179e-07,1.0763605e-06,4.651423e-06,9.832637e-07
4.907077e-07,6.51191e-08,3.7248121e-06,2.7235787e-06,4.2561433e-07
1.2868567e-07,2.0373888e-07,6.385254e-07,3.3062738e-06,8.0955095e-07
1.1604194e-07,1.1561967e-08,6.8409768e-06,1.3191817e-06,1.6605536e-07
1.5999323e-06,5.5567597e-07,3.1485415e-06,5.8111095e-06,6.132684e-08
1.8000321e-06,1.9812691e-07,2.3030266e-06,3.8504973e-06,2.7763835e-07
2.4240578e-06,1.7062671e-06,2.2898519e-06,2.4113413e-07,7.811676e-06
3.2074308e-06,7.2536415e-07,2.7325862e-07,3.6227615e-08,3.7888416e-08
8.469654e-06,4.5495852e-07,4.332123e-07,6.7335674e-07,8.354211e-09
0.059287593,8.9068794e-07,2.171636e-06,2.8511005e-07,8.3811335e-07
0.0024751727,2.6357227e-06,2.2554613e-07,1.4832167e-06,5.8863834e-06
3.1856968,1.7587599e-06,0.0154671,1.378364e-06,2.2483432e-06
9.138832e-07,1.4320976e-06,2.11229,1.0906756e-06,3.9030846e-07
3.025826e-06,4.2999127e-06,0.5430848,0.0910992,1.7702299e-06
5.244979e-06,7.1935455e-07,2.536616e-06,0.9526451,1.108867e-07
7.692137e-06,3.624136e-07,7.9683963e-07,0.4924139,1.1526618e-05
9.595358e-06,8.9212045e-07,7.340486e-07,3.6981635e-07,6.3435928e-06
1.4944276e-05,1.175027e-06,4.9724815e-07,1.5823994e-06,2.3794931e-07
3.578549e-06,9.873455e-08,5.229987e-07,4.1058334e-07,1.2341699e-06
4.486133e-06,1.7954592e-07,8.4456343e-07,4.5690693e-05,2.4023668e-06
4.183047e-06,7.137823e-08,5.4535474e-07,0.00033659177,1.112029e-06
3.885939e-06,9.304705e-08,1.058198e-07,3.8365357e-05,7.255343e-07
5.2311425e-06,2.041699e-08,8.073695e-07,7.956713e-06,1.7004442e-06
6.7331626e-07,4.8739014e-07,1.3355478e-06,1.8290533e-06,1.0337926e-06
3.98601e-07,1.606425e-06,1.3168913e-06,1.5090075e-06,1.2022837e-06
9.673763e-07,3.9198207e-05,2.0103773e-06,1.78841e-06,7.250748e-07
3.3656514e-07,3.4799803e-05,2.3778177e-06,7.831146e-07,1.119379e-06
4.855648e-06,2.3387693e-05,1.7227447e-06,7.912295e-06,8.948871e-08
1.5779115e-06,0.00018048231,2.1246537e-06,6.218477e-06,0.00014960709
7.3408853e-07,1.1983261e-05,0.0011802965,6.205664e-07,1.2816877e-06
5.1678114e-07,0.00012463432,4.2200645e-05,0.0004829953,2.455684e-05
2.7095132e-06,2.6860938e-05,0.00014468879,0.0006415615,5.4915963e-05
2.6777388e-06,1.3999827e-06,0.00022079774,0.00043078282,4.3548916e-05
5.386653e-06,1.9941147e-06,0.00012605047,0.00019996808,5.77879e-07
1.0374024e-05,7.205355e-06,2.1087499e-06,1.640047e-05,4.053669e-06
1.6848749e-07,8.115472e-06,9.076997e-06,1.20286e-06,1.1204258e-05
6.008752e-08,1.2223505e-06,8.7112267e-07,8.0324895e-07,1.3518414e-07
2.8548022e-09,6.7447964e-08,5.770441e-06,8.691169e-07,3.6373667e-06
1.2136508e-08,1.0885001e-06,1.9535327e-07,9.539688e-07,2.9451757e-08
0.0,2.8121501e-06,2.2646827e-06,3.343728e-07,4.5538428e-07
4.8154297e-10,4.1612762e-07,6.022444e-07,4.963818e-07,6.646799e-08
4.5216015e-07,1.8522028e-06,4.43758e-06,8.970114e-06,3.2904077e-06
2.0385995e-07,0.050567053,2.4449605e-06,3.9732288e-07,0.0095763905
8.310478e-08,4.8658454e-05,9.941579e-07,1.5081059e-07,3.0483497e-07
3.420851e-07,1.0244407e-07,8.9456313e-07,3.108483e-08,1.6337137e-07
3.544502e-07,2.268615e-07,3.04601e-06,9.1485e-07,1.6076403e-07
3.6383528e-06,2.4367594e-07,9.240028e-07,1.4863151e-06,1.2231768e-06
1.3568869e-06,9.958793e-07,2.8467443e-06,1.5986735e-06,1.2692401e-06
1.2077408e-06,1.0299854e-06,3.5297512e-06,5.348762e-07,1.8019612e-06
1.7405567e-06,3.2504073e-07,3.8395233e-06,2.5241275e-06,2.1327874e-06
2.205809e-06,2.7060448e-06,6.16152e-07,9.35928e-07,1.6702463e-06
3.6803272e-07,4.3073514e-06,1.2317154e-06,1.3703896e-06,3.5023156e-06
4.090735e-07,1.4800205e-06,5.0714707e-06,2.4460753e-06,4.7117956e-06
1.1011347e-06,1.495395e-06,2.3893265e-06,7.2998216e-07,4.0217515e-06
0.0,1.7005225e-06,3.0260315e-07,3.6989032e-08,2.6297091e-06
4.4866924e-06,9.590752e-07,1.579541e-07,1.3765542e-06,3.9601392e-08
1.5225945e-05,3.9192592e-08,2.7440219e-08,1.6079515e-07,3.260519e-07
2.995078e-06,1.6247589e-06,0.0,1.0513213e-09,2.4905535e-07
1.8173711e-06,4.2886813e-07,1.3187206e-05,1.1643419e-06,2.8390377e-06
4.5272636e-06,8.219361e-06,1.2260701e-05,2.9373707e-05,7.688917e-07
9.183824e-05,4.664789e-06,1.3194976e-06,0.03583307,3.0690462e-06
4.1378803e-07,3.1730207e-05,0.080157794,2.4614587e-06,3.070122e-06
4.1605886e-06,8.4747546e-07,6.8471724e-07,1.5294546e-06,2.4686467e-06
8.440021e-05,7.4049654,1.1766526e-05,4.5060865e-06,2.0827677e-06
0.77570784,0.032738265,0.0098663345,0.28693184,4.3983884
6.366544e-06,1.756721e-05,8.655022e-05,5.865993e-05,2.0385041
9.670499e-08,4.4084677e-06,0.6440443,1.1225262e-05,5.945706e-06
7.4255217e-06,6.352092e-06,2.6681366,0.00012854853,1.006386e-06
5.0089125e-07,1.0762625e-05,5.51287e-06,0.0038786863,1.2565364e-06
5.091916e-07,2.2831912e-06,9.93478e-07,3.8132428e-05,1.3602233e-05
2.7281826e-07,1.02988015e-05,5.6249377e-07,9.724328e-07,1.7571239e-06
5.399631e-07,6.33968e-06,1.8231731e-07,1.938762e-06,2.3097473e-06
6.4785067e-06,2.0658213e-07,1.0280721e-06,9.45886e-07,1.5577795e-06
1.5994623e-05,1.8226743e-07,1.217427e-06,4.6832673e-07,3.5610128e-07
1.1202308e-07,2.5876116e-06,4.3925893e-06,2.075036e-07,1.7769364e-06
3.8876877e-11,4.6108022e-07,0.97966313,2.024543e-05,4.523454e-07
5.032262e-09,7.1135366e-07,0.0001232159,1.3179709e-05,9.136953e-07
7.284238e-07,1.8104801e-07,9.731203e-07,2.174897e-06,2.7931666e-09
2.087114e-07,1.5178361e-07,1.6499201e-09,5.459569e-07,1.1309825e-07
4.016781e-07,1.34565e-06,4.4457724e-07,5.300239e-07,2.0689913e-06
5.99083e-07,8.249314e-07,2.2858703e-06,3.1597696e-07,3.6301594e-07
0.00019432844,3.1237932e-06,1.5482451e-06,3.038616e-06,1.450314e-06
1.7388678e-05,7.0871642e-06,8.8491146e-07,6.781432e-08,2.9607438e-06
1.2287061,1.1350506e-05,6.130043e-07,4.3947093e-08,6.934348e-06
10.124715,3.661559e-06,3.6180115e-06,4.7224998e-07,3.733342e-06
1.7170589e-05,9.189656e-06,2.4635295e-07,1.1308897e-07,4.884089e-06
