"[299, 255]","[227, 248]","[287, 319]","[279, 328]","[230, 262]"
3.2165506e-06,2.0956743e-06,7.6352273e-07,0.001106476,5.5304696e-07
2.2332733e-05,3.7992166e-07,0.02743625,3.046591e-06,9.854875e-07
0.40233752,1.7724861e-06,0.093403235,1.7252843e-06,8.698366e-07
2.9147357e-05,1.3556586e-06,8.878298e-07,0.41162756,1.1585886e-06
6.675831e-06,5.059453e-07,7.722708e-08,0.7541049,1.7829614e-06
1.2747289e-06,5.574055e-07,2.140839e-07,3.2421124e-07,5.210594e-07
1.325572e-06,2.5765098e-07,1.6558577e-07,7.8370746e-08,7.8462523e-07
2.3216846e-06,1.0340066e-06,1.2494365e-07,3.903883e-07,1.6060927e-06
3.837055e-06,2.1586936e-06,2.1192342e-05,5.7063122e-08,1.6394368e-06
3.4412637e-06,1.9897534e-06,3.1690246e-07,2.0148222e-07,0.0064221513
2.7288331e-06,2.6844798e-06,8.139658e-07,9.428512e-05,2.0280727e-06
1.6443298e-06,1.6736411e-06,0.46647555,6.259413e-06,1.4765017e-06
9.561474e-06,0.5294854,0.79996735,1.4412209e-06,0.041843176
5.668294e-05,0.33331895,0.18000057,1.0482761e-06,3.4047516e-06
6.1687997e-06,0.9339917,0.1478064,1.189958e-06,0.30402663
5.6587683e-06,1.8959513,2.0773039e-06,1.3708992e-06,2.0923844e-06
8.847629e-05,2.3615746e-06,0.00018833663,5.626082e-05,0.010899507
0.29499358,1.4356714e-06,0.022488939,2.7669741e-05,0.083887234
1.2146391,4.117537e-06,2.3774744e-06,3.5474359e-06,2.1622479e-07
0.105999306,7.834559e-07,2.2804657e-06,1.8249571e-07,1.2192336e-06
0.06665517,2.1885683e-06,7.882186e-07,2.6459512e-07,2.488771e-07
0.63083786,2.3378998e-06,0.000115177216,1.6615753e-06,1.2829222e-06
0.22602865,1.6278144e-06,1.5269132e-05,0.0059315595,1.1184399e-06
0.00029687508,9.323785e-07,0.00028807114,0.83942693,1.2501717e-07
2.449735e-05,1.4503515e-06,6.6503367e-07,0.31975272,1.5412132e-05
3.820169e-06,2.343641e-06,2.9676654e-05,2.1083848,3.8055455e-06
5.9348936e-06,0.029613273,4.1427807e-06,0.0020645862,1.8959778e-06
5.2498547e-07,2.3101813e-06,3.9095517e-06,0.00058543764,0.052401345
3.7163497e-06,0.060224432,4.7927807e-07,6.730159e-07,0.03911449
7.464485e-06,0.057792384,9.133985e-08,1.6361051e-07,0.023814956
4.444131e-06,0.028384075,6.882846e-08,4.8626124e-08,0.09298405
1.00033585e-05,0.10866212,7.62687e-07,1.06075014e-07,0.09058798
0.13452315,0.006226563,9.027429e-06,2.197845e-07,0.003493966
0.003734018,2.8082943e-06,6.721073e-06,5.91818e-07,4.295045e-07
0.008791045,1.8748285e-06,1.4631253e-06,4.573867e-06,1.2409024e-06
1.5372626,4.5273127e-06,7.7289724e-07,1.2191205e-05,0.0008860583
0.017941704,3.4200555e-06,3.9366884e-07,0.0009832273,0.18908513
0.00058129744,2.4818578e-06,0.025743803,0.2157205,0.55023855
0.005577034,3.5434216e-06,0.002692749,0.024550721,0.20066227
0.4013276,5.0803255e-06,3.8735723e-07,3.9170263e-06,9.3342163e-07
1.3460226,0.0002724924,6.7465703e-06,2.717105e-06,4.2238464
1.4534525,1.5882007e-06,5.0193553e-06,6.389975e-07,0.44037938
0.87896043,1.7682291e-06,3.5612518e-06,2.1599571e-06,7.1732335e-05
1.7727139,9.606389e-07,6.2919526e-07,9.542915e-07,1.6400414e-06
0.035972394,2.0076525e-06,2.092398e-06,3.042206e-07,1.0492406e-06
0.12449325,8.8994324e-07,0.020122442,3.9331167e-07,7.0933777e-07
0.0071621994,3.1347106e-06,0.02604072,0.0006722194,3.671341e-06
0.003492167,0.78607965,5.8234577e-06,1.2784563,2.381731e-06
0.00019196984,1.7337354,2.508558e-06,0.00029401603,1.4263611
3.0650021e-06,7.717242e-07,6.610762e-05,1.1096079e-05,0.74397635
3.811633e-07,7.367808e-06,1.5812062e-05,4.4327277e-07,0.037751295
4.8480456e-07,0.25083953,1.0373413e-06,7.0686474e-06,0.3135416
3.536806e-05,2.080402,1.1634134e-07,1.0054706e-05,1.4585214e-06
0.002063612,1.8071883e-06,0.4690412,1.3871969,2.1295054e-06
0.038947057,7.343902e-07,1.1167201,0.69296837,1.4013195e-06
0.061912805,1.2772161e-06,0.17401281,0.03720891,3.8665917e-06
0.024397928,4.3703203e-06,0.006709371,0.3839604,1.7340506e-06
0.08650167,3.4039072e-06,0.0030069372,0.0053033773,6.647696e-07
0.00011507782,1.2261235e-06,0.005890805,0.00020023949,5.992433e-07
4.566756e-05,1.6284372e-06,0.084238045,1.961291e-06,0.47127953
1.0401959e-06,1.1783442e-06,5.789078e-06,2.4537217e-06,0.006358726
1.9288993e-06,2.6689452e-06,1.4281559e-06,3.0302288e-06,1.3176859e-06
1.1423544e-06,2.3956245e-06,5.8953265e-07,1.3885905e-06,5.3897224e-06
6.2549833e-07,3.1690568e-06,1.8105463e-07,5.238324e-07,4.112381e-06
6.229561e-07,3.0438462e-06,4.9221385e-06,2.8162773e-07,9.500601e-06
2.7966594e-06,4.223317e-06,6.5236884e-07,9.793488e-07,3.6892304e-06
6.140239e-07,6.893751e-07,1.7472553e-07,5.9767394e-06,0.0009537496
2.2993754e-06,4.5702586e-07,0.09666608,1.2209936e-05,9.1608475e-05
9.1917343e-07,0.07027215,0.31238616,0.22511128,6.3006955e-05
1.0704767e-06,0.04703624,0.928722,0.04780916,7.612442e-06
1.3101054e-05,4.1747367e-06,0.2596188,0.10570584,1.3498129e-06
3.6808096e-06,4.3279015e-06,0.41638452,0.0013923247,0.0007136471
3.5674697e-05,3.07582e-06,0.07235986,0.0021110105,0.40588492
0.0015546988,0.09247635,0.08935489,0.0003421997,8.3312e-05
0.006019153,0.00021257951,0.012386971,7.3688796e-05,1.2673105e-05
0.1362489,1.3643998e-06,8.374707e-05,2.1647378e-05,7.504613e-07
0.9450939,0.0087076705,0.059281036,7.677633e-06,2.5468025e-06
0.25957322,0.00014598202,0.00282189,2.5677723e-06,0.46692926
2.466124,9.5377654e-05,0.0002146976,1.481664e-06,2.0329053
2.6787107,1.3292527e-06,0.00036240142,7.767716e-08,1.3025501
2.3493156,5.5241696e-07,0.00011452893,4.6601963e-06,0.33916306
1.2439263,1.1308199e-06,4.3150692e-05,1.3289482e-06,0.665368
1.1584747,1.9898043e-06,5.0680337e-06,3.427876e-07,1.6965179e-06
1.9820986,2.9898727e-06,7.017039e-06,4.056591e-06,1.1395812e-06
0.24012513,0.097049505,1.8215667e-06,3.6999032e-07,1.3279122e-06
0.0011009409,3.7262002e-06,2.657828e-06,5.577637e-07,2.4571252e-06
5.1796877e-05,2.1674623e-06,1.236311e-06,1.7637963e-06,3.096328e-06
8.6285226e-08,0.6190498,2.3410244e-06,1.9645047e-06,3.233434e-06
2.089206e-08,1.9213257e-06,1.8953301e-06,8.633247e-07,1.2677725e-06
3.793134e-07,1.3885939,8.861322e-08,2.2045857e-05,0.6776091
2.4691517e-06,5.899085e-07,2.307463e-06,8.430227e-06,0.00010371266
3.210865e-06,1.5634939e-06,3.9360752e-06,1.7012893e-06,1.581102
0.008118664,2.3550492e-06,1.5789291e-06,2.1552169e-05,2.494267e-06
0.0038822896,4.0460754e-06,1.9490683e-06,1.1104183e-07,1.1259922e-06
0.015139059,6.685239e-06,2.856114e-07,2.0917223e-07,1.5245508e-06
0.02381806,2.9868856e-06,4.310545e-08,1.7392865e-06,5.888915e-06
0.081295945,2.2191286e-06,4.0306077e-06,8.0518464e-07,6.569261e-06
1.1269768,3.969913e-06,4.745027e-06,3.9658838e-07,5.1688266e-07
0.028853657,2.1123715e-06,1.5274891e-06,0.20084721,1.4065389e-06
3.0444264e-06,7.7117954e-07,3.0998742e-06,7.5997826e-07,7.992022e-06
6.508967e-07,1.5466161e-06,4.640544e-07,6.004053e-07,2.887667e-06
8.1423696e-07,0.31298912,1.1790866e-06,3.0041545e-06,3.0052329e-06
8.3149195e-07,0.0040291073,8.8293035e-07,6.768767e-05,1.6497756e-06
4.500063e-06,0.048945975,1.7099072e-07,0.002892396,0.011245999
2.088423e-06,0.9401621,6.6442044e-07,0.006768729,0.29229596
4.6904066e-07,0.42579883,4.853777e-08,0.0015808971,0.34222752
1.2545189e-07,0.045511417,1.2502487e-07,7.200653e-06,0.30755946
0.09802416,0.031472582,9.818807e-07,3.561557e-07,5.00787e-07
0.061488595,0.62761074,6.78861e-08,7.5447116e-07,0.0012549189
0.013849142,0.08543058,4.012707e-06,7.035499e-07,0.4715642
0.076464884,0.865296,3.6553408e-06,2.7068545e-06,0.4798595
0.031789977,0.9034796,1.4683661e-06,3.6587046e-06,1.2327809
0.009641294,4.954375e-06,1.0807005e-06,1.2681869e-06,0.58316976
0.5811927,3.8948533e-06,0.0061186524,6.2443073e-06,0.09709398
0.7420874,5.01984e-06,0.32481,6.4123753e-07,1.2001281
1.1219103,3.2048879,0.16779985,0.22350599,0.7616779
0.067671716,1.3806543,0.38886395,0.0057107173,0.049715966
0.03251826,0.013910782,0.10246661,0.010318349,0.4765352
0.008133228,2.36133e-06,0.010334349,0.00027852383,5.2611767e-06
0.28450435,2.3599152e-07,0.019514224,0.037863616,2.6293461
0.027388046,8.1543783e-07,0.0060167634,0.10344914,2.3665762
0.0013237005,7.578607e-07,0.00067038595,0.03132479,2.1553607
0.00088136655,0.07270028,1.1239177e-05,0.0012256907,0.009271497
0.011100657,0.6492114,0.007471708,0.0009309366,0.9906713
0.005342653,0.00025132674,0.016232776,0.021555368,0.055168346
0.08752003,0.04731199,0.00042839692,0.019871065,0.0336942
0.347248,0.09861049,2.8071283e-06,8.445421e-07,0.015480263
7.621122e-05,3.2317496e-07,1.3920073e-06,3.9009083e-07,0.018089607
0.001263155,1.2814144e-06,4.6622295e-06,5.9404283e-05,9.589039e-07
0.0012038585,0.0026016305,2.0762898e-06,1.412652e-06,3.3746753e-06
0.013541391,5.7786684e-07,1.4784013e-06,0.008023959,8.0140296e-07
3.8901894e-06,1.8643009e-06,9.3780454e-07,6.450602e-07,1.7456476e-06
2.5082993e-05,1.2828237e-06,9.556799e-07,0.00019410733,1.2116826e-06
4.457326e-06,1.1919381e-07,1.6683986e-06,4.358587e-07,2.2688037e-06
9.759146e-07,1.1463204e-06,9.543455e-07,9.4214926e-07,2.0163086e-06
4.1440677e-07,1.5445327e-06,7.368931e-06,0.0002636804,0.012139199
5.665662e-07,2.5792944e-05,1.1717069e-05,0.07005919,2.5229535e-06
4.841705e-06,5.7302196e-07,3.3850803e-05,0.12906866,1.6748664e-06
5.5772716e-06,7.982806e-07,2.1527637e-06,0.15003435,2.7143808e-06
0.058366906,1.984948e-06,0.19628163,5.6621593e-07,1.1961865e-06
6.5487698e-06,2.459792e-06,0.00036339296,6.121807e-07,2.0981238e-06
0.02850426,8.942554e-07,2.8603565e-06,2.3379935e-07,1.7764919e-06
0.0013260122,2.2131114e-06,1.7837913e-06,2.677356e-07,1.7257584e-07
0.50884145,1.1149164e-06,0.0020238387,1.0282976e-06,3.0737506e-06
0.015781684,2.0809864e-06,0.051871225,8.448861e-07,2.1678502e-06
0.004514356,1.7725003e-07,0.00011973646,0.011084887,4.4242743e-06
0.007728872,2.9741318e-07,7.000801e-06,4.5697175e-06,2.515183e-06
0.006075503,7.142471e-07,2.9305443e-06,4.1831804e-06,3.2894611e-06
8.259559e-07,1.6253404e-06,1.2545005e-06,3.9594684e-06,1.5483099e-06
1.0052037e-06,5.1447814e-06,1.5149246e-06,1.4510518e-06,7.305858e-07
5.765484e-07,1.0858439e-06,7.718019e-07,5.583088e-07,1.0799376e-06
3.3945946e-06,2.1649123e-06,1.7275275e-06,1.01149034e-07,1.3031574e-06
2.9415723e-06,1.5617784e-06,3.1745986e-07,6.2012715e-09,2.7510055e-06
4.839439e-06,4.9970555e-07,3.458139e-07,7.597948e-08,1.0930362e-06
8.5525505e-07,1.069476e-06,6.9912966e-07,1.199892e-07,2.0534176e-06
6.52498e-07,2.3582131e-06,1.0332647e-06,2.767695e-06,1.121074e-06
2.3348464e-06,2.6385962e-06,1.673402e-07,1.4702752e-06,9.765846e-07
2.116353e-06,8.6764487e-07,5.292403e-07,4.7853024e-07,4.143219e-06
2.1721733e-06,2.3380542e-06,3.54725e-07,4.1459884e-07,3.8935073e-06
6.5214846e-07,1.8033892e-06,5.4510203e-08,2.1398936e-08,3.0966137e-06
3.219705e-07,1.0734738e-05,3.4369423e-06,2.0791404e-07,4.8500606e-06
1.1405913e-06,1.6090535e-05,8.692318e-08,2.5979904e-07,3.0819083e-06
0.00017415367,1.2738179e-06,5.142372e-07,4.6625814e-09,5.3151784e-06
0.00029216098,1.2824048e-06,6.479934e-07,1.3074192e-07,9.981396e-07
2.2629883e-06,2.1630885e-06,3.24314e-06,3.3069637e-06,2.485152e-06
0.0,2.2529023e-06,4.6395867e-06,1.2554341e-05,1.1190366e-06
5.2769252e-08,5.920204e-06,2.0592688e-06,3.0521406e-07,6.6586986e-06
1.7847582e-05,0.08304493,4.0970136e-07,3.978142e-07,0.21108373
3.9301317e-06,3.0329375e-06,1.4069734e-07,1.153522e-06,1.5364058e-06
0.00026713376,2.0431228e-06,0.06033733,0.15497386,7.1394663e-07
0.27583817,1.0222252e-06,0.09768036,5.8764624e-07,2.4374604e-06
0.00048113,1.3940482e-06,3.4173456e-07,2.6130436e-07,8.9083e-07
7.807727e-05,6.2980695e-07,4.0028596e-07,3.107239e-07,6.466181e-07
0.06897716,1.8016489e-06,8.419169e-07,4.963331e-07,5.033846e-07
0.27554193,8.8428044e-07,2.9593264e-07,0.0008220635,5.053204e-07
0.17782749,2.4231852e-06,0.00012619828,0.02615271,3.190038e-07
0.18135266,9.611812e-07,2.5786205e-08,2.9012957e-08,5.9902953e-07
1.4860973e-06,1.7312044e-06,3.146401e-07,8.883137e-08,8.520109e-07
1.3118477e-06,2.709248e-06,5.64577e-07,6.908491e-05,2.155e-06
3.7991315e-06,1.6153584e-06,1.0425498e-06,5.2838527e-06,1.8970425e-06
1.1546448e-06,5.917589e-07,2.2120898e-06,6.819582e-08,1.5873346e-06
7.533857e-07,2.5956402e-07,4.0080928e-07,3.609703e-07,6.654843e-07
0.027302526,9.614295e-07,0.12102584,1.5602193e-07,3.4173974e-07
1.4494391e-06,5.0346546e-07,1.7573548e-07,3.6853348e-07,1.200014e-06
5.097154e-06,2.9374744e-06,2.0866331e-07,0.00079583545,3.0139615e-06
2.0884968e-06,5.4787974e-06,1.0324162e-06,6.2379456e-07,1.2311779e-05
4.7844725e-05,0.00091791694,6.045069e-07,6.174654e-07,2.4072974e-06
7.455415e-07,4.3766936e-06,1.7491942e-07,3.6203429e-07,2.3904302e-06
3.8140016e-07,3.3875751e-06,2.1919555e-05,0.0012680303,1.8916213e-06
0.055885024,1.6134958e-06,0.3391814,0.8965726,5.604111e-06
3.615326e-05,0.0008802308,0.5805181,0.8975917,0.18116574
3.4089846e-06,3.7831014e-06,0.17078269,0.33404157,0.068547904
0.15136296,0.8011453,0.34710914,0.40418458,1.8134044
0.051556066,1.8036379,0.19969401,0.4177745,4.0530386
1.4708389,2.580035,0.5832084,1.2907437,3.9847286
1.5469496,1.5150012,0.822043,1.3027736,2.2506402
3.4011958,0.69927806,0.5353199,1.1751451,1.7293774
2.8432188,0.06522547,0.56234705,0.99391633,0.77014285
1.1992536,0.0036224166,0.54424155,0.9992031,0.19253275
0.031029351,0.74145347,0.44889733,0.9841317,0.029842332
3.110759e-06,2.2404323,0.33758184,0.6473134,0.7739672
1.1629246e-06,4.2853975,0.4105741,0.14241691,1.2433058
8.770837e-07,2.6571589,0.93609494,0.10948567,0.26134336
0.09322665,0.75384915,0.6124479,0.5929785,0.62580305
1.462031,1.0469555,0.038807217,0.10685334,0.0006601714
0.5068496,0.64077747,0.04474575,0.59509534,0.0017462437
6.6699704e-07,1.5459095,0.42657885,0.6107219,0.020925397
2.2195647,1.173225,0.26446784,1.3425608,0.041353527
0.98151803,0.39007568,0.308467,0.43615574,0.021591038
2.1453068,1.1680598,0.28365394,0.13409406,0.045558646
5.719702,2.5205673e-06,0.22953747,0.044732396,0.078964636
5.6837387,0.085901305,0.06654574,0.012527807,3.3311204e-05
1.8888088,8.9627605e-07,0.0030363677,1.9320028e-07,3.5964848e-07
0.11802955,8.2933286e-07,0.42940825,7.119039e-07,8.3169454e-07
1.4441048e-06,1.4010462e-06,1.4867344e-06,1.1724816e-06,8.5004615e-07
2.101233e-06,9.018234e-07,3.0980758e-07,1.1909699e-06,1.4323703e-06
3.109464e-07,0.011194475,3.9489024e-07,0.5519546,0.2323955
3.0718663e-06,7.4139064e-07,0.09323733,0.0313466,0.46559957
0.37922835,2.7762912e-06,0.025538832,0.029896867,1.0447158e-06
2.6066604,1.6794692e-06,0.0017300734,0.007916018,1.1690411e-06
2.2037172,1.1279344e-06,0.02480212,0.004398673,1.5165859e-06
0.3444755,1.1529938e-06,0.50810635,2.56564e-05,1.1693484e-06
0.0022984804,1.1394974e-06,0.00025008898,0.021942815,5.699562e-07
3.1384013e-06,2.2824488e-06,0.03342277,0.52860796,1.942812e-06
6.666597e-06,3.4713128e-06,0.00015491773,1.3101127e-05,9.097553e-07
5.385564e-06,3.3558717e-07,0.56771183,0.054559655,3.7989653e-07
1.9583358,6.457694e-07,0.5387898,0.07385365,1.9699155e-06
1.50746455e-05,1.1418717e-06,0.29666618,1.5426329e-05,0.0001082307
0.0003238439,7.055404e-07,0.7780515,0.033488393,0.0010463982
0.0033863187,3.8038213e-06,9.954049e-07,5.790467e-07,1.906264e-06
9.997152e-07,0.010760047,3.5444128e-07,0.008626856,0.00037636783
0.51181734,1.9986671e-06,8.8051127e-07,0.00063919456,3.1106097e-06
5.4140135e-05,7.2687494e-06,2.916271e-06,1.2426987e-06,3.4884906e-06
7.524878e-07,2.7192061e-06,1.393889e-06,6.2727145e-07,6.9070516e-06
1.1755668e-05,1.0754858e-05,9.175926e-07,5.2117286e-07,0.00047674344
1.1107343e-06,3.9804854e-06,2.8816842e-06,2.6641244e-06,3.921424e-06
3.5077796e-06,4.7947765e-06,3.4516497e-06,7.424804e-06,4.6862683e-06
0.14652753,6.4857145e-06,3.1643276e-06,2.2685451e-06,9.884934e-07
7.039609e-06,5.9733793e-06,2.2644329e-06,1.930398e-06,1.6048137e-06
2.0638672e-06,3.4952704e-06,7.184611e-06,8.999265e-06,4.3119667e-06
2.993195e-06,2.0016232e-06,2.4588746e-06,2.0669331e-06,1.2945324e-06
6.4119905e-07,9.750894e-06,1.6979272e-06,1.8456863e-06,1.494362e-06
1.8044212e-06,7.2599296e-06,5.8110425e-07,1.5258182e-06,5.7082257e-06
5.136811e-06,1.5912585e-05,2.315079e-06,1.5479029e-06,3.2867488e-06
0.020684877,6.9188022e-06,2.6080397e-06,2.2719607e-07,5.471665e-06
0.031822916,2.1436947e-06,2.2879585e-06,1.1259285e-06,1.9619004e-06
1.8863461e-06,9.649975e-07,1.8571995e-06,8.1599904e-07,1.5516389e-06
1.8025165e-06,3.6056977e-06,6.736118e-07,3.3016283e-06,9.104649e-07
7.853303e-08,2.2824237e-07,3.4024179e-06,6.874584e-07,2.3700936e-06
6.555427e-06,3.7944271e-06,1.1625058e-05,0.00013518707,9.1876586e-07
6.446255e-07,1.3360517e-06,1.2260638e-05,0.0001930281,1.4007678e-06
7.740558e-07,0.3155168,2.188071e-06,8.479791e-07,0.02019111
0.030192811,0.8182243,0.22253186,0.6214243,0.18254215
5.5542037e-06,1.9942622,1.2661217,0.20575882,0.4969393
0.53790766,1.7460133,0.7786794,1.7191024e-06,0.8694947
0.4396133,1.4060494,0.030865598,3.52264e-06,1.8883007
0.54295003,3.029771,0.08702168,0.0019091213,2.4938314
1.8312403,2.8762605,0.24617839,0.004902327,2.493404
2.1040537,3.9213398,0.34119675,0.02101077,4.815329
3.694448,5.1352134,0.23199512,0.21288532,5.2434707
4.925972,4.668088,0.30465913,0.08367794,4.2346954
4.6077785,4.805402,0.08600644,0.020025589,5.857766
2.9068933,7.0377955,0.049114585,6.556541e-06,5.4471493
3.5429714,1.8612703,0.03160563,4.689059e-07,4.1335945
4.6917043,4.12348,0.09972955,0.0017474422,8.121068
0.5907854,0.0027702926,0.63345736,0.022952007,0.23423807
3.8857799,0.11263532,0.61804676,0.16658343,0.19917847
3.1081042,0.31694162,0.07996952,0.21520169,0.26420435
0.6400328,0.9823861,0.034087267,0.14423338,0.31881925
2.1003664,0.52198935,0.0021919583,7.02212e-05,0.5747186
3.5336826,0.0013453363,1.2910814e-06,3.3607696e-05,0.010725049
0.3352379,0.0049635824,1.4181296e-05,0.03246689,0.002013993
0.29159945,0.15267466,0.007956649,0.0028248467,0.012020844
0.073691495,2.565507e-06,3.9567345e-05,0.022854544,1.218278e-06
0.4475852,1.5170614e-06,1.812347e-05,0.027326887,1.6436978e-05
0.5809218,0.0002492485,0.00032360156,0.010458644,0.0258883
0.43798244,0.11784019,2.8119746e-05,0.0023184794,0.05511235
0.23890695,0.20207563,0.000104095954,4.53712e-05,0.26786944
0.15296736,0.24222732,0.03885838,0.027547246,0.43296292
0.2872334,0.53893304,0.09099935,0.12831944,0.3973472
0.35978487,0.29754764,0.08293143,3.5261437e-06,0.0957223
0.13351922,0.14931302,3.6404087e-06,1.9095883e-06,0.011157811
0.006523561,0.007025088,0.04141695,0.08536274,0.039928164
0.035714757,1.634949e-06,0.055838406,0.020260803,1.3095978e-06
5.270979e-05,6.7241294e-06,0.036084358,0.052335158,2.3590087e-06
0.2405,2.7263316e-06,0.00104558,3.1826134e-05,1.576358e-06
0.070437595,4.8601514e-06,0.006753309,0.00021825504,2.221924e-06
0.0042266375,1.1261707e-06,8.2449646e-05,0.0015243152,4.6565987e-07
0.01905798,1.0735183e-06,1.5858549e-06,0.0035878557,2.0216021e-07
0.001910798,2.4493115e-06,1.3835239e-06,2.912492e-06,1.4834578e-06
0.006559446,6.819676e-07,6.5348017e-06,5.707402e-07,4.5673936e-08
0.0015220654,9.394068e-08,3.629957e-06,0.003910463,7.521917e-07
0.0076346425,5.792188e-09,1.8289093e-06,0.030289598,2.1159127e-07
2.5599045e-06,6.7122875e-07,2.2463553e-06,2.0644686e-07,1.3598473e-07
0.00033628123,7.305851e-07,9.565357e-07,3.5219986e-07,5.731434e-07
0.00044064177,1.0184831e-06,2.6121675e-06,2.5614713e-06,3.0317383e-06
1.4713798e-06,7.0546044e-08,9.779791e-07,1.1694723e-06,9.027618e-06
1.2811294e-06,2.595179e-06,4.5906603e-07,2.1157564e-06,4.8023576e-06
8.175646e-07,2.6126563e-06,4.45134e-08,6.92692e-07,1.1017639e-06
1.3279495e-06,4.779078e-07,3.4607956e-06,9.3249037e-07,1.8995684e-07
8.1632004e-07,3.4508012e-06,8.993784e-07,3.296364e-07,3.4597097e-06
2.7223878e-06,9.958965e-07,1.3787551e-06,3.5437677e-07,3.1887503e-06
1.7945014e-06,5.326675e-07,8.8764466e-07,5.159845e-07,3.4177508e-06
1.1766689e-06,2.0269954e-06,3.4180908e-07,1.7700426e-06,3.6943522e-05
3.2843886e-06,0.00015553561,1.0807194e-06,1.6968159e-05,9.3636237e-07
2.6981786e-06,0.0006801869,2.0558093e-05,3.2832224e-05,0.00012664558
1.1449274e-06,4.2194028e-05,3.1570288e-08,9.927818e-06,0.00026796802
0.00016632238,0.0004693107,1.4031372e-07,8.5869644e-08,0.00011237195
1.9196215e-05,1.9835422e-06,1.3831088e-07,7.372428e-07,3.3810574e-07
2.3111932e-06,2.723367e-06,2.8558586e-06,9.1500937e-07,2.445628e-06
2.72634e-07,9.4866147e-07,2.8523152e-07,8.732547e-05,2.477578e-06
1.3046887e-05,2.4730432e-06,0.010969602,0.033208128,1.8278743e-06
0.00042146523,7.1997937e-07,8.727791e-06,0.0004231745,1.8032031e-05
3.4158743e-06,1.997601e-06,0.010853211,0.016517568,7.2662915e-06
1.009526e-05,0.0044439947,0.4451986,0.36083743,1.0980821e-06
2.6925227e-06,0.19759096,0.83717,0.18503278,0.20769157
1.1514609e-07,1.8295873,0.010987763,3.1617185e-06,0.3135387
2.9005196e-06,0.28518462,3.1875472e-05,0.0052814954,0.18995571
0.028041009,0.17866795,0.04276632,0.05781675,0.6930701
3.281655,2.1142373,0.04460526,5.4637653e-06,3.306673
0.0056745373,1.2630844,0.14006846,0.11145613,2.1826599
0.072885565,0.44880518,0.4326146,0.00016546468,0.3977522
1.1141186,0.6062281,0.87372494,0.024657456,0.060903996
0.30430207,0.2627157,0.6288347,0.44177076,0.13160035
0.08038674,8.521806e-07,0.62117416,0.1302656,4.1511632e-07
0.2312603,8.8205184e-07,0.119396456,1.2456977e-05,1.1054045e-06
0.28286976,1.641158e-06,0.035695296,0.32868433,2.1826704e-06
0.059336808,2.6367777e-06,0.17107207,0.38315195,0.01441375
0.7024473,0.00010725629,0.0052885464,0.18675016,0.14993201
0.84455305,0.0048122085,0.41910377,0.19071208,0.011732612
0.89221,7.6031364e-07,7.0954457e-07,0.09502236,1.4040077e-06
0.422193,1.8478817e-06,0.90963376,0.34487137,1.0376264e-05
1.9077046,9.44482e-07,0.24389483,0.012396249,7.26636e-06
3.759048,1.0477266e-06,0.008097862,0.08344131,1.5387087e-06
0.0003916091,9.937231e-07,0.6348108,0.8879367,0.11527186
0.02450803,0.079379626,1.3103486,0.48696494,9.2862876e-07
0.029146802,2.0794573e-06,0.110681064,0.009986463,1.874656e-06
0.3113741,3.814989e-07,0.005164948,6.643231e-07,0.0025902672
0.59895575,0.0311336,0.045880176,3.233963e-06,9.044974e-05
0.09154557,0.0002228397,6.829161e-06,1.9231886e-06,2.4568205e-06
3.549039e-05,1.8059858e-06,0.0031607058,1.1600389e-06,2.5404072e-06
5.75631e-05,1.6014673e-06,0.0755958,3.6148586e-07,6.9232397e-07
8.6268465e-06,1.1219817e-06,5.0210014e-07,1.0471136e-06,6.040658e-07
8.84885e-06,0.21581383,2.7521737e-06,6.0888283e-07,0.0054494087
3.1472068e-06,0.0026669414,4.944174e-06,1.4725891e-06,0.015361183
5.7684574e-06,0.06803486,4.181897e-06,1.9967686e-06,1.4415485e-06
4.8020765e-06,0.002993783,2.0684179e-06,5.2487195e-07,1.5746125e-06
9.621512e-06,1.5824331e-06,1.4238396e-06,1.2725504e-06,2.6073333e-06
4.9902924e-06,0.041350286,2.1302665e-06,1.3875665e-06,3.4947266e-06
0.00012338144,0.07844025,1.5185343e-06,0.0041496716,0.0042451452
0.012232287,0.01905242,0.02519256,0.14277026,0.0003385992
0.006641246,0.00076791446,0.17640387,0.01901899,3.0482468e-06
0.21204075,5.0756857e-06,7.2659776e-07,4.1373357e-07,0.12237772
0.08515864,1.2023897e-06,8.7527005e-06,0.0008707011,1.9671809e-06
0.050911315,3.0571837e-06,7.327838e-07,9.976153e-07,0.0064824778
0.11241065,0.00023134227,4.929027e-07,3.398537e-07,3.28509e-06
2.2276233e-06,1.377473e-06,7.386193e-07,1.7456339e-06,0.050302375
6.7657597e-06,1.9279612e-06,7.5474804e-07,1.2676092e-06,9.726872e-07
2.424413e-06,2.6982239e-06,3.1511735e-07,1.7837432e-07,2.6618757e-06
2.1224303e-06,3.7224374e-05,7.897212e-08,1.1576617e-07,2.8918143e-06
3.5860894e-06,8.383823e-07,1.4131514e-07,1.7069571e-07,1.3999235e-06
6.1282844e-07,0.026408268,7.511378e-07,8.563799e-08,9.20942e-07
4.4262683e-07,2.8164252e-06,8.8065383e-07,4.3900688e-08,1.6971132e-06
2.6988874e-07,2.5611944e-05,4.2372445e-08,1.1957472e-07,1.4216852e-05
6.896323e-08,2.1037238e-06,2.238395e-08,1.478731e-06,1.0470729e-06
6.317824e-08,2.5900897e-06,3.4224996e-07,1.0021685e-06,3.182102e-06
2.7498467e-07,3.349472e-06,3.0725596e-07,1.1815168e-06,2.8462307e-06
1.9580733e-07,7.3714377e-06,5.2353165e-08,2.4836886e-06,2.5200104e-06
3.5966153e-07,1.0583223e-06,3.3716216e-07,2.4011715e-06,1.2390532e-06
8.4755493e-07,6.2425147e-06,4.4997495e-07,1.1424835e-06,3.143827e-06
1.6352748e-06,1.5641737e-06,7.0522464e-07,1.3126128e-06,3.5087164e-06
5.720899e-07,4.2925953e-06,8.4927376e-07,1.5989067e-06,3.4099319e-06
8.0274634e-07,2.8141812e-06,1.7292591e-06,1.2808306e-06,1.459724e-06
4.2213383e-06,5.1993857e-06,1.7291495e-07,4.3768318e-07,5.2186974e-06
1.0229328e-06,1.1845508e-05,1.2980558e-06,0.004154066,7.296947e-06
3.5144532e-07,1.22278525e-05,3.6771867e-06,1.3611908e-06,4.330744e-06
2.3932907e-06,6.5983972e-06,3.65699e-06,8.925495e-07,1.36904155e-05
1.6846001e-06,3.8491964e-07,4.2663773e-06,5.9095095e-07,3.0819808e-06
2.3672749e-06,3.328741e-06,1.1498676e-06,3.4855876e-07,3.964701e-06
1.781353e-05,3.0428503e-06,4.1150102e-07,1.0969841e-06,2.4469343e-06
8.6662556e-05,2.1214648e-06,3.9591623e-06,1.6973323e-06,3.3901296e-07
6.633088e-06,2.2540441e-06,0.0055824234,0.0097977165,9.4152995e-07
6.981072e-08,5.249207e-06,0.039967883,0.0025923282,5.2131514e-07
2.1938743e-06,3.1073878e-06,0.018417694,5.876471e-06,4.5372695e-07
3.2727378e-06,1.7159006e-06,7.543226e-06,0.0013923568,7.702578e-07
8.953368e-06,4.5496163e-06,0.00023021617,0.013889295,8.040043e-07
0.00053339824,2.3300463e-06,0.0028642574,0.011258499,1.4044188e-07
0.0017428201,2.6503546e-06,0.008134055,0.00060640264,2.346126e-07
0.0010565108,4.6173245e-06,0.049346305,0.00011625641,2.251325e-06
0.005382914,6.177748e-07,0.066064335,0.00015791989,6.5203003e-06
0.0067012734,7.61375e-07,0.09142796,0.0034147706,2.1365418e-06
0.0016353823,1.8206281e-06,0.07621397,0.017624658,5.061819e-06
0.01781609,1.9132144e-06,0.047646526,0.05500749,3.795227e-06
0.03902293,1.3338339e-06,0.051515393,0.072391726,1.8367854e-06
0.0037786225,1.2273274e-06,0.06073908,0.09270642,2.8437973e-06
6.393622e-06,1.2585917e-06,0.06835013,0.14443864,5.9056506e-06
0.00036045653,1.1654028e-06,0.08566339,0.121109635,1.782095e-07
9.453461e-06,3.20176e-07,0.052585993,0.07435702,0.0002593152
0.22434618,1.9345682e-06,0.052355837,0.041189335,0.038574155
0.4850412,7.238863e-06,0.05076388,0.02338941,0.055590544
0.07817402,4.788079e-06,0.03629214,0.021876816,0.075184844
0.012476133,2.7495216e-06,0.035175025,0.0058767246,0.037563205
0.05376841,5.7576713e-06,1.9621326e-07,3.1374764e-06,0.006354668
0.15166049,7.176995e-06,2.963632e-07,2.7514784e-06,0.00052107155
0.21082744,4.910955e-06,3.1307465e-07,1.0015759e-06,0.0030613847
0.19761112,6.089476e-07,3.990145e-07,4.5410175e-07,0.00130468
0.20193702,1.4587218e-08,1.059764e-06,7.517456e-07,0.084493436
0.15124029,3.3054306e-08,6.3067665e-07,2.5844358e-07,0.44126245
0.121194884,9.51446e-06,4.0163496e-07,5.870868e-07,0.0013864469
0.18405461,0.0037634475,1.1858862e-07,9.696557e-07,0.050742187
0.09408899,0.1021672,4.733236e-06,2.7796082e-07,0.009575053
0.00021650785,0.09925702,2.2137087e-07,2.1936303e-06,3.1566567e-06
0.00057886576,0.062680595,1.5692133e-06,9.804826e-07,2.4176413e-07
0.00017325951,0.05796016,6.429993e-06,2.482784e-06,6.390203e-07
0.00025058698,2.5993184e-05,7.607705e-06,2.418028e-06,4.594413e-06
6.2043205e-06,0.001043886,4.61862e-06,3.298332e-06,2.3480436e-06
2.38925e-06,0.0016917194,4.0777283e-07,1.4391469e-06,1.5239433e-06
5.6532876e-06,8.3861405e-06,1.7386338e-06,4.926682e-06,1.9924412e-06
7.141398e-06,0.0013098443,4.3979626e-06,5.664942e-06,2.0688405e-05
1.7822902e-06,0.0002184576,1.1562173e-06,2.8327274e-06,1.58288e-05
0.002964441,0.011790609,1.1522543e-06,3.910897e-06,0.05372996
0.062298264,0.048925005,1.939505e-05,5.0918998e-06,0.074962616
0.15127237,0.0039759823,0.0068792934,0.0031180663,0.049529787
0.23046829,0.0019662988,0.013870144,0.015291432,0.106865294
0.32832614,0.008070106,0.006370075,0.001076722,0.09160444
0.32316875,0.0036588607,0.0050389585,0.026669672,0.009506582
0.32569972,0.0012179766,0.039388496,0.034936905,1.2602144e-05
0.22359365,0.07294337,0.0035222713,3.8830444e-06,2.205148e-06
0.19954394,0.000108471104,7.7862023e-07,2.1086282e-07,0.0011032204
0.13512115,1.6567657e-06,9.492391e-07,1.2628843e-06,4.6402867e-05
0.021053491,0.047812052,1.0923741e-06,1.389344e-07,0.0026041456
0.012847609,0.08235235,3.8511444e-06,6.2566144e-08,0.08238436
0.0075618387,0.004456269,3.4546429e-06,9.839797e-07,0.0050277547
0.0014067872,8.869079e-06,2.3447448e-07,1.1973943e-06,5.1981897e-06
0.06732315,7.4263985e-06,7.8489414e-08,1.2434598e-06,0.00044240154
0.23028658,5.913147e-05,1.8887465e-06,4.25854e-07,7.463481e-07
0.08874898,0.004674397,4.7345106e-06,1.4059009e-06,0.0019346769
0.16362138,0.0011755287,1.677358e-06,4.2793144e-07,0.003121369
0.13572195,0.007539797,2.2761608e-06,7.0508095e-06,0.0021028426
0.02190088,0.00030852697,1.5064292e-06,4.526562e-06,0.07799535
0.19046599,1.6618766e-05,1.1358783e-06,5.634121e-06,0.0016415991
0.21497466,5.2466457e-06,6.697689e-08,2.188836e-06,1.6558699e-06
0.25454366,2.9821688e-06,4.1600065e-06,2.1029805e-06,2.5397671e-06
0.21759643,2.4028088e-06,7.0379956e-06,8.872152e-05,3.6323004e-06
0.01891826,2.2524441e-06,8.2663166e-05,0.00049093034,2.9586832e-07
5.787448e-06,1.6459057e-06,0.001346832,1.9275183e-05,1.6750566e-06
1.1116596e-06,3.0127326e-06,0.005122077,2.2283692e-05,2.944984e-06
1.3692716e-06,2.153819e-06,0.011169067,8.104491e-05,2.7895653e-06
7.6966006e-07,1.0599108e-05,0.015390788,9.180979e-05,7.682083e-07
5.839713e-07,2.9418717e-07,0.013116726,0.002656689,6.2608905e-07
2.8149761e-06,3.7669251e-06,0.015128389,0.01188039,6.369172e-07
1.0424999e-06,1.5894916e-06,0.00014034932,0.0016454011,2.9195286e-07
6.108177e-06,2.4535059e-06,0.0025973925,0.03670658,2.1775968e-06
5.716195e-07,1.5636496e-06,0.007967622,0.103917345,2.3337476e-05
1.3010778e-06,1.4544631e-06,0.023115575,0.52316576,0.100568675
0.15278016,0.07506668,0.044595953,0.05045908,0.049364638
1.1759423,0.15330353,0.006244925,1.211826e-06,0.12920666
1.0980324,0.06550953,1.8352933e-06,0.010201329,0.032257553
0.53020835,6.611292e-05,0.0005231189,4.9378957e-07,3.0042493e-05
0.12037593,0.0052718916,6.136486e-07,1.5869019e-06,0.065064795
0.00025035,6.854068e-07,1.7743613e-06,2.0362553e-07,7.3417527e-06
2.084362e-06,1.4704478e-06,2.528525e-06,5.258644e-07,1.0286244e-06
1.3811416e-06,2.1877972e-06,8.2846657e-07,4.503629e-07,1.0221099e-06
1.7121016e-07,3.69844e-06,5.7000993e-06,1.7657086e-07,1.0948535e-06
1.145548e-05,1.8324913e-06,5.405433e-07,1.9360332e-06,2.3980651e-06
0.0025754962,3.028178e-06,1.1224507e-06,1.7687562e-06,2.6798602e-06
9.3874805e-06,5.234537e-06,9.865562e-07,3.6454134e-07,1.2208437e-06
0.048682094,4.2217775e-06,9.653949e-07,2.8794163e-06,2.0028601e-06
0.0629692,2.557864e-06,1.0778698e-06,1.1148419e-06,1.5179139e-06
1.4736793e-06,3.311702e-06,2.3142982e-06,2.5290735e-06,1.8919035e-06
1.3802282e-05,2.1201079e-06,1.7444969e-06,1.2941308e-06,2.4758092e-06
2.2567442e-06,3.1445643e-06,1.1042912e-06,1.1810143e-06,8.684062e-07
4.3194023e-06,2.2446268e-06,1.240533e-06,1.5798769e-06,5.581128e-06
1.6307309e-06,2.0912726e-06,2.5066531e-06,2.4121068e-06,3.2279374e-06
1.335283e-06,6.514061e-06,1.5079472e-06,1.3275873e-07,2.2225538e-06
4.0518222e-07,3.599241e-06,6.10542e-07,2.0415195e-08,4.934216e-06
6.3059815e-07,1.2584201e-06,3.609875e-07,6.091012e-08,3.9428364e-06
3.5330223e-07,1.9838997e-06,2.3573658e-07,1.0730152e-07,0.0002870585
1.5689669e-07,3.87862e-06,1.587298e-07,0.0,0.0037854488
1.10212e-07,4.033329e-06,1.1147911e-06,8.478348e-09,1.00445895e-05
2.2950928e-08,2.2035065e-06,7.9223724e-08,4.4593587e-08,5.2832966e-06
6.4383876e-08,1.4611114e-06,9.292341e-07,5.4336857e-07,2.840264e-06
4.5558906e-07,1.4185104e-06,2.071217e-06,1.8848389e-06,2.5987756e-06
2.9163568e-08,1.8663204e-05,2.3007688e-06,1.4132274e-06,4.466531e-06
2.416641e-07,2.936012e-06,1.8565826e-05,9.126314e-07,9.288461e-07
3.4955713e-07,4.430233e-06,0.0016716457,4.051639e-07,1.4577167e-06
3.300593e-07,1.1128415e-06,0.0046847486,1.1600854e-06,2.0886143e-06
7.9594076e-10,6.461139e-07,0.006276296,1.3159198e-06,2.3015305e-06
0.0,2.325991e-06,0.0032781882,2.1508464e-05,2.4245087e-06
0.0,1.1294402e-06,0.003741271,0.00089112297,1.738483e-06
0.0,3.8312105e-06,0.0006645589,5.6961726e-05,0.057524778
7.0699446e-10,9.006488e-06,1.9198627e-05,5.7776524e-06,1.5981128e-05
1.1612634e-09,3.2949224e-06,5.4163356e-06,7.4330444e-07,0.013207448
4.898902e-10,5.0369117e-06,8.88979e-07,3.5450214e-06,0.028502855
2.3036689e-08,5.756332e-06,2.8371603e-06,9.57064e-07,7.3723965e-07
6.810107e-10,1.7201634e-06,2.0554014e-06,3.5566055e-07,2.0472844e-06
2.9068806e-07,3.4950958e-06,4.917416e-07,7.533846e-07,1.5268351e-06
1.205897e-06,1.3888126e-07,1.7580919e-06,1.39503e-06,7.256015e-06
6.3649914e-08,5.275853e-06,2.868023e-07,3.189664e-07,2.6556909e-06
0.0,1.2470767e-06,2.3773403e-06,2.5356046e-06,9.612415e-08
6.4620537e-10,1.0555968e-06,6.8411583e-07,4.727664e-08,2.3204811e-07
3.5833644e-08,2.0531218e-06,1.3219532e-06,5.5888313e-07,1.1006018e-06
3.2153444e-08,4.1518533e-06,1.2860024e-06,1.5695952e-06,2.910703e-07
9.449473e-10,1.7543476e-06,7.361657e-06,2.5267057e-06,1.3624783e-07
0.0,3.8922128e-05,5.702028e-06,8.037192e-07,3.728743e-07
0.0,2.8780692e-06,1.5718051e-05,1.3018469e-06,3.5245087e-06
0.0,3.1922004e-06,1.7190293e-06,7.518235e-08,0.0049780975
0.0,2.8750778e-06,1.1335767e-06,5.7641915e-07,0.041402277
0.0,6.215531e-07,2.690338e-07,2.7840977e-06,4.1522762e-07
0.0,3.7114336e-07,7.9406976e-07,3.7559412e-06,1.0180014e-05
3.5418348e-09,3.3471667e-06,6.492708e-08,1.5042304e-05,4.3262808e-06
5.5884666e-08,1.3227819e-06,2.6615296e-06,4.6939454e-05,3.7926297e-06
1.6968616e-07,4.3760897e-06,2.4472818e-06,1.2837961e-05,6.161167e-07
7.367258e-07,2.0396687e-06,4.3463933e-06,2.8142285e-05,1.8145337e-07
4.5364736e-06,2.4116293e-06,2.9100536e-05,2.6704072e-05,1.0113527e-06
4.6026903e-06,3.0564277e-06,2.299591e-06,1.579695e-06,9.4647777e-07
3.9291685e-06,9.924992e-07,0.000202136,1.4329527e-06,3.4354375e-06
3.7498983e-05,6.2604163e-06,0.004634211,5.1754223e-06,7.8257705e-07
3.0050007e-05,7.37741e-06,0.004375383,2.0382076e-05,2.1802864e-06
7.872233e-07,2.9350895e-06,0.0035990176,1.5654477e-05,2.7852677e-06
4.5109722e-05,3.474255e-05,0.0014782023,0.0016039679,0.017234862
4.03272e-06,0.0056611337,7.305313e-05,0.0027440074,0.0041204127
1.5505972e-05,1.2355102e-06,0.02220387,0.0008697541,0.010767369
1.3352237e-06,2.9003188e-06,0.038704235,0.00091172196,5.5115393e-06
5.432891e-06,0.17281944,0.026450228,0.0033386983,0.0037335018
1.3669782e-05,0.064529605,0.042656112,0.004518902,0.00016414985
7.5532644e-06,1.0867846e-06,0.042497735,0.0056987866,0.071804345
1.1183283e-07,0.013316254,0.05298762,0.006122788,0.13933603
7.669604e-08,1.0364512e-06,0.07161424,0.005931801,0.0059975944
2.3702144e-06,1.3950599e-06,0.054869026,0.044968978,0.1392451
8.462153e-07,1.3969557e-06,0.048072074,0.028577326,0.06053336
2.4328196e-05,2.935375e-06,0.014504451,0.017054405,1.08542274e-07
1.1397927e-05,1.502105e-05,0.00658888,0.018597122,1.1351479e-07
2.7985605e-05,4.0019673e-05,0.042135164,0.00069735904,8.1404636e-08
3.8655347e-05,2.017523e-07,0.0027430586,0.019431457,2.0321977e-07
3.683541e-05,3.4528337e-06,0.026374124,0.00781919,6.2070306e-08
5.4020943e-06,3.100057e-06,0.0045069065,0.014469868,1.1400669e-07
4.5959177e-06,5.7212884e-07,0.0009610645,0.022840973,4.1480675e-07
3.83862e-06,2.6229845e-06,0.0004576358,0.037614677,2.8936927e-06
7.832328e-06,5.783562e-06,0.00041286147,0.006756507,0.0006903438
2.037269e-06,2.2273966e-06,0.0016936546,0.004881332,3.8492713e-06
1.4322138e-06,2.1203994e-06,4.2157385e-06,0.0016706971,5.5024113e-05
2.244572e-06,2.7625429e-06,3.7616978e-06,3.1266463e-06,2.9775222e-06
1.7733021e-06,8.0708505e-06,0.00019972387,6.376005e-07,3.226068e-06
9.783692e-08,2.1673986e-06,9.28979e-06,0.05795852,1.1682672e-06
3.8374697e-08,9.733328e-06,2.0197936e-06,1.3175318e-06,2.7410795e-06
5.6277628e-08,2.208543e-06,0.009231643,1.9354097e-06,1.2974746e-05
7.4316256e-07,1.2258275e-06,0.0008781406,2.971675e-06,2.7753733e-06
7.935568e-07,6.672463e-06,0.0035334912,0.014493918,4.220897e-06
3.377238e-06,3.1176867e-06,7.236902e-08,0.0025251878,8.204903e-06
0.0002022354,1.573911e-06,1.2402038e-06,1.7037436e-06,5.4242378e-06
0.0002707763,2.611313e-06,1.8832446e-07,2.2859709e-07,5.847078e-07
3.306236e-05,8.981481e-07,7.0087494e-06,1.4338218e-06,6.594711e-06
9.724946e-05,1.872602e-05,1.2192412e-06,2.7927624e-06,1.01501955e-05
2.8285388e-07,0.00013581634,2.8562947e-06,1.9799709e-06,5.968965e-07
3.1523822e-11,9.086624e-06,2.0385174e-05,4.6527916e-06,5.4431393e-06
0.0,4.520379e-06,9.226172e-07,0.003540211,3.2898645e-06
0.0,2.6605019e-06,0.0006769082,0.052275784,8.7686226e-07
5.470738e-07,1.1726033e-05,0.0024796464,0.00032494825,3.3188087e-05
7.8880765e-07,0.03659697,0.013208723,8.368295e-06,0.045510553
3.476388e-07,0.0004758736,2.498127e-06,1.7939914e-05,1.3421926e-06
0.00029725066,2.3836685e-06,0.0002779078,1.6541433e-05,0.015145393
0.00025567907,0.00013959574,3.133334e-05,0.0001577404,1.4866415e-06
5.4898126e-05,4.9420278e-06,7.482749e-05,2.4760493e-06,1.647955e-06
0.0002421776,0.00015029658,0.0003247303,8.6830835e-07,0.14173812
0.0005651086,0.43485376,2.6372702e-05,9.1981565e-07,0.6320277
0.0015973398,1.1143107,0.0003841116,1.9450672e-06,1.1090504
0.013099299,1.1354414,7.975756e-06,2.141452e-06,0.83220357
0.0022859483,1.1815629,0.0049690506,8.253444e-07,1.1975105
0.0018214516,0.5642979,0.0009687317,7.5801785e-07,1.2666388
9.151781e-06,0.74894017,0.015865305,3.6503757e-06,1.249351
0.00015627309,1.3066014,0.03236138,3.260701e-07,1.6302178
0.74901307,1.6470815,0.052440297,4.7839035e-06,2.2955997
1.7328402,2.0195496,0.06979782,1.0332379e-05,3.2590857
1.38839,0.5315388,0.08456791,0.10132472,0.80737716
1.909062,0.011799302,0.08728941,0.50857604,0.00022984167
2.6552212,1.8485293e-06,0.018747333,0.0026624699,1.8729953e-06
2.5715716,7.09696e-06,0.034901664,0.41671067,1.59412e-06
0.6306447,1.637994e-05,9.882138e-05,0.101284385,5.78036e-06
0.08465263,7.901869e-06,1.2582843e-06,1.4788526e-06,3.0486149e-06
0.054552797,1.6262525e-06,5.002868e-06,4.5945168e-07,9.638351e-07
0.04992098,1.5846663e-06,9.594134e-06,8.351551e-05,1.0959976e-06
0.0315527,2.340967e-06,2.0135599e-07,5.768011e-07,7.848388e-07
0.010548419,2.053724e-06,6.1894434e-06,1.6295301e-06,1.1127318e-06
0.0012152052,2.7404503e-06,1.152405e-06,2.250884e-06,1.8656133e-06
8.990684e-05,3.2998857e-06,2.8007597e-07,2.435828e-06,1.2138416e-06
5.5817472e-06,1.6812469e-06,7.900169e-07,1.7249654e-06,2.0810444e-06
2.282302e-06,3.8170656e-06,0.000111519475,1.139584e-06,1.6651203e-06
0.20117798,3.0558958e-06,1.3180645e-06,0.24897058,1.4988126e-06
1.573384e-06,1.2609223e-06,1.4587281e-06,0.9908065,4.8071365e-06
0.4805109,1.6069604e-06,6.074758e-06,0.6933524,1.5369843e-06
3.609475e-06,1.4969669e-06,0.00022388657,2.0650489e-06,3.5832586e-06
4.4779765e-07,1.7948751e-06,1.9854258e-06,0.25313827,3.4028085e-06
2.7893743e-06,2.5471363e-06,9.6294094e-08,4.7437943e-06,2.4360966e-06
1.171427e-05,2.4582785e-06,1.2693343e-06,3.4547681e-06,1.3344037e-06
1.3564573e-05,4.4835924e-06,3.6834305e-07,0.050506197,1.8111325e-05
8.461983e-07,0.08671845,2.804197e-06,0.00013551017,3.4930367e-06
4.2230715e-07,0.50191844,3.9029715e-07,5.3177573e-05,3.1639053e-07
4.1286842e-07,6.408037e-06,2.513715e-07,9.071314e-08,2.411842e-06
1.6659055e-06,9.217627e-06,0.00013029142,2.5568997e-07,1.3679792e-06
3.1547987e-07,2.1845879e-06,8.725748e-05,2.3407795e-06,1.5339128e-06
1.1958302e-05,3.3695694e-06,0.029168794,5.7906727e-05,1.7389426e-06
9.186962e-06,2.3209677e-06,0.0010076187,0.32049254,3.2119294e-07
3.2254477e-06,1.513852e-07,0.048179213,0.0019223536,2.5608864e-05
8.9766843e-07,3.3931885e-06,1.765459,0.051674407,0.067054115
4.103164e-06,1.3853073,0.31789738,0.22158407,1.1962055
5.0799817e-06,1.2565252,0.26683763,0.0051007685,1.8059438
5.0250333e-06,0.51168525,0.0042964774,5.369497e-05,1.3319783e-06
0.081310384,1.5378637e-06,0.2121207,1.3907861e-06,2.4869092e-07
1.296351,1.5275834,1.5981111e-06,1.575614e-06,5.5805434e-05
0.89285845,0.3002585,3.8955955e-06,5.055664e-08,7.802251e-06
1.4627856,1.6104502e-06,1.08712675e-05,1.2109766e-07,2.7016765e-07
0.0780111,2.846288e-07,1.6977887e-06,0.14771833,5.024581e-07
8.102875e-06,1.7343273e-06,4.360188e-06,0.0019223328,0.00283188
2.5613139e-05,1.7573475e-06,5.2246514e-06,3.136926e-05,0.0029342496
0.0008650953,1.3593286e-06,9.187872e-05,0.00013811764,1.9846261e-06
3.966947e-05,0.029498091,7.489459e-05,8.555783e-06,0.02645587
7.3305375e-05,0.92846763,0.00026507117,1.8272899e-06,0.001077192
3.913781e-05,2.899525e-06,6.571699e-07,1.0101273e-06,0.38231307
0.0014261839,8.580086e-06,1.0461094e-06,0.0,0.0023507215
2.644218e-06,0.039250474,5.570771e-07,2.1565471e-08,0.00013749753
3.2690357e-05,3.4677748e-06,3.5285552e-08,1.034173e-06,5.6270484e-05
0.00013050209,0.074397475,3.535017e-07,5.411209e-07,0.69636613
0.00024257904,0.5944327,1.3197122e-07,7.4807457e-07,0.0002976502
0.0019359785,1.4818015e-05,5.7921756e-07,2.1158407e-06,4.6497903e-06
0.0012376468,0.10229886,3.9079939e-07,0.014249437,1.0606381
2.3295192e-06,0.12942566,0.0005097088,0.11380583,2.6414577e-06
5.784192e-06,0.049993884,0.07671707,0.0013859622,2.8782254e-06
4.5808315e-06,0.0011459235,0.02181822,1.740407e-06,4.772622e-06
0.013378177,0.19408453,0.0028920278,8.163532e-07,0.006974242
0.021120988,3.4818608e-05,1.5222985e-06,2.5926852e-06,1.7911804e-06
0.008969093,8.9287525e-05,2.297402e-06,4.3275205e-07,6.2606694e-07
0.0001832206,0.00031073642,6.4620605e-07,3.0511688e-07,3.3357587e-06
8.483218e-06,0.0015036977,3.709191e-07,5.033164e-07,6.1568045e-08
3.1104396e-06,1.4136693e-06,2.8092545e-06,1.0820746e-06,1.2479481e-06
1.6996668e-06,0.0142401,3.850649e-07,1.2882977e-07,8.700143e-07
2.2481339e-07,0.014929461,2.2549918e-06,9.3627875e-08,1.2211573e-06
2.2680802e-06,0.0143099455,8.7889833e-07,9.131361e-07,2.9913108e-06
1.4655474e-06,1.7346903e-05,7.599751e-07,1.1383857e-05,1.4945617e-06
9.037453e-07,1.1375638e-06,1.7371441e-07,1.0580856e-05,7.831237e-09
3.4011396e-07,3.523197e-07,3.990191e-07,2.5827535e-06,1.3017777e-06
1.8282026e-06,9.215159e-07,4.78626e-07,1.0831612e-05,9.3340117e-07
5.703192e-07,0.00030318263,2.6432284e-07,3.7061673e-06,6.963257e-06
4.1492547e-07,0.00038399716,8.505906e-07,1.3951201e-07,1.7035165e-06
2.5579391e-08,6.853908e-05,6.0094973e-10,1.3950866e-07,0.082151785
2.702146e-07,9.077068e-07,1.5753523e-07,3.2901545e-07,0.024154887
1.18963435e-05,0.99942714,3.0984137e-07,5.481924e-06,3.022151e-06
0.07402709,0.72892386,8.7486467e-07,1.4979455e-06,2.9845187e-06
1.6270877e-06,7.0363676e-06,8.918834e-06,2.0763339e-06,8.059897e-06
0.0056170956,4.7852195e-06,1.788602e-06,3.8464378e-07,2.1759963e-06
0.005660554,3.340787e-07,4.180183e-07,1.3913676e-07,1.5277441e-06
0.0009263857,5.905255e-08,2.5319887e-06,1.2294119e-07,3.5097628e-06
0.00028809023,6.4469646e-06,5.042006e-06,3.3170906e-07,1.944114e-06
1.8861421e-05,2.7380645e-06,7.786317e-06,1.0168069e-06,1.0348514e-06
0.0019182876,1.4483181e-06,4.9390796e-06,2.084006e-06,2.8118363e-06
0.0037593893,9.529011e-07,8.288987e-06,3.1374948e-06,1.0446935e-06
0.008260688,2.178864e-06,1.03522925e-05,5.7470556e-06,6.801379e-07
0.00044636475,3.1280646e-07,2.2974393e-05,5.0937916e-07,1.4023504e-06
7.664375e-06,2.1561638e-07,3.1300697e-05,1.045501e-06,2.2838956e-06
4.7440476e-06,2.21231e-07,1.16866695e-05,1.1230023e-05,3.799842e-06
5.170282e-06,3.727129e-06,5.88027e-06,2.061761e-06,9.583207e-07
3.0078938e-06,6.3642638e-06,3.5564963e-06,8.013041e-06,1.7137767e-06
3.9072936e-05,7.0993633e-06,1.2610386e-06,4.5958277e-06,3.5626786e-06
3.628289e-05,1.0551685e-06,2.7669475e-06,2.8529712e-07,1.6757659e-06
4.112239e-06,2.2845163e-06,1.3365285e-05,0.026956681,3.0906979e-06
1.8764566e-06,0.028034147,0.0026064327,0.33473176,0.020364195
1.0525664e-06,0.018907562,0.15571088,1.9870081,0.07869269
0.0026333546,1.042108,0.46772498,1.6355472,1.5743551
0.08298406,0.25858957,0.4384153,0.37169325,0.10208985
1.0820457,0.27023152,1.3121442,1.2651787,0.16396263
0.97372305,0.44649,1.8385694,0.9132691,1.4372128
1.5007918,0.65799826,1.6145859,0.6515652,2.8145597
1.3299549,0.6539976,1.2555121,0.8338341,0.9615024
0.4542471,0.39624932,1.1614568,0.1332995,0.37347427
0.43692893,0.30602673,0.4183397,9.4553496e-07,0.32263067
0.22064184,0.054755576,0.15022303,0.0012003236,0.11027304
0.26202306,0.004179003,8.4741105e-06,0.0069222953,0.071068615
0.37594464,0.010583552,2.5753594e-05,0.024332086,0.041765604
0.44813257,0.006192898,0.016657341,0.027517023,0.021323921
0.42695162,0.00116429,0.023768006,0.03575022,0.0055365223
0.41340894,0.00034765725,0.024117857,0.033146247,4.0036e-06
0.3625016,0.00027643424,0.01562042,0.019220378,1.0579391e-05
0.32888544,0.00051519496,0.00028928797,0.0031617302,5.2970976e-05
0.2214388,0.0031422428,5.8039636e-06,3.5515745e-06,0.0015404662
0.16902485,0.003965129,2.4451579e-06,2.173662e-05,0.0011170539
0.17630273,0.0004399849,2.039848e-07,1.3985824e-05,0.0006291022
0.19561598,9.949092e-05,3.0957406e-07,1.3529696e-05,0.014352757
0.22116527,0.0002938834,1.0182141e-06,4.0067835e-06,0.04173582
0.22819315,0.015762072,3.1511372e-06,2.979769e-06,0.061027884
0.17276861,0.03494971,2.9570513e-06,8.578159e-06,0.021764284
0.12292598,0.036058065,7.2311423e-06,8.600075e-05,0.0028478252
0.10590645,0.036057748,1.3277723e-05,0.0018979575,3.972399e-05
0.13196796,0.021036122,1.1041622e-05,0.0005542582,0.00018395243
0.19747064,0.002796076,6.128887e-06,5.8486086e-07,0.00021228459
0.22110687,0.00096617703,4.50944e-06,7.084588e-05,3.7910948e-07
0.20225179,0.00013655657,6.7991027e-06,0.0023895632,1.5359527e-06
0.15167907,7.5222893e-06,5.7014577e-06,0.00077330525,6.24554e-06
0.14074844,7.877112e-06,5.3717517e-06,2.3475657e-05,5.873822e-06
0.12673621,0.00036746587,2.4714036e-06,3.7599377e-05,1.7269898e-06
0.10586136,0.000685057,2.9021926e-06,0.007025574,8.267731e-06
0.11116359,4.2896446e-07,7.895386e-06,0.0037856903,1.549082e-05
0.093847394,0.0034323763,8.61041e-06,0.0041369805,1.16610545e-05
0.07625013,0.010135953,1.3821482e-05,3.344547e-05,1.451937e-05
0.0921389,0.008862618,1.9416191e-05,4.5886998e-05,1.1621735e-05
0.1506254,0.0012966843,2.5195639e-05,4.4349094e-05,5.96369e-06
0.15571193,3.131808e-05,1.1362439e-05,1.2807559e-05,6.5980753e-06
0.14115174,5.651555e-07,4.4184535e-06,4.070625e-06,1.0151813e-06
0.112928,1.2449154e-05,3.6358704e-06,3.4102045e-06,4.890269e-06
0.0853062,1.778323e-05,2.6192415e-06,9.886509e-06,2.1093361e-05
0.06800445,2.2597571e-06,1.8170462e-06,2.7039766e-06,3.0778854e-05
0.0471974,1.1340417e-05,1.4297034e-07,1.7988579e-07,6.753582e-05
0.07613648,2.0701124e-05,3.4577724e-07,1.5892047e-06,8.4822905e-06
0.06390683,1.9463157e-06,4.0802543e-06,1.8497571e-08,7.590639e-06
0.06929419,9.322344e-06,1.0438022e-06,0.0,0.0026989693
0.077188335,9.161528e-06,7.343897e-07,0.0,0.0103663625
0.060897376,2.6216694e-06,6.308609e-06,1.4836988e-09,0.004786919
0.070712246,2.26246e-05,6.746819e-05,1.3417102e-06,0.00772638
0.07757727,1.6798325e-05,8.2586565e-05,1.0180686e-06,0.0054676966
0.07415424,0.0004583619,0.00013063959,0.00017763748,0.013627553
0.077435546,0.00065861584,0.00096879003,0.0014549094,0.024837574
