"[299, 255]","[227, 248]","[287, 319]","[279, 328]","[230, 262]"
6.345493e-10,0.0,5.914749e-08,2.5475217e-06,0.00011518113
4.6399673e-08,7.701592e-05,8.388013e-07,1.2354311e-06,0.00026896695
6.1876094e-08,0.0008765733,1.885202e-06,1.2958486e-06,0.0009723834
3.8437893e-06,0.0007570901,2.4001101e-06,2.1066629e-07,6.5622265e-07
9.539337e-07,1.4145297e-06,1.6486443e-06,7.847352e-07,8.6177806e-07
8.8601355e-06,1.7073496e-06,2.7954252e-06,1.1047234e-06,1.4655488e-06
2.1295464e-05,2.7700405e-06,1.831473e-06,1.0778103e-06,2.121881e-06
2.7762892e-06,3.8301573e-06,2.6531023e-07,1.3421538e-06,2.7851306e-06
1.9173349e-06,2.5974102e-06,1.8147897e-06,9.1202287e-07,9.0998236e-07
2.3613006e-06,2.996853e-07,1.8550721e-06,1.9556192e-06,1.315212e-06
1.7662178e-06,7.421922e-07,2.9119286e-07,1.1773793e-07,2.3767775e-06
2.2459521e-06,1.9902873e-06,3.1810214e-07,3.5639817e-07,9.366524e-07
2.996546e-06,1.6263131e-07,4.2461057e-08,2.8571029e-07,2.0070793e-06
1.1047339e-06,2.411612e-07,2.5588014e-07,1.6494629e-07,1.4414168e-06
1.894165e-07,7.3475684e-07,8.313901e-07,1.9726482e-07,2.2115864e-07
1.1211608e-06,1.1801727e-09,2.3381901e-06,1.0184909e-06,8.41036e-10
8.5131425e-08,3.7641513e-08,3.2839662e-06,2.0046436e-06,2.4932476e-08
0.0,1.3799279e-07,2.6174973e-07,3.3880751e-06,5.5697072e-11
0.0,4.6382493e-07,1.2492866e-06,2.0038094e-06,0.0
0.0,6.345872e-07,2.665808e-06,1.6691072e-06,0.0
0.0,1.14308776e-07,1.7327376e-06,3.961149e-06,0.0
0.0,0.0,1.9358865e-06,1.5547139e-06,4.9419135e-09
0.0,0.0,3.3601325e-06,1.1567971e-05,1.835109e-08
0.0,0.0,4.7625585e-07,6.2483364e-06,0.0
0.0,0.0,0.0,1.1474879e-06,0.0
0.0,0.0,0.0,2.9285865e-09,0.0
0.0,0.0,0.0,4.269503e-08,0.0
0.0,0.0,8.136581e-07,8.494492e-06,0.0
0.0,0.0,4.859393e-07,2.982964e-06,1.00293045e-08
0.0,0.0,5.6815033e-08,1.2295342e-05,8.351297e-09
0.0,0.0,8.289443e-09,5.916541e-06,2.6497908e-09
1.7953951e-07,0.0,1.3124096e-08,1.2487951e-06,8.2856895e-09
3.2365164e-09,0.0,2.6634558e-07,1.1575596e-06,1.4636042e-06
0.0,0.0,1.7442162e-06,2.0757027e-06,4.7749484e-07
0.0,0.0,2.6283994e-06,1.3609629e-06,1.9058621e-09
0.0,0.0,1.007275e-06,6.3522276e-07,0.0
0.0,0.0,1.992887e-07,1.9348872e-06,0.0
0.0,0.0,1.7982897e-05,6.8619165e-06,0.0
0.0,0.0,4.4070669e-07,2.1376188e-06,0.0
0.0,0.0,3.4060825e-08,6.3599377e-06,0.0
0.0,0.0,1.2135162e-07,3.5756607e-08,0.0
0.0,0.0,1.03994425e-05,7.089388e-07,0.0
0.0,0.0,6.444178e-05,8.725956e-07,0.0
0.0,0.0,9.775374e-06,3.0973127e-10,0.0
0.0,0.0,6.2213746e-07,0.0,0.0
0.0,0.0,0.0,1.7737969e-07,0.0
0.0,0.0,0.0,2.017019e-07,0.0
0.0,0.0,0.0,2.1570638e-06,0.0
0.0,0.0,1.9480778e-08,9.318219e-06,0.0
0.0,0.0,4.2056875e-08,6.6883246e-07,0.0
0.0,0.0,7.113472e-07,1.7793799e-06,1.141833e-07
0.0,0.0,8.8329904e-07,2.403249e-06,9.040928e-08
0.0,4.0121048e-10,5.3180776e-07,3.2769765e-06,1.4420078e-07
0.0,8.297249e-06,2.2228005e-07,2.3886e-07,2.0147489e-07
0.0,2.323734e-05,5.644478e-07,9.488836e-08,1.1823566e-06
0.0,1.6791912e-05,1.1180874e-07,1.5005586e-06,9.912222e-07
0.0,3.2121343e-06,1.3516348e-06,1.323359e-06,1.4942144e-06
0.0,9.582916e-07,3.6202853e-06,1.7538705e-06,1.1132155e-06
1.4075952e-07,8.291432e-08,6.7984917e-07,1.638963e-06,8.254153e-07
1.526188e-06,3.984136e-08,4.827359e-06,2.1229484e-06,7.229176e-07
3.3782521e-06,0.0,2.66385e-06,5.3528865e-06,2.3865704e-07
1.990866e-05,0.0,2.86664e-06,4.8420434e-06,1.6141678e-06
1.2313608e-06,0.0,1.1986131e-06,7.4562436e-06,1.1773097e-06
3.9966394e-06,1.8155417e-08,9.430986e-07,1.1079876e-06,1.4385928e-06
1.551309e-05,6.942752e-07,4.1597937e-06,6.070025e-06,1.0324569e-05
2.2620396e-05,4.5193256e-06,3.3446088e-06,3.0011786e-06,2.1608603e-05
4.6380752e-05,2.8982084e-05,6.3611974e-06,4.2581743e-07,2.6092102e-06
8.504085e-05,2.157919e-05,2.124175e-05,3.049826e-06,9.962458e-07
2.0112475e-05,1.9818794e-06,2.7298758e-05,6.29581e-07,1.6509459e-06
3.6387573e-06,1.6965666e-07,4.4872518e-06,5.536301e-07,3.4434859e-06
5.602551e-08,4.0154643e-07,5.296477e-07,1.6416006e-07,5.485502e-07
3.820634e-06,2.2103159e-06,8.8816995e-07,3.5867012e-07,2.2888452e-07
3.3598873e-05,1.139636e-05,1.06953024e-07,7.871401e-07,1.3796481e-05
0.00010577916,1.329219e-06,1.0051114e-06,1.6756437e-06,5.1493207e-05
1.1843476e-07,7.40549e-07,8.690603e-06,3.5028796e-07,6.1727457e-07
2.9177368e-06,2.7130548e-07,1.0478151e-05,1.9626862e-08,2.5654737e-07
1.0523983e-06,2.9080595e-06,1.3242606e-06,3.6326054e-07,1.2527091e-06
2.2464876e-05,5.735123e-08,1.1463268e-07,0.34741,2.2395168e-05
7.717349e-06,2.30283e-06,0.009192073,0.9709294,0.023208536
2.3362004e-06,1.2200094e-06,0.386025,0.0055443775,7.050766e-07
1.1729429e-06,2.9215255e-06,0.20756389,0.06716611,8.1594754e-07
0.0007062263,1.9581973e-06,0.010253752,2.4274668e-06,9.935687e-07
0.06347115,2.980344e-07,2.2773486e-06,1.5738741e-06,6.631244e-07
0.00012852982,1.3060867e-06,1.7746733e-06,2.158391e-06,1.8701876e-06
1.5385848e-06,9.531159e-07,0.00018368477,3.0194512e-06,1.905105e-06
1.9509712e-06,9.3895444e-08,0.21279463,1.5253751e-06,2.3772195e-06
1.7633595e-06,6.2867406e-07,0.00016486023,1.8245503e-06,2.3586476e-06
1.9309343e-06,3.1874324e-06,2.2234271e-06,3.585095e-07,1.0610001e-06
2.0648715e-06,0.19334982,1.0823254e-06,9.0345615e-08,8.605558e-07
5.561987e-06,11.070682,4.054629e-06,8.7801254e-07,1.9463075e-06
3.5811634e-06,0.017365778,2.126177e-06,8.790692e-07,1.3188896e-06
0.000978804,8.600404e-06,3.905098e-06,2.7868684e-06,4.0739156e-05
1.9758784,4.8873168e-05,1.0080579e-05,1.5195913e-06,2.7588974e-05
0.2841431,5.177751e-06,0.00012128171,1.80467e-06,9.538169e-07
3.8013515,1.0265812e-05,1.8759321e-05,8.578801e-07,1.3914799e-06
1.8527361,3.659872e-06,0.00015599064,1.3053586e-05,6.8276915e-07
0.012241753,2.0177146e-07,3.1633322e-06,4.9014307e-06,4.2718852e-07
0.39438364,2.9188575e-07,7.476974e-06,0.001579221,8.303222e-07
0.20966513,8.675067e-07,0.00037442282,0.00051203155,2.5344303e-07
0.00027995216,7.9413944e-08,2.3178853e-05,1.3572246e-05,6.457676e-07
1.951564e-06,4.3565157e-07,0.00033038243,5.7076713e-06,2.5461388e-06
6.473669e-08,1.1927364e-06,4.816872e-06,1.6115992e-07,1.2323566e-06
4.0921446e-07,5.639791e-07,1.8277806e-05,1.7475445e-06,1.4121349e-06
3.7709964e-07,6.4279817e-07,2.264016e-06,3.3322108e-06,1.8589017e-06
7.0364445e-07,1.0617473e-06,3.1292817e-07,1.551384e-06,1.3200171e-06
6.855747e-07,3.413525e-07,1.5179089e-06,6.158349e-08,7.0847176e-07
2.4055603e-06,0.029267438,5.5472407e-07,6.2432434e-07,6.147645e-07
1.4918312e-06,1.681918e-06,6.8337217e-06,8.352257e-07,3.2070657e-06
2.0092723e-06,3.823193e-06,1.7715491e-06,4.943508e-07,3.9643342e-07
1.7158311e-06,7.398637e-07,1.9602626e-07,9.59381e-07,4.1174948e-07
1.0014093e-05,5.658847e-07,3.754863e-07,3.5136022e-06,1.0059928e-06
7.0201068e-06,1.9161212e-06,4.699192e-07,3.8598795,0.0
4.070383e-06,5.440586e-07,7.7819544e-07,8.442758e-05,0.0
2.9763064e-06,0.0,1.677716e-06,0.00018594465,0.0
1.0509766e-05,0.0,0.6965513,4.3775933e-07,0.0
1.0645758e-06,7.7985923e-10,6.2536006,2.7918902e-06,0.0
1.0820115e-05,0.0,0.0001828497,1.0484146e-05,0.0
3.8722837e-06,0.0,2.0955144e-07,1.681684e-06,0.0
2.521294e-06,0.0,2.9600978e-06,1.6717502e-06,1.0304581e-07
9.15399e-08,8.7462425e-08,1.1004588e-05,6.0781854e-06,4.6791808e-08
3.3480634e-07,2.1530113e-05,3.7082137e-07,1.4461155e-07,0.0
1.9261468e-06,1.6451964e-05,6.154531e-06,4.7109262e-07,0.0
6.4789575e-08,0.0,7.831018e-07,5.095361e-08,0.0
1.3347767e-07,0.0,7.957345e-07,3.6656782e-06,0.0
4.3448476e-06,0.0,2.8538276e-08,2.0580064e-06,0.0
1.7450564e-05,0.0,1.2422847e-09,2.8571698e-08,0.0
0.00012212706,0.0,0.0,0.0,0.0
9.020343e-06,8.2318795e-05,1.826118e-07,0.0,6.9798584e-06
3.1163208e-06,2.6041318e-05,2.8684408e-07,8.507562e-07,3.2167027e-05
1.0094027e-06,0.00012749944,5.9026473e-07,2.8676182e-06,0.0001259293
2.9081566e-06,1.7911743e-05,1.8849342e-06,3.2961125e-06,7.9674945e-05
1.5796719e-06,1.8897708e-05,0.000119751174,7.5996473e-07,6.4163523e-06
2.7008816e-06,7.39497e-05,0.00018319285,0.00011147251,0.00020774448
1.8099264e-06,0.1355081,5.5676846e-05,0.0002445525,0.0006305043
4.763525e-06,1.2378765e-05,1.5405862e-05,8.345606e-05,0.0067948964
2.1342073e-06,6.0773058e-05,2.3467996e-05,2.2022918e-05,9.2464965e-05
1.3095297e-06,1.2023017e-05,2.8922e-05,2.2875489e-05,0.0041927337
0.00033634188,7.232562e-05,2.1903463e-05,1.1441474e-06,0.32457164
0.0002251392,4.7345654e-07,1.810147e-05,0.5631122,8.553425e-07
0.00029542448,1.1568086e-07,3.460565e-05,8.468011e-05,1.9024842e-06
1.5310783e-05,6.496401e-07,2.703839e-05,8.634883e-06,6.5950553e-07
5.0665326e-06,1.0887283e-06,3.361616e-05,2.7758863e-06,1.8818179e-06
4.331013e-07,3.766038e-07,4.0177883e-06,1.643787e-06,0.014104202
6.462507e-07,0.12675767,2.358854e-06,1.031557e-06,0.7500919
2.2811857e-06,0.30779126,0.024828834,0.4050621,1.6064949
3.629508e-06,0.10863401,0.5472811,0.0134337405,1.3355542
1.14632364e-07,0.0728862,0.91304797,1.4953489,0.86006373
5.361337e-07,0.3251437,4.7343736,13.479733,0.391278
1.4153856e-06,0.27422073,7.932711,0.71899575,5.863909
1.8967703e-06,1.2586074,3.2199807,0.80923665,1.1124716
3.40624e-07,1.6931095,1.2523164,9.814002,0.39100724
3.227098e-07,0.011612399,0.67208934,0.052779306,0.017963
5.1772215e-05,0.00058783893,0.049686972,0.019493125,1.5931037e-05
1.6732184,1.5952409e-06,0.059017558,1.3515996e-06,1.9194763e-06
0.98955363,5.639973e-06,0.0011008572,1.9579954e-06,7.142973e-07
2.0919573,1.448407e-06,1.0307745e-06,3.4414043e-07,4.02612e-07
0.06884412,5.807506e-07,1.206429e-06,7.0604864e-07,2.464031e-06
0.01574268,1.3300858e-06,4.8790525e-07,7.5210096e-07,5.395082e-07
0.002356432,3.1064558e-06,8.8480056e-07,2.077584e-06,6.687531e-05
1.3394659e-06,6.137493e-06,2.4195544e-06,2.971658e-05,0.001597647
1.3470677e-06,4.503968e-07,0.00029219248,6.330959e-07,1.574388e-06
1.069958e-06,5.1913007e-06,6.8264467e-07,0.033041447,2.7696535e-07
4.8270755e-07,2.1080225e-06,5.559819e-07,3.7430132e-07,1.6131042e-06
2.7766382e-06,3.93698e-06,1.5591432e-08,1.5595485e-07,9.9037e-07
7.258299e-07,4.958246e-07,0.570909,0.040312614,2.105439e-07
4.5062043e-07,7.127335e-07,0.0054946933,0.021803172,2.2685563e-06
1.2608836e-06,5.5141595e-07,0.5140567,0.016067468,1.3191035e-06
4.959375e-07,2.8495635e-06,2.0563725e-07,0.047305733,1.7168067e-06
1.9168792e-07,3.2985026e-06,2.393497e-07,2.4741692e-07,2.055216e-06
3.4053002e-07,0.004906065,5.2208054e-07,4.3574834,2.9081198e-06
4.2820463e-07,8.3961805e-07,0.19657332,7.133654e-07,7.719026e-07
6.435511e-07,1.7988041e-06,4.8791856e-07,0.033530653,1.395297e-06
0.720515,8.8695083e-07,0.36294752,5.1305943e-07,3.2014836e-07
5.019271e-06,1.4120601e-06,1.0297616e-06,5.391085,1.310205e-06
7.796854e-07,2.7619607,1.295801,3.863268,1.7007724e-06
9.5162335e-08,1.4887612e-06,1.0005011e-06,0.0030595735,0.3196124
9.355952e-07,2.845472e-06,7.8266485e-06,6.66656e-07,1.5379456e-06
0.00042737153,1.9962781e-06,2.9552684e-06,7.2467833e-07,4.248716e-06
5.5865297e-07,3.032436e-06,1.5755269e-06,0.12209528,4.4035437e-06
9.2602363e-07,3.0382437e-06,1.8125619e-06,0.005777359,2.3246712e-06
3.500828e-06,0.00035423602,2.6836258e-06,2.7528138e-06,3.3605004e-06
8.1535086e-07,0.00015520924,0.00018620121,2.4892356e-06,1.395639e-06
1.9107385e-06,1.4828018e-06,1.2302792e-06,0.00031122306,1.6297132e-06
0.030318182,5.5807544e-07,1.4954618e-06,0.041611534,2.9499645e-06
2.7815208e-06,7.4522126e-07,1.3622672e-06,7.6600105e-07,7.7913217e-07
1.8713291e-06,2.1578808e-06,1.5112347e-06,0.00076403184,2.6919688e-06
1.4356817e-06,3.1759907e-06,0.11312066,6.737619e-07,1.3817602e-06
3.1986683e-06,1.6251429e-06,0.13365501,1.5420189e-07,1.3046488e-07
4.509683e-06,9.635776e-07,1.668733e-06,1.6640889e-06,1.0610551e-06
3.678142e-06,6.860623e-06,1.4594665e-06,3.1791608e-06,8.5322306e-08
1.0492407e-06,5.968256e-07,1.3682356e-06,1.7048395e-06,6.3408106e-07
2.5332736e-06,1.0894713e-06,3.963664e-07,2.1134171e-07,1.2085667e-06
9.4010807e-07,1.2059675e-06,6.2468445e-08,1.4826679e-07,3.2224093e-06
1.6999436e-06,9.474069e-07,1.1590051e-06,2.0968878e-08,7.1434863e-07
4.1406647e-06,2.3669252e-06,2.9681527e-07,3.0153294e-07,3.4717984e-06
1.0721841e-06,3.4131642e-07,1.1611721e-07,4.3300338e-07,8.155325e-07
3.0184608e-06,2.9044154e-06,1.8192305e-06,3.414295e-07,1.5981615e-06
1.2162572e-05,1.9471238e-06,6.8702246e-07,2.0393308e-08,3.1213513e-06
0.10086115,2.585719e-07,1.0217684e-06,4.1838925e-07,5.1465724e-07
9.420971e-06,1.9734712e-06,6.4617916e-07,6.49323e-07,0.04697738
2.49467e-06,2.3368632e-06,1.1008523e-06,2.1790949e-07,8.176097e-07
0.14951742,0.3531256,1.2185582e-06,1.4791636e-06,2.5117415e-06
0.032559745,1.5864786e-06,3.7940642e-06,5.928912e-07,1.0910059e-06
1.9606919e-06,6.764133e-07,2.5192182e-06,1.1691352e-06,9.882291e-07
6.8760426e-07,3.5085054e-06,2.3164616e-06,1.1112948e-06,3.856426e-06
2.1772498e-06,8.489896e-07,2.666149e-06,2.0681439e-06,1.2141585e-06
4.0288677e-07,1.2187908e-06,0.00033843538,1.0192205e-06,1.2727967e-06
1.5519366e-06,1.1031761e-07,0.0008408608,3.4180423e-06,5.8215187e-07
3.0496328e-06,2.74307e-07,9.344867e-07,2.295858e-06,4.81081e-07
4.0568225e-06,1.8968175e-06,1.8316816e-06,2.9317455e-06,3.0739236e-07
2.3827574e-06,1.0417607e-06,5.003393e-07,1.1979092e-06,1.07137396e-07
2.4824367e-06,3.709245e-07,5.9085623e-06,9.699995e-07,1.972709e-06
9.154655e-08,9.245313e-06,4.8698557e-06,4.618863e-06,2.2077984e-07
4.8512976e-07,1.0431339e-05,1.6225325e-06,6.176807e-06,1.6382874e-06
5.94295e-07,4.0773175e-06,1.9931188e-06,6.8313057e-07,3.965411e-06
7.293546e-07,0.28896058,2.5142497e-05,3.3642368e-06,6.538677e-06
0.01475979,0.07088414,2.6935487e-07,7.3459313e-07,4.1791694e-07
2.1636984,2.7083047e-06,1.10343386e-07,7.4149773e-07,7.460644e-08
2.3960474,5.817424e-06,3.484114e-08,0.0,1.3298576e-06
0.01016379,1.3459809e-06,2.97253e-10,2.51744e-07,1.4533539e-06
2.8700792e-05,1.0755499e-06,1.4557345e-07,1.7698147e-06,1.2897111e-07
0.00044997566,3.0155957e-06,5.5427265e-08,3.550614e-07,4.3508567e-07
1.8005308e-06,8.423421e-07,4.354101e-07,2.9491784e-07,1.6739176e-06
3.714353e-07,1.3598177e-06,1.2047714e-06,7.2803346e-07,8.665397e-07
9.23309e-07,1.867907e-06,1.062313e-06,2.0784128e-07,1.6744913e-06
9.359779e-07,1.6623062e-05,8.861633e-07,1.3741991e-06,4.301019e-07
1.1853574e-06,1.7203481e-06,2.1572273e-06,2.3495766e-06,5.5906394e-06
1.407817e-06,2.2191425e-06,7.842045e-07,1.6936382e-06,1.9810172e-06
1.7983758e-06,1.8839482e-05,7.726564e-07,1.2281437e-06,2.0166042e-06
4.796894e-07,9.719005e-07,1.5908252e-07,2.0621653e-06,9.0442904e-07
3.450978e-07,0.010105348,6.1339665e-07,1.2997012e-06,4.0757536e-06
1.3727012e-07,1.9921283e-05,7.3034454e-07,4.340139e-07,1.1207085e-06
3.5310632e-07,2.0676187e-06,3.1273971e-06,0.0,3.2662274e-06
4.4512753e-06,2.8596332e-06,0.0,0.0,4.8242123e-06
1.0617862e-05,2.1126586e-06,2.0539244e-09,0.0,3.4679758e-06
1.3690861e-05,0.00021018805,1.3539641e-08,7.8956435e-07,8.68837e-06
3.8536185e-05,0.011941324,1.9308054e-06,8.203157e-06,0.0031036574
2.8348526e-07,0.00081148074,7.4803065e-05,1.1754557e-05,0.0027903232
1.432019e-05,8.831612e-06,0.00015068197,9.691883e-05,0.008029779
1.2360497e-05,3.7444772e-06,0.00012895421,0.00016675134,0.0025029338
0.95053756,8.960844e-06,4.2980926e-05,0.00014775801,0.00027935512
0.00017898179,3.6747808e-06,5.280739e-07,0.00037924395,0.0005858196
0.0018035085,1.0827963e-06,6.30146e-06,0.05993282,0.0005376057
5.4008382e-05,5.7219477e-06,1.2543337e-05,0.016472738,0.00018268013
0.12240207,9.145735e-06,1.2083229e-05,6.435103e-06,9.3704506e-07
5.574638,4.8668767e-07,9.059404e-06,3.4954671e-06,6.9966895e-06
0.100989565,1.4851908e-06,2.3630553e-06,2.4986525e-06,8.269384e-06
0.04944886,8.1153576e-07,2.7569286e-06,3.537273e-06,1.5304437e-06
0.0031834806,3.020602e-06,1.2936945e-06,0.00035061684,1.3175322e-06
2.3280954e-06,1.0058454e-06,1.785841e-06,1.1929536e-06,1.2808052e-06
4.5252642e-07,4.5332473e-07,2.8669378e-06,0.0034742902,1.0913164e-06
0.0003476936,5.962071e-07,7.8717136e-07,1.3289292e-06,2.2881698e-06
0.0004792059,2.564509e-06,1.145921e-06,1.2163335e-06,4.1207045e-06
3.6693257e-06,1.049269e-05,1.5469718e-07,1.2706657e-06,7.955357e-07
3.8143997e-07,4.4338134e-07,1.5113303e-06,0.109306924,9.556826e-08
1.582109e-06,6.5500362e-06,7.4076945e-07,1.8935538e-07,2.5581435e-06
6.1139696e-07,8.424849e-06,2.156556e-06,7.2282296e-07,1.2410542e-06
6.3242396e-06,3.3466022e-06,1.3224305e-06,2.6560022e-06,1.1472888e-05
3.2162218e-06,8.4293355e-08,1.6982714e-06,5.4185415e-07,1.7097079e-06
6.656582e-07,3.8370587e-07,7.898575e-07,2.7598745e-07,3.466802e-07
8.92405e-08,6.6356023e-07,1.887102e-05,2.8930249e-06,3.3184142e-07
1.0410807e-06,1.8411334e-06,0.00010146879,1.8363275e-05,1.4731038e-06
1.1292789e-06,1.2997631e-07,1.875797e-05,8.795641e-06,3.316512e-07
6.335239e-07,2.9721082e-07,4.009957e-07,5.4010172e-08,7.2775855e-08
1.6622273e-07,3.0190654e-07,9.556722e-07,3.038239e-07,8.014685e-07
4.899551e-07,4.478519e-07,8.5362706e-07,4.8245704e-07,3.0910744e-06
1.0291801e-06,1.7277067e-07,9.07302e-07,2.8397042e-06,4.7813234e-07
5.452587e-06,6.754967e-07,3.6834302e-07,8.1493496e-08,8.8602627e-07
6.5444783e-07,4.067488e-06,4.6163208e-07,2.803053e-06,1.6822489e-06
1.2809951e-07,9.871163e-06,8.073656e-07,5.3426397e-06,0.00010199768
3.1786078e-09,1.3596433e-07,2.184581e-07,1.3515571e-06,6.2689556e-05
3.0861592e-08,2.3695476e-07,5.2183996e-06,4.103304e-07,1.7765999e-06
9.567663e-07,1.236901e-07,6.851938e-07,0.01246849,0.17156298
1.1809265e-06,7.351426,9.467628e-07,0.6591353,6.583543
1.3030038e-06,7.7047906,0.00011011322,0.27226344,0.18052663
1.1223357e-06,4.921481,0.30220237,0.020562356,0.47574374
6.4296996e-06,1.422768,0.34613082,1.9845513e-05,0.23230942
1.9948402e-06,0.00070138974,0.0016653546,0.090556845,2.2161805e-05
9.485547e-07,0.011096052,0.13746974,0.053621687,6.183247e-06
2.7089673e-06,1.8643698,0.72725046,9.984047e-06,0.04855451
6.0566657e-07,0.8229729,0.80732787,0.0014932484,1.1821454
1.2900316e-06,4.9765944,0.2753152,1.5831769,3.7239902
4.5119074e-07,8.281433,1.5341675,1.9321469,2.219531
7.6483575e-06,7.1632824,0.9859842,0.80756986,0.54997164
0.0002442848,2.7055008,0.70206547,1.3281867e-07,0.038683172
0.0002949197,0.04367593,0.13466993,0.01870818,0.057048
7.957086e-05,0.4485002,0.27258608,4.0421643,2.2527485
2.130065e-06,8.512041,0.44662625,0.15587176,5.7789106
1.3299106e-06,0.0136141945,0.026177282,0.00019430496,2.359483
4.1608837e-07,7.336577e-07,1.4062223e-06,0.0019617507,1.2232576e-06
1.0413896e-06,2.0574971e-07,8.540295e-05,6.6551306e-06,0.09291789
0.055950888,6.8336715e-07,4.505854e-06,0.0,0.21939348
0.07237735,0.00041155747,6.1684744e-07,1.5750917e-08,1.964808e-06
3.5845858e-06,0.0054347906,1.6257385e-06,1.2378825e-07,1.2041734
1.6557393e-06,0.0058992556,2.5383217e-06,1.8930166e-07,1.3398457e-06
6.889954e-07,2.7625962e-05,4.4780435e-07,4.418487e-07,1.2301915e-06
3.1750722e-05,4.0265786e-05,1.4541992e-06,4.9692153e-07,1.5818061e-06
6.498074e-07,0.0009073049,1.8557101e-06,1.8470749e-06,2.988391e-06
0.00018977444,0.003036208,2.666862e-06,1.7717883e-06,3.6065018e-07
0.00014103795,0.0016259655,4.1774338e-06,3.3406757e-06,6.6451526e-07
4.5329274e-05,0.003162776,1.9299628e-06,1.2199922e-06,0.008506099
2.8182563e-05,6.750952e-05,3.6424408e-06,1.9576488e-08,0.0032763984
6.298136e-06,3.755906e-06,1.084509e-06,1.7993655e-06,0.003013347
5.1479174e-07,1.166329e-05,1.2808599e-07,8.0598554e-08,0.0014837848
4.9244095e-06,2.0054001e-08,1.7332487e-06,0.0,0.00024431603
9.686185e-06,4.0946343e-06,2.7240544e-06,0.0,1.9842008e-05
3.6394496e-07,2.3432767e-05,6.861045e-08,2.398117e-05,1.6148031e-05
5.023557e-08,7.3338992e-06,0.00021353453,1.4848394e-05,1.0603755e-05
8.992966e-08,4.278999e-06,0.00046076413,0.0001411448,1.9227136e-05
7.765524e-08,2.4083085e-05,5.3199117e-05,0.00062241254,2.0927078e-05
3.0016524e-06,6.098381e-06,0.000394949,8.608958e-05,3.4411685e-05
1.979885e-06,5.659298e-07,3.462604e-05,2.5537112e-05,2.3199395e-06
5.9826134e-06,1.6840302e-07,1.139244e-06,1.8090269e-06,5.792449e-06
4.815891e-08,7.9076915e-07,3.134307e-07,4.6853024e-06,3.5103758e-07
6.377927e-07,9.71959e-07,2.7969527e-06,1.0779928e-07,1.23056325e-05
2.609742e-07,5.3404387e-06,1.2899075e-07,4.231659e-08,3.3238423e-06
8.244235e-09,5.385301e-07,3.7468195e-07,3.1912728e-07,6.5633536e-08
3.6848082e-09,9.730422e-07,2.972524e-07,9.389242e-08,2.8057539e-06
6.482432e-06,1.4762822e-05,1.2317445e-06,1.291669e-07,3.937151e-05
5.3977243e-07,0.00010220116,1.1187302e-06,8.909902e-09,0.00021238254
2.4026208e-06,4.2614007e-05,1.5223793e-06,6.182735e-07,3.880549e-07
0.00011916852,1.6284904e-06,1.4414396e-06,6.846065e-07,4.5450125e-07
0.00022788299,2.377619e-06,2.0408388e-06,3.2882651e-06,4.3990667e-07
0.00012981662,5.2800638e-06,3.3876945e-06,2.203761e-06,9.027165e-07
2.0558047e-05,4.331844e-05,6.6733827e-07,7.5433e-07,1.2983818e-07
1.2542615e-06,1.191676e-05,4.7552462e-07,4.1739176e-07,2.979654e-07
1.3397158e-06,2.7349865e-06,2.5601204e-05,9.953496e-07,6.815657e-06
6.113997e-08,1.595096e-07,1.5237074e-05,2.3981195e-07,4.2093077e-08
1.1807414e-07,2.4568354e-07,1.8473002e-06,2.3653867e-07,1.2734344e-08
7.383401e-09,2.7180413e-06,1.9471138e-06,4.603386e-07,5.314408e-07
2.5641875e-10,1.7880657e-07,9.3225395e-08,1.5361362e-06,1.6096506e-07
1.7016917e-07,6.391803e-07,0.0,7.984385e-08,2.655305e-07
2.886213e-07,1.7764124e-06,7.971166e-07,0.0,3.3666876e-07
4.1386647e-07,4.01963e-06,4.0482288e-08,0.0,3.1328161e-06
1.2083958e-06,2.4357653e-06,1.4912833e-07,6.19199e-08,1.3725185e-05
1.0862058e-06,1.1459043e-06,8.768012e-07,6.7644024e-08,1.5532007e-05
3.9290617e-06,1.8911652e-06,1.4303832e-06,2.193927e-08,4.8306133e-06
1.04958735e-05,4.8485376e-06,1.289151e-05,4.7138013e-08,7.0756587e-06
4.1157723e-06,7.882678e-06,8.2185693e-07,2.628527e-07,1.6531896e-05
2.5099273e-05,7.025413e-06,1.1954025e-06,4.3301442e-09,2.6223184e-05
5.0231833e-05,1.2220822e-05,2.4282679e-05,2.0235865e-08,2.3390834e-07
4.2494587e-05,1.0389366e-05,3.8476e-05,2.3996463e-07,5.76789e-06
1.26462555e-05,2.1823127e-05,4.4057792e-06,2.6583396e-06,0.0142392395
1.8375551e-06,0.37515298,6.234592e-07,1.962062e-06,0.059011098
6.852849e-07,3.0529163,2.4029632e-06,7.179084e-07,1.3717244
1.8133996e-06,5.2193065,2.2497543e-06,1.5396536e-06,1.0282888
1.4270187e-06,0.7857714,0.028132156,1.8324599e-06,0.12867317
2.4412454e-06,0.026970305,3.8297348,1.5485048,0.00022201771
1.493091,0.416495,2.2765194e-05,0.21521126,0.8871943
5.067907,0.08569524,0.5812277,1.5515188e-05,0.12782179
2.0000948e-06,0.16162139,0.12853041,0.2962927,0.9008883
0.48729044,0.08831473,1.0501834,0.28392804,0.3116511
0.4500732,2.290686e-05,0.5349703,0.13068669,1.4095563e-07
5.072451e-07,4.9266446e-06,0.55357885,0.23507294,5.246397e-06
2.3421899e-06,3.4638351e-06,0.33121797,0.0008066194,3.6279434e-06
8.990737e-07,1.959638e-06,0.0063986564,1.3239688e-07,5.1904783e-07
6.0029273,2.19416e-08,0.00041925613,1.7829049e-06,1.9482177e-06
2.7765236,8.849704e-07,5.772118e-06,1.0593736e-05,1.7606794e-06
0.000230803,1.3052374e-05,5.9332143e-07,3.9031193e-07,2.5841243e-07
0.00014451983,1.3099083e-05,2.9635638e-07,4.7396277e-08,6.3957464e-07
4.7671354e-05,1.3658056e-06,1.3699306e-06,3.678935e-07,3.82879e-07
4.72988e-05,4.5155506e-08,0.12035805,2.1174362e-06,3.8579474e-06
5.156424e-05,1.2489512e-06,7.3574483e-07,1.1642768e-07,4.1475334e-07
2.6322496e-05,1.1153958e-06,1.4147794e-07,1.4807144e-07,6.2920583e-07
5.739533e-06,9.44452e-08,1.8600615e-06,4.2882672e-07,1.3356668e-06
6.6122066e-06,1.9604786e-06,1.4501021e-05,1.4728624e-06,2.6172455e-07
2.4575522e-06,1.7787969e-06,1.6318836e-06,1.598391e-06,8.618414e-07
6.663409e-06,2.9653452e-06,8.733222e-07,1.4561895e-06,1.1073428e-06
6.039935e-07,1.6172532e-06,1.5472232e-06,9.307167e-07,1.3318808e-06
1.0038942e-06,2.5151908e-06,1.8209234e-06,7.5143515e-07,2.1877863e-06
3.5735136e-06,1.5107671e-06,2.38635e-06,1.8077709e-07,2.3672426e-06
9.358757e-07,1.1183004e-06,3.3920478e-06,3.1340555e-06,8.40135e-07
7.2471386e-07,2.7643869e-06,5.745466e-07,2.7874494e-06,3.2562318e-06
4.6694477e-06,7.5235516e-07,9.042335e-07,11.652095,1.4483452e-06
0.19879404,2.0173825e-06,5.9575985e-05,0.22124498,6.8947276e-07
0.033402488,4.4359746e-07,0.30928782,4.0996203,1.3756217e-06
7.271549e-07,1.9185982e-06,10.676679,4.913419e-07,5.2947354e-07
1.9126492e-06,6.5815548e-06,6.542093,1.3845188e-06,8.0148124e-07
0.35048655,1.5170472e-05,3.2671285,1.0835918e-06,2.3304955e-07
0.09316824,2.6512844e-06,4.8384175e-07,2.2041422e-06,6.330742e-07
1.192955,1.0814141e-06,9.358858e-07,9.450835e-07,3.916195e-07
0.34195206,4.788898e-07,6.440045e-07,4.5046062,7.715627e-07
13.009744,2.7636085e-07,3.244944e-05,6.0182447e-07,4.0479504e-06
1.4132149,2.743637e-06,3.263328e-07,5.047012e-07,9.184451e-07
8.990865e-06,3.4993163e-06,7.79765e-07,2.0991704e-08,0.070574775
1.0318272e-05,0.045228995,3.3065595e-07,1.7379723e-07,6.822538e-07
4.486457e-06,0.005160084,1.2785598e-06,1.216986e-06,3.620416e-06
8.893804e-07,1.4324701e-06,5.5533616e-07,7.883423e-08,0.00040148903
0.04111056,1.1398186e-06,7.725763e-08,4.7591985e-07,3.1008092e-06
1.143081e-06,1.9209094e-06,6.81431e-07,3.9831802e-06,2.9835255e-06
0.26183832,1.5693471e-06,9.4967766e-07,0.0033374492,5.7864753e-07
1.0484185e-05,0.14121771,6.6350356e-07,1.2197032e-06,1.2867099e-06
0.09475092,0.045807146,1.0799445e-07,1.5677051e-06,7.762526e-07
0.024480427,1.988236e-06,1.7982627e-06,1.9074773e-06,1.4141738e-06
2.1023786e-06,1.6339834e-06,2.8964928e-06,8.9463674e-07,1.6603409e-06
1.5448402e-06,1.8444082e-06,0.22384307,1.8368539e-06,5.7057713e-07
2.112628e-06,3.0029503e-06,1.7138711e-05,0.025103131,3.03922e-06
2.209398e-06,4.0202717e-06,1.9764057e-06,7.7472777e-07,2.5871086e-06
2.292631e-06,0.24050058,1.9730826e-06,1.5199159e-06,3.63118e-06
7.4096954e-07,0.503122,2.6895984e-06,1.5900426e-06,0.088914484
1.724044e-06,0.27909788,4.2895485e-06,1.283984e-06,0.028812123
5.283764e-06,3.7497084,1.0089894e-06,3.4748643e-06,3.675129
2.7698654e-06,4.78019,1.8683323e-07,1.6000945e-06,1.4122851
1.6130233e-06,5.9501233,0.9752115,0.00014003256,0.17481133
2.532665e-06,7.830256,0.028001511,1.534787e-07,2.957839
8.055972e-07,7.3232555,2.3705343e-07,0.000754575,9.890394
0.001591642,2.7935612,0.00020989843,8.349934e-05,0.34934366
0.024641618,0.019745503,0.04374586,5.492247e-07,0.17879859
0.5917671,0.0033056014,0.008626317,0.044696882,0.06673341
0.00049270515,0.012727252,0.04387814,0.30754027,0.015259389
0.02902524,2.1498456e-06,0.023143455,0.38010415,0.00075217814
0.031696465,3.6133572e-06,0.023383947,0.07311546,1.1558486e-05
0.2309601,1.6160468e-05,0.0070028664,0.11397517,4.534461e-05
0.38856062,3.2594894e-06,0.005454859,0.015254439,1.9075127e-05
0.33297262,1.2614569e-06,0.05536488,0.010935954,8.13148e-06
0.055979718,3.550321e-08,0.050152324,0.0016668267,5.693889e-06
0.34263587,2.1542442e-06,0.00011819363,8.447537e-07,3.0131832e-06
0.004488372,9.782724e-06,2.4318954e-06,2.521133e-07,2.0353655e-06
0.10915944,1.6673995e-06,8.9940465e-07,6.473467e-07,6.9393496e-07
0.322204,1.5588115e-06,0.0007094565,1.8681608e-06,6.640491e-07
0.21624331,0.054216977,6.65902e-07,1.3804433e-06,1.0518334e-06
7.3404243e-07,4.8598827e-06,1.6716339e-07,1.1866132e-06,4.3826856e-07
1.7591062e-06,1.5337758e-06,1.8731696e-06,1.9059678e-06,1.2077788e-06
1.3983228e-06,3.5331087e-07,2.708686e-06,1.5410076e-06,8.294073e-07
0.11901625,3.2328064e-06,2.2357713e-06,3.28762e-06,1.4860747e-06
0.38403812,1.995128e-06,2.8282889e-06,4.141986e-06,5.3387134e-07
5.380166e-07,1.6404914e-05,2.7111087e-06,1.2218819e-06,1.00158395e-05
4.045255e-07,6.601346e-07,2.3492003e-06,1.6140033e-06,6.1753185e-06
4.094064e-07,1.5541877e-05,1.0039919e-06,4.6124694e-07,7.0661117e-06
1.7301313e-07,2.869679e-06,7.4708896e-07,1.344187e-06,3.600358e-06
2.0153057e-06,1.6504293e-06,1.3482588e-06,4.2345752e-07,1.3761038e-06
2.318724e-06,1.5130599e-06,4.087812e-07,9.5226477e-07,5.414829e-07
3.3174032e-07,4.7286126e-06,5.468529e-07,3.735033e-07,2.3854684e-06
2.941338e-06,1.526984e-06,4.0624866e-07,4.3447764e-07,2.1683393e-06
3.6557915e-07,2.0664643e-06,2.7491853e-07,1.8929765e-07,1.8732766e-06
9.892162e-07,2.539897e-06,1.1793321e-07,3.823206e-07,1.8811562e-06
4.7525992e-07,1.6487463e-06,9.509607e-07,9.105729e-07,3.3747556e-06
2.9341746e-07,3.2513144e-06,5.910293e-07,8.1397826e-07,6.11965e-07
4.3424845e-07,1.3850606e-06,3.1819903e-07,3.0024992e-06,6.206177e-07
1.4490447e-06,5.063634e-06,3.2969854e-07,1.2635262e-06,7.5504056e-07
1.3083979e-06,1.9618424e-06,2.5277382e-06,3.3842744e-06,4.0702125e-07
1.5949828e-06,7.9424007e-07,4.4157146e-06,1.8266277e-06,8.8881194e-07
1.2644016e-06,3.4921356e-07,4.1024655e-06,2.2497613e-06,1.6705035e-06
1.925306e-06,4.8871493e-06,6.049465e-05,1.6557627e-06,1.8475997e-06
7.65881e-06,1.0705806e-05,2.9928842e-06,2.5478632e-06,3.807366e-07
4.8576874e-07,5.648695e-06,8.786656e-07,1.140422e-06,2.419505e-07
1.1458877e-05,7.703762e-06,3.1040565e-06,2.6382374e-06,9.547626e-07
7.533056e-06,6.5247314e-06,2.9170974e-06,2.706145e-06,8.265972e-07
1.3558403e-06,1.2326361e-06,2.3061907e-06,1.8173433e-06,1.2708481e-06
1.0324311e-06,5.767675e-06,3.394842e-07,4.559401e-06,4.0524296e-06
3.5216442e-07,3.205918e-06,1.1493067e-06,2.153813e-06,1.5585063e-06
1.8700849e-06,1.5897308e-06,7.002275e-07,1.2419157e-07,5.0474324e-07
1.3272204e-06,2.090942e-05,6.335964e-06,0.00041143084,1.022079e-06
4.020843e-06,1.2159551e-06,0.0008629708,0.0570739,0.03262195
3.1173462e-07,2.1881007e-07,0.024087692,0.051791925,0.00011654498
2.2576833e-06,4.018722e-06,0.053768113,0.046840396,4.731712e-05
1.6623651e-06,1.4223143e-07,0.088874966,0.011258102,0.0005390022
5.5282926e-06,3.3579929e-07,0.043212105,2.5873305e-05,0.006924265
8.111694e-06,3.63722e-07,0.0006867434,7.077781e-07,3.0123797e-08
8.021785e-05,5.9848354e-08,2.6448308e-07,3.6317653e-07,0.0017579597
0.0012908769,1.2623267e-06,6.143557e-07,6.2626214e-07,0.12473601
0.0037820034,1.4728954e-06,2.713018e-07,9.908345e-07,0.27184016
0.15201919,8.733309e-07,2.6020626e-07,1.278342e-06,0.18103594
0.03485528,0.00013849956,1.0342967e-06,1.6346478e-06,0.07266365
8.510212e-05,0.002871365,2.3932075e-06,1.5241264e-06,0.041096717
5.886496e-06,1.4818999e-06,2.1390138e-06,1.0482424e-06,0.017923629
3.3820554e-06,3.6825134e-07,8.538107e-07,2.481603e-06,0.00091112923
1.1660102e-06,2.7562305e-06,5.6917685e-07,1.1741222e-06,8.0448235e-06
1.2181231e-06,1.13999825e-07,8.8486587e-07,3.620027e-07,9.09313e-06
1.4663576e-06,1.3195655e-06,1.8084987e-06,3.7760896e-07,1.804944e-06
3.0178537e-06,7.387865e-07,7.6384395e-06,8.312597e-07,3.943914e-07
2.438127e-07,7.865489e-07,3.6100535e-06,1.1493914e-06,2.0069683e-06
1.800644e-06,6.940193e-07,1.7989707e-06,1.8761787e-06,2.5147492e-07
1.5895432e-06,2.0781056e-06,0.0015534969,6.533601e-06,9.4842414e-07
1.0126149e-07,6.286743e-07,0.045802712,0.37259397,4.3925843e-07
9.639815e-07,8.886532e-07,0.030028882,0.005265048,3.7232056e-07
3.9371832e-07,6.857106e-07,0.0023680313,0.0017166516,6.0061524e-07
5.8970926e-07,7.7938665e-08,2.4391282e-05,8.377014e-08,3.141149e-07
4.2278784e-06,9.914373e-08,0.0054525724,1.8869221e-05,4.4203185e-07
5.501133e-06,1.0954544e-08,0.0038205541,4.3824216e-06,1.6900027e-07
2.7757045e-05,4.240383e-08,7.215761e-05,0.00034586704,1.1434624e-07
6.232246e-06,1.7418205e-07,1.473275e-06,4.1562464e-05,2.4632192e-07
4.1607773e-06,1.2450431e-07,4.8469205e-06,1.2582733e-05,6.858091e-07
2.2677936e-05,6.529335e-07,1.0828258e-05,2.6088069e-06,2.0038053e-06
0.0001097178,1.1155288e-07,2.0240661e-06,1.1032389e-07,2.45344e-07
8.490509e-05,1.9800639e-06,2.0864672e-07,5.07845e-07,6.882485e-06
2.2958107e-05,2.0476614e-06,2.6108964e-07,6.3147e-07,7.542015e-06
1.39602525e-05,9.149554e-07,1.3479968e-07,3.2059804e-06,2.2455158e-06
3.0847e-06,2.4736255e-06,2.2244553e-06,1.8190744e-06,8.7524296e-07
1.4801593e-06,4.1073104e-06,2.1113551e-06,1.3220807e-06,1.1251468e-06
1.416458e-06,2.2851547e-07,1.4668368e-06,1.7808483e-06,1.6607754e-06
2.198992e-06,4.4621834e-06,8.473556e-07,4.4148828e-07,2.9659689e-06
8.1949634e-07,7.285861e-07,2.2349611e-06,8.54969e-07,2.7696676e-06
2.0200273e-06,3.5617083e-07,1.8972892e-06,2.92095e-07,6.521846e-07
8.659534e-07,4.1571863e-07,2.525545e-07,3.8939316e-07,4.54592e-06
4.006619e-08,4.660618e-08,4.071337e-06,2.0594263e-07,2.4553879e-06
1.5639703e-08,6.827647e-09,1.3890857e-06,1.2256427e-06,9.2133e-07
1.9408662e-06,1.6326995e-06,1.3758442e-06,2.906262e-06,5.261298e-07
5.443164e-07,1.6156984e-06,1.7267539e-06,2.3403727e-06,6.346849e-07
0.0,2.1953613e-06,2.2422967e-06,1.9002296e-06,1.5067048e-06
1.5931785e-07,1.7805838e-06,7.881766e-07,1.4466265e-06,7.573544e-07
1.3755492e-06,1.1588716e-06,1.7151605e-06,1.6621608e-07,1.0444777e-06
4.519629e-06,1.5073672e-06,2.4403314e-06,1.7155943e-06,1.383529e-05
1.0348383e-05,1.7350904e-06,3.6699828e-06,1.4818828e-06,1.0337826e-05
3.0967908e-06,1.315182e-07,0.008582146,1.2051255e-06,3.425269e-05
8.155093e-06,8.615217e-06,0.023515629,2.0945172e-06,2.5949753e-06
2.3240096e-05,5.8759728e-08,0.018678196,0.009221934,1.9436911e-05
1.9098856e-05,6.1499813e-06,0.009408138,0.049192872,3.2176857e-05
4.6668547e-06,1.233874e-05,0.08945545,0.2623702,1.9471365e-05
1.3049072e-06,8.1654235e-07,0.2637202,0.67550457,6.7226865e-06
4.7493754e-06,0.06960422,0.5391653,1.568573,0.31830323
3.4405107e-06,0.12784651,2.555232,1.6038759,0.32938036
2.3805185e-06,7.186923e-06,0.011035085,1.214146e-06,2.723525e-06
0.033618186,2.1475385e-06,8.8975315e-07,2.1320145e-06,8.2282384e-07
0.23546791,1.0882736e-06,1.368433e-06,1.5556321e-06,1.1399435e-06
0.021768097,4.439816e-06,8.32249e-07,2.120619e-06,4.2153597e-06
1.2839179e-06,0.0,3.4606046e-07,7.2137306e-07,1.1460853e-06
2.2916247e-06,5.97485e-07,1.8112887e-09,8.2814637e-07,2.7889066e-06
3.5921914e-06,6.1481624e-06,7.808919e-07,1.8408165e-06,1.6531961e-06
3.123248e-07,3.5014755e-06,1.4139955e-06,1.5118171e-06,2.0079567e-06
4.697366e-06,4.2306287e-06,1.4022067e-06,2.0378588e-06,2.924506e-06
6.454752e-06,6.1979404e-06,1.5476566e-06,1.498888e-06,1.5612678e-06
2.3453633e-06,4.9980626e-06,3.857604e-06,1.2643938e-05,8.707491e-07
2.6435446e-06,1.1133482e-06,1.6343014e-06,7.3194547e-06,1.761915e-06
2.5715763e-06,1.4115688e-05,7.2258985e-07,2.5485415e-06,4.3892433e-06
5.0092746e-07,4.442753e-06,7.796059e-07,3.1012493e-07,3.3722802e-06
4.1871633e-07,1.4186354e-06,1.712026e-07,1.4998285e-09,6.7149126e-06
6.428638e-07,7.573187e-07,1.5840589e-06,3.3661144e-07,7.4976214e-07
3.973716e-06,1.5355342e-06,1.2751977e-06,1.3825927e-06,1.4008125e-06
2.2462978e-06,1.4081287e-06,4.7097944e-07,9.2855635e-07,1.58687e-06
8.1378147e-07,4.86481e-06,5.264356e-07,7.48589e-08,1.3477056e-06
1.3531234e-06,1.1641242e-06,0.0026317178,8.2601605e-07,1.2771936e-06
6.2912767e-07,2.9142677e-06,0.033415604,5.487436e-07,1.1784659e-06
1.1323087e-06,1.1617628e-06,5.3329836e-07,1.05308686e-07,0.086664766
9.2539256e-07,7.262978e-07,9.751533e-07,3.1591895e-07,4.0123024
9.023462e-07,2.1113563e-06,5.2842614e-07,2.0563066e-06,2.3313341e-06
1.0741347e-06,2.8822517e-06,1.709999e-06,2.273686e-06,0.0067585274
0.008093053,2.8741765e-06,2.9599964e-06,1.9227036e-06,9.111155e-07
0.39645678,4.957456e-06,2.6957432e-06,3.1419663e-06,3.8340542e-07
3.3289934e-06,2.324082e-06,2.1351814e-06,0.2739834,2.936982e-06
3.4895322e-06,3.1394754e-06,1.7765118e-06,0.00475978,6.0513407e-06
1.9820684e-06,2.0357434e-06,2.486033e-06,2.0947098e-06,2.4419583e-06
1.058606e-06,2.2787067e-06,1.5531028e-06,1.0806459e-06,2.5872876e-06
0.073954344,7.8590637e-07,1.4215676e-06,1.1396274e-06,1.3914192e-06
0.025063448,4.1395786e-05,0.00074723037,1.0198239e-06,5.540865e-07
4.4327857e-07,8.870462e-07,0.050320428,1.3771567e-06,0.12262733
1.1147154e-06,3.270195e-06,2.981481e-06,2.982164e-06,0.008575659
4.5968005e-07,8.8310614e-08,3.0398442e-06,7.725747e-06,0.1278599
1.5212745e-06,3.0231135e-07,1.5735105e-06,1.0594252e-06,1.3363508e-06
3.164191e-07,2.5291838e-06,5.6660347e-06,1.5912946e-06,6.446965e-07
4.8110496e-07,2.1435537e-06,7.5826125e-07,2.7150666e-06,2.0829632e-06
6.425887e-07,0.00032945897,5.4927716e-07,1.3660804e-06,2.8433967e-06
3.7510538e-06,2.4257376e-06,1.4751757e-06,2.1517008e-07,3.1215015e-06
5.4153484e-06,1.245363e-06,3.9654697e-07,2.3344664e-07,3.68378e-06
9.132608e-05,1.8090425e-06,1.8837248e-07,1.5468132e-07,2.787079e-06
4.1764307e-07,0.08722481,7.492365e-07,1.2612756e-07,6.204873e-07
7.513761e-06,4.737751e-06,4.776704e-07,2.392616e-08,5.395347e-06
2.7730277e-06,9.609076e-07,6.5636516e-07,1.8162206e-07,2.2561376e-06
0.00039583817,6.4923624e-06,1.0764799e-06,7.1687896e-07,1.4490087e-06
5.6289573e-06,2.4307326e-06,1.16023e-06,6.140323e-08,1.7434402e-06
7.424222e-07,3.1623756e-06,3.31012e-06,1.3906725e-06,9.1999067e-07
7.2175163e-07,1.3553857e-06,1.0956372e-06,1.1603693e-06,1.2335605e-06
1.9566999e-06,8.530622e-07,1.7976898e-06,3.0437404e-06,2.6265898e-06
2.6828895e-06,6.213872e-07,1.4059038e-06,3.3292774e-06,1.6710931e-06
1.7948258e-06,2.668222e-07,2.0477507e-06,2.272985e-06,2.1102817e-06
8.385923e-07,5.70168e-07,5.513303e-07,1.7093558e-06,8.4419554e-07
1.398717e-06,1.6925034e-06,1.1201289e-06,6.969944e-07,1.6859849e-06
1.6969758e-06,6.404551e-08,2.3572579e-07,1.0736009e-06,7.6773125e-07
3.2454716e-06,5.063318e-06,1.1212551e-06,2.6433518e-06,3.2958453e-06
3.165342e-06,4.2077763e-06,6.857324e-07,2.6544765e-06,1.686204e-06
2.3281455e-06,4.336149e-06,2.8237223e-06,1.2922343e-06,4.0097046e-07
2.21652e-06,2.5973384e-06,1.5614032e-06,8.384709e-06,2.9216978e-06
5.386221e-07,1.2498174e-06,2.4264818e-06,1.950862e-06,1.2825202e-06
3.8932922e-07,0.005536799,1.3595024e-06,2.9228354e-06,1.5482996e-06
1.3352972e-06,6.901164e-07,1.3442022e-06,1.0955332e-07,2.3273114e-06
9.3902383e-07,1.1834627e-06,1.5391925e-07,4.957235e-07,1.958646e-06
1.6605534e-06,0.006907049,1.6226131e-06,2.5733198e-06,5.043302e-07
1.3839109e-05,0.0001065008,8.465778e-08,1.3488502e-06,1.0447122e-06
1.0268942e-05,1.4260664e-06,1.3580042e-07,1.1996412e-06,1.8737669e-06
1.0981404e-06,4.0311825e-06,7.5326035e-08,3.0323392e-07,5.7621135e-05
1.3867736e-05,1.0331797e-06,3.278819e-07,1.0655148e-06,0.23330328
2.2006806e-07,1.9566073e-06,2.0952268e-07,1.2814162e-06,0.3201135
4.937669e-07,1.1969229e-07,7.362764e-07,1.2983611e-06,4.9098526e-07
6.4022413e-07,2.9001555e-07,6.6874384e-07,6.614693e-07,0.00026952827
1.2129191e-06,5.870903e-08,4.756794e-07,1.0949351e-06,0.04315933
6.718567e-08,2.1790054e-06,6.3097315e-07,2.4395677e-06,1.1829601e-06
4.3391304e-07,2.8696584e-06,2.5411741e-06,3.6469435e-06,1.7598175e-06
5.925914e-07,0.00043885212,3.7392527e-07,9.846027e-07,8.6939525e-07
1.9456545e-06,0.00013987687,3.6511453e-06,1.3855728e-06,9.798971e-07
3.0474566e-06,6.2611666e-06,2.225507e-06,1.1082133e-06,2.4715519e-06
1.7312672e-06,2.288232e-06,8.827994e-06,5.0941446e-07,1.2078407e-06
9.0315854e-07,3.861614e-06,4.117548e-06,5.505012e-06,4.0059967e-06
4.071682e-06,1.3231097e-07,7.27158e-06,5.915086e-06,9.683981e-07
6.9594634e-08,6.785913e-08,2.4345846e-07,3.1286145e-06,0.0
0.0,2.1242852e-10,1.2994284e-06,3.901986e-06,0.0
2.7470244e-07,0.0,1.5275518e-06,1.596483e-06,0.0
2.2653035e-06,0.0,1.8626793e-06,8.0910615e-07,0.0
5.1323093e-07,0.0,5.7942852e-06,9.696233e-07,0.0
1.929369e-08,0.0,1.141383e-06,2.9331127e-07,0.0
0.0,4.3427185e-08,2.550606e-06,4.4410774e-07,9.395766e-09
4.1225398e-08,4.6669484e-07,1.1862114e-06,4.4996457e-07,2.0952687e-06
3.6281196e-07,9.484606e-06,6.0659653e-07,2.588646e-07,9.618622e-08
1.8144326e-07,1.5279653e-06,7.3867585e-07,8.9114917e-07,1.3887354e-05
1.0885158e-06,3.889325e-06,7.189717e-08,9.658291e-07,7.8273416e-07
1.680341e-07,2.6276919e-06,1.067779e-07,2.4077082e-07,1.3177305e-06
3.7868053e-06,2.7736282e-06,1.0760677e-06,2.49351e-07,9.3951854e-07
4.5739622e-08,2.1479369e-07,1.4822301e-07,8.498321e-08,3.1365291e-06
5.494971e-08,1.3757704e-06,5.535351e-07,8.479253e-07,9.453578e-06
4.5732781e-07,2.179612e-05,1.210359e-06,1.3085997e-06,6.470263e-06
5.81995e-07,3.161132e-06,6.0355603e-07,1.591707e-06,1.3340239e-06
1.6780003e-06,2.1334151e-06,1.1584942e-06,4.7369936e-06,1.0287723e-06
1.9314061e-06,6.554807e-07,5.217107e-06,2.8057104e-06,6.1299704e-07
1.4922623e-06,3.6641443e-06,8.2386396e-07,3.881903e-06,1.9131079e-07
8.824639e-07,1.5956517e-05,4.025119e-06,0.0010518869,4.3651075e-06
6.329924e-06,0.00021241856,1.4194412e-06,3.0281644e-06,8.858385e-05
2.8321458e-06,0.0006181534,1.3799457e-06,0.032311033,0.0005899077
1.242004e-06,0.00034829884,8.0917397e-07,0.11247785,0.00016591683
6.2292474e-06,5.702164e-05,0.07173927,3.8729522e-07,2.229987e-07
4.4546462e-07,5.257749e-06,0.00017990393,6.464866e-08,2.1043616e-06
8.026535e-07,3.142467e-06,2.67564e-07,7.48895e-08,1.7290469e-06
1.0550251e-07,1.4023777e-06,3.5556354e-07,1.821822e-07,8.562955e-07
2.7417806e-05,5.687759e-07,1.0027619e-06,6.526914e-07,3.5453908e-07
3.9057622e-07,1.0773701e-06,3.3863975e-07,3.708403e-07,6.42724e-07
2.5998245e-06,2.8828467e-07,0.010362068,8.315956e-08,6.3257517e-07
8.735169e-06,3.7619054e-07,0.48732522,2.4445004e-07,3.730252e-06
5.7642187e-06,2.9687766e-07,0.23281947,2.8859182e-07,1.3898132e-06
3.8578523e-07,7.6490096e-07,1.0732375e-06,8.1578236e-08,4.996899e-06
1.1625051e-06,1.3534636e-06,0.090441294,7.179824e-07,6.0365223e-06
7.82284e-07,8.9867154e-07,1.8216586e-07,4.3460182e-07,3.3449594e-06
1.7051899e-07,1.1212998e-06,6.448262e-08,1.0794444e-06,2.5481364e-07
4.347276e-06,8.546137e-07,5.493992e-08,1.2552613e-07,1.2240439e-07
4.2022434e-06,1.6386306e-06,5.7083557e-08,5.835374e-07,1.3714701e-06
2.1676792e-06,0.15651166,5.0266743e-07,1.0306397e-06,1.5960958e-06
1.127378e-06,0.025832955,7.029613e-07,7.6050105e-07,2.2913491e-06
2.3844611e-06,8.481971e-07,6.5958557e-07,0.0012922223,9.2605603e-07
2.769481e-06,0.012415807,2.003207e-06,0.45901045,6.088046e-07
2.7091241e-06,0.5262987,2.3295695e-06,0.23326263,0.013269655
3.5055946e-06,0.03242546,0.70012575,0.13299833,0.25523403
1.5213029e-06,6.136154e-05,0.007286245,5.036621,0.11473961
6.6530056e-06,0.056975216,0.032466657,4.7733784,0.1240437
4.9087416e-06,0.069900714,1.928235,0.30104867,0.09050588
8.8675847e-07,0.18507205,0.019736517,1.6435417e-06,0.25800547
0.04475253,0.11795661,0.050979286,9.2204755e-05,0.11794197
0.015648214,0.04117615,0.13730702,0.011690568,0.071694724
0.020371687,0.032194797,0.1668486,0.067392945,0.04219021
0.16547331,0.018516786,0.20722103,0.03698067,0.014658441
2.0322885e-05,0.001086086,0.12379305,0.00102133,0.001236038
0.0013178678,1.2511482e-05,0.050582826,0.004931192,1.9082328e-05
0.0056636627,3.2240116e-06,0.046012647,0.0028216722,1.8839931e-06
0.014952846,5.280234e-07,0.000531924,0.00061890867,2.455116e-07
0.009778021,1.2356827e-07,1.7745438e-07,1.8437146e-05,2.7610065e-06
0.029056221,1.3639237e-06,1.278644e-07,0.007126119,0.014924992
0.035762988,2.0822592e-05,3.6522292e-07,6.50271e-07,0.12797387
0.0074519776,0.033277042,6.8179753e-07,3.776152e-07,0.19151877
8.084608e-05,0.20827061,4.1530055e-07,1.5796915e-07,0.17642331
0.11997649,0.5508225,1.8206518e-06,0.00073580456,0.19476712
0.09561108,0.28223714,3.399346e-06,0.09912178,0.04742326
0.08774873,0.08851586,0.019965088,0.035311565,0.029235763
0.011427613,0.11255666,0.18638435,0.044317942,0.0028955217
0.07286804,0.06952152,0.12226779,1.3900124e-06,7.4282007e-06
0.4553094,0.0038026255,0.0005937041,3.1781938e-06,1.4512232e-06
0.3368604,2.6539951e-06,2.123162e-06,2.4388744e-06,1.4973672e-06
0.6120624,3.9549482e-07,1.4422317e-06,1.9143265e-06,1.2281456e-06
0.0060145794,2.0397738e-07,2.9439438e-08,2.2654103e-06,1.5592309e-06
0.0017884487,3.151433e-08,4.542669e-07,4.289017e-06,7.913023e-07
0.0056219134,1.8167806e-07,2.4324877e-06,5.7878424e-06,8.1166735e-07
0.017328367,3.1977052e-07,1.1000891e-07,6.1840507e-07,1.3636251e-06
0.02783488,3.3382996e-06,3.964041e-07,8.144696e-07,8.21366e-06
1.1058745e-06,3.3430968e-06,9.808814e-08,2.4190256e-06,9.328395e-06
8.01274e-08,2.2178399e-07,8.9154236e-07,9.833233e-07,3.6841183e-08
3.3018468e-06,1.2391697e-06,6.8409815e-07,6.16617e-07,1.6655927e-07
3.1329464e-06,2.3246137e-06,1.4030329e-06,2.9256003e-06,4.6868145e-06
3.3880107e-07,1.4412614e-06,2.2634797e-06,7.4459655e-07,9.413344e-06
2.6122755e-06,5.7341637e-08,2.4225319e-05,5.5783266e-07,4.647381e-06
1.20134955e-05,2.3308408e-08,3.0370764e-08,3.5713597e-06,1.6659887e-07
1.928007e-05,3.8159942e-05,1.2467046e-06,1.0354473e-06,2.631633e-07
1.887891e-05,5.51819e-05,5.812047e-08,2.961126e-06,9.561535e-05
6.655494e-08,2.4480387e-05,6.796723e-07,4.2766983e-06,9.59288e-05
3.0979863e-05,9.93678e-07,6.6575094e-06,7.701348e-06,6.313386e-08
1.8022415e-06,3.9803183e-07,1.279907e-05,6.6603357e-06,0.0
1.5903127e-07,3.6622183e-08,1.3423653e-06,1.1975882e-06,0.0
1.268605e-06,4.1562396e-07,1.6981132e-06,1.037523e-06,1.1558176e-08
2.5678842e-06,8.9254434e-07,8.765139e-06,1.6068468e-06,6.706573e-06
1.5816654e-06,7.899669e-07,7.8460225e-06,1.8860161e-06,5.1184986e-07
6.425664e-06,2.9148127e-06,1.8351207e-06,8.860065e-07,2.8852753e-06
2.4689907e-06,1.2832929e-07,8.307205e-07,9.038952e-06,2.007736e-06
4.5072605e-07,5.6383794e-07,4.8559286e-07,2.3934663e-06,1.3133892e-06
1.3697108e-06,0.0,5.921259e-07,1.2349124e-06,1.38126425e-05
9.765678e-07,0.0,2.6802816e-06,2.4898904e-07,1.1631442e-09
1.2304992e-06,0.0,0.0,0.0,0.0
4.3557493e-06,0.0,0.0,0.0,0.0
4.7285727e-07,1.3667714e-07,4.941429e-07,0.0,0.0
1.334314e-06,2.5398185e-06,1.297938e-06,0.0,1.5877627e-06
5.630746e-07,1.1119533e-06,2.5044137e-06,0.0,3.4461027e-06
2.5089887e-06,7.532868e-07,3.4926754e-06,1.7363607e-08,3.0685953e-07
1.2622694e-06,1.7000111e-06,1.7822857e-06,2.0866463e-07,1.0923806e-06
8.07453e-07,1.9542806e-06,8.1037e-06,1.5526227e-07,3.7973543e-05
1.1796533e-05,6.6505027e-07,1.7799148e-06,1.5074308e-07,1.0959698e-06
0.09195177,3.646676,1.8982493e-05,0.025620926,1.8850825
0.0008839333,1.1874722,2.4944925e-06,0.054536324,0.9181319
0.0013090564,0.44876525,0.34328723,0.38476214,0.4957706
1.3143985,0.17278849,0.35926983,0.19571629,0.16226888
10.306734,0.0007036218,4.6242534e-05,1.4830162e-07,0.006244483
0.16095583,2.467872e-07,0.011633017,7.691362e-07,1.8866184e-06
0.06803787,1.0332355e-06,0.07332032,0.025708424,8.152311e-07
0.004423056,1.3017158e-06,0.048097007,0.017618885,1.1135163e-06
0.000114250266,4.048893e-07,0.033605225,0.0063717184,4.4172836e-07
1.7934782e-06,3.679023e-07,8.522145e-07,1.2247451e-06,9.605616e-07
0.0010914764,6.701402e-07,1.6620802e-06,1.0557634e-06,2.0757558e-07
0.023177736,9.1854685e-07,1.2160785e-06,0.04435015,1.1143958e-06
0.01275264,7.43642e-07,1.7539742e-06,2.3367454e-06,2.0872903e-06
1.0712057e-06,1.7930932e-06,1.9120205e-06,1.8352374e-06,1.0488045e-06
9.769797e-07,2.1775259e-06,1.500609e-06,0.036710158,5.855897e-06
0.00020111095,1.7516098e-06,1.1883333e-06,1.0876317e-06,2.147856e-06
3.5264733e-07,5.870477e-06,6.2396475e-07,2.3865555e-06,5.757969e-07
1.008609e-06,3.435399e-06,5.6875547e-07,1.2163598e-06,1.1108007e-06
9.949875e-07,7.6518074e-07,3.2493435e-07,0.0451499,1.1439605e-05
3.8316733e-07,1.5628748,1.3002024e-06,4.506698e-06,2.1876097e-06
2.8176768e-07,7.605199e-06,1.3374896e-07,0.11004158,1.1612325e-06
3.52543e-07,1.9052643e-06,4.798886e-07,1.2553843e-06,1.4123319e-06
