"[299, 255]","[227, 248]","[287, 319]","[279, 328]","[230, 262]"
0.00041663196,2.9090463e-11,1.529855e-07,1.0217344e-07,2.089562e-07
0.0006041407,3.0940063e-07,2.6452284e-07,4.754222e-07,2.6513566e-08
0.0013958099,1.387586e-06,7.3226363e-07,5.0146635e-08,5.330225e-08
0.0007845548,0.00014379423,1.0014894e-06,1.8330616e-07,6.2386556e-07
0.013116778,0.00019091026,4.1585185e-06,5.3741877e-07,6.1676315e-07
0.4296954,5.507389e-07,3.093103e-07,7.1177226e-08,3.130058e-07
0.6430541,3.121369e-05,1.0425344e-06,8.464898e-08,4.840983e-06
0.0031780375,4.7590157e-07,1.471244e-06,6.0031675e-07,8.993911e-06
0.0037161156,1.923422e-06,1.5241295e-06,1.1877129e-06,0.6395138
0.2049778,0.001699905,3.746636e-06,1.4986639e-05,0.055687834
0.20511933,0.21517153,8.847238e-07,9.962756e-07,0.02790626
0.19841279,0.06674196,0.8971779,3.1706286e-06,0.22288465
0.18142018,7.448588e-07,1.0129359,0.02732717,0.03918722
0.0382015,3.137911e-07,1.5990319e-06,0.28827074,6.5653467e-06
0.021603467,3.8718376e-08,1.1961594e-06,0.0018387333,1.072491e-06
0.0062417053,4.4284235e-08,5.028602e-06,1.1575464e-06,2.6123882e-08
0.008010549,3.9997568e-07,0.000688499,7.05221e-07,3.8551963e-07
0.0143517945,2.239133e-06,2.3700566e-05,2.3182636e-06,2.0208927e-06
0.012963247,1.3966993e-06,4.643319e-06,3.3935328e-07,1.0835106e-05
0.024675615,1.1736599e-06,4.4094062e-07,3.5242758e-07,3.7237733e-06
0.049339484,2.2104196e-06,6.1798744e-07,1.435402e-06,3.1585075e-06
0.07596028,7.8467934e-07,3.9375325e-07,3.6498966e-07,6.574632e-06
0.09579066,2.654157e-06,2.8014401e-06,3.5579492e-07,1.9083316e-06
0.08301299,5.249165e-08,4.9832556e-06,1.6648124e-07,5.707545e-07
0.06522435,1.2090189e-07,2.6616768e-05,6.6539286e-07,5.807508e-07
0.4368747,7.236175e-08,0.00050182064,1.9638641e-07,1.8745811e-06
0.7400663,0.000109042594,0.008180262,5.649131e-07,4.1012095e-06
0.05915249,2.6338282e-07,0.020043418,1.1097516e-06,1.9544846e-06
0.13960895,1.0108208e-06,0.013299416,5.197277e-07,2.0117231e-07
0.15288854,1.7391088e-06,0.020262888,1.2016685e-06,3.7463196e-06
0.22448117,1.648162e-06,0.0045875437,0.07445165,1.23833615e-05
0.087867156,1.718889e-06,0.45631048,1.9866178e-07,0.00084786647
0.05992868,1.5158311e-06,1.7651354,0.075511955,0.038944103
0.05496497,4.664513e-06,0.49922338,0.09149929,0.00026876916
0.022395102,2.2311965e-06,1.3550247,2.1718752e-06,2.7599656e-06
0.025445376,2.8156512e-06,0.68620324,3.1245884e-07,8.479258e-06
0.025235774,2.9816554e-06,0.63402957,1.5345211e-06,1.5189247e-06
0.017188417,0.0015089137,0.5681504,2.6182579e-05,1.1375063e-06
0.010918577,0.0034636124,0.1682156,2.5179502e-06,0.0062083644
0.006878477,0.0046102516,0.5049676,2.2272939e-06,0.008526893
0.15044045,0.020272609,0.0013820516,2.180264,0.03684296
0.059156787,0.008842136,3.0769359e-06,0.52273464,0.022331508
0.080523476,0.00032183793,0.3483353,0.01868548,0.023473633
0.089212395,7.2347234e-06,0.010889419,0.06299684,0.0047546825
0.09219473,2.893757e-06,3.1085124e-06,0.017851133,0.08104386
0.080061376,2.596994e-06,2.0310013e-06,0.064235955,0.024199244
0.06592773,1.5320054e-06,8.6692773e-07,0.0077207894,9.74155e-06
0.025525745,1.6804973e-06,2.8517343e-07,0.00015605977,1.0526991e-05
0.006466084,2.2455533e-06,4.6258854e-05,0.0042311056,1.083129e-05
0.0007483572,0.07545789,0.002989056,0.014756087,3.0362859e-05
0.00088592555,0.01717804,0.009549331,0.17221524,0.03144254
0.0024151597,1.2678939e-06,0.07506796,0.21482368,0.0018066495
0.0050649424,9.560721e-06,0.0829287,0.15017663,0.026501842
0.001961409,0.000115005736,0.022497995,0.024654029,2.9299295e-05
0.031298365,1.2202356e-07,0.014853086,0.01807954,0.00016731939
0.008847967,4.5812465e-07,7.04783e-05,0.00837964,3.9672827e-07
0.02783328,1.0649078e-05,1.2461034e-07,0.0007660906,1.5290914e-06
0.01785611,2.4921925e-05,1.5080062e-06,0.0032846236,2.595862e-06
1.6919112e-06,1.7405816e-06,2.3376572e-06,0.007263452,1.3762332e-05
1.1295853e-06,4.7189283e-07,3.2676562e-06,0.004522588,4.348925e-08
5.7170064e-07,2.2303577e-07,4.22493e-07,1.3795435e-06,7.195393e-08
2.3393504e-06,3.544042e-07,4.785567e-07,1.7192964e-07,2.5637036e-07
4.7380877e-06,3.062632e-07,5.020625e-07,1.4637875e-07,4.496767e-07
6.3209495e-06,0.09475847,1.235386e-06,6.6075853e-07,2.0888513e-06
3.3477897e-06,1.08727345e-05,2.0654225e-07,7.51079e-07,0.28427622
5.4518405e-06,0.63778156,2.5796444e-06,6.400261e-08,0.00014797955
1.5292319e-06,0.005076691,4.0998566e-06,2.4310234e-06,0.18187578
2.0636853e-06,4.334342e-07,2.739871e-08,4.1028994e-08,0.3804706
4.2840265e-06,4.2943608e-07,0.025643425,2.7186394e-07,7.562141e-08
6.5251143e-06,5.4270295e-08,4.908072e-07,1.0027132e-06,1.2526865e-06
0.0040510674,1.882273e-07,4.942916e-07,3.2630615e-07,8.2043165e-08
0.00019390053,5.942564e-06,9.942247e-07,2.8248914e-07,2.598648e-07
0.0014930341,0.37099394,1.4132028e-06,6.8292684e-07,4.450482e-07
0.00949867,2.299263,1.3195976e-06,7.2030394e-07,0.25449023
0.011418284,0.6608602,1.7435717e-06,9.636118e-07,4.804982
0.011273022,1.430848,0.0022422462,1.091367e-06,4.1413174
0.109449744,2.1443057,0.0017850308,4.9853056e-06,4.354925
1.235812,1.0212947,0.063637204,6.894073e-07,2.6215734
1.2279737,0.6422319,0.16711925,0.020353151,2.6852221
1.5053768,0.24413747,0.0061824326,0.86604327,1.4322816
1.8980685,0.06297028,0.17720419,2.7098083,1.4964159
2.0507033,0.00044184955,0.51944745,3.4679666,0.7659587
1.6713299,3.2691125e-06,0.9310375,3.141454,0.047813736
0.24943829,1.7451173e-06,2.0050795,0.8173239,2.2654845e-06
0.02068744,0.036768623,1.0302957,0.43163437,0.11788955
0.0034775797,6.86107e-05,0.13749723,1.2807261e-06,1.7155176e-06
7.867323e-05,1.7074236e-06,0.14449942,5.0399125e-05,6.0737625e-06
1.0200714e-05,1.9241177e-06,0.043853957,4.0583104e-06,2.3977625e-06
3.6537829e-06,6.849273e-06,0.017260015,0.0035998875,4.040291e-06
7.5493044e-06,4.3686723e-06,0.0488024,0.04964204,1.7111972e-06
5.0141483e-07,6.840731e-06,0.013778345,0.00039110883,6.096763e-07
1.2168277e-06,2.351203e-06,2.2463687e-06,6.7565713e-07,3.78574e-06
0.0001240131,3.947205e-06,3.924586e-06,3.810863e-07,1.4334021e-06
0.00056397216,2.2269103e-06,6.7141144e-07,4.9485975e-06,3.3223614e-06
0.03827474,0.14056627,8.8728615e-07,8.201932e-05,1.1589029e-06
8.665874e-06,2.0056054e-06,5.4151387e-06,0.10180785,8.1067157e-07
0.75055885,2.8305642e-06,9.799246e-05,0.1412292,1.5351536e-06
0.00019395076,7.365084e-07,2.682983e-06,0.008000665,1.939095e-06
1.0146307e-06,2.0451058e-07,2.9073973e-07,1.256548e-05,7.360226e-07
6.160722e-08,5.9572884e-08,3.6307296e-07,1.0093154e-06,1.0571985e-07
1.00684465e-05,3.4612367,2.4737687e-07,0.36942983,0.17952132
5.8720802e-06,5.281369e-05,5.0418973,0.00043311465,0.040791765
4.0301875e-06,0.4337342,0.3616866,0.00041428432,5.7057854e-08
0.0010774442,2.9424434,1.4003455e-06,0.0026900696,0.62789416
2.9615735e-06,8.852282e-07,6.795502e-07,2.6010045e-07,5.9233688e-08
3.7718175e-06,1.1177555e-06,2.4605333e-07,1.3251685e-06,3.635484e-07
9.216414e-06,2.0026355e-06,9.8823115e-08,2.8849834e-07,1.0086168e-06
8.590294e-06,9.765166e-07,3.6693611e-06,0.021848628,2.8066071e-07
9.792883e-06,7.063891e-08,0.0031351664,5.4524537e-07,6.2832515e-07
9.8268765e-06,1.9009898e-06,1.7387575e-07,4.2632092e-07,3.268901e-07
7.341206e-05,3.3335823e-07,7.383887e-08,4.1649926e-07,3.7318256e-07
1.4847018e-05,2.7548506e-07,6.527811e-08,1.5931906e-07,4.4547826e-07
4.1579126e-05,4.6063083e-06,6.473765e-09,3.245871e-07,4.4425784e-07
1.2581499e-05,1.4189607e-07,2.548457e-08,6.406718e-07,6.586465e-06
2.793194e-06,4.9457685e-07,2.8804678e-08,4.5042583e-08,3.3557026e-07
6.941122e-06,7.9068514e-07,8.837429e-06,9.7411274e-08,1.5909436e-07
1.8644767e-05,2.343311e-06,0.4808062,0.39320415,6.2227036e-07
0.00018545793,0.009015741,4.6698943e-07,0.03974236,1.8188457e-06
8.852179e-05,1.1743722,1.6867176e-06,3.0040784e-08,0.36987203
0.020474711,6.186391,7.73697e-08,2.263769e-07,2.652401
0.005169527,0.89605826,3.4996367e-07,4.6976697e-07,2.606177
0.43396875,0.05018453,2.8081521e-07,1.8128349e-06,0.121576585
0.013393533,1.8178545e-06,2.469241e-07,1.8478487e-06,0.12916593
0.0053963177,1.5638664e-06,1.06681966e-07,9.494581e-07,1.4302004e-06
0.002582188,3.6335798e-06,0.0037390888,0.038020793,4.3537457e-05
0.14493029,2.7220779e-06,0.37404066,0.06530985,3.3969733e-05
0.57956666,2.609838e-06,0.13141191,0.03071332,2.8570678e-06
0.04005283,8.2202257e-07,0.12040424,0.033251856,6.916909e-07
1.2119545,2.4825163e-06,1.4383874e-06,6.8009786e-07,1.2981492e-06
0.23964731,3.0622556e-07,7.8618804e-08,4.7746096e-07,2.2317727e-06
2.0186358e-06,6.350436e-07,1.8346604e-07,7.726395e-07,8.7051046e-07
3.4728807e-06,7.9625516e-07,6.8517426e-07,6.8573786e-07,9.276545e-07
2.3880168e-06,1.3539013e-06,1.569815e-06,4.8556336e-07,1.8159919e-06
8.650011e-07,0.9725043,1.4383878e-06,1.2051608e-07,2.923131e-06
4.098224e-07,8.9804416e-07,7.0425805e-05,4.4745133e-07,6.651882e-06
4.010969e-06,2.9837447e-06,3.860778e-06,1.1586364e-07,1.2651363e-07
1.5486181e-07,9.84928e-07,3.8048296e-07,3.843245e-07,1.2100335e-06
4.9130363e-06,0.030596776,5.5531007e-07,7.232894e-07,0.09666235
3.9791944e-06,1.3665739e-05,3.6300798e-07,1.4876622e-07,1.2397736e-06
1.5424372e-07,0.11318457,1.002743e-06,2.9602487e-07,0.0717757
0.017317005,0.72373,0.0003084739,0.00073957024,1.2811158
0.35703716,2.3972375,1.220123e-06,0.012373714,5.322718
0.5752762,0.2978029,0.0002798395,0.22060418,2.6316128
1.9363514,8.8275397e-07,0.047584444,0.2996869,6.557499e-07
0.43391502,4.1996626e-07,0.3110535,0.2374728,1.9457083e-07
8.394951e-07,0.04527775,0.033179685,0.49536633,2.5690454e-07
0.4127096,0.09640222,0.031163868,0.21795614,0.12745747
0.9494555,0.0062264786,2.6067935e-06,0.016740186,0.55951643
3.3870609,0.2627075,6.683465e-07,4.489217e-07,0.3469141
2.2477038,0.24714199,0.23228006,2.3545322e-06,0.28414983
0.5136628,0.9656417,0.10757822,5.0218346e-06,0.0017811849
0.13535655,0.1133764,0.30345848,0.07758156,8.257752e-05
9.259273e-06,0.16266695,0.49050975,0.15932588,0.8563566
0.62617147,0.170557,0.004927148,0.73965526,0.76384765
1.2731923,2.153971e-06,0.29892188,0.16876253,2.9626617e-06
1.20071e-06,2.2342176e-06,0.81748664,0.12173093,0.00091601146
3.8936846e-06,2.2115617e-06,0.008817087,0.037979644,0.060910556
1.4627168e-06,2.3408425e-06,0.023815753,0.0027270413,1.8616562e-05
6.3979473e-07,5.851303e-07,1.1632066,0.48770103,1.3470903e-06
3.0615482e-07,1.4412639e-06,0.020194918,0.015892576,8.9589105e-07
2.6141e-06,0.46866488,5.447922e-06,0.24708386,1.0060428e-06
0.004592655,4.678206,0.02342823,0.25062892,0.0002649984
0.0007334089,1.5337796e-06,0.00087334553,0.1745498,0.15183337
5.710688e-06,1.1583623,2.912185e-07,2.922933e-07,2.4718538e-06
5.863563e-06,9.037317,1.6719548e-07,2.4761994e-07,1.398867e-06
3.310889e-06,0.087627165,6.579043e-07,2.511069e-07,1.870752
1.4253262e-06,1.2113394e-06,1.3180568e-06,8.288821e-07,0.7951698
0.1269793,4.7044907e-07,2.7474211e-06,2.8221507e-06,0.7591228
0.25184894,2.0530983e-06,1.0623902e-05,2.6601708e-08,0.27984697
4.1065923e-05,1.0669722e-06,1.0858639e-05,4.2306814e-07,6.647743e-05
2.1235535,1.7490385e-06,3.4772718e-06,4.4967985e-07,8.052435e-05
1.1138422,0.016116526,2.0299409e-05,7.061404e-08,1.5173554e-05
0.06029973,0.35383314,0.00013994718,1.4333651e-07,3.7394737e-05
2.8059836e-05,0.6612664,0.00011933444,1.2221192e-07,0.00032353835
4.566904e-05,0.013239273,5.490269e-06,1.5229324e-07,0.0005167974
1.8938028e-05,0.00034041997,0.00016039601,3.2240096e-06,0.0020921584
3.2880115e-07,1.47961355e-05,1.4029548e-06,9.826392e-07,3.0522868e-05
0.0004690636,5.739601e-07,0.0053452873,4.895243e-07,8.413412e-07
0.32403553,2.6909056e-06,0.001116693,2.028089e-07,4.884488e-07
0.20613797,1.9381832e-06,6.4892965e-06,2.789755e-07,0.8641208
3.824338e-05,0.00037164593,2.3351913e-06,5.979272e-07,3.6249905
0.007835784,2.6684343e-06,6.391987e-07,4.905112e-06,2.6550229
3.9822503e-06,0.37533873,1.2368784e-07,1.656436e-08,2.4436643
3.9299783e-07,5.644784,1.6288573e-07,3.0317108e-07,4.147224
0.54221183,1.6604127,1.6610231e-06,4.3248875e-07,1.855777
1.8082341,1.7012186e-06,2.8704187e-06,2.2363443e-07,0.015689714
2.427201,1.4951714e-06,1.1997381e-05,6.8405916e-07,6.485122e-07
2.9819648,1.8815006e-06,8.950705e-07,4.1375554e-07,6.3680613e-07
1.9122505,1.2977634e-06,3.78893e-08,1.2613762e-06,2.587146e-06
2.0842314,2.1204069e-06,1.7326006e-07,9.324123e-07,2.6193236e-06
0.07493203,1.916542e-06,0.0056956853,2.3175349e-07,5.1546795e-07
3.821445e-05,2.325656e-06,0.0030487052,3.0569947e-07,6.098156e-07
4.0775358e-05,3.1776644e-06,3.0741446e-06,1.6888581e-06,1.3842666e-06
0.012168338,1.9199008e-06,3.367651e-06,5.784964e-07,1.3466748e-06
1.9889827e-05,2.1107137e-06,0.73801005,0.042898145,2.0781954e-06
1.3004931e-05,3.7948168e-06,0.6420918,0.051128507,1.3842507e-06
8.041388e-06,7.6827496e-07,0.0636464,0.000103716346,5.1532766e-07
1.8888967e-06,9.319535e-08,0.0022087845,1.2828372,1.2348221e-06
3.7657555e-05,1.5948956e-06,0.06339416,0.0034830077,5.8463016e-08
6.9477423e-06,1.3710331e-06,6.06062e-07,1.3078282e-07,1.303607e-06
9.406405e-06,3.6905777e-07,3.4830005e-05,1.3109754e-07,1.0969888e-05
3.5211779e-06,3.4792508e-06,0.0038245295,1.125571e-06,3.3590428e-07
9.972954e-06,4.39468e-06,8.3944184e-07,4.6654117e-07,1.2262719e-06
6.1907813e-06,1.9250007,3.7862728e-07,5.086388e-07,0.0013021614
2.584691e-06,0.41891292,3.8234663e-07,5.594081e-07,1.968223
0.00031149408,7.640679e-05,1.0750553e-06,2.3687255e-06,0.1785214
4.4147932e-06,0.00025308476,4.897651e-07,7.437084e-07,0.016696097
0.024537278,1.7187316,4.4252236e-08,8.1814136e-07,3.947111e-06
2.3702999e-06,1.1049123e-06,3.7182718e-07,5.362896e-06,0.015216224
6.4935653e-06,1.2392037e-06,1.8108593e-06,1.9106217e-07,2.9363482e-06
0.027289942,7.7703083e-07,1.8753973e-06,2.949213e-06,3.6463953e-07
1.5504137,1.3566334e-06,1.1621879e-06,2.8701692e-07,7.228575e-06
4.528197,0.08037581,1.4425866e-06,1.1198376e-06,7.3179035e-07
6.329123,0.22892651,5.5850245e-07,4.113814e-07,0.0014074219
1.4681183,0.5627959,3.51538e-06,2.3079353e-06,0.004152944
3.4729068,0.028971659,0.25894758,2.869456e-06,0.15366654
0.0023277753,0.011719225,0.5512684,1.5459741e-06,0.0042915302
0.0030250754,0.000114573806,0.50839776,0.53172654,0.046203453
0.002346796,0.0037200064,1.3504288,0.60343945,6.500262e-07
6.174704e-05,8.538656e-07,0.7375979,0.43624422,0.016084006
8.547897,5.3708194e-05,0.3078738,1.4472904,1.3551512e-06
10.760963,1.3847978e-06,0.31249174,0.73938227,3.4385434e-06
1.7380805,2.5727372e-06,4.1200783e-05,0.10166464,1.2816989e-06
0.030209886,1.0111413e-06,5.3831377e-06,1.2194309e-06,1.2605102e-06
0.01615099,9.815727e-07,8.840412e-06,9.288003e-07,7.4742775e-07
0.01360036,1.0975585e-06,3.8924154e-06,4.31903e-07,6.362901e-07
0.053840157,2.2518864e-06,3.3242002e-06,2.7906096e-06,2.3398886e-06
0.1341287,2.545412e-06,8.140431e-06,6.713161e-07,1.263741e-06
0.0005595083,1.6383949e-07,7.02129e-05,5.3568743e-07,5.757893e-06
2.039161e-06,1.8055805e-06,7.9690454e-07,4.4223046e-07,3.0235112e-06
2.8806036e-05,1.958793e-06,6.099442e-07,6.093906e-07,1.9162026e-06
3.0795932e-06,2.1144028e-06,3.409007e-07,0.005529756,2.7941257e-06
4.0908653e-06,1.925674e-06,4.693109e-06,3.8564895e-07,2.18135e-06
3.7659331e-06,8.050408e-07,5.0790936e-07,6.8222056e-07,6.219179e-07
4.7086683e-06,1.1926314e-06,4.6911214e-07,6.590166e-07,7.963711e-07
6.588038e-05,0.007764896,1.1155008e-06,7.191856e-07,4.014388e-06
0.00016200941,1.3386188,7.05059e-08,1.7425605e-06,2.3904781e-06
0.00038858847,1.3455654,1.0667897e-06,2.3769489e-07,1.1596545e-06
0.012117816,0.01137725,4.6649174e-07,1.9984006e-06,4.857252e-07
0.008676189,1.5524868e-06,2.2863232e-07,3.3293074e-10,1.4527009e-06
0.0066166427,1.082117e-06,1.683476e-06,1.6759424e-07,7.2781353e-07
2.6400376e-05,1.7687665e-06,1.1628117e-07,4.759023e-08,3.6030664e-07
1.761711e-06,3.626688e-06,1.3924117e-07,1.4429061e-09,4.3874613e-07
0.0007896121,3.483876e-06,1.4108939e-08,2.0536643e-08,6.2207175e-07
0.0023267805,3.1365573e-06,1.5283953e-07,4.2332002e-07,3.651047e-05
2.17766e-05,0.2740785,0.0025372365,1.8569638e-06,5.2275295e-06
3.878221e-06,2.7820943e-06,7.8942514e-07,5.3712984e-07,6.646833e-07
2.6358774e-07,1.2127481e-06,6.8195317e-07,3.3347914e-07,6.164733e-07
0.33685353,1.4120374e-06,6.254381e-07,9.0280713e-07,1.1045893e-06
0.029891348,5.1741716e-07,0.13199942,4.305712,1.0199748e-06
4.399711e-07,1.0101338e-06,0.14017662,0.13738337,2.620589e-06
4.2983976e-07,6.3067887e-06,3.3122554,2.151539e-05,3.0132026e-06
2.3589882e-07,7.2211276e-07,1.5252615,9.629712e-07,1.513441e-06
2.0975288e-07,3.897347e-06,2.9064052,1.0321196,2.7083918e-06
3.4557146e-07,1.9657512e-06,0.43901607,1.2549738,1.3734378e-06
2.7093233e-07,1.5121541e-06,0.010158069,0.8735512,1.1530476e-06
2.1008107e-06,4.6114508e-07,8.917763e-08,2.1840067e-06,2.649145e-06
5.8232996e-07,5.6531357e-05,4.8421396e-07,8.4013226e-07,5.1423855e-11
9.430231e-08,0.00018343242,3.9743898e-07,1.5264678e-07,0.11676735
5.8027204e-06,0.25332427,1.127268,6.9722637e-07,0.038763586
1.8398083e-06,0.19616066,1.96668e-06,2.2360044e-07,0.56247264
5.7948622e-05,0.27225956,2.6878895e-06,9.427877e-06,0.79540384
6.3956077e-06,1.5398142,0.03524862,2.1833928e-06,1.7228229
0.00013005822,5.581426,0.032507528,8.6116285e-07,5.258296
0.6480976,4.0918813,0.7000042,0.0684026,5.4506164
1.8018634,1.6974645,2.6244254,0.33294106,3.120968
0.48473436,0.15720113,5.608234,1.1880302,0.4427479
0.3603194,0.008649312,4.5413074,0.4177366,0.27014023
0.5899559,1.2838482e-06,0.7077253,0.13980187,0.92936444
0.637303,1.0529565e-06,0.4561599,0.36392593,0.058367584
0.92349285,1.1745688e-06,1.6606698,0.019570837,8.8422996e-07
4.28475,0.00087119744,0.3050927,7.1237473e-06,8.4804384e-07
0.008857792,7.013793e-07,7.4476003e-07,0.17103311,0.081529714
3.645012,1.8803713e-07,0.35800812,6.1135554,5.29059e-07
0.44106445,9.4963644e-07,0.09767964,3.4103704e-07,5.731954e-07
1.01489995e-07,7.806e-07,8.5024e-07,7.770806e-07,0.025629828
7.1083696e-07,1.0212937e-06,1.369785e-06,4.2968324e-07,0.0009982797
2.87501e-07,1.40947e-07,0.6588841,2.6232728e-05,2.4962656e-06
1.7678781e-07,0.00038582121,0.46572998,6.268775e-05,0.056946997
1.7824213e-07,0.0102704875,0.0069914698,3.88925e-06,0.8001749
1.2415302e-07,0.002341567,6.7590413e-06,0.03287888,5.1286806e-06
9.4528446e-08,0.0609163,0.023705319,0.03171611,7.588332e-07
6.9698706e-07,5.4914235e-06,1.800813,0.022097182,2.4038243e-07
0.0567077,1.163026,6.068143,1.0520117e-06,4.406295e-07
0.0033015532,2.1182897e-05,0.00038936196,0.37292397,4.5096357e-07
2.6055527e-06,0.0025204695,2.5888898,1.17502,0.21205214
4.379292e-06,3.93495e-07,4.8505135,0.067119926,4.2047904e-07
5.5457845e-06,8.2731395e-07,0.4157678,0.733685,2.1950432e-07
5.620971e-06,2.0361456e-06,0.40146264,0.81989163,1.81422
0.9042307,0.6868733,6.924696e-08,0.6992346,4.480637
1.7328069,0.92634565,2.0544262,1.9879742e-07,1.9267302e-06
0.5629479,3.3114815e-05,1.996012,8.170193e-07,0.00011225128
0.38267735,1.342722,1.0160944,0.007410672,8.185748e-07
6.966966e-07,1.6358592e-06,0.01152658,1.2232583,0.0051102177
1.0752982e-06,1.4699498,4.3773172e-05,0.077071466,0.99216074
1.5060448e-06,5.440923,0.3446268,1.3175611,0.7882895
1.8014462e-06,0.037632667,0.7380814,1.7903942,4.2992775e-07
2.6799285e-06,1.1860711e-06,0.8529556,3.9436336,2.2302255e-07
0.1707545,8.7889305e-07,0.3140887,0.9011144,6.733109e-07
0.18409087,1.7947875e-06,0.08663781,1.0293185,8.712201e-07
2.1711112e-06,1.7303435e-06,4.769464e-05,2.736884e-07,7.368302e-07
2.847809e-06,8.972697e-07,0.008762609,0.019352363,1.2301937e-06
2.740756e-06,3.0873668e-06,4.426907e-07,0.08283086,1.584987e-06
1.1416498e-06,5.137535e-07,1.650591e-05,0.13887982,0.016687097
0.0006697676,2.7517192e-06,5.8934752e-08,6.8755435e-07,0.0004152875
1.5000267e-06,2.5004372e-06,0.0050669913,2.439295e-07,3.7040463e-06
1.8444716e-06,3.5825383e-07,0.06697721,0.15060434,2.5591282e-06
6.5537256e-07,7.218221e-07,1.0883916e-07,1.2860609,6.964098e-07
2.8804348e-07,6.496897e-07,0.028809324,1.1604759,7.664471e-07
2.746905e-07,1.4045384e-05,2.267476e-07,0.00097392703,7.0422993e-07
1.13084354e-07,2.630422e-05,7.394289e-08,2.8478883e-07,1.5729414e-06
1.2276107e-07,1.972669e-06,0.09937114,4.2182353e-07,4.9375826e-06
8.972597e-08,2.334064e-07,6.1523446e-07,0.11090087,2.2993784e-07
1.7084278e-07,7.47492e-06,1.3009404e-07,7.774542e-07,5.863982e-07
3.1849814e-07,3.5674327e-07,1.2754736e-06,5.415834e-07,1.6242686e-07
1.414441e-07,1.4067484e-06,2.7405182e-05,0.028121384,1.2298761e-06
1.0437085e-06,3.1288764e-05,0.062302757,0.009169225,4.46535e-07
4.783748e-06,1.0229027e-06,0.00023975172,1.7652603e-06,4.186013e-07
7.637619e-07,9.933226e-07,0.0032776555,2.9807507e-05,1.8642355e-06
3.7638433e-06,2.1750196e-07,0.7275767,3.4217945e-07,1.6992233e-08
1.0266761e-05,1.4321493e-07,0.005399068,2.5982456e-07,1.4255169e-06
1.2404797e-06,3.2353114e-07,1.9624373e-05,2.3780237e-06,6.824812e-07
2.282117e-06,6.6538206e-07,0.0008541853,5.335901e-07,3.0266838e-07
7.312914e-07,2.963697e-07,0.17479292,7.657231e-07,1.5138943e-07
8.135682e-08,1.2429982e-06,3.0510544e-05,1.2243062e-06,1.0227787e-06
1.4907987e-06,5.777325e-06,2.2248965e-07,1.342789e-06,1.0227669e-06
9.930651e-07,1.0060024e-06,1.9023622e-07,6.9689276e-07,1.659951e-06
1.4907648e-06,2.274028e-06,0.019715426,3.3282586e-07,1.8381158e-06
8.91499e-07,1.7856296e-06,8.328093e-07,0.00069034676,6.833218e-07
0.1235693,1.5927341e-06,3.258745e-05,0.28843054,1.638899e-06
4.6413347e-06,1.4076949e-06,0.84445477,0.14849819,1.3159422e-06
2.0083642e-06,3.360221e-06,0.9795134,1.7713883,1.8221444e-06
8.2239217e-07,1.6417001e-06,1.6046193,1.1796108,4.48109e-07
7.703199e-07,1.2024065e-06,1.1507921,1.0119262,5.6551625e-07
1.5545439e-06,0.0745036,0.274281,0.3253181,0.0060978862
3.8707626e-07,0.17872211,0.19269985,0.42022142,0.08505348
0.14066488,0.078425355,0.1355854,0.4676203,1.286795
0.52425796,1.645672e-05,0.58943063,0.2071046,0.094941184
0.003206661,0.0954406,1.1695639,0.427734,0.0156016685
4.106445e-06,9.23006e-05,1.170139,1.6176989,0.0028931568
3.2187138e-06,4.1729063e-06,0.6979832,0.9264253,3.4997936e-06
1.1528963e-06,8.205371e-07,0.05595222,0.16480619,2.940264e-07
1.5030982e-06,3.061747e-06,0.11949533,0.4300983,4.4425706e-06
6.274716e-07,2.21324e-06,9.2168875e-07,0.534423,2.2415584e-06
2.6552007e-07,2.869485e-06,0.004083114,0.4477453,8.2679844e-07
1.3849823e-06,1.8553924e-06,0.03999432,0.012936582,1.9702527e-06
6.1839904e-07,4.7402622e-07,2.3104421e-07,9.442073e-05,1.459508e-06
7.575577e-07,2.4716073e-07,4.166397e-05,0.18865456,7.8574647e-07
2.0709892e-06,2.3812042e-07,0.36763364,0.14487457,1.8905921e-06
2.0606506e-06,1.707192e-06,0.13052836,0.021990227,6.900701e-07
6.2256174e-07,3.3979822e-07,5.99645e-05,0.02125567,2.1716998e-07
1.5107648e-06,7.7418485e-07,1.1908467e-05,0.11668383,6.9876427e-07
6.1436367e-07,1.886549e-06,9.963657e-05,5.783291e-06,2.0167618e-06
1.674169e-07,5.9412414e-06,0.11243282,0.28870192,1.407559e-05
1.1392843e-06,3.3591966e-06,2.8907009e-05,0.0028779483,1.4766985e-06
1.8784376e-06,2.123342e-06,0.13602397,2.472003,2.374666e-06
2.0795817e-07,2.5469426e-06,0.42815942,0.39851022,2.6204605e-06
0.0002984159,2.5013976e-06,0.32370985,4.923342e-07,2.270349e-06
1.8342885e-07,2.2143954e-06,2.4127344e-06,5.0781654e-07,0.0006258042
5.006216e-06,1.0572467,3.1851476e-07,0.0,0.053420898
8.044603e-06,0.018249897,1.8552687e-06,5.901792e-07,6.1147485
0.0046130107,6.511716e-06,2.5230106e-06,2.5955097e-07,12.060801
0.011102166,0.0006132532,4.537726e-06,1.8179723e-08,12.059029
0.7299969,2.1180596,2.2808242e-06,1.2967813e-08,2.1614308
0.0041179517,2.921877,8.0181263e-07,2.5009643e-07,1.9022625e-06
0.0028489963,0.03007099,1.5543884e-06,4.7506614e-07,3.1178696
0.004202718,4.1305343e-06,1.6908101e-06,5.622575e-07,2.2168688e-06
0.0022439105,3.726065e-06,2.2494012e-06,1.3211587e-07,1.188015e-06
0.000946236,0.078104384,2.916302e-07,2.6078598e-07,0.51070535
9.331773e-06,0.03350114,4.118081e-06,4.7627307e-07,0.06867661
1.744663e-06,0.00047063778,6.464471e-06,1.0105963e-06,0.08908558
5.843862e-07,2.5813877e-06,1.4561408e-06,7.212166e-07,2.9709743e-06
8.5077645e-06,1.7306394e-06,1.0721978e-06,6.7245594e-08,0.0005274619
6.4578126e-07,0.0006833288,1.5723349e-06,0.0,9.150515e-06
2.0398468e-07,7.178215e-05,3.5951612e-07,0.0,0.008741143
3.9729036e-07,3.2502073e-06,2.8509967e-07,0.0,9.4967345e-07
4.1747753e-05,2.6939397e-06,3.2752812e-08,4.786968e-07,7.982899e-06
1.4747961e-06,8.7341584e-07,4.204088e-07,1.5962593e-07,0.009516316
2.4742e-07,0.018529445,2.1710142e-07,4.8271625e-07,2.6809153e-06
6.5264826e-06,0.05561742,4.5155748e-08,4.0657773e-07,0.0001948011
9.843207e-06,1.6189892e-06,1.2148165e-07,3.1372366e-07,2.3641534e-05
7.5145344e-06,1.4027322e-06,9.926996e-07,1.117955e-07,3.4884736e-06
2.5397708e-09,0.02422504,2.5072794e-07,1.12376235e-07,0.0017657095
2.3222753e-07,7.653171e-06,1.2208345e-07,5.3608687e-06,1.6266457e-06
9.204236e-08,6.865045e-06,4.173936e-08,2.9134803e-06,5.7726896e-07
7.72005e-08,1.1885083e-08,2.3895366e-06,0.0025565354,4.250111e-06
3.2809503e-06,0.0028590716,1.8438423e-06,0.27388686,1.7276416e-05
1.5929052e-06,0.025497904,0.00039120764,0.008463658,1.1378361e-06
2.0708708e-06,0.004744329,6.247e-06,0.00024241846,8.7228557e-07
6.087687e-06,1.7387712e-06,0.009072231,0.005818226,2.1863896e-06
8.879366e-07,0.00016416324,0.00010282279,0.00766076,6.2813506e-06
4.9900195e-06,4.707037e-06,9.618172e-06,0.2828061,1.1755398e-06
0.00011406077,4.2209913e-06,6.6016755e-06,0.09528984,7.9816124e-07
3.7981833e-06,2.6377554e-06,3.5456478e-06,5.8809424e-06,4.4602925e-06
2.4164788e-06,1.3599476,7.1432364e-06,2.6282152e-05,8.431061e-07
3.7427017e-07,0.3728841,3.680297e-05,1.1698049e-06,3.7280251e-06
1.9690692e-07,1.2978888e-06,3.7734117e-07,2.2126663e-07,0.0010994334
3.7305658e-06,4.3123428e-06,2.752893e-06,1.7624282e-08,2.8679535e-06
4.409099e-06,2.558924e-07,1.6807841e-06,4.006741e-07,5.252471e-07
5.327865e-07,2.958417e-06,2.0209523e-06,1.0580817e-06,1.0776031e-06
1.6002941e-05,3.5607366e-06,6.9739787e-07,9.228087e-08,7.2883645e-06
9.740585e-05,1.3921419e-06,7.981385e-08,2.7515114e-07,1.3687408e-06
7.405931e-05,3.7455618e-07,2.3412554e-06,4.990014e-07,5.939443e-07
0.00011633858,4.275979e-06,3.853729e-07,1.5473583e-07,5.5188048e-06
0.00051840406,3.7567967e-05,1.0952509e-06,1.5326916e-07,7.3509327e-06
1.4854299e-05,1.5509686e-05,3.689678e-07,7.475393e-07,3.2201071e-06
3.5765098e-07,5.94425e-07,3.2170715e-07,1.174595e-06,0.0012712906
7.704916e-06,0.0504821,8.1246253e-07,3.333882e-05,0.070685565
1.1364618e-05,0.8578912,0.014031144,0.24284202,0.53059655
0.000951974,1.5755664,0.042944156,0.12080084,0.90233934
0.63677955,1.740252,0.028238531,0.93892664,1.3172715
0.96355385,1.9089638,0.005817267,0.44338042,0.41448176
2.099484,5.317359,0.29349318,0.25719807,4.1220565
2.848816,0.62550735,1.6955136,1.2399571,1.4187174
3.142527,0.02100278,2.919647,2.0466928,6.2316184e-07
1.4615272,0.3809168,1.2838856,1.7984806,0.9664949
0.76417625,1.9842628e-05,0.031456623,0.0978389,0.16390477
0.797116,1.5347817e-06,1.2024866,0.58333784,0.19915494
0.81807417,8.697121e-07,0.4621144,0.33314294,0.15264672
0.35663226,1.9472807e-06,0.021713385,0.06847072,7.317088e-07
0.17836305,2.1123883e-06,0.3599929,1.028366,6.1297544e-07
5.581697e-07,3.8989e-06,1.2809313e-06,0.72810924,2.3594212e-06
3.1995881e-07,0.00022708852,0.019710304,0.20081797,2.8883937e-06
2.0261677e-07,1.5762813e-06,0.00012550238,5.2237174e-06,2.1705903e-06
7.2150095e-07,1.1500008e-05,5.34653e-07,9.2677936e-07,5.9321814
7.998557e-07,1.8587108e-06,4.570405e-06,1.3953854e-06,3.5848498
3.131294e-07,1.0595446e-06,2.5902276e-07,3.0914316e-06,1.5908984
1.2047566e-06,6.880073e-07,9.702446e-08,1.0512879e-06,3.564305e-06
8.612517e-08,1.3441653e-06,0.0040541156,6.893867e-07,1.248692e-06
2.4358305e-06,1.1452438e-06,1.5666483e-05,0.035054,4.802991e-07
2.541179e-07,1.8362264e-06,5.9083493e-07,0.07762967,3.4578946e-07
4.96768e-07,1.840004e-06,2.5347555e-05,0.00034692677,2.4197593e-06
9.814354e-07,8.34455e-06,3.0388986e-07,2.3760533e-07,1.0600429e-06
6.92501e-07,7.786661e-05,4.8970527e-08,8.08971e-07,4.384103e-05
1.1393638e-06,7.3392825e-05,9.5662124e-08,5.6511766e-07,5.44941e-05
0.019660365,1.3054348e-06,1.364277e-07,5.4354217e-07,4.698971e-05
8.311198e-06,0.24878895,5.4097416e-07,6.6364856e-07,1.3706414e-06
1.2512623e-06,0.16253392,8.482219e-07,2.9210878e-07,2.5818147e-06
0.0044221226,0.40277115,1.6559461e-07,4.44435e-07,0.03801749
0.19000198,1.1351538,5.8003644e-07,3.5400637e-07,0.051535845
0.013424527,0.8777686,2.422928e-06,1.0376697e-06,0.014895015
2.8335651e-05,0.28339115,2.930069e-06,2.8257463e-07,3.2511734e-06
2.9514702e-05,0.059630994,3.682377e-05,3.3851825e-07,1.2506591e-06
3.4655222e-06,1.9740262e-05,1.26834275e-05,0.03524308,4.9999267e-06
1.5396208e-05,6.964914e-06,0.0025831463,6.73395e-06,1.6240849e-06
3.9221086e-06,2.6039882e-06,5.464564e-06,4.7425265e-06,1.1083783e-06
0.000131221,8.655987e-05,0.00014680623,1.7928726e-07,2.318474e-06
0.0023542438,0.0009238059,4.785071e-06,2.4626212e-05,4.4289217e-07
0.020896044,1.324868,8.295625e-06,9.065585e-07,3.6769588e-06
0.029793937,4.8024125,1.2195889e-05,5.887025e-07,1.9150402e-06
0.4523819,2.3747308,3.32369e-05,3.20406e-07,1.0985295
1.7435716,1.3181468,5.3662507e-07,1.0817656e-07,0.91884756
1.724671,1.1929771,1.1387348e-07,5.304278e-07,0.5354894
1.5163969,0.4634404,2.4038875e-06,2.970917e-07,0.85763437
0.32397786,2.1739538,0.0009849382,1.05833216e-07,4.177498
0.008366784,1.1971924,1.9904875,1.1010498,1.0125175
0.25973916,0.14245369,0.59415877,0.9193393,0.8932825
1.5784034,2.4728936e-06,1.1616148,0.09406098,0.019906227
0.30100417,2.3341872e-06,0.38032323,0.11415269,2.0852221e-06
0.07483712,3.5712637e-06,0.024292024,0.06683979,1.2717867e-06
1.4959545,1.3030831e-06,0.23404188,0.05348101,1.1359473e-06
0.0013169034,1.3896134e-06,7.0727157e-07,0.06655603,1.0893832e-06
5.1607367e-07,5.3358787e-07,0.65400624,1.4596382e-06,1.3482704e-06
4.869802e-07,7.6192987e-07,0.00038015813,5.5268384e-07,3.9147614e-07
1.3311643e-07,6.9300893e-07,2.2288265,1.0689664e-06,8.820661e-07
6.137972e-07,2.0707752e-07,0.0024216578,5.074955e-07,6.3839366e-07
2.2436765e-07,7.006081e-07,6.446338e-07,8.276595e-07,1.1740907e-06
6.5814675e-08,4.0744883e-08,6.877064e-08,1.4107227e-06,7.4165433e-07
3.173855e-07,7.437646e-07,1.8878742e-07,6.3593853e-07,2.0322531e-07
3.2038315e-07,1.3715546e-06,2.6844464e-07,1.5004169e-06,5.7334046e-07
1.8852959e-06,5.644754e-11,3.5312374e-07,9.334798e-08,2.4273245e-08
1.7863692e-07,2.620428e-07,1.03924535e-07,4.4487603e-08,3.2761507e-10
1.8062605e-07,0.0,3.881797e-10,3.2500807e-08,6.934966e-08
0.0,0.0,1.4118505e-08,1.1072459e-07,0.0
0.0,0.0,6.3199346e-10,0.016251002,0.0
8.448477e-07,0.0,0.0,2.430044e-07,0.0
2.3226134e-08,1.1188275e-06,3.0327462e-07,2.0601819e-07,2.9779542e-07
1.4223253e-10,7.9572476e-07,0.00014588816,2.9523126e-06,1.1390657e-06
2.2174486e-10,5.142458e-06,1.6802733e-05,3.153194e-07,4.7285967e-06
7.56941e-08,9.509885e-06,1.1196286e-07,1.1826367e-07,0.001982684
1.6115831e-06,5.695346e-07,2.3505422e-06,1.2764495e-07,6.5018717e-06
4.2638523e-05,1.3303683e-06,0.0002076738,4.9451904e-07,2.9002117e-06
0.00021076562,7.5563803e-06,1.6310123e-06,6.7490782e-06,0.00061804964
3.828632e-06,0.3659167,5.358631e-06,1.5395746e-07,2.6196933e-05
0.061811376,0.8718912,8.917708e-06,0.052789897,0.0015701818
0.6222978,0.85263485,9.165914e-07,0.00018137277,0.33183876
0.6853155,3.1420462,9.807017e-07,5.354659e-07,1.0670487
2.4561663,0.54742414,2.3936878e-05,1.763314e-05,0.7775275
2.0890121,0.43256378,1.0737206,5.413148e-07,1.7093633
0.9396551,9.706973e-06,0.45429778,0.0074365432,2.5785685
0.19765693,1.7722375e-06,2.143509,1.3970801,0.16954656
0.074789606,0.010430592,1.2852336,0.72714967,2.7253009e-06
0.14154494,0.022756208,0.7724275,0.30367693,1.148041
0.21376128,0.49918273,0.115747616,0.00059620314,0.00048156647
0.34385893,0.014975644,1.1837937,0.18351305,0.4226382
0.073896036,0.009415747,0.16204599,0.008335174,0.0006106013
0.39786685,0.008751843,0.0147420745,0.70236003,0.12240233
0.12442029,0.21605203,2.0737538e-05,0.00032098364,0.020914681
4.028032e-06,11.137932,2.4543738e-07,2.8041197e-07,1.4231377
2.8649706e-06,0.1914261,1.0239986e-06,1.051065e-07,5.6369357
4.4862427e-06,0.07495494,2.3774032e-07,0.60137975,8.424168
6.9091493e-06,0.20276432,3.0622047e-07,1.9833813,1.2383434
0.935535,1.8857882,2.9395878e-07,1.091759,1.3522727
7.852401e-05,0.35161003,0.019188318,1.1200186e-06,0.0064027826
0.014205753,0.00037961095,6.2897425e-07,8.818012,0.00066001556
0.057308152,0.092974514,0.070450164,1.6929926,0.49860007
0.5339337,2.7587457e-06,0.28323013,0.0019892368,0.47950056
0.30372438,1.2644063e-06,0.016872922,0.00011792528,0.00047062934
1.2008427,4.015628e-06,0.04214101,0.1477685,1.5370774e-06
1.0781593,9.758218e-07,0.06303851,0.45335352,1.8057566e-06
1.8592893,6.955788e-07,0.0064685023,0.2038183,1.3018243e-06
0.38657022,2.6415225e-06,0.0010526202,1.386348,1.6789934e-06
6.7033596e-07,1.3150732e-06,0.036052417,0.23374538,5.4575e-07
2.4664055e-06,1.2741523e-06,0.0018248484,9.146166e-07,8.408523e-07
0.025303634,8.045778e-08,1.0796604e-06,1.3568479e-06,3.9244583e-07
1.8261096e-06,0.0,1.6155249e-06,1.133928e-06,5.3473265e-08
1.920019e-06,5.8687857e-07,9.203949e-07,1.4721807e-06,0.0
1.900485e-06,1.15021344e-07,0.022632929,1.4029058e-06,9.82033e-09
4.5876673e-06,0.0,0.027113022,0.079851404,5.617659e-08
1.3530986e-06,1.3987851e-07,0.4045149,0.025541646,0.0
5.5543126e-07,3.2354117e-06,0.68138844,5.8290996e-05,0.0
3.5437745e-07,2.5453637e-06,0.00019129724,1.5054311e-06,0.0
4.0545365e-07,2.754381e-06,0.00010445379,1.8093563e-06,8.230448e-07
6.784766e-07,3.0563713e-06,2.097003e-07,1.0091613e-06,1.3026971e-06
2.0515909e-06,1.8070132e-08,1.3815428e-07,3.1622417e-07,2.336234e-07
2.573246e-06,2.534103e-06,2.6898914e-07,6.8361066e-07,3.2020048e-07
2.0325528e-07,7.326081e-07,1.1608964e-06,6.849623e-07,2.6857013e-08
1.8738501e-06,8.281458e-07,2.9721753e-06,6.541558e-06,2.9053608e-06
0.042544555,4.7072037e-05,2.03158e-06,2.45709e-06,4.4548515e-06
8.164692e-06,0.0002744596,3.0271033e-07,1.0048122e-06,3.8157476e-05
2.9072707e-08,0.053730275,0.0,0.0,0.096756876
9.966012e-07,0.21917857,0.0,0.0,0.0936977
4.4855365e-06,0.2230861,4.6131223e-07,4.86693e-07,0.11058952
8.7213886e-07,0.14833814,3.9650595e-07,2.0009197e-06,0.1113715
0.018241467,0.15367702,2.7638176e-05,1.2829822e-06,0.05397645
0.14222713,0.6617479,0.01261428,2.9742694e-06,0.335078
0.15566868,0.5049746,0.5197166,0.0039972938,0.48661023
0.41227055,0.048950583,0.31841573,0.028024008,0.1786967
1.4465941,0.015922224,0.11687772,0.60467297,0.020336807
1.0824294,0.01082761,0.18865936,0.03197467,0.013640033
0.03546327,0.0030921644,0.2762962,0.006707503,0.0205171
0.013474429,4.152714e-06,0.31399614,0.020399496,0.013724586
0.0053018527,4.5764086e-06,0.15190567,0.012762866,0.0040716333
0.0017784436,1.1601238e-05,0.12670414,0.06754234,0.04980076
0.0034857593,1.1179072e-05,2.4465558e-05,0.088751085,0.011718476
0.012245377,1.5771871e-05,0.07331037,0.054424226,0.009346095
0.001221757,9.179255e-06,0.09171029,0.012766646,0.0053922557
0.00086780917,0.01359482,0.06247498,0.011199909,0.034947477
0.0006125237,0.034821767,0.10303511,0.024494415,0.039714202
0.0014805034,0.00039357512,0.20859452,0.026087508,0.03842342
0.00071866467,2.776703e-06,0.32736173,0.08328422,0.023485957
0.0055763465,3.0088677e-06,0.18203181,0.16052654,0.017160516
0.010690534,2.2401625e-06,0.10352827,0.19375639,0.006306032
0.013597334,3.1728387e-06,0.086754024,0.059208598,0.014203459
0.0065368847,2.8081772e-06,0.121314295,0.0015833214,0.011554326
0.0026765997,2.2487295e-06,0.103106275,0.00014718073,0.006441129
0.00026598663,2.0365953e-06,0.09134255,0.0002906783,0.00053012907
3.161605e-05,0.0004996183,0.108175024,0.0006408922,0.0004860436
0.004432946,0.013597853,0.10115578,0.0018685244,0.0064577525
0.030956144,0.00013677962,0.10692256,0.0029868027,0.118732564
0.014689577,1.1751181e-07,0.10267595,0.01913746,0.010336701
0.0015034663,1.9244133e-06,0.16062216,0.025828375,1.3619288e-06
2.837833e-05,2.149596e-06,0.07700501,0.040693425,9.2177834e-07
5.936937e-06,3.6548272e-07,0.0017318098,0.11607422,0.21640097
2.1046653e-06,0.03365367,1.1761587e-06,0.071222894,1.2495341
7.1910054e-06,0.04520043,0.106195845,0.16387992,7.103846e-06
1.9517386e-06,0.0013134199,0.0038769757,0.20881644,0.8826297
3.2926422e-07,0.5188381,0.7176192,0.52473664,1.7877598
5.068845e-07,2.4858944,0.7151899,0.41459095,1.4418066
2.0160473e-06,0.7490636,0.41398427,0.8881953,2.7773955
6.0147468e-06,2.1432674,1.4354695,1.4597716,4.414587
2.4169817e-06,3.6391068,1.6739874,0.7327151,2.970888
1.4026719e-05,1.7976049,1.1044112,1.6333939,2.3347485
1.0548415e-05,2.59057,0.88456726,1.3716017,1.2466856
0.3793328,2.0268066,1.4916402,1.1140019,1.459745
0.031092582,0.87150675,1.4115343,0.48629507,1.4770815
0.25696376,1.104617,0.7209819,0.0048004207,1.4087044
1.8394675,1.8248403,0.45130745,1.1611033e-05,0.46192664
3.1340854,0.124088235,0.020800928,1.004706e-05,0.05234845
0.29225272,6.3778143e-06,5.267647e-06,9.354697e-06,2.4824271e-06
0.21218546,6.953341e-06,6.883685e-08,0.06328817,1.6907923e-05
0.00043645815,0.0023401687,1.3479099e-06,0.11053326,5.666885e-07
0.00056273345,0.009975983,0.07080583,0.0017950448,1.5688545e-05
0.00010839717,0.004444772,0.007111856,6.269763e-06,0.003809297
0.00041943204,3.537985e-06,9.278539e-07,2.4965218e-05,0.000120665434
0.0007934449,1.3105662e-06,8.08988e-07,2.128044e-07,2.4390934e-06
0.000119500146,1.0686629e-06,1.5878801e-06,5.6300102e-08,1.4375028e-06
3.9471564e-05,5.7278623e-07,5.115134e-07,2.264126e-07,1.0893871e-06
2.987074e-05,5.0265504e-07,8.4503273e-07,3.715833e-07,4.160625e-07
2.3321331e-06,4.4951898e-07,2.1961857e-07,2.2868117e-06,5.984694e-07
5.065503e-07,2.5086204e-06,1.648404e-06,2.125201e-06,1.0564032e-06
1.5500136e-06,1.1931808e-06,2.2742233e-06,1.3979075e-05,1.0047276e-06
3.6344846e-07,9.440611e-08,0.011924694,0.05882375,5.88381e-07
5.459998e-08,6.926311e-07,2.8916836,1.4939044,2.7784208e-07
6.059201e-07,7.3459154e-07,4.7949677,1.0428582,0.16392688
1.2320713e-06,0.090725474,2.761207,1.6170796,0.7884855
5.7313493e-08,0.44459662,0.67635375,2.6195989,0.023177417
1.3245549e-06,0.22695896,0.40430394,4.7031813e-07,4.327642e-06
3.0286792e-06,0.0002458861,6.3240395e-07,0.45136267,4.6697622e-07
1.49676e-05,0.0003636277,7.381789e-07,4.6226887e-07,2.4593277e-07
0.06166403,0.028032891,4.64857e-07,1.9528417e-07,5.1254267e-07
0.07670382,0.18229993,3.493635e-08,5.8277383e-08,3.4766902e-06
0.020250417,0.020651657,0.0,1.950235e-07,0.007343735
0.24361786,7.9683814e-05,5.674921e-08,3.586901e-07,0.011126098
0.006966437,2.2571021e-05,1.4063827e-05,1.0695933e-06,0.00039652878
0.09895117,6.392881e-06,0.042492,0.010553771,0.0006856563
0.038898423,1.2252677e-06,0.2779505,0.037030466,5.9163885e-05
0.0075958986,1.3489848e-06,0.19558501,0.05271369,2.1277044e-06
5.246938e-06,1.5385813e-06,0.17587255,0.020339202,1.8058787e-06
3.6307956e-06,1.3596341e-06,0.34030554,0.021568162,0.0048771324
7.0478126e-07,2.1677406e-06,0.40324217,0.00013509757,0.0021313555
1.2634814e-06,2.3752789e-06,0.28055355,0.0022429328,0.014411144
8.241066e-07,0.2166208,0.40652817,1.6678325e-06,0.00019080499
1.8067735e-06,0.0471187,0.39563397,0.03300816,0.55900943
1.145022e-06,1.8754228e-05,0.5080971,0.00990869,8.711514e-07
0.012174556,1.0069638e-05,0.6707372,0.07069526,0.010300774
2.0159775e-06,0.00012455464,0.37713096,0.031719632,2.0694022e-06
3.3054414e-06,1.8518327e-05,0.71291417,0.015719198,6.186183e-07
3.8327926e-06,1.4377537e-06,0.36928695,0.0030845786,3.5217868e-06
7.4158993e-07,2.458879e-06,0.13343854,3.072037e-06,2.8650081e-06
2.0373624e-05,6.895305e-07,0.019966116,1.2528384e-06,1.0057179e-07
2.7421294e-07,5.3329304e-06,8.822132e-06,8.970935e-07,3.2885328e-07
1.3772465e-06,1.8526506e-06,4.7934617e-07,8.4587896e-08,1.9951387e-06
1.2536911e-07,3.9308603e-07,2.5306374e-06,3.4269667e-06,5.258846e-06
3.376583e-06,4.1883786e-06,4.1901044e-06,5.1459547e-06,1.94268e-06
2.9353037e-06,2.4492326e-06,9.299093e-06,2.355592e-07,1.4083254e-06
6.0204975e-06,0.0018950654,0.00012802599,0.05937201,2.8410188e-06
0.00013946032,0.0027809048,2.9769071e-06,0.8615192,1.573355e-06
1.5851774e-05,2.3938217e-06,2.0583982e-06,0.87377566,0.08816651
7.6364095e-06,0.011354226,1.786827e-07,3.9410825,0.18626456
9.004694e-06,2.3636774e-06,0.5415702,0.9466178,0.0002877516
0.0031234608,0.8283855,0.003224735,5.0888833e-05,0.20387974
0.00625912,2.3140516,0.024403332,0.13850906,2.5365384
1.3112308,0.08886983,0.13908297,0.22309937,0.41559434
7.588344,0.4054236,0.13640882,8.45449e-06,1.28508
3.8211093,0.062777966,0.5088762,0.061391547,0.112743005
3.4685183,2.7832687,1.137163,0.034216158,0.26510653
2.0015352,0.0057378407,0.4874706,0.050879136,0.02719832
1.1481768,5.117297e-06,0.5412504,0.75357556,3.3851882e-06
1.1440724,3.420569e-06,0.0022518607,0.0017526827,0.0013554076
0.720458,5.031956e-06,0.8370115,1.9201977e-06,0.39827275
0.0005292573,7.2003826e-07,7.914497e-06,2.7048063e-06,2.2412195
0.00016678029,0.420092,0.0002863882,2.5647016e-06,0.00014939113
8.41829e-05,0.009706864,5.4496963e-05,1.959344e-06,0.74257267
3.0188896e-06,1.8346145e-05,6.2549943e-06,0.0023997254,4.150784e-06
1.3088955,0.24697487,1.0420802e-06,1.6209998e-07,8.422543e-08
0.0057496657,1.1025071e-06,1.12675885e-07,1.4819494e-07,1.398735e-06
0.002536229,3.95949e-08,3.8792405e-07,1.05137424e-07,1.4721631e-06
0.020239012,7.6488556e-07,3.2337306e-07,6.728508e-05,1.5413348e-06
0.0003420321,7.798908e-07,7.6841263e-07,6.9542715e-05,2.102522e-06
5.114575e-06,6.482935e-07,2.9816218e-07,2.831109e-08,9.320721e-07
0.014070498,1.758488e-06,5.6687917e-08,5.0806374e-08,4.805382e-07
0.12774093,5.028957e-08,2.2585581e-07,4.33284e-05,5.3556494e-07
3.2190935e-06,3.5307413e-10,1.0793777e-07,7.631995e-06,5.8809235e-07
1.6324584e-05,6.915028e-07,2.5539762e-06,9.488021e-05,3.960142e-07
0.00033352803,1.4439676e-07,1.2280422e-06,9.950846e-07,9.071132e-08
0.00799135,1.4767663e-06,7.501191e-07,2.9171622e-06,3.4351115e-07
0.60654974,1.0600418e-06,1.7471191e-06,1.9735931e-07,6.584977e-07
0.016013214,1.3290394e-06,1.1957634e-06,1.884454e-07,4.1199442e-07
0.018966207,4.670919e-06,0.0005504834,6.310649e-07,9.3401974e-07
4.959171e-06,1.9970742e-06,0.006537978,1.0364598e-06,8.372197e-07
3.987371,9.715062e-07,0.0019040876,2.1614724e-05,8.1259606e-07
3.0566278,2.1623907e-06,1.3121629e-06,6.4947756e-07,9.14853e-07
0.21542916,2.3165812e-06,1.9304146e-06,1.7999517e-05,1.8899012e-06
0.2544273,4.417702e-06,1.436166e-06,0.0003653463,1.42257295e-05
0.98044336,2.4803235e-06,8.506174e-05,0.49256736,2.2824509e-06
0.31029165,0.17817883,0.05507408,1.4116198e-07,3.1496736e-06
0.10739481,0.024857918,1.3141954e-07,9.467661e-08,1.3978075e-06
0.96606654,3.501024e-06,1.1951917e-06,0.0,2.9427156e-06
0.005441724,0.00015234659,1.6858463e-06,1.6418126e-08,1.8033569e-06
0.007956362,1.4988806e-06,4.0132218e-08,5.672355e-08,2.1197616e-06
0.0052268114,2.389596e-06,1.1081623e-08,0.0,4.1776386e-07
0.00040895052,3.7839088e-06,6.583994e-08,1.30285365e-08,1.3359851e-06
1.900998e-05,0.0500354,7.2484187e-07,3.9995633e-08,6.138425e-07
0.0002550627,1.9605566e-06,2.6140826e-06,1.3927546e-08,0.27604
0.0023046273,4.270631e-06,3.1193963e-06,6.0506125e-08,1.2103986e-06
0.00020446579,2.7466733e-06,3.7124326e-07,8.966407e-08,0.021444017
0.0010627407,6.855853e-07,2.899498e-07,4.9765614e-08,0.46002838
0.013084371,2.1036901e-06,3.375573e-06,1.1296255e-07,0.82698756
0.005611216,2.8299507e-06,9.2016586e-07,3.668099e-08,3.0455749e-06
0.0,1.0630117e-06,1.2430903e-06,0.00016019809,6.33309e-07
0.0,8.187387e-07,4.761888e-06,1.5585741e-05,2.6076455e-06
0.0,3.2576386e-06,3.915113e-06,7.086588e-06,5.8441526e-07
2.1610438e-06,7.179444e-07,3.4155967e-06,2.1162212e-05,4.154066e-07
5.230373e-06,3.9544153e-07,5.2667235e-07,3.1714658e-06,4.2652296e-06
3.5710875e-06,2.4309943e-06,1.4108576e-08,2.1571427e-07,0.01625385
5.6985294e-07,0.25880113,4.8548935e-07,1.7532305e-06,3.453367e-07
4.0834524e-07,2.6494304e-06,5.4135415e-07,1.349911e-06,1.088599e-06
0.00042545286,4.6004598e-06,4.1102305e-07,1.1052535e-06,2.6216276e-06
0.00081603095,4.704748e-06,2.4962662e-06,7.3821127e-07,2.555519e-06
2.899091e-06,3.944717e-06,2.534515e-06,7.841879e-07,1.1756175e-06
1.6449272e-06,4.7208127e-06,2.4790866e-06,1.7931876e-06,2.9106325e-06
6.6851303e-06,0.0014531086,0.037351944,0.09634361,0.06755218
1.5423977e-05,0.14404154,0.059062243,0.037914023,0.041959744
0.28534484,1.6751102e-06,0.35642487,0.1567609,4.5009386e-07
0.005294774,1.9480874e-06,0.52431583,0.11865427,1.4972806e-06
0.03823567,1.8365585e-06,0.0026258316,8.6338736e-07,1.338443e-06
0.0063754315,7.570816e-06,0.009576571,2.6878836e-06,8.795828e-07
1.5588765e-05,0.04786058,0.005781737,0.25920165,0.83466065
0.00041049515,0.521785,0.20924464,0.96172607,0.2727809
0.0003196447,5.109366e-07,0.34361416,0.40072405,0.003921065
0.101262026,0.0012937133,9.376957e-06,4.7515655e-07,1.5364407e-06
0.4107722,1.1472015e-06,7.929957e-06,4.997996e-07,1.0644285e-06
0.34141082,4.59002e-07,8.527165e-06,2.0267935e-06,5.406261e-07
3.0451642e-07,1.3673754e-06,6.2945965e-08,2.3452544e-06,2.8489225e-07
0.25465792,1.1963117e-06,9.14767e-08,6.391977e-07,1.2300026e-07
9.971085e-07,1.5118002e-06,2.0468807e-08,2.677587e-07,8.219429e-07
3.5758433e-06,1.1694068e-06,1.1165656e-06,2.5119073e-07,5.350129e-07
1.985084e-06,4.0049445e-06,4.2053506e-07,2.1898049e-07,7.991199e-07
2.0724547e-06,6.10809e-06,1.9569763e-06,0.13194184,2.1170745e-06
1.3649056e-06,2.2892498e-06,0.010033626,0.18983467,3.1170382e-06
0.0010838803,2.9095731e-06,1.0384035e-06,0.0044801384,2.8824998e-06
0.40770373,3.6283748e-06,0.00013392778,2.5320594e-06,2.1402302e-06
0.38017997,1.693318e-06,0.036686614,1.2165717e-06,2.6138603e-06
1.19349515e-05,2.7350861e-06,9.712455e-07,2.8341288e-05,3.872484e-06
0.00011512061,1.7829168e-06,2.7135198e-07,1.1565519e-06,3.7443444e-06
4.137269e-06,4.4848953e-06,3.9201151e-07,9.953362e-07,2.2125685e-06
1.5823878e-06,3.7142354e-06,3.1264275e-07,1.6317398e-06,1.458464e-06
0.0008583104,2.4641058e-06,2.884925e-07,1.0596312e-06,2.4787455e-06
0.20146751,1.8396726e-06,2.2514744,1.3226846e-06,1.1404201e-06
