"[299, 255]","[227, 248]","[287, 319]","[279, 328]","[230, 262]"
0.0,0.0,0.0,0.0,0.0
0.0,0.0,0.0,0.0,0.0
0.0,0.0,0.0,0.0,0.0
0.0,0.0,0.0,0.0,0.0
0.0,0.0,0.0,0.0,0.0
0.0,0.0,0.0,0.0,0.0
0.0,0.0,0.0,0.0,0.0
0.0,0.0,0.0,0.0,0.0
0.0,0.0,0.0,0.0,0.0
0.0,0.0,0.0,0.0,0.0
0.0,0.0,0.0,0.0,0.0
0.0,0.0,0.0,0.0,0.0
0.0,0.0,0.0,0.0,0.0
0.0,0.0,0.0,0.0,0.0
2.2425711e-07,0.0,0.0,8.531751e-09,0.0
7.100822e-08,0.0,0.0,1.02505055e-07,0.0
2.9531304e-07,0.0,0.0,1.2194962e-06,0.0
0.0,0.0,1.1080351e-06,2.383323e-07,0.0
0.0,0.0,0.0,0.0,0.0
0.0,0.0,0.0,0.0,0.0
0.0,0.0,0.0,0.0,0.0
0.0,0.0,0.0,0.0,0.0
0.0,0.0,0.0,0.0,0.0
0.0,0.0,0.0,0.0,0.0
0.0,0.0,0.0,0.0,0.0
0.0,0.0,0.0,0.0,0.0
0.0,0.0,0.0,0.0,0.0
0.0,0.0,0.0,0.0,0.0
0.0,0.0,0.0,0.0,0.0
0.0,0.0,0.0,0.0,0.0
0.0,0.0,0.0,0.0,0.0
0.0,0.0,0.0,0.0,0.0
0.0,0.0,0.0,0.0,0.0
0.0,0.0,0.0,0.0,0.0
0.0,0.0,0.0,0.0,0.0
0.0,0.0,0.0,0.0,0.0
0.0,0.0,0.0,0.0,0.0
0.0,0.0,0.0,0.0,0.0
1.1849565e-07,0.0,0.0,0.0,0.0
0.0,0.0,0.0,0.0,0.0
0.0,0.0,0.0,0.0,0.0
0.0,0.0,0.0,0.0,0.0
6.414639e-08,0.0,0.0,0.0,0.0
0.0,0.0,0.0,0.0,0.0
0.0,0.0,0.0,0.0,0.0
0.0,0.0,0.0,0.0,0.0
0.0,0.0,0.0,0.0,0.0
0.0,0.0,0.0,0.0,0.0
0.0,0.0,0.0,0.0,0.0
0.0,0.0,0.0,0.0,0.0
0.0,0.0,0.0,0.0,0.0
0.0,0.0,0.0,0.0,0.0
0.0,0.0,0.0,0.0,0.0
0.0,2.4289868e-09,0.0,0.0,0.0
0.0,2.4683846e-09,0.0,0.0,0.0
0.0,1.6284271e-09,0.0,0.0,0.0
0.0,0.0,0.0,0.0,0.0
0.0,0.0,0.0,0.0,0.0
0.0,0.0,0.0,0.0,0.0
0.0,0.0,0.0,0.0,0.0
0.0,0.0,0.0,0.0,0.0
0.0,0.0,0.0,0.0,0.0
0.0,0.0,0.0,0.0,0.0
0.0,0.0,0.0,0.0,0.0
0.0,0.0,0.0,0.0,0.0
0.0,0.0,0.0,0.0,0.0
0.0,0.0,0.0,0.0,0.0
0.0,0.0,0.0,0.0,0.0
0.0,0.0,0.0,0.0,0.0
0.0,0.0,0.0,0.0,0.0
0.0,0.0,0.0,0.0,0.0
0.0,0.0,0.0,0.0,0.0
0.0,0.0,0.0,0.0,0.0
0.0,0.0,0.0,0.0,0.0
0.0,1.9024721e-05,0.0,0.0,4.595003e-06
0.0,4.348741e-05,0.0,0.0,3.524931e-05
0.0,8.89738e-06,0.0,0.0,2.0711952e-05
0.0,0.0,0.0,0.0,2.6549435e-05
0.0,0.0,0.0,0.0,6.371203e-10
0.0,0.0,0.0,0.0,0.0
0.0,0.0,0.0,0.0,0.0
0.0,0.0,0.0,0.0,0.0
0.0,1.2039214e-06,0.0,0.0,0.0
0.0,1.0530337e-05,0.0,0.0,0.0
0.0,2.9524927e-06,0.0,0.0,3.2782594e-07
2.1242175e-07,4.4372865e-07,0.0,4.4888944e-07,1.3980546e-05
1.5090195e-06,2.0485764e-07,1.0554717e-05,4.296522e-07,1.860307e-05
5.62364e-06,8.517356e-06,1.9469453e-06,7.811104e-07,4.3807933e-07
3.301145e-07,6.0832776e-06,2.7698903e-05,2.0418838e-06,1.1795927e-06
3.2646996e-09,1.3639107e-06,2.2045328e-06,1.1620377e-06,1.85819e-06
3.0925083e-08,3.5667796e-07,2.3898727e-07,0.0,4.6106243e-06
0.0,3.6923833e-05,0.0,0.0,1.4068246e-06
4.563037e-10,6.9000685e-06,0.0,0.0,1.1749323e-05
0.0,2.738854e-05,0.0,0.0,1.5618503e-05
0.0,1.1857686e-06,0.0,0.0,1.3006928e-07
2.4623134e-08,4.2767138e-06,0.0,0.0,5.647808e-08
0.0,5.7886723e-07,0.0,0.0,2.529468e-06
1.2590014e-06,2.284267e-06,0.0,0.0,3.0274782e-06
3.0931128e-06,9.053317e-08,0.0,3.9865484e-09,2.7087357e-10
4.9014184e-06,5.934056e-07,3.3889752e-10,2.2376705e-09,0.0
1.3766479e-05,2.469515e-06,8.8747e-11,5.0810826e-08,0.0
1.9945546e-07,0.0,0.0,2.2707344e-08,0.0
0.0,0.0,0.0,8.940693e-08,0.0
0.0,0.0,0.0,0.0,0.0
0.0,0.0,0.0,0.0,0.0
0.0,0.0,0.0,0.0,0.0
0.0,0.0,0.0,1.1404528e-08,0.0
0.0,0.0,0.0,3.926265e-09,0.0
0.0,0.0,0.0,4.3440602e-11,0.0
0.0,0.0,1.449069e-07,1.2396272e-07,0.0
1.5478819e-06,0.0,4.3566065e-06,2.0454727e-06,0.0
4.5034471e-07,0.0,3.30797e-07,7.419582e-08,0.0
3.8680028e-06,0.0,1.1379419e-05,2.1534367e-08,0.0
1.2558866e-06,0.0,6.3721785e-07,4.536308e-08,0.0
1.0124868e-06,1.6364436e-09,6.119565e-07,1.8660411e-06,0.0
7.4698484e-08,4.54136e-09,8.2495575e-09,9.762646e-07,8.293369e-08
3.7715319e-07,3.0665106e-09,2.261851e-07,4.9237115e-06,3.239397e-08
6.2264753e-09,7.213175e-08,5.7357856e-06,7.683026e-05,1.0664276e-07
2.704654e-07,1.6180681e-07,6.630785e-06,0.00014065686,1.7350307e-07
2.527916e-07,1.1622357e-06,6.3747945e-07,0.0002446414,9.515931e-07
4.180838e-08,1.4789388e-06,6.2769764e-06,8.5388856e-05,1.7229074e-06
3.8935946e-07,1.0155006e-06,6.5189444e-05,0.00015906016,1.2336801e-05
3.1654452e-06,7.4772306e-06,3.344553e-05,2.7630716e-05,3.2975215e-06
4.1447747e-06,4.596749e-06,3.7787708e-05,0.00013016374,8.222919e-06
3.3087479e-06,7.860864e-06,6.3051215e-05,7.6819524e-05,1.9486256e-06
9.78271e-07,2.9426727e-07,6.62017e-05,8.3772095e-05,8.394176e-06
5.171764e-07,5.198824e-07,7.06027e-05,1.20331e-05,5.777795e-08
9.271965e-06,5.506285e-06,1.3894558e-05,2.8583156e-05,3.717892e-07
1.755798e-05,3.0720423e-06,2.349237e-06,3.810202e-06,5.422385e-07
1.9380224e-08,2.3463547e-06,1.3044174e-06,2.4642197e-06,2.9184258e-07
4.60039e-06,9.2813134e-05,8.191666e-08,1.9188162e-06,4.7723002e-05
1.2003926e-06,8.739642e-06,3.1334591e-06,4.1363633e-06,4.7011894e-05
6.191172e-06,0.00015491965,2.6163439e-06,5.5693594e-08,2.9773237e-06
6.9201604e-07,2.2756776e-05,3.4383248e-07,1.3461165e-06,4.9589235e-05
3.957329e-07,9.493388e-06,1.0808395e-07,4.766509e-07,1.584678e-05
1.0416742e-05,1.45196755e-05,7.30684e-07,1.3174836e-05,1.9367006e-05
0.08193292,0.00013735781,6.870793e-07,9.804194e-07,1.8155095e-05
4.0630737e-05,8.336756e-05,3.2030575e-06,7.961168,0.00026406458
8.798417e-06,0.00022629852,9.5057453e-07,9.534744,0.0002906428
2.344674e-06,1.9168752e-05,1.2795238e-06,9.32952e-05,0.0001977868
6.654756e-06,0.0006132262,1.3016047e-06,3.4440502e-06,0.0018555924
6.1423474e-05,2.7450093e-05,2.8773188e-06,5.773235e-05,7.206397e-05
0.00011754165,1.4870142e-06,1.8282806e-07,0.00024359096,3.6478395e-05
8.5280124e-07,1.6158986e-06,6.735103e-07,1.5986025e-07,2.379141e-05
1.1402838e-06,1.6331136e-05,3.566258e-08,5.3767202e-08,1.8671684e-05
7.1636578e-06,5.4129872e-05,8.6815735e-06,1.2428898e-06,1.7003613e-05
4.170139e-06,2.5279931e-05,2.4740888e-07,4.30144e-06,2.7559356e-06
1.8844468e-06,9.752571e-07,3.6117984e-07,2.6657142e-06,7.1042155e-06
2.4059884e-07,5.8508766e-07,2.8487168e-05,3.836304e-08,2.1362703e-06
2.209932e-05,4.8679976e-07,0.00012481691,2.8144272e-05,4.689399e-06
1.2569998e-06,3.795532e-05,0.0006543838,1.2399087e-06,1.1338702e-06
3.5257963e-07,0.00037078912,0.00014621878,2.0319309e-05,6.532145e-08
1.690446e-07,0.0001454849,1.346123e-05,8.478292e-08,0.0004956124
1.9923623e-06,0.0002197048,9.767948e-07,1.3833275e-07,0.00022187788
2.5156677e-07,8.114926e-05,3.5784746e-05,5.5218193e-06,0.00010653845
5.837175e-08,8.28582e-06,1.0246044e-05,8.745831e-07,7.850623e-05
2.2139143e-07,0.0059836996,2.3432024e-07,7.326746e-08,2.1550213e-05
3.54788e-07,2.119419,2.8960734e-08,8.668446e-06,1.42543495e-05
6.861556e-06,7.180281e-05,0.006207829,1.8003919,5.0615472e-05
2.5750866,2.8256532e-05,2.407703,0.0706725,1.3665636e-05
0.08265538,2.5038784e-05,0.075744875,3.6144702e-05,7.833414e-06
4.572031e-05,0.0001372479,10.631751,0.010603616,0.00010304734
9.538921e-06,6.195241e-05,3.6371763e-05,6.0439393e-06,0.00020636184
5.348426e-06,5.7809302e-08,3.1257166e-06,3.7981033e-07,1.2887955e-06
0.0007144641,3.7287218e-06,5.2832306e-08,9.178253e-08,2.114516e-06
0.020073919,2.9876217e-05,1.6704112e-06,6.8831787e-07,8.670899e-06
3.0842453e-05,8.3767345e-06,5.2079446e-07,3.1116774e-06,1.1873197e-05
1.3481463e-05,2.1293874e-06,1.9008624e-07,2.6006956e-07,8.694743e-06
6.4964934e-06,3.4774104e-07,1.4787085e-07,3.4138085e-07,0.00017628467
2.9440191e-06,4.6837894e-07,1.1150457e-07,1.5778515e-07,0.23311487
1.980213e-06,1.3164077e-07,2.6360285e-06,1.93436e-06,0.10027119
8.008642e-07,4.0161328e-07,4.8044476e-05,1.1839568e-07,1.134111e-06
5.1631837e-06,0.05376618,4.013796e-05,0.40971494,14.36237
5.538968e-06,3.3146834,1.14710964e-07,1.5245153,10.446221
9.173226e-06,3.4759316,4.0700584e-06,1.2626736,3.8485658
2.2079988,0.89715093,1.487596e-05,0.0001363161,0.34385714
2.175188,3.4347781e-06,2.3649545e-06,2.1206019e-05,5.100948e-06
2.5580136e-06,1.8309396e-06,4.9602284e-07,1.3545865e-05,5.6004596e-06
1.3788564e-06,3.8986616e-07,1.5430945e-06,2.7542148e-07,1.8577412e-06
8.09411e-07,1.6289072e-06,1.3906697e-05,1.8398616e-06,6.0203973e-07
9.510736e-07,3.6271223e-07,3.9942547e-06,0.06706387,1.4356841e-07
4.010832e-06,1.0672755e-06,9.2290526e-07,0.00015466321,2.0507032e-06
1.4593688e-06,1.3342228e-07,7.6417075e-07,2.219488e-06,3.0023289e-06
0.009910361,1.0333444e-05,8.125721e-07,3.823594e-06,3.875246e-06
3.5455757e-06,5.5615214e-06,2.2401528e-06,4.2930496e-06,4.512456e-06
4.3805976e-06,3.017635e-07,1.5544474e-06,0.104966305,8.276379e-06
2.5187185e-07,2.5747595e-06,1.1354708e-06,1.1463866e-06,2.2755576e-06
2.4849007e-07,1.1494549e-05,9.94175e-07,1.0552195e-06,1.9284225e-06
5.647012e-07,5.629262e-06,1.9710403e-06,2.9773295e-07,3.7284033e-07
2.7317623e-07,2.3253954e-06,4.0833802e-07,9.743646e-07,1.4957472e-05
3.519079e-06,1.075035e-06,2.7458947e-07,1.7602441e-06,6.3064124e-07
0.005733542,2.1357114e-07,2.3765906e-06,9.3152016e-07,3.165606e-07
0.013709315,1.6163049e-06,1.31181e-06,2.0168768e-06,6.2674286e-07
0.00083742215,3.4141163e-07,3.401643e-07,0.008105515,9.825993e-07
3.24613e-06,0.015141409,5.250441e-07,8.946867e-07,1.1924595e-06
9.274186e-07,1.174815e-06,7.9763265e-07,3.3409782e-07,0.20012307
1.5651868e-06,0.00061185134,2.1905187e-06,2.7941016e-07,0.0011866895
1.3265346e-06,1.915207e-06,6.421681e-07,8.34984e-07,3.3980011e-06
9.97374e-07,1.2596e-06,2.7677306e-06,0.00026755952,1.2511679e-06
9.0375664e-07,1.8792433e-06,1.6947583e-06,0.14309594,6.001418e-07
1.5210045e-06,5.8668948e-06,4.151286e-06,2.8560546e-06,1.1356839e-06
2.3489004e-06,3.1193335e-06,1.6593991e-06,2.9585776e-06,1.5933207e-06
1.7422919e-06,0.08566214,5.2376536e-06,2.477828e-06,1.5597018e-06
3.199079e-06,0.51767266,2.259295e-06,2.0849868e-06,0.24118237
3.3655922e-06,1.4123023e-06,2.9491694e-06,3.9879615e-06,1.8639556e-06
4.070726e-06,9.267857e-07,5.4514976e-06,3.009233e-06,1.2570399e-06
1.3724657e-06,1.6017663e-06,1.6368441e-06,2.3637226e-06,1.3999762e-06
2.0077346e-06,2.8754298e-06,1.5973363e-05,2.8439254e-06,2.220502e-06
8.8241046e-07,9.977696e-07,5.2690405e-07,2.0049733e-06,3.3009056e-07
2.7943074e-06,8.484381e-07,4.0764953e-06,1.1472956e-05,2.1266633e-06
1.6725386e-06,1.0336703e-06,1.3562113e-06,4.916938e-06,2.624935e-06
7.348211e-07,2.811367e-06,2.8695679e-06,1.6681321e-06,5.4391953e-06
1.8904792e-06,3.899073e-06,2.3208067e-06,1.8882736e-06,8.4240935e-07
2.9163846e-06,1.209726e-07,1.0279506e-05,1.2391087e-06,2.4324086e-06
2.9445102e-06,4.164369e-06,1.5189646e-07,1.3117365e-08,1.2743276e-06
9.260012e-07,3.2377811e-06,0.0,0.0,1.4576294e-07
1.7548165e-06,4.085019e-06,0.0,0.0,9.614372e-07
7.8424933e-10,1.5588348e-06,0.0,0.0,1.0677797e-06
3.9444767e-10,5.292877e-06,0.0,0.0,3.7350253e-07
0.0,3.6669187e-06,0.0,0.0,2.1986632e-06
2.0982566e-07,3.4013888e-06,4.0616658e-07,2.8863061e-08,8.810969e-07
1.4350552e-06,8.509611e-07,5.7855124e-07,4.049352e-07,7.882591e-08
7.3669054e-07,1.4720201e-06,1.2655278e-06,5.264277e-07,2.0901712e-06
1.1185642e-06,5.7274433e-06,2.9552145e-06,1.6272253e-06,5.061367e-07
2.8134727e-06,4.6276255e-06,2.9605567e-06,1.985081e-06,5.4169027e-07
5.5599953e-06,9.4367147e-07,2.047563e-06,1.7176454e-06,4.15389e-06
7.4759214e-06,2.8059126e-06,7.154848e-07,2.946742e-06,1.5153684e-07
5.934722e-06,1.2447074e-06,1.8447198e-06,1.2757968e-06,1.4277972e-06
1.0322075e-05,3.0638355e-06,1.8850451e-06,5.5356907e-07,1.0170821e-06
8.309873e-06,9.08066e-07,8.329197e-07,3.834781e-07,2.0831108e-08
2.322255e-05,0.0,2.6724933e-06,1.3540214e-06,2.635562e-09
1.856781e-05,0.0,4.0364716e-06,2.1735718e-06,0.0
4.2670426e-06,0.0,3.0928582e-06,4.983442e-06,0.0
4.7807566e-06,0.0,2.5786155e-06,1.8736548e-06,0.0
2.3485167e-05,5.6022115e-10,7.191909e-07,2.0983084e-06,0.0
1.6042908e-05,4.315512e-07,7.2064853e-07,1.6404688e-06,0.0
4.454283e-07,2.2949172e-05,9.238003e-07,1.9744855e-06,4.890177e-08
3.5426663e-07,3.3518627e-05,8.0586335e-07,7.3394733e-07,6.099877e-11
1.7986785e-06,1.4539536e-07,1.3119326e-06,2.1723963e-06,0.0
7.242824e-10,6.586599e-10,5.479469e-07,5.960123e-08,0.0
6.5141774e-07,0.0,1.096929e-06,2.4770623e-07,0.0
2.0858413e-06,5.635035e-10,2.7566708e-07,8.3648706e-07,0.0
7.100434e-06,0.0,3.0304076e-07,3.713042e-07,0.0
6.8097806e-06,0.0,1.9047611e-07,7.6209096e-07,0.0
6.623348e-09,0.0,1.0876673e-08,1.1574766e-07,0.0
0.0,0.0,4.930019e-08,2.9734672e-08,5.7517205e-08
0.0,0.0,0.0,3.5789077e-07,1.3426653e-07
0.0,0.0,0.0,3.0885574e-06,7.052594e-11
0.0,3.3548996e-08,0.0,1.0207668e-07,4.765245e-09
3.0328696e-08,0.0,0.0,0.0,0.0
4.832451e-07,0.0,0.0,0.0,0.0
1.9813469e-07,0.0,0.0,0.0,5.0753257e-10
5.6206017e-07,0.0,0.0,0.0,0.0
4.828983e-06,0.0,0.0,0.0,0.0
5.176126e-06,0.0,0.0,0.0,0.0
4.971302e-06,0.0,0.0,0.0,0.0
0.0,0.0,0.0,0.0,0.0
0.0,0.0,0.0,0.0,0.0
0.0,0.0,0.0,0.0,0.0
0.0,0.0,0.0,0.0,0.0
0.0,0.0,0.0,0.0,0.0
0.0,0.0,0.0,0.0,0.0
0.0,0.0,0.0,4.6095766e-11,0.0
0.0,4.6772636e-10,4.1860332e-08,7.282408e-07,0.0
0.0,2.4220583e-09,5.4091464e-07,5.6216068e-06,0.0
0.0,0.0,2.645307e-06,3.9421757e-05,9.71796e-07
0.0,5.149246e-10,2.327027e-07,5.4020015e-06,1.5719262e-06
0.0,2.2913046e-06,9.878194e-06,1.9713074e-05,4.0353794e-07
0.0,5.60167e-07,1.3462742e-06,3.769846e-05,7.6512424e-07
0.0,8.613354e-07,8.370741e-08,0.0002754158,9.785703e-08
0.0,1.0397123e-06,0.00010396912,6.0691502e-05,3.7580446e-07
0.0,1.4622964e-06,0.00030105535,2.1049582e-05,7.0448266e-07
0.0,2.8151092e-07,0.0009332808,5.190197e-05,7.731695e-07
0.0,3.6893127e-08,3.6813762e-07,1.6845863e-05,1.918056e-05
0.0,2.2840139e-09,1.3415656e-06,0.44279,8.880994e-05
0.0,0.0,8.759634e-07,1.597384e-06,0.00023681013
0.0,0.0,2.2401939e-05,1.074983e-06,2.0138494e-05
0.0,0.0,7.3595847e-06,9.878663e-05,1.849684e-05
0.0,4.431317e-06,6.264479e-05,6.7679335e-05,3.2585987e-05
0.0,2.0751442e-05,0.00014239537,1.6569681,0.00072027603
0.0,0.00033256144,0.0056343013,9.1798065e-05,0.00014063006
0.0,0.0006427228,0.00011441863,4.1810254e-05,4.699581e-06
4.034673e-08,7.077817e-06,3.0344421e-05,4.5250355e-05,2.8422445e-08
4.6568918e-08,9.563763e-07,2.2092081e-05,6.3813044e-05,5.968072e-07
4.6119118e-07,2.7426258e-06,2.3894398e-05,3.0767045e-05,2.0321402e-06
1.8819507e-06,4.553569e-06,1.0477344e-05,2.6305232e-05,2.430737e-06
1.1851361e-06,5.8602257e-07,2.4618316e-06,3.1391537e-06,1.6709514e-07
1.1457787e-08,1.5296678e-06,6.850616e-06,9.001616e-06,4.501946e-07
5.892889e-10,5.8511546e-07,9.073292e-07,3.0191277e-06,2.0766151e-06
0.0,7.5362715e-07,7.2331136e-07,1.5783941e-07,7.2407374e-06
0.0,3.2623808e-07,1.0880913e-06,4.7073195e-07,3.0720597e-07
0.0,2.8711702e-07,4.556742e-06,5.363485e-06,3.1846535e-06
0.0,4.6270281e-07,1.3684925e-05,8.794693,6.2147064e-06
9.425423e-09,6.385597e-07,1.1568665e-05,5.7143843e-06,5.761048e-06
1.7386774e-06,2.2791477e-07,0.04053987,6.7347105e-06,3.274064e-06
9.416167e-06,3.1338848e-06,8.363835,3.0593317e-06,1.9247145e-06
3.0123463e-06,2.5603483e-06,1.4099541e-05,7.444234e-06,1.5165767e-06
4.19395e-07,2.4327435e-06,1.0619665e-06,3.2425146e-06,2.269994e-06
1.2171407e-06,1.3012896e-06,8.2300977e-07,2.8557823e-05,2.0297996e-06
2.8451789e-06,3.3571566e-06,1.1512938e-06,2.4137708e-07,5.4540595e-07
1.8414382e-06,2.6653574e-06,1.8405321e-06,1.0887682e-06,2.0141474e-07
1.1168435e-06,1.0224663e-06,8.6652364e-07,1.1611372e-06,2.2442207e-06
5.176138e-07,4.781289e-07,0.013125324,1.227079e-06,2.5999595e-06
5.8017224e-07,6.021456e-08,0.0017964881,1.1997607e-06,8.704582e-07
1.5392453e-07,5.6007398e-08,1.9985725e-06,1.1173893e-06,2.1643442e-07
1.3010914e-06,7.4965364e-08,9.110977e-07,1.934444e-06,6.0866637e-07
1.3530544e-06,2.7838466e-08,5.6531803e-06,1.7182277e-06,4.4926773e-07
2.7887326e-08,3.3062186e-08,2.6559605e-06,6.463214e-06,1.0751396e-06
1.8094174e-07,1.7579285e-07,5.785391e-06,1.01875116e-07,4.120085e-08
1.8591285e-06,4.81711e-06,2.302069e-06,1.9319632e-06,2.7997014e-06
1.5793637e-08,1.7484073e-06,9.239643e-07,9.1477136e-07,5.1453785e-06
1.0794011e-09,6.5273166e-06,8.199003e-07,1.0057066e-06,5.3795416e-06
1.034399e-09,3.9556626e-06,2.4055464e-07,3.1006977e-07,5.96616e-06
5.6315594e-07,8.125558e-07,2.5473497e-07,1.0598127e-07,6.156201e-05
5.8494628e-08,1.0348201e-06,4.264423e-06,3.1231318e-06,6.320627e-05
2.6493124e-06,2.542616e-07,1.1692708e-06,1.7273636e-06,9.126269e-07
3.3028104e-07,4.0695744e-07,2.702034e-06,2.278735e-06,1.61317e-07
1.2036968e-06,1.4062191,2.9873675e-07,8.853577e-06,5.202323e-06
1.567307e-06,0.9599033,2.4175215e-06,5.536324e-06,1.299862e-06
3.1101632e-07,0.91048056,1.4767712e-06,8.361827e-07,0.0094609335
5.509716e-07,3.8420117e-07,0.097032845,0.026067983,1.4577602e-06
3.3753235e-08,1.199654e-07,2.8994079,1.1579643,1.7671796e-06
5.531476e-07,8.088753e-08,1.6535641e-06,28.894865,1.7708904e-06
6.1274568e-09,2.7718347e-08,1.0432322,1.8551756,2.0157674e-06
1.571113e-07,5.9161684e-06,1.2411295,11.187776,3.091485e-06
1.6496331e-06,1.8746395e-06,18.009151,4.053483e-07,2.5880233e-06
1.8106711e-07,3.2284472e-08,15.853802,2.5839715e-06,4.8633075e-07
1.9709246e-07,6.096626e-08,0.0072875763,4.306745e-07,2.893614e-07
8.78233e-07,1.4421706e-06,15.315192,0.011476822,1.6312228e-07
5.055934e-07,2.7205225e-08,11.808915,0.0017864568,1.2941688e-06
3.4187442e-09,1.7440085e-07,0.0070446734,5.029501e-06,5.1596467e-06
6.5844565e-09,1.3572937e-06,3.4869666e-07,1.3037497e-06,6.925549e-07
1.9726838e-06,2.6714378e-07,9.65724e-07,6.57528e-07,1.1967865e-07
1.5803439e-08,8.77455e-06,5.3706907e-07,6.4073e-07,5.325046e-06
2.1192426e-07,8.213864e-06,9.811234e-07,8.920611e-07,3.9949125e-08
1.618444e-09,1.066288e-06,8.9607283e-07,3.7817853e-07,1.3558648e-06
2.1665503e-11,3.6770834e-06,8.961853e-07,9.219814e-08,5.0433286e-08
1.06061094e-07,1.4022729e-07,1.5184523e-07,3.9685398e-07,1.3693955e-06
1.967188e-07,2.9519708e-07,4.9016273e-07,5.1381136e-07,7.526428e-07
7.2369595e-08,3.0754796e-07,1.1559029e-06,3.2138637e-06,2.6727096e-06
1.4785637e-06,3.3459108e-07,1.9360137e-07,3.0980873e-06,3.1104248e-06
1.271069e-07,3.1945422e-07,1.0448233e-06,6.39264e-06,3.6288232e-06
1.5157481e-07,1.6269914e-06,1.6464666e-06,6.8656223e-06,7.4705144e-07
2.2024888e-06,2.4927301e-06,1.2527117e-06,4.807542e-07,9.3577745e-07
1.417414e-06,5.135691e-07,6.2854645e-07,0.008031388,7.963464e-07
1.3952769e-06,9.841557e-07,2.6316278,1.1818122,9.3555286e-07
3.6178943e-07,6.1404853e-07,3.7462752,0.31290773,6.949773e-07
5.4372055e-07,8.3063327e-07,0.02248682,1.5406434e-06,1.3189917e-06
7.5238614e-07,3.1208953e-07,0.37546223,0.042606622,4.440654e-07
3.4489356e-06,1.3255266e-06,6.778944,0.17995033,5.978416e-07
1.1932548e-06,2.7833032e-05,0.4918482,0.006149653,5.36115e-07
5.410075e-07,3.111899e-07,5.872344e-06,1.1356904e-05,2.5209698e-07
5.8393726e-07,1.8852015e-07,0.0064231483,0.023427973,1.600482e-07
7.3923634e-06,4.5309537e-07,9.4740767e-07,6.9308157e-06,1.7541503e-06
8.994667e-07,1.9099762e-06,1.2059388e-07,2.660413e-06,3.3755914e-06
1.9989172e-06,4.0522025e-08,6.08667e-07,6.167005e-07,5.592663e-07
2.6178357e-05,9.134473e-08,5.164581e-07,1.912223e-07,2.5815852e-06
3.4845839e-06,6.60395e-07,4.4506004e-07,5.790865e-07,1.0822196e-06
3.0975875e-07,4.5316096e-07,9.864555e-07,1.6931828e-06,2.644091e-06
3.4992504e-06,6.077413e-07,7.349804e-07,1.9728072e-06,1.5453729e-06
9.3952923e-07,9.1740065e-07,4.831962e-06,3.2431985e-06,3.818417e-06
3.4095847e-06,3.2335788e-07,8.167042e-07,1.4292615e-06,1.6070311e-07
2.0670839e-07,1.3964742e-06,7.703551e-08,0.00017817458,4.1843901e-07
2.1400864e-07,1.7025185e-06,2.1250538e-07,0.07345552,6.5164684e-08
2.12952e-08,4.7291082e-06,1.3467046e-08,2.3421025e-07,9.903732e-07
1.4242333e-06,1.6605229e-06,6.400095e-09,1.0942654e-06,5.978385e-06
6.2381855e-06,1.4928125e-06,1.7941554e-06,5.305671e-07,2.0897935e-06
4.9263457e-07,6.429972e-07,1.7595278e-07,1.2467983e-07,2.8134677e-06
2.1788262e-06,1.8638359e-06,1.1809587e-06,0.119117245,3.9648166e-06
1.5240043e-06,5.423833e-06,1.2889791e-06,2.0092552e-06,1.3370194e-06
2.4903752e-06,2.3332516e-06,2.3056034e-06,1.1753002e-06,5.6891975e-07
0.024812046,7.9874434e-07,6.441157e-07,1.3339258e-06,5.318181e-07
3.007785e-07,4.3131348e-07,2.5892116e-06,0.014903302,1.2925938e-06
1.0853232e-06,3.4758608e-07,4.4491976e-06,5.579602e-05,7.488994e-07
3.1129608,3.1086353e-07,14.364438,0.0005363649,7.666722e-07
0.06659776,1.7541572e-07,0.9200066,0.40071166,2.6329707e-07
2.3540913e-06,3.9332997e-05,2.1202002e-05,8.279921,1.3378472e-07
1.2271192e-06,4.5929377e-05,4.5286684,0.09321348,3.5950626e-07
3.1839566e-06,1.0126533e-06,7.428811,1.7320473,9.564536e-07
8.2175706e-07,1.1968723e-07,6.7066276e-07,0.00069454906,2.0802202e-07
6.36813e-07,2.8174309e-06,44.70832,1.8766968e-08,4.3092768e-07
5.9927413e-07,5.4895814e-08,20.805424,3.4139646e-07,1.2175446e-05
7.640206e-06,6.386913e-08,6.5590814e-07,6.5070617e-06,3.5592004e-06
6.7825033e-07,1.9061073e-07,2.1247818e-06,1.4193964e-07,2.0033456e-06
2.3112541e-07,7.78844e-07,3.5443944e-07,1.5517274e-07,1.10350575e-05
6.4734945e-07,6.246553e-06,2.3013324e-06,9.379648e-08,1.6548546e-06
2.781269e-06,1.6309567e-06,3.7334619e-06,9.909841e-08,4.9012493e-07
8.419549e-06,1.3428611e-06,4.364714e-08,3.2919206e-07,8.757175e-07
1.16829215e-05,3.2563603e-06,8.410691e-07,1.7918854e-06,7.886425e-07
2.0856889e-05,1.2301031e-06,2.0286252e-07,1.2324697e-06,4.2709903e-06
1.4086056e-05,9.465025e-07,5.1793046e-07,7.150403e-07,6.0526315e-07
1.6433974e-05,2.5126499e-06,5.80236e-07,1.027553e-06,2.1583166e-06
1.8474645e-06,5.9906997e-06,6.4320267e-07,6.683048e-07,8.564593e-07
8.189661e-07,1.5904544e-06,1.9313943e-06,2.874985e-07,2.755489e-06
0.00872657,2.3180037e-06,1.6704375e-06,2.684692e-06,1.909809e-06
3.3108324e-07,1.8386477e-06,1.5238131e-06,1.8245717e-06,8.490906e-07
3.173046e-06,1.18473544e-07,2.9652865e-06,1.6246744e-06,1.2667841e-06
0.59465337,5.0066756e-06,1.684378e-06,2.1670378e-06,1.6405098e-06
3.1378493e-06,2.8918092e-07,1.4434128e-06,1.0641186e-06,2.1739045e-06
2.0605526e-06,3.147825e-07,6.526087e-07,1.0972938e-06,2.5134464e-06
2.2725785e-06,2.17736e-06,1.065968e-06,2.6249154e-06,9.487112e-08
1.1975568e-06,3.5948943e-07,2.3820298e-06,7.8416133e-07,3.3285139e-07
1.3188929e-06,7.878595e-07,1.0316788e-06,6.282853e-07,1.1580659e-07
4.726855e-08,8.5124896e-07,2.138113e-06,4.9784774e-07,1.3908448e-08
5.543406e-07,6.097938e-07,2.2446056e-06,5.6736263e-07,1.1934053e-07
5.758129e-08,8.628781e-07,8.783891e-07,2.931138e-07,7.5706777e-07
3.1151706e-07,2.3103746e-07,6.757709e-07,9.2026005e-07,1.1243047e-06
9.291357e-07,3.8735726e-07,6.7817814e-07,2.496133e-07,4.6777578e-07
1.4260601e-06,8.144568e-07,2.1259066e-07,2.4769397e-06,2.4978065e-06
8.5357726e-08,1.6971752e-06,9.338624e-07,3.0317224e-07,3.2122546e-07
1.8864948e-05,1.2335287e-06,3.9997298e-07,6.869127e-07,2.8410457e-07
2.067527e-06,3.842315e-06,6.025778e-07,4.44059e-07,2.1939486e-06
1.7603669e-06,9.079534e-07,5.2023273e-07,8.530949e-07,3.2675714e-06
1.1080711e-05,3.2980763e-06,1.8245837e-06,9.191722e-06,4.1502838e-07
7.347088e-06,0.13709386,8.31882e-07,4.1732258e-07,1.3424667e-06
4.3457762e-06,1.1771132e-06,2.0321147e-06,1.5464358e-06,2.2028773e-06
5.2700574e-07,2.4813046e-06,1.9199815e-06,1.5528872e-06,8.194787e-07
4.7835937e-07,8.9512116e-07,8.370233e-07,1.2800789e-06,1.0987502e-06
8.852127e-07,3.8073576e-05,1.5055565e-06,8.885842e-07,1.3933642e-06
0.156912,1.7697344e-05,1.2645088e-06,1.9974048e-06,5.936287e-07
1.1110656e-06,5.940126e-06,4.984619e-07,5.836077e-07,1.4442923e-06
4.9799036e-07,7.8106956e-07,0.6365024,1.604018e-06,2.642679e-06
3.481135e-07,2.7356069e-09,2.3613336e-06,3.7229263e-06,3.532692e-06
5.9334616e-07,0.0,1.6484545e-06,2.2954098e-06,2.631474e-06
9.472712e-07,0.0,1.223637e-06,7.5254735e-07,4.980449e-07
1.8511366e-06,0.0,7.911394e-07,2.3991646e-05,5.3202566e-08
3.136026e-06,1.0626381e-07,9.937434e-07,4.8489196e-06,1.888997e-06
5.152956e-07,5.3114866e-07,4.8108427e-07,4.3442737e-06,1.6698372e-07
3.489916e-07,3.5801925e-06,2.0499478e-07,1.7738355e-06,2.1319971e-07
2.0683965e-06,2.877953e-06,1.3249107e-07,9.105911e-07,1.3645906e-06
6.0812026e-06,6.843053e-07,1.9220495e-08,1.0728838e-06,6.747741e-07
6.0454886e-06,4.4177077e-07,1.3768484e-07,6.3602204e-07,2.0588986e-06
2.1264636e-05,7.3297593e-07,3.0239033e-07,4.931382e-07,1.0952032e-06
1.0518622e-05,9.956892e-07,1.9623874e-06,1.7588615e-06,1.139366e-07
0.00072518113,7.8030837e-07,4.1562478e-07,4.06949e-07,9.170171e-07
0.00014417288,1.8402901e-06,3.9985932e-07,1.615756e-06,8.5115255e-07
0.0019415363,2.7355054e-06,2.7334755e-07,9.581601e-07,1.5346606e-07
2.430623e-06,0.023152962,4.0650173e-07,2.5096433e-06,4.033766e-06
1.5928358e-06,8.497565e-07,1.870957e-06,1.8305959e-06,2.7968736e-06
5.649041e-07,1.5109651e-06,3.7539012e-06,3.4486313e-06,8.4515113e-07
1.8205279e-06,1.7207479e-07,3.3120273e-06,4.9004516e-06,1.0519083e-06
4.313477e-06,5.83323e-07,3.736456e-06,2.062208e-06,5.097146e-07
5.141467e-07,2.7401097e-07,4.3193195e-06,1.5880617e-06,0.0038434714
2.0105144e-06,5.1842665e-08,1.6342407e-06,8.3368496e-07,1.0435057e-06
2.4569035e-06,1.8410151e-06,2.498058e-06,2.547142e-06,2.508392e-08
1.783292e-06,5.9287754e-06,3.4211355e-06,3.5193264e-06,6.635971e-08
1.3856769e-06,8.9167486e-07,2.0028655e-07,1.5742991e-07,2.0568748e-06
3.4967466e-06,0.012506702,3.8141025e-07,5.4553616e-06,2.504264e-06
1.7120781e-06,5.867446e-05,4.155385e-07,2.1517408e-08,7.542382e-06
6.4363843e-07,9.816864e-06,8.984523e-09,2.3151827e-06,2.5731137e-05
1.2805887e-06,1.300395e-06,5.5550053e-08,4.783583e-07,0.00011054636
8.752364e-06,1.7637153e-06,1.5937894e-07,9.216247e-06,0.00037914538
1.9120988e-07,7.0325123e-06,3.8126922e-07,3.675067e-06,7.992381e-05
1.7661326e-07,4.119202e-06,3.618085e-07,2.6673217e-08,3.301106e-05
4.8719713e-08,7.898266e-08,9.743137e-08,0.0,2.5684882e-05
4.532925e-08,1.704527e-05,8.8564167e-10,0.0,3.8100326e-05
1.9425612e-07,8.177564e-06,0.0,0.0,1.462661e-05
1.9957596e-08,4.359366e-06,0.0,0.0,9.043462e-06
2.757178e-08,1.4108473e-06,0.0,0.0,3.4316648e-07
1.4964663e-06,6.426267e-05,0.0,0.0,1.0050596e-07
5.537827e-07,3.1777854e-05,0.0,0.0,7.779743e-05
8.14435e-08,2.050398e-05,0.0,0.0,3.2177882e-06
9.704323e-08,3.6229e-07,0.0,0.0,1.917245e-06
1.1410684e-06,2.2055258e-06,0.0,0.0,1.1619705e-06
2.1851868e-06,3.1673565e-07,0.0,0.0,7.695798e-08
2.251193e-06,2.6046163e-07,0.0,0.0,1.6634375e-06
1.4308458e-06,2.5634467e-06,0.0,0.0,1.1004257e-06
2.4225753e-06,2.2091983e-07,0.0,0.0,0.34878185
1.4243599e-06,8.164201e-07,0.0,0.0,0.09089859
2.346461e-06,8.215977e-05,0.0,0.0,8.68327e-05
4.508605e-06,0.0033944927,0.0,0.0,0.11263698
1.7434821e-06,6.0658294e-07,0.0,1.8398624e-07,1.5809397e-06
9.925724e-07,0.069060415,0.0,5.894902e-07,5.5540368e-06
2.942613e-06,0.00023970872,0.00021890808,4.0382552e-08,3.9680394e-06
6.5191546e-07,2.434295e-07,4.5669527e-05,9.2943296e-08,4.3744294e-07
1.0474532e-06,8.0510193e-07,2.372602e-05,9.269185e-06,2.3585568e-05
1.0796689e-06,6.1210335e-07,9.877207e-07,4.75825e-06,5.110686e-05
2.2719646e-06,2.7496745e-07,2.149529e-07,7.2792074e-07,9.780802e-06
7.901856e-06,3.228194e-07,0.0,0.0,1.5632062e-05
1.138044e-06,1.7314993e-07,5.4480098e-11,0.0,3.9872364e-07
1.2598638e-07,5.498142e-07,1.2811136e-06,2.526922e-07,2.8924737e-07
1.1400989e-06,1.807884e-07,9.441777e-06,1.92978e-06,4.0921043e-07
3.769874e-06,6.385773e-08,2.1700074e-05,3.2562966e-06,4.0457795e-08
3.6557658e-06,4.6456134e-07,4.3747783e-05,2.642975e-05,5.696397e-08
2.998937e-07,6.3250122e-06,3.9449283e-06,5.2335577e-05,2.5404117e-07
8.697069e-07,1.499925e-05,1.4623167e-06,2.9302142e-05,1.6248157e-07
3.2790703e-07,1.2434165e-05,3.359055e-06,2.7213111e-06,4.3166347e-06
5.3451537e-08,4.795422e-06,1.5073116e-05,1.8507537e-05,1.2510711e-06
5.243263e-07,5.093551e-07,1.5204344e-06,4.6601517e-06,3.068731e-07
4.8579977e-08,7.719734e-07,2.451057e-06,3.344306e-07,3.45236e-06
7.8593496e-07,3.5464923e-06,2.7113033e-06,7.590164e-07,2.065464e-06
3.0358237e-06,1.4025895e-05,1.4637369e-06,2.8344564e-06,1.1132516e-06
2.3594307e-06,2.0934215e-06,2.5483955e-06,3.7941e-06,8.590535e-06
1.0957628e-05,1.0545068e-06,2.441854e-06,1.9712088e-06,6.786862e-07
7.3062083e-06,7.689491e-08,1.0660723e-06,3.4828315e-06,4.6015184e-06
6.8234544e-06,1.007226e-09,7.5973e-07,3.118773e-07,2.7406331e-06
1.1768919e-06,2.2002743e-11,3.2792736e-06,3.1891224e-07,0.0
3.7131977e-07,8.8972925e-08,4.3374653e-06,5.915554e-06,1.7947755e-07
1.0758171e-06,5.3576184e-07,1.5565032e-06,1.978257e-06,2.0601406e-06
1.0967307e-05,3.039144e-06,2.0265213e-07,1.7360433e-06,1.539914e-05
3.0796757e-06,6.270064e-05,3.119299e-06,1.0493135e-06,2.2742626e-05
2.0398243e-06,0.00015504248,7.560896e-07,4.0235594e-07,4.4045544e-05
4.5722886e-06,3.6613333e-06,2.4917895e-06,3.0024393e-07,0.00023707334
5.4248903e-06,0.00019615638,1.6696009e-07,1.1480624e-08,5.3690846e-06
3.6832885e-06,0.000103236336,1.7413163e-07,3.3590606e-08,0.00036536585
7.876827e-07,5.261612e-06,1.1966397e-07,1.9240257e-07,9.170937e-07
2.721802e-05,1.1392065e-06,5.6560964e-08,7.605212e-08,0.0012432946
0.00019737039,0.018619655,1.5784826e-07,3.873093e-06,7.5840626e-07
8.454589e-06,0.013105624,3.8919688e-07,3.3554995e-06,0.06624913
2.0234463e-06,1.7236448e-06,6.4064153e-07,6.168902e-07,1.914609e-06
1.5195143e-05,1.2490982e-06,8.5405574e-08,4.3761356e-06,1.236669e-06
2.6608734e-05,1.401238e-06,2.1381634e-06,3.0318743e-06,3.1170796e-06
1.0988953e-05,3.6695199e-06,4.068992e-05,4.0268715e-06,4.612573
4.9528744e-06,0.0062389467,0.0002930805,2.4916574e-06,7.393009e-07
2.7702941e-05,0.23172377,5.611873e-06,1.001708e-06,1.4680827
9.231603e-05,2.4397993,7.4590926e-06,1.4576264e-06,1.0712594
2.6864258e-05,0.19281843,9.2026664e-07,0.005371577,7.7628803
4.316009e-06,0.044942725,8.7816534e-07,2.8422662e-06,0.46954966
1.630129e-06,4.221959e-05,0.004965015,1.8761613e-06,0.0353757
1.6552899e-06,1.9066902e-06,0.0025976042,1.0664522e-06,3.212336e-05
4.8536413e-06,1.30588e-06,2.9276583e-07,1.4896735e-06,5.880131e-06
1.0427125e-06,1.1860936e-06,2.2694583,6.796928,0.0009302087
6.818157e-07,1.2419035e-06,0.009789372,0.0006521116,1.0417872e-06
4.199141e-07,1.3209055e-06,0.04974613,0.0076182038,6.2144034e-07
1.9502103e-07,9.159919e-07,0.004769064,3.8492988e-07,4.065183e-06
7.4999133e-07,1.6573734e-06,0.0040314193,1.2242681e-07,5.772827e-07
4.2529794e-07,1.0394434e-07,0.0007683354,3.3657558e-05,7.539216e-06
1.2892e-07,4.1990637e-07,0.0010797324,0.00016699203,1.9945332e-05
2.1660794e-06,2.6677395e-07,0.00030558865,0.010335561,1.6916472e-05
2.2556014e-06,1.434096e-06,0.0013119448,0.0005267429,1.2224903e-05
3.532105e-06,1.0222934e-06,0.0003486591,0.32047218,7.935872e-06
1.9609142e-06,2.2376614e-06,1.9268495e-05,1.0998849e-07,5.1874275e-07
7.2362427e-06,2.1299552e-06,3.486324e-06,7.8379594e-07,0.009675789
2.8334406e-07,3.944226e-06,3.25555e-06,1.8953803e-06,0.029587332
1.1870006e-06,5.620962e-06,0.00475807,8.326542e-06,0.0026139547
1.1111347e-06,8.141407e-07,0.8429545,4.0608834e-06,0.0063299746
2.0213668e-06,3.010502e-08,0.0061940667,0.001422515,0.0023762407
2.2972745e-06,1.650004e-07,3.2402046,1.0527993e-06,1.12559455e-05
3.013327e-06,6.458643e-07,1.4859736,1.0902717,1.876791e-06
1.3248299e-06,6.503937e-07,3.8618019,11.878324,1.6199031e-06
3.4181135e-06,7.8107615e-07,0.43322003,3.9087632,1.9318138e-06
5.274745e-07,0.00018152216,0.41870227,0.00014540614,9.016054e-07
1.5726507e-06,1.3532018e-06,4.7507768e-07,0.39772347,2.3569407e-06
2.769048,1.18842e-06,6.625351e-07,0.0048300917,3.0932788e-06
2.532928e-06,4.0639243e-05,5.8046953e-07,4.905594e-07,4.0280284e-07
4.3853746e-07,5.7486623e-06,8.30752e-07,1.027045e-06,5.7242676e-07
1.8762464e-06,2.312283e-06,2.4046062e-06,1.1732678e-06,2.4621437e-07
1.773969e-06,3.368927e-07,4.181587e-07,1.0301208e-06,1.2985948e-06
3.9135642e-07,4.5124918e-07,1.1188228e-06,8.9260936e-07,1.3120604e-06
1.0195145e-06,7.756926e-07,0.0028535838,1.1498306e-06,5.049694e-06
9.5284115e-08,8.963595e-07,0.031941883,2.566049e-07,6.27879e-06
7.6592636e-07,1.0835886e-06,0.009686476,2.7461928e-07,7.2796415e-06
1.06043984e-07,0.21521026,0.008375567,2.707228e-07,0.012116556
6.445039e-07,0.03373454,0.008672116,3.4168774e-08,0.16065772
7.676041e-07,0.0004342453,0.025679756,5.381039e-08,6.884978e-05
0.0056188703,7.410595e-06,0.029695963,1.2899595e-06,1.1755235e-05
0.06464841,2.8759623e-06,0.016502175,3.4091086e-06,3.7410266e-06
0.012675696,2.8247443e-06,1.7839963,2.9856444e-06,7.701383e-06
4.0270043e-05,1.4061031e-06,0.04515364,0.00032891103,2.9140908e-06
6.582086e-06,6.869912e-06,0.0073193293,7.60569e-07,1.1096977e-06
0.0009309829,3.3025972e-06,5.008667e-05,2.5708355e-06,1.8152417e-06
0.080154285,1.2275241e-06,8.1141866e-07,1.7496099e-06,4.6494583e-07
0.7475575,4.810025e-08,8.380323e-07,1.4710843e-06,8.95994e-07
4.259491,2.7161593e-07,5.8008203e-07,1.0227619e-06,9.623242e-07
0.9104525,8.2748436e-08,6.8345713e-07,2.385273e-06,2.2270933e-07
0.19423656,3.1002145e-07,2.1671904e-07,4.685528e-06,2.0009718e-06
0.08593627,12.672541,2.5995516e-06,5.2890477e-06,1.7024779e-06
0.9027952,16.806791,5.488795e-06,6.1602677e-06,1.4236336
0.5584963,11.900778,1.2202299e-06,8.643781e-06,0.29897574
3.794768e-05,0.41853356,1.0667832e-05,3.2816497e-06,4.3086134e-06
0.40180227,4.2230945e-06,6.361848e-09,1.7923946e-06,1.2945217e-06
0.31940743,3.996672e-07,1.0646073e-06,3.1317732e-08,1.9513423e-05
1.1923177e-05,3.1888607e-07,1.0625803e-05,2.0971292e-07,8.057984e-06
6.110553e-06,1.1029632e-05,1.4471948e-06,0.0003279841,1.5760653e-06
0.09178845,1.393584e-05,6.7055083e-07,9.232361e-06,5.6332323e-05
2.3278396e-06,7.391207e-06,2.5806312e-06,7.5065896e-06,0.0030225427
0.0005358866,3.0427882e-06,5.5044143e-06,1.1150103e-06,0.0006917823
0.0009264027,4.4164576e-06,9.7000586e-05,2.96389e-07,0.0018916077
0.001894075,6.982931e-06,3.2322294e-08,8.0008937e-07,0.0013901301
2.5892089e-06,8.318594e-06,8.345239e-08,2.8360208e-07,0.0002149948
1.283592e-05,4.1859794e-06,1.8681827e-07,2.0169243e-06,7.441482e-07
5.6294143e-06,9.274735e-07,1.2115081e-06,2.2369497e-06,4.3851313e-07
4.621879e-06,8.075378e-07,2.9547607e-07,1.1988084e-06,1.7608091e-06
3.0195686e-06,7.65506e-07,1.2997135e-06,1.3128212e-06,1.7234673e-06
1.4788765e-06,1.778186e-06,1.320611e-06,1.7524869e-06,2.2000568e-06
1.9991949e-06,1.0381608e-06,1.3880416e-06,1.2246257e-06,3.0414863e-06
2.042893e-06,1.6167378e-06,2.2402936e-07,1.3815364e-06,4.8326936e-05
1.8209607e-06,1.3882105e-06,3.430646e-07,1.7265415e-06,1.3115214e-06
1.8073415e-06,1.4490355e-06,3.3455535e-06,3.0965664e-06,1.7001161e-06
2.4876026e-06,1.6633223e-06,2.556329e-06,9.711957e-07,2.8219088e-06
1.0078534e-06,2.7834608e-07,6.5860706e-07,1.4429315e-06,2.1008589e-06
1.1825944e-06,6.425197e-07,6.6136454e-07,2.0553634e-06,9.43972e-07
9.611682e-07,1.1472962e-06,8.1373526e-07,2.950105e-06,1.5152274e-07
9.840909e-07,2.712727e-07,1.6553948e-06,3.5665444e-06,1.5102502e-06
1.2829827e-06,4.079697e-06,1.5465337e-06,2.369349e-06,1.1491288e-06
8.5173305e-08,1.3824869e-05,2.8210093e-06,4.6772525e-06,3.391705e-06
1.1225602e-06,1.2265662e-07,1.0335344e-06,1.8831146e-07,2.4240178e-06
1.3263846e-06,1.3877776e-06,2.599913e-06,5.6251128e-08,3.7586074e-06
6.6867324e-07,1.8170759e-06,8.377499e-08,8.3758584e-07,1.2422278e-06
4.3103856e-07,4.154151e-06,1.5875086e-06,1.9753536e-06,2.8323977e-06
1.0893034e-07,5.5517276e-06,1.1633686e-06,9.25043e-08,1.0925626e-06
1.0242666e-06,1.8917567e-06,5.45337e-07,1.273153e-07,4.2087186e-06
1.7225504e-07,2.034063e-06,1.6003307e-07,7.4579404e-08,2.2651582e-06
1.7573233e-06,5.314308e-06,2.6640744e-06,1.0260637e-06,4.94282e-07
1.2207083e-05,4.1531534e-06,1.6077563e-06,1.0730987e-06,2.2034267e-07
4.381169e-06,5.41519e-06,2.322152e-06,9.342114e-07,3.2711378e-07
1.5118677e-06,2.266768e-06,1.5065115e-06,1.4398016e-06,3.1772333e-06
2.558178e-06,5.3474246e-06,1.5761809e-06,1.2776107e-06,6.2880747e-07
0.00019399986,4.695974e-06,8.9788705e-07,1.0562883e-06,3.0863469e-06
2.4655917e-06,3.6792294e-06,2.2696915e-06,1.9256e-06,1.0096145e-06
2.074738e-06,1.2495998e-06,3.5068665e-06,3.730484e-06,7.619043e-07
1.9880245e-06,5.8547306e-07,3.0450078e-06,5.0332724e-06,3.4255238e-06
2.9194894e-06,7.492628e-07,2.1546662e-06,1.3951093e-06,8.767291e-07
5.9487377e-07,2.8396322e-05,7.3157105e-07,6.7807747e-07,3.215775e-05
1.3773094e-07,3.117728e-05,7.3814995e-06,2.2457473e-06,5.491318e-05
4.6523915e-08,3.7381085e-07,3.4679667e-06,2.3759521e-06,3.4370892e-08
2.575101e-07,4.7532667e-06,8.332728e-06,6.52522e-06,3.922806e-08
3.0321255e-06,8.601237e-06,2.043416e-06,3.1252246e-06,1.6115513e-06
7.24844e-07,8.572264e-06,1.2341344e-07,1.3247153e-06,8.8353966e-07
0.0,1.698647e-06,1.717011e-06,4.6869883e-07,3.4963736e-07
2.4573544e-07,1.7124132e-06,4.003784e-06,1.8242306e-06,3.4765494e-06
2.6786238e-06,5.9584033e-07,1.9913973e-06,1.4125441e-06,2.530662e-08
1.0834818e-06,1.2123929e-06,6.762704e-07,1.2351605e-06,7.037959e-08
4.122722e-06,1.2725532e-06,3.5035157e-07,3.3698944e-07,5.2999076e-07
2.4005814e-07,7.767752e-07,2.1566616e-06,1.6761326e-06,5.5577884e-06
3.1456734e-06,5.662528e-07,6.0047296e-06,5.7755706e-06,3.3107167e-06
4.8276e-06,4.1706203e-06,0.0011601553,3.521609e-06,4.678949e-06
5.0122917e-06,1.2601477e-05,0.0012765356,7.421347e-07,6.395495e-05
1.0563104e-07,8.931875e-05,1.38762125e-05,1.7560659e-06,0.0016459145
1.1741305e-06,1.0520574e-05,1.6181061e-06,6.586148e-08,1.2038721e-06
7.0775163e-06,6.8578913e-07,6.698821e-07,2.630662e-07,1.2705784e-06
4.821113e-07,9.653958e-08,6.7497893e-07,5.124689e-07,1.2936862e-06
8.262336e-07,0.00083200366,7.573225e-07,2.1335811e-06,1.3359954e-06
1.934082e-06,0.0011207605,2.0336768e-06,2.0490638e-06,1.052245e-06
1.6385576e-06,9.850237e-07,2.9839907e-06,1.2002401e-06,1.9095994e-06
7.41921e-07,1.0021498e-06,1.91616e-06,1.9650417e-06,1.8640969e-06
3.4264199e-06,1.09616906e-07,1.4049131e-06,3.5315115e-06,2.7902042e-06
5.9322927e-05,1.1458e-05,1.5594401e-06,1.3402326e-06,9.669127e-07
1.495278e-06,0.7184706,1.3910166e-06,1.3571639e-06,0.002423017
1.3355325e-06,1.0041216e-06,0.09352536,0.31214678,1.0579112
1.4425443e-06,9.63923e-07,1.0086643,0.043426923,1.2908008e-06
4.006094e-06,0.0028563035,0.00032629148,0.34586778,0.042518478
1.2442762e-05,0.019961173,1.020205e-06,1.902897,0.20878494
5.2533683e-06,0.08396407,3.907405e-07,0.021277742,0.50639784
2.261211,0.09266625,1.6807611e-06,2.186632e-06,0.5310521
0.5228002,0.0017874404,0.11578296,4.070517,0.21755598
0.056803957,3.1009135e-05,0.18501769,5.22188,0.0114615
0.0939882,6.180701e-05,0.07815322,0.31638753,0.0042298273
0.00095889246,3.7168204e-06,1.6903539,0.028866109,1.8717593e-06
1.3017935e-05,1.0733401e-06,0.13923836,8.396855,6.58822e-06
7.1144314e-06,2.1698172e-06,0.0038453967,0.01427285,0.0063413484
2.9199412e-06,1.0135516e-06,6.618639e-08,0.003153549,0.033579458
1.4000818,6.376775e-07,0.03780033,0.093247525,0.012260183
0.3523457,1.925236e-06,0.07303573,0.03340487,0.04836456
0.00017695497,2.0944158e-06,0.014393398,0.027270444,2.318739e-06
1.3024459e-05,2.3463942e-06,0.0069112713,0.0064091464,8.405954e-07
0.19782156,2.9561731e-06,0.004323124,2.9988578e-05,4.183951e-06
3.3141496e-05,6.7124154e-07,1.5730743e-06,1.031832e-06,2.1273063e-06
0.000499914,1.9631336e-06,9.710045e-07,1.0085556e-06,3.360166e-05
0.002284882,0.00024872576,1.7530863e-06,3.7366267e-06,2.091961e-06
1.6330933e-06,0.050429504,2.7802382e-06,4.4029434e-06,1.1508201e-06
4.7517466e-07,1.0462012e-06,1.0267248e-06,8.869667e-07,5.89257e-07
7.033319e-07,2.4324208e-06,5.8206047e-07,1.3024571e-06,3.131071e-07
1.5126059e-06,8.5302895e-07,1.1725739e-06,9.829656e-07,5.364072e-07
2.5543723e-06,1.7889376e-07,2.5765678e-07,4.6046995e-07,4.8351603e-07
5.2526246e-07,5.034134e-07,3.915271e-07,3.7113475e-06,2.6526303e-07
4.8814866e-07,4.3989093e-07,3.4707277e-09,2.5322097e-05,1.1747372e-06
1.4257087e-06,1.4100076e-06,3.7436217e-07,5.8623213e-05,8.119815e-07
8.339482e-07,3.302638e-07,5.6268455e-06,3.0160236e-05,7.968266e-07
2.6894202e-07,3.732332e-06,1.2912839e-06,4.0591185e-06,2.208296e-06
4.314161e-06,4.3011514e-07,6.805879e-07,3.1270056e-06,2.852521e-06
8.006241e-07,9.369527e-07,4.0652503e-06,2.3290771e-05,1.5310784e-06
2.2936526e-06,4.837514e-07,1.5961774e-05,5.6153954e-07,7.2472685e-06
4.5903057e-06,4.6788062e-07,2.7840758e-07,1.3176027e-06,8.1899805e-07
4.130719e-07,4.4276053e-06,8.925972e-07,3.0511173e-06,8.331335e-06
0.49162832,2.205835e-06,1.2939367e-07,1.8998126e-06,6.3877116e-07
0.6615909,3.4118611e-06,0.026981128,9.910975e-07,8.982327e-07
3.2486382e-06,6.295037e-06,2.6177691e-05,3.807094e-07,1.555323e-06
3.183102e-07,4.382234e-06,1.0842183e-06,4.730354e-07,7.400381e-07
2.8290546e-07,1.1772771e-06,1.918694e-06,3.376971e-06,2.08247e-06
9.832446e-07,5.5817583e-08,0.0012330378,1.8106728e-06,3.1348516e-06
1.0820185e-06,4.7012688e-07,0.0008804339,3.1039474e-06,2.248125e-06
4.934639e-07,1.0266026e-07,2.0578404e-06,2.825061e-07,2.6409205e-06
1.853097e-06,1.2274572e-06,2.0911693e-06,4.3997704e-07,6.053824e-06
1.1338637e-06,4.2251804e-06,4.937429e-07,1.5081861e-06,2.613509e-06
1.6180778e-06,5.1422816e-08,2.956288e-06,8.074452e-07,3.950221e-09
0.03280561,4.6327187e-07,1.3671655e-06,8.039971e-07,6.435661e-07
0.00037392674,2.707857e-09,1.2295826e-06,4.217949e-07,2.481932e-07
2.5689403e-06,2.916381e-07,1.5419482e-06,5.518376e-07,0.0
4.5622683e-06,4.2269603e-06,9.4440014e-07,2.2927989e-06,5.1401987e-08
4.3585476e-07,2.4682522e-06,2.1885012e-07,3.671861e-06,3.918235e-07
0.0,6.5920557e-07,4.5632202e-08,4.7033512e-07,7.3702887e-07
0.0,5.21297e-06,4.3042775e-07,4.4626802e-07,6.555911e-06
0.0,9.814636e-07,1.6720883e-06,2.5937334e-07,5.6373455e-07
0.0,1.5916382e-06,1.3846873e-06,3.1471754e-07,1.8751031e-06
0.0,1.098613e-06,1.3250519e-07,1.00459474e-07,3.2039156e-06
0.0,1.7218461e-07,3.1195208e-07,3.6382268e-08,1.7318209e-07
4.5852047e-09,7.72128e-06,5.638134e-07,1.1468968e-07,1.6895904e-10
1.4094674e-08,1.8356717e-05,9.999004e-07,1.0474887e-07,0.0
2.7298708e-07,0.0,9.287433e-07,4.7638764e-07,2.344361e-10
8.2227274e-07,0.0,2.897837e-07,8.9647436e-08,3.7244686e-08
7.727065e-06,2.0302383e-07,2.3060099e-07,5.9502116e-07,1.9268573e-10
9.533259e-07,1.7588246e-07,1.5535935e-06,1.834707e-06,8.1868215e-08
1.2490389e-06,4.2415567e-07,1.5835003e-07,2.0736356e-06,7.5826796e-07
8.9712967e-07,7.124478e-07,2.6756243e-07,1.4757014e-06,7.394958e-07
1.893225e-06,2.7051226e-07,2.4514844e-05,0.0009061696,1.4597016e-06
5.9956783e-06,1.0663971e-07,2.1388767e-06,0.0027809066,3.1179788e-06
3.484046e-05,5.946613e-07,0.14147612,9.352337e-07,2.2820705e-06
2.2372406e-06,2.0677437e-07,1.2701977e-05,3.0043072e-06,2.5657046e-06
2.0291243e-06,5.1051785e-07,1.2332584e-06,3.3386927e-06,1.6164236e-06
1.7223708e-06,5.585414e-07,0.0012943443,1.5344858e-06,7.9143234e-07
2.4272758e-06,1.0310699e-06,7.546244e-08,8.068293e-07,5.528622e-07
1.5344265e-06,1.1036188e-06,2.9743715e-06,1.1516422e-06,6.9160785e-07
1.4758532e-06,1.367685e-06,1.765384e-06,8.5560777e-07,0.023029359
1.791688e-06,3.655442e-05,1.3117877e-06,2.6690543e-06,1.3965308e-06
5.391289e-07,2.962535e-06,1.9521653e-06,1.4661548e-06,1.5510648e-06
1.4024255e-07,1.7445263e-06,6.2087065e-07,6.9055073e-07,1.4422251e-06
3.0451295e-06,6.228029e-07,3.620366e-07,2.9212174e-07,3.5762382e-06
1.498109e-07,5.6039227e-07,9.6739704e-08,2.3848258e-06,7.455581e-06
4.7475908e-07,5.070276e-07,4.2833958e-07,1.392618e-06,2.7933859e-06
