"[299, 255]","[227, 248]","[287, 319]","[279, 328]","[230, 262]"
6.1477385e-06,2.6492931e-05,9.488794e-07,1.321751e-05,1.1196289e-05
6.9952864e-07,2.565338e-05,1.5454982e-05,4.8231145e-06,1.3761461e-05
3.208264e-07,2.3716664e-06,8.408648e-07,1.2824855e-06,8.449901e-07
4.0759102e-07,7.350183e-07,6.180023e-07,7.435961e-07,3.654858e-07
5.361006e-07,5.1996835e-07,0.074192755,4.4133748e-07,2.1580809e-06
2.0731152e-06,2.2417312e-06,2.603305e-07,2.8821106e-07,4.798979e-07
6.7403867e-06,1.9011105e-06,4.1145037e-07,1.3791987e-06,1.0829745e-07
5.405236e-06,5.007921e-07,0.0052564186,1.111395e-06,6.426568e-06
2.5118861e-06,1.0761194e-05,0.0003536588,1.7232773e-07,4.583695e-05
3.4432217e-06,1.120615e-06,4.599779e-07,8.8588045e-08,1.7567725e-05
1.1738335e-05,6.420486e-07,3.692667e-06,4.4463792e-07,1.6355061e-07
5.8773167e-06,0.7108899,5.9325157e-07,3.8420922e-07,3.615472e-07
1.1835601e-05,0.36318073,2.0430516e-06,3.7032426e-06,0.055622112
3.9725423e-06,0.14462169,2.4880642e-06,0.1678906,0.46052822
4.136407e-06,0.45708,6.2852865e-07,3.6271467e-07,0.12905379
3.452764e-06,1.2372932,7.536741e-08,2.9605642e-06,0.3067098
0.03143855,0.28649658,4.4951992e-07,4.4134745e-07,0.106963135
0.13677177,0.1537512,1.00859e-06,9.2993804e-07,0.15613802
0.22181453,0.03161532,0.002746804,2.7616066e-05,0.1524088
0.1255583,1.1327958e-05,9.841192e-07,5.321486e-06,0.044875532
0.14211696,0.00028426593,0.006249648,0.08197353,0.0027554596
0.2729694,9.187663e-05,0.035769705,0.8686112,0.027544403
0.33753315,0.00043048654,0.16278137,1.1433715,0.026941247
0.049798902,1.6451102e-05,0.2730807,1.1663418,0.005709657
0.036289383,0.00019361185,0.2300369,0.78693855,0.053872634
0.0060660816,0.08048873,0.28031197,0.052477833,0.013043488
0.0006009394,0.0010942024,0.3624105,0.10259734,0.03342492
0.00022583466,0.014832606,0.24501681,0.07573971,0.32882103
0.005646595,0.026151089,0.24969396,0.0016237117,0.23190883
0.3321849,0.01258704,0.09204181,0.0013117159,0.01688512
0.011205043,0.0070780255,0.08991132,0.00055520877,0.0146377105
0.33003333,9.168315e-05,0.13061973,0.006695253,0.0052008983
0.007539928,8.573968e-06,0.101186685,8.181449e-06,0.0075681303
0.0007915665,0.0020915316,0.052055527,4.0374266e-06,0.008541153
4.2636193e-06,0.00074397353,0.029388783,3.1437285e-06,0.0008545692
5.64866e-06,1.0144825e-06,0.03337203,1.2381813e-06,5.459492e-07
8.6461625e-07,5.4115735e-06,0.07287441,1.4114639e-06,8.274575e-06
1.6406046e-05,1.2243255e-05,0.23218223,0.00014237667,2.5977558e-06
1.2792426e-06,8.803483e-06,0.41390544,0.034315843,2.2507496e-05
5.2567116e-06,7.749919e-06,0.4828243,0.32047987,7.832261e-07
4.5740953e-06,1.0634299e-05,0.57767427,0.89379764,5.0264007e-05
6.8646123e-06,1.0853079e-05,0.69044983,1.377057,0.55876946
0.00012624987,0.6758444,0.10199065,2.649201e-07,0.6889758
1.042336,0.0044243047,5.342773e-07,9.617146e-07,0.0068480847
0.7776643,4.302383e-06,3.2503823e-07,4.39914e-07,1.4868285e-06
9.61962e-07,8.746799e-06,4.6677553e-07,1.1032665e-06,8.923962e-06
2.6648963e-06,5.2401007e-05,6.7669123e-07,2.0804584e-06,1.0226819e-06
6.324491e-06,2.2632041e-06,2.2413955e-07,1.6104607e-07,0.0057196985
1.2663338e-06,2.1415808e-06,4.3002987e-07,4.9419305e-06,0.14598083
3.8168128e-07,4.2029956e-07,3.8746636e-10,7.553504e-07,1.4825367e-10
1.106921e-06,1.9862575e-06,1.7992878e-07,6.3968713e-07,2.8482276e-07
2.6720306e-07,0.0029549496,0.0,3.2241334e-07,6.531656e-07
9.0314796e-07,0.0022418643,7.604586e-07,1.0787103e-06,2.2000216e-07
9.2614e-07,2.7513133e-07,7.396012e-07,8.7265994e-07,1.5869597e-08
1.3009468e-06,3.6508158e-07,0.0,3.7381676e-07,5.9409928e-08
2.0221549e-05,8.0534795e-07,2.0245707e-06,2.7583808e-06,2.2898995e-08
2.312944e-06,7.453954e-07,1.0155741e-06,1.616089e-06,2.665785e-07
4.241852e-06,4.426166e-07,1.1974096e-06,1.168523e-06,0.0
2.8997027e-07,7.0401313e-07,2.4795142e-07,5.1329715e-07,4.216706e-07
2.2225431e-06,1.4255189e-06,9.901379e-07,4.940355e-07,8.8548427e-07
4.599059e-06,2.961881e-06,4.86412e-07,9.780608e-07,4.24786e-07
4.6337946e-06,1.5035915e-06,2.8981117e-06,2.3255234e-06,5.029765e-07
1.9624454e-06,6.105809e-07,1.971853e-06,2.0801617e-06,4.9303844e-07
1.4262273e-06,2.6550808e-06,2.5732315e-06,8.476131e-06,9.796737e-07
4.122924e-06,5.453912e-06,7.2481516e-06,5.355184e-06,3.3162748e-06
0.024573963,6.635172e-06,4.4958765e-06,6.035771e-06,3.6002461e-06
0.08723268,6.633498e-06,4.6820396e-06,1.0073801e-06,1.066541e-06
2.9196158e-07,8.9589486e-07,1.1076122e-06,0.0,2.0012615e-06
1.5896603e-07,1.6421943e-06,4.8034804e-07,2.2378371e-10,3.9520846e-06
2.09071e-07,3.284313e-06,9.3105704e-08,1.0722032e-07,2.3958441e-06
2.0613609e-09,1.3041202e-07,2.4090096e-07,6.1832225e-08,4.6325717e-06
0.0,1.8939494e-06,6.114738e-07,4.914542e-07,5.837371e-06
1.3357303e-08,7.780214e-07,3.0214987e-06,2.9781364e-07,2.0422253e-07
1.8670651e-06,1.205841e-07,3.7936337e-07,1.7344608e-07,2.7153694e-06
7.842585e-08,7.611569e-08,1.8285325e-06,2.0567333e-07,8.224919e-07
3.31768e-08,1.0691173e-06,6.3621724e-07,1.5945254e-06,9.227552e-08
9.328819e-08,4.323855e-07,3.0265662e-07,3.827293e-07,8.968343e-09
1.7510622e-07,1.8237962e-07,4.92639e-07,5.0345918e-08,5.1526996e-09
5.3415373e-08,1.3258805e-08,1.7656137e-07,2.9536233e-08,2.1211516e-08
2.0716817e-07,1.7808524e-08,3.3620353e-07,5.583152e-08,8.1153536e-07
1.6055237e-06,5.3064377e-06,1.6148916e-06,6.7961923e-07,2.8141423e-07
9.81063e-07,1.7870183e-06,3.6141078e-06,1.053015e-06,0.0
5.170304e-06,0.0,1.2590334e-05,3.8305632e-07,0.0
2.1485148e-06,6.3176095e-08,2.0098837e-06,2.7643682e-07,3.5267098e-07
1.4376543e-06,2.9314967e-07,1.2767703e-06,1.8017827e-06,1.4887873e-06
1.1169126e-06,4.8262636e-06,1.3013434e-06,1.9532813e-06,9.007241e-06
9.964523e-07,6.7754963e-06,1.1529598e-07,9.3789316e-07,1.5327931e-06
1.088484e-06,5.912375e-07,2.588114e-07,1.2694752e-06,6.8797897e-07
1.2061262e-06,2.5880431e-06,1.2717876e-06,5.057023e-07,1.4730868e-07
2.2315896e-07,1.1612813e-06,3.4439252e-06,9.092834e-06,0.0
8.2691935e-07,1.1263973e-05,2.789811e-06,4.1826597e-06,0.0
6.727005e-07,1.07057695e-05,2.4298615e-07,1.6573283e-06,0.0
9.284721e-07,3.9895986e-06,5.05198e-07,3.7517324e-07,7.435606e-08
2.1757374e-05,2.5000118e-06,2.9439252e-07,3.1686036e-06,4.346851e-06
1.818719e-05,7.429705e-07,4.3213353e-07,1.5665203e-06,2.0283277e-07
1.6600758e-06,3.8337175e-06,3.9968876e-07,1.9100693e-07,4.667852e-06
7.785135e-06,3.9672263e-06,3.1530345e-07,1.4361345e-07,9.147603e-06
0.00030257006,1.0274902e-05,2.0002825e-07,2.038466e-08,7.910489e-09
0.00026001048,9.742848e-06,4.411274e-08,7.2819275e-09,2.9232893e-07
6.1780925e-06,5.0885415e-06,5.8899047e-08,3.9108272e-08,7.627047e-06
9.704852e-07,5.1858383e-06,8.456048e-07,3.4530433e-07,6.8783356e-07
2.8112623e-07,3.01706e-06,2.0659827e-05,7.086929e-07,8.021099e-07
1.3969074e-06,5.984203e-06,0.00023177837,1.6294632e-07,2.255342e-06
5.7576375e-07,1.4705241e-05,6.494282e-05,1.2351458e-06,6.647333e-06
1.7185987e-06,5.1549223e-06,2.3519746e-07,7.900494e-07,4.0799205e-06
2.0592906e-06,6.946697e-06,4.566019e-07,1.1459902e-06,2.6791586e-06
6.8299687e-06,9.363495e-06,1.6806796e-06,5.654291e-07,1.8082782e-06
1.8397758e-07,7.819424e-06,1.7710075e-06,7.181449e-07,4.519881e-06
1.4405558e-06,4.621146e-06,1.0713826e-06,5.678671e-07,2.1472022e-06
5.2841588e-06,2.3013652e-06,8.128588e-07,8.5676525e-08,1.9162298e-06
6.084951e-07,3.6527592e-06,2.1048704e-08,6.098079e-10,3.059974e-07
5.397342e-07,4.5693455e-06,1.0916741e-08,1.2827242e-10,7.6848596e-07
2.340431e-06,2.5305521e-06,2.9088541e-08,7.350413e-07,4.5126708e-07
5.579562e-07,6.8889344e-06,2.4919696e-06,9.811201e-07,9.193384e-07
1.5757895e-06,3.0932915e-07,6.0103253e-06,6.5290214e-06,3.0823749e-06
3.138976e-07,3.6182857e-06,6.325779e-07,2.8475777e-06,2.8342392e-06
2.1564678e-07,2.3747032e-06,9.1082075e-07,5.8639876e-07,2.4599092e-07
2.2078389e-06,2.1582148e-06,7.874694e-07,2.4778578e-06,1.4818631e-06
7.08843e-06,1.3254562e-06,1.7126729e-07,7.656139e-07,2.1247641e-07
5.2176133e-06,3.8527656e-07,2.4247877e-06,1.01214255e-05,4.108074e-06
5.6228746e-06,7.155676e-07,6.672106e-06,3.6791953e-06,3.867321e-07
0.010847774,5.9887594e-07,7.4100416e-07,2.7463426e-07,2.3960305e-07
0.009086404,1.4113612e-06,1.2626083e-06,4.114776e-06,2.541282e-05
0.027491126,9.122106e-07,3.93824e-06,4.9675123e-06,0.00022133342
0.12920295,2.934809e-06,1.3362306e-05,5.0194735e-06,2.3191255e-06
0.10149054,1.3411561e-06,2.3627872e-06,1.185388e-06,2.5162408e-06
0.04673474,1.835661e-06,0.0028660146,1.6919928e-06,0.0019777315
0.13552919,5.218014e-06,0.039559692,0.0150803635,0.022498218
0.15889637,1.986994e-06,0.08877762,0.14286706,5.3390536e-06
0.08490443,0.011673107,0.1878212,0.15552561,6.928552e-06
0.038403835,1.3244077e-06,0.1739674,0.05144394,4.3146933e-06
0.3070369,1.868423e-06,3.030141e-05,1.5421273e-06,2.0185356e-05
0.28884396,0.00015276509,3.7545738e-07,7.326374e-07,9.471199e-06
0.24852695,7.084506e-05,9.2374387e-07,1.5648885e-06,0.0033425791
0.14619593,0.0021162443,3.5699256e-07,6.0183714e-07,0.029302383
0.06647679,0.015634114,1.8958755e-07,1.1385927e-06,0.059438616
0.03831589,0.020931702,2.710566e-06,3.4807297e-06,0.1146845
0.0025510467,0.018777044,2.4836102e-06,3.3215963e-06,0.107292116
4.731461e-05,0.17931692,1.1150323e-06,5.4355282e-06,0.19765976
1.0541895e-05,0.10082676,1.092581e-07,9.853637e-09,0.17430282
6.873415e-07,0.009906001,1.7198207e-06,9.1595766e-08,0.014460593
4.2044474e-07,2.6473726e-06,2.5181753e-06,1.2553903e-07,2.024537e-05
1.1266233e-05,1.4257078e-06,2.784118e-06,6.3513694e-06,5.267514e-05
4.168592e-05,7.832301e-07,4.5393913e-06,3.3020137e-06,3.4470788e-05
3.3471148e-05,0.0032628595,2.0683822e-06,3.775906e-06,4.6573905e-06
0.00012203816,0.42180344,9.815637e-07,8.349281e-06,1.693603e-06
0.00029001225,0.02052515,5.105034e-06,2.5265344e-06,2.9037292e-06
0.00016926927,0.00077225943,1.8134988e-06,1.1846251e-06,6.945544e-06
0.00013725703,1.71393e-05,6.235319e-07,5.0733934e-08,1.0484669e-05
7.508533e-05,1.5412756e-05,1.1905065e-07,2.6577482e-07,0.0005102082
3.4389027e-06,2.4511432e-06,7.5649587e-07,4.1367795e-08,0.000733143
8.09347e-07,4.991293e-07,7.8984044e-08,2.1738181e-07,1.9918574e-05
6.2926017e-07,6.0696024e-05,1.638727e-08,4.189663e-07,0.004619678
1.3039968e-07,8.2829414e-05,6.233056e-05,2.3354812e-06,0.050666843
1.6828834e-10,1.7238217e-06,1.3099797e-06,0.0,0.047732707
4.504053e-08,0.011319447,4.8558326e-07,1.2259338e-08,0.20278992
1.6185068e-07,0.0014991324,1.426709e-07,3.990384e-07,0.45915437
3.5097372e-07,7.738045e-06,0.0123857325,1.1935774e-06,0.12772872
3.4339098e-07,0.00022583285,0.00075073994,3.3828892e-06,5.8014393e-06
1.5824874e-06,0.02203365,8.481189e-06,0.00051683694,1.0145303e-06
0.0,2.9175849e-06,0.0010726966,0.0003157165,0.00013019318
0.0,0.00055630854,1.3368368e-06,1.0314903e-06,1.6646807e-05
0.0,0.03494194,0.000118801676,6.863256e-06,0.073625036
0.0,0.6952429,4.9826383e-05,1.3372209e-06,0.027107785
0.0,0.48740855,0.001572159,2.1190828e-05,1.6764143e-05
1.9933464e-09,0.0070896307,5.3174153e-07,2.1193796e-06,7.908233e-06
3.5674627e-06,6.233419e-05,0.0,0.0,0.42917603
1.9036092e-07,0.08798939,0.10126787,2.5904037e-06,0.008062594
1.8600038e-07,0.3793118,0.007835644,0.46508676,6.21258
3.828928e-06,0.25740948,0.0002910655,0.20243745,2.427063e-06
7.630818e-07,2.573674e-07,1.0356225e-05,7.3223314e-06,3.2459324e-10
4.810136e-09,1.1208688e-06,6.624065e-05,3.040954e-07,2.94092e-06
0.0,0.012687398,4.528049e-07,8.431174e-05,0.00029209594
2.7709987e-07,1.9155405,0.022144657,0.32780477,0.26174092
4.2703872e-05,0.00040960443,0.13085599,0.002790322,0.0028877
2.0398089e-05,0.001825504,7.108951e-05,0.00036349264,0.21659298
0.03180567,0.74478,0.8350043,0.0008292233,1.2290027
0.7039637,2.2821357,0.0068877414,4.1348653e-07,3.926217
1.1415454e-08,1.382367,0.0006416505,8.713913e-08,0.10415195
5.9211054e-08,0.0018757433,7.5444353e-07,8.891972e-07,0.0010565524
3.36236e-09,0.75079185,1.0414375e-06,6.349606e-05,0.826238
4.49007e-07,0.02163283,6.589987e-05,1.2792676e-05,0.01865465
5.74816e-06,0.050874434,0.000109289445,9.547511e-08,0.030251477
0.087838456,1.4139974e-05,5.5981045e-06,0.0,0.004096392
0.08439978,0.0061058635,1.11842375e-07,5.2328955e-06,0.47601694
0.21021931,0.17314312,1.212016e-06,9.907421e-06,3.030833e-06
2.702664e-08,0.00016261135,2.4667413e-06,6.3611105e-07,1.2621214e-07
8.906329e-08,3.7875162e-07,4.9437457e-08,4.7047016e-07,3.2712708e-06
4.994452e-10,1.7892222e-07,4.5129335e-07,1.1034338e-06,1.2652544e-06
0.0,3.8236216e-05,1.0629085e-06,0.00042101662,0.1493235
0.0,0.0003126335,1.0339282e-06,0.00019925465,0.13212976
0.0,0.006085275,3.6738832e-06,1.0615253e-05,0.029190578
7.91368e-09,0.0051623364,1.3297405e-06,0.0010552643,1.7961374e-05
9.569053e-08,2.6699815e-06,2.5299682e-05,0.19852446,0.015835546
0.0,2.8594286e-06,3.6691702e-07,9.2768363e-07,0.0026655917
1.2921715e-06,1.8885771e-06,1.51962e-08,0.0,0.41289535
6.737163e-08,3.249736e-05,1.7475996e-07,0.0,0.04221926
0.0,0.0023825523,0.0,0.0,3.2176833e-06
0.0,4.5906927e-06,0.0,0.0,0.106395334
0.0,3.6761132e-05,0.0,0.0,0.7182668
0.0,2.0974207e-05,0.0,0.0,4.0134623e-06
0.0,0.0,0.0,0.0,1.3850304e-06
5.0839706e-08,6.770433e-07,0.0,0.0,2.7478177e-06
1.0381577e-06,0.0,0.0,0.0,1.06329e-06
3.2572004e-08,0.0,0.0,0.0,1.5987138e-06
1.9922653e-07,6.287276e-06,0.0,0.0,3.3546885e-06
0.0,1.163278e-06,0.0,0.0,6.1688597e-06
0.0,2.6845146e-06,0.0,0.0,2.3271512e-07
0.0,4.7378433e-07,5.5885376e-09,2.1928543e-08,0.0
0.0,1.1823967e-07,1.2875029e-07,2.4265459e-08,0.0
2.0214186e-07,2.8878144e-06,1.5924772e-07,8.3617573e-07,5.4501946e-08
3.2934975e-09,1.9273411e-06,6.822895e-07,0.00017546747,1.5692892e-06
5.8019033e-08,1.4990804e-06,0.008984425,0.0014116372,7.6618244e-07
2.6518044e-06,1.2200113e-07,0.012240995,0.08338636,0.0
5.3836953e-07,0.0,1.6450203e-05,0.1130366,1.9040532e-10
2.409085e-06,7.867418e-08,0.00831794,0.23644294,1.0884427e-05
4.0416548e-05,2.820901e-06,0.043542963,0.02093822,2.7414548e-05
3.3379503e-05,4.5984652e-06,0.1156576,0.07136999,3.0407948e-06
1.2269417e-05,6.383033e-05,0.018195529,0.43240225,2.3239152e-06
2.7622611e-06,0.04525772,0.349409,0.25201258,2.2208524e-06
2.492377e-06,0.20419544,0.64235824,0.40704906,0.17647177
3.3462264e-05,0.09776496,1.0364351,3.2691052,1.8455663e-06
4.992001e-05,5.0302424e-05,2.4454389,1.4372025,1.4624633e-06
5.666148e-06,9.644481e-07,1.7347013,0.60092735,0.27100617
5.63337e-06,0.65537935,2.6349995,0.002343082,5.2421765
0.81232584,4.5521193,0.63139933,3.2296686e-07,4.162881
2.6637816,4.7251663,6.829138e-06,1.0684003e-06,4.4685426
2.5658264,2.541452,2.3693606e-06,4.515571e-07,0.34794387
3.5867217,0.00033068098,2.7007384e-06,2.0008051e-06,4.1434296e-06
5.5112395,2.0394098e-06,2.0705509e-06,1.6190212e-06,2.6956895e-06
4.9705806,1.4427497e-06,2.5580755e-06,2.1518488e-06,1.7245777e-06
1.9356939,3.7286593e-06,9.855536e-07,3.850894e-07,1.1515632e-06
0.0039771963,1.3939921e-06,3.72793e-07,3.1723248e-06,1.914341e-06
0.022070581,2.9110702e-06,1.9952906e-06,1.739492e-05,1.7625407e-06
0.08859521,3.1644886e-06,1.570733e-05,0.0001476769,0.16540153
2.7668111e-06,0.0007386793,1.7060521e-06,6.227981e-07,0.53045017
7.686316e-07,1.5503364,2.9927935e-07,3.530499e-06,0.8080793
2.8043929e-05,1.0382512,3.0401327e-07,3.2789046e-06,0.73297626
0.00017721087,0.01676455,2.852833e-07,8.034471e-08,0.29303774
0.07971442,0.00037094235,0.01224389,0.030029593,0.5138599
0.0002732387,0.0064886324,0.015197827,0.5470335,0.00020232244
1.294252e-05,4.0588716e-06,0.057854343,0.0012347271,5.0506773e-05
0.0047833016,0.00018760582,0.16017032,0.008423508,7.1555834e-05
5.0129906e-06,0.0013818626,0.1277908,0.03815295,8.138081e-05
0.6397966,2.2026958e-07,0.041484915,0.012303705,1.5511708e-06
0.53202116,0.0,0.0006663848,0.00039054337,2.8484226e-07
1.1751214,1.2604051e-08,0.000288416,0.016314553,1.1577521e-06
0.20350732,0.08007736,0.46017313,0.31674135,2.0840487e-06
0.7260984,0.36415523,0.44510472,0.4803654,0.00012216407
1.1935694,0.0008279872,0.4442581,0.82049876,0.48856175
1.2448049,0.03689588,0.09385311,0.99125856,1.1024264
1.4335884,0.033409383,0.4126292,0.15573308,2.5051877
2.9265916,6.1300407e-06,1.3934978,0.012792925,0.9476674
0.53097266,0.0015885583,0.45808375,0.067596264,0.6173943
0.1410622,0.011513602,0.07866451,0.0003860334,0.01633995
0.32730138,0.00017318557,0.13837068,0.011735016,2.100782e-06
0.016752016,0.0017442392,0.0040996396,0.0001867594,1.6267543e-06
0.00017484342,0.0015900176,0.20623454,0.014943899,3.6775775e-06
0.09729184,2.3466708e-05,0.24254404,0.00068151415,2.0600137e-06
0.20109455,0.00018095865,0.1248329,0.002959771,4.7126614e-05
0.20832676,1.8900328e-06,0.033710577,0.13313843,1.2635306e-06
7.6669065e-05,3.038149e-06,0.011806088,0.32564247,1.3338512e-06
1.944074e-05,1.153852e-06,0.29444942,0.11688604,8.935078e-07
3.290066e-06,1.7290317e-06,0.09840083,0.4977204,2.4539963e-06
7.388598e-07,2.8879344e-06,0.066996135,0.0015066961,1.968706e-06
0.005634991,1.3731183e-06,0.32385507,0.0929237,2.2552686e-06
0.002084268,0.004167134,1.3835744,1.3379628e-05,4.0911464e-06
0.15090021,0.016311996,0.18739904,0.3849293,0.103153095
0.10216788,0.14791858,0.023853267,9.994865e-07,1.4239029e-06
0.085798845,8.753491e-05,0.15955877,0.027737023,1.5263364e-05
0.078079686,1.2834462e-06,0.22340025,0.09971679,0.005431662
0.105533466,0.28152338,0.08469377,0.01950362,3.1900305e-05
0.38326174,0.016539484,0.0024167078,2.6581042e-06,0.0053581907
0.11517192,0.0008659932,0.36196724,0.0021942118,0.09234034
0.49355382,0.00053854723,8.831886e-05,0.0020754694,2.1196525e-05
0.030774694,1.3518543e-06,0.00017771915,0.06699233,2.8807553e-06
0.33022714,0.002504241,0.0070376974,3.4339068e-06,1.3871193e-06
0.65981007,0.0039294087,0.042372603,1.7045775e-06,1.8853093e-06
0.12173259,1.8575729e-06,0.007103499,6.867855e-06,3.4597197e-06
0.0055380603,2.993015e-06,0.002193535,9.9796984e-05,0.18286917
0.0004647292,2.8667612e-06,0.0009898846,1.773886e-05,1.6820637e-06
0.00086890615,0.098158695,1.452148e-06,0.00014668936,0.017014554
1.784652e-05,0.0015359618,5.075068e-07,0.034860842,0.27503514
0.10573859,2.3624264e-06,0.00042421275,7.432647e-05,1.4247438e-06
0.3191784,1.6162882e-06,0.0029713635,1.5603668e-07,2.0933799e-06
1.558759e-05,2.8104757e-06,0.027673999,3.5895113e-08,2.4679707e-06
7.685222e-07,1.1001466e-06,1.8976434e-07,6.585261e-08,2.4390308e-06
0.11665205,1.5624768e-06,5.081422e-05,9.0578885e-07,8.0445784e-07
0.00016465202,3.6515003e-06,2.4373763e-05,2.5163116e-08,1.793641e-06
1.465628e-06,9.552358e-07,1.8072171e-08,7.2248434e-07,1.5395636e-06
0.022284431,5.149141e-05,2.3111005e-08,1.8359507e-09,1.5318889e-07
0.0013175947,8.84092e-07,5.4279594e-09,9.999602e-06,1.4522801e-06
0.19885744,0.39993963,3.7594308e-08,2.764848e-07,6.8032534e-07
0.0062330454,0.0016586399,5.5830895e-07,5.148406e-05,9.4888554e-07
0.04615558,0.0002225455,2.9058162e-08,6.6719645e-06,6.3204857e-07
1.494363e-07,1.7071528e-05,0.0,4.83119e-07,2.6332457e-06
1.15600606e-07,8.551011e-06,2.1892488e-07,5.8644746e-06,1.4940232e-06
1.7001806e-08,0.8982653,3.0496818e-07,1.0628229e-06,1.8700417e-06
6.1759386e-07,0.04305239,8.5314446e-07,7.5407897e-06,1.5257968e-06
1.7335241e-06,0.058458954,2.1667631e-06,5.591996e-07,1.2579737e-06
3.7111733e-06,0.019323025,1.5287064e-06,1.8361922e-06,3.1429192e-07
1.8631332e-06,2.7971246e-06,2.1219578e-06,4.846297e-07,1.0501692e-06
1.1120438e-06,3.7623583e-06,1.6511722e-06,8.7262447e-07,3.0087554e-06
4.0088727e-07,5.986224e-06,4.58056e-07,2.274665e-07,1.3599397e-06
2.4887242e-07,5.6692597e-06,1.8247407e-07,4.50383e-08,2.602902e-06
4.4431526e-06,5.0269628e-06,5.9395934e-08,2.5047187e-08,1.5389793e-06
2.8746857e-07,0.00012294756,3.38515e-07,1.8373361e-06,0.029730204
0.0,0.0003022937,3.1111251e-06,4.0807686e-06,0.016137334
0.0,0.2781112,6.149682e-07,2.9839632e-06,0.056546118
6.730602e-07,0.7798694,1.936399e-07,3.1896986e-06,3.1828677e-07
8.2697534e-07,2.0535506e-06,5.461329e-06,8.422193e-06,2.428199e-06
4.422875e-06,1.6332083e-06,0.028965978,1.35897835e-05,5.842429e-07
0.0004649923,5.584007e-07,9.9815725e-06,0.00017994778,1.327708e-06
0.00065491186,1.4659403e-05,0.031318564,0.020752339,0.3134294
8.3688945e-05,0.15889399,5.5357446e-05,0.08570634,0.04978492
4.0547666e-06,0.27770698,0.000833879,0.96572286,4.8302477e-06
0.059521053,6.8459025e-07,1.4856744e-05,0.16866744,4.5020593e-06
0.21400954,6.7843894e-07,0.0039632223,0.16087292,4.018805e-06
0.3994418,1.4314891e-06,0.20949465,0.4942205,3.377321e-07
0.09843251,5.9103365e-07,3.6477875e-05,0.004044597,7.7449886e-07
0.8274114,5.2233327e-07,3.2729798e-07,0.023430482,9.968808e-07
0.4032125,8.289423e-07,0.5124873,1.0839498,1.2408495e-06
1.3545487,1.9053359e-06,0.004890033,0.1237662,8.905246e-07
1.2667176,1.2511247e-06,1.5114998e-06,9.1077265e-05,1.1030743e-06
0.89230597,1.1521602e-06,0.16898952,0.0036118648,2.8306292e-06
1.0537925,1.6407308e-06,3.2997707e-07,0.71595913,2.4341775e-06
0.0024382677,1.9719512e-06,0.0031330413,0.3290189,1.0295463e-06
9.1329304e-07,9.091556e-06,0.067925915,0.3111409,3.1478155e-06
2.8519507e-06,1.3429819e-06,0.054265503,8.975375,4.525782e-06
8.648123e-07,4.33249e-06,6.203361e-05,2.9028704,4.265412e-06
4.6210662e-05,2.4375752e-06,2.8343675e-06,0.1648612,1.8959022e-06
0.44075897,1.2881086e-06,4.793528e-07,0.13117346,1.4224804e-06
2.4959243e-06,7.747176e-07,5.2231064e-07,2.6675386e-07,2.2155762e-06
0.026625419,1.5070677e-06,0.026314478,2.4418645e-05,4.180342e-07
2.5958743e-05,1.3684705e-06,4.88507e-05,0.1407182,1.3785993e-06
6.3321124e-05,1.8191917e-06,1.6071439e-06,0.100386865,6.9808567e-07
3.2046304e-05,1.32673e-06,0.023756703,0.15920584,8.1134436e-07
1.5944735e-06,1.0023509e-06,0.06548802,0.45283374,5.66896e-07
2.9121404e-06,4.5361205e-07,0.26419726,0.30570662,1.0962159e-06
2.3991324e-06,7.9728017e-07,0.7779677,0.6483758,9.155389e-07
1.3210994e-06,2.2084894e-06,1.236669,1.47238,2.363837e-06
2.2247928e-06,2.6198045e-08,1.6851615,1.7910767,9.982189e-07
0.33962443,1.0010566e-06,0.91265464,0.9854787,0.03808052
2.2339358,0.049665898,0.39127797,0.50298744,0.0012583632
0.08633174,0.010627655,0.96966255,0.7896813,0.0069651166
0.00043300408,8.04544e-07,0.29631788,4.407067e-05,1.7142397e-06
8.466078e-07,2.02907e-06,0.12174885,1.4314835,1.2224255e-06
3.5652496e-07,1.9339395e-06,0.22760226,0.13857234,3.0683218e-06
0.00024204487,8.75697e-07,1.5637508e-05,1.2228884e-06,2.888287e-06
0.42475846,2.762877e-06,1.5720891e-06,5.6946794e-07,4.595401e-06
0.0017927829,0.0018656682,1.0632448e-06,6.5932835e-07,5.0881295e-06
0.43201697,3.544949e-09,2.128133e-06,6.061009e-07,1.8116704e-06
1.4616306e-06,5.2046494e-07,1.4287838e-06,5.961084e-07,0.0
0.025003279,0.0,2.7775654e-06,4.8376495e-07,2.9969385e-08
0.04550742,1.281701e-05,2.4256276e-06,0.0,1.2446677e-06
2.1479623e-06,1.1977002e-05,1.626652e-06,0.0,6.959898e-06
7.809864e-06,2.8569057e-05,1.4819044e-07,1.0911076e-05,1.1441003e-05
6.627248e-07,0.1431999,1.6544405e-07,5.769194e-07,0.000109526045
4.9362643e-06,0.0031648097,1.2254346e-05,1.1530237e-06,1.6311958
2.5740594e-06,9.955762e-07,0.8596889,0.9081152,0.81913257
0.3359033,0.005370058,3.8393295,3.9107482,0.00030314596
0.043578044,4.517493e-06,0.5247276,0.12858906,0.28934377
0.8686829,0.11840042,0.0021621264,0.00058755936,0.87892157
0.7347273,0.0005746405,0.00090091606,0.2707829,0.14506939
0.7337679,1.168176e-06,0.022032613,0.00022104758,2.1527485e-06
0.015308239,1.6663465e-06,0.031950668,9.930752e-06,0.02290337
0.48104686,2.0765292e-05,2.8408718e-07,7.2931556e-08,8.796049e-07
1.0112711,1.0400927e-06,5.380317e-08,0.0,1.8286764e-06
0.8725841,3.7730938e-06,3.401121e-08,7.038247e-07,4.5843603e-06
1.556409,3.4774148e-06,1.3734838e-09,1.1913162e-06,1.2139678e-06
0.28429267,9.946184e-07,0.0,0.0,1.4020827e-06
0.036700893,1.4749776e-06,0.0,0.0,1.121052e-06
2.8035276,1.9376407e-06,0.0,0.0,3.8293015e-06
5.4236325e-06,1.0566623e-05,0.0,0.0,3.330231e-06
1.1808454e-06,2.629898e-06,0.0,0.0,4.576625e-07
2.9958958e-06,2.7669853e-06,0.0,1.278475e-07,8.887138e-07
2.2232126e-07,4.683289e-06,0.0,6.820561e-07,5.6581116e-06
1.5803546e-07,1.9039642e-06,1.3034288e-05,2.2997074e-06,4.2868023e-06
6.180071e-06,5.903751e-07,4.2543643e-06,4.467975e-07,7.9481515e-07
7.124847e-06,1.6593501e-06,1.6486181e-05,2.4819399e-06,4.818754e-07
1.8351136e-06,5.275015e-07,2.8535019e-06,2.7285898e-07,2.1610808e-06
7.110923e-06,1.7468966e-06,8.165197e-07,8.9119945e-05,7.313518e-06
3.3947055e-07,2.7892645e-05,8.9402386e-07,0.004791318,7.713144e-07
1.2988246e-06,1.1897515e-06,9.113317e-07,1.3611536e-05,1.1384662e-07
3.4401035e-07,1.1023483e-06,4.777926e-06,6.6812866e-08,1.6136604e-05
0.0,0.0794505,0.0,0.0,6.451172e-06
6.130048e-07,0.091723755,0.0,0.0,0.00016793283
9.897507e-07,4.2685105e-07,0.0,0.0,0.00017752116
2.8493585e-05,3.0722183e-06,1.1370655e-08,1.7130753e-07,0.00020851329
7.1439295e-05,0.0007030391,6.8598766e-08,2.9299778e-07,0.00044034183
0.000111189205,0.0012602223,4.034487e-07,8.0199655e-08,0.00013130833
0.00011435983,0.00046426602,5.909276e-07,8.614644e-07,0.00052791776
0.00086449774,0.065675,2.617078e-07,6.1628e-08,0.018344708
0.0011967872,0.35243794,9.240675e-08,6.715031e-08,0.022675583
0.00059261214,0.43381855,3.4061532e-07,9.1574684e-08,0.36905274
0.0001589514,0.00011423419,1.2912752e-06,4.4706752e-07,0.06062614
6.7284236e-05,0.0009848868,5.849591e-06,1.8861323e-06,1.076334
0.014420609,4.1515622e-07,1.9224386e-05,1.1694636e-05,0.25435734
0.0009024362,0.06198938,4.8028116e-05,2.0394378e-05,3.3604515e-06
0.0077653104,5.036295e-06,1.2868466e-05,2.2599394e-05,0.44719338
0.00014320874,2.3300279e-06,0.032970876,1.9028239e-05,0.24866666
1.35820055e-05,4.6682652e-07,0.0034226517,0.009014991,0.1258085
0.13582097,6.901391e-06,0.011762123,0.022954727,0.47436312
0.18827415,2.507482e-05,0.16620272,0.01713954,5.2675186e-06
0.060600657,2.560927e-06,0.076567024,0.25015992,7.212668e-07
0.09254786,7.2193357e-06,0.7086942,0.19088088,1.6736477e-06
0.18782368,1.8629997e-06,1.0882261,0.12138003,3.4200275e-06
0.23190427,0.0012384892,0.64701176,0.011917172,5.447741e-06
0.099095896,0.66918683,1.0776193,0.011756073,3.1020802e-06
0.2874451,0.10353349,0.41400844,0.12632935,3.779909e-05
0.071474515,0.052419115,0.20075375,0.1019217,0.0023763194
0.07562607,0.417318,0.0036458967,0.0003663088,0.6267239
0.07238715,0.12823853,1.8825292e-05,1.7524822e-05,0.51476115
0.058874514,0.0033975057,0.0015405084,5.5125236e-07,0.00054830365
0.035492543,0.0032813025,0.011804022,2.0927043e-06,4.00774e-06
0.04613539,0.0008155475,0.023140885,1.521584e-06,4.342856e-07
0.15734147,1.3580463e-05,0.041944113,8.236492e-07,0.0009538224
0.09056592,9.743867e-07,0.02958653,5.630572e-06,0.0003948542
0.08255509,7.7825143e-07,0.028769521,6.1688174e-06,0.007312053
0.07559611,7.699234e-08,0.017905008,5.20078e-06,0.0034526344
0.07736921,2.5832283e-06,0.0022265504,1.1876053e-06,1.964106e-05
0.04556014,6.0978573e-07,2.7617625e-06,1.9975234e-06,1.1741311e-05
0.0809672,9.832556e-07,4.3549422e-05,2.515138e-06,3.3973556e-06
0.089018054,8.921228e-06,0.00011669113,2.522903e-06,9.337589e-06
0.05291165,3.8015678e-05,4.8244324e-06,2.661558e-06,0.14108601
0.031346872,0.5549995,8.331323e-06,9.783786e-07,0.93684196
0.043706596,1.8162608,0.0048285974,4.8063e-06,1.3666734
0.052805133,1.4959954,0.51874244,0.23365118,2.0931501
0.26349586,0.21330832,1.5327885,0.2995762,1.8342842
1.1408912,0.0911513,0.44375974,0.5585203,0.3717921
1.1402248,0.9992773,0.7566453,0.17467548,0.22680843
2.559931,1.2617646,0.28698856,0.09100644,1.1438787
2.9955256,0.03691439,1.1523242,0.4251928,0.088411584
0.95170027,0.006674474,1.2227019,0.87194353,0.076404124
0.80108863,2.1965293e-06,1.3623912,0.77109975,0.012588715
0.20185684,7.983947e-07,1.4443251,0.91555256,0.03200424
1.8949981,1.4468728e-06,0.27182776,0.087589085,0.022796625
0.06654645,0.0015558464,0.03181583,8.802079e-06,0.015443477
0.07077611,6.295281e-07,0.42907837,0.0014699644,2.9249056e-06
0.12509193,2.7728872e-06,0.06946099,7.367192e-07,4.3414207e-06
0.33418754,2.5234235e-06,0.004394732,1.8818854e-06,9.903486e-07
0.14483328,5.9719964e-06,3.3217702e-06,0.00029270817,3.6592036e-07
0.0065090936,1.8615535e-06,9.91733e-07,7.0891315e-06,1.6708759e-06
3.5172274e-05,2.9979608e-06,1.6178337e-06,1.1999491e-06,1.5097795e-06
1.6747232e-06,5.6677745e-06,7.3207634e-06,2.9337207e-06,1.4882725e-06
2.8300376e-06,8.568072e-06,5.5674107e-05,2.2361833e-06,7.5442495e-07
5.600453e-07,2.1938724e-06,0.008145339,0.00045319268,1.5323818e-06
1.420141e-06,2.593732e-06,0.026202686,0.012994976,1.1584135e-06
1.605385e-06,6.4054025e-06,0.08986948,0.010237717,0.009466572
1.866897e-06,8.698599e-06,0.07256922,0.02335404,1.8495315e-05
1.627151e-05,4.79743e-07,0.053621765,0.015426443,2.4217886e-07
2.6779986e-05,4.360824e-06,0.03179591,0.03881319,5.5223296e-05
0.0015268857,9.500519e-07,0.003536672,0.05462807,2.3101138e-07
0.0001451162,5.6120966e-06,6.6472e-05,0.0479972,1.1623704e-06
1.1406469e-05,7.0725937e-06,0.00040373576,0.0054744543,1.7676998e-06
1.3461211e-05,9.328445e-06,8.355903e-05,0.00017574342,2.3903608e-06
6.659918e-05,2.8915869e-05,9.423697e-05,0.000108296925,4.8223237e-06
0.019558407,0.61313385,4.591288e-06,2.4073039e-05,3.0139805e-05
0.032783236,0.32524177,4.473634e-06,1.0118753e-06,0.47349805
0.009097353,0.9540033,4.2409474e-06,2.3610091e-06,0.9740461
0.80484545,2.0788352,7.21911e-06,1.402845e-06,2.3303957
1.6525726,0.08913671,0.18899475,0.004288993,0.30611253
1.6914555,0.05657973,0.5160372,0.49274164,0.076256946
0.307078,1.549778e-06,0.8127359,0.23975955,0.12958369
0.045180593,0.0017305668,2.8225596,1.960155,0.053892817
0.2420359,0.010431498,1.6076015,3.277738,0.012346488
2.6405065,0.00074764533,2.4612665,1.4795305,0.0056518605
0.011053565,5.2596993e-06,3.1465194,1.7124884,1.1267943e-05
1.9821748e-06,8.006216e-07,0.6097036,0.023062622,5.146954e-06
7.308616e-07,0.03986191,0.17198831,0.010554825,1.1874538e-06
0.1275397,5.190394,1.1910871,0.73224497,3.8455546e-05
6.8343365e-07,0.0007924664,0.040576503,2.7576602,1.6622596
8.0823895e-07,4.860579e-06,0.79770917,1.1054485,2.922332
6.208899e-07,4.034401,0.0034073603,4.772011e-07,0.1278588
0.16741523,3.2610202,0.018119283,1.5074592e-06,0.17353572
0.05425543,0.75275695,0.11385578,1.6319627e-06,8.638417e-06
9.833934,0.0014491007,0.2620112,0.3088453,5.1724976e-07
0.0019138888,4.099824e-07,0.2979183,0.00022789997,1.0732265e-07
0.0014556117,4.145337e-06,0.020395296,0.4224596,6.1039214e-07
1.634757e-06,6.572015e-08,0.17749198,0.045220997,1.1967049e-06
1.5062521e-06,5.7745774e-06,0.4137131,0.20025454,2.4229863e-07
6.5568383e-07,1.5035017e-06,0.051322415,0.18085428,3.6704456e-08
4.99488e-07,0.040703002,0.0072509297,0.022510085,0.03346878
1.1207192e-06,9.112234e-07,0.64284295,0.43004656,0.20460965
0.0012403819,1.0777801e-06,0.3221917,0.005691106,4.355449e-07
1.0152798,1.5727445e-06,0.22273779,5.845263e-07,0.00043727685
0.0111992145,3.1975724e-06,0.079709426,2.892985e-06,0.0019778663
0.052754115,0.00010414073,0.022835465,5.2994924e-06,0.6921049
3.1328855e-05,3.070813e-06,0.043741785,0.01274348,0.6966269
0.018665776,2.5946e-06,0.015902804,0.055232834,0.47400805
0.45113096,2.0002417e-06,0.0020927985,0.021136325,0.00028726418
1.1428206,2.4724663e-06,8.732141e-07,0.019597743,5.4431625e-06
0.5279804,2.4152318e-06,0.018887762,0.028680487,2.026323e-06
0.23261306,2.0260109e-06,0.5057917,0.09950883,1.1118934e-06
0.17343393,1.123133e-05,3.1489726e-05,0.04064337,2.46732e-06
3.6514388e-07,5.454804e-06,0.0014305834,0.025218096,1.554051e-06
8.2361424e-07,1.4574201e-06,3.0300334e-05,1.4654674e-06,6.294632e-07
1.2482278e-06,2.1197218e-06,5.875487e-08,5.6778947e-07,9.079876e-07
9.217127e-06,1.1696114e-06,8.4531145e-08,2.7057777e-07,7.195807e-07
1.5676012e-06,4.634006e-06,0.0059654918,5.0255017e-07,7.393169e-06
8.090346e-07,1.4068813e-06,5.02872e-07,1.755236e-06,0.0
1.105243e-06,1.3754866e-06,5.1680254e-05,4.182432e-07,1.9297248e-07
1.1794046e-05,4.1764227e-07,0.8748511,1.2362442e-06,4.2786122e-10
2.3023658e-05,3.9082472e-08,1.8829654,1.0617749e-06,3.6030806e-06
1.2523305e-06,0.0,0.09602433,1.6200393e-06,8.1569965e-07
1.4327601e-06,0.0,0.03181689,6.439411e-07,0.0
1.1893721e-06,3.3011116e-07,7.40007e-07,3.3215818e-07,4.2438143e-07
3.7359948e-06,0.0,9.001242e-07,2.2119807e-06,2.1853443e-06
7.230871e-07,1.8779822e-06,9.300979e-07,2.9267246e-06,6.168813e-07
2.975689e-07,4.5896627e-06,1.4860536e-06,1.3761645e-06,3.412631e-07
4.9716596e-07,4.190341e-06,1.5834404e-07,1.0453241e-06,1.3615002e-06
3.6431058e-07,4.6284782e-07,5.196074e-07,1.3990793e-07,6.08805e-07
7.7078437e-07,2.0574987e-06,2.4403037e-06,0.0,4.1037815e-06
3.857055e-06,1.2722119e-06,5.405386e-07,0.0,4.616546e-06
3.6162e-06,8.684062e-06,1.3922131e-09,8.465574e-09,4.232882e-06
1.5751451e-06,2.535383e-06,0.0,0.0,1.5796307e-06
2.8056447e-06,2.1176465e-06,0.0,4.2273278e-08,6.0443506e-07
2.7315145e-06,2.1971898e-06,0.0,1.4564607e-06,4.1544374e-07
2.3543315e-07,1.0974518e-06,1.5085126e-07,2.3630648e-06,3.1945815e-06
1.2604256e-06,1.6625701e-06,1.644126e-06,3.7451792e-07,3.636124e-06
3.825206e-07,7.982984e-06,8.945551e-07,1.0122921e-07,2.3686996e-06
1.1439005e-06,1.9200145e-06,3.7775965e-07,1.4644695e-06,1.8185901e-07
5.634076e-07,5.5655426e-07,3.2538878e-07,1.126722e-05,1.9266176e-07
0.0,0.0,1.547097e-08,7.4369e-06,9.080595e-08
0.0,1.7472679e-06,7.828223e-07,0.0,4.219095e-08
5.379176e-09,1.8260309e-07,0.0,0.0,1.8755581e-07
2.6273288e-08,4.099101e-09,0.0,0.0,2.2683707e-07
2.9107884e-08,1.10882885e-08,0.0,0.0,1.0045097e-06
5.3182294e-09,1.5999026e-06,7.531821e-10,0.0,5.7732672e-05
3.809701e-09,3.037743e-07,5.5990745e-10,6.16938e-10,3.4587265e-06
9.9390585e-09,7.4718e-09,0.0,0.0,1.0239538e-05
1.0852289e-08,1.1570403e-07,2.8511927e-08,8.491176e-11,9.498681e-06
5.2533777e-09,8.240294e-09,4.8859327e-08,1.4678694e-08,7.984514e-07
1.1305429e-08,5.8972423e-09,8.7216097e-07,2.2374017e-07,4.884427e-08
8.137602e-09,3.834563e-09,5.6848933e-08,6.7071624e-09,3.9215684e-09
1.5053233e-08,9.136485e-09,4.814935e-07,4.299385e-07,2.574733e-09
8.963262e-09,1.3944625e-08,5.29653e-08,1.5073108e-07,6.879395e-09
2.4112404e-07,5.759793e-09,1.0951665e-06,9.2845426e-08,1.424421e-08
3.602733e-06,1.4742043e-08,3.7513226e-07,2.5698364e-07,9.2549355e-09
9.131589e-06,7.10065e-09,2.4463964e-06,9.778489e-07,1.0754899e-08
7.722659e-07,2.1431795e-08,2.8803973e-07,4.3945238e-07,1.0304835e-06
0.0023142968,2.6226028e-08,5.637781e-07,1.4979347e-06,0.0040067337
0.011851768,4.8144506e-07,1.3221713e-06,1.3039288e-07,0.044594686
0.0005685197,2.1231738e-06,1.838475e-06,0.0,3.4794987e-06
5.099377e-08,2.1500551e-07,2.6902069e-06,9.721809e-10,0.0546612
3.26448e-07,9.598128e-07,1.1701406e-06,0.0,0.000115397546
6.811804e-05,5.804767e-07,8.968433e-07,0.0,0.07575408
0.02137088,5.046933e-06,4.4594776e-06,0.0,0.38730586
6.116095e-05,8.844731e-07,1.7593685e-06,0.0,0.14605784
0.26930377,6.139583e-06,8.598625e-07,1.6353402e-10,0.023382304
0.099868305,1.4832555e-06,4.8735083e-06,2.6762754e-09,0.04125946
5.5130196e-05,7.015368e-08,4.1595026e-06,1.2898634e-08,0.0007331173
1.0741184,0.011458852,4.5338516e-06,5.189613e-09,3.408461e-05
0.0006607325,0.001183314,1.3457069e-06,0.0,6.543202e-06
0.57071346,0.25633875,8.866279e-08,0.0,1.4086965e-05
0.0008888706,0.0005074642,1.2707767e-09,0.0,1.326687e-05
0.004723805,1.4146265e-06,1.4926044e-05,4.112404e-09,9.540744e-06
0.0067763883,9.661558e-07,7.4952544e-07,6.0266627e-09,2.330992e-06
0.020240184,8.340282e-07,7.756346e-06,2.4895607e-08,0.0014126061
0.012217024,1.1204642e-07,2.0863588e-06,4.852519e-07,0.0008507301
0.026791139,0.0024811905,2.8582376e-06,1.7611674e-06,3.4710922e-06
0.25999644,0.00011724179,1.1611317e-05,0.00039866264,3.043814e-06
0.0049893535,1.8108283e-05,9.905224e-07,0.2135434,0.0009066581
0.069761254,1.019338e-06,2.9169898e-06,0.3045991,0.2522117
0.060649283,0.21645647,2.7557692e-07,0.064849086,0.015549305
0.13594535,0.007339324,2.1138729e-05,0.038303606,0.51240027
0.119977556,0.1755961,0.00016300453,0.1846418,0.52066845
0.47065163,0.2291884,0.0035093445,0.0005100597,0.02028694
0.0034466202,0.0062379516,0.014284253,0.03460215,6.7042083e-06
0.005647769,0.015368986,0.00016577095,0.05887574,0.16291662
0.05580743,0.019545212,0.012221375,0.2406312,0.00034612467
0.118684255,8.924621e-05,0.0024171774,0.072650425,3.9132387e-06
0.012939765,5.2018666e-05,0.00014171709,0.00012983862,1.5786193e-06
0.05070281,4.6954727e-05,0.00012105371,1.9133106e-06,0.0003215873
0.06069864,0.00030897386,0.0061574923,1.9597455e-06,0.11425434
0.08365802,0.010349858,0.00392481,0.00020089775,0.010457161
0.1126914,0.12070699,1.9264315e-05,1.0695842e-05,0.37648913
0.34748355,0.12041788,0.0045343814,0.0006238476,0.37180212
0.61535734,0.067908265,0.04606556,0.04132615,0.564487
0.38100132,0.0496673,0.09532792,0.0161276,1.204209
0.4160017,0.10858626,0.016044771,4.300017e-05,1.0484595
0.13002804,0.10666561,0.14966004,0.00240571,2.2146606
0.35815373,0.103438266,0.037153684,0.0011296576,1.2666835
0.03343129,0.0670459,0.04367137,5.610928e-06,0.41690016
0.0016206758,0.52124023,0.017403178,0.0013045453,0.29524064
0.001236319,0.32580817,0.054463215,0.00019049292,0.678833
0.2112341,0.1283695,0.01653653,0.00035358348,0.14346966
0.042930182,0.026088793,0.006732493,0.00024155709,0.6796873
0.05862455,0.5777321,0.07775007,0.0012554792,0.54838985
0.011798581,0.47119567,0.018991891,0.00025800682,0.3424601
0.13326727,0.5043243,0.0026563038,0.041626595,1.1662945
0.20764315,0.5471541,0.05150293,0.20170972,1.8327987
1.244067,0.82000315,0.40861416,0.13887072,1.4230454
1.0747172,0.60827744,1.5363379,0.28604463,1.2081048
2.553478,0.5136666,1.8704793,0.30636787,0.7621192
4.245028,0.7450833,0.83479583,0.32921243,1.4291977
1.819271,0.21769333,1.0808563,0.51777864,1.1609099
1.9375894,0.47275233,1.4793766,0.85673493,2.0618522
3.0745718,0.4075449,1.3819966,0.45108554,1.9680609
1.3602868,0.38884357,1.3998576,0.7691386,1.2475924
1.6661345,0.21683916,0.92676735,0.7391674,1.2372637
1.564748,0.0107807,1.0134015,0.95057636,0.6482056
1.8794343,0.17471266,0.51235306,0.612481,0.48393515
1.1971549,0.16713585,0.63645077,0.72639567,6.2829263e-06
1.3063594,1.615673e-05,0.27264357,0.53297466,0.11614297
0.085047275,0.059331965,0.9168944,0.80842656,0.11168575
0.0004368452,0.31066567,0.6720593,0.6235514,0.081025384
3.5136563e-05,0.22154596,0.2931025,0.43826008,0.0002602483
1.3936982e-06,1.2776679,0.08942183,0.6980464,0.002430298
9.60625e-07,9.4477366e-07,0.034055606,0.1430469,0.3845469
8.1308053e-07,1.5802553e-06,0.00042139244,0.029963218,2.8370723e-05
0.09452825,1.0430856,0.00037137137,0.029546615,0.10433879
1.9282461,0.0015252752,0.003924739,0.10881602,0.00017346603
0.00011282234,0.0021713101,0.006930903,0.009766627,0.2878094
2.5201136e-06,0.001252965,2.2231761e-06,0.065563,0.09325538
7.89011e-07,1.3649878e-06,1.3673659e-06,0.06659922,1.148553e-06
5.742225e-07,0.0003449539,6.877187e-06,0.16172352,1.0123973e-06
1.2505632e-07,1.4322844e-06,0.00018295912,0.07655608,4.8172874e-06
1.5090303e-07,3.1716208e-06,0.00012958808,1.9364391e-07,1.6937963e-06
2.089918e-06,2.824071e-06,2.2521656e-06,4.459939e-07,8.5226645e-07
1.3527757e-06,4.7032663e-06,5.3689774e-07,1.8200947e-07,0.0007823449
2.646022e-06,9.789252e-07,8.855317e-08,2.0615791e-09,0.010015161
3.585495e-06,1.7067545e-05,2.6382085e-07,3.7927514e-08,5.072833e-06
1.049581e-05,2.6348425e-06,6.941804e-08,1.2505876e-08,1.4958963e-06
0.002174272,0.1611282,1.8995628e-08,4.426206e-07,8.0105417e-07
0.004584955,0.0013839287,4.7398434e-08,1.9443084e-07,7.824724e-06
0.0010507314,6.5559783e-07,5.321134e-07,1.1045662e-06,9.382729e-07
0.00070660433,0.41758054,1.4137973e-06,1.708444e-06,0.3244519
0.0021845028,0.0046383273,5.144149e-07,8.365896e-07,0.0002961322
0.00460115,0.0031422926,6.21266e-07,1.9043855e-06,4.042041e-06
0.00017045531,1.2422547e-06,7.0130824e-07,6.70721e-08,1.2045226e-06
0.5810577,9.4066127e-07,5.926287e-08,5.673257e-07,1.1606309e-06
8.458965e-05,1.4599839e-06,2.9538532e-07,2.913016e-07,3.4285668e-07
0.0005139171,6.2867235e-07,3.6741414e-05,5.2387173e-07,8.182975e-07
9.903232e-06,1.5950985e-06,3.7148093e-06,0.00020879347,8.1930395e-08
0.5046206,7.61918e-07,0.4162785,0.00029557204,4.6044437e-07
0.24852997,1.0539799e-06,0.015671056,1.7757205e-06,4.2481904e-07
4.6064943e-05,3.924737e-09,2.2255267e-06,0.1827993,0.0
0.00010101511,1.4206434e-07,0.0031836166,0.38326892,0.0
2.8861652e-06,8.96578e-07,0.0043053115,0.36627606,1.186272e-06
1.6658428e-06,4.7250014e-06,0.0012855026,0.027910933,0.0012008448
3.2561982e-07,1.029266e-06,0.037303094,0.013335299,0.00031327287
6.2598056e-06,2.4985622e-05,2.1333585e-06,3.2900238e-07,0.0003367175
3.939596e-05,1.8927716,2.2928978e-06,8.663153e-07,2.491656e-06
0.19551365,7.944404e-06,1.6876204e-06,9.912883e-08,0.00027919706
0.52203983,1.4776232e-06,1.5157539e-06,4.7078636e-08,0.03696314
3.4959634e-05,4.1782127e-06,1.7231282e-07,2.2701909e-06,1.1724229e-06
4.6497394e-06,4.3660836e-07,5.4794486e-07,5.490185e-07,1.7560928e-06
0.1455136,2.3899702e-06,4.8393763e-06,0.0006740873,1.0351821e-06
0.00017679301,2.573238e-06,6.7050546e-06,2.077123e-06,9.427328e-07
0.0039901426,2.2154925e-06,3.7020553e-07,2.3618302e-08,2.0232142e-07
5.2569912e-06,9.053471e-07,9.609189e-07,8.934291e-07,1.094469e-06
4.464612e-06,4.7464226e-07,3.175085e-07,1.7183318e-07,7.7743954e-07
0.0004286292,9.76503e-07,8.6812366e-07,4.333032e-07,1.336165e-06
1.3750381e-05,3.9240965e-07,1.9602016e-08,0.0,1.5402214e-06
9.446128e-07,3.3165727e-06,8.102733e-07,5.0693016e-10,1.466561e-06
1.0195686e-06,4.743067e-06,0.0,0.0,6.2124735e-07
0.0,1.3788454e-07,0.0,0.0,0.0
0.0,3.8763787e-07,0.0,0.0,0.0
3.7592908e-06,7.9389935e-07,1.2855429e-06,2.3120866e-07,5.699895e-09
1.2526822e-05,7.758668e-07,5.294452e-06,7.518123e-08,1.2708854e-07
2.6999264e-06,0.0,0.0,1.808008e-07,0.0
4.0650357e-06,0.0,5.1563575e-08,5.2619316e-07,0.0
1.6613313e-06,0.0,6.6210373e-07,6.798875e-06,0.0
4.1263117e-08,0.0,1.4697167e-06,4.2832957e-07,1.6139002e-07
1.397631e-07,4.6929447e-08,5.166539e-07,0.40282485,8.427012e-10
3.1400695e-08,4.1176536e-06,0.25897804,0.09275013,2.729509e-06
0.0,5.7651996e-06,2.9158515e-05,0.01144789,1.1588853e-05
8.375836e-07,6.651285e-05,1.0654981,3.697988e-06,1.6251148
1.0791327e-05,8.4765094e-07,1.054642,0.2579858,0.16161226
0.25025323,4.767491e-06,1.2495186e-06,4.1208364e-06,0.17291568
0.027514694,0.0007386007,1.6923641e-08,0.0,1.8656564
3.647391,9.711594e-07,1.8446213e-08,8.8996055e-10,4.1953363e-06
0.013616525,7.3019424e-07,7.062215e-08,4.6875914e-07,1.8494126e-06
0.33373728,4.5861193e-06,9.984471e-08,1.3425716e-08,1.6420892e-06
9.811408e-05,1.382836e-06,3.262752e-07,1.3700678e-07,2.6753103e-06
0.00205535,7.688795e-07,2.743912e-07,4.7075764e-07,3.5034677e-07
0.0022300603,2.2857866e-06,2.3290495e-07,1.0451073e-07,2.1425942e-07
0.05539988,4.1521545e-07,1.210985e-07,6.102591e-08,3.1316944e-08
0.27591664,4.8546358e-08,1.5090016e-07,6.002442e-08,4.515425e-07
4.8149727e-06,6.223121e-07,1.5325468e-06,1.2026431e-05,5.1024394e-06
0.0006963058,3.3406088e-06,2.8709924e-06,8.888509e-07,0.077078626
0.7615144,2.15669e-06,3.39941e-06,2.6158034e-06,1.8415187e-06
1.2573143,3.0597512e-06,2.1675519e-06,1.9694016e-06,1.9913e-06
2.3598034,2.2295953e-06,1.6798302e-06,1.8282358e-06,1.5642493e-06
3.033284e-06,1.269443e-06,2.834152e-06,4.3179452e-06,3.3640051e-06
1.7249694e-06,2.701688e-06,3.7439963e-06,4.185938e-06,0.043095604
1.5369314e-06,2.915084e-06,6.3427574e-06,3.1471636e-06,4.2399192e-06
5.037756e-06,2.5598963e-06,2.1337887e-06,5.179619e-07,2.212821e-06
0.0012671914,3.2128103e-06,9.200837e-07,2.3335645e-06,1.4682695e-06
4.4805212e-05,1.6521014e-06,2.9122114e-06,1.0793307e-06,5.036475e-07
1.5617992e-06,6.388048e-07,1.1076642e-06,9.626133e-07,8.8403453e-07
3.304535e-07,4.5635566e-06,5.5275046e-07,2.030277e-07,2.5351953e-06
3.5078796e-07,9.871264e-07,1.7718331e-07,2.7072474e-07,1.9501535e-06
5.232527e-07,5.8123956e-06,1.1511439e-06,1.2730038e-06,4.6365303e-06
1.9796188e-07,1.7895946e-06,5.918178e-07,4.772864e-07,1.2578338e-06
1.5516459e-07,2.0696928e-06,8.1871013e-07,9.394634e-08,1.5173899e-06
8.122859e-07,3.0244503e-06,2.2191423e-07,9.527638e-08,4.519619e-07
4.437998e-06,1.1266123e-06,5.6524822e-08,3.2331087e-08,0.42806336
9.421312e-09,3.8792896e-06,2.6425786e-07,3.1685096e-07,0.25662306
0.0014979398,2.2652196e-06,1.699838e-07,3.5881752e-07,1.3103189e-06
0.00982475,0.0002425581,3.380789e-07,0.0,1.3977898e-06
3.1406165e-07,8.9511457e-07,6.900724e-08,2.6985862e-07,1.424802e-06
1.1044774e-06,4.9420655e-06,7.874978e-08,0.0,1.5145598e-06
2.0381423e-08,5.3992363e-07,2.7602746e-07,0.0,1.1869218e-06
5.0565042e-08,2.3969671e-06,1.1864792e-07,0.0,2.9448038e-06
7.317466e-09,6.338812e-08,3.344209e-07,0.0,1.5640272e-07
1.2246156e-09,2.2358317e-06,6.9383793e-07,1.0299939e-06,1.5742341e-06
3.7584078e-07,1.7902615e-06,1.3298334e-06,2.0089992e-07,6.380664e-07
8.5124736e-07,0.0005654627,1.8573417e-06,1.8861457e-06,4.102065e-05
2.2771935e-06,9.225657e-08,3.3457843e-06,4.0277698e-07,2.103279e-05
2.846154e-06,7.399898e-08,1.1077183e-06,4.870359e-06,2.3759958e-06
0.041654658,6.8940933e-09,1.9095183e-05,0.000300201,3.707091e-06
0.04851566,5.987837e-08,4.461888e-06,1.9098293e-06,8.417151e-07
7.44345e-07,1.4282265e-06,1.160027e-06,0.00059855543,1.69302e-06
3.7463628e-06,3.0684495e-07,0.017095666,0.0019232373,1.1941571e-06
2.410846e-05,1.2360188e-08,0.18139476,6.854819e-07,9.1292014e-07
1.4510929e-05,4.3626587e-06,1.0761155e-06,1.0222664e-06,0.00393799
5.7572106e-07,4.8265238e-06,9.9669954e-08,9.644718e-07,0.27782395
3.770118e-06,5.108506e-06,1.524082e-07,5.857917e-07,0.07776172
