"[299, 255]","[227, 248]","[287, 319]","[279, 328]","[230, 262]"
5.277094e-05,4.0346663e-07,6.4439895e-08,5.9151386e-09,1.2779824e-06
0.27086517,1.1767203e-06,1.4457565e-07,4.5033931e-07,8.401942e-07
5.909443e-07,1.9531142e-06,4.1145682e-08,7.0812653e-06,2.1291581e-07
2.907651e-07,1.3851748e-06,1.0834152e-06,1.4789797e-06,2.3022274e-07
2.4424885e-06,2.4409062e-06,3.5494836e-07,1.8527845e-07,2.118412e-07
1.0416128e-06,4.4854926e-07,0.0,9.607202e-07,1.04234076e-07
2.3544962e-06,1.5415044e-06,6.2032655e-08,1.3843314e-06,7.675867e-07
1.6032194e-06,1.2681029e-06,8.948365e-07,1.542595e-06,9.839043e-07
7.0007616e-07,3.3999158e-06,7.1024215e-07,3.7534796e-06,0.09288691
4.625589e-07,8.641061e-06,2.3802834e-06,4.7662465e-07,7.6692834e-07
9.597587e-07,1.6692492e-06,1.9712838e-06,2.4933363e-06,7.9191836e-05
1.2692718e-06,3.5470878e-06,3.0179647e-06,6.363254e-06,0.21711648
3.6188828e-07,3.2328535e-05,2.4242505e-07,1.1589484e-06,0.043710727
1.8261248e-06,0.0007547775,2.1880612e-06,5.586902e-06,0.11607901
2.5688234e-06,9.268815e-05,9.48486e-08,7.63064e-06,6.3591746e-05
1.8413267e-06,0.1908049,2.310744e-06,4.4106973e-06,6.1422645e-05
3.094334e-05,0.00018918882,5.0550415e-07,2.5029192e-06,0.0028299713
3.176654e-06,0.00033285248,3.019611e-07,9.122215e-07,0.00023477049
3.02571e-07,0.0004656067,4.633392e-07,7.5877807e-07,0.000722871
0.0022965695,6.0633843e-06,1.6144729e-06,2.8879679e-06,0.00047430283
1.481221e-07,1.6687149e-05,1.6239815e-06,2.1861497e-06,0.00040374903
1.820158e-07,9.878205e-05,9.145837e-06,2.2528998e-06,3.714774e-05
2.7636423e-07,0.00010520946,1.1639506e-05,1.5642473e-06,4.6757603e-07
1.1631339e-07,8.553086e-07,1.9618805e-05,2.499143e-06,6.159149e-07
3.1967846e-07,5.885006e-05,7.234537e-05,5.056734e-05,2.7924446e-07
1.006278e-06,2.4716869e-07,0.00011604939,0.000109425266,2.0348159e-07
1.0821954e-06,1.8407498e-07,1.5560767e-06,0.00013088294,5.081369e-07
1.8288553e-07,8.9120396e-05,2.1276321e-06,1.9631376e-07,2.6131357e-07
2.4684225e-06,0.00052422244,1.2240267e-06,2.0958755e-06,0.0029537417
5.604155e-06,0.019889263,8.35342e-07,2.838096e-07,0.02043045
6.144387e-07,8.6170825e-05,1.4484326e-06,1.1071127e-06,0.016248675
8.607921e-07,3.4955764e-07,1.8346972e-06,1.0315578e-06,1.5346175e-06
0.03460842,4.366048e-07,5.4599177e-06,0.0340668,1.8098882e-06
1.4107485e-06,6.927339e-07,0.0842895,0.09381283,6.2539476e-07
0.08059784,1.4727161e-06,0.0008008395,0.009396946,1.527306e-06
0.031597774,6.74862e-07,0.08375174,0.016578417,2.041577e-06
0.036898173,9.828763e-07,0.016219676,0.1781321,2.7151847e-07
4.2864303e-05,7.367295e-05,0.037402097,0.12643756,7.7622116e-07
3.617547e-06,3.948348e-06,1.2951947e-05,1.4173437e-05,7.760069e-07
2.1932556e-06,0.015073563,0.0038458693,0.0001439748,0.44134927
3.7875866e-06,1.0694625,0.013998191,0.002208173,1.2126743
5.5984758e-05,2.0195513,0.21110865,0.00046343636,1.5880139
0.24312635,1.0181007,0.19105129,0.014619644,2.696838
1.1740224,0.4144237,0.1604249,0.0006624616,3.9469
0.327304,7.7601835e-05,0.14101997,0.18820694,4.717803
1.5994216e-05,0.28138036,0.2549379,0.2942369,5.8208113
1.265465e-05,0.1670285,0.60750806,0.6717772,7.0179653
0.05325866,0.6424016,0.5229211,1.0003781,3.4599473
1.1469711,2.8843539,0.5268816,0.58847356,6.6395717
2.361094,1.8840395,1.5353678,1.2892624,3.6160116
5.841838,2.1899664,1.6412293,1.9191822,2.8584096
5.0896688,1.3466104,1.5706204,1.4730555,1.6342732
2.1963298,0.29325378,0.28315967,0.74514526,0.014780421
0.8670413,0.00097943,0.3923965,0.56858814,0.0058461167
0.21775079,0.00014182538,0.5186975,0.1203067,0.004267489
0.25141248,0.000104943516,0.10930262,0.045892935,0.0016390891
0.25599593,0.0002143412,0.0139276795,9.4707315e-07,0.00026157842
0.09913497,0.00018501119,1.4300574e-06,1.6847763e-06,1.223779e-05
0.014142254,3.482427e-05,2.9237822e-06,1.38071e-06,9.701364e-06
1.2350862e-06,6.389616e-06,1.7595437e-06,1.8456473e-06,1.0622853e-05
2.0031898e-06,1.096809e-05,3.7058007e-07,2.5913994e-06,5.5752193e-06
1.5499447e-06,6.5483014e-06,1.893005e-06,1.0327948e-06,7.770004e-06
2.7097443e-08,0.3502706,4.4858027e-07,1.1930458e-06,0.83899474
0.04259137,0.037820354,3.205397e-05,1.4343466e-06,2.0385506
1.7592722,0.00010922058,0.008046466,2.5679838e-06,0.30269918
0.5970234,0.0014567529,0.041289646,2.100819e-05,0.19420193
0.17433134,0.006007494,0.28220332,0.47011498,0.026636051
1.0570542e-05,0.010828251,0.24773677,0.9789543,0.035240423
6.620719e-06,0.016426783,1.4738039,0.7913243,0.045432556
2.6445307e-06,0.026146973,1.1441607,4.8939214,0.059606295
1.0715598e-06,0.021026026,0.87266517,0.9056107,0.06372085
2.207231e-06,0.027289864,2.5492425,6.5269117,0.06322347
8.3118175e-06,0.017925937,3.229288,0.4366268,0.04776235
6.3879966e-06,0.01500785,1.5843349,0.078526326,0.08039048
8.538296e-07,0.019236544,0.36616173,0.08552428,0.07643755
1.0321541e-05,0.049090814,0.21972547,0.07503393,0.12380973
9.11194e-06,0.030946298,0.14323267,0.014602755,0.030433927
0.001047087,0.0053688562,0.06328827,1.2149179e-06,0.0035530245
0.0007494391,3.17123e-05,0.0023133892,1.0863096e-06,4.1869275e-06
0.0070984145,3.7836219e-06,3.3735562e-06,2.6198036e-06,2.1286148e-06
1.2500624e-05,2.108024e-06,9.057336e-06,2.9134333e-06,3.1378981e-06
8.020801e-07,1.4571697e-06,0.00019736517,1.4764001e-06,2.0938912e-06
1.394739e-06,2.3349226e-06,1.3769775e-06,4.576623e-07,3.6680942e-06
3.1330355e-06,3.8630697e-06,3.6923e-06,3.2047183e-06,1.7676049e-06
1.5110013e-06,4.2772167e-06,5.080308e-06,5.082482e-06,1.551908e-06
1.5262501e-06,1.9704062e-06,4.086286e-06,4.7194712e-06,1.9967767e-06
5.41708e-06,9.319036e-07,1.9004189e-06,3.664019e-06,2.5071108e-06
5.2471264e-06,1.0430373e-06,3.487709e-06,2.58246e-06,7.211655e-07
5.6428485e-06,3.623569e-06,1.6167951e-06,1.9179024e-06,1.5149393e-06
5.379859e-06,2.2274749e-06,1.0846153e-06,2.5372874e-06,4.64638e-06
3.91633e-06,1.8040301e-06,4.8041744e-07,1.2121723e-06,1.0333669e-06
6.3632515e-06,2.7854096e-06,1.038765e-06,1.2004623e-06,2.9201233e-06
3.5162066e-06,5.530218e-06,1.6213254e-06,1.9966735e-06,2.6469686e-06
8.654711e-07,2.444413e-06,3.3342252e-07,1.4762875e-06,5.687273e-06
2.47496e-06,4.0755044e-06,3.0429087e-06,3.2434625e-06,2.3188172e-06
1.3751632e-06,4.6918362e-06,2.5866875e-06,0.00041331194,4.2827487e-06
1.4061171e-06,3.0002338e-06,9.6398566e-05,3.4510106e-06,1.978685e-06
2.4458304e-06,2.6674434e-06,0.011822713,1.4485721e-06,1.1462157e-06
2.7657707e-06,2.9393211e-06,2.5984268e-06,9.4855113e-07,2.146669e-06
2.0165812e-06,2.3659359e-06,4.5908658e-07,1.4803128e-06,3.6733104e-06
1.5701439e-06,4.1806816e-06,4.5560324e-07,6.3355606e-07,3.2660557e-06
2.6671112e-06,9.679471e-07,1.7051882e-06,1.6198917e-06,1.8629974e-06
0.12581183,0.0012083321,5.3874186e-07,2.9671517e-06,9.2047577e-07
0.00015070224,1.9740662e-06,1.1079585e-06,1.285428e-06,5.9387105e-07
1.2766839e-06,1.4013342e-06,1.191356e-06,9.2926336e-07,6.217204e-07
1.5255579e-06,1.1700694e-06,1.0932183e-06,2.3269538e-06,6.459359e-07
1.2008721e-06,3.580469e-07,2.9750934e-06,2.4620374e-06,0.10060786
0.1732853,2.5994015e-07,0.93813026,0.0051069832,1.6077487e-06
0.022415489,2.6989355e-06,0.68931645,0.105370626,8.2679077e-07
1.7192493e-06,1.3599595e-05,0.3197443,0.1765136,5.8530645e-07
1.1610765e-06,5.7890315e-06,0.009540109,1.7214671e-06,6.698684e-06
1.3875201e-06,5.0944864e-06,0.63279486,2.126096e-06,2.5760295e-07
3.1880502e-06,3.1359846e-06,0.0053384965,0.019681014,7.2714397e-07
1.5519881e-06,0.030265372,1.4806162,0.14046615,2.0538957e-06
0.012054571,0.03473287,3.5702868e-07,2.2339275e-06,7.543553e-06
1.757127e-06,2.0146745e-06,4.9400177e-07,2.0808668e-05,0.12569535
7.7463784e-07,4.179048e-06,1.2302947e-06,5.112945e-07,6.823548e-07
1.216988e-06,1.2060005e-06,1.2022956e-06,0.0752622,0.0026952391
0.6473035,1.1790916e-06,3.3922709e-07,1.7818031e-06,1.5891195e-06
1.8014996,4.9256556e-07,9.5115087e-07,8.0766597e-07,6.2011776e-07
2.5796514e-06,4.5932934e-06,9.10818e-07,2.5245527e-07,1.2731355e-06
1.8602044e-06,2.232829e-06,2.0440323e-08,3.5308645e-08,6.4611254e-07
3.7048875e-07,1.0070692e-06,2.2230398e-07,3.6204592e-06,8.801979e-07
2.1779158e-07,1.4530781e-06,5.2417005e-07,1.0975933e-06,4.249827e-07
2.2029305e-06,1.0505856e-06,1.1785479e-06,3.704842e-08,1.0923486e-06
7.2340126e-06,2.139069e-06,6.673227e-07,3.537742e-07,1.4803337e-06
1.7981208e-06,1.4159008e-06,3.8913626e-07,1.0115535e-06,3.0078388e-07
1.5668938,3.9450474e-06,2.5470888e-06,1.2553454e-06,2.720931e-06
0.45614186,2.222015e-06,3.4971874e-06,1.2823176e-06,3.15719e-06
0.111146025,3.3329403e-07,3.6179604e-06,7.998748e-06,8.1405886e-07
6.593989e-06,2.97564e-07,3.213294e-06,0.11375264,5.5941166e-07
0.8320094,9.606823e-07,0.1416132,1.5663841e-06,8.451944e-07
1.8252504e-06,3.2514922e-08,2.2658094e-06,2.5817174e-06,2.0734552e-07
1.3577028e-06,1.4698555e-06,6.9310175e-07,1.2824446e-06,1.3197773e-06
1.4243979e-06,7.348205e-06,0.0071257064,1.4706433e-06,1.131888e-06
2.6969515e-06,9.636882e-07,0.015190595,0.005983682,1.1034259e-06
7.366113e-07,2.648333e-06,0.7287611,1.9394213e-06,1.5756785e-06
0.044859737,3.9798924e-06,1.0177932e-06,0.04432969,1.633985e-06
2.2922673e-06,1.1429975e-06,0.47889674,3.2910314e-06,8.842888e-06
1.107385e-06,3.6736894e-06,4.4740336e-06,1.1793419e-06,5.011451e-05
1.9087988e-06,6.376186e-06,2.498415e-06,2.1152446e-06,6.9862347e-07
1.0488186e-06,1.7150247e-06,5.4752394e-07,7.284868e-07,1.39542e-06
3.1480786e-07,1.6319427e-06,8.0634095e-07,2.3167293e-07,1.9284253e-06
1.9000223e-07,8.9532654e-07,6.325485e-07,1.5747266e-06,1.0800239e-06
6.034714e-07,3.6674944e-06,1.023075e-06,7.073058e-07,2.082451e-07
1.805033e-07,1.9715383e-06,3.3323224e-07,2.8422988e-07,1.0419377e-07
1.9285325e-07,2.127097e-06,1.5491971e-06,8.1621806e-08,2.840493e-07
1.6510165e-07,3.774814e-06,1.9237672e-07,2.5876344e-07,1.8729239
2.3575933e-07,1.720523e-06,1.322605e-06,5.294091e-08,0.065850645
2.8470092e-06,4.2797305e-07,1.095662e-06,3.5026923e-07,4.8113084e-06
1.5318718e-06,2.5624315e-06,8.2867155e-07,8.606091e-07,2.0333996e-06
2.725749e-06,4.0784434e-07,1.3295585e-06,2.0602217e-06,1.5752938e-06
5.9910322e-05,1.4463841e-06,1.3536305e-06,2.0259993e-06,1.7718169e-06
0.05427805,4.9317105e-06,2.557682e-07,8.7276885e-06,1.7533318e-06
0.00010885695,9.019951e-08,2.5246177e-06,2.0410895e-05,1.7167134e-06
0.6048005,6.0191036e-07,8.458556e-07,3.7074427e-05,4.772622e-06
2.2738388,4.354147e-07,0.15882888,1.3129905,1.288084e-06
0.0019290092,3.1729883e-07,0.046173364,0.056130297,4.2546867e-06
1.4880519e-06,3.5892058e-06,2.4196477e-06,3.3323433e-06,5.379136e-07
1.3258272e-06,4.046419e-06,1.5080856,0.12567474,7.476666e-07
2.937554e-06,6.0108555e-06,0.02093394,2.4767266e-06,8.6138596e-07
2.6679143e-06,5.8643054e-05,3.5479256e-06,3.0519855e-06,3.4868341e-07
2.7886003e-06,2.2293612e-07,2.7329747e-07,1.0648179e-06,2.1300863e-07
6.301004e-07,9.1142164e-07,2.3350665e-06,6.0766006e-06,2.3039718e-05
3.2172414e-07,3.331015e-07,6.2088434e-06,4.368397e-07,1.5554622e-07
5.3228587e-07,5.8682633e-07,5.5912545e-07,1.3838065e-06,6.997469e-07
1.6693116e-07,1.0189646e-06,2.1343424e-06,3.8291514e-06,5.138028e-07
3.478565e-08,1.8426759e-07,1.3967936e-06,1.8046254e-07,6.2246176e-07
9.74451e-07,1.9124526e-07,2.794546e-07,1.3777382e-06,7.154797e-07
1.3779784e-06,7.218889e-07,4.673718e-07,8.4611645e-07,4.6324143e-07
5.1769734e-07,4.701134e-07,1.5352765e-07,4.6652215e-08,6.5626796e-07
1.8052351e-07,4.191525e-07,1.2571263e-07,2.5836595e-08,4.570388e-07
2.8375804e-05,5.159658e-07,1.892251e-07,1.5798365e-07,5.485915e-07
5.5067426e-06,5.0727914e-07,1.4952167e-07,2.757824e-07,7.810809e-07
3.7337322e-06,9.113427e-07,1.358612e-06,9.882237e-07,8.671984e-07
9.925652e-07,9.3915634e-07,1.4235505e-06,3.0671386e-06,5.763113e-07
0.5358091,7.2790397e-07,0.00071587355,1.1976551e-06,1.2457351e-06
0.89543766,1.4545651e-06,1.1112822e-06,0.05150648,7.8779493e-07
2.4725698e-06,1.7654384e-06,0.0005371213,0.54241824,0.7210989
1.6047453e-06,0.23260355,2.509212,0.060539264,1.3610611
0.07273076,0.019186318,0.22053932,0.165046,1.4700373
0.45160982,0.59818995,0.26729044,0.057722207,1.6349257
0.7504307,0.8322813,0.13055766,0.1052425,1.7327639
0.06608662,0.7406408,0.38483956,0.41976023,1.8022069
0.8604496,0.81037337,0.77020806,0.56420946,1.8451666
0.84826934,1.2911528,0.38374525,0.47019932,2.4917614
1.0865898,1.5688902,0.447425,0.2156652,1.2363902
1.2188524,2.4409502,1.0170878,0.19732158,2.4860917e-06
1.1622205,2.2637167,1.2766255,0.17035104,9.068682e-07
1.1222284,0.61168045,0.22177227,0.017732328,0.8298925
1.4860073,1.0067502,0.0018733672,0.11653163,3.2955382
1.5116564,2.2013936,0.0023956867,0.64253116,2.0152574
1.8323013,3.0474284,1.5221798e-07,6.640073e-07,0.60800594
1.7605852,3.0029466,0.00021262141,4.788333e-07,2.6227146e-06
1.7185297,0.26311138,0.06569322,4.471642,0.0032803796
3.857366,6.9911516e-07,4.648433e-06,1.5417552,5.79619e-07
2.1095624,5.491061e-07,2.5437103e-07,3.3118106e-06,5.411278e-07
0.00016474628,2.4787857e-06,3.5221706e-07,4.0642684e-07,3.9804598e-07
8.51614e-07,8.294033e-07,7.2277294e-07,0.43004292,9.70004e-07
1.330363e-06,2.9489146e-07,8.918561e-07,1.620597e-06,8.382929e-07
1.788668e-06,3.0798745e-07,2.1599776e-06,1.4863975e-06,1.5814888e-06
1.9912053,4.4537563e-07,0.022935655,1.1864008e-06,1.8389977e-06
0.014352871,1.0361035e-06,1.1777624e-06,0.011476101,1.6288117e-06
8.645479e-07,8.044004e-07,2.033244e-06,0.0017469323,1.2979591e-06
1.7956027e-06,4.687552e-09,1.6536143e-06,0.107748166,3.8064417e-07
2.0530665e-06,5.0487343e-09,2.9736277e-06,9.1775297e-07,5.683077e-07
1.616874e-06,2.6129456e-07,4.7123917e-06,1.0892448e-06,1.4172867e-06
6.326612e-07,1.3178937e-06,3.3696958e-06,2.197443e-06,4.996695e-07
6.460918e-07,5.6107365e-06,1.4878009e-06,6.905037e-07,1.9116206e-07
3.8887506e-06,1.8176364e-06,1.0390386e-06,5.328043e-07,2.5231861e-06
1.4223053e-06,7.346474e-07,2.027906e-06,5.5062605e-07,4.5963907e-07
1.3959072e-06,3.257743e-07,2.132146e-06,1.7531448e-06,3.608534e-06
3.6362237e-06,6.1823414e-07,2.7826327e-06,9.439162e-06,1.7441307e-05
2.4348412e-06,7.639333e-07,1.0761019e-05,2.9222338e-06,2.141512e-07
2.4853605e-06,5.964945e-07,7.870591e-06,2.6175243e-07,9.596798e-06
7.733198e-06,2.6114364e-07,1.6983422e-07,2.2473196e-07,1.7174914e-05
1.0280501e-05,4.502468e-07,2.0906313e-07,2.1284572e-07,1.1056188e-06
6.1668675e-06,3.55738e-07,4.5986944e-08,1.977407e-07,3.006461e-07
2.9199407e-06,5.256022e-07,1.0795765e-06,1.5097146e-06,6.953241e-07
2.3557056e-06,1.9493846e-06,5.176452e-07,1.4078734e-06,6.969562e-07
2.04722e-06,3.104604e-06,4.960298e-07,1.7082306e-06,2.6681626e-06
2.1915778e-06,4.0847685e-06,1.9442665e-07,6.253546e-07,2.1905053e-06
7.998433e-07,2.0279601e-06,1.3880904e-06,1.4939849e-06,1.0882549e-06
8.042776e-07,9.137351e-07,1.3943989e-06,1.8896006e-06,1.4658608e-06
1.3456137e-06,1.9931625e-07,1.3208607e-06,2.7936662e-06,3.7995108e-06
1.8204538e-06,1.7391001e-06,6.017263e-06,1.1182577e-06,4.242187e-06
1.7069138e-06,1.6442044e-06,5.8970767e-07,1.2917993e-06,7.3139944e-07
8.695411e-07,2.8379493e-08,0.03865931,1.2358939e-06,9.1305054e-07
2.8760555e-06,1.4732894e-09,0.0012493386,7.7011634e-07,1.8003153e-06
1.2010545e-06,1.1719602e-08,3.6387624e-05,1.155205e-06,6.416196e-07
4.2744563e-07,1.3759802e-09,4.1806056e-06,3.453161e-06,0.0
1.297871e-06,1.5495836e-07,6.3795926e-07,5.6280516e-07,0.0
6.558173e-07,2.652239e-07,3.596414e-06,9.648054e-07,0.0
2.6708178e-06,2.9146681e-06,6.7073865e-06,5.1674675e-07,0.0
6.130193e-06,2.0626796e-06,9.855284e-06,1.6625045e-05,4.3757797e-07
4.427497e-06,2.6872329e-05,1.892599e-08,1.23997615e-05,6.158773e-05
6.382496e-06,4.35256e-05,2.6364398e-07,3.6567235e-07,7.078969e-05
3.6032054e-06,6.4361247e-06,1.6089215e-08,4.477326e-07,0.07661108
3.343586e-06,0.32009384,2.3883354e-07,3.0858675e-06,0.0011061886
6.504425e-06,0.30689052,1.4070323e-08,1.8083456e-05,0.18117261
8.206155e-05,0.27677637,3.7699265e-06,6.3916063e-06,0.3268449
0.0002510601,0.76645553,0.00032475722,0.0015176832,1.2743716
6.279149e-05,1.3310398,0.0003315477,0.001243217,0.9445947
0.0002652569,0.71678466,0.0030024243,0.00025223204,1.0355715
0.0015095779,0.5048571,0.45221063,0.8070151,1.6074451
0.7570247,0.40493658,2.0260284e-06,0.25462943,0.87479544
0.41124433,1.0140741,0.0068580983,0.8504313,1.1797881
1.4357383,0.26114848,0.026828486,0.08515538,0.23267956
0.33492798,0.3154658,0.15333503,0.0053858645,0.21438396
0.33013505,0.30159354,0.36369103,0.07979932,0.122519106
0.028444339,0.38840613,0.32042357,0.09389915,0.12699912
2.7269266e-06,0.20492096,0.3569774,0.19625999,0.27165332
5.288275e-07,0.08383427,0.37225825,0.1553382,0.067805775
1.3960777e-06,0.31835133,0.48062012,0.14554413,0.022943925
0.000102700884,0.10483501,0.43647036,0.07953688,0.017918332
2.0533764,0.113326736,0.51654726,0.038012188,0.034574233
0.58752936,0.104449295,0.70742947,0.050336346,0.10207013
0.50386935,0.20420869,0.6618691,0.031762928,0.08361261
0.8902578,0.011129652,0.27011034,0.040936146,0.048693452
3.1909442e-06,0.048566468,0.26135778,0.051049907,0.06012089
7.936733e-06,0.03429444,0.48278657,0.175479,0.033440012
3.2696436e-05,0.019686295,0.39743665,0.0028724936,0.013194251
0.0020740875,0.0051124124,0.48810205,0.015851535,0.004121705
0.032116942,1.4911681e-05,0.30340922,0.0048762504,3.9262377e-06
0.068734415,4.8104616e-06,0.18641584,0.0010256636,5.49373e-07
0.065600805,1.0734918e-05,0.23486923,1.0006732e-05,0.08842148
0.11719572,2.4500146e-06,0.091249846,0.00834982,0.015524062
0.20891291,1.2005957e-05,0.06497718,0.0063143065,1.0902538e-06
0.04080337,9.47815e-06,0.03067675,0.052527204,4.898079e-06
0.00049533,2.7954477e-06,0.028628774,0.0021082107,3.7916882e-06
1.9652487e-06,2.2695461e-07,0.011189489,0.018471703,5.646771e-06
6.2147647e-06,6.530866e-08,0.00044765283,0.023993745,8.149181e-07
4.001617e-06,4.089155e-07,0.008412239,0.026474593,1.4060558e-06
6.259671e-05,6.753079e-07,0.00017262743,0.02967701,8.4000186e-07
1.5767267e-06,5.750943e-07,2.862597e-06,1.9915935e-06,6.9386994e-07
1.8753087e-06,1.8190453e-07,4.641549e-06,2.1976643e-06,1.8026177e-06
2.975723e-06,3.0647516e-07,3.2934986e-06,2.3371213e-06,1.9175202e-06
3.521361e-06,1.0874897e-07,5.269915e-06,1.6580422e-06,0.19630758
1.521669e-05,2.1974733e-06,6.345473e-06,2.0048594e-06,0.0014009995
0.0015562909,7.6613566e-07,3.6609295e-06,2.8106854e-06,1.7463103e-06
7.0673076e-07,7.0630426e-07,6.0288994e-06,1.8827329e-06,1.7283405e-06
1.7020947e-06,1.2317182e-06,6.3996963e-06,1.8176904e-06,1.9696536e-06
0.028533865,2.6440553e-06,3.2903763e-06,1.8060381e-06,1.0276754e-06
0.015293299,7.966043e-05,1.4945774e-06,6.126852e-07,7.6599e-06
9.277108e-07,0.043549135,4.4526922e-07,1.0938826e-07,5.0836015e-06
2.0027871e-06,0.19149038,2.051554e-06,4.1150897e-06,5.931451e-06
2.0510865e-06,2.2631566e-06,1.0610316e-06,5.0285413e-05,3.8128471e-06
1.5803009e-06,6.584252e-06,2.580111e-06,2.6182047e-06,1.1635465e-05
5.1216753e-06,1.0743958e-05,1.1482329e-06,6.45246e-07,8.065449e-06
6.656858e-07,7.1677778e-06,1.7744777e-07,2.968421e-07,7.878053e-06
6.042251e-07,6.1755793e-07,2.8849368e-07,2.9314807e-08,8.440891e-07
4.0222932e-07,1.0248577e-05,7.7997015e-07,1.4528375e-06,1.5713207e-06
1.3581671e-06,1.5520012e-06,2.974728e-08,1.1258334e-05,1.6678638e-05
9.380802e-06,3.7400455e-06,8.3240735e-07,8.174887e-06,9.70563e-07
3.2973267e-06,1.0773323e-06,1.9501456e-06,7.863999e-08,9.964e-06
8.698231e-07,1.4136834e-06,2.4694382e-05,2.3261865e-07,4.287015e-06
0.00011100495,1.7690775e-06,8.07532e-05,7.074748e-06,1.0945683e-06
0.038411506,5.884059e-07,5.2934243e-05,6.2728345e-06,1.0298558e-06
2.5225372e-06,1.2786829e-06,0.07117561,2.6098332e-05,2.5373656e-06
1.8450315e-06,3.3373158e-06,0.001124674,0.12925242,1.9272243e-06
2.2056552e-06,2.3622333e-06,0.16110143,4.456976e-06,1.8670445e-06
2.5028464e-06,2.2796096e-06,0.087012924,1.8936275e-07,5.265019e-07
2.4712815e-06,1.1358595e-05,0.072878085,5.4723596e-06,1.2010444e-06
1.03944025e-07,0.002417445,0.6160557,0.53729606,0.0005010616
9.4628274e-07,0.014873962,0.17939945,1.486293,0.0020140242
7.1191666e-06,0.015237781,0.5012141,0.9463242,0.02425784
0.59096897,3.2746404e-06,0.39749542,1.206236,0.03777057
0.012271875,3.1667537e-06,4.7268486e-08,0.1857701,2.2580287e-05
1.7215093e-06,9.915791e-06,0.13137966,2.7293265e-06,5.916154e-06
1.1767018e-07,1.7970365e-06,0.1701724,4.561007e-06,4.3715017e-06
0.0050054807,1.9415954e-06,0.0021274078,0.7856544,8.231462e-06
0.011655103,4.412654e-06,0.08848351,0.54063344,0.00031961474
1.3270637e-06,0.01709838,0.16324276,0.4932155,0.020213986
1.8013475e-06,0.058359854,0.17399386,0.006446987,0.065575
1.0623555e-05,0.12658054,0.13857692,0.025546286,0.1540547
0.062078726,0.07179324,0.31585637,0.0005830136,0.16218798
0.090830915,0.039370466,0.14417772,0.059063938,0.08000651
0.030445047,0.03783846,0.1380649,0.0653317,0.041478068
0.0166057,0.015624056,0.035208248,0.047511723,0.027699195
0.0073229503,0.009282862,0.0076643378,0.050457433,0.026101874
0.002468429,0.0072879815,0.031655706,0.032674555,0.010236245
2.292291e-05,0.004180686,0.03619584,0.02510125,1.633497e-05
0.00030691322,0.0011173584,0.052140567,1.6507807e-05,6.769198e-06
0.006956531,9.464202e-06,0.047390535,1.8069296e-06,1.4288653e-06
4.99437e-05,5.511122e-07,0.006019351,1.984922e-06,2.1536746e-06
0.0008705823,1.2883908e-08,4.0611278e-05,1.0860014,1.7387232e-06
0.0077552665,3.3839103e-06,3.0349665e-07,0.86396766,1.0064837e-06
0.00029823603,4.8108615e-07,1.2528577e-06,0.117257245,2.7776648e-06
0.024876714,1.077585e-06,1.7767803e-06,0.34477463,1.0315985e-06
0.0075620385,1.0193494e-05,1.3011327e-06,0.056442827,1.1773512e-06
0.000315339,6.57818e-06,1.07418e-06,0.025815511,1.1480045e-05
3.4429838e-06,3.8662415e-06,1.8337913e-06,0.009839168,2.6032227e-05
1.2205078e-06,5.4198936e-06,0.06313688,0.001788743,3.3451468e-06
5.423383e-08,1.1743754e-05,6.6524626e-06,8.9651236e-05,3.5707753e-06
6.7332794e-06,1.6822098e-05,0.00016264817,2.2638238e-05,5.5083065e-06
7.971268e-06,2.983965e-07,0.0018949109,2.3470189e-07,1.7313764e-06
4.1481502e-07,7.3407064e-06,4.3139135e-06,2.314241e-05,5.3340154e-06
6.524474e-07,2.601972e-05,1.8242127e-06,0.0014110361,1.4892799e-05
8.2464294e-07,2.4987845e-05,1.4605039e-08,4.8460333e-07,0.0009839085
1.2597629e-06,7.2501853e-06,1.8965663e-06,2.2915754e-06,0.0014431527
9.570669e-08,4.842111e-06,1.4662894e-06,3.584496e-06,0.0001335265
1.8315048e-07,1.6490584e-06,9.4011517e-07,2.6638622e-06,1.3365505e-05
2.8118592e-07,1.2327164e-06,9.340723e-07,3.7722793e-06,3.743464e-06
5.2916386e-07,5.77831e-07,1.0387384e-06,6.613839e-07,1.5142592e-06
6.150733e-07,7.79629e-08,9.770433e-07,1.6828657e-06,7.8421726e-07
2.9432215e-06,1.6566337e-05,2.2113265e-06,4.3268574e-07,3.0765864e-06
3.0369378e-07,0.0001283946,1.4582546e-06,3.6621898e-06,1.936847e-06
1.2585492e-06,2.9968616e-05,6.112573e-06,2.882839e-06,6.824415e-07
3.5206167e-06,3.5133485e-07,5.3659614e-06,0.11987298,2.4021368
2.8915888e-06,0.26956102,6.6629156e-07,0.047036365,0.00010227793
2.199112e-06,0.91106206,6.267034e-07,4.266651e-07,3.08559e-06
0.006105761,2.2677817,0.023317015,1.3453721e-06,0.01360737
7.818393e-08,1.0117219e-06,1.654934e-06,1.2650715e-06,1.0986813e-05
2.9974835e-06,0.01276653,1.6427682e-06,1.7652693e-06,0.031389266
5.9496133e-06,0.01962819,0.01206045,5.1098227e-06,0.037727572
4.20497e-06,0.008881319,0.059355766,0.04496008,0.03520415
0.0824667,0.008938856,0.04820191,0.01622342,0.09181033
0.41673186,0.004733798,0.10153724,0.020546716,0.20462272
0.112495944,0.032490432,0.043037802,0.00011284146,0.278418
0.00092277426,0.038233303,0.016551523,2.9210617e-06,0.17635028
0.058363736,0.00053773134,0.005037644,6.4383814e-05,0.020668333
0.16093105,0.0003568464,0.0004845725,2.6420465e-05,0.01897425
0.28332716,2.979281e-07,2.4080504e-05,3.001541e-06,3.9584143e-06
0.42093128,2.3917255e-07,0.00027924328,1.2120452e-06,3.7488908e-06
0.20742407,4.7648145e-06,0.0002236306,0.012288707,2.9946652e-06
0.2500782,0.0027873982,4.3789405e-05,0.023477718,1.1019912e-06
0.27898684,0.012836242,4.3726955e-06,0.0022717777,1.0681345e-06
0.35422388,6.0151768e-05,1.2333384e-06,0.015112879,2.920046e-06
0.29631057,9.67198e-07,1.0962142e-06,0.003914863,0.008130819
0.09932753,4.9502313e-07,1.942742e-06,6.0295442e-05,0.0026538032
0.10093468,6.288626e-08,4.4805918e-05,3.53867e-05,6.485637e-07
0.02488755,3.0367667e-07,1.6567651e-06,3.6159463e-06,1.7844454e-06
2.7755582e-06,9.766296e-07,1.574223e-06,5.0640133e-06,1.4370706e-06
0.03334475,1.0930812e-06,0.00010358975,2.8592567e-06,5.605796e-07
0.0015763489,5.5227947e-06,2.5710742e-06,0.022491034,6.1308724e-06
4.0038317e-06,9.17711e-07,2.1512997e-06,7.679611e-07,0.014185775
4.388177e-06,1.0645019e-06,2.7015736e-07,3.871483e-06,1.6113557e-07
1.4480576e-06,9.133032e-07,2.1366898e-06,1.2063499e-05,3.3704703e-06
2.8279856e-06,2.9056378e-06,2.1673745e-06,2.3955502e-06,3.327485e-07
1.2146118e-06,4.1381427e-06,1.2151335e-06,2.396617e-06,7.710232e-07
1.4579155e-06,4.2781853e-06,1.2312721e-06,3.5305327e-06,4.774959e-07
1.4980542e-06,3.788556e-06,1.8288558e-06,2.9955372e-06,5.4402644e-06
2.092329e-06,8.926917e-06,2.125456e-06,0.0055943546,5.599347e-07
1.6005787e-06,1.4977625e-06,1.9588701e-06,1.5926674e-06,3.3922772e-06
3.7160378e-06,2.248839e-05,3.0892659e-06,8.984197e-07,8.2349345e-07
1.0807678e-05,6.1353026e-06,6.4838457e-07,1.4625438e-06,3.862437e-06
0.010101746,7.954673e-07,4.0458957e-07,1.4870622e-07,6.7536956e-07
4.6887913e-06,8.7339475e-07,9.930367e-07,7.339885e-07,1.2066199e-06
4.1853455e-06,3.3954548e-05,5.2322605e-07,1.0661918e-06,9.602882e-07
2.2735696e-06,1.6395185e-06,1.9504755e-06,1.1599042e-06,2.3034297e-06
1.382294e-06,6.78257e-07,1.7706131e-07,1.5773111e-06,4.6559967e-07
1.642385e-06,1.5969939e-06,1.9142124e-06,1.955907e-06,1.837416e-06
2.0271896e-06,3.758671e-06,1.605681e-06,2.246572e-06,1.2050015e-06
0.087011725,2.2248407e-06,1.4066876e-06,4.4710764e-06,2.40474e-06
0.02609375,1.4813635e-06,1.8650677e-06,5.1189836e-06,9.379775e-07
0.011764031,7.460971e-07,9.870844e-07,1.9605399e-05,2.5305012e-06
0.11616333,8.6349955e-06,2.4264077e-06,4.704508e-06,4.8096166e-07
6.58168e-06,2.707067e-06,1.2495333e-06,0.011771025,4.3168807e-06
1.0880349,0.00050162204,2.5338275e-06,3.5442424e-06,1.8652414e-06
0.00016106112,7.714879e-06,1.1507315e-06,1.7738131e-06,1.3402403e-06
1.6145851e-06,1.5019423e-06,0.006067319,2.4768045e-07,8.223127e-07
2.4037947e-06,6.6205826e-07,0.4828879,1.1121607e-06,1.0881343e-07
3.2142862e-06,4.0737186e-07,5.841101e-06,1.131723e-06,2.4320374e-07
2.472249e-06,1.0458724e-07,7.3266654e-07,6.9414154e-06,1.9758e-06
1.7123489e-06,4.02873e-07,4.295533e-07,5.8694477e-06,6.3283496e-06
1.1029247e-06,3.4015115e-06,7.573611e-07,1.1355405e-06,1.1643423e-05
2.4651547e-06,2.3747689e-06,3.4361207e-07,1.0097122e-06,3.316469e-07
2.4028059e-06,6.2391985e-07,1.0185996e-07,2.0419527e-06,5.9488666e-06
1.8753212e-07,4.6352816e-06,4.317408e-07,6.983393e-06,9.146443e-06
3.0724047e-07,2.0144605e-06,0.009541725,0.00013781434,1.7172451e-05
7.814133e-06,9.904888e-08,0.059158783,4.514956e-05,8.4166254e-07
0.0007399594,1.5194777e-07,6.288943e-06,2.441114e-05,6.2946456e-06
0.0007609445,7.874913e-06,2.9002779e-06,1.8406607e-05,4.9550786e-06
7.4103446e-06,4.2081446e-08,7.506216e-08,2.0314074e-07,9.123234e-07
2.6809735e-06,9.3181285e-07,1.1651731e-06,1.0704711e-06,4.775801e-06
1.4536542e-06,2.8320624e-06,1.4891252e-06,3.326724e-06,1.1009801e-06
2.1514413e-06,4.334924e-06,2.1750054e-06,5.182656e-06,3.0692352e-06
2.1008423e-06,1.1521853e-06,2.6521795e-06,1.4834707e-06,3.305326e-06
2.5751472e-06,0.0,2.4471826e-06,1.8520847e-06,7.309751e-07
1.3779805e-06,2.0662006e-07,1.6182446e-06,1.6573027e-06,7.2896506e-07
4.038394e-06,6.595805e-08,2.2415834e-06,3.8869225e-06,1.4730574e-07
4.7685753e-06,3.881891e-07,3.3755798e-06,1.0198083e-06,1.4618371e-07
1.3921689e-06,7.615257e-07,2.4315482e-06,1.299978e-06,1.2486923e-10
1.9977142e-06,2.5865118e-08,1.231761e-06,3.741788e-07,0.0
5.9926074e-06,1.4046981e-07,1.6236365e-05,0.0,0.0
2.4711592e-06,7.6816153e-10,1.1221809e-05,0.0,0.0
2.7500678e-06,0.0,2.947392e-07,0.0,0.0
3.3830142e-06,0.0,2.220857e-07,0.0,0.0
1.3505473e-06,0.0,0.0,0.0,0.0
8.1459234e-07,0.0,0.0,0.0,0.0
1.3265675e-07,0.0,0.0,0.0,0.0
1.5498186e-08,0.0,0.0,0.0,0.0
7.952344e-08,0.0,0.0,0.0,0.0
1.2094563e-10,0.0,0.0,0.0,0.0
0.0,0.0,0.0,0.0,0.0
0.0,0.0,0.0,0.0,0.0
0.0,0.0,0.0,0.0,0.0
0.0,0.0,0.0,0.0,0.0
0.0,0.0,0.0,0.0,0.0
0.0,0.0,0.0,0.0,0.0
0.0,0.0,1.921725e-07,1.0290728e-06,0.0
0.0,0.0,8.2773107e-07,4.4839678e-07,0.0
0.0,0.0,3.5361242e-07,0.0,0.0
0.0,0.0,4.6563276e-08,0.0,0.0
0.0,0.0,1.9625075e-09,0.0,0.0
0.0,0.0,0.0,0.0,0.0
3.1710576e-10,0.0,0.0,0.0,0.0
0.0,0.0,0.0,0.0,0.0
0.0,0.0,0.0,0.0,0.0
0.0,0.0,0.0,0.0,0.0
0.0,0.0,0.0,0.0,0.0
0.0,0.0,0.0,0.0,0.0
0.0,0.0,0.0,0.0,0.0
0.0,0.0,0.0,0.0,0.0
0.0,0.0,0.0,0.0,0.0
0.0,0.0,0.0,0.0,0.0
0.0,0.0,0.0,0.0,0.0
0.0,0.0,0.0,0.0,0.0
0.0,0.0,0.0,0.0,0.0
0.0,0.0,0.0,0.0,0.0
0.0,0.0,0.0,0.0,0.0
0.0,0.0,0.0,0.0,0.0
0.0,0.0,0.0,0.0,0.0
0.0,0.0,0.0,0.0,0.0
0.0,0.0,0.0,0.0,0.0
0.0,0.0,0.0,0.0,0.0
0.0,0.0,0.0,0.0,0.0
0.0,0.0,0.0,0.0,0.0
0.0,0.0,0.0,7.603284e-09,0.0
0.0,0.0,0.0,3.132139e-07,0.0
5.1374473e-06,0.0,0.0,3.3724285e-07,0.0
4.835498e-06,0.0,2.5366982e-09,3.515784e-07,0.0
0.0,0.0,4.7352023e-06,6.298993e-07,0.0
0.0,0.0,1.0045541e-06,4.457076e-09,0.0
0.0,0.0,6.402311e-06,6.80236e-08,0.0
0.0,0.0,4.973906e-07,8.802196e-07,0.0
0.0,3.2550034e-09,0.0,2.44682e-07,1.6229365e-11
0.0,1.5891945e-07,0.0,2.8400813e-09,8.599462e-08
0.0,0.0,0.0,0.0,4.945292e-09
0.0,0.0,0.0,0.0,0.0
0.0,0.0,3.242363e-10,0.0,0.0
0.0,0.0,4.20653e-09,0.0,0.0
0.0,0.0,0.0,0.0,0.0
0.0,0.0,0.0,0.0,0.0
0.0,0.0,0.0,0.0,0.0
0.0,0.0,0.0,0.0,0.0
0.0,0.0,0.0,0.0,0.0
0.0,0.0,0.0,0.0,0.0
0.0,0.0,0.0,0.0,0.0
0.0,0.0,0.0,0.0,0.0
0.0,0.0,0.0,0.0,0.0
0.0,0.0,0.0,0.0,0.0
0.0,0.0,0.0,0.0,0.0
0.0,0.0,0.0,0.0,0.0
0.0,0.0,0.0,0.0,0.0
0.0,0.0,0.0,2.259318e-09,0.0
0.0,0.0,0.0,1.4956635e-11,0.0
0.0,0.0,0.0,0.0,0.0
0.0,0.0,0.0,0.0,0.0
0.0,0.0,0.0,0.0,0.0
0.0,0.0,0.0,0.0,0.0
0.0,0.0,0.0,0.0,0.0
0.0,0.0,0.0,0.0,0.0
0.0,0.0,0.0,0.0,0.0
0.0,0.0,0.0,0.0,0.0
0.0,0.0,0.0,0.0,0.0
0.0,0.0,0.0,0.0,0.0
0.0,0.0,0.0,0.0,0.0
0.0,0.0,0.0,0.0,0.0
0.0,0.0,0.0,9.040032e-08,0.0
0.0,0.0,0.0,7.441338e-08,0.0
0.0,0.0,0.0,1.0256961e-09,0.0
0.0,0.0,0.0,0.0,0.0
0.0,0.0,1.5957836e-08,3.850192e-09,0.0
0.0,0.0,2.081112e-07,3.5156657e-07,0.0
0.0,0.0,4.749724e-08,1.8367504e-07,0.0
0.0,0.0,3.0910652e-09,1.125405e-06,2.6159244e-09
0.0,0.0,1.4390311e-07,0.0,1.4148471e-10
0.0,0.0,1.9146249e-08,3.6507645e-06,6.7960464e-09
0.0,2.9694908e-07,4.1617056e-07,2.5566708e-06,0.0
0.0,1.4612032e-05,1.0805057e-07,1.0361293e-06,7.402425e-08
0.0,1.7629618e-06,6.618273e-08,7.5466683e-06,4.246912e-07
0.0,1.1993423e-07,2.7616982e-06,4.58933e-06,2.3552693e-07
0.0,0.0,1.5254174e-06,3.0023573e-05,0.0
0.0,0.0,1.3958246e-06,3.141074e-06,1.0353971e-09
0.0,0.0,1.2107947e-06,5.956759e-06,6.152557e-07
0.0,0.0,7.8134207e-07,4.0109748e-07,4.2553467e-07
0.0,0.0,1.2771159e-06,1.01168e-07,0.0
0.0,0.0,3.624199e-08,0.0,0.0
0.0,0.0,9.900982e-08,0.0,0.0
0.0,0.0,2.4909122e-08,0.0,0.0
0.0,0.0,0.0,0.0,0.0
0.0,0.0,0.0,0.0,0.0
0.0,0.0,0.0,0.0,0.0
0.0,0.0,0.0,1.1115067e-08,0.0
0.0,0.0,0.0,1.9662618e-06,0.0
0.0,0.0,2.2467069e-07,0.0,0.0
0.0,0.0,3.061199e-06,0.0,0.0
0.0,0.0,0.0,0.0,0.0
0.0,0.0,0.0,0.0,0.0
0.0,0.0,0.0,0.0,0.0
0.0,0.0,2.7271346e-06,0.0,0.0
0.0,0.0,2.5721813e-06,0.0,0.0
0.0,0.0,1.23300815e-05,0.0,0.0
0.0,0.0,6.9868192e-06,0.0,0.0
0.0,0.0,0.0,2.51189e-08,0.0
9.910032e-07,0.0,0.0,6.4464224e-08,0.0
3.1742383e-07,0.0,0.0,6.178201e-07,0.0
4.072472e-06,0.0,2.5268876e-10,1.1783436e-06,0.0
7.049011e-07,0.0,2.0702748e-07,0.0,7.712829e-07
2.7471216e-07,1.2638577e-07,7.082822e-07,3.7686765e-10,8.4951964e-08
0.0,6.821655e-07,3.6033932e-06,1.8631864e-08,1.3015208e-06
0.0,7.0370754e-07,1.569643e-05,8.3026407e-07,2.0702857e-06
0.0,5.2553554e-07,3.5284936e-06,4.6371832e-07,3.6357028e-07
0.0,1.1978335e-06,9.040659e-07,1.5085756e-07,7.98766e-07
1.2777899e-09,8.115783e-07,1.3123099e-08,1.0148434e-06,1.6541695e-07
6.858034e-07,3.9871275e-06,4.837364e-07,5.1130616e-08,5.297273e-07
6.7783317e-06,3.185331e-08,5.7302337e-08,1.9835421e-07,3.3415194e-08
4.117929e-06,2.025917e-06,3.3293425e-08,3.7813885e-07,1.2937218e-06
5.5144307e-07,2.154199e-06,9.2978235e-07,3.9760172e-07,2.614195e-06
9.815247e-07,2.248322e-06,7.9533004e-07,2.6473085e-06,5.617879e-07
1.4157339e-06,1.3962224e-06,5.774312e-07,1.6452216e-06,1.2960058e-06
1.2337523e-06,1.6545381e-06,1.6039816e-06,1.1067365e-06,2.1809904e-06
3.5168011e-06,1.77047e-06,2.6426621e-06,4.665218e-06,4.3441776e-07
1.663973e-06,3.605493e-06,4.015209e-06,1.0681351e-06,8.351487e-07
1.7067871e-06,0.0,4.9481156e-07,1.7127929e-06,0.0
6.175844e-07,0.0,1.4471031e-08,1.434689e-06,0.0
3.1569193e-06,0.0,2.1016657e-08,1.7714653e-06,0.0
2.951063e-06,0.0,1.931662e-06,1.0906131e-06,0.0
4.490459e-06,4.1054036e-09,1.6594402e-06,1.5737398e-05,0.0
1.5753336e-06,2.568063e-07,5.6090553e-06,4.754993e-07,5.7269235e-06
6.537527e-07,0.0,2.85428e-07,2.533909e-07,6.033006e-06
3.5230362e-06,0.0,1.0845274e-06,5.1804926e-07,1.0005673e-05
2.9452206e-06,0.0,5.0760684e-07,2.8368916e-06,1.515795e-06
3.3784472e-05,3.6022577e-08,7.6285045e-07,2.118082e-06,5.7834785e-07
1.6388012e-05,3.4518777e-07,2.7128874e-06,1.8302667e-06,1.1227324e-06
5.1460254e-05,7.6850426e-07,7.699939e-06,1.0521483e-05,5.77391e-07
5.0707433e-07,1.3031294e-06,1.5773317e-07,1.9463118e-06,1.0551857e-06
1.5054866e-05,8.138777e-07,5.643339e-07,8.777344e-09,9.0201667e-07
1.3083426e-06,1.6459725e-06,2.3387606e-06,4.421678e-09,7.746982e-07
3.8741236e-06,7.073046e-06,3.5299723e-07,7.000442e-08,8.479936e-07
5.7547686e-06,8.193054e-07,6.128672e-07,1.1595259e-06,1.9029366e-06
1.6727928e-06,2.9915611e-06,1.4544732e-06,1.8575467e-06,6.8640173e-07
2.4341878e-06,3.1428747e-06,1.4823889e-06,8.951921e-07,2.9282614e-08
1.7708081e-06,3.9179142e-07,2.0759405e-06,2.4414444e-06,1.0977016e-06
1.2383753e-06,4.550178e-07,2.7644512e-07,3.0105539e-06,1.3500597e-06
1.2854699e-06,1.4758365e-07,7.5976413e-07,4.836415e-07,1.700742e-07
1.7248676e-06,9.805301e-08,4.0463317e-07,6.999445e-07,9.057227e-07
3.6171682e-06,0.0,1.1504952e-07,2.57385e-07,9.527607e-07
1.5375994e-06,0.0,0.0,1.1405868e-06,8.6715164e-07
5.718779e-08,0.0,6.050447e-08,2.8530944e-06,0.0
6.9355736e-11,0.0,1.5648656e-06,2.6244809e-08,0.0
8.791146e-06,0.0,8.414815e-07,6.0182987e-07,0.0
5.8715323e-06,2.5973065e-10,4.6419063e-06,1.5040454e-06,1.3214978e-07
1.9265695e-05,1.4354028e-07,2.7188935e-07,4.8106594e-06,1.7305888e-08
0.0,8.505624e-07,3.7023717e-06,7.4154006e-05,0.0
6.113758e-07,3.2142263e-05,0.00020513358,2.2527998e-05,4.7965408e-08
3.6638406e-07,2.4221428e-05,0.00020470268,0.00020751494,1.2211569e-05
3.2312587e-07,2.14403e-06,3.6695343e-05,5.2936775e-07,3.7702281e-07
1.4417975e-06,7.5328376e-07,4.204534e-06,3.992193e-06,6.9571104e-07
1.4102582e-06,2.8164206e-06,3.0242713e-06,4.5038832e-06,5.0804493e-07
1.254845e-07,7.976676e-06,4.7130366e-06,6.9285886e-07,1.3438536e-07
1.4901259e-06,6.7489384e-07,9.730987e-06,1.2427809e-06,1.6819156e-08
4.3667897e-06,1.4693109e-07,2.0439888e-06,3.5956539e-06,1.1888552e-07
2.97429e-06,1.2724358e-07,1.2644826e-06,5.958517e-07,9.0206044e-07
3.2625273e-06,2.402748e-06,2.3292066e-06,1.0878972e-06,1.2844646e-06
2.2041422e-06,6.7971465e-05,0.009142495,4.7196667e-07,5.508608e-07
9.0455325e-07,1.0065634e-05,2.1480957e-06,9.55553e-07,7.5009746e-07
1.7676133e-06,5.191721e-07,2.1270546e-06,1.0388278e-06,6.3191605e-06
7.6219266e-07,6.2452506e-07,7.655738e-06,2.5388038e-06,2.0341615e-06
7.1122133e-07,4.0093378e-06,1.5440182e-05,1.2151754e-06,9.950804e-07
2.587066e-06,7.9058043e-07,7.906548e-06,2.928539e-06,3.5871838e-07
0.00012672944,6.577001e-07,7.065426e-07,2.6921687e-06,9.404747e-07
0.0003526913,4.1765147e-06,1.7788378e-06,2.9154578e-06,5.6668277e-06
0.00015440787,1.6558311e-05,3.0671147e-06,1.7343315e-06,4.053975e-06
0.00012918371,6.082934e-07,2.5864022e-06,3.3968836e-06,1.60916e-05
5.3017295e-05,1.6376878e-05,1.4895951e-06,3.2968435e-07,2.2621818e-05
3.6599208e-06,4.792532e-06,2.3541247e-06,3.7278623e-05,2.8631839e-05
3.282368e-06,1.9083202e-06,1.3896771e-06,2.9066546e-06,8.269038e-05
4.107133e-06,1.2424271e-05,1.92546e-06,3.8970707e-06,9.849208e-06
4.729124e-06,9.1573265e-06,1.3470632e-06,1.0988423e-06,3.2670293e-06
3.8337691e-07,1.1471618e-06,1.9409367e-06,3.4461002e-06,1.6280353e-06
2.3814516e-06,4.455571e-06,1.7101944e-06,1.4848797e-06,4.9041514e-06
9.106099e-07,6.60086e-06,1.5517297e-06,1.7273966e-06,2.360937e-07
1.6619257e-06,2.7810545e-06,6.657861e-07,1.0314526e-06,9.0102515e-07
7.49477e-07,1.2647841e-06,8.155245e-07,1.3494638e-06,1.3138741e-06
1.6156487e-06,2.255834e-06,4.4891995e-06,4.3653735e-08,2.3945122e-06
0.0018633365,0.013455742,1.5249548e-06,6.690031e-07,1.2934528e-07
0.006787992,6.9483813e-06,3.510259e-06,1.9139438e-06,9.858735e-07
0.044676628,1.3262364e-05,1.1687863e-06,2.6322857e-06,9.028296e-05
0.230869,1.5153795e-05,1.2649207e-06,1.8546524e-06,0.015640566
0.73696303,1.8035533e-06,3.3333895e-06,3.2723362e-06,0.06246986
0.047306538,3.7032562e-06,1.9914135e-07,3.0309984e-06,7.142128e-05
0.022588633,0.1419314,7.944108e-06,2.5906963e-06,2.6172142e-05
3.531596e-06,0.030559437,2.675246e-06,3.6701948e-07,4.2495694e-06
2.6068406e-06,0.00028355944,3.1679099e-06,2.0627288e-06,2.995132e-06
1.7015153e-06,8.138784e-07,4.7183086e-05,3.9415468e-06,8.612476e-05
0.0001637648,4.416055e-07,7.4526097e-06,6.95497e-07,1.0267988e-06
0.09580147,1.0803938e-06,4.563751e-06,4.294386e-06,6.404314e-07
0.0016992764,1.6613427e-06,7.5918007e-07,2.8431975e-06,1.5210957e-06
0.0021088733,2.8122983e-07,2.3391713e-06,2.7931105e-06,1.6216405e-06
5.787768e-05,6.2555177e-06,2.711313e-06,2.1286345e-07,8.604574e-07
0.0030538666,1.4432657e-05,8.866145e-07,1.3906453e-06,6.162187e-07
1.6236205e-06,1.346576e-06,4.4989702e-07,5.8188853e-08,8.9994273e-07
1.6271672e-06,1.5671295e-06,8.615758e-07,0.0,6.9529534e-07
1.2807401e-06,6.164854e-07,1.6801503e-07,0.0,1.186585e-06
1.497684e-06,9.546182e-06,1.8505385e-07,0.0,1.4897897e-06
9.801993e-07,8.202565e-06,6.2575744e-08,0.0,1.4925154e-06
7.365024e-07,3.4315115e-06,2.0456817e-08,9.2483854e-11,1.0984926e-05
2.2723773e-06,4.250522e-05,3.357833e-07,0.0,5.249569e-07
1.5733962e-06,0.00017111302,5.0966526e-07,0.0,2.1555722e-07
0.0077607543,8.203758e-07,6.134312e-07,1.4927457e-08,1.68216e-07
0.054803707,8.563332e-07,4.1761925e-07,2.5551122e-07,0.10708458
0.0031560936,1.8561025e-06,1.0552365e-06,2.597927e-07,0.040492855
0.15406018,6.5414355e-07,1.137944e-06,1.3508308e-07,2.2396814e-06
0.027653703,2.2270856e-06,1.1480503e-06,1.2944201e-06,3.5144903e-06
1.6862366e-06,5.2494664e-07,1.3358922e-06,5.6348745e-07,2.7522842e-06
2.5525171e-06,2.3992461e-06,6.776562e-06,2.5261613e-06,2.6891644e-06
6.628657e-05,1.5644381e-06,5.4799716e-06,5.9493645e-06,1.7776513e-06
2.1329156e-06,5.9753856e-06,4.221607e-06,3.4072646e-06,6.459611e-08
2.793514e-06,1.5753518e-05,1.2194796e-07,2.543356e-06,1.2990782e-07
2.1761466e-06,0.002293835,2.6087767e-07,4.603985e-06,1.2772643e-06
1.6528818e-06,0.0068792095,2.0522837e-06,2.4517153e-06,1.8954928e-06
3.0354468e-07,0.001492808,2.2023182e-06,2.3530106e-06,1.0942408e-06
3.14123e-06,2.523653e-05,2.89702e-06,9.706507e-07,3.869437e-06
3.9571905e-06,2.4137784e-05,3.9391725e-06,2.1698418e-07,9.961824e-07
1.6786234e-06,2.9562256e-05,2.0774314e-06,9.787057e-07,1.0411437e-06
2.0389243e-06,1.5839423e-06,1.8107165e-06,6.813347e-07,9.530642e-07
1.948395e-06,6.637892e-08,4.4548764e-07,9.4904175e-07,2.9037872e-06
2.6544394e-06,2.3191778e-06,2.6169906e-07,7.2324537e-09,2.753715e-07
9.109977e-06,5.077334e-07,7.498207e-07,9.3205756e-08,1.04130876e-07
3.982422e-06,2.099156e-06,4.4018415e-07,9.270246e-08,5.0064256e-07
6.3151165e-06,2.1486517e-06,1.768271e-06,6.726596e-07,3.676918e-06
1.5902771e-05,2.3965085e-06,0.0029127814,0.11109335,1.3986948e-05
1.0292665e-06,2.4970153e-05,0.032132268,0.0038411028,2.5047136e-06
2.4750427e-06,2.9049913e-06,2.2303198e-06,0.0012066489,7.298095e-07
3.0401097e-06,1.1690794e-06,3.229212e-06,0.0038446207,3.086709e-08
1.9261176e-06,2.5338934e-06,0.66363853,0.15191928,1.9882514e-06
2.220846e-06,7.5133635e-06,1.4002172,0.30688462,2.540743e-06
0.046153426,2.0199886e-06,0.45491385,0.011124103,2.7785693e-06
0.29790723,1.2058691e-06,0.01742995,0.069249555,3.2026055e-06
0.49252677,2.5766658e-06,0.133429,0.14644474,1.4397431e-06
0.25543046,1.0695676e-06,0.12899858,0.074007004,8.507821e-05
0.1385579,0.04133516,0.07226324,0.023483401,3.0462206e-06
0.10887192,0.07493934,0.012799403,1.865691e-06,2.4824729e-05
0.22131626,3.5595366e-07,4.716753e-06,1.727181e-06,4.437957e-06
0.2878459,2.362749e-07,1.6162085e-06,5.2010373e-06,4.4281423e-06
0.01234659,3.779126e-07,5.017523e-06,3.9181286e-06,2.2687746e-06
1.2583058e-06,2.7690666e-07,5.8785776e-07,4.207258e-06,9.548721e-07
2.4386059e-06,1.7707254e-07,7.8266567e-07,1.080611e-05,8.239134e-06
1.928132e-06,5.262004e-07,3.9391352e-06,1.0624549e-06,2.1891847e-06
2.706542e-06,4.954718e-07,5.8742785e-07,8.504588e-07,1.1839255e-06
1.4666109e-06,5.0436042e-06,1.9778176e-06,3.832335e-06,6.1797723e-06
2.5701456e-07,1.4332373e-07,4.4753986e-07,0.36426178,9.046625e-06
9.624529e-07,8.368102e-05,0.04140367,0.12831062,1.271499e-05
4.726128e-07,3.6226502e-05,1.6162889,1.1114514,2.8198727e-05
1.3377326e-07,2.0481793e-05,0.16737892,0.00045629835,6.46515e-06
1.0980469e-06,1.6013986e-05,4.3496493e-06,0.0010493002,4.95633e-06
9.4074174e-05,1.7559201e-05,1.5692,0.34312782,5.708227e-06
0.015535205,1.40552675e-05,0.7416332,3.7819305e-07,3.964273e-05
0.033860616,0.019667288,1.5664675,3.0183547,0.02297975
0.084565096,0.011968676,1.4780737,3.0863066,0.087430164
0.14891112,7.828265e-07,0.7567012,1.4054431,2.7696444e-05
0.58102155,1.7022941e-06,1.5702499,0.2264336,1.2352606e-06
0.7952663,1.155736e-06,2.7247188,4.8449535,1.0381586e-05
0.4435954,5.2507636e-07,0.18743442,1.3028448,1.7753655e-05
0.10795739,1.9511208e-07,0.2383526,2.1131257e-06,1.0124364e-05
0.06977528,2.0619466e-07,0.30233878,5.6885114e-07,7.515474e-06
0.02359631,3.7822946e-07,0.20720729,2.9923456e-06,1.4057167e-06
0.0054029934,1.5069574e-07,0.006788915,5.2362236e-07,0.009707621
0.61722237,1.0207077e-07,7.186111e-07,1.5826862e-06,0.000981359
0.65093184,8.8399986e-08,1.4191779e-06,1.9344873e-06,0.27599886
0.26701355,1.287313e-07,1.6774034e-06,7.4777245e-07,0.011855115
0.6274552,7.454157e-06,4.833694e-07,2.1620092e-06,0.018559327
0.34565318,1.099757e-06,1.4001271e-06,1.7590395e-06,0.003524789
0.15888579,0.04096529,1.2044889e-06,1.7951632e-07,5.6602596e-05
0.005010435,0.00094449706,8.015763e-09,2.1783555e-06,3.3964625e-07
0.0008430162,2.5390984e-06,8.316546e-07,5.921103e-07,4.2154494e-07
0.0003276093,1.0640391e-05,2.043862e-06,4.2816042e-05,1.1005034e-05
9.427091e-05,1.27886815e-05,6.9989255e-06,2.0349112e-06,3.1722361e-06
