"[299, 255]","[227, 248]","[287, 319]","[279, 328]","[230, 262]"
2.0449913e-06,0.0076292334,0.00022369825,0.021760792,2.1101448e-06
1.9758022e-06,1.0174132e-06,2.0446316e-06,1.208668e-06,1.3358924e-06
0.00015271407,3.096443e-06,1.4078836e-07,4.691919e-07,1.3393967e-06
0.0011138549,1.2360588e-06,5.2076064e-07,9.184377e-07,1.3094905e-06
0.036041405,1.0733741e-05,9.170188e-07,1.6324354e-06,5.571957e-07
7.10099e-07,1.7270859e-06,1.4938352e-06,6.178163e-07,7.798677e-08
0.00011337761,1.1001472e-06,1.8455593e-06,2.4450742e-06,4.4771107e-07
7.301226e-05,5.458333e-09,1.5696962e-06,1.4171243e-06,1.0955774e-07
0.0013289704,7.0504285e-07,1.6557439e-06,7.9072555e-07,8.3264695e-08
9.766453e-06,3.0481617e-06,1.9904883e-06,1.9577565e-06,6.129651e-06
0.00029896904,2.7635492e-06,7.011292e-07,2.0136665e-06,1.1045139e-06
0.00016752833,7.005934e-07,1.1595687e-06,2.5448487e-06,3.2385092e-08
0.00070456835,2.8114803e-07,9.366395e-07,1.8683569e-06,8.3084706e-07
3.247536e-05,2.6319123e-07,1.3583387e-06,4.5867055e-06,1.5006327e-07
8.148518e-06,8.102875e-06,2.946515e-06,1.4184423e-06,2.9441273e-06
1.060046e-05,9.418154e-05,2.7235885e-07,2.0967664e-06,1.03319535e-05
3.1973623e-06,0.012741341,1.0844436e-06,2.1381927e-06,0.0003653203
2.3099124e-06,0.036690746,1.0188327e-06,7.0490677e-07,4.7647924e-07
7.952776e-07,0.71402305,2.1531905e-06,7.648134e-07,5.6562978e-05
2.7345277e-07,1.1385359,1.7014544e-06,3.2671824e-07,0.26420406
1.8095126e-06,0.000853754,1.7233173e-06,6.9749905e-07,0.16466446
4.937611e-06,0.28290322,2.001635e-06,2.8226702e-06,4.7467212e-05
4.524937e-06,3.7101074e-07,1.133313e-06,1.1921051e-06,1.1477237
6.783349e-07,0.12781958,4.4213457e-06,2.3638881e-06,1.3709244
4.0504833e-06,0.27992955,1.6591902e-07,2.0472389e-07,0.6919143
7.252277e-07,3.0243286e-06,5.7200694e-08,9.396961e-07,0.1950045
1.9147076e-07,0.04976503,1.2615901e-07,3.78902e-07,0.14748037
3.2090586e-06,0.015021314,4.9244323e-07,8.2279655e-08,0.00041988582
4.562003e-06,0.16706064,2.4481367e-06,2.0546569e-08,0.28060743
2.4015426e-06,0.00028029334,1.8020178e-06,1.1789988e-07,0.19267134
8.495693e-07,7.961708e-08,2.0760942e-06,1.05249796e-07,2.6018404e-05
2.2578329e-06,4.9004015e-08,4.8899767e-07,6.712645e-07,1.7811284e-05
2.5370724e-07,1.4820037e-06,4.2179346e-07,1.2038785e-06,2.1991673e-05
7.306745e-07,2.2849824e-06,2.0561363e-06,2.6805783e-06,4.460007e-06
1.039993e-06,4.790058e-06,8.146568e-06,1.081954e-06,4.0057103e-06
1.8897614e-06,2.4795427e-06,9.2761816e-08,2.8616034e-06,1.6409812e-06
6.7713113e-06,1.0390165e-06,1.1417336e-06,1.529682e-07,2.1685128e-06
9.330078e-06,2.8713755e-06,1.5722092e-07,3.2008936e-07,2.674406e-05
4.022422e-05,1.8320177e-06,3.6979863e-08,7.774448e-06,9.033628e-07
0.008564384,2.164988e-06,8.777597e-08,3.1100303e-06,0.00064709614
0.03828992,5.9527633e-07,4.539324e-08,2.9025918e-05,0.00019399595
0.07509032,1.3064059e-06,3.8807984e-06,2.3734254e-05,3.611101e-06
0.06579952,1.6838994e-06,6.225537e-08,3.9034137e-07,2.5889524e-06
0.01696718,7.792764e-07,6.03712e-07,9.45444e-07,1.74223e-06
0.0067753093,7.9591456e-07,1.8396828e-06,5.351596e-06,8.651955e-07
0.0056442446,1.5504513e-05,0.0035489933,3.2565775e-05,1.2582595e-06
0.008586321,0.0027957791,0.0020756267,0.0015689657,2.098509e-05
0.004102518,3.7096397e-06,8.4804924e-08,0.0042820764,0.010590465
0.0011290864,4.4539056e-06,5.838078e-07,0.0008707088,1.4580868e-07
0.0014581996,1.3359082e-06,7.126207e-07,0.00010720794,4.617857e-08
0.00092167006,5.962565e-07,1.0057256e-06,1.6832051e-06,1.863695e-08
0.0020216196,7.400657e-07,1.2541637e-08,8.36447e-06,4.4939892e-08
0.002905765,0.00017147105,1.2270924e-09,3.5311973e-06,4.6890646e-06
0.0030039381,1.1583446,4.961682e-08,9.902999e-07,0.35843396
1.3183661e-05,0.8890209,2.139298e-07,5.1857146e-06,1.0188743
0.01257106,0.85159093,1.9658026e-07,9.134607e-07,0.5603907
0.37164435,0.2330721,2.7015554e-07,2.313992e-07,0.027002683
1.2032444,1.9152153,1.3135424e-06,6.336515e-07,1.2978208
2.1886296,1.2777773,0.3992457,0.63427114,2.731981
3.173216,0.41531098,0.21560466,2.4853444,0.39784458
1.4042206,9.668966e-07,4.6500373,2.7362258,0.25867352
0.9971398,4.2334156,4.561657,2.4787679,6.626973
0.3750442,5.698071,0.10949562,1.0785912,0.6516512
0.32502094,4.2871237,0.15500182,1.2966046,0.38382658
0.61460894,1.2625425e-06,0.17269436,0.35544392,0.05692129
0.05180125,3.5978771e-06,0.16750653,0.0047773793,5.293651
2.4785213,1.5881749e-06,0.6149328,0.13500328,3.179927
4.658399,3.372894,0.044015095,1.5919584,1.1256413
8.351788,0.69201106,0.06417125,1.6802269,0.0448549
6.9264402,4.5557712e-07,6.6884764e-05,1.129848,1.0231591e-06
6.067755,1.5273306,6.9939534e-07,0.10502119,9.535266e-07
0.12558003,0.9371761,2.7822222e-07,0.00034255983,0.6780459
0.087111786,1.431251,5.424135e-07,0.00016262317,1.8485146
0.13457407,0.00013570546,2.1591715e-07,4.5090357e-07,5.163572
0.12750149,3.3323698e-07,0.00073593186,1.444431e-05,5.1198516
0.121274486,4.8959316e-07,1.14631376e-07,0.1806414,3.5910148e-07
0.036987737,1.4024207e-07,1.1826055e-07,0.029113077,1.5067279e-07
0.046110623,2.846985e-07,3.1340903e-08,1.7143797e-06,7.795585e-08
0.047368962,3.8688654e-07,1.7495996e-07,2.6828587e-07,5.818333e-08
0.112244606,6.4216228,1.5205471e-06,2.1568789e-07,7.359033e-08
0.14092694,2.6252344,1.1877909e-06,4.5697226e-07,0.21979165
0.19681726,1.0859723,3.952598e-08,4.1103354e-07,1.983144e-06
0.26945156,1.4207766e-05,7.818065e-07,3.930398e-07,0.00488595
0.33848125,0.018868675,1.7178663e-05,5.755221e-07,0.33658338
4.192597,0.0006009162,9.202891e-08,7.5047535e-07,0.0067028487
3.110245,3.1668205e-06,7.235659e-08,4.8518393e-07,3.679555e-07
13.88753,0.00043681814,1.1974547e-07,3.9542118e-07,0.4982605
3.7795775,3.2128275e-05,0.026274465,4.9143057e-07,4.03034e-07
2.4905808,2.099204e-06,0.07824361,0.00050001603,3.3614424e-06
2.0025926,2.2616143e-06,3.070876e-05,1.1860189e-07,8.2412425e-06
0.35534626,2.6691216e-06,2.6382238e-06,1.9632002e-06,0.73317075
0.04441008,2.8068716e-06,1.3924928e-07,8.585919e-07,5.5677447e-07
1.2943923e-06,0.20569575,1.4467909,0.38293803,2.9227967e-06
3.6372744e-06,3.3057412e-07,6.013789e-07,1.0298848,7.0186443e-06
1.7762084e-06,2.8233742e-06,1.0731089e-06,1.4034647e-07,2.7007181e-06
1.0563374e-05,7.2008197e-07,4.9512687e-07,7.64809e-05,4.070414e-06
2.126745e-05,1.2554676e-06,0.00077973696,6.1351255e-07,9.2014574e-07
1.302725e-05,4.6211935e-07,0.00014151678,5.2360768e-08,0.0
4.2064357e-06,1.079929e-06,1.0329542e-06,3.3641644e-08,8.063917e-07
3.2544672e-06,5.7705773e-07,8.4529023e-07,2.7504902e-07,9.909937e-07
4.4980854e-05,7.187437e-07,0.014577785,1.9135098e-06,7.8624146e-07
5.9415994e-05,4.0761316e-07,8.8256265e-06,0.22429326,6.1386686e-07
1.9340001e-05,1.281941e-06,3.3321921e-06,0.0013684042,6.4122816e-07
0.00011205486,8.861857e-07,0.0004543362,3.0967965e-07,4.1699352e-07
1.6273507e-05,5.767755e-07,8.7902714e-07,3.1153814e-07,1.665679e-06
1.1855703e-06,4.8106915e-07,1.3934196e-06,1.3416551e-05,2.2296824e-06
1.0452e-06,1.2618322e-06,9.488309e-05,1.503895e-07,2.0228877e-07
4.336374e-06,2.9055968e-07,1.0994374e-07,1.8035182e-09,1.6580298e-06
2.8117186e-06,7.006683e-07,1.82686e-07,4.6883642e-07,7.6694505e-07
9.0382923e-07,2.1946837e-06,1.18622285e-08,1.801837e-07,3.4051828e-07
1.8079767e-08,7.1219733e-07,5.490555e-07,3.0978897e-09,4.1198936e-07
6.6583476e-07,1.1074493e-06,2.3568198e-07,6.255183e-08,2.027264e-07
3.6972924e-07,1.1959924e-06,4.50127e-08,9.3166074e-07,2.8825735e-08
5.7298753e-06,7.366662e-07,0.04643429,3.9019207e-07,1.5306245e-08
5.3219725e-07,3.0518165e-06,0.00061700767,0.16725644,3.9268895e-09
1.1368876e-05,0.059277337,7.5074418e-06,2.5035639e-05,3.733303e-07
5.021304e-07,1.2635512e-06,5.8776527e-07,0.6914628,4.3064463e-07
1.2033186e-07,7.01882e-07,0.12318382,2.862715e-07,2.7983217e-06
1.218649e-06,1.4164564e-06,0.0095896665,2.9992466e-07,1.7062409e-06
1.2067456e-07,2.8992035e-06,0.005319042,2.0261659e-07,1.2606502e-06
3.417541e-06,4.123681e-06,0.024976954,4.8598747e-07,1.4964459e-06
9.2963705e-07,3.6177853e-06,3.3753833e-05,3.3725527e-08,3.3094463e-07
2.015581e-06,0.00029320168,0.0023115822,0.01838597,1.0060949e-07
0.36954004,2.7157112e-06,6.9430564e-07,0.0012873721,7.732246e-07
3.2904273e-07,3.0226395e-06,2.307475e-08,0.0014552101,4.0702994e-07
4.590759e-08,2.9282787e-06,3.2610835e-08,2.1623431e-07,6.3484936e-07
1.1223473e-06,3.5270366e-06,5.5062384e-07,5.304242e-07,1.6921026e-06
9.097336e-07,2.9677806e-06,2.0851708e-08,3.036467e-06,2.17711e-06
0.0005530777,1.558705e-06,1.2734411e-07,2.3687497e-07,1.6030408e-06
0.00026756487,0.12539408,2.5319218e-07,8.592215e-07,1.6346225e-06
1.3209834e-05,0.66531205,2.421021e-07,0.0010990652,0.17072791
3.290424e-06,2.3191545,0.0008042654,0.012182471,1.3436456
4.9764863e-06,0.009145025,0.0003820146,0.004174526,0.31695876
0.028535416,0.00043004265,0.28138617,0.013091718,0.10168866
1.8017614,0.24987525,0.43132362,0.15791468,0.6676011
0.56590843,1.488822,0.4314155,0.4549531,1.7947105
0.7471458,2.6290348,0.5075474,0.24351889,3.5520577
0.0033012251,1.8140026,0.5928903,0.15995574,2.5501802
0.7970223,2.3313384,1.690741,0.19323571,1.7138566
0.8979999,2.0140028,1.4286526,0.36812374,1.604114
0.7836605,0.26678213,1.4002538,0.24248686,1.2417566
1.3150535e-06,0.35134116,1.8197372,0.27219394,0.5843356
0.03468875,1.4204395,1.8199695,0.20801632,1.2681646
0.025343813,2.0634215,2.3256552,0.29032794,2.1917894
0.064627916,3.3514457,0.2747288,0.31885982,2.2770426
0.22779886,3.3409576,1.6751266,0.38152066,4.382097
0.39130002,0.70161265,3.2061787,0.47015196,1.1722479
0.3051141,0.0028046127,3.4641619,0.5459195,3.974712e-06
0.00030589427,1.106076e-05,0.4583507,0.32151324,2.024394e-07
3.4950802,1.9128859e-07,0.16768898,0.0001283922,1.085889e-05
0.97156686,1.5445437e-06,3.3404932,7.839331e-06,5.9220536e-08
0.34271264,0.12162777,0.4590963,0.023069447,6.748083e-06
0.02714691,0.021922374,1.6206641e-06,0.0004713479,1.2957067e-05
9.583173e-07,0.40485454,0.13737206,0.58396745,1.0377389
4.983324e-07,1.0552454,0.08434754,1.0983866,8.5978775e-07
2.3948016,0.40813586,0.0038589898,0.0002322331,0.42395467
1.8736225,0.9106722,0.2549672,0.07706785,2.3828504e-07
2.1876568e-07,0.16841519,0.38021445,9.266485,1.4097218e-06
1.789904e-06,3.8013042e-07,0.008063856,6.545874,1.7085723e-06
0.0057075033,2.0801174e-06,1.666542,0.0062740715,2.558894e-06
3.9578467e-06,5.0951985e-07,2.688625,0.9346561,6.388028e-07
0.09785699,4.7132633e-07,3.9943213,0.009767254,2.4185179e-06
0.0019020153,1.9796377e-07,0.4789672,3.2487233e-07,1.976545e-06
0.3638238,1.4961611e-06,2.3145244,1.1516304e-06,6.757477e-07
0.06683164,9.772336e-07,0.040373784,0.040661685,7.8201066e-07
0.5237236,2.4106184e-06,0.001060123,0.19539554,2.8437555e-07
0.92460567,9.712535e-07,9.562985e-08,2.4197061e-05,1.528223e-06
2.4455373e-06,2.5477243e-06,1.1273848e-06,0.013647448,1.9635256e-06
0.019929063,4.003256e-06,4.5039573e-07,2.3961506e-06,1.4793143e-06
3.1695106e-06,1.0210723e-06,2.9718666e-07,1.7161701e-05,4.13458e-07
2.0231646e-06,3.8100286e-06,9.458473e-06,0.13882297,8.0444e-07
0.009309167,2.684138e-06,2.9756356e-07,0.00026804078,1.0449273e-06
1.8417763e-06,2.3121713e-06,1.02902234e-07,4.1111724e-07,2.408471e-07
2.1905366e-06,8.7989497e-07,2.8115306e-07,6.3052494e-07,9.4562847e-07
1.1274018e-06,2.8411307e-06,4.297427e-08,1.4680077e-06,3.168702e-07
1.6588888e-07,1.3363212e-06,6.256407e-08,3.1386614e-07,1.4470359e-06
9.5043356e-07,2.1712399e-06,3.2991935e-08,7.613863e-08,6.388838e-07
5.7557834e-08,1.2106276e-06,0.0,1.5038569e-07,5.0427116e-07
8.4963835e-07,1.3605171e-06,2.3608573e-06,1.0325272e-07,4.790733e-07
6.0603793e-07,2.498522e-06,1.5274048e-07,5.6687984e-08,2.2735539e-07
2.950824e-07,1.256023e-06,1.46485215e-08,6.3101686e-07,4.96561e-07
1.8371828e-06,2.2033473e-06,0.18922298,3.5367384e-07,3.4250763e-07
1.07081235e-07,1.6780953e-06,7.2344847e-07,1.4647365e-07,1.0325107e-05
1.0020001e-06,7.072313e-06,0.09038804,2.2069753e-06,3.646793e-06
1.263724e-07,2.9985366,5.209261e-07,0.012863258,9.2230965e-07
1.4053776e-07,7.24271e-05,3.521498e-05,0.36266953,0.0019420438
7.324546e-07,2.0066727e-06,7.721887e-06,0.0004355204,2.6384438e-07
1.1896081e-05,2.0153038e-06,9.457853e-08,5.8752426e-07,3.4137813e-07
1.4310631e-05,4.16149e-06,6.676852e-07,0.009230023,3.3851578e-08
1.6538324e-05,6.7704474e-07,5.822512e-06,0.014379909,2.530775e-06
6.7345056e-05,5.2437525e-07,0.15799353,2.7332485e-06,1.4323432e-06
5.004097e-05,0.12002063,0.12825058,0.16645332,2.057581e-06
0.00015848175,7.1599184e-06,0.049360953,1.7412413,0.8682975
0.00010161073,2.0508103,2.2227854e-05,0.00013944689,8.6306983e-07
0.00077424815,2.3040318,9.319722e-08,0.000103367325,1.0985975e-07
0.00040891411,3.2559385e-07,1.1039151e-06,0.25489515,3.2116876e-07
0.00013842691,7.492932e-07,5.4735315e-06,0.00010735411,3.8333653e-07
1.2174262e-05,7.032666e-07,5.117104e-05,4.305809e-07,3.262664e-07
1.2635792e-07,1.7441936e-06,9.009196e-06,5.7658383e-07,8.596991e-07
4.612075e-06,1.2274282e-06,8.811688e-05,1.8975263e-06,1.8069215e-07
6.9878397e-06,2.5466036e-06,2.524633e-06,3.833393e-08,3.4327018e-06
2.8904778e-06,5.816354e-07,1.4818153e-05,9.496672e-08,2.2749327e-10
6.2524095e-06,9.025176e-08,6.5786116e-07,2.7258503e-07,5.514279e-08
1.1377183e-06,3.5716087e-07,1.5944413e-07,8.837109e-07,1.7222584e-06
9.652219e-08,2.9270047e-06,3.245115e-07,8.6569884e-07,2.6297146e-06
9.9944394e-08,4.668056e-06,8.5892054e-07,1.8401106e-07,0.16169119
1.4927158e-06,0.75336194,2.2149084e-06,2.0746272e-07,1.6921394
9.045737e-07,1.2594049,1.8660222e-07,7.194698e-07,1.8661968
4.0718552e-07,1.4333305,1.1774844e-06,3.643567e-05,1.5795629
0.13879436,8.0233326e-07,0.04736454,0.0007120528,0.0329643
0.41645086,7.3605736e-07,0.052904256,0.0036733982,0.11346147
2.3759974e-06,0.06615217,0.027406208,0.018683126,0.108103976
2.2411461e-06,6.973547e-07,0.8508659,0.2157032,5.991299e-07
0.32786366,6.3299825e-07,0.00024387956,0.111119844,2.1182791e-07
0.54985344,4.894421e-07,0.008765709,0.0011146632,6.2404337e-07
0.49198508,0.00048135518,0.07210179,2.6931634e-06,0.2599371
9.068414e-05,0.5396383,0.0006811751,0.04852661,2.2617893
0.006215315,0.30933836,0.2452659,0.11202352,0.2820642
0.0043442105,1.9913044,0.40524802,0.5811306,1.8651224
2.2759793e-06,6.8244133,0.21397229,0.29525977,2.228825
3.3273875e-06,2.6895912e-06,0.3004532,1.0236024,1.5389496e-06
0.22410987,5.931038e-07,0.53980076,0.055962823,1.596478e-06
5.4528356,1.1873973e-06,0.38792366,0.2780666,5.2423377e-07
3.214592,0.20424312,3.5159464,0.7308057,1.537784e-07
0.54984176,2.138362e-06,1.7927763e-06,3.920283,0.0084551945
3.5290327e-07,1.0374787e-05,2.565185,6.2553563,0.046350893
0.065297805,0.061628487,0.41257253,1.6014937,2.9460395e-07
4.862095e-08,8.327621e-07,5.282401e-07,0.000612594,1.094421e-06
2.5613875e-07,1.1332322e-06,1.114966,2.6258138e-07,6.352037e-07
0.029255413,2.7340216e-06,2.2316847,0.00089573045,8.4953456e-07
3.5917324e-07,8.8900555e-07,8.872295e-06,4.8733887e-07,3.7664617e-07
0.35343415,1.2254621e-06,0.6608068,0.006768175,2.239562e-06
1.6068081e-07,1.0156105e-06,2.166774,1.2531999,4.5029006e-07
3.583243e-06,1.2786061e-06,1.5460515,3.0789494e-07,1.216664e-06
4.2358488e-07,2.8311017e-06,0.017036848,4.485864e-06,8.9574746e-07
1.8633916e-06,1.21914e-06,0.36678046,2.8367904e-07,1.1187187e-06
2.7921496e-06,2.8395052e-06,1.3095145,4.3917274e-07,2.4651462e-07
2.3822844e-07,9.160874e-07,0.41054362,5.125507e-07,8.563825e-07
1.0191555e-07,8.7044583e-07,0.036458716,6.783617e-07,3.0475574e-06
7.936304e-07,1.4189735e-06,1.5290524e-07,1.6361598e-07,1.3824929e-06
1.2404822e-06,6.4174486e-07,1.3855791e-07,5.250555e-06,1.0560055e-06
3.7073828e-06,4.761038e-07,1.5518202e-07,1.14370905e-05,1.1520801e-06
4.2747936e-07,3.1433942e-07,1.5710917e-07,2.7315264e-07,6.313713e-07
1.7183778e-06,1.2735172e-06,1.017274e-07,3.5156552e-07,1.0810678e-06
1.3235112e-06,1.7174788e-06,0.000103253115,9.922791e-07,3.4940706e-06
1.759446e-06,4.059479e-07,0.091835685,2.1896615e-07,3.7783248e-06
5.4333094e-07,9.84915e-07,2.3370188e-07,5.9623744e-07,7.8041666e-07
8.158838e-07,8.2566976e-07,1.9140519e-07,3.5691897e-07,3.5551284e-07
2.4730764e-07,1.4740932e-06,0.0045998483,0.0021694463,4.419559e-06
3.5725276e-07,6.0851846e-07,0.0944267,5.3318183e-07,6.559917e-07
2.0393327e-07,1.1883286e-06,5.274895e-08,1.0889187e-06,1.9500912e-07
5.0759177e-06,1.686791e-06,1.9186822e-10,1.3985277e-07,2.7772767e-06
1.4787574e-06,3.3649603e-06,2.6440307e-06,3.025043e-07,5.600049e-06
3.564861e-07,6.311794e-06,3.2723182e-07,0.014214144,1.09145585e-05
9.044809e-08,0.00019912637,0.01774159,0.046442043,0.0437685
5.2357946e-06,0.07072577,0.16334029,0.0010414075,0.00032362592
0.0013262758,0.09627657,4.3149366e-06,1.8124878e-06,0.0032412675
9.261803e-06,0.37818778,1.691654e-06,2.8010007e-07,0.6889133
0.08860517,0.058989327,2.4465087e-06,9.053304e-07,0.23810457
0.63646626,0.009879277,0.00502804,1.2140069e-07,0.010285789
0.1153907,0.69100994,0.12588635,0.01939318,0.43141735
0.017483871,1.9732105,0.83433515,0.10925013,2.974254
0.006779492,4.3986406,0.937983,0.2650385,6.923065
0.5658492,3.1813214,1.0584273,0.6135287,5.7669168
1.3507199,15.903509,3.0791457,1.3375005,14.922119
0.8774273,0.23310208,2.4796512,1.5753365,0.96824306
2.9793935,0.15731955,7.435412,1.8918016,0.066689715
2.9062817,0.00044026325,2.0433505,1.1892676,3.9116858e-05
5.0966234,1.6570823e-06,0.23912854,0.9487149,2.1145344e-05
0.83631665,2.6140171e-06,0.6579483,1.2257283,1.7566057e-06
9.016881e-07,1.7728951e-06,3.2458198,1.2991152,2.3912633e-06
5.4100592e-08,1.0314648e-06,1.3148482,0.46452865,5.7295915e-07
7.589279e-08,0.022634711,0.4975098,1.4494333e-05,9.1312e-07
4.612644e-08,0.06683321,1.0172504,0.033081517,1.7368668e-06
1.1661412e-07,0.014983963,3.0207686e-06,0.0012655483,9.668212e-07
1.454838e-07,2.5400425e-06,8.6849155e-08,1.0465204e-06,2.2095658e-06
3.3799594e-07,1.5229774e-06,1.0061044e-06,0.568892,1.0298692e-06
3.4538644e-07,1.0678878e-06,0.14442007,0.010849562,0.0004244588
9.2062635e-07,1.2613275e-06,0.029754922,0.030566676,0.67795324
6.4494435e-07,2.1551198e-06,0.78713214,0.0011308743,1.0539856e-06
9.4710664e-08,5.10294e-07,0.038018074,0.7749241,0.00036159568
1.6990961e-07,7.785875e-07,0.38775316,0.24111784,0.00054918934
4.1540974e-07,1.3935581e-06,3.9917288e-07,0.09114361,1.4023143e-06
1.9837495e-07,6.213877e-07,0.06418585,1.0635306,0.023973465
3.9296037e-08,9.78019e-07,0.52956456,0.5533491,1.7242963e-06
0.000425373,1.1064698e-06,0.020439662,0.8756399,1.0904402e-06
4.795948e-07,5.3464026e-07,0.17196874,0.8473663,1.0044391e-06
2.917162e-07,5.038371e-07,0.21899399,0.03005075,8.024453e-07
0.09833357,9.660315e-07,1.0846744e-06,1.8842198e-07,3.8138967e-07
3.2017692e-07,7.336721e-07,2.725462e-07,3.896571e-06,2.2503484e-06
4.6715402e-07,1.0851213e-06,0.04517973,7.4904153e-07,6.3290656e-07
5.4532507e-07,4.9520377e-06,1.0213842,0.3012844,5.537437e-07
5.5825785e-07,1.1788671e-06,1.1485686e-06,0.2800676,9.763277e-07
2.981245e-07,9.374098e-07,3.8843447e-07,0.01882934,8.617658e-07
4.6269798e-07,8.782533e-07,4.878197e-07,3.6828263e-07,2.7328517e-06
3.1286157e-07,1.331962e-06,3.3033717e-07,2.90341e-07,1.0271843e-06
0.1036697,3.130395e-06,2.8716914e-07,5.557702e-08,3.9353745e-05
0.16849102,4.1662332e-07,1.376174e-08,4.6916036e-08,5.167513e-07
0.0014605295,2.9975515e-06,1.953905e-08,2.6828192e-07,1.4028984e-07
0.0015516526,0.0017668321,3.646305e-07,3.3817398e-07,2.9817687e-07
1.4024079e-06,0.026806047,2.2728182e-07,3.407872e-07,0.012914341
2.5350843e-07,0.023560248,1.2700339e-07,1.1464427e-06,0.10459522
1.6824168e-06,1.3804273e-05,2.9748253e-07,2.6655292e-07,0.035131298
0.18353972,8.429093e-06,1.8631185e-07,7.7153607e-07,0.074783094
0.55651885,0.0003678261,6.4618976e-06,3.8150398e-07,0.0011659937
0.18625917,0.0015448359,0.024559967,8.644325e-06,0.011762327
0.033032227,0.006023333,0.023021054,0.0015753519,0.028079275
0.036622655,0.0078736795,0.044168215,0.00052086386,0.02844647
0.023377795,0.004480501,0.07774709,0.004957472,0.024496417
0.011174162,0.00019067757,0.0709132,0.005941757,0.0048787305
0.0057262005,2.0256324e-05,0.13794467,0.0332338,0.0014475778
0.030433748,0.43434787,0.42350358,0.070123084,0.20137307
0.020348001,2.135799,0.35889804,0.039610106,2.4213166
0.013914179,2.7392807,0.39000717,0.013655388,3.0259035
0.8700164,0.7974532,0.6214308,0.0027043596,2.914501
3.1134467,2.0839221,1.3300889,0.28663412,2.92421
1.7735772,2.384862,2.4959784,0.5509644,3.806784
1.9540821,0.0013973558,3.3423355,0.75180525,2.5406034
4.4913774,1.1834464e-07,3.0666707,1.4767185,0.06153992
0.34356555,1.2742472e-05,1.6268204,0.97229147,0.027160987
0.36183012,1.0410202e-05,0.9630926,0.8763343,7.557065e-07
0.41579962,7.0451974e-06,0.56189686,0.93696034,7.04424e-06
0.056119964,1.20205705e-05,0.4801007,0.28283703,3.019182e-06
0.97074413,1.4293261e-05,0.17360057,0.07589277,7.297749e-05
0.943446,9.7274915e-06,0.050467953,1.3697553,0.00893958
0.3226439,1.4016329e-05,0.81997144,0.0032555705,0.1570752
0.089613765,6.2429695e-05,1.0243742e-06,3.7492612e-07,0.08367521
4.1861553e-05,1.1130773e-05,8.4716135e-07,7.707159e-06,0.06746094
0.0065311505,0.20789558,2.654702e-06,3.7500384e-05,1.4942852
0.23584056,0.86855257,3.969518e-05,3.7039847e-06,1.9236549
1.5764087,0.5179921,1.1286649e-05,5.934041e-05,1.442812
1.9904302,0.3656157,1.997109e-05,2.441146e-05,0.6978724
2.3359983,0.24919057,0.09916286,0.057137083,0.6279886
1.6784636,8.768502e-05,0.56524485,0.32652515,0.0018351057
0.19334877,0.0013618714,0.44752216,0.5151267,0.04135493
0.105136685,0.007742337,0.5809667,0.5810957,2.5618014
0.15904526,0.011951632,0.760202,0.6045568,2.9980836
0.31769693,0.22377804,1.1867479,0.8061417,0.04843882
0.7017162,2.6831955e-05,3.0255656,1.0312424,0.9410641
0.0002170894,9.46519e-07,5.905724,1.3178259,3.1346974e-06
0.0002899099,4.486313e-05,4.2936554,4.853793,0.0008098808
6.65208e-06,0.00027422627,4.1440535,2.2913966,0.0038846708
4.2950185e-05,0.00078399683,2.131901,0.17110425,0.0030431803
0.00277494,0.0028865715,0.7718171,0.3159786,0.014115974
1.9677322e-05,0.026459182,1.1684053,0.3932699,0.029282503
0.12860619,1.1859769e-06,0.84969187,0.20864789,6.533684e-06
0.5118531,5.214173e-07,0.16204445,0.025246495,7.986182e-07
1.2889783e-06,2.1496362e-07,0.06745484,0.40787843,3.1414586e-07
1.4522656e-06,0.32598016,0.8039361,9.4348296e-05,0.82234085
1.0803504e-06,0.00012887477,0.004134302,1.2799537e-06,0.00026626108
0.38353232,0.40493774,4.22381e-05,6.668633e-07,0.15113507
7.410782e-07,0.07290625,6.1396895e-07,6.356444e-06,4.2520134e-07
4.727812e-07,3.0548824e-06,2.3985274e-07,1.1855801e-05,0.00011440481
2.8345332e-07,2.9265832e-06,4.0375548e-07,4.020687e-06,2.7338554e-06
7.996194e-07,0.00045516522,6.412394e-06,1.1512651e-06,2.6420073e-06
3.3138026e-06,6.3325194e-07,2.8208933e-07,3.0936083e-06,8.4115794e-07
1.091249e-06,3.0014413e-05,1.8861107e-06,4.013679e-06,9.392345e-08
3.83486e-06,2.2929637e-06,1.16881104e-07,4.730061e-06,1.3860734e-06
1.5442963e-06,7.293519e-07,1.6949338e-06,1.0756793e-06,9.606474e-07
1.5270543e-06,2.5862503e-06,6.163946e-07,7.489491e-08,3.4782389e-07
1.7203708e-06,2.3997907e-06,3.094813e-07,3.967468e-07,6.406276e-07
2.977822e-06,6.010125e-06,7.032283e-07,2.6153123e-06,7.0900086e-07
1.3036802e-05,9.2017974e-05,3.678588e-08,4.577257e-08,3.5770558e-06
5.690765e-07,2.9596533e-05,1.2369362e-07,6.1261785e-10,3.148062e-06
1.2242642e-06,1.0646116e-06,0.003887687,2.680597e-08,5.9354267e-07
2.0549755e-06,5.049349e-07,6.5924796e-06,4.922281e-09,1.2633879e-05
6.448897e-06,1.9095208e-07,1.8297229e-07,0.0,0.00010893573
5.2857986e-06,7.265129e-07,4.2051324e-10,5.5662593e-07,2.2798397e-07
4.0027444e-05,2.8173167e-06,8.091978e-07,1.5549515e-06,1.1153226e-07
6.6150424e-05,0.06536673,1.2337003e-06,1.2607743e-06,2.533257e-07
0.00032614556,0.26179668,3.2699695e-06,5.084949e-07,9.0706334e-07
0.23295878,0.089993216,5.2134e-05,3.601806e-07,2.443527e-06
0.11875411,0.15218112,2.898755e-07,1.0542462e-06,0.49323052
0.10462875,0.31146008,7.100061e-05,5.47071e-07,0.703099
0.80632514,1.3637447,0.15359242,2.231794e-06,0.9858241
1.1452218,1.864654,0.2649197,8.2995264e-08,1.6682688
1.5150139,1.2694491,8.256932e-05,9.2008784e-05,0.66504043
0.5499455,0.5805185,7.4763636e-07,0.0018271336,1.3100901
0.05811481,0.9560648,1.3783564e-06,0.1926316,0.29929835
0.36642814,1.6651199,0.3062443,1.6673685,0.88563836
0.07133738,3.4013953,1.2709175,0.9099387,2.1916819
0.030069796,2.1806896,0.11166819,0.62408733,2.7884228
0.029215792,0.32718366,0.22162928,0.17480172,0.14067578
0.06293021,0.30914244,1.822873,1.6088085,0.03655502
0.04745643,0.2697047,1.1907097,1.1990664,0.13971123
0.000509844,0.255983,1.0077881,0.6674497,0.4214939
0.0003494745,0.17245182,0.89131254,0.6946867,0.5722629
5.3196472e-05,0.028483296,0.6867534,0.4451127,0.59676504
8.7302556e-07,0.009574316,0.836586,0.013397324,0.51510835
1.4330726e-08,1.824913e-05,0.64291203,0.56060356,0.61607563
2.7444466e-06,1.0989466e-05,0.37963194,0.54709566,0.78924364
2.9427117e-06,2.0967515e-05,0.36211735,0.24637976,0.5436237
5.288005e-06,1.3504247e-05,0.7894454,0.19061859,0.00074404135
4.6478494e-06,5.5311983e-07,0.38271633,0.010974565,0.00032900606
1.8498964e-06,0.0012739064,1.0993737,0.7502867,4.120797e-06
3.8900578e-07,0.0021494613,1.072968,1.2198713,0.002229398
5.2826167e-06,0.021200627,0.8956901,0.90271014,0.017010137
1.146487e-06,0.01047778,0.08419964,0.7099506,0.026081372
5.915718e-06,1.4676693e-05,0.2787646,2.1754706,0.020186098
8.8760737e-07,8.464257e-06,0.51689404,2.8440773,0.009605266
1.1532356e-05,7.2393556e-07,0.7184452,1.8609518,0.00030034216
8.783062e-06,1.2343284e-06,2.7439399,0.9569451,2.3389151e-05
2.0884233e-06,3.0131815e-07,5.890927,0.8951022,0.15921421
1.1219448e-06,0.00014375587,1.3014612,1.0750312,0.059298363
8.89355e-06,0.2853004,1.2043266,0.24847968,1.1336362
8.093726e-06,0.2699233,0.2277938,0.14635956,0.29622817
1.619455e-06,1.2215478,0.89048374,0.0015407009,0.7296084
0.11713322,0.25434518,0.009143338,0.0006238183,3.1219463
0.31077167,0.057100844,0.0011888494,6.831515e-05,0.03340341
0.6942254,2.9606729e-06,2.7085924e-05,1.0794677e-08,0.036670886
0.92000914,3.2310414e-05,2.9354534e-05,6.7750585e-07,8.704895e-06
0.13026817,2.5182162e-06,8.4529565e-05,3.1041925e-06,1.6347403e-06
0.010725523,0.00033043383,5.0390245e-06,5.6890167e-07,5.903322e-07
3.1674335e-05,3.6697588e-06,1.05629965e-07,6.2609274e-07,5.959921e-06
0.07226842,2.1442122e-06,1.9147734e-08,5.4537867e-07,2.7181704e-06
0.09210011,1.0432661e-06,1.8344012e-07,2.6145864e-07,3.2304665e-06
2.2004442e-05,1.8497693e-06,8.5415525e-07,0.022951549,1.2690869e-06
1.2165894e-05,2.3963107e-06,4.4540906e-07,6.799299e-07,1.2402526e-06
3.9995434e-06,3.0333133e-06,9.254578e-07,1.9828475e-07,4.618225e-06
1.5282104e-07,0.013570622,8.831115e-07,2.9527286e-07,2.485785e-07
6.633651e-07,4.1208723e-06,1.5476905e-07,1.3384926e-06,1.2656984e-07
1.943696e-06,4.4284293e-06,3.5955682e-07,1.2808954e-07,2.635531e-06
5.75002e-07,4.52156e-06,3.3889276e-07,1.0203017e-06,4.2211477e-06
1.1037106e-06,4.5199764e-07,2.553544e-07,5.192449e-06,2.4052335e-06
3.547299e-07,4.682906e-07,4.4165375e-07,2.2883837e-06,3.1588886e-06
5.945028e-06,2.921826e-06,4.5175844e-07,1.2099306e-06,1.3232082e-06
2.5855657e-05,0.0021570325,8.6917174e-07,0.0755983,1.422552e-06
0.01656882,4.061259e-06,1.2601589e-07,1.1199733e-06,0.00014705518
5.3346463e-07,3.698122e-06,1.0147258e-07,1.4476913e-07,3.843576e-06
0.0036078999,1.2832993e-06,6.10237e-08,3.611661e-06,1.2160866e-07
3.6540862e-07,5.0523818e-06,3.0729254e-08,1.3890594e-06,5.761777e-07
0.00027688278,6.92218e-07,1.080286e-07,5.0137296e-06,2.2340978e-06
8.2315004e-05,6.7267365e-07,9.808494e-07,9.713124e-07,6.9228513e-06
5.4852513e-05,2.280405e-06,1.3556138e-07,1.3926315e-07,3.7481054e-06
9.847585e-07,9.528466e-06,8.4690136e-08,9.616867e-08,3.608697e-07
2.7438423e-06,2.1464962e-06,4.3599893e-08,1.8439037e-08,8.361043e-06
2.5022368e-06,1.1669335e-06,1.9840333e-07,2.085372e-06,1.6033139e-06
6.065617e-07,7.627393e-07,3.508199e-08,9.43732e-07,2.4050607e-06
1.0150084e-06,2.9676653e-07,8.6205745e-08,3.7881218e-08,4.0699965e-06
3.2946906e-07,2.648313e-06,1.0733207e-07,3.223615e-05,5.5212836e-06
2.6294472e-06,1.3198202e-05,1.5306318e-07,4.1419007e-06,5.1902102e-06
2.006383e-06,2.706976e-06,3.265508e-08,8.1448366e-07,4.4267504e-06
6.6303323e-06,7.640424e-06,4.464685e-07,2.7554447e-07,4.362413e-08
4.691673e-07,5.399823e-06,2.0997166e-07,4.4263803e-07,2.1443311e-06
6.5773597e-06,1.8237132e-06,2.2763248e-07,2.690345e-07,6.896587e-07
4.9475566e-05,3.2423029e-07,2.4760456e-07,2.2028568e-07,5.6446237e-07
5.7356494e-05,1.21485e-07,1.04127755e-08,8.9620573e-07,5.382396e-06
2.5813424e-05,1.3382693e-07,1.95398e-06,2.163495e-06,4.3942896e-06
9.2347445e-06,0.0,4.7950728e-08,1.4292532e-07,9.495961e-06
1.2519574e-07,1.0971524e-09,3.9714638e-07,1.2626208e-08,3.5726525e-06
1.2309016e-08,2.550541e-07,8.253235e-07,3.8424574e-08,3.5422147e-07
4.2945008e-08,0.0,1.7705554e-08,1.4420632e-06,3.0025257e-07
6.207416e-08,0.0,3.557436e-08,1.7792635e-07,2.6582936e-06
1.4412299e-07,0.0,1.3829493e-06,8.6653455e-07,6.0407126e-07
1.1026847e-09,0.0,1.3229088e-07,4.7782424e-07,3.4756866e-07
7.8199447e-10,0.0,2.700728e-07,2.8449645e-07,0.0
0.0,0.0,5.137858e-07,1.9490742e-06,0.0
0.0,0.0,2.6005054e-07,2.1964817e-07,0.0
0.0,0.0,2.931251e-07,7.747438e-07,0.0
0.0,0.0,1.5290615e-06,7.6951005e-07,0.0
0.0,0.0,2.2472578e-08,3.8198553e-07,0.0
0.0,0.0,2.1482936e-08,2.3818409e-08,0.0
0.0,0.0,1.9988732e-08,1.6813132e-08,0.0
0.0,0.0,2.5886338e-08,1.7826503e-07,0.0
0.0,0.0,1.2418951e-06,2.32545e-07,0.0
0.0,0.0,8.442377e-06,7.093381e-07,0.0
0.0,0.0,9.771562e-07,1.3355557e-07,0.0
0.0,0.0,2.3759236e-08,1.8154887e-07,0.0
0.0,0.0,8.3446174e-08,6.1011654e-09,0.0
0.0,0.0,3.02224e-09,0.0,0.0
0.0,0.0,0.0,1.7959936e-08,0.0
0.0,0.0,0.0,2.3281979e-09,0.0
0.0,0.0,0.0,6.312104e-08,0.0
0.0,0.0,1.4860603e-08,9.0362995e-08,0.0
0.0,0.0,5.6096474e-07,8.9717025e-07,0.0
0.0,0.0,4.234709e-06,7.7143795e-07,0.0
0.0,0.0,4.554483e-06,1.6218318e-07,0.0
0.0,1.0260918e-08,1.3294174e-06,7.8169745e-07,0.0
0.0,1.2458334e-07,2.7766392e-08,9.0236136e-07,1.7768328e-07
0.0,4.27114e-07,1.3887977e-07,1.9248805e-07,1.9034647e-06
0.0,3.8868055e-07,2.0208667e-07,2.1731873e-06,6.986355e-07
0.0,9.274335e-07,4.056537e-08,2.7210132e-07,1.0471771e-06
0.0,2.996079e-07,1.9413172e-07,3.5294163e-06,4.1659612e-07
0.0,2.1764004e-06,9.6117205e-08,1.2132659e-06,4.1622934e-07
0.0,0.0074765873,2.3200955e-06,8.927335e-07,1.101148e-06
0.0,0.059850696,2.3382604e-06,7.3817216e-07,5.2923717e-08
2.1422043e-08,2.6406815e-05,1.0351248e-06,2.4359022e-07,0.17614849
5.3675837e-08,1.05495e-06,1.300286e-06,1.6194563e-06,0.42576656
3.1883462e-07,3.768479e-07,1.0414089e-07,2.5648316e-07,4.0419847e-05
4.191456e-07,1.4793659e-05,3.1984614e-06,8.232333e-08,8.3161166e-07
4.1382938e-07,2.3441058e-05,1.869487e-07,4.777637e-07,2.8387437e-06
1.7136437e-06,2.330701e-06,1.4238204e-06,2.4840693e-07,4.3902824e-06
1.4108491e-06,7.8918873e-07,5.9383456e-05,6.187419e-05,1.5545627e-06
1.3179023e-08,1.6986309e-06,0.013588419,0.0015996689,1.4110559e-06
3.5022186e-08,2.3855825e-06,0.0165339,0.18601342,2.7730474e-07
0.0,6.5391305e-07,0.014198423,0.1705557,8.9714246e-07
0.0,1.5478888e-06,0.016610812,0.09040572,1.5428592e-06
4.68379e-08,7.963721e-07,8.625136e-05,0.18275589,7.114864e-07
3.7625507e-09,1.1941365e-06,1.4264549e-06,0.018085878,1.3556714e-06
0.0,5.9338055e-07,1.4567518e-08,6.203832e-07,8.870115e-07
0.0,1.0697687e-06,1.2479638e-06,1.4553228e-07,1.7363473e-06
0.0,4.1494286e-07,4.970945e-07,9.637131e-07,3.234466e-06
0.0,1.2333218e-06,1.01932955e-07,4.772006e-07,7.232624e-07
0.0,5.5628635e-07,4.088212e-07,1.2322441e-07,1.3829506e-07
0.0,5.7375072e-08,5.3098734e-07,2.3032419e-08,2.1889645e-07
0.0,1.2334036e-07,1.5025407e-07,2.656168e-07,4.807336e-07
0.0,1.5204681e-07,9.602693e-08,5.3876806e-07,0.0
2.7421648e-10,1.1365291e-06,1.4034642e-07,1.023236e-06,8.1217884e-08
5.4288705e-08,1.8300507e-06,4.1828645e-08,5.5501527e-08,5.451241e-07
2.9051512e-07,1.5144548e-06,5.276285e-08,7.033599e-08,1.744727e-06
7.659796e-07,3.6455774e-06,1.9430274e-07,9.247094e-07,1.7231476e-06
3.0186382e-06,5.424937e-07,2.0190791e-08,6.2547315e-07,4.1912529e-07
2.3093496e-06,2.642427e-06,8.184421e-09,1.0033822e-06,8.860669e-07
5.668552e-06,1.6093077e-06,0.0,6.7822907e-07,1.1227356e-06
1.5105283e-06,1.6687379e-06,0.0,4.3640765e-07,1.455917e-06
1.994883e-06,3.5824635e-07,0.0,5.9746172e-09,3.4057973e-07
2.0547986e-07,2.0903349e-06,0.0,1.0413995e-06,1.1725649e-07
3.635402e-07,8.116338e-07,2.3314358e-07,2.5090225e-07,2.3995565e-06
6.9117978e-06,7.650185e-07,1.1511636e-06,5.221646e-07,4.870924e-06
1.9467137e-05,3.514416e-06,1.204047e-07,7.914823e-07,3.956464e-06
4.910324e-06,2.7615042e-06,9.611673e-07,4.5954953e-06,5.991856e-07
2.7602746e-06,4.7110225e-07,3.082545e-06,1.1302918e-06,1.3094383e-06
2.2661283e-05,1.9576255e-06,1.7517982e-07,1.4357186e-05,4.7371252e-08
0.0077408515,1.9085842e-06,2.1265278e-06,4.4539743e-06,2.3283928e-06
0.010008084,2.1463354e-06,2.7490566e-06,4.3939593e-07,3.3718757e-06
0.0021534679,4.5141766e-07,2.8121942e-06,6.103596e-06,1.3031113e-06
0.007579486,1.7118919e-06,6.4830438e-06,2.0850966e-05,7.9818795e-07
0.014059783,2.5193887e-07,8.517757e-06,1.7829776e-05,4.2603315e-07
0.016318118,3.2013224e-06,5.782195e-06,0.00071992015,2.3355133e-07
0.014020656,2.4760635e-07,2.9366731e-06,0.007886366,7.244975e-06
0.0044916575,1.7332069e-07,3.7515335e-07,0.0070996867,4.1441162e-06
0.0049321866,1.3063673e-06,7.987406e-07,0.0011350279,5.092992e-07
0.005805912,6.659987e-07,4.359822e-07,0.0003642316,2.8001853e-07
0.0061990893,1.570652e-06,1.4527518e-06,0.00021378571,2.3229363e-07
0.006373692,1.2488256e-06,5.9751355e-06,2.0160614e-05,3.8571702e-07
0.010524333,6.411691e-07,5.4017196e-06,4.949139e-06,4.1252977e-07
0.01907105,7.8575243e-07,2.4733674e-06,2.921941e-07,1.99613e-07
0.015859678,1.3138788e-06,5.203665e-07,7.117308e-08,9.181927e-07
0.010042351,1.9621066e-06,4.946223e-07,8.043893e-06,2.5274094e-06
0.00294777,1.2944768e-06,3.7330726e-06,2.691894e-07,1.841917e-06
0.008806514,1.4802043e-06,8.748484e-07,1.2187031e-07,2.749581e-07
0.03395964,1.3186375e-06,5.836408e-07,5.644544e-07,4.3767086e-06
0.039033055,2.6449513e-06,7.4230485e-07,4.6463373e-07,3.6105058e-07
0.034977574,1.5765794e-06,1.3499636e-06,8.931589e-07,2.3538996e-06
0.019263461,5.666415e-07,6.8056494e-07,4.0600303e-06,5.527112e-07
0.027330635,3.1981692e-06,2.2375377e-06,9.382152e-06,1.0765941e-06
0.025280934,2.517115e-06,2.057562e-06,4.680742e-06,2.660654e-06
0.013993112,3.0380422e-06,3.0318238e-06,1.2369147e-05,3.0179624e-06
0.0067185736,3.5311697e-07,6.114151e-07,1.4351709e-05,2.1965034e-08
0.014184153,4.442725e-06,2.2355788e-07,6.0764596e-06,6.2812883e-06
0.02311329,2.6179164e-06,1.8864097e-06,4.3942113e-05,3.476965e-05
0.026289588,9.116525e-07,6.02697e-07,5.5724602e-05,7.577636e-06
0.017906943,1.7053796e-06,1.7826995e-06,2.7722206e-06,9.1168595e-06
0.0033674997,1.1705698e-07,8.5004046e-07,1.8059458e-06,3.1050815e-06
0.0026690364,1.5327499e-06,1.2159323e-07,1.2169255e-06,1.4500855e-06
0.003002047,1.219348e-06,1.0942332e-07,1.3662258e-06,1.1991096e-05
0.0011233342,2.1222094e-07,3.5796322e-08,1.3792073e-06,1.5805384e-05
0.001702539,1.9252335e-08,0.0006041908,4.322146e-06,4.737601e-06
0.0010329791,4.845726e-09,1.879138e-06,2.0589963e-05,3.2059852e-06
6.334233e-05,1.9343893e-06,1.3677178e-06,0.0005303975,2.3691186e-06
0.00014536023,5.092549e-07,1.5489899e-06,2.343475e-05,2.1132287e-06
8.71763e-05,2.1322985e-06,4.576706e-05,5.0534936e-06,7.13757e-07
0.00018415488,4.173345e-06,0.0025679024,9.782827e-06,3.1737807e-06
0.0001330112,3.01548e-07,0.007464198,1.8315939e-06,2.8845657e-06
3.1773263e-06,3.6085903e-06,0.007751231,1.1362331e-05,5.2541094e-07
3.4903312e-06,3.838798e-06,0.0029322845,1.0279239e-06,3.4807476e-07
2.6953157e-07,2.4163853e-06,1.4013392e-06,1.397885e-05,3.3439142e-06
6.7693372e-06,1.7205231e-06,8.260028e-07,1.751347e-05,3.1248585e-06
1.5375277e-07,2.0848309e-07,9.83368e-07,1.3523817e-05,9.592478e-07
1.5125705e-06,1.291287e-07,1.0063593e-06,1.9475351e-08,1.4120152e-06
3.4926943e-05,4.050139e-07,9.577795e-07,4.946665e-06,7.56874e-07
0.0001994694,4.7098155e-07,2.5897043e-07,2.0270886e-06,1.1564108e-06
0.00046537232,7.715732e-07,4.5887973e-07,7.3938018e-06,1.555429e-06
0.0011954234,7.618031e-07,2.572699e-07,1.1998651e-05,1.8913181e-06
0.0017229952,0.08307458,0.000115865885,7.497611e-05,4.339107e-06
0.002470171,5.5263727e-06,0.0073677814,2.4315015e-05,0.022300027
0.09487934,1.5567791,0.15793076,8.946638e-06,0.812538
0.536825,2.309793,0.36588758,8.18281e-07,2.0818431
0.9070054,3.4615164,0.18831716,8.522049e-07,2.5412621
1.6211388,2.5872166,0.124909006,0.032841116,0.38151938
2.6132536,0.065007426,0.21339795,0.08847018,0.016671702
1.9969046,0.037687268,0.20355582,0.2875792,0.011534155
1.3578184,0.0002971803,0.15634853,0.116682366,1.5294178e-05
1.0351789,0.00015794422,0.05129908,0.19463573,4.585636e-05
0.08978131,5.0761017e-05,0.15878692,5.146827e-07,6.4328005e-06
0.18266982,8.0341815e-06,4.3620398e-07,6.4645483e-06,3.124251e-07
0.38257915,4.901408e-06,1.2899914e-06,0.033489596,3.0567778e-06
0.21354955,4.250632e-06,1.8360913e-06,0.010686905,1.1184773e-06
0.0076044286,3.0868955e-06,0.0036414498,4.3942245e-07,4.3216087e-06
1.4283107e-06,1.2836534e-08,0.0026898617,0.0,8.008613e-07
6.1258714e-07,6.9539055e-07,1.0745092e-06,1.2561798e-08,7.72049e-08
7.8841254e-07,6.5218674e-06,3.2894977e-07,3.8292283e-06,6.709566e-07
1.4958805e-07,4.6325172e-07,3.377162e-07,5.0033364e-08,8.079557e-06
1.2892227e-07,9.120721e-07,3.1922582e-08,1.9960078e-07,4.5179327e-06
4.2936574e-07,7.160532e-07,4.4030084e-08,5.6307687e-07,3.810286e-06
1.0221322e-06,5.1908273e-07,5.96079e-07,2.089042e-08,4.5539814e-06
2.0385307e-06,6.912027e-07,9.373819e-08,5.022882e-07,2.0301907e-06
1.0732809e-06,5.043705e-07,4.5219363e-07,4.6273155e-07,7.1983663e-07
3.844265e-06,2.1824933e-06,2.1013354e-07,1.6195148e-07,9.908784e-07
2.152176e-06,5.167597e-06,3.4528966e-07,4.6820963e-07,1.1555162e-06
1.7698438e-06,1.261289e-06,3.1364212e-07,4.119719e-07,9.2147997e-07
4.9080118e-05,7.3975825e-06,8.574202e-07,1.475797e-06,1.5838075e-06
0.0008211844,4.052561e-06,1.7580281e-06,2.6252224e-07,2.0129223e-06
0.0058010244,2.3817568e-06,1.4888593e-06,4.029739e-07,2.9516264e-06
0.002427265,0.0039228676,3.268929e-07,8.123931e-07,0.0006445848
0.0031364989,0.02306013,9.2041745e-07,5.6777674e-07,0.04937033
0.0043930807,2.1752446e-06,2.993805e-07,1.1801237e-06,1.3727202e-06
0.0063108345,1.917927e-06,2.8256943e-07,1.6366523e-05,9.263667e-07
0.023587484,1.5079415e-06,1.4666463e-05,1.2904815e-06,6.5604007e-09
0.013729682,3.7724928e-07,0.014517705,0.0020126759,5.760033e-07
0.012502051,6.5496266e-07,9.523677e-05,0.0014488506,6.874634e-07
0.0065453094,1.5965726e-07,1.0677219e-06,2.2473184e-06,9.074357e-07
0.0060109515,1.8385931e-06,6.9153737e-07,6.707476e-07,1.204375e-07
0.0031811926,2.453971e-06,5.4032716e-07,9.965631e-08,2.082905e-06
0.0034282363,3.8480093e-06,4.5169703e-08,1.0457895e-07,4.897749e-06
0.0075366907,6.6297184e-07,1.9832969e-09,3.0364625e-08,7.5098637e-06
0.0034404926,1.1851763e-06,0.0,5.738408e-07,1.9715533e-05
0.00080755743,1.5536175e-06,2.904511e-09,2.2954174e-07,9.651391e-06
0.00017025799,6.839767e-07,9.2392646e-08,1.2915729e-07,1.1166842e-06
0.00010060934,4.440215e-07,0.0,6.945711e-08,5.520272e-07
0.00013985211,6.216847e-07,4.3073295e-10,6.8944695e-07,6.083403e-07
0.0019951535,5.8687874e-07,2.346701e-09,2.9728169e-09,9.671353e-07
0.0010075982,2.6388852e-07,1.825086e-09,8.724887e-09,1.2083518e-06
0.00048136807,1.9253152e-06,6.1924053e-09,5.166223e-07,2.5211714e-06
7.189136e-06,2.171643e-06,5.85442e-07,1.6509874e-06,3.5969788e-06
7.4662404e-07,3.4086918e-06,2.6639438e-07,7.810816e-07,3.4250365e-07
1.0667076e-06,7.986443e-06,5.5799465e-08,1.3172773e-06,1.9381225e-06
6.120166e-06,0.021874225,1.309456e-07,5.392941e-07,3.4051587e-05
2.9386508e-06,0.075048044,8.599427e-08,1.1930652e-07,0.012090229
0.00043272387,0.0007773529,2.4346994e-07,6.2183835e-07,0.00014043489
0.0022640983,2.9064032e-07,1.254367e-07,4.816772e-06,9.543076e-07
0.008681474,2.3749122e-07,1.0334769e-06,6.621805e-06,6.065668e-08
0.019609245,1.5081494e-07,0.00026447515,2.9699024e-06,9.681698e-08
0.013087518,5.263834e-07,0.002766548,1.2164105e-05,1.7459733e-06
0.029634412,2.4740648e-06,0.0022157715,2.573139e-06,1.6207878e-07
0.029085018,5.701268e-07,2.5061994e-05,4.3658332e-07,5.617845e-07
0.010024359,3.5665596e-07,1.8142567e-06,6.7809754e-07,2.2396744e-06
9.953465e-05,6.436737e-07,1.6551128e-06,4.5449198e-07,1.5252245e-07
7.920016e-06,8.211219e-07,1.6181299e-06,3.4139248e-08,1.2202457e-07
0.00043468174,0.0034229876,4.0103208e-07,4.8940404e-07,0.005434523
0.0011564515,1.228677,4.0483762e-08,3.3089568e-06,1.4607834
5.787866e-07,1.1195894,6.1931665e-08,2.1661367e-06,2.4098203
1.6861861e-07,2.2232203,2.2141462e-06,0.046947405,1.9494861
0.017821586,0.5876672,0.79693073,0.6172951,0.5833737
0.03613548,1.2914224,1.7691029,1.0024354,0.5667713
0.24477054,0.5874236,1.3129196,0.7508619,0.5944524
1.9291843,0.0038696828,1.3667247,0.31424528,0.0009740889
1.4489646,2.3003279e-06,0.614864,0.011842728,3.2678781e-06
1.2340528,4.63295e-07,0.0069436864,0.00010679272,0.00822463
1.1968716,3.0156223e-06,1.4380197e-06,2.362481e-07,2.6406395e-05
0.77414286,2.652298e-06,2.211111e-06,2.7682736e-07,2.5262617e-07
0.8880332,3.347132e-06,0.09251228,9.793064e-07,1.7796854e-05
0.20121637,2.7860333e-06,1.08238655e-05,3.983474e-06,1.1948533e-05
4.905088e-06,6.534376e-05,4.15956e-05,1.2426555e-06,4.169864e-05
0.0063796327,9.327204e-05,1.3811956e-07,1.665503e-07,6.3154555e-05
0.027942495,8.1268234e-05,9.590847e-08,8.055568e-06,5.3571974e-05
0.42232513,0.00010632845,7.330735e-07,7.3224954e-05,4.5454042e-05
0.2684508,0.000115315706,1.7524737e-06,7.427099e-06,5.811514e-05
2.4415028e-06,0.00036049314,5.134977e-07,3.191739e-05,8.291073e-06
5.7363573e-05,0.15141645,4.3021666e-07,5.1176936e-05,8.184727e-05
0.8161692,0.23675516,0.0005372026,0.04003069,0.004681446
1.1679851,0.0060657538,0.00037935388,0.15594071,0.025788106
1.3463328,0.487497,6.221912e-05,0.000611501,0.42152086
1.5061808,1.2752756,1.1414764,0.0019272093,1.6135343
1.0308578,3.1492853,1.4409205,0.17953475,1.5958842
0.45291448,7.918134,0.9245942,1.6463611,3.080786
0.10668556,5.7282505,2.84747,1.3570019,3.8735466
0.4625052,2.3350449,3.974012,2.4183393,1.9717883
1.1005361,3.6321242,4.3813004,3.4813938,2.1067321
1.3467696,2.4929795,4.7392716,2.764211,3.0738456
0.48022,0.23611934,3.2629964,1.9912806,0.5258941
0.12182224,0.0142308315,4.2349944,1.8755792,1.1605819e-06
0.041459475,6.411038e-07,3.0966065,0.59968907,7.854715e-07
0.0007452332,6.610959e-06,0.011372736,1.728088e-06,9.697718e-08
1.6586326e-05,1.1807928e-05,7.0698943e-06,9.3139175e-07,5.4971993e-06
2.7773833e-06,1.1366776e-06,3.1348625e-06,3.5762798e-07,4.237968e-06
9.676249e-07,1.0987093e-06,1.2968015e-06,1.9794939e-07,5.908207e-07
2.4236035e-06,1.043741e-06,2.0379805e-06,0.00014771466,6.8658255e-06
6.15915e-07,8.173035e-07,1.4026651e-07,1.6532003e-05,3.320883e-07
3.0774859e-06,2.5091167e-06,5.600735e-07,4.444475e-05,8.315066e-06
0.0005092792,3.5978176e-06,0.16752508,0.004378318,2.6295146e-07
0.09918082,1.6231897e-06,0.083805315,0.08487482,2.585013e-07
0.0062837387,1.4813745e-06,2.3537817e-07,0.041329578,4.2289278e-07
9.628203e-07,9.0909765e-05,1.6038376e-06,6.022757e-07,4.3169288e-07
1.1490882e-06,1.3908985e-06,1.028851e-05,0.0012992286,8.525834e-06
4.954991e-07,0.008790028,0.045514412,8.347365e-07,1.2126403e-06
5.9822605e-07,0.10589119,3.7076515e-07,9.2313735e-07,0.0010700019
3.077066e-06,0.0007644099,0.076560155,8.666536e-06,0.0005566903
2.088177e-07,4.9260702e-06,0.007677264,1.3260978e-07,3.8168147e-07
2.7109434e-07,0.0020502703,3.6102134e-07,2.521202e-07,0.045035623
4.785772e-07,1.0584815,4.568563e-07,3.825263e-07,0.5684719
1.6436559e-06,1.6653227,2.5767276e-06,1.6786758e-05,1.2772294
0.01919454,1.7532644,0.11716276,0.61813134,1.5306268
0.0670055,2.7921934,2.6033044,0.6176448,2.05382
6.4000847e-07,3.4234893,3.7243931,1.0970592,3.2938964
0.5484072,2.0940325,4.6770186,1.3501239,2.3901598
0.70764256,0.23991351,3.5089056,1.3506898,0.86938846
1.1676025,6.522356e-07,2.9915562,0.963869,5.843493e-06
0.45877483,4.3943064e-06,1.0818616,0.7900886,5.2619487e-07
0.9161639,3.5943353e-06,0.6625317,0.0005835235,1.1573702e-06
0.07423292,2.4518788e-06,5.495618e-07,6.439734e-07,2.0268503e-06
1.2689816e-06,1.3084857e-06,3.7134032e-07,5.1729825e-07,4.5395882e-07
2.1355021e-07,6.4329754e-07,9.844701e-06,1.16381614e-07,4.903789e-07
1.4953915e-06,2.2514184e-06,0.0019481127,1.1168905e-06,2.8693108e-07
3.2127687e-07,0.5368145,0.034605905,9.714635e-07,7.0190055e-07
8.973354e-07,0.019920016,2.8686856e-07,4.908385e-06,6.963284e-05
4.1244638e-07,0.95116645,0.00020244523,0.005970489,4.035532
3.8830098e-07,0.52867246,0.004793118,0.000109507346,0.45701766
0.00016474219,0.019187285,4.9777056e-05,1.5502334,0.44692597
0.12922955,0.00065526686,0.025275638,0.2706372,6.7962123e-06
0.622582,8.611113e-07,4.3929133,0.47843364,7.752203e-08
0.03709319,6.289747e-07,0.029658137,2.0212804e-06,1.3850084e-07
0.017172324,9.413331e-07,0.0006010473,0.00057372334,1.6444715e-06
0.09734364,7.470228e-07,3.4427354,7.124795e-08,1.830467e-07
7.393709e-08,2.3859183e-08,0.01301754,0.0005722732,6.733708e-08
7.086231e-08,1.8535463e-08,0.09130794,0.00010811816,4.3463803e-07
2.4206466e-07,0.0,3.659144e-08,2.4254996e-05,1.9219758e-07
8.210492e-07,2.772799e-07,0.30919877,4.789087,5.96483e-07
0.011292729,6.275546e-07,3.71797e-06,9.962132e-07,2.7967596e-07
1.318022,1.2246286e-06,0.6587334,3.1183336e-09,2.7968656e-07
