"[299, 255]","[227, 248]","[287, 319]","[279, 328]","[230, 262]"
2.328061e-06,4.9677567e-07,4.905436e-07,1.4444836e-06,0.0
2.8389562e-07,1.9317472e-08,2.105908e-06,2.4924145e-06,0.0
3.4507502e-05,0.0,4.709556e-06,1.0532934e-05,1.3611037e-07
1.6879125e-05,1.1491587e-06,6.695498e-07,1.1597601e-05,5.94833e-07
0.00010756094,2.6944554e-06,1.0599479e-06,7.9840356e-05,4.6141247e-07
2.2123727e-06,8.502517e-07,2.4820774e-06,2.4618237e-05,4.4682183e-06
1.498729e-06,5.430307e-06,3.4836145e-07,4.451879e-06,4.7239187e-06
4.971842e-07,3.3025788e-06,1.717436e-06,1.4343158e-06,7.842145e-07
8.9350465e-07,6.0200784e-07,2.811609e-07,1.32137e-05,1.0703447e-08
3.618536e-07,4.4177605e-07,2.3656168e-07,2.2331906e-06,5.6999054e-09
1.7358095e-06,2.6226147e-07,4.5596033e-07,1.528899e-06,4.009201e-08
0.21493505,6.3878014e-09,2.2945137e-06,1.8400599e-06,5.7052273e-07
0.025134498,3.9403364e-10,3.8173607e-06,4.7599175e-07,2.0588426e-07
1.8026919e-06,4.7584058e-07,1.2010622e-06,1.620034e-06,9.609839e-09
1.9377197e-07,1.9866901e-08,3.382805e-07,1.3817744e-06,0.0
2.603935e-06,0.0,3.2921635e-06,1.930586e-06,0.0
4.8449037e-06,0.0,1.3272249e-06,1.332478e-06,0.0
3.5863573e-06,0.0,4.1642258e-07,6.348621e-07,0.0
1.6725562e-06,0.0,8.057263e-07,6.3639727e-06,0.0
5.338749e-06,0.0,5.17742e-07,4.585281e-06,0.0
2.0419195e-05,0.0,3.877186e-06,3.6567675e-07,0.0
0.000100498815,0.0,1.7655525e-06,4.7597646e-07,0.0
5.3978156e-06,0.0,1.5215784e-07,4.0372274e-06,5.9978045e-09
5.6175004e-06,2.5321254e-09,6.0206965e-08,2.0904692e-05,0.0
1.5087705e-06,1.1319681e-06,1.409814e-06,1.0060305e-05,1.057869e-07
3.932787e-09,4.6371073e-07,1.30811495e-05,7.0049573e-06,1.9686732e-07
0.0,3.4806948e-07,4.8415717e-07,9.557845e-07,9.844434e-08
7.765861e-07,8.084245e-07,1.6806116e-06,1.7885473e-07,1.6194755e-06
5.8517736e-07,1.1454797e-06,1.79358e-06,1.4456563e-06,1.1435864e-06
2.4365852e-07,6.7642736e-07,5.0372887e-06,8.047273e-06,9.2668625e-07
3.819647e-06,3.8848775e-06,4.272864e-06,2.1753565e-06,2.3327343e-06
2.207507e-06,1.6037806e-07,2.776361e-07,6.1841047e-06,2.2906422e-06
3.4524388e-07,4.0142336e-07,6.5589217e-07,1.0113322e-06,4.0315274e-07
1.8546125e-06,7.879265e-07,2.5617192e-06,1.1239946e-06,6.048586e-07
0.0022735116,8.824243e-06,1.0813457e-06,1.4406331e-06,7.826912e-07
1.4809357e-06,1.8507026e-06,1.4632462e-06,3.0432018e-06,2.4387086e-06
1.921678e-06,4.269042e-09,3.4045694e-05,2.0090297e-06,3.5169935e-06
3.6842912e-06,3.7103283e-07,0.00024544465,0.0002125813,3.2945209e-06
4.8784835e-07,1.8846856e-06,1.7431374e-06,2.345163e-06,1.9700308e-06
2.7446351e-06,3.3906015e-06,4.6373675e-06,3.935996e-06,3.4532218e-06
1.645362e-06,1.0107211e-06,3.0204576e-06,0.00016554579,1.4436873e-06
1.0754794e-06,1.7785405e-06,2.1078204e-06,1.439748e-06,1.9662043e-06
0.06855673,2.4285325e-06,1.1557936e-06,1.5380035e-06,1.5886499e-06
1.0904989e-06,1.003952e-06,9.110842e-07,1.3510943e-06,3.4504715e-06
1.0032554e-06,1.5634972e-06,2.6610492e-06,8.82853e-07,1.4457029e-06
1.8238992e-05,1.2150701e-06,4.5293154e-07,2.737018e-06,1.0059028e-06
1.4782724e-05,7.546847e-06,1.6677423e-06,8.2495e-08,1.5486772e-06
4.1925847e-07,1.3133576e-06,2.6311152e-06,2.1824673e-07,2.0708494e-06
1.3601102e-10,0.099222474,6.604784e-07,6.0403346e-07,2.5311315e-06
0.0,0.032577343,4.9829913e-07,1.6785798e-07,6.4465776e-06
2.3447253e-09,2.0165978e-06,4.85036e-07,4.4670153e-07,3.6210935e-07
1.7696996e-06,7.426628e-07,8.8849987e-07,2.8342807e-05,1.9687195e-06
3.0732133e-06,3.294615e-07,1.5283236e-07,8.778192e-05,5.844032e-06
2.4449703e-08,0.59098935,2.2246388e-06,0.8212746,1.2879889e-06
3.20562e-07,0.039338436,1.5481262,0.15405008,2.863708e-06
3.6397003e-07,4.108499e-06,7.780932e-05,2.7801002e-07,3.6115994e-06
5.239368e-07,2.3118334e-06,1.4756158e-06,4.186515e-06,9.990448e-07
1.0521971e-06,5.692822e-07,1.5826191e-06,2.0843502e-06,0.001646489
0.23534366,1.9645982e-07,7.3921774e-07,1.9318059e-06,7.595336e-07
1.040006,2.202171e-06,2.4593248e-06,1.4111691e-06,2.8089464e-06
4.0706163e-07,1.1817947e-06,0.027214285,2.5753207e-06,9.0766036e-07
0.0015261939,3.4514562e-07,0.004175795,0.053885855,2.5153063e-06
1.6557921,9.295961e-07,8.345179e-06,0.00080453156,0.0
5.792802e-07,1.6564024e-06,6.2460194e-06,0.00048805217,0.0
1.985121e-06,0.0,8.883184e-05,0.013003168,0.0
0.00090370496,0.0,9.236498e-05,2.323877e-05,5.8805816e-10
3.0959848e-06,0.0,4.6274395e-06,2.8197799e-06,0.0
4.811945e-06,0.0,6.4379014e-07,9.459437e-07,5.326458e-10
6.5532197e-07,0.0,7.0221486e-06,7.3633123e-07,4.647472e-05
1.3239763e-05,9.170359e-06,2.0508824e-06,1.4728124e-06,5.2509665e-07
6.190574e-06,1.130679e-05,6.9460253e-07,3.8174238e-07,1.3876744e-06
1.0816105e-07,0.005001712,7.4631856e-07,3.419648e-08,1.3342571e-06
5.68664e-09,2.9793869e-06,1.1760587e-06,9.685671e-09,2.2590484e-07
5.939146e-08,1.0342064e-06,2.3323016e-06,0.0,1.5400994e-05
6.6276705e-08,1.7267406e-06,2.4048559e-06,5.0362866e-07,3.8226217e-06
5.475782e-07,6.4134565e-07,1.3918074e-06,6.327933e-07,2.8112481e-06
3.6681245e-09,1.1194131e-06,4.437845e-07,3.5533205e-07,1.5147205e-06
1.8424832e-07,1.6737373e-06,1.6669837e-07,4.015507e-07,9.365181e-06
5.553159e-07,0.005189222,1.813992e-07,1.3984094e-06,6.303707e-06
9.690176e-07,1.660167e-06,7.386306e-07,1.2958645e-06,1.7850388e-06
1.3360038e-06,1.7653626e-06,2.362159e-06,1.5391544e-06,0.00057428895
1.366264e-06,6.196876e-07,1.6276322e-06,0.00037092145,0.07463623
0.11727178,8.2877267e-07,8.602158e-07,0.00013035994,1.1450517e-06
0.07205976,1.94146e-06,1.7753545e-06,5.4994445e-07,3.093599e-07
0.077039525,1.7457278e-06,0.0006909489,0.019256897,1.0827781e-06
0.7312963,1.5574246e-06,3.0146119e-05,1.4114544e-06,8.266789e-08
1.7672899,2.7295007e-07,0.016553309,9.60371e-05,2.356013e-09
0.00021705551,6.011124e-07,0.3357214,4.5094907e-07,0.0
0.3668853,1.98951e-06,1.1549704e-06,2.0322705e-06,7.766665e-06
7.264045e-05,3.5478697e-06,2.021245e-06,2.4397248e-06,7.4775585e-06
5.60392e-06,1.2551893e-06,1.0077017e-06,1.2140167e-06,2.8836594e-06
4.3341382e-07,6.6233076e-07,2.8824518e-06,1.3576513e-06,4.726143e-06
3.9908855e-06,4.867787e-07,1.573682e-06,8.423413e-07,0.012869782
5.741712e-07,1.023599,6.031668e-07,1.4921095e-06,6.555944e-07
7.153286e-10,0.30868512,0.0,6.154632e-07,3.1945187e-06
2.8786292e-08,1.6869104e-06,2.4882072e-06,1.6059323e-07,4.5623583e-08
3.0174346e-07,1.0913475e-05,7.539158e-07,7.547115e-07,4.1843577e-07
8.41368e-08,2.4244355e-06,6.76013e-07,4.0143178e-07,2.0484395e-06
3.769793e-07,1.7328157e-06,3.4917576e-07,4.1084618e-07,9.053245e-07
3.8901808e-07,3.9707e-06,1.7595294e-06,2.0333954e-07,4.192435e-06
1.2745852e-07,9.9998315e-06,0.0010571871,4.686863e-07,1.2981677e-06
1.1351191e-07,8.992706e-06,1.3328612e-06,5.89921e-07,7.1149464e-07
1.8888133e-07,1.6412505e-05,1.3342005e-06,0.24117337,4.663849e-06
5.1079627e-07,8.614583e-07,5.13525e-07,1.3510193e-06,1.4901542e-06
1.2256137e-06,4.1793862e-07,9.3612647e-07,1.0695626e-06,1.4935715e-06
2.1544786e-06,6.8502476e-07,0.007837261,1.6798592e-06,6.9238774e-07
5.6944566e-07,0.0050795577,9.579302e-07,0.010388128,8.8201466e-07
0.0028153728,1.081774e-06,1.3917241e-06,0.062063873,1.2556216e-06
1.5351764e-06,1.9975885e-06,2.2028757e-06,1.2901726e-06,1.893803e-06
1.3482845e-06,1.9727614e-07,1.8344206e-06,1.5590165e-06,3.6165085e-07
7.9875923e-07,3.9691304e-06,3.288092e-06,2.3088585e-06,3.013476e-07
3.113887e-07,1.4359111e-06,4.7101307e-06,3.997803e-06,8.9973774e-08
0.00020538372,1.3388014e-07,2.3375064e-06,8.3754287e-07,5.468466e-07
1.3437707e-07,1.6545181e-07,2.0703792e-06,2.793372e-06,2.1313092e-07
1.5634611e-06,1.8195765e-06,6.2631824e-07,3.8688572e-07,2.3080895e-06
3.2811697e-06,2.6637366e-07,2.4989248e-07,8.9604384e-07,4.239145e-06
3.3507538e-06,9.562863e-10,1.2949829e-06,3.0744212e-07,2.5096112e-06
9.9766154e-08,1.0445219e-06,1.657554e-06,3.6580758e-09,5.354681e-06
8.4687235e-10,2.820451e-06,9.758581e-07,0.0,3.869464e-06
0.0,2.776325e-07,2.4289043e-06,1.010706e-08,5.1350044e-06
0.0,1.894334e-07,1.87269e-06,7.1924866e-08,2.6857083e-06
0.0,3.3324125e-07,6.455898e-07,2.7126893e-07,7.5975834e-07
3.586761e-08,1.406933e-06,4.114806e-06,1.1318897e-06,2.0515936e-06
1.7652054e-06,1.5649515e-08,1.0748787e-06,8.955039e-07,2.025415e-06
3.7801218e-08,1.2555739e-09,1.1977583e-07,2.4476577e-07,1.300345e-06
1.9997753e-06,6.910397e-10,1.2634583e-06,6.0313005e-07,2.7782844e-06
3.3692224e-08,2.1258373e-07,3.9141887e-07,2.2348952e-07,3.1207333e-06
6.899936e-08,7.824382e-08,7.266006e-07,3.8287266e-07,2.4536216e-06
1.7447729e-06,5.5332152e-06,8.0430976e-07,1.1269933e-06,2.2237007e-06
8.213206e-07,1.4826384e-06,1.3685884e-06,1.1662918e-06,2.1285593e-06
1.7325273e-06,5.1506447e-07,2.7075373e-06,1.2653798e-06,8.7641314e-07
2.185505e-06,2.4752905e-10,1.6870935e-06,2.195813e-06,1.1472562e-06
3.710273e-06,2.8262264e-07,2.3862149e-06,2.6822763e-06,4.201589e-07
2.004457e-06,2.362392e-06,5.609131e-06,6.7175534e-07,8.616994e-07
2.7171993e-06,4.768495e-07,4.3576115e-06,2.915555e-06,4.2722007e-07
2.8259649e-06,1.5024542e-06,2.711187e-07,1.0149795e-06,1.473718e-06
1.9184974e-06,1.1298355e-06,2.0179843e-06,1.0548937e-06,1.5478926e-06
6.5203807e-07,2.2401016e-06,5.846815e-07,2.7504436e-06,4.0579536e-07
0.029142715,7.820245e-08,8.0261536e-08,1.9430318e-07,1.5691521e-06
1.6871151e-06,4.1764515e-06,7.0877957e-07,2.5426343e-06,5.087027e-06
4.1499773e-09,2.831545e-06,2.1264448e-06,1.9329327e-06,5.950038e-06
1.1546687e-08,3.8589087e-06,6.3882545e-08,1.1116216e-06,2.057802e-06
6.823034e-07,2.6156533e-06,5.4226035e-07,1.0764281e-06,3.6495371e-06
1.4791628e-06,1.1911307e-06,2.7229353e-07,1.2712044e-05,2.5366242e-06
3.732433e-07,9.28302e-06,9.613667e-07,4.2716965e-07,1.0363991e-07
6.3063686e-07,5.8129586e-07,5.458592e-06,2.5428497e-07,5.0077806e-06
1.1656854e-06,5.400395e-06,3.430966e-06,0.05848785,2.3802299e-05
6.140443e-07,5.1655657e-06,9.2189214e-07,1.24673015e-05,0.00021575486
1.1166444e-06,1.533457e-06,6.7801255e-07,8.9275716e-07,1.1771659e-05
6.308189e-07,1.6386969e-06,5.235047e-07,1.5146318e-07,6.0443135e-06
9.816312e-07,1.2732481e-07,1.3454084e-06,2.786411e-07,6.8123063e-07
1.9775841e-06,1.9841967e-07,1.2579766e-06,2.346107e-06,1.0330358e-06
1.6970106e-06,3.0866568e-06,4.0122017e-05,7.639812e-07,4.9815877e-05
1.7366954e-06,1.0829691e-06,3.8109585e-05,1.7161998e-06,1.9563319e-07
1.6194281e-06,2.220139e-06,1.7305797e-06,2.6884916e-06,8.607141e-07
1.4202814e-06,2.4356134e-06,2.0736068e-06,5.7562136e-07,1.0554131e-06
3.1897891e-06,3.5104151e-06,8.1283673e-07,2.310943e-06,1.5923853e-06
1.4291617e-06,4.254073e-06,2.6801902e-06,1.8311716e-06,9.1000976e-07
7.276309e-08,5.4916713e-06,2.3667262e-06,2.1153974e-06,1.1406144e-06
1.7625367e-06,1.9486283e-06,2.1598514e-06,2.6125183e-06,8.921262e-07
2.370353e-06,1.1254565e-05,2.704049e-06,1.454524e-06,6.8436896e-07
1.2480599e-06,5.027899e-06,5.4273564e-06,3.0710357e-06,9.295588e-06
2.3640803e-06,1.2547174e-06,1.3980599e-06,2.2087452e-06,3.7262637e-06
2.1637861e-06,2.9581274e-08,3.0292867e-06,1.2630478e-06,3.3913343e-06
9.993696e-07,0.0,4.4590007e-07,1.887271e-06,6.1236295e-07
1.5020105e-07,0.0,9.3890304e-07,9.68234e-07,5.251741e-07
4.1564567e-07,0.0,4.0447026e-07,2.9374993e-07,2.4849248e-07
3.949686e-07,0.0,1.3401265e-07,0.0,3.6487563e-07
9.34042e-08,0.0,8.171245e-07,9.386094e-07,4.0776854e-06
7.872651e-07,0.0,1.0205837e-06,1.2527429e-06,1.0428271e-06
1.4245256e-05,4.89978e-06,1.5389047e-06,7.8193926e-07,1.9300958e-06
1.6557348e-06,2.7323418e-07,8.607228e-07,2.7009683e-06,3.4344515e-07
1.3076082e-06,1.6484337e-06,1.5710702e-06,1.5049151e-06,2.0691523e-06
1.0092178e-06,1.4079989e-06,1.5583583e-06,2.851387e-06,3.198107e-07
1.5759314e-06,5.0584487e-07,3.0376157e-06,1.2268761e-06,1.3185472e-06
1.3650589e-06,2.467425e-06,2.4948727e-06,5.751936e-06,1.7305209e-06
1.0971318e-06,2.8600364e-06,1.0723923e-06,2.0973778e-06,1.4972436e-06
3.7480354e-06,9.895704e-07,3.5126593e-06,2.4157328e-06,3.8557996e-06
1.1090987e-06,8.7560016e-07,2.7910414e-06,1.7484094e-06,5.65235e-06
3.0288631e-06,2.1315916e-06,1.2754723e-06,1.1004771e-06,3.3089589e-06
1.3932736e-06,1.7696428e-06,7.267345e-07,5.1244336e-07,1.6476035e-06
1.8575194e-06,1.9901781e-06,2.011145e-06,5.847701e-07,6.153118e-07
2.7501637e-06,4.155784e-07,3.6266158e-07,1.0750533e-06,5.005908e-07
1.2093893e-06,9.056456e-08,7.0331026e-07,9.297428e-07,4.8352543e-08
2.646711e-06,1.2967281e-07,2.3829021e-07,7.3507044e-07,4.786685e-07
2.72518e-06,1.2301078e-06,4.7845555e-07,1.4602939e-06,7.75242e-07
5.3086414e-06,9.545621e-06,3.872572e-06,1.3809262e-06,1.141111e-06
9.23672e-07,1.2025855e-05,2.8204965e-06,5.06755e-06,3.123395e-06
5.250463e-07,4.800417e-06,2.1054855e-06,1.2573898e-06,2.0218163e-06
2.4738006e-06,2.068211e-07,3.0471867e-06,2.1252795e-06,1.4542907e-07
2.4222238e-06,8.172557e-08,1.6795398e-06,1.3223465e-06,5.828462e-07
2.160663e-06,6.7456227e-09,2.8745617e-06,2.068689e-06,4.811082e-07
1.5999419e-06,0.0,1.6304548e-06,2.1462695e-06,6.544396e-07
2.422497e-06,2.4650354e-10,1.7927781e-06,4.336159e-06,4.4530918e-07
1.3200264e-06,0.0,1.2936708e-06,8.2851545e-07,4.64715e-10
5.1149186e-07,0.0,2.0335399e-06,1.256246e-06,0.0
1.3630821e-06,1.92616e-08,2.891358e-06,3.5746677e-07,1.0837972e-06
1.7014064e-06,6.551052e-06,3.0696906e-06,1.5994124e-06,7.8127573e-07
8.476479e-07,3.874734e-06,7.63228e-07,1.7219774e-06,1.5618966e-06
2.2229417e-06,4.484778e-06,1.1087085e-06,2.0133893e-06,5.725012e-07
7.497006e-07,2.0239365e-06,1.3890343e-06,7.077947e-07,3.0132687e-06
1.675003e-06,3.951006e-06,2.9745604e-06,2.4229234e-06,1.0121679e-06
2.3728023e-06,8.4754066e-07,6.03737e-06,2.3248692e-06,1.5619429e-06
3.9053344e-07,4.3770733e-06,2.0147888e-06,4.4194726e-06,1.4793948e-06
1.624363e-06,2.4084525e-06,1.2990344e-06,2.701055e-06,3.12889e-06
4.322557e-07,6.783991e-07,1.339096e-07,5.6488926e-07,8.092677e-06
1.497496e-07,7.22795e-08,0.0,3.6781103e-07,3.465104e-06
5.2488907e-08,5.5628567e-07,4.223495e-08,7.7324336e-07,5.3660824e-07
1.2955296e-07,1.749741e-07,1.860937e-06,1.247988e-06,1.60738e-07
1.1054673e-06,2.4184394e-07,7.4431954e-09,1.2326427e-05,4.107656e-07
9.303218e-06,1.0869876e-06,5.895631e-07,1.0127135e-05,9.97013e-08
2.5780523e-06,2.521966e-06,0.0,4.7429685e-07,2.1345186e-07
0.0,9.18672e-06,1.2235032e-09,0.0,4.38254e-06
0.0,2.50797e-07,0.0,0.0,4.036594e-06
0.0,1.3185128e-07,0.0,0.0,4.0389102e-07
2.0250309e-05,1.948777e-06,0.0,0.0,2.245272e-06
0.0005280461,4.603358e-06,0.0,0.0,7.927334e-06
0.0034967922,3.607256e-08,0.0,1.7111794e-09,2.7446916e-08
0.0042523574,5.46618e-07,0.0,1.8088939e-07,8.00038e-07
0.0014180631,2.6447522e-08,0.0,1.5022441e-06,7.055377e-07
0.004438826,1.8871057e-06,0.0,6.3422885e-07,1.0503356e-08
0.0034159091,5.9737176e-06,0.0,9.546337e-08,5.7314036e-08
0.00013990873,6.621465e-10,0.0,0.0,4.387616e-09
1.1766673e-05,0.0,0.0,2.363275e-09,8.344643e-12
2.3429595e-06,0.0,0.0,0.0,0.0
1.953472e-06,0.0,0.0,0.0,0.0
1.2854523e-06,2.0335646e-08,0.0,0.0,1.762628e-08
5.795885e-07,2.3943334e-08,0.0,0.0,3.7747033e-10
6.636039e-07,8.653097e-09,0.0,0.0,0.0
1.9109054e-06,2.0003384e-08,1.0365677e-07,0.0,0.0
3.945004e-06,0.0,0.00010534983,1.9157401e-08,0.0
4.108478e-05,0.0,4.3709907e-08,1.9436704e-06,1.5791177e-07
9.7181895e-05,3.7898735e-06,1.0457068e-06,4.937354e-06,1.0456058e-06
1.9341214e-05,5.656469e-07,2.5268955e-06,4.593495e-07,2.2585189e-06
3.0505022e-05,1.49421485e-05,1.3758743e-06,6.483303e-07,2.7775484e-05
4.700703e-05,2.8535018e-07,2.025179e-06,9.731514e-07,1.4358612e-05
0.28184468,0.00011536593,1.7261729e-06,9.661202e-07,4.760885e-06
0.00070130307,1.7232672e-07,1.3314268e-06,8.3069233e-07,6.968982e-07
2.9982064e-05,1.16826484e-07,3.3499737e-07,1.751428e-06,2.186255e-06
1.1563902e-05,1.9794006e-06,5.811615e-07,5.046886e-08,2.0621572e-05
6.049438e-06,9.487333e-05,1.7994799e-07,1.1385555e-07,6.0116745e-06
1.275235e-06,6.1107814e-05,3.1001815e-07,1.8005788e-06,1.8829235e-06
0.00026742124,5.761771e-05,9.3802606e-07,6.5544657e-07,2.3132993e-07
9.7754055e-06,6.9732187e-06,2.436856e-06,8.4740765e-07,7.0709393e-07
7.3514148e-06,3.6623334e-08,4.4189056e-07,7.4306615e-07,4.4332518e-07
6.333669e-06,5.0187463e-09,4.6981089e-07,8.726013e-07,1.0300391e-05
7.917593e-06,9.9837205e-09,0.0037007818,1.2225031e-07,6.64645e-06
3.5588575e-06,9.72462e-07,0.09142846,4.209016e-06,3.303981e-07
6.568147e-06,3.0059016e-06,0.004854644,1.9271774e-06,2.312887e-06
1.0951582e-05,5.899426e-07,1.6631159e-06,1.920308e-06,2.2236945e-05
3.6602662e-06,2.3656032e-08,1.5682134e-06,1.808215e-06,1.8127777e-05
1.0537341e-06,1.2481055e-06,1.334026e-06,3.4981101e-06,4.443078e-05
1.9173094e-06,8.289336e-06,1.7142064e-06,1.97426e-06,0.0001546083
1.4769753e-06,9.152971e-06,1.7698973e-06,3.8967755e-07,2.7407435e-07
1.5993064e-06,6.5042514e-07,1.4002612e-06,2.158021e-06,7.869522e-06
1.1330401e-06,3.9573078e-07,2.5629834e-07,1.8406037e-07,2.8038039e-05
6.4530224e-07,2.9278897e-07,4.625041e-07,1.1771048e-06,1.2903932e-07
2.4213566e-06,4.365317e-07,5.1834303e-07,1.1080183e-05,1.5219263e-07
3.6865157e-07,3.1829668e-06,1.7901044e-06,8.3495894e-07,1.4501852e-07
1.4267086e-06,9.2582295e-06,1.7895927e-06,1.0845175,2.917318e-07
5.009274e-06,0.069664165,1.5415776e-06,0.029907154,4.5473007e-06
2.449582e-06,0.0046115625,6.9696983e-07,6.744188e-07,2.6918271e-06
1.4967134e-07,9.337555e-06,3.45129e-07,1.2307633e-07,4.5458467e-07
1.4133409e-06,0.5407082,2.0858205e-07,9.422654e-08,4.71524e-06
0.12589994,0.000998927,7.1531423e-07,4.950207e-07,2.6875525e-06
4.9603955e-07,6.3077624e-07,8.6354405e-08,3.5517922e-07,0.015757104
6.497783e-05,0.27859664,5.274825e-07,8.4227423e-07,0.086820215
5.9894014e-06,0.0010640289,5.5032945e-07,1.6998835e-07,0.35043666
4.0067894e-06,1.8980497e-06,1.7514876e-07,3.516625e-07,2.710045e-06
3.3324347e-06,2.0263574e-06,1.0803947e-06,7.200931e-07,4.6419445e-06
8.693595e-06,1.2753179e-07,5.178639e-07,2.4470379e-05,1.1845269e-05
1.6769734e-05,2.5529565e-07,6.892757e-08,6.689679e-06,7.970375e-06
9.761324e-07,1.9799968e-07,5.027751e-07,0.00092601724,1.69251e-06
1.7554154e-06,6.806775e-08,1.6792756e-06,1.3361631e-06,4.3675215e-07
8.1434933e-07,1.9195244e-07,0.25201488,4.2982768e-07,2.0346042e-06
0.00043852246,3.391823e-07,4.5756073e-07,2.1219248e-06,6.477755e-07
0.0040390873,0.018292982,6.822441e-06,1.5033635e-06,1.6640254e-06
3.489258e-05,0.0139762685,9.397474e-07,0.0007114075,0.000105912084
6.3724195e-07,6.5264317e-07,0.039728608,3.0887495e-05,1.7619903e-06
1.2308444e-06,1.0494137e-07,3.1007494e-06,3.3355393e-06,2.89562e-07
2.3610705e-06,1.9199686e-07,1.7179322e-06,1.4549696e-06,8.148351e-06
8.913256e-05,2.6269342e-08,2.7520676e-07,8.256743e-07,3.2686143e-07
1.1656914e-05,1.6520136e-07,3.3049903e-07,1.0134257e-06,1.7773542e-06
1.5199096e-06,1.6372086e-06,4.761102e-07,1.9899792e-07,2.06355e-06
1.4518323e-06,1.0199838e-06,6.5594095e-06,4.6233595e-06,3.8051004e-07
1.5226448e-07,7.664284e-07,1.8364048e-05,5.0687236e-06,2.2045468e-07
4.2101422e-07,7.419895e-06,1.7186034e-07,3.9937794e-07,9.99032e-07
3.20906e-06,2.585527e-06,3.3221272e-07,7.044021e-08,9.2106353e-07
3.853428e-06,1.7171323,7.612537e-07,8.582493e-07,1.1300852
7.843083e-07,0.15136133,1.8997591e-06,1.1987855e-06,0.037600357
2.2735209e-07,0.0016851751,5.3642003e-07,2.0614905e-06,0.15666164
0.0012687923,0.11884187,1.0879097e-06,0.75135344,0.20535204
0.28959402,1.2618041,0.019881448,1.4116575,0.37139493
0.0076578613,0.44914618,8.4590647e-07,0.0014390873,0.2870832
1.0868406,0.60563433,0.19047236,0.84375536,0.8915734
0.15790041,0.14377478,0.04305001,0.5717991,0.9632956
0.66548073,1.4988103e-05,0.30006984,0.0013160383,4.16838e-06
0.5320358,0.0,0.38982788,0.046185292,4.927797e-08
0.6541696,9.826684e-09,0.55289567,0.2135159,7.726002e-07
0.4425132,2.293374e-06,0.16398685,0.011044283,8.1749624e-07
7.0740276e-07,1.2625057e-06,1.6950872e-06,8.8352203e-07,9.72483e-07
3.1281847e-06,2.5826114e-06,3.383732e-07,8.18228e-07,5.43765e-07
1.9559576e-07,0.23765561,2.0524527e-07,1.0047314e-06,1.0985299e-06
1.9742595e-06,7.835577e-07,1.6825298e-07,8.3436436e-07,6.942117e-06
9.874869e-07,3.9764808e-07,2.0731213e-06,1.1333135e-06,4.886991e-07
2.7533792e-06,8.464132e-06,1.4954836e-06,1.8903429e-06,1.5276449e-06
2.5569154e-06,5.1383113e-06,2.9092998e-06,1.0266118e-05,1.318114e-06
1.0812219e-06,5.7652646e-06,0.006529827,1.5236014e-07,6.156767e-06
1.1152525e-06,1.3840746e-06,3.7326245e-07,3.962422e-07,7.078201e-07
8.2673506e-07,1.4748995e-06,1.8928873e-07,6.8009206e-07,4.2808674e-06
4.27614e-07,1.2818816e-06,7.079254e-07,1.2998194e-06,7.0270096e-07
1.2266818e-07,5.443524e-07,3.8748664e-07,2.0076463e-06,2.4135522e-06
0.78546023,2.9757932e-06,7.7543484e-07,2.105958e-06,1.6158514e-06
3.6160384e-07,8.746827e-07,5.514591e-07,9.715064e-07,1.6918821e-06
1.3781297e-06,3.3593992e-07,4.9884164e-07,9.995439e-07,1.2211551e-06
5.4269873e-07,2.0620293e-08,5.632148e-07,4.0419928e-07,1.1884301e-06
3.5561985e-07,1.8608121e-08,8.1023666e-07,5.6736104e-07,5.399781e-07
6.62392e-08,9.884129e-07,2.30898e-07,5.8548824e-07,6.26428e-08
4.779572e-07,2.252763e-09,1.5660653e-06,1.1823973e-06,1.1869378e-08
1.1442337e-06,0.0,2.4453816e-06,1.7160583e-06,1.1319842e-06
2.2298152e-06,0.0,3.8620665e-06,2.4636322e-06,5.834313e-09
2.1961598e-06,6.592572e-08,3.2101314e-06,4.9330065e-06,6.3186513e-07
9.245728e-07,1.263039e-09,4.5101987e-07,2.0349908e-06,1.2648844e-06
3.3930326e-06,1.8457999e-11,3.295642e-06,5.5652004e-07,9.100332e-06
2.92354e-06,1.0049018e-06,7.201559e-07,1.1855931e-06,1.785696e-06
1.6953991e-06,1.4890918e-05,4.2394024e-07,1.5495444e-06,1.2369676e-06
1.7140053e-06,5.0158283e-06,8.5826275e-07,1.9368817e-06,1.0879351e-06
2.5993381e-06,3.5150613e-05,1.6477896e-06,1.0157239e-06,0.018043095
1.1602363e-06,2.2991294e-06,2.7642297e-06,2.0410876e-06,0.00047670733
4.7322765e-06,0.00071402383,2.0590624e-06,2.1216433e-06,1.8441642e-06
9.847828e-06,0.001809649,5.406638e-06,2.5989218e-06,0.0013254671
3.933437e-07,0.097246915,1.5938664e-06,3.3255124e-06,0.0036783651
3.58993e-05,1.353721e-05,1.723612e-05,1.5039874e-06,0.417626
9.6200834e-05,0.5261236,0.00077792443,6.2673e-05,0.80005664
0.00013506974,0.016620541,1.3634156,0.21605556,0.0060755843
0.00058513484,0.41255075,0.09235319,0.056021392,0.0064315475
0.0008384705,0.002107076,0.0005126064,0.0012820199,0.004259758
0.003960081,0.0713627,5.551464e-05,0.0006755407,0.670183
0.0009144007,1.1425427,0.00050912314,0.04860197,0.92861295
0.0004597719,0.22901838,0.22074656,2.6599112,2.4094188
0.000224745,0.00827436,0.545896,0.2358456,6.492858e-05
0.009260395,0.78641844,0.4968723,0.03129563,0.35140663
0.012726895,1.5838617,0.7468241,0.037885744,1.1150614
2.0698738,0.52377886,0.09264677,0.19859806,0.44813877
0.5683799,1.2963379e-05,0.5757122,0.2269915,0.00085147127
0.011671533,1.9402856e-05,0.09088524,0.73383486,1.1663432e-06
0.1774756,1.299651e-05,0.21438831,0.05475327,8.3751814e-07
0.070340045,4.666759e-06,0.10178011,0.0006393929,1.1846757e-06
0.24192904,7.076817e-07,0.0006454875,0.023946479,7.0781475e-08
2.1871168e-05,4.287692e-06,0.030006545,1.1586013e-06,1.4977951e-06
0.026699355,2.191054e-06,4.5012203e-07,1.6278506e-06,1.1186976e-06
4.0166626e-05,7.914746e-07,2.5136703e-08,2.7932292e-06,1.34557e-06
6.980966e-05,0.009216027,6.018889e-07,4.124488e-07,1.454718e-06
4.7618178e-06,1.6013395e-07,2.688363e-06,1.0389183e-06,7.220056e-07
3.5258267e-06,7.834865e-07,2.5976524e-06,8.475974e-07,4.3426633e-07
1.6803905e-06,6.9700826e-07,1.5593823e-06,1.832944e-06,2.2433244e-06
8.809712e-07,5.623248e-07,5.040713e-07,4.9225974e-07,2.323752e-06
8.11202e-07,0.8079799,4.3506563e-07,5.6933334e-07,1.1188453e-06
4.074465e-07,4.2199164e-07,1.6448035e-06,2.9466798e-06,6.9082824e-07
3.5069402e-07,0.13781935,5.934037e-07,2.1318444e-06,9.5038877e-07
1.6098547e-06,1.3892165e-07,1.4779393e-06,0.0021501787,8.7442226e-07
9.713323e-08,2.4779758e-06,0.00020569145,0.002528382,6.8633193e-07
1.0525344e-07,0.3115224,0.079198845,1.070966e-06,0.023949735
1.0453512e-06,0.044943336,3.827516e-05,1.1331365e-06,3.0461388
1.0898332e-06,1.07012e-06,0.29041323,3.4154652e-07,0.018768737
5.3921485e-06,0.0002727485,0.07725992,9.189567e-07,3.138731
9.640966e-07,0.13768725,0.38255545,0.13740857,4.7291937e-07
2.3114158e-06,0.006320254,0.8337018,0.25446582,2.3943357
1.509662e-06,0.00044279997,0.5140148,0.82621944,0.00305416
0.012980184,5.277399e-07,0.005591158,0.51946855,1.9856591e-07
2.4914234e-06,4.7416447e-07,4.6295703e-05,1.8493178,4.3830988e-07
0.013924596,5.6903964e-06,1.0855288e-06,2.1425993e-05,7.551565e-07
3.2597914,2.7241563e-07,4.5676523e-05,1.5910766e-06,1.2090582e-06
0.9440635,1.3599339e-06,0.022546038,2.4642745e-07,8.7743933e-07
0.8496542,6.4480633e-07,1.47219e-06,2.0919551e-06,6.4751924e-07
1.4368342e-06,1.7162027e-06,2.6336145e-06,1.0775558e-06,0.0009298007
1.6809829e-06,2.5290981e-05,1.0150392,9.0842605e-07,1.0703642e-06
3.169869e-06,0.00015240899,1.1371299,1.4065838e-06,0.15858224
2.2198042e-06,0.00053144526,4.4321283e-07,0.0048836535,0.6080622
2.0443595e-06,0.5415243,1.3225232,1.5835661e-06,6.4360094e-05
1.5123946e-06,2.976238e-06,0.16533911,1.1064759e-06,2.446771e-07
1.4063409e-06,1.2031304e-06,0.20558704,0.2078094,1.0288203e-06
1.8635902e-07,0.2737717,2.411076e-07,0.018123856,0.34996834
0.28031915,0.09977367,4.41597,5.292908e-05,1.0388729e-06
1.2074549,4.0860396e-06,4.1168256,0.012058065,6.228964e-07
0.093518876,1.5787032e-06,0.013738345,1.9792014e-06,6.3204305e-07
1.5936583,0.6705039,0.44577318,7.462941e-07,1.5130918e-06
0.8474576,1.7275078e-06,0.0556976,0.7436688,8.076836e-07
0.23560227,2.008547e-07,0.0012307019,3.598644e-07,4.9934124e-07
0.93974775,1.6857364e-06,9.85915e-08,8.7738385e-07,1.3625764e-06
9.677822e-07,2.834672e-07,9.598173e-07,7.5561644e-07,5.1726e-07
1.6815759e-06,4.5607248e-08,2.5224666e-05,2.778617e-06,3.6662306e-07
9.061243e-07,8.41832e-07,1.8417099e-05,2.3340064e-05,2.5636098e-07
5.452592e-07,4.3666816e-07,0.048860636,0.611338,7.288064e-07
0.014091307,3.770896e-06,0.116842516,0.03086152,1.0177412e-06
0.2400921,4.1820937e-07,0.0036866376,2.4105243e-06,2.352541e-06
0.08036468,4.4265826e-07,0.0005214932,1.4497929e-06,7.002079e-07
0.015307785,9.4145673e-07,5.7399243e-06,1.921981e-06,2.666834e-07
1.2400093e-06,4.913529e-07,8.608811e-06,3.3159604e-06,2.901953e-07
0.7308277,6.6311674e-07,1.6721266e-06,2.4120204e-06,6.1534075e-07
0.7540056,1.7988312e-06,1.469134e-06,4.7077256e-07,4.2990118e-07
1.0314701e-05,4.1310213e-05,0.29807797,0.0002981203,1.9993651e-07
3.2591663e-06,1.838339e-07,0.007528998,1.1928e-06,5.357786e-07
1.2259839e-06,7.230356e-07,0.023333088,4.730856e-05,1.0994512e-06
1.4451485e-06,2.7165117e-06,0.0027068707,1.6864145e-07,1.2561651e-05
6.950883e-07,0.00977484,0.0035917778,5.679908e-07,1.4377811e-05
5.0521993e-07,0.07558579,0.37141204,5.750204e-07,0.015282829
3.482269e-07,0.29816744,1.6546749,3.859623e-06,0.04610132
0.32443932,1.9824381,0.020662917,0.024658902,0.0018469429
0.78766596,0.58864594,1.6911799,0.3278695,1.6006376
2.6740553,5.9286456,0.15773861,2.048494e-05,0.058976125
6.3873286,0.70439744,0.26066172,1.3735952e-07,0.00084414374
5.925946,0.063290104,0.104273714,4.9898578e-08,5.5723004
4.193084,4.0278946e-06,1.0165742e-06,5.065658e-05,1.3131124
7.508,3.1525307,3.6878035e-07,1.3746021e-06,3.0821285
0.9574763,0.14468741,9.1531604e-07,2.0212335e-06,0.03127676
4.180434e-06,0.104504354,0.95754296,6.3439654e-07,0.06929529
0.22768107,0.005340879,5.965046e-05,1.324154e-06,0.13882439
0.04989038,1.7458301e-06,5.8845994e-06,4.200478e-06,0.0020788303
0.060253244,1.7307833e-06,0.30011266,0.17774524,9.3674066e-07
8.962112e-07,7.792532e-07,0.005890678,0.51372254,1.737612e-06
0.88178825,6.92927e-07,4.8227844e-06,8.2481915e-07,1.6197033e-06
1.1781013e-05,2.6639532e-07,2.5914183e-06,2.0095015e-06,5.159433e-07
1.4831246e-06,4.8718657e-06,9.201469e-07,2.8074328e-06,5.8395796e-07
1.7115341e-06,1.1417901e-06,2.1051171e-06,3.9867036e-06,1.2775579e-05
8.315822e-07,6.229812e-07,4.2842435e-06,1.2835604e-06,1.601456e-07
2.352136e-06,3.8933213e-06,8.402197e-07,2.2234792e-06,7.241076e-07
1.5653212e-06,1.499602e-07,2.2419536e-07,7.5320787e-07,2.3246848e-06
2.2380777e-07,1.5241202e-06,5.8106355e-07,3.661186e-07,9.835082e-08
4.2914266e-07,2.982774e-06,3.4917795e-07,2.3588082e-07,2.9287303e-06
1.7526571e-07,4.5560455e-06,8.64732e-10,4.264704e-08,5.1498887e-06
7.380821e-07,6.9115913e-06,2.803994e-07,1.5635779e-06,8.718667e-06
7.813794e-07,1.3811875e-05,1.5716218e-07,9.509762e-07,1.3612192e-05
2.1668336e-06,1.0288084e-07,5.696476e-07,0.4258672,1.3657763e-05
1.4800407e-06,1.7868913e-06,2.0260465e-07,0.06194279,3.2623443e-06
2.406011e-06,2.0319349e-05,7.0739077e-07,1.2326135e-06,8.91082e-07
3.4342605e-07,2.4895437e-06,1.6336234e-07,4.9236153e-08,1.229281e-06
3.6103341e-07,3.0203207e-06,1.706074e-06,2.43021e-07,8.339252e-07
8.7377197e-07,0.013726887,1.6908409e-06,3.6067948e-07,0.004974764
1.3042355e-06,0.17722732,0.008022764,1.9943811e-06,0.000116047944
0.023515167,0.093378104,0.032155994,0.011346346,0.0763773
0.12449577,0.046471532,0.14255467,0.054674845,0.12825893
0.17258851,0.05943193,0.06777361,0.0010830277,0.1780905
0.21954705,0.14227803,0.0016151465,0.02772527,0.27401647
0.07791114,0.14442489,2.4754841e-05,0.008172833,0.4368672
0.07666003,0.0011922539,2.9396697e-05,2.5122315e-05,0.019870367
0.054712027,3.2697696e-06,0.029109217,0.00020946024,1.7545058e-06
0.09080054,1.8486468e-05,0.27452073,0.004503585,8.720008e-07
0.053524334,1.0465988e-05,0.33798397,0.113028534,1.157172e-06
0.00024229276,1.3460794e-06,0.0009721224,6.053683e-07,5.3112143e-07
1.7715048e-06,2.653765e-06,1.07634676e-07,1.6872433e-07,2.9492713e-07
0.7012039,8.651424e-06,7.049179e-07,0.0600547,8.229592e-06
3.1237345,0.048406668,0.27571678,0.035985593,1.981043e-06
0.07093442,0.15577844,1.2645712,0.0026556393,1.864021e-06
0.14129695,1.3847172e-06,3.9129405e-05,0.007624878,0.20495191
0.4557044,4.9069e-07,4.5234307e-07,0.14734095,0.0004756855
0.02578059,2.1100727e-06,2.2009864,0.6713723,1.8076147e-06
0.30312118,1.2319008e-06,0.27728704,0.0006989341,0.00030538664
0.0027750179,4.3124888e-07,0.16664909,5.9303954e-07,0.10324234
0.8401974,2.6562904e-07,1.0850536e-06,5.1195093e-06,1.6283925e-06
0.0058220644,7.363831e-07,0.0050606127,2.6198333e-07,0.011073595
2.712414,7.512824e-07,1.2240308e-06,3.274529e-07,0.06603689
2.4021645,1.2815451e-06,9.350777e-07,6.5369727e-07,0.002108726
0.5412933,8.184303e-07,2.291071e-06,9.473575e-07,1.4613273e-06
0.015989663,2.7083174e-06,1.3473624e-06,2.1917758e-06,1.5869066e-06
0.5218992,0.027055578,1.216013e-06,1.8978279e-06,0.024672398
0.8803888,7.8631285e-07,1.4939881e-06,2.7262324e-06,9.932679e-07
1.3769327,2.6344258e-06,0.052669473,1.6798726,6.746705e-07
0.20522176,1.2048708e-06,0.3858574,0.9159854,1.3071588e-06
0.000109168664,4.5236134e-06,0.06908746,4.9358196e-06,7.531501e-07
6.522018e-05,1.0235799e-05,1.5467913e-06,0.013374445,2.528994e-07
0.028061947,1.99902e-06,0.93959594,1.0962293,1.2353844e-08
2.148243,3.8996336e-06,0.19343905,0.13232845,1.3392192e-05
1.9080157e-06,1.8079979e-06,1.248399e-06,6.0274465e-06,3.2954762e-05
2.1453739e-06,4.866334e-06,1.9137158e-05,1.2676655e-06,2.597372e-06
1.743929e-06,4.7454864e-06,2.5108768e-06,1.1567903e-05,6.785286e-08
2.116181e-06,5.245625e-07,3.7424236e-06,8.60404e-06,3.433555e-06
5.103096e-07,1.646056e-08,1.3114939e-06,3.2863975e-06,9.2216135e-07
2.2951436e-07,1.3373991e-08,2.2718882e-06,3.8114724e-06,7.180018e-08
1.3878663e-06,2.3413348e-07,2.719207e-06,1.2271267e-06,4.1206936e-06
1.6039887e-07,5.8891906e-06,6.26722e-07,2.5151667e-07,2.5605204e-06
9.064715e-07,3.6725642e-06,1.32138e-06,6.382713e-07,8.040389e-08
4.358616e-08,1.4552196e-06,1.0336065e-07,4.378572e-07,1.9503927e-06
4.2787864e-08,1.4136733e-06,2.9124706e-07,1.2050963e-07,4.1011444e-07
1.25613e-07,9.933021e-07,4.2751628e-07,7.215851e-08,2.4163685e-07
3.858978e-06,8.924593e-07,2.6053561e-07,2.797247e-07,5.3433746e-07
3.8607363e-06,4.8955275e-07,1.4892502e-06,5.19906e-07,9.647682e-07
1.2250354e-06,7.4217377e-07,1.3301299e-06,3.3864876e-07,2.712765e-07
1.5412395e-06,1.4243909e-06,1.4554315e-06,2.1715052e-06,7.8811263e-07
1.4761504e-06,7.080697e-07,2.0072168e-06,1.2404475e-06,1.3869522e-06
1.054193e-06,1.9767263e-06,9.3364946e-07,0.5040069,1.1008843e-06
8.4300325e-07,1.4390116e-06,1.3308819e-06,1.6070012e-06,1.0725171e-06
1.8363698e-06,7.2191955e-07,8.187927e-07,9.487241e-07,4.901537e-07
4.528057e-07,8.360552e-09,2.247477,5.1153847e-06,1.5481424e-05
7.708363e-07,2.062897e-06,0.16967657,1.774874e-06,1.6384009e-05
1.5881648e-07,1.324764e-05,6.036291e-06,3.7939867e-07,2.5880436e-06
5.7073816e-08,1.4247318e-05,2.1264013e-06,2.9421244e-08,1.15664325e-05
7.784969e-07,1.1360823e-06,1.7125274e-06,9.389566e-07,7.4792947e-06
4.4690237e-06,1.0670709e-07,1.1450891e-06,2.288628e-06,8.124795e-06
9.230428e-07,2.0990651e-06,1.3034545e-06,2.0701927e-06,2.5172865e-06
4.2124233e-07,4.995909e-07,1.6120347e-06,4.500681e-06,1.7573981e-06
1.0782553e-06,5.7688607e-07,1.2770017e-06,4.740719e-06,2.105213e-07
2.8051986e-07,3.1067185e-07,3.7002294e-06,1.8219889e-06,5.8169182e-05
6.6917124e-07,7.034558e-07,1.0968383e-05,1.5393556e-06,0.00020378949
3.2720055e-07,2.2516494e-06,4.3145083e-06,2.4394708e-07,2.576831e-07
1.6348646e-07,1.3891918e-06,0.0,0.0,4.1431704e-06
2.7292984e-07,1.1778588e-06,1.5843595e-09,0.0,3.6347168e-07
4.210624e-07,2.5057213e-07,7.766428e-08,0.0,1.023033e-05
0.0013755541,1.4391865e-06,5.1355033e-07,7.080111e-08,1.560605e-05
5.2772193,1.5395357e-05,2.1056742e-06,2.4838403e-07,2.9483497e-06
0.061104428,1.3171512e-05,1.5629414e-06,1.0144412e-06,1.0053674e-06
2.1310127e-06,7.920945e-06,1.1601101e-06,7.4687074e-07,1.949834e-06
1.0398313,2.8562665e-06,2.2591162e-06,2.1556743e-06,2.5030106e-06
0.56244826,3.1395657e-06,1.6815759e-06,7.5752865e-07,7.094064e-07
2.3013258e-06,5.7523323e-07,6.554811e-07,3.5318108e-06,1.6989331e-06
1.2521899e-06,0.0,7.672094e-07,4.277448e-06,8.206449e-07
1.1123511e-06,0.0,2.2563731e-06,2.7940255e-06,2.3683442e-06
1.5078697e-06,1.8887401e-06,1.8875457e-06,3.6491945e-06,1.3669296e-06
8.926103e-07,2.7623788e-08,3.0747774e-06,5.1489633e-06,2.0185739e-07
1.3970557e-06,3.1119185e-07,2.4603655e-06,4.801885e-06,2.8252057e-07
1.0658454e-06,0.0,1.1064769e-06,3.0926506e-07,0.0
1.7831894e-06,1.4501325e-10,1.1643564e-06,1.112149e-06,0.0
4.0871896e-06,0.0,3.6673525e-06,0.13910928,0.0
7.3279807e-06,3.966689e-09,1.3825849e-06,4.968356,0.0
2.2216454e-06,0.0,2.052781e-06,3.294395,0.0
1.0361804e-06,0.0,0.03039345,1.6791524e-05,0.0
3.5450432e-07,0.0,7.172227e-07,3.2385415e-06,0.0
2.5678014e-06,0.0,6.796377e-07,2.1120068e-06,0.0
2.699145e-07,1.7214061e-08,2.337941e-06,1.0500925e-07,3.2691186e-10
3.6664903e-07,1.7300674e-07,4.5875518e-06,1.6825877e-07,6.971992e-08
6.347084e-07,2.251128e-06,4.6030294e-07,6.3441355e-08,1.1106536e-06
4.408638e-07,1.3074094e-06,3.2720715e-07,7.744145e-07,9.27718e-06
2.5506543e-07,2.1328839e-07,1.1349867e-07,4.658918e-07,7.5931945e-07
2.0209619e-07,7.519463e-08,3.1032737e-08,2.4001915e-06,3.823886e-07
6.3825973e-07,4.3265626e-07,1.0936388e-06,1.0201088e-05,1.2027068e-07
4.0339874e-06,4.961137e-07,4.137267e-06,8.461206e-06,3.881167e-06
9.3089756e-07,5.0494524e-08,5.6223444e-06,2.0363578e-07,9.969878e-06
3.3906645e-06,6.7684056e-07,5.527328e-07,8.262329e-06,1.2568667e-07
4.0721166e-06,1.3962447e-06,6.0245866e-06,0.0072120456,1.1987315e-06
0.0070288326,0.012008183,0.13297664,0.728013,0.1714583
0.00043404324,0.14261463,0.10496715,0.37357482,0.29576287
0.00011608931,0.53158534,0.5024489,0.5916887,1.0753573
5.1938292e-05,0.6178149,0.2284539,0.001870301,0.6272361
0.59251267,0.89217216,0.29526806,0.0002830376,0.27972877
3.49009e-07,1.1740052e-06,0.01686471,1.8198631e-06,0.085821554
7.508424e-05,0.00027601584,0.13572381,1.4300098e-06,0.00064903696
0.23490514,6.876028e-07,0.22301829,0.48525372,7.5774784e-07
0.0034307113,1.001175e-06,0.003717722,4.0907867e-07,5.016634e-07
3.3727147e-07,1.2227604e-06,0.30972984,0.08425751,0.06481104
4.9594394e-07,0.21678889,1.7963873,0.22912729,0.33062088
6.9149064e-07,0.23303226,2.4610527,0.44387883,0.30198288
0.22775535,0.007033422,1.2090069,0.109497786,0.6784203
1.0003065,8.244946e-05,0.66327333,0.6802499,0.052315593
0.21507937,3.1350655e-07,0.9253878,0.121826105,0.9731856
0.23202252,0.17911656,8.75254e-07,0.39814168,3.8206707e-07
0.00011129802,7.5161915e-07,3.768715e-07,1.4784929,8.113907e-07
8.9728195e-07,1.6473037e-06,7.897422e-07,0.13591002,4.993548e-07
2.8336885e-07,1.940099e-06,0.034732997,2.290855e-07,6.295911e-07
7.866603e-07,5.4300317e-06,0.00627049,3.6569309e-06,9.194598e-07
0.4149903,4.8245824e-06,0.049683392,0.006272396,2.4458266e-06
1.027445,1.9689985e-06,1.967632e-06,0.014907976,0.018545207
1.5732569,6.969811e-07,0.0068461406,0.09694788,1.4871576e-06
0.021299245,2.4616875e-06,1.8171725e-06,0.20952854,9.626787e-07
0.36767048,1.1329396e-06,0.01643468,0.009175057,1.3585528e-06
1.6500845e-06,3.9343354e-06,0.0910764,0.0019894897,0.0003746443
0.2738635,0.17959692,0.3835537,0.00012584633,1.0652947e-06
0.30242604,0.036980163,2.950845e-06,0.4257682,0.019983921
3.0048307e-06,0.00037573848,7.891254e-05,0.24414054,0.2180123
1.3426331e-06,2.448116e-07,1.5169736e-06,7.070235e-07,5.71318e-07
0.033225093,9.629828e-07,0.30012852,0.07567451,3.9197064e-07
1.5681263e-06,0.0610197,0.000380221,0.00022392147,1.0525085e-06
1.0692016e-06,4.315487e-07,2.9469035e-07,7.4291364e-07,5.034693e-07
0.14419973,1.6300953e-06,1.2106423e-06,1.2396326e-06,5.828775e-07
5.3993017e-07,6.1317326e-07,0.00015781642,7.116057e-07,8.4393434e-07
9.1325427e-07,1.6349389e-06,0.00080116687,0.0037706688,1.7420675e-06
8.2458786e-07,8.6617734e-07,0.45014292,0.01323263,1.0146915e-06
0.0008822438,8.88106e-07,0.56863517,0.76114094,7.688418e-07
2.096796e-06,3.8106677e-07,1.372337,0.08150792,2.0225868e-06
0.8399824,1.4212173e-06,0.0053997706,4.2402564e-05,9.1301575e-07
0.013528101,1.9550807e-06,6.6508085e-07,4.124622e-07,1.1860714e-06
0.032588083,7.867591e-07,5.9421563e-07,2.8870392e-07,6.4645457e-07
0.3604767,1.8511532e-06,3.5239856e-07,1.3001052e-06,3.685077e-07
0.4177492,1.3975888e-06,1.5847519e-06,3.6728085e-07,1.6169963e-06
1.0579355,4.835098e-07,1.6646494e-06,1.8408647e-06,2.6021498e-06
1.1661121,2.1223123e-06,2.1098526e-06,1.2273617e-06,1.3795355e-06
1.9464623,1.4765776e-06,0.033638448,0.00057428837,4.8841173e-07
3.2718434,4.6602958e-07,2.0245675e-06,1.8771352e-06,1.2730543e-06
1.4758484,1.8206582e-06,0.052284326,7.317669e-07,8.747185e-07
0.20798358,5.805767e-06,1.032318e-06,3.762469e-05,7.574361e-07
0.05627985,6.330199e-07,0.62719023,0.000105590414,0.0044609318
0.0012329437,2.6009438e-06,0.14449726,0.0006597029,2.8230124e-07
0.47162396,5.9550603e-06,9.966084e-07,1.3524885e-06,1.7315061e-06
6.7313135e-07,8.121909e-07,2.9659175e-06,0.8317467,2.235839e-06
1.0561528e-06,2.5484346e-06,0.007429258,1.3343083e-06,1.6707621e-06
1.9166052e-06,5.818736e-06,3.467974e-06,3.2158748e-06,2.2312422e-07
1.6734617e-06,0.00018279196,1.4916378e-06,1.3657668e-06,6.096993e-07
1.7013904e-06,2.3309087e-06,7.6758096e-07,9.696834e-07,3.074787e-06
2.1973358e-07,1.0160927e-06,8.5290725e-07,1.5049295e-06,1.5918498e-05
3.564088e-07,1.2416458e-06,7.746721e-07,2.9017613e-07,1.3421868e-05
8.043416e-07,9.119244e-07,4.2103315e-07,1.6908017e-07,2.3070538e-06
4.6701663e-07,3.8012265e-06,3.0838146e-06,2.1248873e-07,5.2092906e-07
4.7172006e-07,5.500474e-06,1.2494279e-06,5.4247454e-07,2.6641305e-07
0.14328209,1.7661704e-06,7.4577946e-07,1.971116e-07,9.182323e-07
0.0011616303,9.3644354e-07,1.9494297e-07,5.7587664e-07,1.002698e-06
9.767292e-06,8.052835e-05,8.5332323e-07,5.479841e-07,1.551565e-06
3.8204303e-06,6.077469e-06,1.9114177e-07,9.91894e-08,0.4916279
1.1661325e-06,0.04910536,8.215273e-07,0.03176015,0.35477588
0.47246772,0.05631907,5.2045627e-05,2.1508092e-06,0.71706927
0.7188799,1.06626,0.05609045,0.031884868,0.10927887
0.07620495,0.70969725,0.64725685,0.27404317,0.1865081
0.31529182,0.51072884,0.0428182,1.6640942e-06,0.5142272
0.47646987,0.2988694,0.45638478,1.0276474,0.56486416
0.92692626,7.908898e-05,0.544637,0.44748408,0.061328977
0.16057025,6.3044495e-06,0.14892785,0.8447791,2.818605e-06
0.23725615,9.197055e-06,0.20962788,0.0803752,6.887116e-07
0.64191127,4.821769e-07,0.4608318,0.35396948,1.3162864e-06
0.42378047,7.1424856e-06,0.45413366,0.20515373,1.0690651e-06
0.033671904,1.3577899e-06,0.18626125,0.08008497,1.0786682e-06
1.3710511e-05,6.5083996e-06,0.00012620528,0.000118158576,4.798528e-06
1.419244e-06,3.2896373e-06,3.6631038e-05,0.009186039,2.068353e-06
1.4774687e-06,2.6613363e-05,4.983101e-07,1.1038982e-06,2.10527e-06
1.08838e-07,3.2971932e-06,7.409751e-07,0.00045204326,2.2081424e-06
7.837058e-08,1.1808715e-07,0.008195651,0.016809804,2.257144e-06
1.3574022e-06,2.7189535e-07,1.0485167e-06,2.8538109e-06,1.5479084e-06
5.175252e-07,1.5907872e-06,3.9729133e-07,9.0538947e-07,1.2556176e-06
0.34481996,3.953814e-07,4.4284755e-07,3.3751482e-07,1.1199787e-06
0.042045526,8.098131e-07,3.0312896e-07,2.3357856e-07,1.4625382e-06
0.11104517,3.5585551e-06,7.102481e-08,8.211618e-07,1.380702e-06
0.15308666,1.9856207e-06,1.4998396e-07,4.76719e-07,1.5420034e-06
0.07882233,1.2238139e-06,1.0328511e-06,1.4630666e-06,2.5727882e-06
0.0013007318,1.5040229e-06,1.846353e-05,1.5021561e-06,8.614188e-07
0.00018741805,1.0631584e-06,5.890846e-06,6.558052e-07,1.1511485e-06
0.030520355,1.5148263e-06,0.09037116,7.0140277e-07,9.518753e-07
0.6421288,8.573467e-07,0.0010461061,0.0075985203,9.832086e-07
2.4120266e-06,1.0010159e-06,0.00022952809,7.65914e-06,6.3422306e-07
0.171947,5.7507884e-07,0.0008876722,1.4497116e-06,2.8263985e-06
2.7021317e-06,0.0,1.0432706,0.014267985,5.002835e-07
1.4489079e-06,2.8490348e-07,2.9037564,0.16150884,4.351731e-07
2.418816e-06,2.3685343e-05,7.1313567,1.3899801e-06,1.1584987e-06
2.9770817e-06,5.433495e-06,1.0638926e-06,0.41149247,2.4686673e-07
1.0582114e-06,1.1137204e-06,5.9011415e-07,1.6478022e-06,1.6306626e-07
9.473605e-07,2.2890292e-07,3.8662383e-06,5.427262e-07,3.812273e-05
3.9731987e-07,2.0670532e-06,3.1232971e-06,1.6220408e-06,1.9675217e-06
8.297649e-07,6.9248863e-06,2.614005e-06,4.270141e-06,2.9437601e-06
1.2370285e-05,1.2243194e-06,2.8546065e-06,5.631326e-07,1.0491668e-06
1.0479797e-06,4.9447e-06,3.7149387e-06,6.5464184e-07,5.821154e-06
8.8451117e-07,2.3161597e-06,5.6988694e-07,1.3114487e-06,3.30358e-06
7.150558e-06,3.603643e-07,8.728416e-07,3.723293e-07,3.4432949e-06
1.6987561e-06,1.8521329e-06,8.2506595e-08,8.608304e-07,2.9314178e-06
4.0097882e-07,2.0929938e-06,5.629665e-07,1.0390714e-06,4.6632152e-07
5.69247e-07,2.6070045e-06,2.6517162e-07,1.3776813e-06,2.8994722e-07
3.1952666e-05,7.153082e-07,8.1870915e-08,1.199576e-06,5.867716e-07
8.333912e-05,1.8994548e-06,0.32912895,1.3532838e-06,1.1465909e-06
6.7178967e-06,5.8111505e-07,0.3713661,6.094047e-07,1.725856e-06
0.5314863,4.773408e-07,1.168931e-06,3.7679249e-07,6.146884e-07
7.841699e-06,1.2749124e-06,1.1891653e-06,1.6806226e-06,1.041551e-06
4.213482e-07,9.908742e-07,0.00017012541,1.2308834e-06,1.8320525e-06
0.02129772,1.2126198e-06,6.4036967e-06,0.98797274,9.80893e-07
4.899951e-06,1.5073549e-06,0.0029335995,5.0330766e-07,2.3737164e-06
7.1591177e-07,8.209273e-07,0.057460584,0.1450089,1.4874244e-06
8.4298e-07,8.975889e-07,0.92770284,0.00835637,1.3586415e-06
6.8635e-07,1.3329131e-06,0.030996379,1.9702638e-07,0.05784989
1.2816006e-06,2.0605844e-06,0.00034505717,6.2836097e-07,0.0007527514
8.026029e-05,7.5364134e-08,8.7135817e-07,2.2669894e-06,1.5276552e-06
1.5771102e-06,9.315038e-07,7.557821e-06,5.1025677e-07,9.838822e-07
1.4363992e-06,5.471861e-07,8.194858e-07,1.847221e-06,8.36286e-07
1.4153453e-06,1.5624285e-07,1.9426795e-06,1.4990941e-06,5.6352707e-07
2.213868e-06,6.718831e-06,3.6259296e-06,5.158345e-06,6.4944476e-07
7.694124e-07,7.858182e-07,8.402899e-06,5.031462e-07,2.4378332e-06
2.2578424e-06,3.787637e-07,7.3547756e-07,1.0214715e-06,2.8788609e-06
8.155522e-07,9.247145e-07,4.041432e-07,4.7005205e-06,5.156373e-07
2.5261874e-08,6.0104812e-06,3.236497e-08,1.541866e-07,3.7575435e-06
9.517343e-07,7.933796e-05,4.6072032e-07,1.7892609e-07,3.332184e-06
6.346825e-07,0.13030651,3.4822497e-06,3.1365357e-07,1.6775354e-06
1.5969877e-07,2.0741727e-07,1.801142e-06,3.183767e-06,1.6880601e-06
1.1536618e-07,5.1564575e-06,1.7455084e-06,2.665242e-06,2.4533063e-06
6.0871134e-06,2.689085e-06,2.4685946e-06,8.711199e-06,2.033229e-06
1.5201275e-07,6.530845e-07,2.6116503e-08,2.5985528e-08,1.5569354e-06
6.02364e-06,1.4984493e-06,1.2243675e-06,5.988374e-07,3.2677249e-06
9.025699e-07,1.1911867e-06,2.0512102e-06,2.5505665e-06,9.677104e-07
0.00078199926,7.687902e-07,1.29626e-06,1.821925e-06,3.5278756e-06
0.00015462791,2.215467e-06,1.4169657e-06,2.4555436e-06,2.5751235e-06
5.800571e-07,2.7222987e-07,3.0214245e-08,1.9477193e-06,4.1800496e-07
1.8132907e-06,4.325299e-07,1.8072094e-06,1.4461503e-06,1.0864187e-06
2.8854188e-07,0.0,1.7045089e-06,6.9095813e-07,6.196912e-07
9.205472e-07,0.0,5.3715034e-06,1.2949379e-06,0.0
2.0710947e-06,0.0,5.0437e-06,1.5603686e-06,0.0
5.4283378e-06,0.0,4.4365443e-06,5.510993e-08,0.0
2.3718e-06,0.0,4.8310258e-06,8.002714e-07,2.1630753e-09
7.399328e-07,0.0,5.220972e-07,5.817242e-06,1.4232154e-06
6.641749e-07,4.908247e-07,3.9232228e-07,6.2776354e-07,5.8335498e-08
1.6256507e-07,4.7501785e-06,0.0,0.0,7.4153405e-07
0.0,5.613164e-07,0.0,0.0,1.4300273e-06
0.0,4.0575896e-06,0.0,3.665059e-10,4.4182983e-07
0.0,2.3436116e-06,0.0,7.8014917e-10,2.1155063e-06
0.0,5.969236e-06,0.0,9.840235e-09,1.4435589e-06
0.0,7.123104e-06,3.1961231e-09,6.865612e-11,9.016099e-07
0.0,3.0969124e-05,3.802895e-09,2.8843753e-05,7.0308383e-06
0.0,5.6952575e-07,7.934983e-05,0.00010652825,1.8437997e-06
0.0,1.9002246e-06,7.0542286e-05,5.223207e-05,3.9497536e-06
0.0,3.854199e-07,8.9063185e-05,2.9910445e-05,1.1098602e-07
0.0,5.4006966e-07,2.1716307e-06,1.4898545e-06,1.305723e-07
1.08140314e-08,3.9390884e-06,8.268236e-08,2.1892254e-07,5.8596186e-07
2.401974e-07,1.7919717e-06,1.924578e-06,1.161829e-06,2.0378795e-06
3.9531974e-07,3.6220326e-06,5.25216e-06,1.0268009e-06,7.9160935e-07
2.9027527e-07,2.396385e-07,3.782826e-07,2.7114088e-06,1.3246591e-06
1.3230652e-06,8.826016e-08,1.8930391e-06,0.11327047,2.0477994e-07
4.49031e-06,1.7603967e-06,2.817521e-06,0.2434461,1.5092046e-07
2.9483722e-06,1.9171541e-06,0.017141575,0.3159641,5.9750124e-07
2.8328639e-06,9.507308e-06,2.892332e-06,0.16706058,1.2313114e-06
2.9862242e-06,2.5601605e-06,0.0030781196,1.8523428e-06,7.8786957e-07
5.4535903e-06,7.869757e-06,0.009842694,0.024144351,1.360507e-05
2.2517738e-06,7.990894e-06,0.0028012514,3.0252766e-06,4.4142962e-05
1.6508673e-06,0.00068793603,3.1592306e-06,1.3679514e-06,0.0017443005
0.042549066,5.4762527e-06,4.0323098e-07,8.2150956e-07,9.329207e-07
1.7341874e-07,3.192305e-05,9.588243e-07,1.6738506e-06,1.9385898e-06
4.954481e-07,9.5175267e-07,1.2724529e-06,7.4256553e-07,2.1715246e-06
2.867835e-06,8.226824e-07,6.594634e-06,5.3348413e-06,2.1499653e-05
2.480991e-06,7.388537e-06,2.8929378e-06,3.236938e-06,2.88386e-06
9.396384e-06,1.3984583e-05,5.9469485e-06,1.3343846e-06,1.7851253e-06
