"[299, 255]","[227, 248]","[287, 319]","[279, 328]","[230, 262]"
0.000117522286,1.6764529e-06,7.151513e-08,8.047677e-08,2.6524397e-06
0.000101465,1.0284748e-05,2.1058507e-07,9.121749e-08,1.067303e-05
0.00012852643,0.00026723152,2.7431506e-07,4.218424e-09,1.4254955e-05
0.0005051217,2.883804e-07,2.4039232e-07,2.0894481e-06,0.0007136724
0.0012326513,1.0779189e-06,2.6310298e-07,1.258224e-05,2.4306169e-06
0.0021177344,1.5414201e-06,1.7146676e-05,2.3730872e-06,8.556114e-07
0.0014690467,8.4739366e-07,1.18259926e-07,5.1188676e-06,1.4117246e-06
3.955539e-06,3.2591329e-06,5.111237e-07,1.296589e-07,1.6093607e-06
0.018332375,3.4226862e-06,2.1675057e-06,2.0312591e-07,9.99369e-07
0.00017739716,2.061801e-06,5.701869e-07,6.0449594e-07,3.423373e-06
1.2437991e-06,3.733474e-08,6.012229e-07,3.2241646e-06,5.880038e-06
2.3864409e-06,1.4806952e-06,2.5724542e-06,1.5689436e-06,5.624154e-07
7.1731716e-07,1.6313337e-06,7.576695e-07,1.4480411e-06,2.2639301e-06
1.4513015e-06,7.78844e-07,4.3264827e-06,3.6406154e-06,4.362583e-05
4.7487565e-06,7.241755e-07,3.6621293e-06,5.931629e-07,3.069561e-06
7.4474833e-06,8.3262216e-07,3.3593524e-06,3.4323216e-06,2.666246e-06
4.5444226e-06,1.3839475e-06,1.3839019e-06,1.5844265e-05,1.513618e-05
5.672688e-06,1.6723519e-06,2.5530577e-05,8.317282e-06,0.00012024125
3.916341e-06,2.2268978e-06,2.7400823e-05,7.499433e-06,4.0210801e-07
1.2256497e-06,1.3545896e-06,1.92051e-05,1.2414e-06,9.270212e-05
5.759875e-06,2.9151022e-06,7.4066276e-07,1.6792228e-06,0.0009807168
3.2514674e-06,1.1922842e-05,1.5957945e-06,4.064386e-06,7.434843e-08
3.097435e-05,9.957007e-07,2.811101e-06,2.276388e-06,9.5816546e-08
7.129692e-06,7.351323e-07,1.0967074e-06,5.9915294e-07,6.1869304e-07
1.0144287e-05,1.1846702e-06,2.3221908e-06,1.4427861e-06,9.230226e-07
4.276744e-06,1.1565642e-06,3.8195353e-06,1.2547774e-05,4.416567e-06
1.3747202e-06,1.572733e-06,8.700482e-07,5.7731295e-08,8.068485e-06
1.1432934e-05,4.068767e-06,6.9255793e-07,1.2629523e-06,1.1397193e-07
1.6589867e-05,8.80345e-06,1.6500215e-07,8.9688876e-07,1.371505e-06
1.8991742e-06,0.030169342,1.3563577e-05,6.776344e-07,9.499554e-06
6.2512567e-07,0.09625771,3.5124944e-05,7.685014e-06,0.01400866
7.346657e-08,0.191132,1.5668675e-05,2.3419386e-06,0.06877173
4.575593e-08,0.50123864,2.0787023e-07,9.513124e-07,0.6665454
0.016225781,0.4037343,3.8024297e-07,2.539057e-05,0.3150673
0.34619412,0.3353423,0.00015110445,0.17611185,0.393521
0.89975077,0.09585219,0.31434634,0.55597395,0.23825157
0.99202687,0.030582009,0.51276326,0.2931894,0.11161286
0.36207417,7.3322485e-06,1.1253861,0.7882915,0.007039719
0.30309838,1.3606116e-05,1.8704014,0.6438027,0.042930044
2.922599,0.0014978906,0.27114844,0.62468654,0.08223404
1.0322875,0.042113297,0.18396513,0.42314753,0.09782048
0.8703046,0.07873406,0.18672127,0.49049383,0.15144493
0.1353758,0.035958365,0.31319928,0.5163328,0.13089122
0.16994032,0.0006949248,0.4414325,0.23886402,0.051991567
0.159387,5.0280636e-07,0.33558562,0.14176783,0.0064532873
0.17263049,5.71464e-07,0.13509122,0.09153988,1.7172884e-05
0.25115153,3.763256e-07,0.17572427,0.2439767,7.1065842e-06
0.4631042,6.791019e-08,0.501145,0.46443292,0.0024511605
0.38436055,2.2622577e-07,0.10832224,0.081817575,1.7382855e-06
0.15104713,0.06284702,0.009813296,0.018031497,1.1023886e-06
0.20793712,0.0015118456,8.1622435e-05,0.020789796,5.855686e-07
0.5416843,4.5315323e-06,0.009744771,0.03229956,2.0051294e-07
0.022140885,1.1395371e-06,0.003042827,0.010509857,1.6380342e-06
0.0005346989,1.1202625e-06,5.1923814e-07,0.016777499,4.5044877e-07
2.0697576e-06,1.5881246e-06,1.3017492e-06,0.0043194317,4.1634115e-07
1.2425985e-06,8.288747e-07,1.5356959e-06,9.630289e-07,1.9062634e-06
1.3269985e-06,2.4417377e-06,1.1199211e-06,1.575315e-06,1.8101978e-06
3.3742376e-06,3.358748e-06,3.9086586e-07,1.2812684e-06,2.264163e-06
2.8034926e-06,1.7577626e-06,1.0056352e-06,1.9130348e-06,8.428039e-07
3.113556e-06,1.0403328e-07,2.8972038e-06,1.7403745e-06,1.0684416e-06
2.8848822e-06,4.3829027e-06,1.1495099e-06,1.5125428e-06,2.1883295e-06
2.271289e-06,8.060171e-08,5.093623e-07,1.0786142e-06,4.7518293e-07
7.6205547e-06,9.1193994e-07,7.2241176e-07,4.4507743e-07,5.002105e-10
1.2655519e-05,1.750868e-06,7.7545724e-07,9.0193345e-07,0.0
3.7783735e-05,1.1179068e-06,7.3665973e-07,1.0807521e-06,8.790889e-09
3.4289428e-07,7.649596e-08,1.1332572e-06,1.7945493e-06,7.926944e-07
3.1955112e-06,6.136541e-07,6.9532217e-07,1.1461149e-06,4.312061e-06
9.902217e-09,2.1779858e-06,2.4861684e-08,6.105589e-07,2.2478514e-06
2.4812166e-06,0.0058364687,3.4231667e-07,1.3435361e-07,3.557145e-05
3.0887054e-06,0.3299578,2.4271731e-08,2.1728414e-07,0.114693224
2.3923505e-07,0.40118358,3.1525204e-08,0.060651034,0.989923
1.5082769e-06,3.0213883,0.43988863,2.4821858,4.192395
0.0027590108,3.4691572,2.5751743,4.555044,2.2496748
2.12545,0.34727636,1.652726,2.2106483,0.1162632
2.8261068,0.012425539,0.18079758,0.5971685,0.19201764
0.4179735,0.004723627,0.08008802,0.041684467,2.7319584e-06
0.037936427,2.2774666e-06,0.018877026,0.003987369,3.3589458e-06
0.23386861,7.8376914e-08,0.0055159265,0.0002741418,0.0011159204
0.56083673,9.827169e-09,0.0011323012,4.2369857e-06,0.0055345297
0.473803,0.0020395892,0.017452205,0.022425778,0.000161583
0.06586993,0.04487499,1.5979828e-06,0.06573186,2.8209076e-06
0.049979612,1.3630118e-06,0.00031236684,0.006828335,0.03411981
0.026289515,3.508653e-06,1.2431478e-06,8.7714824e-07,2.156074e-06
0.20913035,1.6627486e-05,8.913206e-07,1.3093812e-06,8.78996e-07
0.112780586,8.5564714e-08,1.3799585e-06,2.4262304e-06,3.9888602e-07
3.1929583e-06,2.827043e-08,1.2455281e-06,2.5746112e-06,1.1698006e-06
5.1968065e-05,2.2245653e-05,2.4109431e-06,5.616398e-07,6.409325e-07
1.0324309e-06,7.0589936e-06,1.1173589e-06,2.8471293e-06,1.9955124e-07
2.2125632e-06,6.8583344e-05,2.0819768e-06,1.4143844e-06,1.9057975e-06
2.6241157e-06,4.234147e-06,7.132232e-07,2.2188985e-06,5.0966844e-07
6.725864e-07,3.4909314e-07,1.3062634e-06,2.4867843e-06,1.7226588e-06
2.69188e-06,8.299189e-08,9.289721e-07,1.2757602e-07,1.6830745e-06
2.3269327e-05,1.9454665e-06,1.9876559e-07,2.1448595e-07,8.132914e-06
8.9978505e-07,1.3837993e-06,6.579317e-07,1.3092776e-07,1.4368287e-06
6.821359e-08,5.634315e-06,5.821223e-08,4.977531e-07,5.3359696e-07
4.949024e-07,1.0620912e-05,3.0958947e-07,5.181285e-07,2.4977604e-07
3.5765354e-06,7.783958e-06,1.29976e-07,6.3040966e-07,9.6111835e-06
1.6436921e-05,5.876253e-06,3.4395707e-06,4.522907e-07,1.3605097e-05
3.0701885e-05,1.585618e-05,1.2655231e-07,8.758831e-07,5.738026e-06
5.846254e-07,1.0263278e-05,2.8239234e-07,9.488147e-08,1.0206902e-06
6.9634875e-06,4.478592e-06,2.1396306e-06,9.175393e-08,2.7812841e-06
3.0903448e-07,0.00047164253,4.6002524e-06,5.0353015e-07,8.076705e-05
5.6189747e-06,5.033996e-05,0.2451098,0.0018606902,8.706855e-06
6.649579e-05,0.00023383694,0.57143056,3.3546578e-06,5.579415e-06
0.00079173665,0.00015956041,0.000116802796,1.2718906e-06,0.00035508804
0.28350607,0.0007313359,2.1485002e-05,2.0417833e-06,0.00032798367
0.79961026,0.00027579212,6.560301e-08,4.3994537e-06,0.00016850018
0.009948143,0.00011393483,1.1584838e-06,2.4433186e-06,1.7493875e-06
2.4453099,3.6921922e-06,3.3754275e-06,2.4141632e-06,1.5475724e-06
0.0977534,1.2773656e-08,3.965764e-07,1.9997708e-06,8.664931e-08
3.2192993e-06,1.413821e-07,2.4888739e-06,3.203888e-07,5.7659895e-07
4.3391956e-06,9.744244e-07,3.402171e-06,2.2385486e-06,6.038646e-08
2.4750867e-05,8.588644e-07,6.1509018e-06,2.4649653e-06,3.9691545e-07
4.6947656e-07,4.040221e-06,1.9813835e-06,3.4759564e-06,3.6066183e-07
3.0860596e-07,5.191448e-06,3.622924e-06,1.0317073e-06,8.684642e-07
1.8815433e-07,2.1332685e-06,4.6653332e-07,7.959025e-07,1.3466057e-07
6.7342864e-07,9.0319514e-07,6.088314e-07,1.392872e-06,1.5501453e-07
2.6265257e-06,2.0813788e-07,1.3095101e-07,2.9503823e-07,8.0291886e-07
3.530035e-06,6.1215965e-06,7.3023546e-07,7.104903e-07,8.807917e-06
2.6106522e-06,5.1829725e-06,9.659057e-07,4.702791e-07,7.887606e-06
9.181165e-07,1.8267667e-05,3.4657828e-07,1.9651108e-07,1.4449922e-06
1.4895711e-07,2.3291551e-07,1.7522379e-07,8.420349e-07,5.98058e-07
6.053187e-07,4.703017e-08,1.5454805e-07,1.2648525e-06,2.728517e-06
3.2060532e-07,1.3324097e-06,5.197046e-07,3.1539665e-07,3.4554407e-06
1.8879084e-06,1.6712026e-07,1.02976514e-07,2.003158e-06,2.2514444e-08
6.0449697e-06,7.521041e-07,1.6352644e-06,2.8095847e-06,8.6779585e-07
7.8447165e-06,4.9280294e-07,5.482927e-07,2.4999908e-06,0.11873206
1.0553437e-06,1.0140791e-06,0.10875669,0.00366061,1.1397973e-06
8.133349e-07,2.4405264e-07,0.050980233,0.044037413,1.1834067e-06
2.8975878e-06,9.733392e-07,0.24163693,0.024634272,2.2641495e-06
1.3983728e-06,5.034677e-07,0.26590928,0.019164337,2.3972873e-06
1.536918e-06,5.6667415e-07,0.066722624,0.008597226,2.3707175e-06
3.904073e-06,2.0357966e-06,0.23344775,0.21400064,6.9378456e-07
4.8992183e-07,1.1358478e-06,0.3130717,0.6622284,1.7233033e-06
1.212794e-06,2.2944673e-06,0.27325678,1.7264194,5.5989776e-06
1.6016054e-06,6.082276e-06,0.32990816,2.5701573,4.967071e-05
1.3353878e-06,6.293404e-06,0.16330288,0.559639,0.025197499
2.0576053e-06,2.2682114e-05,0.093301415,0.3196703,2.7423368e-07
0.12971157,4.4660374e-06,0.0534987,0.25569367,8.763967e-08
0.0019410101,3.9612812e-07,0.04405447,0.26721868,2.855504e-05
8.005293e-06,4.8629972e-06,0.029298821,0.06260068,2.4774092e-05
1.9015308e-05,2.412369e-05,0.009242003,0.062875375,1.7269062e-05
0.000351179,1.8633161e-06,0.003276793,0.048557762,1.4266622e-06
0.001194724,5.209528e-05,0.010590131,0.054588255,1.767603e-05
0.001643763,6.5569926e-05,0.030193556,0.08919537,6.8726818e-06
0.0013424634,3.0607105e-05,0.048881594,0.159499,0.00013859638
0.00032169168,1.0476271,0.09169598,0.55209106,0.00025371637
6.677783e-05,2.2467754,0.1104262,0.8027293,0.14368686
0.073400564,3.178185,0.17324519,0.4189466,0.011688681
2.5878005,0.24471031,0.23769917,0.5068927,3.5911107e-05
3.288627,8.846819e-06,0.20871736,0.4235503,0.030820481
1.4324688,1.6378825e-05,0.23622948,0.18702397,0.002925464
0.35583308,0.51779777,0.12693441,0.020944247,1.7441264e-06
0.033981353,0.00019568349,1.1299085e-06,9.623842e-07,1.7229568e-06
0.6806518,7.7634286e-07,1.5115563e-06,2.4742633e-06,3.7738887e-06
0.08376558,1.6054073e-06,9.1050975e-07,3.3532142e-06,1.8980228e-06
3.2503604e-06,4.00632e-06,1.7818844e-06,2.0225327e-06,8.812115e-07
2.7820192e-06,5.3934323e-06,2.1232277e-06,1.3362048e-06,1.8580112e-06
2.396561e-06,7.829681e-06,2.2630259e-06,8.363685e-07,8.9477635e-07
2.0453672e-06,4.152126e-06,1.4030176e-06,1.231693e-06,9.78428e-07
1.8716279e-06,1.8955633e-06,1.7876353e-06,1.6704215e-06,2.153086e-06
1.3668921e-06,6.8021586e-06,1.19089145e-05,2.4378294e-06,1.0731774e-06
2.4121111e-06,1.1544346e-06,1.0500648e-06,4.5911997e-06,2.4909257e-06
2.0653654e-06,3.9643393e-07,2.7286121e-06,9.853944e-07,3.938521e-06
4.2299405e-07,8.552474e-07,2.040466e-06,1.205462e-07,3.0944e-06
1.2167433e-06,1.9365773e-06,3.3781834e-07,3.0539215e-07,2.6129046e-06
0.0098516,1.507916e-06,1.6670973e-06,1.1036158e-06,2.3573907e-06
1.9148732e-07,2.0217044e-06,1.0330224e-06,4.4627416e-07,3.6826757e-06
1.0462895e-06,2.6048303e-06,4.985923e-07,2.2794396e-10,1.6182122e-06
1.042243e-06,7.1550453e-06,5.031029e-07,7.074444e-06,8.32908e-07
7.7656307e-07,1.7087565e-06,1.347587e-07,1.6554499e-06,1.380915e-06
6.0317507e-07,2.0172163e-06,7.725197e-08,8.5150215e-10,6.02938e-07
1.4413868e-07,2.6274886e-06,7.77145e-09,2.2213153e-07,1.9873457e-06
7.18488e-06,1.7287795e-06,2.9189314e-06,1.690858e-05,1.5647654e-05
4.206706e-07,2.5734773e-06,2.1361402e-06,2.4328983e-07,4.0369367e-05
1.1197073e-06,1.697864e-06,3.8236094e-06,2.009815e-06,2.8509814e-06
1.2066404e-06,5.9633244e-06,1.142204e-06,4.7445556e-07,3.025384e-06
6.4878066e-07,4.1926683e-07,1.7160125e-06,3.5576918e-06,5.1024e-06
1.3931182e-06,5.1135686e-08,2.4357844e-06,1.1322516e-06,2.2480717e-06
6.447068e-07,0.0,3.6114722e-07,6.1387357e-07,1.8107871e-06
1.53955e-06,0.0,1.1456693e-06,1.2015873e-06,8.983175e-07
2.0140117e-06,0.0,1.2683865e-06,2.060717e-06,1.5160616e-07
9.918339e-07,0.0,2.5813927e-06,5.859966e-07,0.0
7.5814035e-07,0.0,1.9925767e-06,3.8739097e-07,6.528675e-08
4.3352208e-07,0.0,3.1786876e-06,9.320963e-07,2.6143658e-08
9.88855e-07,0.0,4.0620525e-06,4.0405365e-07,0.0
0.0,0.0,2.3614159e-07,5.0491985e-07,3.290195e-08
0.0,2.4787061e-09,1.8523501e-07,2.410946e-06,7.56912e-08
0.0,7.407732e-07,1.1326703e-06,4.5672564e-06,2.3945822e-06
0.0,5.2117394e-07,2.6237344e-06,1.0844533e-05,5.4897014e-06
7.056254e-09,1.293523e-06,1.0856989e-05,1.2106203e-05,1.9035033e-05
8.251961e-07,1.8157973e-05,1.8403847e-06,6.6035557e-07,8.973601e-05
6.6272446e-06,1.7439054e-06,8.345096e-06,4.289339e-05,5.4495013e-05
1.0551024e-05,3.9253484e-07,1.5157632e-05,0.00020183358,5.8573594e-05
1.5975691e-05,1.4112646e-06,2.0378175e-05,6.967093e-05,6.6825555e-07
6.2723507e-06,2.1218818e-06,4.565404e-06,0.00016908962,7.1360437e-06
7.5512676e-06,1.9773686e-06,4.835354e-05,0.0001716072,1.4686145e-05
4.893009e-06,2.5729503e-07,1.9538913e-06,4.1917514e-07,6.1937254e-07
1.0215199e-06,0.0,1.134694e-05,9.998651e-06,3.6467625e-06
1.5936682e-06,0.0,1.0702403e-05,1.6303289e-06,0.0
6.3070646e-11,0.0,6.205971e-06,3.688491e-06,0.0
0.0,0.0,8.964518e-07,1.3163798e-05,0.0
0.0,0.0,5.999024e-06,3.0052504e-06,1.9553136e-08
0.0,0.0,1.8895252e-06,3.134458e-06,5.67676e-09
0.0,0.0,1.6879405e-06,1.471997e-06,7.9197534e-08
0.0,6.4259896e-11,1.0735753e-06,3.7831984e-07,2.8055697e-07
0.0,9.172841e-09,3.89487e-11,1.7481225e-08,6.0441187e-07
1.5612054e-08,4.7519006e-08,0.0,5.485462e-06,2.0148906e-07
3.4502244e-07,5.8590615e-07,1.1801865e-07,2.576549e-06,2.8921477e-06
6.046113e-07,6.4801166e-06,1.003418e-06,0.0022230644,5.0756057e-06
2.4777492e-08,1.5141962e-05,9.891966e-07,0.23960535,0.00016344104
6.847438e-08,0.0004029859,1.4800457e-06,6.7614775e-07,0.00015966027
1.2774959e-08,0.00011179912,3.979629e-06,9.222704e-06,4.497115e-07
2.035644e-06,3.7157877e-06,2.5690158e-06,0.07154949,6.10454e-07
1.099096e-05,3.1696832e-06,3.0649728e-05,0.032291096,2.5328982e-06
8.359005e-07,2.5030722e-06,0.615317,0.3266687,1.5740998e-06
0.00013991188,2.4098467e-06,0.9732718,0.42070696,3.3922536e-06
0.00014916853,1.9890633e-06,0.31178752,0.3218107,0.006412047
2.1606586e-05,5.595596e-06,0.323438,0.22784592,0.6215896
0.000109816065,0.17877577,0.23125891,1.6048269e-06,0.048543096
4.229511e-05,0.00013174149,7.5376386e-07,5.00239e-07,1.4098599e-06
0.04367761,0.0004299761,1.0660347e-06,4.3043428e-07,2.6072187e-06
0.21448214,2.9128603e-06,1.0102453e-06,2.3969028e-07,2.7917765e-06
0.29676732,5.2482565e-06,1.0673147e-06,2.3036814e-07,1.8399626e-06
0.18343191,1.6469749e-06,1.859085e-06,2.0065054e-06,1.7029322e-06
0.0002287297,2.7469544e-06,9.953717e-07,2.4145388e-06,2.127675e-06
2.4501976e-06,1.3680683e-06,1.8479224e-06,1.3521587e-06,4.0233067e-06
1.8349632e-06,6.9433696e-07,1.9828447e-06,1.619162e-06,1.3372852e-06
2.9195899e-06,3.2592434e-06,0.01571699,0.0015320379,1.5592574e-06
1.864433e-06,3.465107e-06,1.1723638e-06,2.3824368e-06,1.7209568e-06
3.2168846e-06,8.1636887e-07,1.7698504e-06,0.029208137,4.3162036e-05
1.5548754e-06,2.831971e-06,0.2016237,0.07842978,0.0004064424
5.7865946e-06,1.5191937e-06,0.2444417,3.1872067e-05,1.6572728e-06
3.5586481e-06,4.01633e-06,0.2702629,1.4930444e-05,9.398692e-07
1.0798626e-06,8.0580116e-07,3.8545423e-07,0.0024955638,3.5653225e-06
0.31508803,2.7940068e-06,0.0003485985,1.082182e-06,2.3150737e-05
0.54046345,9.2004115e-07,3.5059185e-07,6.4490126e-07,8.1966476e-07
0.0073867314,4.4143676e-06,4.4661057e-05,1.2581373e-07,8.206857e-07
1.3539795e-06,2.4882745e-06,1.6317084e-07,1.2484972e-07,0.012732098
6.981158e-07,4.457075e-07,8.637659e-07,3.9235908e-07,0.020778611
8.999988e-07,6.6189784e-07,1.117661e-06,1.6929591e-06,0.0911973
8.031996e-05,9.275117e-07,2.415306e-07,1.0520689e-06,3.6615743e-06
0.008344561,1.5293454e-06,1.049167e-06,4.2263596e-07,0.15409547
0.33342206,6.087622e-07,6.5762674e-07,6.407401e-07,0.009460444
0.08717571,4.4264382e-07,1.706445e-06,5.5645046e-07,0.26470125
1.0747701e-06,2.7309732e-06,8.498579e-07,1.3635597e-06,1.5013682e-06
0.027327225,9.4032794e-07,6.9233226e-07,1.4020528e-06,2.3408145e-06
0.0016057239,0.018819187,4.5259444e-06,1.6263641e-06,2.429413e-06
0.21164232,1.3024915e-06,6.4887017e-06,2.2660815e-06,2.147056e-06
2.3002267e-06,0.00038817583,2.8593831e-06,7.633445e-06,0.00010740584
1.0163388e-06,7.3477435e-07,1.4868916e-06,4.7963304e-06,0.0007214747
3.2347325e-06,1.7154913e-06,2.5543752e-06,0.00046924676,8.4040965e-07
2.4743556e-06,1.4590222e-06,3.029506e-06,2.2550332e-06,5.229099e-07
4.421823e-06,3.2634105e-06,1.1239194e-06,1.9495214e-06,1.9649244e-06
3.5700807e-06,1.0280559e-07,1.0304566e-06,1.7979597e-06,6.5812804e-07
3.3295837e-06,2.1892915e-06,1.8717622e-06,3.88967e-06,1.5308426e-06
2.1676015e-06,3.87653e-08,1.5946355e-06,2.655926e-06,5.712191e-07
1.3440676e-06,7.6592405e-06,1.8651708e-06,1.9210897e-06,2.1550557e-06
3.0350254e-06,3.180583e-06,3.2108435e-06,1.5815359e-06,1.8047406e-06
1.2284412e-06,1.3100006e-06,5.5426235e-06,3.7897908e-07,4.1684348e-07
1.4434963e-06,2.4451283e-06,5.352467e-07,1.7133422e-07,3.8318035e-06
6.0243015e-05,4.5464035e-06,1.1077883e-06,3.6561312e-07,5.720173e-06
1.8060539e-06,1.0832233e-06,3.3147253e-06,8.4143335e-07,3.4033587e-07
1.7840381e-06,0.00029956823,3.2634719e-06,6.4326116e-07,2.9561543e-06
6.532888e-07,0.0010600173,4.911943e-05,7.820728e-06,1.8992323e-05
3.8558446e-05,0.0007861767,7.4904965e-05,1.135908e-06,0.00014156417
7.1869355e-05,0.0013889493,1.3329418e-07,8.2675375e-05,0.00054747117
2.5943669e-08,0.00039911052,1.1711646e-06,0.0007003167,0.00058772496
5.417827e-07,0.00025176382,0.2940093,0.03054464,0.00059475855
6.2447796e-08,0.0052151135,4.495555e-05,0.0009276035,0.5571448
0.00086741947,0.0016781049,8.5514995e-07,1.3345049e-06,2.4324174
0.00039072672,0.4212457,6.050919e-07,1.3510135e-06,3.2592274e-05
0.36228672,0.0001345894,2.232855e-06,7.909901e-07,0.09060288
0.23015876,1.5367413e-06,1.9395118,0.42913112,1.2881129
2.2518752,1.3750972,0.104428746,3.253844,0.09591942
1.2031537,0.06209928,1.3265403e-05,0.14156125,2.392481
4.814718e-06,0.22497167,0.00028139396,0.020679541,0.39653075
0.7194812,0.8774606,1.9933041,0.06005517,0.8875127
0.6778254,0.55105036,0.019099213,0.4226743,1.1358149
0.21946245,0.046871897,0.11496832,0.034231845,0.42374232
0.36632898,0.01818315,0.022791607,4.1289604e-05,0.08387658
0.40773818,0.026297405,0.059595168,0.118815295,0.017980529
0.30720013,0.0036695055,0.09754045,0.095848575,0.012146017
0.36658406,0.0019353396,0.036918875,0.19188282,0.003921429
0.005453976,0.00045267833,0.015727982,0.0067954427,0.00016203377
0.00017331957,2.8742252e-06,0.00010038029,3.0630893e-06,2.896654e-06
0.00067532726,2.0015418e-06,0.0003440428,2.2228255e-06,5.727231e-06
0.040234916,1.102176e-06,3.2875185e-05,3.2369218e-07,1.3404206e-06
0.010336946,1.3150987e-05,3.685789e-07,1.5034238e-06,1.0082327e-06
0.3145254,1.460953e-06,1.1338388e-07,2.1977323e-06,7.1226475e-07
0.015076726,1.9925778e-06,2.2031782e-06,0.00011712439,1.69035e-06
0.0028719534,2.9936105e-06,0.0001645814,0.0020948523,1.3506553e-06
8.580003e-05,1.8240673e-06,0.0006049318,0.0008923605,2.515533e-06
1.1196206e-06,9.843982e-07,3.1734032e-06,0.11615173,1.4350778e-06
4.4035255e-06,5.7346428e-05,0.07013365,0.10569544,0.0003927626
1.5366144e-06,1.0068514e-06,1.9419494e-06,3.5946357e-06,1.0520278e-06
6.533626e-07,2.1105255e-07,2.1949472e-07,1.291766e-06,3.7991202e-07
2.325951e-06,4.90694e-07,1.0363697e-06,1.4016134e-06,0.00026875988
1.2594932e-06,3.317645e-06,1.0564062e-06,1.8483331e-06,0.0013021544
8.504675e-07,4.0390023e-05,1.2126267e-06,9.122245e-07,9.237097e-07
9.3782074e-07,4.2684405e-07,1.9270517e-06,3.6522094e-06,2.7251934e-07
2.9256453e-06,2.8921266e-07,1.430715e-06,6.133507e-06,2.040733e-06
2.4567028e-06,3.5932164e-06,3.3926658e-06,4.133147e-06,9.7810776e-08
3.040875e-07,4.78229e-06,3.9995925e-06,4.7536532e-06,1.5655653e-06
6.910877e-07,5.5458775e-05,1.0983389e-06,7.715528e-06,2.0756156e-06
1.3155358e-07,0.00019537793,2.9869156e-07,3.4619947e-07,2.0587172e-06
1.6461918e-07,3.545928e-05,6.011932e-07,5.458789e-07,7.937628e-09
2.0008316e-05,4.187727e-06,6.208039e-07,2.0776192e-06,1.18626936e-07
9.555108e-08,3.214844e-05,1.3622594e-05,1.677331e-06,0.0
2.9692671e-06,3.4260138e-05,2.2804335e-05,1.3473691e-05,2.5619466e-08
1.0167175e-06,6.710889e-07,3.2271455e-05,7.2346906e-05,9.1889746e-07
1.9119977e-06,8.9702723e-07,3.319316e-05,8.6420485e-05,2.2009244e-06
1.8149332e-06,7.70478e-07,1.1319938e-05,1.5621982e-06,1.6722166e-07
2.9930115e-06,0.0,1.2997696e-05,5.386591e-08,1.5343878e-09
2.160241e-07,0.0,1.1057465e-05,1.6833872e-07,1.3303841e-06
5.7186526e-07,7.5056565e-09,1.0100526e-05,2.1042153e-07,3.0191636e-08
6.601881e-07,4.2919893e-07,3.2186313e-06,2.46841e-07,6.553297e-07
7.205559e-07,1.4953943e-06,8.847263e-06,9.702249e-08,1.1026095e-06
3.027628e-06,0.008155497,1.2456624e-05,5.2287096e-08,5.203699e-05
9.761357e-06,2.1387451e-07,3.936337e-07,1.4239925e-08,6.690698e-06
8.856296e-06,7.9792676e-07,2.2521426e-06,1.04575726e-07,9.996189e-07
2.2536055e-05,2.09488e-06,3.3405715e-07,4.6222075e-07,3.9748766e-06
3.4285426e-07,3.154732e-06,4.517249e-06,5.1490446e-07,1.2376862e-06
3.0561528e-06,8.856827e-07,1.0170311e-06,8.411199e-05,0.053411122
2.2748334e-06,3.0023117e-05,6.365149e-05,0.13766906,2.0225263
5.6175563e-06,3.9028488e-05,0.0001837876,0.66566217,4.907877e-05
7.9479446e-07,7.913828e-05,0.00015876286,0.03749151,5.225679e-07
0.18705295,1.2103859e-06,0.009833672,0.0024628914,7.897416e-07
1.0814365e-06,5.3415215e-07,0.049869444,0.0856257,0.00016519798
0.223194,1.6160678e-06,0.057179004,2.8814267e-07,7.547083e-07
1.5419802e-06,2.138645e-06,8.60721e-07,2.494134e-07,1.3584863e-05
4.127104e-06,3.0486224e-05,3.0916456e-07,5.4784978e-06,0.044853903
2.2341255e-06,8.09351e-05,1.4767141e-05,1.9700929e-06,0.06421033
1.5590442e-06,4.937651e-06,0.004333647,0.0038698362,0.092391424
9.251783e-07,1.5617374e-05,0.023700004,0.019329438,0.028442105
5.4042703e-06,7.969686e-07,0.020284671,0.0013619369,0.00034863056
0.015283677,0.0071647004,7.9700624e-07,0.00010958117,3.0417465e-07
0.025012415,6.943947e-05,7.069144e-05,6.1792985e-06,4.2107666e-07
0.06738489,8.051197e-07,8.4563646e-07,1.5183474e-07,1.0372773e-06
0.024964344,1.787336e-06,1.2665538e-07,1.6121815e-07,4.2754195e-07
0.014526855,1.4580687e-06,2.0519101e-07,3.021613e-07,4.2056763e-06
3.6570755e-06,6.3807767e-07,1.5225411e-06,7.006446e-07,0.0028563673
1.6665566e-06,8.982847e-07,1.5498275e-06,5.8836844e-07,9.931589e-05
1.4040334e-06,1.1892967e-06,2.034263e-06,5.9543027e-07,1.941993e-06
2.019588e-06,6.246964e-06,1.7514154e-06,1.2421647e-06,1.192986e-06
1.2180388e-06,4.7101526e-06,2.9777304e-06,1.8848399e-06,1.3975445e-06
1.7897628e-06,1.5193824e-05,1.1005469e-06,8.6055644e-07,3.7438665e-06
3.0978902e-06,4.4957164e-06,3.1613351e-06,4.023585e-06,1.107679e-06
2.3803586e-06,0.0,1.671758e-06,1.1147062e-06,2.8836341e-06
1.2247712e-06,4.1825317e-07,3.7464426e-06,4.921662e-07,1.5763476e-06
8.6100795e-07,1.04151866e-07,3.3208987e-06,7.5870226e-08,4.30166e-07
1.3970183e-06,2.4145889e-08,1.7260393e-06,1.569636e-06,2.3020982e-06
3.5701642e-06,3.1986406e-07,1.1219471e-06,1.9482743e-06,2.2168742e-06
9.769225e-06,2.4673732e-06,4.006336e-07,1.2070398e-06,3.0832646e-06
3.3099022e-06,7.9402315e-07,1.8729515e-06,6.335778e-07,1.2142764e-05
8.443084e-06,8.145892e-07,5.332953e-07,7.2837616e-07,2.2265056e-06
8.599607e-06,8.3786235e-06,1.0085444e-06,8.5888826e-07,8.7236117e-07
2.5218892e-06,6.401561e-06,2.039961e-06,2.2089188e-07,1.2624455e-06
1.3943969e-06,5.610383e-06,5.4414667e-08,9.5272945e-08,2.3785874e-06
5.0056465e-06,1.7084571e-06,1.4501839e-07,7.181915e-09,5.267398e-07
1.7586168e-06,2.7398971e-06,2.3332943e-05,0.023252817,8.7107213e-07
2.465004e-06,2.1860062e-07,0.024284149,9.1760965e-05,6.903255e-07
8.40959e-07,3.7479947e-07,1.3172098e-06,4.2212315e-07,8.206386e-07
1.7280632e-06,9.939089e-07,0.200577,0.9159463,8.614761e-07
9.560233e-07,1.962468e-06,0.00487774,0.0029384391,1.3945827e-07
0.08390386,2.4968338e-06,5.1764073e-06,4.4341311e-07,1.7175872e-06
1.1939654e-06,1.2716725e-06,1.2637221e-06,5.1786026e-07,1.4625793e-06
0.00060358166,1.9997321e-06,0.0010772228,7.4629855e-07,1.1087448e-06
0.24232195,3.7456307e-06,1.0826824e-06,0.04546389,1.7252657e-06
0.020020096,1.292552e-06,0.5351702,1.108375,2.2235902e-06
1.0749959,6.4199133e-07,1.5837184e-06,0.029236916,1.7049609e-06
0.0007164317,4.3530285e-06,1.3390012e-06,3.738789e-07,1.8205902e-06
0.035543017,3.0471292e-06,0.5599452,0.2946738,3.3174194e-06
0.000103694394,4.9625864e-06,0.39790788,0.028420238,4.9972664e-07
3.2690125e-06,2.5322151e-06,2.8235818e-06,8.795758e-07,5.046441e-07
2.124029e-06,3.777195e-06,9.900775e-07,8.34978e-07,3.607575e-06
1.7541021e-06,7.092884e-06,1.218546e-06,0.41466075,8.75386e-07
2.529126e-06,1.095575e-05,1.1493407e-06,3.7570323e-06,1.0829515e-06
1.2990546e-06,2.026786e-06,0.03582172,0.029638309,0.0102159465
1.1845011e-06,7.110456e-07,0.3649754,0.00012180874,4.4613403e-06
0.18970136,1.4093067e-06,7.6142965e-07,0.004668098,0.12558143
7.772226e-07,1.4978963e-06,0.12234779,0.42137372,1.379194e-06
1.347944e-06,3.606153e-07,0.0064106104,0.13831995,9.2304515e-07
0.11360066,9.612602e-07,1.10532895e-07,6.545838e-07,0.014968116
2.114506,2.3042078e-06,0.0016269814,0.04916498,0.028354574
2.6223319e-05,1.0721852e-06,0.47293782,0.34454486,8.629756e-07
6.9862763e-06,2.1216367e-06,0.048229817,0.010429742,7.981309e-07
1.5104995e-06,2.0497707e-06,3.378288e-07,3.103192e-07,1.3195905e-06
2.5753504e-06,2.6512046e-06,1.380247e-07,1.7961436e-07,1.8533169e-06
1.5628748,1.1643361e-06,3.381584e-07,6.0665917e-07,1.5551991e-06
4.7285608e-05,2.3327666e-06,1.19346e-06,1.1137648e-06,2.372503e-06
0.48780692,2.6077404e-07,2.3744085e-06,1.769795e-06,3.1506452e-06
0.07895465,1.5592244e-06,1.6035186e-06,1.0844944e-06,2.7393949e-06
1.1773755e-06,1.3911879e-06,1.4220303e-06,2.1377255e-06,7.5858145e-07
0.08434334,1.5100318e-06,0.0171471,5.8696e-07,1.1549597e-06
0.56387717,6.938668e-07,2.5997476e-06,0.056629296,1.2104017e-06
0.18183348,2.6003606e-06,0.022869356,0.0005517851,1.3530401e-06
0.00034780242,2.2355314e-07,1.824642e-06,2.7160809e-06,2.033038e-06
7.912809e-07,4.712465e-07,2.333453e-06,1.4794679e-06,1.7858271e-06
0.60953003,8.767038e-06,1.1624568e-06,0.0002592782,1.1911044e-06
2.3344085e-06,2.6896485e-06,0.3218785,0.099271834,2.342873e-06
1.7818043e-06,3.6034828e-07,1.554321e-06,2.5143781e-06,2.5159743e-06
1.0542714e-06,1.4081597e-06,1.0062629e-06,1.7878984e-06,1.6327e-06
2.0166435e-07,6.9989414e-06,1.7937705e-06,4.322292e-06,4.4110857e-06
9.852968e-07,2.9464168e-06,1.4375972e-06,9.783756e-07,1.6704174e-06
1.565622e-06,8.904087e-06,2.27638e-06,1.0929635e-06,1.1169374e-05
2.170948e-06,1.5491223e-05,2.7800468e-06,2.3220543e-06,8.291882e-06
0.022070056,5.686967e-06,2.9429348e-06,1.4351198e-06,2.6350272e-06
0.000312843,1.245575e-06,3.162336e-05,0.027763909,1.3037753e-07
0.007870178,3.0531253e-06,0.0094426,0.16432309,9.566975e-07
0.0018204694,1.3538372e-06,0.12862806,0.20523266,3.1562831e-06
3.2913397e-06,9.780622e-07,0.03532793,0.12082242,0.013198728
9.522533e-07,0.018629499,0.008592086,0.004822902,0.078589045
6.314095e-06,0.01609754,0.0022303532,0.00018283898,0.06900741
0.016155535,2.910262e-07,3.0573233e-06,0.00012517371,1.2606628e-06
0.022805274,5.7037556e-07,9.1109205e-06,9.583721e-07,1.6136822e-06
0.04000177,1.5895259e-06,1.0048573e-06,1.3984119e-06,1.2158278e-06
0.06988569,1.4737327e-06,1.5638856e-06,1.9353822e-05,4.0172688e-07
0.0012796954,9.1715856e-07,1.1604138e-06,0.0030771494,8.8132094e-07
0.06828864,3.698959e-06,2.0046075e-06,3.1927343e-06,1.7671967e-06
1.3727379e-06,3.7454045e-06,2.4617293e-06,2.0868654e-06,3.979571e-06
1.4359679e-06,1.6556262e-06,1.5414349e-06,6.5355935e-06,1.7391199e-06
2.1645671e-06,8.879052e-07,1.4389204e-06,2.5948655e-06,6.965261e-07
1.0865338e-06,1.0832692e-06,2.125477e-06,1.7088437e-06,1.1720301e-06
2.68636e-05,3.2497005e-07,4.4596196e-05,8.113295e-07,2.0728794e-06
0.000119955155,7.938389e-07,1.5258871e-05,1.4632198e-05,5.461105e-05
3.080986e-05,5.194942e-07,5.8669506e-05,1.3864313e-05,0.011453186
5.757238e-05,5.2926447e-07,0.000105412655,0.000253944,6.683579e-05
2.1345388e-05,8.493597e-07,0.00013201807,7.277853e-05,1.2272325e-07
2.2740547e-05,8.325708e-07,5.9091565e-07,3.8266153e-06,6.3392818e-06
0.0016094993,7.929606e-07,1.0606637e-06,1.692948e-06,7.447043e-05
0.008160835,3.7817946e-07,5.852357e-07,5.395135e-06,0.00015438019
1.0199661e-05,1.7439243e-06,0.00013937066,2.6271478e-05,1.4357048e-06
0.0035121988,7.0178e-07,0.017183408,0.00014705381,7.0026385e-06
0.014418974,9.534446e-07,0.02686164,0.004908997,2.7945323e-06
0.015654685,2.5790948e-06,0.0055728382,0.0011142064,6.385119e-06
0.0041467473,5.197793e-06,1.980953e-06,4.7392446e-06,4.9680216e-07
0.009185062,7.2244084e-06,8.287177e-06,9.4177506e-07,7.366478e-06
0.0023101987,9.292494e-06,0.00610222,0.000119029806,4.429444e-06
9.632527e-06,2.7799022e-06,0.0055025895,0.04376829,2.1261358e-06
3.3739439e-06,2.6065247e-06,0.00048443518,0.022130754,1.4393743e-06
1.4670744e-06,9.055068e-07,4.7419933e-05,2.0269644e-07,5.370682e-07
1.0902524e-07,1.2426733e-07,0.0016438556,3.4937425e-06,9.79185e-07
5.311206e-06,2.9603049e-08,0.0072259763,4.663195e-06,7.6071547e-07
3.3411216e-06,4.985782e-08,1.8889801e-05,0.0023457105,4.0533405e-07
3.1374948e-06,1.5982008e-07,4.884611e-06,0.005952647,1.7330467e-07
8.861289e-07,5.5728503e-07,6.22636e-05,0.03787786,2.430186e-06
5.127325e-06,4.72413e-07,0.0010766969,0.06049172,3.0712392e-06
2.071737e-06,8.03921e-07,0.022194639,0.04961279,8.8312976e-07
7.218894e-06,2.8912536e-06,0.03337016,0.03099468,8.582048e-07
9.39896e-07,2.524896e-06,0.044741165,0.012160191,4.730887e-06
3.0053504e-06,2.65175e-06,0.008011448,4.255056e-07,6.7627784e-06
6.6384746e-07,9.814494e-06,2.726292e-06,1.2533711e-07,6.2503375e-07
1.4356511e-06,3.6270433e-07,0.020956289,2.1407101e-07,1.532451e-05
1.7633472e-07,1.054412e-05,0.025715062,6.487594e-07,0.00050738396
1.9416693e-06,1.070799e-05,0.0091243945,2.8540528e-06,0.004183588
3.324228e-06,7.040023e-06,0.047352493,6.575039e-05,0.0030621595
1.4051877e-05,4.795168e-06,0.063102655,0.00014464873,0.0031547125
2.553834e-06,1.4818365e-06,0.090076126,0.0020540038,5.735707e-05
7.988549e-06,6.753202e-06,0.10655953,0.0058940877,1.8320268e-05
9.1042675e-06,1.4577711e-06,0.112432495,0.015574411,7.2246353e-06
5.035606e-06,4.9220705e-07,0.08624676,0.11027563,5.7706857e-06
1.177198e-06,1.1135927e-06,0.27931166,0.25376478,1.3493028e-06
1.0341985e-06,9.337244e-08,0.27193296,0.33788446,3.989146e-06
1.1733777e-06,4.2338533e-07,0.3425242,0.27187613,1.123953e-06
7.9202914e-07,1.2284154e-06,0.30099508,0.17122403,5.4130182e-06
8.4908163e-07,1.57302e-07,0.29590663,0.071613945,2.25665e-05
2.0651419e-06,9.542116e-07,0.18826325,0.059304945,9.752962e-07
1.96748e-06,1.3094683e-06,0.11455868,0.030957768,1.7724966e-06
6.764118e-07,2.585714e-06,0.07867665,0.024611406,5.9552775e-07
7.863777e-08,3.3365843e-06,0.05912666,0.00070263096,1.1223466e-06
3.420679e-08,4.3881198e-07,0.018040853,0.00941719,5.981931e-07
2.854899e-07,4.018049e-06,0.006216812,3.005496e-06,3.6844986e-07
6.3325297e-07,8.667069e-08,0.021998554,0.017012652,5.9180445e-07
4.2341486e-07,1.8977933e-07,0.090125374,0.058915257,0.07062798
5.108642e-07,4.3322441e-07,1.047465,5.0606773e-06,0.27878976
1.0406835e-06,3.107187e-07,0.27892563,0.012485489,0.21737763
1.7166872e-07,0.002923536,0.16137311,0.089393064,0.0710995
5.4093414e-07,0.09039832,0.04140091,0.07984126,0.16040711
6.4932675e-07,0.040458046,0.024159765,0.16682762,0.112034164
1.0148909e-06,0.039771207,0.0110001685,0.025144134,0.01226707
1.8725547e-06,0.062056057,0.006746337,3.6310823e-06,0.022452869
6.8346196e-07,0.10268372,0.024112985,4.783723e-07,0.28241244
5.4757965e-08,0.14274515,0.06624813,8.045964e-07,0.1434987
4.1709524e-07,0.08754014,0.04053697,0.00026798554,0.043641422
5.830351e-06,0.030645085,0.33093116,0.6773523,0.12836987
1.0133016e-06,0.023308745,0.1992666,1.4487404,0.6313823
1.3431506e-06,0.5292355,0.06046075,1.7258669,2.5924404
9.952923e-07,0.9275856,0.15832968,3.1531136,2.774865
4.034379e-07,2.8618114,2.9733584,2.6898015,2.8826377
3.52382e-06,3.2083957,3.0463293,3.4527037,3.4696927
7.3292256e-07,2.7174146,4.6396246,2.9663258,2.064227
2.6099035e-06,1.1917373,4.1351156,4.8817396,2.8167646
2.038155e-06,0.56340504,4.8816786,4.9866304,1.1984156
9.055842e-07,0.22645313,7.097782,3.761562,0.8990921
0.62012374,0.15584986,2.5520892,0.89865965,0.21100128
2.301929,8.180853e-05,0.020334681,0.0059702396,0.000449689
1.1442455,0.00049919996,0.0052506123,1.4206015e-06,0.0029150343
0.008307058,0.0006799781,0.03396432,2.9023313e-06,7.772581e-06
2.1920373e-06,1.1231222e-06,2.1641981e-06,1.0739141e-07,5.5070973e-06
1.7229852e-06,2.856643e-06,1.2833938e-06,3.8057019e-07,1.1171571e-05
7.8500665e-07,1.37411935e-05,1.1532882e-06,9.4190113e-07,5.3344496e-07
3.0014753e-06,5.2066825e-06,3.5466462e-07,9.767251e-07,1.1492135e-06
2.8668203e-06,2.3550529e-06,1.8874391e-07,3.950388e-07,1.5665579e-06
9.867993e-07,1.9012792e-05,1.7721999e-07,6.5524e-06,2.3866977e-07
2.1315465e-07,5.8338884e-07,1.6936367e-08,6.741659e-07,1.8578091e-06
1.0142139e-07,1.256988e-06,7.2446085e-08,2.547708e-06,3.3318372e-06
3.5412096e-08,2.1654864e-06,6.298973e-07,8.0196736e-07,1.6977427e-06
2.486365e-06,3.6649424e-06,1.7000609e-06,7.9372586e-07,2.4789176e-06
1.225385e-06,8.919493e-07,1.778182e-06,3.9656064e-07,1.8723317e-06
1.0502769e-07,2.9153985e-06,9.861599e-07,7.6926324e-07,0.0360903
1.725402e-07,5.672069e-07,9.709527e-07,5.119391e-07,1.5472651e-06
1.0707564e-06,4.007741e-06,5.824839e-07,1.5164027e-06,2.8058323e-06
3.725233e-06,3.5804744e-06,2.6983759e-07,1.585902e-06,1.2493604e-06
1.0493317e-06,1.6429366e-06,2.9265361e-06,1.4808445e-06,7.2320483e-07
1.283882e-06,2.507532e-06,1.5709903e-06,1.4528545e-06,0.0009890379
2.0229e-06,5.4688585e-06,5.0698026e-07,2.1670558e-06,1.9443396e-06
3.449443e-06,1.8888469e-06,4.2786564e-06,3.1935383e-06,4.4264397e-07
1.7918818e-06,2.0637785e-07,2.2277188e-06,5.236955e-06,6.0440004e-07
6.2386416e-06,2.4831866e-07,2.5950982e-07,9.673677e-07,1.7641193e-07
5.82497e-07,2.1551693e-06,1.8091545e-06,5.513289e-07,0.0
7.449024e-07,2.4413384e-07,9.677048e-07,2.8189848e-07,0.0
1.2095695e-07,0.0,2.6337877e-06,7.471105e-06,0.0
3.828354e-07,0.0,2.1037142e-06,1.7817939e-06,0.0
8.1310793e-07,0.0,6.972831e-06,9.037304e-07,0.0
7.229593e-05,0.0,5.1126503e-05,1.1227849e-06,5.299479e-07
1.8618773e-06,9.721424e-08,1.621862e-05,4.2162153e-08,5.1262157e-07
1.705876e-07,1.1403789e-07,2.3376415e-05,1.1246812e-07,6.669927e-07
5.9101953e-06,6.5804204e-07,2.4213164e-06,1.4719826e-07,1.8200865e-06
1.7602339e-05,1.7311432e-06,4.348458e-05,4.07976e-08,7.209347e-07
1.7783188e-06,1.5274642e-06,2.2312047e-06,2.1359466e-07,3.8196927e-06
5.412426e-08,2.0325695e-06,6.229595e-07,1.3191433e-06,4.988224e-07
5.1514326e-07,1.9041754e-06,2.9492267e-06,3.7000575e-07,4.818586e-07
1.2500049e-06,1.2875097e-07,2.5099782e-06,1.4734177e-05,1.7002607e-07
4.1550848e-08,4.4399613e-07,1.6233398e-06,4.976939e-06,2.7650292e-06
0.0,1.8304278e-06,2.4098888e-06,1.5960753e-05,3.2027303e-06
2.9972864e-07,6.236071e-06,2.2853976e-06,5.5628134e-06,7.4274667e-06
4.0275813e-07,1.0708918e-06,1.4208281e-06,5.3913584e-07,1.2440228e-08
1.160252e-06,1.5979379e-07,1.9085996e-06,0.00022654362,0.0
1.173413e-06,0.0,2.7701956e-06,3.0004355e-06,0.0
2.0722127e-06,2.2445558e-08,1.840943e-06,1.3942849e-06,0.0
4.8487595e-06,9.5338924e-11,9.61811e-07,2.8506254e-06,0.0
2.065793e-06,0.0,2.510961e-06,3.9206534e-06,0.0
6.716908e-07,4.033058e-06,7.799715e-06,1.7136202e-06,3.4707375e-09
1.6146256e-06,4.3591576e-06,1.1744429e-06,8.9106123e-07,1.6316595e-07
3.535646e-06,8.1850004e-07,3.7164875e-07,8.675654e-08,6.1647024e-06
1.3357343e-06,3.7572727e-07,0.0,0.0,9.164814e-06
2.8321451e-06,4.958942e-07,0.0,0.0,3.7408896e-07
2.804041e-06,0.0,0.0,0.0,2.1070294e-08
4.400258e-06,0.0,0.0,0.0,0.0
2.298089e-06,0.0,1.0373973e-09,0.0,0.0
9.147266e-08,0.0,0.0,0.0,1.4117046e-07
1.0369022e-06,0.0,0.0,0.0,4.4830304e-07
7.8070485e-07,0.0,1.333878e-08,0.0,0.0
3.919397e-07,0.0,0.0,0.0,0.0
4.4094027e-06,0.0,4.1285645e-08,0.0,4.3890242e-07
2.3761752e-06,0.0,2.0628634e-07,0.0,1.4069742e-06
6.099698e-07,0.0,1.9412205e-06,0.0,3.8550347e-06
4.706859e-07,0.0,4.204139e-07,1.9369477e-06,4.7197022e-06
1.1221324e-06,8.8461475e-06,6.576844e-07,4.7048187e-07,4.4215685e-06
1.2691761e-06,7.0044516e-06,1.4011551e-06,1.5048585e-06,4.4443987e-06
1.081934e-06,2.9392515e-06,8.1511325e-07,4.2880893e-07,1.8060304e-06
0.0,2.2387495e-07,1.0053198e-08,2.8586436e-10,3.733129e-06
0.0,1.4618797e-07,5.391147e-09,0.0,5.794779e-07
0.0,0.0,0.0,0.0,3.8485192e-07
0.0,0.0,0.0,0.0,0.0
0.0,0.0,0.0,0.0,0.0
0.0,0.0,0.0,0.0,0.0
0.0,0.0,0.0,0.0,0.0
1.2374137e-07,0.0,0.0,0.0,0.0
2.8965617e-06,0.0,0.0,0.0,0.0
8.371195e-06,0.0,0.0,0.0,0.0
1.8422755e-06,0.0,0.0,0.0,0.0
3.2758844e-06,0.0,0.0,0.0,0.0
6.2375733e-07,1.7814338e-08,0.0,0.0,0.0
4.0017287e-07,4.0232362e-07,0.0,0.0,2.3806277e-07
1.5980876e-06,2.7081788e-07,0.0,0.0,8.699295e-06
3.8239964e-06,1.3361688e-07,0.0,0.0,1.2487967e-05
8.526435e-06,1.4933673e-07,0.0,0.0,3.5981045e-06
3.6537094e-06,9.821258e-08,0.0,0.0,8.0827755e-07
3.1859574e-07,3.479393e-08,0.0,0.0,0.0
9.98239e-06,0.0,0.0,0.0,6.1161094e-09
1.2662893e-05,0.0,0.0,0.0,0.0
1.6058331e-05,2.1985505e-07,0.0,0.0,0.0
1.7565251e-06,0.0,0.0,0.0,0.0
1.1430274e-06,0.0,0.0,0.0,0.0
1.4217113e-07,0.0,0.0,0.0,0.0
2.6490286e-09,0.0,0.0,0.0,0.0
0.0,0.0,0.0,0.0,0.0
0.0,0.0,0.0,0.0,0.0
0.0,0.0,0.0,0.0,0.0
0.0,0.0,0.0,0.0,0.0
0.0,0.0,0.0,0.0,0.0
0.0,0.0,0.0,0.0,0.0
0.0,0.0,0.0,0.0,0.0
0.0,0.0,0.0,0.0,0.0
0.0,0.0,0.0,0.0,0.0
0.0,0.0,0.0,0.0,0.0
0.0,0.0,0.0,0.0,0.0
0.0,0.0,0.0,0.0,0.0
0.0,0.0,0.0,0.0,0.0
0.0,0.0,0.0,0.0,0.0
0.0,0.0,0.0,0.0,0.0
0.0,0.0,0.0,0.0,0.0
0.0,0.0,0.0,0.0,0.0
0.0,0.0,0.0,0.0,0.0
0.0,0.0,0.0,0.0,0.0
0.0,0.0,0.0,0.0,0.0
0.0,0.0,0.0,0.0,0.0
0.0,0.0,0.0,0.0,0.0
0.0,0.0,0.0,0.0,0.0
0.0,0.0,0.0,0.0,0.0
0.0,0.0,0.0,0.0,0.0
0.0,0.0,0.0,0.0,0.0
0.0,0.0,0.0,0.0,0.0
0.0,0.0,7.2766354e-10,0.0,0.0
1.9273044e-07,0.0,3.5813042e-07,0.0,0.0
4.679612e-06,0.0,1.1673152e-06,2.8854606e-08,0.0
6.425247e-06,0.0,1.6144634e-06,4.5770338e-07,0.0
5.5323076e-06,0.0,2.0677155e-06,9.976042e-07,0.0
4.5577933e-09,0.0,2.8620912e-07,1.0391005e-06,0.0
1.0447579e-05,0.0,8.5364223e-07,1.8054686e-06,0.0
0.0010819338,0.0,1.2190488e-06,3.5063556e-07,0.0
0.0017726944,0.0,8.1687524e-08,8.087226e-07,0.0
0.0014706108,0.0,8.062823e-07,6.613077e-07,2.5969777e-09
0.001564475,0.0,1.3616069e-06,1.3007308e-07,7.505148e-08
0.0024295012,2.8936553e-08,1.1934711e-06,9.2337086e-07,3.7332583e-08
0.005397208,2.6005685e-07,9.2669595e-08,7.390442e-08,3.1810885e-08
0.0056477105,4.091735e-07,2.8064505e-07,1.348556e-07,2.6730277e-07
0.0043857787,2.9039268e-06,2.908166e-08,2.1058332e-07,2.3732326e-07
0.000733508,3.6209002e-07,1.0942119e-06,1.2848022e-06,1.023983e-06
6.603509e-05,5.4014567e-08,5.65728e-07,1.1864588e-06,9.779404e-08
7.0307295e-05,5.26988e-07,8.980673e-07,1.8616335e-06,9.104582e-07
3.1502925e-05,6.607019e-08,1.399493e-06,1.155313e-06,1.12564e-06
4.8406822e-05,1.7622502e-07,1.9132317e-06,1.468945e-06,2.8544244e-07
1.4818308e-05,1.9814075e-07,5.9682925e-06,2.1633941e-06,1.04841e-06
2.4950448e-06,3.8051493e-07,4.3813222e-07,7.555772e-07,1.8649616e-06
8.3129106e-07,6.549125e-07,2.5436273e-07,1.3635106e-07,2.4594806e-07
9.090525e-07,6.7046685e-06,9.98696e-07,2.376444e-06,5.9179354e-07
2.6739451e-06,5.274551e-07,1.7384674e-07,1.1129416e-06,9.866136e-07
1.8033886e-06,0.0,1.5869471e-06,1.0545696e-06,3.7890568e-10
3.4999946e-06,2.6987915e-11,2.170808e-06,2.2357868e-07,0.0
1.598221e-06,3.6175912e-10,4.1168494e-07,1.6903524e-06,0.0
1.8174652e-06,0.0,1.3200862e-07,2.2082784e-06,1.2622458e-08
4.251399e-06,0.0,6.173577e-08,9.7375e-07,1.8445314e-07
4.348013e-06,0.0,2.9722031e-08,9.3982044e-07,1.060943e-06
7.0486913e-06,0.0,2.8147407e-10,2.7836933e-07,8.171048e-09
0.0027250303,0.0,1.8386096e-08,6.501322e-07,3.351715e-10
0.005403309,0.0,9.560318e-07,2.3989244e-06,3.910467e-08
0.0050516706,0.0,4.513563e-07,8.956736e-06,6.0865005e-08
0.0036346659,0.0,4.646713e-07,1.2920403e-06,3.6174512e-07
0.0026790635,0.0,3.0078647e-07,1.0674836e-06,1.2350088e-06
0.001096386,0.0,1.11047356e-07,1.6192326e-06,3.744201e-06
0.0017546972,2.156843e-08,3.9147565e-08,3.1650234e-07,1.8415731e-06
0.0018264961,9.787377e-07,9.3050886e-08,1.2877322e-06,7.7003904e-07
0.00090750074,4.2883087e-07,4.696853e-07,1.3688973e-06,1.7139326e-06
9.6453405e-05,1.2574492e-07,9.797044e-07,1.9163645e-06,1.6168576e-07
3.247693e-06,7.405233e-08,1.8298197e-06,3.418338e-06,7.0597116e-07
1.0852159e-06,2.5415018e-08,2.059669e-06,3.8182866e-06,1.35744e-06
0.0,1.4744925e-06,1.6501067e-06,1.267487e-06,6.127567e-07
0.0,2.7289827e-06,9.808145e-07,3.2195562e-06,8.774397e-09
0.0,3.7102204e-06,9.3602773e-07,2.8897368e-06,0.0
0.0,1.0938677e-06,1.1159926e-06,2.5247284e-06,0.0
0.0,1.4711296e-06,0.0,7.130295e-07,0.0
0.0,4.6092924e-07,0.0,7.263117e-08,0.0
0.0,1.0058114e-06,0.0,7.06712e-08,0.0
0.0,0.0,0.0,0.0,0.0
0.0,7.420565e-11,0.0,0.0,0.0
0.0,0.0,0.0,4.2139501e-07,0.0
0.0,0.0,0.0,1.3449048e-05,0.0
0.0,0.0,0.0,2.9343187e-07,0.0
0.0,0.0,0.0,3.4083118e-07,0.0
0.0,0.0,0.0,3.2294e-08,0.0
0.0,0.0,0.0,7.696972e-07,0.0
0.0,0.0,0.0,1.1794176e-06,0.0
0.0,0.0,0.0,2.4033483e-07,0.0
9.801683e-12,0.0,1.6160942e-07,7.832666e-06,0.0
0.0,0.0,5.451757e-07,4.444105e-06,0.0
0.0,0.0,1.5096623e-06,2.315563e-06,0.0
0.0,0.0,2.8500324e-06,8.847312e-07,0.0
0.0,0.0,1.7948579e-06,1.574498e-06,0.0
0.0,0.0,2.0736513e-06,1.9516062e-06,0.0
0.0,0.0,7.0787917e-07,5.067548e-07,0.0
0.0,0.0,1.803852e-07,1.0839216e-06,0.0
0.0,0.0,0.0,6.3553057e-07,0.0
0.0,0.0,4.076557e-08,1.3357456e-07,0.0
0.0,0.0,2.5732965e-07,1.0215243e-06,0.0
0.0,0.0,1.42713e-06,2.8056013e-06,0.0
0.0,0.0,2.7529651e-07,4.991202e-07,0.0
0.0,0.0,6.058068e-08,6.705652e-06,0.0
0.0,5.4160147e-09,1.3619884e-06,2.8299263e-08,0.0
5.2821036e-08,0.0,4.778287e-07,1.8088835e-07,0.0
1.2062749e-06,0.0,2.2586846e-06,8.418466e-08,0.0
3.0915567e-06,0.0,1.9525888e-07,8.708441e-08,0.0
1.5308085e-05,0.0,2.7576616e-06,5.258889e-07,0.0
5.5212104e-06,0.0,8.4555154e-07,1.1581753e-06,0.0
1.7293514e-06,0.0,1.2422555e-06,1.4572963e-06,1.0047913e-06
1.4327858e-05,0.0,2.1535743e-06,3.4714583e-06,1.9640758e-07
8.682557e-06,0.0,1.0122501e-06,2.1002364e-07,1.1447056e-07
1.4129641e-05,0.0,1.2189993e-06,8.7938923e-07,7.564649e-07
4.3412e-06,0.0,2.8154334e-06,1.4044354e-06,4.449575e-06
1.1824055e-06,0.0,7.11983e-08,3.139647e-09,3.199451e-06
5.683575e-08,0.0,0.0,0.0,1.3982441e-06
0.0,0.0,0.0,0.0,4.3855525e-06
5.7068298e-11,6.2208483e-09,1.0272747e-09,0.0,1.359237e-06
5.566458e-09,5.12422e-08,0.0,0.0,0.0
8.156174e-09,2.4878076e-08,4.5721677e-06,0.0,0.0
8.09167e-11,6.3494736e-07,5.3646645e-06,0.0,5.9565096e-08
7.5339244e-08,8.699196e-05,0.0,0.0,2.592349e-07
6.05989e-06,2.653284e-06,0.0,0.0,2.8261761e-06
2.5036172e-06,1.3806181e-05,0.0,0.0,2.0564871e-06
2.002356e-06,7.7668386e-07,0.0,0.0,7.424668e-05
2.388206e-06,4.2401766e-06,0.0,0.0,7.851e-06
4.741092e-06,4.4384938e-06,0.0,0.0,2.6282074e-05
2.6444739e-06,1.00753405e-05,0.0,0.0,1.3786656e-05
2.388156e-06,1.4754623e-05,6.9447026e-08,0.0,4.287611e-06
9.506999e-06,2.1983576e-06,1.1133789e-07,7.2353794e-09,3.600588e-06
5.389339e-06,2.719271e-06,3.3259898e-06,1.554909e-08,5.192781e-08
9.0616334e-07,6.117075e-05,2.9364197e-05,1.519077e-09,5.9883864e-06
5.229914e-06,1.3810068e-06,1.6415765e-05,1.8985843e-07,7.346082e-05
