"[299, 255]","[227, 248]","[287, 319]","[279, 328]","[230, 262]"
3.845968e-06,0.0,1.6544222e-07,3.1510282e-08,1.4138129e-07
2.5815175e-06,0.0,1.1509253e-06,1.2481368e-06,0.0
4.7437442e-08,4.86009e-10,1.6441542e-06,6.14216e-07,0.0
2.2176577e-08,5.7174093e-05,4.410898e-06,3.2752997e-08,0.0
1.4232643e-07,3.4751354e-06,9.317101e-06,2.397762e-07,8.0202307e-07
1.5403323e-08,4.2849288e-06,2.517848e-06,6.1814586e-07,4.2534757e-05
1.7475489e-06,1.5346326e-05,1.6685615e-06,1.2090503e-06,1.2020373e-05
4.060529e-06,3.6414244e-06,3.048207e-06,3.4017384e-07,0.00032574154
7.0082257e-07,2.3567678e-05,1.6872809e-06,5.10991e-07,0.0020408647
2.7013053e-07,0.12567922,1.5648214e-06,3.9635782e-07,0.0013002763
1.212206e-06,1.2895523,1.4032283e-06,2.0831112e-06,1.0946094
2.6765827e-06,4.598039,2.5048255e-06,3.5767894e-06,0.0650123
2.3712105e-06,0.20933092,2.8028753e-06,1.6201869e-06,0.16987972
0.24222733,0.16404492,1.540192,0.14606854,0.14935562
0.66111994,0.17143193,0.18604007,0.18922059,0.16724798
0.09460423,0.16955763,0.0189368,1.5440866e-06,0.15654923
0.013577758,0.07179437,0.0833941,9.654457e-07,0.1423864
0.011558344,0.010302338,0.18041275,0.005487166,0.04478167
0.0010471393,0.0014782444,0.24414748,0.04494614,0.02194223
1.0139319e-06,0.02990037,0.23459215,0.057053603,0.03331359
8.405695e-07,0.00039710497,0.05121301,0.024094522,0.020077331
1.8222833e-07,1.0041506e-05,0.02821219,0.00037291262,0.0062883785
2.676676e-06,0.0011416381,0.059675694,0.002141945,0.006794358
4.920663e-07,0.00010393021,0.008493156,0.001764325,0.013872158
4.3987457e-06,0.00080275774,0.01891585,0.009302163,0.05997391
3.6017173e-06,0.0077291043,0.057457473,0.008636099,0.041459475
3.4990098e-06,0.056389783,0.1134758,0.00029103883,0.16528934
6.0232305e-06,0.102400675,0.2063046,7.0983006e-05,0.3048859
2.3325963e-06,0.20380104,0.3003396,0.0061943536,0.48612362
3.5012972e-06,0.5012742,0.38576713,0.08450505,0.8583126
2.206994e-06,0.70167994,0.38130596,0.1710363,1.2871692
9.974087e-07,0.4644391,0.51436275,0.39437234,0.90586567
1.0144257e-06,0.40952036,0.69320595,0.46858862,0.07185781
3.154436e-05,2.1228128e-05,0.52773505,0.16327824,0.002961214
0.016312463,4.175567e-06,0.36261693,3.5779212e-06,0.00015564426
0.0609212,7.2965935e-07,0.06597693,8.6017764e-07,7.604075e-06
0.08289448,1.1938461e-07,1.3771433e-06,6.1772096e-07,1.4606975e-06
0.016641228,1.1753957e-06,5.826276e-07,1.1353484e-06,2.135732e-05
3.9407046e-06,1.4211226e-07,5.0927093e-07,1.9322856e-06,5.5453023e-05
2.5301683e-06,3.456341e-06,1.4949076e-06,3.015199e-05,2.2217973e-05
0.067742154,1.43601865e-05,6.6543485e-08,1.154081e-06,1.1340815e-05
0.004624899,9.4312776e-07,1.5939796e-07,1.3213456e-06,1.1928714e-06
0.00010107991,5.870622e-07,2.8268897e-08,1.8192732e-06,6.824389e-07
9.520666e-05,4.1009803e-06,7.791534e-07,9.4215665e-07,6.373335e-07
0.000993694,1.9253133e-07,1.04237984e-07,3.0612668e-07,8.518667e-07
1.4443225e-06,5.0191534e-07,1.6957657e-08,7.0886075e-10,3.390926e-07
0.0016121201,5.9909803e-07,6.815055e-08,1.9545769e-10,2.4895876e-06
0.00028137228,9.969873e-07,2.1313697e-08,0.0,5.6593564e-07
4.4907213e-07,2.7215096e-08,3.2934167e-08,0.0,7.543103e-07
1.7589717e-07,1.8353582e-07,9.617474e-08,0.0,7.9853656e-08
1.3900277e-08,3.457445e-07,6.800468e-08,0.0,8.045807e-07
1.0503015e-08,1.000526e-05,1.5847055e-08,0.0,5.9539737e-08
8.644469e-08,1.02842505e-05,0.0,0.0,3.8765788e-07
7.805532e-09,3.1466945e-07,0.0,2.0209705e-09,8.258362e-08
4.164494e-08,6.8393376e-08,9.767932e-10,0.0,2.3904005e-07
5.273914e-08,5.1353277e-07,1.9848818e-07,1.2120962e-06,3.4014133e-07
7.2915753e-07,2.2424972e-07,6.250641e-07,9.646404e-07,3.1445833e-07
2.1272821e-07,3.9770492e-07,8.116113e-07,1.6929014e-06,1.1157947e-06
2.5212728e-07,5.5620797e-07,7.4812425e-07,8.0702523e-07,3.6413587e-06
9.993022e-07,0.0,2.9970956e-06,6.987715e-07,6.6483244e-07
1.5064694e-06,0.0,2.2818078e-06,7.5093203e-07,9.550918e-07
1.2927992e-06,0.0,6.0066253e-07,1.748892e-06,6.7734624e-07
8.8301607e-07,0.0,6.6570345e-07,1.0853669e-06,1.7893518e-07
1.1938163e-06,0.0,1.5057243e-06,1.2681703e-06,0.0
3.2220697e-07,0.0,1.4003598e-06,1.4746369e-06,1.0533566e-09
0.0,0.0,2.8698375e-06,1.1430055e-06,0.0
0.0,0.0,4.23991e-07,2.289559e-06,0.0
0.0,0.0,1.8060767e-06,6.5145656e-07,1.1780606e-05
0.0,0.0,2.0601715e-06,1.0166755e-08,7.5840303e-06
0.0,0.0,8.5827094e-07,0.0,8.038373e-07
0.0,0.0,0.0,0.0,6.4446426e-06
0.0,1.8061983e-09,0.0,9.89699e-09,4.526818e-06
0.0,0.0,0.0,0.0,1.0620668e-08
0.0,0.0,0.0,0.0,3.3599519e-09
0.0,0.0,0.0,1.5826161e-07,0.0
0.0,0.0,0.0,2.307576e-07,0.0
2.968625e-10,3.3193864e-10,0.0,1.0395625e-08,9.119153e-09
0.0,1.00216965e-07,1.1126979e-08,4.5538345e-06,5.451565e-08
0.0,1.6788624e-07,6.267158e-07,2.7962576e-05,3.5095712e-07
8.475437e-08,1.14656835e-07,6.0855014e-05,7.564149e-05,9.748383e-09
5.197958e-07,0.0,1.739643e-06,8.018159e-06,2.0619123e-11
7.1714487e-07,0.0,2.5880295e-06,5.220196e-07,0.0
1.2246211e-07,0.0,1.6276939e-06,7.19311e-07,3.5848387e-08
3.0788823e-09,0.0,8.1916824e-07,5.4524243e-08,0.0
8.6304624e-08,0.0,6.2090595e-07,8.5592244e-10,8.6481594e-10
9.371686e-08,0.0,9.1498197e-07,7.6105295e-07,2.3725297e-08
1.052899e-07,3.098667e-08,1.16169995e-05,4.5862325e-07,9.230756e-07
1.4610995e-06,1.3232183e-06,2.1283458e-06,2.0067962e-06,6.3283373e-06
4.378254e-06,4.973305e-06,2.2176207e-06,5.133543e-06,2.0862084e-05
1.2384484e-06,1.358325e-05,1.2997324e-06,1.1480982e-05,4.6621722e-07
2.7451076e-06,4.1160337e-07,3.5825442e-06,1.24572325e-05,2.1722428e-05
8.053167e-06,6.1761343e-06,0.005921094,1.7426199e-05,0.00014957004
7.343119e-05,1.1178815e-06,0.19041166,6.9851285e-06,6.475136e-05
6.117053e-05,7.276258e-07,1.5348474e-05,3.4352914e-05,3.2464436e-06
7.39863e-06,9.288676e-06,1.4311565e-05,1.12051075e-05,4.7790777e-06
1.6313513e-06,4.1911244e-05,2.031317e-06,6.983236e-07,8.368352e-05
1.2475359e-05,0.00019310093,1.2446036e-06,2.6948596e-06,0.124146335
0.054509096,0.9064892,6.5287946e-05,1.3767321e-06,0.16481932
0.0116723785,0.4229267,0.0006035066,6.426137e-08,0.00016230154
0.0032095169,0.00012348103,0.00051424827,0.0029617744,2.5481479e-05
0.116827205,2.2987859e-05,8.023583e-07,0.033965953,2.3777018e-05
0.09282359,1.3043973e-06,1.1805467e-06,0.02890212,2.6694306e-06
0.01203984,5.7029814e-07,2.0359598e-06,0.029167468,2.5591155e-06
0.014688067,6.052578e-07,1.0034577e-06,0.069616854,1.6881815e-05
0.021674044,3.509211e-06,5.3618252e-05,0.10646506,0.006697212
0.006871553,8.140904e-06,0.009956209,0.05740432,0.036153037
1.5354117e-05,0.003886882,1.7780767e-06,0.0725154,0.1478352
3.478552e-06,0.037780073,0.0009550408,1.862055e-05,0.137252
0.00067099585,0.07194089,0.00066871557,0.010333775,0.007621173
0.12902546,0.01247373,2.4458882e-06,1.4734107e-06,1.9935696e-06
0.0036269133,0.018279662,6.0696234e-06,2.023679e-06,3.0577883e-06
0.09656564,3.9978906e-07,1.002975e-06,5.0685953e-06,1.9421677e-06
0.0276682,3.9964442e-07,4.660522e-07,1.6568803e-06,2.5370872e-07
3.83076e-06,2.1277618e-08,1.1611234e-06,3.344584e-06,1.072996e-06
8.7765636e-07,3.189073e-06,2.375849e-06,3.5959772e-07,5.387602e-06
2.4165328e-07,5.1362497e-07,1.051278e-06,4.352092e-06,9.251423e-07
6.349105e-07,1.1201454e-06,6.2970425e-06,1.8971606e-06,3.392133e-07
3.5002105e-07,4.101348e-06,1.9595413e-07,2.0980433e-06,3.7206857e-07
4.1243135e-07,6.1492324e-07,1.90891e-06,4.640726e-06,8.922705e-08
4.6141722e-07,7.1153563e-06,2.361922e-06,1.42691e-06,5.900221e-07
6.782314e-07,2.1287071e-06,1.5827989e-06,1.1158385e-06,5.956526e-07
4.342908e-07,1.0251898e-06,6.5067803e-07,1.0534816e-06,2.8632543e-08
6.0644686e-07,1.0392181e-06,1.4585419e-06,1.1836885e-06,1.1883777e-07
3.2076917e-07,1.7667466e-07,2.0894395e-06,1.9840224e-06,7.926723e-06
2.9709743e-06,1.4131546e-08,6.459593e-07,2.0071502e-06,4.841536e-06
1.0218559e-05,6.59076e-06,1.1914052e-06,9.57104e-07,7.272154e-06
1.2396809e-05,1.4441317e-05,1.5724773e-06,5.210087e-06,2.9044853e-05
2.7827773e-06,2.6625896e-06,1.5009042e-06,2.1768035e-06,1.1832519e-05
0.0010627034,4.8832053e-06,1.616228e-06,2.4530084e-06,1.526006e-06
0.0002842721,4.3682013e-07,7.772784e-07,2.1581184e-06,5.460254e-06
3.6404183e-06,4.2589866e-07,1.4791668e-06,1.2579895e-06,1.6378477e-06
1.9739164e-06,5.4864415e-07,1.3489667e-06,6.7168884e-07,4.1765756e-07
1.0647849e-06,3.2087272e-07,1.6062364e-06,2.3308535e-06,1.1293859e-06
2.0781586e-07,2.6554906e-06,4.1310412e-07,3.6160242e-07,1.6183916e-06
2.3556386e-06,3.944119e-06,1.0251994e-06,6.585818e-06,1.8343749e-06
1.7259586e-06,3.960923e-06,2.0341122e-06,2.649273e-06,1.6210503e-06
9.3064745e-07,2.2582107e-08,1.4170796e-06,1.1595329e-06,2.3509e-06
9.412777e-07,0.0,8.1645845e-07,3.0342716e-07,2.7201168e-07
4.183368e-07,1.0270155e-08,6.439654e-07,1.9277345e-06,0.0
1.3502374e-06,1.4397747e-06,6.1682335e-09,3.6476858e-06,0.0
2.1754186e-06,1.7788119e-07,1.4370559e-07,1.6132811e-06,0.0
2.8696259e-06,0.0,6.44322e-08,1.000811e-06,0.0
6.638296e-06,0.0,7.013547e-07,7.930515e-07,0.0
5.649067e-07,0.0,4.2467664e-07,2.949451e-07,7.927562e-08
9.0944144e-07,3.183952e-07,2.8504203e-07,7.457869e-07,6.2313356e-06
2.497792e-05,6.570783e-07,4.2376942e-07,1.6446212e-06,1.3018902e-05
1.121983e-05,7.52949e-07,3.2217134e-08,6.810236e-07,4.269909e-06
2.1663291e-07,5.9931976e-06,2.540237e-07,5.7395624e-07,1.6981585e-05
1.2706857e-05,0.00044794544,1.4960073e-06,1.1466346e-06,3.238985e-05
3.8120866e-06,0.0042335927,5.1638416e-08,2.3223454e-06,7.617208e-05
8.079692e-06,3.4248228e-06,1.8948966e-06,1.0659093e-06,1.8879068e-06
9.4602666e-07,2.2953072e-06,1.7715155e-06,7.943529e-07,1.3870152e-06
2.2085967e-06,1.175487e-06,2.7161786e-06,2.1399032e-07,5.9217354e-07
1.4332845e-06,7.941731e-07,2.1100718e-06,1.3705877e-06,1.7771001e-06
8.618787e-07,1.442594e-07,5.282863e-07,1.8068265e-06,2.5629724e-06
2.807665e-06,2.6444166e-08,1.5036098e-06,1.7513894e-06,6.8559604e-07
2.3175346e-07,7.797323e-07,2.7589276e-06,5.0831122e-06,1.3379458e-06
5.395185e-09,3.980171e-08,1.9657536e-07,2.3726684e-06,4.317737e-06
5.5582134e-09,2.1163076e-07,1.0003132e-05,2.2359454e-07,0.0
1.3499593e-08,8.679898e-09,3.4001619e-06,1.3986961e-06,0.0
1.568768e-06,2.314448e-09,5.7679887e-07,4.362854e-06,0.0
1.8653844e-06,1.911092e-10,3.043767e-07,8.240499e-06,0.0
1.6834638e-06,0.0,1.1923922e-06,2.2657389e-06,0.0
5.807439e-07,0.0,1.908831e-06,1.4372658e-06,0.0
2.611477e-07,0.0,1.4726304e-06,2.1921753e-06,5.8384124e-11
4.948227e-07,0.0,1.836378e-06,6.9883396e-07,5.0826664e-08
5.655277e-07,0.0,1.2891589e-08,5.74942e-07,4.2935206e-08
8.583583e-07,0.0,1.2135435e-09,0.0,1.1960412e-07
1.8714183e-05,0.0,0.0,0.0,1.8245306e-07
0.0018253865,4.1187937e-07,0.0,0.0,7.853397e-07
0.008006993,2.8709576e-07,6.121002e-08,0.0,3.3173757e-07
0.010213071,2.483395e-07,4.2907127e-06,0.0,8.2444835e-08
0.007675393,9.91106e-07,3.9908186e-06,0.0,8.2837624e-07
0.0046131276,2.3494024e-06,1.403295e-06,2.0302576e-08,9.57812e-07
0.00037113184,0.0,3.268167e-06,2.516522e-07,0.0
1.8619523e-05,4.6937334e-09,7.023263e-07,2.4107553e-07,0.0
1.3340568e-06,0.0,8.1972865e-07,4.9331834e-07,0.0
9.216111e-07,0.0,2.6039893e-06,1.6374466e-06,0.0
2.0278005e-06,0.0,2.2720128e-06,2.5061572e-06,0.0
1.7150994e-06,0.0,3.1826423e-07,2.7499502e-06,0.0
6.5677673e-06,0.0,6.9717254e-07,3.6061644e-07,0.0
1.8509298e-06,0.0,4.0096625e-06,1.8462655e-06,0.0
1.6705503e-06,0.0,3.0650403e-06,5.9269905e-06,0.0
2.1871092e-06,0.0,2.851413e-07,9.965395e-06,0.0
1.647887e-08,0.0,1.6536092e-06,4.2499005e-06,0.0
1.182262e-06,0.0,3.876812e-06,1.2176258e-06,0.0
2.3073858e-07,0.0,5.1307584e-06,3.3884935e-06,0.0
1.3504815e-06,0.0,2.945013e-07,5.866533e-05,0.0
3.7170719e-06,0.0,8.828991e-09,0.0,0.0
3.205243e-07,0.0,0.0,0.0,0.0
5.759644e-08,9.611619e-11,0.0,0.0,0.0
0.0,5.2566406e-08,0.0,0.0,0.0
0.0,1.4712617e-06,0.0,0.0,0.0
0.0,2.027633e-07,0.0,0.0,0.0
0.0,3.9591722e-10,0.0,0.0,0.0
0.0,0.0,0.0,0.0,0.0
0.0,0.0,0.0,0.0,0.0
0.0,0.0,0.0,0.0,0.0
0.0,0.0,3.1279552e-09,0.0,0.0
0.0,0.0,2.071388e-08,0.0,0.0
0.0,0.0,0.0,0.0,0.0
0.0,0.0,0.0,0.0,0.0
0.0,0.0,6.084848e-11,6.0818664e-08,0.0
0.0,0.0,3.867944e-07,1.6292472e-06,0.0
0.0,0.0,3.204973e-06,5.323668e-07,0.0
0.0,0.0,9.772679e-09,0.0,0.0
0.0,0.0,0.0,1.8694667e-08,0.0
0.0,0.0,6.359218e-07,7.941982e-07,0.0
0.0,0.0,1.1632745e-06,2.192611e-06,0.0
0.0,9.155711e-11,1.1726664e-05,3.2259828e-07,2.2696649e-07
0.0,1.7179738e-10,2.5209583e-06,1.1674894e-06,1.189933e-05
0.0,4.0252853e-08,4.5509787e-06,2.5685488e-06,1.0831432e-05
0.0,6.7100096e-08,5.9508716e-06,3.213293e-05,1.0754912e-06
1.8216987e-08,1.3920949e-06,2.131223e-05,2.0909995e-06,4.6614045e-05
1.4253577e-05,0.00021869355,3.1550415e-05,5.7332505e-05,0.0002147469
4.0146978e-07,0.00018287702,0.0002724943,6.7085035e-05,0.00010796956
4.107861e-08,7.8317426e-05,1.883673e-05,2.5868076e-05,4.204547e-06
9.039812e-07,1.8431188e-05,1.4394387e-06,1.4978152e-06,1.7062414e-06
7.876511e-07,1.0686451e-06,4.4790686e-05,5.675948e-05,1.0663605e-07
7.0745597e-07,1.06780035e-07,0.00010561734,1.516507e-06,2.8757113e-06
3.8932258e-06,1.6628881e-07,1.1462676e-05,1.2186184e-05,1.4827992e-08
1.0813328e-06,1.1629476e-08,1.0456298e-05,3.1515538e-05,7.469945e-08
8.950888e-07,0.0,5.5749697e-05,1.4424896e-05,2.2877093e-11
9.302789e-07,0.0,7.576421e-05,4.2963e-06,1.0840449e-08
5.780338e-07,1.0693063e-09,1.5126799e-05,3.470898e-06,6.659501e-08
3.2631388e-07,4.1226187e-08,2.9749951e-06,4.2843712e-06,1.4863278e-07
8.175652e-06,5.016719e-11,1.8660771e-06,3.1324674e-07,6.0079888e-09
2.1078665e-06,0.0,1.7779688e-06,1.9979142e-07,0.0
3.2788396e-06,0.0,1.2777266e-05,2.3248938e-05,0.0
5.9325896e-07,0.0,1.7374535e-06,5.13117e-07,6.2000786e-11
0.0,0.0,0.22155832,1.658157,0.0
2.020116e-06,0.0,0.49703842,7.2735685e-07,0.0
0.00022994741,0.0,1.5434856e-06,7.7875933e-07,0.0
6.400725e-05,0.0,7.650794e-06,8.75875e-06,0.0
1.3500836e-06,0.0,3.2162847e-05,4.1325107e-05,9.934965e-08
7.750641e-07,0.0,3.86412e-05,7.995668e-06,2.6520715e-07
1.2668596e-06,0.0,0.00036670547,3.5660926e-06,2.3799295e-07
8.615993e-07,0.0,0.0031429944,1.4202333e-06,1.0542641e-06
4.0042833e-06,0.0,0.00033494108,0.00018716876,2.5326322e-06
4.009833e-07,7.752116e-07,0.0021731385,0.00038713845,1.8011382e-06
2.7577948e-06,2.1893238e-06,0.011718447,0.005305119,1.4201512e-06
6.483817e-06,1.8560575e-06,0.14743061,0.043305993,1.0134353e-06
0.009701298,3.848188e-06,0.012855581,0.002452864,4.8998054e-06
0.053295434,2.4834137e-05,0.00016252376,0.0010735015,0.0041754334
0.12200642,1.8017321e-05,2.296014e-06,0.07040093,0.00085982407
0.01615562,1.0501912e-05,2.544017e-07,0.01741277,0.006373035
0.023342282,0.0014685172,4.6656464e-07,6.705214e-06,0.01265572
0.045527864,0.00046421372,1.5823196e-06,3.4041445e-06,0.012160894
0.020774,0.0029631269,2.1176443e-06,2.994219e-06,0.010172354
0.0085144555,0.024221446,2.5728318e-06,2.5684853e-06,0.00025367798
0.00015489414,0.009308666,4.462499e-06,2.6348118e-06,1.6617782e-05
1.5114689e-06,0.008714971,2.7994608e-06,2.4370063e-06,7.1598893e-06
1.6617041e-06,1.1311135e-06,1.9954437e-06,2.4512185e-06,8.206437e-07
3.339502e-06,1.339483e-06,1.8061382e-06,1.5705241e-06,1.2701386e-06
1.849731e-06,1.1486447e-07,5.140633e-06,4.4156732e-07,6.6276505e-07
4.2373713e-06,1.3995893e-07,9.997035e-06,3.934923e-06,1.2033455e-06
1.4383211e-06,1.9729302e-06,1.1302286e-05,4.8073507e-06,1.4226941e-06
6.1062137e-06,1.4538713e-06,6.0471607e-06,1.1000512e-06,1.1079331e-05
1.5011364e-06,1.7536307e-07,9.2720114e-07,1.1190056e-06,6.691797e-06
6.8875937e-07,6.131576e-07,4.239244e-06,2.748339e-07,6.905835e-06
1.0074919e-05,4.8573327e-07,2.8558896e-05,4.9250053e-07,2.964105e-06
5.8867954e-06,3.46492e-08,8.35339e-06,4.1260833e-08,2.1943404e-06
7.44423e-06,1.7908566e-07,1.1975241e-05,4.0346592e-07,1.7717151e-06
4.996628e-06,1.2259584e-07,1.1374682e-06,9.91e-08,3.0144872e-07
2.0863058e-07,2.1335349e-07,1.1768985e-08,7.2210355e-08,6.749425e-07
3.1808058e-06,4.6516e-07,7.332301e-07,2.0531205e-07,2.6540552e-06
1.6633614e-05,2.2130935e-08,7.942282e-06,5.5847416e-08,3.0643046e-06
7.5561263e-07,5.3395986e-08,1.376198e-07,4.6994154e-07,2.845143e-07
2.763342e-05,6.8898015e-07,2.33201e-05,8.054668e-06,4.7441776e-07
7.795404e-06,4.3041956e-07,1.5192311e-05,2.7323978e-07,8.2368445e-07
9.545991e-06,2.9586556e-07,1.10744195e-05,4.117935e-05,5.7954696e-07
1.5917056e-05,3.4740403e-06,5.0904905e-06,5.0066756e-05,7.7183734e-07
1.0465557e-05,2.394054e-06,8.323627e-06,6.0352056e-07,1.5299689e-06
3.7578104e-06,1.3212564e-06,1.6868725e-06,9.4002024e-07,1.2959803e-06
4.032231e-05,1.530656e-06,6.757175e-07,7.2110265e-07,1.1236618e-06
0.033048518,7.238079e-06,2.859213e-06,4.6202235e-06,2.927085e-06
0.029580675,9.4732053e-07,5.19425e-06,4.419358e-06,2.047057e-06
0.0137221925,3.621126e-06,1.1948064e-05,3.7106875e-07,6.4104233e-07
0.13906148,8.4079744e-07,6.2787817e-06,3.4266993e-06,2.1311766e-06
0.23225631,2.2262509e-07,5.590767e-06,2.261288e-06,2.4520523e-06
0.12428119,8.8617563e-10,1.1382006e-05,1.4347899e-05,1.908581e-06
0.06869674,3.401431e-06,1.3129281e-07,4.1895973e-06,1.629082e-06
0.041064616,7.386406e-07,0.0027070998,1.0474362e-05,8.9776125e-07
0.036105376,1.9662532e-06,0.0021694824,8.09664e-06,7.923342e-06
0.012724534,8.714438e-06,3.1210973e-06,3.2500957e-05,1.463288e-05
0.0013453254,2.8458007e-06,7.1855384e-06,9.710794e-05,0.00036932068
5.5362696e-05,5.899125e-06,1.148381e-05,0.00024941465,0.001134194
6.0955754e-06,2.1192905e-06,4.398674e-06,0.00023477673,1.9389894e-05
2.2268582e-06,5.2751454e-07,2.6058217e-06,4.4797354e-05,3.3160916e-06
1.6338236e-05,1.5944207e-07,4.1755013e-07,2.105956e-06,6.7045846e-07
5.1005318e-05,2.7299754e-07,0.0021813973,0.0038074737,9.93631e-07
8.973812e-05,3.8027255e-07,4.127034e-05,8.38554e-06,1.1027825e-05
3.1859295e-06,5.076186e-07,1.2770457e-05,1.4884999e-05,2.4609324e-06
8.800848e-06,2.569584e-07,6.894649e-06,3.5290893e-06,4.6759405e-06
1.1007887e-05,5.8813353e-06,9.3477654e-05,3.9866404e-07,4.794563e-07
6.923915e-06,1.4247325e-07,0.0010571284,2.0070745e-06,1.0684487e-07
6.080922e-07,9.766717e-10,0.0012114207,1.3099725e-06,2.303474e-07
8.8496776e-08,2.6522486e-07,1.2383656e-06,1.3864762e-06,3.3980511e-06
2.6882723e-09,3.1430744e-07,2.681823e-06,1.2270383e-06,1.0421039e-05
7.0437e-07,2.6657672e-06,1.2748823e-06,1.4095001e-06,9.023934e-06
1.4082862e-06,0.0014957675,2.070214e-06,2.3857388e-06,3.170838e-06
9.798722e-07,0.0008860883,2.4803353e-06,2.4826418e-06,0.55542284
0.00031993995,0.00035326133,3.7087805e-06,1.0982021e-07,0.13783088
5.733022e-07,0.00033863215,2.1998405e-06,4.01497e-06,0.00022654912
2.1537076e-06,1.3860412e-05,0.0007073944,2.9108032e-06,0.00023825762
2.2798835e-05,4.8142207e-05,0.45874026,1.5095852e-06,3.3919772e-05
6.875503e-05,3.5567004e-06,0.18905851,2.7971151e-05,1.4125665e-06
1.1865944e-05,3.647598e-07,1.439885e-07,0.00028031494,3.748129e-06
2.2599745e-06,0.00018845855,1.6166695e-06,1.2091697e-07,0.0017287729
3.9103566e-07,0.2072576,4.301533e-06,9.304191e-05,0.14153871
4.3192626e-06,0.46810976,3.4184136e-06,0.23769055,1.3944433
4.076926e-07,0.47895384,0.49500892,1.1682842,0.0058686836
0.4411772,0.0009688925,6.247275e-05,1.6680385,0.0006975482
9.14303e-06,0.002396074,0.986806,2.2470431,2.905985e-05
0.32363045,0.00023462015,1.9884294,2.9584138,0.00011483773
0.09431185,5.068946e-05,1.2515358,2.39476,0.0004197191
0.036509294,3.76326e-06,0.09588967,0.23832215,9.820115e-05
5.398705e-05,8.511357e-08,5.6662327e-07,0.33033577,1.31247525e-05
8.6996726e-05,1.3446337e-05,1.2606237e-07,2.0840596e-06,2.1919254e-06
1.165539e-05,3.7975383e-06,3.7351654e-07,3.71644e-06,2.4581017e-05
4.1428546e-05,3.1682794e-05,2.8398915e-07,1.2761275e-06,2.5451309e-05
6.13394e-05,2.9720582e-07,1.4501059e-06,1.351684e-06,2.4588653e-06
1.0980341e-05,3.0100693e-07,2.7580334e-06,1.9460426e-06,1.7641031e-06
4.1360786e-06,2.1962285e-07,4.859341e-07,4.3522735e-07,1.0372618e-06
3.7355194e-06,8.316001e-07,5.653733e-07,2.7695015e-07,2.0780512e-06
1.0511976e-06,7.9248736e-07,2.9072189e-07,1.4366074e-06,6.067555e-07
2.8532975e-06,3.2218354e-06,1.1068679e-06,1.6113335e-06,1.3362136e-06
2.072874e-06,5.705873e-06,6.4646184e-07,2.613155e-06,5.10143e-06
4.8931734e-06,1.3191549e-05,1.2053581e-06,0.001120444,3.4223902e-07
3.857252e-06,6.843246e-06,8.6616296e-07,4.672762e-07,1.8079437e-07
1.451462e-06,1.4152885e-05,1.2677825e-06,8.603882e-07,1.492933e-06
0.07598751,1.1579354,5.5942883e-06,8.725508,0.1564885
0.23449129,3.723499,0.8241246,0.88282156,0.75302166
0.014992013,0.00018236041,2.8152618,0.00084208156,2.1476653e-06
0.013411976,4.3990817e-06,0.0046124756,3.8907124e-06,2.566544e-07
0.0073052216,1.6345357e-05,1.1995603e-06,4.6857313e-06,1.1243538e-06
0.9444889,1.1187492e-06,9.3633594e-07,0.0016810767,8.17841e-05
2.0103235,1.7466568e-06,9.3240504e-07,0.01069368,4.4144934e-05
0.61066955,2.5341348e-07,2.4584753e-07,0.010174405,9.279107e-06
0.12146995,1.6323507e-06,3.4234783e-06,0.0005555551,3.0924122e-05
0.13552774,3.0727613e-06,2.7029975e-05,2.4634512e-06,6.4704413e-06
0.19241558,2.465742e-06,0.035236202,1.4249721e-06,2.68257e-06
0.037060518,3.8267062e-06,7.322449e-07,1.1316018e-06,8.220726e-06
0.03934693,1.4716375e-06,5.2634005e-07,2.7801384e-06,3.9547967e-06
0.12211273,3.3822828e-06,2.5500853e-07,6.997734e-07,1.6385064e-05
0.09455132,1.7614278e-06,8.2455847e-07,8.724477e-08,2.1766775e-06
0.01992217,2.6304674e-06,2.0201784e-07,2.451014e-06,0.006946433
0.008510257,3.7799819e-06,3.6963516e-07,1.2308499e-06,1.8177342e-06
0.00091352063,1.0904535e-06,1.2386038e-06,1.2406941e-06,2.460108e-06
2.0522043e-06,1.1791402e-06,8.787436e-07,1.0062005e-06,1.9150616e-06
2.0279817e-06,1.3463448e-05,1.3364048e-06,9.773847e-07,3.3673616e-06
7.261875e-08,5.8278524e-06,1.8581688e-06,9.223568e-07,2.9094279e-05
9.273089e-07,1.1146116e-06,3.2179462e-06,0.0011546394,0.001105667
0.0140759675,0.8718158,7.4952465e-07,9.170969e-07,1.6194814e-06
0.02109886,1.1006031,1.1950258e-06,2.0219047e-06,0.35977006
0.2683968,2.8348968,3.4093343e-06,2.572895e-06,0.27707964
0.109742135,2.4280844,1.098201e-05,1.6025274e-06,2.0099776
0.027814137,0.95244896,1.3762806e-06,0.0015297569,2.5124915
0.07581285,1.1186287,5.2326845e-07,0.075613126,2.0933883
2.080965,0.8756109,6.050759e-07,0.00420081,1.1526849
1.599704,0.9170639,2.0916134e-06,1.1282718e-06,2.290575
1.9699874,0.3273581,1.0257628e-06,1.3598933e-06,0.8385865
1.0841165,2.2274902e-07,5.753877e-07,3.405511e-07,1.2019919
1.2359141,3.454833e-05,7.0805314e-08,3.4127137e-07,1.260461
0.52624184,0.008159418,1.2344942e-06,6.7107766e-07,6.8565765e-07
0.016168848,1.5063613e-06,3.4325345e-07,4.4140387e-07,0.828464
0.0009009842,0.0021009422,3.6766232e-07,1.705618e-06,0.3456688
3.0812535e-05,2.481787e-06,5.954336e-06,2.003239e-06,9.0554386e-07
8.0265977e-07,3.881866e-06,2.1823662e-06,2.2059155e-06,9.753825e-07
0.05916776,1.3250437e-05,5.8339428e-08,1.4105574e-06,1.5420735e-06
0.14487554,0.0015396316,1.6421928e-06,1.1829214e-06,4.0809346e-07
1.5840365e-06,7.053195e-07,4.4786866e-06,1.7924606e-06,1.2788755e-07
0.0491214,0.087802574,0.014178678,1.5867876e-06,3.927868e-07
0.2957223,9.704085e-05,0.00085585,3.1787665e-06,4.397909e-09
0.0059052007,1.971188e-06,0.0038200545,1.4849594e-06,0.0
0.105938576,3.617901e-07,1.05419524e-07,6.005126e-05,2.248184e-08
0.95282763,0.0,0.0004157057,2.9061187e-07,0.0
3.1561406e-08,3.0416078e-07,4.0448126e-06,1.5710386e-06,0.0
2.6206e-07,2.7166348e-07,1.3851682e-06,1.492768e-06,0.0
1.991442e-06,0.0,2.4751014e-06,5.389143e-07,0.0
2.7481056e-07,0.0,2.0664265e-05,2.750461e-06,4.244362e-07
2.2603307e-07,7.2752857e-09,1.49486195e-05,2.711766e-06,2.552064e-07
2.3908347e-06,8.220756e-07,1.6615487e-10,4.5451284e-08,0.0063894824
9.299672e-07,3.8091565e-07,1.6993675e-07,2.9596558e-06,3.1807198e-07
4.0837315e-07,2.8266342e-05,5.1338125e-06,3.3421443e-06,2.294241e-06
1.5024135e-07,7.644052e-06,7.027467e-08,7.947854e-08,3.186543e-06
2.0802227e-06,0.0006629779,4.1172868e-08,6.3186405e-08,0.0048026317
2.2682325e-06,0.02625581,1.6007645e-08,6.631987e-07,0.033416815
8.031243e-07,1.5869439,2.7966655e-08,4.224538e-06,2.8665647e-07
5.4538754e-07,3.055255,7.763905e-07,1.3765003e-07,2.6041255e-07
2.0711842e-07,1.2113934e-06,4.722779e-06,1.8708988e-05,1.553527e-06
1.0628239e-06,7.7167516e-07,2.1495181e-07,3.3657045e-06,0.48411244
2.0628747e-06,9.0543795e-09,1.7091519e-07,9.847568e-07,4.495751
4.689348e-07,1.7248939e-06,1.6989412e-06,1.4535701e-06,2.2836546e-06
4.3025278e-07,1.0351322,2.1217722e-06,1.4647165e-06,8.805854e-07
7.1941304e-07,0.45985007,1.5975617e-06,0.0028485856,5.718749e-07
9.826247e-07,1.7667677e-06,0.003089962,0.0075348793,8.0762436e-07
1.1174684e-06,1.2237508e-06,0.0065319254,1.3190956e-07,4.7592056e-07
7.0080964e-06,0.0006941683,2.07627e-06,9.122243e-07,1.8572947e-06
0.037549976,2.676192e-07,0.06743982,2.6334353e-06,3.457343e-07
0.20015197,1.3637302e-07,0.5106033,3.126749e-07,0.0
0.0046754084,5.126592e-09,5.8091864e-06,3.0250342e-07,0.0
0.0038302904,0.0,1.4435478e-06,1.7189766e-06,0.0
8.313776e-07,0.0,1.1155544e-06,1.234939e-06,0.0
5.7659156e-07,0.0,2.1649264e-06,5.437093e-07,0.0
5.6333397e-06,5.2649458e-08,2.9774637e-06,1.0220614e-06,2.1465877e-07
3.622102e-08,2.1712644e-07,1.7802395e-07,8.4606853e-07,1.0382062e-06
5.7239254e-06,1.8922557e-07,2.6657503e-06,3.8855596e-06,1.5077116e-07
1.3533886e-05,2.7012734e-06,1.2479994e-07,3.0604995e-06,2.3413745e-06
3.0214565e-08,3.5960063e-06,2.0465195e-07,4.443169e-07,2.074999e-06
1.9776687e-09,0.0024507586,4.5709815e-08,5.301161e-07,4.1206613e-06
4.82788e-09,6.835454e-06,1.1287566e-07,3.1889414e-07,8.293093e-07
1.8614045e-07,1.122609e-06,1.7779612e-07,5.4050965e-06,1.170709e-06
9.610322e-07,0.321659,4.6843365e-07,2.5503434e-06,0.00045173464
3.8789338e-07,0.17455769,6.40672e-07,9.598245e-09,1.7331585e-06
2.9733266e-07,0.00022725057,1.63632e-07,7.9820563e-07,2.4719293e-06
9.600143e-07,1.0251439e-06,2.3682117e-06,8.731668e-07,0.090248756
8.6250486e-07,2.8656333e-07,2.1169128e-06,1.3140126e-07,0.03769916
1.8809953e-06,0.10362969,1.1598585e-06,1.6312505e-07,1.919563e-06
0.0052313893,6.284446e-07,2.702097e-06,2.8405575e-08,1.196101e-06
0.30145133,8.3088686e-05,1.9256336e-06,9.679491e-07,1.1984995e-06
4.3108207e-06,0.0,4.908392e-06,5.6705726e-06,3.2885666e-07
1.87503e-06,0.0,4.879132e-06,2.0217913e-06,0.0
0.027682172,3.6756045e-08,0.0003214912,7.01475e-07,1.0383561e-09
1.8221812e-06,1.7979815e-08,2.366504e-06,5.124181e-07,2.7223164e-08
2.2581048e-06,1.6212375e-08,1.5049318e-06,3.5628168e-06,0.0
3.1127831e-06,8.031019e-06,8.0678876e-07,3.7587793e-06,0.0
6.5081754e-06,2.1481608e-06,2.1221986e-06,9.96227e-07,3.7117598e-08
1.46911825e-08,2.1324415e-06,4.89197e-07,2.9762143e-06,5.0045236e-07
0.0,5.541404e-07,2.2274476e-06,3.3877845e-07,2.023412e-06
3.2706066e-10,2.6342111e-06,5.5800103e-07,4.3167745e-07,2.927493e-07
1.19148616e-07,4.7278027e-06,9.59917e-07,5.0433175e-07,1.5335384e-07
0.0,1.9632594e-06,3.313687e-06,1.2958393e-06,2.4845913e-06
9.840153e-09,2.4447029,3.962666e-06,1.6393044e-06,5.0510977e-07
1.40632705e-08,8.5325166e-07,7.4260115e-08,7.2723793e-07,1.0431296e-07
7.8307405e-09,2.8713487e-06,1.9897277e-07,5.896462e-07,1.6519488e-06
8.195107e-06,7.0287996e-07,1.7251025e-07,1.3967583e-07,3.206817e-06
1.643159e-06,1.3272393e-06,9.0536304e-08,5.427151e-07,1.6955818e-07
1.8196628e-06,0.0029668137,2.2665756e-07,1.6111146e-06,1.5191569e-06
9.620461e-07,5.165764e-07,7.1949097e-07,1.4054327e-05,1.7992515e-06
3.0576237e-07,2.0694415e-06,2.6636212e-07,1.875218e-05,2.1204241e-06
4.6866282e-07,5.4786706e-06,4.56158e-07,2.052596e-06,1.864955e-06
6.6441476e-07,1.0248677e-06,3.5796464e-07,6.0356416e-07,1.2134698e-06
0.03649159,2.9406609e-08,4.828205e-07,0.30289024,3.5907783e-07
2.7745482e-05,4.277957e-07,0.0011986278,0.90683013,9.61935e-10
0.00029395375,0.0,1.0482094,0.07876401,7.7104016e-07
0.0024875898,3.304169e-10,1.4091707,9.867505e-07,7.0958276e-07
6.78115e-07,8.15077e-06,0.0039821,5.504255e-07,1.7322635e-06
1.5076263e-07,6.730041e-07,6.054535e-06,5.357761e-07,1.396549e-06
7.384744e-07,4.0615632e-06,0.13438122,5.0786775e-07,4.3920593e-07
4.1879255e-07,3.1644015e-06,0.0019178089,1.0490742e-06,8.814278e-07
3.8137975e-07,2.711875e-06,1.4927185e-06,4.4085577e-06,8.771199e-07
2.3709117e-06,3.0548738e-06,3.2225041e-06,2.4424128e-06,1.332613e-07
1.9645781e-06,4.4564554e-06,1.5266684e-06,3.0629833e-06,1.1788919e-06
5.059899e-07,2.5613813e-06,1.2636527e-06,2.613164e-05,2.3772243e-06
2.1741869e-06,3.2973279e-07,4.744036e-06,7.869144e-06,2.0933792e-06
3.2333003e-06,2.952288e-06,1.3257859e-07,4.2517845e-06,4.9508444e-06
8.770827e-07,0.0003454396,8.519691e-06,3.587114e-08,9.171636e-06
7.655937e-07,0.56747764,4.274216e-06,0.0,0.62319744
3.7828915e-08,2.9222589,0.0,0.0,1.2710716
2.1996318e-06,1.2549045e-05,0.0,0.0,8.0509693e-07
1.12730476e-07,0.3813995,0.0,0.0,1.6382421e-06
7.7559304e-07,0.37493715,0.0,1.3074093e-06,2.0803705e-06
3.666519e-07,1.0579588e-06,7.3349383e-07,1.6558919e-06,2.9164962e-06
8.2273104e-08,8.8117574e-08,2.0119382e-06,1.0765555e-06,2.5062648e-06
1.2099191e-06,1.7198952e-06,1.6404335e-06,1.2945793e-06,7.695631e-07
3.3416359e-06,2.810711e-06,1.8459701e-06,5.788247e-07,4.6607065e-07
3.5906803e-07,4.31015e-06,3.5304806e-06,8.223644e-07,4.8373585e-07
2.118896e-06,0.0,3.6370195e-06,4.434655e-06,5.071364e-08
1.7708221e-06,0.0,3.7301218e-06,2.9023774e-06,0.0
6.2935027e-07,0.0,5.6630665e-06,2.493229e-06,0.0
9.721007e-07,0.0,1.1872203e-06,5.3934565e-07,0.0
2.0803545e-06,5.7964975e-05,8.993762e-06,2.4251096e-06,0.0
1.7730371e-06,5.7328765e-05,5.834803e-06,5.8189947e-08,0.0
1.7736083e-07,0.00038089146,6.1380697e-06,1.4725657e-06,1.0577182e-07
0.0,1.8247127e-05,1.9757974e-06,8.8151296e-08,1.3820959e-06
0.0,1.4121156e-06,4.8442576e-08,1.664829e-06,4.6966907e-06
0.0,4.8447913e-07,9.633285e-07,7.38928e-08,2.2197203e-06
0.0,1.0713836e-06,7.2299554e-07,1.1020569e-06,4.637338e-06
0.0,1.5396639e-06,7.0040295e-07,6.5050085e-06,4.0369247e-07
0.0,2.0091043e-06,3.6631245e-06,7.272956e-06,5.717733e-07
0.0,7.908607e-07,1.2132962e-07,7.540145e-08,3.328267e-07
0.0,1.8593358e-06,2.2312886e-07,1.2800966e-07,7.474386e-08
0.0,8.750823e-07,1.7832187e-06,4.6044627e-07,2.3817343e-07
1.3961245e-10,1.0717457e-07,1.3593825e-06,1.6386643e-06,1.4463221e-07
4.0503792e-08,1.5870974e-07,3.1881752e-06,2.6241496e-06,6.697705e-08
1.3302136e-07,1.0479716e-06,9.898617e-06,1.1448653e-06,1.037352e-06
1.0780998e-06,8.6265436e-07,2.2826882e-06,1.1426162e-06,8.222257e-07
8.331291e-07,6.385909e-07,1.3337635e-06,5.1202087e-06,1.3098824e-06
1.0066933e-06,3.0985543e-06,1.0865665e-06,2.3483065e-06,2.2089855e-06
3.815726e-06,6.14877e-07,8.1355814e-05,3.3829983e-07,9.2102334e-07
1.479927e-06,5.663052e-07,0.63599443,1.5052778,1.2776567e-06
8.759698e-07,2.4669603e-07,0.055236887,6.454792e-05,1.3458902e-06
9.4301276e-07,1.8907585e-07,1.0784563,4.746803e-07,1.400438e-06
0.0011754686,1.3129674e-05,8.9989413e-07,1.3138091e-06,9.4579127e-07
0.0017529884,2.1219537e-05,1.5835791e-06,1.5330713e-06,1.0962203e-06
1.4807463e-06,6.407918e-07,8.2826057e-07,1.7475171e-06,9.1853065e-07
6.4650493e-07,1.7195815e-06,3.3634883e-06,8.0131025e-07,2.0730158e-06
3.7190676e-07,7.094271e-07,2.2769223e-06,1.6344503e-06,3.7444236e-06
6.808458e-08,3.167913e-07,4.2877396e-08,2.924551e-08,1.448614e-06
5.5155334e-07,9.809828e-07,7.088198e-08,1.2946025e-07,3.4257214e-06
2.0427063e-07,7.4537497e-06,2.417809e-06,2.887393e-07,6.503888e-07
7.057896e-05,4.1227722e-05,9.817011e-07,7.4588223e-07,2.3711048e-06
3.4809088e-06,1.9744504e-05,1.3339162e-07,3.735805e-07,2.1577985e-07
8.775756e-07,9.71366e-06,8.2626764e-07,4.5809085e-07,3.752298e-05
8.721364e-06,6.417254e-05,1.0288971e-05,1.9564513e-07,5.461283e-06
1.6127493e-05,2.4163336e-07,2.5259574e-06,4.8893067e-08,6.5591016e-06
4.987981e-09,1.5265991e-06,4.9053515e-08,1.163508e-05,3.9988734e-08
1.0333174e-07,7.969955e-07,6.068386e-08,2.9644678e-08,5.5302543e-08
2.0843689e-07,1.6529179e-05,9.429577e-09,1.5181e-07,1.4983328e-07
6.421455e-08,8.204165e-05,1.2805211e-07,5.0836576e-07,3.136994e-08
1.7470119e-07,8.126346e-05,2.827953e-07,1.9428505e-06,4.1012902e-07
1.9480738e-06,1.2307763e-05,6.715169e-08,5.5672086e-07,1.1937753e-06
2.6761854,0.0004225661,6.5645287e-07,7.4172175e-07,3.8445282e-07
5.222221,0.00037906354,5.782795e-06,8.675517e-07,2.489824e-07
0.4422534,2.6467636e-05,4.7013728e-07,1.7869926e-06,4.902958e-05
1.1800746e-05,1.6096616e-05,1.4648839e-05,3.0112708e-06,7.7744524e-05
1.6145077e-06,1.5347912e-05,2.0071804e-05,1.6720447e-06,1.5083896e-05
3.4333723e-06,3.841901e-06,1.2054521e-06,9.31527e-07,1.0355312e-06
1.068558e-06,1.6118207e-06,4.81471e-05,4.6234545e-06,2.6933778e-06
1.6027957e-06,9.684296e-05,2.942854e-05,6.356282e-06,1.1294194e-05
4.964597e-06,3.1577088e-06,7.733796e-06,1.4510364e-08,3.6883397e-05
4.118806e-06,7.629898e-06,5.8567366e-06,1.4497455e-05,5.8819737e-06
1.2980185e-09,2.2017026e-05,1.9564544e-05,6.178672e-07,1.2729123e-05
1.6610634e-06,2.1709233e-05,8.8927874e-07,2.2326947e-06,8.290288e-07
3.975381e-06,3.0122358e-06,9.730672e-07,1.4062414e-06,4.828837e-07
1.6415784e-06,1.389145e-07,2.9360106e-06,4.2227887e-07,1.2084045e-05
2.1225705e-06,1.4945712e-05,6.036519e-06,4.537046e-06,9.6726966e-05
4.7344568e-07,3.9222023e-06,5.486268e-06,5.632841e-07,9.162473e-05
2.465033e-06,5.032045e-06,1.0389806e-06,2.3390718e-05,1.9207427e-07
3.7326038e-06,5.541255e-07,5.9450085e-06,2.798467e-05,3.1199104e-07
6.6721154e-06,3.1140812e-06,4.1877308e-07,5.857733e-06,1.5991394e-07
2.2059334e-05,6.4330115e-06,2.311497e-07,3.5665694e-06,3.0977953e-06
5.828392e-05,7.930315e-07,1.4902272e-07,4.583691e-07,7.084524e-07
1.0716068e-07,5.767899e-07,2.2231613e-06,1.9350202e-06,5.233375e-05
1.834519e-05,3.313318e-06,2.9948853e-07,1.3777357e-06,1.7108618e-05
2.1431179e-06,1.9388235e-06,1.3441543e-07,6.615784e-06,2.438965e-07
2.6820246e-05,2.1618676e-05,1.9077331e-06,0.0015027194,3.3300716e-07
3.378758e-05,2.0654223e-05,2.2237779e-07,4.091364e-06,8.954331e-07
1.1215784e-06,2.476364e-05,5.290757e-07,7.259042e-07,1.9329254e-06
1.7453525e-06,4.4808574e-05,3.2512155e-05,8.709325e-06,0.93516016
3.3069646e-06,4.3840473e-06,2.745197e-05,5.544759e-07,0.025645562
4.2303586e-06,3.813886e-06,0.00024880999,4.3034215e-06,0.070404105
2.866566e-07,3.0120824e-05,0.043465212,1.1005188e-06,4.5156667e-05
1.4188576e-06,3.4542827e-05,0.06733558,2.7350518e-06,3.4572873e-05
1.7746103e-06,2.3937616e-06,0.00013738385,1.5628888e-05,0.00011538583
5.632327e-06,2.9705714e-06,0.060201086,0.21474792,6.9066264e-06
1.1488733e-05,1.3749438e-05,0.008319664,0.62424445,4.0459305e-05
0.18700364,1.1397322e-05,0.21221648,0.24706438,1.793181e-05
0.19719888,2.6924616e-05,1.0158291,0.7392288,0.00548758
0.35449556,0.0062526176,0.38368085,1.006418,1.09529365e-05
0.17982054,0.08403658,1.2432785,0.9129472,0.5000952
1.6786673,0.74905235,1.62507,1.411528,0.86908394
1.6636063,0.80778813,2.9072163,1.1806405,1.5808742
3.2039406,1.0568806,2.915266,1.4862696,1.7801127
0.023558756,1.8829898,1.0239162,1.6208118,1.4359114
0.011286351,0.78121465,1.035663,1.2208847,1.3166372
2.0380658e-06,1.5938148,0.44345397,0.27817786,1.4675089
3.0626143e-06,0.7235256,0.0033432373,0.9167908,1.0504299
7.1431487e-06,0.043232568,0.84827316,1.0007474,0.25835934
0.0039022916,1.1451742e-06,1.2934884,0.2018292,7.7248836e-07
0.014708726,1.9261324e-06,0.3600308,1.0807134e-07,7.908249e-07
0.2839656,3.1619188e-06,1.0212939e-06,2.1559529e-07,5.8068525e-07
0.034523275,5.836274e-07,1.594453e-06,1.3214044e-06,6.3783443e-07
4.941711e-07,2.585595e-06,3.8603946e-07,3.964058e-06,8.9630436e-07
1.6918565e-06,1.0785461e-07,6.9401035e-06,2.3666914e-06,3.2810576e-06
1.4122343e-06,6.662647e-10,1.2273638e-06,2.6180567e-06,1.9703928e-06
2.3874134e-06,4.4205908e-07,1.8149379e-07,9.144732e-07,1.5161187e-06
6.4690767e-06,1.278251e-06,2.803503e-07,1.2616661e-07,9.738066e-07
1.5080806e-06,1.1617736e-06,9.2088266e-07,9.379936e-07,1.146909e-06
2.0056723e-06,2.4486426e-06,8.4116084e-07,1.3711756e-06,1.5816927e-06
2.2899337e-06,0.045110982,1.08960045e-07,4.0109654e-07,0.055051968
4.585086e-07,9.756861e-07,8.027471e-08,2.5878471e-06,0.119417496
2.690934e-07,2.10977e-06,8.995779e-07,4.6441247e-07,3.5046904e-07
0.016908484,1.19321e-06,1.9338e-07,2.9258584e-07,1.6091303e-06
2.3318164e-06,1.75687e-06,1.3724763e-06,7.3005424e-08,1.0371858e-06
2.8467075e-06,0.00019711688,5.111751e-07,2.6398482e-07,8.7652506e-07
1.8506404e-06,7.8187537e-07,3.4757073e-07,3.4423735e-07,1.4598247e-06
5.93374e-06,2.4571307e-07,2.3790997e-07,7.367305e-07,0.047732
1.560424e-05,0.011071803,2.3855662e-07,3.1373215e-08,0.26657498
1.016785e-05,2.409011e-06,5.056874e-07,1.2150113e-06,0.17924868
4.7128256e-06,1.2542765e-06,4.3288233e-06,7.8417924e-07,3.8046983e-07
2.235747e-06,1.1540683e-06,2.0139248e-06,7.098031e-07,0.0057895486
1.1350655e-06,0.040837016,1.8462391e-06,2.612623e-06,1.5361491e-06
1.6892925e-06,2.3857074e-06,9.740465e-07,8.5109787e-07,1.151202e-06
1.3375188e-06,5.322276e-05,2.030356e-06,1.8274526e-06,6.560819e-07
2.3519774e-06,1.2518569e-06,1.13098e-06,3.5312432e-06,0.014728495
2.5392517e-06,1.1388063e-06,2.0564805e-06,1.5868791e-06,1.2051333e-06
9.753916e-07,3.3888668e-06,2.896122e-06,1.5755368e-06,3.2553917e-06
2.3036298e-06,3.017487e-06,4.80206e-06,1.0170442e-06,4.05021e-07
1.6334297e-06,1.0951295e-06,6.354588e-06,2.3280627e-06,1.6157811e-07
8.593398e-07,2.726047e-06,1.8709362e-06,1.2517088e-05,0.0
1.841635e-06,4.5095018e-07,2.6758428e-06,1.3946996e-06,0.0
1.5235208e-06,6.79322e-08,2.2092283e-06,3.0378353e-06,0.0
3.8027433e-06,0.0,1.471522e-06,2.8591232e-06,0.0
7.566183e-07,2.886782e-06,1.3354662e-06,4.0944894e-07,4.592137e-09
1.9416393e-06,2.8899154e-07,4.6966875e-07,7.882092e-08,6.8040436e-07
2.0528644e-06,8.0848525e-07,2.7032922e-07,7.1613897e-07,5.150113e-07
7.282839e-08,9.213721e-08,2.9979003e-07,5.254295e-06,1.0654313e-07
2.798539e-07,8.5863194e-10,1.2364272e-06,2.5229087e-07,0.0
4.171634e-06,0.0,2.2332453e-07,3.7799257e-08,0.0
2.0360687e-06,5.727742e-10,2.775468e-06,2.0549512e-06,7.269626e-08
6.283039e-07,0.0,1.1365174e-06,7.159226e-07,2.6814594e-06
2.7341005e-06,1.7014236e-05,1.3404227e-06,1.3613044e-06,2.9334685e-06
5.958985e-06,6.680774e-05,2.5114146e-06,8.503298e-07,5.0361274e-07
0.00014852795,0.0022707025,1.5240748e-06,8.4639495e-09,4.774404e-07
1.4484783e-06,0.00048403046,8.4168363e-07,4.396377e-07,3.03047e-06
0.00017019796,4.6223053e-05,1.0186957e-06,7.784048e-07,3.439442e-06
0.00015116364,6.9392427e-06,7.154929e-07,5.401131e-07,2.4803776e-06
2.0345751e-06,1.1421218e-06,7.797318e-05,8.805046e-06,1.3510531e-06
2.3546704e-06,2.148138e-07,5.8348265e-05,7.08377e-05,3.4491798e-06
4.2590177e-06,1.9240335e-06,3.1243153e-06,5.3705615e-05,2.846419e-06
2.0349773e-06,5.466199e-05,1.7181128e-06,9.0755675e-05,1.9307556e-06
2.1301767e-06,0.05923783,1.7830495e-06,0.0015304872,6.7641474e-07
1.2411848e-06,1.1584258e-05,5.0263964e-07,0.00088096247,1.6428157e-05
0.0037467098,8.816901e-06,1.2280237e-06,0.00019453841,1.736828e-06
0.31489664,1.672032e-05,4.7010846e-07,0.00038600678,4.0439625e-07
0.8123227,4.7444002e-05,4.7073246e-07,7.8185585e-05,3.2931914e-06
0.60131025,3.3144912e-05,1.4974892e-06,7.5957514e-06,1.7246545e-06
0.6212726,0.1685293,2.202344e-06,1.0227875e-05,3.1867935e-06
0.22077173,0.11441543,1.4372146e-06,3.2383682e-06,1.9805225e-06
0.0028073348,0.42956924,1.5873036e-06,3.0544998e-06,1.7427685e-06
0.00611318,1.7344735,2.2475847e-06,1.8318518e-06,3.737991e-08
0.004356069,1.3294241,2.2648528e-06,1.6546928e-06,0.001996751
0.0019698371,0.5047223,2.6173905e-06,2.0501243e-06,2.701191
0.009207597,9.588975e-08,1.0606262e-06,9.843313e-07,1.0347165
0.99900025,1.7483875e-07,1.040715e-06,2.5383508e-07,0.022106739
0.007960797,5.3369996e-07,1.3422107e-06,7.763455e-08,3.8576354e-07
0.0018421592,5.315359e-07,1.5534259e-06,4.419139e-07,1.0435846e-06
0.0007791074,6.185911e-07,4.5874298e-05,7.6266866e-07,5.0795745e-07
0.002010235,4.622208e-07,7.4133395e-06,6.5975854e-07,3.8857422e-07
0.001799929,3.6923456e-07,7.4472905e-07,0.0072747436,1.2606316e-06
0.0003599618,1.54279e-06,4.9808335e-07,7.5588974e-07,2.366409e-06
1.6318589e-05,1.4149921e-06,5.432871e-08,9.700314e-07,1.5460138e-06
2.7386898e-06,3.257955e-06,2.390696e-06,2.8848117e-06,1.7437965e-06
9.4666416e-07,1.1297258e-06,5.596732e-05,3.213397e-05,2.4965402e-06
6.236924e-06,6.3062e-06,1.2545901e-06,0.00034823787,1.9038359e-06
0.00021806352,2.8838574e-06,7.913918e-05,0.00018056849,1.0164823e-06
3.5089237e-05,2.2910845e-06,9.823232e-05,3.5093371e-06,1.1724896e-06
4.5063192e-08,1.6693764e-06,6.210998e-07,2.9611478e-05,4.4895407e-07
1.644055e-07,6.3073103e-06,1.5878404e-06,1.2573569e-06,9.816613e-06
1.3082104e-06,8.803626e-06,5.806288e-07,4.7771902e-08,5.165596e-06
9.687713e-05,0.14171232,5.79709e-05,3.5060228e-07,1.9355191e-05
2.2136966e-05,0.42468485,0.00019594457,2.0410675e-06,1.3597979e-05
3.2082287e-05,0.039233282,1.1488336e-06,3.5809783e-06,4.3156692e-06
8.875699e-05,6.526232e-08,3.9529045e-06,3.2630322e-07,0.00020299
7.734453e-06,4.5572057e-07,9.546608e-07,8.169596e-08,7.5350516e-05
1.749694e-07,4.8664026e-07,4.574888e-07,2.5329848e-05,5.197325e-08
1.580659e-07,2.401809e-07,1.0037637e-06,3.4021662e-07,5.743081e-08
1.9258803e-06,2.1373892e-06,1.0740903e-07,4.2012752e-07,8.5501284e-08
4.371437e-07,6.09391e-06,4.1562475e-06,7.562598e-07,5.0102467e-06
3.247335e-06,0.0001807314,5.4685092e-06,5.7591838e-06,1.3689469e-06
7.9372434e-08,1.9196912e-06,6.179642e-07,1.1909365e-06,1.7502887e-05
3.2447867e-06,8.883309e-06,1.371396e-07,3.3742624e-06,0.06734586
2.0752645e-05,0.51502526,7.8942105e-07,4.8854554e-06,5.324153e-05
0.008310186,0.1330845,1.1194828e-06,6.012928e-07,0.54623306
0.013137896,0.073681004,3.5910252e-05,6.8602035e-06,0.2634569
0.00036311694,0.00060635473,3.8282793e-05,3.6454396e-06,0.13287342
1.3362747e-06,1.2141328e-05,1.3000898e-05,6.6511484e-07,0.08352164
1.8840392e-05,1.6338791e-07,5.0154053e-06,4.6888104e-07,3.3864735e-06
0.016594274,7.968571e-07,6.826305e-08,4.0631744e-06,6.205122e-07
0.009304997,2.4840247e-07,1.0845968e-06,5.1694616e-07,6.6596556e-07
4.6428304e-06,5.0573667e-06,4.024184e-06,5.4481216e-06,1.133708e-06
6.716321e-07,2.0373014e-05,2.3165842e-06,4.237965e-06,1.2127939e-06
1.7008408e-06,2.1173062e-06,4.8832896e-07,9.793699e-07,1.7122045e-05
1.0819343e-06,2.8643096e-06,2.7084352e-06,3.992436e-07,3.0431127e-06
7.1326454e-08,4.5237106e-05,2.4435127e-05,1.5911703e-06,3.6929548e-06
2.683679e-06,0.08848453,1.9908964e-06,1.1700271e-06,0.010167326
1.4649108e-06,0.0978258,1.1599514e-06,3.2817363e-07,0.1352621
3.4102409e-06,3.0160282e-07,2.1860496e-06,3.8899557e-06,0.016654639
1.2618053e-06,8.338148e-08,2.160881e-06,3.1350037e-06,1.0839515e-06
0.37904507,4.4462715e-07,6.3341786e-06,3.4118489e-06,1.3788483e-06
1.7272593,8.8891045e-07,3.305482e-06,1.2516145e-06,3.6015945e-07
4.2651067,5.3117105e-07,0.00010426194,0.0074252374,1.2094255e-06
0.030479088,5.9382796e-07,6.3371763e-06,0.16482209,6.6908024e-07
1.1452222e-05,5.4646426e-07,1.4572919e-05,1.9247278e-05,1.2943806e-07
1.0309286e-07,3.1207347e-07,2.4439216e-06,0.091647595,3.2518977e-07
4.3022756e-06,6.2317946e-07,8.63007e-05,5.5205055e-06,8.765972e-07
2.138869e-06,2.7954997e-07,0.003188698,3.1318489e-06,1.6834624e-06
1.7840315e-06,4.7081295e-07,0.0009717278,1.1849775e-06,4.64103e-07
7.694505e-07,3.7407403e-07,1.2566803e-06,1.8711288e-06,0.04598356
1.0313901e-06,0.0014432695,1.264857e-06,5.240305e-07,0.0024830862
1.6395273e-06,0.0002731589,8.9650945e-07,2.4373578e-06,0.0032720377
4.310114e-06,8.090191e-06,1.172989e-06,1.2289629e-06,0.0007911513
9.632705e-07,9.118758e-06,1.442964e-06,1.7520229e-07,8.510389e-06
6.196263e-06,0.009488033,1.6860905e-06,4.9202913e-06,0.040997684
3.5967278e-06,2.4087599e-06,5.1514695e-07,2.376256e-06,0.017545938
8.831802e-06,5.907625e-07,6.867241e-06,8.659213e-06,0.04447101
4.6125564e-07,1.7935719e-06,1.0867337e-05,1.2211307e-05,0.060681764
2.9321814e-06,3.3670678e-06,1.1752882e-05,6.543093e-06,0.05490632
1.9040361e-06,3.7649952e-06,8.75366e-05,4.8897914e-06,0.037915282
2.512954e-07,1.4526545e-05,7.072794e-05,4.747742e-05,0.01968845
2.0230289e-06,0.007721482,4.676902e-06,3.4592538e-06,0.09291652
1.2831104e-06,0.010538205,4.463595e-06,4.866162e-06,0.07060435
2.720097e-06,0.002058375,2.4251763e-06,7.8189964e-07,0.036181044
9.878436e-07,0.04808961,1.8805997e-06,2.85039e-07,0.11261295
2.8796062e-06,0.18536362,5.392383e-07,3.792538e-07,0.22935307
9.2160924e-08,0.16829562,0.0024999152,1.3597167e-06,0.24454854
7.348002e-07,0.22620665,0.014095899,0.00022169441,0.22923046
2.3257883e-06,0.108626544,0.015733613,0.0033585369,0.045394152
5.7304294e-07,0.052348,0.026318442,0.014272754,0.03976195
4.1185086e-07,0.027609073,0.037127122,0.0026049353,0.060366675
1.4483069e-05,0.012474851,0.005870705,5.577206e-06,0.113265485
5.2119476e-06,3.21232e-06,0.004741227,1.4887426e-05,0.06386679
2.3749633e-06,6.1097575e-07,0.015689852,1.9391306e-05,0.0036397167
1.374373e-06,1.8831661e-06,0.029273495,0.000118436474,6.212685e-07
4.1256047e-07,2.9444072e-06,0.011248383,1.0726329e-05,4.1462026e-06
7.139116e-07,0.05990974,1.263256e-06,1.0254915e-06,0.42657304
8.8217524e-07,1.6972667e-06,8.181258e-07,1.8693514e-06,1.0756329
2.2743266e-06,2.8606593e-08,1.5653316,0.09697761,7.522613e-06
1.4905868e-06,1.0624631e-06,0.001429909,1.2262923,6.230534e-07
3.4866605e-07,8.1888214e-07,2.118612e-06,3.969662e-07,7.79974e-07
1.8086604e-06,1.645257e-06,2.1714714e-06,1.0910642e-06,1.5604495e-06
1.4506622e-06,6.843892e-08,1.0025332e-06,1.0190682e-06,2.8137463e-06
2.8489007e-05,1.3187987e-07,8.004431e-07,6.1392126e-07,4.786407e-07
7.983559e-06,5.838149e-07,4.413402e-07,1.5072687e-06,1.1242414e-06
1.9149313e-05,2.1031826e-06,4.889425e-07,5.459201e-06,4.245408e-08
1.843977e-05,8.5839145e-07,1.0500909e-06,7.800736e-07,4.928053e-06
6.301679e-05,0.00044807294,0.00010443221,7.1808194e-07,4.7554427e-06
9.707351e-05,1.407633,0.00010716212,4.1870688e-05,1.3859388
