"[299, 255]","[227, 248]","[287, 319]","[279, 328]","[230, 262]"
2.3259877e-07,1.6591215e-06,0.0001964604,9.78866e-07,1.4723482e-06
5.091708e-08,1.3065012e-06,0.03299345,8.011879e-07,1.7227985e-06
0.0023051433,1.4518592e-06,1.0727534e-05,4.6049544e-07,2.330279e-06
3.824925e-06,1.7827633e-06,0.7814982,0.045489218,0.022644
0.13270333,0.05626097,0.6861584,0.27661508,0.5011347
0.026335914,0.2994027,0.25707594,0.41290382,9.4377305e-07
0.15555379,0.055877104,0.00013072278,2.104563e-05,1.694526e-06
0.7238646,3.878821e-06,1.2600771,0.21349455,7.3847417e-07
0.91210437,5.647568e-06,0.41797635,0.2890296,1.0393165e-06
2.1888962,2.1196133e-06,0.46996278,0.3590302,1.3873182e-06
3.8188822,5.915515e-06,0.17250802,0.001042933,4.6375594e-06
2.4396567,1.590943e-06,0.5969583,1.4294552,0.007941654
0.1497273,1.984603e-06,0.124684244,0.023841802,0.012675894
0.72114956,0.020904053,5.4700786e-07,0.17086777,1.6590917e-06
0.22784774,0.9717581,1.3872081,0.39112696,1.2347768e-06
2.1687558,2.0417183e-06,2.710285e-07,6.3312643e-07,4.4550925e-05
0.013073261,4.484621e-06,9.727939e-07,9.122708e-06,9.066008e-07
9.0129123e-07,0.16297615,4.5214486e-07,0.0034105366,0.17262298
0.00069691887,0.419976,0.00028115683,0.054603796,0.00091346406
3.7219837e-05,0.6241939,2.149594e-07,3.4888967e-07,2.1769772e-06
0.23202746,0.20451286,2.582979e-07,6.4406834e-07,1.1763854e-06
0.009667243,1.164744e-06,6.722095e-07,3.063207e-07,1.3761617e-06
8.844257e-05,0.42763475,1.2428693e-06,7.7486725e-08,2.3573484
9.9518606e-05,2.1006585e-06,2.1752325e-07,1.3597788e-07,2.0209861e-06
0.32027462,9.5327243e-07,2.472808e-07,4.5901507e-07,1.4039777e-05
1.3100231e-06,1.240208e-06,6.036864e-07,2.3222381e-07,2.1583132e-06
6.430787e-06,2.326324e-06,1.6974816e-07,1.5346704e-07,6.264241e-07
7.240301e-07,9.229603e-07,5.770415e-08,8.097614e-07,5.082029e-07
1.65939e-08,1.2794085e-05,4.57043e-07,1.1385843e-06,1.3651429e-06
5.991254e-07,3.7382501e-06,1.030085e-06,2.3045008e-07,8.7243205e-07
3.7041058e-08,1.081702e-06,1.2227537e-08,3.333794e-08,8.195078e-07
4.4150553e-07,1.0539484e-06,1.05030374e-07,2.9626426e-09,2.33017e-06
2.857691e-08,1.2161803e-06,3.4309832e-07,6.98405e-08,2.5864e-06
1.2601063e-07,5.8073806e-06,2.1031237e-08,2.5267361e-06,1.8080403e-06
4.6767788e-08,1.9451475e-06,1.8407646e-07,6.555278e-07,1.5576738e-06
2.092136e-06,5.018243e-07,8.666719e-08,2.091187e-05,1.8081801e-06
4.0516343e-06,2.3999191e-06,0.015955979,0.07805186,7.4271367e-07
1.3270447e-06,3.1905047e-06,0.13016312,0.13410367,6.03795e-06
3.1363493e-06,2.6379032e-06,0.15791573,0.021403128,1.4199326e-06
2.70853e-07,2.3939115e-06,0.039703473,0.058518376,1.1107827e-06
0.015897417,6.0133348e-06,0.13403165,0.27967426,5.225634e-07
0.44092473,1.0122779e-05,0.1224666,0.12722439,6.497391e-08
0.10195842,5.0994704e-06,0.10942836,0.017321758,9.819928e-07
0.3217539,6.5200726e-07,0.10547678,0.0002860038,0.0065507144
0.3839634,2.5693248e-06,0.06343573,1.10246326e-07,0.20487621
0.42154604,0.00028096625,0.026251964,6.991075e-07,0.0010023282
0.3990362,0.13851523,0.018664993,0.21205899,0.09631445
0.24630867,0.0012736626,0.22650315,0.022609673,0.014584075
0.20826319,0.0013644907,4.5751793e-05,5.282245e-07,4.663129e-06
0.17876983,0.0031545267,2.892524e-06,3.5827063e-07,2.6903459e-05
0.24919087,3.860821e-06,8.6819534e-07,7.4333417e-07,1.8811731e-07
1.2533561,2.411395e-06,4.6577075e-08,2.2034669e-07,1.6086781e-06
0.5767508,5.062922e-06,3.0775206e-07,4.7388778e-07,1.3882127e-06
0.057508696,3.7078084e-06,1.4318387e-07,2.3331087e-07,1.522435e-06
0.010882806,3.3121648e-06,0.015736422,2.265146e-05,5.6054464e-06
0.010750833,6.4161213e-07,0.09175622,1.0478791e-06,9.525044e-06
0.026155317,1.1819897e-05,2.441977e-06,7.273374e-05,1.2439336e-05
0.00779262,3.9596785e-06,4.8094994e-06,6.125968e-06,3.1074014e-06
0.00031325492,2.4326055e-06,1.0783389e-06,4.8846605e-06,6.9873977e-06
0.020914955,3.505527e-06,9.625637e-07,0.0765152,8.4688827e-07
0.02571039,7.953121e-06,3.3497685e-07,1.6123877e-06,8.407074e-06
1.0307137e-05,1.1174946e-05,8.844265e-07,4.2805873e-06,3.6521353e-06
1.3290319e-06,1.4227848e-05,9.92936e-07,1.3900369e-06,1.3741233e-05
1.6119398e-06,6.7525016e-06,1.6051497e-06,8.8031065e-06,1.2334065e-05
8.853797e-07,5.3466842e-06,2.7782276e-06,0.00011943231,4.2488637e-06
0.010301305,3.6355243e-06,9.847636e-07,0.00025852802,1.8175539e-06
0.8542906,0.0013722127,1.0901484e-06,0.00059654913,1.398817e-06
0.00020817546,1.8200157e-05,2.234728e-06,3.226676e-06,1.6231567e-06
1.5151004e-05,1.6544383e-05,0.05898386,3.6939516e-06,6.6400884e-07
1.5878095e-05,0.00015050064,0.00029510347,0.16832568,0.06928771
7.2319876e-06,3.3787057e-06,0.016545199,0.010316803,1.6949558e-06
3.322543e-05,0.31455445,0.032261282,3.6659043e-07,2.5172942e-05
3.760006e-06,0.6364677,0.014203677,0.120375626,4.0343105e-07
2.441991e-06,0.15183389,0.04844729,0.004110854,4.037933e-06
3.2559214e-08,1.385122e-06,0.036577117,0.0032097804,0.26744413
9.025953e-07,0.018019855,0.0010725758,6.236074e-07,9.493543e-05
1.1413205e-05,0.0106323175,0.0530565,0.012038842,0.009918018
3.1138975e-06,0.10974706,0.04005276,0.00043074955,0.7677871
7.560529e-06,0.037951626,0.0033920123,1.9648237e-06,0.28290966
0.00023298184,1.7123531e-06,0.011445267,0.013210911,0.7444071
9.9033525e-05,0.7238746,0.015572695,0.0016527483,2.2600849
3.6799233e-07,2.0172985,0.036326293,0.0014315457,2.771134
5.3112535e-06,2.7941742,0.029360706,0.4033385,1.4016199
0.447202,2.6671753,0.09095059,0.68868047,0.8383193
0.98648775,1.2605462,0.94231725,0.3569194,0.23940122
1.3186675,0.5557232,0.6147643,0.6555018,0.0012382271
2.4364433,0.1328106,0.8221725,0.67502534,5.6560702e-06
2.685747,3.405761e-06,0.70245415,2.1100908e-05,3.2091532e-06
1.4480426,0.68988544,0.0004211059,1.5514283e-06,0.6454889
0.18026431,1.4669093e-06,2.0326424e-06,1.2864762e-06,0.033322874
0.00014586984,3.1822715e-06,1.7165218e-06,1.1085963e-06,0.0025749935
5.9386275e-05,0.0005689821,1.647814e-06,1.2626648e-06,0.00092950294
7.8067496e-05,2.300077e-06,1.9986528e-05,4.391399e-06,0.20340677
0.002247275,3.8925726e-05,5.572097e-06,4.921221e-06,8.973708e-06
0.13708943,3.9714538e-05,1.2647077e-06,5.522086e-07,1.6804804e-06
2.4906583e-05,6.9624602e-06,7.950249e-06,4.6345082e-07,2.5116099e-06
3.0574345e-05,9.05179e-05,7.1753916e-06,5.2142674e-05,7.598088e-06
0.0008211006,2.2030445e-06,7.830801e-06,3.6114765e-05,5.2898395e-06
0.0013973737,7.0699303e-07,5.9578097e-06,2.1492306e-06,4.83741e-07
7.1550903e-06,1.7606143e-06,1.9381935e-06,1.275611e-06,8.932067e-06
3.1982677e-06,2.8171182e-06,2.3513944e-06,1.96673e-06,2.0096586e-06
3.0017738e-06,2.8128147e-06,2.2683287e-06,7.465914e-07,8.168656e-06
5.147797e-06,0.055422604,4.317261e-07,2.1833957e-06,0.0034195227
2.904432e-06,0.010454461,1.6100163e-06,8.701681e-06,0.00013683048
5.3927665e-06,2.4961274,1.9496357e-08,8.582502e-07,1.6556053e-06
2.4070604e-07,0.7257562,1.6957321e-07,6.4493065e-06,9.6765875e-09
5.110407e-07,1.0362927e-06,4.9145973e-07,5.5627684e-06,3.353695e-07
2.5460545e-06,6.324838e-07,6.0546546e-07,1.8739499e-06,1.1291902e-06
8.893304e-07,2.0920845e-06,2.3691629e-07,2.1849247e-07,1.3094863e-06
3.8817425e-06,2.501729e-06,7.100497e-07,3.1406336e-07,2.1665899e-07
3.0213641e-06,2.235869e-06,3.845986e-07,7.7851354e-07,8.962773e-09
2.1693902e-06,5.1543334e-06,7.054111e-08,1.5505858e-06,4.1985885e-07
0.17599624,2.722306e-06,3.0298943e-06,7.670735e-06,1.06583e-06
0.09366001,2.8567342e-06,1.7158512e-06,1.6418547e-07,1.2045484e-06
0.0006244665,3.3109768e-06,5.2377154e-06,0.0,1.9489337e-07
0.00043174066,5.8498804e-06,1.3070518e-06,1.0957772e-07,9.250322e-07
2.9946983e-05,3.2622388e-06,3.52922e-07,2.1991975e-06,7.664622e-06
1.369188e-05,0.65477717,1.4276319e-06,1.6999226e-06,0.21853498
2.6952869e-06,0.20870602,2.5886612e-07,6.1256554e-07,0.06804295
3.4489966e-07,2.5878296e-06,4.8268507e-06,2.0051214e-06,2.0357196
7.0214475e-07,2.601699e-06,5.327207e-07,2.0805915e-06,2.1990229e-05
6.2478907e-06,2.8721195e-06,4.9031983e-06,4.0004288e-05,7.760607e-05
0.000887375,2.7827841e-06,0.00015419428,4.3016735e-05,9.867214e-06
1.3520672e-06,4.7484004e-06,0.0051373187,0.0068883365,0.0001487434
8.551849e-06,0.00076691224,0.015079664,0.029845158,0.03378189
1.6283581e-06,4.239865e-06,0.0067311632,0.011493867,2.860546e-07
6.873222e-08,3.0176473e-06,0.004893278,0.01683619,1.7003808e-06
2.468274e-08,6.453843e-06,0.0029343353,0.022734618,5.4266544e-05
1.6839433e-08,6.3967395e-06,0.0056898957,0.017157998,1.0623714
0.0,2.7598448e-06,0.003111336,0.01730919,0.001629514
0.0,5.1986653e-08,0.00078427425,0.006018689,0.00017695596
0.0,0.0,6.617372e-06,0.0013766689,1.1822354e-05
0.0,6.0777046e-07,4.874191e-06,0.0013067944,5.346322e-05
0.0,9.3843744e-07,4.6948767e-06,4.709568e-06,1.9972397e-06
0.0,1.4110227e-06,5.1197017e-06,6.4798414e-06,9.1966376e-07
3.019822e-07,5.927058e-07,1.1584764e-07,9.106559e-05,3.6710286e-08
0.0,4.646687e-06,0.0,6.519599e-07,1.3029229e-06
0.0,4.9797178e-05,0.0,0.0,2.9331557e-06
0.0,1.6208508e-06,0.0,0.0,2.3966563e-06
0.0,6.8760295e-07,0.0,0.0,1.3403649e-06
0.0,1.9157492e-06,0.0,0.0,1.328153e-07
0.0,4.063506e-06,0.0,0.0,4.456853e-07
0.0,6.7064246e-07,0.0,0.0,8.9717264e-07
0.0,9.142585e-06,3.9820757e-06,9.526519e-09,5.264849e-06
1.3088274e-06,2.9142884e-06,9.036763e-07,3.4061836e-07,1.3407847e-05
7.7591885e-06,4.9928807e-05,9.877757e-07,5.581387e-08,4.116006e-05
5.215527e-06,0.00020326283,2.1404563e-05,3.5249315e-07,2.1200447e-06
1.4543314e-06,1.3352906e-05,3.214357e-05,1.9787274e-06,6.974195e-07
1.03805405e-07,1.1707842e-05,2.7001595e-06,2.0528232e-07,1.446591e-07
0.00012671607,1.5049789e-05,5.4665143e-05,4.590652e-05,3.847708e-05
4.354157e-05,0.00080703176,0.00012268027,1.7209031e-05,3.3791057e-06
8.008197e-07,0.0019663684,0.00023458106,2.7337217e-07,0.03084489
7.346641e-07,0.19598319,0.0005533002,1.2548102e-07,0.095030755
2.8158554e-06,0.66223943,0.01674276,2.760041e-07,0.37736323
8.0123465e-07,0.9841178,0.603789,0.016928777,0.81407964
0.1424375,3.1119637,1.5767741,0.15239044,3.1671066
1.4641008,2.556942,3.1580262,0.14636818,5.118231
1.2565114,1.2669493,2.0581665,0.019149764,1.6517206
1.7720838,2.4727693e-05,1.1302735,0.011037106,0.01413296
6.4812255,2.4195872e-06,0.2588533,0.3121234,1.612305e-06
1.5342007,3.0665785e-06,0.024262732,0.00066418096,1.1961994e-06
0.3470875,1.1862048e-06,1.6829547e-07,1.1104465e-07,6.638875e-07
0.0003560909,2.756499e-06,0.00017964577,1.3021747e-06,8.1040383e-07
3.5257915e-07,1.2867786e-06,2.17928e-07,1.6861229e-07,3.708107e-06
1.6296053e-05,3.0815954e-06,1.5316285e-05,3.6322908e-06,3.2047221e-06
2.8689599e-06,1.738209e-06,3.697577e-06,2.9610246e-07,4.1646715e-07
8.932444e-06,2.6311911e-06,1.3831178e-07,1.5346264e-06,1.1904905e-06
0.012224941,1.0357605e-06,9.879326e-08,3.2171127e-07,7.325944e-07
0.00039880635,4.514277e-07,9.035547e-08,6.280201e-07,1.3301054e-06
0.00017170883,7.9776504e-07,2.7062902e-07,3.4564863e-07,1.3025625e-07
0.0007165701,1.0292364e-07,1.5690117e-07,1.405067e-07,4.069242e-07
0.0013375366,3.5077914e-08,5.0262867e-07,3.2768298e-07,3.9291172e-07
0.15518531,5.925253e-07,8.477603e-08,3.0334346e-10,1.0780408e-07
6.740012e-06,0.0,2.2056992e-07,1.3150851e-07,1.6293944e-07
3.987221e-06,2.6174842e-08,7.368594e-07,8.381295e-08,1.3146417e-06
9.7694596e-05,5.4981232e-08,2.1525616e-06,6.421833e-07,7.276172e-08
0.0015188414,1.2461997e-07,8.445623e-07,3.156826e-07,1.4291811e-07
0.001966689,5.09055e-07,2.0994656e-07,1.2200451e-06,5.848531e-07
0.00010024415,7.141899e-07,3.2715045e-07,2.8850138e-06,9.90305e-07
0.0001420512,1.8468522e-06,7.911457e-07,1.1978572e-07,1.1397873e-06
0.4472307,1.0979065e-06,7.1498937e-07,1.8107845e-07,2.0980556e-06
0.16207573,1.7997249e-06,3.461513e-07,9.748188e-07,2.8600125e-06
0.7467144,3.5533799e-06,2.5092416e-07,6.088666e-08,1.5754779e-06
0.016225599,3.9302377e-06,2.1641439e-07,3.3107395e-07,1.3247608e-06
0.13455452,3.7317272e-06,5.1784576e-07,6.482951e-08,1.273122e-06
0.00019964032,8.474889e-07,1.2916919e-06,4.995343e-06,3.3619028e-06
0.030571336,4.508499e-06,2.008569e-06,2.8181498e-06,1.3393976e-06
0.00037277347,5.201823e-06,3.841273e-06,3.4771633e-06,3.3952754e-06
0.28283828,5.215136e-06,0.3149449,8.836854e-07,1.2699999e-06
0.13812454,1.6198372e-06,0.026561808,8.112473e-07,0.17005438
1.0198785e-05,0.0005249132,2.1476085e-06,3.8130455e-07,0.61613184
3.8432486e-06,0.39227715,2.012467e-06,3.350696e-07,0.5572281
1.7221454e-06,0.065802075,3.7652458e-07,8.017318e-07,1.2228127
4.9592313e-06,0.576973,0.0003419378,7.79469e-07,1.1401821
0.0007660757,1.50972,0.12654564,0.015322055,0.5791467
0.33980468,0.92331475,0.12413955,0.6196518,1.3389518
1.0042585,0.54460275,0.9810731,0.55497956,1.6985333
1.4222288,1.3993546,0.45740408,0.20369698,2.2643003
1.2872984,2.3217936,0.0973618,5.466004e-07,2.8519652
0.7239388,2.0401754,0.14514963,2.0332857e-06,2.8946505
0.0913868,1.6698974,0.08741636,0.26442528,3.0228043
0.014066238,2.0806735,0.04605368,0.39022207,3.0530913
0.0060855485,0.5221091,0.052786686,0.027759194,0.12347383
0.19016407,0.35964948,0.03773991,0.045984846,0.2972397
0.13800533,8.303055e-06,0.02820457,0.033718854,4.1289408e-07
0.2900769,4.526741e-06,0.03904964,0.043836817,9.346463e-06
0.4678903,1.1090506e-05,0.027483443,0.036426395,2.707728e-06
0.27049023,2.393115e-07,0.004849988,0.019229947,8.572069e-07
0.026897958,1.4431114e-05,1.0205788e-05,0.0012653416,1.042782e-06
0.021448348,1.4265398e-05,7.1849706e-07,2.2021098e-07,1.2432935e-06
0.025188532,8.1475736e-07,2.9873226e-07,1.4851913e-07,4.0828822e-06
0.02177657,5.753855e-07,3.13105e-07,5.8894693e-07,8.9110097e-07
0.014110022,3.0246272e-06,1.9227826e-07,1.535199e-06,7.949716e-07
0.0033070657,1.7136712e-06,1.8048144e-07,6.6838027e-07,2.4038619e-07
0.00053195405,2.165608e-06,3.3094176e-07,2.3787854e-06,1.4022642e-06
0.00073514803,1.3357653e-06,4.1963574e-07,1.213771e-06,1.2066929e-05
0.00049057655,1.4889606e-07,2.5587497e-07,5.0403634e-07,3.6871745e-06
7.1174345e-06,0.21608198,3.949778e-08,5.306e-07,0.000123103
4.87878e-06,0.014771117,2.4871974e-07,8.6056065e-07,0.00020647679
4.8433205e-05,1.938966e-05,3.0877464e-07,2.989536e-07,4.158771e-05
0.014983922,0.0029845051,4.752838e-08,2.4277824e-06,2.0021469e-06
8.5680296e-07,0.013941983,4.0893826e-07,5.744004e-07,2.1724487e-05
1.2089326e-06,6.1470328e-06,4.864968e-07,1.116676e-06,2.081547e-06
1.3294292e-06,5.370144e-05,6.455894e-08,1.5673226e-07,5.343187e-06
6.0940115e-06,2.7511362e-06,2.402914e-07,3.1809466e-07,4.591168e-07
6.201991e-08,2.0541538e-06,3.2670278e-07,1.3132707e-07,1.1509072e-06
1.6589837e-06,1.3572162e-06,2.8127027e-07,2.7463068e-07,1.2981077e-06
5.499582e-06,5.005699e-06,7.161439e-08,1.5972138e-06,1.3783301e-06
2.6988985e-06,1.7362188e-06,6.1414494e-07,2.1376705e-07,1.7292227e-06
2.658114e-06,5.5346636e-06,3.1181153e-07,1.8100274e-06,1.3516558e-06
2.090296e-06,9.843743e-07,3.7332794e-07,9.3777834e-07,4.3230668e-07
3.4651948e-06,0.00023688536,1.08286216e-07,8.360837e-07,7.766454e-07
9.833429e-08,2.0882403e-06,9.373501e-08,7.021328e-07,9.528111e-06
3.8933382e-07,0.002815504,3.9639474e-07,1.0310022e-06,0.03613875
2.242995e-07,1.6412026e-06,6.05502e-08,2.1460086e-07,0.067142814
1.3561279e-06,1.6642193e-06,4.2231457e-07,6.9057984e-07,0.0032788278
0.0002939146,0.018383183,6.3723874e-06,2.7614453e-07,2.2824981e-06
3.8634735e-06,0.026456181,9.012013e-07,3.7353556e-07,2.5899017e-06
1.072128e-05,5.750084e-06,2.1252143e-07,3.502545e-07,6.489107e-06
3.8167923e-06,0.40136525,2.9369528e-06,3.614773e-07,0.1770591
0.10910445,1.1733044,1.3691961e-07,1.531559e-06,3.2996922
1.2348351,2.4047172,1.0966662e-06,4.6304166e-07,1.8031458
1.753464,2.9829094,0.00025913332,1.6990697e-06,1.7220485
1.9168291,2.5322895,0.08290815,1.5706428e-06,1.327186
2.5292559,1.5347413,0.15189151,0.0014273658,1.2342995
2.7504296,0.7619086,0.23481478,0.62196934,0.8326569
2.3951893,0.45909262,0.8576285,0.8660943,0.46528405
2.2336147,0.0057106083,0.6270466,1.2329069,0.19171795
2.012713,2.889268e-07,0.6968287,1.3766681,0.00038685213
0.6716485,5.6310387e-06,1.0497434,0.89003897,0.019870874
2.4675715,7.174014e-06,1.4673505,0.83788794,2.6547295e-06
0.8835202,1.5032596e-06,1.4142343,1.0999472,1.430283e-06
0.13065618,4.5287084e-07,1.5733728,2.4963026,7.2007644e-08
0.6041541,0.0027103066,1.480142,2.0364423,0.0028305596
1.0498976,4.7453515e-05,1.2055305,2.4365475,0.0003403073
0.0036702373,1.1450185e-06,0.86850244,0.26835588,0.5801196
2.879323,0.2559024,0.09556369,0.5084809,0.07203768
0.020412177,0.0022396066,0.5265585,0.60915345,0.07862095
0.34435943,0.0022034438,0.1672253,3.3450974e-06,0.07826763
0.00022029874,8.1054174e-07,0.07933859,0.94578946,1.3770959
0.0109495735,2.805143e-06,0.29342777,0.8408769,3.6686768e-07
0.37383184,1.3425606e-06,0.19086987,1.8849216,1.7011818e-06
3.0800314,3.4235318e-06,0.90462667,1.8574,1.7395565e-06
1.112901,7.5706333e-07,1.8652352,0.03710137,1.8285373e-06
1.8864933,7.627592e-07,0.00044399285,1.4102859e-06,1.4080733e-06
0.019095445,1.2475706e-06,2.4115274e-05,0.00035548583,6.340258e-06
0.030790368,1.4391355e-06,5.0670735e-07,2.1812934e-07,6.853601e-07
0.0075693834,2.386788e-07,5.911301e-07,6.5346444e-07,1.055819e-06
0.7174353,1.3710451e-06,1.0052518e-05,0.055279117,2.0431683e-06
0.5172052,7.2194536e-07,0.05004909,0.6398108,4.1536174e-07
0.00031510484,1.1153253e-06,6.637447e-05,0.47383392,8.357741e-07
1.0435303e-06,2.6481098e-06,0.00017116629,4.1664237e-07,1.2406987e-06
5.154324e-07,3.88269e-06,3.7245948e-07,8.423398e-06,5.0852896e-07
1.8005703e-05,2.2674183e-06,1.8164318e-06,0.00016085703,3.8792894e-07
0.0001010441,2.290046e-06,0.55920774,0.2180413,9.052415e-08
0.33501717,6.261191e-06,0.76840043,0.2622239,2.1884305e-06
2.380348,2.0789046e-06,1.6929085e-05,3.023872e-06,2.2834631e-06
2.5445547,3.737582e-06,3.4252775e-05,3.3767021e-06,2.6928665e-06
1.5588044,7.310722e-07,0.0010454399,1.4671159e-07,3.970083e-06
0.0059970263,3.5380347e-06,3.641175e-07,6.9763937e-06,3.6101385e-06
0.06869415,7.785977e-07,1.0426995e-06,5.6980107e-06,3.6547988e-06
0.15051715,6.195652e-06,7.9195516e-08,7.648367e-07,5.1647615
0.47540945,2.8304262e-06,0.00046320047,0.0046155173,9.63058e-06
0.2652603,1.4699074e-06,0.022586485,0.011257041,1.4717642e-06
1.9335712,1.1378856e-06,0.2666736,0.1665209,9.4248827e-07
0.0038253528,6.4655374e-06,5.2434293e-06,0.0003384577,7.9922813e-07
0.5209991,1.2561546e-06,1.3855467e-05,0.06770272,4.7625423e-07
0.13365282,8.383535e-07,0.66595256,0.02624272,9.221048e-07
0.30567774,2.542196e-07,0.08710317,0.01654382,4.0424118e-07
0.062820934,1.7262839e-05,7.961552e-07,1.932527e-06,7.5370184e-07
0.054503165,1.6192633e-06,5.128182e-06,0.0061556012,5.9941755e-07
0.92942137,6.9092647e-07,0.00036629845,0.0006657182,5.489355e-07
0.7391359,1.4316311e-06,0.04391746,0.013328797,9.809141e-07
0.4955992,8.604578e-07,2.0238094e-06,6.725803e-07,7.719834e-07
1.7551829,6.3987176e-07,4.2532265e-06,0.004148563,1.4121248e-06
3.754273,1.013635e-06,1.9043417e-05,0.00026259263,1.0052935e-06
0.4822892,1.5827742e-06,6.3193096e-07,8.2661273e-07,1.2847163e-06
6.8815534e-05,1.2727597e-06,8.517633e-07,1.7114735e-08,1.8310943e-06
1.7574472,5.7308e-07,7.5109504e-08,0.0,1.0059246e-06
0.7088681,3.3230954e-06,0.0,0.0,1.457695e-06
1.7696545,2.1061255e-06,0.0,0.0,3.076244e-06
0.17946196,3.249315e-06,0.0,1.0765433e-08,7.6882503e-07
1.6489645,6.227668e-06,0.0,0.0,1.6322568e-06
0.0001992629,2.3154225e-06,0.0,0.0,0.132723
8.155427e-07,2.931199e-06,0.0,0.0,7.701171
5.248082e-05,7.3047745e-06,1.3217721e-10,0.0,1.2062184e-06
0.0074783526,1.7368932e-06,1.629825e-08,0.0,3.8476396e-06
0.21184883,2.9897571e-06,2.5380423e-06,0.0,2.0903005e-06
0.00037134736,6.594081e-07,6.0839006e-06,0.0,9.816816e-07
2.3731049e-05,1.1604698e-06,4.375398e-06,0.0,5.5087605e-07
6.2724935e-06,2.0769553e-06,2.3191384e-07,0.0,1.0212568e-06
2.8123602e-06,1.3696475e-06,5.0782198e-08,0.0,1.7931125e-06
6.118325e-05,1.0012458e-06,1.7380278e-09,0.0,7.484367e-07
0.0002477073,5.42174e-07,5.990349e-09,0.0,1.6084566e-06
0.0019587083,6.591963e-07,0.0,0.0,1.1496893e-06
0.019289581,1.4394514e-06,0.0,0.0,1.7440677e-06
0.27852112,9.492709e-07,0.0,0.0,1.6642374e-06
0.021326084,2.016953e-06,5.221759e-08,1.01526425e-07,1.3272187e-06
0.7336881,5.002814e-07,7.116159e-08,3.095739e-08,1.693469e-06
0.04011822,3.1723255e-07,2.4822311e-08,0.0,5.310337e-07
0.3772407,1.5114953e-06,2.069797e-06,0.0,1.9759975e-06
0.600397,8.6179693e-07,1.4541206e-06,0.0,1.9032442e-06
0.0003548273,2.9979394e-06,1.6434692e-06,0.0,1.5791309e-06
0.011339394,1.0888823e-06,1.3422097e-06,4.7742748e-09,2.5446832e-06
0.15561703,1.5678934e-06,4.523286e-08,2.7256827e-10,1.4874531e-06
1.4630347,5.414019e-07,0.0,0.0,3.0488384e-06
0.7055974,6.4379915e-06,1.5234425e-09,2.252685e-08,0.007266517
0.0813963,2.4088213e-06,0.0,0.0,1.2303644e-06
0.00023241052,1.2143991,0.0,0.0,3.6332017e-06
0.0014509931,8.896032e-05,0.0,0.0,0.009956491
0.31020516,3.077917e-06,7.488382e-06,6.4726105e-06,1.0879056e-06
0.005749021,3.022727,1.4209216e-05,4.8736365e-06,0.00021031128
0.080259025,1.3696853e-05,1.999311e-06,2.726226e-07,7.05087e-07
0.71666914,8.168023e-07,7.750515e-08,1.351679e-07,5.9573364e-07
0.0012354879,1.6613238e-06,3.5111395e-07,0.0,9.2693944e-07
0.0002234935,8.37058e-07,3.8169344e-07,0.0,1.6009577e-06
1.5238008,1.4247403e-06,0.00016926686,0.0,2.2081013e-06
0.297812,4.8654915e-06,0.0006111804,0.0,1.3945204e-06
0.0003659002,2.8351078e-06,0.0007758512,0.0,6.774928e-06
0.004865828,1.5248633e-06,0.001017803,0.0,6.496859e-06
0.021397194,2.4961912e-06,0.00089398003,0.0,3.1452435e-06
0.017742915,7.80174e-07,0.00055378675,0.0,1.9286717e-06
0.004422084,1.590154e-06,3.923543e-05,0.0,6.7121014e-06
6.4760295e-09,4.972192e-06,7.650128e-06,0.0,1.13918e-05
0.0,1.9764082e-06,1.3756719e-06,0.0,4.847086e-06
0.0,2.0975374e-06,0.00013458129,0.0,1.5824654e-06
0.0,7.669765e-07,2.1874728e-06,0.0,2.6992805e-06
0.0,0.0,3.40657e-08,6.6920855e-08,1.6800741e-06
0.0,1.3147867e-08,0.0,0.0,3.0721486e-07
0.0,3.3511158e-06,0.0,0.0,4.3120675e-08
0.0,1.7026703e-07,0.0,0.0,7.55586e-10
0.0,1.2055868e-07,0.0,0.0,5.532198e-09
0.0,5.6428544e-08,0.0,0.0,3.8171133e-06
0.0,1.5721751e-08,0.0,0.0,1.4165721e-05
0.0,1.5638845e-09,0.0,0.0,3.3428014e-06
0.0,0.0,0.0,0.0,1.7550622e-08
0.0,0.0,0.0,0.0,0.0
0.0,0.0,0.0,0.0,0.0
0.0,0.0,0.0,0.0,0.0
0.0,0.0,0.0,0.0,0.0
0.0,0.0,0.0,0.0,0.0
0.0,0.0,0.0,0.0,0.0
0.0,0.0,0.0,0.0,0.0
0.0,0.0,0.0,0.0,0.0
0.0,0.0,0.0,0.0,0.0
0.0,0.0,0.0,0.0,0.0
0.0,0.0,0.0,0.0,0.0
3.1097336e-08,0.0,0.0,0.0,0.0
4.6824653e-08,0.0,0.0,0.0,0.0
0.0,0.0,4.191994e-09,3.4894154e-09,0.0
0.0,0.0,5.9171077e-09,7.2141393e-10,0.0
0.0,0.0,0.0,2.38033e-07,0.0
0.0,0.0,0.0,2.7559913e-08,0.0
0.0,0.0,0.0,0.0,0.0
0.0,0.0,0.0,0.0,0.0
0.0,2.6822403e-05,0.0,0.0,0.0
0.0,0.0006142312,0.0,0.0,3.0547737e-06
0.0,1.4756791e-06,0.0,0.0,2.0485643e-06
0.0,3.7441885e-05,0.0,0.0,3.7250347e-06
0.0,1.093346e-05,0.0,0.0,9.4626745e-07
0.0,3.546547e-05,0.0,0.0,8.906137e-07
0.0,0.00016604317,2.1345023e-10,4.8031197e-09,0.05631226
3.855577e-06,0.11968625,0.0,2.4301437e-08,0.09166102
2.7391052e-05,3.1099474,1.3060102e-05,0.0007263631,0.22277579
1.237734e-06,4.0473647,5.4324105e-06,0.11122412,2.6060867
1.196067e-06,1.7527157,0.0015429187,1.2594734,1.159695
0.000685322,0.00011116138,0.24498385,0.012436405,0.11650538
0.13762422,0.100957744,2.7820606,0.39894179,0.13584527
0.57992,1.9678593,1.5175726,1.4776207,0.0013505185
4.908152,0.00014737806,0.33936942,0.57259905,5.5999008e-06
1.5667359,0.0019292778,0.12730144,0.9144072,3.975078e-07
0.22156654,9.589101e-05,0.11302495,0.04571331,0.0015884362
1.021939,6.542963e-06,0.022389501,0.2951397,0.5061864
0.359973,1.5954582e-05,0.42456535,0.0084135225,3.615847e-06
0.046545938,2.4850644e-06,0.001628657,0.11657591,0.90887314
0.011670749,2.0823702e-05,9.260068e-06,0.092554964,0.00025226583
0.09411412,3.4750184e-07,0.00028020344,0.0063692206,3.845013
0.04073006,1.6175159e-06,1.3656102,0.004156662,0.15428743
5.751392e-06,2.4602298e-06,0.007578424,0.00063881674,2.712962e-05
1.6828736e-06,2.3770826e-06,1.3883605e-05,0.0127911875,1.6771566
1.0189533e-06,0.017278465,0.0004588341,0.0044736005,0.00024353692
1.6057579e-06,0.00018303694,0.00017614271,0.00042210612,0.06813214
9.3928213e-07,1.5212724,3.3553663e-06,2.6436106e-07,2.2879412
4.838661e-07,6.5246754,2.969475e-06,0.002310508,0.004122148
6.151834e-07,1.1322812,2.406704e-06,0.014472557,0.07821277
6.092567e-05,0.00016451803,1.3201482e-06,0.013901553,2.3976486e-06
0.0011559817,1.0832168e-05,1.1590105e-07,0.00908261,9.2416633e-07
0.231643,1.4355204e-06,5.2425594e-07,0.0047241277,3.413506e-06
0.3264694,5.2807345e-06,2.5791746e-07,0.001228676,6.1867395e-06
0.13316536,2.4610015e-06,4.12931e-06,0.0007523576,1.4618412e-06
8.024543e-05,6.735495e-09,3.1489858e-06,2.3662282e-05,3.40235e-07
1.622309e-05,0.0,2.3369586e-07,3.94069e-07,7.8296443e-07
2.994573e-06,6.92388e-07,2.138378e-07,3.224764e-06,1.1746123e-07
4.226063e-05,0.0,7.3886883e-07,1.0782442e-06,1.8091455e-07
2.7623628e-05,1.4064411e-08,0.0,1.7318761e-06,2.9680966e-06
6.6588797e-09,1.1051833e-06,0.0,5.79102e-07,0.00022435529
8.225136e-07,3.8799344e-06,7.645682e-06,0.0,0.39388523
4.9344965e-07,0.0077487445,3.7124644e-06,0.0,4.1593494
2.7956974e-06,0.00041014512,2.808884e-06,8.3746496e-11,0.9713891
1.3612893e-07,0.4187621,5.6085713e-07,5.2897025e-07,0.7392127
6.4185697e-06,0.009851508,6.6042827e-07,4.3117584e-06,7.1407544e-06
3.531426e-06,2.2413865e-06,5.56907e-07,0.030921604,1.9181857e-06
3.6858373e-06,1.7201253e-06,0.20889932,0.0028939093,3.5547578e-07
0.09190516,2.943545e-07,0.4177096,3.853046e-05,3.5023504e-07
6.2903324e-05,1.090086e-07,0.0025009979,0.0070674364,2.1805624e-06
0.0009039182,1.44997765e-08,0.031826347,0.053466357,0.031577356
0.0050321626,0.05572269,0.58016896,0.073682085,0.11551602
0.005399646,0.0014486546,0.15666597,0.04510151,0.020216633
3.5378962e-05,0.74062055,0.0039303736,2.9559187e-05,0.013936962
0.00093233795,2.0748577,0.030768706,0.0036093912,7.086608e-06
0.065941274,1.1562264e-06,0.013465294,0.00044039244,1.147458e-06
0.39483762,1.3785119e-06,0.0023755324,1.6112376e-07,6.5872314e-06
0.0009877771,3.7658128e-06,0.00019264083,5.259671e-07,0.15104996
2.6767361e-06,0.07105279,1.7943239e-05,2.853606e-07,7.242676e-05
1.0492137e-06,7.5161174e-06,4.856575e-09,2.024284e-06,3.3333095e-07
1.3120885e-07,1.9771713e-07,0.0,9.69183e-07,1.1277656e-06
1.9568745e-06,4.2726492e-07,1.0866582e-08,1.6640934e-06,7.9327717e-10
1.0180241e-08,0.0,4.8151673e-08,9.651317e-07,1.0275068e-06
5.825314e-08,0.0,1.7402506e-07,2.1007091e-08,1.5072388e-07
7.4455464e-08,6.2736575e-07,1.3653318e-08,0.0,4.6120658e-07
2.275705e-08,1.3607235e-05,0.0,0.0,5.1714937e-06
7.260751e-11,2.5243824e-06,0.0,0.0,3.9241033
0.0,3.6397716e-06,1.1339539e-09,0.0,7.471241e-07
0.0,0.0421329,5.0242005e-10,0.0,6.5411296e-05
0.0,0.70297045,0.0,0.0,1.11836835e-05
6.4122226e-08,4.288778,0.0,2.0408482e-08,0.00088322297
1.6893895e-05,0.0062161298,1.1367131e-09,0.0,1.8780543e-06
9.2867616e-05,0.030200204,0.0,0.0,1.9590034e-10
0.3021656,1.0075444e-06,0.0,0.0,8.364087e-07
0.0013048725,1.5677915e-05,0.0,1.5834178e-07,1.5737604e-06
0.0007900729,2.9075509e-06,3.6930123e-06,1.5458674e-05,1.5826645e-06
0.00427655,9.711634e-07,0.028753405,1.1835926,2.182953e-06
0.00044683428,7.2982766e-07,0.24832341,0.1079568,1.4196703e-06
0.0035881675,8.162504e-07,0.06774111,1.6857082e-06,8.4489475e-06
5.3718185,2.7231632e-05,5.5227188e-06,0.0,0.00016659766
1.2874535,3.6817205e-08,0.0,0.0,0.029235002
2.1079495e-06,1.6444908e-06,5.129732e-08,0.0,1.4300417e-06
8.28075e-06,0.06365397,7.397504e-08,2.3427789e-07,1.0078661e-06
0.85877043,1.1623303,5.0618546e-08,1.7688928e-08,3.4987809e-06
0.015783608,3.310997e-08,3.071406e-07,0.0,8.8374935e-07
3.4704883e-07,1.6363866e-07,8.255983e-09,0.0,1.717843e-07
1.2089444e-05,7.493145e-10,0.0,0.0,0.0
0.0011765222,0.0,4.3288528e-10,0.0,1.5193896e-07
8.936034e-05,2.826371e-09,0.0,0.0,2.5275077e-07
0.099331714,3.9654614e-07,9.12466e-08,1.4864789e-06,7.8266817e-07
0.029684441,1.6266249e-06,8.732107e-07,1.1168881e-06,1.2344859e-06
0.00017474183,9.942177e-07,2.3275955e-08,0.0,1.5745093e-06
1.1870804e-06,4.353541e-07,7.753845e-07,1.5273976e-06,3.3775602e-06
1.2441204e-06,9.907253e-07,7.1785604e-07,3.222456e-06,6.3082837e-07
0.000671846,8.3069136e-07,4.6096343e-06,7.632867e-05,7.821558e-08
3.6651635,3.2563358e-07,0.10267656,0.05580144,1.3338682e-09
0.0020566254,6.1852745e-07,0.8596273,4.700274,1.074219e-08
0.000678713,1.1289721e-06,7.677698e-05,0.05655128,1.7506618e-06
0.26116213,5.277241e-06,0.08868204,0.0018302692,6.511609e-07
0.84567344,4.582701e-07,0.16265434,3.645784,1.0137168e-06
2.9612933e-05,3.724326e-06,0.016140275,0.1830657,5.4002617e-06
1.5589567e-06,0.1409724,0.0003938049,0.0001361284,3.0803185
2.371946e-05,0.8804832,3.757938e-06,0.11574746,1.5083686
1.1003867e-06,1.2793633e-06,0.0065544713,5.6999784e-06,7.486616e-07
0.50023913,2.2982026e-06,3.2315522e-06,0.00015031613,2.3694742e-08
0.5982052,5.0590285e-07,0.038546287,2.3095185e-06,1.3226648e-07
0.035824478,1.5439526e-06,0.00044212447,1.7015242e-05,1.4195224e-06
6.1573287e-06,1.1730662e-06,6.891723e-05,4.9034293e-06,2.7684841e-06
0.00016759463,3.9948958e-07,1.5557916e-05,8.332868e-06,4.067694e-07
0.001370359,1.5860866e-06,0.0009679686,3.4012304e-05,1.7992458e-06
0.0004952902,1.004667e-06,9.137781e-06,9.398895e-05,1.0336285e-07
2.917771e-05,7.373347e-07,0.0013922197,1.2043413e-06,2.23312e-10
0.0013586144,8.194759e-07,1.5820889e-07,1.694653e-05,1.4906248e-06
0.2011043,1.1668125e-06,8.500094e-08,7.827468e-06,3.5245778e-06
0.0005328911,9.558595e-07,1.9192098e-06,2.5630802e-06,1.7061985e-06
0.0019722306,2.2886947e-07,4.127258e-06,4.0675263e-06,2.1924598e-07
2.6949454e-06,2.725192e-06,9.3417015e-07,1.7108102e-06,0.0
1.3276952e-05,5.3987814e-11,5.235612e-08,0.0,0.0
2.8611296e-06,2.7066275e-08,0.0,0.0,2.0080615e-09
7.8809353e-07,8.884081e-07,0.0,1.978995e-09,0.0
0.0,6.687559e-05,4.6241864e-09,0.0,0.0
0.0,1.621016e-05,1.515769e-10,0.0,7.4458744e-06
0.0,8.720091e-05,8.67864e-08,0.0,2.3359303e-06
0.0,5.349289e-11,1.2591536e-07,4.0350482e-08,1.1187211e-07
3.4329844e-07,2.5199522e-06,3.783591e-07,9.6936e-08,2.5654094e-06
0.15239646,8.201353e-06,2.3523691e-07,1.5362963e-07,1.9733678e-08
0.0035276897,7.97103e-06,9.6482175e-08,1.5719891e-06,1.3265021e-06
1.0801926,1.4807413e-06,1.8785954e-08,2.7050675e-07,1.1969652e-06
3.157285e-07,3.862002e-06,4.2852653e-06,2.4345602e-06,0.0
3.6646538e-06,7.569753e-07,1.6138407e-06,1.5994282e-06,5.891163e-08
4.767487e-06,0.0,2.1038024e-06,2.503048e-07,2.334533e-06
4.193022e-06,2.2797651e-07,3.5543337e-07,8.657274e-09,8.676722e-07
1.6419651e-06,0.0,1.8601229e-07,1.5126975e-07,3.561813e-06
2.6244638e-06,0.0,7.07439e-07,1.9894082e-07,6.2892475e-08
5.6441468e-06,0.0,1.176898e-06,0.0,0.0
0.00982046,0.0,1.0667263e-06,0.0,0.0
1.0718474e-06,0.0,6.777195e-08,5.603998e-08,0.0
9.4988245e-06,3.5375955e-08,4.9535693e-06,0.0002523874,0.0
4.1818935e-06,1.5210286e-06,2.507016e-05,0.00044957487,0.0
2.8711078e-05,3.5726495e-07,1.3523057e-05,1.8414206e-05,0.0
2.1053567e-05,1.2208645e-06,6.792611e-07,2.040368e-05,0.0
1.545203e-07,0.0,4.3988425e-06,3.5249818e-06,7.189047e-09
7.5325793e-06,9.289732e-07,5.542816e-07,2.7047845e-06,3.158314e-08
1.2754711e-07,4.181779e-06,0.0,2.5803233e-08,4.165751e-06
1.3974571e-07,5.4337403e-07,0.0,0.0,8.128481e-06
1.2438926e-07,7.3689915e-07,0.0,0.0,9.3711984e-05
2.9129515e-06,7.418914e-07,0.0,0.0,5.33587e-06
3.369103e-06,0.00023617501,3.8373212e-08,0.0,1.2928968e-05
2.1362242e-05,0.00031937112,6.805216e-10,8.382833e-09,0.00014227153
2.511083e-05,0.0007952586,8.005831e-08,1.3305695e-08,0.00024019174
0.001107445,0.0007577081,9.865189e-07,2.9249065e-07,0.0015986564
0.0021574644,0.0001571243,1.3985161e-06,2.952149e-07,0.0014717159
0.0007952799,0.022623062,1.7025664e-05,1.500713e-05,0.00010290121
0.001272474,0.13026698,1.2409094e-05,1.0370715e-05,0.00033721543
0.0019566393,0.00295958,3.8320286e-05,2.16736e-05,0.00048137843
0.0042230343,0.11601266,0.00011372918,1.4411405e-05,4.7490077e-05
0.036610004,0.4156899,3.9109545e-05,9.743754e-05,0.0004823954
0.08910631,0.43384287,0.00021688113,2.162785e-05,0.00072047167
0.00061034155,0.5085163,9.146464e-05,5.9269238e-05,0.0046082367
0.00058755826,0.08244921,0.0042753597,0.00016612383,0.052197855
0.0545765,0.007361067,0.00038696858,3.787933e-05,0.038757607
0.2366617,0.00016037328,0.2580379,5.8645255e-05,0.08884337
0.0014464769,0.0003457119,0.00016579217,1.0462415e-05,0.023047704
0.00014027685,0.00049482,0.00027975254,2.2890412e-05,0.009230567
0.0006347081,0.09484541,7.183766e-05,7.31523e-05,0.00047148982
0.0026332687,0.11033526,2.4160465e-05,0.0001605864,0.00033713502
0.0039552595,0.031821415,4.448369e-06,4.420624e-07,7.073766e-05
0.001316466,0.00028390443,0.0012503804,8.930242e-05,0.00029957882
0.0006746529,0.0003376097,0.0002715708,0.00018261446,0.00039480464
0.0016468077,0.00024091206,2.4151219e-05,0.0014633269,0.000102951984
0.0006912967,0.00019080708,0.041687354,0.112375155,3.6700483e-05
3.0621643e-05,9.7965685e-06,0.0010032906,0.0020112426,1.5385462e-05
9.250099e-07,3.3575814e-06,0.0012659723,0.005143949,1.2485572e-05
0.06792888,0.017735545,0.01871803,0.3388659,0.17474972
0.06859695,0.0008001123,0.41733614,0.3579464,0.04900937
0.06490002,4.955815e-07,0.09839589,0.010849312,0.043782964
0.041799124,5.046042e-05,8.6852095e-05,0.019035352,0.05126681
0.03488319,0.8215667,0.07728057,0.034333274,0.038461685
0.06067487,0.0048069614,0.00081991847,0.0008812623,0.5713139
0.050398592,0.12007164,2.6444804e-06,4.9153045e-06,0.19268572
0.0068582795,0.00084269413,3.1789612e-06,0.010624686,0.2484355
0.009215211,1.4113442e-07,1.1596383e-06,0.010558969,0.057879124
0.018302366,1.8773984e-06,5.4222355e-06,0.7475391,6.820241e-07
0.017544264,2.5255201e-06,2.2183607e-07,0.24673963,2.0948457e-06
0.007959905,1.6706623e-07,0.0017274366,3.6999788e-07,1.4414184e-06
0.009591377,0.013746984,2.6128183e-07,7.7553074e-07,3.148414e-06
0.0018820065,0.02774734,3.5273663e-06,4.5365306e-07,6.471643e-07
5.995952e-05,1.3765459e-06,7.3901947e-06,2.3758637e-06,1.972954e-06
3.8617232e-05,0.0041828617,3.160636e-06,5.307732e-07,0.0015023312
7.580347e-06,0.10664564,9.068327e-07,3.072675e-07,0.8786473
3.688439e-05,0.94166124,3.2844862e-06,9.537229e-08,1.7594193
0.00037914026,0.35726482,1.8133918e-06,1.3495702e-06,3.1782103
0.30166167,0.115566865,1.5082419e-07,1.2712368e-06,1.2733544
1.8299288,5.0044473e-06,2.7691087e-07,1.9784445e-06,1.012917
1.4557488,1.2390645e-05,0.11594325,0.0034736653,8.6644314e-07
0.065483004,2.1701446e-06,0.28968498,0.5998836,1.6837752e-06
0.36679325,4.812909e-06,0.5974818,0.33960086,9.36849e-07
0.005599708,3.9598935e-06,0.45160514,0.0066403565,0.002432475
0.03626522,1.9629351e-06,0.16174561,0.25833908,1.606516e-06
0.00014770788,1.0696092e-05,0.17994636,1.06335875e-07,7.1337026e-06
0.0049501304,0.00042444115,8.5893333e-07,5.9863675e-07,0.00034889666
0.042856086,0.10802902,6.5019826e-08,9.5145836e-08,0.0051393756
0.006888461,0.006753057,0.44295222,9.094263e-07,0.075726755
0.0019281893,2.317619e-08,9.289817e-06,9.036095e-06,0.061426442
0.0013548598,8.50927e-05,3.6290346e-06,0.0017681773,0.051052663
0.0031637843,0.80506164,2.674431e-06,0.0038247774,0.035992548
0.0074076536,0.029698458,0.0037086655,0.0040903045,0.03620611
0.0029627427,0.0023102786,0.011383258,0.0075444183,0.03554878
0.0025909329,9.752671e-06,0.004551081,0.010132551,0.03900536
0.012710985,7.700745e-06,0.004186723,0.007673793,0.040404454
0.021751303,1.2678081e-06,0.035891645,0.010050481,0.010002358
0.01177096,0.049314033,0.0350016,0.014029738,8.2802966e-05
0.004030558,1.312067e-05,0.039993487,0.009843535,0.00053891394
0.010022676,2.4072626e-06,0.025400074,0.007543117,0.011995649
0.00051581906,1.5345969e-06,0.035901748,0.007896964,6.51211e-06
1.3070077e-06,7.875641e-07,0.06588913,0.11343734,4.7728927e-06
0.00033669567,0.07689907,0.04326573,0.0035396302,5.9764985e-05
0.067996055,0.07475912,0.015251538,0.008378947,0.0032276707
0.0021507193,0.5548601,0.0010735457,0.009763999,0.15108922
8.7131695e-05,0.022084253,5.7239402e-05,0.026530448,0.41139653
0.00416064,0.0068541914,0.019729087,0.044889286,0.11491787
0.13903469,0.048242006,0.04086074,0.040867053,0.00029089002
0.14840743,2.1850756e-06,8.22178e-07,0.019753786,0.0019710464
0.27646905,1.4814755e-05,8.8313504e-07,0.0045990837,0.001842224
0.20652795,1.689512e-05,1.9061794e-07,0.00010772715,0.0016130877
0.06289316,0.004459287,2.4492845e-06,5.1708766e-06,0.011081165
0.013634877,0.0049503758,4.7036738e-07,0.00059760595,0.004867784
0.2263545,0.025609193,0.25136662,0.015718888,0.025950864
0.1596601,0.028492257,0.045559317,0.16190602,0.11775193
0.13063273,0.23963585,0.01695259,0.00016384754,0.07678611
0.1662505,1.5165669,0.0560818,0.10373517,0.0052812938
0.20568965,0.043823075,0.6774884,0.047446426,0.29508555
1.1751245,0.002360671,1.0177038,0.3018041,0.28787053
0.9584158,0.03819462,1.0240259,0.03563083,0.0082610175
1.0113944,0.002811853,0.87531483,0.0070652193,0.0082811285
0.3511964,1.4110202e-06,0.017596496,0.005653597,0.008857716
0.15873371,9.042905e-06,0.05291832,2.9476943e-05,0.096145116
0.049470898,3.176567e-06,0.038530517,8.569385e-05,0.21276876
0.3630518,2.0968703e-06,0.0054526576,0.0052003074,4.2117017e-06
0.76693225,1.06705244e-07,0.0069854488,0.011828086,2.6604946e-06
1.2312273,1.6857233e-06,0.01264203,0.009435668,2.516213e-06
0.36073294,1.4312639e-06,0.025930477,0.077428974,1.5746982e-06
0.18659864,4.186409e-06,0.050213184,0.12143898,1.0707954e-06
0.08520137,8.705442e-07,0.07114642,0.16948816,8.2609e-07
0.11003391,5.1121197e-07,0.058241766,0.08985069,4.801213e-07
0.05818765,1.0661271e-06,0.012256769,0.04965418,1.2326783e-06
0.06273829,7.280002e-06,0.00045749976,0.02616517,9.571156e-07
0.05856294,6.436913e-06,1.4869575e-07,0.020111142,1.3195897e-07
0.03206293,4.4206314e-07,5.250729e-07,0.0044168066,9.039423e-07
0.0018985395,1.0682706e-06,7.175116e-07,7.051558e-05,5.907013e-07
8.2110496e-08,2.3735297e-06,9.239701e-05,4.502865e-07,6.6481064e-08
2.0094335e-07,3.6722975e-07,5.29271e-05,3.2577304e-05,0.0
1.4352178e-06,5.273024e-05,0.0016954012,0.00012523642,6.109187e-07
1.6304144e-05,0.00072202063,0.00612839,0.00015023812,0.00065207586
0.0010874555,0.00038335452,0.0029461863,6.0928523e-05,0.00065808586
0.0063275094,0.00032394702,0.0006112225,0.0007468001,0.0002655327
0.009466897,1.0189643,1.167387e-06,3.0105246e-06,0.0033132439
0.019015899,1.7108816,4.1251515e-06,5.8618975e-06,1.4071431
0.039994553,0.9997447,4.3797395e-06,7.3556953e-06,2.320092
0.0038031342,0.37847224,1.14561495e-07,7.890801e-06,1.0110343
0.007751498,0.20362245,0.00079969136,0.0034631179,0.076396964
0.64588785,0.051238723,0.09750128,0.3611972,0.3193184
0.8437426,0.022503221,0.5279828,0.4373186,0.0002875606
6.585137e-06,0.010535216,0.044032674,1.7467458,1.3468501e-06
0.026507484,0.0075600287,0.78065586,0.03782201,1.0342884e-06
0.22719796,0.07007579,0.16119292,0.029672848,2.614001e-06
0.31292716,0.5804515,0.22057039,0.108864024,0.31568995
0.87056166,0.23684157,0.74303275,0.103346005,0.6284167
1.469427,0.060984742,2.0702267,0.2178362,0.27977484
4.577435,0.6761678,0.5918981,0.88067484,1.2636713
6.238452,0.11217083,0.6406233,0.43752456,0.13880953
4.132635,0.02796216,0.11918071,2.3190768,0.041847214
1.5562934,0.036330376,0.1662338,0.37643927,0.040958572
0.17003928,0.018514343,0.38236895,0.032302298,0.025653835
0.07023248,0.0022835801,0.21344309,0.06601159,0.006106597
0.044572916,1.2877201e-06,0.18561886,0.06159355,0.002408362
0.021406693,2.9889998e-07,0.17878129,0.067936465,2.2983912e-05
0.012911221,0.0,0.19579168,0.047399454,1.949308e-06
0.010930333,2.4183597e-08,0.101867944,0.017615674,5.0380913e-07
0.02002247,1.4573396e-08,0.016527154,0.0031867058,1.6640304e-06
0.029215006,0.0,0.0052839955,0.00058606477,1.3298206e-06
0.017923271,0.0,4.8477964e-06,0.0015983665,1.4889824e-07
0.0021291252,0.0,1.6299731e-06,2.2816152e-12,1.0839357e-07
0.00013375761,1.7534907e-08,1.9339966e-07,0.0,1.7368926e-06
1.6596017e-06,1.9169227e-07,1.6995117e-06,4.7979963e-08,2.312404e-06
2.4015956e-06,1.9935707e-07,8.569656e-07,2.721721e-07,1.0221393e-06
2.2686173e-07,1.6569518e-07,3.3047204e-06,7.5851665e-07,8.2778456e-07
1.219446e-07,6.2499935e-06,2.2312267e-06,8.47888e-07,2.5765763e-07
2.3488603e-07,2.1008102e-05,1.6815793e-06,3.5844291e-06,4.1940157e-06
3.9363645e-06,6.571726e-05,6.339292e-08,5.5592136e-07,2.3470511e-05
9.337468e-07,0.0015757706,9.10409e-07,1.1324154e-05,4.4841545e-05
4.0142504e-06,0.0066322964,2.6215108e-07,5.692738e-07,0.010420338
0.007769453,0.0030293083,7.0646706e-07,1.2269828e-06,0.050172467
0.17020358,0.113088556,5.270844e-06,1.3566683e-06,0.7699642
1.0783277,1.5552936,0.0345374,0.2807209,2.6974733
0.25528657,0.7260103,0.04037466,0.10081213,3.1357992
0.6796161,0.27954072,0.0741234,0.06229497,1.2170851
1.0700705,0.21907896,1.6836697,0.8760615,0.26221183
0.19148533,0.26816842,1.2036694,1.2347827,0.22302523
0.36976105,0.1466247,0.18720303,1.5688738,0.32200074
0.2661575,0.1474949,0.007830492,0.21581645,0.4527057
0.14163329,0.013624452,0.00239147,0.16926743,0.1265788
0.022409964,4.4141046e-07,9.102643e-05,0.20062625,5.926775e-07
0.0014561694,6.139906e-06,0.013123783,0.113102496,3.0176042e-07
0.07096946,2.6033529e-06,0.348551,0.17176828,7.5424487e-07
0.0010380603,4.821613e-07,0.44545016,0.31006053,1.9967558e-07
0.0011885491,3.93838e-06,0.08485675,0.05754121,2.8669587e-07
1.1140514e-06,4.2414658e-07,0.25306243,0.0014376272,5.967952e-07
1.7207279e-06,6.1027185e-06,0.038702305,1.3187939e-06,6.143203e-07
8.7927106e-07,4.444041e-06,3.167914e-06,8.8300106e-07,7.4612655e-07
1.0496524e-06,4.8174365e-06,2.5445794e-07,8.751269e-07,2.313421e-06
6.5665276e-06,2.7233775e-06,2.4215876e-06,9.595328e-07,3.0632473e-06
5.281667e-07,4.5196066e-06,1.0448151e-06,1.6298826e-06,3.0346519e-06
1.7726649e-06,1.9757617e-06,2.4157328e-06,2.0107618e-06,4.8156826e-06
1.0905908e-06,1.1999791e-06,1.0726018e-06,9.423888e-07,1.9910312e-06
3.3457866e-06,0.0746429,3.3261304e-06,9.0803314e-07,1.1855925e-05
3.1661987e-06,1.772068,8.9388504e-07,4.7726246e-07,0.7419152
1.1445123e-06,0.062961966,1.696348e-06,1.5088459e-05,0.40107402
5.0524454e-07,0.060987324,8.923153e-06,1.2005649e-05,3.2204155e-06
3.0871196,1.3388826e-06,3.5315443e-05,4.9859085e-05,3.18755e-06
0.8510771,0.38939866,1.7728844,1.8044943,4.172811e-06
0.046840467,0.2187564,2.6106937,3.1385875,7.927571e-07
0.016570307,1.5577778,0.33614573,0.037399188,4.9469377e-06
9.052896e-05,0.24847919,0.43597484,0.008400175,0.025276609
0.2592025,0.00013335387,2.7881322e-07,5.672961e-07,3.1980095
0.008081586,2.376908e-05,0.32954597,0.01499697,1.2228592e-06
0.006866108,2.709062,0.6858756,0.65033066,1.8911039
0.0013878483,2.844057e-07,0.32499838,0.85333127,3.101254
6.250401e-05,6.0486633e-07,1.134264,1.7844969,9.889176e-07
0.00023610979,9.2603495e-06,6.284027e-07,0.008746882,0.98036855
2.7123468e-05,1.7141123e-06,9.566078e-07,2.8654209e-05,0.00021286601
7.5969845e-05,1.3521269e-06,7.78752e-07,9.958615e-07,3.1880083e-06
2.2193333e-06,0.005981959,1.6659025e-06,2.1306184e-06,0.0061209835
7.111672e-06,0.0441642,4.3550904e-07,2.7650892e-06,0.023657916
8.326546e-07,1.0332664,1.5566937e-07,1.9095398e-07,0.58553517
6.034309e-07,0.07914331,5.1139926e-07,6.530996e-06,0.10828585
8.970508e-07,1.1890532,4.0359078e-06,0.0008269804,9.81644e-05
8.637291e-06,0.5086225,6.2096437e-06,0.20053498,0.003244192
5.5367946e-05,0.27132773,7.739296e-06,0.3536206,0.008269298
0.00032354216,2.1569884,3.8862763e-06,0.014905022,0.97085994
0.00048156412,2.1176414,3.383109e-06,0.0014685352,1.0157306
0.020368848,0.7113813,3.486048e-06,0.0023700711,0.62627983
0.91302603,2.5681098e-05,9.4356994e-07,8.587676e-07,0.61158854
0.3045734,4.98844e-06,9.769088e-06,0.0069960775,1.0042464
3.0399592e-06,9.213708e-06,3.4205839e-06,0.014296187,1.0226971e-06
