"[299, 255]","[227, 248]","[287, 319]","[279, 328]","[230, 262]"
2.6031915e-07,6.6601366e-08,4.6509895e-06,6.422386e-06,4.5180664e-06
5.027999e-07,1.1879806e-06,1.7348937e-05,2.3354735e-07,6.265451e-07
1.7712429e-07,1.12811435e-07,2.3276502e-06,3.2397136e-06,9.801314e-07
6.9881395e-08,1.4705781e-05,2.7105484e-08,4.813232e-06,1.9673415e-07
1.0622679e-07,3.3356055e-06,4.5713702e-07,8.362907e-08,0.00040030896
3.0690271e-06,0.03376838,6.6897195e-07,0.0,0.10395801
9.17942e-06,0.06412488,2.6598408e-07,3.6845782e-10,1.0268608
2.7771034e-06,0.05673801,3.5831837e-07,1.487265e-07,0.50922275
0.038505368,0.3103529,3.6823616e-07,3.2585777e-07,0.49582806
0.74331176,0.9957292,3.9234345e-07,2.695856e-07,0.4420154
1.7415825,1.8987609,6.081696e-07,2.249438e-06,1.3254468
1.1205472,2.8825586,6.071529e-07,5.733468e-07,1.9799376
1.5692896,3.4307013,0.03259272,2.2825794e-05,4.2117696
1.8501385,2.3930206,0.2848995,0.12512,7.030021
0.9336685,3.1908324,0.7687823,1.5745445,1.8975847
0.26876676,1.3688287,1.2507031,0.6155749,1.9091394
0.4636029,1.0401884,2.763567,1.2387868,2.9533396
0.18992886,0.44855955,2.319308,2.056385,3.6091917
0.21514308,0.4518585,3.109972,0.70432836,2.4592743
0.6195648,0.06631744,4.599255,1.6962825,0.053212173
0.1988029,0.0072297566,5.1252174,1.7869037,0.004926144
0.0177167,4.849836e-06,0.936304,0.1516832,0.011074811
0.03542702,0.00654897,2.9476807,0.39431256,0.06362852
0.017897597,0.0015245309,0.062259834,5.8544516e-05,0.03465775
0.0765691,3.764645e-05,0.036737815,0.0097843725,0.014024689
0.024258604,3.7207928e-06,0.00069867785,1.3209038e-06,0.0036683006
0.29318485,5.0018434e-07,2.8009867e-07,2.1669873e-06,0.00299669
0.28936362,0.024118869,1.5425729e-06,1.7404996e-06,0.00010416516
0.35686278,0.065524824,3.9443444e-07,9.540028e-07,0.0006588222
0.13610059,1.814954e-06,8.944064e-08,7.9480213e-07,0.0017039933
0.10553655,0.0033765887,2.940589e-07,1.1065664e-06,5.777954e-06
0.078137465,1.5624521e-06,1.2406967e-06,2.2131308e-06,0.030630244
0.080758825,2.2847807e-06,1.2391612e-06,2.8759903e-06,0.016547479
0.13091835,1.3779571e-06,2.4285714e-06,6.3552926e-07,0.055060193
0.01910275,6.6465395e-07,1.6339809e-06,1.4105038e-06,1.0359643e-06
1.6183847e-05,3.9935244e-06,3.0188785e-06,2.111917e-06,1.4941581e-06
2.0120328e-06,0.05340576,9.3217386e-07,4.060084e-07,0.009616052
0.0045580063,2.8926745e-06,2.232233e-06,2.8758793e-06,0.0066361832
1.0536159e-05,6.540164e-06,1.1037893e-06,1.8483455e-06,9.57565e-07
2.5794688e-07,5.0503394e-07,1.5669908e-06,4.2947304e-06,1.4566965e-06
1.6361389e-06,4.0024293e-06,5.430122e-07,1.121498e-06,3.2862422e-06
0.030202698,8.4757164e-07,1.1427247e-06,2.2077852e-06,2.7931285e-06
0.024064645,8.2927494e-07,5.601536e-07,3.5850435e-06,7.303523e-07
0.36469597,0.15577391,1.9500355e-06,2.7762283e-06,1.6639306e-06
0.43966818,0.4069887,3.4872896e-06,3.252237e-06,0.4110535
0.8890764,1.0939797,2.8998638e-06,0.00012286323,0.5592638
1.3793966,2.7228174,5.286783e-07,8.9817615e-05,1.8095847
1.02111,3.3165154,0.04754934,3.137673e-06,2.3116891
1.9813524,4.9530363,0.23165081,0.00086892565,3.108297
0.69806933,3.4648278,0.33194706,0.71382254,2.2768168
1.1352203,4.6692004,1.6440611,1.0848631,5.282418
0.67573607,1.9103658,1.7683636,1.9218638,6.022189
2.705585,0.5613375,2.0605702,3.0602286,5.8803506
0.29772925,1.3347659,1.661169,1.3691956,5.1039433
0.1245122,9.946853,4.557956,3.5156813,1.3406283
0.035357546,0.61613345,1.4299968,1.5609109,6.4959183
0.28871676,2.128523,1.4142115,0.49207178,4.6469965
1.7367458,11.062226,0.6082798,0.21107398,8.604499
0.018234598,1.3719496,0.9964094,0.008214321,5.075215
2.8288229,4.1762347,1.9773892,0.6559246,2.925333
0.97819626,0.498537,1.5916464,1.3831078,0.083234325
0.24500926,1.540328e-06,1.9760666,1.888179,5.1042966e-06
5.154932,1.2683234e-06,5.217206,0.66918784,8.785738e-07
1.3207632e-06,0.06673805,0.71045405,1.0044868,3.2906703e-06
0.00017316757,0.15169097,0.064264506,0.8045059,0.59349954
0.013094789,0.19461189,1.6477171,0.2940765,0.54805726
0.18714842,0.31018084,1.4595523,0.052135386,0.75863075
0.21417816,2.2464085,0.80509394,0.37053847,0.74654114
0.4703647,1.9086549,0.32642213,0.007481621,0.5385389
0.726053,0.088780366,0.49797636,0.019123536,0.87913615
0.03914548,0.020036373,1.0584667,0.2662596,1.5036587
2.5954592e-05,3.183553,1.0979999,1.6868511,1.6906055
0.006836132,2.4814491,0.8975556,0.9209739,1.7667315
0.12764424,0.03228529,1.1898136,1.6524166,3.41929
0.10731625,8.473383e-05,1.8612075,2.7776673,2.2079203
0.21688683,0.24841365,2.5370932,2.7861264,0.13299748
0.2381942,0.4384705,2.7792785,2.0658503,1.2834972
0.06137539,1.8187656,0.7542465,0.9787742,2.0325656
0.19867219,1.5574293,1.4589318,0.97299576,2.5884602
0.005304295,1.3084834,1.4440646,0.976318,3.0142922
0.0009044578,1.4433897,0.30562884,0.13975589,3.3369744
0.069139704,1.4641985,0.09217895,0.80892414,3.4704201
0.6008385,1.0687374,0.9772691,1.7997105,2.4205759
0.7431929,0.61623645,1.1554267,1.2691878,1.6604638
1.8647563,0.8997817,1.6248764,1.6996332,1.6087394
2.754498,0.08899442,0.94616127,1.5652078,1.4637243
2.5334065,0.9755872,0.9612111,1.1133888,1.2170806
1.7672672,2.225664e-06,0.8145373,1.2346091,1.241229
1.6211648,0.04231212,0.5786561,0.58872,1.2616982
2.4529953,0.2676775,0.10749525,0.13334857,2.593197
2.3260138,0.007623959,0.0001429938,0.038336292,0.3463211
1.2322797,0.06564238,1.6332866e-06,0.026225558,0.7716689
0.7258436,0.015970627,1.873419e-06,3.672988e-05,0.015159225
0.24160343,0.01728,1.04913615e-05,2.0046451e-05,0.03216196
1.1023607,0.0040855277,7.430646e-05,0.0031743883,1.30847e-06
0.46574134,2.1544752e-06,4.6393952e-06,3.2254047e-07,2.365376e-06
0.0006996978,2.9152764e-06,1.6546205e-07,1.027716e-06,2.6583339e-06
0.030663058,4.7293197e-06,2.8625004e-07,3.0969122e-07,3.678634e-07
1.1315361,2.5500408e-06,1.4899844e-07,1.0524996e-07,1.5334507e-06
0.015071539,7.153449e-07,1.4115233e-07,1.4794483e-07,4.805169e-07
0.0006569276,1.6024917e-06,4.562603e-08,2.0748022e-08,2.5905867e-06
0.0057580583,0.0005048503,5.0069694e-08,3.0653467e-08,2.1101364e-06
2.4307494e-05,0.03244482,7.4582594e-08,7.6377626e-07,1.842959e-06
4.6921095e-06,1.2567529e-06,2.4527688e-07,1.534275e-06,2.2917357e-06
5.8916853e-06,2.1180767e-06,1.612037e-07,2.9726093e-07,1.1186096e-06
4.1181675e-06,2.46402e-06,4.1887634e-07,2.1535931e-07,2.2003708e-06
0.09455389,9.4055275e-07,1.7013924e-06,1.0500344e-06,4.7884128e-06
0.014985961,2.8407053e-06,2.727205e-07,1.9576273e-06,1.93211e-06
0.17483473,7.8498533e-07,7.8303816e-07,2.429829e-06,1.5399654e-06
0.0024477954,4.776625e-06,1.410226e-06,0.038650308,5.9059545e-07
1.5095572,8.936299e-07,1.1055065,0.07070968,7.8513006e-07
6.8029436e-07,5.404315e-07,0.5081813,0.0005701988,4.154224e-07
3.9825904e-06,3.338589e-07,0.3506064,5.515656e-07,6.1989945e-06
8.403456e-06,7.943838e-07,4.6259433e-06,1.491101e-06,9.9536475e-05
4.735042e-06,2.2393717e-06,1.2894617e-06,2.1076276e-07,5.601783e-07
3.9218895e-07,3.2918904e-06,4.1955033e-07,0.08519309,3.0361884e-06
8.742141e-08,0.036284987,0.0011904661,1.25082e-06,8.7466855e-05
1.4484368e-06,1.3428222e-06,9.3778567e-07,5.466094e-06,0.22660567
1.3482815,2.9743144e-06,5.922301e-08,5.8075983e-08,1.0828947
0.17422917,9.081833e-05,9.3194393e-07,5.501556e-10,2.3256825e-05
1.9339992e-05,1.3455708e-06,1.4393335e-07,0.0,4.727603e-06
3.752904e-05,5.351555e-07,2.1970703e-07,2.4190074e-08,1.0743893e-06
0.0005552019,1.1837698e-06,8.3400346e-07,3.0335596e-06,1.1266844e-06
0.0004937549,9.3812235e-07,2.12335e-07,3.6281458e-06,9.4143365e-07
7.4975236e-05,5.0248576e-07,8.766141e-08,4.9134286e-07,4.9707035e-07
0.0065948577,4.5659257e-07,0.0017751594,1.6079407e-07,7.709112e-07
0.0052539934,0.0,4.6858283e-08,5.6238133e-07,2.669094e-07
6.231078e-06,7.6159315e-11,3.9698702e-07,1.6898998e-06,1.5933747e-07
6.8663044e-06,1.5444944e-07,1.0509046e-06,2.4678859e-05,2.1451633e-07
0.00011169515,6.732486e-07,0.6727745,0.15751213,1.5187746e-07
0.36076978,1.104656e-06,0.0045749648,0.014171341,8.546261e-07
0.0007576613,1.4365147e-06,0.49932134,0.049236055,8.708029e-07
0.14152835,0.00045819604,0.0062152077,2.4078906,4.8749615e-07
0.5661582,0.2544325,0.56434965,3.677778,0.0757007
1.9361325e-07,0.08809836,1.715042,0.00011730379,3.57225e-07
1.8619386,0.6974068,0.000114867275,7.984454e-05,6.2249924e-08
5.5904937e-05,1.004634e-08,0.025632178,0.0006743799,2.1979547e-05
3.0720978e-06,0.012430296,0.005840897,0.00079217914,0.27163753
3.1775917e-06,6.6131e-06,0.5844781,0.65646553,1.6687814e-05
1.4634898e-06,8.863115e-07,0.29519245,7.614828e-06,1.516053e-06
5.6357503e-06,4.1294306e-06,7.845042e-06,3.8927345e-07,5.298186e-07
1.705748,0.0015093001,6.849429e-07,1.616726e-07,6.330205e-05
0.16131696,6.0036194e-07,1.943618e-06,7.6885163e-07,4.4735943e-06
1.4468867e-05,1.9020713e-06,1.1136197e-07,1.6573802e-07,1.0469573e-06
8.5586275e-05,1.3265267e-06,9.019709e-08,3.1328992e-07,2.7366377e-06
0.0002062856,8.0138796e-07,1.9806242e-07,2.903203e-06,8.900785e-08
0.0946021,8.111022e-07,2.2220333e-06,7.465423e-07,3.1338254e-06
4.063623e-05,1.3321845e-06,1.7782191e-06,1.5067942e-09,9.94895e-07
1.2477409e-06,4.0881568e-07,1.2472902e-06,0.0,1.170323e-06
7.93678e-07,1.8822284e-06,5.1408966e-07,0.0,1.4755788e-06
2.804983e-06,1.55447e-06,3.194334e-07,5.3150293e-06,5.488894e-07
3.538435e-06,1.5202711e-06,3.3296672e-06,9.234189e-06,5.139733e-06
6.221826e-07,2.8236618e-06,1.1174245e-05,2.0681214e-06,3.169887e-06
1.4305534e-06,1.0691798e-06,1.2407938e-07,1.7466598e-06,0.00023749325
0.024064785,1.545775e-07,7.6904365e-07,3.236885e-06,0.19747846
0.17380007,0.0,2.7561452e-06,0.00045045215,0.0032654947
0.00091322884,1.8921882e-06,2.5686642e-05,2.6478736e-05,9.219686e-07
0.06166599,5.60328e-07,0.00030080153,4.850559e-06,2.571126e-06
0.079247564,1.6476662e-05,0.021297408,1.2430369e-06,9.385801e-07
0.12046145,1.9150451e-05,1.3097839,9.889206e-05,1.5598944e-06
9.550745e-08,9.063623e-07,0.00037290144,1.3183702e-05,1.572678e-06
2.103736e-06,2.0465777e-06,1.5429238,1.3752282e-06,1.7831333e-06
7.5241064e-07,1.9872389e-06,0.19520552,4.296441e-06,2.7678498e-08
3.9440317e-07,1.4162322e-06,4.858427e-07,0.1540906,0.0
7.189509e-08,1.1555637e-05,2.4320107e-07,0.42145,0.0
7.753179e-07,3.5224402e-05,1.1261506e-05,1.5904615e-07,4.7391634e-08
3.664539e-05,0.0,2.206039e-06,9.41325e-10,2.0688603e-06
0.0011855264,8.470992e-07,0.0,0.0,1.2456753e-06
0.00021503038,0.0,8.1465945e-11,0.0,0.00031228492
6.0445313e-07,3.932851e-06,0.0,0.0,0.00018943347
2.5057761e-06,1.2240473e-06,0.0,0.0,2.2703126e-08
7.9162584e-07,1.1240681e-07,0.0,0.0,8.5189845e-07
5.2935457e-07,9.219584e-07,0.0,0.0,3.8340133e-08
3.7560735e-06,2.1080828e-06,0.0,0.0,5.5151856e-09
2.6256036e-08,1.5538694e-08,0.0,0.0,6.1529465e-07
0.0,0.0,0.0,0.0,3.704441e-06
0.0,0.0,0.0,3.320334e-06,0.0
0.0,2.1783758e-06,0.0,2.969933e-07,0.0
5.2378146e-09,0.0031436894,5.350761e-09,4.7842116e-07,0.0
1.853655e-07,0.028235149,3.7348833e-05,0.0,0.0
1.1101142e-06,0.024219608,2.6623255e-05,0.0006145347,7.1490254e-06
1.3865542e-07,0.00013636163,1.0924336,6.595071e-05,5.198529e-05
2.1803306e-09,0.00025585148,0.14664929,1.9822677e-05,1.6363369e-05
2.1872604e-06,2.6519618e-07,9.766535e-06,3.5800422e-06,4.855687e-08
3.7143907e-06,0.0,1.203495e-06,2.1191958e-05,5.2743543e-10
2.8274176e-06,0.0,0.00073724805,5.4928537e-06,0.0
3.7783157e-06,0.0,0.0012844908,2.2767527e-07,0.0
3.2988478e-06,0.0,8.831548e-07,6.7599117e-06,0.0
0.0,1.3971635e-07,1.9119536e-05,0.0,2.7660165e-06
1.14433135e-07,1.5480593e-06,6.805375e-08,0.0,1.16464214e-07
8.604142e-07,3.6471442e-06,0.0,0.0,0.0
0.0,2.2114837e-06,0.0,5.467335e-07,0.0
3.8452047e-11,2.0320163e-06,3.0899695e-08,1.2424143e-06,1.7941989e-07
2.681498e-07,2.2862964e-07,1.2882359e-08,4.1179052e-07,1.5396163e-06
1.7553332e-07,6.25771e-07,8.158324e-07,6.9419264e-05,2.479049e-07
9.39225e-07,1.33377935e-05,0.60897857,0.04423594,2.7759206e-05
2.6304922e-06,2.1499893e-06,0.062322516,0.42044964,0.021714987
1.3439048e-05,1.282108e-06,3.6387585e-06,4.9272992e-05,1.1341565
0.0015114722,0.00014903159,3.3454794e-06,1.8098504e-07,0.19150074
6.982753e-05,1.1054741e-06,2.903303e-06,9.984713e-07,1.0142138e-06
0.022701852,1.9911915e-06,1.0237295e-06,1.3465763e-06,2.3528146e-06
0.0015559739,7.281612e-06,9.163084e-07,1.1266334e-06,1.7116981e-06
2.9757009,7.993768e-06,0.0016100913,0.0004898794,1.382685e-06
0.003341348,0.6916224,0.0069126994,0.00033215233,2.292352e-06
0.049738307,0.038876537,0.0017170499,0.013177269,1.8553889e-06
0.032310627,1.6298783e-06,0.021271268,0.00046927485,2.5442344e-07
2.289126e-06,8.652193e-07,0.00044417396,0.032680545,1.3902863e-08
5.9093986e-06,2.9892103e-10,0.4248008,0.21593508,0.0
4.3596247e-06,0.0,0.023552008,0.21534742,0.0
0.26035792,0.0,9.474525e-05,0.010492735,0.0
1.4092901,0.0,0.14060526,7.3632655e-05,0.0
0.5237656,0.0,4.6366287e-05,5.11989e-06,0.0
0.40118587,0.0,0.0012254557,0.0017964104,0.0
0.025537878,1.419978e-08,9.127979e-06,0.014479762,1.1680369e-06
1.5379297e-06,1.8489613e-06,3.3455965e-06,1.7806642e-06,6.7055953e-07
9.141204e-07,3.803961e-07,2.5494867e-07,1.0146781e-06,2.1944657e-06
0.0002683941,1.7877123e-06,4.86266e-07,1.3005911e-06,0.00023187493
0.0056400234,8.3207615e-06,1.2280877e-05,1.0265027e-06,0.05723293
0.0027454973,0.0009738381,1.3136979e-06,2.4745386e-06,1.1892367e-06
0.00049495196,0.05865249,9.244145e-06,1.6352442e-06,1.5888698e-06
0.00084927,2.225019e-08,1.6816517e-05,1.6534172e-05,7.3848764e-07
0.0033210926,1.2372302e-06,2.2323018e-06,1.5130752e-07,9.5296593e-07
1.5695205e-05,2.6828084e-07,5.1335055e-06,0.0,8.3294475e-07
0.0,0.00026979664,1.2281819e-06,0.0,9.440946e-07
7.2579764e-10,2.253908e-07,0.0,0.0,1.0509924e-06
5.7993347e-08,2.4792922e-07,6.1597616e-10,2.9288222e-08,1.04066274e-07
1.066044e-09,1.5871851e-06,1.0434452e-06,4.368765e-07,9.632937e-07
0.0,2.7305526e-07,3.8339704e-07,1.8837089e-06,0.21778303
0.0,0.0,3.3834308e-06,2.167178e-07,0.1660188
1.7659596e-06,3.0104648e-05,0.0018630832,0.000104004066,1.9956911e-05
1.0860564e-06,4.0673217e-06,0.042334545,0.00073121703,1.4262984e-06
8.1513326e-07,0.0044607767,0.08974765,0.00016217241,9.542065e-07
0.02732314,0.119811654,0.43661463,7.8990124e-05,4.7123494e-10
0.12557189,1.8742449e-07,1.3990324e-05,9.633951e-07,0.0
0.043819997,3.395708e-08,2.9397482e-08,2.5226194e-07,6.390762e-06
0.0028399266,0.0,0.0,2.3759393e-08,0.0
1.7623851e-06,0.0,6.2483537e-07,2.3471514e-06,0.0
4.396232e-07,0.0,1.3961645e-06,1.2576393e-05,6.2531535e-07
0.0,1.2865067e-06,3.0581673e-06,5.5856134e-07,1.7846984e-06
0.0,4.872946e-06,8.006707e-07,2.790213e-07,0.38676643
0.0,0.18939506,5.4799125e-07,8.888343e-08,0.0006559596
0.0,0.09454516,1.3415436e-08,9.609107e-08,0.0
0.0,0.0,1.8853784e-07,1.3251317e-06,0.0
6.9645824e-07,0.0,2.3770149e-07,6.782883e-07,0.0
1.419379e-07,3.101438e-07,2.7495098e-05,2.159918e-06,1.6624929e-06
4.944024e-10,0.0020083536,8.451443e-05,0.018692378,1.8387513
1.7137118e-08,0.071736194,8.03854e-06,0.17484663,0.077795774
8.908064e-08,0.05843187,1.4781588e-06,0.0080361515,0.036361355
5.5087907e-07,0.68292373,6.3936574e-07,0.044782758,1.0672101e-06
1.7200099e-06,1.1819118e-07,3.0367715e-05,0.00026127425,1.9492284e-06
1.7207018e-06,5.7479537e-07,3.2474718e-06,0.20846257,3.132618e-07
1.0101867e-06,1.9977365e-06,3.0923828e-05,0.013874841,7.841682e-05
4.6642964e-07,1.4855734e-06,0.00010473248,3.0937324e-06,5.106647e-06
2.1336446e-06,2.1399653e-06,0.011687415,1.7168311e-06,1.4613029e-06
3.2746408e-05,1.6712646e-06,0.008887257,0.010928157,5.854312e-08
0.025287034,9.2014415e-07,6.259559e-07,0.04738703,0.0
5.218683e-06,1.6596455e-06,1.1567154e-06,6.4841123e-07,7.2227294e-08
1.0291961e-06,1.1070906e-06,1.255673e-05,7.1006264e-07,0.0
1.4275627e-06,2.1246557e-10,1.3286292e-05,5.2873776e-07,0.0
6.939037e-07,0.0,8.730592e-07,1.057264e-07,0.0
1.1290194e-08,0.0,2.860039e-06,6.0015475e-07,0.0
0.0,0.0,6.952195e-07,4.765734e-06,0.0
2.4140078e-07,0.0,3.5854484e-07,2.0738199e-07,0.0
1.0401018e-06,0.0,0.00051342405,8.6603455e-07,0.0
2.2629072e-08,0.0,0.2674252,1.1774719e-06,1.5263868e-09
9.109644e-06,4.022094e-06,0.0027835774,1.9193046e-06,2.7722542e-06
1.1618393e-05,1.8976804e-06,1.3429892e-06,2.2142292e-06,3.7747265e-07
1.559105e-05,2.0229993e-06,8.3111837e-07,1.1274203e-07,3.7153736e-06
2.2745542e-06,2.3456516e-06,1.0170297e-06,7.5405865e-07,1.3551904e-06
4.1418325e-06,9.258648e-07,2.2490309e-07,9.577024e-08,1.6857506e-06
2.5539822e-07,4.8073014e-07,5.7349894e-07,1.006424e-08,6.5068036e-07
2.2464815e-07,3.4516938e-06,0.0,0.0,8.0314504e-07
8.906875e-08,6.414201e-06,1.2648162e-07,1.6381989e-08,1.7233593e-05
2.0064974e-07,0.00021500551,2.1043747e-06,0.22542864,7.737502e-05
1.2140652e-06,0.000326685,2.618794e-06,1.0419399,8.2901075e-05
6.8856673e-07,0.00071735634,0.15637769,0.000118092954,0.00045255106
3.7647737e-06,0.00092835724,1.741724e-07,1.486203e-06,0.00032936715
3.4862333e-05,0.0016241594,4.1835633e-06,0.012533582,0.00047798094
3.5340358e-06,0.0010186577,6.95355e-07,0.0039501176,0.0012526949
9.121903e-05,0.0051893536,3.571974e-07,9.102209e-07,0.0014860166
1.7422954e-06,0.0039159223,4.555623e-06,2.2414195e-06,0.19738398
5.106252e-06,0.057951372,2.4168889e-05,5.454209e-06,0.06919266
4.523557e-06,2.8198972,8.8326866e-05,5.280603e-06,0.6329456
6.3518365e-07,0.9261605,2.0403035e-05,0.0014425386,2.2934148
0.0018861999,0.8051045,0.005846607,1.9377203e-05,0.3924173
0.053001735,0.00015683295,0.0070162104,0.00011794349,0.29937834
0.28016356,0.006858104,0.70123494,0.5289148,0.2097517
0.73416376,0.051467385,2.1132412,1.2322937,0.10437767
0.24388784,0.10737853,1.1715165,0.6038345,0.09198384
0.48460755,0.2630664,0.37340853,0.6332598,0.11753345
0.35911474,0.21476704,1.1849208,0.51666766,0.18888271
0.40161216,0.20166004,1.2409827,0.5360955,0.32735845
0.42872196,1.8261253,0.9921317,0.063234165,0.74013895
1.6116538,3.8674507e-06,0.08887319,0.062934436,0.006330966
3.3286886,5.842221e-06,1.4244717,0.58033144,7.736259e-06
0.19270866,0.02390132,1.5512635,0.70261955,0.21888897
0.312947,0.36246467,0.3132655,0.7503866,0.31087995
0.7732578,0.5037279,1.7664514,0.025747973,0.167502
0.58109033,0.19362396,0.94717413,0.32181194,0.18049736
0.22642559,0.94436044,0.38081664,0.19023913,0.58969826
0.08295384,0.04280241,0.01080862,0.0002951042,0.12659167
0.18028511,0.020582953,1.9542747e-06,0.00012287212,0.002060248
0.1679829,6.796353e-07,1.5926524e-06,3.6133253e-05,1.4853712e-06
1.3353313,1.188167e-06,1.2998862e-06,0.00013413427,0.0024320912
0.18962112,2.1298943e-06,3.694705e-06,1.3266022e-06,0.0010999076
0.09621703,1.4865194e-06,1.3123265e-06,2.4567926e-06,7.117545e-07
0.29243153,1.2012904e-06,7.4185004e-07,1.2031962e-06,5.5092016e-07
0.0074992683,9.309085e-07,2.1037536e-06,1.4041236e-06,3.5321364e-07
1.4232892e-06,1.0552186e-05,5.3992056e-07,1.0391286e-07,2.4572757e-06
9.906755e-06,1.553556e-05,1.6842104e-06,5.0019935e-06,7.253086e-07
2.3792514e-05,1.3399277e-06,6.5902606e-07,8.906493e-06,2.3899904e-06
1.6772607e-05,2.486688e-07,2.9971658e-05,5.9049404e-07,1.5659134
8.284773e-05,0.022865726,0.5031224,1.070379e-05,1.922463e-06
0.00023778723,0.016143966,0.27162436,0.00064863777,2.1257217
0.0012891844,0.9521188,0.2910359,0.0012735595,1.7897933
0.00051981246,1.6758007,0.06800441,0.0048683784,0.777177
0.0004897061,0.041367058,0.019644164,0.077554025,0.0030940908
0.000112303496,0.36799634,0.03916238,0.101200715,0.0001800697
0.33195212,0.31365076,0.02333201,0.019760214,0.24464034
1.300014,6.5304243e-07,0.2377713,0.0063794437,7.717855e-07
2.580774,1.2538765e-06,3.308054e-05,0.11427397,1.7678626e-06
0.16173564,8.503862e-07,0.00054589415,0.096370324,0.0005790092
3.337739e-05,5.851052e-07,0.04547749,0.71788484,1.175076e-06
0.0006363662,2.1093651e-08,1.64461,2.6157615,0.21181725
0.03687215,1.0289343e-06,0.60639167,0.39543518,2.114046e-06
2.0733304,0.0,7.740463e-06,0.40555745,5.1548966e-07
0.08842317,0.0,1.9553605,0.000102874255,5.133475e-10
1.5752337e-06,0.0,1.2110199,1.6130189,8.1015656e-07
1.175619e-05,0.0,0.12162561,3.1490874,4.518309e-07
1.1506871e-05,0.0,2.0703633,2.2781217,7.4749687e-07
0.00024660194,5.5542426e-08,0.27426645,1.1106445,4.5974434e-07
0.0011316517,6.597819e-07,0.47493938,0.35141665,1.6626166e-06
8.2802275e-05,5.9402677e-08,0.012231796,0.16905908,1.3781204e-06
0.07753083,1.0885501e-06,0.040026378,0.46931398,1.8031246e-06
0.48273692,6.575662e-07,0.0021716643,0.14714736,2.0167569e-07
0.5423947,9.83852e-07,0.81010914,5.1411314e-07,7.8165584e-07
0.6899232,3.9414654e-06,0.41056535,0.008428656,1.6169996e-06
0.121038,1.9645947e-06,0.23143671,0.097513966,9.631261e-07
0.61580044,0.0095792515,0.091141395,0.5393123,1.7491956e-06
0.2529484,1.3191332e-07,2.2798959e-06,0.032374833,6.2462345e-07
0.25479373,1.0632734e-06,2.4450415e-07,9.204671e-06,4.9789435e-07
1.0107099,8.027255e-07,2.2540132e-06,2.9369824e-06,1.8116109e-06
0.19605635,1.2272462e-06,2.7043103e-07,2.4708729e-07,4.979014e-07
0.0054616802,3.666756e-07,4.5619828e-07,2.0407165e-06,5.795502e-07
1.1160892e-06,4.1047915e-06,9.700202e-07,2.048343e-06,1.4348227e-06
1.7672402e-06,3.99343e-06,1.3708525e-06,1.0512853e-06,9.2577466e-07
2.8370166e-06,0.5470603,6.109903e-06,0.0012903308,1.2505955e-06
1.210875e-07,1.032447,0.27548996,1.8291423e-05,6.2776496e-07
5.627461e-07,6.298925,0.0023479697,1.4599705e-06,1.120988e-06
9.711795e-07,8.770602,3.0788399e-06,0.07207083,9.964538e-07
2.4467776,0.002694294,1.1787847e-06,0.32127056,1.86946e-07
1.7182586,0.8253556,5.3791164e-06,1.6538695,8.036905e-08
1.0006596e-06,0.00010846053,0.0002659188,4.452964,1.6068219e-06
1.8740433e-06,4.3699356e-06,1.0155885,1.0226567,4.543218e-08
2.7519206e-07,5.4279604e-07,0.6926302,0.55098933,1.6491246e-07
6.7068044e-07,3.7410746e-07,0.019509045,2.2631317e-05,7.16421e-07
2.8868706e-06,1.107251e-06,1.6287264e-06,1.2962762e-07,2.0325939e-07
1.5633902e-06,7.295496e-07,9.23512e-06,5.607566e-07,3.2836567e-07
2.2170126e-07,7.035309e-07,1.8949733e-05,0.00011675274,1.0432807e-06
2.484733e-06,1.2729279e-06,1.2497633e-06,0.39613923,1.1337818e-06
3.2012927e-06,4.124227e-07,0.101859465,8.604377e-07,5.0395543e-06
2.630116e-07,3.318263e-06,0.001550755,6.0346775e-07,1.2207839e-06
1.9999734e-06,3.225016e-06,1.4364649e-07,3.574355e-06,1.0735549e-06
1.4195071e-07,0.80226684,1.95891e-06,1.3604945e-06,1.6996947e-06
9.2831664e-07,0.086505644,0.06950121,1.9399524e-06,2.6449752e-06
3.8162307e-06,1.4074192e-06,1.455581e-07,7.0131233e-07,4.206833e-06
5.3546314e-06,1.0092691e-06,7.0300694e-06,5.7843863e-07,0.0016268104
6.6120583e-06,9.290797e-07,1.0082675e-06,0.01901467,6.646785e-07
7.0403034e-06,0.123156354,1.3525039e-06,0.07593054,7.477169e-07
0.17799966,0.08308494,0.0074633686,0.0010527195,3.3474698e-06
0.00026677805,1.1861918,0.123322144,5.1458424e-06,0.0020843588
0.29858938,0.027320081,0.004380601,0.0005999282,0.34411192
0.01711005,2.8555414e-06,8.117456,0.0013239481,1.8743041e-06
0.5512954,8.8901857e-07,2.8427167,2.7769117e-06,9.123805e-07
5.6442627e-06,2.562837e-08,0.3824915,3.0558308e-06,1.0032535e-07
0.00096686755,5.0049703e-06,6.122417,1.1906477e-06,1.00367664e-07
0.0057423688,1.1064944e-07,0.0054287794,1.7870675e-06,4.205306e-07
0.86680007,2.9171845e-08,0.0007964963,2.7593894e-06,1.7104539e-09
0.021873975,3.1825336e-06,0.0113053685,1.8042298e-06,4.3693683e-07
2.9496327e-06,2.3319449e-06,0.0997694,0.07424308,2.4231285e-06
1.8674498e-06,0.6680122,0.045652993,0.000720068,1.3999771e-07
2.8941495e-05,0.20709038,0.05378201,5.6077142e-06,0.0005745064
1.9508273e-07,4.690371e-06,4.2758313e-07,1.0977409e-06,5.7767946e-05
4.519805e-07,0.19625804,1.2541451e-06,2.8303104e-08,4.295425e-07
4.0568967e-08,2.1401176e-07,0.0,1.0711465e-07,1.7175475e-06
1.5040648e-07,4.0499554e-06,0.0,9.184432e-07,1.666992e-06
5.152383e-08,1.1887404e-06,6.004562e-07,5.564667e-09,0.0014992155
4.4515893e-08,0.22383812,3.1738662e-06,1.9399987e-07,0.00029595132
2.0186494e-06,0.019700792,4.7651747e-07,8.0597357e-07,0.00021479433
0.0007484548,0.0023701743,5.7174486e-08,4.5734657e-07,7.221969e-05
0.0037317125,0.00012259925,6.151639e-08,4.9559763e-08,0.00040234168
4.8254904e-05,1.5188721e-06,1.763825e-09,3.9246537e-08,7.436845e-06
2.486256e-06,3.7607313e-07,0.0,6.0436645e-07,1.4706367e-06
4.8772654e-07,7.218535e-07,3.91541e-06,8.597483e-08,3.471938e-05
4.713085e-09,0.00018241377,0.16803282,0.06612215,2.633992e-06
3.859802e-06,0.10402339,0.1970905,0.80489516,3.0142562e-06
0.0714307,0.0014180643,5.642728,0.026205005,0.00013785975
0.035635244,1.5551326e-07,0.279553,1.3565275e-05,0.0024558571
0.36028358,0.0,0.004061075,0.019072685,1.1123951e-06
0.047389243,0.0,0.48453408,2.6396923,2.8496805e-08
1.0490359e-05,0.0,1.179043,1.1609856,3.0505645e-09
1.1629486e-05,0.0,0.08231207,0.00023876138,0.0
5.8913844e-07,0.0,6.2139657e-06,4.4325722e-07,0.0
6.697467e-07,0.0,1.9534014e-06,8.4411636e-07,9.836276e-09
1.1901787e-07,0.0,6.195136e-08,5.3353205e-07,3.501694e-08
4.2095153e-06,1.6851225e-06,2.416818e-06,3.0766424e-07,3.1121002e-07
5.1413704e-06,1.6180893e-07,3.0626513e-06,2.038408e-08,7.1882727e-07
7.5985054e-07,0.0,3.8238945e-09,1.8106851e-08,6.231312e-08
5.237381e-07,0.0,0.0,1.4557013e-08,6.2345284e-09
4.4331998e-08,7.3967192e-09,0.0,0.0,1.3540134e-07
1.1840448e-10,1.4764102e-07,9.06306e-11,6.441685e-07,8.4641715e-07
1.5127971e-09,1.2335686e-07,1.5389627e-07,2.5232904e-07,2.753166e-08
1.2417847e-07,1.0562705e-06,1.7597607e-08,4.4270637e-10,2.8515618e-07
8.929522e-08,1.09614305e-07,2.3221612e-07,2.8362902e-06,3.07668e-07
0.0,1.2943994e-07,1.9153211e-07,9.729726e-06,4.250364e-06
0.0,1.3195995e-07,3.4005836e-07,2.9595583e-07,0.040817473
1.6874824e-07,5.2737533e-08,1.4446297e-06,1.2710958e-06,0.0020147406
9.957969e-07,4.622783e-09,0.0015600886,1.0921431e-06,0.000939937
1.7606317e-06,1.2506206e-09,0.51975536,1.0249738e-06,1.5259797e-06
3.651464e-08,9.057636e-06,0.37732854,6.207385e-05,7.027783e-07
0.0,0.00044243818,0.3950622,0.03374593,3.9365315e-09
7.783513e-08,1.4190593e-07,0.27897123,4.361024e-06,0.0
1.6299565e-07,1.1191597e-07,0.00010774548,0.32834685,0.0
5.717052e-06,3.8666012e-10,5.3432173e-05,0.10414846,0.0
9.8662575e-05,0.0,0.0019996094,5.549086e-05,0.0
0.00041312716,0.0,0.070611455,9.931506e-06,5.3162497e-10
2.7509614e-06,0.0,2.4749479e-05,1.4383775e-06,3.0117056e-07
1.9547927e-06,6.8826156e-10,3.8658246e-07,2.0084497e-06,1.0467342e-06
3.6443717e-07,6.5877543e-09,1.4299624e-06,3.2041567e-07,2.0471264e-06
1.8569898e-07,1.494727e-06,6.0353824e-07,4.617918e-07,6.678671e-07
7.54854e-08,1.1396068e-06,1.5011544e-07,1.4827874e-07,5.874824e-07
0.0,2.3820526e-06,3.1535095e-07,2.3928325e-07,3.4553773e-06
0.0,1.4669861e-06,4.0174982e-07,3.826044e-07,1.473306e-06
8.142773e-09,2.058772e-06,2.6534984e-08,4.087909e-08,1.1867492e-06
1.7079122e-08,2.2412237e-06,2.311469e-08,1.4162667e-06,1.8086932e-06
1.4430465e-07,6.356037e-07,4.2503925e-07,1.4945653e-06,2.6665641e-06
1.9944491e-07,1.6914078e-06,1.9821202e-06,2.2397437e-07,0.1729053
2.2309382e-06,5.171446e-07,2.535026e-07,2.3660068e-07,1.1788533e-06
1.7703884e-06,7.353478e-07,1.3758489e-06,3.6742745e-06,5.982393e-07
4.842419e-07,1.9567958e-06,1.3920281e-07,1.2825572e-06,1.463045e-06
2.6379712e-07,3.3456154e-06,3.7989164e-06,8.210378e-07,2.1829574e-06
1.0754401e-07,3.264985e-06,2.8660752e-06,1.114945e-06,4.9378133e-07
1.6368308e-07,2.8125467e-06,4.5030765e-06,6.94806e-07,1.6130624e-06
1.0386907e-06,4.2614897e-06,2.0915604e-06,3.9415436e-06,8.776069e-07
2.1453102e-06,4.5766672e-07,3.8110468e-06,0.053227652,1.458827e-06
1.1398414e-06,2.9564287e-06,1.3000434e-06,0.0003381263,7.980632e-07
1.3485093e-06,7.8671604e-07,2.0831592e-06,0.21470344,3.755358e-08
2.0724872e-05,3.1751065e-07,5.921872e-07,3.427982e-06,2.5191292e-07
0.04297953,6.123382e-07,1.072709e-06,4.042023e-07,1.9401457e-06
8.9941375e-07,4.5169568e-07,1.4704818e-06,5.473105e-08,1.3511776e-07
9.787343e-07,2.1360602e-09,7.5612144e-07,3.121485e-06,7.562277e-09
0.003967934,1.0158434e-06,0.0017959904,1.5919608e-06,9.452985e-08
7.032286e-07,0.0,3.137549e-05,4.1196913e-08,5.6274175e-06
1.0418263e-06,8.326406e-06,4.5290176e-09,0.0,3.4454806e-06
3.147532e-07,1.2222538e-05,0.0,1.1725003e-07,5.1285724e-06
3.1156222e-07,9.1203165e-06,0.0,7.0040215e-07,3.0200508e-07
3.5926213e-08,3.9331403e-06,1.9933977e-07,4.9373714e-08,6.2567716e-07
7.8150336e-10,2.1141484e-06,7.517425e-07,3.9408313e-08,8.583436e-07
1.4421684e-07,2.4196593e-06,9.0364796e-07,2.2522404e-07,2.604072e-06
5.546656e-08,2.849355e-06,2.4674398e-07,1.4948889e-06,6.3803594e-07
5.7282065e-08,1.4768015e-06,1.834699e-07,3.9431407e-07,1.8604737e-06
7.059487e-08,1.8363827e-06,6.315036e-08,0.0,1.8748557e-06
2.259622e-07,2.526327e-06,4.4739053e-07,0.0,4.003026e-07
1.029227e-06,6.531509e-08,7.466317e-07,5.421122e-09,1.0638604e-06
1.1241325e-06,1.9914914e-06,2.645765e-07,1.0538434e-07,9.925151e-07
2.1074957e-06,1.5873547e-06,1.9615263e-06,2.936006e-07,5.1161373e-07
8.302696e-07,1.1363652e-06,5.251408e-06,1.5651336e-06,7.510055e-06
2.0383395e-06,2.1607273e-07,1.1746076e-06,2.5944596e-06,1.0262562e-07
3.3801225e-06,5.4180205e-08,6.4730756e-07,1.9963666e-06,4.8025316e-07
0.045006048,1.9758957e-06,1.1425398e-06,0.8348818,0.0
0.0016961704,3.1177686e-07,1.8670597e-06,0.20378876,0.0
9.3218665e-07,0.0,0.26577568,0.36572915,0.0
4.834418e-07,0.0,0.0067245155,2.234208e-05,0.0
1.6536029e-05,0.0,0.37491626,9.425067e-06,0.0
0.00068573665,0.0,0.00033318208,0.0018190626,0.0
7.5342047e-07,0.0,1.232172e-06,9.473891e-07,0.0
1.2778489e-06,0.0,5.2858115e-07,3.8392818e-07,0.0
1.3074458e-06,0.0,2.9077546e-06,3.16755e-06,0.0
1.2833317e-07,0.0,1.5518786e-07,7.590244e-07,0.0
1.0058048e-06,0.0,7.1449676e-08,1.5866797e-07,0.0
4.7962426e-06,1.7334881e-09,2.4676419e-09,5.5361696e-08,0.0
2.5542042e-07,1.0554266e-07,1.2570936e-08,2.4166678e-07,0.0
0.0,4.2403492e-08,1.8046948e-09,5.0235053e-07,2.0422702e-08
2.5461708e-10,1.8437642e-06,5.7727925e-07,2.2964402e-06,2.2413542e-09
0.0,3.4690918e-06,1.1514817e-06,3.8465464e-06,4.8002413e-08
0.0,4.083384e-06,1.2163798e-06,7.4765626e-06,5.153773e-07
0.0,3.994393e-07,1.278143e-06,3.9487517e-07,1.8385703e-06
3.9175949e-10,6.974486e-08,1.4428555e-06,3.4316593e-06,7.6673115e-07
6.726769e-07,9.07891e-07,1.4380684e-05,1.43200095e-05,1.02950914e-07
2.2953434e-07,8.542077e-09,5.6720367e-08,2.3578868e-06,1.7647358e-06
9.060872e-07,0.0,2.1685469e-07,2.5181766e-05,3.8062734e-07
7.1194535e-08,0.0,1.0637985e-06,0.9318078,0.0
0.018862696,0.0,0.008826341,0.005148434,7.10263e-09
1.5703039e-06,0.0,0.002555822,0.0010235482,1.6072349e-08
1.353071e-06,0.0,1.675321,4.782765e-06,5.896982e-07
5.290375e-07,0.0,0.0888458,1.8569937e-05,8.896418e-08
2.3817136e-06,0.0,0.562831,2.0615913e-07,0.0
2.1418951e-07,0.0,7.849104e-07,3.9668114e-07,3.6693934e-10
0.0,0.0,1.0771214e-06,1.5644743e-07,0.0
0.0,0.0,6.770838e-08,1.0907336e-10,0.0
0.0,5.8793134e-08,8.670995e-08,0.0,0.0
0.0,2.3313855e-06,0.0,3.3533027e-09,1.225859e-06
0.0,3.612033e-06,2.3496862e-06,3.4481875e-09,1.0304062e-06
1.560361e-07,2.1802387e-06,7.908947e-08,8.817347e-09,5.7388114e-08
3.509837e-07,9.129222e-06,3.2203354e-07,4.800771e-06,6.806349e-07
2.598981e-06,1.8055405e-06,8.1289215e-07,4.316682e-06,1.205836e-05
0.0,5.7696925e-06,6.41836e-06,3.3221909e-06,1.2899696e-06
0.0,2.2380018e-05,1.2814235e-06,1.76343e-05,7.807577e-06
7.6931016e-08,8.088182e-06,1.4433638e-06,5.8522724e-06,0.027375042
3.3986595e-07,1.02987515e-05,9.756415e-06,1.1185939e-05,2.9503015e-05
2.3348234e-07,3.5580586e-06,1.8913369e-06,1.1226838e-06,1.8756442e-06
3.3731357e-07,3.3779352e-06,2.9999012e-07,1.2721898e-06,4.9255135e-07
0.00022823042,3.3449362e-07,1.2712511e-06,1.8263732e-06,7.7892025e-07
0.008024873,2.7701864e-07,3.041848e-06,1.1605365e-06,6.862182e-07
7.06552e-06,1.3497412e-06,4.5698695e-07,1.4933743e-06,8.4049077e-07
0.07790221,1.3118848e-06,2.7960184e-07,9.681527e-07,2.4565088e-07
0.19712186,2.9065106e-07,1.0162225e-06,2.0853995e-06,9.6038825e-08
8.3021136e-05,1.3265743e-05,1.16328765e-05,2.9903972e-06,2.6855514e-06
1.7122995e-06,1.0777745e-05,2.986737e-06,3.0076503e-06,3.3170343e-06
1.3357004e-06,1.1846846e-05,1.4021372e-06,6.281952e-08,3.3976556e-07
3.7285827e-06,2.2767733e-07,5.659971e-06,1.1079997e-06,2.6764124e-07
9.719693e-07,1.367487e-05,1.2464136e-06,9.0177895e-07,3.8833912e-07
2.7521735e-06,6.993596e-06,1.0529393e-06,1.2381255e-07,8.063395e-07
3.3133105e-07,3.1556954e-06,3.7347465e-07,9.845644e-08,4.088806e-07
5.782614e-07,1.7348183e-06,1.729432e-07,1.731201e-07,2.2286572e-07
2.5946936e-06,1.9085949e-06,2.6885607e-07,3.0966055e-06,5.39037e-07
1.7133774e-06,2.1308936e-06,3.4639538e-07,1.4874473e-06,2.8502043e-06
1.0623482e-07,4.2854504e-06,0.014865695,0.09418738,0.05038481
7.922514e-08,1.638323e-05,8.77321e-05,0.40417784,0.11953437
6.827521e-08,4.397171e-06,0.06301124,0.01070994,1.332943e-07
8.930835e-07,0.041341726,4.1670188e-07,4.5419762e-07,0.00035370208
7.137366e-07,9.825422e-06,1.7174892e-07,2.972163e-07,1.2582314e-05
5.9769326e-07,2.2296682e-07,3.672631e-07,5.1450485e-07,9.577201e-07
0.3400647,1.3368389e-06,2.878719e-07,1.1251041e-06,7.096138e-07
0.35782424,8.146024e-07,6.278636e-07,1.6222634e-06,2.7274555e-07
4.068246e-06,4.154008e-07,0.00023116774,0.001301335,5.400301e-07
8.914797e-07,9.205075e-07,0.06540067,0.19438569,1.9817269e-06
9.101205e-07,6.267668e-07,0.2511824,0.36788,0.00026962027
1.408409e-06,2.3265092e-07,0.26966214,0.677484,0.19808042
1.1098637e-06,1.0737718e-07,0.35519126,0.58461696,0.6805613
1.1663865e-06,3.5291242e-07,0.23957981,0.7989537,0.07980129
2.286244e-06,0.0002002894,0.16649559,0.6814802,0.47192305
2.4460248e-06,1.1072312e-05,0.14647153,0.44430384,0.20911384
1.2850435e-06,5.977013e-07,0.16027369,0.3421732,5.196498e-07
1.3090068e-05,5.03244e-07,0.14397971,0.18413696,8.844178e-08
8.786166e-05,9.282671e-05,0.09950813,0.16656162,1.2800333e-06
0.001024439,0.020950843,0.1029145,0.15379941,5.066536e-06
0.0044362606,3.6503388e-07,0.08214811,0.14216761,1.2197596e-06
0.019168058,5.9596266e-07,0.06458635,0.1236783,2.122642e-06
0.24495171,5.3730224e-07,0.064568564,0.115867645,1.6075029e-06
0.216653,1.8065803e-06,0.07504279,0.10107652,1.1374356e-06
0.044154633,5.053627e-06,0.06325222,0.0780094,4.904801e-06
6.071843e-08,1.742428e-06,0.045948584,0.02254968,5.089704e-06
1.113757e-06,3.283251e-07,0.029373882,0.0068993205,9.1215065e-07
1.5973204e-05,1.2933841e-06,0.052034028,0.016572101,4.186859e-07
0.00013426323,8.2676183e-07,0.090936646,0.015227582,2.3152604e-07
7.018238e-05,9.3855095e-07,0.16621563,0.002175729,1.2900841e-06
1.4179766e-05,7.908433e-07,0.15010796,0.00012479903,2.9749374e-06
0.033944525,5.455051e-07,0.19131985,0.036577802,2.492699e-06
0.009716355,1.0147596e-06,0.24780607,0.07703476,1.4763763e-06
0.00235624,5.394275e-08,0.3463404,0.1811477,1.4793727e-06
3.0115898e-06,1.5277514e-06,0.34555715,0.26368505,1.8093209e-06
2.492136e-06,2.318888e-06,0.4314604,0.058577355,1.5884356e-07
0.0014107717,1.0564788e-07,1.1090798,0.17082682,2.1852197e-06
0.0024806454,1.4261051e-06,1.6055369,0.38168105,1.43663
0.20870826,0.31320632,0.9422885,0.19985543,3.664081
1.1213094,1.969966,1.0019344,0.06055555,3.4483473
2.0961282,1.3795376,1.2623663,0.19852972,3.2004166
0.64935905,0.9507399,0.9246918,0.47508842,2.857665
0.00023914316,0.35221016,0.89140314,0.30669385,0.53676105
0.13549012,0.039821707,1.3182191,6.377182e-06,0.025892539
0.0036831389,0.015075704,0.69000167,1.3627672e-05,0.027039193
7.496292e-06,0.003256346,0.2655039,3.45761e-06,0.016863847
5.954757e-06,0.0027816836,0.3763372,0.015968457,0.85077816
0.0008716269,0.05117675,0.1063377,4.913299e-07,0.0031694553
0.0118604945,1.1332532e-06,0.006659334,1.8923886e-07,2.8556606e-06
0.04567377,1.5708682e-06,0.06645985,3.7449638e-07,1.2167721e-06
0.08421441,9.875125e-07,0.024298584,3.3187357e-07,1.6057212e-06
0.08035597,6.376503e-07,0.019029604,1.1709401e-06,2.3932091e-06
0.4858984,2.8849576e-07,0.37110624,2.2420868e-07,1.2086072e-06
0.0035798778,0.24076693,1.9592992e-06,0.00047261998,1.1814933
1.5910475e-06,0.0004052051,6.054311e-07,2.8652263e-07,0.03229166
4.303054e-07,8.5489376e-07,0.024227168,0.07849696,4.6748526e-05
0.39735407,7.208823e-07,0.11469164,7.303441e-07,5.787731e-07
0.84246445,0.0,1.0917295e-06,1.030929e-06,1.11067216e-07
0.00041820595,9.767724e-07,1.8320335e-06,1.5048569e-06,1.9855406e-06
3.384041e-06,4.0754526e-06,0.06556285,9.431206e-07,5.970769e-07
9.502226e-07,1.8403877e-06,4.1872448e-07,5.536372e-07,8.3094847e-07
3.2147927e-06,6.9621063e-07,2.4649476e-09,1.186548e-06,1.845843e-06
3.5885143e-06,5.494754e-07,0.0064486465,1.2302443e-06,9.4465514e-07
6.0616156e-07,5.377578e-06,0.00043316474,4.436842e-05,2.172402e-07
7.8044184e-07,0.0010630576,1.6877474e-06,1.6871786e-06,0.3187749
8.769597e-07,1.0611424,1.2150592e-06,7.563279e-07,0.65439695
1.5235814e-06,1.5748117,7.248721e-05,1.3929642,0.14592251
1.6597696e-06,0.5790424,0.72010845,1.283922,2.0328268e-06
0.44383958,1.3586524e-06,0.019578094,2.22274,6.0895263e-07
1.6124892,1.8605348e-06,5.783733,1.198246,5.0426897e-06
2.0802484e-06,8.8256473e-07,0.3154346,0.49081376,1.2502481e-06
2.8473369e-06,1.1941006e-06,5.5444457e-07,0.0031644744,1.1357961e-06
5.227139e-07,3.2832459e-06,9.192913e-07,0.23228061,1.6911545e-06
5.0764706e-05,1.858697,0.015301141,0.21004982,0.6260425
0.7011029,1.9611386,8.218182e-07,1.9412403e-06,0.07700828
0.5854663,1.0166771,4.3699194e-07,5.071578e-08,7.092516e-07
0.11421041,2.0139291e-06,2.0397678e-07,1.07554804e-07,7.3990014e-07
0.00017682523,1.2738193e-06,9.392546e-08,9.925919e-08,0.0008352282
0.020325981,0.0005335654,1.1752458e-07,8.5937415e-07,1.0701226e-06
1.3697251,1.5665203e-06,1.909039e-06,4.2625817e-07,1.1406202e-06
0.16338633,9.0652344e-07,1.6994752e-06,6.482933e-07,1.2060395e-06
0.2852201,8.914846e-07,1.8957436e-06,1.0365649e-06,1.7883892e-06
0.0053168377,0.0009164296,0.0034221835,0.00088865537,2.4055107e-06
0.82378757,0.18034382,0.2535718,0.047534574,0.19243045
0.41905352,0.107023224,0.007714166,4.856101e-06,1.4853733e-05
0.24861817,0.0021595103,3.974539e-06,1.822155e-06,1.1866629e-06
1.2706191e-06,8.041219e-05,0.09531362,0.010546449,0.19145767
0.0020941584,4.3746735e-07,0.027048945,0.00012400818,0.01662143
4.030659e-06,3.0457315e-07,4.4477224e-06,4.199528e-05,2.5448353e-06
2.8505083e-06,3.563426e-06,1.0408475e-05,1.3136634,6.2301355e-05
3.5144635e-06,8.4642176e-07,3.7971087,3.152997,2.7467004e-06
8.712731e-07,1.8223373e-06,0.754383,1.5726735e-06,0.00010063783
2.5735897e-06,0.24920304,1.4088298e-06,1.8365956e-06,8.1856626e-07
2.2048816e-06,5.5253844e-07,1.7930181e-07,5.711974e-07,2.377687e-06
7.509527e-07,3.644585e-06,1.4407567e-07,4.2396317e-07,2.4917988e-06
1.6809022e-06,1.5488454e-06,3.343474e-07,5.839267e-07,3.0427952e-06
1.642995e-05,0.113309816,4.3495183e-07,4.0313685e-07,0.061296124
5.2652238e-05,0.008568752,6.6887617e-07,6.6573716e-07,6.0541714e-07
0.6908848,5.4381815e-07,1.1652715e-07,6.357038e-08,1.4191672e-06
3.5454354e-06,1.0793977e-06,6.336699e-07,4.7085751e-07,7.649878e-07
1.1053475e-06,2.537293e-06,4.1554935e-07,1.6411734e-07,0.052976448
1.3013324e-05,1.3537062,4.867376e-07,2.831753e-07,0.25402343
0.00019586759,0.07573319,7.923792e-07,1.9812094e-07,0.0097394325
0.49488968,5.18308e-06,5.463396e-07,5.377836e-07,1.5460085e-06
0.0014273062,5.746156e-07,1.7522406e-06,1.4252977e-06,2.7822505e-06
1.4601657e-05,2.4100302e-06,2.2653633e-06,5.952915e-07,9.2389774e-07
2.8578736e-05,1.008736e-06,1.4780192e-06,1.4234007e-06,1.1905377e-06
0.062161073,0.0,9.459523e-07,4.1902567e-07,2.6160563e-07
2.5149808,0.0,0.26841143,1.230796e-05,1.5015436e-06
2.870021e-06,8.2578487e-07,0.21746528,0.040447477,1.5736598e-06
6.3347517e-07,7.955489e-07,0.9207302,2.4506794e-06,1.6126038e-06
0.052959405,4.2821102e-06,7.5379808e-06,0.00055673486,8.6539177e-07
1.2159873e-06,2.6723952e-05,1.7382963e-05,0.0010692524,3.960275e-07
2.7493816e-06,5.651389e-06,0.00071161677,0.25463453,4.8192314e-06
1.6694927e-06,7.008205e-06,0.00026131433,0.118563816,0.00020216333
1.931667e-06,1.1647278e-07,0.22574466,1.0309241e-06,2.0135103e-06
1.6474289e-06,6.374707e-07,2.5720433e-06,1.818949e-06,7.218517e-05
2.2759698e-06,2.2500706e-06,1.2139014e-06,4.4075662e-07,4.5168317e-06
1.3957289e-06,5.452263e-07,7.2422955e-07,8.072383e-07,0.00022769181
6.2783634e-08,9.284364e-07,1.6732379e-06,1.8644033e-07,1.2473997e-07
2.72988e-06,8.2607903e-07,8.407344e-07,1.3108671e-06,1.8045112e-06
1.1072237e-06,1.2450806e-06,5.484662e-07,1.7192217e-07,1.4800394e-06
0.003879688,1.8842828e-05,1.1923016e-06,1.9397253e-07,3.000924e-07
0.2276225,6.9185205e-07,2.1945206e-07,2.6041755e-06,6.26356e-08
0.7418907,1.2497546e-07,1.2042885e-07,2.76772e-07,1.6317666e-06
2.1851185e-06,2.867591e-07,3.5944842e-07,1.024002e-06,8.643377e-08
1.1914054e-06,1.6903313e-06,4.8722825e-07,5.116208e-06,8.1279904e-07
8.531753e-07,1.131837e-06,1.6574986e-06,6.735349e-05,4.2522124e-06
1.5138852e-07,9.31783e-08,6.482707e-07,4.901881e-05,3.3000902e-06
1.3777073e-07,2.4077698e-07,5.3113376e-07,1.0388748e-06,2.281635e-06
0.0,2.9015246e-07,0.004123611,2.0307348e-06,1.1712898e-06
0.0,6.250096e-07,0.8847337,9.896166e-05,1.525615e-06
6.3747615e-07,3.4814668e-06,2.0904051e-06,8.40946e-06,6.458534e-06
4.3135955e-07,8.22622e-07,1.4523997e-06,7.181932e-07,8.3229384e-07
3.0422618e-06,1.9147332e-07,0.0005006012,1.8242346e-06,0.0
1.243566e-07,0.0,0.2502943,6.525069e-07,0.0
1.435742e-07,0.0,0.0009768597,7.155012e-08,0.0
1.3776489e-08,0.0,1.0220019e-05,1.0567978e-06,0.0
4.1133708e-10,0.0,1.44361e-06,0.30941853,0.0
1.3280752e-06,0.0,7.0879933e-06,0.1649086,0.0
0.00013521666,0.0,0.014122469,1.2470106e-07,0.0
7.4546e-06,0.0,4.9373343e-06,1.2342501e-07,0.0
6.3776442e-06,0.0,9.360397e-07,4.81455e-07,4.623064e-08
8.7465975e-07,0.0,3.0864032e-07,2.8522044e-07,2.820824e-07
7.8304496e-05,0.0,5.812551e-07,1.5340592e-07,2.259031e-08
0.00061856647,0.0,7.856853e-08,4.9768454e-07,5.301258e-08
3.5580346e-05,1.8169845e-09,8.405764e-06,6.470975e-06,2.9266068e-06
0.00034193293,4.1312457e-08,1.719045e-05,1.1184648e-05,6.536665e-07
1.01942705e-05,9.410382e-08,3.3476832e-07,2.2893571e-05,4.198694e-06
9.660323e-06,1.3742479e-07,7.776175e-05,4.927373e-05,2.61535e-06
1.1847559e-06,2.9264604e-07,7.382221e-06,0.00011844128,1.2195078e-07
1.9951995e-07,1.8607732e-06,8.913285e-06,0.0035571724,1.2655482e-07
1.2735548e-07,4.9172473e-07,4.1719154e-06,0.44218627,3.4237962e-07
3.912506e-06,1.7131532e-06,1.0826491e-06,1.2899386e-06,9.903455e-07
2.594309e-07,6.066438e-07,0.0010819592,1.1925567e-05,1.4281102e-07
7.1833387e-07,8.425887e-05,0.0011330701,0.0002709515,1.9407663e-07
1.2711323e-06,6.1885635e-06,8.7737027e-07,3.465942e-07,2.0431285e-08
1.9561325e-05,0.43378937,6.6410935e-06,6.1090884e-07,0.00022832869
1.6169437e-05,1.4774928,1.1305427e-05,0.0014073305,2.7841617e-07
9.111254e-06,1.026889e-06,8.1994676e-07,6.47018e-05,6.4245484e-09
0.101108976,3.6625187e-07,1.4510374e-06,4.276064e-06,0.0
4.445209e-06,1.5761586e-06,4.7043977e-06,4.668122e-06,0.0
0.0009458735,1.0440691e-06,0.00024038253,4.2811484e-07,2.9730518e-07
2.2226413e-05,6.742307e-07,1.6236824e-06,3.966843e-05,1.7729146e-06
0.0032126408,1.3691353e-07,6.805483e-07,4.2415286e-06,5.54376e-06
9.308289e-07,9.420917e-06,1.1826527e-07,0.00014110006,1.172173e-09
5.0094974e-07,3.4476855e-07,1.2908527e-07,5.78122e-07,7.940055e-08
3.457771e-07,1.6934102e-07,8.672421e-07,6.8508353e-07,4.842015e-06
2.9878176e-08,2.026023e-05,2.7888024e-07,1.3256337e-06,5.2189822e-05
1.0257834e-05,0.00011743581,1.72052e-07,1.4509878e-06,0.00028641336
0.00018056907,9.332944e-05,1.0381311e-07,8.3147205e-07,7.678369e-05
2.0069292e-06,4.193812e-05,5.0804036e-05,0.24500611,0.00011578547
3.046211e-06,0.00016290572,0.58982545,0.018692467,0.000121204765
1.297505e-06,8.065779e-06,0.75775516,4.262301e-07,4.6742102e-06
7.042416e-06,1.0620462e-05,0.057781618,1.6072329e-06,2.1004091e-06
1.7668239e-05,6.1942974e-06,4.7389335e-06,0.089569405,0.32527116
1.3639149e-05,3.2926073e-06,2.8098834e-06,1.1706777e-06,0.2682608
4.133383e-07,0.013835718,0.46594617,1.1324156e-06,0.6912308
1.2356901e-05,0.35233933,0.12609321,2.7119902e-06,0.3621829
2.1224866,1.7597072e-06,1.2341772,2.148984e-05,4.1378294e-06
1.8928087,3.240027e-06,3.382807e-05,0.0001183167,1.4614948e-06
0.7794404,3.858581e-06,1.3743672e-06,0.00023168992,5.308459e-06
2.994056,2.7937551e-06,1.9454023e-06,7.645994e-05,1.3926077e-06
0.7210703,1.6136675e-06,2.1071062,0.0057525747,1.4578243e-06
0.120967194,3.1354577e-07,0.00026497454,2.5858748e-07,8.480072e-08
2.7912095e-06,2.1784597e-06,2.7197055e-07,1.3564793e-06,1.334678e-07
4.3975183e-06,7.1957203e-07,2.7555923e-06,1.5559261e-06,6.220575e-07
4.7055843e-07,2.3521563e-06,1.441013e-06,1.777543e-05,1.6514728e-07
1.893351e-06,2.4267613e-06,4.290251e-07,8.5560305e-06,3.033333e-06
7.687683e-07,1.005473e-06,1.7684276e-06,4.944835e-06,4.2136824e-07
3.6413696e-06,3.898006e-06,1.8905611e-06,5.415939e-07,3.125909e-07
2.3591166e-08,4.7204546e-07,3.866489e-06,1.2056395e-06,4.4964517e-07
4.2998988e-07,2.7811984e-06,1.2099532e-06,4.21496e-06,8.6010665e-08
