"[299, 255]","[227, 248]","[287, 319]","[279, 328]","[230, 262]"
1.9887063e-06,0.003106993,2.2212204e-07,0.0032818972,0.055690512
3.7619157e-07,0.036313996,5.1219718e-06,0.047758415,0.11817898
2.3176199e-07,0.004877481,0.016111776,0.08370933,0.0729111
1.7126646e-06,0.22122614,0.009135871,0.11462837,0.38893604
6.794483e-07,0.84498507,0.037583295,0.32401428,1.115943
8.13057e-07,0.19342478,0.52803665,1.1537884,0.47830278
1.0419186e-06,8.577611e-06,2.6311915,0.71069854,0.01993036
9.022253e-07,2.7047292e-06,1.6150061,0.33200142,4.9985165e-06
3.064911e-08,0.09271501,0.3138076,0.8452537,0.04854869
1.4211104e-06,0.021049319,0.59720695,0.97817594,3.4210218e-06
4.529678e-07,0.021656567,0.40900803,0.18063626,2.471256e-06
6.0898657e-07,4.496162e-06,0.08520835,1.1240728e-06,5.75878e-06
9.606555e-08,2.3763841e-06,0.0092798,1.0158134e-06,1.0049828e-05
5.295634e-07,1.2010149e-06,1.0508718e-06,8.192863e-07,7.1374836e-07
2.7962365e-06,5.9101745e-07,5.716727e-07,4.6693194e-07,5.5353894e-07
7.267841e-06,5.0354566e-07,3.44764e-07,5.5608825e-07,9.581332e-07
6.069138e-07,1.4256226e-06,8.151413e-07,1.0440567e-06,1.2597728e-06
2.7957282e-07,9.614889e-07,6.8895906e-07,5.840153e-07,5.83784e-06
3.0809582e-07,2.610767e-07,5.8867666e-08,6.515657e-07,9.274225e-06
1.8298603e-06,2.408984e-06,2.013292e-07,1.0317052e-07,1.9597335e-06
0.6045896,5.1403813e-06,3.8787172e-07,5.515813e-07,1.5436863e-05
1.3259077,1.725179e-06,1.1116065e-06,4.198193e-07,6.4011715e-06
0.4652136,4.6412956e-06,4.5584028e-07,4.389393e-06,0.00016977532
0.34358308,7.342677e-06,7.4669225e-07,3.2918845e-07,0.008705056
0.043681346,1.8474468e-06,3.4902794e-08,4.1560799e-07,0.009985892
0.011837606,1.4741806e-05,9.254814e-08,1.3623741e-06,0.007918685
3.1657896e-06,0.0001375129,8.693054e-08,1.9233175e-07,0.013275819
0.5688261,0.0046241065,5.6808396e-05,2.2427313e-08,0.010523194
0.048664432,0.00495114,3.8050337e-07,5.726361e-07,0.022159398
1.4756005e-06,0.65702057,1.839014e-07,0.0021347017,0.11186759
1.1246498e-06,2.5677638,2.1067076e-06,4.4719636e-05,1.1757902
7.731451e-07,2.4889894,0.1343998,0.29071307,1.4609396
3.1116517e-07,4.548656,1.1885767,0.64412117,2.1526988
3.102036e-06,3.5525675,1.3004445,0.860976,3.416339
3.5296869e-06,2.1836236,2.003438,1.7084985,1.224149
1.6193033e-07,0.36618644,3.2402554,2.668367,0.33303836
6.3125594e-07,0.1381546,3.1920526,2.1910212,0.3436814
1.7575053e-06,0.36385295,2.1334782,2.223341,0.71382624
3.54332e-07,0.16000096,0.31340957,0.1236306,0.39790243
1.4007695e-06,0.08762904,0.20520918,0.8087115,0.16301256
9.315858e-07,0.016253497,0.121845685,0.6146767,0.0010943605
1.0119845e-06,0.0004862597,0.2127683,0.06671395,2.2043916e-05
5.9051314e-07,3.1489228e-06,0.082152754,0.00079348776,9.3120834e-05
2.721503e-07,6.8371816e-07,0.016313858,0.0023574529,0.046642806
2.3421083e-07,9.560148e-07,0.0017640032,0.00010016905,0.05451672
3.8760874e-07,1.0380899e-06,0.11044371,0.00013751116,6.835954e-06
2.043897e-07,3.5204596e-06,0.058511507,0.0031251933,3.226428e-06
4.634739e-07,2.49165e-06,0.0053047505,1.3100564e-05,3.794976e-07
8.6552166e-07,5.7723555e-06,6.2215315e-07,3.9291055e-07,3.8719648e-07
2.328932e-06,1.0102988e-05,7.882859e-07,7.387324e-07,9.824288e-07
4.4499147e-06,7.593717e-07,2.5728361e-06,1.038689e-06,1.135266e-05
6.262038e-06,5.722791e-07,0.00021038052,7.713359e-08,1.5915157e-05
3.8270887e-06,8.119421e-08,0.06501326,1.2813565e-07,1.2841544e-05
7.672871e-06,7.716957e-06,2.4330254e-07,3.0808412e-08,6.366593e-06
3.139911e-05,5.196186e-06,6.139716e-08,2.676242e-07,5.466696e-06
1.0089672e-05,2.732841e-07,4.6134656e-07,1.0184319e-07,3.066409e-06
4.5072243e-06,8.639701e-07,3.0428842e-07,3.5891472e-07,0.0022690063
9.048307e-07,2.7669398e-07,0.0008731783,4.320995e-07,4.8900015e-06
4.690632e-07,2.1346561e-06,6.9707573e-07,1.2801875e-06,1.9708707e-06
7.8133456e-07,8.469794e-07,3.3558507e-07,9.852104e-07,1.0555434e-06
6.131859e-07,3.006133e-07,6.481113e-07,1.376183e-06,1.5061546e-06
1.0325058e-06,1.4429048e-06,2.365676e-06,0.0014826866,5.5351364e-07
2.5442232e-06,2.125746e-07,1.2475108e-06,0.52072686,1.4214377e-06
9.612072e-07,1.043639e-06,0.0015469344,0.32446954,8.284357e-06
1.6634264e-06,1.0529458e-06,0.4337821,9.715926e-07,7.302999e-06
5.3730963e-07,1.0050873e-06,1.2168487e-06,3.9475327e-07,9.894433e-06
8.675272e-06,2.9681103e-06,3.4868292e-06,7.84869e-07,6.2968384e-06
8.039683e-06,5.7200186e-06,2.1388844e-06,4.081892e-08,1.1997091e-05
1.2358684e-06,5.121647e-06,3.0939862e-07,1.2176316e-07,1.565305e-05
1.0845938e-06,0.004513542,6.743561e-07,5.1795183e-07,0.0027112977
7.5935664e-06,0.009417031,7.24616e-07,2.8127687e-07,0.0023169604
1.0281466e-06,0.0025560488,6.674046e-07,1.2952197e-06,1.41327955e-05
5.260396e-07,0.0026968727,3.306805e-07,8.488053e-06,2.838453e-05
1.7662336e-07,0.00045600598,2.4931478e-06,2.825273e-07,1.0420709e-05
1.8776396e-06,7.505529e-05,1.8014586e-06,1.0358546e-06,7.5740514e-05
8.4506235e-07,3.5870178e-06,1.3664416e-06,0.0013817148,2.8303433e-05
1.3743774e-07,1.7227038e-06,3.0375662e-07,0.00015749829,0.0026219413
8.356764e-08,2.0059684e-07,4.2157683e-07,2.6589476e-06,0.0036154913
2.6204722e-07,3.86977e-07,1.8945719e-06,6.6824464e-06,0.00039408053
4.113519e-07,5.962343e-07,2.5508762e-06,1.8353983e-06,0.00016407804
8.9628753e-07,2.1148844e-05,5.8103694e-07,6.193365e-07,1.2756117e-06
3.3772906e-07,1.0923776e-05,1.5027251e-07,7.8877014e-07,4.381384e-07
1.441084e-07,7.684742e-07,3.4542597e-06,1.1709506e-06,2.551357e-06
3.0182298e-07,2.0249664e-07,6.7898884e-07,1.0231691e-06,1.3669305e-06
6.001972e-07,9.601915e-07,1.5146372e-06,1.4621645e-06,1.0505521e-06
4.5299654e-05,6.813075e-07,3.2957485e-06,2.8085608e-06,9.30579e-07
9.951886e-08,4.8811705e-07,1.5173881e-05,5.574612e-07,1.668787e-06
3.264419e-07,6.365637e-07,4.5253896e-07,3.2965759e-06,6.7889596e-07
7.80558e-07,4.7571457e-06,1.4554539e-06,4.7686996e-07,8.0753665e-07
2.740282e-06,4.1601731e-07,2.6276345e-07,1.2802319e-07,1.4147964e-06
5.20615e-07,4.6413847e-06,3.2537525e-07,8.21325e-07,2.700621e-06
2.7258366e-07,4.5109484e-08,4.331221e-07,1.0393674e-07,1.6843981e-06
1.3516328e-06,2.507307e-10,1.5976588e-06,7.689888e-07,0.0
3.4744016e-06,5.1280658e-08,4.188223e-07,5.036193e-07,1.9332874e-10
6.444864e-06,3.612524e-08,4.863009e-07,3.4018523e-08,4.9179556e-07
1.0789103e-05,2.675234e-07,1.2308844e-06,3.1387746e-08,1.366995e-06
2.7194308e-05,2.1581727e-07,1.5749626e-07,1.250247e-07,8.0665336e-07
0.0007139611,2.4440797e-06,1.4340348e-07,1.1616576e-06,2.8534735e-06
0.000117941905,6.6993002e-06,2.59709e-07,3.4320346e-06,6.19263e-06
0.05480279,2.6602129e-06,2.646831e-07,1.1327218e-06,1.0604266e-06
0.05155464,1.8141515e-06,1.0517415e-06,0.0028245957,1.2481769e-05
7.0072354e-05,9.4878985e-08,8.20913e-07,0.11878536,1.3366015e-05
1.1870015e-05,1.2251205e-07,0.09154306,0.04744164,5.1835024e-05
1.5965385e-05,3.9185412e-07,0.006596605,0.032512087,4.0067654e-05
6.5075296e-06,5.323459e-07,0.026301036,9.116234e-06,1.8864271e-06
3.6002093e-06,8.938719e-06,5.7639386e-07,3.5161122e-06,3.2173261e-06
0.060538795,4.469354e-06,4.968204e-07,1.2275674e-06,6.7618143e-06
0.0038509897,4.958167e-07,0.02225942,0.00019919187,1.2082124e-06
0.04705748,1.96525e-07,1.1232705e-06,0.29386148,1.5650548e-06
1.4372281e-06,9.307854e-08,0.1983316,0.000870698,2.031064e-06
9.029904e-07,9.732593e-07,0.20749344,0.049533926,8.189737e-07
0.10318659,2.825835e-06,0.090243354,0.06303064,2.8011932e-06
0.00019181712,2.6035952e-06,0.05437022,0.19785501,3.8521857e-06
2.9473756e-07,2.0583643e-06,0.04786359,0.12668976,2.4228189e-06
1.1978384e-06,7.684525e-06,0.0005619211,0.000599722,1.7450522e-07
0.030920252,3.0111478e-06,1.2672749e-07,0.03088002,5.3295757e-06
0.040695347,7.85133e-08,1.1209497e-06,1.1218546e-07,1.780133e-07
1.6333588e-07,1.2658529e-06,2.5548997e-07,2.3986136e-08,2.3380954e-07
1.2437422e-07,1.3426007e-05,3.710644e-07,4.9730975e-08,5.101722e-06
3.444751e-07,6.0413146e-07,3.9714996e-07,1.2623698e-07,9.9149656e-05
6.1791866e-07,8.8031504e-07,1.0453881e-06,1.5288808e-07,2.2964103e-07
9.299241e-07,0.024541948,1.1645259e-06,7.9571544e-07,8.4561606e-07
4.7009158e-07,4.773513e-05,4.020985e-07,3.5957163e-07,6.361442e-07
1.038282e-07,1.7861788e-06,7.481709e-08,2.872923e-07,4.4409458e-06
2.5897188e-07,1.8417098e-06,5.9593766e-08,1.8057875e-07,4.011628e-06
7.301642e-08,3.6878984e-07,1.8156258e-07,3.1126038e-07,5.3223207e-06
1.4621385e-06,0.008646669,3.743624e-07,3.5724537e-07,1.5084299e-06
1.3066508e-06,1.4061734e-06,2.457624e-07,5.1422245e-07,1.1268204e-06
4.650722e-06,8.611403e-07,1.0340736e-06,3.27715e-07,2.1563804e-07
5.831584e-07,0.14541288,1.0373218e-06,8.0539263e-07,6.7735778e-06
4.5406273e-07,0.053186007,5.943639e-07,1.4534822e-06,0.097218394
1.1322297e-06,1.1502489e-07,4.5866695e-06,4.7676372e-07,2.6382534e-07
2.6412495e-06,0.001181501,2.1750836e-07,9.307443e-07,0.00017218207
1.0924292e-06,1.2285464,1.1144735e-06,0.0012290077,0.8986856
0.17239346,1.6392462,0.5091848,0.05391664,0.89556736
0.57640135,1.516258,1.8920401,0.08787936,1.2611763
0.061260868,1.5404712,1.6339785,0.00016402586,1.1015601
0.17662095,2.3335783,0.06794205,0.034310523,2.8185318
0.31800392,0.071875006,0.5628757,0.114744864,0.12461115
1.2717608,0.067970075,1.7069602,0.1953962,0.11762019
1.1996477,0.03217589,0.9484044,0.13252304,0.03927076
2.4219482,0.38072678,1.1010268,0.16422705,0.40022647
0.32830566,0.023380931,1.2843941,0.24585003,0.052341044
0.33116308,1.4717359e-05,0.5131053,0.035881884,0.0028518506
0.0010893673,3.5686373e-06,0.050502,0.029903555,2.4089342e-05
0.0029177559,7.029237e-06,0.060405437,0.027647756,0.00014960246
0.00043944368,7.4303484e-06,0.09167294,0.011062163,4.0688024e-05
1.8583729e-05,5.4616894e-06,0.0029889925,0.00018483953,5.9114445e-06
1.3751811e-05,0.06560488,1.9009568e-06,0.00823448,6.389671e-06
9.2700066e-05,0.032778855,0.031800188,0.45618975,0.00029803414
2.7173148e-05,1.8361958e-06,0.075812414,0.0026720895,8.488456e-06
1.7822711e-05,3.63671e-06,0.055648778,7.155383e-05,2.961248e-06
6.6330035e-06,1.1128856e-06,0.022589227,0.0007200996,2.5307983e-07
3.065052e-06,1.9626088e-06,9.442813e-05,3.0571178e-07,6.567195e-06
5.6347534e-07,2.0545464e-07,0.00026721496,0.020409895,2.6401324e-06
3.153428e-07,7.299544e-07,6.544003e-07,1.6607542e-06,4.946299e-06
1.6672658e-06,7.466631e-07,0.0102519905,1.4397583e-06,9.076968e-07
1.0152944e-06,7.23686e-07,0.046246935,0.066883504,2.4525682e-06
1.374054e-06,1.691645e-06,1.1517873e-06,0.0023965556,6.334664e-06
8.1112375e-07,2.8012746e-06,6.746497e-07,4.4578445e-07,9.696245e-06
1.1109311e-06,1.446954e-06,1.4191571e-06,6.3713486e-07,4.3300656e-06
1.2359501e-06,1.8094931e-06,2.6820135e-07,5.7525733e-07,8.387561e-06
3.5809528e-06,2.7325316e-06,6.618014e-07,7.471781e-07,3.0205606e-06
2.5055458e-06,1.2236171e-05,1.8109269e-07,2.6525706e-07,1.4527176e-05
2.5589193e-06,0.001957372,2.761515e-06,3.8733413e-07,1.6845675e-06
8.5427394e-07,0.28019887,4.2746597e-06,3.727128e-07,0.072485775
1.02127025e-07,0.06483544,3.0048104e-06,0.00053149805,0.017552916
2.3480875e-07,1.8372883e-06,0.005076677,0.028079782,0.0027587158
1.4207499e-06,1.3641136e-06,0.3945253,0.17446359,8.689479e-07
3.7295547e-06,1.434233e-06,1.1303552,0.28667268,9.800458e-07
1.899433e-07,7.83748e-07,0.31330985,0.02305926,1.5458311e-06
3.7424996e-07,4.379264e-07,0.061670214,0.033874243,1.0427087e-07
2.6200273e-06,4.6163558e-07,2.784322e-06,1.163544e-07,1.0663872e-07
6.555834e-06,2.1739717,1.5988167e-06,1.377669e-07,0.29272425
0.008582531,7.190584,6.0065515e-05,0.019572016,5.0686603
0.10265876,0.64617735,0.82597375,1.9927082,1.5090754
0.4870844,2.1199248,3.9289594,3.8083558,0.3076231
0.1652185,2.6447713,6.258361e-05,3.4728076,5.164152
1.7246777,3.8916392,1.6814884,1.6009521,2.7329085
5.962441,1.915885,0.5070432,4.618063,3.9010906
2.8582468,1.1854304,6.820316,6.8555655,4.200182
2.4062674,0.0025874535,1.176582,4.945451,0.057222735
0.62056243,6.0216854e-07,0.023342783,1.3268429,9.712663e-07
0.092243336,2.7759594e-07,0.12733655,1.04271,9.675516e-07
1.2946634e-06,2.7935886e-07,0.012126204,0.04526242,3.3826495e-07
0.20830567,0.12453187,0.00012601192,9.7398136e-08,0.12861319
0.723586,2.6179093e-06,4.1998746e-07,1.4105007e-07,3.003762e-06
0.024673807,1.6866434e-06,0.3283641,0.1489144,8.201558e-06
0.012129708,9.784586e-07,1.4701782,0.3554214,0.020480106
0.042300653,5.789599e-07,2.9900336,0.7555166,6.82097e-06
0.08286654,3.3479353e-07,0.11909542,0.017891452,1.5102151e-07
6.719594e-07,2.7105813e-07,0.17345719,0.024364308,2.5785403e-07
8.999702e-07,7.8499795e-07,0.39522395,3.2596822e-07,4.191642e-07
9.905959e-07,5.0924773e-06,6.374563e-05,2.9149055e-07,8.6905565e-08
5.993319e-07,1.1065819e-06,2.3612814e-07,5.5412227e-07,1.5793421e-06
2.7086506e-07,3.3365316e-07,1.5637633e-07,1.783063e-07,2.227448e-07
5.211595e-08,6.4321874e-08,4.03803e-07,9.588566e-07,1.9788256e-07
3.0689841e-07,1.5543282e-07,1.4665281e-07,9.3764726e-08,2.0585107e-09
6.274648e-07,1.4102813e-05,1.883246e-07,1.0104434e-06,9.05245e-07
3.401434e-07,3.9412143e-07,3.8055248e-07,2.364204e-07,2.021211e-06
3.8884522e-05,1.4059214e-06,7.27804e-07,2.0735088e-07,2.174508e-08
5.6525226e-07,0.47828087,0.0667077,1.2564375e-06,8.1404795e-07
5.277229e-06,9.1502176e-07,1.9574609e-05,0.045326237,1.0763103e-07
9.624148e-07,1.03858096e-10,1.366816e-06,3.621979e-07,1.2180084e-07
1.0176347e-05,8.4735666e-07,1.149044e-05,0.00022176243,1.6591441e-06
0.030007424,1.2856169e-06,1.4163679e-06,0.0012964314,2.6663824e-06
0.07359964,1.589067e-06,0.0028139984,0.09231831,6.297204e-07
5.74126e-07,9.211371e-07,0.12123865,1.4105995e-06,4.4112358e-07
0.008954302,2.0652512e-06,7.385974e-07,0.037372913,1.0097466e-07
1.327007e-06,4.6570462e-06,7.18099e-09,3.286268e-07,1.1291814e-08
2.4041185e-06,8.544853e-07,1.0705779e-07,1.8098425e-06,3.1412287e-06
4.06162e-06,1.0327878e-06,1.5716464e-07,9.98756e-07,1.1151587e-06
1.9672673e-06,1.1297481e-06,8.4442104e-07,3.1738248e-09,1.0643048e-06
3.001741e-08,4.067767e-08,1.322603e-08,4.2297276e-07,3.1906174e-07
0.025353944,2.2351221e-08,6.7651e-08,4.514306e-07,8.9312596e-07
2.2242127e-06,1.6307744e-07,9.887748e-08,1.6455548e-08,1.5362366e-06
2.7441877e-06,1.1201919e-06,8.2443535e-07,3.1900158e-10,3.2335577e-06
1.6641963e-05,1.4250846e-06,2.6457005e-06,1.3770111e-07,2.3413278e-07
1.1315504e-05,4.3501203e-07,6.1612004e-06,5.231695e-07,7.1962825e-07
8.794369e-08,6.3713566e-07,4.7249728e-06,2.9383505e-06,1.9170802e-06
3.9822854e-07,1.1070456e-06,7.477091e-07,3.0167695e-07,9.119471e-07
4.074684e-08,7.873829e-07,5.941023e-07,7.869649e-07,1.5711488e-06
7.5725926e-11,7.1409096e-07,3.6736563e-07,1.1562838e-06,6.4126124e-07
0.0,4.1084357e-07,2.7603965e-06,9.5326226e-07,1.7771464e-06
0.0,1.0832906e-06,1.5854084e-06,2.5904276e-07,1.047249e-06
0.0,1.3729073e-06,1.0048818e-06,9.939905e-07,1.4005654e-07
0.0,5.203594e-07,6.686004e-07,8.2216894e-07,1.3584707e-06
0.0,7.23435e-08,8.954777e-07,5.503888e-07,1.1029321e-06
1.8098908e-07,4.9727164e-06,9.655132e-07,1.693884e-07,8.38204e-07
4.7509693e-07,1.6816291e-05,2.0416717e-06,2.8500644e-06,2.3867307e-07
2.0412902e-07,1.9692196e-05,3.1830209e-07,2.2492632e-06,1.5977172e-07
2.3295016e-08,2.4019473e-05,2.3427424e-08,2.3016914e-06,1.1552837e-06
1.2693183e-06,5.5894697e-07,2.1790202e-10,2.3362587e-07,9.695202e-07
2.4424577e-07,0.0,0.0,0.0,6.1711503e-09
0.0,0.0,0.0,0.0,0.0
0.0,0.0,0.0,0.0,0.0
0.0,5.5920126e-11,0.0,0.0,1.9570585e-09
0.0,4.734954e-06,0.0,0.0,1.3490416e-07
0.0,3.3256327e-09,8.1456e-10,3.7972607e-09,1.7901141e-06
0.0,0.0,8.9103673e-07,5.5881433e-09,0.0
0.0,4.514954e-07,1.8579924e-06,0.0,5.6777615e-08
0.0,3.5068052e-07,8.9253427e-10,0.0,1.0268043e-06
0.0,0.0,0.0,0.0,1.0373562e-07
0.0,0.0,0.0,0.0,0.0
0.0,0.0,0.0,0.0,1.0707412e-08
0.0,0.0,0.0,0.0,1.6268295e-08
0.0,0.0,0.0,0.0,1.6878852e-08
0.0,4.544913e-09,0.0,0.0,1.6541085e-08
0.0,5.0404285e-09,0.0,0.0,4.777014e-07
0.0,1.4688972e-07,0.0,0.0,1.8301736e-05
0.0,3.3134547e-05,3.9256946e-08,0.0,0.00020354752
5.8278818e-08,3.199998e-05,5.815795e-07,3.126601e-10,0.00028532793
2.0708785e-06,1.5470898e-05,3.1206555e-06,1.02965805e-05,0.00013066654
1.65111e-06,2.7785198e-05,4.699763e-06,5.0027127e-05,0.00014321251
0.0,2.5564234e-05,3.5636815e-05,2.7950325e-06,8.0713085e-05
0.0,0.00012568025,9.986667e-06,0.0021519738,7.174129e-05
1.0919858e-09,0.0002247443,9.748191e-06,0.013171516,0.00015118952
3.1340782e-08,9.897118e-05,2.0316103e-05,0.0026060133,0.0002625854
2.8446923e-08,0.000114354494,3.349546e-05,0.00035811614,3.4535526e-05
3.7811736e-09,0.00015994062,2.1346991e-06,0.0015425143,0.00011940143
5.5273106e-09,0.00015878785,2.2802913e-06,0.0012284737,3.4712673e-05
3.4454783e-09,9.585592e-05,4.3178093e-06,0.0035881344,0.00039021918
2.641202e-07,0.00019590986,1.8195902e-06,0.00010356015,0.00036954205
2.7202788e-08,8.4007006e-05,1.257229e-06,0.0022532563,0.00010879028
7.082932e-10,0.0011416923,7.690613e-06,1.8402448e-05,0.00036183745
0.0,0.0011013295,2.8265144e-06,0.00017493253,0.00024652152
3.2394408e-07,0.0009694349,2.1006852e-06,0.00032544884,0.00015637699
6.4063684e-06,0.0030311674,2.7284006e-05,4.803751e-06,0.00043492773
9.9607625e-08,0.00070491096,5.3266554e-05,9.833291e-06,0.0006604115
5.1670748e-09,0.00018298178,3.947576e-06,2.4093978e-07,0.00048847805
5.45656e-07,0.00049657386,4.598212e-06,1.440231e-06,0.00021136427
1.7350324e-06,0.00030629087,2.3260486e-06,7.872228e-07,0.0010359685
7.259026e-07,0.00023344842,5.9344434e-06,3.4012368e-07,0.0010243856
3.3864103e-06,0.00026945228,7.106307e-06,2.399207e-07,0.00046631714
4.695078e-06,0.0021693688,5.871432e-06,3.7775702e-05,0.0005760856
3.3186411e-06,0.0012092866,7.5944276e-06,0.00014840401,0.00020105681
1.3586168e-06,0.00024773696,2.831925e-06,0.000402733,0.00013901132
2.1147391e-06,0.00066209486,3.6271554e-06,0.0005604672,0.007068378
9.583521e-07,0.00032748183,2.8941588e-05,0.000760552,0.0014169165
1.4090518e-06,0.00033715396,8.864367e-06,0.00032214186,0.0013263051
3.7838808e-07,0.0011320824,1.798135e-06,0.000119204706,0.0044596414
2.9531263e-06,0.001143494,8.600834e-06,2.726699e-05,0.00423872
4.1739663e-06,0.024726337,6.178615e-08,5.771938e-07,0.0031778605
2.23055e-07,5.5358174e-05,2.2101684e-08,8.408351e-07,5.973463e-05
2.7652118e-06,0.0015354215,6.5081775e-07,2.4193519e-06,0.00034177513
4.743376e-06,0.00014148877,4.146185e-07,6.45114e-05,0.00035069106
2.832487e-06,0.0004984553,4.2113118e-07,7.2752925e-08,6.6632805e-05
2.235984e-06,0.0050808024,4.2310785e-07,9.118516e-07,0.00040042674
7.5041567e-07,0.00038335007,4.0689946e-07,1.4464587e-07,4.6190664e-05
1.1635678e-06,5.511764e-07,3.7635438e-08,1.7535602e-06,8.522398e-06
1.6043384e-06,0.001602963,4.8252627e-08,1.1010841e-06,1.653281e-06
3.8976746e-06,0.00078213116,1.5582825e-07,5.562448e-07,7.604887e-07
2.3452978e-06,0.00024338988,1.3096901e-08,1.1314664e-06,4.868695e-07
1.180295e-06,2.08854e-06,3.8412495e-08,1.9103095e-06,4.8283214e-06
2.0912007e-06,9.3289304e-07,9.528471e-07,2.273921e-06,1.3907979e-06
6.856865e-07,4.1722783e-06,3.5869488e-07,1.5181286e-06,2.327965e-06
1.9545282e-06,7.298334e-07,4.23541e-07,4.79888e-07,8.502613e-06
4.0125073e-07,8.324559e-07,1.0171302e-06,5.477789e-07,5.6569934e-06
2.710945e-06,0.09964637,1.8889966e-07,8.9738705e-07,2.2842896e-06
0.0014143989,0.050088678,1.3228846e-06,1.1943928e-06,0.118113704
6.3733614e-07,5.1408847e-07,2.9385475e-07,4.683429e-07,0.06476777
0.0058434224,5.691299e-07,3.2617374e-06,5.1866627e-06,1.2881283e-06
3.253611e-07,1.80129e-06,1.8325703e-06,4.8105086e-08,1.0157679e-06
2.295792e-06,6.568834e-07,4.895252e-07,2.1674236e-06,8.799545e-07
0.087722614,0.0034047035,0.00057457486,0.8482139,2.7570918e-06
0.831795,3.886999e-06,0.2970266,0.1936116,0.013241331
8.374202e-06,1.5257818e-06,0.50553477,1.4352954e-05,9.3581724e-07
3.6926951e-07,1.1177732e-06,0.029505478,1.1613621e-06,9.920277e-07
2.7940675e-07,5.3878927e-07,0.023720792,0.37241143,0.08993468
1.8478183e-07,1.2625094e-06,0.0029401202,2.8276703e-05,0.17691813
1.201163e-06,9.979004e-07,1.2965016e-07,3.9432663e-07,2.3938685e-07
1.7599379e-07,0.31714752,0.0011016906,1.3992327e-06,1.047725e-06
2.4043328e-07,6.065185e-07,0.007548624,0.101319864,6.844102e-07
1.0658277e-06,0.7716643,0.10270698,0.2822986,5.670172e-07
2.4376748e-06,0.00015573122,0.036245592,0.96630245,4.8267975e-07
3.9886745e-06,7.90906e-07,0.0018015164,0.08508024,3.9168285e-07
2.5270265e-06,5.644014e-07,0.12981059,0.03158959,5.386576e-07
3.1756513e-06,1.7506694e-07,0.0058387513,9.477596e-08,7.9279323e-07
5.1475326e-06,8.144559e-08,0.05794519,2.8322486e-07,5.5587077e-07
2.293881e-06,4.7807987e-07,0.0055899983,1.7849398e-07,5.558651e-07
3.9675665e-06,7.7075583e-07,0.014849911,3.5223178e-07,8.568768e-07
2.2506686e-06,0.008821057,4.1653143e-06,5.0899473e-07,1.4100522e-06
3.8234188e-07,0.008880338,0.010675899,0.12018405,0.036625855
5.285006e-07,0.1851482,1.0680717e-06,0.07387303,0.042024907
1.1974262e-06,0.6039918,2.948012e-07,2.3177867e-05,0.28369996
0.003783862,0.3264187,0.105860285,1.440113e-06,0.06614947
0.17001094,0.1523644,0.004388096,1.1582687e-06,0.09438141
0.69089806,1.1396666,0.0143231535,1.0963383e-06,1.2240645
1.4201618,1.9003404,0.027890842,4.4566227e-07,2.4033034
0.6757755,0.3746774,0.1430981,9.313524e-07,0.8960926
0.14902337,0.025824228,0.19237456,2.098651e-07,0.033985265
0.0020671294,0.0027918254,0.52702826,0.2136326,0.00047506407
1.761739,1.1561791e-05,0.21568003,0.5996167,1.0307142e-06
1.4997568,1.8788857e-06,0.48292607,0.061897505,6.332588e-07
0.2105154,2.3763978e-06,0.018769009,8.513201e-08,4.677745e-06
0.0004978113,3.5623103e-07,3.8102837e-07,2.3797682e-09,7.163814e-06
0.002374879,3.215854e-06,4.577938e-09,0.0,2.936384e-06
0.00040416876,4.6097184e-06,2.707721e-07,2.47178e-07,5.638006e-07
0.00029503228,2.379655e-07,3.550794e-07,1.9302263e-07,7.4164444e-07
0.00069064,0.0,5.7956207e-08,6.650646e-09,0.0
0.0014793273,0.0,8.466667e-08,8.459429e-07,0.0
0.0033844274,0.0,2.3475312e-07,4.343749e-07,0.0
0.003860281,0.0,2.2665825e-09,1.2119255e-06,0.0
0.00015449224,0.0,1.088441e-06,5.7630437e-08,0.0
1.4179116e-06,4.7746673e-09,7.490461e-07,2.411657e-07,5.968878e-08
5.5494746e-07,1.6662267e-07,5.273989e-07,4.2776827e-07,6.9221306e-07
1.6403698e-08,6.69687e-06,6.079811e-07,1.7745075e-06,1.7048618e-06
8.440157e-08,2.3022137e-06,6.770485e-07,1.0094177e-06,5.181789e-07
1.0212545e-06,1.698272e-07,1.1070142e-06,7.000127e-07,1.2861651e-06
1.143429e-06,1.263727e-07,0.013427044,1.0344459e-06,4.9524436e-07
2.393651e-06,5.569473e-07,0.009567336,0.0009816753,1.8410645e-06
5.9161384e-06,1.1609203e-06,0.15906666,0.02085967,2.141125e-07
3.8589765e-06,2.3102427e-06,0.09279833,0.0013297625,1.8652554e-06
3.1397785e-06,0.33807686,0.0012619982,0.16194932,0.3009868
3.9991232e-06,1.1076975e-06,1.07734095e-05,0.5714097,1.6775881e-06
2.1375104e-06,1.1562256e-05,0.41529566,0.2225145,5.318734e-06
1.3996088e-06,7.3816534e-07,0.0051997947,2.0360237e-07,2.6283365e-06
4.042373e-06,4.2837128e-06,6.293457e-06,0.09651892,1.5045323e-05
3.749934e-06,1.2139919e-05,2.448348e-06,2.2776605e-06,0.00016073862
7.0635735e-07,2.29679e-05,6.692735e-07,1.3374806e-06,0.0013801117
3.3274173e-05,1.1909565e-05,6.291991e-07,7.043523e-08,0.008447917
0.00026126934,2.6439926e-05,1.4437214e-06,2.8712685e-07,0.005632494
0.00047106756,1.6533273e-05,2.0746409e-06,2.1470419e-06,0.0056582815
0.0015192635,0.00012171739,6.5158e-07,2.9040504e-07,0.0009489801
0.0022867022,0.0005424617,9.384619e-07,4.4495494e-08,0.00014249615
0.0024663827,2.4477486e-06,2.5565583e-07,3.8292867e-09,0.00024741003
0.0052229413,1.3588427e-06,1.2946417e-06,2.5901711e-08,0.002419025
0.0058567333,3.6555386e-06,2.515268e-06,1.0030156e-07,3.2079013e-06
7.954643e-05,3.2203131e-06,1.2578693e-06,2.5453642e-07,1.5626742e-06
5.0037926e-07,3.9359043e-06,1.2158107e-06,6.790369e-07,7.1056097e-06
9.649257e-07,1.3029427e-06,1.0211488e-06,3.0595397e-06,7.31327e-06
4.2691576e-07,2.9104237e-06,9.2700486e-07,2.047085e-06,5.4867684e-07
5.56317e-07,1.2078149e-06,1.538509e-06,1.2193575e-06,2.801774e-07
2.4728363e-06,1.3675786e-06,9.107173e-07,2.7663611e-06,1.2343797e-06
5.527061e-07,1.8605135e-06,1.2429176e-06,1.7479308e-06,2.0085927e-06
2.6308196e-06,8.406656e-07,7.95804e-07,1.0169822e-06,2.6032233e-06
1.9083582e-06,2.9398765e-07,1.2440508e-06,1.2891969e-06,1.7827973e-06
2.886581e-06,0.0,1.444982e-07,1.3995262e-06,3.6016296e-08
4.1553626e-06,0.0,4.082056e-08,5.2255297e-07,0.0
7.844584e-06,0.0,2.46202e-07,9.8531935e-08,0.0
3.4038257e-07,0.0,2.6219388e-07,1.718609e-09,0.0
3.1519096e-07,0.0,8.322874e-08,0.0,0.0
0.0,0.0,0.0,0.0,0.0
0.0,0.0,0.0,0.0,0.0
0.0,0.0,0.0,0.0,0.0
0.0,0.0,0.0,0.0,0.0
0.0,0.0,0.0,0.0,0.0
0.0,0.0,0.0,0.0,0.0
0.0,0.0,0.0,0.0,0.0
0.0,0.0,0.0,0.0,0.0
0.0,0.0,0.0,0.0,0.0
0.0,0.0,0.0,0.0,0.0
0.0,0.0,0.0,0.0,0.0
0.0,1.0444465e-06,0.0,0.0,0.0
0.0,1.139193e-06,0.0,0.0,0.0
0.0,1.0073606e-05,5.4737296e-08,0.0,0.0
0.0,1.5230869e-05,7.4620416e-06,0.0,7.2221917e-09
0.0,3.5486203e-09,3.5958153e-06,0.0,9.513331e-08
0.0,1.6974292e-07,3.0729154e-06,0.0,9.178488e-07
0.0,1.3151215e-06,8.338919e-07,0.0,4.3665796e-06
0.0,2.0672262e-06,8.629495e-07,0.0,2.6311236e-06
0.0,3.1404267e-07,6.8634668e-06,0.0,6.7415563e-06
0.0,4.8288015e-08,3.105399e-06,1.5735463e-10,1.2250247e-07
7.303128e-11,2.7531573e-08,2.9593099e-05,1.2095834e-08,4.823815e-07
3.5576906e-07,3.0839704e-08,1.0830564e-05,3.0284673e-09,1.4521253e-06
1.6629092e-07,5.755165e-09,1.8348628e-06,4.8165875e-06,7.598224e-06
3.6266694e-05,9.997666e-09,9.690218e-07,5.9366807e-06,1.8391733e-06
0.0,1.7353283e-09,2.7105034e-07,5.327937e-06,5.8921206e-08
0.0,0.0,5.4627264e-08,5.140468e-07,6.063915e-09
0.0,0.0,2.9416566e-10,8.4240327e-07,8.877909e-11
0.0,0.0,0.0,2.0760594e-06,0.0
0.0,0.0,0.0,1.9971667e-06,0.0
0.0,0.0,0.0,1.6739493e-08,0.0
3.879308e-08,4.0980517e-06,6.997216e-08,3.59625e-08,4.1303147e-06
7.9610645e-06,0.00015302151,1.6690199e-06,1.4239403e-07,8.933115e-06
4.539417e-06,3.8013947,1.9363727e-06,9.259524e-08,0.7919605
2.4799157e-05,5.2850957,4.0184524e-08,2.4021458e-07,2.130002
6.6476383e-07,1.4402204,0.00045651055,2.0882855e-05,2.763933
2.4294535e-05,0.30532312,0.76336163,0.42267027,1.5431364
0.04018554,0.0021211263,3.3430421,2.67342,0.26853198
4.2398233,3.445058e-07,2.7259805,1.4727598,4.3818527e-05
1.551791,3.1424275e-07,3.6947894,1.2069011,9.802669e-07
1.0245958e-06,4.1681414e-08,1.0533582,0.058223795,1.04144405e-07
2.5739166e-06,0.0,2.5491678e-07,4.3247172e-07,9.610321e-07
2.5633295e-07,0.0,3.5423263e-08,3.1750298e-07,0.0
8.424054e-07,0.0,1.2191564e-08,5.022854e-08,0.0
0.0,1.5145856e-06,7.2904854e-08,2.5689445e-11,1.4219417e-07
0.0,2.660061e-06,1.0370958e-08,0.0,4.891437e-07
1.4663532e-07,1.0911097e-06,0.0,0.0,2.5056744e-07
6.9202326e-07,7.2003166e-07,2.5629043e-09,3.7594997e-10,8.3784425e-07
5.78913e-07,1.0027082e-06,5.180893e-08,1.1382606e-08,3.8455104e-07
1.318762e-07,2.2956272e-06,4.344813e-07,1.986281e-08,7.872602e-07
1.5333267e-08,7.4431443e-07,8.3585047e-07,6.693566e-08,0.012481878
2.8082518e-08,7.062923e-07,5.922984e-07,4.799766e-07,7.690114e-06
2.1865014e-07,3.0064578,0.0007753824,9.280901e-07,1.468842
2.6081497e-07,0.38058662,1.4645162,4.1293215e-06,0.025579246
2.3474935e-07,1.4144073,0.65753555,0.22813372,1.1901132
1.0857527e-06,3.976737e-07,0.38818714,0.020232016,0.0003304162
4.0832722e-07,3.8217568,1.0977946e-06,6.163224e-07,0.00013902372
8.785937e-07,7.603657e-07,0.08000074,4.2575154,0.514367
0.1912581,1.6771281,0.0011662926,0.67543626,5.262915e-06
0.19033259,3.4245534e-06,8.0314116e-05,4.0103117e-07,2.2262323e-06
0.00034940126,1.4083249e-06,2.006767,5.3378324e-07,6.348212e-05
1.3581084,4.4008434e-06,4.3026124e-05,0.6999499,6.605224e-06
2.049954,7.80509e-06,1.0648303,1.3116136,2.2439278e-07
0.74656016,1.1568567e-05,0.5939537,1.5948019e-06,3.5568212e-07
1.3425443,1.2442477e-07,2.304484e-07,7.4822236e-07,4.8265833e-06
1.153385,1.062055e-09,2.8572616e-08,1.7691412e-06,4.337334e-05
0.004424328,6.366161e-09,1.1224413e-06,2.3462749e-06,8.447367e-09
0.15914889,0.0,5.032682e-08,2.3838825e-06,0.0
0.42070094,0.0,8.978334e-08,4.192468e-06,0.0
0.05794642,0.0,3.6159997e-07,2.687148e-10,0.0
0.032556105,0.0,2.537979e-10,3.5432814e-07,1.54765e-08
0.023997992,1.8752977e-06,9.954602e-09,1.3589383e-07,0.0
0.038859587,2.461269e-07,1.0990709e-06,2.373818e-06,0.0
0.005904596,0.0,8.5373795e-06,1.0942737e-07,0.0
1.5355287e-06,0.0,7.3151347e-07,2.91723e-06,0.0
1.798514e-05,0.0,1.4460406e-06,2.5342072e-06,0.0
0.0009866714,6.252312e-10,1.59265e-08,1.6159325e-06,0.0
0.008460484,1.4142297e-09,3.900748e-07,9.4436274e-08,1.7045015e-07
0.0006460984,0.0,1.5611712e-06,1.1601747e-07,4.3084182e-07
0.0031521958,8.839359e-09,2.1140677e-07,5.6359283e-07,2.7911765e-06
0.0048120366,9.177729e-09,2.8091873e-07,2.405774e-07,1.84199e-07
0.003987746,1.360057e-06,2.487997e-06,1.6116097e-07,2.7741808e-07
0.32692423,8.363427e-07,3.5280248e-06,5.871048e-07,8.206685e-07
3.7918372,8.114921e-07,2.750712e-05,1.0332665e-06,0.04609034
1.1223695,1.3085621e-06,1.214262e-05,6.9877806e-06,0.12671363
0.042074934,5.789174e-06,2.8946464e-05,2.0493867e-06,0.008614198
0.07096633,3.464152e-07,0.051551867,0.00293691,5.0243364e-07
1.7575529,0.00038465328,1.1491184e-06,0.3507581,1.0331524e-06
2.3103917,2.651081e-08,0.2557759,0.11083194,1.4770089e-06
1.5256513,1.3308691e-07,0.44155955,1.2728344e-06,2.6405056e-07
1.8582159,6.728221e-08,0.36063913,1.8843081e-06,9.971553e-09
0.10261583,7.2519055e-07,0.22862883,6.444914e-07,4.958145e-06
2.491189,0.0,0.25023356,7.8706835e-05,0.0
0.7627555,0.0,0.9164362,0.4006074,5.169546e-09
0.05034395,0.0,0.0002637217,0.013881966,6.122085e-06
0.006498393,3.675155e-09,0.0012167644,0.0003449717,9.827464e-07
0.0056758174,2.5749696e-07,0.27994522,0.016242828,5.032654e-09
0.015538368,4.9669446e-09,0.026882542,2.8237475e-06,1.3772939e-06
0.17613953,1.0354794e-06,7.0093874e-06,0.0030523664,2.3820714e-07
0.010439085,4.2274388e-07,1.4962825e-06,0.083637,7.639294e-07
0.0018577551,1.2327433e-06,2.5377858e-06,0.1377283,9.298579e-07
9.709575e-05,1.0205151e-06,1.327099,7.178134e-07,1.6854216e-06
1.805163e-06,2.5029951e-06,3.2914307,1.6387599,1.8781045e-06
1.9023954e-06,6.9988965e-07,0.3782033,0.12979387,1.5323707e-06
5.439429e-07,1.5136408e-06,0.3367005,0.35825324,9.506386e-07
9.743086e-07,1.938497e-06,2.70258e-07,9.75763e-07,0.04875481
8.744181e-06,0.034957606,2.0127882e-06,7.5956777e-06,0.25882244
2.7796399e-05,0.00037600103,1.8531914e-07,1.1984518e-07,2.595869e-06
0.029292189,4.151998,8.607102e-07,8.023883e-07,4.366541
0.1399726,9.578242,6.0126285e-07,1.1959646e-06,1.1791835
0.08972094,0.43229002,1.4403538e-06,2.1290996e-06,3.2415412e-06
1.0653511e-06,6.5141427e-07,1.8794306e-06,2.5502306e-06,8.266981e-07
5.7704758e-05,4.9298797e-06,1.5978223e-06,1.2662725e-06,1.3222201e-06
3.5192102e-06,2.0488876e-06,5.28574e-07,1.2220548e-06,2.2370614e-06
1.3323462e-06,1.5899273e-06,1.4451217e-06,2.35493e-06,6.871492e-06
1.1612335e-06,1.6806301e-07,7.5789023e-07,7.4980558e-06,1.8939444e-06
1.0572089e-06,9.716299e-07,6.467892e-07,2.3040348e-06,7.198141e-07
2.128048e-06,5.2954715e-07,1.17927875e-05,7.5285953e-07,6.893086e-07
2.707772e-07,7.0082126e-07,2.3971118e-06,5.579749e-07,9.302551e-06
5.2695225e-07,2.8281806e-07,4.553463e-07,1.2251968e-07,8.8090314e-07
8.6449305e-08,1.0851571e-07,1.7561472e-06,2.758117e-07,3.1660563e-06
6.1497135e-10,1.2982782e-08,2.1990277e-07,1.572606e-06,5.650722e-06
1.9611065e-08,1.8385539e-06,1.1186934e-06,1.9000422e-07,3.1838442e-06
8.5914e-08,1.4333416e-06,1.9224447e-06,5.9969585e-07,1.6795208e-06
3.116488e-09,1.0264788e-06,3.600606e-07,4.9008435e-07,3.3081492e-06
1.73265e-07,0.0,3.0112205e-06,1.128039e-07,1.2665515e-06
8.180527e-08,4.4262773e-08,3.6832202e-07,3.8585384e-07,3.1704477e-07
2.0736823e-07,1.713707e-06,7.791711e-07,3.658302e-07,1.3683629e-06
5.739902e-07,1.0653918e-06,1.0463279e-07,8.096677e-07,1.47966e-06
2.2149827e-06,3.7013803e-07,1.3429323e-07,1.3445956e-06,5.7054995e-06
6.102834e-07,9.033265e-07,1.7050515e-07,6.8638656e-07,1.1595072e-06
0.11765921,9.305965e-07,8.572224e-07,4.428671e-07,3.656951e-06
3.209326e-05,4.9282454e-07,1.2496364e-06,4.3653617e-07,1.5011245e-06
1.2569631e-06,5.9820974e-07,5.434457e-07,1.2612195e-06,2.4771728e-06
1.3416503e-06,1.336918e-06,1.9076018e-07,1.0165262e-06,5.934898e-07
9.82851e-07,6.1288824e-07,1.1240323e-06,1.0785748e-06,1.0753666e-06
1.2839266e-06,1.0795119e-06,1.3057575e-06,3.0268188e-06,4.047929e-07
8.829618e-07,7.348259e-06,7.181242e-07,1.7445429e-06,2.4093524e-07
1.2131044e-06,2.1527321e-06,1.9221102e-06,2.03554e-06,1.8054908e-06
1.9944853e-06,1.9837864e-07,4.457834e-07,9.229542e-06,1.8836066e-07
4.724953e-07,0.0,2.360323e-06,3.4188329e-06,0.0
1.1059925e-06,0.0,1.788257e-07,1.3625439e-06,0.0
4.0837162e-06,0.0,4.0093317e-07,2.7945086e-07,0.0
2.0581033e-06,0.0,9.013649e-08,2.0911073e-06,0.0
4.1859002e-07,0.0,6.4383903e-07,1.1655604e-06,0.0
4.626067e-07,0.0,8.885583e-07,1.1541683e-06,0.0
6.1790183e-06,0.0,0.0,4.258049e-07,0.0
5.7163024e-06,0.0,5.8415467e-10,0.0,0.0
0.0,0.0,1.4850494e-07,0.0,6.47167e-09
0.0,0.0,1.6987072e-07,0.0,2.32967e-07
3.2247446e-08,6.679731e-10,7.878265e-07,0.0,6.3486783e-07
1.4749901e-06,4.8795737e-08,1.0168611e-06,0.0,2.5699904e-07
5.8233985e-07,9.1553943e-07,2.55251e-06,9.287359e-07,1.7150845e-06
2.7998328e-07,7.1607406e-07,2.3539258e-06,1.2306816e-06,2.1125968e-06
4.5226298e-07,1.6694848e-06,2.3389161e-06,2.4874366e-06,2.835044e-06
4.8185154e-07,1.3106598e-05,5.940758e-06,2.256021e-06,1.3701829e-06
2.5281993e-06,1.2008904e-06,5.5096684e-06,6.3274643e-07,4.0168686e-07
2.7803246e-06,6.2210706e-06,7.5190303e-07,5.752927e-07,5.9438308e-09
2.2359116e-06,2.036026e-06,7.971897e-07,7.4239637e-07,2.8719636e-09
7.720755e-07,1.022613e-07,8.464844e-07,5.9868974e-08,1.847126e-07
1.7655611e-06,0.0,6.577726e-07,3.534577e-07,3.7870745e-07
2.7536225e-06,0.0,1.8179356e-06,6.607597e-07,0.0
3.821908e-06,0.0,9.843861e-07,2.8188222e-07,0.0
1.9899308e-06,0.0,3.6991898e-06,1.1314458e-07,0.0
2.9717476e-06,0.0,2.653278e-06,5.5967075e-07,0.0
3.2019543e-06,0.0,2.3951986e-06,3.72774e-07,0.0
1.845628e-06,0.0,1.1979032e-06,7.9055735e-07,0.0
1.1095159e-06,0.0,1.7340629e-07,1.6073245e-06,2.529838e-07
1.0052074e-06,0.0,1.5224697e-06,1.1984616e-06,4.5274655e-06
8.118502e-07,0.0,3.906907e-06,1.7073147e-06,6.152226e-07
5.088175e-07,0.0,2.2915485e-07,2.5174236e-06,3.957962e-09
1.2755092e-07,0.0,1.9787046e-07,9.614143e-07,0.0
1.2403193e-07,0.0,1.1651457e-07,3.242169e-07,0.0
1.0914982e-08,0.0,1.0082598e-07,3.1718864e-07,0.0
1.9187762e-08,0.0,6.1788995e-08,9.351169e-08,0.0
2.2259558e-06,0.0,1.6695553e-06,7.0889473e-07,0.0
4.8519663e-08,0.0,2.4580509e-06,2.3881762e-06,0.0
2.7953808e-09,0.0,6.384064e-08,2.609932e-06,0.0
2.669558e-08,0.0,4.6452424e-09,1.5245416e-07,0.0
9.712246e-08,0.0,7.7599213e-07,1.039132e-06,0.0
1.9706617e-06,0.0,2.220774e-06,1.1930591e-06,0.0
5.681762e-07,0.0,4.1024688e-07,6.4519136e-06,0.0
1.08990015e-07,0.0,1.5485136e-07,8.55866e-06,0.0
1.01648006e-07,1.2753202e-07,3.4695938e-06,2.811654e-06,0.0
2.642642e-06,8.110639e-07,5.809891e-07,8.545429e-08,0.0
5.7031076e-07,0.0,0.0,1.0312156e-06,0.0
3.4791447e-07,0.0,0.0,0.0,0.0
2.3292995e-07,1.3983723e-09,0.0,0.0,0.0
0.0,2.5925987e-08,0.0,0.0,0.0
0.0,9.512456e-10,0.0,0.0,0.0
0.0,7.6054096e-07,0.0,0.0,0.0
0.0,0.0,0.0,0.0,0.0
0.0,0.0,0.0,0.0,0.0
0.0,6.3884174e-05,0.0,0.0,3.0559015e-05
0.0,0.0004208617,0.0,0.0,0.00016176623
0.0,0.00030653336,0.0,8.741759e-08,4.5270033e-05
0.0,0.000564908,3.0545408e-07,2.1724613e-06,6.8450005e-05
0.0,0.12566334,6.9022094e-06,1.0409505e-05,0.00017878544
2.5314834e-10,7.3480182e-06,0.00021343771,0.4979521,0.07439811
4.3263212e-06,4.703148e-06,1.0656986,0.8419915,5.887032e-07
1.1130371e-05,5.971219e-06,2.001901,0.5531145,2.4733422e-06
0.00017066323,3.987289e-06,0.23035628,1.5180754e-06,0.011340476
1.0733687e-05,0.0044723,2.7742425e-07,5.2083906e-06,0.10344878
0.00084294844,0.1654988,3.505607e-06,5.456325e-06,0.12120981
6.6067056e-05,0.13127284,2.4608967e-06,2.359776e-06,0.083427936
3.6066826e-08,0.10705527,1.5938205e-05,1.35370865e-05,0.09210713
6.547254e-07,0.1199909,0.026290966,0.010380444,0.11374626
3.4530142e-06,0.11299839,0.03798827,0.0020890897,0.0841433
6.9871913e-07,0.19712818,0.032720655,0.004759726,0.072821245
2.3290274e-06,0.11565189,0.005449702,0.00015148321,0.08314324
3.5914527e-06,0.083448865,5.1892503e-06,1.2046246e-05,0.06950898
6.907366e-06,0.151704,2.2769934e-06,5.612249e-06,0.076111875
4.073019e-06,0.2275863,7.0333044e-06,8.661993e-06,0.08629461
8.325915e-06,0.2523581,0.00013838001,5.1645193e-06,0.099744566
3.879625e-05,0.3019364,0.004781483,4.2923257e-05,0.15139267
0.00023454275,0.35147452,0.0118065495,0.0003512082,0.19402169
0.0003039516,0.40514866,0.022757178,0.003542014,0.32573014
5.049244e-05,1.4895886,0.05856894,0.003476329,0.54915476
6.3724883e-06,2.2758386,0.17388658,0.2956259,2.3387678
0.6428539,0.2990713,0.25549468,0.22107993,0.4426401
0.60316247,0.26237866,0.314046,0.846101,0.16684784
0.16521348,0.3573068,2.0134106,1.9948155,0.4840873
0.05567056,0.2904639,1.6686422,1.0419518,0.36094844
1.1637825,0.2460229,2.8887308,2.4129317,0.21144806
0.5705584,0.12015685,3.1169145,1.794843,0.1746964
0.020414045,0.035383813,1.253202,1.7771971,0.12642586
0.059492607,0.0965334,1.2351137,0.43365708,0.12477562
0.014131031,0.130013,0.11618533,0.8027609,0.16348487
0.003647977,0.03634181,0.047227055,1.1580578,0.18435729
0.0055048675,0.22151987,0.12663433,0.13476424,0.13694158
0.012094559,0.1918974,0.09595875,4.2737294e-05,0.96546805
0.00023998375,0.07838455,0.009182002,0.0008906519,0.5359657
0.0705241,0.059905987,8.4184717e-07,4.7681424e-06,0.036282
0.0060410965,0.034503054,1.6076139e-06,0.011310129,0.030253084
0.17859024,0.36714613,0.06258401,0.5875294,0.012853279
1.8268888,1.9589155,0.22489804,2.5752347,1.1091795
1.3093883,2.6994677,1.0701951,1.4304559,1.5089111
1.3191476,0.7548149,0.9359408,1.1186103,1.1082287
1.946405,0.030851668,0.9818621,0.34504583,0.0011924686
3.4574142,0.005370176,1.0798411,0.30233842,0.32400998
2.1747897,0.054257408,0.6816283,0.20663154,0.08976425
0.55975735,3.6454217,0.09868434,0.15494685,1.8097066
0.02748798,3.3450954e-06,0.22543928,0.028022038,0.0494304
0.092593335,1.4597623e-06,0.444318,0.015219696,1.8219134e-06
0.74011874,9.58385e-07,2.8056993,0.0003186543,1.004963e-06
0.05940469,9.851868e-07,0.0018422464,0.0005163111,0.00056547555
0.00041102018,1.1342175e-06,2.9717934e-05,0.012943517,1.1495655e-06
0.073062845,7.5678804e-07,7.2685856e-05,0.00082420936,9.0355184e-07
0.08446666,7.125751e-07,0.27648526,5.0129374e-06,1.1473581e-06
9.809903e-07,2.1192994e-07,3.9206807e-06,1.5482746e-06,6.576512e-07
3.0009403e-07,1.3841146e-06,1.5650968e-06,1.4179186e-06,4.659865e-07
1.3456272e-06,8.369173e-07,9.982649e-07,9.874715e-07,1.4491885e-06
0.04426007,4.4307544e-07,1.197924e-06,1.4752103e-06,1.6500921e-07
1.1398362e-06,9.293513e-07,5.801449e-07,0.8939724,6.072645e-07
1.0954293e-06,1.1700882e-07,2.8124765e-07,0.00052509224,2.0881782e-06
2.4917463e-06,3.132866e-07,3.2556738e-07,1.4259938e-06,9.3190727e-07
0.15533409,3.6779795e-06,1.1918539e-06,2.2515437e-06,3.3671517e-07
6.809542e-07,6.0506543e-05,3.5338153e-06,1.2691469e-06,7.114952e-07
1.2488695e-07,3.7906577e-06,2.903511e-06,1.7000388e-06,3.5088974e-07
4.2075024e-07,5.692891e-06,2.9894127e-07,1.6003709e-07,5.487509e-06
1.3813277e-05,1.3455173e-07,0.00034650796,2.8924022e-08,6.0585344e-06
1.2521065e-07,1.0068851e-05,5.815402e-10,8.2673495e-07,2.2062773e-06
2.7140823e-06,3.378835e-07,3.3103407e-09,3.1014693e-07,1.8390117e-06
4.332721e-06,1.0217203e-06,2.370229e-06,6.357213e-07,2.9527598e-06
5.8446125e-07,1.8590227e-06,3.7120657e-07,1.0293404e-06,8.844367e-08
1.1775884e-07,2.3284774e-07,3.7066826e-08,8.548491e-07,5.237616e-07
3.6005844e-08,0.0006487173,4.681099e-07,6.498216e-08,1.1397367e-05
9.183056e-08,0.5370104,1.8297125e-07,2.8590208e-07,0.70152897
2.095013e-08,1.0223299e-06,1.7081181e-08,4.5300789e-07,1.3325297
9.927619e-08,0.35580182,0.00021240138,0.084427804,8.618473e-06
7.854262e-07,2.399625,0.1333552,0.38490912,1.7236041
0.016635435,2.9832153,0.2852663,0.30421317,2.0168211
0.34826478,2.4344976,0.037105132,0.20520347,2.815162
0.04596975,1.7895883,0.7912935,0.034667637,1.2773008
0.54194254,1.4298868,0.04672308,0.030072467,0.9336515
0.09767319,3.8231437e-07,0.9687522,0.027498571,0.4432814
0.25961578,1.6248509e-06,0.2161144,0.49751222,0.6258904
1.3229847,8.316669e-07,0.23680006,0.90411294,1.1107579e-06
0.18455546,1.2092272e-06,3.6385868,3.641825,1.5658339e-06
0.9509002,1.6896732e-06,0.6595507,0.5497952,0.07795882
1.2617756,1.5209815e-05,0.02382473,1.4791597e-06,0.00036259106
0.76831496,9.175588e-08,0.14817268,0.0005388926,0.0004451521
0.14031468,4.556162e-07,0.09305934,0.00014911374,5.709344e-07
5.6532366e-07,4.1011394e-06,0.06223469,0.0006356528,7.779512e-07
8.175885e-07,3.5539072e-06,0.07715008,2.0882978e-06,3.8477533e-06
1.7394201e-07,1.7642078e-06,1.7282377e-07,2.509581e-07,2.1745084e-10
5.8010155e-06,6.125478e-07,9.870582e-09,0.2707654,1.0726562e-06
1.8522916e-06,2.9178423e-06,5.435374e-08,0.0004374199,4.8270817e-06
1.7955148e-06,2.1971805e-06,2.9474274e-08,1.5931278e-08,1.9776848e-05
0.0006429199,0.02457447,2.0477398e-08,7.3369385e-08,0.16218232
1.6332058e-06,1.5517719,4.132999e-09,2.3459021e-09,1.7440639
1.1389644e-07,0.91819286,9.64883e-07,1.0323487e-07,4.021925
3.326196e-06,1.2519561,0.048879545,1.8695499e-06,1.8591563
0.3600462,5.6302023,0.4406344,0.007251249,2.3453526
0.62060237,2.806053,0.82005984,0.10351377,0.06737555
1.0950675,0.30285567,1.5343248,0.08904988,2.8248394
2.524787e-07,3.0839947e-05,3.2840781,0.066735975,0.86969274
2.7321292e-07,7.817455e-07,4.011889,0.424241,0.0011694483
0.38010275,2.1020935e-07,7.4923778,0.3603611,4.1872465e-07
0.6328737,1.0118001e-06,2.3243587,1.2797459,9.24987e-07
0.14440365,4.7405354e-07,0.8952864,0.21108048,0.33469954
0.08040454,2.434589,1.7579602,1.1871372,5.7469893
1.4245145,0.23872176,10.146375,0.119465984,0.08469185
6.2634788,1.149436e-06,2.6742654,0.06556533,1.2469286e-06
5.9139085,8.669728e-07,0.19229136,7.965185e-07,8.8890096e-07
3.37096,6.442212e-06,0.018354857,1.4969008e-06,1.3006113e-05
2.565455,3.5018482e-05,1.3379225e-06,9.684624e-07,4.1493504e-06
0.59820485,4.6476885e-06,1.1921934e-06,3.2078586e-07,2.7661013e-06
1.0160927,1.2947351e-06,3.3541423e-07,0.7685749,3.8940734e-06
0.083134696,1.4982179e-05,0.102580346,1.5750133,4.2687333e-07
0.22930025,7.6271613e-06,0.00013272696,0.00014188813,9.11982e-08
1.9979327,2.9071944e-07,0.07071214,2.6941046e-07,1.4740687e-06
0.25057054,9.093544e-08,7.625976e-07,3.712967e-07,0.000262946
9.148634e-07,2.9390995e-07,3.0290735e-07,4.1729209e-07,1.8551342e-06
8.548297e-07,1.1198418e-06,5.0848516e-06,8.266536e-06,1.3410112e-06
2.4584626e-06,9.834718e-07,4.605916e-08,0.10632443,1.4202407e-06
8.9194594e-07,1.2399157e-06,1.8479259e-05,1.9152615e-06,6.3314315e-07
1.2460867e-05,9.356075e-07,3.0604505e-07,0.72031355,6.543475e-07
8.345385e-06,2.2852196e-06,0.0002602136,0.017526317,4.8085576e-07
1.9770857e-06,4.230465e-07,0.29123247,0.0007070108,9.774442e-07
1.3129056e-05,2.2490579e-07,8.968818e-08,0.062273894,4.4157377e-07
0.3347921,6.206576e-07,0.046053056,8.679409e-06,3.5880078e-07
0.1509521,5.6769846e-07,0.012888671,1.4074031e-06,6.8845367e-07
0.0029304442,1.6259514e-06,4.685768e-08,4.7374104e-07,3.9268166e-06
0.00037071237,1.5368731e-06,3.4279477e-05,1.6840165e-06,2.1192297e-06
0.43260726,1.1908489e-06,7.6439e-06,1.7352195e-05,2.5746967e-06
5.289784e-05,2.662634e-06,0.7636988,6.652545e-07,1.0144494e-06
1.6465434,0.0006300737,1.5294452e-05,0.4074281,2.4709409e-05
2.0316495e-06,0.024321964,1.0995824,4.73552e-07,1.3534689
6.9282146e-06,1.216173e-06,5.435013e-07,0.01148992,3.2391964e-07
7.124203e-06,1.2767221e-06,1.0843063e-06,0.029630287,9.437573e-07
0.00046007926,0.31671712,2.965979e-06,0.35739732,6.1068135e-06
8.574434e-06,8.995452e-06,4.1610878e-05,0.04506452,0.13478935
0.007779479,1.3407945e-05,0.00024347636,1.6473291,0.0016189759
0.0002115026,4.7479984e-06,0.22369434,0.0038306923,2.0689317e-06
1.1072359e-06,6.6366647e-07,0.16233797,0.06025231,3.9152546e-06
0.00011060874,1.8880829e-06,3.0081937,0.8854284,1.2060418e-06
0.47640866,2.113938e-06,0.00067499286,0.022808624,1.970249e-06
