"[299, 255]","[227, 248]","[287, 319]","[279, 328]","[230, 262]"
1.2998992e-05,9.5040525e-07,3.1290662e-07,0.022986827,4.409998e-08
0.0014837988,0.04853198,2.1840735e-06,2.710123e-06,1.3967687e-06
0.001029714,0.024196396,0.11438093,2.3484479e-07,9.771429e-07
3.2223143e-06,4.996544e-07,0.60055584,0.00047151695,0.00019822322
3.148791e-06,5.3068254e-07,6.495865e-07,0.010774395,1.3095112e-06
2.9117427e-06,0.008346213,9.272137e-07,8.9741525e-07,6.270185e-07
3.6591805e-06,7.2973666e-07,4.3952127e-07,0.39108583,4.038599e-07
0.041912455,0.00046067024,5.737569,2.1898713,0.96248275
0.11093017,0.5999101,3.9106684,1.0271386,0.5461534
2.1539565e-06,0.12257268,0.4422224,9.508875e-06,0.01179082
0.0056661624,1.6461858e-05,7.799412e-05,2.1050353e-06,2.648542e-06
0.012455669,3.0614058e-06,4.7432817e-07,2.0177896e-07,8.135126e-07
0.897809,2.978885,5.6738924e-07,5.3757793e-07,5.9573273e-07
0.10944343,0.0010420437,1.6622748e-06,0.011495678,0.024864787
4.1570107e-07,1.925456e-06,0.00077124336,0.047588117,0.24335201
2.9932448e-07,0.013069254,0.018899782,0.121892646,0.18783005
0.119718894,0.06021996,1.7289474,0.4000338,0.0037295823
0.10132161,2.7853693e-07,3.1424263,0.6198821,9.558328e-07
6.1908368e-06,7.454113e-07,1.0251173,0.073465586,2.451571e-06
3.1598083e-07,4.196569e-07,0.039278306,0.010881309,1.4671396e-06
1.5334888e-06,5.897926e-07,0.056170795,1.1757622e-06,2.7187764e-07
2.6303056e-07,5.3146264e-06,6.626005e-06,0.06402823,1.5216143e-06
2.5422048e-07,8.9112166e-07,2.3769609e-07,1.0765642e-06,1.4438588e-07
1.659718e-06,1.2954357e-06,3.2168765e-07,0.0011132215,1.5077353e-06
4.0851612e-07,6.985872e-06,2.7104056e-07,3.5207907e-07,1.58884e-08
2.9935694e-07,5.8960623e-08,3.7630502e-07,1.2797615e-06,0.0
9.445833e-08,5.4873976e-09,3.4903568e-08,1.9666022e-07,0.0
5.423846e-07,1.6067125e-07,2.0407356e-07,1.3178195e-06,9.369032e-08
3.8415325e-07,4.0403305e-07,8.53777e-08,2.5422287e-07,0.0
7.2616496e-07,0.0,2.5929086e-07,3.292136e-07,1.4205409e-09
4.2572077e-07,0.0,7.736508e-08,2.171506e-07,0.0
9.8675535e-08,6.993733e-08,1.9287984e-07,5.799883e-07,0.0
5.6325933e-07,0.0,9.8137235e-08,7.06626e-07,0.0
2.1589228e-06,1.281669e-07,1.9546817e-08,1.0569854e-06,0.0
1.1530947e-06,4.5926691e-07,6.781824e-08,1.0518013e-06,0.0
9.819335e-07,1.585095e-09,5.6652283e-07,1.4531058e-06,0.0
0.00016037669,0.0,1.8678279e-06,1.5058238e-07,0.0
0.00025893838,2.2757986e-07,3.3702593e-06,1.2968887e-06,4.1836884e-07
3.6990123e-06,1.4443406e-06,2.8754044e-07,6.727887e-07,1.7924626e-06
8.437209e-07,3.3445237e-06,1.638217e-08,6.2774313e-07,2.7984258e-06
8.5311825e-08,7.822163e-07,5.635758e-07,5.5912403e-07,1.8803131e-06
0.51495403,9.591934e-07,3.2619348e-05,2.7661895e-07,2.8092036e-06
2.0881283e-05,0.0005467282,0.0002115093,1.3937289e-07,2.4432557e-06
1.4738721e-07,1.5550697e-06,0.012992792,8.198524e-07,1.2061296
1.0117136e-06,0.07613635,0.021686452,0.009088523,1.1446713
2.456871e-06,0.94291216,0.8213992,0.034549195,2.239539
0.075343125,0.018827531,0.039836496,0.463926,0.019610528
0.04905012,2.4564388e-06,0.020273948,2.2398386,6.1308738e-06
0.24194683,2.3503185e-06,0.2859892,0.38085055,0.00015974505
0.3483746,1.7386112e-06,0.14762414,0.043788332,1.4197111e-06
0.18620159,3.304911e-06,0.012939377,0.14600281,0.00011605744
0.00026749875,4.2753404e-06,0.058592405,0.4477214,0.072484456
0.105300605,0.14318345,0.08671444,0.100144334,0.20553255
0.61292815,0.24402538,0.017679956,7.354862e-07,0.24084263
0.01249074,0.25931278,1.1758742e-06,1.4476274e-07,1.5344642e-06
2.3987448e-05,0.27852836,7.69911e-07,1.4209543e-07,3.7919628e-05
5.378244e-06,1.8473867e-06,1.2206769e-07,2.682072e-07,1.1298886e-06
4.1971734e-06,3.0511092e-06,3.9566926e-06,2.3859963e-07,0.0025062426
4.8370744e-06,0.10972555,2.540816e-06,2.2915947e-07,0.00063930586
1.695474e-06,1.0436128e-06,7.1332505e-07,5.9047164e-07,1.5396574e-06
1.9886058e-06,4.7461134e-07,3.0047303e-07,6.7545324e-07,2.9099763e-06
1.4191716e-06,0.3304184,1.8301608e-07,5.888652e-07,2.6134414e-06
9.588091e-07,1.2299391e-05,3.683797e-07,1.298691e-06,1.7027106e-06
7.051126e-07,0.0004111592,1.026716e-06,2.1420658e-06,5.9661907e-06
2.3392847e-07,0.09082354,1.4471761e-06,2.066475e-06,1.8684455e-06
7.135197e-07,2.750765e-06,3.2051e-07,2.6586822e-06,2.5556376e-06
6.465153e-07,1.1239034e-05,4.4443095e-07,6.381375e-06,2.1942037e-06
1.5156874e-07,8.281324e-06,5.4120943e-07,2.5136703e-06,3.237032e-06
7.422519e-08,8.479016e-06,5.5765474e-07,7.1893027e-07,2.5707386e-06
3.2001228e-07,5.7014045e-08,2.2899297e-07,3.879364e-08,6.5787054e-07
5.5508586e-08,7.6760036e-05,2.654739e-08,8.0191444e-07,3.3324152e-06
4.1032632e-07,4.3588543e-06,1.2669416e-08,3.2988137e-07,1.2757881e-06
7.6811466e-07,1.1100454e-05,5.1989254e-08,8.4847823e-10,1.1218455e-06
2.9548195e-07,2.820742e-06,2.722896e-08,0.0,6.8801864e-07
1.6465704e-07,2.0116763e-06,1.6573452e-08,0.0,3.51975e-07
5.233846e-08,0.00023639134,1.1432595e-07,0.0,1.5673666e-06
2.1326539e-10,7.005193e-07,5.8791134e-08,0.0,1.8350785e-06
0.0,1.2629348e-06,9.984184e-07,0.0,1.4017654e-05
0.0,2.2648996e-06,1.8574244e-06,0.0,3.944915e-06
0.0,1.4413523e-06,3.5407572e-07,2.0600365e-07,2.669285e-06
9.8950636e-08,9.962517e-06,2.6529938e-09,1.4409886e-06,4.3021042e-05
6.2732274e-06,3.1655181e-06,1.8650708e-07,1.147465e-07,3.521059e-06
7.5933604e-06,1.0132275e-06,4.842047e-07,1.347329e-05,8.222049e-05
0.00010530833,1.4402743e-06,1.8514448e-06,1.5855564e-06,9.192963e-07
7.209264e-05,1.355753e-06,2.5451005e-05,5.297332e-05,1.1203081e-06
3.2572737e-07,1.7625599e-06,2.4915852e-07,4.8895436e-06,4.666128e-07
2.0281665e-05,3.4571754e-06,3.867763e-06,4.271953e-06,2.5191225e-06
0.0001396956,1.9032972e-06,1.6928111e-07,1.4167932e-06,2.1825329e-06
9.606334e-07,5.820482e-06,5.104798e-06,1.5749877e-06,7.472601e-06
1.915151e-06,0.063128084,1.6982765e-06,7.713805e-07,0.042780023
4.4291933e-06,6.091094e-06,1.1266735e-06,1.5864979e-06,0.17508383
5.593801e-06,0.03671096,0.056637358,0.00036286653,0.073025815
4.9639207e-06,0.024439622,0.13427615,0.00013631054,0.0048975553
5.394214e-07,0.0017469436,0.17231819,4.6534474e-06,3.433138e-05
6.654728e-06,0.00035039894,0.22804984,8.109496e-06,0.00064225786
0.00017891185,0.01366463,0.35421252,0.048651047,1.2745653e-05
0.0046225754,0.023239201,0.39941034,0.11677194,0.000160959
0.011418739,0.0016284579,0.65558505,0.20851044,0.00061818375
0.030428512,0.0022873755,0.9863618,0.24350213,0.008652089
0.07234063,5.4502055e-07,0.72848266,0.055589974,7.8041076e-08
0.14341013,5.493637e-07,0.44530097,0.06339519,0.033771597
0.16115074,3.41516e-07,1.3156651,0.118652835,0.7029899
0.24780096,0.06923429,1.9590756,0.18298554,0.8336179
0.5498696,2.0764978e-06,2.7360306,0.5298127,0.33076677
1.1153963,3.1252093e-06,4.687086,1.2627522,0.004382423
1.7098075,0.051435895,6.413214,1.6051141,0.052726008
0.81430054,0.08640438,8.294723,1.935201,0.100641
0.047442876,0.09962834,7.4076285,1.0991037,0.087864965
0.09628118,0.078637704,5.928462,1.882486,0.057194695
0.22130404,0.40301526,9.2403345,4.801751,3.614823
0.14901286,0.030880244,7.659747,4.2016425,0.14178604
0.5649549,0.004747106,3.5882454,1.5383862,0.0035283007
1.5494304,0.029373292,0.31108412,0.021396993,0.07782079
2.4757612,7.804853e-06,7.2453724e-07,8.02957e-07,5.9153475e-08
0.73258215,8.431085e-06,0.51684296,1.8602539e-07,3.174304e-08
6.915024,3.9779793e-06,0.087031245,6.628476e-05,6.0781945e-06
0.8761888,1.3028516e-05,3.8434217e-07,7.3486217e-06,1.0164506e-05
0.91879696,7.363459e-07,4.8174725e-06,4.6017624e-07,1.5480839e-05
0.9039347,4.065689e-05,1.3009775e-06,1.6700302e-07,3.6319389e-06
8.722377,9.29573e-06,2.8025673e-07,4.6269457e-07,3.8831695e-06
0.16479218,7.109728e-06,3.149096e-08,2.6456385e-07,6.139703e-06
0.0017287945,3.9855865e-07,3.352825e-07,9.0830133e-07,4.6226023e-06
0.000307608,3.809135e-06,2.0603542e-07,1.7013747e-07,1.4438053e-06
3.8586004e-06,1.8492507e-07,7.94146e-08,1.6191592e-07,5.0409294e-06
1.0140381,2.6374948e-07,7.388712e-08,1.6521439e-07,5.84195e-07
1.0868123e-06,3.655699e-07,2.942722e-07,2.2698518e-07,1.4967709e-07
7.5699506e-07,3.5071983e-07,1.9202783e-07,1.7858159e-07,7.611534e-08
2.6083908e-06,2.3222951e-07,6.602555e-07,0.0,3.8450118e-08
4.076028e-06,8.4263114e-08,1.6395061e-06,3.579343e-08,2.6552302e-08
1.7010994e-06,9.0163944e-08,4.9101106e-07,2.1567722e-08,2.7141292e-08
5.0540925e-06,8.5668916e-08,4.1732674,0.073839605,5.4670625e-08
2.7789807e-07,3.4290423e-08,6.3608932,8.1137955e-07,6.460755e-07
7.3499075e-07,2.9420606e-08,0.09596115,1.003129e-06,1.03128705e-05
1.4064398e-06,4.493749e-05,2.9784107,0.52006763,2.9188286e-07
1.28946e-06,2.883701e-07,2.3016853,0.14314753,2.2616916e-07
2.68518e-07,4.5024973e-07,0.032963064,6.092212e-07,3.5967395e-07
7.6066607e-07,6.8324493e-07,5.2004414,1.1270275e-07,1.8059504e-06
2.7552588e-07,6.1432956e-06,0.016487999,1.2670068e-07,5.314042e-07
4.4144437e-07,1.0568453e-06,9.656791e-06,2.406876e-07,1.119317e-06
6.585738e-07,1.709719e-09,9.113497e-08,1.2762098e-06,2.465426e-06
9.4832365e-07,1.0033129e-10,1.2614333e-07,1.2984158e-06,1.5791764e-08
3.566498e-07,2.7889482e-07,0.0027864007,1.9754405e-06,1.5036455e-06
1.245974e-06,1.7774366e-06,1.5506714e-06,3.8357016e-06,3.4478495e-07
1.3020269e-06,2.1426401e-06,1.7130735e-06,2.9687628e-06,5.182437e-07
3.0441572e-06,7.432639e-08,1.0117233e-06,6.5327904e-06,3.3597695e-07
2.611783e-07,1.7342666e-06,1.2291368e-06,8.767083e-07,4.6993176e-08
4.6897526e-07,0.0,6.7986673e-07,1.7745414e-07,0.0
3.9292266e-07,0.0,1.0687919e-06,5.1491463e-07,0.0
9.369329e-08,0.0,1.1348905e-06,7.1097344e-07,0.0
4.6007088e-07,0.0,4.4393548e-07,2.560655e-07,0.0
1.3551034e-06,7.954362e-07,8.9600086e-08,1.7253549e-06,1.1273142e-06
1.2057387e-07,1.2844159e-06,1.4081592e-08,1.1869043e-07,3.5267901e-06
2.5075937e-07,0.08428464,1.1024385e-07,5.763159e-08,0.54209405
5.363418e-07,4.200114,4.857523,1.5731218,6.9186196
7.7452023e-07,0.9248663,7.082423,1.581976,2.568577
0.37923375,7.5588623e-06,5.311674,3.890299,0.00011220387
4.0992007,0.00049386115,3.542842,2.7791688,1.990881e-06
2.6073182,1.425806e-06,2.653421,0.012246938,9.4004895e-07
0.19591019,5.191953e-07,6.9579415e-05,5.844209e-07,1.1931552e-07
5.402851e-06,5.0295125e-06,8.333284e-07,7.225026e-07,6.789857e-09
5.3386543e-07,1.7422707e-06,4.4457207e-07,8.414008e-07,5.351221e-07
1.9225328e-07,5.2485655e-07,1.1984025e-06,4.6982657e-07,1.6897511e-08
1.2210992e-07,0.0,2.8106663e-07,5.2817666e-07,0.0
7.286811e-07,2.8192924e-09,3.9350846e-07,1.1576404e-07,0.0
2.9053842e-07,0.0,8.1903124e-07,5.8236054e-07,7.423467e-07
2.9477414e-07,3.434191e-09,3.8502662e-07,2.4163685e-07,1.4910448e-08
4.172809e-08,8.625854e-07,2.1424472e-07,1.261019e-07,5.699563e-07
1.2545418e-07,1.1198829e-05,6.3365e-08,3.8894562e-08,1.0453512e-06
6.8929677e-07,4.3384307e-07,5.5899392e-08,1.7521339e-07,2.5280062e-07
1.10317046e-07,1.7561115e-06,2.2808372e-08,8.975131e-07,8.824794e-07
1.2654309e-08,1.5255008e-06,1.1435096e-06,2.689365e-06,5.680628e-07
9.800199e-07,2.1194853e-06,1.5635949e-07,8.895993e-07,1.5245213e-06
3.7920984e-08,1.9336546e-06,9.970426e-08,2.3117932e-06,0.005638319
3.0067645e-07,3.4386026e-06,5.8507897e-08,2.3444744e-07,1.4443696e-06
1.0572516e-06,0.06924633,1.0302742e-07,9.1054865e-08,2.750897e-06
1.6441999e-06,0.20594901,2.5940156e-07,3.1314508e-07,5.0129333e-06
3.069421e-07,0.20954917,1.05231784e-07,6.7832417e-07,0.6112246
1.20345485e-05,0.003572794,7.632927e-08,0.00448902,0.11997194
0.0034622503,0.115616426,6.299159e-07,0.029846381,0.0035593
0.7539783,0.8853317,0.78188366,0.09050679,0.40404075
0.3649795,1.3987459,0.8778825,0.16098432,1.4941849
0.5645827,2.0764916,1.6959236,0.49563497,2.743553
0.1346187,5.1938405,2.1758745,1.4152994,5.744808
1.063542,0.5457757,2.1383011,2.5018167,1.8426728
1.1470529,1.1125996e-06,3.3702943,3.0097005,7.8853583e-07
2.9627066,9.720634e-07,2.0385015,0.71046984,0.102654204
0.012403659,7.6821783e-07,4.0635924,1.9032907,0.049261887
0.32346255,1.9934632e-05,4.1326704,0.54954743,3.4987916e-05
0.30189443,2.6149764e-06,0.27436104,0.016651724,7.0080364e-07
4.4348317e-06,6.739099e-06,5.147806e-07,9.359693e-07,1.01406e-07
2.6413866e-06,3.0852298e-05,2.7599674e-07,7.51055e-07,2.2863848e-07
1.5144941e-07,6.206211e-07,7.0757693e-07,1.0574954e-05,3.9311115e-07
2.0502812e-08,7.3148776e-06,2.170533e-07,4.4950434e-07,2.9913957e-07
1.5093573e-07,1.0995853e-06,4.6983942e-07,3.6010118e-08,9.6452e-07
2.012266e-07,1.3239312e-06,3.1737875e-07,3.1529357e-08,0.025158918
5.8735566e-07,0.19869591,6.0263835e-07,1.0843219e-07,1.4246222e-06
0.37240618,0.2214398,6.2846226e-07,1.5641061e-07,2.4724276
4.78327e-07,1.7223315e-06,1.7215599e-07,1.8023627e-07,0.060176257
0.16041838,1.0676482e-06,6.841886e-07,4.0201664e-07,2.946037
7.1649606e-06,1.5873658e-06,1.425548e-06,2.8245026e-08,2.0632844
4.9069567e-05,2.8822888e-06,1.8477303e-07,1.7742494e-07,8.22648e-07
0.31876403,0.033794384,2.2568909e-07,1.2800776e-07,0.0402842
0.53276855,4.2789375e-06,5.468769e-07,6.5320233e-07,2.0109853e-06
5.0568314,4.751728e-07,2.7304159e-06,1.9756965e-07,0.060318597
2.480021,7.5706197e-07,2.9284112e-07,1.3053086e-06,1.3250639e-06
0.0018533706,3.7266366e-06,1.7775197e-06,1.4220528e-06,2.217435e-07
8.328824e-07,9.856349e-07,1.3769624e-06,1.1997365e-06,7.3172777e-07
0.4338463,1.0041394e-06,0.4168195,0.00010033991,5.0160287e-07
1.2482924e-07,3.7488888e-07,7.16779e-05,6.7814217e-06,1.4626576e-06
3.483573e-07,2.8730133e-07,4.730727e-08,0.0128629925,6.8270003e-07
4.4339195e-06,1.3152593e-06,0.0,3.229771e-07,3.18382e-07
6.075656e-06,1.4847557e-06,9.529385e-09,2.2376591e-06,2.5731017e-06
4.5692955e-06,4.2417795e-07,2.2418536e-08,2.9299605e-07,1.0180853e-06
0.00010664153,2.1625017e-06,2.5869775e-05,0.00051946094,1.4294887e-06
1.0145801e-06,2.3723813e-05,1.7096156e-06,3.2817383e-07,3.3306494e-06
1.1751501e-07,6.13496e-06,0.0,4.1438405e-08,2.4956553e-05
8.685167e-07,2.4161733e-05,2.0957636e-08,4.398303e-08,7.810463e-06
1.3632649e-06,0.39032164,1.8237307e-07,8.937968e-08,0.060173538
0.00017103979,0.7074428,1.2332282e-06,1.183778e-07,0.84000427
0.06537162,1.228869,1.8391179e-06,5.7279172e-05,0.68538195
0.7110784,0.9696374,0.18482618,0.3265615,0.48416784
1.4983585,1.1506028,0.42500046,1.2083502,1.0403769
2.66531,1.6637572,0.48999405,1.2645762,1.0741184
5.312411,1.0332385,0.56959146,1.2620612,2.709159
1.3396639,0.0029410373,1.009424,3.5289695,0.5436274
0.783723,0.00016703382,1.2878317,1.6289626,0.4961683
0.0046761394,8.4302644e-07,3.942457,4.2701955,0.016448753
0.28111607,1.6573764,4.4474115,5.7475696,0.4123134
0.10182404,0.2097327,3.7651052,5.909445,0.28801674
0.08796916,0.15549392,2.971441,0.66262215,5.3000844e-05
1.5032128,5.966051e-06,5.28342,1.2549348,3.194914e-07
0.56598705,5.0238477e-06,1.3871334,1.862863,2.548755e-07
0.6571427,2.0354621e-07,0.85482347,0.47475603,6.6337543e-07
1.0050766e-06,1.0513171e-06,0.2633024,0.002328412,1.3855715e-06
1.0671254e-06,8.212616e-07,1.2352079,0.8912425,1.6825479e-06
3.668574e-07,4.5448155e-07,3.5054786,3.0310326,3.45789e-06
3.1081922e-07,1.389385e-06,5.5253053,2.320536,8.520382e-07
6.252762e-07,6.2330776e-07,1.4316593,1.0504164,5.547258e-06
0.00021808383,2.055106e-06,2.6455796,1.7609675,2.281531e-06
0.0031388635,1.6852588e-06,1.3299973,0.5498777,2.7084614e-06
0.0020228205,1.2767704e-06,1.4829726,1.0709243,2.4845149e-05
0.23228629,5.4356788e-06,1.6965506,0.0045032958,0.034100637
0.6648904,8.179092e-07,0.9286361,0.52848077,8.540044e-07
2.4351505e-06,1.0082217e-06,0.098146774,0.4168656,1.1280182e-06
0.28822315,8.8391243e-07,0.03644669,0.33048284,3.3964775e-06
1.6246023,0.04693037,0.116973974,0.05356627,0.003347061
2.3307035,0.000108965076,0.70864904,0.034981832,0.0002502541
1.1509925,1.8198155e-06,9.9897814e-05,0.2480003,2.7421177e-06
0.02036084,2.9225575e-06,1.5041641e-06,0.90914637,1.7440591e-06
1.7181128e-06,6.9108755e-05,7.851307e-07,0.063548885,0.2427412
0.4760133,0.07080051,0.026583107,4.3291852e-06,0.1393203
1.670555,1.5618965e-06,2.3737237e-05,9.4019674e-07,1.1629784e-06
0.2466705,1.4615285e-06,1.7646055e-06,7.387124e-07,2.3827547e-06
2.5075045,8.693276e-07,7.013954e-07,1.2784596e-06,1.2634729e-06
2.3915606,1.5026259e-06,2.4506562e-07,5.215739e-07,0.0067031384
0.6797114,7.071801e-07,2.0165792e-06,4.4688014e-07,6.2217487e-07
2.5674381,1.6020263e-06,1.3708899e-07,1.4569378e-07,0.87460804
0.5692961,1.8399674e-06,1.3043514e-06,7.163108e-07,9.8444776e-05
2.2423103,1.1336024e-06,6.431198e-07,5.170677e-07,2.162136e-06
0.002520836,7.8371824e-07,1.1716077e-06,4.3745663e-07,4.2436625e-07
0.7391026,1.4862054e-06,2.7781616e-07,9.6957585e-08,6.7651865e-07
0.0004060805,5.2126916e-07,6.3767e-07,6.942235e-08,3.4101254e-07
0.025281867,1.0509528e-06,0.001962364,3.345789e-07,9.586778e-07
1.6705028,1.5760775e-06,6.3035384e-07,1.1223408e-06,6.351737e-07
0.0005911176,1.8714539e-07,1.4563791e-06,1.5040837e-07,3.6755785e-07
0.85027575,3.3199186e-07,2.0446788e-07,5.2460337e-07,2.6215164e-07
1.4723276,8.474302e-07,4.4468814e-07,8.976454e-06,4.146688e-07
0.4325952,6.806088e-07,1.0004962e-06,5.759074e-07,4.5873264e-07
3.2455516,2.2731194e-06,0.00038545308,9.687685e-07,2.2044258e-06
4.6406873e-05,1.229801e-06,0.042763937,4.553387e-06,3.3614626e-06
0.5059791,4.0074538e-06,2.3958944e-07,0.31904346,2.191882e-06
8.2537255e-05,2.5145787e-06,1.6606298e-06,5.6510254e-07,4.807185e-07
0.8721385,1.7427187e-06,8.5640266e-07,1.247745e-06,8.899595e-07
3.477069e-06,2.965943e-06,1.474874e-07,6.7184703e-07,2.0203622e-07
1.4893926e-06,1.9648214e-06,1.5730349e-07,2.9958932e-07,5.106838e-07
9.5196003e-07,3.8292574e-06,1.2873282e-06,0.001513447,1.0162055e-06
7.954948e-07,1.3948084e-06,5.5152586e-06,1.7773333e-06,1.0443582e-06
1.5829447e-06,6.1407746e-07,6.567731e-05,3.9805715e-07,1.7853392e-06
1.1361115e-06,1.7808127e-06,9.75719e-07,5.5933657e-07,9.690177e-07
2.9624084e-06,1.4314229e-06,2.844292e-07,1.6225653e-07,1.528264e-07
4.8193483e-06,2.1298185e-06,1.1982745e-06,2.533844e-07,7.496915e-07
1.624131e-05,2.1924918e-06,1.2151597e-06,7.6815616e-07,7.41886e-07
2.3575296e-05,1.7234476e-06,6.7700176e-07,1.5545463e-06,2.0552193e-06
8.167777e-06,2.428684e-06,7.4413964e-07,6.804805e-07,1.0224935e-06
9.888623e-07,2.5239217e-06,1.4094123e-06,2.1883855e-07,1.3569239e-06
0.00012555074,1.6457213e-06,3.683585e-07,7.745837e-07,4.097097e-06
0.014483412,2.5923816e-07,2.4582306e-07,8.472064e-07,4.945156e-07
0.1868834,3.2763722e-08,5.7083277e-08,6.480628e-07,2.0968791e-07
0.0015464657,1.6421417e-07,7.244971e-08,1.7867902e-05,7.354276e-08
1.9319734e-05,1.1253717e-08,5.593417e-08,3.7007067e-07,9.8423385e-09
0.06668272,1.1016053e-06,2.0578207e-07,8.084874e-07,4.6417838e-07
0.00029736597,3.034494e-07,1.4194373e-07,4.2288997e-05,2.231161e-06
5.2700136e-05,5.60852e-07,8.301694e-05,3.8669176,2.2044048e-06
4.8970593e-05,1.5373002e-06,1.1491429,0.6725242,9.737523e-07
4.0440077e-06,8.7080053e-07,1.2243919,3.5133145,9.4818745e-07
0.38030875,7.4464526e-07,2.1161575,0.014920321,1.515154e-06
4.617879,2.3938064e-06,0.00303632,0.0017955025,2.0795562e-06
1.3742076,1.0034829e-06,0.001311336,9.996992e-05,9.986845e-07
0.017566519,1.0034879e-06,3.0523693e-06,1.6040373e-06,3.6766738e-07
2.0589112e-06,1.1868428e-06,1.9278284e-06,2.5658616e-07,1.3393689e-06
8.883426e-07,1.0684528e-06,7.528609e-07,4.6480903e-07,1.4360636e-06
3.1421172e-07,4.115999e-09,2.8487813e-07,1.0519144e-06,1.2855562e-06
9.892031e-09,0.0,1.4208746e-06,5.875907e-07,4.144048e-07
1.4887869e-06,3.4378374e-07,7.8827037e-07,0.0,1.8390512e-07
2.274584e-06,0.0,4.7123663e-08,4.4071612e-08,0.0
1.2128812e-06,1.6849164e-06,3.1906077e-07,8.0655667e-07,9.936183e-08
1.6273198e-06,4.332868e-07,3.0683125e-08,3.5448642e-07,0.0
3.1212805e-06,1.3170568e-06,2.9581975e-07,3.3321496e-07,4.82292e-07
1.2364862e-07,1.1685546e-06,1.5125362e-09,5.7915975e-05,1.5699254e-10
4.900824e-06,5.601522e-07,4.9970767e-11,9.30401e-08,1.4867258e-08
4.8727547e-06,4.973353e-07,9.8957976e-08,1.2386157e-06,1.7640185e-06
3.7760225e-07,1.0637029e-06,2.783886e-06,1.5166414e-06,2.633404e-06
1.9347753e-07,1.0453693e-05,6.72132e-08,9.123226e-07,1.9820966e-06
5.499083e-07,1.35122455e-05,9.2718956e-08,6.191537e-07,1.4372968e-06
4.005764e-06,0.03737362,0.0053751385,0.00029094677,0.0020276166
0.00021109583,1.0557585,0.057454012,0.023557156,1.3169143
0.44275412,3.4034994,0.4063651,0.13100234,3.6889572
0.67999536,2.7120323,0.49174106,0.19489631,2.962957
3.864544,4.8581634,1.1616739,1.0390058,5.1774697
5.445298,2.2229369,4.6636605,0.65958613,0.6598955
5.0252733,1.5707566,2.5121515,0.28538686,1.1269132
0.072797455,0.4671237,3.097493,0.27816993,0.32859066
0.062393107,0.100666225,3.6572206,0.5336246,0.17378314
0.036429357,0.07684748,3.9678361,1.6644,0.100622036
0.07103537,0.048765928,2.8418796,0.50297326,0.06472462
0.28242576,0.0030468586,0.58555454,0.013008241,0.010291748
0.5289329,4.438038e-06,0.123594865,3.3817253e-06,4.644094e-06
0.2217772,6.949585e-07,0.028121134,8.483226e-07,3.0992046e-06
0.040072728,4.906468e-07,5.17273e-06,4.5488534e-07,8.770972e-07
0.0011310234,2.4345542e-07,8.4463744e-07,3.090556e-07,9.976151e-07
1.9129488e-06,0.0,0.0128001645,0.03288778,2.1439678e-07
5.738134e-08,2.1501539e-05,0.84756184,1.4898006e-06,1.0067719e-07
3.9313954e-07,3.9249294e-06,4.2454795e-07,1.801973e-07,1.7567125e-07
3.4224922e-07,5.588935e-07,8.2749835e-07,7.073597e-07,5.941358e-07
1.8204618e-06,0.0002979401,0.055066366,8.937475e-07,2.4445704e-05
2.532342,4.9595477e-05,1.3176241e-05,1.3989684e-06,0.00024681012
1.1163367,0.00027829135,7.7630386e-07,0.89593756,0.00026067416
0.0015126761,8.263376e-05,2.8071221e-07,0.23536384,9.864316e-06
8.112143e-06,4.327508e-06,7.046139e-08,4.592554e-06,4.3925076e-05
0.020997865,6.839704e-06,1.8238835e-07,1.7296162e-07,2.7999176e-06
0.001002589,1.1070028e-06,1.5252898e-07,1.3969337e-07,1.208424e-10
0.23709148,0.0,0.0002020713,5.5263087e-07,3.879061e-08
1.9857096e-06,0.0,7.436229e-05,0.05236774,6.5374013e-09
5.136204e-06,0.0,1.961046e-05,0.44798684,1.303871e-07
9.739883e-07,1.5186063e-07,0.8544759,0.042253133,1.2893877e-08
8.919055e-08,6.9188797e-09,0.1029779,4.030769e-06,1.0475142e-08
7.279308e-07,1.420469e-10,1.7483524e-07,3.0936656e-07,6.690209e-08
3.211066e-07,1.2563865e-07,2.653986e-07,5.175169e-07,3.4096024e-07
1.324153e-06,0.0,0.001033054,7.510377e-07,6.874967e-07
1.7256532e-06,1.8903137e-07,9.728038e-07,3.5546788e-07,3.792058e-06
1.152321e-06,2.1166761e-07,4.2432893e-07,1.6947023e-07,9.385991e-08
1.1724889e-06,4.983079e-07,0.018507067,1.3876088e-07,1.6559927e-06
8.9840063e-07,8.3372856e-07,2.0768071e-07,3.365703e-08,9.541581e-06
1.9531321e-06,1.130908e-07,1.9708604e-07,7.069862e-08,1.6842208e-06
7.317829e-07,6.303762e-07,5.281642e-07,6.2478215e-08,6.618843e-08
2.072633e-07,3.6010607e-07,7.9362394e-07,1.1339056e-07,6.04042e-07
4.4594634e-07,4.1326805e-07,8.732382e-06,0.15266034,4.7908946e-07
1.5168629e-06,3.894756e-07,0.0013762797,0.05896121,3.6326782e-07
2.9173955e-07,3.805846e-07,1.3387692,0.46602592,1.1852767e-07
3.04193e-07,8.661287e-07,2.1551392,1.5110148,1.0833256e-06
7.113841e-08,0.05560499,2.4942772,1.2635608,8.189948e-07
6.205852e-07,4.6234942e-07,1.5922599,1.1458344,1.3268133e-06
0.011041362,2.144207e-06,0.0019150526,0.2693152,0.10363723
0.18407065,8.3300154e-07,0.11239626,3.7411965e-06,0.0033372913
0.0046023927,0.00029113246,0.21256971,1.4559522e-06,7.446182e-07
0.10359163,0.20552991,1.24929,0.00033299302,1.8763375e-06
0.29871547,0.05618935,0.82131666,0.19717136,0.0005715216
8.742611e-05,0.48156023,1.1181749,0.35252845,0.35918576
1.1601875,0.7025629,1.3424506,1.0394024,0.49150836
3.4065318,1.6368718,0.31575194,0.682505,0.5506413
1.0671248,0.15095824,0.2880488,0.16037734,1.3089371
1.2885897e-05,1.5265952,1.0030352,0.010624314,0.032775514
4.96332e-07,1.0374587,4.026579,1.3223183,0.42718914
0.26016745,0.63328147,3.3886168,2.8112206,1.2283704
0.0007049574,0.78324634,4.2146335,1.6431565,1.5877631
0.021928689,2.0847507,2.0921462,1.0616761,4.3777623
0.00085490546,3.3485634,2.3534331,0.20996833,4.0808225
0.00026986309,3.1145706,3.5818927,0.6862825,3.5534894
0.9671602,3.2336435,2.4132655,0.33435023,3.3639772
0.23973408,0.4540425,3.3904157,0.5681691,1.0691712
6.061555e-06,2.368091,2.9423444,0.6341368,5.1808834
0.24959175,0.50262535,2.293278,0.94042933,0.57457435
0.18167977,0.8128348,2.7842827,0.6959295,1.6562763
2.3437696,0.9430999,2.609649,0.5636662,2.9438627
2.8297713,0.6515273,0.88766104,0.28620875,0.4449899
1.6478786,1.5370958,0.47627693,0.0039600907,0.058384854
1.179495,8.053233e-07,0.11989351,5.422406e-07,1.4030298e-06
0.09469787,9.959994e-07,4.8873045e-07,1.1393421e-07,1.6018951e-06
0.67929167,7.078818e-07,1.6595163e-07,4.787385e-07,1.4487035e-06
9.86575e-05,7.1485346e-07,1.9241905e-07,3.6988433e-07,1.8285045e-06
1.129057e-06,3.7259312e-07,3.2791064e-07,2.12688e-06,8.5430804e-07
1.4760378e-06,5.2768656e-10,2.7789847e-07,0.0409388,3.4176014e-07
1.3831834e-06,1.2400375e-07,3.1478658e-07,1.7057826e-06,4.3234746e-07
4.5250763e-07,1.6818918e-06,5.853151e-07,4.9203896e-07,1.8439137e-06
8.167775e-07,1.1317866e-06,9.644936e-07,2.1597101e-07,2.1064163e-06
5.7743164e-06,1.3607977e-06,4.4638827e-07,3.621152e-07,1.8439738e-06
1.4354235e-06,1.2652102e-06,1.9908189e-06,7.521102e-07,1.8169085e-06
1.9675663e-06,2.8001962e-06,4.7614344e-06,1.3579415e-06,1.5397052e-06
1.8398993e-06,2.1044013e-06,2.433778e-07,0.0,2.2938398e-06
9.5017356e-07,3.4941622e-06,3.1678052e-08,0.0,1.5936844e-06
9.9768265e-08,0.010338647,0.0,0.0,8.4099565e-07
5.3886815e-08,0.0006559319,0.0,0.0,2.2275731e-07
0.0,1.1734618e-06,1.3949554e-09,0.0,1.9265037e-06
2.8200012e-07,2.7333906e-06,6.190467e-09,1.8074151e-07,1.934666e-06
8.9639104e-07,4.3593485e-07,4.593137e-07,3.2443378e-07,1.927782e-06
3.969739e-06,1.4667306e-06,5.305623e-07,1.0267823e-07,1.3885038e-06
1.4734e-06,1.673045e-06,5.1287265e-07,3.242646e-07,8.902118e-07
1.2170635e-07,3.1686209e-06,3.0713903e-07,5.0248694e-08,1.1028986e-06
6.6498137e-06,6.106657e-05,4.4363742e-07,9.9802875e-08,7.995867e-06
3.2943842e-07,5.6202366e-06,4.2357122e-08,9.724159e-08,1.901807e-06
3.7778836e-06,2.925848e-07,1.7503784e-07,1.15787316e-07,5.2807836e-06
8.187454e-07,1.4040395e-06,8.3586585e-08,5.9218973e-08,6.828149e-07
8.5069354e-07,3.5284884e-06,0.015199484,6.9606344e-06,4.1432254e-06
4.84672e-07,3.2658759e-06,0.17746308,0.031438425,0.034607243
3.0257245e-06,1.0698873e-06,0.22848837,0.1514442,1.1860586e-06
1.0279059e-05,1.0224207e-06,0.23057194,0.2731847,1.6446425e-06
0.010759372,3.8520582e-07,0.076035775,0.27841026,1.6808089e-06
0.016842414,5.170324e-07,0.61145866,0.7617457,0.005925389
9.667379e-06,5.815089e-07,0.52537537,0.5969384,0.016342774
5.143045e-06,0.36711767,0.46337184,0.5046344,2.352758
5.9028516e-06,2.9516985,0.51528233,0.5780209,2.8669484
5.276185e-05,2.544353,0.54395956,0.8315286,0.6173174
0.34603873,0.062727176,0.46282852,0.70169973,0.0003321231
0.2950573,0.17732595,0.5818892,0.1586849,0.7618583
2.3389037,0.0005125278,0.7509911,0.82581544,0.22351266
1.8109626,7.7816585e-06,0.099607356,4.0440005e-07,6.4310035e-07
0.06388324,9.566539e-05,4.4122157e-07,5.5091385e-07,1.9245012e-06
0.062367994,1.4879736e-05,2.5455694e-07,7.5146736e-06,1.3195164e-06
9.7872624e-05,2.073453e-06,5.4602797e-08,4.9011777e-07,4.6779414e-06
0.00027510914,8.158925e-07,7.521109e-08,2.265879e-07,5.333851e-06
0.00013165033,1.3577001e-07,7.169888e-08,6.1613896e-08,1.04314e-06
3.7117024e-06,0.0,9.109806e-08,1.7989436e-07,5.311164e-07
1.7422796e-06,7.3949494e-08,1.852812e-07,2.694395e-07,2.2488653e-07
1.8452417e-07,1.0601702e-07,4.92524e-06,9.220908e-07,3.922404e-07
4.930105e-07,0.0,1.5797925,5.7094887e-05,3.850278e-07
7.0994275e-08,2.3101828e-07,3.5965822e-06,7.2137703e-07,1.5939863e-06
7.6997836e-08,2.2453666e-07,0.16897018,5.7387057e-05,2.472187e-07
1.2921221e-07,1.0065673e-05,1.8905915e-07,6.7354864e-07,1.9575796e-07
1.0079404e-07,5.2501364e-06,1.4605772e-07,4.1725045e-07,8.449738e-06
2.0455553e-07,7.800241e-06,1.5432414e-07,1.9034484e-07,1.1650444e-05
8.437047e-08,0.00011651146,2.1670293e-07,1.5120763e-06,2.6256416e-07
8.232217e-08,3.6631634e-05,4.281238e-08,2.0294342e-06,2.4883332e-06
1.8092301e-07,6.807007e-07,3.004359e-07,1.3434653e-06,6.2037566e-07
3.549699e-07,2.9425769e-06,8.9363766e-07,1.5618942e-06,1.3330574e-05
1.583673e-06,9.479612e-07,2.4487545e-06,3.038288e-07,1.5875103e-05
7.384902e-07,2.4211557e-05,8.278266e-07,2.567502e-06,3.3868464e-06
1.2850985e-06,8.417136e-07,2.6777468e-07,1.4402367e-06,9.534951e-07
3.8610433e-06,5.2695725e-07,0.007337924,4.9301224e-07,1.4657379e-06
1.5298433e-06,8.863707e-07,7.415106e-05,4.2719398e-07,5.7657684e-07
6.3979866e-07,1.3498512e-06,0.004172678,0.2737165,1.3886797e-07
1.0291477e-06,6.064881e-05,0.06411461,0.065916315,5.576741e-07
8.3182766e-07,7.5181406e-06,0.042785898,1.18251556e-07,1.1780487e-06
1.5614135e-06,8.881931e-05,4.8760074e-07,2.7990453e-07,1.8550759e-06
6.7960434e-07,1.4563799e-06,0.0003954776,3.3498495e-07,1.7525907e-07
4.6899086e-06,3.3185615e-06,1.3649227e-05,5.366697e-07,5.475653e-07
0.1723367,1.3917488e-06,4.5277628e-07,4.443927e-08,4.4691026e-07
0.17084482,1.3466782e-06,3.4242177e-07,8.0386336e-08,5.954076e-07
0.8790834,1.918177e-06,5.21203e-07,1.177184e-07,7.7789656e-07
0.3745088,0.7172118,4.344953e-07,1.6203728e-07,7.0550172e-06
0.0033314263,0.0025253652,1.6710181e-06,0.09355919,4.8345714e-07
0.00033845988,3.6269643e-07,2.9891047,1.5264045,4.6051537e-07
2.065574e-06,3.132178e-07,0.05316772,1.5279404,5.6154977e-07
0.052348375,5.6108894e-07,2.3109396,0.8546142,5.822232e-07
2.6136338e-06,1.3907165e-06,2.1796281,0.0008391825,5.471614e-07
0.13475545,1.3123727e-06,0.17003413,7.942638e-06,7.8652863e-07
3.8021003e-06,1.1221049e-06,2.5768806e-05,5.519907e-07,0.00011640405
6.1528194e-06,1.0521936e-06,0.18362863,2.6701912e-07,0.0013419251
0.14192136,0.000348913,5.3117907e-07,0.04684401,0.0033773456
1.866633,0.00013288575,5.984592e-07,0.0049301665,0.013013528
0.007187726,8.2122215e-06,1.2491003e-06,6.6865346e-07,2.3078458e-06
4.1439103e-05,6.8727177e-06,0.0,1.1754246e-06,7.83659e-06
1.0778602e-05,7.154103e-06,0.0,1.4338748e-07,5.0972247e-08
1.4771003e-06,5.066728e-06,2.7650185e-06,0.0,3.5522592e-07
1.7865789e-09,7.545583e-07,0.00014572188,4.499321e-07,3.6505098e-06
5.995986e-07,5.024302e-06,0.0007147973,0.0081594195,5.379264e-11
1.0165496e-06,2.854507e-05,3.38858e-06,2.0313807e-07,3.4655393e-05
1.613158e-06,8.680271e-08,9.417357e-08,0.0,7.691227e-08
1.1117243e-07,2.0499293e-07,0.0,0.0,8.177157e-08
5.2790705e-07,1.7391596e-07,0.0,0.0,3.7033693e-08
2.3573425e-06,3.601152e-07,0.0,2.48039e-07,0.0
4.406945e-08,0.0,0.0,0.0,0.0
4.9040165e-07,8.3134335e-09,0.0,0.0,0.0
0.0,6.685268e-07,0.0,0.0,4.043096e-06
2.758496e-08,6.391817e-06,0.0,0.0,1.4304021e-05
2.5523925e-06,0.00011236834,5.3390494e-08,0.0,1.8459925e-06
1.715738e-06,0.00011735672,3.964786e-07,0.0,2.4280556e-05
4.890641e-06,7.486246e-07,3.247601e-07,7.855945e-09,0.0003061075
3.0913218e-06,0.0045115226,6.747439e-08,2.4242297e-07,2.8644786e-06
0.18947032,0.0063110436,7.859745e-08,9.4561966e-07,0.016840126
0.18955685,5.0810735e-07,3.1798554e-05,1.5752776e-06,0.004410393
0.022855544,2.0930495e-06,1.2662779e-06,1.1531236e-05,1.2618076e-05
0.038630653,2.671645e-06,1.7594582e-06,3.765547e-06,0.5843512
0.02959122,5.8177193e-06,0.06197421,0.23595853,1.5134557
0.007999474,0.0072747273,0.39103365,1.1828825,2.8163862
0.011976242,0.00061298924,0.29822683,1.7064164,2.7070606
0.03869457,1.0644896e-05,0.6210254,1.9445797,2.267594
0.08036479,1.4600991e-05,1.1431649,1.5137354,2.328566
0.034821317,2.5078953e-05,1.1213217,1.2465831,1.2304319
8.97857e-05,8.543077e-06,1.2182748,1.2152872,0.014866703
2.214642e-05,1.7447845e-06,1.2811885,1.4608839,0.011156525
1.1425168e-05,1.1329842e-07,0.8374164,0.5970266,0.0079990905
1.0623227e-05,7.3451315e-06,1.0920125,0.035262752,0.0014675267
3.4244347e-06,0.0049418863,1.3110315,0.041398596,9.880066e-06
1.7245028e-06,0.001938638,1.5075828,0.0568391,0.0032704084
3.398566e-07,0.0019415966,1.3386906,0.056087814,0.019964516
1.0796429e-05,9.872741e-05,0.4746278,0.07218231,0.00037525693
3.567438e-06,0.0001583459,0.11961649,0.032748867,0.0002738307
4.909113e-06,2.5329755e-06,0.1357074,0.014769514,9.994988e-07
2.7729484e-06,7.54947e-06,0.11634692,0.040933765,5.208518e-06
0.005060209,1.2375872e-06,0.06906436,0.014618059,4.374986e-06
6.7320198e-06,2.8154066e-06,0.15076579,0.18019788,1.1953517e-05
1.8604243e-05,1.3519768e-06,0.41346908,0.25510854,1.477172e-06
4.0228365e-06,1.6468643e-07,0.45007986,0.13654459,1.6116229e-06
3.6821514e-06,2.6440007e-06,0.09781625,0.007562216,1.2005806e-07
1.4306435e-06,1.8172364e-06,9.109385e-07,2.2158265e-06,2.5842585e-06
5.06632e-07,0.61779433,2.9676708e-06,2.147759e-06,0.87353593
5.5074116e-07,1.3050447,2.6214315e-05,0.23680805,1.6998512
1.515907e-08,1.0666683,0.501065,0.4445807,1.1803501
0.015685778,0.1594023,1.3029532,0.3915996,0.2419691
0.19284953,6.6552557e-06,1.5291004,0.013057478,9.327904e-06
0.040715866,9.908068e-07,0.121265344,0.020190798,5.451876e-06
0.142516,6.463562e-07,0.05435766,0.014145008,1.1197761e-06
0.03212511,6.543808e-07,0.012368066,1.9925257e-05,1.9072478e-06
5.813127e-06,5.357891e-08,3.854915e-05,4.959895e-07,1.6659714e-06
0.008944144,1.0214563e-09,6.955644e-07,7.303764e-07,2.5213765e-07
3.6119327e-06,0.0,5.44235e-07,5.2508227e-07,1.4241576e-06
5.2046795e-07,1.9144222e-06,3.454522e-06,2.3197273e-07,8.342811e-06
7.2959614e-07,1.98224e-06,9.3663834e-07,0.00014561877,1.5196581e-05
7.2610817e-07,1.359556e-05,8.2659426e-08,8.110504e-06,2.3535988e-06
3.2388928e-06,7.325487e-05,4.2593194e-07,4.975294e-07,1.8157032e-06
4.751271e-06,1.6410477e-05,1.0736782e-06,1.05532145e-07,2.4016554e-05
1.8280259e-06,2.1529183e-06,3.8161087e-07,2.129313e-07,1.5105117e-05
8.077322e-06,0.0,3.0126844e-07,3.8119197e-07,1.2257007e-08
4.3359947e-07,0.0,4.277251e-08,4.3901519e-10,0.0
3.259452e-08,2.719339e-08,0.0,0.0,0.0
3.046407e-07,7.059388e-08,0.0,0.0,2.8235067e-07
1.1606194e-05,0.0,0.0,0.0,0.0
1.0476793e-05,0.0,0.0,0.0,0.0
2.4565195e-06,0.0,1.0030766e-08,0.0,0.0
1.8833214e-07,0.0,1.360659e-07,0.0,0.0
2.7725171e-08,0.0,1.4101701e-07,6.207616e-09,0.0
1.5733272e-06,3.000602e-09,5.0465957e-07,2.9765593e-07,0.0
1.3389913e-06,1.1096819e-07,5.2255643e-07,3.308456e-09,3.840587e-07
2.2135099e-07,3.027012e-06,1.820215e-06,3.4567322e-09,7.360849e-07
0.0,7.168335e-06,7.416024e-07,3.5546822e-07,2.6995365e-06
1.4901547e-11,1.0094263e-05,1.5994547e-06,6.065411e-08,2.2699166e-06
0.0,6.433103e-07,1.8714183e-05,2.1035545e-07,6.9524376e-06
1.0584356e-08,2.315162e-06,1.2105805e-06,1.5320824e-06,2.857523e-07
1.1548595e-09,4.850663e-07,2.1758444e-06,1.3273988e-06,6.664969e-07
7.128814e-09,5.945717e-07,7.891447e-07,1.0381403e-06,3.2802714e-06
3.3589217e-07,2.0489296e-07,1.1238993e-06,1.2682775e-06,1.649052e-05
2.4518095e-06,6.3881507e-06,8.955584e-06,3.31492e-06,3.1926496e-07
4.192709e-06,4.7542137e-08,2.6111049e-05,3.4455263e-06,5.484701e-07
6.803057e-07,9.260733e-07,1.7402028e-06,8.802111e-06,5.783786e-07
2.7055822e-07,4.04577e-06,0.0011447527,4.273923e-07,2.1286087e-06
6.7504214e-07,0.0017694582,0.00010124643,2.7304537e-07,0.011176954
6.9107887e-06,0.04303671,0.0049974,3.2268106e-06,0.019545784
5.378009e-06,0.057177775,0.11475097,2.0961861e-05,0.07821367
1.2241132e-05,1.1887826e-06,0.19441114,0.010771091,0.02072687
1.5730342e-05,6.208351e-07,0.17981453,0.06413836,1.1327514e-06
4.829518e-06,6.4268346e-07,0.021284798,0.01588923,2.1140352e-06
4.9150367e-06,1.2341411e-06,4.2415476e-07,1.0663896e-06,2.086329e-06
1.0947563e-06,1.7674772e-06,7.588469e-07,9.2945623e-07,4.868295e-06
2.3568175e-07,5.113155e-07,1.0780547e-05,7.379674e-07,1.7225743e-06
8.988176e-06,1.8298475e-06,2.8136162e-08,6.5940594e-07,4.5628246e-07
4.8230054e-06,3.9375063e-06,7.2252377e-09,1.4614724e-06,1.4731062e-06
1.6094153e-05,8.207632e-07,2.5831905e-06,4.932055e-07,4.5878046e-06
1.7627945e-05,6.0457983e-06,2.8017155e-07,3.6557262e-06,4.624124e-05
1.1578438e-05,4.331457e-06,1.3776851e-07,2.0612622e-06,1.5525486e-05
2.1596663e-06,0.013904543,2.586874e-08,7.4350623e-06,0.023702456
3.5283e-06,0.04245638,8.0647245e-05,0.001932494,0.1023397
1.5812011e-05,0.05236452,0.0039171074,0.041379355,0.27053443
4.680178e-07,0.07082089,0.1405577,0.14831348,0.22781539
0.01582604,0.14920893,0.4258684,0.3985007,0.30284265
0.043271426,0.8830116,0.37532905,1.1721197,2.276003
0.055980682,0.9305739,1.3625838,0.75898546,1.8561691
0.10404303,6.8074675,1.4115345,1.3758624,12.218137
0.10522033,3.8415885,1.1715573,4.7011795,12.051916
0.07778713,3.0871532,4.6069546,2.4863877,4.4910526
0.06500028,1.3252662,4.945969,3.0544302,3.1060839
0.079726525,2.615104,2.6843572,1.2356797,3.1533883
0.066729344,3.3930523,2.92566,0.8746214,3.4802642
0.28198403,2.62945,2.529583,1.6873649,2.3682704
0.26928866,2.4540977,2.5469513,1.0091544,2.2312653
1.6541862,2.2463946,2.7366898,1.1357193,1.3390341
1.9676232,0.98683614,1.6399869,0.7643994,1.2205733
1.3141842,1.4536604,1.3771702,1.6168535,1.3907439
0.63819987,1.4121567,1.3139017,1.7047261,1.2488185
0.6773353,1.2811754,1.053651,1.4984176,1.1171628
0.5445217,0.30405036,1.2476845,0.63291454,0.5376693
0.69014245,0.0034691368,1.5604564,0.49285135,0.002465368
0.928862,4.6382e-06,1.4494426,0.00052285375,1.5534665e-07
1.6429706,8.836783e-08,0.14178471,0.012343372,5.2355053e-06
1.737615,1.418403e-06,7.782017e-05,1.3450485e-05,3.2109878e-07
1.1562712,0.08994245,2.3905616e-07,7.722586e-07,8.007782e-07
0.47538316,8.688371e-07,9.102006e-08,3.1718757e-06,2.5530971e-06
0.077476814,2.8413663e-07,7.734081e-06,3.1249132e-07,2.790448e-09
0.0015611808,0.004390925,6.148655e-08,6.661161e-07,4.735719e-06
0.1715059,1.4518769e-06,4.2220754e-06,2.1069681e-07,5.8763385e-07
0.03719433,5.6932936e-07,5.8902565e-06,0.0002519066,7.0419185e-07
0.054702997,3.3315732e-07,5.644215e-07,0.00027231756,2.7463315e-07
0.001307956,6.017772e-07,1.04159874e-07,6.8551947e-07,2.3386076e-07
0.000670105,2.2706101e-06,1.3443627e-05,1.4778972e-07,5.008851e-07
7.862703e-08,1.2935405e-06,5.6749454e-06,6.988733e-07,1.0100033e-06
5.4479333e-06,6.871121e-07,5.2056083e-07,1.238547e-07,6.339515e-07
3.1450905e-05,9.858647e-07,4.028318e-07,2.4427902e-07,6.804695e-07
3.6336605e-06,5.1126256e-07,1.2008934e-07,2.9044347e-06,6.671901e-07
2.6507749e-05,8.904632e-07,5.9304224e-08,4.31058e-07,5.743482e-07
1.2801417e-05,3.4335278e-06,5.314593e-07,1.2841404e-07,2.3075246e-07
2.6172793e-06,2.357201e-06,6.4075965e-07,1.1568892e-06,7.778268e-07
9.783879e-06,1.7444356e-06,1.1221549e-06,8.388025e-07,7.877544e-07
0.0058933883,3.69144e-06,3.2627713e-07,8.840014e-07,1.4492934e-06
4.911809e-06,3.562973e-06,1.300982e-06,3.1410725e-06,7.0449437e-07
6.354626e-06,4.1768646e-07,5.413999e-07,1.67507e-06,1.9779486e-07
5.7046827e-06,7.593749e-07,4.5647295e-07,1.3517426e-06,1.4774045e-07
1.8095285e-06,4.7746227e-07,1.6297626e-07,1.1402768e-06,2.3666918e-07
9.622535e-08,5.4401875e-07,3.3271938e-08,2.9295012e-07,5.095095e-07
1.5311804e-07,4.2407373e-07,4.725405e-07,2.6843418e-08,2.5217028e-06
1.392837e-07,1.8115466e-06,0.00017256988,1.6292944e-08,8.434584e-07
2.2514487e-07,2.4264534e-06,2.3543005e-05,1.1714301e-06,3.983255e-07
1.5833859e-06,2.2070224e-06,2.280947e-06,1.333197e-07,9.1203316e-07
1.1997802e-06,7.2403344e-07,3.2789333e-06,1.0664832e-06,3.6342902e-07
3.1018544e-07,2.0234606e-06,0.0010789855,1.1335734e-07,1.8754552e-06
1.6424415e-06,2.8910956e-06,3.4267214e-05,1.0739249e-06,3.4441657e-06
2.4535193e-06,6.1714826e-07,0.2945705,0.0017706344,8.05254e-07
5.288826e-06,2.6591383e-06,0.852027,0.000113130256,6.972345e-06
4.278242e-06,1.2257117e-06,0.010314063,1.0306007e-06,1.2438783e-06
1.7002645e-06,0.11432328,0.008612071,1.5777523e-06,0.07832846
1.516578e-06,0.25429618,0.41420883,0.028943542,0.12495005
0.053083763,0.5003302,0.8236715,0.022292798,0.3917051
0.15174446,1.3448453,0.6002896,0.020687398,1.8725258
0.14645466,2.303927,1.6234109,0.4616697,3.2977502
0.007845578,2.9298654,2.829207,0.71351844,3.7629938
0.5623923,2.2406957,3.0809822,1.0822623,3.2008846
1.0337899,1.573268,3.062971,1.1728109,2.5837798
2.6249533,0.74559426,1.4770564,0.2804104,0.12641652
3.1977303,0.24754429,0.14565921,1.169429e-05,0.5403912
4.0330334,0.4678155,0.00046511082,0.04871675,1.1204485
3.1607578,1.1122075,1.3719529,0.068738416,1.5430495
1.8170493,2.1708941,0.07790322,1.9263979,2.0214355
0.7626503,1.967566,1.0227315,4.554844e-06,3.1718478
0.7012178,3.1653118,0.0072457143,3.6856432e-07,2.2327693
1.4438118,2.7462728,1.164465e-05,3.8300067e-07,1.7330827
2.676243,1.7649223,0.0010776317,0.11937052,2.0976033
2.673417,1.4112145,0.005044168,0.0090841595,3.2458968
2.590597,2.2954648,0.0013793912,1.0714834e-06,2.9724975
2.9386437,1.7041965,0.0004971431,7.0350774e-07,3.0268686
4.2301664,1.7279043,0.14750361,3.3613975e-05,2.1290467
3.5923283,1.1200209,0.028271275,0.07908226,0.6878198
3.002869,1.2832174e-05,0.0021642558,0.21696141,0.00015894139
1.3790362,2.4123494e-05,0.007815239,0.3980662,0.0004754259
0.0039787507,0.00015866179,0.32050022,0.37052092,0.00053491094
0.05540577,0.00091888395,0.2851695,0.26999483,0.00090079254
0.33211598,0.0002277149,0.039355833,0.25125337,0.00023001104
1.7383987,0.0018907939,0.0101437615,1.2493125,0.5595405
1.5504781,0.5329317,0.03707616,0.4594798,0.9047149
0.35357034,3.0653124,0.091764435,0.17427798,0.1308104
1.534818,0.060643483,0.00016313959,0.000300818,0.086528175
2.4174109,0.00118751,2.1734938e-06,0.02986184,1.6672028e-06
0.045219786,7.691902e-07,1.8675469e-06,2.3750533e-06,0.012240092
1.4380333e-06,1.833661e-05,5.4667385e-07,1.73847e-06,0.9279916
1.0431568e-06,0.00016537824,3.475417e-06,1.8053037e-06,1.2616746e-05
0.06717934,9.0101787e-07,0.0044909813,1.4756929e-06,0.4276462
0.45918092,5.2614695e-07,0.39868394,1.1353858e-05,8.996208e-07
7.265824e-05,5.7719426e-06,1.3295585e-05,1.0692684e-05,0.0011418347
0.107017174,0.092969775,4.5648047e-08,6.084843e-07,2.0488278e-05
0.8674481,0.07862895,5.5878064e-07,0.014531231,0.00024413575
0.025418457,1.1570987e-06,3.4265176e-07,3.000819e-07,3.0003162e-07
0.2755368,2.471521e-07,2.334619e-07,1.176076e-06,3.316759e-07
1.1249641e-06,6.601296e-07,2.6116712e-07,3.6130095e-07,7.505006e-07
0.000120557364,1.1691144e-06,2.0486494e-08,8.966615e-08,1.6444272e-06
2.6882942e-06,8.383603e-07,0.0006891718,5.9071607e-07,4.6442364e-07
1.3561092e-07,1.655693e-06,1.9059969e-07,1.5959463e-07,1.2974489e-06
8.998785e-08,1.777678e-06,0.09012771,0.0007596013,5.5089504e-07
5.1617903e-08,4.8427455e-07,0.004203293,0.008680728,2.7378988e-07
6.6840336e-08,3.6951434e-07,0.6289886,0.3316714,2.4614002e-07
1.03189635e-07,4.7534957e-07,0.58722293,0.52697706,5.7776543e-07
7.379745e-08,9.377708e-07,0.49081093,0.094367996,4.1460653e-06
6.3256033e-07,8.459712e-07,0.15817986,0.038098454,2.670368e-07
4.96053e-08,1.9303359e-06,0.32006934,0.66620255,0.11126107
3.8761104e-07,1.3175691e-06,0.08695227,0.00725824,0.010895889
1.1004576e-06,1.0471945e-06,0.0053306785,0.006852139,0.00018141336
1.8869179e-06,2.3137393e-06,0.013870262,1.4487014,1.8683968e-06
2.2483432e-06,9.56098e-07,0.006979748,3.423072e-07,8.160791e-07
2.770054e-06,6.0312584e-07,0.8099609,0.027902806,0.06532247
3.0467975e-06,8.9487395e-07,0.009015395,0.16318974,0.0945808
2.2381246e-06,7.385051e-07,0.25336093,1.4924104e-06,0.07429634
2.7703672e-06,1.0019374e-06,1.063259,0.00017288642,0.016268063
1.0655898e-06,9.0790985e-07,0.10882484,0.5967332,1.0722704e-06
1.3327993e-06,5.2207236e-07,2.1003082,6.4323496e-07,3.8000786e-07
6.717529e-07,9.592819e-07,0.3549867,0.31281054,1.191846e-06
4.731772e-07,3.9043884e-05,0.18067324,0.09235126,4.1100334e-06
1.4521166e-07,1.8966415e-05,0.30117425,0.18280905,8.332269e-06
2.6893107e-07,5.0466316e-09,0.49876553,0.07187572,5.456778e-05
1.1908538e-07,2.3352209e-06,0.03138666,0.26307127,7.105131e-08
9.089312e-07,2.935038e-06,5.195378e-07,2.3700131e-05,5.131192e-07
2.9269568e-06,1.8504758e-06,1.7231383e-07,1.2978207e-07,2.165506e-06
3.674507e-06,2.066507e-06,5.909771e-07,3.5170444e-08,1.1760312e-06
7.1408977e-07,0.06609034,2.8269818e-07,3.9508691e-07,7.895465e-05
1.2754297e-06,0.8687271,1.1606843e-07,1.2915071e-06,2.676402
3.987014e-06,6.385568e-06,3.4038905e-07,3.354041e-07,6.7585e-06
0.00016164068,1.7244341e-07,2.1412096e-05,1.406146e-07,2.7875137e-07
0.015932947,5.5084587e-07,0.0024660667,2.2672553e-07,3.429398e-07
4.5099612e-05,2.6196008e-06,0.0037144788,0.08767903,3.8815583e-07
0.06666776,1.8387298e-06,1.888185e-07,0.54406726,2.301484e-07
0.3544218,3.6814734e-05,2.6475286e-07,1.8566077e-06,0.00012528177
0.03412294,1.5597597e-07,3.5970127e-06,6.8572563e-06,0.00087289326
0.03336161,2.7025167e-06,5.368929e-06,5.7820607e-06,9.497615e-06
0.13355698,3.1676223e-06,1.285866e-06,2.9423556e-06,5.9956933e-06
0.111629896,2.6950136e-06,1.7186044e-07,1.7859298e-06,2.490361e-06
0.014833739,0.0019692,4.37228e-07,7.870197e-08,7.020119e-06
0.013662776,0.28276226,1.5578856e-06,5.413461e-07,0.0034626808
0.006803753,0.40559316,3.4919572e-06,0.00021008817,0.6803278
0.0022720231,0.003138687,0.81137484,1.3617839,0.0015561667
5.504264e-06,0.5600513,0.053507864,0.0026637726,1.776414
0.014415269,0.937588,0.250289,4.7152138e-05,3.2323472
2.251454,0.11413529,0.12603049,0.009115223,0.29605517
0.45130613,0.8777519,0.5167214,0.19382276,3.2061002
0.6535702,0.5494374,1.8424398,0.3680204,0.6858781
1.3903095,0.0101583,2.7095385,0.919864,1.3066341e-07
