"[299, 255]","[227, 248]","[287, 319]","[279, 328]","[230, 262]"
4.5935726e-06,6.750124e-08,0.039917104,5.3696743e-07,1.9084e-06
0.0,5.366698e-07,3.5180923e-07,0.0,1.081104e-06
0.0,5.6962017e-06,1.3232103e-06,2.39517e-08,1.5107092e-06
0.0,0.0,2.528585e-07,6.136839e-07,2.4582712e-06
0.0,3.3000036e-09,3.1047156e-09,4.9004726e-08,3.843537e-06
0.0,5.77692e-06,2.3462177e-09,1.7822785e-08,0.028472561
0.0,0.0,5.294381e-07,4.597176e-09,0.0001202936
8.4405264e-07,5.4863485e-06,0.0,0.0,0.0008998066
5.4234937e-07,4.659719e-08,6.7737767e-07,8.0840346e-10,3.4116545e-07
1.8029628e-08,0.0,1.3931493e-06,1.3150792e-07,1.2720024e-06
0.0,0.0,1.5873289e-07,3.3861915e-07,6.7396616e-07
0.0,0.0,2.0036733e-08,0.0,5.064276e-08
5.172868e-08,2.900737e-08,7.3802596e-07,0.0,3.849847e-08
8.174146e-07,1.0234237e-07,1.5655799e-06,0.0,1.488981e-07
7.6768254e-07,0.0,1.4786292e-06,5.0869104e-08,0.0
8.7841795e-07,0.0,0.0,9.596951e-09,0.0
1.1151852e-06,0.0,0.0,0.0,6.5199345e-07
4.820808e-11,0.0,0.0,0.0,1.9813613e-06
2.7343674e-08,0.0,0.0,0.0,2.3282855e-06
3.853721e-07,1.2488432e-06,0.0,1.9011134e-08,8.0106395e-07
5.8104587e-07,1.4655831e-06,0.0,1.3567959e-08,5.4915154e-06
1.0836283e-06,0.0,0.0,0.0,1.4108377e-07
7.8052494e-07,0.0,0.0,0.0,3.7928365e-07
9.173329e-07,0.0,0.0,0.0,3.7072152e-06
4.2571623e-06,0.0,0.0,0.0,2.4818687e-06
1.7430502e-05,0.0,0.0,0.0,1.9464248e-06
4.5253466e-05,0.0,0.0,0.0,0.00010643706
2.0817968e-05,0.0,0.0,0.0,5.2660806e-05
9.838579e-14,0.0,0.0,0.0,2.7026006e-06
9.8103484e-08,0.0,0.0,0.0,9.009108e-06
7.544513e-08,0.0,0.0,0.0,1.3081201e-06
0.0,0.0,0.0,0.0,3.3843102e-07
0.0,0.0,0.0,0.0,1.5332315e-06
0.0,0.0,0.0,0.0,7.490705e-05
0.0,0.0,0.0,0.0,3.0668525e-07
0.0,0.0,0.0,0.0,1.5837844e-06
0.0,0.0,0.0,0.0,7.894059e-06
0.0,0.0,6.5093877e-09,0.0,7.5240393e-07
0.0,0.0,2.1794586e-10,7.4429363e-07,0.0
0.0,1.5325342e-06,1.8422948e-06,1.3559943e-08,1.019243e-06
2.245667e-08,3.3564759e-06,1.8786394e-06,0.0,1.0013938e-06
0.0,1.3598087e-06,0.0,0.0,0.003947413
0.0,7.1073555e-07,0.0,3.1566822e-09,0.33048567
0.0,0.0074518826,0.0,0.0,0.2188444
0.0,0.1554548,0.0,0.0,0.041862477
4.9775767e-10,0.00087343645,0.0,0.0,0.04124655
0.0,0.0007218143,0.0,0.0,0.018438617
0.0,0.000978343,0.0,0.0,3.7101327e-06
0.0,0.13936014,0.0,0.0,3.597233e-06
0.0,0.7672863,0.0,0.0,2.2539807e-05
0.0,0.8866224,0.0,0.0,0.003441678
0.0,1.0219387,0.0,0.0,0.001954643
0.0,0.042546574,0.0,3.5546086e-07,0.00018487524
0.0,0.00045651116,2.1840897e-08,5.2565665e-06,7.8578014e-05
0.0,4.1647486e-06,1.5521734e-07,2.3159737e-06,2.7805813e-06
0.0,1.1429371e-07,1.085883e-07,1.8767935e-07,2.1068142e-06
0.0,1.6311364e-07,1.760242e-08,8.8090206e-07,8.8922025e-06
0.0,0.0,0.0,3.4406258e-07,7.668466e-07
0.0,1.0157472e-07,2.2453847e-08,1.1788962e-07,4.0484347e-06
0.0,2.743478e-07,0.0,3.2523702e-09,1.2384768e-06
0.0,1.202868e-09,0.0,0.0,3.0661512e-10
0.0,1.7270347e-08,0.0,0.0,0.0
0.0,0.0,0.0,0.0,0.0
0.0,0.0,0.0,0.0,4.5466135e-07
0.0,0.0,0.0,0.0,0.0
0.0,0.0,0.0,0.0,0.0
0.0,0.0,0.0,0.0,0.0
0.0,0.0,0.0,0.0,0.0
0.0,0.0,0.0,0.0,0.0
0.0,0.0,0.0,0.0,0.0
0.0,0.0,0.0,0.0,0.0
0.0,0.0,0.0,0.0,0.0
0.0,0.0,0.0,0.0,0.0
0.0,0.0,0.0,0.0,0.0
0.0,0.0,0.0,0.0,0.0
0.0,0.0,0.0,0.0,0.0
0.0,0.0,0.0,0.0,0.0
0.0,0.0,0.0,0.0,0.0
0.0,0.0,0.0,0.0,0.0
0.0,0.0,2.067281e-06,0.0,0.0
0.0,0.0,5.808456e-07,0.0,0.0
0.0,0.0,7.8454656e-07,8.393422e-09,0.0
0.0,0.0,4.136483e-06,3.2342753e-06,0.0
0.0,0.0,9.965677e-08,1.8921005e-06,0.0
0.0,0.0,0.0,6.579358e-07,0.0
0.0,0.0,0.0,1.929096e-07,0.0
0.0,0.0,0.0,0.0,0.0
0.0,0.0,0.0,0.0,0.0
0.0,0.0,0.0,0.0,0.0
0.0,0.0,0.0,0.0,0.0
0.0,0.0,0.0,0.0,0.0
0.0,2.3160328e-11,0.0,0.0,0.0
0.0,8.543022e-12,0.0,0.0,8.543558e-12
0.0,0.0,0.0,0.0,0.0
2.4591707e-11,0.0,2.6591866e-11,5.308774e-11,0.0
0.0,2.2750143e-08,1.2940058e-11,3.2384397e-11,0.0
0.0,1.0007755e-08,0.0,0.0,3.8780453e-07
0.0,2.1213926e-05,0.0,0.0,3.6360772e-05
0.0,0.00013917434,0.0,0.0,0.00034725782
6.1998276e-07,0.0073859603,1.229473e-10,1.0786813e-08,0.007243766
4.4528682e-05,0.0004809298,1.9135985e-06,8.5374955e-07,0.08121879
0.00018930153,3.0186484e-05,3.7385726e-05,2.1491985e-06,0.03902526
0.0005721309,0.053902403,0.0005303027,0.00020099392,0.73008907
0.0018153252,4.3956227,0.04369922,0.00031952094,2.339088
0.010906127,6.5749784,0.0005923556,7.818553e-05,5.3047614
0.78952074,6.4862084,0.006607057,0.033326443,4.519029
1.1025034,0.00096864015,0.25901347,0.8437117,0.17499435
1.8510257,2.1247728,1.2067623,1.2038987,0.011120846
4.405955,0.31953663,2.949386,2.7641103,2.2374024e-05
4.4556537,0.05643753,4.27179,2.512736,2.2746964e-07
2.2719052,1.8777959,3.2036364,1.2639261,0.9510159
0.065793924,0.69302255,1.0574932,0.08262184,1.880332
0.47497118,1.06365114e-07,0.3944725,0.14616287,3.3726673e-07
0.30733952,1.3758931e-05,0.56625813,0.28551528,2.9660103e-07
0.0042073643,1.3092004e-05,0.39660338,0.4047378,1.9568613e-06
0.0037582575,6.8862326e-05,0.001512231,0.0016546198,0.0023821408
0.011738488,2.772754e-06,0.0005009671,0.00023059621,0.0011685936
0.015777426,7.367412e-08,0.0006664571,6.1851744e-05,6.0513435e-06
0.011519356,0.4448769,0.0007369875,0.000107244094,8.895924e-07
0.0074516763,6.802503,0.000555561,0.000108097316,0.00014032595
0.010211809,0.001990114,0.007976696,0.0004711198,0.0014756517
0.8669883,0.2961796,0.011225779,0.001737807,0.32955936
1.0254261,3.517135,0.0066568376,0.004250909,0.14929873
1.2161852,1.6317927e-05,0.04772627,0.0029546716,3.3905262e-06
1.44249,1.7558175e-06,0.6105506,1.2607827,0.056616448
2.062292,0.00027588813,2.2171144,1.4532416,1.1893418e-06
0.023211073,0.13341716,0.023118602,0.008574219,2.2414918
0.03425826,1.4046867e-06,0.017373744,0.01705593,0.39938426
0.52323025,4.4029554e-07,0.009757704,0.016240433,3.9028052e-07
0.010630015,8.162211e-07,0.002383499,0.019433377,1.8991249e-06
0.0036513477,9.861078e-07,0.0013271207,0.0076989327,1.1422854e-06
0.00013061121,8.503091e-08,0.002007691,0.0026989833,1.5162506e-06
0.00010677071,0.001748614,0.0037399794,0.0022800365,3.126385e-07
0.00019330182,0.008681299,0.00031304688,0.00084661425,3.1671422e-07
2.62948e-05,3.1191823e-07,0.010953343,0.0012855034,5.212173e-07
0.63796306,1.5199082e-07,0.0029898032,0.0014170685,1.2537633e-06
0.6604538,7.8613475e-08,0.5776623,0.01023789,5.6709996e-07
2.9492146e-05,1.253267e-06,0.0034915206,0.008649052,2.0042053e-07
0.00018803285,9.549815e-07,0.0048549487,1.0718143,6.2857374e-08
0.0001050555,4.434339e-07,0.13184305,0.0114204995,6.2176014e-08
0.0015315304,1.0253412e-07,0.017633807,0.0006102686,2.0818145e-06
7.185175e-05,3.2658704e-07,0.002946812,9.7062955e-05,7.1483875e-08
0.6518123,3.8326775e-07,0.030021878,0.08920344,1.2854349e-07
0.0004661095,4.9183325e-07,0.026867129,1.045792,6.329985e-07
0.00070701237,2.7220807e-07,0.038744185,0.6060605,1.0811633e-06
0.0015366169,4.2444793e-07,3.3704536,0.0012323397,7.8357135e-07
0.0014771263,3.485642e-05,0.0025433102,7.544672e-05,1.0231746e-06
1.7688781,0.07638131,0.0018113047,5.372889e-07,0.9586167
0.109007105,2.346887,0.0021804213,8.847889e-06,0.08574635
0.00057507766,0.0015581279,0.004066732,0.00031909984,1.6449922
0.00015913528,6.620014e-07,0.04420968,0.0031867824,0.35661057
0.000787745,0.32722571,0.008813632,0.0012989967,9.305294e-07
0.0016548965,0.00075296225,0.008105267,0.01702614,2.2427876e-06
0.0027463273,8.969287e-05,0.0015400328,0.007955261,1.8542172e-06
0.0015974945,5.7238157e-07,0.0023893847,1.8540707,1.9613465e-06
0.00018348562,7.746883e-07,0.013450999,1.9468638,7.533412e-07
0.0013409663,4.0428762e-07,0.0006253845,0.00028161178,7.2980464e-07
0.19754668,2.5179236e-07,0.00093030185,0.000533306,7.997398e-07
0.00015374976,2.7018228e-07,9.456982e-06,5.0669014e-06,6.8628157e-07
1.9644071e-06,8.9420473e-07,0.010644181,3.6980327e-05,8.063346e-07
7.977671e-06,4.1306257e-06,0.03175502,0.0007625676,0.147564
4.1204115e-07,3.563752e-06,0.030713012,0.010021788,3.2546835e-05
9.095737e-05,0.00056547293,0.011653277,0.017195577,4.8274416e-07
5.770884e-05,0.97118545,0.0014632287,0.007010906,3.305212e-07
2.4722645e-05,0.00054561556,3.439876e-05,0.008122028,2.1524536e-05
0.0010724053,1.7029198e-07,3.7284196e-06,0.016171059,0.0009994445
8.237947e-05,4.561625e-07,2.887546e-07,0.005532359,2.4630688e-07
0.00019506605,2.2712057e-07,1.2561751e-06,2.0570904e-05,1.3703807e-07
2.841873,1.922199e-06,0.19304687,4.0856625e-07,1.1501184e-06
0.009232439,0.0017417689,0.00049865845,7.1691284e-05,5.764039e-07
0.00013430696,0.005686824,0.3439604,0.83554983,1.2167067e-06
0.0013596778,3.2943415e-05,4.6508907e-07,0.006389971,2.9783014e-06
0.0020966122,1.3294059e-05,1.6680956e-07,8.3229696e-07,1.4315746e-06
0.00040882092,2.8026104e-06,5.682173e-07,4.643633e-07,3.1641039e-06
2.5319305e-06,3.4370996e-07,3.038891e-07,6.3459544e-07,2.55858e-06
5.024647e-07,2.8325733e-06,1.5360645e-06,1.3637966e-06,2.9626617e-07
3.2501127e-06,3.958965e-06,2.2443767e-07,1.1400649e-06,7.693571e-07
9.49421e-06,4.546009e-07,1.7076196e-06,1.1381299e-05,9.910225e-06
9.262754e-06,1.6366832e-06,1.3186979e-06,1.8014706e-06,1.760158e-05
1.938777e-05,1.4581321e-06,8.954404e-07,1.9277818e-06,2.994241e-05
1.1521263,1.1801894e-06,3.6351892e-07,7.2227994e-07,0.033861797
0.1748025,4.136207e-06,8.799406e-06,7.370701e-07,0.8179006
1.3807817e-06,2.3396522e-06,2.4584808e-06,2.059737e-06,7.395199e-07
4.5525862e-06,3.6854892e-06,2.1748508e-06,5.579628e-07,7.7785455e-07
3.6337275e-05,1.4223598e-06,3.5259259e-06,9.727597e-07,8.1091423e-07
0.0014019517,3.4140737e-06,6.0330412e-06,9.3150567e-07,1.596151e-06
7.052285e-06,1.1440279e-06,5.0572776e-06,2.4724846e-05,0.27166694
8.264088e-07,0.15238456,1.2124707e-06,5.987702e-08,0.004081811
0.0054845205,0.038398027,8.4729515e-07,0.0,7.753931e-06
0.015310199,6.1630926e-06,1.0223435e-07,1.7489025e-07,4.8092165e-06
1.1037187e-06,4.4946696e-06,3.9481162e-07,5.906646e-07,2.3212684e-07
0.0,2.770018e-07,1.2314051e-06,2.332155e-06,2.5588365e-06
2.0666107e-07,1.0370902e-06,1.1309581e-06,3.8796334e-06,2.1261683e-06
1.8760861e-08,8.9428596e-07,4.420377e-06,4.7761237e-06,3.1048169e-06
2.5772331e-07,4.8368797e-06,1.9869326e-07,2.198076e-06,2.1159794e-06
3.1014201e-06,3.9739234e-06,6.4767045e-07,2.7778847e-07,2.2167505e-06
3.1807276e-06,1.2932956e-06,8.3100886e-08,7.7056006e-07,1.5010987e-06
7.6019783e-06,5.197327e-07,6.8148196e-08,8.2895355e-07,2.372376e-06
5.1993764e-05,3.4701824e-08,7.6425856e-08,1.8672783e-07,1.2408028e-06
0.00097035436,2.7050146e-06,4.1974143e-08,4.464135e-07,5.133378e-07
0.00016094687,3.1978276e-10,1.03332674e-07,2.58768e-07,1.4010801e-07
5.516677e-06,0.0,3.4622136e-08,0.0,1.951078e-09
5.530809e-06,1.2135713e-07,0.0,0.0,0.0
9.4650187e-07,8.10334e-09,0.0,0.0,1.3183238e-08
4.1764667e-07,8.3739894e-07,0.0,0.0,1.0730531e-06
1.0883844e-08,8.089438e-06,0.0,1.9455223e-07,2.8989607e-06
5.845099e-07,1.9227632e-06,9.591514e-07,9.76371e-07,4.113249e-06
1.2673429e-10,2.6033606e-06,9.18469e-07,2.664306e-07,1.7200515e-06
4.8688967e-06,2.5832321e-06,5.867661e-07,3.8143497e-07,0.01681109
3.2865373e-06,0.4656232,1.0726785e-06,3.043239e-07,4.5341903e-06
3.1392986e-07,2.0376397e-06,2.4813835e-07,3.1044283e-07,7.468105e-07
2.029734e-06,0.19935438,2.0201819e-07,2.7670043e-07,6.610978e-07
4.588614e-06,1.7636931e-06,1.9921576e-07,1.7088311e-08,1.5781372e-06
0.00015339194,1.1905729e-06,9.261035e-07,2.0883627e-07,1.0789989e-06
0.002406403,2.410525e-07,2.116881e-06,0.00011075482,6.252056e-07
0.0069074444,0.11760613,4.157193e-05,0.00025477467,2.0654695e-06
0.005670053,0.76183486,0.00020758774,0.0005722353,4.4252542e-07
0.004766913,3.4552413e-06,0.00028887155,0.000119731754,6.9409293e-07
0.00427473,3.5789813e-05,0.00017356861,2.9582088e-07,4.8477578e-08
0.0024230366,0.13504387,0.00030449656,9.225191e-09,9.3388167e-07
0.006243536,1.0726206e-06,0.00021458918,3.5191325e-09,9.19838e-07
0.017255388,2.1690378e-06,0.00010892035,0.0,2.7688961e-06
0.01814107,4.7775194e-07,0.0002104405,0.0,7.5709445e-06
0.0068113636,4.700401e-06,3.40299e-05,0.0,0.00040924578
0.00026082684,0.055310354,0.0005197614,0.0,4.3637914e-07
0.0,2.6116311e-05,6.7524034e-06,0.0,1.959442e-06
0.0,3.062154e-06,8.596712e-07,0.0,3.473156e-06
6.419691e-10,5.216755e-07,0.0,2.7846172e-08,1.62399e-06
7.900639e-09,1.423313e-07,9.939517e-07,4.424247e-07,3.3891587e-07
1.2093166e-05,7.3305404e-07,1.4742906e-06,7.791054e-07,2.561368e-07
1.5775081e-06,9.785518e-07,3.480677e-06,2.0232328e-06,1.1527432e-06
1.8458229e-06,1.7343748e-06,2.90418e-07,9.239737e-07,4.943166e-07
4.489196e-06,2.1289188e-06,7.606046e-08,2.7616815e-07,4.412133e-07
2.0559457e-06,6.5670956e-06,9.465944e-08,5.169965e-07,3.375795e-06
1.037773e-06,3.6996898e-06,2.3385928e-07,1.5068534e-05,1.4029938e-06
6.075876e-07,2.9256616e-06,0.17419037,0.009714622,1.7851748e-06
3.2287448e-07,3.6831639e-06,0.015444423,0.43216765,4.7845634e-07
3.6072922e-07,1.8210691e-06,0.30780166,0.28270376,1.7480025e-06
3.3757807e-08,1.3219898e-06,1.7284186e-06,0.22421359,2.5352603e-07
4.6143785e-07,2.1059052e-06,0.00029981174,0.13021038,0.00025222273
2.8144832e-06,2.3499058e-07,0.04869349,0.07135068,0.13069749
4.180149e-06,1.2226089e-05,0.018847192,0.28291038,0.03327482
0.0035111743,0.111909896,0.051380534,0.40959287,0.12180947
0.24785489,1.0542277,0.13611554,0.41831627,0.22225334
0.00058323314,0.9451994,0.054327495,0.37252107,0.7593809
1.510001,0.33141077,0.1545977,1.992081,0.8726997
1.5075898,0.65442294,0.5593081,2.6155436,1.2099998
1.7582325,0.50392115,0.5550081,6.4575004e-05,1.7647002
0.8160715,0.7788085,1.0511911e-07,3.5697642e-08,1.3492821
3.789821,0.45616344,2.168448e-08,1.064089e-07,2.3800108
1.8988538,0.57250947,2.7441519e-07,5.0697673e-07,0.19096349
0.00051213225,0.04065712,5.897841e-07,6.0739976e-06,1.0619177e-05
1.6089181e-05,7.754448e-07,7.2024733e-07,6.959784e-07,4.3116456e-06
1.8480966e-06,2.11008e-06,2.7484327e-06,1.4238304e-06,2.8075171e-06
0.2368178,2.7497697e-06,1.0729485e-06,6.8917313e-07,6.38067e-06
2.181765e-06,2.8012357e-06,6.544765e-06,7.4173386e-07,1.8679453e-06
5.6102863e-06,3.0673996e-06,1.4708925e-06,5.1191887e-07,0.015982857
4.1490125e-06,4.1903386e-06,4.5349866e-06,4.6120304e-06,4.8323736e-06
1.0996513e-06,3.5944777e-07,9.22009e-06,5.9335307e-06,1.9118565e-06
3.4798313e-06,1.0747656e-06,1.6426262e-06,6.6831926e-06,6.065457e-07
7.881046e-06,1.138532e-06,2.1560318e-06,2.7269678e-06,1.0588132e-06
1.8671918e-06,2.9924063e-06,6.278643e-07,4.0108043e-06,5.5469914e-06
4.9043256e-06,7.082507e-06,8.266009e-07,2.2069007e-06,3.872982e-06
5.2334417e-06,1.5311714e-05,2.6414598e-06,7.9999054e-08,1.1772614e-06
1.7804016e-06,1.0653998e-05,7.030783e-09,0.0,1.3422343e-06
8.336941e-06,9.377074e-06,0.0,0.0,2.582912e-05
1.1329724e-05,2.8065654e-06,1.2731769e-09,0.0,2.2795297e-05
4.2227853e-06,1.435405e-07,1.3515049e-09,0.0,1.8556676e-06
2.1873682e-06,1.074321e-06,1.2160917e-06,0.0,7.429345e-08
1.4128918e-06,8.8148187e-07,7.60994e-10,0.0,6.0177877e-07
6.7767155e-07,3.3915936e-07,0.0,0.0,7.21469e-07
2.1234202e-07,2.0726759e-07,5.4811462e-08,0.0,2.0235679e-07
3.5863198e-07,5.4428926e-07,3.448638e-08,0.0,2.0637522e-07
2.659448e-08,3.9592264e-06,0.0,0.0,3.0542787e-06
0.0,0.0005435392,0.0,0.0,1.2048392e-06
0.0,0.016680425,0.0,0.0,4.6148114e-05
1.6602336e-08,0.011761125,0.0,0.0,0.0018015489
7.0063754e-07,0.001971782,0.0,0.0,0.030021686
6.4488e-07,0.00067064876,0.0,0.0,0.015302582
3.4143451e-07,0.027984742,0.0,0.0,0.0014973953
7.95778e-07,0.0054070754,0.0,0.0,9.296401e-05
0.00019677133,0.0002286428,0.0,0.0,0.08192952
0.0016799328,0.041344978,0.0,0.0,0.48447457
0.00010025167,0.50020504,0.0,0.0,0.20531023
0.008240504,0.6961173,0.0,0.0,0.28833273
0.0336096,0.6541171,0.0,0.0,0.62864923
0.21116099,0.035623714,0.0,0.0,0.9139547
0.4234454,0.3477872,7.3476025e-05,9.983106e-05,0.19766372
0.5877319,0.28059962,0.00055662415,0.0001173791,0.09460683
0.20947874,0.8339386,0.010578675,0.0035817923,0.23881698
0.5846665,2.6250398,0.008934735,0.002157897,0.43924797
0.89227706,0.023872184,0.00013006739,0.00010168541,1.5122077
0.27125505,5.885115e-07,0.12078979,0.46680778,0.2119597
0.7510009,4.190379e-06,0.2639969,0.20754115,0.86516976
0.092029706,2.5078077e-06,0.317678,0.24702944,2.48956
0.052056555,2.8277202e-07,0.2083999,6.6442415e-05,2.4704828e-05
0.5321024,1.953568e-06,0.82042015,1.0101897e-06,1.6995892e-07
0.058750227,1.1496472e-06,0.086657986,0.19378175,3.25347e-06
0.21382678,2.2324075e-06,0.22460812,0.2559575,8.5777515e-07
0.11573156,1.5256548e-05,0.18194808,0.45677963,7.458947e-07
0.017638067,1.3310004e-05,0.1995467,0.18860827,5.583459e-06
0.012183263,0.69588125,0.11260591,5.195883e-07,0.01569218
0.0179406,2.8165364,0.004793838,8.843063e-07,2.2353115
0.13951775,2.8744845,3.6330687e-06,4.0032424e-07,5.4215684
1.0275551,1.5605183,0.032745153,0.003071866,3.3976123
3.0963502,0.41660124,0.0068713645,0.40295336,0.4031669
3.993222,0.14205511,0.8748172,0.6933236,0.2959915
2.0557244,0.0196399,2.5132658,0.66241086,0.10394437
0.11184677,0.0026433524,0.5733665,1.6485648,0.07705586
0.07042619,0.0026827839,0.5250988,0.0047489805,0.015536033
0.031782135,0.0017917245,0.112423375,0.020136762,0.011053487
0.027375964,0.0028637524,0.0066536856,0.0059599755,0.0038122782
0.020960936,0.0002419691,1.690512e-05,0.03511697,0.0072316197
0.016697055,0.0012380221,0.0017703546,0.0051279524,0.006742142
0.008020452,0.0027406602,7.8597066e-07,0.00019528455,0.031832576
0.00640683,7.775615e-06,0.000108069755,0.0020679734,0.016036468
0.114271216,0.008439961,8.719419e-08,4.663885e-05,0.001925731
0.241364,0.6176227,7.5816797e-07,1.3156808e-06,0.45593524
0.6067762,1.0118556,1.1926564e-07,6.0106106e-07,1.4352223
1.3669373,0.015606146,5.333783e-07,2.2571226e-07,0.22562313
0.4556521,0.1872591,0.004492827,0.38810098,0.115970574
0.09398135,3.4735317,0.7362667,0.32791778,1.5053698
0.053894136,5.651555,0.9434352,0.7115454,5.4297514
0.78069574,5.345857,3.020667,1.5521876,5.4782424
4.936758,0.055758096,5.1642685,2.7507806,1.4947966
0.20139833,2.6554628e-07,2.8516273,3.2270505,0.011171802
2.0275047e-05,5.3079054e-07,6.0242777,5.1901417,4.473642e-07
3.609445e-07,0.029168021,2.3302767,1.4542164,1.575962e-06
1.7549479e-07,7.966973e-07,0.222638,0.7865554,8.4576453e-07
1.1023507e-08,6.613278e-07,2.9975705e-05,3.9262886e-06,6.0869644e-07
4.243901e-08,0.014737749,3.227684e-06,4.3707513e-07,9.1850876e-07
1.1059848e-06,0.12912971,1.8316078e-06,2.205934e-06,0.13611427
1.2503596e-06,0.04359138,1.4905431e-06,6.1326937e-06,0.025756447
2.1590868e-06,0.0028672945,1.3999442e-06,2.3312827e-05,3.3457754e-06
0.015219043,0.014485985,5.366853e-07,2.1749338e-06,3.888877e-06
0.123159744,0.1876654,5.746338e-07,6.4237224e-07,2.4653748e-06
0.101446375,3.8864066e-05,1.825469e-06,1.3757875e-06,5.993208e-07
0.19527479,0.0109555945,5.100862e-07,1.0552066e-06,4.2321975e-07
2.095914,1.0663182e-05,5.053376e-07,1.3771213e-06,2.7004337e-06
0.4983472,5.3816943e-06,1.3114266e-06,2.20145e-05,0.00829756
0.15533936,7.591751e-05,1.087524e-06,4.5740018e-07,0.095143065
0.39013305,0.061384514,1.6862955e-07,1.04540796e-07,0.18482196
0.72648025,0.1319011,2.6933606e-06,9.944435e-08,0.63259435
0.12789519,1.4256779,1.0089727e-06,1.4774919e-07,0.1503836
0.06182372,0.25694844,4.6942506e-07,9.285964e-08,0.83235586
0.1680015,0.00026637496,2.681144e-06,8.38455e-06,1.830833
0.4670211,6.782982e-07,2.1706032e-06,6.716158e-06,0.5652207
0.15502112,6.9310204e-08,6.344514e-07,7.442617e-05,0.005025696
0.20930423,0.041832123,2.5223133e-06,1.4829175e-05,9.627698e-07
1.5930021,4.7188988e-07,5.8704964e-06,7.730745e-06,0.019271368
1.7736545,5.034472e-07,8.1981784e-07,4.104111e-06,0.0038635056
2.0553355,3.4401884e-07,1.3380168e-07,0.12089599,4.071118e-07
0.37611392,1.230266e-07,0.014729178,2.3631506e-08,3.018013e-07
1.048083,5.67423e-07,0.010838612,0.00024974413,1.8642204e-07
0.06715226,9.147212e-07,2.7134931e-06,0.0121443765,3.276895e-07
0.0653549,1.1327358e-07,6.108082e-05,0.00409989,2.0657181e-07
0.08706071,0.0,0.00031911588,0.0016245524,1.1876891e-06
0.0003045276,7.928303e-08,7.9042125e-05,0.0027704106,1.1944704e-06
0.00010628748,0.00017022988,0.00014976833,0.002681081,2.824291e-06
0.00030289148,0.0059145736,0.00026164917,0.00040997754,0.0038062849
1.546482e-05,0.06191315,9.044801e-07,0.003827202,0.005157411
2.0806743e-07,0.67960924,4.6972036e-07,0.001670514,0.093387865
3.1314987e-05,0.62394863,8.884633e-08,5.7936545e-06,0.6971989
1.5464982,0.010284342,2.4474895e-07,3.7870225e-07,1.0003378
1.0323809,2.5383506,2.8066725e-07,7.4843547e-07,2.7910407
1.3334143,0.06943969,0.3524244,0.10918567,0.34422967
0.5896755,0.010000085,2.1371634,2.1977477,0.053075805
0.26271638,3.9715005e-06,1.2567927,1.3483596,0.07706924
0.04545702,2.1395978e-07,0.073646344,0.25448725,8.385102e-06
0.026817547,3.9354907e-07,1.8465247,3.2811491,7.2940397e-06
0.0069859577,9.2806573e-07,0.7020733,0.22068042,1.8202869e-06
5.2664054e-05,1.725882e-06,0.3913043,0.5154656,5.1981006e-06
2.6431715e-06,1.0815405e-06,0.20719773,0.03410245,5.4106176e-06
2.0260895e-06,3.7030287e-07,0.014155725,2.128258e-06,9.394589e-07
1.4807488e-06,9.358778e-07,2.1530411e-06,1.6720023e-07,4.6038693e-07
6.724229e-07,7.3241995e-07,6.9328615e-07,4.5832303e-07,2.0739215e-06
1.7416219e-06,4.510399e-07,1.7143506e-07,2.6055876e-08,5.664424e-06
2.381812e-07,3.5051858e-07,1.6133775e-07,8.224061e-07,9.266863e-07
4.2819456e-06,0.12053668,3.0569964e-08,2.6223825e-07,1.7843653
3.8266267e-06,0.01682784,3.8111423e-06,1.3009068e-08,6.4783393e-07
7.0796345e-06,2.2770848e-06,0.0016593816,1.0403483e-06,2.566081e-07
6.130708e-06,1.4092742e-06,3.3624747,0.00038624325,7.341373e-07
1.4280076e-06,8.017433e-07,0.17427167,0.032505304,1.0117021e-06
1.4748622e-06,2.2772437e-07,1.2418856e-05,2.3834314e-06,1.0261791e-07
9.837029e-07,1.3637458e-08,8.4633e-07,7.450378e-07,5.488606e-07
2.5619113e-07,1.2983916e-06,3.1937992e-07,3.3384458e-07,3.2064142e-07
1.2176642e-06,0.0,3.0671123e-07,9.5101296e-07,3.4744982e-08
3.2921362e-06,0.0,1.6094482e-07,4.3427715e-07,0.0
5.6090077e-08,0.0,8.146973e-08,2.2995106e-07,3.4149607e-06
1.0679954e-06,7.894727e-07,1.7548853e-06,2.3588626e-07,2.8384245e-06
1.6305431e-06,1.8511963e-07,1.150385e-07,4.3760085e-07,4.217317e-07
2.1230385e-06,5.390817e-07,6.287817e-07,8.9249875e-07,3.4550071e-06
1.2549845e-06,4.8439297e-06,0.00032916365,1.9062868e-07,5.7975317e-06
2.2441809e-07,8.126748e-06,2.7587916e-05,2.1849114e-06,1.142352e-06
6.08151e-08,1.0385717e-06,0.047413636,0.1343567,5.763699e-07
1.5444868e-07,1.51951845e-05,0.07894723,1.8050846,4.5812635e-07
8.2535547e-07,2.151512e-06,0.010100868,1.056335e-06,1.4911283e-06
5.1075613e-06,1.7411598e-06,0.00014282584,2.0083876e-06,1.8315361e-06
2.9066885e-06,8.452145e-07,1.3470799e-06,1.1856669e-06,1.0276708e-06
4.286725e-06,1.0272303e-05,7.664063e-07,1.3279147e-06,7.9641615e-07
2.3369573e-06,4.960864e-06,2.5836996e-06,1.4856608e-06,7.452658e-06
2.0433847e-06,3.643338e-06,1.1543174e-06,7.1560964e-07,5.942066e-06
1.3922042e-07,1.5589035e-06,0.008560349,1.017568e-06,1.5453926e-06
2.2047558e-07,1.6178228e-06,3.3360761e-06,1.8309808e-06,4.0177542e-06
7.369816e-08,0.0048496732,1.113192e-06,1.4934913e-06,1.2043561e-06
2.8046868e-06,0.17611608,3.9086822e-07,4.5009412e-07,3.6933673e-06
2.8556808e-06,3.073554,1.7472413e-06,1.9728186e-06,1.1870712
4.810191e-06,0.5440354,1.6846016e-07,2.4946434e-07,0.4547634
0.09361177,1.4933224e-07,1.5114648e-07,2.4874807e-06,3.710321e-06
0.6393067,6.3484977e-09,6.5932693e-07,1.5053174e-06,6.003534e-07
2.3973317,2.9863508e-11,0.32078254,0.00047445434,1.00044915e-07
0.5201143,3.2297323e-06,0.03845949,0.013277514,3.3654622e-08
0.00033513407,1.4224216e-06,0.7752186,1.4180988,1.988059e-05
0.00019796602,5.359971e-06,0.50677145,0.14648183,1.8515095e-06
4.858151e-07,5.625389e-07,0.044410657,0.004045723,4.3805198e-07
0.00020333349,4.4356582e-08,0.00019444458,0.006200838,2.5069983e-07
8.5332365e-05,4.031376e-07,9.977865e-07,0.0030054965,2.4071114e-06
1.4181465e-05,6.3907913e-07,8.4553244e-07,0.0003516031,1.1187713e-06
1.6287823e-06,0.06664566,8.0630883e-07,1.2270488e-06,2.8647497e-07
4.467326e-06,4.733069e-07,1.6595059e-06,5.802133e-07,1.2199887e-06
4.0472655e-06,9.391193e-06,1.5232598e-06,4.851624e-07,1.0408897e-06
6.562808e-07,8.2607176e-07,1.1682425e-06,7.1014604e-08,0.046881214
1.7267639e-06,3.11482e-06,0.19371417,2.713232e-07,2.9836444e-06
0.0038923656,6.3613606e-07,2.4538639,7.348409e-07,1.1845397e-06
0.02911959,5.618481e-07,4.3398054e-06,2.8309225e-06,7.099453e-07
6.01697e-07,1.3508067e-06,1.828557e-05,0.08908579,1.1321673e-06
1.5253432e-06,9.263309e-07,7.872013e-06,1.0424831e-06,4.0641547e-07
0.062038258,3.7599054e-07,5.826601e-07,6.0388226e-07,6.57406e-07
7.118627e-08,0.01417856,0.00082319014,1.3267365e-06,0.061047845
7.2868534e-07,0.0010270869,4.779716e-07,5.009063e-07,1.9327592e-06
1.765985e-06,0.0003182297,1.3178998e-06,4.3526953e-07,0.016277928
1.7755548e-07,1.3605892e-06,2.2050261e-07,6.1953006e-07,7.908561e-06
4.151663e-06,6.182876e-05,1.0393509e-06,8.4074975e-07,4.698372e-06
9.549825e-05,0.14634314,5.941081e-08,6.9704115e-06,5.217946e-07
0.00020806155,8.673172e-07,1.414651e-06,3.902548e-06,1.5196264e-07
5.449177e-06,6.7710124e-07,4.4650424e-06,1.3236792e-06,3.5749628e-07
2.610992e-06,1.5384917e-06,7.637487e-07,7.562745e-07,2.6888725e-07
6.320444e-06,2.941717e-06,6.531409e-07,8.8286066e-07,8.068752e-06
1.9810288e-06,1.5858166e-06,1.4510233e-07,5.852522e-07,5.679574e-06
2.2575614e-05,2.0357677e-06,7.2890344e-07,1.592369e-07,4.6093683e-06
2.8387585e-06,8.9560035e-06,8.4001147e-07,3.4746543e-07,1.364578e-06
2.1417407e-06,4.7242997e-06,4.630045e-06,1.1112663e-06,8.95758e-07
3.5692295e-08,6.4243056e-07,8.355757e-06,1.215953e-06,2.9619587e-06
1.019895e-07,2.840908e-07,1.3074994e-06,1.2413129e-06,1.7641728e-06
1.5411478e-06,1.8528481e-06,3.5037228e-06,9.649258e-07,5.5979837e-07
1.1844973e-06,1.0863559e-07,8.8277056e-07,5.4102884e-07,1.0788925e-06
5.1622294e-07,8.1032147e-07,1.275243e-06,5.0747994e-06,8.195699e-07
9.57144e-07,3.1884072e-06,9.300178e-07,2.0156265e-06,6.8858947e-07
3.3534784e-06,5.707217e-06,8.6091137e-07,1.6219224e-06,3.9504513e-07
1.3731972e-06,3.386063e-06,6.8805844e-07,1.0407542e-06,2.873358e-07
6.2765355e-07,2.4317912e-06,4.0417487e-07,6.8956547e-07,3.564582e-07
2.5599625e-06,3.5218972e-07,1.7969863e-06,4.7088608e-07,4.895471e-08
3.3697022e-05,1.7746953e-07,1.849239e-06,5.773889e-07,1.8630168e-06
0.009537728,3.6662506e-08,1.3485487e-06,2.3958924e-06,2.617435e-06
0.009924498,5.0637266e-07,2.6255393e-05,1.9863467e-06,5.248288e-07
0.009559376,1.979008e-06,1.9406086e-06,4.1927983e-06,1.014593e-06
0.013870123,1.8780088e-06,0.08567954,1.1045921e-06,6.575151e-07
0.008677648,5.2875435e-05,1.5713093e-06,1.8188674e-06,1.2799054e-06
0.022606844,0.00044763088,0.01598254,2.5862994e-06,7.503218e-07
0.08887353,1.8638874e-06,0.006684696,1.1517257e-06,1.0533546e-06
0.13139342,1.5296225e-06,0.0076136314,0.00025792985,6.9575276e-07
0.40258443,3.449902e-06,0.0038788414,1.4985358e-06,1.0058395e-06
0.13086058,2.81735e-06,0.006475013,0.00027035674,1.8478473e-06
0.13269106,1.497271e-06,5.9701836e-07,0.0001440738,7.5173557e-07
0.05470213,1.5453907e-06,0.0059379227,1.3037023e-06,1.9734168e-06
0.12019326,3.5989547e-06,0.004400977,2.9723817e-06,1.3380775e-06
0.09923338,6.2569245e-07,1.226106e-06,1.2731591e-06,1.1793525e-06
0.11184061,1.9331046e-06,0.09702111,7.555546e-07,1.3570623e-06
0.12618853,1.2352388e-06,0.22449322,2.3216094e-06,1.6240621e-06
0.16215922,1.8389259e-06,2.2620552e-06,2.5261409e-06,1.2781449e-06
0.17604552,4.2775437e-07,1.6396233e-06,3.1817756e-06,5.672497e-07
0.13167946,1.5395943e-06,4.775866e-05,2.218793e-06,7.733322e-07
0.15641107,2.8204605e-07,0.0011368276,2.180401e-06,4.5956403e-07
0.1851776,4.4624912e-06,2.2322179e-06,9.1528267e-07,1.423512e-06
0.14543794,3.782735e-06,3.2866344e-06,1.3477352e-06,2.3769978e-06
0.12554555,1.4249936e-06,1.7888467e-06,1.8626176e-06,7.5818016e-06
0.026682142,0.010739235,2.7005087e-06,2.7111125e-07,3.6202878e-06
0.083838545,9.3667135e-05,0.02696079,1.8154653e-06,2.3816876e-06
0.062176224,0.033569917,0.0072555733,1.2862519e-06,3.7000962e-06
0.033151694,8.515019e-06,0.029502943,4.7378546e-07,1.3520476e-05
0.0036113213,2.1822354e-05,0.001521789,8.638499e-07,3.8084384e-06
0.008034102,0.86188227,4.1794968e-07,6.920037e-07,6.5551825e-07
0.22791089,0.018810742,1.9006762e-06,5.5922925e-07,2.549993e-07
0.26127303,7.709852e-07,6.7519414e-07,9.705946e-07,1.2374725e-06
0.008971293,2.5800362e-06,1.0624921e-06,3.1394845e-07,4.8963965e-08
0.061188385,1.3240411e-06,2.8071438e-06,7.6109885e-08,2.0739133e-08
0.12055148,0.06840101,7.074638e-07,5.0601693e-07,1.7344673e-06
2.2400143e-06,1.4029624,2.9689664e-07,7.4038536e-07,1.9034036e-06
2.3540542e-06,8.638251e-07,1.4414415e-07,5.5317283e-08,8.300383e-06
2.994047e-06,3.4100779e-06,1.1382347e-06,1.0382247e-07,1.5077368e-06
1.6104626e-06,2.2873259e-07,8.8088257e-07,6.8288114e-07,8.176411e-07
1.0599721e-06,1.1627706e-06,2.2689933e-06,4.1013917e-07,1.7940473e-06
1.8000516e-06,1.5300072e-06,8.4390706e-07,2.6874768e-06,1.0107689e-06
1.2151432e-06,1.6651743e-06,0.00021691273,1.5723892e-06,1.2669653e-06
4.296224e-07,6.9313224e-08,0.7733897,0.14506556,6.5127256e-07
1.0196222e-06,2.1768376e-06,0.22290415,0.19777939,3.918289e-07
2.649984e-07,4.7699894e-05,2.501877,9.940341e-06,7.342817e-07
1.036261e-06,4.434155e-06,0.03706468,5.153921e-05,9.740681e-07
0.084763594,5.984909e-07,6.6854927e-06,3.98342e-05,1.0992251e-06
0.12355107,4.6511596e-07,4.47735e-07,9.5330995e-07,6.674613e-06
0.0005328262,1.09865305e-05,1.0299328e-06,4.3351437e-07,4.238221e-06
0.00011263749,7.087312e-07,6.1250387e-07,2.8977843e-06,9.238548e-08
0.00021413967,4.1408498e-07,0.08551578,1.9205409e-06,5.5928913e-06
2.695618e-05,1.288902e-05,1.354446e-06,3.0491915e-06,6.122766e-05
1.8042565e-06,1.202511e-06,2.14718e-06,5.230227e-07,5.0803435e-05
4.863086e-07,3.552801e-05,8.659885e-06,1.0168533e-05,3.842954e-05
3.7351307e-07,1.1306454e-06,4.0121563e-06,6.1776227e-06,1.7100621e-06
1.4139492e-07,1.0251347e-06,1.9364434e-06,0.00017921769,1.1336865e-06
5.862774e-08,4.4238295e-06,1.6315562e-07,0.0031149515,2.0373573e-05
1.6748356e-08,3.1264588e-06,2.3168152e-06,0.0009735435,0.0003083355
2.700706e-08,6.217274e-07,4.881194e-06,0.0019620142,4.9373666e-06
1.6613194e-08,2.825023e-06,7.1094532e-06,0.00050767255,2.1613876e-06
1.8325115e-07,1.5167066e-06,2.0208488e-06,2.0737589e-05,3.2167763e-06
7.947582e-08,2.875729e-07,2.2158936e-06,3.4990753e-06,5.531604e-07
1.1231158e-06,1.3678114e-06,3.5096906e-07,6.4996416e-06,2.365803e-06
7.35857e-08,1.1081605e-06,1.190254e-06,4.4019114e-07,8.180195e-07
2.2817532e-07,2.7217814e-07,1.7721344e-05,6.1217426e-05,1.3532859e-06
5.1834843e-07,3.3562733e-07,4.4289486e-06,9.24906e-07,7.729387e-07
1.3689793e-06,0.004715603,9.108125e-07,2.4805937e-07,4.0249315e-06
5.841498e-07,0.050186876,7.953984e-07,1.2981734e-07,0.070993975
8.6307773e-07,1.2728602e-05,8.269871e-07,2.459609e-06,6.0042774e-05
2.2529917e-07,0.0033664333,2.711006e-06,2.0164077e-06,7.8915255e-06
4.616443e-08,0.01905627,2.116338e-06,4.215947e-07,0.0032878506
5.546881e-07,0.0140364,2.8670727e-06,1.4411767e-06,3.9364627e-06
3.545523e-06,0.025732882,8.368336e-07,7.142949e-05,0.111688994
8.544019e-06,0.0208273,0.0077770073,0.017876135,3.8431236e-07
2.7528458e-06,0.45064843,1.4684978e-06,4.2036576e-05,1.2906083e-06
0.0015065401,3.1093978e-06,0.019514672,3.1354346e-05,5.724685e-07
1.8291975e-07,9.05685e-07,0.39112407,0.002147807,5.9637193e-07
3.1771785e-07,8.385979e-07,0.004354296,0.0060465643,8.604924e-07
2.1728111e-07,2.1219147e-07,0.017569838,2.250884e-06,7.0232505e-07
1.8874579e-07,7.9853896e-07,0.22958201,0.012826861,6.083856e-07
0.13342121,7.874273e-07,0.1387946,0.0002537502,1.4782136e-06
0.17363633,0.0037279488,7.300854e-08,1.1673303e-06,1.3351104e-06
0.023649562,5.540241e-07,9.370914e-07,7.0477176e-07,2.2609488e-06
0.06494442,1.5656416,7.302994e-05,0.00018096589,1.0893613
0.032054234,2.034501,2.5707711e-06,0.0024135725,1.0227991
0.030872835,1.9742032,0.011445534,0.021966828,2.1428776
0.05920759,1.0519252,0.026784156,0.8143481,1.7704518
4.289091e-05,0.16742876,0.67731035,0.4244274,0.33627295
0.10455659,0.00076314533,0.86629367,0.13991955,0.004770397
2.1597034e-06,7.7637964e-07,0.6901747,0.042585663,0.0001608969
0.708336,1.8327985e-06,0.11665288,0.039822675,2.4561032e-06
0.73272496,5.1074967e-06,0.015483784,0.010356004,9.463382e-06
0.043473393,2.3222127e-07,0.008385041,0.0018289556,4.319461e-06
0.0035346884,2.8248948e-07,1.4120289e-05,5.6149447e-06,3.3842125e-06
0.0071476796,2.5925456e-08,3.328331e-06,1.0204787e-05,4.0923032e-06
0.009555062,1.2073247e-07,1.2273259e-06,1.2789963e-05,1.70815e-06
0.012918651,3.555297e-07,5.352182e-07,1.1592838e-07,2.445774e-06
0.011437756,1.5988384e-08,3.2764893e-07,0.0006101128,3.4800303e-06
0.013807216,7.7208045e-07,9.9965014e-08,0.006119622,8.645958e-06
0.010656456,2.275287e-06,2.765109e-08,1.2192065e-06,2.4760564e-06
0.008602799,1.6791706e-06,6.4160366e-07,1.8496405e-07,5.883718e-06
0.0062873987,6.814967e-06,5.2158975e-07,1.3856322e-06,1.4999315e-06
0.0053376015,4.2520608e-07,1.622274e-06,8.735732e-07,3.1122607e-05
0.003847744,7.383845e-07,4.2161223e-06,3.1269417e-05,0.00015718873
0.0026853858,5.077608e-07,1.3833085e-05,9.539804e-05,8.598316e-05
0.0014512163,1.2436873e-06,5.377989e-07,0.00067473616,2.4129024e-05
0.00024343678,1.3739562e-05,6.0999923e-06,0.0005393201,2.3007771e-05
1.294844e-05,3.7686455e-06,6.8859094e-07,6.061029e-06,1.6981822e-06
8.98471e-07,5.6560793e-07,6.300681e-06,4.817372e-07,3.4364286e-05
9.607105e-07,2.5792535e-06,7.584791e-06,4.6517016e-06,1.085259e-05
2.0818952e-06,4.2945666e-07,5.2440255e-06,3.2060586e-06,2.621829e-06
6.636335e-06,1.0431843e-06,3.5457101e-06,2.0312223e-06,2.4461572e-06
4.4078015e-06,2.8292325e-06,4.3129938e-07,1.0618271e-06,2.4046315e-06
2.0720185e-05,5.053743e-07,2.1158273e-07,4.459724e-06,2.4842834e-06
1.5572451e-06,2.995763e-07,1.7003513e-06,7.0732364e-07,1.8210825e-06
1.852115e-06,2.4504897e-07,1.4395399e-06,1.7023035e-06,1.7154069e-07
6.722523e-07,2.2925987e-07,2.3531095e-06,3.0669617e-07,5.3964004e-07
4.8581444e-07,3.9282457e-07,3.526207e-07,5.27023e-07,1.9418856e-06
1.6319738e-05,2.1057373e-07,1.2129052e-06,7.887585e-08,2.3056893e-06
1.0764697e-06,1.3946421e-06,2.561182e-07,1.6768365e-07,2.9264895e-06
6.0823736e-06,9.013296e-07,1.3547775e-07,1.3207366e-06,2.2005091e-07
5.820535e-06,2.1058705e-07,2.0539973e-07,5.129786e-07,5.1884444e-06
8.375607e-06,1.4345609e-07,3.3728209e-06,9.1348106e-08,0.0003675893
2.6075807e-06,5.387522e-07,3.4117672e-06,7.8865014e-07,0.0003010162
1.2925368e-06,4.1314505e-07,0.0064781704,9.340709e-07,1.9284844e-05
4.72663e-06,2.6053976e-07,0.010810529,7.279418e-07,4.0222068e-07
3.1540983e-06,1.1829968e-06,0.00707167,7.343383e-05,2.0416148e-07
3.7862705e-07,9.958036e-07,0.002261718,0.01106887,3.1638117e-06
4.486357e-06,9.4841397e-07,0.0004004644,0.010749934,0.0023686152
3.4409945e-07,5.4215766e-06,6.8334986e-05,0.0046961913,0.01866149
3.5695725e-06,1.099983e-05,0.0003245826,0.0041066804,0.009750403
3.530338e-06,1.6220001e-05,0.0005454956,0.009418163,0.0026424723
5.153399e-06,4.84987e-07,0.00030959092,0.009407978,3.496939e-05
3.7150558e-06,5.1462642e-08,1.1728228e-05,0.001218012,5.7818687e-07
2.1053718e-06,2.2300778e-06,3.1199338e-06,7.2298344e-06,1.4245549e-06
6.154979e-07,2.0693133e-06,1.9481433e-06,1.3963396e-06,2.519668e-06
1.5833351e-06,1.2231347e-06,2.2583683e-06,1.3690973e-06,2.8003199e-06
1.7300111e-06,2.4984655e-07,2.1156054e-06,2.0897548e-06,2.4939745e-06
1.7293643e-06,2.3697096e-07,1.2119586e-06,1.457203e-06,3.0573844e-07
3.6592146e-06,2.481533e-06,2.5766968e-07,1.4080413e-08,2.0570153e-06
2.1230999e-06,2.584924e-06,7.629778e-06,7.1786764e-07,1.2387871e-06
2.3545765e-06,2.6579096e-06,4.4624178e-07,2.7849464e-06,2.1352544e-06
3.396822e-06,1.8030953e-06,6.8660376e-07,2.4861544e-07,2.1131714e-06
1.1642996e-05,1.3110767e-06,5.5802167e-07,1.384791e-07,5.3362197e-07
1.3138347e-05,6.6502344e-07,3.922984e-07,3.6472352e-07,7.351709e-07
1.1144836e-05,2.1204386e-07,3.560713e-06,7.7091e-07,0.0012756066
1.0281756e-05,0.060087886,5.809133e-07,5.771484e-07,0.17242165
4.322692e-06,0.42358693,5.0460403e-07,6.1159506e-07,0.42137825
3.0039712e-06,1.8609257,0.009115122,0.0041423924,1.5601984
0.22957902,2.423086,0.90412277,0.3472232,2.3854325
0.007931139,0.5042487,2.610873,1.1082805,0.6751803
0.19169219,0.0022140543,2.3178174,0.9886158,3.4931324e-07
1.3015867,1.3356197e-05,2.1517334,1.52192,7.565282e-05
1.4432883,7.223597e-07,0.0738765,1.8704382e-06,6.2023753e-10
4.5630436e-06,1.7779236e-08,5.8292894e-08,8.967794e-08,8.2826006e-07
8.9314733e-07,4.3994848e-07,1.3339013e-07,3.365967e-07,2.4372497e-08
2.4437844e-07,4.323151e-07,6.373002e-08,3.6281867e-07,4.934015e-07
1.3522768e-07,1.9753352e-09,9.658092e-08,1.0304193e-06,7.382427e-08
7.729066e-07,5.973996e-07,1.2011916e-06,1.5269814e-06,5.3050263e-07
7.6517705e-07,2.6707523e-06,1.8299644e-06,9.833777e-07,6.6278693e-07
2.9679418e-06,3.2607363e-07,1.2508988e-06,1.1348814e-06,8.17657e-07
9.4638915e-07,6.6664575e-07,1.6326148e-06,1.8780693e-06,1.1073672e-06
2.7831372e-06,1.4319479e-06,2.5557963e-06,1.5277247e-06,1.2356927e-06
1.5201167e-06,7.41164e-07,5.0269233e-07,1.4957582e-06,2.6821897e-06
3.5018795e-06,6.24175e-09,2.8195802e-07,1.3007134e-06,1.451896e-07
1.0126677e-06,4.5197015e-07,5.387189e-07,6.840349e-07,1.3039089e-06
2.1470548e-06,8.4899975e-06,2.287e-08,3.1984797e-07,1.3954964e-07
2.4860722e-07,8.305353e-07,1.5589207e-07,4.7569134e-07,4.565682e-08
3.953975e-07,1.1454389e-06,1.5790413e-08,5.441212e-08,4.676392e-06
8.92504e-07,1.0113955e-06,1.1405201e-07,6.256089e-08,3.2492942e-06
6.5951575e-08,2.760951e-07,5.1598423e-08,3.8266083e-07,4.5670268e-07
1.3890833e-07,0.099020585,4.5813368e-07,1.6617115e-06,5.8252044e-07
1.6007235e-07,0.11190282,6.633772e-08,1.967412e-07,0.8095958
2.3841699e-06,1.0709026e-06,1.3081522e-07,4.1078957e-07,0.094083846
1.0232638e-05,1.4056815e-06,4.833704e-07,1.9164999e-07,8.5311584e-08
1.1452679e-05,1.2213154e-06,6.378584e-08,5.003925e-07,8.981319e-06
0.60265857,0.015169233,0.017218519,1.5540692e-05,0.74256015
1.803347,0.43084165,0.009193996,0.2004896,1.3537861
2.508958,1.0172846,0.10158074,1.0719922,1.9765286
1.8139241,4.3264794,5.995497e-07,0.2689343,2.3324835
1.596341,2.0527952,0.027547292,1.671187,3.1285162
2.756356,3.2516895e-05,0.33991724,0.95294297,2.6109633
2.5766425,0.004886266,0.48989034,0.38820767,0.44114292
2.3663523,0.0070446925,0.0072411858,0.46740335,0.008747303
1.8436177,0.00396227,0.014249408,0.27490127,0.008214485
1.7616726,0.0023799678,0.020689918,0.17559849,0.0051768986
0.101899385,0.0002291291,0.058040835,0.10564563,0.0067314543
0.0012960642,1.8584607e-05,0.064762905,0.006881175,0.0049380637
0.00060129305,7.185654e-06,0.05989804,0.05913578,0.00428903
5.538694e-05,4.739481e-06,0.06107502,0.07007819,0.011189705
2.5295014e-06,2.2966013e-05,0.09998657,0.016864918,0.015830934
0.0006645633,0.003748702,0.14544033,0.021668078,0.0046734503
0.04698484,0.06301451,0.12908693,0.00017182542,0.09533644
0.00669461,0.047572516,0.09589642,0.004398587,0.08428336
0.00010925454,0.028926276,0.057305377,0.0015073748,0.039131373
1.6679767e-05,0.013219562,0.054704107,0.005029479,0.029603442
1.8057326e-06,0.045770235,0.00088201574,0.0016781576,0.048271507
3.442876e-05,0.0240418,3.986162e-06,1.2553321e-06,0.091738045
7.332755e-07,4.15182e-07,3.9379552e-07,1.6874634e-06,0.0056346096
5.2270047e-06,6.478296e-07,3.579822e-07,2.1479966e-06,1.5156657e-07
2.7741628e-08,2.727983e-07,2.1041144e-07,1.3081257e-06,2.7183356e-07
6.117576e-08,2.0988134e-07,1.7800198e-07,1.1807259e-06,3.4933535e-07
1.2635999e-06,3.1623283e-06,5.717978e-07,5.042273e-07,6.349813e-07
2.0518255e-06,1.14426075e-05,1.0476599e-06,8.572077e-07,1.841702e-06
8.99904e-07,1.8148312e-05,6.244747e-07,3.0064942e-07,2.3705861e-06
0.0,3.2588494e-05,4.350897e-06,2.1760997e-08,1.1992397e-06
0.0,5.2769574e-05,1.5687458e-05,1.8291057e-07,4.3466178e-05
0.0,3.9462226e-05,9.62302e-06,9.522533e-09,9.220156e-06
0.0,2.8895763e-06,7.4371324e-06,0.0,4.612336e-06
5.003681e-07,7.6157207e-06,1.9594167e-07,0.0,6.567285e-06
2.2873837e-06,3.4609059e-06,5.1861953e-06,3.8063436e-10,2.648775e-06
3.8026857e-07,3.5199143e-06,4.1094708e-07,8.757232e-08,3.398211e-06
1.1767945e-06,1.7757989e-06,2.2138809e-06,1.1002847e-06,2.1139963e-06
1.2316332e-07,0.00015084817,9.113138e-07,2.1212147e-06,2.4733952e-06
1.9117417e-07,1.7329952e-06,1.9399477e-07,1.674634e-06,6.338566e-07
4.646711e-07,4.6584012e-07,2.1798151e-07,1.5814549e-06,1.7032254e-06
2.7247434e-06,0.0001711368,4.5027082e-07,1.6376956e-06,1.5102366e-05
2.1573405e-06,0.0027329423,1.1692474e-06,0.0024481812,0.048678044
2.4652006e-06,0.0003278177,8.9052804e-07,1.9021882e-06,0.09168037
4.94232e-06,1.5385565e-06,7.927147e-07,2.040795e-06,6.1948112e-06
2.3403563e-06,2.700188e-07,1.7756886e-06,2.7168994e-06,1.9758704e-06
2.161257e-06,8.528598e-07,5.647514e-07,1.1894607e-06,7.203012e-07
3.5168769e-06,7.8357283e-07,2.1351375e-06,1.6992617e-06,9.174166e-07
6.1916135e-06,3.3784903e-07,1.2662816e-06,1.0196042e-06,1.2077826e-06
5.8342453e-06,5.4875397e-08,1.0478778e-07,1.4704048e-06,1.575968e-07
5.399481e-06,8.216733e-07,1.156667e-06,2.3276225e-06,1.3679167e-07
1.9694396e-06,2.0113242e-05,8.703023e-06,3.0425954e-07,5.972255e-06
3.8535032e-07,1.8426236e-06,1.415477e-07,8.0428646e-07,3.922797e-06
4.4911573e-07,0.09510418,4.189564e-06,0.003606139,0.14714916
7.3041815e-07,1.5189124,2.119805e-05,2.499655e-05,2.14958
3.1389683e-07,0.8802004,7.643992e-07,0.0026381824,0.5876287
1.381938e-08,0.8616817,0.3289759,0.25162625,1.5827305
0.0066656386,1.2601385,1.4792334,0.42772314,1.0504932
1.4117134e-06,0.1837572,3.4053311,0.94625586,0.5288238
0.013600121,6.1604317e-07,7.881456,2.0598526,3.5979128e-06
0.21681643,4.5725204e-07,2.2918258,0.23123772,7.5273795e-07
6.019471e-07,1.4860607e-06,6.6994687e-07,4.3776987e-07,3.0215108e-07
1.4133477e-06,1.8085089e-07,1.2308165e-06,9.743226e-07,7.570079e-08
9.0527215e-07,2.118176e-07,3.6758914e-07,1.0372406e-06,2.0906558e-07
7.744783e-06,5.7279163e-07,1.8744072e-06,3.350624e-07,5.4399146e-07
4.684448e-07,2.9212117e-07,4.2347765e-06,1.4361829e-06,1.2388605e-07
3.621714e-07,1.14000436e-07,2.5824563e-06,1.1714254e-06,4.5873097e-07
1.4999937e-06,2.7395726e-07,9.56493e-07,4.2216377e-07,8.0231206e-07
4.996928e-08,2.65408e-07,8.748391e-07,9.782688e-07,6.767548e-07
9.438119e-07,9.717048e-07,7.1973506e-07,1.8457246e-06,1.57041e-06
2.3819457e-06,6.7424713e-07,3.2495547e-07,3.7787558e-07,1.5543166e-06
1.4101873e-06,3.7058223e-07,1.0018277e-06,2.1924915e-07,6.3253907e-07
5.241486e-06,6.136983e-07,3.5239083e-07,8.5228926e-08,7.5868314e-07
1.2611491e-05,7.493954e-07,4.558722e-07,2.530542e-07,1.4137678e-06
4.5658203e-06,1.2940426e-07,1.0221879e-07,4.4329724e-07,4.2082263e-07
1.8349614e-06,1.2654679e-08,6.7432114e-07,1.2283292e-06,2.9470586e-06
7.015945e-07,2.3378252e-08,6.4677135e-07,3.0702745e-07,3.825561e-06
3.4281225e-08,6.376197e-08,0.00218028,8.2134574e-07,2.2059328e-06
3.31653e-07,0.0017773382,0.020812979,0.14655842,0.081175424
2.2349951e-07,0.13704818,0.035913672,0.0004542374,0.3518871
1.3805526e-06,0.20016317,0.019531958,0.0068769106,0.4643402
8.780381e-07,0.20961052,0.08659096,0.0406454,0.80013657
3.2744867e-07,0.006950449,0.11429926,0.09301511,0.35264942
1.1138644e-06,7.9201214e-07,0.4455318,0.24903385,9.4341846e-07
2.0664663e-06,2.2871596e-05,0.253208,0.22955605,1.6383813e-06
2.750165e-07,8.289882e-05,2.6136544e-07,0.0039185006,2.6724183e-07
7.1601744e-07,5.578296e-07,2.322607e-08,3.3653296e-06,1.3921817e-06
2.9591336e-06,4.039497e-06,2.748715e-07,8.5387967e-07,2.4186402e-06
1.2089973e-06,3.0740212e-06,7.5036417e-07,5.2070645e-06,2.4149285e-08
3.0699965e-07,2.6032903e-06,1.2700242e-07,1.6767805e-06,3.2705563e-09
6.71434e-07,3.144049e-06,4.905704e-07,2.067372e-06,1.7616406e-08
4.6155606e-07,4.3411915e-06,1.7706013e-07,6.5553087e-07,1.227363e-07
5.844458e-08,7.555516e-07,7.134916e-08,4.2306905e-08,7.956033e-06
