"[299, 255]","[227, 248]","[287, 319]","[279, 328]","[230, 262]"
6.0806934e-07,9.4727056e-07,2.3266427e-06,1.8886972e-06,9.1124446e-07
2.100618e-07,4.4759315e-07,3.4887084e-06,5.9897698e-06,5.926103e-06
2.7174522e-07,1.4930339e-06,2.6963096e-06,4.480994e-06,3.62964e-06
3.478861e-06,3.4094571e-06,1.1954951e-07,7.1576715e-06,9.4305335e-07
3.210286e-06,1.2624067e-06,4.850818e-07,4.7526823e-06,6.073526e-07
1.2145834e-06,2.7343533e-06,8.4874387e-07,2.5457819e-06,5.7081337e-07
1.5054953e-06,1.721118e-06,1.5340999e-06,9.258269e-07,1.2979801e-07
1.2223958e-06,4.0934656e-06,1.1136179e-06,1.5571857e-06,1.561054e-06
2.1260598e-06,3.1969983e-06,1.8723896e-06,1.4662046e-06,1.6492662e-06
1.1323104e-06,9.895919e-07,1.3900598e-06,1.6881762e-06,8.261373e-07
1.6264083e-06,7.77956e-07,2.0766483e-06,8.8399906e-07,2.5236196e-07
1.2994432e-06,1.2751902e-06,2.6204268e-06,1.4465522e-06,6.745127e-07
2.3048665e-06,2.4373895e-07,4.7775798e-06,8.2990357e-07,3.1838176e-06
9.348061e-07,1.7863829e-07,2.5949314e-06,3.2095968e-06,5.163045e-07
2.4142475e-06,0.0,2.1669146e-06,4.5429088e-06,2.4980451e-07
1.7413091e-06,0.0,4.195072e-06,3.2718162e-06,0.0
1.228013e-06,0.0,1.9935117e-06,4.34007e-06,0.0
6.69043e-07,0.0,2.2158267e-06,1.5960652e-06,0.0
9.626219e-07,0.0,3.6530028e-06,3.259638e-06,0.0
3.9514305e-07,0.0,1.0526212e-05,3.1540962e-06,0.0
1.1505933e-06,0.0,1.1845872e-06,3.8324766e-09,3.1058016e-06
2.8582626e-06,5.3349295e-06,3.5847796e-07,0.0,3.1875277e-06
5.387877e-06,5.607977e-07,5.990378e-07,0.0,1.8349589e-05
5.4802736e-06,2.2828397e-07,9.412151e-08,0.0,1.0927631e-06
4.103808e-06,1.2240572e-06,8.959964e-07,1.1291063e-06,1.5558214e-07
2.9294092e-06,2.3954965e-07,2.983355e-07,8.633433e-07,8.152506e-07
4.5931785e-07,2.4856708e-06,6.7223147e-07,2.6194862e-06,6.797558e-07
3.070181e-07,2.1344354e-06,1.6382056e-06,6.254447e-07,1.016958e-06
1.7356268e-05,3.4365982e-07,1.3719249e-06,2.45099e-07,9.673736e-07
5.5506953e-06,3.1636544e-06,1.7371696e-06,1.7858357e-06,1.157123e-06
2.8200657e-07,3.0586506e-07,1.8422771e-06,1.0185536e-06,8.76245e-07
1.7108605e-06,3.1187687e-07,1.5190043e-06,1.1635148e-06,1.2165137e-06
1.8861065e-06,1.4585257e-06,1.6158739e-06,1.5450038e-06,4.190137e-08
2.6383614e-06,8.755508e-07,4.679683e-06,5.126057e-07,5.6949887e-07
1.7501013e-06,4.4090016e-06,2.0090702e-07,2.7722463e-10,1.3502939e-06
2.049132e-06,3.9454585e-06,0.0,0.0,4.8770755e-07
1.825215e-07,3.424111e-06,0.0,9.583685e-09,3.6148708e-06
3.9218367e-07,1.1101546e-06,0.0,1.1432383e-06,6.2714986e-07
1.7723076e-07,3.184961e-07,2.747296e-08,1.9077354e-06,1.02085316e-07
1.041836e-05,0.0,6.3693506e-07,5.560975e-06,1.0085022e-08
1.36909575e-05,1.0295517e-08,9.370995e-07,8.898098e-09,2.3670813e-08
5.685554e-06,1.6314324e-09,1.3774975e-06,1.0560788e-07,0.0
2.1282817e-06,0.0,5.863843e-07,5.9485075e-07,0.0
2.460386e-06,0.0,2.3399869e-08,0.0,0.0
5.456065e-06,0.0,0.0,0.0,0.0
6.651771e-06,0.0,0.0,0.0,0.0
4.9488117e-06,0.0,0.0,0.0,0.0
2.2096446e-08,0.0,0.0,0.0,0.0
1.3044397e-06,0.0,0.0,0.0,0.0
2.3136727e-06,1.2470583e-07,4.3646975e-07,0.0,0.0
3.054938e-06,3.9645506e-06,1.3701684e-07,0.0,0.0
5.055409e-07,3.4520264e-07,3.9929742e-07,0.0,0.0
1.1511634e-09,5.1917783e-07,5.8269713e-08,0.0,0.0
1.2639158e-07,1.3129421e-06,1.16775574e-07,0.0,0.0
1.8633824e-07,4.5658567e-07,1.0454952e-06,0.0,0.0
2.1942635e-06,1.0877124e-08,5.9215233e-07,0.0,0.0
5.7458376e-08,0.0,0.0,0.0,0.0
4.41068e-08,0.0,0.0,0.0,0.0
1.11576036e-07,0.0,0.0,0.0,0.0
0.0,0.0,0.0,0.0,0.0
0.0,0.0,0.0,0.0,0.0
0.0,0.0,0.0,0.0,0.0
0.0,0.0,0.0,0.0,0.0
1.2308348e-06,0.0,0.0,0.0,0.0
5.83766e-07,0.0,0.0,0.0,0.0
4.6756025e-08,0.0,1.5100698e-06,0.0,0.0
0.0,0.0,0.0,0.0,0.0
0.0,0.0,0.0,0.0,0.0
0.0,0.0,0.0,0.0,0.0
0.0,0.0,0.0,0.0,0.0
0.0,0.0,0.0,0.0,0.0
0.0,0.0,0.0,0.0,0.0
2.7239497e-07,0.0,0.0,0.0,0.0
8.371576e-06,0.0,0.0,0.0,0.0
7.0932845e-05,0.0,0.0,0.0,0.0
0.0016504506,0.0,0.0,0.0,1.4819375e-07
0.0023877982,0.0,7.6269906e-08,0.0,5.9291574e-06
0.00015029499,0.0,5.131968e-07,0.0,1.03346165e-05
1.1916534e-05,0.0,1.2147447e-06,0.0,4.836765e-06
9.4040973e-07,1.901197e-06,1.079662e-08,0.0,1.6652153e-06
5.8710924e-08,1.9003155e-06,0.0,0.0,2.250559e-06
0.0,9.504323e-07,0.0,0.0,1.2412884e-06
0.0,2.9921628e-07,0.0,0.0,2.3594128e-08
0.0,7.309167e-08,0.0,0.0,3.0401977e-06
0.0,3.2510522e-07,0.0,0.0,8.6329993e-07
0.0,2.2160054e-07,0.0,0.0,1.6265273e-06
0.0,0.0,0.0,0.0,0.0
0.0,0.0,0.0,0.0,0.0
0.0,0.0,0.0,0.0,0.0
0.0,0.0,0.0,0.0,0.0
0.0,0.0,0.0,0.0,0.0
0.0,0.0,0.0,0.0,0.0
0.0,0.0,0.0,0.0,0.0
0.0,0.0,0.0,0.0,0.0
1.5780829e-07,0.0,0.0,0.0,2.7393812e-09
1.3723185e-06,1.301196e-06,0.0,0.0,3.670782e-07
3.7877105e-06,5.280352e-07,0.0,0.0,5.6295045e-07
2.0985632e-05,1.511107e-07,0.0,0.0,3.5045878e-07
1.5380932e-05,2.044181e-06,1.4178363e-08,0.0,2.2117954e-06
1.8313765e-05,1.2427225e-06,1.4514272e-07,1.2095616e-07,1.0779618e-06
5.3701435e-05,4.544358e-07,2.114193e-06,6.368767e-07,1.7992578e-07
1.0944519e-05,3.9929574e-07,1.8693537e-06,2.1984918e-06,3.2649146e-07
1.983886e-06,8.0238175e-07,1.0874543e-06,8.161768e-07,1.267535e-06
4.2560575e-07,1.8511762e-06,1.358066e-06,1.3156099e-06,3.8342737e-06
7.4416346e-07,1.1244255e-06,2.0816271e-06,3.6587148e-06,2.2540476e-06
3.1816282e-07,7.723177e-07,1.5694138e-06,1.962855e-06,2.4414005e-06
5.379192e-07,2.1218425e-06,2.2223428e-06,2.8953389e-06,3.973113e-06
9.81238e-07,2.3837362e-07,2.3172802e-06,5.6825243e-06,1.0827508e-06
9.655816e-07,6.1118556e-07,2.2069078e-06,1.0571664e-06,3.8926946e-06
6.8114264e-07,8.426769e-08,9.0253625e-06,7.829882e-06,4.65379e-06
2.6800797e-09,7.572631e-07,6.753325e-06,1.4372826e-07,3.1136725e-08
2.1506746e-06,0.0,2.845431e-07,3.5548412e-06,1.5976451e-07
2.1432734e-06,0.0,9.589639e-07,2.5754664e-06,0.0
8.126003e-06,0.0,2.084914e-07,6.278088e-07,0.0
1.5553236e-06,0.0,1.6437342e-06,8.743474e-07,0.0
0.0,0.0,5.4062843e-06,3.0973777e-06,0.0
0.0,0.0,1.0683929e-06,1.3268913e-06,0.0
0.0,0.0,1.2429471e-05,1.3474577e-06,0.0
0.0,0.0,8.6251737e-07,8.03504e-06,0.0
0.0,0.0,1.2538081e-07,7.586662e-08,0.0
0.0,0.0,4.9330605e-08,1.8277203e-07,0.0
1.07888745e-07,0.0,2.8117708e-07,1.07782185e-07,1.5407399e-07
1.8660623e-06,0.0,5.9738156e-08,4.47603e-07,5.471858e-08
5.74925e-05,0.0,1.5154421e-06,6.225339e-07,1.2906746e-07
0.00011836235,0.0,9.6122704e-08,9.034139e-08,3.671762e-08
1.4139232e-05,0.0,6.027903e-07,6.657766e-08,0.0
1.2063762e-06,0.0,5.700489e-07,3.9480463e-07,8.4917123e-10
1.2972143e-06,0.0,1.2411859e-06,1.1901786e-06,0.0
2.4899532e-06,0.0,2.7884025e-06,1.3411584e-06,0.0
3.4507625e-06,0.0,2.5289346e-06,2.230258e-06,0.0
1.1287045e-06,0.0,4.222837e-06,3.0776198e-06,4.317243e-09
2.3148912e-06,3.4016088e-09,1.5577472e-06,1.7322691e-06,1.1610836e-06
1.4938995e-06,1.1478016e-06,2.389265e-06,1.9877107e-06,4.381035e-07
1.5871364e-06,2.008676e-06,2.33631e-06,1.8396898e-06,0.0
7.907164e-07,1.1410161e-08,2.4840388e-06,2.9267028e-06,0.0
2.0712157e-06,0.0,6.5925437e-06,2.8060535e-06,0.0
1.7363982e-07,0.0,2.7889737e-06,9.094934e-07,0.0
5.153608e-07,0.0,3.7695654e-06,2.094006e-06,0.0
1.8953898e-06,0.0,1.1286853e-06,1.8578621e-06,0.0
2.8174156e-06,0.0,1.1106314e-06,4.5382008e-06,0.0
1.5471882e-06,0.0,5.482168e-07,3.566673e-05,0.0
2.356867e-07,0.0,4.5767415e-06,4.2358292e-07,0.0
0.0,0.0,1.3635093e-07,2.0134475e-07,0.0
4.832446e-10,0.0,2.679258e-07,0.0,0.0
8.259377e-11,0.0,2.481631e-07,0.0,0.0
0.0,0.0,5.1064262e-08,0.0,0.0
1.4240691e-09,0.0,1.2274182e-07,0.0,0.0
1.9780188e-08,0.0,2.021443e-07,9.1292314e-08,0.0
6.8442006e-07,0.0,2.10277e-06,1.6274917e-06,0.0
8.5548194e-08,0.0,3.6689137e-06,1.9961212e-06,0.0
3.7090462e-07,0.0,2.0216492e-06,7.718562e-08,8.241191e-10
1.1717323e-06,0.0,3.8998037e-06,1.7421851e-10,0.0
1.1443979e-06,0.0,1.2351983e-06,2.08329e-08,0.0
8.8748607e-07,0.0,3.0400847e-06,6.839655e-07,0.0
5.3056436e-08,0.0,1.6304938e-06,1.2982916e-06,2.9730646e-07
1.534171e-06,0.0,1.2401408e-06,6.9550373e-07,3.0755677e-07
3.406541e-07,0.0,2.2357156e-07,1.633817e-06,4.545433e-07
1.8409734e-06,0.0,1.7818751e-06,2.8380953e-07,0.0
1.1060596e-06,1.4289353e-07,1.2674489e-06,5.151849e-06,0.0
1.1100628e-06,5.2497285e-06,1.4837005e-08,9.3892606e-07,0.0
3.50666e-07,2.2240812e-08,0.0,1.0280562e-06,0.025390979
1.0600177e-05,5.0540194e-09,0.0,2.3140394e-06,0.0073690363
0.41312027,2.8127348e-08,3.696969e-07,6.6960725e-05,7.224588e-08
0.37830818,6.8243615e-08,2.0254086e-07,0.00016280405,2.6447104e-08
6.1652074e-08,2.1981746e-06,0.0,5.8593133e-07,6.716832e-08
1.8101126e-07,2.7230908e-07,8.8041804e-07,6.694841e-05,3.978986e-09
1.5641226e-07,5.289987e-06,0.0,1.8497385e-06,0.0
1.3124513e-06,1.0742722e-07,0.0,8.6270084e-08,5.333752e-05
5.111207e-07,3.4270076e-07,0.0,1.2394437e-08,5.0699575e-05
3.6877561e-06,2.3124516e-05,0.0,0.0,6.701981e-07
1.6170137e-06,4.47123e-08,0.0,0.0,3.489549e-05
4.6711133e-08,5.0055166e-07,1.1307377e-10,0.0,6.32904e-05
4.359356e-06,2.8373807e-07,4.476926e-08,4.3978807e-09,0.0001565483
2.8832535e-05,7.973e-05,5.8800357e-08,9.714801e-09,2.639677e-05
4.4608532e-06,4.9631588e-05,1.6725028e-08,0.0,0.000101063626
3.8965155e-07,0.00019764282,1.3379941e-05,1.1200034e-09,9.309269e-05
9.910857e-08,6.0267246e-07,2.7176618e-06,7.883923e-09,5.2504197e-06
4.7731123e-07,5.2244404e-06,2.5727309e-06,5.10066e-08,8.039874e-05
4.4512313e-07,4.0685113e-06,1.2432082e-06,4.6963514e-08,4.575822e-05
2.2182645e-07,2.7597248e-06,9.485117e-07,3.7420543e-07,3.1158877e-06
4.768063e-07,2.4258834e-06,2.2230522e-06,5.1023767e-07,4.7720596e-06
2.1921858e-06,0.042790074,1.6324354e-06,3.3535431e-07,0.017403541
4.7739803e-07,2.5699475,2.733893e-06,9.109845e-07,0.62225825
4.6959232e-07,0.9634256,9.1450505e-07,1.4315328e-06,1.2016399
5.949421e-08,0.15850653,1.530798e-07,7.9703665e-07,0.004069284
4.1484623e-07,9.209723e-07,2.9118535e-06,1.5402385e-06,1.1092822e-05
1.1900495e-06,1.3546407e-05,5.1780075e-06,1.3662581e-07,1.9960614e-06
1.0004106e-06,5.862687e-08,1.7538476e-05,9.513444e-07,2.8417865e-06
2.035722e-06,1.137613e-06,1.4280668e-06,2.7271966e-07,3.0081532e-07
2.1045174e-05,1.933823e-09,2.1198279e-05,7.0724054e-05,5.1487734e-07
9.589826e-06,0.0,7.297023e-07,2.4831477e-05,9.004173e-07
2.1379553e-06,1.3342698e-08,2.0689088e-06,8.503514e-07,5.258889e-07
1.38139085e-05,9.904903e-07,1.7056722e-06,4.161953e-07,4.4243644e-09
7.476609e-05,1.194123e-06,7.9567035e-06,1.2340338e-07,8.546005e-07
0.00030287832,3.177383e-08,2.671461e-06,1.12812494e-07,3.975063e-08
0.0008735476,4.8826195e-08,4.799713e-08,6.0594977e-07,7.1249616e-08
0.00038951903,1.2414088e-08,3.24257e-08,2.0836666e-08,7.6285374e-08
0.00032615932,2.910053e-07,4.8759523e-07,1.1060632e-06,1.0335412e-07
1.1006666e-05,1.5161826e-08,7.0531183e-07,6.772174e-07,9.0587825e-08
2.957941e-05,7.4845374e-08,1.37861e-06,9.134833e-07,1.3151175e-07
1.1785851e-06,5.4456873e-06,5.936117e-07,1.7993328e-06,1.3468832e-06
1.7612518e-07,2.0844957e-06,0.0,1.6428738e-06,2.2172815e-06
4.8825088e-05,2.8863427e-05,0.0,1.1089824e-06,1.7969805e-06
9.166594e-06,5.7698054e-07,2.7207614e-08,2.3285206e-06,4.379971e-07
2.659845e-06,2.3507206e-07,8.904682e-06,5.9336077e-07,2.3886196e-06
1.0483595e-05,2.6437502e-07,9.765825e-09,7.880074e-07,7.810032e-06
1.0560347e-05,0.0,1.8325219e-06,0.0,8.6134996e-08
1.5235029e-06,0.0,1.1636522e-06,1.5784175e-07,0.0
1.1927337e-07,0.0,1.6225418e-07,1.8780221e-07,0.0
3.3633156,4.6892937e-06,1.2565475e-06,5.5224103e-07,1.5836099e-08
2.9067642e-06,6.3271614e-06,2.2623217e-06,1.2144251e-05,1.1934112e-06
4.6825514e-07,0.0005320825,4.604659e-07,3.9629846e-08,1.839952
1.9421868e-06,2.6260789e-06,6.9921276e-07,9.0425897e-07,0.0023072287
1.0958155e-06,0.0,1.2948944e-06,4.9912387e-07,9.020738e-07
3.2436938e-06,3.359132e-08,5.7457264e-06,4.136108e-07,5.9665813e-06
4.4077493e-07,2.0452877e-05,6.398186e-06,6.8177696e-06,8.567529e-06
4.4523335e-07,2.402747e-07,5.258055e-06,2.0143182e-06,2.6712803e-06
1.0639284e-06,3.3613887e-06,7.921246e-06,2.9236999e-06,8.7477997e-07
1.2362293e-06,9.53685e-07,2.4647484e-06,3.8398716e-06,1.971395e-06
1.5081731e-06,1.5927516e-07,1.2687917e-05,1.4790739e-05,3.055066e-06
0.036764197,3.6843844e-07,6.621311e-07,1.3026258e-05,4.6331024e-06
6.878146e-07,3.5213056e-06,1.0083129e-06,4.4533563e-06,1.292982e-05
3.5589192e-06,5.891532e-06,4.398127e-08,1.4234103e-06,3.2039957e-06
2.3021541e-06,6.6905095e-06,6.151967e-07,1.1136296e-07,7.0313386e-06
1.775505e-06,1.7479254e-06,2.935514e-07,1.2854791e-07,6.250567e-06
1.3180274e-06,2.8768852e-06,6.250238e-08,9.1086875e-08,2.8192655e-06
9.2589726e-05,8.008263e-07,2.3963878e-07,1.5376828e-06,6.74988e-07
0.22058545,1.492609e-06,9.173917e-07,8.7473e-07,5.1862917e-06
0.06568965,4.42944e-06,6.224756e-06,0.0008367357,1.9241681e-05
2.1962582e-07,1.1360768e-06,5.1816687e-07,2.4976775e-06,9.7339715e-08
4.8340112e-08,1.2317698e-05,6.577696e-07,4.6882183e-06,1.205219e-07
1.4274234e-07,1.6450505e-05,6.59364e-06,2.3402172e-06,1.3571688e-06
2.1979028e-07,8.8060055e-08,0.0003349769,1.8486259e-06,1.7925244e-06
2.3809773e-06,4.307421e-08,0.00046955407,3.3990014e-05,1.4217557e-07
1.0490219e-06,1.9092958e-07,0.6814551,1.6283158e-06,1.2689705e-06
8.0696145e-06,4.0573977e-06,9.0628615e-05,8.451832e-06,8.193489e-08
3.5767548e-07,1.1619411e-05,3.7524376e-06,0.030163899,1.1605458e-06
9.585317e-08,2.043149e-05,3.0174144e-07,0.12948383,4.2397673e-06
3.8437597e-07,1.1514031e-06,1.0416726e-06,0.0007750813,1.798914e-07
7.8873666e-07,1.568347e-07,1.08764e-06,1.1003201e-06,4.2842274e-07
1.9853896e-06,3.53371e-06,0.56170857,2.199573e-06,3.386571e-08
1.4899927e-06,8.464911e-07,5.1063256e-07,2.2470313e-06,1.7993419e-07
4.9493434e-07,2.162031e-06,4.8066704e-06,5.285217e-05,2.1307853e-06
5.93555e-07,3.6757274e-06,0.4428981,1.8683602e-05,1.2758826e-05
1.9351377e-07,3.6956963e-06,1.397398e-07,1.1324886e-05,1.6354147e-06
1.0986483e-06,1.8231323e-06,4.1552786e-07,5.374832e-06,2.9297432e-06
2.3850125e-06,1.7117344e-06,3.3620358e-07,3.778725e-07,7.6240244e-06
1.5404593e-06,2.0848488e-06,1.2708921e-07,8.962676e-08,2.198079e-06
2.0649823e-06,5.4021814e-07,1.1061887e-06,6.086309e-06,4.855823e-06
1.3198562e-06,1.0604429e-06,2.5907013e-06,2.6190455e-06,5.5722917e-06
1.3208036e-06,1.3840396e-06,4.142763e-06,2.3421288e-07,2.4267245e-05
4.240376e-06,1.1603931e-06,1.8378647e-06,1.1912703e-06,4.07615e-06
4.78171e-06,1.0372183,2.3923644e-07,1.321183e-06,6.239835e-07
2.239247e-06,0.012714925,13.37084,4.0986114e-07,4.9893274e-06
1.6732571e-06,7.099947e-06,1.3008232,1.2142305e-06,6.157197e-07
0.26111117,1.776108e-07,2.103596,2.5817357e-07,1.29875e-07
2.062233,2.1333685e-07,0.17737648,7.671105e-05,1.275144e-05
0.01778738,1.8216118e-06,0.49453312,23.208223,3.028546e-07
1.7956793e-07,8.914454e-10,1.9459321e-06,0.0055540334,1.6986758e-07
7.4694736e-07,7.138275e-08,2.713639e-07,2.1362407e-06,2.7512473e-07
1.5853708e-06,4.7268193e-07,3.300746e-08,1.145426e-08,3.9701104e-07
1.7787904e-07,7.201669e-07,6.7781936e-09,1.8809016e-07,7.024048e-07
8.5587095e-07,7.97628e-07,2.469733e-07,1.5328801e-07,7.5799285e-08
8.519281e-06,3.4587478e-07,1.2122379e-07,2.0903273e-07,4.967211e-07
5.986594e-08,2.461429e-07,6.3390564e-07,2.1364008e-07,2.765444e-07
3.590053e-07,3.68422e-07,2.2416398e-08,2.279951e-07,1.1225803e-05
3.969691e-07,8.654937e-07,3.221266e-07,1.10787816e-07,8.199863e-06
7.627388e-07,2.6706227e-06,1.4236109e-06,5.763721e-08,1.478388e-06
1.2934474e-07,1.5636001e-06,7.0006223e-07,3.3821462e-07,6.857104e-07
2.351705e-07,8.048919e-07,8.5208353e-07,1.6649204e-06,9.416325e-07
4.954335e-07,1.5204846e-07,1.3802706e-06,4.5991357e-07,7.6970866e-07
3.2574442e-06,4.3304738e-08,1.9072752e-06,8.17194e-07,3.809625e-07
2.128835e-06,1.1114688e-06,2.0786642e-06,1.183349e-06,1.6640626e-06
1.2916054e-06,5.34482e-07,1.6581374e-06,1.1131483e-06,9.2296483e-07
6.5048295e-07,0.048684232,1.6080671e-06,1.1912854e-06,52.408924
1.7044888e-06,1.4618665e-05,25.143948,0.13120988,23.118118
1.6957767,8.0833496e-07,9.352102,3.0514468e-07,1.4078772
3.6148722,8.890904e-07,1.2685976,4.9236456e-07,0.065735005
6.4389025e-07,4.547746e-06,3.652732,0.00017810373,1.5252233e-06
0.16481353,0.085991874,0.6634127,9.48593e-06,1.0707377
0.079261795,0.0016865832,4.1482454e-05,3.1520312e-07,11.3949585
0.017993199,5.691502e-07,20.229158,4.7185395e-06,3.304542e-07
1.0782923e-05,5.701634e-06,1.1733268,2.423067e-06,0.0959427
1.329554e-05,5.5103783e-06,5.159282e-07,6.8501043e-07,0.12430117
4.847199e-06,3.1933268e-07,2.1392235e-07,1.532189e-06,3.410371e-05
5.2214574e-07,1.8095731e-06,6.217039e-07,5.37354e-07,2.6485774e-08
1.7378541e-07,2.6606003e-06,8.107142e-07,4.187143e-07,1.5338686e-06
5.535219e-07,1.0290934e-06,1.0704272e-07,3.3583995e-06,1.2200502e-07
7.917827e-06,2.2219388e-06,3.685042e-07,8.0380795e-07,2.1842203e-07
1.7317028e-07,1.0976161e-06,1.6452744e-07,5.0750083e-07,2.6585155e-07
5.646291e-07,2.2849045e-07,7.6699075e-07,1.5951226e-06,3.4352917e-07
1.1655923e-07,3.4210655e-06,2.6429673e-06,4.300343e-07,8.163065e-07
2.2237946e-06,3.8116618e-06,4.5302477e-07,1.0850779e-06,5.2979635e-06
8.0974803e-07,1.089738e-06,1.0586137e-06,2.1452595e-06,2.5626966e-06
6.239291e-08,3.0359633e-06,7.5503414e-07,1.2956564e-06,2.3351338e-06
6.1446514e-08,4.3117768e-07,6.803813e-08,1.5963385e-06,1.0996755e-06
2.230005e-07,6.0555357e-07,2.2706853e-08,3.1564247e-07,8.640242
7.1987864e-07,2.438602,0.06365075,8.306178e-07,0.0045468626
4.0567178e-07,0.026761461,2.1035075e-06,1.7381702e-06,1.408163e-05
40.16383,6.408479e-07,1.1139679e-06,1.9164686e-06,5.3845935e-07
19.412537,9.293016e-07,1.0784763e-06,2.1500903e-06,2.0747534e-06
16.480131,4.186965e-07,2.2803179e-06,1.1427564e-06,1.8603516e-06
0.040117696,2.397447e-06,3.6396323e-06,1.3317608e-06,1.579098e-06
0.22077774,6.3842106e-07,2.6113808e-06,6.6223487e-07,1.5465343e-06
1.2617112e-06,9.646446e-07,5.5841742e-06,2.1959402e-06,6.8402477e-07
0.011439319,1.7601576e-06,0.057712168,1.1191384e-07,4.406917e-06
3.1993372e-06,3.20943e-07,1.0587492,3.6415965e-06,1.891909e-06
4.4596322e-06,4.648778e-07,0.85953575,1.3832429e-06,1.540007e-06
0.0001289873,4.9839196e-07,0.102849044,3.84813e-06,6.9514584e-07
0.00015374905,4.090007e-08,3.3561669e-06,1.1243278e-06,3.16499e-07
0.00027312085,2.841046e-07,2.6569417e-06,1.953113e-06,5.2563126e-07
6.088938e-06,1.9161037e-06,2.2762927e-06,6.5038853e-06,4.951486e-07
4.7740714e-06,8.138069e-07,8.169149e-07,1.1804324e-06,2.6378254e-06
1.7066852,1.0928162e-08,1.6230699e-06,1.0168122e-06,1.882222e-06
3.7631195e-05,3.1471545e-06,2.0411264e-06,2.45609e-06,1.60547e-06
2.0860102e-06,2.3760444e-07,1.0252207e-06,3.353197e-06,2.2862827e-07
2.989145e-06,3.8147064e-06,3.752445e-07,3.0561098e-06,9.3945744e-07
1.941479e-05,6.6497387e-07,7.0344925e-08,1.5805819e-06,1.2290463e-06
3.0151655e-06,1.5561299e-06,7.588241e-07,2.000827e-06,3.7816442e-06
8.6487336e-07,3.678306e-06,6.81704e-07,1.2514846e-06,2.649976e-06
7.932523e-07,1.3064858e-06,1.5826732e-06,9.553546e-07,2.6589062e-06
1.5499123e-06,2.4890671e-06,2.3310663e-06,2.9852056e-06,4.4124668e-06
2.148571e-06,2.7379626e-06,4.312286e-06,2.7937072e-06,1.14216e-06
2.3120465e-06,1.3307045e-06,3.210972e-06,3.217302e-06,2.9286698e-06
0.35544536,2.5068514e-06,1.3057748e-06,1.059769e-06,3.3276112e-05
0.05074546,3.1806967e-06,7.252992e-07,1.598475e-06,5.422342e-06
7.858995e-07,1.305131e-06,1.3530527e-06,2.0510354e-06,1.4943629e-06
1.0079046e-06,6.372244e-06,7.843408e-07,9.433037e-06,3.958717e-06
3.0052772e-06,0.0013884178,7.79701e-06,1.2453422e-06,3.10156e-05
7.3391047e-06,1.2244097e-06,9.281948e-07,5.6853224e-07,3.9606684e-06
3.0851575e-06,1.3090546e-06,7.3231004e-06,1.4861798e-05,2.7269764e-06
1.409449e-06,1.719509e-06,1.0638503e-05,1.8522249e-05,0.29995152
1.6133503e-06,2.909014e-06,2.414063e-06,2.353951e-06,0.00076043274
3.3466279e-06,3.7053464e-06,2.984007e-05,5.2916204e-07,4.024465e-07
1.532132e-06,1.315212e-06,1.1322256e-06,4.4784866e-07,4.1646836e-06
0.00031879247,2.0170378e-06,1.1549746e-06,7.2058046e-06,4.142443e-07
9.324023e-08,1.0649344e-06,3.6553868e-06,1.3496617e-06,1.2404149e-06
2.1460833e-07,1.3229912e-06,4.8251303e-07,3.3606298e-07,2.3797545e-06
2.4432545e-06,1.5356878e-06,1.4284009e-06,0.0005182582,0.104469076
8.686951e-06,2.4218214e-06,3.4865403e-07,1.8633874e-07,0.0012966756
3.869832e-07,2.3946031e-06,8.015835e-07,0.033734154,0.082288384
0.0024030595,2.1519318e-06,0.55273837,6.9751866e-07,7.965361e-07
0.00093785924,2.590505e-06,0.6904081,5.015793e-07,0.021264726
0.01542337,0.09256597,9.235035e-07,1.5144683e-06,1.2434352e-06
0.26130655,5.134035e-07,8.411147e-07,2.5547997e-06,3.5952849e-06
0.007436607,3.7350898e-07,0.32342905,2.6310722e-06,1.2136796e-06
2.0691182e-06,1.2760381e-06,0.09281679,0.2630489,1.3221958e-06
1.6318518e-06,6.0584415e-07,6.0260545e-06,0.011613944,1.1022391e-05
1.5922932e-06,6.884239e-07,4.264594e-06,9.719319e-06,0.2955113
5.7404186e-06,1.0096041e-06,2.0396521e-06,4.3210628e-05,0.0004773257
3.440777e-06,1.7014536e-06,0.56817234,0.3233902,6.240827e-07
3.1074956e-06,7.535056e-07,0.0004728789,8.708201e-07,1.5214922e-06
0.00046963347,5.136739e-07,0.17743005,2.601293e-06,2.236419e-06
1.0114659,3.512275e-07,4.146371e-07,2.6483426e-06,6.837209e-07
1.3630918e-06,8.3903245e-07,5.229135e-07,0.17229043,2.0742989e-07
8.0248043e-07,1.6416883e-06,0.12286935,2.3134854e-07,1.4115235e-06
1.7264126e-06,0.014214118,1.9521046,2.8869276e-06,8.5280794e-07
2.0374516e-07,2.8736138e-06,7.585035e-07,3.6664683e-06,2.4227345e-06
4.803815e-07,4.3704663e-06,3.673463e-08,0.3812582,1.4076994e-05
0.009426677,0.0007961966,4.9550028e-08,0.20200199,1.5242358e-06
0.010979194,4.3472305e-06,4.158021e-08,7.970405e-07,1.9653488e-07
0.023347303,1.4030567e-06,6.609821e-08,2.7703874e-07,6.7555616e-06
9.27414e-06,1.030844e-06,5.258491e-07,9.694475e-07,3.8858755e-07
4.595334e-06,1.0742117e-07,1.908283e-06,7.5000384e-07,0.00024893347
4.5846305e-06,3.4963164e-06,1.4780861e-06,4.421039e-06,4.941939e-07
3.5268487e-05,4.6902624e-06,1.3194958e-07,0.056854475,1.2152299e-06
4.565804e-06,2.23209e-06,2.9257217e-07,7.998242e-07,1.3381155e-06
4.5703136e-06,0.0004794211,1.5992855e-06,6.93388e-07,1.9524275e-06
4.919571e-07,7.3075637e-07,0.032796685,1.4815156e-06,2.2457887e-06
0.14416057,4.051575,0.018656144,3.7190643e-05,5.0388036e-07
2.0465543e-06,0.38893354,1.7888179e-06,0.015678266,7.687609e-07
1.4255638e-06,7.194376e-07,4.1794237e-06,0.07486973,0.0048907828
5.01636e-07,5.8454098e-06,6.967961e-07,3.9312804e-06,1.4486301e-06
0.036181815,4.8203094e-07,1.9604236e-06,1.3238124e-06,1.1833424e-08
2.3729337e-06,5.0945096e-07,1.2023554e-05,1.256252e-06,3.0653368e-08
3.060696e-06,5.9301374e-07,0.19727412,1.1709383e-06,1.2727517e-06
1.7087282e-06,1.1637561e-06,0.029719524,7.068815e-07,5.4971053e-07
7.121833e-06,4.7314222e-07,1.8978668e-06,1.3285705e-06,1.6664525e-06
2.516053e-05,2.767288e-06,1.8156792e-05,1.7278467e-06,3.3404885e-07
2.6615126e-06,4.014941e-06,1.710456e-06,4.274708e-06,1.3135781e-06
9.60036e-07,1.2040455e-06,8.8504345e-07,2.4075428e-06,4.3504238e-06
1.7325667e-07,1.7561318e-07,1.1758299e-06,3.344323e-07,0.00012293554
5.0968524e-08,4.442535e-07,5.6112262e-06,1.408025e-07,1.8136407e-05
8.8452055e-08,1.2254555e-06,1.0941742e-05,1.9178167e-07,4.2858082e-05
4.29338e-06,5.276985e-06,1.12653446e-07,1.2986926e-06,7.577894e-08
1.1896786e-06,8.936188e-08,7.323559e-07,4.7131884e-06,1.9129848e-06
8.585519e-07,1.022834e-06,3.4669394e-08,2.849861e-07,3.2035375e-06
6.4013375e-07,7.189647e-08,3.0493698e-07,2.2314488e-08,2.5833811e-05
9.4080525e-07,8.211103e-06,3.3368337e-07,8.33885e-08,7.6003084e-06
2.2215852e-07,4.3191967e-06,3.0387628e-07,2.904044e-07,2.0986536e-06
3.2433238e-06,4.9964626e-07,2.3728871e-06,1.0211639e-06,3.3986613e-08
6.44162e-07,3.5827181e-06,0.0012346497,2.1252543e-05,2.2519687e-06
0.00875517,2.8435085e-07,0.29888803,0.06946178,6.2474084e-07
0.5513399,1.5522973e-08,0.039389443,1.8255733,1.6881385e-06
0.0018551112,2.4061495e-07,5.725313e-06,0.001591899,1.3716912e-06
0.02908486,1.3753845e-06,3.0225652e-07,1.593596e-06,3.3995198e-06
0.0013428469,0.0006842635,9.3527694e-07,6.821011e-07,2.4173132e-06
4.654953e-06,1.2994747e-06,1.0949656e-06,2.5943905e-06,7.4335225e-07
3.0375886e-06,1.8259576e-07,3.0337415e-06,1.7364626e-07,0.023649858
3.4176094e-06,4.892598e-07,7.794561e-06,3.557159e-06,6.1779747e-06
7.9207024e-07,1.1186457e-06,0.020668129,0.10863249,3.6135914e-06
6.2122507e-07,0.00036080036,4.6991163e-06,1.9217956,0.12192864
2.6680673e-06,0.5620435,1.0543348e-06,0.7033225,1.7893981
3.196175e-07,3.1402938,4.9082286e-07,1.1781199e-06,1.6011252
2.6641549e-06,1.5753673,7.153209e-07,1.5683738e-06,0.8565589
0.38699535,0.631466,2.1148428e-07,7.1865898e-06,5.6520314
0.69940436,0.24312213,2.2664499e-06,2.2469521e-06,9.199221
5.087069,0.033971976,0.1263521,0.5986835,5.55319
4.4396896,0.041749053,0.74839187,1.4703052,3.9564884
5.6198688,1.3508673,0.7290445,0.79517055,0.5511147
5.8092103,0.56122327,1.3027965,1.31481,0.1360966
0.56220907,1.8091873,0.29762557,0.11411107,0.123339586
0.0177774,0.18698993,0.97475386,0.32668623,0.696987
0.11775798,0.12400714,0.34477362,0.20081557,1.6068019
0.027935315,0.090042956,0.0451719,9.3904026e-07,0.08187884
0.32879916,0.04958694,1.1678876e-06,9.295644e-07,0.038522996
9.682732,0.0048851757,4.749022e-07,8.5752055e-07,0.022734217
5.474775,0.0031363703,1.8700293e-06,2.4403068e-08,0.02464582
3.188426,2.500004e-05,1.2366451e-06,6.137974e-08,0.034122042
1.4613702,1.8800603e-05,0.23975208,2.1209376e-06,0.034231834
0.18458216,3.2727903e-06,0.0102527365,3.5660275e-06,0.017615333
2.6557164,5.8396736e-06,0.033944737,1.3511091e-06,0.00092389854
15.364397,2.0386556e-06,0.0006675524,2.5726587e-07,1.1138752e-06
1.9245499,3.1756422e-06,6.23235e-06,1.7680735e-06,7.437356e-07
0.16630913,8.795496e-06,1.7925523e-06,1.9333254e-06,1.9672877e-06
1.9820358,8.712203e-07,9.1240855e-07,1.2768313e-06,3.2808166e-06
0.102846496,7.871691e-06,8.704012e-06,6.803371e-07,3.6792464e-06
1.2825648,6.0177395e-06,0.031686503,1.9085755e-07,1.03766e-05
0.26488167,1.444178e-08,0.00011707401,2.4912362e-07,7.0079077e-06
3.9356472,3.1574704e-08,1.2293303e-06,9.36844e-07,1.4253354e-05
7.4060095e-05,1.9518247e-06,5.1282983e-05,1.4446873e-06,0.0010675674
0.0011033751,0.00010199706,1.6641729e-06,5.5910964e-06,0.008966615
0.0030773575,0.010738016,5.8310452e-05,1.6629207e-06,0.013256201
0.0025021033,0.014566041,0.0012789925,1.1069463e-07,0.011521748
0.0032936097,7.0778037e-06,5.210779e-05,2.179316e-06,0.011088717
0.0011935881,5.5825244e-06,2.5523628e-05,1.4209723e-05,0.006591221
0.0008993248,3.060695e-07,5.243803e-07,1.613596e-07,0.00014280545
0.0004919882,5.4764195e-07,7.3085454e-07,9.719727e-08,4.015026e-05
2.7100654e-05,5.2008176e-07,9.323431e-06,2.549096e-07,1.3448506e-06
0.005405646,6.6052456e-07,2.2023426e-06,4.1232914e-07,1.222799e-06
0.033639327,2.533716e-06,2.5986233e-06,2.1924687e-07,8.25792e-07
0.14867388,3.0305744e-06,9.11503e-07,1.8067893e-06,4.1140943e-06
0.029301604,1.2928206e-06,1.529156e-06,2.1221774e-06,1.1747603e-06
5.141332e-07,3.02384e-07,0.025694694,0.13520183,1.2812358e-06
4.132857e-07,0.0057046744,0.18354678,0.00016336222,3.9943034e-06
5.86369e-07,0.0010515526,0.0705183,0.06210109,6.2383715e-06
1.2141182e-06,1.2962711e-06,8.6663385e-05,0.017987207,9.78096e-07
8.6867675e-07,4.0764573e-07,1.8405161,2.415509e-06,1.2016552e-06
2.2978797e-06,2.7863038e-07,15.234803,2.1661487,8.8126217e-07
1.205061e-06,1.2883868e-07,1.1139051e-05,5.7186265,1.9637046e-06
0.18863818,4.814364e-07,3.2128463e-07,1.5300766e-06,5.0787565e-07
1.5090971,1.4842281e-07,1.7973716e-06,7.542962e-07,6.6035864e-07
5.1432004e-08,4.5808267e-07,9.0344383e-07,3.5148275e-08,1.0764267e-06
9.704671e-08,5.4425067e-07,9.172025e-07,0.027656453,1.1014708e-07
4.830071e-07,1.693452e-06,5.9746803e-06,0.018404549,1.2648228e-06
2.2788412e-05,1.5575546e-06,5.8791175e-05,6.7799505e-07,1.0723719e-06
7.179258e-06,1.6861246e-06,0.0052998257,1.0009928e-05,1.6733214e-06
1.3300421e-06,1.8225063e-06,5.4515986e-06,1.9701902e-07,1.6810271e-06
5.2081198e-08,8.8282223e-07,4.8773622e-06,2.2886535e-08,3.77205e-06
9.092151e-07,1.1970111e-06,1.4708078e-06,8.707551e-08,4.6100263e-06
6.7639854e-07,1.298954e-06,1.4547795e-06,2.0274842e-07,5.882242e-06
1.1062123e-05,1.8888012e-07,3.194014e-07,2.971997e-07,4.5899196e-06
8.985518e-06,2.0143964e-06,1.7395682e-06,1.05350026e-07,2.4554006e-06
2.7971937e-06,2.2246563e-06,8.6466224e-07,4.7089523e-07,9.565316e-07
1.3928832e-06,2.2659824e-06,6.9117647e-07,1.9668619e-06,1.4488758e-06
7.4671476e-07,1.330234e-06,0.0043736137,2.7434671e-06,3.3233523e-06
1.527658e-06,1.4095421e-07,8.586331e-06,1.8770919e-06,2.4282294e-06
1.1256557e-06,2.5565798e-06,6.9986027e-07,0.00236797,3.6930948e-07
4.0806302e-05,0.03203976,0.0003935835,9.567866e-07,0.01047848
0.052823,0.100169785,7.490534e-05,7.58903e-07,0.12452095
0.029418165,0.01997364,4.105679e-06,1.0458526e-06,0.13511616
0.010926721,1.3329717e-06,1.0733639e-06,1.5700065e-06,0.001210241
0.00058741606,7.459042e-07,1.473582e-06,1.4539498e-06,0.008850331
1.594845e-06,2.1689068e-06,3.1345164e-07,3.9238074e-07,0.02155602
6.442174e-06,0.09888507,3.4321138e-06,3.0047904e-06,0.051064074
4.3869e-07,6.201051e-05,7.704667,9.181322,0.09430406
1.0922097e-06,0.024304973,0.88213193,3.361597,0.04313611
2.1571059e-06,4.9028313e-06,0.0059307036,0.065547235,1.9528622e-06
0.04912081,2.9302046e-05,0.064458594,0.21519557,2.0367313e-06
0.07639462,3.2837288e-06,4.967359,0.07031113,1.1022178e-06
0.34236312,1.2772852e-06,0.38031983,2.2067088e-07,2.7840738e-06
0.009660428,1.4566873e-06,0.013728006,6.2039067e-07,1.0260119e-05
3.8689825e-05,5.703732e-07,3.227441e-07,3.1504765e-06,2.7136755e-07
2.302088e-05,4.274796e-07,1.14193604e-07,4.3721346e-07,2.1298278e-07
1.8967768e-06,2.0357807e-06,2.1316436e-07,1.7259723e-06,9.344298e-07
1.799475e-06,3.1968875,6.357397e-07,6.9420207e-06,0.7927298
5.629497e-07,0.016131511,2.642632e-08,2.3578193e-06,4.650425e-05
1.2272002e-06,1.615893e-06,8.82591e-07,1.7166072e-06,6.893506e-07
1.4981172e-06,2.2377367e-06,4.6037553e-07,0.71625775,2.7577144e-07
9.743074,0.006487654,0.00044314933,1.1725649,3.5106397e-05
0.00091296394,0.015013615,0.0018945191,0.00025430875,0.029713752
0.01318065,0.11052608,1.386225e-06,5.8902936e-07,0.023560377
2.2188058e-06,0.066755004,2.890174e-06,1.4947061e-06,1.4591451e-06
0.35625517,8.9437646e-07,0.89025986,0.015234327,2.0047612e-06
0.044325117,0.011914705,1.5441043e-06,2.0829107e-06,1.9191305e-06
0.01747802,1.8452446e-06,8.5216914e-07,1.3978954e-05,1.4700345e-06
0.028241713,2.8431518e-06,1.2091007e-06,0.0027916029,1.5712124e-06
1.2879923e-06,3.2381624e-07,9.542247e-07,4.06587e-06,9.181189e-07
1.4386899e-06,1.2465664e-06,4.8878354e-07,1.5450952e-06,1.536771e-06
1.075333e-05,2.5280995e-06,8.8738255e-07,4.3236687e-06,1.3078268e-06
0.04733194,0.005506322,2.1483702e-06,1.5320811e-06,1.2967454e-06
0.7776191,1.0324289,1.4402277e-06,6.30752e-06,9.622272e-07
0.2931477,0.10282652,1.3494009e-06,0.050714597,1.2042314e-06
0.01485979,1.0122106,0.0039872443,0.036557347,1.7359094e-06
0.2687596,2.4908443e-06,5.0441827e-06,0.08350678,9.982052e-07
0.0347458,1.6546682,1.1756429e-05,0.010838865,2.2661423e-05
2.10602e-06,2.5406025e-06,1.6520069e-06,6.7556334e-07,0.00726923
2.1756418e-06,1.5292613e-06,1.191681e-06,0.0022178586,3.901372e-06
1.2797547e-05,5.004426e-06,1.3224709e-06,0.00069095124,2.7415801e-06
6.289186e-05,6.575683e-06,0.0006388844,1.4091688e-06,6.983852e-06
1.9670458e-06,1.2802086e-06,0.0010051073,2.0243892e-06,0.251849
0.0036245335,3.084875e-06,0.0050006653,2.068357e-06,1.7019713e-06
0.004250727,2.8593934e-06,0.0040544868,2.014779e-06,5.244929e-06
1.947026e-06,1.5769466e-06,2.9770856e-06,6.627908e-07,9.360711e-06
1.7539028e-06,2.724842e-07,4.1083495e-06,4.391491e-06,1.3602179e-06
2.266678e-06,6.969461e-05,3.039834e-06,2.402903e-06,8.6767466e-07
2.6607056e-06,4.644972e-05,2.1260198e-06,3.6239535e-06,2.77099e-06
2.7245244e-06,9.4240704e-07,9.973475e-07,6.9081652e-06,7.7990666e-07
1.2071987e-06,7.296045e-06,5.122338e-06,2.2295862e-06,8.923153e-07
1.5607176e-06,3.1790853e-06,1.6696204e-06,4.586289e-06,0.2815779
3.3959268e-06,0.32662487,6.6341545e-06,2.8064362e-06,6.495153e-05
2.896861e-06,3.2067583,2.2131146e-06,3.1265135e-06,0.057804406
5.166324e-07,2.4729874,3.155268e-07,5.9611557e-07,1.6965204
1.8549235e-05,3.0994387,0.00021543901,0.00022416902,0.56548125
1.680394e-06,0.9263721,6.261401e-05,3.8934933e-05,10.4019575
0.3294272,9.978991,6.2181525e-06,1.9050673e-05,10.62985
7.174054,9.837619,3.046965e-06,1.8303179e-05,5.5856047
0.04391606,16.98078,4.517046e-06,0.099380076,6.7757726
0.019021343,12.8633175,0.54376584,0.4489426,16.113035
0.08542153,0.13469353,1.6971508e-06,0.057287525,1.6396182
0.23728901,0.0019662646,18.50668,1.1607919,0.24772288
0.09611927,0.017298149,10.261647,9.374741,0.07431486
0.0022420057,0.0631787,0.2736773,6.9558997,0.020374121
0.0031760153,0.4855711,2.217297,4.706152,0.0129182255
0.00584001,0.33206147,0.052263238,0.1570319,0.14634416
2.5262329e-05,0.1106306,0.26699105,0.03197613,1.1706403
3.144196e-06,0.1343554,0.08965081,0.020157281,0.15297358
0.6797515,0.051120475,0.2593214,2.1643962e-06,1.2491617
2.4446208e-06,0.12737432,0.24933103,3.6143692,0.3718135
0.17794292,0.048627194,0.50227934,4.153617,0.054582536
2.1968863e-05,0.109281726,12.323761,3.4526393,0.005957367
2.5325873e-05,0.28070214,10.543622,6.7656115e-06,0.01931116
0.061613113,0.39633933,1.4225389,0.43913752,0.23678489
5.498876,0.6402555,7.13032,1.6423331,0.29761565
0.014892229,0.19734861,0.00044407285,3.7642013e-07,0.15605345
3.393586e-07,0.106794365,0.0008060774,1.5311256e-06,0.013394724
0.47232008,1.2526734,0.00031743405,0.018686721,1.6010351
1.1210917,0.21721941,0.018941121,0.03249014,0.7721847
1.0789816,0.030422514,0.02974225,0.0015499499,0.27411592
0.030730944,0.0100030955,0.025786633,0.03641036,0.06432817
0.13074198,9.4829556e-07,0.041986696,0.031334918,0.039546695
1.1712562,1.0601252e-06,0.04827813,0.025139276,0.00028699165
0.34115762,0.0002363856,0.0054874946,0.024618743,1.6731345e-06
1.1653451,1.7548845e-06,0.00075853965,0.017388532,1.3388113e-06
0.49349618,2.5219306e-06,0.029196143,0.0709866,0.0001615946
0.4274507,5.0173835e-06,0.1282449,0.1289152,0.049326625
0.6926486,3.8239555e-06,7.758171e-07,0.13012618,0.193912
0.21151833,9.064741e-07,2.360863e-06,0.14500201,0.2738192
0.11016546,0.008728909,8.819795e-05,0.100833595,8.687456e-07
0.0072287326,2.0349185e-06,0.0017342377,0.090872675,2.7004623e-06
0.6494504,5.341217e-05,0.00011314405,0.014819436,3.4606599e-06
0.0196014,0.121014,1.1382604e-06,3.9172932e-07,1.6170886e-06
0.09545619,2.508339e-07,8.360564e-07,0.00088992226,1.758762e-06
0.030735103,1.6130737e-06,1.9035933e-06,0.009701243,0.19028689
1.5035969e-06,2.0555512e-06,1.5463071e-06,0.018811565,3.256368e-06
3.623731e-06,1.914804e-06,3.1612522e-06,1.7700515e-06,2.0954003e-06
2.118794e-06,4.3552177e-06,1.6274448e-06,0.0003586779,1.419702e-06
2.6181463e-06,4.9159335e-06,3.5192286e-06,5.308822e-06,4.2724005e-07
8.858438e-07,1.6515105e-06,1.7160557e-06,3.153975e-06,1.3096874e-06
7.5747005e-07,1.339638e-06,9.624797e-07,8.452959e-07,2.9552294e-07
5.728413e-06,4.6090136e-07,1.1408179e-06,2.2019656e-06,9.6446506e-08
9.778398e-06,2.1634705e-07,1.7136185e-07,5.0605144e-07,2.851088e-07
1.1070276e-05,5.7877032e-06,6.0963444e-08,1.3136944e-06,2.3426149e-07
3.982803e-06,6.4641754e-06,0.04978815,6.8571885e-06,2.555106e-06
1.5516619e-06,1.6784392e-05,4.0921077e-06,5.5317178e-05,1.6214801e-06
9.4785247e-07,3.356873e-07,6.4713417e-06,8.5897966e-07,1.2398033e-07
2.7297172e-06,2.4072879e-06,3.2201785e-07,4.629178e-06,3.6157928e-08
2.8825986e-07,4.831485e-08,3.3955604e-07,4.6371727e-07,1.76084e-07
2.365619e-06,4.616139e-07,8.246768e-06,1.2038e-06,2.3707248e-06
5.0537093e-08,2.2148551e-07,3.9611427e-07,2.9785073e-07,2.3284979e-06
3.8893958e-07,3.9254095e-07,5.1907847e-07,1.96794e-06,1.7250621e-06
3.047044e-07,4.8373035e-06,7.50803e-08,5.15168e-07,1.3366311e-05
2.7228734e-06,5.930305e-07,2.2635376e-07,1.1971357e-06,7.507003e-07
1.0651635e-06,1.5023496e-06,1.1328709e-06,9.220883e-07,2.0980403e-06
1.2776658e-06,1.9404993e-06,1.329794e-06,1.3974026e-06,8.077254e-07
1.6424135e-06,4.658414e-06,1.8427455e-07,9.873854e-07,9.127176e-07
2.4472315e-06,6.386636e-06,1.6598517e-06,2.9042263e-07,2.0757432e-06
1.0450565e-06,2.2167962e-06,0.016994148,6.815e-06,3.953374e-06
6.0192025e-07,1.3323136e-06,1.5113271e-06,0.004358665,4.962652e-07
1.1291035e-06,6.708191e-07,1.0060674e-05,2.2283355e-05,1.08454145e-07
1.92425e-06,3.876785e-06,8.232397e-05,3.0217217e-05,6.4673773e-06
5.9353206e-06,6.068085e-07,1.4321624e-06,3.121855e-06,1.1825779e-06
4.624909e-06,5.228699e-05,2.0909008e-06,1.1299596e-06,0.018503075
5.0097974e-06,5.9999853e-05,1.0801194e-05,7.153367e-06,0.8020132
3.5762894e-06,9.733413e-07,1.1423953e-06,5.64628e-07,0.019247312
1.1058657e-06,4.0158507e-06,7.3492206e-06,6.463215e-06,4.469347e-06
7.521856e-06,0.019194117,3.0879335e-06,0.24870911,0.010612055
1.2197431e-06,0.31360352,0.10752267,2.3198764,0.11286657
0.009943661,0.048807483,4.917323e-06,0.0031593873,0.68732625
3.540918e-07,0.008831148,1.5758664e-05,3.1403317e-06,0.037849087
1.0074624e-06,6.390519e-07,1.45349495e-05,1.4800891,3.1634181e-06
2.9836215e-06,3.596551e-07,0.05831499,0.0029829259,1.3042788e-06
0.00064952497,9.658763e-07,0.0025011296,0.22080764,9.317666e-07
0.0057093133,8.3725763e-07,0.012558899,0.0048710033,2.2046586e-06
0.5571967,8.734214e-07,0.10349425,0.0023112143,4.7823833e-06
2.8315055,7.0599555e-07,0.09822214,4.2325308e-07,4.702963e-06
3.797898e-05,2.0949929e-06,0.48007324,4.0250944e-07,2.7644423e-06
1.7318608e-06,1.8051362e-06,0.01410293,4.4761853e-07,1.1094141e-05
4.3018238e-07,1.176987e-06,0.022964556,7.543339e-07,1.5401687e-06
7.150751e-07,6.874426e-07,0.6236506,0.47787824,7.8930333e-07
1.0453198,5.7980907e-07,0.49049404,0.52203494,8.482845e-07
1.859916e-06,3.0503023e-07,1.5382925,6.046181e-07,6.992742e-07
2.1951223e-06,1.0408695e-05,0.034822017,2.8915092e-06,1.0396001e-06
0.64038426,1.0364661e-05,0.22705059,1.2393248e-06,2.4203464e-07
1.2281616e-06,7.7387216e-07,3.3200493e-05,0.0005533953,1.603995e-05
0.028492443,2.0548791e-07,1.5933558,0.03063176,7.946256e-05
9.377188e-07,6.220295e-09,0.6996048,2.9235036e-07,3.8230305e-06
6.0956165e-07,0.0,1.5657045,2.0856369e-06,1.1733041e-07
3.9668107e-06,3.0453622e-11,2.0884732e-08,9.3040853e-07,5.3323415e-08
2.0770185e-06,1.2232965e-06,3.4633996e-07,4.790201e-07,7.064463e-07
1.8252333e-06,1.7554934e-06,1.15532455e-08,5.7577046e-07,3.7963423e-07
1.0950248e-07,4.2016651e-07,0.0,9.295029e-07,6.739278e-07
8.9052776e-07,3.829715e-07,3.544526e-08,1.5385724e-07,1.07644546e-07
3.727173e-06,2.2126019e-06,7.3093184e-07,1.411265e-06,1.1873234e-06
9.423884e-08,9.738224e-07,4.177634e-07,1.7971092e-06,1.3104925e-06
2.012859e-07,1.2090292e-06,7.363214e-07,1.0151379e-06,9.519466e-07
4.4270138e-07,0.008609069,9.558964e-07,1.1699956e-06,0.9164203
8.813381e-07,0.00021690341,6.86247e-07,1.1011655e-06,0.118929595
1.9176712e-06,3.0983445e-06,0.026173374,4.99233e-06,9.903271e-07
7.9371654e-07,9.4206735e-07,0.00014889722,0.010087071,9.820744e-07
4.2686995e-07,7.94566e-07,0.035813175,0.53950924,6.4561345e-07
4.3484246e-07,7.277661e-07,0.055808656,0.68968153,1.7982645e-06
5.790148e-07,1.5413276e-06,0.12915754,0.015464432,6.252219e-07
1.7458291e-06,2.775773e-06,0.9595899,0.00083084847,2.0839668e-06
5.1928913e-07,1.7463191e-06,0.11272462,2.200735,1.094034e-07
0.1551131,2.4027447e-06,0.10756547,0.88524514,2.0658094e-06
0.015650932,1.473992e-06,0.019468028,0.0036283925,2.2864328e-06
6.85068e-07,1.1405264e-06,0.04495414,1.0053571e-06,4.4034115e-07
0.086343616,3.4036444e-07,0.120419085,9.4789834e-07,0.03334686
9.557278e-07,9.927036e-07,0.0023634306,0.0061772773,0.0034170388
1.7642459e-06,0.0045032087,0.019586287,0.13186929,0.0043640193
2.3395484e-07,0.06766329,0.022148246,1.6997343e-06,9.5176847e-07
2.0192751e-06,1.9328907e-06,1.4225399e-06,1.2146883e-06,3.4110695e-07
5.731628e-07,2.3392106e-07,1.3999006e-06,2.6208193e-06,1.419907e-06
6.4798735e-07,2.5566717e-07,0.119918786,0.14268562,1.1535312e-06
2.98726e-07,4.5270614e-08,1.7932613e-05,1.3954734,1.3824558e-07
8.141344e-07,1.0859774e-06,9.1804765e-08,2.1657846e-07,1.5219896e-06
2.570077e-06,6.664753e-07,3.3547433e-08,3.192209e-08,3.2943924e-06
3.5678588e-06,7.0665224e-06,1.722501e-08,4.0185263e-08,2.11967e-05
7.435847e-07,5.5092926e-07,9.790999e-09,4.1982627e-08,1.1153286e-05
0.10009289,2.3225434e-07,4.3593764e-07,1.3622117e-07,3.1058795e-07
0.25908855,1.5508177e-06,3.7933784e-08,4.4057222e-07,9.417306e-07
0.0008500602,3.1747668e-06,1.0316654e-07,1.2083746e-06,1.5578574e-06
2.7437352e-05,1.7837564e-06,2.5064574e-07,1.7619948e-06,8.754793e-07
2.0313408e-05,2.4054114e-06,8.0839845e-07,4.2870428e-07,1.0003778e-06
3.423786e-06,3.3939395e-07,0.00014455263,1.1564389e-06,2.1932333e-06
1.2760701e-06,7.099822e-07,7.389037e-07,1.5361957e-06,7.9910154e-07
1.5606403e-06,1.2712408e-06,1.4221038e-06,2.3423576e-05,1.0146152e-06
1.3164365e-06,2.1205462e-06,0.50805277,1.4546525e-06,0.0076099937
1.402014e-06,0.0003177876,0.573373,0.13406666,0.07243649
2.0659415e-06,3.875233e-06,0.020815337,1.0136655e-06,1.8961803e-06
3.285432e-06,2.0138964e-06,0.062144008,1.8408141e-06,1.5750609e-06
2.3440496e-06,1.5111804e-06,1.8697382e-06,1.4419674e-06,3.1181664e-06
0.014627264,4.5212823e-06,2.0512136e-06,2.0171533e-06,2.3876082e-06
1.4056915e-06,7.3672486e-06,0.0036158105,1.431766e-06,3.5722194e-06
3.4375641e-06,2.1868918e-06,0.0058459095,3.247872e-06,3.121612e-07
3.2250142e-08,8.112401e-06,1.588128e-06,2.3385931e-07,9.963358e-05
1.7479625e-06,5.1431743e-07,3.022308e-06,7.207574e-07,2.2004979e-06
2.441279e-07,2.4182948e-06,1.4020322e-06,4.4463973e-06,1.1276553e-06
7.020194e-07,1.0311833e-05,1.955292e-06,1.0957618e-06,1.1100686e-05
1.3787453e-06,1.4307234e-05,4.3604646e-07,3.268756e-05,5.1682528e-06
1.2262117e-06,1.927657e-06,4.408323e-07,0.005896164,1.9567932e-07
8.3675866e-07,1.3003968e-06,2.2725844e-07,1.3452158e-07,1.1848028e-06
3.0053404e-06,1.8352596e-06,1.9891492e-07,1.0706502e-07,1.4750866e-07
1.4549758e-05,1.3643713e-06,3.1299376e-07,6.509253e-07,4.9239907e-07
8.991651e-06,1.9738372e-06,1.4858284e-07,4.848727e-07,7.699432e-07
1.5901153,9.279613e-07,2.0016611e-07,4.2872216e-08,2.0462838e-07
1.0389131,5.7347864e-07,2.5973557e-07,2.1347867e-08,1.82642e-06
0.1758891,2.4576696e-07,8.89674e-07,2.3938894e-06,1.4929038e-06
3.3675596e-07,1.9867348e-06,9.904401e-07,2.7759606e-06,1.2627735e-06
4.2483586e-07,1.1989065e-06,1.6015642e-06,1.7930737e-06,7.168217e-07
7.273555e-07,2.2602762e-06,3.4102231e-07,2.9553812e-06,1.6978337e-06
0.77327967,6.556596e-07,1.2146049e-06,6.059665e-06,1.2203038e-06
0.46696055,1.216635e-06,0.01200257,3.5867076e-06,1.6443574e-06
0.08812966,9.4115016e-08,2.6989624e-06,5.1735306e-06,1.5704416e-06
1.442972e-06,2.9059854e-07,0.29180214,3.7822972e-06,6.714379e-07
1.2276604e-07,3.7506375e-06,0.051964868,0.19977206,3.017858e-07
8.9311e-07,1.7743912e-06,2.6155615e-06,5.514952e-06,5.404249e-07
9.578922e-07,0.019364221,2.9335827e-06,1.4770433e-06,3.1482714e-06
2.4476901e-06,7.4646655e-06,0.3399083,0.25285557,0.05985033
4.1744584e-06,1.3539183,1.270263,0.0008833426,0.11055652
2.257679e-06,0.2610643,1.7627157,1.1670367,0.1261056
0.2579541,0.1381179,2.2918918,1.5724412,0.08450018
0.40442643,0.13530733,2.3855276,9.65456,0.1259181
0.0045202267,0.23342063,2.3372571,4.8205743,0.45237175
2.0773678,0.2260982,2.636052,5.1667356,0.6379335
0.3627303,0.1288471,7.7688484,0.5683598,0.2932482
0.069465935,0.103339545,5.7697487,3.1936665,0.2884384
0.03252785,0.17974906,0.78839314,0.70998913,0.55062455
5.8698564,0.010170314,2.7203054,3.7636492,0.039016634
1.3600562,0.025605313,9.805776,0.76071614,0.024715388
6.8456225,2.9923654e-05,3.2029026,0.008089628,0.01578216
4.3843913,3.474979e-05,5.2126097e-06,0.0043847854,0.0037251704
2.5808327,1.5837879e-05,1.0466202,2.7438636,0.00027175664
0.7324262,2.9476358e-05,1.2645407,6.444614,0.0020149017
0.74933064,3.7301917e-05,0.01627712,0.07252695,5.391668e-05
0.10732586,5.1475213e-06,0.058299195,0.0552133,0.00060788717
6.076581e-06,6.4744695e-06,0.088758476,7.3804557e-07,1.4794321e-06
4.2707877,9.3377497e-07,0.067331515,0.0052199606,5.3093504e-07
8.3484335,3.221423e-07,0.2222833,0.12460221,2.7349804e-06
0.21622485,5.231329e-06,0.69847476,0.74003327,1.5132509e-05
0.05052014,5.137597e-06,7.037161e-07,0.23400082,5.3188116e-05
2.2511024e-06,6.9271787e-06,4.2119808e-07,3.4964603e-07,1.3253718e-06
8.0730007e-07,0.00056638254,3.883637e-07,1.0482104e-06,8.01566e-06
1.9815498e-06,0.5555803,1.0747727e-06,2.9290197e-06,0.046200257
9.342825e-07,0.010234153,3.7133427e-07,1.1338976e-06,0.10152407
1.3880048e-06,9.893609e-05,2.483993e-07,6.036986e-07,10.55994
1.7065245e-06,0.39263365,9.839015e-07,2.3895873e-06,1.5916803
0.06294955,2.3972044e-07,2.0947543e-06,3.1297833e-07,3.8338547e-07
2.9004052,2.6249518e-06,3.9358338e-07,1.719118e-05,6.5445824e-06
