"[299, 255]","[227, 248]","[287, 319]","[279, 328]","[230, 262]"
1.1567384e-07,1.1061458e-06,1.4088984e-07,4.844186e-07,3.8562043e-06
3.2205838e-07,7.621039e-07,2.0704404e-07,7.596198e-08,2.3997407e-06
1.1190417e-06,1.480167e-06,0.09461896,4.3234318e-06,1.3650713e-06
1.3742181e-06,4.1860034e-07,0.9397758,5.8276123e-07,6.1260846e-07
6.703873e-07,2.8114584e-06,0.09059376,2.619022e-07,0.1368229
4.3055657e-06,0.503126,4.7402952e-07,1.4803724e-06,1.6444333
4.095704e-05,1.2949877,9.690386e-08,1.6356059e-06,2.1754568
1.1104316e-06,2.0557018e-06,0.029716875,1.5763544e-06,0.0066098114
1.8495148e-05,0.009668608,2.3796529e-06,2.7715412e-06,8.874946e-07
0.93536437,1.7510602e-06,2.627565e-06,7.188669e-07,1.0480843e-06
2.1589973,2.8330203e-07,0.005611357,0.08495387,2.2842319e-06
7.616813e-07,9.2964325e-07,0.00016914196,0.002142062,1.1692609e-06
1.4169358e-06,1.5870447e-06,3.3242657e-06,1.3891938e-06,1.6438356e-06
8.4088714e-07,0.0,2.125854e-06,1.6121272e-06,4.5929582e-08
6.484138e-07,0.0,0.0010184996,2.2541044e-06,0.0
3.714668e-06,2.9328506e-08,1.8699974e-06,2.7951403e-06,0.0
1.0689462e-06,6.665047e-05,2.0410882e-06,0.00012564028,3.3167493e-05
2.013263e-06,3.261021e-05,1.6918513e-06,4.6374174e-07,1.7489576e-05
1.1368148e-06,1.0433816e-06,1.0453512e-06,1.6159566e-06,3.887938e-07
1.0956621e-06,1.9105332e-06,2.6880282e-06,8.0190676e-07,5.2581794e-07
2.2552788e-08,6.3658017e-06,5.7172605e-07,2.7596613e-07,1.6239582e-06
0.0,2.628138e-06,6.6703893e-07,2.1306367e-07,1.2151689e-06
0.0,5.189436e-07,1.3014751e-07,4.1146066e-07,1.8839944e-06
0.0,2.3665345e-07,2.9251635e-07,1.0077624e-06,3.402858e-06
1.7490622e-08,1.275569e-06,9.048495e-08,8.374891e-07,6.616119e-08
7.071507e-07,6.512008e-07,4.0606062e-07,1.6713401e-06,5.6497953e-07
4.8154203e-07,8.592197e-07,4.2037485e-07,0.9105146,7.841594e-07
1.1845029e-06,2.0211446e-05,1.2804404e-07,11.465716,1.0154998e-06
1.1201489e-07,6.3566335e-07,3.3803832e-07,0.041455235,4.4314828e-07
9.701689e-07,1.2564136e-06,1.3661245e-06,0.0001213669,8.17181e-07
4.3785035e-06,2.6005594e-06,5.930447e-07,1.0904839e-07,6.8979654e-07
3.336285e-06,9.625626e-07,6.550974e-07,1.0981076e-06,8.190588e-07
5.8510427e-06,1.4592024e-06,6.478269e-07,5.612727e-07,1.2100502e-06
3.144393e-07,4.475699e-06,1.2237873e-06,0.0005264447,2.512174e-06
1.0037335e-06,6.923779e-07,8.10189e-06,2.425637e-06,3.4827117e-06
2.7818783e-06,5.79043e-07,9.576698e-07,3.6564716e-06,1.6478078e-06
1.253764e-06,1.8048455e-06,0.0023722842,2.4464855e-06,2.5791985e-06
8.965602e-07,1.4931185e-06,0.8517652,8.1733117e-07,9.70863e-07
7.9043286e-07,5.462724e-07,0.89462423,1.441142e-06,2.5189474e-06
2.6580713e-06,2.2565853e-06,0.25604224,1.1557071e-06,1.8828882e-06
1.0197613e-06,8.306414e-08,0.0006486644,1.7107091e-07,1.3984427e-07
7.355784e-07,4.8596837e-07,7.4615104e-07,3.1095578e-07,1.2075485e-06
4.9549965e-07,3.439575e-08,2.2177725e-08,1.8311516e-06,1.6222672e-06
8.2886544e-07,1.9773302e-07,2.3230707e-07,2.8685195e-06,2.46629e-07
2.479946e-07,8.247116e-06,2.5432723e-07,2.0397579e-06,5.5492916e-07
7.763522e-08,2.7120643e-07,8.4775564e-07,3.240507e-07,2.8563327e-06
1.0471365e-07,1.1009312e-06,3.696788e-08,6.5781364e-08,7.4060927e-07
5.7008924e-07,7.4140127e-07,1.4359802e-07,0.37988716,2.6967994e-06
4.838859e-06,2.945196e-07,2.7522654e-07,6.7966636e-07,7.794836e-07
1.5256163e-07,4.2265262e-07,3.7441986e-08,4.7766827e-07,5.7969896e-07
2.56518e-06,5.5130813e-06,1.3560941e-06,1.1387333e-07,9.761316e-06
6.8405393e-07,8.082181e-06,1.9885408e-06,1.918428e-07,1.5526699e-06
4.96017e-07,6.084986e-06,0.001698743,4.0339242e-07,3.523225e-06
1.2042729e-07,3.4304338e-07,0.00040632804,2.8537024e-06,5.4007023e-06
1.0741377e-06,4.6057227e-07,1.8312165e-06,3.3939343e-06,3.158622e-06
1.9459061e-07,0.3139916,3.1644868e-06,2.0358548e-06,1.6177709e-06
1.7197235e-07,1.5590011,3.5819244e-06,1.3420479e-06,1.2851484
1.7133947e-07,7.5009757e-07,8.131876e-07,6.873624e-05,0.010517832
1.864395e-06,1.1591566,5.9723054e-05,0.0023856338,1.0811504
1.2899352e-06,1.0504564,1.4611045e-06,4.281411,1.2672361
0.0013660442,0.45008117,1.5645418,0.23140493,0.7502414
0.3728571,0.039646994,1.4665525e-07,1.0915138,0.16951014
0.00032588514,0.047939483,0.3099286,1.659902e-05,0.12120569
0.002606232,0.024055758,1.2372708,8.0664006e-07,1.7776588e-06
5.634637e-05,6.0596494e-07,0.0174416,0.0041610133,2.5416944e-06
7.839438e-06,0.3199643,1.3272607,0.024761073,4.03537e-07
1.6773812e-06,1.1984903,2.1378321e-07,1.2887025e-06,7.332786e-05
8.6573647e-07,0.2565085,2.1427395e-07,3.6208317e-07,0.0012777093
7.0736946e-06,1.4203005e-06,7.843783e-07,1.9783306e-06,0.15026502
5.9452245e-06,1.7735692e-06,3.3301458e-06,2.2364863e-07,0.70333076
5.3284225e-07,2.9563087e-05,3.6759484e-08,1.2970439e-06,0.07294154
3.124843e-06,3.960208e-06,6.4882347e-06,8.981804e-08,0.07214411
2.8510415e-06,5.1983197e-06,9.5228625e-06,2.3807836e-07,0.021014871
0.0006991896,3.4097309e-06,1.5469104e-07,5.1593874e-05,0.01326927
0.02401206,0.008434558,1.7339424e-07,5.2027357e-05,0.0068152957
0.043037474,0.19802266,4.4234196e-07,1.2067407e-05,9.98206e-06
0.22199741,0.042033155,1.4991974e-06,2.8535598e-07,0.016647046
0.1213179,0.04214241,1.4328258e-06,2.6765017e-07,0.41896176
0.0038582822,0.00014622972,1.3324815e-06,4.775536e-07,0.2572708
0.000107502194,0.0019098474,4.3058478e-07,3.4324017e-08,0.1361311
4.590481e-07,0.00038618603,1.2647391e-06,1.14774664e-07,0.0049638217
1.1127386e-05,5.6374197e-06,2.086216e-06,2.2765464e-07,9.197897e-06
2.1434018e-06,2.018662e-06,3.5699807e-06,1.1352698e-06,3.2124294e-06
1.8182313e-06,4.5690417e-06,1.2234e-06,2.4495766e-06,1.4020657e-06
2.1865078e-06,2.7592178e-05,5.3634176e-06,2.4563922e-06,1.6401704e-06
8.153612e-07,1.3410039e-06,4.19511e-06,3.6743884e-06,1.1218436e-06
5.783546e-07,1.3166045e-06,9.934998e-07,5.724346e-06,1.543183e-06
1.1616895e-06,9.759151e-07,6.372548e-06,1.2978485e-07,2.6213897e-06
0.0011776111,5.857434e-07,1.8532152e-06,2.515079e-06,2.8854593e-06
1.1791049e-06,1.8530413e-06,3.3411212e-05,3.3628037e-06,6.026492e-07
9.295128e-07,1.0608466e-06,0.0107558705,1.044554e-07,5.9046556e-07
7.0783716e-07,5.698262e-06,2.290884e-07,2.6115717e-07,4.290445e-07
1.4378514e-06,9.491453e-06,6.5557633e-06,9.056093e-06,1.2623436e-06
6.3010007e-06,8.8042844e-07,1.5737276e-05,8.705674e-07,9.3956294e-07
4.357283e-05,1.4392634e-06,7.913915e-05,1.9101685e-06,3.8723324e-06
0.00013811335,2.3246098e-07,3.881809e-06,0.00057329645,3.006262e-06
7.083816e-07,0.00033510692,1.0194643e-05,0.0002632485,1.1511341e-06
4.380178e-06,0.016527144,1.1806891e-05,1.4342315e-07,0.104735434
1.03736975e-05,5.426116e-05,1.9334966e-06,8.276054e-07,1.1405817
3.277077e-05,9.728063e-06,0.047196727,0.020465193,0.030380689
0.06006,2.0146651e-06,0.008278474,0.25197634,0.1603108
0.003259133,1.3279058e-05,0.05209129,2.2667882e-06,0.00024098562
3.1168806e-06,3.6607705e-07,0.18296781,5.1524744e-06,0.20414811
9.782933e-06,1.454458e-05,0.29865208,0.0016899897,0.0014339875
9.2563e-06,1.3201672e-05,0.27486092,0.0391359,0.008471579
6.445401e-06,0.000786268,0.53015107,0.016958514,0.00811434
1.9058966e-06,0.0003459717,0.65461534,2.3105145,4.8155078e-05
7.738516e-07,0.0022971448,2.2256267,0.6190923,0.00047877093
5.6284556,0.05211623,0.5444349,0.042132493,0.0021059066
2.6796076,0.0041953665,2.2883956,0.14602207,1.4412623e-05
0.027264051,1.0576925e-06,0.6075175,0.26480132,2.1300752e-05
0.4256869,3.0460257e-07,0.0097234845,8.21389e-07,0.005963954
0.023773432,0.7311192,2.9268117,0.37232563,1.5916048
0.0484069,5.978935e-06,1.8154424,0.021380335,2.3567907e-06
2.9563432e-06,7.732715e-07,1.7698018e-07,0.009431745,4.591585e-07
0.58065325,5.1315146e-07,1.3223512e-06,1.4468303e-06,8.633322e-07
5.9506263e-05,7.8757034e-07,0.008285498,1.9953124e-07,3.0246558e-06
2.3292878e-05,1.8898687e-06,2.2519119e-07,0.004553711,4.153665e-06
2.8063207e-06,2.7432113e-06,8.201982e-08,1.1226277e-06,1.1260208e-07
2.3752582e-06,4.2352858e-07,1.3107898e-07,3.5478823e-07,4.684446e-07
3.0977085e-06,1.4064022e-06,1.40949e-07,5.1062693e-07,3.0107122e-07
4.5031657e-06,5.7567087e-07,1.8898484e-07,0.10743351,1.2392765e-07
3.5859239e-06,1.0033127e-06,3.1436088e-07,0.0023944613,5.8717416e-07
3.445652e-06,8.0443107e-07,1.2670881e-07,7.819476e-05,7.3721907e-07
7.712273e-06,9.642329e-08,0.007344901,0.008047553,1.4257821e-06
7.929288e-06,5.3995893e-07,0.00057988835,4.3736105e-07,7.315544e-07
3.025353e-06,2.0716282e-06,3.7707018e-06,0.28360566,9.000704e-07
9.394555e-07,8.7686266e-07,9.4063296e-08,0.12724909,1.9602949e-06
1.2572848e-06,4.87579e-07,0.00022671401,0.0018366164,1.6360798e-06
1.2483132e-06,4.9079144e-08,2.7073415e-06,0.00011920289,4.4030335e-07
7.203759e-06,3.0723348e-07,1.597119e-06,1.5671995e-06,1.2904012e-06
0.16978167,4.891639e-07,0.0058262423,0.003682076,8.0736805e-07
0.2082351,1.9514516e-06,1.5420236e-06,0.027773105,1.4364717e-06
0.01869839,7.0190805e-07,1.7979428e-06,2.3179764e-06,9.264832e-07
0.29942292,1.4071776e-07,0.0012438424,2.259154e-06,1.2132728e-06
1.3188456e-06,2.2730653e-06,8.564944e-06,1.8359558e-06,1.0611114e-06
1.9284473e-06,1.6337195e-06,2.2350741e-06,9.1193505e-07,6.5184768e-06
2.9506157e-06,9.473522e-06,5.8500416e-07,2.7407934e-06,6.335474e-06
3.4757038e-06,1.588524e-06,2.8027006e-07,6.276692e-06,6.867696e-07
2.7042252e-06,6.967935e-06,2.2027929e-07,1.961514e-06,5.5249934e-06
5.92037e-06,6.921903e-06,1.6839662e-06,5.157583e-07,1.1418327e-05
1.8686129e-06,9.584516e-06,1.5487669e-06,5.640212e-07,6.6193193e-06
2.731835e-06,1.3367831e-07,1.0870378e-07,1.3947401e-07,1.6371625e-05
1.5308814e-07,0.00030363412,8.3546075e-07,3.879222e-07,9.6383665e-06
7.63468e-09,0.10299084,0.003199375,1.9600911e-07,0.004482316
2.7174872e-07,0.14603983,0.0015830316,5.9273194e-08,0.07396036
2.6521408e-07,0.28793335,0.00023122893,1.7763068e-07,0.06962772
0.00024522006,0.240749,1.7642785e-06,5.8707496e-07,0.40192607
0.30330682,0.04019823,1.6617575e-07,5.9773633e-06,0.1602192
0.58647394,0.003668293,4.1622476e-07,5.7313205e-06,0.04626901
1.1879524,0.00045745668,0.02041244,3.8643348e-06,0.009911293
0.051708624,0.0001255316,0.1574248,0.03776479,0.00046058907
0.030768126,7.4083546e-05,0.20749064,0.023470392,8.713611e-06
0.0018141352,2.3042292e-05,0.16450158,0.046119813,2.9798537e-06
2.263594e-06,4.4433855e-06,0.1473995,0.014120126,2.6025002e-06
8.5123776e-07,2.945052e-06,0.00033193736,1.3710644e-06,1.3130169e-06
2.1960293e-06,1.71579e-08,2.6416019e-05,1.1032007e-06,8.0515264e-07
3.01347e-06,2.9674911e-06,5.9688836e-07,1.3877885e-06,1.6783117e-06
1.3946069e-06,2.5673908e-06,2.2960385e-06,2.5901738e-06,7.9191267e-07
1.3822789e-06,5.463825e-06,1.93684e-06,3.6242648e-07,1.1028877e-06
8.4491035e-07,8.219054e-06,2.2796853e-06,8.1519875e-07,4.7066596e-06
0.011501346,9.702157e-06,8.2131953e-07,2.7302946e-07,4.3697723e-06
0.040357634,9.481024e-06,5.994126e-07,2.0051979e-07,9.432531e-06
1.7149414e-06,6.1645774e-06,4.642928e-07,9.706465e-08,4.8795693e-05
9.717153e-06,1.4351744e-05,3.1510712e-07,2.3163567e-07,0.0018109439
0.0071924366,2.6497579e-05,3.30599e-06,7.919279e-08,0.0023174875
0.00017806239,0.0001440447,0.010855611,2.5909939e-08,0.00012379735
1.2920215e-06,0.0001134706,0.1372093,7.895213e-08,5.606936e-05
2.1009157e-06,1.1534553e-05,0.285023,6.7335854e-08,1.1743902e-05
1.551068e-06,1.3751372e-05,0.032200925,3.1526343e-07,8.295544e-06
1.39344165e-05,6.2657787e-06,0.001568779,2.6503456e-06,6.808583e-07
2.7352204e-05,3.0161214e-06,7.876058e-07,8.338032e-07,5.892185e-06
1.1284969e-05,1.7855125e-06,0.036338672,6.7892614e-07,4.402481e-06
3.6592705e-06,1.6879051e-06,0.0042648655,0.00027083125,4.696783e-06
9.697121e-07,7.5345514e-07,8.0540656e-07,0.3277896,1.2419904e-06
8.414475e-07,1.4946385e-06,1.0012426e-06,0.7807815,0.00035629966
2.0399261e-06,1.4880441e-06,3.7873968e-07,9.321951e-07,0.041593526
3.3791473e-06,0.07671582,0.009949834,1.3299875e-06,0.18169236
9.994994e-07,2.2427424e-05,0.0039339964,9.986612e-07,0.060386833
8.122165e-07,6.674998e-05,0.064764395,2.1391497e-06,7.54541e-05
1.0560067e-06,9.221351e-06,0.030905545,0.00014263461,3.7509499e-06
8.5751515e-07,1.2245871e-05,0.17412262,0.010393001,1.558216e-06
0.067188226,0.057600994,0.080212116,0.002102531,1.771178e-06
1.5298813e-06,0.32237998,0.08472583,0.15878057,0.0021060691
8.873684e-07,0.022466017,0.11836267,0.12214223,0.026761895
1.7495339e-06,0.59977007,0.014097659,1.0191404,1.3568318e-06
1.0310032e-06,0.056292456,0.9021806,0.18137053,1.7798508e-08
1.1948554e-06,1.51667e-06,6.7111876e-07,1.4964135e-06,3.3539737e-07
0.014547428,3.453718e-05,9.538918e-09,8.073462e-08,1.3637934e-06
3.4224183e-06,3.3129547e-06,7.628829e-09,6.331846e-08,5.065114e-06
2.968809e-06,4.3589444e-06,6.3054294e-08,2.0643768e-07,1.0349089e-06
7.1083605e-06,7.792811e-07,3.74209e-07,3.057582e-07,1.3519791e-07
7.97376e-06,3.636691e-07,1.2192765e-05,6.0790517e-06,1.1223749e-06
3.8517896e-06,6.8781003e-07,0.07180166,3.4305035e-06,5.980567e-07
7.8194824e-07,1.3139835e-06,0.00024424272,0.015115849,2.8068685e-06
4.9472114e-06,2.5221384e-06,0.014481468,0.008292001,1.7923305e-06
0.003482887,8.968102e-07,0.028771557,0.0064870934,1.2608824e-06
0.0027779026,1.274576e-06,0.0063716345,0.05757874,1.1626298e-06
9.009101e-06,2.282476e-06,0.008023491,6.8636466e-05,9.90028e-07
4.392243e-06,2.319471e-06,1.3323452e-06,0.031775646,1.2897274e-06
9.138719e-07,1.8740978e-06,1.9050711e-06,0.0014851469,1.5208484e-06
3.332301e-05,1.5285951e-06,0.022957347,0.00045966895,1.4370216e-06
7.767475e-07,1.4542911e-07,0.023306426,1.9246804e-06,1.137467e-06
8.7029144e-07,5.3526965e-06,1.8486267e-06,2.9346754e-06,2.2555241e-06
1.5896994e-06,2.3425935e-06,3.6825302e-05,2.9210223e-06,1.838725e-06
1.607376e-06,1.5628772e-06,3.1243198e-06,4.4013177e-06,2.0595437e-06
1.8249503e-06,1.0818944e-06,2.0639968e-06,2.2858346e-06,1.6389237e-06
1.0889383e-06,1.3001152e-06,6.4980563e-06,3.317964e-06,2.0893672e-06
1.8171274e-06,1.560374e-07,3.9224133e-06,2.0573782e-06,2.5281977e-07
1.6670517e-06,2.9537912e-07,1.7644863e-06,1.1854187e-06,6.573486e-07
2.2034867e-06,2.3126493e-07,1.847201e-06,9.0964255e-07,5.346893e-07
9.710604e-07,1.6201234e-07,3.5459533e-07,3.336954e-06,1.0910144e-08
2.709129e-08,3.7092134e-06,2.742589e-08,1.5639673e-05,3.3297016e-07
2.6398068e-08,2.106927e-06,6.3302264e-06,6.4818046e-06,5.094416e-06
2.2606876e-06,3.3746065e-07,7.3815536e-06,3.0236853e-05,5.6059133e-07
8.0518817e-07,2.1310816e-06,6.739881e-07,1.1065295e-05,3.8638169e-07
1.3578187e-05,1.11589785e-07,7.2023067e-06,5.4298284e-06,5.879702e-06
1.6347473e-06,6.210302e-06,7.4857726e-06,1.0532085e-05,1.0692137e-06
1.0066195e-07,3.2796652e-07,3.7382997e-06,6.7005117e-06,6.5205874e-08
9.405816e-08,2.0735695e-07,8.666341e-06,5.046413e-06,4.588728e-06
1.9563899e-07,0.00055156904,1.0143323e-05,3.3543529e-06,2.2066539e-05
0.004835461,0.9626234,6.452542e-05,1.3178139e-05,0.0064292797
0.00039244606,9.934727e-07,1.0704359e-05,1.2595259e-06,0.00022337124
0.022661384,6.4180665e-07,4.4193857e-06,1.7925917e-06,1.5174157e-06
0.00030247003,1.0251573e-06,5.3661495e-07,7.255991e-06,0.392548
0.00011622162,0.023716569,4.16586e-07,0.14416859,0.00012945115
1.2590196e-07,1.4752985e-06,1.0218346e-06,1.194319e-06,0.01409353
1.0364056e-06,2.6073785e-06,1.5804314e-06,1.0017123e-06,0.0007388582
2.1097558e-06,0.021002032,5.9843396e-06,2.0202501e-06,0.008450476
0.45805502,0.110581346,2.7454416e-06,7.996814e-07,0.06267185
2.1397868e-06,0.028946716,1.051591e-06,0.00042279428,0.10194894
0.000777066,0.06294185,1.3740546e-06,0.0004949253,0.000852226
2.3693687e-07,0.09828137,1.2415011e-06,3.420451e-06,0.024571637
1.1324389e-05,0.011474645,4.983974e-07,7.28797e-06,0.06446432
0.00011180457,0.000137027,1.1812218e-06,0.002226333,0.009496406
2.0576364e-07,0.064366706,2.8160022e-05,4.9184582e-05,0.048557743
1.407446e-07,0.16311534,3.0982533e-06,1.2491569e-05,0.020238485
5.6618884e-08,0.099094786,9.898104e-06,8.1170874e-05,0.06190579
4.296703e-07,1.5207087e-07,4.531496e-05,8.157517e-05,0.00044776907
2.9832086e-06,2.752842e-07,7.758835e-06,1.9159366e-05,0.0015640724
1.8661899e-07,5.185311e-08,4.7945225e-05,2.6194436e-06,3.533458e-05
2.4682103e-07,0.012469052,1.8723922e-05,0.40047604,2.4592154
1.6013279e-07,0.05597448,0.33505142,0.10582253,0.10142727
6.708982e-08,0.07325949,1.8988106,0.00013432115,0.011408271
5.391413e-07,0.026021332,7.3746864e-06,1.6938684e-07,18.258032
0.00025402624,5.624311e-07,5.3199287e-06,1.3401652e-07,0.035391387
6.4538117e-06,3.621752e-07,1.9680776e-05,0.045900285,2.077666e-06
4.311713e-06,1.6596193e-06,0.06111714,8.138414,3.295517
2.4913047e-06,0.89053017,6.624734e-07,0.041319583,1.3792226
8.026414e-06,3.4249065,1.4779042e-06,1.4909443e-06,5.901041e-07
1.2879259e-05,0.00042672237,1.8334704e-06,7.707952e-05,5.4702804e-07
9.816387e-06,0.00011799242,8.4898227e-07,0.079381615,9.005767e-07
1.7389273e-05,9.4224725e-07,1.6888273,0.031993117,2.3665224e-07
5.819503e-05,6.9826065e-06,2.2323288e-06,1.0676367e-06,7.583476e-05
3.7418427e-05,1.0657697e-06,1.0509599e-06,6.953977e-07,9.3590785e-07
1.7551123e-06,4.8591173e-06,1.0186776e-06,7.878848e-07,1.8312535e-07
6.527371e-07,1.4633082e-05,6.313215e-07,7.648745e-05,2.3028185e-06
3.1074644e-05,2.8169113e-06,5.5107e-06,0.00018532091,1.1337969
0.00063426903,4.6346526e-07,2.1487092e-06,2.0988725e-06,0.83855486
0.00038505095,8.853746e-08,2.4814452e-07,2.0129096e-06,2.4290048e-05
0.00013638388,0.00015576204,9.302049e-07,1.6157879e-06,2.5923985e-06
0.00027885387,0.00182238,7.327257e-07,3.6954268e-06,1.2100074e-06
1.5801073e-05,3.3548073e-05,5.530951e-06,9.0091527e-07,2.756252e-07
4.827895e-06,7.821704e-06,1.4704133e-07,1.6743094e-07,6.9285993e-06
5.131471e-06,6.979498e-06,3.3158054e-07,1.1638715e-06,0.077542566
7.494923e-06,1.4917223e-05,2.8357425e-07,1.3192631e-07,4.4572806e-07
2.0454004e-06,1.2619058e-05,4.0549995e-07,7.8328475e-07,1.8836332e-05
4.593066e-07,1.798863e-07,2.3166298e-05,6.984036e-07,1.3832997e-05
7.2127125e-07,1.0706322e-06,6.362607e-07,3.880455e-05,1.966795e-06
2.2546357e-07,8.487813e-06,2.573931e-07,1.8688137e-07,2.1630062e-06
1.7977796e-07,1.9661913e-06,2.1382925e-07,8.107592e-08,2.4388132e-06
3.128386e-06,1.073291e-06,2.134501e-06,2.7919688e-07,4.7595003e-07
2.2763534e-06,2.0257842e-06,2.0048938e-06,1.5954537e-06,1.9184637e-07
8.517852e-07,2.4166825e-06,1.5085586e-06,6.352268e-07,8.88303e-08
1.3790792e-06,3.5566654e-07,1.1233019e-06,1.7476002e-06,3.6127713e-07
0.00019870998,1.0198922e-06,1.2992944e-06,3.6158567e-06,1.3530199e-07
0.17208494,1.0421507e-05,7.801134e-06,9.310996e-06,1.1990352e-10
1.1895593e-06,1.0600141e-05,4.4261133e-06,4.23158e-06,2.862828e-07
0.000490588,7.148883e-06,9.1360477e-07,2.4081162e-06,8.073742e-06
1.9689935e-07,2.5222935e-06,2.2108634e-06,7.2788216e-06,9.276951e-07
7.148721e-07,5.041444e-06,1.8541966e-06,4.2138586e-06,1.1631777e-06
4.3726604e-06,4.816903e-06,2.4941394e-06,9.288493e-06,1.5520702e-06
5.098564e-06,7.414257e-06,1.5325209e-06,1.8264827e-05,2.7333556e-06
4.227732e-06,3.017285e-07,2.0094922e-07,8.722227e-06,6.232455e-06
1.7281558e-06,5.918394e-08,1.0048159e-06,5.8024413e-10,1.03061475e-05
2.2598433e-06,2.3927933e-08,2.1090502e-06,0.0,3.3659476e-06
3.635325e-06,2.4542294e-06,2.3397122e-06,1.1078577e-06,1.4265426e-07
3.373163e-06,2.7918582e-05,2.1753913e-06,3.3864478e-07,5.471591e-07
2.5572185e-06,5.375852e-06,3.1333311e-06,1.459452e-07,3.0246514e-07
3.5046933e-06,3.3251908e-08,6.306157e-07,4.7731663e-07,1.4530139e-06
2.9740036e-06,1.6988105e-06,8.288601e-08,3.591846e-09,6.772422e-07
5.7371817e-06,3.3592214e-06,1.1933136e-07,0.0,5.6665604e-06
2.7019826e-06,1.3947581e-06,4.718712e-08,0.0,2.0651237e-07
8.112763e-07,2.6994985e-07,7.151465e-07,0.0,5.954167e-07
6.677174e-07,7.142462e-07,2.7958654e-06,0.0,6.3496977e-06
1.7745347e-06,2.3607873e-07,1.909051e-06,0.0,4.354936e-06
2.0672467e-06,1.8249804e-07,2.6516145e-06,0.0,2.395592e-06
1.0818449e-05,2.115577e-06,2.3002947e-06,0.0,6.1937494e-06
7.040512e-06,5.165837e-07,7.43918e-10,0.0,1.5183646e-06
1.3192939e-05,2.4461292e-07,0.0,0.0,2.8140988e-07
1.1438423e-05,1.652852e-06,1.6964941e-06,0.0,2.0227546e-06
8.3116856e-07,1.0322166e-05,2.5563284e-07,1.2757854e-08,1.5131787e-05
4.1732494e-07,2.3899213e-06,1.4870075e-07,1.00388114e-07,1.0221373e-05
4.191035e-06,2.4441601e-07,5.3157584e-07,1.05810045e-07,5.795694e-06
5.478404e-06,0.0037266964,1.7966726e-06,1.1517677e-06,1.2084826e-06
3.3210425e-05,0.0027871768,1.7453542e-06,3.300391e-06,0.0019291296
2.5993446e-05,2.558533e-05,6.0864127e-06,3.6493093e-06,4.507545e-05
5.5532428e-06,6.181066e-05,1.9322548e-05,1.1350544e-07,8.950297e-05
1.3393012e-05,2.0556698e-05,1.5155225e-06,6.782071e-07,0.0001069065
3.52768e-06,1.5349327e-06,5.841902e-08,4.234366e-06,1.6473797e-06
4.34335e-06,4.5949818e-07,1.301538e-07,7.3898804e-07,8.1594095e-05
7.350069e-07,3.4211303e-06,3.4857944e-06,6.871838e-06,7.651713e-05
6.648779e-07,3.330663e-07,3.0094282e-07,1.5304411e-05,5.114226e-06
7.5956126e-07,0.00027294864,1.3854354e-06,3.4879682e-05,0.2549036
1.2251714e-06,4.673714e-08,1.1603606e-06,5.594636e-06,7.005758e-07
2.701481e-07,3.0367318e-07,2.9764254e-07,1.3074912e-06,1.0606191e-06
9.719428e-07,3.3665415e-06,1.3696459e-06,2.7943307e-07,5.9177677e-07
0.1721966,8.7150715e-07,1.5104565e-06,1.6785514e-05,6.564775e-07
1.984611,6.401082e-07,2.723297e-06,0.00013392126,5.09499e-07
4.1889278e-05,1.076219,4.9105e-06,2.1943517e-05,0.31113806
4.703265e-06,11.876808,1.3430965e-06,2.9125882e-05,1.7098731
0.0017456445,22.917576,1.4020047e-05,8.583631e-05,4.537185
6.53792,0.18705253,1.1690976e-05,1.3153356e-05,11.191614
4.6687,0.63729656,5.555663e-07,1.5868777e-06,0.05630342
2.9986427,0.20223115,9.165881e-06,4.387372e-05,0.05755724
0.358549,0.15535986,0.00012995678,0.000104223276,0.1282502
1.979623,6.775662e-07,6.289438e-05,0.00018873997,4.8366513e-07
21.982607,2.781645e-07,7.466258e-05,0.000115437004,5.3848896e-07
11.74454,5.934907e-07,1.3850408e-07,0.00015995304,1.3070256e-06
0.037265353,1.4247145e-07,1.425251,1.1874769e-05,8.2241803e-07
2.2347569e-05,1.0028471e-06,6.545338,2.742727e-06,1.2393173e-06
0.0020435948,9.251975e-07,0.47160417,0.011748622,8.676751e-07
0.0016653098,1.2245582e-06,6.47561e-07,1.4308836,3.8498007e-07
0.00048203935,6.051079e-07,2.6232435e-06,0.12874037,2.4596636e-07
4.9459133e-05,2.441373e-07,6.698022e-05,0.21242271,3.4096644e-07
1.0366037e-05,4.5165093e-06,8.660726e-05,0.035090663,6.469519e-07
1.357554e-07,2.1006392e-06,2.9873741e-05,8.222435e-06,2.6869426e-05
5.0513872e-06,2.4789376e-06,0.0004946481,0.00011749469,1.1741032e-06
4.637379e-06,3.662334e-07,0.0013524867,0.00013789027,0.0053447294
3.80389e-06,1.0679177e-06,0.003446659,4.4243385e-05,0.22223349
5.6551346e-07,3.212911e-06,0.0008222704,7.5534776e-06,3.3479348e-06
1.2074105e-07,3.7474487e-07,1.1609776e-06,3.2318987e-08,1.21248895e-05
7.045684e-07,1.6023793e-06,4.1532853e-06,1.915965e-06,3.139049e-06
8.329587e-07,2.04556e-06,8.8531755e-07,3.6936166e-07,2.3373682e-06
1.6618395e-06,2.1562346e-06,1.2906144e-06,6.07837e-07,5.6388564e-07
7.8373284e-07,3.3434492e-06,1.2073419e-06,1.473338e-06,4.1479893e-07
1.8427769e-06,3.5218548e-06,3.9771803e-07,1.0347021e-06,7.7745307e-07
1.8400739e-06,3.4136706e-06,1.6150866e-06,4.2394853e-07,6.7210584e-07
1.5098893e-06,8.4877837e-07,1.9077008e-06,1.7789185e-08,3.7204245e-07
1.6653236e-07,1.949509e-06,2.8156035e-06,4.4980033e-09,8.742619e-08
3.4591994e-06,3.1797442e-06,1.1791192e-06,2.9289495e-07,0.0
1.1574842e-05,1.9460178e-06,0.0,1.0315588e-06,0.0
7.599032e-06,8.1709e-08,0.0,1.6285646e-06,0.0
2.9097266e-06,0.0,0.0,7.603475e-08,0.0
7.286046e-08,0.0,0.0,2.216676e-10,0.0
2.8916722e-07,0.0,0.0,1.5851515e-06,0.0
2.70205e-06,0.0,0.0,1.02485025e-07,6.880181e-07
3.1738022e-08,1.4194782e-07,0.0,1.683476e-07,5.339235e-07
4.559773e-07,1.3930207e-05,4.3707635e-10,3.7141214e-07,2.4770515e-07
2.1018825e-06,2.9669638e-07,0.0,2.82129e-06,5.390467e-07
8.0058356e-07,7.002448e-07,2.1724584e-09,9.1291e-08,1.296846e-07
6.691375e-08,5.501857e-07,3.6488473e-06,3.7581533e-08,9.475941e-07
0.0,1.6792941e-06,3.9514933e-07,8.627315e-09,9.545396e-07
0.0,5.219765e-07,1.1160527e-08,0.0,8.206006e-08
1.51311315e-05,2.7532334e-07,4.9889826e-07,0.0,1.303165e-06
0.0040078964,1.8118145e-06,9.902202e-07,2.739661e-07,2.2399236e-06
0.0031254392,5.127891e-07,1.0852801e-05,6.2114796e-06,3.3456445e-06
1.9613142e-05,6.0163527e-09,1.9467907e-06,1.0656672e-06,1.0108987e-06
7.971011e-07,1.2852174e-06,7.373906e-07,1.2468018e-06,7.611797e-07
1.6529564e-06,2.1732035e-06,8.0487337e-07,1.2610516e-06,1.9002986e-06
9.0217264e-07,0.0,1.3229683e-06,8.5153175e-07,5.83889e-06
1.984497e-06,0.0,1.5840117e-06,2.1365238e-06,4.908107e-07
2.1359621e-07,0.0,1.1522627e-06,2.4337742e-06,1.6772742e-07
3.0177866e-06,0.0,4.3963297e-07,1.9279391e-06,5.0247404e-08
1.0389207e-06,0.0,5.3607137e-06,5.5228776e-07,0.0
1.505538e-06,0.0,4.14765e-06,3.6146519e-06,0.0
4.0181912e-06,0.0,7.859645e-07,9.61868e-07,0.0
1.10095e-06,0.0,3.3217475e-06,8.4910357e-07,0.0
5.937581e-08,0.0,4.5819106e-06,3.6802547e-08,0.0
2.8441782e-06,0.0,9.422973e-08,3.078304e-07,0.0
6.9650906e-07,3.0160454e-06,3.3659267e-06,0.0014422983,0.0
1.7063201e-05,6.405439e-06,1.5198223e-07,2.1765211e-07,0.0
2.7231356e-06,3.5540095e-06,3.880069e-06,9.659359e-07,0.0
4.831834e-08,2.1037446e-05,1.4467922e-06,2.8933975e-06,1.6309618e-06
6.496617e-06,1.6781656e-06,2.7495992e-06,4.1648454e-06,5.525619e-05
2.893426e-05,1.2012865e-05,4.802928e-07,2.7800667e-07,2.4658692e-07
3.202653e-05,9.868435e-06,1.997613e-06,2.380622e-08,1.5078938e-06
3.4979337e-05,3.5274907e-06,7.98488e-08,2.5128964e-08,2.5143183e-07
2.3797352e-06,8.2082767e-07,7.910453e-10,1.4048634e-06,1.7312354e-07
9.037936e-06,4.044976e-07,1.7348672e-08,1.4743972e-07,1.3804207e-06
1.9247702e-07,8.036542e-07,1.724419e-08,6.140358e-08,8.58136e-07
1.2486448e-06,3.288442e-08,6.327508e-07,9.0644605e-08,2.4945348e-07
5.4424886e-06,5.081308e-08,1.4264605e-06,7.307042e-08,3.554322e-07
9.867338e-07,1.1388741e-05,1.5816738e-06,5.854562e-07,3.5933758e-07
9.605483e-07,1.3428247e-05,1.7827309e-06,5.396899e-06,4.697821e-08
7.010929e-07,1.4681235e-05,0.39624345,2.6210407e-06,9.362149e-07
2.3364123e-07,6.6569737e-06,0.06300895,2.858419e-06,2.9175897e-07
1.6998112e-07,6.2225545e-06,1.0998842e-06,1.9401703e-06,4.5649318e-07
1.1184732e-06,3.0831868e-06,1.8649514e-08,1.6141424e-06,1.9054498e-06
1.8943251e-06,1.0194129e-07,1.0555957e-07,5.1026423e-06,1.2584695e-05
4.584225e-06,4.548144e-07,6.510734e-07,2.1119463e-06,5.797075e-07
2.123004e-06,2.451296e-06,3.1844218e-07,4.3479517e-06,1.3100956e-06
1.7168239e-06,1.3217286e-06,7.3037927e-07,2.4888989e-06,1.7655545e-06
1.2379644e-05,3.2458308e-06,1.2261261e-06,5.4773413e-06,7.2982283e-07
1.1875781e-05,6.427437e-06,9.606903e-07,1.5877092e-06,3.7494e-06
5.9216495e-07,1.975809e-05,3.5958176e-06,2.714204e-07,0.00012555727
7.894508e-07,3.0332885e-08,2.5063023e-06,4.17846e-07,1.7232984e-05
1.1628911e-08,2.9821085e-06,1.725416e-06,1.8692005e-07,1.3542418e-06
4.5165422e-07,5.7317726e-07,1.8411416e-06,1.7058515e-07,4.0552473e-05
3.4496287e-07,2.4971335e-08,4.729346e-07,8.768886e-08,6.228162e-06
1.3133865e-08,1.0555498e-06,5.543444e-07,1.5307601e-06,1.2231425e-05
8.7821086e-08,5.7649504e-06,8.3386016e-07,3.2353186e-05,1.2626264e-06
3.8842396e-09,7.0068213e-06,5.0691784e-07,1.297832e-06,5.2179807e-06
0.0,2.2861994e-05,2.779589e-06,3.6586282e-08,7.733912e-07
1.5190503e-08,1.3601847e-07,1.7258045e-06,5.7634992e-08,5.153384e-07
1.2015672e-08,1.6811708e-08,4.43622e-06,1.2570003e-06,7.749752e-07
4.6601943e-07,5.217252e-10,1.2708671e-06,8.68835e-07,6.5342203e-07
9.4339066e-07,0.0,1.9236782e-06,1.2872886e-06,0.0
5.06091e-07,0.0,1.4531829e-06,3.6263748e-06,0.0
2.4551075e-06,0.0,2.4800523e-10,1.8528497e-06,0.0
1.3727562e-06,9.222266e-07,0.0,5.410065e-07,0.0
1.255084e-06,9.212832e-06,1.7935271e-08,5.0808186e-08,0.0
1.197913e-07,1.5623768e-06,4.810759e-07,4.9415206e-08,0.0
1.5170247e-06,7.369807e-09,5.885546e-10,4.1650975e-07,0.0
1.9000991e-07,0.0,0.0,1.2212798e-06,0.0
9.540251e-08,0.0,3.8074408e-08,2.07435e-07,0.0
5.3705463e-07,0.0,0.0,6.683351e-06,0.0
2.6459145e-06,0.0,3.3482596e-08,3.778748e-08,0.0
8.195287e-07,0.0,4.696576e-07,7.619422e-08,0.0
8.2335765e-07,0.0,6.531724e-07,3.1155713e-07,0.0
0.0,0.0,2.1466376e-07,1.2317928e-06,0.0
0.0,6.374501e-08,3.339399e-08,3.1061184e-08,0.0
0.0,1.8981896e-06,8.401908e-08,1.1776358e-07,0.0
1.6174816e-09,4.7234226e-07,8.186662e-08,1.4628536e-07,0.0
1.1409035e-08,5.664823e-07,4.8999334e-07,2.8222097e-08,0.0
1.293639e-07,5.22516e-05,5.3831396e-08,5.4936163e-07,0.0
2.519112e-11,6.6245106e-05,1.7562344e-08,1.6092617e-06,0.0
0.0,2.8187416e-05,6.5726167e-09,5.6488934e-06,0.0
0.0,1.0015882e-06,5.2482545e-08,4.7237986e-06,0.0
0.0,4.3641064e-09,3.6974987e-07,1.1548842e-07,0.0
4.3309317e-08,1.03020446e-08,0.0,9.176214e-08,0.0
3.0697686e-07,0.0,0.0,0.0,0.0
1.549685e-06,0.0,2.6221127e-07,1.8891234e-07,0.0
1.0139413e-06,0.0,5.975345e-07,9.372646e-07,0.0
8.833279e-07,0.0,2.9932113e-07,3.7871298e-06,0.0
1.1009528e-06,1.4746645e-07,2.1226642e-06,7.6248557e-07,0.0
1.3929435e-06,5.6974022e-06,1.6693508e-06,1.808964e-08,0.0
4.9343646e-07,0.0,1.0402288e-06,1.1947134e-06,0.0
8.9227564e-07,4.4664003e-07,2.452646e-07,4.6681275e-06,0.0
1.2969586e-08,1.4994308e-06,1.6764792e-05,9.766203e-07,0.0
9.0676104e-07,8.957553e-06,6.10383e-06,6.355292e-08,0.0
1.1200345e-08,1.5841467e-06,9.706298e-08,8.344494e-07,5.0236554e-10
0.0,7.709015e-06,4.2763344e-07,1.5806147e-06,1.3507825e-05
0.0,3.8127625e-06,2.6202315e-10,6.740922e-07,1.9574954e-07
0.0,1.3672344e-07,8.167274e-08,6.3665146e-07,2.25475e-06
0.0,1.0547243e-08,6.990629e-07,4.979463e-07,6.301097e-06
0.0,1.3877043e-07,0.0,2.4050998e-06,6.051536e-07
0.0,6.08779e-07,0.0,6.320554e-07,3.864271e-07
0.0,2.4395928e-07,0.0,1.3694789e-08,5.9864e-09
0.0,2.0540296e-05,0.0,5.688718e-10,5.9980454e-07
1.33554074e-08,3.1521702e-06,0.0,0.0,4.8632126e-07
2.4034108e-08,2.520916e-07,1.4526233e-07,0.0,1.1452781e-05
6.100815e-07,3.3110538e-07,5.228491e-07,0.0,2.656036e-06
7.3486844e-10,8.166139e-07,1.0434005e-06,0.0,5.5865524e-08
8.9435765e-08,1.8554134e-08,1.1287837e-06,3.7784005e-08,9.850814e-08
3.927924e-08,7.0479246e-07,7.3989116e-07,6.384371e-07,1.760045e-07
3.0771994e-06,1.4792501e-07,6.3202356e-07,2.3740922e-06,3.2108252e-07
2.139074e-06,1.3198316e-09,1.8044594e-06,1.6850781e-06,6.8309426e-08
3.320346e-06,7.600276e-07,1.82263e-06,1.1514569e-06,0.0
2.4170656e-06,0.0,1.1542553e-06,1.1530585e-06,0.0
1.1897611e-06,0.0,4.866215e-07,1.1740522e-06,0.0
1.8241338e-06,0.0,5.3157424e-07,4.4740037e-10,0.0
2.362662e-06,0.0,2.76786e-06,0.0,0.0
7.7418105e-07,0.0,5.4884254e-06,0.0,0.0
7.327082e-07,0.0,1.9037104e-06,0.0,1.4070876e-07
3.1713526e-07,0.0,6.3125e-07,0.0,1.5098624e-06
1.1826951e-06,0.0,1.6176323e-06,1.0711034e-06,1.2301594e-08
4.110404e-07,0.0,7.0157614e-07,6.6038217e-07,0.0
1.7415973e-06,0.0,4.2833372e-07,3.07385e-06,0.0
1.0955573e-06,0.0,1.620535e-05,1.421278e-06,0.0
1.0877459e-06,0.0,5.0587795e-07,5.646571e-06,1.5219562e-07
1.5301603e-06,3.417475e-07,1.7566387e-06,1.6586472e-06,1.4715924e-06
1.5547329e-06,6.8108267e-07,1.7293335e-07,2.9560894e-07,8.56892e-07
7.2920916e-06,1.6793466e-06,9.900168e-08,3.4662264e-06,1.6267247e-06
3.3281824e-06,8.785876e-07,2.2922521e-07,2.3642096e-06,1.7982711e-05
1.02056765e-05,8.972321e-07,7.8820847e-07,3.3029628e-06,7.4767837e-07
1.3337035e-05,9.212151e-08,7.209801e-07,5.625174e-06,2.0228586e-07
2.092576e-06,0.0,7.289125e-07,1.889701e-06,1.6704648e-06
7.7363615e-07,0.0,1.8613007e-06,1.6117212e-06,2.0030443e-06
1.3946548e-06,1.6078675e-06,3.9305783e-06,1.6735353e-06,5.259615e-07
7.079053e-07,1.0605735e-05,8.0604053e-07,1.6434103e-06,5.156073e-07
4.9042853e-07,2.9605526e-06,6.725523e-07,2.1468206e-06,6.9915217e-07
1.245642e-06,6.379865e-06,2.6558134e-06,5.0518116e-07,8.5344914e-07
1.4832701e-06,1.6001856e-08,9.5075745e-07,4.559123e-07,3.649861e-07
1.9337688e-06,2.3442266e-07,1.5244857e-06,6.4139255e-07,2.044003e-06
1.484556e-06,3.392946e-06,6.5928185e-07,9.112111e-07,4.564707e-06
0.000114897965,7.0498527e-06,1.2228202e-06,4.6568375e-06,4.7239868e-07
0.011722285,1.5476124e-05,1.8187841e-06,6.4823944e-06,2.2623876e-06
3.7494335e-08,2.7593745e-07,3.8080778e-08,2.7400038e-08,8.792505e-08
0.0,9.8440545e-08,7.884978e-08,1.4424214e-07,0.0
0.0,3.82349e-07,7.44464e-07,6.100081e-08,2.2043916e-09
0.0,3.0692524e-07,1.245218e-06,3.7887037e-07,7.762395e-06
0.0,9.066913e-07,1.0245384e-06,0.0,7.2541616e-07
5.2580527e-09,5.124428e-07,1.6620977e-08,0.0,5.9638915e-06
2.8350309e-08,1.127006e-06,2.0768964e-07,2.37202e-08,2.9993029e-05
3.8477515e-07,1.3463921e-06,1.7013381e-06,5.635785e-07,1.1753659e-05
6.955778e-07,2.2795186e-07,2.1823753e-07,2.467886e-07,1.1827589e-06
1.3295244e-06,9.811155e-07,6.557846e-08,8.750195e-08,1.3153056e-07
5.898899e-07,3.5642407e-07,3.219994e-08,7.0439164e-08,6.902408e-07
3.3500314e-06,7.5980175e-08,7.001513e-08,4.2115616e-07,7.8285484e-07
6.509313e-06,3.486456e-08,9.748779e-07,3.0901485e-06,1.6798458e-07
6.1962623e-07,8.203212e-06,1.8781004e-06,3.9765254e-07,2.2506372e-07
1.8770933e-06,3.2598368e-06,1.3600361e-06,5.0560715e-07,7.1121086e-08
4.6200464e-07,3.0226695e-07,1.5859927e-06,6.4101107e-07,1.3117729e-07
5.617676e-07,2.0357646e-07,1.9738432e-06,1.5181577e-06,9.893885e-07
1.8788111e-06,6.079777e-07,1.7523109e-06,1.5998492e-06,1.202175e-07
3.3967424e-06,2.0169946e-08,4.750429e-06,1.7932858e-05,8.805971e-07
1.225285e-06,6.129781e-07,0.00039634944,1.5372718e-06,1.7478349e-06
5.331085e-07,2.6622098e-08,4.849927e-06,1.7133984e-06,1.2114043e-06
3.3976858e-06,3.4965473e-07,4.077232e-06,5.716468e-07,8.552719e-08
7.1025033e-07,1.1026824e-06,3.887727e-06,9.4052115e-07,6.699383e-07
2.5166457e-07,1.1244684e-05,3.2473113e-06,2.8583313e-06,3.9420283e-07
4.210263e-09,3.2823473e-07,6.20729e-07,1.0096633e-06,6.3549783e-06
1.2498547e-06,8.061591e-05,8.514166e-06,4.305985e-07,5.3515873e-06
3.500721e-07,0.8373425,2.8867194e-06,5.339133e-07,4.2728134e-06
3.7486138e-06,0.4631339,3.5518696e-07,1.8049974e-06,0.46319163
4.3816435e-06,0.8165818,5.276687e-08,1.5540577e-07,0.63781935
7.269302e-06,0.405725,3.7648303e-07,3.487658e-07,0.012341956
0.13756111,5.8373206e-07,3.1885685e-07,3.5741215e-07,0.018929323
0.0043614283,8.6937484e-07,1.6936814,1.2725691e-06,7.127858e-07
2.6932573e-06,0.100585364,0.23497668,2.2943642,1.7020533e-06
4.65795e-07,0.12792541,0.7518868,4.7088623,0.13073964
3.4006115e-07,6.0548376e-07,1.7525133,5.3590975,4.064645e-07
4.0657337e-06,6.49291e-07,0.9660822,2.179434,1.2917271e-06
4.8399103e-05,5.1576817e-06,5.66189,1.9295673e-07,1.456192e-06
0.0043130796,2.2884287e-06,0.119739875,7.0010293e-07,9.584729e-07
2.1428561e-05,5.950352e-07,0.2264664,1.0532257e-06,1.4612308e-06
4.566859e-06,3.3307388e-06,0.00043827618,4.9115766e-07,1.5335847e-06
0.88039255,1.8567066e-06,4.1897977e-07,0.00041780696,1.9746356e-06
1.2413198,2.7333087e-06,3.367298e-06,1.4330294e-06,1.2624325e-07
4.1957854e-05,2.3007185e-06,1.6282502e-06,1.4246516e-06,9.844224e-07
9.582943e-07,6.8750325e-07,1.9203733e-06,2.0117511e-07,6.4729915e-07
1.5119216e-06,8.617885e-07,7.600342e-05,2.606811e-06,4.681852e-07
1.6679589e-06,2.7912836e-07,7.4318257e-07,1.3302585e-07,9.2486925e-07
2.8111951e-06,2.4274627e-07,4.7130928e-07,8.3076264e-07,7.194511e-07
2.1885096e-06,1.487191e-06,2.6461043e-06,7.135207e-07,6.2858584e-07
2.7620774e-06,3.5348792e-06,2.335571e-07,6.7947944e-06,1.2798e-06
3.5718765e-06,1.005857e-06,9.133306e-06,2.6118323e-06,8.653338e-10
7.2581926e-08,2.789555e-06,1.8335923e-06,2.912125e-07,4.7840956e-07
4.7224265e-07,2.1293165e-06,6.246122e-08,0.0,4.822001e-07
1.02464305e-07,0.069043964,0.0,3.4900265e-07,2.7235612e-07
5.0747025e-07,9.938868e-07,1.1661163e-07,2.8355773e-06,1.7883052e-05
4.0911235e-07,1.125346e-06,1.1695878e-07,1.9554417e-07,4.9340235e-07
1.4387625e-06,4.0917944e-06,4.177606e-08,7.4589765e-11,0.0
4.0406176e-06,1.5330565e-06,3.8804155e-06,1.0732285e-07,5.283819e-08
2.5576438e-07,3.2616533e-06,9.224789e-07,1.671138e-07,6.97999e-07
6.440187e-07,2.1064602e-06,3.4876753e-06,8.422025e-07,8.9603935e-07
3.9395155e-07,2.9604644e-06,3.323589e-07,4.1461676e-06,1.3298229e-06
1.4234032e-06,8.751254e-06,9.1195886e-08,8.7285787e-07,8.589521e-07
5.1628746e-07,0.39900523,3.7659302e-07,3.5617953e-07,2.8819536e-06
4.742301e-07,5.7943284e-06,3.085742e-06,1.9359945e-06,0.023808928
2.1336658e-07,3.445578e-06,7.4219554e-07,3.8875455e-06,0.019379659
5.7764873e-07,1.7630243e-06,9.876039e-07,5.4728343e-06,1.455556e-06
2.2050774e-06,1.6874022,7.3172004e-07,1.4301135e-06,1.4438652
2.1499118e-06,3.642477,4.919183e-07,4.955717e-07,0.22516364
3.5555083e-06,0.63920885,3.3922202e-06,0.70872176,6.8494024
6.630752e-06,2.9532242,0.015309389,3.001936,13.99044
3.4322125e-06,4.1013002,8.504842e-06,0.14397241,0.9905908
0.566862,1.3587551e-05,1.5757655,0.41179144,1.7926494e-06
4.240346,3.6056442e-06,8.299497e-06,0.2700196,2.4405385e-06
4.1205463,6.595287e-07,1.4945468e-06,0.31337965,1.22187e-07
4.9352727,1.4708417e-06,2.6658819,2.7656972,1.0267592e-06
5.260377,4.0157883e-07,0.96165186,4.3220034,1.3314651e-06
2.8083827,8.004988e-06,5.0813966,1.4128733,1.022795e-06
1.3518554,1.2082783e-07,1.1160988,3.2017221,0.20638128
0.81714445,2.794575e-07,0.44148198,3.5442312,0.16041075
0.0126016205,1.5484133,0.0012969373,3.483123,1.0339348e-06
0.0099014165,0.19083457,0.5468742,0.004699228,4.4972753e-06
0.004979192,0.03159746,1.4396522,0.5504943,21.404917
4.1002477e-06,0.11126568,0.3143421,3.1738617,0.76096326
2.024239e-05,0.18131173,8.609886,2.5096734,5.1618e-07
0.0014874724,2.1619928,0.021340353,2.012795,0.052110843
0.000119686854,0.10658208,0.022497784,0.22092775,0.05992231
2.4112057e-06,0.0013188384,9.771831,0.27209413,1.0388459e-06
5.825735e-06,2.4601172e-07,4.1443567,2.407716,0.0021221386
2.2555255e-06,0.0010924952,1.3027085,2.8401017,0.1844743
0.013009878,0.017846068,0.01749551,0.031163026,0.045644928
2.5013269e-05,0.003774362,0.00022645731,1.3374251e-06,2.298538e-06
0.055085015,0.0010083038,5.2362367e-07,0.2970191,0.032990545
0.017694397,0.058874685,0.0017336856,1.9015201e-06,0.08925367
6.266068e-08,0.3982768,0.5272312,0.0025690251,0.3379164
3.998229e-07,0.019517891,1.4560401e-06,1.3615918e-05,1.6596961e-06
1.0365185e-07,1.0749376e-06,1.6870243e-06,0.0053555234,9.2888035e-07
8.1754206e-07,8.948505e-07,1.5808564e-06,2.6332193e-06,1.200199e-06
7.0941417e-07,3.7571598e-07,7.4704817e-06,1.3891581e-07,8.918409e-07
4.7606198e-07,5.3150575e-07,4.679153e-06,2.3634234e-07,9.940419e-07
1.5521104e-08,7.34201e-07,1.0321543e-06,4.914807e-07,7.3296565e-07
9.954233e-07,4.979057e-07,1.4985251e-06,2.689966e-07,3.0129666e-08
1.5556896e-07,5.48615e-07,2.1061575e-07,9.300525e-08,2.6408983e-07
1.3662057e-07,5.6109735e-07,6.749937e-07,1.2301126e-07,1.0085945e-06
3.5358935e-06,9.981893e-07,5.7915315e-07,1.0659684e-07,2.9603893e-07
2.79616e-07,2.0873517e-07,2.6593557e-07,8.192814e-08,2.3401763e-07
1.3866766e-05,1.8884298e-07,1.1580846e-07,2.1876122e-07,1.365696e-06
6.00312e-06,5.013941e-07,3.98275e-07,2.550166e-07,1.8143777e-06
2.1304656e-07,7.776957e-07,3.7233184e-07,2.5983772e-07,3.3503576e-07
2.56925e-07,2.2216047e-07,5.4839308e-08,8.0637585e-07,1.8283465e-07
1.4721711e-06,1.076951e-06,4.0775976e-07,6.80968e-07,4.1465972e-07
2.1768735e-06,9.592135e-07,4.2274164e-07,3.270537e-07,5.115065e-07
6.397951e-07,1.2076389e-07,1.7909559e-06,1.8068012e-06,1.7783916e-06
2.5061863e-07,5.4900173e-08,1.0547949e-06,5.23112e-07,7.914218e-07
1.5951059e-07,1.3221088e-06,7.479095e-07,2.269373e-06,4.3686134e-07
2.6652026e-06,1.9378412e-07,0.00044861436,7.4278944e-07,2.9220764e-06
7.839757e-07,1.7107543e-06,2.4007247e-06,3.024302e-06,0.00020316936
0.0015171352,2.4265948e-06,0.0028540425,0.00036994406,1.2421447e-06
2.7170702e-06,6.439145e-07,3.2124794e-05,6.591063e-06,1.6192281e-06
1.5881651e-06,4.4711294e-07,9.0593073e-07,7.0987587,1.1917108e-06
4.0731985e-07,6.772682e-07,0.09925683,0.064414136,7.9625545e-07
0.0013426266,1.2055885e-06,1.234621,0.014859137,3.8548797e-07
1.4228337e-07,5.7026244e-07,2.9185489e-05,0.027717585,7.583196e-05
2.3791964e-07,3.055292e-06,1.434045e-05,1.3441922e-06,3.3388744e-06
1.2677771e-06,1.5025752e-06,4.9500766e-08,4.4989676e-07,1.5227846e-06
1.326602e-06,6.018614e-07,6.4241062e-06,7.9400046e-08,3.651538e-07
0.00018291255,2.4689012e-07,2.071379e-07,1.1352432e-06,3.4502753e-07
6.5250165e-06,0.00036045763,5.291569e-07,8.5881425e-07,3.285582e-07
2.3956589e-05,9.119894e-07,7.6759324e-07,4.875379e-06,2.0565622e-06
8.403343e-07,3.0607805e-06,1.7683043e-07,3.1256237e-05,2.4763167e-06
9.526e-06,1.11513855e-05,3.0556886e-05,7.100536e-06,7.906427e-08
8.032818e-05,6.3016824e-07,9.4537467e-07,1.0377903e-06,8.64025e-07
0.00016245853,1.2020466e-06,7.500025e-07,0.0028523607,1.8402224e-06
0.00037712106,6.5121617e-07,2.410787e-06,8.038969e-07,0.03187503
6.7481747e-06,0.020185374,1.9478772e-07,0.03688189,0.0033813845
2.4567276e-05,2.040222e-06,0.033522572,0.036349937,1.835128e-06
0.025656179,2.8222303e-06,0.005323926,0.18584256,1.4028473e-06
0.014856385,5.066012e-06,0.07058729,1.5557883e-06,4.311066e-07
0.016281271,3.9923098e-06,1.6878233e-06,1.8194974e-06,5.827407e-07
0.07762674,1.8009043e-05,3.3426006e-06,1.1667655e-05,2.6657796e-07
0.25865838,3.96401e-08,0.10208869,7.444824e-07,6.544066e-07
2.4081564e-06,6.6187117e-10,5.2467443e-05,8.0732525e-07,6.931942e-07
1.4944004e-06,1.1033925e-08,1.1567876e-05,9.245703e-07,1.3284022e-06
1.2643336e-06,0.0,1.2231428e-06,1.3128017e-06,2.4017717e-07
3.2930734e-06,2.239268e-08,1.7269907e-07,5.757514e-07,1.0470801e-09
1.0833829e-06,8.700476e-10,6.112398e-07,2.1158382e-06,0.0
2.2033328e-06,1.5158893e-06,2.166667e-06,2.227081e-07,4.59766e-08
7.422767e-07,1.1016091e-06,1.1860561e-06,1.6748446e-06,5.73324e-07
8.05351e-07,4.7856684e-06,9.2376905e-07,6.1575186e-08,1.0105268e-06
2.973813e-07,7.528768e-06,1.8794668e-06,3.4946177e-07,7.675405e-07
1.5424945e-06,3.898894e-06,1.1198471e-06,6.903035e-06,3.245818e-06
5.7755506e-07,5.787913e-06,2.7036327e-07,1.2071078e-07,7.1299513e-07
1.0788431e-06,5.963324e-07,1.2259892e-07,6.381784e-10,1.6544186e-08
8.367988e-08,4.5077073e-08,1.422547e-07,0.0,2.5891957e-08
4.656747e-08,1.6617346e-08,2.5431438e-08,8.838348e-07,6.9687336e-09
1.06132404e-07,5.35717e-07,9.020032e-07,8.6807694e-07,1.3888138e-07
2.2646575e-06,7.9449313e-07,7.73232e-07,3.422554e-08,5.0381425e-07
0.007934656,4.725709e-07,6.914549e-08,2.3477227e-07,7.3999786e-07
0.0032268327,6.814185e-07,9.028964e-08,1.3552686e-06,2.053501e-07
7.640417e-06,4.39261e-06,4.385381e-07,2.7457352e-07,5.3409863e-08
1.7704862e-07,4.2254808e-08,5.296092e-07,2.5416355e-07,3.9637035e-07
9.663182e-07,1.7580666e-07,7.0462643e-06,2.3023576e-06,1.5491476e-06
1.6837397e-06,6.29156e-06,0.0035191367,3.135902e-07,1.2086947e-06
5.598891e-07,3.5867422e-06,2.9771334e-06,2.779035e-06,3.3873187e-07
1.7624323e-07,4.1908086e-05,2.1245005e-06,2.758397e-06,1.0094482e-06
1.0539104e-06,0.000220373,1.8370967e-05,2.0660137e-07,1.2976257e-06
5.496022e-07,1.3996278e-06,3.232463e-06,5.7756586e-07,2.9766513e-06
8.8793036e-07,8.0318284e-07,1.8778281e-06,1.7932723e-06,4.4403265e-07
8.99975e-07,3.7309276e-06,4.791847e-07,1.3208677e-06,9.896528e-08
2.0634852e-06,0.006174724,4.902827e-10,3.713016e-06,2.0810255e-06
1.4297788e-06,0.00044882615,0.0,9.705972e-07,3.420759e-05
6.825547e-07,1.9051207e-07,0.0,0.0,0.00015534835
1.914745e-06,4.1626304e-06,0.0,0.0,0.05458405
1.4598957e-06,9.626523e-05,0.0,0.0,3.572009e-07
0.00024299594,0.08754622,3.3295584e-07,1.7582735e-05,0.023186186
4.0962877e-05,0.13117035,2.1719786e-06,0.098512374,0.1480373
8.341768e-07,0.068790995,1.1684946,0.6752279,0.09765469
2.1657363e-05,0.063272744,1.8078871,0.58104354,0.07556573
5.2726127e-06,0.095344715,1.3400477e-05,0.0005135618,0.06880005
0.0060106106,0.087744996,0.7350329,0.3733021,0.061873257
0.045832995,0.024369033,0.057656027,0.10065254,0.115951866
0.121938854,0.021070369,0.042946737,0.15834916,4.0265718
0.01951599,0.012470762,0.023982812,0.0150085315,3.4777632
0.010716564,0.003094978,0.049925845,0.012411418,0.008570087
0.01341813,0.0002455775,0.030982526,0.02132853,0.007927935
0.008172073,9.081785e-05,0.016954212,0.0028482412,0.5915159
0.006935514,0.0020153876,0.0074679065,2.253604e-06,1.9796458
0.006547028,0.008145266,5.2928744e-06,1.1747017e-06,0.2571737
1.170821e-05,0.03446966,1.4208895e-06,8.042989e-07,0.1064821
0.1165051,0.015560476,6.479671e-07,5.331176e-07,3.539545e-06
9.336975e-06,0.00062994455,7.039257e-08,2.7800345e-06,1.7439708e-06
2.0800858e-06,1.0734701e-05,1.10086674e-07,3.156847e-06,7.051414e-06
4.172609,5.2163396e-06,2.4401332e-05,8.949989e-07,0.014625477
0.41720706,1.759941e-06,0.00033474795,2.9688547e-06,0.0061365557
2.2219442e-06,2.2494398e-06,2.8283305e-06,5.709599e-07,8.392767e-06
4.009534e-06,4.7911253e-06,3.2855635e-06,1.5586854e-06,3.4901466e-06
1.2225547e-05,3.3311364e-06,1.3786995e-06,1.1524038e-07,1.1954144e-05
2.6571568e-05,4.103613e-06,2.531386e-05,2.5974757e-07,0.004362304
0.00013018872,6.514049e-06,1.6445161e-05,6.0796907e-07,6.1612177e-06
0.00014828809,1.9452075e-06,1.226105e-07,3.9843967e-06,1.2101332e-06
3.1423838e-06,7.5295264e-07,0.0019013905,0.01313433,0.17745933
3.8251733e-06,2.8372537e-07,2.6399752e-07,0.012494716,0.02031012
0.001846796,2.1907908e-06,0.02555801,0.0035412735,3.551139e-08
0.010412801,3.5888536e-06,0.021255143,0.089673035,1.9457467e-08
0.0988116,2.31535e-06,0.050840203,0.18079284,1.270411e-06
0.036507774,1.4559564e-06,0.20281647,0.14276351,1.4120624e-06
0.0024057827,1.2853318e-06,0.18798783,0.14790304,1.905539e-06
0.011893944,1.1065038e-06,0.027836766,0.06841862,2.4619829e-05
1.8465147e-06,2.1787025e-06,0.0007686568,0.01234562,8.305279e-07
1.1386263e-06,1.3720828e-06,2.8140075e-06,1.3745336e-06,1.4213458e-06
1.040829e-06,3.0520758e-07,1.9808438e-06,1.4797033e-06,1.8480571e-07
1.5695182e-06,1.2469848e-06,1.9566776e-06,1.6030388e-06,4.5972806e-07
3.1485536e-06,8.5589113e-07,2.342217e-05,8.000249e-07,1.7553145e-07
8.244077e-07,6.44101e-07,3.8108064e-06,2.8892168e-06,2.0560185e-06
6.478516e-07,1.0739342e-07,1.8918661e-06,7.994042e-08,1.765735e-06
1.5374911e-06,1.102147e-06,2.383448e-06,2.3185686e-07,6.36346e-07
1.6424518e-06,0.0,3.417817e-07,9.498636e-07,1.3065347e-06
1.413862e-06,0.0,6.7711613e-07,6.14777e-07,1.7979947e-07
3.6768031e-07,3.4034446e-08,1.1050001e-06,1.5999127e-07,1.1398788e-06
2.528701e-07,1.0589037e-10,4.844102e-07,1.974202e-07,7.2699254e-07
4.379832e-07,1.184168e-07,2.2939405e-07,1.2398687e-05,2.3336843e-07
1.3584893e-06,1.9015555e-07,5.5197547e-06,1.768155e-08,7.035742e-07
1.1410391e-06,1.3640936e-06,6.1337965e-07,1.2112302e-07,1.7880733e-07
2.1199826e-06,3.946457e-07,2.3431826e-06,8.622189e-07,3.956403e-07
