"[299, 255]","[227, 248]","[287, 319]","[279, 328]","[230, 262]"
11.840235,15.715967,13.071436,10.910791,14.761866
11.657618,15.70083,12.924707,10.858057,14.839502
11.413477,15.685694,11.217676,10.782373,14.825586
11.3675785,15.618799,11.049707,10.732813,14.782862
11.570215,15.662256,10.82168,10.617334,14.694727
11.889063,15.665918,10.673731,10.453516,14.250635
11.755762,15.577295,10.63003,10.17251,14.187159
11.840723,15.55752,10.521631,9.8363285,11.734278
11.781641,15.593897,10.391993,9.167871,11.429102
11.644434,15.23208,10.426172,9.239405,11.396875
11.8363285,13.0394535,10.010157,9.461817,11.457422
12.110498,12.876123,9.998194,9.765528,10.932276
12.17251,12.535303,9.730371,9.948633,10.403467
12.208887,11.93252,9.6332035,9.823877,10.212549
12.327784,12.076563,9.621485,9.352686,10.589746
12.588282,12.183985,9.51626,8.979883,10.378565
12.775049,12.224756,9.169825,8.59585,10.6158695
11.577295,12.265528,9.047754,8.224756,10.976709
9.691553,12.496973,8.821192,7.8492675,11.107569
9.521143,12.551172,8.310205,7.5990233,11.164942
9.521875,12.39126,8.400293,7.3802733,11.3849125
9.376123,12.57876,8.221827,7.3907714,11.287012
8.926661,12.356836,8.296045,7.386621,11.2096195
8.680567,12.146143,6.958154,7.8148437,11.249903
8.351465,12.098047,7.292871,7.3912597,11.3536625
8.032373,12.024561,6.605371,6.853662,11.261377
7.877588,11.822901,6.2662597,6.779199,11.194483
7.988672,11.971582,5.976709,7.0523925,10.996973
8.080957,12.038477,5.9637694,6.803613,11.014795
8.06875,11.842432,7.044336,7.046533,10.85586
7.96792,12.020899,6.7330565,7.2245116,10.74917
7.922998,11.5917,7.1063476,7.6319823,10.586817
7.704736,11.346338,6.8045897,7.6788573,10.896143
7.542871,11.268457,8.023584,7.924463,10.814356
7.8045897,11.368067,8.656397,8.165186,10.777002
7.709131,11.890284,8.935694,8.472071,10.920557
7.3177733,12.0021,8.796534,8.8832035,11.049463
7.2586913,12.083399,8.916651,8.671778,11.158838
7.254541,12.183496,8.464014,8.01211,10.6896
7.110986,12.064356,7.861963,7.3702636,10.538965
6.9461913,11.91543,7.313623,6.931787,10.075342
6.8927245,11.921534,7.3233886,6.6319823,10.329493
6.6166015,11.756739,6.764795,6.3910155,10.353418
6.3558593,11.697168,6.8351073,6.0228515,9.146143
6.2972655,11.380274,6.536279,5.83999,9.146143
6.2748046,11.2738285,6.4896483,5.740869,9.035547
6.3426757,11.145899,5.988672,5.282617,9.015039
6.233545,10.608789,5.7210937,5.543115,8.90835
6.0228515,10.717676,5.532861,4.4879394,8.673975
5.754785,10.624903,5.183252,4.504297,8.770411
5.7328124,10.597559,4.2889647,4.711328,8.559717
5.48916,10.545557,4.4620605,4.7210937,8.712549
5.21792,10.298731,4.509912,4.454736,8.63418
4.600244,10.3067875,4.1910644,4.564111,8.32168
4.6083007,10.083399,4.306543,3.999414,8.102442
4.3807616,9.558008,4.2225585,4.0924315,8.316553
4.195703,9.707666,4.1075683,4.044336,8.330957
4.7188964,9.6627445,4.766992,4.403711,8.848291
5.3839355,9.875635,5.315088,4.997949,9.167383
5.971826,9.867823,6.275781,5.3370605,9.437647
6.478662,9.421534,6.831201,5.807031,9.334864
6.666162,10.482325,6.8524413,6.1305175,9.104639
6.3143554,9.993799,6.5631347,6.175195,8.973536
5.6842284,10.268213,5.549707,5.626367,8.253321
5.8263183,10.410791,5.3351073,5.311914,7.9066405
5.3438964,10.330469,4.957422,5.034082,7.8248534
4.856836,10.082911,4.3280272,4.708154,7.6671386
5.076074,9.526026,4.535547,4.228906,7.3526855
4.5265136,9.372461,4.1197753,3.7464843,7.451074
3.926416,8.945215,3.7833495,3.650537,7.613672
3.4100585,8.845362,3.509912,3.3336425,7.1510253
2.9859862,8.772364,3.3426757,2.9181151,6.596582
2.7137694,8.377832,3.0624022,2.579248,4.924951
2.4728026,8.38711,2.6446776,2.2523437,5.3089843
2.278955,8.530176,2.3736815,2.2105956,5.150293
2.1656737,9.17959,2.423242,2.3851562,6.3236327
2.003076,8.758936,2.737451,2.5995116,6.562158
1.4449707,9.167383,2.9129882,2.6393065,6.7796874
1.1700684,9.350733,2.7848144,2.626123,6.933496
0.94619143,9.20083,2.6327147,2.7674804,6.747949
1.160791,9.22378,2.664209,2.7491698,6.790918
2.2708983,9.186426,3.204492,3.2115722,7.0765624
3.3863769,8.983789,4.006494,3.911035,7.5177245
3.6183105,9.576563,4.7520995,4.4913573,8.071436
4.2464843,9.815332,5.3316894,4.83999,8.189844
4.508203,9.736231,5.36416,5.074365,8.1542
4.468408,9.729639,5.0868163,5.0626464,7.890039
3.7479491,9.783106,4.517236,4.673486,7.2416015
3.047998,9.786036,3.940332,4.4500976,6.9986815
2.8280272,9.641748,3.8668456,3.6751952,7.647119
2.7284179,9.565088,2.9950194,3.2367187,6.7989745
2.9410644,9.226709,2.5069823,2.9320312,5.796289
2.8453612,9.556299,2.2162108,2.659326,5.721582
2.615625,9.230371,1.994043,2.5804687,5.0211425
2.1993651,9.291651,1.8045899,2.4098144,4.287988
2.0963378,8.9283695,1.7276856,1.9762207,4.0057616
2.0943847,8.802393,1.3849121,1.8434082,4.22207
2.0953612,8.984034,0.07070313,2.374414,4.240869
2.0206542,8.83877,-0.16269532,2.2723632,3.7379394
2.1820312,9.01333,0.29067382,1.4549805,4.0606933
1.809961,8.876856,-0.56259763,1.5941406,3.8355956
1.9178711,9.066065,-0.3074707,1.3866211,3.534326
1.9476563,8.656153,-0.47495118,0.88491213,3.1708007
2.2271972,8.282618,-0.41391602,0.9513184,3.445459
2.4642577,8.289209,-0.60410154,1.2330567,3.3724608
3.3768554,8.4005375,1.3504883,1.8658692,4.6983886
4.3458495,8.341944,2.4937987,2.9173827,5.5609374
5.174951,8.6471195,3.0118651,3.6195312,5.629785
5.671289,8.96377,3.57583,4.141504,6.751367
5.6231933,9.1036625,4.0174804,4.193994,7.241113
5.216211,9.177149,3.7450194,3.5414062,6.718164
3.3458495,8.743067,3.3133788,1.962793,5.1856933
2.6183105,8.171778,3.2767577,1.5948731,4.242578
2.6898437,8.523096,2.9962401,1.591211,4.3751464
2.7179198,8.244776,2.4376464,1.5907227,4.256738
2.6048827,8.305323,2.3551269,1.207666,4.403711
2.2870116,8.285547,2.3739257,0.6078125,4.4608397
2.2159667,8.114161,2.0521483,0.8355957,3.7323241
2.115869,7.963037,1.8102051,0.37490234,3.254785
1.9796387,7.9674315,1.9769531,0.6976563,3.1007323
2.004785,7.7623534,1.9312989,0.64223635,3.6773925
1.9144531,7.642236,1.9435059,0.6351563,4.124414
1.6705567,7.551904,2.0194335,0.21035156,3.6319823
1.3163086,7.43374,1.9928223,0.33730468,3.2745605
1.3617188,7.557031,1.9530274,0.25185546,4.1927733
1.3189942,7.5230956,1.9828125,-0.57651365,4.8163085
0.9476563,7.6268554,1.8980957,-0.58505857,4.9710937
1.3214356,7.756738,1.862207,-0.6736816,5.070459
1.5555664,7.8385253,2.0760741,-0.6214355,5.3563476
2.141748,7.9361815,2.6197753,0.8175293,5.5545897
2.5692382,7.957666,3.7020507,1.9459473,5.7801757
2.9444823,8.179834,4.7955565,3.084619,6.1043944
3.7105956,8.23208,5.268945,3.4000487,6.274072
3.6266112,8.061182,5.1795897,3.9154296,6.329492
3.1371093,7.801416,4.704736,3.4225097,6.2813964
2.8395019,7.749658,3.7489257,2.363916,6.2032714
3.129541,7.974756,3.0333495,2.817285,6.412256
3.6305175,7.9762206,2.6788573,2.8253417,6.522363
3.8390136,7.9322753,2.7491698,2.8321776,6.8575683
4.004541,7.8353515,2.5138183,2.8331542,6.907373
4.0958495,8.024317,2.370996,2.5409179,6.7520995
4.0313964,8.11709,2.484033,2.346582,6.716455
4.1026855,8.132227,2.780664,2.3458495,6.672998
3.9896483,8.093653,2.3180175,2.112451,6.785791
4.1239257,8.150049,1.5455567,2.980371,6.752832
4.003076,8.0411625,0.51064456,1.3907715,6.9254394
3.9876952,8.146387,1.4295899,0.05288086,7.0418944
4.020654,8.128809,2.1456542,0.6234375,6.5868163
3.9862304,8.106104,1.4059082,1.0909668,6.662988
3.9015136,8.1542,0.70302737,0.6917969,6.3617187
3.8548827,8.107325,0.9015137,1.3749024,6.0560546
3.7906737,8.032129,1.1869141,1.796045,6.136865
3.6805663,7.987451,0.7235352,2.054834,6.282861
4.067529,7.929834,2.1270995,2.6056151,6.5885253
4.546045,8.0375,3.787744,3.4601073,7.0890136
4.8890624,8.338282,4.6581054,4.088037,7.524072
5.140039,8.675196,5.352197,4.5450683,7.8163085
5.1219726,8.917139,5.5365233,4.775781,7.879785
4.832422,8.995508,4.6410155,4.176416,7.8392577
4.171289,8.914942,3.2855468,3.109033,7.4237304
3.799951,8.720362,2.7323241,2.641992,7.124658
3.735498,8.49209,2.766992,1.9149414,7.153711
3.5858397,8.500635,2.612451,1.171045,7.0125976
3.6466308,8.427637,2.6185546,1.0587403,6.858789
3.6502929,8.292139,2.693994,1.2269531,6.9117675
3.5797362,8.437647,2.4010253,0.7638184,6.8436522
3.4918456,8.386621,1.8529297,-0.1463379,6.7420897
3.442041,8.380274,1.2650391,0.5462891,6.521875
3.3893065,8.449121,0.043115236,0.27041015,6.7447753
3.3895507,8.466211,0.23916015,-0.89975584,6.806543
3.469873,8.374659,0.13051757,-1.117041,6.87124
3.4483886,8.339502,-0.16635743,0.27358398,6.8819823
3.4171386,8.193262,-1.4773926,0.9500977,6.876611
3.3990722,8.161768,-1.7171386,0.6273438,6.8124022
3.3563476,8.1271,-1.148291,-0.38242188,6.831201
3.2674804,8.125879,0.33828124,-0.6863769,6.7291503
3.3409667,8.030909,0.89516604,0.39174804,6.615869
3.4813476,7.8856444,1.8106934,2.1708007,6.5086913
3.396875,7.4049315,3.2440429,3.4979491,5.8299804
3.1283202,7.290918,4.357324,4.4395995,5.534082
3.0301757,7.0682616,5.192529,5.064111,5.5978026
2.9591308,6.8561034,5.3214355,4.9449706,5.261865
2.9000487,6.787744,5.100244,4.812158,5.429834
2.8529296,6.755029,4.655908,4.362207,5.549707
2.6883788,6.875879,5.086572,4.2853026,5.5763183
2.6473632,6.992334,4.733545,4.6129394,5.7052245
2.6900878,7.056787,4.836328,4.367822,5.8202147
2.7909179,7.214502,4.43667,4.516748,5.884668
3.046533,7.3353515,4.1217284,4.53457,5.872461
2.824121,7.3280272,4.3265624,4.2171874,6.18667
3.245996,7.422754,4.4452147,4.1480956,6.3304687
3.2325683,7.852197,4.4618163,3.7865233,6.688867
3.339746,7.772363,4.0702147,3.548242,6.514795
3.4510741,8.146387,3.8438964,3.39541,6.711572
3.4522948,8.434717,3.0526366,3.1832519,7.0821776
3.5475097,8.649561,3.7486815,2.8680663,7.2811522
3.5755858,8.684961,3.2491698,2.6021972,7.3385253
3.6632323,8.558252,2.7657714,1.8038574,7.4498534
3.6629882,8.599024,1.8961426,1.8578125,7.157861
3.555078,8.425684,1.0265137,1.6058594,7.03457
3.270166,8.254297,0.34389648,1.5750977,6.9466796
3.5277343,8.363428,1.0038086,1.4500977,7.120752
4.1339355,8.596338,2.1659179,2.332666,7.3263183
4.306787,8.667383,3.2628417,3.2074218,7.556787
4.740625,8.720606,3.929834,3.8463378,7.791162
4.759668,8.810938,4.402246,4.176172,7.7484374
4.3106933,8.932764,3.7630858,3.7943358,7.506006
3.5528808,9.059717,2.8756347,2.6234374,7.192529
2.9535155,8.921289,2.4044433,2.060205,6.803613
2.9935546,8.583887,1.679834,1.450586,6.9723144
2.9554687,8.495508,1.1603028,1.2726074,6.8182616
2.608789,8.412012,-0.011816407,0.91079104,6.443994
2.4029784,8.339746,-0.6644043,0.62709963,6.421045
2.35,8.096338,-0.7337402,0.2628418,6.220117
2.0995116,7.9691405,-0.6238769,-0.038916014,6.1236815
1.9105469,7.772363,-0.771582,-0.20932618,5.9381347
1.7364746,7.589502,-1.2469238,-0.38925782,5.7813964
1.3841797,7.4637694,-0.95151365,-0.5809082,5.64541
1.254541,7.3612304,-1.0635742,-0.86191404,5.5909667
1.245752,7.3714843,-1.4932617,-0.9742187,5.5631347
0.9464356,7.235254,-1.7017578,-1.0635742,5.2955565
1.0487305,7.181787,-1.9046386,-1.3628906,4.8094726
0.8932129,7.2413573,-2.2251954,-1.4,4.789697
0.97402346,7.414697,-2.1890626,-1.3006347,4.91958
0.8226563,7.424463,-1.990332,-1.5096191,5.001367
1.5587403,7.5765624,-1.6172851,-1.1553711,5.5560546
2.490625,7.4342284,-0.5918945,-0.21396485,6.256006
3.1947265,7.877588,0.44936523,0.6563965,6.591455
3.4981933,8.184229,1.1161133,1.06875,6.657373
3.520166,8.159815,1.3087403,1.1524903,6.5492187
3.0316405,8.062403,0.5804688,0.64589846,6.131006
1.684961,7.9068847,-0.57041013,-0.021582032,5.244287
0.6107422,7.770166,-1.457373,-0.09726562,4.584375
0.069726564,7.6063476,-1.578955,-0.36606446,4.6773925
-0.3938965,7.601709,-1.6133789,-0.6092285,4.822412
-0.7112793,7.429834,-2.1426759,-0.3465332,4.172998
-1.0044922,7.5208983,-1.872168,-0.012304688,3.3856444
-1.4095215,7.3683105,-1.9615234,-0.090429686,2.3167968
-1.5225586,7.4740233,-2.0975099,0.21938476,2.9669433
-1.4361328,7.458154,-1.8750976,0.1505371,4.0938964
-1.106543,7.858545,-1.2493652,0.2274414,4.5702147
-0.88535154,8.217676,-0.9993652,0.23842773,4.1527343
-0.62290037,7.668115,-1.2408203,-0.12583008,4.291162
-0.339209,8.488916,-1.7881836,-0.55722654,6.173486
-0.31870118,9.282129,-1.6585449,-0.7925781,5.718408
-0.5018066,8.475489,-1.6199707,-0.77426755,6.1493163
-1.8997558,8.633448,-1.9930176,-0.9192871,6.2906737
-2.6646485,8.427881,-2.061377,-1.1109375,5.329736
-2.4070802,7.928369,-2.2728028,-1.1148437,5.322168
-1.0572265,7.880029,-1.5992187,-0.7325195,5.6078124
-0.35410157,7.954492,-0.64194334,-0.08945312,6.1737304
0.1546875,8.216944,0.22817382,0.6400391,6.7066894
0.46132812,8.354395,0.9459473,1.0829102,6.71792
0.7044922,8.202295,0.96499026,1.211084,6.724756
0.6039063,8.206934,0.2965332,0.7550293,6.315332
-0.7786621,8.166651,-0.70566404,-0.070898436,5.2711425
-1.6333984,7.903955,-1.5425781,-0.52304685,4.148828
-1.5918945,7.524072,-1.9395508,-0.76523435,4.1881347
-1.8582519,7.551172,-2.3348145,-0.92319334,4.2030272
-2.2051759,7.6708007,-2.5499024,-1.2981933,4.0665526
-2.3086915,7.596826,-3.3750978,-1.6285156,3.5353026
-2.0916505,7.4688964,-3.9732423,-2.3682618,2.7188964
-1.832373,7.209131,-3.6199708,-2.6927247,1.3780762
-2.219092,6.961328,-4.1126466,-2.5743165,1.190332
-2.1180177,6.9137206,-4.341162,-2.307715,1.554834
-1.9458984,7.5472655,-3.7769532,-2.5259767,1.0172364
-2.0259767,7.7293944,-4.0166993,-3.117041,1.8980957
-1.9256347,7.740625,-3.8028321,-2.7361817,2.4586425
-1.690039,8.190821,-3.7220216,-3.1736817,3.1068358
-1.676123,8.4596195,-4.129004,-2.828467,1.4781739
-1.9615234,7.807031,-4.1558595,-2.636084,1.6605469
-2.1312013,7.339746,-4.257422,-2.3958497,2.174951
-1.7835449,7.8912597,-3.3396974,-2.2144532,2.1178222
-0.8526367,7.737451,-2.092383,-1.5469726,2.8038573
0.02578125,8.106836,-0.8624023,-0.8003906,3.6563964
0.6810547,8.518213,-0.06552734,0.019677734,5.1517577
1.127832,8.688623,0.6527344,0.7354981,5.9583983
1.0682617,8.502344,1.0064942,1.0160156,6.437158
0.7069336,8.528467,0.58803713,0.80751956,6.055078
-1.1802734,8.506739,0.0987793,0.57436526,5.430078
-2.2083497,8.582178,0.488916,0.59584963,4.4061522
-1.9998535,8.457422,0.5152832,0.6090332,4.231836
-1.3304199,8.724512,0.64467776,0.72280276,4.9205565
-0.98349607,8.643946,0.4803711,0.8451172,5.3617187
0.32265624,8.593409,0.5179688,0.56582034,5.751367
0.8402344,8.741602,0.8172852,0.6197754,5.2655272
1.3602539,8.645655,0.67348635,0.4198242,5.120996
0.8822266,8.332178,0.85317385,0.48208007,5.2628417
1.1705567,8.635645,1.2533203,0.40371093,4.999414
1.4845215,8.7894535,1.2650391,0.5870606,5.213037
1.2496582,8.758692,1.0804688,0.586084,5.325586
1.3263184,8.940332,1.0089356,0.9146973,5.756494
1.1532227,9.079493,1.1029297,1.1490723,6.077539
1.164209,9.004541,1.3124024,1.3836914,6.470117
1.0978028,8.839746,1.4120117,1.341211,6.556787
1.3629395,9.034082,1.2435547,1.3802735,6.583154
1.4786621,8.779444,1.4164063,1.6036621,6.7472167
1.5396973,9.174219,1.9757324,1.8595215,6.7296386
2.402246,9.457666,2.522119,2.4530272,6.8668456
3.1874022,9.417627,2.8717284,2.9103026,7.2569823
3.6625,9.302393,3.1222167,3.126123,7.6041503
3.667871,9.309717,3.362207,3.6275878,7.4469237
3.1043944,9.148584,2.632959,3.7298827,6.825586
2.0592284,9.03042,2.5956054,3.5284667,5.572412
1.481836,9.051661,2.0802245,3.655908,4.7694335
1.3028809,8.665186,1.6517578,3.3353515,4.238916
0.91738284,8.497217,1.5318848,3.6581054,3.6915526
0.75332034,8.097071,1.9713379,3.8131347,3.2787108
0.7181641,7.635156,1.0768067,3.148584,3.1170897
0.72988284,7.5711913,0.7193848,2.2672362,3.0895019
0.44716796,7.789209,0.09462891,1.6004883,3.1446776
0.711084,8.025049,0.5145508,1.1507813,3.5108886
1.0008789,8.3146,0.43251953,1.0094239,4.0697265
1.0116211,8.533838,0.3680664,0.8917481,3.9063964
1.1480957,8.176661,0.14443359,0.5211426,4.008203
1.471582,8.050928,0.2262207,0.07973633,4.5926757
1.7435547,8.026026,-0.0340332,-0.18393555,4.626123
2.0616698,7.963281,-0.018896485,0.045800783,4.4276366
2.190576,7.395166,0.25063476,0.23305663,4.249658
2.214746,7.10708,0.61928713,0.36953124,4.7381835
2.1339355,7.4149413,0.7418457,0.44106445,4.591699
2.3436522,7.1009765,1.367334,0.90957034,5.110498
2.7208495,7.28042,2.2413573,1.6417481,5.768457
3.0641112,6.9981933,3.1153808,2.5729003,6.579004
3.0699706,6.7333007,3.4652343,3.2733397,6.6861815
2.8751464,6.756738,3.218408,3.4852538,6.327295
2.6041503,6.760156,2.4957519,3.0924315,5.975244
2.0379882,6.961084,1.4725586,2.2503905,5.293115
1.7806641,6.9139647,1.9188477,1.8712403,5.040918
1.5279785,6.8680663,2.1012206,1.6161133,4.0091796
1.3207031,7.0208983,1.9608399,1.1664063,3.7257323
1.0125977,7.2728515,1.8509766,0.74257815,2.657617
0.9718262,6.9154296,1.434961,0.21669921,1.9181153
0.92104495,6.6012206,0.67714846,0.049951173,2.3941894
0.757959,6.669824,-0.49716797,-0.0640625,1.8822266
0.97451174,6.845361,-1.7320312,0.15639648,3.2542968
1.152002,6.955713,-2.0948243,-0.040136717,3.1441894
1.278711,6.980127,-2.594336,-0.43051758,2.7821288
1.2687012,6.845361,-3.3538575,-1.0804199,3.1048827
1.0316406,6.7936034,-2.7405763,-2.0206056,3.6109862
1.1957031,6.8092284,-1.9766601,-1.9559082,3.83291
1.3719727,6.725,-2.1663575,-1.9205078,3.859033
1.5562989,6.83999,-3.0154786,-1.1543945,3.8382812
1.6830078,6.7645507,-1.6541504,-0.92807615,3.8180175
1.7533203,6.7870116,-1.0242676,-0.80478513,3.85708
2.3976073,6.673486,0.3019043,0.30532226,4.269922
3.074121,6.903955,1.3431641,1.1876465,4.791162
3.5899901,6.9652343,2.3863769,2.0416503,5.1549315
3.6793456,7.270654,2.6820312,2.5243163,5.425195
3.584375,7.708154,2.1334472,2.1302733,5.4742675
3.1603026,8.028467,0.83803713,0.7523438,5.3819823
2.6554198,7.987451,-1.2503418,-0.92441404,5.2083983
2.3707519,7.8006835,0.32924804,-0.75253904,5.098291
2.1478515,7.7848144,0.29873046,-0.31552735,5.082422
2.1307616,7.695459,0.43789062,-0.13925782,5.1270995
2.1756835,7.513574,0.24404296,0.9293457,5.2501464
2.3758788,7.414209,-0.5972656,1.3617188,5.315332
2.5172362,7.5104003,-2.0379395,1.0057617,5.3700194
2.6952147,7.4330077,-0.8814453,0.93129885,5.488672
2.897119,7.440332,0.6280762,0.88125,5.79458
3.0785155,7.304834,0.8761231,0.96865237,6.1151366
3.1676269,7.296289,0.79604495,1.2152344,6.287988
3.1688476,7.414209,2.3438964,2.016992,6.25625
3.3282714,7.282373,2.9100585,2.6039062,6.414209
3.3058105,7.520166,3.2635741,2.8324218,6.67666
3.3578124,7.584619,3.4007812,2.942285,6.658838
3.1822753,7.355127,2.883203,2.9381347,6.615869
3.3526855,7.34707,3.0189452,2.8614745,6.8844237
3.3175292,7.456201,3.23916,2.546533,7.0001464
3.5433593,7.6512694,3.707666,2.8629394,7.322412
3.902246,8.060694,4.2088866,3.315576,7.586328
4.614404,8.326807,4.4034667,3.7767577,7.693506
4.985498,8.331446,4.8214355,4.659326,7.8734374
5.0487304,8.738916,4.459863,4.594629,7.902246
4.9864745,8.970606,4.490869,4.3827147,8.035059
4.775293,9.254297,4.181543,4.0648437,7.9330077
4.4120116,9.362207,3.6971679,4.015039,7.877588
4.4793944,9.234278,4.1341796,4.098779,7.7223144
4.432031,9.07876,4.6568847,3.4850097,7.5492187
4.282617,9.1271,4.2796874,3.3766112,7.4654784
3.8182616,9.074121,4.5296874,3.6117187,7.587793
3.799951,8.927149,4.018213,3.6761718,7.716211
3.6393065,8.979151,3.9461913,3.5311522,7.5421386
3.830957,8.889551,4.1461425,3.5841308,7.469873
3.7047362,9.024805,4.0665526,3.6229491,7.386621
3.7923827,8.979151,4.039209,3.4730468,7.431543
3.5772948,9.042139,4.0089355,3.2623534,7.51333
3.60708,8.939112,3.6229491,3.2850585,7.554834
3.3263183,8.913233,2.9137206,3.4061522,7.296533
3.6524901,8.873438,3.1187987,2.6622558,7.0575194
3.4581542,8.763819,3.471582,3.2601562,6.862207
3.39541,8.49795,3.5780272,3.4898925,6.803613
3.0924315,8.342188,3.9898925,3.3521972,6.6463866
3.228662,8.445948,4.155908,3.5118651,6.931543
3.7828612,8.787989,4.0875487,4.0780272,7.502832
4.1583495,9.019434,4.8739257,4.3836913,7.853662
4.4828124,8.98794,5.1688476,4.80166,7.8097167
4.4312987,9.095118,4.872461,4.620996,7.801172
4.039209,8.911524,4.015283,3.8314452,7.4029784
3.1388183,8.769922,3.4571776,3.027246,6.973291
2.7000976,8.40542,2.272119,2.827539,6.393701
2.4911132,8.16958,1.6671387,2.4586425,6.3436522
1.577295,8.133448,1.4483887,2.1551757,6.546533
1.1546875,8.122461,2.190576,2.2308593,6.626611
0.72084963,8.052393,2.195703,1.6180664,5.8128905
0.25917968,7.671045,1.6810547,1.306543,5.7677245
0.5042969,7.6251464,1.4591309,1.1422364,5.863672
1.0484864,7.6827636,1.4603516,1.1622559,5.506494
0.65957034,7.4813476,1.3270508,0.6688477,4.6544433
0.63930666,7.306543,0.884668,0.285791,4.6720214
0.5387207,7.252588,0.45620117,-0.093847655,4.6844726
0.3885742,7.1219726,-0.0328125,-0.32773438,4.5282226
0.72817385,7.3248534,-0.4,-0.5030273,4.292871
0.83876956,7.6441894,-0.6878418,-0.59384763,3.546289
0.8890625,7.2750487,-0.7737793,-0.6067871,3.1891112
1.040918,6.9503417,-0.75742185,-0.7176269,3.292871
1.1942383,7.525537,-0.9651855,-0.5186523,3.6371093
1.6612793,7.641504,-0.6404785,-0.14121094,4.006006
3.2726073,7.028955,-0.12265625,0.41152343,5.3023925
4.4137206,7.1148925,0.39492187,1.150293,6.4723144
4.5421386,7.504541,0.82558596,1.4886719,6.905908
2.9366698,7.856836,1.1646973,1.3895508,6.813623
2.407617,7.977197,0.95961916,0.9525391,5.8392577
2.291162,7.924707,0.24941406,0.05629883,3.7081542
1.5506836,7.968164,-1.0691894,-0.3152832,2.254785
1.5291992,7.676416,-1.5728515,-0.4654297,2.600244
1.5179688,7.4708495,-1.3765625,-0.36777344,2.528955
1.5836426,7.2154784,-0.32797852,0.0072265626,2.1808105
1.6898438,7.228662,0.3043457,0.16542968,2.1031737
1.754541,7.1356444,0.7740723,0.37636718,2.4002929
1.7286621,7.284326,1.087793,0.62416995,2.6498046
1.7166992,7.150293,1.0951172,0.7640625,2.5921874
1.6593262,7.1759276,0.83217776,0.7132813,2.8521972
1.4583985,7.289453,0.70888674,0.48256835,3.0772948
1.2992188,7.382959,1.1063477,0.488916,3.546289
1.1292969,7.5035644,1.1078125,0.5685059,3.6637206
1.0428711,7.574121,0.7452637,0.6612793,3.9745116
1.1795899,7.628076,0.8192383,0.5067383,4.4295897
1.0216309,7.699121,0.8370606,0.6400391,4.5353026
0.6678711,7.5333495,0.88979495,0.7081543,4.4586425
0.7716309,7.407129,0.95888674,0.7511231,4.6065917
1.4962403,7.357324,1.3712403,1.181543,4.8336425
2.2948241,7.317285,2.3856444,1.8905274,5.0909667
2.8238769,7.3839355,3.3609862,2.7071776,5.247705
2.9791503,7.1847167,3.860742,3.3229003,4.976709
2.7318358,7.4015136,3.624414,3.3094726,5.0277343
2.1534667,7.8893065,3.2948241,3.141748,5.3231444
1.6834961,7.674707,3.0396972,2.8233886,4.784326
1.5975586,7.5128417,3.1515136,2.541162,4.4850097
1.6395508,7.556543,3.1004882,2.528955,4.8214355
1.7523438,7.5677733,3.0025878,2.659082,5.0858397
1.5931641,7.819238,2.7440429,2.2430663,5.192041
1.5946289,8.1471195,2.4654784,1.4791504,5.525293
1.520166,8.380762,2.0882812,1.4984375,5.8287597
1.0411621,8.47378,2.3038573,1.7074219,6.1964355
1.275293,8.510157,2.4864745,2.018457,6.442285
1.3265625,8.742823,2.4413085,2.1058593,6.438867
1.388086,8.755274,2.5252929,2.0580077,6.671045
1.4903809,8.973291,2.6300292,2.2220702,6.569238
1.6388184,8.878565,2.730371,2.4032226,6.4999022
1.8290039,9.1036625,2.8443847,2.528955,6.454492
2.0396972,9.307764,3.0123534,2.6688476,6.333154
2.3011718,9.151026,3.1405272,2.7931151,5.96499
2.4828124,9.070459,3.3124022,2.9125,5.9637694
2.648584,9.296045,3.5113769,2.9845214,6.6944823
2.971582,9.097803,3.9522948,3.431787,7.120752
3.4181151,9.212061,4.5711913,3.976709,7.691797
3.8878417,9.681299,5.126367,4.8495116,7.973291
4.122949,9.877344,6.125879,5.5521483,8.264063
4.1390624,10.090235,6.454736,5.5716796,8.676416
4.1986327,10.287989,6.159326,5.4378905,8.695948
4.2765136,10.434961,5.392236,5.084375,8.303125
4.211572,10.351465,4.171045,4.7152343,7.864404
4.0770507,10.160303,4.136865,4.4535155,7.9469237
3.8722167,9.966455,4.530664,3.9208007,7.923486
3.7662597,9.774805,4.614404,4.4359374,7.796533
3.5838866,9.817774,4.553613,4.766504,7.8319335
3.2069335,9.783594,4.939111,4.9937987,7.8807616
2.8421874,9.616114,4.9137206,4.950586,7.8355956
2.7091308,10.035303,4.5597167,4.7384276,7.995752
2.7228026,9.968164,4.9950194,4.5765624,8.341211
2.48916,9.80044,4.876123,4.546533,8.10586
2.2157226,9.844629,4.7711425,4.4833007,7.9833007
2.1751952,9.782618,4.6268554,4.4151855,8.204493
2.1073241,9.801661,4.799463,4.2921386,8.104395
2.178125,9.685938,4.6717772,4.213037,8.207422
2.2491698,9.714502,4.6671386,4.209131,7.853906
2.3290038,9.935938,4.8785644,4.2730956,7.8705077
2.370996,10.180567,5.049707,4.461572,8.073877
2.3148437,10.158106,5.3023925,4.6810546,8.075342
2.2972655,10.003077,5.883203,5.0936522,8.094629
2.4425292,9.90127,6.126611,5.345361,8.044336
2.447412,9.971827,5.987207,5.3805175,7.941797
2.5648437,10.011621,5.8426757,5.5052733,8.134668
2.749414,10.038233,5.872461,5.6007323,8.145655
2.8375487,10.1488285,5.8514647,5.4830565,8.181299
2.8192382,10.132715,5.938623,5.245996,8.082422
2.75625,10.015039,5.8094726,5.1253905,7.907617
2.6393065,9.722559,5.48916,5.1205077,7.7662597
2.5216308,9.457422,5.38125,5.180322,7.4344726
2.3539062,9.174707,5.18374,5.259668,7.277246
2.186914,9.160547,5.1256347,5.055078,7.386865
1.9005371,9.438379,4.6129394,4.735498,7.301172
1.6463867,9.416407,4.392236,4.1810546,7.034082
1.4303223,8.891504,4.1708007,3.7872558,7.0663085
1.2984864,8.899073,4.0575194,3.4659667,7.3514647
1.3043457,9.568262,4.030908,3.2437987,7.8680663
1.309961,10.264551,3.980371,3.3070312,7.751611
1.6246582,10.565577,3.784082,3.6427245,8.768213
1.9144531,10.708887,3.2274413,3.5770507,10.094385
2.4098144,11.376123,3.1520019,3.473535,10.30459
3.251123,12.04336,2.7904296,2.9928222,10.738916
4.047998,12.85293,2.812158,2.9305663,11.687159
4.6756835,13.84292,3.5035644,3.5333495,13.327539
5.615625,14.123438,4.5387206,4.244531,13.998682
6.8143554,14.224024,6.1949706,5.3038573,14.110498
8.288233,13.943506,7.891504,6.4981933,13.905909
10.050928,13.691797,8.694971,7.674463,13.686182
11.3675785,13.568262,8.933496,8.618311,13.565088
11.624659,13.5646,10.493067,9.08584,13.297998
11.366602,13.590235,10.532129,9.758936,13.144922
11.210352,13.6271,10.51333,10.743311,13.188623
11.217676,13.627344,11.299707,11.402491,13.204004
11.24502,13.628321,11.560205,11.573145,13.285547
11.298243,13.763086,11.657618,11.580225,12.729151
11.419336,12.864405,11.530909,11.38833,11.270899
10.928614,12.2755375,11.430567,11.260157,10.810938
9.677393,12.116358,10.930567,11.007471,10.599512
8.564844,12.019434,10.836817,10.8050785,10.527491
7.7933593,12.234278,9.736475,9.206934,10.844873
7.4967284,12.380274,8.390284,7.8126464,10.99209
7.6585937,12.293848,8.034327,7.7328124,10.657862
7.5663085,12.267237,8.128809,7.879541,10.601465
7.45083,12.204004,8.051661,7.7313476,10.785547
7.532617,12.209864,7.884668,7.616113,10.439844
7.5001464,12.149317,7.611963,7.377832,10.722803
7.6827636,11.998194,7.90249,7.5069823,10.651026
7.947656,12.020899,7.934961,7.660791,10.3033695
8.370508,12.173731,8.774317,8.596582,10.816797
8.576319,12.214258,9.488184,9.276758,11.549463
8.654444,12.2738285,9.787256,9.548243,11.712305
8.902246,12.479151,9.599268,9.423243,11.774805
9.090235,12.775782,9.544336,9.5082035,11.675196
9.194727,13.106592,10.129541,9.994043,11.798487
9.170069,13.251368,10.303614,9.957911,11.805323
9.120996,13.248194,9.872705,9.256983,11.433252
8.816797,13.125147,8.982569,8.986719,10.846827
8.479639,12.846582,8.400782,8.617334,10.658594
8.191553,12.662012,8.265528,8.311426,10.231348
7.647363,12.557032,7.6446776,7.6966796,10.165186
7.2308593,12.392481,7.895166,7.959375,10.380762
6.9833007,12.251123,7.809961,7.6078124,9.875635
6.661035,12.183496,7.482324,7.4620605,10.001856
6.410547,12.013086,7.6842284,7.431543,10.216944
6.346826,11.88833,7.9310546,7.619531,10.141748
6.400293,11.751612,7.6544433,7.4432616,9.9908695
6.383447,11.704737,7.4676757,7.657617,9.411036
6.228418,11.672266,7.8219237,7.7433105,9.442774
5.7743163,11.672998,7.5069823,7.563379,9.446924
5.7865233,11.694483,7.905664,7.799951,9.5221195
5.7108397,11.647608,7.693506,7.556787,9.439844
5.985498,11.663233,8.1644535,7.909326,9.783106
6.6253905,11.720362,8.733301,8.462061,10.358301
7.426416,11.693018,9.024561,8.796534,10.828272
7.9728026,11.696192,9.331934,9.057032,10.801661
8.131006,11.66836,9.173243,8.820948,10.830957
8.187891,11.834131,8.702051,8.614161,10.659815
7.8805175,11.940577,8.195459,8.065332,10.385889
7.32583,11.994043,8.032129,8.11294,10.03042
6.789209,11.976709,8.2130375,7.525781,10.083155
6.807031,11.965967,7.9791503,7.563867,10.030909
6.811914,12.060694,7.411279,7.404199,9.608057
6.1532226,12.018457,7.5399413,7.673486,9.61709
5.844629,11.9005375,7.3145995,7.4308105,9.614893
5.6024413,11.875635,7.132959,7.483545,9.777735
5.596338,11.754053,7.1444335,7.55166,9.2894535
5.456445,11.647852,7.178125,7.459863,9.34878
5.440332,11.655664,7.75625,7.204248,9.574366
5.3404784,11.569483,7.505029,7.1966796,9.725733
5.5038085,11.568262,7.4515624,7.474756,9.707666
5.525293,11.599268,7.5475097,7.398584,9.485743
5.519922,11.63418,7.2506347,7.375879,9.521143
5.353418,11.563135,7.0248046,7.221338,9.837061
5.423486,11.682032,6.8958983,7.1356444,9.877832
5.7989745,11.844629,6.981836,7.0504394,9.762598
6.4356933,12.020166,7.480127,7.157861,9.847071
6.9254394,12.0377445,8.181299,7.678125,10.377588
7.405664,12.048243,8.703028,8.358545,10.672998
7.8648925,12.027491,9.0550785,8.72378,10.917139
7.950586,12.156885,9.004786,8.752832,10.957422
7.942529,12.222803,8.582666,8.548487,10.783838
7.7171874,11.63125,8.428125,8.214502,10.451807
7.581201,10.698145,8.493799,8.014795,9.653467
7.334619,11.028223,8.690088,8.1192875,9.302393
7.2223144,11.596094,8.702295,7.907373,9.646143
7.2889647,11.464502,8.4005375,8.0064945,10.201807
7.780908,11.824854,8.118799,7.697412,10.393213
8.091211,12.369043,7.908838,7.586328,11.07168
8.431543,12.484034,8.084864,7.5907226,11.504053
8.692774,12.320459,8.375635,7.580713,11.172998
8.86294,12.340723,8.930811,7.773584,11.087793
8.635157,12.251612,9.261133,8.286768,11.017725
8.434229,11.513086,9.25625,8.474756,10.176416
8.36001,10.90542,9.346094,8.372461,8.864161
8.367823,9.751123,9.159571,8.483545,8.311914
7.7264647,9.36001,9.240137,8.127588,7.6273437
6.786035,9.492334,7.7875,6.4068847,7.4010253
6.2657714,9.558741,6.223291,5.3131347,7.756738
4.5904784,9.789942,4.824121,4.1007323,7.6322265
3.586084,9.867823,4.2904296,4.2069335,7.937158
3.7938476,9.814356,4.2472167,4.1095214,8.151758
3.916162,9.718897,4.004297,4.106836,8.194971
3.7015624,10.076075,4.2989745,4.7657714,8.301661
4.442041,9.986719,4.850244,5.0072265,8.47378
4.391992,9.798487,4.8841796,4.963281,8.024317
4.05166,9.808008,4.445703,4.247705,7.740381
3.7276855,9.56875,3.8460937,3.6620116,7.648584
3.2569823,9.427393,3.3065429,2.98916,7.562158
2.9002929,9.323877,2.7723632,2.570459,7.5467772
2.4122558,9.440332,2.3141112,2.2723632,6.891748
2.060205,9.512598,1.9757324,1.9666992,6.2899413
1.9537598,9.627832,1.809961,1.702295,6.932031
1.8890625,9.4439945,1.553125,1.6925293,7.018701
1.784082,9.237207,1.4513184,1.8045899,7.46792
1.7289063,9.51333,1.71792,1.9544922,7.150293
1.7364746,9.377832,1.681543,1.9283692,7.0316405
1.6927735,9.49502,1.6349121,2.0831542,7.2589355
1.648584,9.450098,2.021875,1.9752442,7.2188964
1.5692383,9.377832,1.4503418,1.8961426,6.895654
1.4352051,9.338526,1.0289551,1.8888184,6.902002
1.183252,9.380762,0.80458987,1.6720215,7.2535644
0.9981934,9.235498,0.25429687,1.6463867,5.995996
0.648584,8.444727,-0.67880857,1.6913086,5.9125
1.0533692,9.201807,0.08632813,2.188867,6.3731933
2.0780272,9.198633,1.1270996,3.199121,7.2992187
3.1097655,9.469141,2.1236815,4.114404,7.7035155
3.8868651,8.767725,3.008203,4.638086,7.756738
4.1864257,9.141993,3.3568358,4.6529784,7.7520995
3.898828,9.505274,2.768701,4.126611,7.5750976
2.475,9.375147,1.4769531,3.3409667,6.2398925
1.4256836,9.457911,1.3753906,2.261621,4.785791
1.1161133,9.472071,0.25795898,2.9591308,4.1361327
0.6612793,9.676172,-0.20322266,2.150537,3.685205
0.18276367,9.903955,0.21767578,2.334375,4.338281
0.70717776,9.709375,1.8224121,1.9320313,3.5853515
1.7469727,9.514551,0.081445314,1.5892578,3.2923827
1.5023438,9.363428,-0.16782227,1.7572266,3.6283202
1.5260254,8.747705,0.95058596,1.9049317,4.6808105
1.2320801,8.628077,0.334375,1.4178711,4.2210937
1.3807617,9.130274,1.2311035,1.9874512,4.8456054
1.6727539,8.959864,1.7164551,2.5997558,5.6029296
1.8297364,9.109034,1.9666992,2.6895995,5.994043
2.2015624,9.18545,2.3702636,2.4339843,6.556543
2.5992675,9.090967,2.5143065,2.442285,6.672998
2.9432616,8.87417,2.8331542,2.5121093,6.3714843
3.2159667,9.0724125,3.155908,2.8922362,6.7748046
3.0936522,9.340479,3.874658,3.2635741,7.2887206
3.3438964,9.834864,4.0787597,3.4708495,7.9466796
3.7171874,10.28335,4.5228515,3.7740722,8.364161
4.3304687,10.511621,4.948877,4.2870116,8.688868
4.6673827,11.000391,5.4898925,4.8753905,9.093653
5.007959,12.468653,5.7835937,5.202295,10.405909
5.5121093,13.31167,5.939111,5.4427733,12.994043
6.3578124,13.4042,6.4217772,5.697656,12.955469
6.8993163,13.318018,7.2208495,6.1739745,12.667139
7.549951,13.177393,7.785791,6.62417,12.40542
8.668116,13.188135,8.180811,7.129785,12.118067
9.869532,12.998194,8.6488285,7.59292,11.882471
9.803614,12.875391,9.535791,9.277246,11.8067875
9.58169,12.795801,10.078272,9.731592,11.679102
9.446192,12.716455,10.224756,9.841455,11.699854
9.285547,12.625147,10.166651,10.080957,11.698877
9.145899,12.633692,10.370752,10.314112,11.597315
9.073877,12.639063,10.503809,10.305567,11.65542
9.126368,12.488184,10.409815,10.3363285,11.565332
9.121729,12.616114,10.392969,10.264551,11.4457035
9.094629,12.625147,10.434473,10.1939945,11.42959
9.138819,12.632471,10.378077,10.171534,11.316309
9.082178,12.536768,10.343409,10.18545,11.011621
8.922754,12.415186,10.244776,10.176905,10.795069
8.789209,12.1661625,10.041651,9.935694,10.618799
8.67544,12.112452,10.032129,9.894922,10.543848
8.657862,12.03042,10.037256,9.778711,11.138086
8.83584,11.986719,10.106592,9.88833,11.2894535
8.951807,11.889063,10.223291,9.936426,11.50503
9.042871,11.856348,10.127588,9.771631,11.315332
8.892237,11.976221,9.707422,9.309229,11.080225
8.420069,12.17251,8.667627,8.791895,10.803125
8.031641,12.201319,8.262354,8.5533695,10.626123
7.874414,12.231104,8.321192,8.539698,10.934961
7.8768554,12.347315,8.579737,8.437159,11.453272
8.059961,11.999414,8.672022,8.632715,11.458155
8.186182,12.047998,8.806543,8.649073,10.975489
8.199121,12.270899,9.240625,8.732813,11.297266
8.200098,12.452051,9.430811,9.0082035,11.469385
8.584864,12.85586,9.224756,9.286768,11.886621
8.922022,13.055811,9.614161,9.065088,12.356592
9.3380375,13.432764,9.905176,9.345606,13.167383
9.875391,13.864649,10.135889,9.715479,13.952539
10.450098,14.131739,11.147364,10.267725,14.197168
11.199854,14.116602,12.488672,11.223536,14.236475
11.984522,14.248682,13.33169,12.282373,14.270166
12.864649,14.463282,14.000391,13.23501,14.322901
13.469385,14.716944,14.272608,13.520411,14.573633
13.6627445,14.973291,14.129297,13.66543,14.862696
13.857325,14.593897,14.179834,13.846338,14.43252
13.96084,14.444727,13.946924,13.757959,14.295557
14.089014,14.347315,13.721094,13.914698,14.056299
13.98086,14.176661,13.376856,13.552881,13.944483
13.240381,14.020166,12.827784,12.866602,13.631006
12.409327,13.892481,12.194971,12.410059,13.382471
11.66958,13.792383,11.7130375,11.964746,13.163721
11.230616,13.663477,11.471094,11.566065,12.903711
10.999414,13.595118,11.348536,11.29043,12.844873
10.783594,13.56167,11.249659,11.218897,12.878809
10.66128,13.553125,11.266748,11.093897,12.948633
10.620752,13.580469,11.37417,11.222071,13.000635
10.556543,13.584375,11.425196,11.347559,13.007471
10.514307,13.570459,11.5082035,11.4125,12.988428
10.290674,13.611719,11.591211,11.457178,13.028711
