"[299, 255]","[227, 248]","[287, 319]","[279, 328]","[230, 262]"
14.745508,18.476954,14.757715,13.774317,14.56045
14.644434,18.444239,14.386133,12.718897,14.323877
14.482813,18.339014,14.225733,12.638819,13.497705
14.170069,18.330957,13.402002,12.372217,13.091211
13.989649,18.288233,12.203028,12.674707,13.446192
13.500391,18.346338,12.429834,13.006983,13.472803
13.31167,18.268213,13.35586,13.064844,13.392237
14.194483,17.870508,14.5082035,13.757959,14.583643
15.731104,17.981104,15.848047,15.482569,16.78042
17.099024,18.552637,17.695215,17.433008,18.448145
18.058252,19.275293,18.438868,18.527979,19.209864
18.40957,19.169336,19.11416,19.280176,19.55459
18.651758,19.142725,19.566797,19.698633,18.80044
18.875147,18.763575,19.74331,19.409815,18.061426
18.970362,18.882227,18.593897,18.422022,18.151758
18.897608,19.125391,17.850245,18.019922,18.153223
18.301172,18.94375,17.162256,17.255274,17.973047
16.938623,18.545801,16.369532,16.2521,17.333887
16.466455,18.619532,15.319239,15.178614,17.027735
15.98208,18.754541,14.437891,14.714258,16.361475
15.554102,18.949854,14.410059,14.526514,14.915674
15.404932,19.089746,15.061182,14.607325,14.501856
15.3971195,19.164454,14.379297,14.653955,14.849024
14.660791,19.189112,14.56875,14.767237,15.157129
14.096582,19.252832,14.44253,14.265528,15.310205
14.05459,18.975,15.022852,14.954493,16.160547
14.092188,18.428614,14.812403,14.793116,16.350977
14.36001,18.04629,14.238428,14.416651,15.991114
14.487207,17.636866,13.471094,13.757715,15.651514
14.4630375,17.39834,12.699854,12.826563,15.406153
14.607569,17.30459,12.138086,11.675196,15.031153
14.8146,17.514551,12.298487,11.9317875,15.120508
14.649805,17.499903,12.5880375,12.822657,15.597315
14.447901,17.407862,13.171289,13.535547,15.829737
14.666895,17.180323,13.88833,14.417383,15.95083
15.247217,16.802149,14.6036625,15.161524,16.71792
15.4457035,17.073633,15.37417,15.322901,16.82876
15.478418,17.321924,15.683985,15.115381,16.713526
15.113184,17.294336,15.360254,15.090235,16.897852
14.552149,17.303858,14.960596,14.986231,16.512354
14.3417,17.253809,14.56167,14.737207,15.503565
13.308252,17.290674,13.086817,14.036768,14.813135
12.410547,17.07754,12.240625,13.516748,14.626123
12.013819,16.929346,12.127588,13.2599125,14.191309
11.936182,16.849024,12.311914,13.1332035,13.344385
11.918848,16.955713,12.022364,12.864649,12.996485
11.63833,16.677149,11.639551,12.618067,13.857325
11.121973,16.682764,11.722803,12.214746,13.51626
11.00625,16.484522,11.574121,12.069727,13.253565
10.964991,16.102198,11.189356,11.859522,13.590967
10.813135,16.533594,10.502832,11.029932,13.968164
10.65835,17.05874,10.393457,10.668116,14.018946
10.882959,17.347315,10.6271,10.529688,13.7521
10.577539,17.284327,10.579004,10.366358,13.798975
10.00503,17.143213,10.519678,10.021875,13.792383
10.932032,17.120508,11.123926,11.0238285,14.660303
11.86294,17.03213,11.818262,12.261621,15.525293
12.714746,16.98672,12.758448,13.399317,15.958887
13.154444,16.907373,14.1332035,14.291407,16.051416
13.090723,16.98208,15.47378,15.010157,16.372217
12.532373,16.991114,15.5846195,15.764795,16.410303
13.092676,16.970118,15.135401,15.776026,16.83169
13.371241,17.089258,15.285791,15.146387,16.52212
13.422998,17.093164,14.947168,15.359522,16.22207
13.6019535,17.426905,14.642725,15.147608,16.32754
13.553125,17.773829,14.514307,14.797754,16.485498
13.666651,17.902246,14.276758,14.602686,16.469385
13.78628,18.107325,14.925928,14.889795,16.758692
13.625635,18.40127,15.412012,15.283838,17.158106
13.378565,18.6188,15.621973,15.652002,17.431787
13.825586,18.822168,16.20376,16.23086,17.450098
14.22085,18.855616,16.10415,15.645166,17.24331
14.738672,18.682276,15.661524,15.315088,16.67373
15.300928,18.31753,15.246241,14.926905,16.431543
15.019922,17.89712,14.9125,14.494043,15.940332
14.385645,17.713037,14.424219,14.154444,15.560938
14.030176,17.439356,14.074366,13.834864,15.245996
13.704981,17.503077,13.789698,13.486231,15.087549
13.51919,17.18252,13.614893,13.547266,14.840479
13.262354,17.332666,13.940821,13.835596,15.132959
13.075342,17.344873,14.304834,14.1175785,15.400782
13.548731,17.08047,14.737207,14.720606,15.893702
13.67544,17.017725,15.129053,15.13125,16.047754
14.426172,17.376856,15.617334,15.811426,16.615137
14.389063,17.498926,16.091455,16.202295,16.784815
14.485987,17.570215,16.534082,16.72793,16.792871
14.500635,17.666162,16.833399,16.905176,16.269678
14.304346,17.630762,16.830713,16.859766,16.775782
14.500635,17.630762,16.456202,16.29873,16.386621
14.083155,17.44839,15.754297,15.563868,16.221827
13.575342,17.33169,15.151758,14.831446,15.714014
13.234522,17.164698,14.436426,14.250391,15.826563
12.816309,17.25918,14.245752,13.267481,15.62002
12.558741,17.200342,13.5221195,12.29751,15.425196
12.333643,17.047266,12.864405,11.792871,15.613916
11.668848,16.90713,12.504786,11.400049,15.336084
11.230371,16.903223,12.168604,10.935694,15.347803
11.148584,16.891993,11.766748,10.551661,15.451563
11.087549,16.764551,11.177881,10.237452,15.6019535
10.685205,16.81753,10.567286,10.043848,15.610987
10.257959,16.959131,10.195215,10.066309,15.653711
9.929834,17.172754,9.793604,10.121485,15.555323
9.623926,16.98794,9.458155,10.23086,15.638575
10.204493,17.081446,10.362696,10.9300785,16.133936
11.354395,17.37417,11.95669,12.390528,16.792627
12.346827,17.92666,13.678614,14.241602,17.369287
13.72085,18.131739,15.290918,15.599268,17.856348
15.0724125,18.415674,16.674707,16.570215,18.130762
15.617334,18.676905,17.49209,17.372217,18.079737
16.232569,18.645166,18.066065,17.937891,17.42422
16.453272,18.332422,18.416162,18.126368,17.5563
16.29165,19.00918,18.24209,18.10415,17.872705
15.468409,18.878077,17.653711,17.930567,17.529932
14.083887,18.53335,16.302149,17.170313,16.970606
13.983301,18.05581,15.485743,16.54043,16.815577
13.6349125,17.863672,14.75503,15.311182,16.838526
12.955713,17.787256,14.198633,14.368555,16.702784
12.402491,17.788233,13.796534,13.800928,16.317774
12.35293,17.69082,13.521631,13.106104,15.686426
12.250391,17.59707,12.746973,12.332666,15.469873
11.83584,17.249414,11.938135,11.726709,14.710108
11.90127,16.843653,11.327051,11.2911625,13.507715
11.693506,16.829248,11.560205,11.1471195,12.396875
11.04336,16.845606,11.722315,11.16958,12.230371
10.389063,16.702051,11.224512,9.971338,11.6471195
10.537256,16.53921,10.836573,9.930323,11.507959
11.228907,16.537012,10.016504,9.479883,11.390284
12.915918,16.62002,11.6175785,11.201807,13.105371
14.33877,16.75088,12.463282,12.613916,15.606348
15.389551,16.907373,14.382227,14.071924,16.918604
16.067774,17.077051,15.96377,15.459375,17.655909
16.52041,17.269678,16.658838,16.5375,18.48623
17.126368,17.521631,17.374903,17.262354,18.955957
17.502588,17.745996,17.834864,17.67129,19.044092
17.582178,17.941797,17.840723,17.647364,18.673487
17.113916,18.01919,17.290918,17.17544,18.11709
16.08169,18.091455,15.960108,16.063868,17.50625
14.022852,18.39297,13.78628,14.306055,15.882227
13.097559,18.30166,12.217188,13.1627445,15.017725
12.610743,17.64126,11.3417,12.444483,14.786524
12.076075,17.436914,10.036036,11.729883,15.633936
11.755274,17.539698,10.608789,11.206446,15.934961
11.75918,17.643457,11.022852,10.815332,15.591944
11.48208,17.266993,11.109278,10.9144535,14.771143
11.092676,16.792383,11.66543,11.103907,14.223047
11.096094,16.40005,11.894922,11.8189945,13.932764
10.980616,16.434229,12.215723,11.248926,13.695215
10.567774,16.215235,11.875879,10.864161,13.577539
10.464258,15.877588,11.840235,11.133448,13.514063
10.19668,15.702784,10.166651,9.847559,13.316065
10.233789,15.714502,10.16958,10.054102,13.239161
11.231836,15.611963,11.310205,11.100489,13.97085
12.971582,15.507227,12.625879,12.937159,14.892237
14.453028,15.804834,14.269922,14.386866,15.601221
15.506983,16.498926,16.069483,15.586573,16.310205
15.778223,17.410547,17.153955,16.584131,16.944483
16.1271,18.214502,17.454248,17.404932,17.620508
16.8688,18.900537,16.49502,17.538965,17.842188
17.427881,19.267237,17.217432,17.511133,18.085596
17.136377,19.537256,16.843897,17.13003,18.143946
16.153955,19.656153,15.810694,16.5917,17.768213
14.467188,19.332422,14.022364,14.234278,17.21206
13.936914,18.925684,13.146387,12.08877,16.683985
13.309473,18.266016,12.754297,11.728907,16.468653
12.875879,17.815577,12.328272,12.684717,15.906153
12.689356,17.730616,11.780909,12.349512,15.680811
12.829737,17.309229,11.97793,11.891504,15.227686
12.63711,16.914454,12.2877445,12.16958,14.745752
12.36294,16.763086,12.2442875,12.402979,14.482569
12.515039,16.586329,11.84878,12.579248,14.261133
12.184961,16.274317,11.679102,12.645411,14.107813
11.873926,15.937159,11.40835,11.959864,13.874903
11.490137,15.840723,11.215479,11.756983,13.73208
11.618799,15.671534,10.9752445,11.284815,13.6783695
11.6957035,15.39419,10.730371,11.047022,13.498438
12.267969,15.217432,11.495752,11.885645,13.787012
13.1783695,15.450586,13.6314945,13.54043,14.625879
13.8832035,16.261621,15.275782,15.316797,15.500635
14.825342,16.890528,16.253565,16.168604,16.546534
15.744043,17.34585,17.149805,17.054834,17.140284
16.263086,17.788965,17.692774,17.723536,17.527246
16.467676,18.42959,17.78628,17.902735,18.169825
16.393946,18.950342,17.441797,17.634424,18.461329
15.745996,19.17422,16.693018,16.893213,18.440577
14.6175785,19.02334,15.513086,15.561182,17.785059
13.187403,18.689844,14.039698,13.96084,16.89834
12.191065,18.332422,13.307032,13.027491,16.439844
11.489893,17.845606,12.927881,12.309961,15.674463
11.126856,17.228174,12.202295,11.8658695,14.794336
10.940577,16.299707,11.9942875,11.589991,14.312891
10.924707,15.538721,11.404444,11.369776,13.651514
10.94668,15.021875,11.012598,10.794092,13.141016
10.4161625,14.6974125,10.815088,10.61001,12.687159
10.552881,14.4317875,10.433985,10.201319,12.487207
10.296534,14.201319,10.038233,9.190088,12.223047
10.032862,13.953516,9.342676,8.53335,11.983789
9.813135,13.857569,9.162256,8.519922,11.941553
10.125635,13.874903,7.841455,9.212305,11.760401
10.638086,14.163477,8.913477,9.893213,11.780176
11.374903,13.99502,10.850977,11.107569,12.856592
12.311426,14.325342,11.995508,12.819239,13.886377
13.238428,15.0707035,13.840967,14.479883,14.938135
13.870752,15.681055,15.156885,15.362452,15.55044
14.313868,16.204248,15.821436,16.056055,16.027979
14.459864,16.745752,15.875147,16.35879,16.29751
14.754053,17.152735,15.871973,16.265772,16.722559
14.534815,17.285791,15.511866,15.420801,16.873194
13.825586,17.153711,14.941553,14.777735,16.676416
12.961817,17.027246,14.036768,13.968409,16.083399
12.135401,16.886621,13.275049,12.802393,15.592676
11.320459,16.329248,12.5707035,12.244043,15.09585
11.247461,15.631739,12.367823,12.32583,14.990137
11.448389,15.227686,12.569483,12.759668,14.410059
11.495752,14.801661,12.218409,12.955957,13.754053
11.256983,14.545801,12.017969,12.711084,13.787989
11.134424,14.348536,11.915186,12.508448,13.773584
11.119043,14.402491,12.194483,12.538233,14.170313
11.048975,14.427393,12.552881,12.497461,14.2130375
11.087549,14.338526,12.162256,12.524073,14.000879
11.037989,14.244043,11.420069,12.343653,14.079493
10.90542,14.389795,12.111475,11.861475,14.014795
10.892969,14.223047,12.365381,11.604883,14.054102
11.060938,14.225733,11.921778,11.586573,14.002832
11.448633,14.221582,13.262354,12.730616,14.164942
12.214502,14.21377,14.500879,14.160303,14.791407
12.97085,14.503565,15.36294,14.936182,15.345606
13.77334,14.845362,16.162256,15.629053,15.846338
14.66543,15.642725,16.539698,15.937891,16.162989
15.1349125,16.50503,16.296045,16.169825,16.304346
15.271143,17.189356,16.657618,16.42666,17.051905
15.073145,17.63125,16.397364,16.245508,17.568995
14.446436,18.123438,15.596827,15.720118,17.7792
13.276758,18.315088,14.851221,14.880274,17.52041
12.433008,17.914942,13.846827,13.676172,16.873926
12.0064945,17.33755,13.858057,12.495996,16.302637
11.866358,16.772364,13.316309,12.954737,15.953516
11.763086,16.0292,13.081446,12.894678,15.377588
11.640772,15.471338,12.097071,12.298487,14.840723
11.729639,15.027246,11.879786,11.645655,14.466944
11.610743,14.61294,12.224512,12.19668,14.177637
11.397364,14.482813,11.886866,11.942041,13.773096
11.328272,14.212549,11.622705,11.296289,14.008936
11.24502,14.217432,11.33877,11.472315,14.194971
11.340967,14.2425785,11.10708,11.152979,13.985987
10.981348,14.140772,11.379541,11.141748,13.896631
11.149805,14.272608,12.123194,10.760157,13.914698
11.248682,14.3692875,12.2564945,10.7877445,14.052881
11.548731,14.618311,12.315332,11.764551,14.603418
12.450098,15.120996,14.080469,13.375879,15.200586
13.570948,15.718409,15.108301,14.928614,15.7599125
14.4925785,16.234278,15.630518,15.550684,15.933741
15.237696,16.690088,16.04043,16.670313,16.494532
15.504053,17.184229,16.54336,16.707422,16.87002
15.572168,17.702784,16.583155,16.665918,17.203028
14.841944,18.131006,16.145899,16.350489,17.518702
13.655176,18.375391,15.658594,15.811426,17.586084
13.708155,18.542627,14.324366,14.9042,17.359278
13.061182,18.465479,13.245508,13.213282,17.056055
12.928614,18.160791,12.233789,12.483789,16.774073
12.669825,17.354883,12.083643,11.95669,15.41543
12.511377,16.991114,13.014307,12.103174,15.345606
12.489161,16.749414,12.878321,12.268213,15.127588
12.489893,16.309229,13.091211,12.333643,14.896875
12.702784,15.872705,13.086817,12.734278,15.1488285
12.790186,15.602198,12.540674,12.432032,15.197901
12.688135,15.65127,12.573389,11.849268,15.125879
12.604395,15.625879,12.746973,12.458643,15.255518
12.611475,15.692041,12.979395,12.891504,15.152735
12.652735,15.945459,13.463526,13.150293,15.15127
12.872217,16.014795,13.643702,13.301905,15.204737
12.746729,15.986963,13.501856,12.983545,15.081202
12.964502,15.909571,14.077539,13.573633,15.349512
13.315821,16.202295,13.784571,14.321924,16.1188
13.656397,16.583399,13.880762,14.2721195,16.511133
13.576075,17.085352,14.26333,14.744043,16.761377
13.911524,17.571192,14.740625,15.012842,16.89419
14.112696,17.71792,14.75503,15.434229,17.122705
14.340723,18.001612,14.531641,14.7130375,17.113184
14.285303,17.814356,14.829981,14.491358,17.05581
14.286524,17.531885,14.681543,14.509668,16.752344
13.925928,17.2604,14.601221,14.1271,16.426905
13.885889,17.145166,14.603907,14.050928,16.54458
13.939112,16.994043,14.618067,14.063135,16.302149
13.986963,16.937403,14.762354,14.077295,16.298975
14.11001,16.883692,14.726465,14.223536,16.421534
14.293604,16.870264,14.703028,14.188623,16.28457
14.474024,16.90835,14.748682,14.355616,16.491846
14.576075,16.907618,14.75625,14.281885,16.554102
14.6817875,16.88125,14.875391,14.322657,16.58169
14.7564945,17.040674,15.013086,14.464502,16.509668
14.726709,16.981104,15.149561,14.542139,16.34463
14.812159,17.033838,15.16836,14.755518,16.41421
14.893213,17.03335,15.167383,14.900049,16.530664
14.946924,16.917871,15.491114,14.952539,16.495996
15.029932,16.834131,15.479639,15.199854,16.64297
15.323389,16.914454,15.714991,15.376368,16.779932
15.694971,17.26626,15.900049,15.567041,17.139307
15.691309,17.768457,15.993555,16.06045,17.34463
16.501368,18.540674,16.176416,16.50332,17.377832
16.721094,18.909082,16.401026,16.711573,17.889307
16.07876,18.96084,16.752832,16.675928,18.375635
16.330957,19.391748,16.452295,17.392237,18.515284
16.822168,19.449854,16.40127,17.352442,18.428125
16.360743,19.18081,15.788233,16.463526,17.715723
15.548243,19.017725,15.305567,15.863672,17.67129
14.929102,18.77749,15.114405,15.515039,17.568262
14.619043,18.758936,14.802637,15.317286,17.458643
14.369043,18.35415,14.872217,15.24209,17.285547
14.141748,18.14126,14.590479,14.977686,17.002344
13.892725,17.594385,14.543848,14.783838,16.814112
13.800684,17.25088,14.324366,14.63711,16.660059
13.6627445,17.028467,13.940577,14.409327,16.611475
13.654932,16.899805,13.835108,14.1800785,16.556787
13.514551,16.785303,13.5689945,14.054346,16.21963
13.433985,16.506983,13.68667,13.846827,15.906397
13.407862,16.415186,13.620996,13.827784,15.7877445
13.434717,16.5021,13.586817,13.832178,15.768457
13.472315,16.511133,13.582911,13.710352,15.780909
13.560938,16.38125,13.545313,13.717188,15.746973
13.638575,16.430323,13.972071,13.860743,15.926905
13.606104,16.768213,14.244532,14.408106,16.343653
13.577539,17.436426,14.492823,14.897852,16.559473
13.741358,18.042627,15.530909,15.702295,16.808252
13.941797,18.604395,14.880274,15.847315,17.106836
14.397608,19.066553,15.773096,15.938135,16.778955
14.754053,19.08169,16.433496,16.591944,17.183008
15.041895,19.027246,16.674463,16.560938,17.05874
14.586817,18.688135,15.989405,16.184961,16.83462
14.050196,18.053614,15.268213,15.09878,16.72085
13.725,17.684961,14.179102,13.434717,16.363916
13.045557,17.500635,12.957911,12.114893,16.040674
13.047754,17.23379,13.328028,11.426905,16.150293
13.062647,16.826563,13.577051,11.46792,15.89126
13.07876,16.750147,13.498926,11.817041,15.5221195
12.848047,16.517725,13.007959,11.086084,15.356836
12.763575,16.353418,12.328272,11.396875,15.279932
12.704737,16.250147,11.823389,11.968653,15.283838
12.643213,16.238184,12.4005375,11.7269535,15.224512
12.623438,16.298243,12.5238285,11.844141,15.181543
12.764307,16.227442,13.047022,11.848047,15.0099125
12.906153,16.112452,13.24209,12.500635,14.807764
12.936914,15.938623,13.248682,12.960596,14.620508
12.945459,15.6036625,13.256739,13.045069,14.62295
13.026758,15.597803,13.586084,13.11709,14.909082
13.482569,15.98208,14.289942,13.638575,15.672998
13.824854,16.820215,14.937891,14.365137,16.274317
14.329248,17.60171,14.58877,14.885401,16.685938
15.281641,18.26919,14.911768,15.164209,17.4125
15.797754,18.492579,15.836084,15.928614,17.640528
16.11587,18.864405,15.921534,16.208887,17.898829
15.91128,18.931055,16.288965,16.192286,17.945704
15.392725,18.903467,15.955957,16.480127,17.891016
14.687403,18.687159,15.524317,15.665186,17.658594
14.018702,18.493555,14.91543,14.072168,17.122217
13.748682,18.198877,14.598047,12.623926,17.100977
13.410547,18.067286,14.681543,12.188868,16.796534
13.012842,17.842188,14.620752,11.859522,16.483545
12.95083,17.504786,14.549219,12.071436,15.951807
12.943018,17.502832,14.535303,12.722315,15.720606
13.003321,17.381495,14.393457,12.302881,15.60293
13.143946,17.088037,14.432032,12.175928,15.514063
13.097559,16.80166,14.089258,12.1,15.195948
13.082911,16.32583,13.545557,11.662256,14.877832
13.241846,16.330225,13.521387,11.371729,14.765772
13.254541,16.246729,13.99917,12.018457,14.704981
13.4127445,16.055567,14.1158695,12.10586,14.581446
13.562647,15.85,14.033838,12.487452,14.656153
13.831202,15.969141,14.169825,13.344629,14.921289
14.339258,16.281885,14.834375,14.108301,15.971094
14.926905,16.987452,15.644434,15.277735,16.943995
15.7738285,17.77456,16.554346,16.78628,17.954004
16.5104,18.153955,17.100733,17.52456,18.872461
16.878809,18.079737,17.339502,18.008448,19.330225
17.0563,18.151514,17.702051,18.103418,19.71499
17.084864,18.344873,17.677637,18.011377,19.646143
16.546045,18.550928,17.131495,17.64248,19.120752
15.363672,19.226954,16.331202,16.538965,18.446436
14.352442,18.87124,15.347071,15.199854,17.473047
13.73794,18.434473,14.854151,14.097071,16.823877
13.777002,18.27456,14.422998,14.196924,16.344873
13.6896,17.856348,13.9596195,13.817041,16.01333
13.560694,17.875391,13.7167,13.530664,15.750635
13.462793,17.383936,13.603907,12.595362,15.524073
13.527246,17.221094,13.646143,12.13711,15.145655
13.435938,16.967676,13.511377,11.313868,14.797754
13.342676,16.696924,13.964746,11.244776,14.669092
12.88125,16.517237,13.573633,10.656885,14.492823
12.621973,15.946924,12.793116,10.970362,14.232569
12.56167,15.866358,12.402735,10.524073,14.035303
12.704981,15.97378,12.616846,11.065821,13.906641
12.924463,15.784571,10.654444,10.201807,14.015772
13.416407,15.722803,12.251123,10.990137,14.222315
14.140528,15.550684,13.235254,12.597071,15.222071
14.809473,15.895655,13.954737,14.199854,16.269922
15.227442,17.082178,16.2167,15.851709,16.829737
15.867823,17.831934,17.501856,17.13418,17.128565
16.048975,17.858301,17.753077,17.611475,17.261133
16.124903,18.045801,17.703028,17.7604,17.494532
16.381495,18.079737,17.40127,17.542383,17.409082
16.2521,18.078028,16.617579,16.737696,17.186182
15.370996,17.807276,15.722071,15.316553,16.983301
14.430567,17.612696,14.152979,13.868799,16.585352
14.285791,17.318995,14.015039,13.09878,16.307764
13.788233,17.21377,13.402002,12.427393,16.199854
13.542139,17.382715,12.861475,12.323145,16.224756
13.238184,17.370508,13.104151,12.393702,16.019434
13.140772,17.056055,12.433008,12.165674,16.076807
13.239893,16.623194,12.41958,11.921778,15.822657
12.988184,16.347803,12.511133,11.910303,15.527491
12.739649,16.212305,12.5064945,12.0064945,15.616602
12.667139,16.068506,11.543116,12.078272,15.550928
12.618555,15.950342,10.991114,12.219873,15.512842
12.432764,15.839746,11.337549,12.257959,15.170313
12.543604,15.904444,11.641504,11.707666,15.375879
12.513086,16.003077,11.523584,11.677637,14.645899
12.475733,16.01089,11.882959,12.208887,14.956446
13.205225,16.086573,12.861719,13.317041,16.142237
13.863672,16.318018,14.021631,14.565088,16.425196
14.516993,16.796045,15.237207,15.38711,16.345118
15.198389,17.059717,16.282862,15.164209,16.966211
15.91958,17.5646,16.76504,15.158594,17.089502
16.049952,17.868555,16.560205,15.63418,17.099756
15.854883,17.754297,14.650782,15.9127445,16.921045
15.637842,17.413721,14.836573,15.646387,16.641993
14.619043,17.236963,14.783594,14.758936,15.9667
13.41543,16.97915,13.461573,13.756739,14.878321
13.263819,16.620752,12.8971195,13.3536625,14.988184
13.377832,16.420313,13.235987,13.322901,14.4317875
13.302637,16.403711,12.059717,12.932032,14.2721195
13.056299,16.680079,11.227442,12.032373,14.044336
12.808741,17.106592,10.922266,11.340479,13.604395
12.210596,16.818506,10.744532,11.218897,13.326319
11.796778,16.475977,10.442286,10.661036,13.438623
11.594873,16.021875,10.06045,10.749659,13.922998
11.225489,15.816797,9.850977,10.679102,14.885401
10.846827,15.63003,9.79458,10.673487,14.551172
10.435938,15.770166,10.095362,10.847803,13.962305
10.226221,16.082178,10.231348,10.608057,13.50625
10.349512,16.096582,10.340479,10.591211,13.7113285
10.7113285,15.90542,10.486719,10.715479,14.235498
11.850977,15.669336,10.892237,11.409571,15.297754
12.79336,16.329004,11.7252445,12.063623,16.190088
13.728907,16.66543,13.017481,12.692774,16.633936
14.338282,17.12417,13.688135,13.6644535,16.77749
14.516748,17.427881,13.546534,13.471094,16.76504
14.404932,17.344873,13.501123,13.761621,16.31753
13.114405,16.927881,13.383448,13.1158695,16.139307
12.205957,16.816553,12.794825,12.868555,16.016504
11.896387,16.72671,12.537012,12.137598,15.132959
11.717188,16.306787,11.702784,10.855371,13.632715
11.455713,15.295801,10.993799,10.479151,13.599024
10.797998,14.933008,10.419092,9.718653,13.57876
10.146631,15.363428,9.463526,8.947901,13.093409
9.628809,14.828516,8.507227,8.349756,12.599268
9.037256,14.329981,8.691797,7.983789,12.432032
8.268213,14.173975,7.589502,7.4554687,12.416651
7.7452636,13.903711,7.473291,6.9955077,12.464502
7.2154784,13.7408695,7.591455,7.3148437,12.179834
6.5719237,13.686426,7.202783,6.886621,11.59585
6.2416015,13.3502445,6.8702636,6.784326,11.442774
6.1043944,13.170313,6.677881,6.487695,11.342432
5.9825683,13.322657,6.491113,6.3231444,10.966211
5.643945,12.920069,6.178125,6.2923827,11.238184
6.2801757,12.843897,6.3583007,6.16958,11.418604
7.411035,13.193506,7.6981444,7.1656737,12.205225
8.561426,13.457911,9.261866,8.648096,12.613428
9.976709,13.787989,10.616114,10.323389,12.879786
10.947657,13.701319,11.438623,11.162256,13.080225
11.621241,13.814844,11.745264,11.400782,13.142725
12.001368,13.702051,11.765284,11.918848,13.190821
11.537256,13.91836,12.095606,11.933741,13.222803
10.703272,13.938623,11.753565,11.603418,13.007715
10.038477,13.998682,10.663233,10.325342,12.561182
9.65127,13.998682,9.258692,9.287012,12.1471195
8.628809,13.9786625,9.034082,8.472315,12.110987
7.870752,14.126368,8.528711,7.938623,12.311914
7.667627,14.330957,7.501123,7.8998046,11.858301
8.018213,14.072901,7.105127,7.57583,12.492334
7.4200683,13.684473,6.7020507,7.2733397,11.678614
6.6776366,13.7408695,6.4640136,7.178369,11.258936
6.147119,13.580957,6.1639647,7.311914,11.259424
5.704248,13.148096,6.1720214,7.1043944,12.234766
5.9686522,13.194483,5.964502,6.9173827,11.433008
6.6095214,13.114405,5.5597167,6.638086,10.307276
7.0611815,13.519434,4.9415526,6.9173827,10.330225
6.9830565,13.221338,4.7557616,6.645166,9.870752
6.799463,13.019434,5.106836,6.6361327,9.307764
7.20083,12.895899,5.047754,6.549463,9.821192
8.33169,12.98086,7.13833,7.9625487,12.479395
8.941553,13.386621,8.395411,9.346094,14.163233
9.778223,13.804834,9.892725,10.810938,13.545801
10.683252,14.194239,11.741846,12.171045,13.969873
11.740625,14.479151,12.847803,12.788233,14.813623
12.6783695,14.752344,13.345606,13.113672,14.922022
12.903711,15.226709,13.339258,13.009424,14.779932
12.350489,15.496973,12.720118,12.444239,14.351465
10.920069,15.481104,10.806055,10.785547,12.764063
9.404932,15.096582,9.029688,9.687647,10.350489
8.851709,14.826319,8.108545,8.5238285,9.411768
8.5292,14.551905,7.180322,7.0492187,8.725
8.363184,14.155664,6.76333,6.1822753,8.355371
8.076319,13.794336,5.2608886,6.38125,7.66958
7.830713,13.777735,4.581201,6.518701,8.00503
6.6393065,13.860743,4.4999022,5.0121093,8.378809
5.5406737,13.8519535,3.5213866,5.4154296,8.393213
6.317041,13.883692,2.8385253,5.671289,9.451319
6.537256,13.999659,2.63125,5.7455077,10.112452
6.0453124,14.238672,3.1996093,6.0592284,8.852198
7.162256,14.635645,4.2420897,5.9081054,8.756983
7.2655272,14.843897,4.0504394,7.084863,9.434229
7.53457,14.927637,4.018701,7.2315917,9.63711
7.615381,14.988916,4.892236,7.329004,9.822657
9.018946,14.996973,7.6581054,8.339014,11.308496
10.247461,15.164698,9.393457,9.611231,12.757227
11.185938,15.040918,10.63833,10.920069,14.3207035
11.174707,15.102686,11.721338,12.090723,14.187403
11.69253,15.257959,12.630762,12.45083,14.130274
12.455713,15.388819,13.445459,13.182276,14.5917
12.4457035,15.540186,13.796289,13.670313,14.437891
12.282618,15.521143,13.054102,12.966211,14.477686
10.706446,15.359766,11.365137,11.091455,12.733057
9.130274,14.786768,10.206202,9.213526,10.735987
8.337549,14.994043,8.574121,8.747461,10.728907
8.417139,15.249903,7.030908,9.248438,11.504786
7.67666,15.270899,5.3512206,9.031153,11.160791
7.4220214,14.78335,6.2325683,8.854395,10.805323
8.071192,14.910547,5.37124,8.779444,11.172998
7.9986815,15.163721,4.2472167,7.695947,10.965479
7.4378905,15.057276,4.469873,7.336328,10.887842
6.924951,14.809229,3.7567382,6.8600097,11.119776
6.4217772,14.7792,3.954248,6.5069823,10.637354
5.723535,14.799463,4.509912,6.0121093,10.313623
6.0833983,14.597559,3.9278808,5.991113,9.071436
6.8768554,14.592188,3.0414062,6.4879394,9.052637
6.6881347,14.954248,2.3297362,6.6930175,9.694971
7.0433593,14.244532,3.7411132,7.1429687,10.681543
9.301905,14.227686,7.4046874,8.261621,11.507715
10.428858,14.424219,9.179834,9.415674,12.88003
11.330957,14.714014,10.54458,10.744532,14.590235
11.956446,14.958887,12.002832,12.034571,14.956934
12.434961,15.20083,13.1036625,13.245508,15.286036
12.72085,15.423487,13.676905,13.956934,15.420801
12.834864,15.613672,13.917139,14.063623,15.263575
12.465723,15.857813,13.366846,13.4667,14.97793
10.48501,15.928614,11.690332,11.295069,12.945948
8.88418,15.751856,9.98086,10.243311,10.917383
8.802149,15.203516,8.827539,8.985498,10.541895
8.925928,14.397364,7.2088866,7.8253417,10.234034
8.919336,14.202295,5.5245605,6.6234374,9.299952
8.851221,14.080225,4.579492,6.285791,8.612207
8.626612,13.954737,5.0990233,5.836328,8.716944
8.438868,13.877832,5.1424804,6.365625,8.486231
8.181299,13.749414,5.158838,7.298486,8.373682
7.8927245,13.759668,4.2333007,7.3824706,8.061182
7.7015624,13.495752,3.9894042,6.9920897,8.031885
7.579736,13.188623,3.1336913,6.8595214,8.41543
7.5106444,13.0082035,3.376123,6.8629394,8.156397
7.3424315,12.839258,3.5074706,7.013086,7.362451
7.2433105,12.673975,2.6126952,6.7972655,8.002344
7.6549315,12.481836,3.9100585,7.348291,9.159815
8.856592,12.496729,8.36709,8.878077,11.605616
10.226709,13.226221,10.835596,10.263086,13.086084
11.417139,13.954248,12.975489,11.507715,13.808496
12.2521,14.658838,14.207666,12.798731,14.215723
12.774073,15.047266,14.8207035,13.950342,14.664942
12.935205,15.318018,15.022608,14.538721,15.061426
12.790186,15.681543,14.835352,14.880518,15.151514
12.262598,16.01919,14.006983,14.240137,14.767725
10.60586,15.6471195,12.737696,12.683252,13.284327
9.8346195,15.283106,11.892237,12.0394535,12.016993
10.275293,14.681543,11.071192,11.679834,11.319727
10.292871,14.462793,10.769922,10.534082,10.962061
10.273096,13.973291,10.842432,9.546778,10.383692
10.47793,14.014063,11.215235,9.719385,9.973291
10.843409,14.0533695,11.403223,10.570948,9.531153
10.93545,13.554346,11.306055,10.845118,9.438623
10.795557,13.323633,11.209131,10.757715,9.777979
10.549463,13.226709,10.827051,10.806055,9.962549
10.76211,13.361963,10.815577,10.754786,9.642725
10.992334,13.3207035,10.593653,10.665674,9.769678
10.861719,12.963282,9.911036,10.674952,9.981836
10.566797,13.1002445,9.924463,10.549707,9.820459
11.08584,12.561182,10.827784,10.36001,9.461573
10.999659,12.570948,10.841211,10.701807,9.882959
11.941553,12.776758,12.042383,11.458887,11.712549
12.832422,13.538721,13.402246,12.387842,14.083399
13.214258,14.458399,14.6800785,13.212061,14.467676
13.338282,15.353907,15.188868,14.127588,14.749903
12.683496,15.957666,15.384668,14.849268,15.6625
12.874414,16.522364,15.732813,15.704004,15.744532
12.735498,16.17666,15.499659,15.499414,15.7096195
12.664698,16.214258,14.845118,14.656397,15.793116
11.994532,16.398829,12.918116,13.555323,15.28335
11.778223,16.049707,11.424707,12.282129,15.201563
11.298487,15.520899,11.523096,12.007471,14.955957
11.382227,15.535303,9.99502,11.135401,15.148096
11.429102,15.389307,9.042139,10.016993,15.092676
11.212549,15.371973,8.704981,10.1271,14.568018
11.358789,15.048487,9.257471,9.761621,14.3849125
11.331446,14.648096,10.203272,9.973291,14.203516
11.208887,14.59585,10.155176,10.0021,14.2521
11.152979,14.69253,9.853907,9.857813,14.054346
11.015772,14.778223,9.516748,9.614161,14.036768
10.858789,14.807276,9.048731,9.333155,14.223536
10.741602,14.731104,8.776514,8.840235,14.040674
11.000391,14.822901,9.142725,8.514795,14.1783695
10.765772,14.847559,9.040918,8.523096,13.948389
11.117823,15.057764,9.192041,8.846338,14.116846
11.590967,14.9752445,9.955469,9.587061,14.358789
11.5394535,15.24795,11.097559,11.364649,14.504053
12.4908695,15.472803,12.219385,13.321436,14.657618
13.07168,15.589502,13.725489,14.430567,15.321436
13.216455,15.774073,14.490381,14.667139,15.284082
12.637598,15.47085,14.49502,14.881983,15.327784
12.458643,15.71377,14.446924,14.38003,15.541895
12.3380375,15.636621,13.819483,14.046534,15.391016
11.86001,15.856348,11.629786,12.501856,14.646875
11.672022,15.755518,11.486963,11.645899,14.654932
11.432764,15.698877,10.435205,11.145166,14.496485
11.350733,15.573145,11.569971,10.284815,14.507715
11.17544,15.234522,11.110743,10.129297,14.525049
10.971338,15.050196,10.685938,10.150782,14.168116
10.671534,14.967676,10.67959,10.235254,14.168848
10.39126,14.840479,10.432764,10.233789,14.029932
10.355616,14.763819,9.940821,10.094385,13.771631
10.285791,14.702539,10.340723,10.370996,13.91543
10.441065,14.594141,10.635645,10.521631,13.823145
10.557276,14.555567,10.508448,10.6314945,13.736719
10.651514,14.376123,10.625635,10.910547,13.4942875
10.768946,14.30752,11.400782,11.128321,13.4942875
10.593653,14.385401,12.094873,11.513575,13.771875
10.858789,14.395899,11.783838,11.41958,13.740137
11.308252,14.58877,12.295069,11.894678,14.245752
12.24502,15.052149,13.212793,12.682032,14.632227
12.934961,15.514795,13.8849125,13.454981,14.993311
13.417383,16.020166,14.490625,14.102442,15.060694
13.125635,16.30044,14.675684,14.451075,14.9300785
12.317774,16.278711,14.57168,14.367823,14.733545
12.680567,16.008448,14.150293,14.204004,15.129541
12.745264,15.845118,13.290186,13.308741,15.0917
12.050684,15.685938,11.464502,11.471338,14.987207
11.251123,15.506739,9.892725,9.261133,14.864161
11.293116,15.297998,8.635645,9.033106,14.718164
10.931543,15.187403,7.285547,7.7347655,14.641748
11.309229,15.007227,6.481836,7.622705,14.261866
11.230127,14.7286625,6.241113,7.745996,13.765039
10.883448,14.380274,6.6009765,6.900781,13.162256
10.518457,13.819971,6.517236,5.438623,13.30752
10.414698,13.437891,6.7330565,6.53457,12.959864
9.862207,13.413965,5.767236,6.4012694,12.463282
9.43252,13.57583,6.1134276,6.605615,12.34292
9.047022,14.004297,5.755029,5.927881,11.808741
8.792139,14.091455,6.6205077,5.7750487,11.472803
8.665186,13.953272,5.235986,5.6222167,11.5550785
8.546045,14.30752,4.31582,5.2955565,11.461573
8.476465,14.159815,5.365381,5.938867,12.322657
9.340967,14.085596,7.523584,7.7608886,13.183741
10.244532,14.115137,9.092676,9.041895,13.874903
11.159327,14.277002,10.390039,10.268946,14.301905
11.845362,14.510401,11.6644535,11.715235,14.936914
12.306543,14.797998,12.523584,12.592188,15.517969
12.620508,15.084131,13.073145,13.024805,15.777979
12.771875,15.654688,13.384424,13.089014,15.834375
12.49917,15.787012,12.693262,12.247705,15.490625
10.967676,15.746241,10.335596,10.238428,14.251123
10.435938,15.559473,9.900293,9.667383,12.964991
10.169825,15.449854,8.062891,9.26333,12.210596
9.869043,15.298975,7.658838,8.657618,11.49917
9.767237,15.223291,7.138574,8.517725,10.921534
9.899317,15.265284,7.3705077,8.3675785,11.168604
9.998438,15.351465,8.007471,8.24917,11.643213
9.952295,15.484766,7.6830077,8.091944,12.731104
10.002588,15.820948,8.230616,8.279688,13.718653
9.790918,16.013819,8.470362,8.812891,14.099756
9.679346,16.228418,8.8988285,8.965479,14.29751
9.751856,16.287745,8.900782,9.301905,14.061914
9.563623,16.317286,9.364649,9.570948,14.317774
9.347315,16.5021,9.969385,10.018213,14.682032
9.456934,16.79873,10.578516,10.394678,15.496485
10.194483,16.880762,10.847315,10.316309,15.715967
10.805811,16.750147,11.303614,10.707422,16.018457
11.295801,16.63125,12.534082,11.378077,16.27627
11.51919,16.763819,12.702539,12.146875,16.700098
12.3067875,16.86709,13.042383,12.627588,17.192774
13.082178,17.057032,13.7130375,13.694239,17.34585
13.7911625,17.127344,14.030176,14.5880375,17.38418
13.996485,17.240381,14.062403,14.5255375,17.518213
14.452539,17.437647,14.46377,14.498438,17.311914
14.721338,17.420557,14.339991,14.326075,16.475245
14.777491,17.37417,14.365137,14.037989,15.6800785
14.490625,17.393946,14.330225,13.854639,15.8189945
14.345118,17.535059,14.328028,13.645655,16.085596
13.962549,17.589502,14.225733,14.022364,15.990137
13.589991,17.552637,13.979883,13.913233,15.289942
13.352442,17.358301,13.540186,13.340967,15.222559
13.272608,17.171778,12.785547,12.954248,15.388086
13.0377445,17.009424,11.7408695,12.721827,15.280909
12.779688,16.842676,11.25918,12.42959,15.089258
12.44961,16.76333,11.940088,12.640772,14.60708
12.263575,16.755762,9.979395,12.2599125,14.305811
12.099024,16.677881,9.47793,11.308252,14.127832
11.882715,16.568018,10.958643,11.767725,13.968897
11.664698,16.307764,10.6019535,11.490137,13.413477
11.425928,16.14956,10.027002,11.574121,13.434473
11.656397,16.169336,11.871729,11.799219,14.582666
12.202051,16.324121,12.945948,12.643946,15.745264
13.104639,16.740381,14.222803,13.597559,15.999659
13.773096,16.893702,14.363428,14.395899,16.022852
14.042871,16.623438,14.7755375,14.447168,16.16421
14.640039,16.309229,14.8849125,14.701319,15.396631
14.822168,16.424707,14.641748,14.439844,15.018702
13.492823,16.668848,14.08584,13.915918,15.182764
13.084864,17.530176,13.717432,13.530664,16.107813
13.343164,17.548487,13.365137,13.281397,16.78335
13.858301,17.683008,13.607325,13.166651,16.87417
14.142725,17.661524,14.174707,13.522364,16.845362
14.485254,17.744776,15.047266,14.311182,16.799952
14.613184,17.774073,15.408594,15.397852,16.843164
14.649561,17.777002,15.532862,15.522608,16.932764
14.570215,17.717676,15.792627,15.940577,16.942774
