"[299, 255]","[227, 248]","[287, 319]","[279, 328]","[230, 262]"
7.064111,9.031641,7.9833007,8.781641,8.271143
6.87417,8.968409,7.9464355,8.735987,8.186182
6.886865,9.035059,7.87124,8.653955,8.143946
6.702783,9.008692,7.803613,8.446436,8.048731
6.549463,8.707422,7.640039,8.266016,7.959863
6.572656,8.623682,7.4432616,8.060694,7.898828
6.6737304,8.7130375,7.369287,7.831445,7.820703
7.0108886,8.688868,7.289453,7.7972655,7.8961425
8.222559,8.624903,7.289209,8.170801,7.933252
9.647364,8.885889,7.4867187,8.738916,8.053614
11.346582,9.037256,8.016504,9.253565,8.291407
12.811914,9.2582035,8.323877,9.519678,8.667383
13.932032,9.591211,8.253077,9.178858,9.035303
14.414209,9.920313,8.251856,9.03628,9.340967
14.418116,10.043604,8.289698,8.822901,9.490625
13.971094,10.070459,8.237207,8.491846,9.491602
12.390039,9.949121,8.274073,8.559229,9.43545
10.927881,10.0375,8.012598,8.380762,9.340479
9.671289,10.060205,7.808496,8.282618,9.253321
8.685205,10.1192875,7.949121,8.372705,9.330957
8.292139,9.989893,8.049707,8.482813,9.3417
7.95083,9.932276,8.31753,8.612696,9.449366
7.7291503,9.70376,8.50503,7.992822,8.787012
7.657617,9.243555,7.2208495,6.8282714,7.8858886
7.329004,9.418116,6.737451,6.3548827,7.6092772
5.500879,8.932764,6.225488,5.7506347,7.1
4.732324,8.517237,5.7608886,5.6649413,6.9972167
5.0230956,8.67544,5.726709,5.671533,7.359033
5.0384765,8.817286,6.1725097,5.8612304,7.4156737
5.049463,8.530909,5.676416,5.162744,6.938867
4.9605956,8.353418,4.7594237,4.011621,6.5467772
4.2472167,8.18667,4.271631,3.789209,6.71499
4.4081054,8.105616,4.756738,4.4068847,7.1302733
4.976709,8.067041,5.497705,5.240381,7.4759765
5.4293456,7.9674315,6.162988,5.959619,7.756006
5.9242187,8.150782,6.787256,6.713281,7.8336425
6.0609374,8.20669,7.098535,6.8717284,7.7384276
5.8785644,8.421534,7.1388183,6.8299804,7.372949
6.554834,8.639063,6.7674804,6.7152343,7.247461
5.990869,8.660059,6.7035155,6.5868163,7.126123
5.5680175,8.893457,6.1515136,6.179834,7.265283
4.9896483,8.828028,5.542871,5.3250976,6.61416
4.5318847,8.9596195,4.402246,4.053125,6.470117
3.9947753,9.1036625,4.1288085,4.1827636,6.668115
3.1761718,8.794336,4.133447,3.7757812,6.297754
3.1515136,8.598536,3.7220702,3.4867187,6.676172
2.813623,8.691797,3.0475097,3.0057616,6.492822
2.456201,8.491114,2.0711913,2.8221679,6.162744
2.3126464,8.566065,1.5050293,2.6190429,6.430322
1.955957,8.457422,0.99013674,2.4261718,5.957666
1.6083008,8.470362,0.37856445,2.6971679,6.018457
1.3275391,8.564844,0.63930666,2.8680663,6.348047
1.1,8.50918,0.8512207,3.0248046,6.219629
0.7176758,8.59585,1.8490235,4.089502,5.886865
0.9466797,8.599268,2.365625,4.71499,5.581445
2.0384765,8.684717,3.254785,4.9850097,6.1117187
3.1844726,8.9439945,4.8163085,5.8072753,7.350244
4.9569335,8.965235,6.9967284,6.553125,8.267237
6.273828,8.925928,7.926904,7.3592772,8.948145
7.004297,8.991846,8.407373,7.7088866,8.906153
7.221826,8.782862,8.538233,7.758447,9.037012
7.2101073,8.950098,8.583155,7.6637206,9.03042
7.2396483,9.135645,8.479883,7.4220214,8.958643
6.7813964,9.412989,8.1939945,7.452783,9.258936
6.324365,9.567041,8.114893,7.6812987,9.533106
6.0921874,9.986963,7.9081054,7.7364745,9.154688
5.997949,10.298243,7.8993163,7.849756,9.072168
5.8541503,10.321192,7.829004,7.7972655,9.167383
6.2381835,10.182032,7.6881347,7.69375,9.314356
6.494287,10.133448,7.7437987,7.6222167,9.314112
6.5765624,10.162012,7.5211425,7.322656,9.215235
6.486963,10.087305,7.4586425,7.501367,8.985498
6.518945,9.872217,7.5592284,7.4154296,8.998194
6.341699,9.760645,7.537256,7.1739745,8.86709
6.2018065,9.860743,7.3333983,7.1476073,8.839014
6.109033,9.712305,7.164209,6.9745116,8.954004
6.011865,9.769434,7.113916,6.9691405,8.594385
5.9981933,9.722559,7.093164,7.001123,8.737696
5.980127,9.560205,7.0296874,6.9862304,8.581202
6.0458007,9.508692,7.285791,7.146875,8.718653
6.2611327,9.507471,7.814111,7.6100097,8.895166
6.738672,9.61709,8.475977,8.3771,9.3417
7.5746093,9.642481,9.20083,8.750391,10.098047
8.284571,9.685938,9.322657,8.6627445,10.517969
8.725977,9.807764,8.962793,8.5411625,10.577539
9.02627,10.014063,8.985987,8.935694,10.889307
8.954981,10.100733,9.32461,9.379053,10.63711
8.828272,10.317286,9.842432,9.681299,10.7408695
8.730371,10.404932,10.038477,9.738672,10.4630375
8.476709,10.500391,9.321192,8.977442,10.277735
7.9327636,10.447657,8.530176,7.360986,10.049952
7.8199706,10.425196,6.9083495,6.6668944,9.879053
8.051416,10.498926,6.864404,6.9415526,9.258936
7.546289,10.253321,6.582666,5.891992,8.669825
6.7035155,9.878321,5.883203,5.142236,8.392481
6.214502,9.547266,5.5960937,4.9742675,8.247461
5.938379,9.404688,5.037256,4.553369,8.078272
5.053613,9.11001,4.8404784,4.211328,7.5768065
4.5887694,8.86001,4.551904,4.02041,7.124414
4.6339355,8.70083,4.2052245,3.8878417,6.672998
4.334863,8.596094,4.2955565,3.8480468,7.004541
4.409326,8.576807,4.022363,3.878076,6.7120605
4.1668944,8.406885,4.2992187,3.9464355,6.202295
4.268457,8.392725,4.3336425,4.015039,6.959619
4.6952147,8.390528,5.0423827,4.763086,7.337793
5.136377,8.267481,5.609033,4.7677245,7.740381
5.260156,8.336817,5.9359374,5.7223144,7.932031
5.9483886,8.516748,6.945703,6.487695,8.416651
5.974756,8.677393,7.34292,6.8529296,8.973291
5.9920897,8.864893,7.5631347,7.6214843,8.833887
6.249414,9.04751,7.1388183,7.292871,9.193018
5.4554687,9.268213,7.212793,7.25332,8.945459
5.8009276,9.408838,6.933496,6.9833007,8.79751
5.438867,9.538233,6.530664,6.511621,8.420069
5.1859374,9.705957,6.12124,5.5155272,8.248194
4.8844237,9.753077,5.7118163,4.9791503,7.7499022
4.7660155,9.728418,5.355127,5.140039,7.268213
4.986963,9.659571,5.7118163,5.48208,6.8473144
5.0780272,9.566065,5.724756,5.381006,6.6058593
4.35708,9.455713,5.7906737,4.8592772,6.5382323
4.3993163,9.486963,5.365869,5.0211425,6.5714355
3.997705,9.16958,5.900293,5.2953124,6.673486
3.791162,8.922266,5.2906737,4.850488,5.9483886
3.8749022,8.866602,5.3041015,5.3595214,6.322412
4.089746,8.88125,5.5104003,5.4291015,6.773584
4.1046386,8.841211,5.672754,5.6324706,6.9466796
3.6708007,8.167871,5.766748,5.595361,6.87417
3.766748,7.843408,5.8756347,5.677881,6.74917
4.115869,7.6874022,6.143457,5.971338,6.508447
4.3666015,7.912988,6.53457,6.080957,6.5052733
4.4015136,7.65542,6.509912,6.294336,6.647119
4.304834,7.774072,6.273584,6.254541,6.8961425
4.35708,8.1505375,5.923486,6.367334,7.0294433
4.5628905,8.390528,6.461328,6.752588,7.325586
4.7398925,8.779444,6.5489745,6.894922,7.8888183
4.976953,9.287256,6.9010253,7.3670897,8.76919
5.391504,9.82168,7.6251464,7.903955,9.078272
5.936914,9.888819,8.264551,8.296778,9.267969
6.7933593,9.95376,8.447901,8.262598,9.194971
7.3023925,10.050684,8.261133,8.051905,9.112696
7.1952147,10.105127,7.934961,7.59707,9.159082
6.9308105,10.018213,7.5155272,7.2159667,8.922998
6.716455,9.958887,7.235986,7.058496,8.868067
6.6214843,9.809473,7.216211,7.0853515,8.694727
6.4669433,9.76211,7.0470214,6.9413085,8.567774
6.199365,9.754541,7.0855956,7.008203,8.433496
5.9620605,9.669092,6.779199,6.7711425,8.162256
5.976709,9.734522,6.957666,6.807031,8.120996
5.650293,9.590479,6.790918,6.560449,8.097803
5.750879,9.566797,6.570459,6.4027343,8.143457
5.8495116,9.604639,6.6097655,6.444238,8.222559
5.751611,9.451319,6.853418,6.5956054,8.287012
5.8387694,9.37002,6.9688964,6.7813964,8.644434
6.15542,9.500391,7.2611327,6.9259276,9.080957
6.5538573,9.610987,7.7538085,7.317041,9.445459
6.7225585,9.688379,8.2269535,7.789453,9.769434
6.876123,9.785791,8.581202,8.206446,10.242823
6.9156737,9.903711,8.944483,8.673243,10.581202
7.2308593,10.102686,9.329981,8.952539,10.831934
7.5504394,10.314112,9.496485,9.072657,10.953272
7.7433105,10.4439945,9.434717,9.074854,10.942286
7.8907714,10.596827,9.227686,8.948877,10.736475
8.054102,10.79336,9.0550785,8.812647,10.639551
8.132715,10.81045,8.978418,8.69253,10.527246
8.052149,10.608545,8.951075,8.581446,10.2911625
7.832666,10.531641,8.922754,8.508936,10.067286
7.5665526,10.342432,8.824854,8.415674,9.885401
7.4017577,10.256983,8.712305,8.311426,9.777735
7.258447,10.239649,8.612452,8.223047,9.561182
7.1319823,10.13125,8.462305,8.125879,9.399805
6.990625,10.025782,8.307764,8.068018,9.27627
6.8651366,9.917383,8.229395,7.9916015,9.187159
6.7591796,9.869532,8.170313,7.96499,9.068018
6.674951,9.8536625,8.080957,7.869043,8.974512
6.567285,9.722559,7.99624,7.7674804,8.900782
6.530664,9.500879,8.096582,7.7816405,8.867334
6.5902343,9.343653,8.381739,7.9691405,8.989649
6.626367,9.254786,8.719629,7.924463,9.031641
6.783838,9.167627,8.91836,8.455225,9.199854
7.0104003,9.266993,9.472559,8.768457,9.661036
7.21499,9.344385,9.819971,9.13003,9.714991
7.37417,9.212061,10.090479,9.40127,9.5375
7.236963,9.346338,9.809961,9.509424,9.45669
7.2298827,9.445948,9.750391,9.287989,9.459131
6.8475585,9.268457,9.362207,9.083887,9.390039
6.664697,9.424463,8.920313,8.433741,9.276758
6.3719726,9.629786,8.361231,8.020899,9.249903
6.136377,9.782129,8.09292,7.7552733,9.248926
6.1947265,9.800196,7.9623046,7.718164,9.197901
6.221338,9.84292,7.9503417,7.67666,9.104639
6.2679687,9.847315,7.8976073,7.6170897,8.771631
6.199365,9.799952,7.815332,7.540918,8.428858
6.09292,9.732325,7.6458983,7.440088,8.52334
6.0348144,9.640039,7.5450683,7.381494,8.265284
5.88833,9.562891,7.437158,7.254785,8.008448
5.849756,9.431543,7.280908,7.0887694,8.190821
5.8514647,9.15835,7.091455,7.001611,8.159082
5.773584,9.177881,6.966455,7.0138183,7.9896483
5.706445,8.811182,7.0367675,7.055322,8.047754
5.718408,8.870508,7.216699,7.018457,8.258936
5.9811034,8.876123,7.522119,7.5052733,8.503565
6.1651855,8.975,8.183008,8.255518,8.974756
6.350488,9.141993,8.739893,8.520899,9.42544
6.992578,9.389307,9.148584,8.445215,9.691309
7.220117,9.330957,9.143213,8.939844,9.726221
7.325586,9.518946,9.407373,9.453516,10.047022
7.5733886,9.493799,9.820459,9.608301,10.391504
7.5780272,9.613184,9.843897,9.10293,10.104395
7.4171386,9.840479,9.537989,9.180323,10.152002
7.3338866,10.010401,9.443506,9.365381,9.869532
7.2120605,10.100733,9.384668,9.420313,9.682276
7.1324706,10.357325,9.35586,9.0846195,10.1488285
7.166406,10.683496,9.579493,9.330225,10.583155
7.275537,10.655176,9.56045,9.123682,10.446192
7.9793944,10.324121,8.716944,8.354395,10.498438
8.209375,10.382227,8.325586,7.9500976,10.473291
8.047266,10.599268,7.553369,7.2572265,9.8067875
6.81167,10.067286,6.9623046,6.7501464,9.2167
6.1480956,9.768946,6.5943847,6.346338,8.7792
5.869531,9.641748,6.480371,6.0543456,8.718897
5.5157714,9.559473,6.1546874,5.995996,8.428858
5.379297,9.472315,6.2311034,5.9205565,8.230127
5.301416,9.455957,6.025537,5.8026366,8.252344
5.3075194,9.369043,6.2796874,5.8756347,8.312159
5.399072,9.330713,6.6476073,6.482324,8.585108
5.9933105,9.203272,7.4134765,7.220117,8.841944
6.0020995,9.061914,7.757959,7.4642577,8.922022
6.30166,9.140284,8.045313,8.029688,9.351709
6.515283,9.215235,8.311914,8.094629,9.624903
6.626367,9.341211,8.298243,8.251368,9.701563
6.5594726,9.420313,8.323877,8.551905,9.5021
6.548486,9.455469,8.739405,8.665674,9.4439945
6.514795,9.665674,8.489405,8.487696,9.219873
6.3370605,9.677393,8.013819,7.9259276,8.687403
6.1339355,9.5533695,7.474756,7.410547,8.512842
5.9676757,9.500391,7.1793456,7.0853515,8.444483
5.6722655,9.463282,7.126367,6.8683105,8.147364
5.4642577,9.166895,6.955713,6.7293944,7.8683105
5.5660644,8.896387,6.85,6.6546874,7.5677733
5.4535155,8.95376,6.760156,6.628076,7.7313476
5.3404784,9.29751,6.581445,6.5907226,7.9671874
5.44375,9.381006,6.6913085,6.643701,8.208155
5.6549315,9.434717,6.723047,6.7484374,8.307032
5.8097167,9.345118,6.8026366,6.833154,8.339746
6.0890136,9.455225,6.9901366,7.063867,8.504541
6.1915526,9.528223,6.9796386,7.3714843,8.85586
6.223291,9.8417,6.9359374,8.005518,9.156641
6.648828,10.242334,7.1549315,8.324121,9.577539
7.2240233,10.001368,8.586573,8.677637,10.048731
7.596826,9.928614,9.146875,9.178614,10.0255375
7.863916,9.895899,9.505762,9.520655,10.121973
8.162012,9.875147,9.754541,9.639063,10.253809
8.182276,9.679346,9.802881,9.631006,10.347803
8.228418,9.670313,9.882959,9.694727,10.212305
7.8685546,9.652491,10.026514,9.676661,10.127832
7.4864745,9.630762,9.854883,9.527246,10.256739
7.2381835,9.933008,9.583643,9.503565,10.127344
7.0020995,9.777979,9.220606,9.087305,9.917627
6.7313476,9.696924,8.682764,8.5394535,9.635889
6.6405272,9.771875,8.411768,8.568018,9.239893
6.6163573,9.901758,8.149805,8.661524,9.005518
6.7796874,10.075586,8.523584,8.633936,8.729395
6.85708,10.146143,8.561426,8.6661625,8.857813
6.966211,10.039209,8.629786,8.7113285,8.983057
7.149072,10.063623,8.472559,8.72378,8.884668
7.135156,9.977686,8.53335,8.765528,8.568506
7.1493163,9.861963,8.670313,8.770166,8.280909
7.2088866,9.770899,8.764307,8.6957035,7.709131
7.1895995,9.441309,8.580225,8.581446,7.6825194
7.0665526,8.944971,8.080225,8.450342,7.5592284
6.8756347,8.831202,8.097071,8.255274,7.296289
6.6620116,8.942286,8.49502,8.046045,7.692529
6.7743163,8.902002,9.422266,8.184229,7.964502
6.8980956,8.708643,9.605127,8.3832035,8.484766
7.0885253,8.703028,9.447168,8.197657,9.020655
7.561914,8.734034,9.855371,8.302881,8.839258
7.9483886,8.752344,9.583155,8.597559,8.761866
8.20083,8.765039,9.107813,9.017481,8.76919
8.13418,8.846582,9.206934,9.134424,9.168848
7.654199,8.738672,9.402979,9.052637,9.486475
7.344873,9.457911,8.899317,8.9161625,9.035547
6.8460937,9.501612,8.305567,8.544336,8.908594
6.5335937,9.557032,8.129786,8.334131,8.7564945
6.478662,9.690577,8.071924,8.165674,8.924219
6.4271483,9.8675785,8.028467,8.111719,9.146387
6.286035,10.010401,8.017969,7.9276366,9.502588
6.2328124,10.164698,8.064844,7.848047,9.575342
6.306787,10.127832,7.789697,7.9710937,9.454004
6.4520507,10.237696,8.01333,7.896875,9.018213
6.435205,10.201319,7.9469237,8.057764,9.052637
6.2262206,10.250391,8.090479,7.9305663,9.094385
6.0370116,10.146387,8.01919,7.3160644,9.15542
6.234033,10.045801,6.876611,6.744287,8.967676
6.164697,9.764795,6.4781737,6.3351073,8.240137
5.929834,9.394434,5.9896483,5.2760253,7.982324
5.8634276,9.255762,5.45791,5.2589355,8.170313
5.6632323,9.147608,6.1805663,6.2018065,8.209864
6.1256347,8.899561,7.032129,7.001611,8.474268
6.164209,8.669092,7.509668,7.1878905,8.554346
7.2188964,8.618799,8.228907,7.53042,8.756983
7.110498,8.695948,8.202784,7.699121,8.813623
6.9208007,8.813623,8.468897,7.866113,9.339746
6.7518554,9.046289,8.19253,7.003076,9.49209
6.6961913,9.21377,7.7313476,6.749414,9.26919
6.325586,9.374659,7.4552245,6.05166,8.836817
5.516992,9.375879,6.00625,5.690332,7.9776855
4.845361,9.312647,5.2762694,5.2750487,7.1424804
4.507959,9.237452,4.947168,4.728662,7.0108886
4.4774413,8.998682,4.511377,4.7191405,6.535547
4.100244,8.890772,4.1344237,4.5145507,6.7384276
3.815332,8.60586,3.7608886,4.225244,6.0365233
3.5401855,8.36294,3.813623,4.4413085,5.7171874
3.2828612,8.308008,3.985498,4.0277343,5.6947265
3.1515136,8.361963,4.20083,4.016748,5.438379
2.6432128,8.218653,3.7457519,3.9679198,5.430322
2.7662597,8.096582,3.8895507,3.9464355,5.2577147
2.3651366,8.204004,3.563623,4.105127,5.6700683
1.8695313,8.205225,4.530664,4.6620116,5.7281737
1.7254883,8.279932,4.9898925,4.915918,5.8822265
2.256494,8.42544,5.5799804,5.5589843,6.463281
3.8739257,8.526026,5.9481444,6.3905272,7.5868163
5.5191894,8.754297,6.671045,6.74917,8.378077
6.2623534,8.905909,7.7660155,6.815576,8.855127
7.202539,9.143946,7.780908,6.7733397,9.279688
7.992334,9.35708,8.1625,7.060205,9.494043
7.8924804,9.351465,7.6407714,6.7760253,9.455713
8.0707035,9.461573,7.572656,7.207422,9.340967
7.8597655,9.594141,7.723047,7.671289,9.18545
7.62124,9.618555,7.5179687,7.4447265,9.017969
6.9344726,9.743799,7.129297,7.0177245,8.902735
6.7030272,9.786768,7.2210937,7.226709,8.943018
6.4811034,9.863672,7.3592772,7.261377,9.044825
6.2853026,9.8033695,6.938867,5.4642577,9.162989
6.143457,10.011133,6.0921874,5.5545897,9.216211
6.1822753,9.961817,5.770654,5.459863,8.309717
6.38125,9.177637,5.5467772,5.423242,7.8580565
6.6046386,9.250879,5.1808105,5.212793,7.6808105
6.730615,9.518702,4.8963866,5.1009765,8.073145
6.9381347,9.740381,4.8790526,5.1371093,7.9884276
6.935449,9.869532,5.126367,4.720361,8.507959
6.9586425,10.0533695,5.184961,4.7052245,8.881006
6.8219237,10.0689945,5.697656,4.570947,9.175928
6.872461,10.205469,6.395654,4.384668,9.269922
6.848779,8.214746,6.050195,4.11416,6.253076
6.8404784,7.5057616,4.4125,3.42666,6.350488
6.949121,7.6026855,3.655664,3.382959,6.28457
6.923242,7.6217284,3.7452636,4.0956054,6.200586
5.905908,7.830713,4.758447,4.814111,6.8614745
4.5836425,8.402246,5.8392577,5.081201,8.401026
4.732324,8.652246,6.933496,6.519922,8.468653
5.0140624,8.768213,6.2169433,7.124414,8.698633
5.4049315,8.954248,7.0399413,6.649072,8.355127
4.6478515,8.8033695,6.4132323,6.4791503,8.454981
4.7574706,8.620264,5.765283,5.6163573,7.5746093
4.103662,8.91128,4.6214843,4.3424315,5.409082
3.5946288,8.941553,4.115381,4.244531,5.789697
3.6595702,8.943018,3.8202147,3.5946288,5.782617
3.4413085,8.761377,3.7833495,3.626367,5.4017577
3.0506835,8.3146,3.3478026,3.315576,5.428613
2.7313476,7.9378905,3.1356444,2.7166991,5.0645995
2.3722167,7.7223144,2.9723144,2.9771972,4.850488
2.4552245,7.805322,2.3416991,3.112451,4.6754394
2.0941405,7.8124022,2.2467284,2.704492,4.9288573
1.8983399,7.701074,1.5597168,2.624658,5.225488
1.931543,7.4217772,1.8021485,2.8888183,4.80166
2.0645995,7.421533,2.315576,2.422998,4.5421386
2.0519042,7.490625,2.0472655,2.759912,4.627588
2.5162597,7.393701,3.343164,3.4398437,5.586084
3.398584,7.532373,4.253076,4.973535,6.8148437
4.5802245,7.3749022,5.409082,5.9171386,7.5521483
4.8126464,7.6686034,6.6617675,6.357324,8.374414
5.408838,7.543115,7.036279,6.94375,8.682276
6.985498,7.8819823,7.6424804,7.4706054,8.782862
7.391748,8.129541,8.087793,7.5433593,8.917627
7.1183105,8.522608,7.8807616,7.636621,8.986963
6.6270995,8.941065,7.7315917,7.355371,9.156397
6.290918,9.124659,7.244287,7.0973144,8.477198
5.8287597,8.707666,6.2569823,6.265283,7.807031
5.01333,8.456934,5.1615233,4.930322,6.516504
3.9781737,9.009668,4.8839355,3.8924804,6.3927245
3.5018554,8.916407,4.114404,3.7298827,5.926172
3.0799804,8.69253,3.628076,3.7179198,5.9312987
3.1446776,8.44961,3.7723632,3.6878905,5.359033
2.95791,8.2911625,3.4254394,3.3270507,5.362695
3.00625,8.248438,2.8868651,3.2762694,5.2481933
2.4627929,7.933496,2.632959,3.0448241,5.2604003
2.004541,7.829004,2.7813964,3.0104003,5.2538085
1.5887696,7.8961425,2.4762206,2.7474608,5.09292
1.3243653,7.8233886,2.5143065,2.3907714,5.0770507
1.546045,7.9669433,2.3065429,2.1847167,5.228906
1.612207,8.0917,2.0970702,2.2782226,5.0384765
2.3768554,8.355371,3.2713866,3.110498,5.7315917
3.379785,8.48501,4.4010253,4.6776366,6.9884276
4.6151366,8.426905,6.329004,4.7420897,7.296289
5.287744,7.771875,6.5746093,4.8492675,7.6493163
5.331201,7.235498,5.544336,6.688623,7.410547
4.8873534,7.4757323,5.704492,6.6048827,6.690332
4.780664,7.5086913,5.421533,6.415918,6.7274413
4.4937987,8.04043,5.606836,5.2967772,6.869287
4.3929687,8.125391,5.3443847,5.6305175,6.9483886
4.431543,8.356836,4.8844237,5.0855956,7.033838
4.5055175,8.516993,4.8788085,4.678125,7.2152343
4.6185546,8.93545,4.838037,4.280908,7.4256835
4.786035,9.832178,4.764795,4.275781,8.305567
5.0943847,10.045557,4.754541,4.374414,8.563379
6.070947,9.9005375,4.8194823,4.490869,8.4283695
6.7225585,9.6002445,4.988916,4.6253905,7.9955077
6.698877,9.452051,5.2013183,4.761865,7.4989257
6.478906,9.204493,5.6515136,5.0279784,7.1620116
5.6983886,9.023584,6.5526366,5.6373534,7.079492
5.236963,8.910547,6.3961425,6.275293,6.8773437
5.041406,8.786036,6.2018065,6.16958,6.7901855
4.7193847,8.656641,6.1864257,5.9845214,6.6205077
4.4793944,8.644922,5.970361,5.923242,6.579004
4.1913085,8.551416,5.962793,5.7831054,6.59292
4.487451,8.473291,6.34707,5.9225097,6.948877
5.1952147,8.537989,6.6839843,6.0660644,7.3592772
6.028711,8.49209,6.881494,6.1839843,7.777246
6.7315917,8.537256,7.3478026,6.738672,7.870996
6.926172,8.672754,8.179102,6.605615,7.836084
7.353418,8.770655,7.79458,7.4356933,7.3336425
7.682031,8.954493,8.684961,8.673243,7.5611815
7.4796386,9.190332,9.224756,8.840723,7.2296386
6.969873,9.263575,9.051172,7.4798827,7.3844237
5.9920897,8.579981,7.9811034,7.881738,7.313867
5.567041,8.847803,7.442041,6.9686522,7.2240233
5.254785,8.843653,5.987451,5.403955,7.098779
4.8722167,8.639795,4.516992,4.3634276,7.0475097
5.1378417,8.513819,3.3697753,3.935205,6.8768554
5.0763183,8.309473,2.562158,3.8770995,6.747461
4.775781,7.9850097,2.4312987,3.48916,6.612451
4.4549804,8.340479,1.8875977,3.6429687,6.164209
4.2364745,8.434717,1.934961,3.016992,5.087793
3.492578,8.79751,1.674707,2.3822265,4.9256835
2.6756835,8.826807,1.4913574,1.8307129,4.955957
2.501123,8.737452,1.1102539,1.6739746,5.063623
2.556787,8.651758,0.7555176,1.377832,4.932031
2.2435546,8.616602,0.36074218,1.138086,5.0233397
2.1639647,8.550684,-0.054052733,0.88320315,4.520654
2.8788085,8.498926,0.8990723,2.0675292,5.5006347
3.8690429,8.414942,2.5384765,3.9747558,7.3905272
5.3092284,8.326807,4.758447,5.5506835,8.35586
6.4134765,8.346827,7.002588,6.5382323,9.171534
7.219873,8.413721,7.5609374,6.9364257,9.441797
7.759912,8.654688,7.546289,7.270166,9.275782
7.4190917,8.708887,7.966699,7.2503905,9.786768
7.5802245,8.849756,7.567041,8.264307,9.849268
7.567285,9.149561,6.8143554,8.673243,9.63003
6.957422,9.365625,7.8526855,8.211573,9.156641
6.2052245,9.483057,6.952539,7.268213,8.782129
5.1061034,9.653955,5.4139647,6.0694823,8.102686
4.2906737,9.65127,4.64541,5.0035644,7.2552733
4.28457,9.686182,3.0675292,4.5902343,7.348047
3.8297362,9.747705,2.0143065,4.143213,7.738672
4.0333495,9.707666,2.4635253,3.8834472,8.0846195
3.8724608,9.717676,3.0260253,3.4430175,8.235743
3.9398437,9.798243,2.6253905,3.4500976,8.297266
4.256006,9.916895,2.8246093,3.5528808,8.642237
4.5350585,9.791407,3.4308105,3.8897948,8.641504
4.7447753,9.887598,3.971826,4.0562987,8.652002
4.6947265,9.855127,4.6202636,4.628076,8.776026
4.6703124,9.708155,5.1012206,4.9967284,8.487452
4.881738,9.74502,5.922754,5.4693847,8.72378
5.212793,9.711817,6.5909667,6.0614257,8.940821
5.681787,9.827051,7.249414,7.1170897,9.273584
6.4674315,9.971094,7.305322,7.6585937,9.691797
7.4347167,10.164698,7.594873,8.321192,10.09292
8.471338,10.421778,8.157373,9.252344,10.529932
9.274805,10.595606,8.748926,10.019434,10.928858
9.857813,10.60708,9.398096,11.008692,11.048731
10.587793,10.675684,9.671289,11.325342,10.983057
11.084375,10.680567,9.790918,11.113672,10.942041
11.088526,10.633692,9.847803,11.05459,10.796778
10.598536,10.661036,9.792627,10.708643,10.620508
10.206934,10.608545,9.695459,10.218409,10.467676
9.959864,10.489649,9.619043,10.051905,10.399073
9.779932,10.43667,9.552637,10.123926,10.375879
9.600733,10.451075,9.548243,10.146143,10.346582
9.506983,10.431299,9.538477,10.115381,10.276514
9.391016,10.431299,9.460352,10.0707035,10.24209
9.236231,10.421534,9.413477,10.052637,10.24209
9.079493,10.385889,9.400049,9.966211,10.167383
8.978418,10.37295,9.4439945,9.956202,10.109034
8.902979,10.360987,9.524805,10.010645,10.059961
8.872217,10.3536625,9.506006,10.015284,10.008692
8.816797,10.291407,9.525293,9.5880375,10.045069
8.734766,10.18252,9.398584,9.314356,9.952539
8.906397,9.994532,9.431543,8.911768,8.918116
9.10293,9.4596195,9.070215,8.601465,8.711817
9.184229,9.467188,8.703272,8.525049,8.731592
9.087061,9.42959,8.576075,8.507227,8.709864
9.012354,9.489649,8.642481,8.574366,8.481348
9.042139,9.285059,8.727442,8.167383,8.237696
9.055567,8.819239,8.620264,7.924951,8.162012
8.999659,8.530909,8.018946,8.261621,7.761621
8.457911,8.197657,8.058252,8.286036,7.874414
8.005274,8.290186,8.064844,7.466211,7.067529
7.535791,7.9098144,7.263086,7.3302245,7.329492
6.7135253,8.226465,6.6239257,6.8705077,6.9989257
5.536279,7.9549804,6.3026366,6.6234374,6.9742675
5.3751464,8.554834,6.223291,6.0001464,7.3145995
4.613916,9.070459,5.8421874,5.6148925,6.8443847
4.1424804,9.031885,5.266992,5.124658,6.3856444
4.094873,9.0646,4.386865,4.3055663,5.723047
4.075586,9.111963,3.4339843,3.707666,5.3941894
3.438623,8.937891,2.7713866,3.3592772,4.6371093
2.7577147,8.625147,2.424951,3.4024901,4.312158
2.7230468,8.5567875,2.1947265,3.5421386,4.3946776
2.8958983,8.519922,2.9125,3.3070312,4.0836425
2.5519042,8.535059,3.0274901,2.884912,4.624658
2.5555663,8.613184,3.037744,3.0833983,5.447168
3.0025878,8.760645,4.2696776,4.4378905,6.5250487
4.0924315,9.085352,5.5609374,5.4137206,7.079736
5.360742,9.434961,5.7572265,5.661035,8.01919
6.1344237,9.582911,6.1932616,6.192285,8.474756
7.4132323,9.693262,6.7950683,5.1458983,9.385157
8.264063,9.977686,7.1478515,7.6268554,10.448145
8.428614,10.316553,7.9776855,6.9330077,11.121241
8.148096,10.566797,8.374903,5.791162,11.276514
7.860986,10.709131,8.312891,6.924707,11.104883
8.515528,10.76211,7.4742675,6.320459,10.704493
7.807031,10.491846,6.1964355,5.733545,9.740625
7.758447,10.787989,5.674951,5.0592284,8.606348
5.7118163,10.7130375,5.4203124,4.8546386,7.966455
5.0626464,10.481104,5.0111327,4.4273925,7.9896483
4.766992,10.332666,4.7433105,4.3905272,7.900537
4.716211,10.221094,4.211084,4.2450194,7.9486327
4.9588866,9.820948,3.9359374,3.9771972,7.8072753
4.930322,8.98086,3.909326,3.5140624,7.7279296
4.7989745,9.024317,3.662744,3.1339355,7.584863
5.0177245,9.283838,3.7154784,3.6351562,7.9588866
5.05874,9.780664,4.2293944,4.1964355,8.375635
5.12417,9.995264,4.7555175,4.732324,8.573877
5.4046874,10.011621,5.157861,5.082666,8.579981
6.020166,10.087305,5.19082,4.8910155,8.784571
6.485498,9.971582,6.195703,4.9500976,9.146387
6.9322753,9.901514,7.3910155,6.2499022,9.254786
7.4098144,9.827051,7.9625487,7.768457,9.111475
7.686914,9.812159,8.212061,8.140772,9.155909
7.6812987,9.737696,8.204004,8.403955,9.054346
7.50332,9.700098,8.383692,8.559717,9.1332035
7.1498046,9.833887,8.493067,8.819727,9.096094
6.9813476,9.844873,8.372461,8.724756,9.143702
7.132959,9.811426,8.28335,8.471827,9.058252
7.0936522,9.89834,8.388575,8.47378,8.995264
6.848047,9.920557,8.339258,8.461817,8.957666
6.7621093,9.911768,8.221582,8.324366,8.949121
6.6083007,10.015772,8.239649,8.216455,9.017481
6.6512694,10.009424,8.221094,8.221094,9.062647
6.777002,10.184717,8.140528,8.156153,9.118067
6.8441405,10.224512,8.104883,7.9947753,9.182764
6.718164,10.398096,8.095362,7.9496093,9.1271
7.027246,10.475489,8.151514,7.971338,9.207911
6.6983886,10.491602,8.122461,8.040674,9.385157
6.6390624,10.486475,8.169092,8.058496,9.4596195
6.6148925,10.573633,8.255518,8.202539,9.530664
6.428613,10.651758,8.306543,8.263575,9.68545
6.473535,10.739649,8.120996,8.2792,9.7582035
6.55874,10.654444,7.9762206,8.286524,9.658594
6.914209,10.5394535,8.102198,8.477442,9.610254
7.586572,10.498438,8.512354,8.89126,9.7167
8.509668,10.511377,8.950342,9.222803,9.996241
9.07461,10.602198,9.143702,9.1314945,10.62295
8.902735,10.311182,9.413477,9.290918,11.115381
8.840235,10.0375,9.621241,10.089991,10.839014
8.785059,9.972559,10.319239,10.808496,10.029932
8.482325,9.922022,10.066797,10.543116,10.647852
8.360498,9.762354,8.860498,9.170069,10.064356
7.881494,9.581934,7.8592772,8.596582,9.154444
7.334863,9.3849125,7.690576,8.027979,8.676661
6.4295897,9.204981,6.9139647,7.0665526,8.139307
6.154199,8.703272,6.6322265,6.175195,6.681787
5.7992187,7.9725585,5.978418,5.8097167,6.0375
5.777246,7.583154,5.8438964,5.616113,6.238916
5.1214843,8.170801,5.3109374,5.4410644,6.885156
4.263574,9.148096,5.502832,5.138574,7.3111815
3.9713378,9.111475,5.2867675,4.9188476,7.375879
3.676416,7.963037,4.83291,4.9342284,6.829492
4.10708,7.6788573,4.7384276,4.9239745,6.647119
4.455957,7.6390624,4.7240233,4.799707,6.2889647
4.6061034,7.355127,4.806787,4.973291,6.5157714
4.619531,7.7679687,5.0606933,4.97207,6.2748046
4.7154784,7.471826,4.8280272,4.1864257,6.0729003
4.8558593,7.8126464,4.190332,4.147119,6.2818847
5.1515136,7.758447,4.2086425,4.211328,6.491113
5.0260253,7.9884276,4.3473144,4.4862304,6.79458
4.98208,7.975244,4.660791,4.5885253,6.8731933
4.9444823,7.809961,4.445459,4.4989257,7.096338
4.8106933,7.817285,4.1446776,4.169336,7.1773925
4.9762206,7.7765136,3.8163085,4.005029,7.3907714
5.2333007,7.6600585,3.6185546,4.0311522,7.334131
5.069238,7.799707,3.652246,3.893701,7.1322265
4.5802245,7.860742,3.503076,3.9208007,7.0213866
4.1600585,7.7765136,3.5318847,4.1500487,6.8041015
3.4618163,7.655908,3.3817382,3.220117,6.1874022
2.7457519,7.586572,2.3700194,2.921289,5.8983397
2.3807616,7.199121,2.011621,2.4447265,5.6043944
1.947168,7.0333495,1.2411133,1.351709,5.183252
1.9381348,7.1551757,0.37636718,0.49941406,4.624414
1.8189942,5.9398437,-0.3309082,-0.08481445,4.572412
1.5807129,6.252588,-0.86069334,-0.4883789,3.86416
1.1129395,5.9466796,-1.3128418,-0.787207,4.0926757
0.29946288,5.818506,-1.7662109,-1.1104492,3.7254882
-0.029394532,5.0311522,-2.1451173,-1.4134277,3.6761718
-0.32089844,5.3199706,-2.554297,-1.7930664,2.4833007
-0.19418946,5.483789,-2.8155274,-2.484961,2.4083495
-0.27695313,5.812158,-2.4429688,-2.5828614,2.798242
0.26210937,5.5694823,-1.1514648,-1.1573242,3.593164
1.1310059,5.238916,0.097314455,0.5230957,4.280664
1.7569824,5.516748,1.6622559,2.0282226,3.4134765
2.1812987,5.7450194,3.311914,3.4657226,5.468408
3.0338378,5.8387694,4.459863,4.1805663,4.2640624
3.9806151,5.702783,5.13125,4.646631,6.0648437
4.5057616,5.839746,5.4691405,5.301904,6.421289
4.6075683,6.0104003,5.241113,5.725,5.8145995
3.2091308,6.438867,5.437158,5.3946776,6.5890136
3.799707,6.588037,5.079736,4.7208495,6.165918
2.9295897,6.6844726,4.5572753,4.2381835,5.434961
1.7591797,6.810449,3.2132812,3.0001464,3.7264647
0.6039063,6.9254394,2.0750976,2.9159179,3.0692382
0.043115236,7.1236815,1.3077637,2.6568847,3.5313964
-0.228125,7.3392577,1.4417969,1.721582,2.547998
-0.4859375,7.653711,1.4647461,1.0899903,2.846826
-0.5640625,7.7447753,1.1124512,0.6310059,2.1212401
0.19790038,7.855127,0.7801758,0.3573242,2.1119628
-0.5630859,7.8702636,0.42885742,0.3253418,2.8666015
-0.76352537,7.7364745,0.008203125,-0.13608399,1.5089356
-1.0362304,7.5787597,-0.5730957,-0.40390626,1.2657715
-1.3130859,7.631006,-1.9131836,-0.75327146,1.676416
-1.3077148,7.4933105,-3.2513185,-1.0101074,1.2252442
-0.96713865,7.456445,-1.6919922,-0.35678712,1.0658203
0.67470706,7.4659667,1.2357422,1.5855957,2.9869628
2.2135253,7.034326,3.4588866,3.9337401,5.636377
3.8111815,7.1424804,4.827295,4.968164,7.115869
5.2730956,7.1930175,5.561914,5.5787597,7.9920897
5.982324,7.450586,6.8385253,6.181543,8.54336
6.3905272,7.7450194,7.0418944,7.2796874,8.808252
6.751367,7.808252,6.8910155,7.7083983,8.892969
6.921533,7.8370605,7.5284667,7.783838,8.724512
7.113672,7.5938964,7.631006,7.3128905,8.422754
6.8565917,7.6844726,7.319238,6.7591796,7.9364257
5.812158,7.87417,6.1322265,5.8717284,7.1324706
4.0057616,8.090235,4.049463,4.221582,4.6405272
2.792871,8.113428,3.0626464,3.2855468,2.7057128
2.329492,7.359033,1.3292481,2.527246,2.0223632
2.0785155,6.95791,0.6712891,1.223291,1.6275879
2.2179198,6.6822753,0.91323245,1.3373047,0.37978515
2.10708,6.173486,-0.7649902,0.91811526,0.26967773
1.8958985,6.624658,-1.690039,0.26967773,0.7242676
1.5003906,6.4842772,-1.3489746,-0.050390624,1.3026367
1.0091797,6.428125,-0.8804687,-0.76645505,1.4879395
1.0018555,6.2345214,-0.93222654,-1.0362304,1.2672364
0.8521973,6.0782714,-1.5315918,-1.0540527,0.928125
0.73598635,6.174951,-2.5845704,-0.16269532,-0.56699216
1.1234375,6.2030272,-0.38657227,0.72329104,0.9417969
2.6966796,6.270166,1.4879395,1.6593262,4.761865
4.4308105,6.416162,3.115869,3.240869,6.768945
5.4776855,6.918115,4.688379,4.5975585,7.1483397
6.0909667,7.579736,6.020166,5.643213,8.403711
6.924707,8.08584,7.0558105,6.266992,8.915674
7.5716796,8.472559,7.9322753,7.546045,8.889063
8.141993,8.350977,8.9161625,8.04458,8.932032
8.520166,8.320459,8.6471195,7.961084,8.889063
8.371485,8.406885,8.864405,7.8387694,8.657618
6.8282714,8.474512,7.5975585,6.7970214,7.9774413
6.1336913,8.420313,6.407129,6.2330565,7.758447
5.091699,8.44253,5.6651855,5.8250976,6.8199706
4.3722167,8.587549,4.7640624,5.593164,5.7728515
3.6346679,8.694727,4.5506835,4.869531,5.2433105
2.801416,8.78042,4.150781,4.266504,6.161035
3.006494,7.660547,4.0311522,3.877832,5.3543944
3.414453,7.0545897,3.8438964,3.916162,4.820459
2.9952636,7.8858886,3.859033,4.1895995,5.291406
2.4293456,8.2096195,3.4972167,4.0040526,4.344873
1.5277344,8.427149,3.1942382,3.707666,3.310205
1.8563477,8.436426,2.9183593,3.782373,2.6791015
1.9049317,8.256983,1.778711,3.1932616,2.4957519
1.855127,8.249903,0.7511231,2.7923827,2.1
2.0912108,8.476709,1.9830567,2.8194823,2.3463378
3.159326,7.644922,3.728662,3.680078,5.1839843
4.2848144,7.728662,5.007959,4.6446776,7.430078
6.049951,7.9693847,6.1771483,5.6754394,8.13711
6.9344726,8.175684,7.3072753,6.790918,8.809229
7.6932616,8.443018,8.373926,7.881006,9.528223
8.690088,8.650049,9.111475,8.634424,10.173487
9.044336,8.785303,9.666895,9.29043,10.338282
9.319483,8.901758,10.071436,9.508936,9.811182
9.676661,8.978907,9.915186,9.406397,9.667871
9.644678,9.042871,9.28335,9.109034,9.040186
9.181055,9.208887,7.974756,8.241602,8.080957
7.454736,9.485987,6.294336,5.955713,7.3075194
6.8265624,8.968164,4.646875,4.4986815,7.1483397
7.2486815,9.047266,3.7298827,4.010156,7.3524413
7.2870116,9.532862,3.5052733,3.8382812,7.315576
7.173486,9.860743,3.5172362,3.4400878,7.5765624
7.006006,10.166407,3.641992,3.4068847,7.7003417
7.0248046,10.330225,4.1187987,3.5038085,7.708154
7.049463,10.526758,4.7608886,3.8509765,7.810205
6.601953,10.366114,5.235254,4.265039,7.737695
6.532617,10.207911,5.272363,4.7591796,7.7333007
6.4271483,10.020166,5.505029,5.030664,7.6510253
5.87832,9.889063,5.640283,5.001611,7.33999
5.753076,9.929346,5.985986,5.3058105,7.5873046
6.462793,10.026026,6.827783,6.0545897,8.857325
7.522119,10.564356,8.206202,7.165918,10.83169
8.672998,11.235987,9.685694,8.355616,11.627588
9.831446,11.54458,11.052881,10.080713,12.486231
10.994776,11.500635,11.900782,11.214746,12.748682
11.758936,13.291651,12.775049,12.015284,13.449121
12.128565,13.369043,13.13125,12.873926,13.832422
12.485987,13.238184,13.142725,13.026026,14.399561
12.159571,13.44253,12.179834,12.296534,13.754786
11.871241,13.460596,11.08877,11.053858,12.973536
10.391504,13.118799,9.792871,9.833155,12.427881
8.0724125,12.452784,8.81875,8.870264,11.6488285
7.586328,12.002832,8.2442875,8.748682,10.41958
7.6561522,11.811182,7.4137206,8.211573,10.483789
8.002588,11.690821,6.878076,7.532129,10.605127
8.396631,11.444239,7.0455565,7.194238,10.635645
8.897608,11.139795,7.457422,7.468408,10.857325
