"[299, 255]","[227, 248]","[287, 319]","[279, 328]","[230, 262]"
16.974756,20.366358,16.135645,16.192774,16.958887
16.722803,20.525537,16.02505,16.074854,16.742334
16.7792,20.509668,16.006495,15.966211,16.774317
16.910059,20.442041,15.774073,15.877832,16.75625
16.923487,20.43252,15.579981,15.795557,16.728418
16.870508,20.393702,15.358789,15.632715,16.492823
16.982813,20.441553,15.587061,15.624903,16.427637
17.544092,20.495752,16.873682,16.402979,17.935938
18.570948,20.453272,18.398829,17.639307,19.98208
19.613916,20.423243,19.756739,19.188623,21.810938
20.388575,20.519678,21.073145,20.794336,23.05874
21.075342,20.501123,22.16421,22.135157,23.797266
21.47378,20.491846,23.027979,23.044092,24.302637
21.589502,20.453028,23.483545,23.473291,24.387598
21.52212,20.262842,23.66421,23.643946,24.341211
21.07046,20.157618,23.042627,23.327051,23.157373
20.039698,20.099268,21.488184,21.98501,21.975245
18.0375,20.094141,19.687159,20.148584,20.541895
17.115137,20.0917,18.084864,18.507227,18.020899
16.961573,20.206446,17.819971,17.527735,17.43252
16.921778,20.208887,17.102686,17.238916,17.093653
16.861963,20.17544,16.830713,16.701563,16.704493
16.761621,20.11123,16.528223,16.316309,16.237452
16.62002,20.040674,16.095606,16.011377,15.992334
16.402979,20.006983,15.708399,15.826075,15.900049
16.275537,20.00918,15.37417,15.515039,15.567286
16.153711,19.95547,15.175684,15.327295,15.593897
16.058008,20.008936,15.012598,15.113916,15.669092
15.890528,19.912989,14.777002,14.931299,15.577539
15.81167,19.93838,14.503321,14.788965,15.379541
15.924707,19.87588,14.7564945,14.799952,15.433985
16.90713,19.82168,15.874659,15.527979,16.787256
18.53921,19.933985,17.349268,16.962305,19.041895
19.742823,19.926172,18.614893,18.54458,20.662989
20.473047,20.00503,20.000391,20.03628,21.852198
20.987452,20.350733,21.262354,21.480127,22.370996
21.157618,20.37124,22.50918,22.340479,22.95669
21.08462,20.31338,22.766504,22.430323,23.041407
20.845362,20.809229,22.585352,22.359034,22.942286
20.330713,21.235254,22.05581,21.850977,22.62295
19.545557,21.31338,20.764307,20.84292,21.656641
18.11709,21.225977,19.177881,19.516993,19.501612
17.439356,21.33584,17.772852,18.46499,18.223536
17.259424,21.345606,16.965235,17.244043,18.011621
17.059961,21.25503,16.466944,16.507471,17.708399
16.842676,21.256739,16.110498,16.006983,17.85293
16.870752,21.026514,15.742334,15.58169,17.768457
16.899073,20.82876,15.480371,15.299952,17.627588
16.777002,20.696192,15.243311,15.084864,17.268946
16.937891,20.136133,15.132227,14.913965,16.526758
16.48672,19.749903,15.188623,14.81045,16.774805
16.20083,19.511377,15.223291,14.880274,17.08584
16.309229,19.361963,15.167871,14.938868,16.828028
16.333399,19.484034,15.549219,15.088282,16.238428
16.28213,19.435205,15.975489,15.361963,16.316553
16.983301,19.308496,16.707178,16.015772,16.795069
18.270166,19.367579,18.238184,17.5729,17.866114
19.297998,19.399317,19.67837,19.857813,19.11001
20.420313,19.389795,20.692774,21.402002,19.012598
21.116602,19.45669,22.397364,22.292871,18.669336
21.259912,19.469141,23.112696,22.93081,18.430079
21.738672,18.576563,22.79873,22.758204,18.350733
21.625391,18.534082,22.837305,22.42422,17.504541
20.58877,18.514551,22.035059,21.843653,17.460596
19.769678,17.21377,21.076563,20.706202,16.575586
19.054834,17.07754,19.43081,19.688868,15.604883
18.561182,17.483057,18.982813,19.14419,15.729151
18.374903,17.240625,18.774805,19.13711,15.337061
18.149317,16.664942,17.831446,17.819483,15.294336
17.771143,16.814356,17.884424,17.409082,15.128809
16.889063,16.583887,17.882227,17.527979,15.141504
15.139307,16.855616,17.963282,17.715967,15.111231
14.616114,16.953272,16.125635,16.779932,15.10708
14.259424,16.731836,15.499903,15.884668,15.096827
13.844141,16.54043,15.28628,15.622461,15.068018
13.934961,16.776758,15.078516,15.452539,15.014795
13.967432,16.722803,15.012354,15.295313,15.0724125
13.990625,16.698877,15.050196,15.115137,15.0917
14.1488285,16.870996,15.042627,15.090967,14.799219
14.4127445,16.686914,15.307032,15.269434,14.816309
14.712549,16.751368,15.387598,15.437891,15.273584
14.926416,16.73501,15.696192,15.815577,15.758936
15.025293,16.749414,15.757227,15.891504,15.937159
14.778711,16.893946,15.813868,15.979639,16.38296
14.730616,17.231592,16.006006,16.05166,16.32168
14.920801,17.362696,15.759668,15.968409,16.327051
15.047998,17.523829,15.444971,15.6505375,16.489405
15.128321,17.661768,15.187159,15.502344,16.589258
15.086817,17.655176,15.016748,15.389795,16.561182
14.735498,17.703028,15.200342,15.156641,16.228907
14.407373,17.23794,15.098291,15.049707,15.6661625
14.255274,17.002588,15.0917,15.022608,15.636377
14.254297,17.120996,15.090967,14.843164,15.339502
14.272364,17.171045,14.978174,14.798975,15.8536625
14.268702,17.346094,14.903467,14.806543,16.039698
14.221827,17.073145,14.876368,14.804346,15.385401
14.223536,17.367823,14.84585,14.82168,14.766993
14.14834,17.029932,14.912012,14.872217,15.250635
14.115137,17.093653,14.979151,14.918848,15.538965
14.1332035,17.193262,15.032129,15.093164,15.3675785
14.272852,17.002588,15.076563,15.62295,16.023096
14.303858,17.146631,15.125147,16.121729,15.923487
14.324366,17.336084,15.275049,16.380762,15.68252
14.518457,17.365381,16.021387,16.556055,16.262598
15.066797,17.27456,16.478418,17.289942,17.25625
15.559717,17.631006,17.01089,18.058252,17.988184
16.107325,17.605371,17.300196,18.938868,18.48623
17.001368,17.805323,17.921778,19.464502,18.92129
17.555323,17.646631,18.83877,20.14541,19.198877
18.084864,17.779444,20.204493,20.30459,19.159327
18.667627,17.776514,20.45083,20.237696,18.58291
18.744043,17.67544,20.200342,20.501368,18.432276
18.54629,17.56045,19.606592,20.235254,17.930079
17.595606,17.621973,18.400293,19.106348,17.285303
16.602686,17.849756,17.66958,18.524073,16.519434
16.005274,17.947657,17.725733,18.224756,15.797266
15.892481,18.046045,17.671045,17.811426,14.700342
15.6036625,18.10879,17.426172,17.535303,14.760889
15.156641,17.861963,16.951075,17.426416,14.49209
15.026026,17.352686,15.93667,17.06045,14.145655
15.014551,17.088037,15.503565,15.950342,14.923731
15.255274,16.935694,15.217188,15.2521,15.339502
15.51919,17.151758,15.091211,14.908594,15.471827
15.827539,17.412012,14.973536,14.548243,15.973047
16.056787,17.599268,14.7599125,14.344141,16.11123
16.017725,17.502344,14.858545,14.285303,16.77456
15.407373,17.812891,15.448877,14.5394535,16.682032
15.045557,17.768457,16.041895,15.245508,16.85293
14.809961,17.698145,16.673975,15.875391,17.329248
13.986963,17.88589,17.487452,16.18252,17.704737
14.02627,18.142237,18.087793,16.785791,17.759912
14.298731,18.527979,18.44839,17.587305,18.66714
14.29336,18.609278,18.499903,18.759424,19.04214
14.434717,18.76626,18.183985,18.915918,19.512354
14.511621,19.042871,17.51797,17.732569,18.975245
14.129786,19.055323,15.805567,17.204004,18.766993
13.56045,18.947657,14.520166,15.741846,18.261377
13.409082,18.847803,14.078272,14.902979,17.315332
13.298243,18.53921,13.320948,13.904688,16.26797
13.419336,17.8854,12.632471,12.991846,15.93667
13.712549,17.383692,12.612452,12.511866,14.839258
13.586084,17.005762,12.879786,12.482325,14.232813
13.082911,16.82168,12.88125,12.671534,13.889551
12.610987,16.523829,12.744532,12.705957,13.659571
12.204737,16.218897,12.773584,12.626856,13.242334
11.755762,15.97085,12.742823,12.592676,13.050684
11.589991,15.566065,12.536768,12.472315,12.465967
11.337549,15.701319,12.061182,12.158838,12.224268
11.314356,15.580957,11.882959,11.851709,12.15542
11.368311,15.646631,11.695215,11.546534,12.209375
11.495264,15.997461,11.516016,11.261866,12.711573
12.264551,16.282373,11.902246,11.673487,13.958399
13.361475,16.626856,13.155176,12.8207035,14.911524
14.619532,17.287989,14.302881,14.184473,15.406641
15.644434,17.822168,15.764795,15.460352,16.441553
16.538965,17.859522,16.884912,16.565332,17.060938
17.17544,17.662745,17.637354,17.60293,17.788477
17.382715,18.233545,17.849268,17.94546,16.546045
17.395655,19.132227,17.77041,17.890284,17.732813
16.779444,18.67837,17.31045,17.512354,18.106592
16.254541,18.143702,16.547022,16.625391,17.202784
15.882227,18.083887,15.462061,15.530664,16.704737
15.896387,17.889063,14.861475,14.703272,16.396143
15.688379,17.71377,14.831934,14.799707,15.944483
15.790674,17.700098,14.99209,14.781641,15.907862
15.738428,17.80337,15.071924,14.832178,16.228662
15.548975,17.553858,14.843409,15.054346,16.085596
15.564356,17.836084,14.9667,15.124659,15.677637
15.361231,18.050196,15.37417,14.834375,14.978174
15.299952,18.47964,14.832178,14.52627,15.212305
15.089014,18.762354,14.6036625,14.65542,15.946436
14.851709,18.642237,14.5917,14.632227,16.044825
14.507715,18.558496,14.805567,14.690332,16.076075
14.06167,18.554346,14.686182,14.349024,16.019678
13.743799,18.029932,14.322168,14.158594,16.076807
14.580225,19.151026,15.199854,14.797998,16.843653
15.725489,18.806543,16.278955,16.030909,17.536768
16.6542,19.10708,17.255274,17.651026,18.316797
17.378809,19.857325,18.51797,18.632227,18.754297
18.460596,20.407862,19.221094,19.601954,19.284327
19.08462,20.44668,19.735987,20.151758,19.502588
19.386866,20.535303,19.922266,20.455713,19.871485
19.257471,20.688623,19.911036,20.383692,20.183496
18.734034,20.696924,19.571924,19.882715,20.17129
17.726221,20.587793,18.416407,18.708399,19.751612
16.534327,20.20083,16.83169,17.154932,19.229883
15.749414,19.567041,15.766993,16.156885,19.15713
15.058252,19.160791,15.238916,15.717432,18.704248
14.565577,18.951807,14.709864,15.425928,18.131495
14.08584,18.910547,14.308741,14.754541,17.69082
13.825342,18.946924,13.920557,14.288721,17.111475
13.706202,18.90542,13.641748,13.908838,16.777246
13.568506,18.058252,13.386377,13.613916,16.472315
13.449366,17.644434,13.233545,13.212793,16.20498
13.300196,17.38125,13.069239,12.890039,15.978174
13.282129,17.240625,13.082666,12.689356,15.800684
13.155909,17.256983,13.210352,12.481836,15.63711
12.892969,17.383204,13.159571,12.373682,15.465479
12.624659,17.488428,13.154932,12.249414,15.2599125
12.89126,17.626612,13.962305,12.875391,15.399317
13.704737,18.049707,15.072901,14.1817875,15.905664
14.69668,18.521387,16.0375,15.808252,16.434717
15.667139,19.232569,16.863184,17.416407,16.721827
16.447412,19.565332,17.58291,18.466455,17.297266
17.256006,19.608057,18.103662,19.321436,17.72378
17.521143,19.588282,18.350245,19.72793,18.307032
17.33877,19.774317,18.215967,19.687891,18.83291
16.945948,20.290186,17.618555,18.828028,19.057276
16.195704,20.29043,16.412989,17.235743,18.661768
15.497705,19.860987,15.171045,15.410303,17.675684
15.32583,19.402735,14.525293,14.489161,17.372217
15.345606,19.319239,14.353907,13.926172,17.174463
15.31167,19.14297,14.302149,13.748926,17.047022
15.414942,18.970118,13.987696,13.712793,16.704737
15.335596,18.945948,13.998194,13.612696,16.444971
15.556299,18.966944,14.258692,13.714991,16.440332
15.24209,18.82754,14.41958,13.840479,16.658594
15.34292,18.650537,14.609034,13.802149,16.473291
15.402735,18.862207,14.594141,13.9300785,16.30337
15.33169,18.912012,14.78628,14.201563,15.973536
15.276514,18.89297,15.284082,14.354395,15.96084
15.2911625,18.80166,14.97085,14.871241,16.694483
15.417627,18.75332,14.7582035,14.618555,16.971094
16.005274,18.714258,15.190577,14.9439945,17.833887
16.961084,18.878809,16.204004,15.982569,18.664454
17.938868,19.116602,17.133448,16.95547,18.95962
18.630518,19.232569,18.090967,17.65005,19.73086
19.623926,19.39419,19.047754,18.418604,20.740625
20.619532,19.391504,19.723536,18.974512,21.417627
21.386866,19.336817,19.708887,19.20669,21.617823
21.577784,19.446924,19.826319,19.04165,21.086329
20.92422,19.455713,19.904444,18.888819,20.44082
19.88296,19.260645,19.392725,18.547266,19.985987
18.585352,19.0917,17.608057,17.624414,19.52456
18.529688,19.000391,16.495996,17.218164,19.219873
18.40835,18.775537,17.58584,17.147852,18.439356
18.582666,18.558008,18.29214,17.309717,18.168848
19.090235,18.238184,18.847803,17.665674,17.895899
19.201075,18.529444,17.941797,17.913477,17.287012
18.596338,18.539942,18.003809,17.80459,16.987696
18.018457,18.465723,18.384424,17.684961,16.785059
17.782618,18.223536,17.975,17.71792,16.84878
17.475977,18.241602,17.487696,17.631495,17.015528
17.112452,17.987696,16.253565,16.258692,16.276758
16.325342,18.140284,16.152246,15.661768,16.055567
15.477442,18.302881,16.419825,15.919825,16.488428
14.916895,18.372461,15.905909,15.836573,16.644678
14.926905,18.50625,16.07168,15.750147,17.1542
15.332422,18.68374,16.460108,16.408106,17.732813
16.257471,18.906641,16.99624,17.23672,18.438135
16.933496,19.053125,17.562647,17.91836,18.829737
17.643702,19.140528,18.125391,18.236475,18.955957
18.09707,19.181055,18.472315,18.653223,19.08999
18.663965,19.255518,18.32754,18.57998,19.258204
18.59585,19.29922,18.148096,18.263086,19.073145
18.445215,19.121729,18.126612,17.953516,18.643457
17.652246,18.975,17.906153,17.741846,18.271387
16.826319,18.90249,17.672998,17.2875,17.919092
16.125147,18.907618,17.467676,16.833399,17.896875
15.333887,18.653955,17.160547,16.636377,17.86123
15.017237,18.559473,16.852198,16.65835,17.190577
15.044092,18.555323,16.78457,16.63296,16.953516
15.1192875,18.422266,16.303858,16.41714,16.848291
14.817286,18.445215,15.711573,15.953028,16.67544
14.602442,18.480616,14.9630375,15.209375,16.757471
14.589746,18.39956,14.363916,14.629541,16.976954
14.857813,18.238916,13.800928,14.489893,16.61123
15.248194,18.078516,13.691309,14.345606,15.96084
15.535059,18.076075,13.824121,14.313868,15.154932
16.283106,18.06045,13.808496,14.229639,14.996973
16.901026,17.75625,13.873194,14.199366,15.844385
15.91958,18.214746,14.531641,14.484766,16.730371
15.554102,19.125635,15.734278,15.338282,17.545313
17.485498,19.421045,16.35415,16.005274,17.839014
18.65005,19.672266,16.2604,16.061914,18.006739
19.87417,19.870752,17.267725,15.90835,18.995996
20.754541,20.21206,18.409815,17.416407,20.263819
21.597315,19.958643,18.527002,18.783838,20.910547
21.964502,21.0375,18.287012,19.34878,21.497705
22.234278,21.67544,18.21084,18.896387,22.305323
21.804346,21.741846,17.788721,18.370508,22.303614
21.038233,21.581934,17.268702,17.633692,20.848536
21.089746,21.490625,17.51748,17.569971,19.908594
21.011133,21.58462,17.73208,17.9479,20.311914
20.731104,21.432032,18.15713,18.156885,20.663965
20.771143,21.24209,18.506983,18.468409,20.38418
20.985987,21.08169,18.632227,18.853662,20.074121
20.998926,21.22915,18.936182,19.0375,19.720118
21.068262,21.514063,19.068995,19.087793,19.47378
20.71963,21.597803,19.16543,18.875635,19.43838
20.488428,21.539942,19.718897,18.973536,19.46255
20.607813,21.306543,19.703516,19.154932,18.841211
21.01211,21.209375,19.812647,19.104883,18.5563
21.27041,21.245264,19.856592,19.154444,18.234766
21.490137,21.100489,19.888819,18.875391,18.273096
22.128077,20.86709,19.991114,18.90127,18.834864
22.810694,20.673243,21.157618,20.083155,20.507227
24.008692,21.31338,22.975733,21.771631,21.599268
24.838282,21.566309,24.873926,23.420313,22.15127
25.210596,21.823633,26.259668,24.545313,22.407862
25.612452,22.190332,26.772608,25.252832,22.699121
25.721094,21.228418,26.653711,25.946436,23.551905
25.374414,21.616114,26.54751,26.103418,24.614893
24.899073,21.197168,25.457422,25.557032,24.896143
23.998194,20.891993,24.281885,24.498438,24.123194
23.221827,20.679102,23.235987,23.364893,21.532373
23.020655,20.755762,22.64004,22.471094,20.687647
22.815577,20.763575,21.872217,21.858545,20.848047
22.618067,20.876123,21.412745,21.437403,21.056055
22.54165,21.092432,21.565577,21.488916,20.75918
22.49502,21.257471,21.603174,21.336084,20.659327
22.490381,21.540918,21.427637,21.126612,21.230127
22.45083,21.937891,20.974024,21.063868,21.163965
22.53213,22.326807,20.935938,20.661768,20.69668
22.268946,22.496973,20.825586,20.398829,20.673975
21.888575,22.347803,20.628809,20.488916,20.64541
22.171534,22.099756,20.75088,20.46963,20.207178
22.529688,22.065332,21.298243,20.757227,20.110743
22.378809,22.30874,21.050928,20.348047,20.215479
22.746729,22.348536,21.088526,20.456934,21.169336
23.422998,21.741602,22.211084,21.211084,21.825342
24.400293,22.22207,23.587793,22.856348,22.577295
25.032618,22.459864,24.671045,24.389795,23.86416
25.73794,22.720118,25.421045,25.442041,24.361475
25.65005,23.128565,25.859766,26.140772,24.617579
25.487207,23.382715,26.114893,26.45547,25.030909
24.969873,23.066797,25.591944,26.248194,24.653467
24.085596,22.737696,24.619043,25.455225,23.526026
22.82876,22.742823,23.52334,23.916162,22.921045
21.847803,22.876856,22.27212,22.495752,22.160547
21.712793,22.764063,21.171778,21.95083,21.96206
21.437159,22.43252,20.841211,21.441553,21.579004
20.958399,22.03628,21.050928,20.891748,21.451319
20.285059,21.97085,20.728662,20.667383,20.641748
19.660303,21.694239,20.21963,20.034082,20.202295
19.308985,21.519678,19.98379,19.479883,20.160791
19.013575,20.967676,20.065332,19.066065,19.64004
18.736963,20.913477,19.966455,19.066797,19.433985
18.978907,20.552881,19.680567,18.889063,19.113916
19.253077,20.343653,19.447168,18.740137,18.414942
19.433496,20.369043,19.051416,18.480127,17.624903
19.564112,20.484278,18.829493,18.190088,16.177881
19.76333,20.380274,18.89004,18.01626,16.008692
20.181787,20.305323,19.293848,18.467676,18.445704
21.019922,20.382471,20.516504,19.637354,20.663233
21.663233,20.454493,22.244287,21.326075,21.241602
22.764063,20.498682,23.834375,23.039942,22.005518
23.50796,20.517725,24.599024,24.334864,23.245996
24.126612,20.527979,25.05337,25.154444,24.70083
24.26089,20.54458,25.295801,25.37295,24.984034
24.079248,20.57998,25.078028,25.134668,23.487696
23.088282,20.241358,23.985254,24.377832,22.85171
21.961084,20.265528,22.722803,23.198877,21.789942
21.120752,20.500147,21.658594,21.963037,21.15127
20.703028,21.139795,21.25796,21.312403,21.228662
20.30044,22.164942,20.900293,20.877832,20.797754
20.289698,21.893702,20.967676,20.450586,20.238184
20.314844,21.857325,21.064112,19.854395,19.623926
20.281397,22.142725,20.696436,19.754053,19.100489
20.156885,22.300196,20.623194,19.697412,18.718897
20.11172,22.414942,20.809473,19.602442,18.257471
19.867334,22.131495,19.913477,19.508204,17.569971
19.387354,21.699121,19.235743,19.216211,17.279932
19.137354,21.067286,18.916407,18.977198,17.354395
19.156153,20.82876,18.965967,18.867823,17.47915
19.185205,20.92666,19.057764,18.765772,17.330957
19.218653,21.131495,18.965479,18.83047,17.304834
19.71084,21.29043,19.215967,19.339502,17.720362
20.48672,21.377588,20.04165,19.993555,19.192774
21.578272,21.734034,21.31875,21.018946,20.4938
22.478662,21.660791,22.770899,22.510645,21.479395
23.172022,21.321924,24.144922,23.79458,22.388086
23.73086,21.63589,25.193262,24.6188,22.5729
23.624659,22.031397,25.360743,24.834864,22.66421
23.030664,22.899317,24.857813,24.535791,22.315577
22.08877,23.437159,23.495996,23.693262,21.620996
20.91128,23.113672,22.001368,22.290674,20.71792
20.214014,22.303614,20.755274,20.961817,19.737452
20.135645,21.707666,20.143946,20.359034,19.203272
20.00332,21.483301,19.599268,20.020899,18.716455
19.970118,21.391504,19.33462,19.545801,18.364893
19.89297,21.240381,19.2875,19.256006,18.038477
19.793848,21.157373,19.036036,18.896875,17.754541
19.634424,21.02456,18.961817,18.720606,17.634912
19.366358,20.515284,18.829737,18.714258,17.250635
18.896387,20.469141,18.625635,18.557032,15.132715
18.744287,20.426905,18.915186,18.20962,13.917139
18.897608,20.19253,18.75796,18.194971,13.868555
19.126368,20.171534,18.582178,17.94082,14.047754
18.73379,20.154932,18.202295,17.67422,12.719141
18.320704,20.136621,18.00796,17.551172,13.85708
18.839014,20.018702,18.185205,17.778467,15.350977
19.547022,19.85293,18.967188,18.417627,17.718897
20.544336,19.760157,20.081202,19.621729,19.467188
21.414698,19.680567,21.51089,21.089258,21.065577
22.28213,19.822412,22.66836,22.30581,22.10586
22.795557,20.120996,23.396631,22.97085,22.381739
22.857569,20.23208,23.594141,23.261866,22.345606
22.51626,20.166162,23.3229,22.992334,22.128077
21.53213,19.95669,22.4042,22.095606,21.570704
20.08999,19.473047,21.047754,20.937891,20.312647
19.10586,19.342432,19.813135,19.778223,17.295557
18.83047,19.330957,18.786524,18.907862,15.749414
18.519434,19.302637,17.918116,18.31167,15.674463
18.274805,19.353662,17.585596,17.935205,16.307032
18.23379,19.579004,17.467676,17.545313,16.548975
18.240381,19.989893,17.33047,17.127832,16.649805
18.120264,20.225733,17.091455,16.822168,16.468409
17.936914,20.341211,16.836084,16.657862,16.440088
17.802637,20.403955,16.445948,16.55874,16.354883
17.723536,20.410303,16.430567,16.423975,16.256006
17.836329,20.25332,16.431055,16.312647,16.301905
17.855371,20.224024,16.3854,16.187403,16.149073
17.805323,20.17837,16.278711,16.050928,16.031641
17.799463,20.108057,16.225245,15.911768,15.881006
18.18545,19.965479,16.727442,16.136377,16.193995
19.22793,19.901026,18.000635,17.1813,17.708155
20.477198,19.961329,19.19082,18.623438,19.48794
21.46792,19.998682,20.258204,20.053125,21.082666
22.122217,20.266993,21.247217,21.048975,22.084375
22.451319,20.417871,22.193018,21.755274,22.574366
22.307276,20.483301,22.97085,22.148829,22.599024
21.88418,20.492334,22.60464,21.979883,22.441065
20.854883,20.292627,21.787256,21.126123,21.651026
19.385157,20.392237,19.680323,19.890772,20.190577
18.573633,19.932276,18.400782,18.911524,18.81582
18.678125,19.75625,17.909082,18.160303,18.422998
18.689356,20.220362,17.494776,17.500391,17.900537
18.447412,20.15127,17.129053,17.144922,18.121485
18.126612,19.725977,16.98379,17.14712,18.129541
17.726954,19.483301,16.746729,17.009668,17.68667
17.460352,19.708399,16.839746,16.947168,17.613184
17.308985,20.218409,16.92251,16.889063,17.801905
17.31045,20.558496,16.998438,16.789942,17.3771
17.41958,20.714258,16.881739,16.814844,17.040186
16.95376,20.678858,16.668116,16.741358,17.065332
16.665674,20.444239,16.586329,16.53628,17.632471
16.478174,20.085352,16.74917,16.552637,18.17666
16.403467,19.890284,16.67666,16.457178,18.288233
16.492579,19.76504,16.622461,16.508692,18.24087
17.009912,19.856592,17.244043,17.293848,18.575586
18.007715,19.917627,18.282373,18.390528,18.94253
18.549463,19.947657,19.464502,19.199366,19.144434
19.254786,19.78628,19.575586,19.140528,19.464258
20.352686,19.244532,19.177149,19.106592,19.319483
20.502344,19.373926,19.684229,18.89248,19.43081
20.0292,19.719873,19.229395,18.468409,19.515528
19.334375,19.633204,18.777246,18.205957,19.245508
18.191065,19.428858,18.136377,18.025782,18.760645
17.519678,19.200342,17.708155,17.514063,18.302881
17.281885,19.072412,17.443018,17.172998,18.04873
17.140772,19.051905,17.119043,16.865381,17.858545
17.193506,19.110254,16.69668,16.62295,17.899805
17.318018,19.221582,16.455225,16.421045,17.843409
17.188868,19.036524,16.505518,16.379786,17.874659
16.740137,18.875147,16.569239,16.425928,17.831446
16.794336,18.829737,16.755518,16.418116,17.704737
16.860987,18.776026,16.483057,16.350977,17.331202
16.636621,18.933252,16.142237,16.338282,17.297998
16.52456,19.28628,16.400537,16.265284,17.316553
16.688135,19.433985,16.491358,16.249414,17.32754
16.473047,19.523829,16.530176,16.082666,17.429102
15.743311,19.575098,16.458887,16.187647,17.25332
16.508692,19.458399,16.815088,16.41665,17.228418
18.407862,19.26797,17.50088,17.084131,18.20791
19.246729,19.509668,18.099268,17.932764,18.836573
19.919336,19.781885,18.7875,18.540674,20.062891
21.55337,19.863672,19.424463,19.062891,21.115381
21.675196,19.96255,20.14004,19.814112,21.407862
21.638575,20.179102,20.453516,20.408838,21.683252
21.254786,20.212305,20.303125,20.699366,21.564112
20.34292,20.189112,19.818262,20.630518,20.957666
19.216455,19.759912,18.559961,19.412256,19.75088
18.762598,19.42959,16.891504,18.149805,18.280664
18.33291,19.46963,16.329248,17.388086,17.997461
18.365625,19.48086,16.379786,16.8063,17.891748
18.437159,19.482569,16.159815,16.371485,17.600245
18.193262,19.472559,15.8988285,16.08584,17.318506
18.10415,19.6896,15.964258,16.120752,17.689356
17.811914,19.880274,15.883692,15.998438,17.470118
17.673243,19.923243,15.857813,15.920313,17.16836
17.535059,19.834131,15.573389,15.579004,16.545801
17.357813,19.635157,15.129297,15.419336,15.987696
16.657862,19.445215,14.897608,15.082178,15.364893
15.9769535,19.224512,15.0846195,15.199121,14.902002
16.299952,19.117823,14.4144535,15.320948,15.262354
16.109766,18.99502,13.993555,14.976221,14.839991
16.56167,18.909327,15.583155,15.6314945,14.895411
17.492334,18.939112,17.073145,16.519678,16.359034
18.454004,19.25503,18.657862,17.697657,18.161524
19.251612,19.498438,19.772852,18.981348,19.825098
19.880762,19.699854,20.79043,20.262598,20.561914
20.228418,19.809717,21.66836,21.322412,20.787012
19.93545,19.791162,22.156153,21.801905,20.781153
19.153711,19.759668,21.852442,21.728662,20.287256
18.05581,19.647852,20.682764,20.740137,19.321436
16.43081,19.58169,18.777979,19.208155,17.613672
15.565088,19.161524,17.442774,17.707178,15.882715
15.247217,18.818018,16.684961,16.785303,15.325098
14.8692875,18.711817,16.114405,16.044336,14.734766
14.702051,18.633692,15.651514,15.465723,14.326319
14.56167,18.319727,15.198389,15.001368,13.981836
14.349756,18.454004,14.802393,14.705225,13.816309
14.083643,18.272608,14.41958,14.277979,13.839991
13.8146,18.139063,14.035547,13.910547,13.622705
13.650293,18.092188,13.646387,13.645166,13.564844
13.499414,18.034327,13.3988285,13.347559,13.487696
13.211084,17.893457,13.279688,13.103174,13.81753
12.991846,17.876856,13.202784,13.150782,14.06875
12.74795,17.937891,13.2252445,13.242823,14.05459
12.606836,18.045557,13.249414,13.410059,13.84878
12.774073,18.062647,13.355127,13.479151,13.827295
13.672022,18.18374,13.904688,13.944727,15.00918
14.826075,18.492823,15.221338,15.096094,16.54214
15.68545,18.732813,16.503809,16.063135,17.572412
16.18667,19.075342,17.286768,16.968653,18.593409
16.597803,19.456934,17.534815,17.123682,19.177149
16.678125,19.632227,17.520655,17.223536,19.308496
16.607325,19.73794,17.249903,17.123926,19.051416
16.170313,19.723291,16.31753,16.50332,18.153955
15.58877,19.806055,14.982813,15.423243,17.148096
15.233057,19.830713,14.204981,14.466455,16.550684
15.223047,19.75332,13.960108,14.166651,16.843164
15.13833,19.724512,14.169825,14.282618,17.205957
15.00918,19.664942,14.083643,14.485254,17.163477
15.15127,19.512598,14.200098,14.245752,17.178858
15.069483,19.087305,14.558252,14.018213,17.64419
14.7911625,18.197412,14.566553,14.326075,17.483057
14.892481,18.04873,14.590967,14.4127445,16.503809
14.746241,18.184961,14.684473,14.63833,16.537012
14.534571,18.187403,14.713282,14.876123,16.68374
14.7252445,18.324121,14.711084,15.107325,16.685938
14.494043,18.508936,15.447901,15.374659,16.843164
14.493311,18.548243,15.415186,15.346094,16.908594
14.027491,18.040918,14.952295,15.004053,16.873194
13.894434,17.727198,14.9596195,14.833155,16.289454
14.223047,17.725977,15.215723,15.106348,16.532862
14.307032,17.682032,15.911036,15.330469,16.893213
14.173243,17.698633,16.340723,15.789698,17.191065
14.754297,17.592676,16.209375,16.162745,17.461084
15.866114,17.466211,16.241602,16.85415,17.605371
16.679834,17.420313,16.818018,17.585596,17.626368
16.465235,17.547754,17.420313,16.931055,17.345606
16.17544,17.747705,16.662745,16.550196,17.088526
15.126856,17.873438,15.356104,15.271631,16.29214
13.834131,17.913721,14.249414,14.253321,15.126123
12.93252,17.875147,13.107325,14.60586,15.139063
12.552637,17.83047,11.910059,13.556055,14.322657
12.15835,17.615625,12.150293,13.377832,13.952051
12.313135,17.589502,12.932276,12.938379,13.774073
12.689844,17.64248,12.777979,12.746485,13.84585
12.837793,17.672754,12.474024,12.6783695,14.440088
12.952539,17.456446,12.652491,12.730127,14.76626
13.164209,17.547754,12.839258,13.037256,14.928858
13.184717,17.575586,12.550928,13.144678,15.013575
13.224024,17.66128,12.626368,12.973291,15.173731
13.532862,17.715967,12.658594,12.823145,15.424952
13.55044,17.8771,12.771631,12.802149,15.864893
13.317286,17.764795,12.904688,12.944239,16.025537
13.135645,17.836573,13.208887,13.156641,16.00918
13.309473,18.044092,13.687403,13.604883,16.35
13.615625,18.094873,14.210596,14.087793,16.814112
13.705225,18.230371,14.86001,14.424463,16.904444
13.923487,18.467676,15.373926,14.762598,17.357325
14.319727,18.761133,15.804346,15.129053,17.920557
14.536768,18.997461,15.605127,15.282373,18.270899
14.842432,19.12832,15.61001,15.38711,18.208643
14.892969,19.05874,15.764063,15.508692,17.970362
14.938623,18.588526,15.800928,15.405664,17.078516
15.007227,18.557276,15.269922,14.8988285,17.082178
15.025782,18.53628,15.112207,14.837793,16.4042
14.75625,18.860254,15.507715,14.962305,16.655909
15.191309,18.688623,15.824854,15.36001,15.941797
14.910059,18.301172,15.731348,15.152246,15.211573
14.14126,18.065332,15.436182,14.878321,14.546534
13.908838,17.77627,14.845118,14.109278,14.321192
13.432032,17.511377,13.5533695,13.0255375,13.975977
13.254053,17.253809,12.649561,12.761377,13.737452
12.433252,17.018702,12.485987,12.515528,13.612452
11.876368,16.924952,12.335108,12.151758,13.448633
11.444727,16.928858,12.154932,11.8988285,13.149805
10.798975,16.856104,11.998194,11.900782,13.187891
10.457911,16.934961,11.855127,11.597559,13.05752
10.667139,16.81582,11.785303,11.801905,13.3675785
11.370752,16.88296,12.702784,12.664698,14.236475
12.177637,16.869776,13.734766,13.765039,15.22085
12.935938,16.569971,14.623438,14.589746,15.476221
13.681299,16.59585,15.078028,14.935938,15.816797
13.8207035,16.713526,15.077051,15.087061,16.041407
14.404688,16.795801,14.963526,15.081446,15.906397
14.473291,17.037012,13.584864,14.454981,15.854639
13.920801,17.272852,12.560938,13.923975,15.563135
12.566309,17.357325,11.845362,13.09878,15.053858
11.683741,17.586573,11.694727,12.467432,14.90127
11.640528,17.665674,11.575586,12.683985,14.902491
11.562403,17.639551,11.86709,12.842676,15.349756
11.505762,17.477442,12.804102,12.635157,15.771387
11.560205,17.735987,12.494532,12.973536,15.980127
11.308496,17.599512,12.461084,13.628809,15.731592
11.356104,17.64248,12.464502,13.611231,15.951075
11.452539,17.757715,12.735743,13.788477,16.45254
11.427637,17.705957,12.795069,14.028223,16.625391
11.523096,17.816553,13.0394535,14.5533695,16.760645
11.783106,17.812403,13.274317,13.835108,16.832422
11.918848,17.441797,13.214502,12.651026,16.631495
11.933496,17.641748,13.277735,12.5082035,16.886866
12.015772,17.809473,13.400049,13.421045,16.37124
12.187159,17.62002,13.36294,13.229151,15.285303
12.43545,17.412745,13.596338,13.159327,14.769678
12.689844,15.90127,13.472559,12.993555,14.00503
12.926416,16.090967,13.549219,12.383936,13.965235
13.157373,16.351465,13.511133,12.4630375,14.525049
12.880762,16.202295,12.676172,12.882227,14.3417
12.713526,16.149317,12.955957,13.388575,14.369532
11.963282,16.208887,13.17251,13.489405,14.4942875
11.482325,16.19375,12.803858,12.937647,14.469873
11.249659,16.384668,12.490137,12.143702,13.771143
10.9942875,16.473291,11.714502,10.993067,13.357569
10.646143,16.35708,9.635889,10.751612,13.601465
10.446192,15.87295,9.958643,10.815577,13.158838
10.188623,15.53042,10.509424,10.173975,13.014551
10.31167,15.310694,9.928614,10.235254,12.7113285
9.801905,15.485254,8.957422,9.95376,12.732813
9.451319,15.17959,10.028467,9.787989,12.721827
9.190088,15.09878,9.5375,9.673487,12.888575
8.842676,15.270899,9.388575,9.7894535,12.9630375
8.7755375,15.337549,10.125879,10.139551,13.518946
8.970362,15.386377,10.466455,10.776758,13.542139
9.3189945,15.449854,10.636377,11.161036,13.042383
9.424707,15.217676,10.44668,10.580957,12.632715
9.523096,15.46377,10.432764,10.549952,12.368067
9.77334,15.282862,10.283106,10.657618,12.810938
10.00625,15.358057,10.504786,10.954248,13.335596
10.578272,15.250147,11.344141,11.725733,13.969385
10.763086,15.44961,12.600489,12.690332,14.519678
11.172998,15.423975,13.3224125,13.330713,14.832666
11.1192875,15.785059,13.717432,13.790918,15.224268
11.113428,15.691553,13.844873,13.77334,15.194971
11.47378,16.16128,13.7877445,13.5394535,15.041651
11.191797,16.229395,13.038477,12.893946,14.311914
10.557032,16.248926,11.556299,11.873194,13.508448
10.234522,16.364893,11.356348,11.840479,12.949366
9.741846,16.40713,10.59878,11.154932,12.43252
10.009668,16.377344,9.5377445,11.289698,12.030664
10.116114,16.363672,8.667627,10.787256,11.938868
10.01626,16.451319,9.65542,10.400049,12.125391
9.87417,16.552393,10.445459,10.207911,11.984766
9.288233,16.380762,10.32876,10.349268,12.366358
9.299707,16.090967,9.985254,10.174463,12.748926
9.028223,15.407862,9.616846,10.446924,13.202539
9.02334,15.454493,9.995996,10.358545,13.3536625
9.497461,15.753321,10.478907,10.173243,13.496729
9.821924,16.217188,10.413477,10.136866,13.639795
10.2721195,16.509912,10.396875,10.287989,14.24795
10.693506,16.984034,10.574121,10.473047,15.149317
10.745752,17.384668,10.775293,10.665918,15.548487
10.925684,17.243067,10.953516,10.847315,15.599756
11.196924,17.338037,11.4786625,11.033838,15.9474125
11.452051,17.428614,12.001123,11.413233,16.419825
12.091944,17.331446,12.309717,11.847315,16.61123
12.443018,17.308252,12.560938,12.224756,16.563623
12.984034,17.312159,12.641016,12.482813,16.87588
13.587305,17.334131,12.659815,12.554834,16.55044
13.961573,17.38589,12.738184,12.670557,16.44546
13.860254,17.527246,12.860987,12.646387,15.961084
13.808741,17.542871,12.991602,12.703028,15.5550785
13.524561,17.701563,13.2894535,12.871973,14.980371
12.948877,17.783594,13.289209,12.813868,15.218409
12.889063,17.748682,12.885157,12.592676,15.420069
12.829981,17.96792,12.68545,12.522852,15.739161
12.962793,17.916162,12.538965,12.531641,15.728174
12.965235,17.745508,12.391993,12.511377,15.817286
12.754297,17.714502,12.447901,12.333887,15.676905
12.817774,17.66836,12.159815,12.052637,15.494043
12.92251,17.599512,12.070215,12.274561,15.387354
13.020899,17.61709,11.805323,12.281641,15.429102
13.052881,17.690088,11.918848,12.2875,15.54043
13.073877,17.565088,12.159082,12.08169,15.477686
13.120264,17.30166,11.913233,12.259424,15.452051
13.277979,17.34707,12.41836,12.466211,15.631739
13.4300785,17.434229,13.090967,12.76211,16.41958
13.620508,17.58291,14.227686,13.237452,16.768946
14.230371,17.85464,14.850489,14.24795,17.352686
14.7599125,18.156153,15.277246,15.323877,17.922998
15.295069,18.118555,16.03628,15.65542,17.675196
15.654688,17.936426,16.0563,15.8675785,17.323145
15.793116,17.721094,16.339746,16.138819,16.922998
15.688135,17.55044,15.919336,15.943506,16.57754
15.479151,17.533838,15.759424,15.748926,16.480616
15.211573,17.559473,15.824366,15.8502445,16.656397
15.210108,17.70376,15.756006,15.978418,17.063135
14.934229,17.874903,15.711084,16.178858,17.363916
14.764551,17.929346,15.720362,16.435694,17.39712
14.835108,17.962305,15.839014,16.585352,17.360987
15.094629,17.926905,16.076807,16.622217,17.330957
15.498194,17.914698,16.417627,16.48916,17.287012
15.851709,18.037745,16.710352,16.701563,17.304834
16.151758,18.137354,16.902246,17.056055,17.385645
16.400537,18.035547,16.952295,17.433008,17.40005
16.57339,18.064112,17.062647,17.552637,17.461084
16.74209,18.131739,17.413477,17.656641,17.51211
16.829493,18.066309,17.222803,17.43081,17.539698
16.912989,18.084864,17.28042,17.55044,17.628077
16.89956,18.060938,17.381006,17.688868,17.624414
16.952051,18.02212,17.575098,17.838037,17.634912
17.164454,18.060205,17.761866,18.100245,17.631739
17.440332,18.012354,17.85586,18.166162,17.613672
17.68667,17.965723,17.948633,18.522608,17.759424
17.820215,18.097315,17.970118,18.510645,17.989405
17.76626,18.10586,18.158106,18.248682,17.958643
17.709131,18.012842,17.80166,17.958643,17.900537
17.626123,18.139551,17.733301,17.901758,17.966455
17.390284,18.071192,17.40835,17.926416,17.747705
17.112452,17.951807,17.557764,17.985987,17.451563
16.77212,17.924707,17.907862,18.141748,17.191553
16.408838,17.925684,18.043116,18.200098,17.105127
16.153223,17.864405,18.016993,18.127344,17.11709
15.895899,17.920557,17.996485,17.934229,17.131495
15.717188,18.027246,17.857813,17.766748,17.185938
15.612207,18.014795,17.725489,17.683985,17.17666
