"[299, 255]","[227, 248]","[287, 319]","[279, 328]","[230, 262]"
5.454004,8.520166,3.1131835,4.2484374,7.049463
4.7140136,8.361719,2.8551269,3.8395019,6.874658
4.4486327,8.263819,2.7491698,3.5069823,6.7677245
4.141992,8.176416,2.772119,3.3612304,6.671533
3.6961913,8.017237,2.7665038,3.301416,6.4764647
3.3602538,8.006983,2.5245605,3.1786132,6.2416015
2.9989257,8.104151,2.318994,2.9112792,5.862207
2.6361327,8.226465,2.1942382,2.6839843,5.6700683
2.50625,8.411036,2.3333983,2.4999022,5.400781
2.4105468,8.434717,2.5929198,2.660791,6.337793
2.329248,8.417383,2.692041,2.738916,7.405664
2.4220214,8.4125,2.8092284,2.890039,8.15542
2.3932128,8.771875,2.9391112,3.0179687,8.390772
2.3670897,9.063623,2.949121,3.00625,8.383692
2.468164,9.191309,3.032617,2.9361815,8.420557
2.3568358,9.219873,2.9564452,2.7787108,8.125635
2.060205,9.093653,2.6847167,2.5721679,7.6825194
1.8126465,9.118067,2.4105468,2.350244,7.570703
1.6427246,8.943506,2.1756835,2.1178222,7.749658
1.3475586,9.099024,1.8841797,1.8519531,7.6966796
0.94619143,9.113916,1.6620117,1.692041,7.834863
0.75405276,9.215479,1.3067871,1.2437989,7.881738
0.6959473,9.2755375,1.0636231,1.0589844,8.029444
0.56948245,9.340479,0.9562012,0.98354495,7.699365
0.7398926,9.78628,0.84291995,1.115625,7.6639647
1.0470215,7.422754,0.19936523,1.1378418,7.223047
1.3409668,7.6566405,0.33852538,1.2555176,5.8407226
1.9325196,7.8854003,0.1715332,1.0230957,5.8819823
2.672998,7.297754,0.36879882,1.1136719,6.192285
3.3844237,8.165918,0.8553711,0.88125,5.974756
3.414209,8.344873,1.4601074,1.1800781,5.367578
4.019922,9.232569,2.1568847,1.8373047,5.7030272
4.422754,9.347559,2.131494,2.0162597,7.192285
4.930078,9.276026,2.541162,1.929834,7.289697
4.40542,9.180811,3.161035,2.7000976,8.276514
5.445703,8.880518,4.191797,3.501367,8.346094
6.063867,8.389307,4.97207,4.8038573,8.329737
5.9781737,8.243555,5.613916,5.659082,7.8143554
5.266992,8.807276,5.9237304,5.853418,7.716455
5.129541,8.621241,5.720117,5.5919433,7.93667
5.2083983,8.337305,5.023828,5.1390624,7.115381
4.8822265,8.758448,5.1288085,4.84707,6.32583
4.570703,8.876856,5.2472167,5.0389647,7.407129
4.1874022,9.082422,5.120996,4.9398437,7.562158
4.150293,9.571192,5.490625,4.9552245,7.4225097
4.4293456,9.772852,5.4901366,5.047998,7.126611
4.4549804,9.5646,5.3685546,4.970117,6.801904
4.5716796,9.5255375,5.336328,4.9100585,6.572412
4.4254394,9.49502,5.0506835,4.7174315,6.560205
4.3722167,9.5238285,5.286035,4.834131,6.2345214
4.0799804,9.476709,5.1688476,4.77041,6.294824
4.343164,9.2877445,5.183496,4.2643065,6.6183105
3.867334,9.404688,5.2384276,4.227197,6.8543944
3.4044433,9.262354,4.497461,4.247461,7.1668944
3.1285644,9.315088,4.3092284,4.043115,6.822656
2.929834,9.45376,4.149072,4.0921874,6.2264647
2.9659667,9.188379,4.3651366,4.23208,6.6412597
3.617334,8.353418,5.0589843,4.855127,6.994043
4.37417,8.451563,5.9762206,5.542871,7.540918
4.9901366,9.152246,6.56875,6.19375,8.089746
5.56582,9.083399,7.0277343,6.4293456,8.260889
5.8592772,8.10293,7.4044433,7.0277343,8.266748
5.9237304,8.801172,7.2870116,6.980615,7.7748046
5.546533,8.896387,6.652246,6.315088,7.716211
4.912256,8.68667,5.3038573,5.5943847,7.1180663
4.1493163,8.130274,4.7506347,5.194238,5.7765136
4.0245605,8.288965,4.27749,4.555322,5.319238
3.7918944,8.571924,3.6769042,3.999658,5.2518554
3.311914,8.421289,3.3182616,3.5921874,4.8592772
3.2264647,8.417871,3.3756347,3.3365722,4.862695
2.9588866,8.319239,3.8556151,3.2533202,4.9920897
2.8426757,7.9469237,3.7398925,3.3824706,4.521875
2.54458,7.774072,3.2730956,3.29458,4.2032714
2.4273925,7.9271483,2.914209,2.916162,4.4012694
2.6410155,7.86416,2.4671874,2.5399413,4.659082
2.2936034,7.8075194,2.305078,2.195459,4.8687987
2.35708,7.6812987,2.0916991,2.0086913,5.0228515
2.1292968,7.660547,1.8990723,1.9266602,5.1756835
2.5697265,7.676904,2.0294433,1.8851563,5.1307616
2.4652343,7.6771483,2.2135253,1.7757813,5.146875
2.7765136,7.7486815,2.4173827,1.992334,5.5194335
3.0660644,7.7818847,3.3700194,2.863916,6.3561034
3.068994,7.918115,4.2967772,4.48916,7.05874
3.3631835,7.927881,4.8993163,5.6893554,7.1964355
4.020166,8.5917,5.449365,6.2384276,7.2152343
4.5919433,9.545069,5.8558593,6.612451,8.058008
4.8739257,9.985498,5.691797,6.4344726,8.309717
5.1651855,9.810938,4.870752,5.9569335,7.7657714
5.282373,9.616602,4.0648437,4.7816405,7.362695
5.164697,9.552637,3.870996,4.275293,6.9049315
5.313623,9.427881,3.8773437,4.0904784,7.350244
5.331201,9.127344,4.079736,4.216455,7.0902343
5.140283,8.962549,4.330957,4.481836,6.8668456
4.9293456,9.084131,4.343408,4.532373,7.0104003
4.9498534,9.051172,4.4449706,4.627588,7.070459
4.803369,8.985254,4.5614257,4.7174315,6.5423827
4.63833,8.711573,4.6395507,4.68374,6.7450194
4.1463866,8.593164,4.4132323,4.6007323,6.1344237
3.9410644,8.252344,4.6671386,4.3578124,5.2813964
4.2413573,8.377832,4.641504,4.421045,4.6065917
4.461572,8.32876,4.5699706,4.299707,4.1930175
4.5104003,8.269922,4.173486,3.8583007,4.714746
4.14541,8.363184,4.313379,3.3683105,5.204736
4.08999,8.109034,4.53042,3.112451,5.0069823
4.2921386,8.208155,4.7157226,3.4271483,6.0294433
4.8333983,8.201319,5.419336,4.249414,6.440088
5.023584,7.836328,5.6478515,5.2105956,6.2938476
5.1395507,7.7481933,5.848291,5.732324,5.8583007
5.424707,8.055811,6.2569823,5.381006,5.6812987
5.581445,8.291895,6.1180663,5.8353515,6.919824
5.9461913,8.663477,5.7586913,5.9427733,7.4415526
5.990381,8.230127,5.6390624,5.603418,7.3197265
5.459375,8.569727,5.8631835,5.324365,6.9085937
4.6969237,8.943262,5.797998,5.639795,6.6895995
4.5475097,9.07583,5.5731444,5.832666,6.426904
4.7125487,9.064112,5.5406737,5.527002,5.9034667
4.858545,9.071436,5.3270507,5.5294433,5.3299804
4.721338,8.996485,4.716699,5.4361815,4.223047
4.744531,8.854639,4.3441405,5.084619,4.0145507
4.4029784,8.687403,4.2020507,4.386377,4.9901366
4.5626464,8.915918,4.463281,4.313379,4.0943847
4.8421874,8.811426,4.7728515,4.3114257,4.1759276
4.7796874,8.808496,4.409326,4.2540526,5.1197753
4.376123,8.804834,4.528711,4.2760253,5.1129394
4.4010253,8.654688,4.237451,4.223047,4.0406737
4.4464355,8.538233,3.7765136,4.112695,3.999414
4.59707,8.163477,3.9129882,3.9627929,4.506494
4.619287,8.01626,3.9532714,3.8304687,3.957666
4.7103515,7.8595214,4.0714355,4.231836,4.738672
5.1117187,7.8854003,5.0074706,4.818994,5.7762694
5.6700683,8.353418,5.761621,5.430078,7.129541
6.228662,8.447168,5.9171386,6.161035,8.135645
5.8194823,8.557764,6.457422,6.6356444,8.540918
5.400781,8.701075,7.0248046,6.855371,8.336573
5.365869,8.770655,7.0943847,7.1146483,7.890283
5.164209,8.764551,6.7142577,7.020166,6.8509765
4.7867675,8.717432,5.8321776,6.338037,6.4620605
4.6927733,8.072901,5.480127,5.9156737,6.2604003
4.385156,7.70083,4.937158,5.277246,6.2970214
3.617334,7.666162,4.2904296,4.7245116,6.232324
2.5941405,7.65249,3.5260253,4.0677733,4.974756
2.0106444,7.631006,3.185205,3.3097167,4.145654
1.4061524,7.509912,3.0572753,3.0731444,4.7520995
1.0858399,7.392236,2.8924804,2.8839355,4.0040526
0.89150393,7.463281,2.7518554,2.7174315,5.3265624
0.95302737,7.5121093,2.5943847,2.5565429,4.6568847
1.0953614,7.3983397,2.632959,2.548242,4.274072
1.1681153,7.485254,2.509912,2.6048827,4.642236
1.3102051,7.5711913,2.553369,2.5399413,4.9674315
1.4161621,7.4330077,2.4417968,2.562158,5.06875
1.5223633,7.2169433,2.579492,2.329492,4.921533
1.650293,6.702783,2.4662108,2.0904784,4.815332
1.9752442,6.4618163,2.740869,2.1529784,4.6546874
2.0301757,6.471826,3.1009765,2.5770507,4.9659667
1.992334,6.5765624,3.3185058,3.195459,5.0851073
2.234033,6.709619,3.5282226,3.6266112,5.240869
2.1646972,6.675195,3.6859374,3.985498,5.2455077
2.2125487,6.5821776,3.632959,3.7936034,5.129541
2.2271972,6.768457,3.1739745,3.7501464,5.452783
2.113916,6.8617187,2.7328124,3.0077147,5.442529
1.7572266,6.807031,2.33291,2.6187987,5.0299315
0.7601563,6.4259276,2.0001464,2.1446776,4.7750487
0.5152832,5.8731933,1.4393555,1.5631348,4.570703
0.41176757,5.6686034,0.69082034,1.1217285,3.9779296
-0.078222655,5.4659667,0.4125,0.43325195,3.5228515
-0.20639649,5.4745116,0.44814453,-0.034521483,3.6080565
-0.55722654,5.257959,0.42714843,-0.52719724,3.4332519
-0.71958005,4.8802733,0.16396484,-0.35825196,3.1300292
-0.5853027,4.6969237,-0.022558594,-0.086523436,2.956201
-0.37216797,4.6876464,-0.23056641,-0.19833985,2.678125
-0.51474607,4.434961,-0.38876954,-0.74545896,2.6444335
-0.7786621,4.317285,-0.5015625,-0.8599609,2.2223144
-0.9988769,4.025537,-0.6873535,-0.97128904,1.8475586
-1.1033691,4.0250487,-0.9693359,-1.2415527,1.3180176
-1.2010254,3.947412,-0.8916992,-1.2728027,1.4071289
-1.2442383,3.8834472,-0.9693359,-1.434668,0.6979004
-0.7879394,3.7538085,-0.5796875,-0.83310544,0.94570315
0.08754883,3.9623046,0.33095703,0.016015625,2.155664
1.1031739,4.305322,1.1275879,0.917627,3.228662
1.9073731,4.778711,2.1302733,1.8487793,4.052881
2.1571288,5.3631835,2.9344726,2.8009276,4.5086913
2.2533202,5.645166,3.4615722,3.234033,4.6078124
2.1913085,5.815088,3.6200194,3.3758788,4.572412
1.8929688,5.8770995,3.556787,3.2904296,4.52749
1.0648438,5.7865233,2.69375,2.6598144,3.7169433
0.1390625,5.570947,1.4232422,1.6844727,3.134912
-0.07285156,5.1598144,0.61220706,1.211084,1.9620606
-0.1451172,4.9625487,0.12978515,0.71547854,1.4508301
-0.21494141,4.8614745,-0.1607422,-0.31210938,1.5829102
-0.38803712,4.9017577,-0.95639646,-0.78818357,1.7538086
-0.5875,4.9000487,-1.3570312,-1.090918,1.4937989
-0.7486328,4.9242187,-1.4439453,-1.6541504,0.7962891
-0.7535156,4.8441405,-2.30625,-1.4847168,0.6827637
-0.7103027,4.770654,-1.790625,-1.3924316,1.00625
-0.6736816,4.938867,-2.0989747,-1.7666992,1.0970703
-0.5503906,5.084863,-2.0228028,-1.228125,0.8199707
-0.55185544,5.086328,-2.297461,-1.5115722,0.6219727
-0.9246582,4.7975097,-2.1441407,-2.0357423,0.30751953
-1.1395019,4.6114745,-2.4234376,-1.976416,-0.07773437
-1.2581543,4.6429687,-2.215918,-1.247168,-0.4625
-0.6248535,4.725244,-1.7532715,-0.74790037,1.0162598
0.81948245,5.0277343,-0.15854493,0.32265624,3.0760741
1.7201172,5.2245116,0.61025393,1.122461,4.2899413
2.1393065,5.5145507,1.3609864,1.9549805,4.933252
2.4642577,5.992334,2.0050292,2.641748,5.082422
2.6637206,5.9339843,2.6769042,2.8905272,5.199365
2.6566405,6.025537,3.117334,2.8416991,5.3004394
2.289209,6.117334,2.7643065,2.560205,4.7904296
0.9466797,6.2052245,1.3954102,2.0907226,3.317041
-0.8189453,6.0023437,0.1390625,0.47915038,1.5506836
-1.2830566,5.211572,-0.4942383,0.00234375,1.4081055
-1.4913086,4.5489745,-0.5940918,0.17104492,1.0145508
-0.78989255,4.225244,-1.2547363,-0.48496094,0.44716796
-1.1678222,4.2901855,-1.5208496,-0.78500974,-0.09482422
-1.1231445,4.189111,-1.6856445,-0.90830076,-0.45908204
-1.0677246,4.0697265,-1.8746094,-1.0279297,-0.61850584
-1.1236328,3.9781737,-2.3641114,-1.3057617,-0.6346191
-1.1824707,3.9581542,-2.418799,-1.5501465,-1.4341797
-1.2930664,3.8558593,-2.3243165,-1.6751465,-2.4087892
-1.5071777,3.8087401,-2.4146485,-1.7173828,-2.3421388
-1.6185058,3.7398925,-2.0071778,-1.6531738,-1.8677734
-1.4285644,3.8089843,-1.738623,-1.4075683,-1.6958984
-1.151709,3.8111815,-1.7967285,-1.3492187,-0.2425293
-1.3250488,3.8197265,-1.7999023,-1.3001465,0.40517578
-0.9463867,3.8299804,-1.5323242,-1.1463379,0.34511718
0.30996093,3.893701,-0.9668945,-0.47641602,2.0003905
1.4847656,4.223047,0.021630859,0.56826174,3.6788573
2.2520995,4.5663085,1.3348633,1.7650391,5.039697
2.6693358,4.8355956,3.0899901,2.3365722,5.3790526
2.8617187,5.1688476,3.4784179,2.5978026,5.303125
2.9020019,5.718164,3.5597167,2.7899413,5.3663573
2.5121093,5.704492,3.1061034,2.673242,4.834619
1.1629883,5.7469726,1.9720703,1.634668,3.60708
-0.10751953,5.742334,0.61928713,0.6666504,2.45083
-0.41342774,5.4188476,-0.46445313,0.25356445,2.4105468
-0.56992185,5.6654296,-1.0203613,-0.35825196,1.7887207
-1.0630859,5.007959,-1.2530273,-0.7840332,2.3875976
-1.2164062,4.9017577,-1.5616211,-1.0584472,1.8763672
-1.0523437,5.00625,-2.0308595,-1.2291015,2.2318358
-1.0928711,5.2240233,-2.9578614,-1.2322754,2.3429198
-1.2964844,5.3441405,-3.1739259,-1.3389648,1.2774903
-1.4644531,5.860498,-2.9251466,-1.7312988,2.0331054
-1.8130859,5.236963,-2.9581056,-1.9983886,1.2755371
-2.0433106,4.683496,-3.2776856,-1.9686035,0.64272463
-2.1072755,5.226953,-2.762793,-1.8667969,0.1830078
-2.1443849,4.650537,-2.5350099,-1.7024902,-0.15219727
-2.2232423,4.910791,-2.0606446,-1.1214355,0.3055664
-2.1575685,5.0890136,-1.332373,-0.8262695,0.18154296
-1.3768066,4.817041,-1.0430664,-0.72202146,0.7308594
-0.04550781,5.2037597,-0.4883789,-0.10019531,3.211084
0.6358887,6.1236815,0.34536132,0.9532715,3.4410644
1.1419922,5.8404784,1.6283203,1.7408692,5.624414
1.7262207,6.6717772,2.6776366,2.2279296,5.414697
2.1292968,4.7987304,3.3768554,2.483789,4.0733886
2.2274413,5.68667,3.4552245,2.5279784,5.0262694
1.9251953,6.1839843,2.4359374,2.2149901,5.0716796
0.7716309,5.990381,0.98891604,1.153711,4.164697
0.3084961,5.7157226,0.46914062,0.38344726,2.9588866
-0.26865235,5.414209,-0.31796876,0.27382812,3.8243651
-0.54111326,5.3368163,-0.3350586,0.39467773,2.6222167
-1.0206054,5.6205077,0.11025391,0.027734375,2.6603026
-1.4598144,5.3827147,-0.06992187,-0.1451172,2.6217284
-1.6788086,5.171533,-0.32529297,-0.39121094,2.4950194
-1.8658203,5.536279,-0.37070313,-0.615332,2.3270507
-1.8616699,5.2625976,-0.66660154,-0.7666992,2.4339843
-1.6141113,5.162744,-0.50083005,-0.70761716,2.9354491
-1.5652832,4.96792,-0.5594238,-0.45932618,2.4115233
-1.12583,4.721338,-0.3440918,-0.71176755,2.437158
-0.20541993,4.7955565,-0.11411133,-0.7308105,1.9918457
-0.276709,4.8543944,-0.4847168,-0.33115235,1.2765137
-0.73886716,5.0301757,-0.5276855,-0.55625,1.5245606
-1.0162109,5.093164,-0.41000977,-0.36948243,2.3868651
-0.5552734,5.1708007,-0.12778321,-0.08408203,2.5755858
1.2091309,5.084619,0.7206055,0.744043,4.4344726
1.9984375,5.4693847,2.1180663,1.6874024,5.254785
2.3185058,5.9640136,4.0230956,2.7362304,5.600244
2.3111815,6.15542,4.1319823,3.9217772,5.600244
2.4417968,6.271631,4.6478515,4.344629,5.5123534
2.7259765,6.1874022,4.1080565,4.3714843,5.4259276
2.3504882,6.0453124,3.6664062,3.5726562,5.015039
1.4928223,5.9327636,2.1632323,2.7284179,4.3197265
0.6534668,5.881006,-0.30039063,0.933252,3.6554198
0.5655762,5.713037,0.035791017,0.67397463,2.6915526
0.57802737,4.9847655,-0.84458005,0.35463867,2.8700194
0.8485352,4.608545,-0.6700195,-0.40341797,2.7293944
0.13344726,4.4046874,0.16127929,-0.11020508,3.2955565
-0.552832,4.3614745,0.18520507,-0.6524414,2.7037597
-0.84042966,4.3617187,-0.058691405,-0.12631837,2.1493163
-0.9703125,4.043115,-0.5774902,-0.44882813,1.8941895
-1.5442871,3.7638183,-0.632666,-0.7745117,1.6512696
-1.5552734,3.3666015,-0.38217774,-0.7332519,1.4217774
-1.4996094,2.9625487,-1.3477539,-0.7410644,0.48452148
-1.7269043,2.5611815,-1.8477539,-0.97250974,0.4630371
-1.6087402,2.393457,-1.6875976,-1.2337402,-0.9927734
-1.3755859,2.2918944,-1.8680176,-1.6553711,-2.9097657
-1.4144043,2.233789,-2.0816407,-1.9075683,-1.3873047
-1.0723633,2.1612792,-1.2972168,-1.3770508,-1.2928222
0.16323242,2.2801757,0.04067383,-0.3416504,0.10976563
0.74916995,2.7223144,1.3700196,0.75087893,2.2213378
1.1935059,3.5042968,2.6617675,1.7818848,3.2689452
1.7535645,3.9950194,3.3563476,2.4378905,3.7552733
1.9225098,4.3980956,3.1612792,2.878076,3.976709
1.7945801,4.668115,3.1341796,3.0868163,3.8905272
1.4115235,4.7506347,2.6993651,2.5401855,3.5660644
0.48720703,4.558496,1.2689453,1.5611817,2.6927733
-0.6526855,4.1625,-0.09311523,0.6495606,1.0870606
-0.6189941,3.7572265,-0.59628904,0.028710937,0.27871093
-1.0193847,3.4916015,-1.1536621,-0.7476562,0.7354981
-1.1363281,3.567041,-1.1409668,-1.398291,0.395166
-0.94736326,3.3683105,-1.2222656,-1.542334,1.0150391
-1.0491699,3.0709472,-1.1817383,-1.4830078,0.9808594
-1.1180176,2.7538085,-1.1138672,-1.4449219,0.7489258
-0.95395505,2.6393065,-1.0584472,-1.6580566,0.54897463
-0.72446287,2.6397948,-0.7806152,-1.5611328,0.25161132
-0.80600584,2.7271972,-0.78330076,-1.71958,0.14614257
-1.025,2.7311034,-0.8064941,-1.1910156,0.45668945
-0.84702146,2.7787108,-0.65708005,-1.2637695,0.5934082
-0.7769531,2.780664,-0.20664063,-0.96347654,0.7464844
-0.7769531,2.7035155,-0.117529295,-0.5618652,0.74672854
-0.51279294,2.6285644,0.19716796,-0.039892577,0.68007815
-0.31723633,2.2296386,1.3172852,0.56777346,0.7904297
-0.01303711,2.442041,2.3260741,1.8524414,1.0951172
0.14589843,3.1910644,2.6656737,2.8609862,1.8646485
0.04897461,3.641992,2.5763183,3.032373,2.8475585
0.20205078,3.94375,2.6615233,2.7091308,3.4547362
0.07070313,4.023828,2.798242,2.7225585,3.3717284
0.016992187,4.013574,2.7958007,2.6148925,3.2416015
-0.15488282,3.9574218,2.4710937,2.3695312,3.0592284
-0.39145508,3.6288085,1.955957,1.7706543,2.4845214
-0.7464355,3.3004394,1.6322266,1.4776856,1.2081543
-1.1573242,2.9378905,1.3126465,1.34292,0.0011230469
-1.6824707,2.7142577,0.9632813,0.97158206,-0.51645505
-1.9625,2.4083495,0.54897463,0.490625,-1.5745605
-2.8255372,2.0748534,0.3067871,0.23110351,-1.7676758
-2.9788575,1.8194824,0.21499023,0.05678711,-1.5958008
-3.1194825,1.7940918,-0.33774415,-0.1932129,-1.1817383
-3.484717,2.1520019,-0.95566404,-0.8394531,-1.5630859
-3.5899415,2.574121,-1.176123,-1.4185547,-1.1602539
-3.4864259,2.9220214,-1.3223633,-1.6021484,-0.43491212
-3.8470216,3.7848144,-1.3475097,-1.7312988,0.47670898
-3.915381,4.141992,-1.3140625,-1.7005371,1.1605469
-3.814795,4.169824,-1.2361816,-1.6939453,1.3297364
-3.406836,4.2503905,-1.4217285,-1.6939453,1.653711
-3.1543946,4.2433105,-1.6553711,-1.5066894,2.1842284
-2.887549,4.579004,-1.3943847,-1.06333,3.1959472
-2.637793,4.9010253,-0.6346191,0.07631836,4.03457
-1.8414062,4.7000976,0.15541992,1.2711426,4.463281
-0.109472655,5.216211,0.83754885,2.272119,3.7040038
0.7398926,5.8370605,1.726709,3.6854491,3.4957519
1.365625,6.035791,2.4046874,4.4674315,4.1754394
1.5802246,6.1964355,2.7330565,4.350488,3.539209
1.5428711,6.0399413,2.7191405,4.1688476,4.1043944
1.3189942,5.9068847,2.5946288,3.6375976,4.2447753
0.9393555,6.2818847,2.4356933,3.26333,5.0140624
0.4876953,6.362207,2.3734374,3.3626952,5.4413085
0.2923828,6.7193847,2.6512694,3.0973144,6.028955
0.3722168,7.1095214,2.680078,3.2499022,6.4254394
0.572168,7.440576,2.3653808,2.8915038,6.39541
1.0152832,7.7899413,2.115625,2.5196776,6.251367
1.5140625,8.3832035,2.218408,2.726709,6.199365
1.9532715,8.876856,2.291162,2.7938476,5.596338
2.3543944,9.172266,2.5921874,2.9417968,5.5143065
2.782617,9.433252,2.7713866,3.0694823,5.83999
3.2247558,9.489893,3.147119,3.2367187,6.251367
3.548242,9.644678,3.478662,3.4291015,6.3392577
3.907617,9.76333,3.636621,3.528955,6.5943847
4.278711,9.307764,3.98208,3.7489257,6.689111
4.516748,9.163233,4.3524413,4.0624022,6.6527343
4.9271483,8.867334,4.548486,4.601709,6.789453
5.7228026,8.830225,4.964746,5.0836425,7.761865
6.5697265,8.782129,5.8509765,5.5399413,8.734278
7.3233886,8.811182,6.9764647,6.355127,9.094385
8.057032,9.068506,7.738672,7.2884765,8.930567
8.306299,9.288477,8.15835,7.8026366,8.925684
8.170069,9.738916,8.351709,8.108545,8.749414
8.127832,9.760157,8.462549,8.1661625,8.467676
7.260156,9.601221,8.042383,7.6705565,8.061182
6.850488,9.123194,7.356836,6.7540526,7.533838
6.688623,8.540674,6.650537,6.2870116,7.283838
6.410547,8.380762,6.2745605,5.9620605,7.244287
6.398584,8.533594,6.220361,6.039209,7.1842284
6.370996,8.938868,6.047754,6.114404,7.1788573
6.271631,9.24209,5.685449,5.919336,7.155664
6.2743163,9.269434,5.775781,5.7257323,7.202783
6.402246,9.304346,5.7501464,5.7455077,7.364404
6.688623,9.361719,5.6998534,5.8438964,7.8419433
6.780664,9.495264,5.999658,5.923242,8.380762
7.1134276,9.484034,6.1185546,6.1322265,8.326807
7.1358886,9.539209,6.240869,6.2135253,8.131739
7.055322,9.536036,6.4225097,6.2291503,8.120996
6.940332,9.633936,6.5836425,6.221826,7.8822265
6.4188476,9.558741,6.7708983,6.6358886,7.672754
6.5851073,9.42251,7.0833983,7.025781,7.978418
6.7674804,9.470118,7.6429687,7.4608397,8.278467
7.176904,9.942774,8.371729,7.7726073,8.549463
7.5631347,10.88003,8.344385,7.940576,9.3814945
7.9864745,11.79043,8.711084,8.054346,9.973291
8.689844,11.967188,9.3988285,8.747461,10.723536
9.288233,11.997217,9.841455,9.504297,12.634424
9.079737,11.974268,9.588526,9.589014,12.550928
8.854639,11.925684,8.726709,9.01333,12.017725
8.533838,11.851221,8.169825,8.299219,11.676661
8.6036625,11.898584,8.481104,8.551416,11.79043
8.533106,11.760645,8.49795,8.713526,11.878565
8.630518,11.862452,8.524805,8.65835,12.120508
8.885645,11.8417,8.797022,8.67544,12.2252445
9.121485,12.129786,9.24795,8.969385,12.483301
9.266016,12.454248,9.579248,9.217432,13.048975
9.386133,12.744532,9.004786,9.266748,13.218164
9.392481,12.716455,9.712305,8.880762,13.239649
9.204981,12.349756,10.31875,8.891016,13.199366
9.369043,12.083887,10.411768,9.563135,12.640772
9.439356,11.65127,10.552637,9.932032,11.834375
9.531641,11.291651,10.09292,9.876856,11.710108
9.81875,10.445459,10.284815,9.780909,11.0550785
10.090479,10.163477,10.477686,9.858301,9.416407
10.268213,10.085108,10.667627,10.210352,8.950342
10.252832,9.895166,10.682276,10.5082035,9.230127
8.163721,9.879786,11.0724125,10.703028,9.610987
7.845117,9.974756,9.15542,9.15835,9.873438
8.465235,10.113672,9.038965,9.056543,10.181055
8.736963,9.785547,9.204248,9.443506,9.546289
7.923486,9.631006,8.8771,9.14126,9.436914
7.576074,9.247217,8.566309,8.760889,8.717432
7.6515136,8.889307,8.034815,8.274561,8.030176
7.624658,9.102442,7.7760253,7.784082,7.914697
7.5719237,9.699854,7.4549804,7.516504,8.094141
8.089014,10.5411625,7.4046874,7.303125,9.032862
8.738916,10.748682,7.3976073,7.1131835,9.979151
8.758692,10.667139,8.546778,7.2152343,10.038233
8.679346,10.454493,9.344141,8.489649,9.687891
8.685694,10.366358,8.994776,8.521387,9.252832
8.785791,10.739893,8.506006,8.510401,9.732813
8.858545,10.965479,8.958155,8.575342,10.100733
8.846582,11.019434,8.960352,8.643457,10.195215
8.633936,10.981104,8.937647,8.559717,10.472559
8.619776,10.942774,8.843897,8.473291,10.511866
8.524561,10.9317875,9.476465,9.029932,10.4942875
8.491846,10.80044,9.412012,9.160059,10.550684
8.571924,10.9005375,9.386133,9.024317,10.41128
8.784571,10.918848,9.567774,9.327295,10.442774
9.063379,10.927637,9.506983,9.558496,10.603418
9.579004,11.03628,10.0689945,9.92544,11.184717
10.244776,11.295069,10.350733,10.005762,11.864405
10.859278,11.120264,10.44668,10.241114,12.2425785
11.382715,10.433496,10.522852,9.924952,11.177393
11.3224125,10.349756,11.524561,10.01211,10.740625
11.115625,10.483545,11.467676,10.546534,9.877832
10.32461,10.513086,9.704004,8.385889,9.914942
8.539942,10.4457035,8.921778,8.443018,9.808008
8.542383,10.275782,9.263819,8.622461,9.590967
7.9608397,10.291895,8.933741,8.410791,9.460352
7.6480956,10.24795,8.893213,8.44253,9.401026
7.016748,10.149073,8.54751,8.515284,9.407129
6.907617,9.57461,8.390772,8.123194,8.49795
7.235254,9.163477,8.222559,7.570703,7.799951
7.537744,9.189356,8.140284,7.869043,7.5589843
6.977197,8.993799,7.777246,7.594629,7.245752
6.275293,8.697901,7.504785,7.212793,6.5624022
5.547754,8.760401,6.766992,6.7135253,6.3280272
4.707666,8.559961,5.863672,6.098535,5.985742
4.8004394,8.419336,5.329736,5.2433105,5.4049315
4.374414,7.978418,5.2328124,4.74624,5.1112304
4.4120116,7.85708,5.362695,4.731836,5.481836
4.74624,7.914697,5.2606444,5.2157226,5.770654
5.020654,8.117823,6.0089355,6.0233397,7.2347655
5.2245116,8.271143,6.400537,6.6668944,8.2286625
5.836328,8.270411,7.0799804,7.3355956,8.432276
5.3333983,8.26919,7.5890136,7.005029,8.465479
5.0023437,8.167871,8.112452,5.956201,8.235987
5.0924315,8.017481,8.012598,7.079736,7.879785
5.146875,8.076563,7.0645995,7.0746093,7.4254394
5.025781,8.352442,6.107324,5.9032226,6.825586
4.4444823,8.768213,4.542871,4.282861,5.579736
4.17666,8.8519535,3.7557616,3.5006347,5.5992675
3.4598632,8.690821,3.411035,3.662744,5.8441405
2.8602538,8.752832,3.204248,3.5641112,5.360986
2.5682616,8.323145,3.240625,3.3580565,5.1217284
2.1288085,8.197168,3.1075683,3.015283,4.8402343
1.8329102,8.075586,2.9776855,3.0538573,4.4464355
2.0553222,7.8854003,2.645166,2.8705077,4.3844237
1.7625977,7.9586425,2.6739745,2.6683593,4.442041
1.5655762,7.8426757,2.2848144,2.7796874,4.308252
1.4757324,7.9588866,2.3429198,2.4876952,4.292627
0.97939456,8.035547,2.2865233,2.2604003,4.27041
0.74257815,8.038477,2.626123,2.4015136,4.2486815
0.5655762,8.132227,2.6588378,2.4132323,4.1773925
0.6178223,8.468653,2.8180175,2.3880858,4.106836
1.2655274,8.411524,3.8539062,3.4442382,5.1239257
2.6795897,8.370752,4.549463,5.053613,6.8512206
4.061914,8.354151,5.683252,6.1214843,7.636621
5.261377,8.51333,6.1249022,6.6656737,8.159082
6.404199,8.476221,7.004541,6.596582,8.448633
6.625879,8.647608,7.013086,7.0611815,8.41958
6.8839355,8.66958,7.0697265,6.99917,8.371729
6.664697,8.809717,6.6498046,6.6361327,8.038965
5.734033,8.881983,5.8023925,5.3058105,7.2538085
4.856836,8.9752445,4.58291,4.5038085,5.5821776
4.6549315,8.718897,3.9947753,3.8531737,4.7835937
4.4483886,8.4596195,3.812158,3.2672362,5.34292
4.3080077,8.395655,2.5414062,3.174707,4.5853515
4.231836,8.701563,2.454492,3.065332,4.214746
4.1895995,8.688623,2.8070312,2.6915526,5.534326
3.9703612,8.083643,3.0267577,2.4845214,3.9256835
3.1959472,7.661279,3.147119,3.0216308,3.1825194
2.1266112,8.143457,3.1085448,2.6385741,2.9791503
1.8570801,8.571924,3.1039062,2.5572753,2.994287
1.5401856,8.235254,3.7691894,2.7313476,2.534082
1.6117188,8.191553,3.0946288,2.4139647,2.5936522
1.3761231,8.141748,2.6102538,2.0367675,2.4391112
1.1104981,7.8097167,0.9659668,1.4764649,2.2193847
1.06167,7.799951,1.6222168,2.0902343,2.3719726
1.7481934,7.759912,2.9515624,2.4276366,3.9015136
2.95083,7.8514647,4.324365,3.7845702,6.004785
4.317285,7.7506347,5.739404,5.4657226,7.265039
5.2420897,7.9330077,5.883203,6.3236327,7.544336
5.789453,8.256739,6.3753905,6.4239745,7.991113
6.563379,8.532618,7.0301757,6.903955,8.231104
6.8458495,8.902979,6.6656737,6.824121,8.375391
6.5267577,9.036524,6.5248046,6.3419433,8.257959
5.780664,8.776758,5.918115,5.5995116,7.4046874
4.355615,9.31045,4.1952147,4.692041,6.705957
3.9852538,9.141016,3.9315429,3.9720702,6.7975097
4.251611,8.426416,4.1256347,3.8653808,6.91958
5.1012206,9.067774,3.5765624,3.9078612,6.96792
4.669824,9.400049,4.627832,4.0873046,7.7677245
5.176904,9.858057,4.9710937,4.4637694,8.467676
5.810205,10.299707,5.379785,4.8756347,9.246485
6.4083495,10.791651,6.6739745,5.9395995,10.158106
6.9500976,11.298731,7.7782226,7.200586,10.827784
7.650781,11.57876,8.382959,7.9896483,11.081202
8.351709,11.676172,9.267969,9.028955,11.046045
8.892725,11.682276,9.715479,9.703272,10.957911
9.264307,11.63125,9.914698,9.796289,10.646387
9.448633,11.50918,9.663721,9.498438,10.410547
9.214258,11.400782,9.268946,8.978907,10.140772
9.716211,11.323877,9.063868,8.668116,10.4005375
9.667139,11.297266,9.412989,9.217188,11.070948
9.635645,11.270166,10.093164,10.031885,11.388819
8.648096,11.268457,10.527735,10.551416,11.382227
8.587549,11.2408695,10.626612,10.6158695,11.187891
8.647852,11.198145,10.257227,10.4042,11.020655
8.5375,11.15542,9.9005375,10.058252,10.704737
7.942285,11.048243,9.714258,9.751612,10.517237
7.2450194,10.929102,9.217188,9.335596,10.258448
7.603906,10.788965,8.628321,8.941309,9.98501
7.4427733,10.662012,8.368067,8.700342,9.773584
7.181543,10.556299,8.214258,8.422022,9.593409
7.052881,10.441553,8.088526,8.222315,9.388819
6.8062987,10.353907,7.851709,7.98208,9.250879
6.3651366,10.182764,7.6168456,7.8358397,8.946924
6.0780272,10.075098,7.4222655,7.723535,8.62417
5.970361,9.821436,7.294336,7.399072,8.182764
5.994531,9.61709,6.994043,7.0545897,7.398828
5.85,9.394434,6.711572,6.790918,6.95083
5.525781,9.334864,6.5230956,6.350488,6.863916
5.223291,9.257227,6.3302245,6.1373534,6.551904
5.055078,9.004053,6.1856933,6.2437987,6.2899413
4.6651855,8.786768,6.1842284,5.6754394,6.24917
4.497705,8.692041,6.2101073,5.3253417,6.4295897
5.240625,8.648584,6.3124022,5.7520995,6.907373
6.3062987,8.585108,7.0211425,6.341455,7.845361
6.9742675,8.521143,7.809961,6.624658,8.379541
7.31167,8.1192875,7.525537,7.7350097,8.226709
7.7413573,8.142725,6.6839843,7.62124,8.177393
8.269678,8.081202,7.5423827,6.315332,7.9168944
7.990381,8.266504,6.9532714,5.7413573,8.259668
6.8905272,8.297022,6.9393554,6.2523437,8.263086
5.5926757,8.244776,6.421289,5.9808593,7.4430175
4.7296386,8.642481,5.3648925,5.0143065,6.1344237
4.4500976,9.131983,4.2296386,4.4781737,5.6966796
4.018701,8.527491,4.4154296,4.1495605,5.971582
3.911035,8.726465,3.7315917,3.9122558,5.851953
3.409082,8.66543,3.7647948,3.7479491,5.733789
3.1061034,8.370508,3.4098144,3.167871,5.0301757
2.9605956,8.310694,3.4479003,2.9012694,4.7574706
2.8983397,8.462305,3.042871,2.973535,4.697656
2.3880858,8.291407,3.2245116,3.1925292,4.0418944
1.8939453,8.217676,3.16958,2.9024901,3.6646972
1.7557617,8.264063,3.3194823,2.7052245,3.2430663
1.2196289,7.9061522,2.984033,2.3470702,3.1302733
1.0560547,7.6424804,2.7774901,2.4063964,3.2247558
1.3243653,7.5594726,2.2845702,2.2037597,3.6168456
0.7789551,7.9620605,2.3756347,2.3009276,3.9061522
1.5265137,7.921045,3.523584,3.2279296,5.093408
2.9222655,7.940332,4.8822265,4.754785,6.751611
4.148584,8.097071,5.9347167,5.853906,7.697168
5.0643554,8.454493,6.8531737,6.7396483,8.34878
6.3714843,8.994532,6.980615,7.5699706,8.843897
7.1441894,9.357325,7.6827636,7.7779784,8.985254
7.1546874,9.472315,7.4554687,7.5787597,8.31045
6.7923827,9.420801,6.87832,7.0438476,6.891992
6.082422,8.716455,6.3109374,6.065332,6.5702147
5.7420897,8.432276,4.7281737,4.9259276,6.9374022
5.4330077,8.979883,4.528955,4.959863,7.634912
5.372461,9.267969,4.737207,5.6092772,8.097071
5.404199,9.469141,5.299463,6.372705,8.364405
5.537256,9.527735,6.3060546,6.98916,8.433985
5.6510253,9.589746,7.0746093,7.2691894,8.512598
5.550195,9.743311,7.334619,7.473535,8.707911
5.5594726,10.008448,7.303125,7.723047,8.835596
5.3558593,10.00503,7.220361,7.6952147,8.97085
5.256738,9.729639,7.127832,7.598047,8.903711
5.172754,9.708155,7.1598144,7.494287,8.8050785
5.176904,9.703028,7.20083,7.3719726,8.646875
5.1739745,9.483301,6.8839355,7.183252,8.454493
5.212793,9.469141,6.726953,6.9742675,8.238672
5.221338,9.410303,6.516748,6.899072,8.200098
5.415918,9.399561,6.318994,6.4295897,8.16128
5.351953,9.630274,6.356836,6.1100097,8.558252
5.181543,9.570948,6.2262206,5.790918,9.034815
4.9132323,9.670557,6.4310546,5.896875,8.843653
5.3751464,9.762354,6.52749,5.994287,8.588282
5.501367,9.639063,6.8734374,6.2638183,8.424707
5.2884765,9.604639,6.961572,6.4496093,8.305567
5.2503905,9.618555,6.8648925,6.5160155,8.451319
5.301416,9.746485,6.747705,6.4291015,8.498438
5.4393554,7.772363,6.813623,6.379785,6.296533
5.5858397,7.7298827,6.942041,5.836328,5.9793944
5.949365,8.358545,4.6256347,4.5973144,6.209375
4.4166503,9.135401,4.735742,4.735254,6.1197753
3.223535,9.001368,5.1893554,4.655664,5.742334
3.5626464,8.671534,5.178369,4.699365,5.619287
3.4295897,8.505518,4.6551757,4.40957,5.6168456
3.0709472,8.39126,4.5770507,4.2889647,5.554834
3.0084472,8.313868,4.7259765,4.6498046,5.546533
2.6649413,8.1939945,4.6895995,4.5611815,5.3963866
2.437158,8.256006,4.59292,4.410791,5.411035
2.396875,8.171778,4.2169433,4.192529,5.820703
2.452539,8.092676,4.1544433,4.008447,5.474756
2.230371,7.8304687,3.8834472,3.5631347,5.6839843
2.2276855,7.62124,3.7274413,3.3868651,5.4173827
2.9813476,7.4537597,4.6810546,4.212793,5.711084
3.8109374,7.3890624,5.3941894,5.244531,6.393945
4.894922,7.051904,5.6097655,6.2140136,6.26333
5.3355956,6.2730956,6.520166,6.610498,4.876123
5.608789,7.598291,6.834619,6.903711,5.324121
5.6708007,7.836328,7.061914,7.02041,6.9444823
5.086572,7.8878417,6.7711425,6.738916,7.19082
4.188379,7.718408,6.620996,6.343408,5.9395995
2.9344726,8.243555,5.7501464,5.459863,6.1812987
2.8770995,8.258936,4.6031737,4.48208,5.8092284
2.5426269,8.278467,4.1720214,3.7804198,5.0521483
2.4085937,8.065821,3.2010741,3.5562987,4.8131347
2.2818847,7.6686034,3.2743163,3.2088866,4.836084
1.9242188,7.3651366,2.8668456,3.2787108,4.667871
1.7352539,7.3648925,2.8023925,3.1153808,4.5375
1.6424805,7.1827636,2.528955,3.0145507,4.0750976
1.2188965,7.261621,2.4061522,2.7071776,3.8683105
1.1185547,7.22207,2.370996,2.4054198,3.7816405
0.8431641,7.051416,2.1061034,2.1673827,3.8619628
0.41298828,6.944238,1.8456055,1.9657227,3.5895019
0.24770507,6.9237304,1.5936524,1.7704102,3.4776855
0.020898437,6.860986,1.4110352,2.002832,3.084375
0.085595705,7.1881347,1.0711914,1.5736328,2.6117187
0.15371093,7.2328124,0.9015137,1.4947754,2.863916
1.0675293,7.403955,2.6021972,2.7413573,4.433252
2.011621,7.5174804,4.228906,4.2953124,6.0543456
3.2074218,7.772363,5.0770507,5.4496093,6.9583983
4.351709,7.9603515,5.5389647,5.742578,7.620996
5.0875487,8.277002,6.291406,5.891748,7.860498
5.306543,8.363672,6.429834,5.536035,7.1358886
5.539453,8.307276,6.3575683,6.029199,7.1014647
5.6026855,7.801416,6.1288085,5.360742,6.819238
5.1598144,8.17959,5.51333,5.4137206,6.230127
4.518457,8.025049,4.44082,4.9757323,6.3216796
4.1844726,8.04336,4.0765624,4.44082,5.9884276
3.963037,8.330469,4.238916,4.5450683,6.3458495
3.5885253,7.924707,4.2918944,4.199121,6.4361815
3.1290526,8.306055,4.2486815,3.8976073,6.32583
2.9757323,8.304102,4.2762694,3.900537,6.4535155
2.784082,7.772363,4.2362304,3.879785,5.9586425
3.0624022,7.9273925,4.1742187,3.799707,6.268457
3.1917968,8.357569,3.9881835,3.487207,6.7853026
3.3045897,8.895411,3.6698241,3.282617,6.8426757
3.4615722,8.57168,3.4962401,3.9400878,6.487451
3.3646483,8.307276,4.4764647,4.6998534,6.178125
3.9024901,8.1471195,4.5157714,4.365869,6.014795
4.063867,8.349756,4.447412,4.436914,5.771875
4.044336,8.158106,4.6842284,4.468164,6.025537
4.122705,7.7674804,5.1163573,4.800195,6.3836913
4.730127,8.114161,5.609033,5.480371,6.9530272
5.315332,7.9081054,6.31582,5.926416,7.617578
5.978906,7.9208007,6.6285644,6.1812987,7.9364257
6.4242187,8.144922,6.237695,6.5455565,7.7152343
6.730615,8.310694,6.6878905,6.4034667,7.944238
6.6725097,8.323877,6.499414,6.190576,8.076319
6.190576,7.8958983,5.5487304,5.63833,7.6632323
5.7259765,8.62417,5.458154,5.313867,7.188379
4.4950194,8.234278,4.411279,4.948877,6.8478026
4.2889647,8.657618,4.640039,4.5301757,5.5780272
4.022119,8.716455,4.2455077,4.198877,5.533838
4.0746093,8.695948,4.160791,4.223535,5.891748
3.8407226,8.607813,3.9964843,3.848535,6.0311522
3.4649901,8.610254,4.115381,3.6166015,6.403955
3.4723144,8.549463,3.6966796,3.4928222,5.940088
3.771875,8.640039,3.9354491,3.7779784,6.3697753
3.9146972,8.689844,3.9447265,3.766748,6.454004
3.9432616,8.774805,3.7745605,3.5904784,6.6458983
3.9327636,8.942286,3.8458495,3.7064452,6.7762694
4.152246,8.571436,4.0680175,3.7777343,6.5023437
4.2918944,8.49917,4.270654,3.874658,6.6944823
4.298242,8.276758,4.4901366,3.9398437,6.8077636
4.445947,8.197901,5.018213,4.2784667,6.89541
4.649072,8.580469,5.485498,4.955713,6.969629
4.8893065,9.14419,6.15957,5.5475097,7.6861815
5.38125,9.811914,6.400293,6.048486,8.564844
6.1043944,10.076319,6.6373534,6.341699,9.25918
6.6827636,10.191797,6.610986,6.372461,9.760157
7.088037,10.19961,6.673242,5.9569335,10.020655
7.8023925,10.207422,7.843164,6.5660644,10.291407
8.546045,10.50503,8.4439945,8.049707,10.4161625
8.887842,10.57168,8.882227,8.784327,10.212305
8.367334,10.540918,8.8771,8.405909,9.598536
7.823877,10.412012,7.9693847,7.1324706,9.219629
7.1393065,10.214746,7.4242187,6.9103026,8.702295
6.4879394,9.997705,6.701074,6.4813476,7.8270507
5.9376464,9.307032,6.580713,6.0018554,7.7066894
5.5299315,8.453516,5.711572,5.669824,7.201074
4.6478515,8.028955,5.1708007,5.00625,6.384668
