"[299, 255]","[227, 248]","[287, 319]","[279, 328]","[230, 262]"
12.351221,16.938135,10.458399,12.627344,14.569971
12.46084,16.839746,10.01333,12.454737,14.640284
12.427881,16.735498,10.309229,11.836084,14.382227
12.208155,16.680567,10.392481,11.676416,14.264795
12.604883,16.718653,11.509424,11.993555,14.51333
14.079004,16.850489,13.628809,13.106348,15.526758
15.819483,17.042627,14.849268,14.631983,16.647608
17.073633,17.265772,16.069483,16.238672,17.509424
18.363916,17.337793,17.256495,18.427637,18.176172
19.631006,17.224024,18.719385,19.974756,19.172998
20.873438,17.483057,19.73086,20.69961,19.969385
22.098291,17.576563,20.40713,21.485498,20.715235
23.23623,17.61709,21.22964,22.095606,21.132227
24.367579,17.649073,21.873682,22.47671,21.642725
25.183252,17.836084,22.175196,22.310694,21.991602
25.6542,17.984522,22.016504,21.887354,22.02334
25.55044,17.873682,21.686426,21.355127,21.699366
23.99209,17.735743,21.067286,20.749414,21.468409
22.096094,17.750635,19.968164,19.942041,21.011377
19.978907,17.676905,18.415674,18.669825,19.89419
18.002344,17.765284,16.919092,16.595362,17.218164
16.639307,17.881495,15.855371,15.452051,15.5689945
15.96084,17.821192,15.380518,15.11709,15.016993
15.346338,17.773829,14.408106,14.847803,14.558008
14.567286,17.793116,13.086817,14.499414,13.72085
14.529444,17.826075,11.82876,14.1505375,13.0292
14.821192,17.826075,12.09585,14.125391,12.879297
14.437403,17.696436,12.284327,14.200098,12.115381
14.321436,17.364405,13.235498,14.42251,13.41958
15.890284,17.21377,15.1896,15.294825,15.98208
17.869532,17.245264,16.58877,16.590723,18.300684
19.62124,17.830713,18.286036,18.268457,19.514551
20.935938,18.713037,19.784815,20.00503,20.471338
22.336329,18.531153,21.168848,21.508448,21.292627
23.762598,19.220606,22.323145,22.769434,21.975489
24.918116,19.744043,23.258936,23.842432,22.650293
25.880274,19.958399,24.0021,24.592676,22.87124
26.708887,20.273829,24.660791,25.163477,23.04336
27.39004,20.921045,25.16665,25.591455,23.173975
27.805323,21.752344,25.529444,25.792871,23.149317
27.870508,21.94253,25.654688,25.360743,22.84585
27.433252,21.761866,25.589502,24.772608,22.014063
25.987452,21.446924,25.14834,23.76797,20.926905
24.240137,21.034327,22.63711,22.22793,19.638575
23.11709,20.657862,20.374414,20.171534,19.006006
22.70669,20.430323,18.461329,19.110254,18.773096
21.571924,20.521387,16.797998,19.325586,18.689112
21.127832,20.570948,18.141016,18.69546,18.61709
20.828272,20.485254,18.953272,17.809229,18.569483
20.39834,20.488184,19.494287,18.28628,18.27456
20.254053,20.190332,19.07046,18.47915,18.138575
20.215479,19.71255,18.826563,17.731592,18.268457
20.06045,19.570215,19.454248,17.722559,19.099512
20.373438,19.95254,20.113916,18.77749,19.98916
22.169336,20.857813,21.175928,20.01626,20.730127
22.471582,21.42666,22.126368,21.55337,21.40249
22.36123,22.329004,22.354395,23.730616,22.27749
21.803125,23.352198,23.603907,25.176416,23.582422
19.66665,23.46255,24.489405,26.753565,23.953272
19.845118,24.009668,24.836573,27.321436,23.4667
24.269922,24.61587,24.56875,27.376856,22.753077
25.903467,25.261133,23.890772,27.464014,24.623438
26.577784,25.550684,23.421534,27.338526,26.660547
26.941065,25.722315,23.124414,26.638819,26.341211
27.37124,25.25796,22.424463,25.630518,26.077784
26.671534,23.294092,21.973291,24.522364,25.250635
25.373682,22.232813,21.364893,23.477198,24.488672
23.784082,21.72085,20.519678,22.325342,23.564356
22.15713,22.195215,19.661524,20.60586,22.16714
20.782618,21.63296,18.734034,19.965967,21.14956
20.018946,20.911768,18.33462,19.528223,20.405664
19.423243,20.702051,18.279932,19.054834,19.412989
18.861963,20.633204,17.866846,18.73379,18.810205
18.455225,20.615381,18.017725,18.195948,17.611475
18.150293,20.495996,18.477198,17.666895,16.630518
17.975733,20.36416,18.149317,17.961817,17.839746
18.032618,20.104395,17.991358,18.430567,18.879786
18.094385,19.943018,18.214014,19.44839,19.92422
19.721582,19.978418,19.007227,20.895655,20.421534
21.297022,20.043116,20.344873,22.293604,21.124903
23.110254,20.042383,21.959131,24.019678,21.914698
24.277735,19.968409,23.442041,25.719141,22.482569
25.047754,19.855127,24.78335,26.841211,23.09878
25.43252,19.718897,25.906641,27.783838,23.634912
25.214746,19.792383,26.612696,28.420801,24.308496
25.291895,19.95254,26.655909,28.687159,24.91128
26.835108,20.006495,27.053125,28.463526,25.413233
27.290674,19.771387,27.275537,28.270655,25.58047
27.230127,19.81045,26.796534,28.319483,25.779688
26.726954,20.279932,25.56045,27.994043,24.118067
25.913965,20.636866,24.090479,24.504297,22.793116
24.184717,20.720118,22.96377,22.896875,22.362452
22.269678,20.87832,21.356592,22.2438,21.032618
21.174952,20.688135,20.396143,21.343164,20.116602
20.772852,20.644678,19.776514,20.638819,20.089014
20.335352,21.11294,19.125635,19.612696,20.122705
19.485254,21.62417,18.481104,19.168848,19.670069
19.13833,21.35,17.569483,18.74087,17.912989
18.76797,21.342432,17.497217,18.47964,17.116846
17.83169,21.062647,17.605616,18.607813,16.949366
18.232813,20.973047,18.048487,18.913233,17.407618
19.471338,20.969141,18.898829,19.376612,19.283838
20.89126,20.80459,19.830225,20.207178,21.165674
22.021143,20.773584,21.042383,21.529688,22.71377
23.076563,20.816065,22.337305,22.890772,24.400293
24.481348,21.300196,23.664942,24.344141,25.76748
25.957178,22.705713,24.888086,25.857569,26.81167
27.32046,22.586573,25.879053,26.447412,27.319239
28.573633,21.218653,25.740137,27.149317,27.58999
29.544825,20.85,27.037012,28.230616,27.55337
29.91958,20.620996,27.977686,29.263086,27.505518
30.466944,20.617334,28.251123,29.110743,27.18838
30.93374,21.01089,28.007227,28.8229,25.964258
30.117823,21.14712,27.526514,28.282862,24.633448
28.443506,21.25918,26.377344,27.381006,23.061914
26.326319,21.219873,24.487207,25.747461,21.508204
23.601954,20.47793,23.035303,23.71963,20.073633
21.941797,20.021631,21.516016,22.340967,19.043116
20.426172,19.88125,19.660303,21.22671,18.686426
19.244532,19.7792,18.694483,20.192041,18.57754
19.39297,19.604883,18.3688,19.205957,18.834131
18.626612,19.63833,17.482325,18.568995,18.96499
17.88418,19.559961,16.940332,18.220606,18.832666
16.91128,19.47671,16.661036,17.672266,18.805323
16.145166,19.484766,17.688868,17.522608,18.774805
16.439844,19.093897,17.905176,18.73794,18.505274
17.475977,18.960352,18.336084,19.682032,18.568262
19.30459,19.343653,18.569483,19.671778,19.464502
20.24917,19.516016,18.849756,20.000147,19.975977
20.89956,19.58755,19.296045,20.676172,20.180079
21.484522,19.659815,20.402735,20.83584,20.721094
21.779444,19.536524,20.888086,20.631983,21.407373
22.858545,19.49087,21.493067,21.484034,21.711573
23.556055,19.527979,21.83047,21.686914,22.06167
22.32339,19.57583,21.988916,21.336329,21.757715
21.715967,19.666162,21.629786,21.36172,21.551416
20.990381,19.61416,20.819971,20.599756,21.643946
20.376612,19.576807,20.36172,19.959131,21.258692
19.701807,19.576563,19.494776,19.395655,20.887842
18.910059,19.662012,18.73916,18.568018,20.349024
17.837305,19.953028,18.139551,17.957666,19.419336
17.143213,20.077295,17.652735,17.337305,18.894922
17.17837,19.885645,17.244776,17.1,18.557276
16.770899,19.559717,16.640772,16.808252,18.123194
16.87295,19.091944,16.213526,15.540674,17.269434
16.19839,18.446192,16.066065,15.143213,16.890284
15.954248,18.246485,15.81045,14.951807,16.718653
15.986719,17.942286,15.328272,14.777735,16.749903
15.649805,17.897608,15.258692,14.550196,16.502832
15.040918,17.646387,15.535303,14.558985,16.672754
15.422266,17.277002,16.390528,15.063135,17.032862
15.732569,17.309229,16.851954,15.873682,17.113916
15.950342,17.45547,17.066797,16.33706,17.364893
16.794825,17.460596,17.369287,17.572168,18.071192
16.41543,17.576075,16.866358,18.120752,18.60171
16.85,17.613184,17.173243,17.431787,18.580713
17.535059,17.805323,18.15957,17.732325,19.224756
17.258448,17.95254,18.649805,18.123682,19.389795
17.47964,18.172266,17.445215,16.012354,19.204004
17.57046,18.22964,16.430323,17.078272,19.27212
15.3363285,18.423243,16.862452,17.708643,18.997705
16.39541,18.560694,17.607569,17.6,18.294336
15.922998,18.531397,17.31045,17.651026,17.714746
15.514551,18.504297,16.970118,16.850245,17.20376
15.019434,18.408106,16.143946,15.822168,16.939112
14.530909,18.131006,15.356836,15.286036,16.535791
13.952539,17.8063,14.725489,14.929346,16.489649
13.29043,17.31045,14.47378,14.330957,16.424707
13.333887,16.668116,14.038965,13.847071,15.790674
13.426416,16.825342,13.657373,13.645166,14.863916
13.16836,16.709375,13.572901,13.743067,14.809961
13.177637,16.972803,13.81167,13.682764,14.631006
13.169336,16.780176,13.907129,13.662256,14.59878
13.313135,16.271875,14.127832,13.944239,14.745508
13.741358,16.264795,14.629297,14.481348,15.456202
14.265284,16.666895,15.371241,15.3050785,15.701563
15.037012,15.82168,16.329248,16.231836,16.132715
16.2604,16.027979,17.318995,17.511621,16.411036
17.700586,15.848536,18.52334,18.645655,16.930567
18.746729,16.669336,19.724756,19.643213,17.860254
19.066309,16.964014,20.707422,20.723047,17.021631
19.255762,17.17666,21.355371,21.532862,17.638086
19.882227,17.144922,21.869776,22.043604,17.561426
20.252344,17.175928,22.15005,22.15835,18.409327
19.88296,17.336573,22.156641,21.805323,18.178614
19.226465,17.539942,21.701075,21.109766,18.014307
18.126368,17.778711,20.655664,20.465235,17.704248
17.023829,17.873682,19.148096,19.416895,16.966455
15.602442,17.750391,17.414942,17.45791,15.243799
14.426416,17.60171,15.88418,15.998682,13.952051
13.593897,17.60415,14.430811,15.344141,13.580713
13.008936,17.567041,13.646143,14.563868,13.20376
12.620508,17.686914,13.224512,13.789209,12.864893
12.358545,17.859766,13.074121,13.179346,12.483545
12.659571,17.975733,13.065088,12.9125,12.450342
12.770166,17.986475,12.971338,12.807764,12.488184
12.943262,17.669092,13.250147,13.299952,12.932276
13.76211,17.581446,14.059229,13.947657,14.734522
14.554346,17.75088,14.727442,14.754053,17.17373
15.656885,18.150293,16.11001,15.7442875,18.797022
17.088037,18.697168,17.659082,17.596338,19.54751
18.615625,18.690577,19.023829,18.106592,19.46255
19.344385,18.681055,19.030176,17.137842,19.591455
20.376123,18.687891,18.530664,17.949366,19.650782
20.342676,18.854883,18.238672,17.713037,19.713282
19.318506,18.963282,17.886621,17.518946,18.601465
18.943018,18.831934,18.774805,19.225733,19.27212
17.08999,18.543604,20.035303,20.151758,19.295801
16.281885,18.172266,19.645166,19.137842,18.826807
16.20669,18.197168,18.151514,18.139551,18.173975
16.54629,18.476954,17.533106,17.766504,18.008936
16.706202,18.570704,17.41543,17.267725,17.870508
16.309229,18.639795,17.020655,16.465967,17.708643
16.202295,18.740625,16.525537,16.162989,17.701807
16.081202,18.966944,16.22671,16.107569,18.02334
15.723291,19.17837,16.296778,16.20669,18.17666
15.54043,19.388086,16.443262,16.289454,18.24209
15.200586,18.954004,16.433252,16.244532,17.687891
15.056055,18.424707,16.221827,15.722559,17.136133
15.254541,18.0104,16.227198,15.343164,16.75088
15.426172,17.835108,15.895899,15.106592,16.62124
15.606836,17.462305,15.80044,15.093164,16.334375
15.320215,17.437159,15.969629,15.375147,16.39834
15.66128,17.274317,16.312403,15.879053,16.816065
16.598047,17.062891,16.935205,16.286768,17.146143
17.346827,17.089746,17.323145,17.191309,17.066309
17.815088,17.35,18.30581,18.05874,17.52749
18.8146,17.507471,19.143702,19.026758,18.059473
19.005762,17.524805,20.076075,20.191309,18.415674
19.497461,17.637354,20.725489,20.978662,19.195704
19.88125,17.717676,21.44839,21.490625,19.43252
19.58755,17.920557,21.781153,21.651758,19.56338
19.458155,18.280909,21.683008,21.542383,19.58291
19.191553,18.457178,21.262598,21.378077,19.225
18.491358,18.702051,20.767725,20.716211,19.049952
17.802149,18.992823,19.498926,19.407373,18.479395
17.04922,19.37124,17.55874,17.741358,16.502832
15.992334,19.007471,16.328028,16.39712,15.422022
14.847803,18.309961,14.990137,15.40835,15.649073
14.220362,17.833887,14.333643,14.814112,14.187403
13.875391,17.581202,14.018213,14.454981,13.712305
13.292139,17.79336,13.340967,13.293116,14.126856
12.705225,17.76504,12.36294,12.971827,13.875147
12.557032,17.30166,12.498926,12.551172,13.395899
12.745752,16.896631,12.568506,12.915186,14.114649
13.88833,16.74795,14.053614,14.143946,15.983789
15.212061,17.078272,15.141504,15.92544,17.41421
16.646631,17.715967,16.512842,17.494532,18.18374
18.07754,18.199366,18.183008,19.101954,18.851954
19.850489,18.321924,19.788965,20.77334,19.596338
21.45547,18.432276,21.327051,22.136866,20.442774
22.756739,18.616114,22.893457,23.225489,21.014063
23.720362,18.687403,24.079493,24.035791,21.287989
24.419092,18.74331,24.802149,24.740625,21.308008
24.60171,18.717676,25.297022,25.308008,21.454004
24.177393,18.915918,25.451319,25.60708,21.712793
23.5021,19.33584,25.37417,25.474268,21.58291
22.613672,19.64712,25.115625,25.007715,20.485987
21.602686,20.098291,24.503077,24.445948,19.606836
20.280909,20.821924,23.140284,23.261621,18.796534
18.557764,20.117823,21.356348,20.982813,17.184473
17.425684,19.295069,20.134424,19.390528,16.297754
16.647608,17.662745,19.146875,18.90249,16.230127
16.061914,17.475733,18.115137,18.259668,16.26797
15.534327,17.285791,17.516748,17.327051,16.13711
15.3050785,16.930079,16.87124,16.979883,15.971582
15.025782,16.943995,16.05166,16.450586,15.95083
15.1314945,16.957422,15.472071,15.99502,15.987696
15.521387,17.014063,15.309961,15.619043,15.998194
15.914698,17.033594,16.595362,16.249414,16.273584
16.439356,17.244776,17.454248,17.650537,16.544336
17.511621,17.492579,18.867334,19.672022,17.061182
19.14419,17.772608,21.592676,21.825586,17.758936
21.163233,18.100245,22.77505,23.114649,18.442286
23.232325,18.730371,23.437159,24.37832,19.334131
25.464502,18.579737,24.187403,25.637842,20.426416
27.047754,18.791895,24.802393,26.843897,21.184961
28.045313,19.742823,25.37588,27.706934,21.527002
28.585596,21.530176,25.653711,27.841455,21.31338
28.67544,21.10171,25.565332,27.00088,21.395899
28.096094,21.253077,24.728174,26.187891,21.33706
26.77505,21.251123,24.566309,25.313135,21.013086
24.751123,21.112696,24.179834,24.180567,20.32998
22.372705,20.89248,22.06338,22.721582,19.451319
20.290674,20.339746,19.835596,20.82754,18.350489
18.942041,19.701807,17.989405,19.80166,17.809473
17.748926,19.335352,16.85,19.10293,17.836817
16.91421,19.35464,15.994776,17.874414,17.935938
15.501368,19.455957,15.169825,17.161768,18.600977
13.744532,19.52041,14.40542,16.33999,18.787989
13.236231,19.58755,14.007471,15.613428,18.5917
13.012598,19.955225,13.734034,14.958887,18.320215
13.040674,20.060694,13.819971,14.337549,18.17666
13.433252,19.931055,14.964258,14.886377,19.092676
14.465235,20.071192,16.083643,16.297266,19.945948
16.270655,21.021631,17.473536,17.702051,20.653223
17.774073,21.497705,19.081934,19.600733,21.316065
19.748438,21.724268,20.703516,21.352686,21.95962
21.708887,21.870752,21.94082,22.947168,22.740137
23.381495,22.036524,23.245264,24.392237,23.497705
24.626612,22.467188,24.55752,25.593897,24.058252
25.438868,21.720362,25.870752,26.42544,24.2167
25.864405,21.128077,27.06167,27.126123,24.173243
26.154932,21.177149,27.283594,27.65835,23.827784
26.13833,21.139551,27.183985,27.66665,23.620996
25.687159,21.36416,26.9396,27.120508,23.289454
24.88833,21.310205,26.256983,26.504541,22.994532
23.28042,21.396143,24.281153,24.727686,22.021143
20.984766,21.655664,21.69082,22.244287,19.313623
18.949121,21.177393,21.068018,20.777246,17.901514
17.913477,20.762598,20.241358,20.427149,17.342676
17.52456,20.218164,18.367334,19.626123,17.293848
16.64712,19.97964,17.725,19.431055,17.271631
16.321192,19.867579,18.807276,19.230616,17.28628
16.086329,19.465967,18.400782,18.405176,17.465235
16.469873,19.031153,17.46377,17.484278,17.474512
16.849268,18.440332,17.2792,16.9938,17.616602
17.28457,18.499903,17.963282,17.795801,18.266016
18.053858,18.615137,18.604883,18.316553,18.636377
18.646387,19.602442,19.21255,18.768946,18.774073
19.762354,19.917871,19.77505,19.659082,18.992579
21.398096,19.762842,20.797754,20.592676,19.323877
22.22378,20.054834,21.796778,21.407862,19.42544
23.205957,20.222559,22.393946,22.534815,20.408594
23.477442,20.512842,23.501123,23.599756,20.495996
23.541407,20.204004,24.019922,24.129786,20.475977
23.58877,19.978662,24.187647,24.441065,20.711573
23.108301,19.83462,24.16421,24.47964,20.816309
22.42251,20.07754,23.698633,23.826319,20.50918
21.68374,20.570215,22.809717,22.754541,20.038477
20.534082,20.689844,21.424952,21.343653,19.476221
19.090967,20.121485,19.555567,19.552881,18.580713
17.348291,19.477442,17.557276,17.544092,17.257715
16.001856,18.572657,16.072412,16.015284,16.426905
14.859766,17.751612,14.861231,14.701563,15.727442
14.100977,17.12832,13.891504,13.5846195,15.186182
13.272608,16.634668,12.809473,12.949854,14.999414
12.239161,16.532373,10.774317,12.230616,14.780664
11.8771,16.448633,10.14419,11.57168,14.218897
11.3771,16.43081,11.079981,10.973291,13.608057
11.666895,16.33462,10.653467,10.893702,13.768702
13.76211,16.263575,12.517725,12.432032,15.057764
14.697901,16.485743,13.675684,13.82583,16.04629
15.95083,16.685205,15.240137,15.331446,16.582178
17.441309,16.937647,16.995996,16.994532,17.177149
18.721094,17.190577,18.938868,18.758936,17.649317
20.08462,17.154688,20.828272,20.266504,18.103662
21.27212,17.204248,22.02041,21.464746,18.391504
22.175196,17.277735,22.671045,22.32046,18.541895
22.767237,17.449121,23.298487,22.809229,18.572657
22.716455,17.539942,23.764795,22.895166,18.706202
21.96206,18.006983,23.880762,22.64419,18.490137
20.906153,18.580713,22.785303,22.31338,18.334131
19.784082,19.249903,21.849024,21.76797,18.167871
18.502832,19.23501,20.865137,20.9667,17.734034
17.051416,19.020899,19.304834,20.059717,17.087793
15.361719,18.370996,18.132471,18.60586,16.253565
14.309229,17.819483,17.253565,16.82339,16.002832
13.82876,17.784327,15.58877,15.40542,15.4161625
13.37295,17.656153,14.332666,14.209375,14.756739
12.792383,17.356104,13.336573,13.206934,14.807276
12.268457,16.864893,12.453516,12.190577,15.001123
11.932764,16.418604,11.596338,11.521631,15.041895
11.682276,16.214258,11.057032,10.782129,14.354395
11.348536,16.291162,10.794092,10.391993,14.32168
12.07168,16.429102,11.795069,11.558741,15.3417
13.3814945,16.826319,13.092432,13.527491,16.319483
14.825098,17.15127,14.475489,15.201319,16.896387
16.220606,17.110254,16.240137,16.818506,17.364405
17.498682,17.175684,17.970118,18.183008,17.66421
18.669825,17.236963,19.34463,19.333887,17.99795
19.623438,17.357325,20.353174,20.540674,18.430079
20.280664,17.54336,21.31875,21.643946,18.953028
20.673975,17.645899,22.193995,22.54751,19.07583
20.872217,17.922022,22.851954,23.150782,19.185694
20.841455,18.193995,23.226954,23.444727,19.281885
20.671045,18.130518,23.26919,23.495752,19.136621
20.222559,18.648829,22.89419,23.227442,18.820704
19.253809,19.405664,21.914454,22.02456,18.29629
17.843653,19.310938,20.436914,20.465967,17.517237
16.09463,18.840967,19.332178,18.466455,15.929102
15.04751,18.387598,17.967676,16.449854,14.892725
14.295313,18.256983,16.402246,16.193995,14.79043
13.704248,17.829248,15.932276,14.933496,14.74502
13.067041,17.080713,15.513575,14.937403,14.600489
13.012598,16.786768,14.765039,14.172022,14.382715
12.924707,16.574854,14.215967,13.871973,13.921534
13.220606,16.561426,14.10586,13.395655,13.728174
13.910303,16.516504,14.098047,13.686182,13.6488285
14.845362,16.47085,15.408594,15.09585,14.78042
16.730127,16.660059,16.971827,16.42959,16.602442
18.188135,17.174952,18.609766,18.238672,17.237696
19.456934,17.768457,20.363916,19.926416,17.968409
20.96499,17.997705,21.943995,21.703028,18.75918
22.49502,18.108301,22.913233,23.764795,19.331934
23.771143,18.138086,23.758692,24.812159,19.705957
24.838037,18.089258,24.495508,24.3688,20.084131
25.738184,18.204493,25.049952,24.485987,20.209131
26.320948,18.610987,25.18838,24.636377,20.42373
26.502588,19.228907,24.969385,24.775537,20.56045
26.323145,19.699121,24.682764,24.39004,20.356104
25.697412,20.053614,24.112207,23.429834,20.378809
24.44082,20.673243,22.662989,22.48623,19.826563
22.620264,20.567041,20.617334,21.03921,18.043604
20.555079,19.89541,19.35708,18.72964,16.148584
19.48623,18.932032,17.805323,17.344385,15.4942875
19.261133,18.67544,16.238184,16.181055,15.382227
19.281641,18.712793,15.824121,15.928125,15.337549
18.933985,19.052393,14.922754,15.82876,15.678858
18.972803,19.244776,14.15835,15.688623,16.273096
18.721094,19.43252,14.671289,15.239161,15.927881
18.333643,19.123682,15.037256,15.048487,15.54458
18.36172,18.840479,15.054834,15.307276,15.868799
18.90127,18.860254,17.09585,16.752588,17.310205
20.160791,19.174707,18.653955,18.192286,19.267237
21.63833,19.853907,20.170313,19.73086,20.539942
23.047266,20.605371,21.684717,21.571436,21.540674
24.557276,20.90542,23.343409,23.239405,22.71499
26.133204,20.77627,24.69839,24.846582,24.121485
27.766748,20.720606,26.000391,26.324366,24.705957
28.914942,20.608545,27.224756,27.723291,25.667627
29.877344,20.601465,28.27627,28.663965,25.620752
30.439356,20.693995,29.333643,29.24502,24.977198
30.619287,20.886866,29.602442,29.742823,24.964502
30.474268,21.100245,29.272852,29.492334,24.686182
30.065577,20.96963,28.270166,27.723536,23.878809
28.103662,21.046534,26.673243,26.452051,22.66714
25.751612,20.994287,24.49331,24.62832,21.209375
23.805567,21.286036,22.677149,22.373682,18.647608
23.25796,20.992334,20.906153,21.084375,17.184229
22.903955,20.600245,19.667383,19.878809,16.888819
22.74087,20.408106,18.347559,18.083399,16.941065
22.450342,20.201563,16.82168,16.557032,16.67544
21.820704,19.592188,15.337061,15.999414,16.674463
19.109278,19.463282,14.603418,14.6644535,17.131495
18.754786,19.67959,14.228907,14.173975,17.102686
19.073633,19.879053,14.441553,14.172998,16.974024
20.213282,19.943506,17.843409,17.680567,17.957178
21.178125,19.824366,19.710108,19.855616,20.031153
22.524805,20.549707,20.926905,21.668848,21.629297
23.954493,21.119287,22.41836,23.54922,22.659082
25.587305,21.49087,24.10293,25.317774,23.425684
27.39834,22.702784,25.718164,26.830713,23.842432
29.113428,23.114405,27.115625,28.005518,24.369043
30.382227,23.417627,28.186426,28.978418,24.814356
31.162989,23.627344,28.910059,29.544825,25.104395
31.422754,23.675928,29.304346,29.7438,25.223047
30.999414,23.756739,29.37417,29.51797,24.58169
29.974512,23.666407,29.05337,29.161524,24.17837
29.16958,23.255762,28.338037,28.063135,23.938135
27.751612,22.805567,26.280909,26.518946,22.767725
26.190088,22.58584,23.880274,25.262354,21.446436
23.640772,21.953272,22.119287,22.285547,19.94082
21.617334,21.1354,21.219141,20.956934,19.211329
21.712793,20.393946,20.82998,20.580957,18.733301
21.549463,20.019434,20.113184,20.143457,18.276026
20.866602,19.599268,19.700098,19.304834,17.751856
20.891748,19.21792,19.145899,18.9396,17.223536
19.7167,18.826075,18.56338,18.708399,17.143457
19.196924,18.57461,17.777002,18.183008,17.03628
19.714258,18.389307,17.25088,17.814356,17.082422
20.230616,18.30581,17.874659,18.475,18.02627
21.285303,18.518702,19.31582,19.980616,19.258936
23.037256,19.708399,20.858545,21.8229,20.308008
24.595606,20.270655,22.520899,23.747461,21.3417
25.931543,20.15713,23.925196,25.554346,22.454737
27.183985,20.240625,25.442774,26.82876,23.273584
28.370264,20.308985,27.081202,27.718164,23.503565
29.546534,20.446192,28.119532,28.71255,23.625391
30.50625,20.512598,28.913965,29.652002,24.144678
31.117823,21.160059,29.576075,30.432276,23.714014
31.225,21.739405,29.906153,30.831934,23.340235
31.225733,22.350489,29.916162,30.197412,23.09585
30.942041,22.613672,27.72915,28.379297,22.822412
29.893213,22.33706,24.636377,27.14126,22.239893
26.581446,21.984766,22.593653,25.456446,21.241602
24.25918,21.468653,20.9042,22.864893,19.189356
22.67544,20.83047,20.043604,21.26089,18.406397
21.346094,20.491114,19.509424,20.339014,18.353418
20.400782,20.482325,19.103907,19.388819,18.509912
20.14834,20.637354,18.629053,18.957666,17.582178
20.116114,20.601221,18.404932,18.713037,17.240381
19.362696,20.249414,18.211329,18.42251,17.026514
19.169336,19.750635,18.097559,18.126368,17.433496
18.874903,19.490381,17.999903,18.01797,17.29336
19.256983,19.343653,18.671534,18.694971,18.512598
20.265772,19.325342,20.353418,20.314844,20.538477
21.854395,19.67666,22.21499,22.305323,21.975
23.777735,19.792383,24.041895,24.02627,23.830713
25.423243,20.021143,25.476221,25.914698,25.291407
26.801416,20.183008,26.888086,27.336817,25.828028
27.921534,20.552393,28.227686,28.652246,25.962793
28.685205,20.989893,29.01919,29.705957,25.867579
29.411036,21.398584,29.877344,30.444239,26.415674
30.171778,21.534327,30.628077,31.027002,26.4667
30.40542,21.74087,30.921534,30.970606,25.533594
30.293604,21.975245,30.65835,29.609278,25.233301
29.974268,22.282618,29.686914,28.189356,25.008448
29.017237,21.763819,27.754786,27.187647,24.501368
26.723536,22.655176,25.36001,25.618555,22.758692
24.276514,22.606592,23.68374,23.567774,19.99624
22.681787,21.897364,22.437403,21.563623,18.971338
21.615137,21.391504,21.666895,20.294825,17.225
21.131006,20.94546,20.946436,20.550928,17.068262
21.116602,21.262598,20.365381,20.30874,17.502832
21.016504,21.444483,20.088526,19.738672,17.961817
20.960352,21.371973,19.056543,19.67959,17.251856
20.652002,21.29165,17.716455,19.30166,16.754297
20.26089,21.194483,16.273584,19.116602,17.03042
20.54214,21.061914,19.355371,19.855371,18.985743
21.754786,20.971338,21.038233,21.301172,20.92251
22.980127,20.805323,22.566553,22.985254,23.07998
24.475,20.880762,24.256739,24.927149,24.568995
25.919825,21.1188,25.985987,27.050684,26.01504
27.374659,20.88418,27.613916,28.580713,27.574854
28.858545,20.64004,29.15957,29.981836,28.49917
30.023829,20.49331,30.363428,31.014063,28.527246
30.650537,20.358057,31.123926,31.547266,28.579248
31.011621,20.251368,31.116846,31.713526,28.689112
30.39126,20.348291,30.409327,31.205713,28.720606
29.902979,20.815332,30.200586,30.33999,28.721094
29.212793,20.81045,29.318018,29.303858,28.283594
28.095118,20.834864,28.115625,28.108545,25.764307
26.314356,20.909082,26.357569,26.215723,23.197168
23.850245,21.259668,23.748926,24.016504,20.777002
22.139551,21.576319,22.863184,22.68081,19.77041
21.39834,21.572412,21.78628,21.38125,19.722559
20.827295,21.303858,20.845606,20.32998,19.518213
19.395166,21.40957,20.3417,19.268946,19.125391
18.172022,21.431787,19.523096,18.225489,18.547998
17.461084,21.482325,18.42837,17.184961,18.37588
17.239649,21.44961,17.69375,16.065088,18.046534
17.490137,21.357325,16.85586,16.848536,17.975245
18.97085,21.214014,19.417627,19.888819,19.222803
20.676905,21.155176,20.815088,21.662012,21.036768
21.90957,21.21377,22.156641,23.201807,22.503565
23.379053,21.356592,23.745752,24.886866,24.10879
25.161524,21.347559,25.508692,26.781641,25.613672
27.171045,21.331202,27.391504,28.42837,26.216455
28.808496,21.517237,28.778223,29.851465,26.304346
30.07339,21.776026,30.201319,30.888575,26.485743
30.436182,22.154688,30.744287,31.783594,26.543848
30.985743,22.939844,30.977686,32.249657,26.890772
30.310205,23.457178,31.388086,31.931543,26.74331
30.225,23.164942,29.255274,30.780909,25.738428
29.504053,22.383204,27.97085,29.590967,25.7438
28.11123,22.402979,26.405664,28.35586,24.978174
26.750635,22.153711,25.012598,26.96084,23.576807
24.961573,22.0375,23.578272,25.79751,20.872705
23.386621,22.20498,22.228662,24.20962,19.388086
22.119287,22.043116,21.043848,23.009424,18.958887
21.404444,21.74917,20.312647,21.655909,18.741846
20.207666,21.701807,19.872705,20.806787,18.713282
18.782618,21.702784,19.930079,20.15127,18.428125
18.6,21.706202,19.514551,19.717676,17.918848
18.476465,21.780909,18.624903,19.244287,17.25796
18.378809,21.856348,17.772852,18.670069,17.659082
18.530664,21.715723,17.920313,19.287012,18.971827
19.645655,21.857569,18.996485,20.35464,21.057764
21.899073,22.122217,20.465723,21.79458,23.131739
23.791407,22.247217,22.86123,23.454004,24.469873
25.467188,22.266016,25.284327,25.779444,25.225977
27.023829,22.398584,26.86831,28.128809,26.72378
28.284082,22.279932,28.071924,29.528955,27.939844
29.354395,22.188868,28.941309,30.762842,28.689356
30.071924,22.133936,29.459131,31.307764,29.236963
30.53335,22.449121,29.372705,31.222315,29.667871
30.633204,22.853662,28.933252,30.774805,28.975
30.573145,23.391748,28.17373,29.9125,27.292627
29.673487,23.526758,26.991358,28.68838,26.043116
28.13589,24.190088,25.460352,27.238184,25.019922
26.22671,24.641504,23.559229,25.0917,23.39956
24.424707,23.957422,21.702784,21.730371,20.983057
22.965235,23.354395,20.65542,20.151514,20.664942
21.8688,23.215967,20.085352,19.478662,21.323633
21.01748,23.066309,20.0104,19.032862,21.409815
20.490137,23.105127,20.035059,18.847559,21.809229
20.107813,23.011621,19.9479,18.721338,21.312159
19.994287,22.92422,20.021387,18.03457,21.083399
19.991602,22.764551,19.957422,17.866114,20.886866
19.835352,22.9479,19.517725,16.839746,20.762598
20.152979,22.814112,20.051172,20.064112,21.896875
21.272852,22.602442,21.268702,22.395899,23.469141
22.655176,22.711084,22.427149,24.543848,24.299707
24.511621,22.96792,24.3688,26.347315,25.038233
26.274805,23.176416,26.853662,27.892237,26.163721
27.753077,23.81167,28.35586,29.22378,27.247217
28.978907,25.364893,29.219873,30.089258,27.865381
30.07339,26.296534,29.869287,31.043604,28.250635
30.828028,26.36416,30.033106,31.432764,28.196436
30.931787,26.516504,29.93545,31.234278,27.521143
30.508448,26.765284,29.504786,30.545069,26.835352
29.554102,26.278223,28.629297,29.514551,26.670069
28.248926,25.98501,27.565332,28.245508,26.050196
26.647364,25.715479,26.114893,26.667871,25.55752
24.7521,25.220606,23.828272,24.48623,25.09585
22.928125,24.781641,21.928858,22.604883,23.781397
21.38833,24.30752,20.159082,21.507471,23.475977
20.075586,24.030909,18.887598,19.730371,23.051905
18.973291,23.85708,18.02505,18.750147,22.726465
18.250635,23.586817,17.379297,17.296534,22.410059
17.76626,23.227198,16.985987,16.013575,21.82998
17.250635,22.95376,16.804102,13.838282,21.45498
16.604395,22.57998,16.542383,15.193018,21.029444
16.36709,22.094385,16.413233,14.728418,20.3688
16.683985,21.670557,17.349024,16.641504,20.713526
17.268946,21.944239,19.28213,18.139307,21.965479
19.244287,23.446436,20.929102,20.031641,22.790918
21.5375,24.388575,22.338037,22.696436,23.5375
23.663965,24.599268,23.936426,26.081934,24.311182
25.035303,25.03457,26.309229,27.999903,25.223047
26.529688,25.395655,27.809229,29.389795,26.06875
28.050928,25.537256,28.810938,30.646875,26.277735
28.851954,25.813868,29.564112,31.257471,26.698877
29.042627,26.015772,29.92422,31.508692,26.537989
28.743555,25.9396,29.750635,31.290674,26.53628
28.116846,25.888575,29.088526,30.698633,25.971094
27.04458,25.66958,28.079493,29.832666,25.687403
25.833887,25.260157,26.610743,28.62002,25.319239
24.145899,24.776758,24.564356,26.50503,24.367579
22.20547,24.35,22.720118,23.991114,22.8063
20.846094,24.038477,21.443018,22.639795,22.834131
19.820215,23.787745,20.906885,21.334864,21.996485
19.236963,23.703516,19.418848,20.771387,22.12295
18.829004,23.465235,19.308985,20.250391,21.855616
18.242334,23.200342,19.71255,19.739893,21.18081
17.9042,22.865381,19.970118,19.686914,21.14541
17.642725,22.758204,20.308008,19.09878,20.521631
17.475489,22.691065,19.798487,18.498682,18.989649
17.366602,22.92422,19.623438,19.856592,20.438623
17.840967,23.1542,20.4125,21.491602,23.250147
19.973536,23.19082,21.504541,23.060205,25.29043
22.084864,23.14419,23.430567,24.9042,26.279932
23.998682,23.079248,25.247217,26.89956,27.121973
25.53042,23.167383,26.644434,28.910303,27.843164
26.896875,23.664454,28.003809,30.235987,28.308008
27.978907,23.964014,29.198877,31.30459,28.792627
28.76797,24.892237,29.910303,32.20205,29.095362
29.248438,26.49502,30.161524,32.231102,29.029932
29.350733,26.79458,29.69253,31.850489,28.243555
29.103418,26.609766,28.52334,31.196924,26.96963
28.394678,26.225245,27.098291,30.122217,26.109522
27.051416,25.595606,25.231592,28.35171,24.846094
24.605127,25.01626,22.858301,25.433008,23.857813
21.966455,24.293848,20.806787,22.72793,22.214258
19.886621,23.564844,19.64004,21.066309,21.251612
18.1896,23.470606,18.652979,20.050196,21.551172
16.893946,23.524805,18.175196,19.366358,21.577784
16.175196,23.143213,17.461817,18.930323,21.003077
15.573877,22.885645,17.021631,18.519922,21.136377
14.902002,22.884912,16.49087,18.285059,21.14956
14.750147,22.649073,16.278711,17.754053,20.377832
14.5567875,22.380762,15.990137,17.160059,20.170313
15.235254,22.207178,16.53628,17.59585,21.314356
16.588526,22.379053,17.477686,18.676416,22.528223
18.1354,22.608545,18.76919,20.33584,23.39248
19.969141,22.679346,20.302637,22.089502,23.663721
21.605127,22.71963,21.883936,23.53921,24.372461
23.276514,22.790674,23.146631,25.050684,24.954248
24.752832,22.782373,24.283106,26.521631,24.85708
25.915674,24.012354,25.345362,27.921045,25.423243
26.927637,25.870264,26.512598,29.07998,25.828028
27.541895,25.791407,27.004053,29.700098,26.090723
27.715479,25.55581,26.784815,29.718897,25.847803
27.410303,25.248194,25.977686,28.814112,25.219385
26.655664,24.94082,24.493555,27.687647,24.5646
25.333155,24.693506,22.772608,26.21499,23.586573
23.17373,24.033594,20.853174,23.274317,22.478174
20.77334,23.156641,19.223291,20.561426,20.99331
18.707422,22.988184,18.001856,19.003809,20.621973
17.223536,23.04873,17.182764,17.832178,20.771875
16.26797,22.763086,16.65542,17.10415,20.787012
15.672998,22.411036,16.2604,16.665186,20.77212
15.108545,22.564844,15.954004,16.404444,21.168116
14.657129,22.732569,15.624414,16.10879,20.79629
14.446192,22.557276,15.534327,15.738428,20.38003
14.25918,22.474024,15.623438,15.545069,20.064844
14.729395,22.494532,16.441309,16.418604,20.588526
16.183985,22.498438,17.519678,18.024073,22.016993
17.656397,22.647608,18.780909,19.940088,23.326807
19.518457,22.69839,20.417871,21.745264,24.45498
21.387598,22.423487,22.183496,23.477442,25.17129
23.124903,22.55752,23.661768,25.57339,25.726954
24.902979,22.971827,25.217676,27.707178,26.483545
26.386621,23.27627,26.994287,29.028955,26.69839
27.48916,24.783106,28.631006,29.918116,26.997217
28.250147,25.999903,29.672022,30.308985,27.25796
28.589014,25.957422,29.944483,30.369532,27.192774
28.49331,25.848047,29.115137,30.10464,26.86416
28.073145,25.617579,28.205225,28.980127,26.284327
27.217188,25.261377,27.230371,26.875147,25.606836
25.154688,24.796045,25.701319,25.093897,23.634668
23.586817,24.130518,23.426172,22.166895,21.0563
21.547022,23.539454,22.663477,20.742579,20.124414
20.334131,23.216455,21.90542,20.45376,18.67422
20.540674,22.95083,20.912256,20.792871,18.44082
20.844141,23.18838,20.431055,20.01748,18.190332
20.36709,23.337793,18.740381,18.842676,19.246729
18.100733,23.36416,17.822412,17.620508,19.110987
16.940332,23.294825,18.236963,17.925928,18.702295
17.779688,22.99502,17.99624,18.043116,19.024317
18.838037,23.19668,19.058008,19.741358,19.89126
20.531397,22.97964,21.02749,21.074366,22.213282
21.967676,23.019922,23.232325,23.077051,23.781153
23.636133,22.897852,25.099024,25.032618,24.32876
25.813868,22.735987,26.601954,26.662012,24.029688
27.616846,22.648584,27.35879,26.900782,25.57876
28.458887,22.61001,26.60464,25.96206,25.927149
29.020899,22.765772,26.756495,26.473291,26.020899
30.527735,22.999659,27.57754,28.420801,26.264063
29.54336,23.22378,28.797754,28.416895,25.972559
28.776514,23.198145,29.052881,27.725977,26.211573
28.129297,23.201563,27.826075,26.459131,26.717432
27.26919,23.063623,26.373682,25.633936,26.443262
26.018702,23.022608,25.39541,24.822168,25.805567
24.363428,22.997461,24.253809,24.129541,24.590235
22.753077,22.912745,22.785547,23.182276,22.54214
21.832666,22.85464,22.513819,22.321192,21.500147
20.971827,22.804834,21.833155,21.038477,21.663477
20.137354,22.624903,20.644678,19.288965,22.23501
