"[299, 255]","[227, 248]","[287, 319]","[279, 328]","[230, 262]"
6.144922,10.371485,5.3473144,5.541162,7.73916
5.1075683,10.173731,5.0753417,5.2486815,7.419824
4.7696776,9.9942875,5.0643554,5.083154,7.4691405
4.24917,9.834375,5.0331054,5.2501464,7.459131
3.9044433,9.839991,5.400781,5.333154,7.181543
3.713037,9.67544,5.3041015,5.2933593,7.192529
3.5165038,9.723536,5.2674804,5.3089843,7.0245605
3.3802733,9.700586,5.641992,5.4154296,6.9776855
3.426416,9.757227,5.5909667,5.4637694,7.145166
3.8399901,9.781397,5.919824,6.1100097,7.443506
4.753076,9.805811,6.642236,6.501611,8.059229
5.681787,9.790918,6.737451,7.018701,8.470606
6.3043456,9.829737,7.017236,7.0208983,8.6158695
6.4603515,10.016016,7.138086,7.010156,8.672022
6.4295897,10.0724125,6.421045,6.7889647,8.667871
6.116113,10.082666,6.3302245,6.5799804,8.339502
5.706445,10.308252,6.0157714,6.3060546,7.619287
5.402246,10.396143,6.2083983,6.0733886,7.8890624
5.028711,10.363916,5.976709,6.46792,7.7745605
4.893457,10.152246,6.0128417,6.2958007,7.8597655
5.0526366,10.102442,6.1500487,6.470361,7.718164
4.869531,10.284327,6.0140624,6.3944335,7.595361
4.908838,10.144434,5.8561034,5.892236,7.900781
4.874414,10.143457,5.610986,6.230615,7.579004
4.9200683,10.170557,6.287744,6.303369,7.379785
5.1075683,10.0846195,6.061914,6.1776366,7.235498
4.822656,9.981104,5.9930663,5.9381347,7.0472655
4.7193847,10.061426,5.882959,5.6913085,6.945703
4.6114745,10.004297,5.3944335,5.863916,6.648584
4.396631,9.874414,5.19082,5.398584,6.348779
4.0003905,9.961573,5.2225585,5.162256,5.890283
3.7831054,10.183985,5.0975585,4.9657226,5.709863
3.9771972,10.381983,4.7657714,4.966211,5.7118163
4.155664,10.5082035,4.9061522,5.2921386,6.176172
4.5104003,10.360254,5.978418,6.0609374,7.733789
5.024072,10.441065,6.952783,6.8402343,8.663233
5.3353515,10.6627445,7.377588,7.3561034,8.920801
5.414209,10.742334,7.559961,7.466699,8.910791
5.3392577,10.814844,6.995996,7.140283,9.12295
4.9393554,10.611719,6.265039,6.7730956,8.990137
4.8368163,10.400049,5.9930663,6.562158,8.840235
4.742578,10.09585,6.160791,6.5143065,8.538721
4.8043456,9.698389,6.041162,6.1585937,8.142237
5.0765624,9.6,5.943994,6.021875,7.903711
5.1527343,9.712061,5.8304687,5.7298827,7.838037
5.403955,10.041407,5.978662,5.7606444,8.3224125
5.6808105,10.684717,6.110742,5.7643065,8.950098
5.910791,11.896631,6.25332,5.778955,9.985254
6.2987304,13.336084,6.4830565,6.0174804,12.265039
6.96499,13.376612,6.5277343,6.1217284,13.121241
8.631739,13.38833,6.839746,6.3756347,13.082178
10.786524,13.391993,7.5504394,6.845117,13.057276
11.764063,13.380274,9.976709,7.5614257,13.073145
11.806543,13.385645,11.324366,9.083887,13.079981
11.82168,13.058985,11.6896,11.082666,12.925928
11.853418,13.002344,11.903955,11.937159,12.926172
12.109278,12.986963,12.278711,12.136133,12.983789
12.273584,13.00918,12.512598,12.401514,13.062647
12.371485,13.080469,12.58877,12.614893,13.127588
12.446924,12.939356,12.715967,12.719385,13.281397
12.45669,12.929346,12.782618,12.610498,13.455957
12.278223,13.202295,12.865381,12.619532,13.379297
12.018702,13.327295,12.740381,12.573389,13.050196
11.834131,13.133692,12.408594,11.801905,12.638819
11.3771,13.089502,11.392481,10.455957,11.942774
10.409815,12.717676,10.02334,9.696192,11.400293
9.802393,12.661036,9.634424,9.514795,11.204981
9.4300785,12.411524,9.231592,9.296534,11.025293
9.207666,12.248682,9.295069,9.184229,10.990625
8.994776,11.970606,9.442774,9.112207,10.851221
8.821924,11.896875,9.460596,9.26211,10.408594
8.532373,11.691309,9.3849125,9.118799,10.2442875
8.1332035,11.607813,9.11709,9.017969,10.171289
7.750879,11.594141,8.902491,8.891504,9.885645
7.787744,11.590967,8.912989,9.048243,9.774073
7.3878417,11.692041,9.219385,9.276514,9.746241
7.124414,11.774317,9.300928,9.413965,10.058496
7.1324706,11.851709,9.3658695,9.552881,10.168848
7.497461,11.953272,9.457911,9.805811,10.332422
7.905908,12.103174,9.696436,9.629541,10.637598
8.132471,12.2130375,9.941797,9.124414,10.915674
8.433496,12.267969,9.781641,9.356592,11.218897
9.031153,12.305323,9.195215,9.417383,11.481836
9.518213,12.3207035,9.558496,9.311426,11.625879
9.705225,12.336084,9.781397,9.658106,11.772364
9.675928,12.323389,9.815577,9.614405,11.810694
9.525049,12.326075,9.546534,9.221094,11.777246
9.398096,12.292871,9.758936,8.94668,11.619776
9.113428,12.272364,9.897364,8.848047,11.503809
8.937891,12.23794,9.98501,9.300684,11.455713
8.791651,12.184961,10.089014,9.923243,11.31753
8.658594,11.981836,10.084864,10.046778,11.126368
8.559717,11.912012,9.945459,10.065821,11.020166
8.404932,11.638086,9.746973,9.957911,10.926416
8.067041,11.332422,9.694971,9.788233,10.512354
7.7259765,11.3417,9.652735,9.729639,10.406153
7.9154296,11.384424,9.518702,9.66128,10.42251
7.9637694,11.314844,9.442041,9.535303,10.275049
8.004786,11.568262,8.868067,9.4474125,10.260645
8.1036625,11.624414,8.713526,9.448877,10.2408695
8.210352,11.53042,8.716455,9.359766,10.218409
8.519678,11.359034,8.63125,9.184717,10.179834
10.077295,11.438379,8.800684,8.94253,10.157129
11.781397,13.595606,8.993555,8.71084,10.123438
12.24209,13.670557,8.830713,8.636866,12.749414
12.012598,13.6939945,8.640772,8.579248,13.131983
11.831934,13.707178,8.531885,8.426661,13.145899
12.145899,13.733301,9.121485,8.375879,13.24209
12.423975,13.743067,11.106348,8.545313,13.415674
12.620996,13.677637,10.5689945,8.508448,13.365137
12.767725,13.599024,8.689356,8.4300785,13.2738285
12.7167,13.346338,8.665186,8.267481,13.111475
12.453028,12.995752,8.568506,8.153955,12.919336
12.3849125,13.202539,8.508936,8.006983,12.982325
12.568262,13.445459,8.419092,7.907617,13.202784
12.753809,13.057276,8.278955,7.8827147,13.077539
12.967676,12.889063,8.321924,7.891748,12.870264
12.835352,12.874903,8.387842,7.7711425,12.783838
12.605616,13.020166,8.428125,7.687158,12.802149
12.268946,13.313868,8.125879,7.7437987,12.814844
11.936426,13.5533695,9.031397,7.9325194,12.917627
11.593897,13.54336,10.881983,8.56045,12.846582
11.466211,13.469629,11.771387,10.799463,12.765528
11.189112,13.546778,11.61294,11.1974125,12.76626
10.868311,13.561426,11.499414,11.1783695,12.727686
11.017725,13.428858,11.566553,11.3346195,12.544336
10.963526,13.129786,11.40542,11.307276,12.319727
10.79043,12.572657,11.009424,10.948389,11.717432
10.3971195,9.661036,10.603418,9.872461,8.487207
9.677637,8.390772,9.419825,7.4120116,6.5382323
6.938867,8.702051,4.9374022,3.3041015,6.837793
5.072412,8.6019535,3.4288573,3.3915038,7.162988
5.1063476,8.7738285,3.8578124,3.8551269,7.395654
4.8756347,9.262354,4.7330565,4.5406737,7.6842284
5.1197753,9.433008,4.789453,4.9884276,7.6634765
4.523584,9.495752,4.719873,4.7418456,7.56167
4.2489257,9.249659,4.3075194,4.4449706,6.860986
3.8910155,9.603174,4.1754394,4.298242,7.1717772
3.7333007,9.855127,3.8805175,4.2018065,6.713281
3.7506347,9.587549,4.249414,3.9608397,6.237695
3.4515624,9.5707035,3.9691405,3.9134765,5.940576
3.449121,9.405909,3.7833495,3.8734374,5.7655272
3.4383788,9.31753,3.6734862,3.7503905,5.6168456
3.162744,9.4596195,3.2352538,3.6739745,5.69082
3.1007323,9.558252,3.4723144,3.4554687,5.844629
2.8939452,9.623682,3.162744,3.0589843,5.86416
2.6966796,9.176661,2.2035155,3.2379394,5.727197
2.7208495,9.352686,3.134912,3.709619,5.964746
2.518457,9.041407,3.2938476,3.235742,6.1288085
2.3458495,8.6974125,3.077783,3.8685546,5.613672
2.3897948,8.511377,3.1324706,2.9171386,5.30874
2.3299804,8.701319,2.8250976,3.2352538,5.1720214
2.3978515,8.80459,3.1681151,3.0953612,4.761621
3.0291991,8.680811,3.376367,3.218164,5.207666
3.4679198,8.777002,4.039697,4.067529,6.699121
4.0606933,8.659815,5.186914,4.924951,7.3495116
4.6148925,8.552149,5.5580077,5.2967772,7.523584
4.845117,8.514551,5.753076,5.4955077,7.3663573
4.768457,8.540674,5.2660155,5.3805175,6.816797
4.0177245,8.62002,3.9964843,4.464746,5.730615
3.1373534,8.608545,3.3839355,3.6551757,4.0919433
2.7791991,8.635645,2.9540038,3.1839843,3.720117
2.6214843,8.677393,2.7845702,2.7833495,4.149072
2.1117187,8.804346,1.9395996,2.697412,3.362207
1.5887696,8.66128,1.2464844,2.3558593,4.1561522
1.5899903,8.418848,2.067041,2.1461425,4.3512206
1.3807617,8.299463,1.9461914,2.1424804,4.2604003
1.0326172,8.1471195,0.9981934,2.0189452,3.9503417
0.33510742,8.0567875,-0.08286133,1.4166504,4.3404784
1.0353028,8.198389,-1.0374511,1.3226563,4.225488
0.83022463,7.5003905,0.33852538,1.0133301,4.524072
0.7979981,7.5746093,1.3092285,1.2494141,4.511865
0.6744629,7.9566894,0.9112793,1.7047364,4.55166
1.1686035,7.8229003,1.5787598,1.8001953,5.136865
1.4549805,7.9100585,1.7557617,1.6019531,4.614404
1.2403809,7.704492,1.7652832,0.25112304,4.034082
1.5167481,7.838281,0.990625,0.17226562,3.8880858
1.5990235,7.8460937,0.56899416,0.44960937,4.068994
1.8402344,7.7882323,1.315332,1.4256836,5.1373534
2.426416,7.416162,2.001123,2.4601073,5.643945
2.4933105,6.928613,2.5106444,3.088037,5.692529
2.9608397,7.143945,3.0111327,4.4308105,5.8126464
3.1969237,7.384912,3.1148925,4.0731444,5.6075683
2.8990722,7.921289,3.0055175,3.053369,4.976953
2.256494,8.267481,2.2120605,2.3214355,4.3114257
1.6354004,8.544336,2.8382812,1.980127,3.8072753
0.8949219,8.625879,2.0667968,1.8668457,5.0282226
0.9903809,8.5255375,1.7884766,1.5919434,4.3841796
1.3893067,8.625879,1.1563965,1.8600098,4.0736327
1.5636231,8.693506,0.8319336,1.8436524,4.2694335
1.1422364,8.744776,0.6576172,1.3663574,4.8856444
0.87661135,8.927393,0.5121094,1.4444824,5.1805663
0.8155762,9.0292,2.4967284,1.3836914,5.039453
0.7560059,8.705713,2.4332519,1.8736817,6.1043944
0.60439456,8.527491,2.0052733,1.952295,6.461084
0.7679688,8.919825,2.277246,1.9322754,6.462793
1.0343262,8.658838,2.3114257,2.140283,6.7958007
1.764795,8.599024,2.483789,2.1092772,6.213281
2.4583983,9.079981,2.9947753,2.3595214,6.426904
2.8338866,9.647608,3.093408,2.706201,7.195459
2.8373046,9.884668,3.8338866,3.2315917,7.900537
3.2379394,9.936426,4.273828,3.7398925,8.189112
3.8019042,9.974512,4.3407226,4.1498046,8.344385
4.504785,9.778711,4.242334,4.2206054,8.222071
5.1861815,9.95083,4.4984374,4.349756,8.17251
5.952295,10.581446,4.8697753,4.5858397,8.991114
6.1427245,10.916651,4.9156737,4.6842284,9.316797
6.21499,10.726709,4.7921386,4.635156,8.578028
5.9483886,10.545801,4.885156,4.635156,7.796289
5.7921386,10.527002,5.6805663,4.8839355,7.812158
5.8145995,10.279688,5.878076,5.027002,7.8888183
5.4479003,9.879297,5.650781,4.664209,7.933496
4.8385253,10.010401,5.956445,4.8177733,7.626367
4.506738,9.826075,5.947168,5.0611815,7.632959
4.763086,9.095118,5.544336,5.141748,6.7174315
4.5267577,8.612696,5.442529,4.968164,6.394922
4.4393554,8.286036,5.268701,4.9068847,5.6219726
4.1307616,8.316065,4.820459,4.021875,5.535791
3.292871,8.116846,3.4522948,3.311914,5.747461
2.9198241,7.860498,3.2416015,3.4410644,5.749414
2.5582519,7.947412,3.582666,3.6073241,5.735498
2.4811034,7.553125,3.8504882,3.7921386,5.7518554
2.818994,7.5875487,3.9259276,3.7379394,6.268457
3.336328,8.463526,3.8687987,3.8124022,6.890283
3.8353515,9.3658695,3.9054198,4.0472655,8.010645
4.3770995,9.541651,4.2071776,4.8214355,8.325342
4.159326,9.6471195,4.9657226,5.869043,8.627344
4.36416,9.518457,6.2186522,6.3531737,8.965235
4.8790526,9.880518,6.8526855,6.6378417,9.027002
5.5040526,10.048975,6.69375,6.318506,9.030664
5.53042,10.140772,6.3595214,6.1322265,9.080469
5.582422,10.029444,6.1395507,5.8495116,8.883448
5.3353515,9.81875,5.88125,5.466211,8.710108
5.07583,9.73501,5.728906,5.277002,8.381983
4.9100585,9.541407,5.8248534,4.844629,8.361963
4.7103515,9.493555,5.680322,4.3045897,8.126612
4.6478515,9.219141,5.497949,3.9535155,7.767236
4.4393554,9.123926,4.98208,3.3661132,7.2379394
4.116113,9.000879,3.4710937,2.8924804,7.033838
3.6290526,8.814356,2.499658,2.930078,6.6217284
2.645166,8.691553,2.0040526,2.4940429,5.346826
1.7518555,8.395899,1.7074219,1.9474121,4.1424804
1.0711914,8.468164,1.4249512,1.7564942,3.6458983
0.6749512,8.278955,1.0064942,1.12417,3.539209
0.35317382,8.017725,0.82021487,0.46010742,3.2958007
0.12563476,8.28335,-0.2046875,0.2298828,2.4549804
0.2809082,8.584131,0.19667968,-1.488623,2.3575683
-0.23129883,8.624659,0.021630859,-0.4942383,2.3521972
-0.81455076,8.726465,-0.30112305,0.074121095,2.7469726
0.89711916,8.287012,0.32509765,0.3248535,3.7694335
2.935205,8.095118,1.3905274,1.2142578,5.2645507
3.956201,8.42959,2.3893065,2.185205,6.351709
4.4098144,8.65835,3.1498046,2.8453612,6.4967284
4.2125487,9.015772,3.565332,3.3131347,7.009668
3.6190429,9.587549,3.8019042,3.3331542,7.240381
3.3773437,9.734766,3.6427245,3.4168944,7.425195
3.3199706,9.816065,3.6490722,3.1310058,7.830713
3.3019042,9.849756,3.4552245,3.1200194,8.160547
3.2213378,10.116846,3.5448241,3.3087401,8.521387
3.3053222,10.353174,3.9779296,3.6061034,8.845362
3.4103026,10.548487,4.524072,3.9991698,8.855127
3.5753417,10.735254,5.2486815,4.5626464,9.305323
3.740625,10.903467,5.915918,4.943994,9.544092
3.8927245,11.015772,6.2035155,5.1898437,9.659815
4.0677733,11.130762,6.2918944,5.381738,9.891016
4.3216796,11.113184,6.409082,5.733789,10.082422
4.653711,11.233789,6.723535,5.9415526,10.270899
4.990625,11.4042,7.1812987,6.023584,10.558496
5.3285155,11.570948,7.3912597,6.264795,11.136866
5.6673827,11.892237,7.490381,6.649072,11.611963
6.130029,12.156397,7.7535644,7.1791015,11.863428
6.5770507,12.249659,8.3417,8.138819,11.993067
7.019922,12.481592,9.01211,8.596827,12.051416
7.5262694,12.652979,9.516504,9.004297,12.169336
8.100733,12.778955,9.976221,9.427637,12.250635
8.8814945,12.691309,10.292139,9.835596,12.154444
9.980127,12.536524,10.736231,11.392725,12.029444
10.339746,12.227442,11.264795,11.328028,11.78628
10.218897,12.232569,11.133448,11.143457,11.721582
10.078516,12.308496,11.149561,11.074121,11.719141
10.105616,12.233057,11.207178,10.998926,11.642969
10.103174,12.13418,11.11294,10.998926,11.559473
9.952295,12.082666,10.948389,10.928614,11.553125
9.862207,12.15542,10.876856,10.859034,11.57583
9.734034,12.167871,10.702295,10.803858,11.527491
9.515772,12.044825,10.799219,10.885401,11.374414
9.21377,11.995264,10.809473,10.744043,11.321924
8.99917,12.054834,10.645411,10.721338,11.424219
8.750147,12.068018,10.478174,10.598047,11.438868
8.486231,11.936426,10.32168,10.180811,11.242823
8.29336,12.051416,10.1471195,9.826563,10.591944
8.4300785,11.771631,9.869532,9.480371,9.86294
8.553125,11.530909,9.253321,8.806055,9.1332035
8.504053,11.49502,8.467432,8.187647,8.690577
8.378321,11.318506,7.8583007,7.954492,9.054346
7.846338,10.940821,7.675195,7.555322,8.289942
7.349756,10.727198,6.7889647,7.16958,7.902002
7.2779784,10.555567,7.0416503,7.0716796,8.26211
7.458154,10.400049,7.6981444,7.5262694,8.827051
7.5694823,10.332911,8.034815,7.919824,9.201807
7.5260253,10.339258,8.370264,8.13125,9.408594
7.701074,10.194727,8.221827,7.9913573,9.419336
7.6168456,10.32168,7.6388183,7.591699,9.035791
7.042627,10.352442,6.5973144,6.6944823,8.330957
6.3336425,10.2582035,5.542871,6.040918,6.830957
5.7972655,10.260645,4.865869,5.7015624,6.0294433
5.0624022,10.451807,4.391748,5.5104003,6.105371
4.4208007,10.387842,4.3595214,5.1688476,5.376123
4.056543,9.935205,4.1874022,4.726953,4.631738
3.8446288,9.05044,3.4999022,3.7567382,4.0318847
3.6693358,8.9457035,3.251367,2.4303222,4.2364745
3.4935546,9.127588,2.7621093,2.582666,3.4293456
3.093164,9.461817,2.7418456,2.7645507,4.067529
2.6993651,9.409327,3.0633788,2.7276855,4.0248046
2.0765624,9.470362,2.5511718,2.7555175,3.7906737
1.9854981,9.550928,2.2455077,2.548242,3.786035
2.5929198,9.478174,2.5572753,2.5333495,3.754785
3.060205,9.453516,1.9632813,2.565332,3.664209
3.48208,9.397852,2.2047362,2.601953,3.7640624
3.4510741,9.572168,2.306787,2.6554198,3.584619
3.381494,9.463526,2.1659179,2.7850585,3.5052733
4.3021483,9.321436,3.0831542,3.172998,4.362207
5.617822,9.387598,4.37417,3.9671874,6.0089355
6.6793456,9.206446,5.2655272,4.867578,7.28457
6.9930663,9.240381,5.9271483,5.6498046,8.266993
7.003076,9.508692,6.2643065,6.0780272,8.607813
6.379785,9.797754,5.9745116,5.855615,8.340479
5.0660644,9.861963,4.532373,5.192041,7.1231933
4.09292,9.760401,3.1996093,4.4828124,5.612695
3.9242187,9.639307,3.6507812,3.938623,5.018701
3.723535,9.67251,3.5873046,3.7535644,4.785791
3.723535,9.530664,3.2523437,3.5943847,4.515039
3.7174315,9.246485,2.9417968,3.2293944,4.3946776
3.659326,9.14126,2.7049804,2.7953124,4.3111815
3.6302733,9.042383,2.5594726,2.7037597,4.2384276
3.594873,8.951807,2.483789,2.525537,4.412256
3.4276366,8.904444,2.2210937,2.4254394,4.4466796
3.0155272,8.841944,2.0892577,2.414209,4.4010253
2.9742675,8.763575,2.053125,2.370996,4.370996
2.9220214,8.723047,2.0768065,2.317285,4.2696776
2.9583983,8.6488285,2.0147948,2.2481933,3.867578
3.0589843,8.640528,1.9151856,2.1854491,3.549707
3.0755858,8.656885,1.7923828,2.1256347,3.3922362
2.9449706,8.632227,1.7665039,2.067041,3.1981444
2.8304687,8.640284,1.7694336,2.002832,3.2047362
3.2108397,8.676661,2.6944823,2.4305663,4.1117187
4.0267577,8.808741,3.8817382,3.4469237,5.841211
4.6322265,8.998438,4.8895507,4.473291,7.2865233
5.2333007,9.295557,5.912988,5.1285644,8.208887
5.588037,9.527246,6.2940917,5.3827147,8.711084
5.1065917,9.692286,5.830713,5.2433105,8.532618
4.0594726,9.756006,4.676416,4.6327147,7.6688476
2.9972167,9.673731,3.5211425,3.8197265,6.3514647
2.8575683,9.445215,2.4037108,3.2264647,5.5020995
3.0123534,9.077539,1.4417969,2.768457,4.9862304
3.1363769,8.955469,0.42421874,2.5216308,4.5995116
3.3958983,8.667627,1.1541992,2.5213866,4.2660155
3.784326,8.326563,1.6,2.7179198,4.195703
3.4007812,7.894922,1.1627442,2.9071288,4.0714355
2.931787,7.9015136,0.90371096,2.7274413,3.9798827
2.4549804,7.8080077,0.97329104,2.5675292,3.926416
2.2462401,7.499658,1.2977539,2.1473632,3.8602538
2.213037,7.277246,1.3211914,1.7794434,3.7308593
2.2416015,7.1947265,1.3246094,1.7088867,3.5831542
2.315332,7.1217284,1.2896973,1.9186035,3.353662
2.2818847,7.1654296,0.992334,2.0162597,3.1346679
2.1495605,7.393457,0.8961426,1.9515625,2.9332519
2.1109862,7.5750976,1.0885254,1.990625,2.9623046
1.6075684,7.5089355,1.2589356,2.1058593,2.9020019
1.841211,7.7345214,1.886377,2.4430175,3.579248
2.9759765,7.818994,2.8263183,3.0050292,5.122461
3.7655272,8.2582035,3.5614257,3.6170897,6.454248
4.500879,8.456934,4.056787,3.980371,7.336572
4.725244,8.641504,4.4208007,4.2765136,7.773584
4.536035,8.811426,4.4635253,4.2049804,7.706201
3.45083,8.903711,3.999414,4.015039,6.3963866
2.0663085,8.870508,3.2816405,3.5882812,4.1864257
2.2696776,8.402246,2.8890624,3.0648437,3.4710937
2.2481933,8.23086,2.136621,2.8280272,2.7645507
2.3578124,8.080469,1.1703125,2.2467284,4.8441405
0.7494141,7.947412,0.775293,1.7520996,3.780664
-0.19785157,7.8321776,0.35048828,1.308252,3.3290038
-0.24741212,7.7328124,0.34414062,0.9195801,2.7157226
0.8722168,7.782129,-0.39145508,0.5931641,2.5572753
0.8858887,7.8316894,-1.6958984,0.19106445,2.1617675
-0.12509766,7.3634276,-1.6421875,-0.29868165,1.5995117
-0.74179685,7.1651855,-1.5369629,-0.93173826,2.2535644
-1.0274414,6.740625,-2.4961915,-1.0081543,3.14541
-1.410498,6.6148925,-2.0669923,-1.6734375,3.4999022
-1.9932617,6.569238,-2.8323731,-1.3968261,3.034326
-1.6082519,6.759912,-2.2691407,-1.8145508,2.978662
-1.9483398,6.6703124,-2.865088,-1.2149414,2.9276366
-2.6448731,6.3473144,-2.8692384,-1.1687988,2.5921874
-2.3348145,5.879541,-1.1111816,0.40688476,3.7672362
-1.7962402,5.893457,0.605127,1.2936035,5.678613
-0.7789062,6.3043456,1.2877442,2.2230468,6.8739257
-0.0965332,6.7813964,1.7979981,2.9781737,7.389795
0.5001465,7.201074,2.117334,3.5375,7.636377
0.5047852,7.5265136,2.2193847,3.4327636,7.468164
-0.30844727,7.777246,1.7569824,3.1195312,6.31582
-1.960791,7.9398437,1.2533203,3.0523925,3.8065429
-2.2479005,8.096582,1.4491211,3.0421386,3.6236815
-1.7654785,8.130274,1.615625,3.0697265,3.6683593
-1.2310547,7.400781,1.5086914,3.1031737,3.3124022
-0.5804199,7.449121,1.483545,3.080957,4.2313476
0.509668,7.2574706,1.5489746,2.9974608,4.7679687
0.9544922,7.133203,1.5182129,2.9503417,5.024072
0.05581055,7.0562987,1.6063477,3.0130858,4.9503417
0.16762695,7.235742,1.5736328,2.8824706,4.5382323
1.3719727,7.4674315,1.6400391,2.9503417,4.7274413
0.097070314,7.416406,1.7479492,2.959619,4.87832
-0.14926758,7.4793944,1.9383789,3.0121093,5.1151366
0.047021486,7.434961,1.988916,3.1483397,4.7884765
0.31899413,7.5697265,1.9779297,3.1876464,4.683496
0.36733398,7.3023925,1.9034668,3.1302733,4.59292
1.3199707,7.2623534,1.957666,2.9200683,4.603906
1.8041016,7.2435546,2.2193847,2.690576,3.593164
2.2752929,7.1737304,2.9122558,2.7594237,4.6620116
3.2501464,7.316797,3.954248,3.1061034,6.1080565
4.14541,7.8512206,5.129785,3.7220702,6.485986
4.8253417,8.17959,6.2030272,4.6273437,7.1913085
3.9325194,8.3033695,6.8543944,5.176904,7.818506
3.5570312,8.446924,6.629297,5.3666015,7.8419433
2.7032714,8.417383,5.057031,4.8060546,6.567041
1.3602539,8.064356,3.492578,3.634912,3.9989257
1.0020996,7.3543944,4.0106444,3.636621,2.5160155
0.9466797,7.0836425,2.5025878,4.1583495,1.5807129
0.8978516,7.1217284,2.360498,3.570459,2.1722655
0.7291504,7.081445,2.174951,2.7560058,1.6429688
0.5841309,7.0936522,1.8260742,2.1292968,1.4464356
0.29213867,7.0995116,1.4527832,1.6202637,1.2201172
0.1480957,6.940332,0.86708987,1.0992676,1.0470215
0.093652345,6.6881347,0.6683594,0.6268555,0.9789063
-0.005957031,6.4725585,0.40493163,0.32265624,0.7513672
-0.0965332,6.024072,0.07973633,0.023828125,0.3734375
-0.08359375,5.707666,-0.109228514,-0.20493165,0.14370117
0.14101562,5.751123,-0.26914063,-0.3453125,-0.32114258
0.16420898,5.9479003,-0.45151368,-0.4065918,-0.15170899
0.21132812,6.136377,-0.6067871,-0.47128907,-0.14902344
0.27480468,6.3478026,-0.72006834,-0.7103027,-0.12680665
0.26992187,6.6219726,-0.62216794,-1.0955566,0.6856934
1.0770508,7.2186522,0.13784179,-0.54526365,2.4801269
1.9994141,7.706201,1.5472656,0.7237793,4.6498046
2.579492,8.295069,3.185205,2.132959,6.3697753
3.2123046,8.649317,4.1585937,3.242578,7.5938964
3.4261718,9.000879,4.3836913,3.5963378,7.8705077
3.084619,9.142237,3.987451,3.5372558,7.5787597
2.2284179,9.075586,3.0389647,2.9168944,6.955957
1.2818848,8.861719,1.5602051,2.1805663,6.091455
0.99624026,8.615625,0.6219727,1.7020508,5.7054687
0.9879395,8.431299,0.6375977,1.1952149,6.066797
1.0309082,8.403955,0.7860352,0.9413086,6.167871
1.0482422,8.043848,0.37758788,0.5729004,6.533838
1.3448731,7.9608397,0.14980468,0.5326172,6.3770995
1.4405762,8.116114,0.6144043,0.67348635,6.450586
1.1258789,8.152979,0.7904297,0.8292481,6.641504
0.85317385,7.6219726,0.69375,1.3143555,6.298242
0.8529297,7.510156,0.80458987,1.1310059,5.6441894
0.92055666,7.7018065,0.95839846,1.1742188,5.5919433
0.9496094,7.7506347,1.2135254,1.2611328,5.725488
0.85366213,7.7333007,1.5033203,1.228418,5.820703
0.88027346,7.771875,1.6634766,1.4381348,5.7958007
1.2589356,7.4642577,1.7074219,1.6678711,5.8080077
1.4862305,7.374414,1.9286133,1.6737305,5.7621093
1.6727539,7.699121,1.8416992,1.7489258,5.744531
1.867334,7.846582,1.8819824,1.9779297,5.7643065
2.046533,8.018213,2.1307616,2.176416,7.2484374
2.202783,8.611719,2.4242187,2.2782226,7.591455
2.369287,8.904932,2.6734862,2.5348144,7.6651855
2.499658,9.022608,2.8651366,2.7523437,7.9603515
2.5379882,8.982325,2.907617,2.9449706,7.631006
2.459619,8.592188,2.858789,3.112207,7.181543
2.3265624,8.069971,2.8668456,3.1520019,6.5750976
2.3053222,7.813623,3.0355468,3.1913085,5.7643065
2.2691894,7.547998,3.105371,3.3473144,5.778955
2.1891112,7.523584,3.16958,3.336084,5.8612304
2.122705,7.7940917,3.2035155,2.7166991,5.664209
2.049707,7.3670897,2.9186034,2.1039062,5.502832
1.5733887,7.2848144,2.549951,1.7809082,5.754541
1.3697754,7.1808105,2.2591796,1.4388672,4.9601073
1.18667,6.8893065,1.7315918,1.0748535,4.619043
1.2594239,6.9276366,1.0179688,0.83339846,5.2875
1.4408203,6.7916503,0.6078125,0.4071289,5.355371
1.4430176,6.3202147,0.050927736,-0.10019531,5.174707
1.4879395,6.1944823,-0.91611326,-0.4119629,4.903711
1.5221192,5.9378905,-1.0525879,-1.3130859,4.39541
1.7652832,5.8282714,0.43251953,-0.8682617,4.0526366
1.94375,5.657861,0.9969727,-1.0071777,4.051416
2.0355468,5.991113,2.3824706,-0.2996582,4.6048827
2.5162597,6.36416,3.2245116,0.71132815,5.1996093
3.0331054,7.0992675,4.006738,2.0506835,5.7350097
3.271875,7.087793,4.6756835,3.475244,5.995996
3.4220214,7.213037,5.0228515,4.5919433,6.1483397
3.2813964,7.454004,5.132959,4.9913573,6.391992
3.2989745,7.7159667,4.4833007,4.695947,6.244531
3.744287,7.8546386,4.0753417,4.2916503,6.0208983
4.0162597,8.1939945,3.9071288,4.136621,5.9583983
4.1812987,8.22793,4.134668,3.9911132,6.3941894
4.477197,8.61709,4.5506835,4.464502,6.9100585
4.74624,9.052393,4.8180175,4.7447753,7.2420897
5.013574,9.450342,5.162744,4.949365,7.8058105
4.9583983,9.927149,5.4566894,5.2000976,8.268702
4.9125,10.484766,5.7433105,5.428125,8.948633
5.3211913,10.943506,5.7499022,5.534326,9.314112
5.933252,11.303125,5.5753417,5.428613,9.729151
6.4308105,11.788233,5.633203,5.4793944,10.518946
6.947656,11.795557,5.938623,5.6632323,10.76919
7.3006835,11.652491,6.4537597,5.9063964,10.608789
7.706201,11.5238285,6.8006835,6.2694335,10.284815
8.229151,11.27627,7.036035,6.6356444,10.100733
8.264307,11.1175785,7.380029,7.010156,9.988672
7.8929687,11.093164,8.292139,7.4642577,9.952539
7.565576,11.001368,8.588282,8.079981,9.649317
7.652002,11.245996,8.667871,8.073389,9.773584
7.8873534,11.011621,8.433496,8.123926,9.590235
7.988916,10.924952,8.4667,8.261377,9.490625
8.135889,10.785303,8.46792,8.246485,9.619776
8.143457,10.717676,8.4300785,8.454248,9.764551
8.254053,10.677149,8.60708,8.768702,9.682764
8.069239,10.69375,8.624414,9.042383,9.695948
7.641504,10.760401,8.672998,9.108057,9.714014
7.3458495,10.761621,8.752344,8.951563,9.626368
7.143945,10.8033695,8.651758,8.598047,9.617334
6.96499,10.741846,8.425928,8.374903,9.479883
6.96792,10.651758,8.36294,8.264795,9.3675785
6.7657714,10.491846,8.263819,8.265039,9.140039
6.3404784,10.290674,8.101221,7.9933105,8.922022
6.129297,10.214258,7.7638183,7.596826,8.558985
5.5836425,10.125147,7.3995605,7.3194823,8.16836
5.4171386,10.052637,6.707666,6.9654784,8.187647
5.291406,9.982569,6.5699706,6.829736,7.6407714
4.8583007,9.933008,6.261621,6.4740233,6.8304687
4.5089355,9.912989,5.7345214,5.85708,6.1114745
4.053369,10.026514,5.7333007,5.834375,5.7992187
3.6815429,10.156153,5.602197,5.770654,6.471338
3.7022948,10.157129,5.2784667,5.2760253,6.633203
3.4991698,9.825586,4.9654784,4.9850097,6.272119
4.0592284,9.945948,5.269922,5.247461,7.1634765
5.261865,9.716944,6.2328124,6.0592284,8.500635
6.214502,9.914698,7.2711425,7.1026855,9.54458
6.7447753,10.129053,7.612451,7.6979003,9.751123
7.0575194,10.160547,7.803613,7.8597655,9.704737
6.825586,10.073633,7.039697,7.4085937,9.194483
6.424463,10.041407,6.482324,6.563379,8.799219
5.832422,10.060205,5.6825194,6.2589355,8.30044
5.671045,9.893457,5.039453,6.0277343,7.813623
5.756738,9.843164,5.129297,5.37832,7.499658
5.878076,9.787989,4.9168944,5.0248046,7.0301757
5.8041015,9.527735,4.5140624,4.5975585,6.6996093
5.7125487,9.326319,4.1083007,4.2430663,6.330713
5.49624,9.343897,3.9901366,3.862207,5.968408
5.3861327,9.659571,4.7274413,3.7398925,6.333154
5.348779,9.802149,5.209863,4.188867,6.7101073
5.47207,9.84878,5.487207,4.556543,6.843408
5.6551757,9.62417,5.473535,4.7030272,7.0580077
5.8438964,9.431055,5.4691405,4.7899413,7.5455565
5.8131347,10.103418,5.470117,5.0594726,7.9989257
5.813623,10.257959,5.393457,5.201074,7.6146483
5.928369,9.975977,5.2730956,5.0780272,6.912744
5.9811034,9.628565,5.2818847,5.0267577,6.586572
5.4398437,9.57461,5.6949706,5.177881,6.501611
4.851953,9.588282,6.344873,5.6739745,6.999658
5.306787,9.528467,6.784082,6.5387206,7.7574706
6.0365233,9.735987,7.4359374,7.157617,8.275049
6.6549315,9.94961,7.521631,7.4376464,8.622217
6.9811034,9.8675785,7.6966796,7.4745116,8.7755375
7.1688476,9.903467,7.509668,7.3124022,8.899317
6.9325194,10.106836,7.1222167,7.046289,8.897608
6.4205565,10.387354,6.8368163,6.2799315,8.583643
5.9098144,10.357325,6.661035,6.0885253,8.124659
5.3700194,10.292383,6.403711,6.6810546,8.241114
5.188867,10.120752,6.4374022,6.6825194,8.1332035
5.056787,9.7738285,6.6410155,6.7779784,8.005762
4.848779,9.516016,6.51333,6.610254,7.630029
4.9217772,9.48501,6.449365,6.407373,7.5606933
4.602197,9.531397,6.3460937,6.384912,7.294824
4.757959,9.397364,6.1327147,6.339746,7.0450683
4.6812987,9.370508,5.9469237,6.004541,6.7611327
4.4618163,9.292871,5.4930663,5.664209,6.7142577
4.1827636,9.299219,5.4498534,5.474756,6.728418
3.7005858,9.1271,5.330957,5.2711425,6.536279
3.3690429,9.147852,5.115625,5.084619,6.422754
3.0873046,9.185938,5.065332,4.827539,6.417871
2.959619,9.223047,4.7450194,4.602197,6.327539
3.13833,9.159082,4.7210937,4.6551757,6.1625
3.5611815,9.119532,5.213281,5.027002,6.889795
4.353662,8.9396,5.980127,5.7018065,7.761377
5.2591796,9.112207,6.6029296,6.2818847,8.29751
5.709131,9.189356,6.865869,6.5367675,8.607813
6.1839843,9.187647,7.023828,6.716455,8.585108
5.478418,9.2911625,6.503076,6.4828124,8.429102
5.5018554,9.39834,5.7193847,5.7655272,7.652002
4.3822265,9.596094,4.534326,4.4881835,5.491113
3.994287,9.766993,4.2032714,3.817285,4.108789
2.9957519,9.401758,3.240869,3.5675292,3.9723144
2.473291,9.448389,1.7040039,3.574121,3.970117
2.593164,9.253321,1.5938965,2.9730468,4.34707
2.9605956,9.124414,1.96792,2.5594726,4.9532714
3.1039062,9.287989,1.6161133,2.4354491,5.1964355
3.2696776,9.156153,2.2723632,2.8106933,4.8687987
3.3558593,9.108545,2.2975097,2.780908,5.44375
3.3529296,9.062159,2.6600585,2.8065429,5.5094237
3.440332,8.954981,2.5731444,3.1021972,5.3529296
3.3246093,9.012354,2.7401366,3.5106444,5.2472167
3.1483397,9.036768,3.615869,3.5182128,4.8177733
2.936914,8.891748,3.5304198,3.624658,4.403711
2.876123,8.966211,4.0245605,3.501367,4.1683593
2.8165526,9.146143,4.1058593,3.2606444,4.2816405
2.9046874,9.245752,3.5526366,3.0016112,4.6080565
3.8565917,9.297998,4.018701,3.7315917,5.653955
5.194238,9.595606,4.7784667,4.787988,7.2643065
6.077539,9.773584,5.323877,5.8854003,8.508936
6.6131835,10.035547,6.2325683,6.329736,9.359278
6.8697753,10.313868,7.2611327,6.721826,9.716211
6.768213,10.479639,7.490625,7.018457,9.660059
6.077295,10.558741,6.7325683,6.3663573,8.593409
4.723291,10.396143,4.716455,5.1322265,6.56582
4.0943847,9.73794,4.3058105,4.6705565,6.019922
3.6979003,9.355127,4.232324,4.190088,5.4950194
3.579248,9.01211,4.027002,3.9679198,4.7726073
3.4288573,8.491114,3.7452636,3.7174315,4.6388183
3.4830565,8.257471,3.600244,3.421289,4.26333
3.5895019,8.243799,3.3548827,3.2127929,4.2577147
3.6043944,8.225733,3.1571288,2.8736815,4.9725585
3.6273437,8.235743,3.008203,2.6283202,5.316797
3.4496093,8.207911,2.9007812,2.4176269,5.52041
3.4330077,8.331202,2.9518065,2.3509765,6.4642577
3.296533,8.429102,3.115625,2.492334,7.2071776
3.183496,8.902491,3.4085937,2.7169433,7.456445
3.0890136,9.459131,3.6202636,3.020166,7.506006
3.0924315,9.661524,3.73208,3.452539,6.8531737
3.310205,9.714258,3.6275878,3.7638183,7.1979003
3.6092772,9.856836,3.860742,4.138574,8.295557
4.365381,10.23501,4.5179687,4.3944335,9.152979
4.90249,10.692041,5.3443847,5.1625,10.340723
5.1649413,11.743311,6.084375,6.086328,10.857569
5.8182616,12.688135,6.774072,6.662988,11.87002
6.1878905,13.059229,7.0311522,6.4710937,12.501368
6.6700683,13.280176,7.742334,7.030664,12.9396
6.935205,12.852198,7.885156,7.6427245,12.788477
7.3270507,12.772852,8.503565,7.6983886,12.628077
8.07876,12.87417,8.74917,7.988672,12.285059
8.721827,12.761866,8.743555,8.3536625,12.564356
9.051661,12.664698,8.937159,8.611719,13.060205
9.12295,12.553125,9.538477,8.979639,13.069727
9.206446,12.564844,9.681543,9.417871,12.983789
9.359522,12.734766,9.591455,9.62417,12.907862
9.651026,13.016016,9.588526,9.722803,12.837793
9.670801,13.356592,9.877832,9.734766,12.786036
9.626123,13.528711,10.018457,9.671534,12.879786
9.393946,13.549707,10.1175785,9.697657,12.979639
9.263086,13.434961,10.202784,9.679834,13.027979
9.272608,13.417627,9.897364,9.803858,13.15127
9.374414,13.506006,9.852198,9.785547,13.174219
9.49209,13.435205,10.160059,9.769922,13.433008
9.674707,13.3771,10.378809,9.829981,13.645655
9.621729,13.394922,10.428858,10.114649,13.175684
9.95669,13.369532,10.599512,10.627832,13.492823
10.33584,13.418604,11.229151,11.273584,14.457911
10.734278,13.499659,11.916895,12.0292,15.215967
10.800684,13.415674,12.284082,12.467676,14.575098
10.61294,13.653955,12.081446,12.5064945,14.547266
10.292139,13.881739,11.199121,12.159571,13.980371
10.087061,13.802149,10.265039,11.309961,13.102442
9.85586,13.923731,9.806543,10.484034,12.303858
9.747461,13.871973,9.587549,10.109766,11.821924
9.754541,13.727686,9.327784,9.778955,11.60708
9.705957,12.747461,9.160547,9.457178,11.23794
9.6271,12.857569,9.176905,9.269678,10.879297
9.46377,12.122217,9.127588,9.107813,10.664942
9.236475,12.732813,9.089746,8.918604,10.584375
9.017237,12.430567,9.079981,8.798975,10.410547
8.86709,12.021875,9.022608,8.728174,10.477198
8.69961,12.114405,8.985743,8.559229,10.611719
8.541895,12.220362,8.9396,8.468409,10.410791
8.465479,12.219385,8.714502,8.519678,10.10293
8.408106,12.0411625,8.383448,8.503321,9.981836
8.316309,11.849024,8.133692,8.449121,9.946924
8.219629,11.835596,7.9342284,8.265528,9.878809
8.1783695,12.013086,7.8592772,7.970361,9.704004
8.380274,11.878809,7.9811034,7.8092284,9.801661
8.932276,11.805811,8.745508,8.513575,10.413233
9.548487,11.873926,9.561914,9.784815,10.936182
9.6036625,11.811182,9.950098,10.863428,11.313135
9.518213,11.815332,10.021387,11.427637,11.673731
9.518946,11.552393,9.757227,11.713282,11.9042
9.166651,11.440577,9.559717,11.46377,11.791895
8.766993,11.596827,9.228907,10.646387,11.360743
8.082422,12.363916,8.784815,9.276514,10.813623
7.4273925,12.237207,8.465723,8.621241,10.472071
6.256738,12.434229,8.043848,8.450098,10.259668
5.1495605,12.661524,7.19375,7.641748,10.108301
4.1893554,12.547022,6.2677245,6.707666,9.975977
3.9342284,12.393946,5.2472167,5.753076,9.63125
3.869287,11.736231,4.889795,4.796289,8.896143
3.709375,11.285791,4.8714843,4.182031,7.987695
3.678125,11.0646,4.7657714,3.843408,7.133203
3.5455565,10.813379,4.6395507,3.5814452,6.7677245
3.3231444,9.380274,4.4920897,3.3802733,6.70083
2.9823241,9.679346,4.385156,3.223535,6.5035644
2.7210937,10.062159,4.223291,3.015283,6.412256
2.574121,10.93252,4.079492,2.9642577,6.3492675
2.508203,10.860254,3.9310546,2.9730468,6.2367187
2.5372558,10.535547,3.7879882,3.1153808,6.099756
2.397119,10.457911,3.6405272,3.1632323,6.066797
2.6375976,10.353174,3.9361815,3.8844237,6.4361815
2.9327636,10.528467,4.2953124,5.08291,6.7523437
3.6080565,10.635889,4.6393065,5.8111815,7.3580565
4.344873,10.972071,5.3182616,5.9063964,7.7455077
4.7848144,10.585352,5.424463,6.7953124,8.005518
5.081445,10.789209,5.7364745,6.8739257,7.820703
4.553613,10.912256,5.6563964,6.30166,7.5731444
3.9315429,11.298243,5.1603026,5.353418,7.157373
3.4374022,10.913477,4.7989745,4.768213,6.7958007
2.8646483,10.748438,4.3458495,4.348779,6.534326
2.487207,10.391016,3.8868651,4.025537,6.3368163
2.1058593,9.981836,3.5406737,3.6119628,5.918115
1.8312012,9.808741,3.332666,3.1969237,5.5018554
1.5438477,9.047266,3.0575194,2.9054198,5.0230956
1.1869141,7.7555175,2.8128905,2.7420897,4.70791
