"[299, 255]","[227, 248]","[287, 319]","[279, 328]","[230, 262]"
4.805078,9.846094,4.1095214,4.1180663,8.143213
4.2433105,9.679346,4.3219237,4.360986,7.8983397
3.9679198,9.339502,4.527002,4.572656,7.313379
3.8670897,9.246241,4.719629,4.714746,7.016504
3.9305663,8.793116,4.7518554,4.754541,6.504785
4.016504,8.536036,4.7108397,4.791162,6.5375
4.0370116,8.41836,4.708154,4.878076,6.066797
3.9845214,8.168848,5.079248,4.9217772,5.5577636
4.3495116,8.392481,5.8373046,5.6625,6.5660644
4.679834,8.624903,6.5858397,6.513574,7.573877
5.405908,9.04043,7.6375976,7.33999,7.9972167
5.7923827,8.95669,8.685694,8.355616,8.3971195
5.461328,7.6927733,8.918848,9.277246,7.4481444
5.0123534,7.2013183,8.22793,8.872461,5.5545897
4.9208007,7.499414,7.7291503,8.128321,4.9395995
3.5396972,7.6808105,7.216699,7.709131,5.219873
1.7806641,7.9815917,6.4791503,6.973779,5.7799315
1.4046875,8.261866,5.4427733,6.1134276,6.5121093
1.8036133,10.180567,4.6515136,5.7152343,7.2936034
2.2958007,10.99917,4.397363,5.3580565,9.387842
2.5848632,10.863428,4.2333007,4.928613,9.549952
3.2279296,10.778223,3.7452636,4.313867,9.296778
3.9779296,10.74209,3.690576,3.6698241,9.090723
4.875879,10.714502,3.4017577,3.5484862,9.195215
5.6197753,10.661768,3.2020507,3.4054198,8.599512
5.491113,10.580225,2.8678222,3.409326,8.210352
5.6405272,10.491358,2.7909179,3.179834,7.9571776
5.785547,10.403467,2.5401855,3.0831542,7.620996
5.5890136,10.302393,2.5768065,3.1178222,6.9444823
5.313379,10.21792,2.484033,3.1256347,6.3702636
5.1097655,10.090479,2.6825194,3.1285644,5.543115
5.1964355,9.8988285,2.9598632,3.129785,5.6979003
6.010156,9.777735,3.218408,3.2672362,8.030664
6.9225097,9.678614,3.7730956,3.6378417,8.975489
7.8402343,9.763086,4.6031737,4.330957,9.553614
8.750635,10.020166,4.9586425,4.9659667,9.66543
9.071924,10.011133,5.6754394,5.59707,9.5917
9.653467,9.973047,5.8687987,6.052881,9.599512
10.25918,10.481836,5.9444823,6.2628417,9.142969
10.187403,10.501612,6.008203,6.336572,8.634668
9.7877445,10.353174,5.6180663,6.3092284,8.383936
8.068262,9.730371,5.49917,5.8575683,7.7176757
6.7501464,8.932764,5.3546386,5.5541015,7.096338
6.0855956,8.454737,5.130029,5.2628417,6.5265136
5.611963,8.390772,4.8854003,5.025781,6.711572
5.2401366,8.466944,4.775293,4.7589355,7.108545
5.0680175,8.672022,4.490869,4.7088866,7.3612304
4.877832,9.001368,4.317041,4.412988,7.190332
4.725244,9.215479,3.9835448,4.162988,6.938379
4.470117,8.928614,3.7740722,3.7274413,6.671533
3.8839355,8.615137,3.601953,3.1659179,6.5140624
3.5941405,8.419336,2.820703,2.7606444,6.395166
3.2342772,8.316797,2.0355468,2.27041,6.524072
2.8358397,8.210352,1.5726563,1.7604004,6.5611815
2.4984374,8.070948,1.2987305,1.1480957,6.44375
2.2152343,7.824121,1.3451172,1.3651367,6.2088866
2.4151855,7.7875,2.442285,2.6021972,6.2367187
2.8365722,7.9537597,3.6109862,3.6895995,6.4793944
3.3150878,7.997461,4.6117187,4.673486,6.676172
3.8612304,8.047754,5.1861815,5.3592772,6.830713
4.1500487,8.181543,5.338037,5.7032714,7.086572
4.2225585,8.183252,5.492578,5.3600097,7.369287
4.2589355,8.18545,5.422754,5.289453,7.299463
4.04458,8.3224125,4.9012694,4.874414,7.1585937
3.8534179,8.064356,4.4168944,4.369043,7.0108886
3.2464843,7.9728026,3.9430175,3.5438476,6.5960937
2.4083495,7.5858397,3.7350097,3.5101562,6.225
1.9640137,6.641504,3.3177733,3.1371093,5.5401855
1.6192871,6.0746093,3.05166,2.7757812,3.7481933
1.7452637,5.900293,3.0658202,2.6588378,3.414209
1.8758789,5.9483886,2.8958983,2.6971679,3.4725585
1.9027344,6.267236,2.8077636,2.468164,3.5458007
1.5731446,6.6996093,2.9706054,2.6,3.7159667
1.6048828,6.9969726,3.0189452,2.6236815,3.9771972
1.740625,7.1290526,2.9020019,2.633203,4.377832
1.9227539,7.3546386,2.6700683,2.5294433,4.661279
1.9571778,7.563379,2.5436034,2.504785,4.7435546
1.7765137,7.7188964,2.6776366,2.4781737,4.836572
1.4022461,7.629785,2.6065917,2.5257812,4.9913573
1.59292,7.4120116,2.6407714,2.5697265,5.12417
1.7835938,7.396631,2.6358886,2.6673827,5.195703
1.4544922,7.3976073,2.5216308,2.5628905,5.175195
0.97695315,7.199365,2.6771483,2.6776366,5.1581054
0.89711916,7.22207,2.768457,3.063623,5.2435546
1.1009766,7.3753905,2.6620116,3.115625,5.5313964
1.3111817,7.470117,2.4552245,3.0865722,5.49624
1.4806153,7.3873534,2.2557616,2.723535,5.38833
1.8131348,7.0802245,2.2086425,2.8958983,5.266992
2.035791,6.916162,2.2501464,2.9444823,5.0086913
1.9945313,6.5936522,2.284326,2.897119,4.8563476
2.051416,6.25332,2.403955,2.6168456,4.9845214
2.0016112,5.971338,2.379785,2.5909667,4.6393065
1.7643067,5.94375,2.3973632,2.3792968,4.4378905
1.6373535,6.11416,2.435205,2.1708007,3.9745116
1.4847656,5.983545,2.38833,2.004785,3.813623
1.2662598,6.112451,2.2569823,1.9857422,4.4027343
1.1004883,6.1964355,2.0523925,2.2296386,4.5838866
1.0663086,6.1703124,2.0282226,2.391992,4.3509765
1.1227051,6.8719726,2.2345214,2.3348632,4.681787
1.0394531,7.3631835,2.3597655,2.2757812,4.7455077
1.2188965,7.646631,2.266992,2.2740722,4.449365
1.5990235,7.952783,2.1095214,2.187158,4.0572753
1.8521973,7.9173827,2.1095214,1.556543,3.737451
2.2501464,7.5836425,1.910791,1.7486817,4.221582
2.8663573,7.8631835,2.8387694,2.7813964,6.2125487
3.6480956,8.442774,3.6034179,3.7049804,6.8529296
4.930078,8.204981,4.7933593,4.8575683,7.540918
6.3927245,8.764551,6.2499022,6.131738,8.788477
7.7088866,10.559473,7.0555663,7.2052245,10.80752
8.036036,10.9042,7.5125976,8.139795,11.471827
8.755518,11.106592,7.4566894,8.028467,11.629541
9.375635,11.16128,8.215723,7.893457,11.138575
9.271143,11.077539,8.552881,7.892236,10.641748
8.312159,11.029688,7.9657226,7.4305663,10.268702
7.4601073,10.965967,7.811914,7.442529,10.007959
7.400781,10.625879,7.6231933,7.4898925,9.53042
7.730127,10.38418,7.777002,7.3124022,9.246729
7.341211,10.277246,8.120752,7.534326,9.113916
7.1375976,10.597071,7.8531737,7.4742675,9.473291
7.2782226,11.356104,7.5284667,7.369043,10.385401
7.640283,11.31045,7.9864745,7.3666015,10.240381
8.139795,11.29751,8.590723,8.123194,10.241846
8.436426,11.30752,8.64419,7.872461,10.283106
8.066553,11.214014,8.668848,7.910791,10.283594
7.577783,11.091455,8.466211,8.227686,10.148096
7.643213,11.052149,8.393457,8.356104,10.10586
7.5680175,10.989161,8.43252,8.290186,9.93667
7.5077147,10.970362,8.593653,8.324121,9.98208
7.9378905,11.120264,9.1644535,9.22378,10.674707
8.685205,11.221827,9.735987,9.889551,11.314844
9.631006,11.3346195,9.923731,10.356592,11.666407
10.170069,11.427393,10.897852,10.8146,12.545801
10.810938,11.650782,11.509668,11.938868,12.67959
11.0863285,11.755274,11.471338,11.801661,12.823389
11.067774,11.798487,11.823877,11.915918,12.677393
10.811914,11.766016,11.57461,11.319727,12.297266
10.06167,11.61001,10.613672,10.746241,11.621485
9.062403,11.404932,8.733057,9.465235,10.591944
8.285303,10.996241,8.120752,8.007227,9.811426
8.013575,10.80752,7.7188964,7.6476073,9.325098
7.8597655,10.823877,7.8426757,7.228662,9.15127
7.792871,10.72085,7.6305175,6.6014647,8.941553
7.7696776,10.605371,7.160791,6.6378417,8.51211
8.015528,10.368067,6.975,6.3058105,8.223047
8.051416,10.236231,6.430322,6.0128417,7.9566894
8.006739,10.259424,5.911035,5.7745605,7.777002
7.894922,10.310694,4.6080565,5.481836,7.589502
7.355127,10.352442,5.298486,5.2538085,7.7784667
7.101953,10.468653,5.338281,5.4027343,8.400049
7.112207,10.498682,5.3807616,5.69082,8.602442
6.9444823,10.452295,5.63833,5.8929687,8.683252
7.265039,10.413965,6.159326,6.3685546,9.236719
7.707666,10.376612,7.3565917,7.2296386,9.939356
7.818506,10.399805,8.708155,8.379786,10.112207
8.501368,10.518946,10.050196,9.793848,10.449854
9.160791,10.486719,11.094141,11.166651,11.316553
9.820948,10.360743,11.422998,11.83877,11.869043
10.302881,10.255762,11.206934,12.400293,12.241114
10.302881,10.323389,11.395899,12.02627,12.01626
9.7252445,10.570215,11.18667,11.164698,11.943506
10.033594,10.808741,10.865137,10.595362,11.30459
9.07461,10.973291,9.709375,9.594629,10.404932
8.290918,10.883448,8.507715,8.604639,9.726221
7.5768065,10.765772,7.681787,7.4842772,9.876612
7.3409667,10.701319,7.4381347,7.041406,9.224024
6.891748,10.631006,7.5387206,7.011621,9.23794
6.693506,10.579737,7.6600585,6.8993163,9.212061
6.473779,10.442286,8.00625,6.684961,8.879053
6.1319823,10.45669,7.8563476,7.0301757,9.074366
5.9156737,10.532618,7.704248,7.122461,9.185694
5.7923827,10.4144535,7.676416,6.502588,9.066309
6.008447,10.584131,7.4845214,6.3092284,9.142725
6.608789,10.81167,7.726953,6.225244,9.25625
6.779199,10.874659,7.533838,6.8438964,9.450098
6.944238,11.360498,7.4686522,7.220361,9.7755375
7.3944335,11.434961,7.6344237,7.3592772,10.188379
7.8211913,11.124414,8.055567,7.803613,10.59878
8.288477,11.780909,8.8771,8.266016,10.822168
8.638819,12.073877,10.185205,9.394434,11.752344
9.590235,12.216455,10.572901,9.267969,11.485987
9.964014,12.791407,10.231104,9.708399,12.577295
9.928614,12.624659,10.549707,10.218897,12.295801
10.436426,12.460596,10.680323,10.550684,12.5533695
10.536036,12.297998,10.394678,10.64419,12.625635
10.563135,12.163965,10.516748,10.253809,12.5292
10.337793,12.347315,10.641748,10.253565,12.440577
10.315577,12.5917,10.6505375,10.434229,12.652002
10.409815,12.708643,10.634424,10.548487,12.896387
10.573145,12.638819,10.768213,10.681055,13.000147
10.707422,12.714991,10.874414,10.775049,12.992334
10.791651,12.690332,11.218409,10.869776,12.832911
10.919825,12.556543,11.392481,11.021387,12.797998
11.09292,12.4667,11.261866,10.87417,12.695459
10.972071,12.339014,11.24502,10.920801,12.57168
10.700098,11.9439945,11.334864,11.024317,11.76333
10.71792,11.736475,11.464258,11.035059,11.241358
10.660303,11.489161,11.562891,11.083643,10.527002
10.620508,11.44961,11.496729,10.987207,10.55044
10.563868,11.300684,11.183985,10.729883,10.568262
10.569727,11.098291,10.702051,10.441553,10.528711
10.207422,10.933741,11.049707,10.445459,10.520655
10.581934,10.958155,10.818018,9.955225,10.262354
11.043848,10.832666,10.831202,10.331446,10.383448
10.929346,10.77334,10.53628,10.726465,10.373194
9.578028,10.712549,10.06167,9.923487,10.57583
8.952539,10.84292,9.922266,10.017725,11.436914
8.505762,10.861963,9.833155,10.427149,11.871729
8.860254,10.86709,10.32168,9.983301,11.970118
9.087793,10.861231,10.282862,9.997705,11.433741
8.80752,11.018946,9.122217,9.170801,10.510645
8.0646,11.025049,8.159571,8.257959,9.717676
7.765283,11.108545,8.169092,7.9361815,9.136133
7.3946776,11.074854,8.091455,8.034571,8.532373
7.0162597,10.908106,7.676172,7.68374,9.149561
7.05166,10.741114,7.8929687,7.329736,9.099268
6.6249022,10.755274,7.2450194,7.257959,8.452051
6.424951,10.669092,6.1495605,6.2708983,8.386621
6.2953124,10.376123,5.4657226,5.9452147,8.405176
5.8978515,10.340723,5.0104003,5.877588,8.447168
5.563379,10.351221,5.325586,6.0301757,8.939844
4.970117,10.354883,6.33291,5.8543944,9.371241
4.732324,10.4786625,6.96792,6.4061522,9.409571
4.872461,10.66128,7.3648925,7.318506,9.631739
5.4452147,10.842188,7.8600097,7.9930663,10.014795
6.598291,11.03628,8.579493,7.806543,10.645166
7.858545,11.240381,9.48208,8.481836,11.120264
8.975489,11.44668,10.227198,9.679834,11.602198
9.797998,11.775293,11.198877,10.883448,12.196436
10.016748,11.961817,11.702295,11.371485,12.530909
10.761621,12.24795,11.624903,11.879297,12.473291
10.62002,12.164698,11.597559,11.438135,12.340967
10.651514,12.184473,11.453272,11.441553,12.5292
10.435694,12.020655,11.258936,10.790918,12.113672
9.9613285,11.964746,10.176416,9.950586,11.676172
9.56167,11.886377,9.934961,9.7252445,11.376612
8.9786625,11.782862,9.890039,9.767237,11.30459
8.462061,11.685205,9.601221,9.756006,11.125879
8.37295,11.591211,9.593653,9.66128,10.627588
8.38125,11.60293,9.742823,9.499903,10.489893
8.286768,11.265284,9.393946,9.296534,10.613184
8.102686,11.13418,9.195215,9.175684,10.439844
7.975,11.1644535,9.145411,9.086084,10.397852
7.8336425,11.010401,9.0724125,8.983301,10.35586
7.785791,10.852442,8.993311,8.877588,10.1625
7.805078,10.81045,8.968409,8.761621,10.04336
7.7245116,10.722315,8.96377,8.652002,9.950342
7.6969237,10.603907,8.753077,8.515528,9.777002
7.8333983,10.488428,8.808741,8.483545,9.662256
8.320215,10.486475,9.174463,8.605127,9.627832
8.624659,10.808252,9.631006,8.961573,9.771143
9.292383,11.182764,9.714991,9.392969,10.223047
10.117334,11.087305,10.232325,9.6314945,10.452539
10.721338,11.084375,11.003077,10.112207,10.434229
10.546534,10.743311,11.6192875,10.146387,10.478907
10.251123,10.36001,11.826075,10.57583,10.084864
10.049463,10.243311,11.471582,10.819239,9.705225
9.587549,10.050684,10.864161,10.525049,9.548243
8.958887,10.059229,10.073633,10.0846195,9.320948
8.527491,10.198633,9.714014,9.593409,9.116358
8.265528,10.186914,9.575342,9.38003,8.974512
8.190332,10.285303,9.438379,9.004053,8.919336
8.179834,10.03335,9.276026,8.853418,8.7877445
8.215235,9.738916,9.06875,8.683496,8.722803
8.290674,9.0567875,8.880274,8.559229,8.106592
8.37002,8.992334,8.661524,8.389063,7.9432616
8.037989,8.9396,8.416407,8.229639,7.995996
7.5213866,9.012842,8.248682,8.191797,7.942041
7.5091796,9.120996,8.118311,8.182764,7.7157226
7.4017577,9.216455,8.034571,8.16836,7.421533
7.264795,9.358301,8.029932,8.155909,7.3424315
7.1549315,9.401514,8.042383,8.1175785,7.2381835
7.1319823,9.389551,8.0689945,8.177393,7.4986815
6.973535,9.450342,8.305567,8.038233,8.415674
7.08999,9.547022,8.584375,8.001368,9.008448
6.963281,9.681543,8.671778,8.121729,9.624414
7.040918,9.711084,8.782618,8.354639,10.223047
7.2520995,9.725733,8.858545,8.442286,10.547754
7.58291,9.586817,8.9630375,8.528467,10.604883
8.2167,9.445215,8.988428,9.215235,10.524805
8.255762,9.248438,9.4127445,9.84585,10.238916
7.881006,9.148096,9.38833,10.011866,9.776026
7.477197,9.229395,9.142969,9.489161,8.832178
7.093164,9.649073,8.736963,8.962305,7.5213866
6.6480956,10.278467,8.522364,8.173243,7.48208
6.2489257,10.475733,8.1488285,7.9461913,7.9955077
6.046289,10.475977,7.9393554,7.9588866,8.274561
5.9642577,10.521631,7.8263183,7.773584,8.295557
5.8717284,10.383936,7.513574,7.426172,7.5370116
5.7108397,10.2894535,7.234033,7.0143065,6.7401366
5.7989745,10.274317,6.963037,6.6058593,6.244531
5.96792,10.191065,6.738672,6.17666,6.144922
6.0057616,10.228907,5.9842772,5.4520507,6.4537597
5.891748,10.122217,5.348535,4.8929687,7.017236
5.5956054,9.732813,5.05874,4.6725097,7.43667
5.4862304,9.644434,4.541162,4.5521483,6.909326
5.699121,9.748194,5.562158,5.3021483,7.5560546
6.523584,9.840235,6.9518065,6.536279,8.382715
7.268213,9.662256,8.252832,7.961572,9.170557
8.0917,9.544825,9.641504,9.41958,10.144434
8.750879,9.610498,10.468653,10.520166,10.72085
10.236475,9.780664,10.964991,11.202539,10.929102
9.875635,9.970362,10.370996,10.651026,11.076563
10.341944,10.308496,10.622461,10.177637,10.739893
10.386621,10.660547,10.139307,10.684961,10.739649
10.165918,10.77334,9.331202,9.837549,10.355616
9.330713,10.757227,8.083887,8.534327,10.036524
7.610254,10.714258,6.361963,7.0077147,9.677393
6.5733886,10.765039,6.0870605,6.188379,9.482325
6.152246,10.806543,5.584863,5.723047,9.160547
6.0160155,10.627344,5.3558593,5.6686034,9.194971
5.820947,10.540674,5.5401855,5.7171874,9.363184
5.6148925,10.677393,5.2367187,5.504297,9.498682
5.916162,10.683008,5.494043,5.309961,9.583155
6.4103026,10.635889,5.7799315,5.4608397,9.651758
6.8888183,10.611231,6.06875,5.737695,9.614161
6.742334,10.598536,6.3424315,6.018213,9.331446
6.4601073,10.73086,6.912988,6.044824,9.238428
6.5521483,10.7721195,7.2152343,6.3165526,9.421289
6.6405272,10.722803,7.150537,6.5382323,9.644678
6.805078,11.01333,7.501367,7.1219726,10.062891
7.362451,11.132715,8.212549,7.7398925,10.491602
7.805322,11.522608,8.995996,8.234034,11.052393
8.230127,11.565088,9.59292,9.06045,11.440577
8.542139,11.580713,10.340479,9.870264,11.414698
8.6488285,12.021631,10.739893,10.678614,11.683008
8.891993,12.36709,11.25918,11.22378,12.188135
8.915674,12.483789,11.576807,11.455713,12.124414
9.143702,12.240625,11.486963,11.319971,11.850733
9.166407,12.2096195,10.960596,10.929346,11.707422
8.885157,11.998682,10.44375,10.421778,11.29336
8.512354,11.715723,10.025049,10.079004,10.712305
8.248438,11.580957,9.601465,9.826563,10.351221
8.033106,11.444239,9.417627,9.444727,10.295069
7.629297,11.294336,9.351709,9.119532,10.300684
7.4000487,11.187403,9.154932,8.844629,10.059717
7.2464843,11.059717,8.570459,8.35,9.922022
6.8929687,10.944727,8.165674,8.195215,9.871729
6.543115,10.8417,8.472803,7.9535155,9.873926
6.475244,10.834375,8.040674,7.433496,9.837305
6.7120605,10.777979,7.434961,7.0367675,9.757959
6.923486,10.782129,7.0450683,6.5091796,9.592432
6.8385253,10.836817,6.5436034,6.242334,9.402491
6.876367,10.91128,6.2499022,5.994287,9.2286625
7.697168,11.017725,7.077783,6.5677733,9.669825
8.305567,11.14834,8.967676,8.254053,10.792139
9.011866,11.349268,10.863916,10.272364,11.885401
10.011866,11.566309,12.113184,11.730371,12.704248
10.984034,11.761377,12.837549,12.65835,13.253809
11.586573,12.018457,12.878077,13.058496,13.613672
11.961817,12.247705,12.936914,13.264795,13.890772
12.025782,12.37417,13.10708,13.069971,13.895166
11.966455,12.1019535,12.856104,12.531885,13.470606
11.644434,12.015772,12.468164,12.202539,12.651026
10.849268,11.761133,11.698633,11.612696,11.867823
10.036768,11.759668,11.048975,10.935938,11.1002445
9.664209,11.813623,10.680811,10.667627,11.171289
9.523096,11.586573,10.939112,10.338526,11.201807
9.163965,10.143213,10.81167,10.20376,9.89834
8.869776,10.3519535,10.629786,9.996973,9.110498
8.328272,8.877832,10.427881,10.04043,7.97207
8.001856,8.314356,10.2582035,9.488184,7.3646483
7.4637694,8.638819,9.656397,8.92959,7.398584
7.2833495,8.9925785,7.7206054,7.749658,7.771631
6.947412,8.802637,7.4310546,7.3907714,7.508447
6.667627,8.709131,7.3182616,7.1671386,7.2674804
6.631494,8.826563,7.4115233,7.242334,7.3043456
6.4200683,9.030176,7.463037,7.204248,7.5453124
6.5768065,9.18667,7.4842772,7.223535,7.963037
6.885156,9.567774,7.3045897,7.15249,8.265284
6.884912,9.736231,7.4254394,7.025781,8.514307
6.1515136,9.93667,7.495752,7.4156737,8.89419
6.1046386,10.510645,7.8878417,7.6690917,9.412012
6.2677245,10.776514,8.265772,8.038233,10.303125
6.372461,10.681543,8.404688,8.266504,10.66958
6.6183105,10.703272,8.162012,8.100489,10.627588
6.7604003,10.737696,7.995752,8.307764,11.240137
6.9137206,10.732325,8.718164,8.908838,10.823877
7.091699,10.772364,8.744776,8.551172,9.808252
7.072412,10.760401,7.171533,7.2733397,9.000635
6.5311522,10.687891,6.516504,6.296533,7.2518554
6.4657226,10.427393,6.0694823,5.958154,7.070703
6.360986,10.126368,5.6290526,6.2430663,7.232324
6.0191894,9.873682,5.279199,6.1705565,7.08291
5.7291503,9.642969,5.565088,5.766992,6.3351073
4.638574,9.394922,4.860986,5.15249,5.553369
4.1839843,9.057032,4.514795,4.4776855,5.247461
3.9002929,8.974268,3.4520507,3.7396483,4.945947
3.8087401,8.786524,2.5001464,3.1507812,4.5091796
3.3556151,8.704004,1.6551758,3.2572265,4.6205077
2.7953124,8.645166,3.3216796,2.9842772,4.1861815
2.8617187,8.680567,3.4911132,3.2552733,4.0597167
3.3004394,8.581446,4.2696776,4.174951,5.3753905
4.058496,8.689844,5.6739745,5.497461,7.5335937
5.4188476,8.746973,6.8490233,6.8561034,8.673243
6.454492,8.887354,7.754785,7.845117,9.230616
7.267236,8.834131,8.631739,8.546778,9.382715
7.9413085,9.021387,9.495264,9.140284,9.777979
8.1158695,9.147364,10.065332,9.584375,9.981836
8.519678,9.202295,10.080469,9.708643,9.921289
8.295313,9.333155,9.883448,9.366114,9.880518
7.5785155,9.418848,9.145166,8.7167,9.429102
6.8233886,9.515772,7.741113,7.841211,8.619043
5.235986,9.722071,6.2762694,6.46499,6.7628417
4.31167,9.977442,5.5262694,5.6092772,5.8543944
3.7850585,10.265039,4.1754394,4.9605956,5.303613
3.555078,10.356592,4.1324706,4.549463,5.6617675
3.4410644,10.496729,3.5245605,4.256006,5.6063476
3.407617,10.552393,2.4930663,4.1014647,5.235254
3.4378905,10.507715,2.2784667,3.5401855,4.56167
3.515039,10.119532,1.8626953,3.3375487,4.133203
3.4325194,9.83169,2.2689452,3.0855956,3.8946776
3.3377929,9.631739,1.0404297,2.909082,3.8021483
3.0992675,9.598536,0.8956543,2.3402343,3.6622558
2.9674315,9.51333,1.5663086,2.1681151,3.3504882
3.155664,9.375391,1.7962891,2.4256835,3.216455
4.4518065,9.281153,3.5716796,3.870996,5.8114257
6.220361,8.8346195,5.2350097,5.230371,8.470606
7.3907714,8.844629,6.673242,6.6808105,9.606836
8.366846,9.128321,8.2167,8.000879,10.099024
9.137354,9.524317,9.395411,8.989649,10.512598
9.627344,10.044825,10.141993,9.696436,10.774805
9.736719,10.229639,10.610254,10.153467,10.789209
10.1488285,10.458643,10.82583,10.388575,10.652979
10.187403,10.799952,10.827784,10.563623,10.368311
9.859034,10.979883,10.438868,10.258692,9.860743
8.855371,10.563135,9.059473,9.119043,8.913477
6.900537,10.030176,7.294336,7.52749,6.787988
6.570703,9.608789,6.3824706,6.511377,5.789453
6.1568847,9.062891,5.6043944,5.500879,5.5489745
5.470117,8.751612,5.209863,5.511865,5.4034667
4.88833,8.675684,4.90542,4.740625,5.192285
4.664453,8.61709,4.7020507,3.713037,5.190576
4.3302245,8.614649,4.09707,3.911035,5.146631
3.9818358,8.686182,3.3841796,3.728662,4.5782714
3.6253905,8.948389,2.5506835,3.523828,5.042627
3.2330565,9.045557,1.2904297,3.4498534,5.1517577
3.0042968,9.044092,0.8641602,3.218408,4.8407226
2.846582,9.014795,1.2638184,3.1822753,3.7943358
2.7352538,9.086573,2.249414,3.3019042,3.5631347
3.1856933,9.118555,4.3907714,4.625879,5.922754
4.5572753,9.328272,6.506738,6.0853515,8.649073
6.1654296,9.590479,8.293116,7.459375,9.402491
7.7989745,9.676905,9.337305,8.99795,10.048731
8.674219,10.0411625,10.087793,10.16836,10.4317875
9.2894535,10.318262,10.583399,10.999659,10.728174
9.697901,10.488672,10.901026,11.48501,10.924219
9.855371,10.486475,11.040186,11.596094,10.98086
9.87002,10.454981,10.919336,11.300684,10.769434
9.373682,10.392481,10.458887,10.674219,10.457666
8.184473,10.625879,9.225,9.488916,9.698145
6.5018554,11.060694,7.2811522,7.6407714,8.122217
5.565332,10.999414,6.1722655,6.2472167,7.5128417
4.834863,10.10293,5.5243163,5.514795,7.1876464
4.4432616,9.734766,5.0108886,5.1913085,6.9554687
4.206201,9.462061,4.2135253,4.7933593,7.115381
4.2936034,8.870752,3.8504882,4.197168,6.9186034
4.2464843,8.303858,3.7767577,3.829248,6.3824706
4.28457,7.990381,4.181543,3.4347167,6.143457
4.4393554,7.8080077,4.2655272,3.5362792,5.8683105
4.1461425,7.5819335,4.381006,3.51333,5.6600585
4.148584,7.383203,4.6168456,3.8419433,5.5138183
4.24624,7.3387694,4.7848144,3.9354491,5.6097655
4.2325683,7.249414,4.9239745,4.268213,5.7660155
4.620996,7.300195,5.431787,4.874414,6.023828
5.1307616,7.780664,6.570703,5.9937987,6.5768065
5.8958983,8.433741,7.3753905,7.334863,7.2940917
6.780664,8.719873,7.961328,8.066797,8.101709
7.4742675,9.058985,8.186426,8.390772,8.632471
7.797998,9.147364,8.771631,8.6332035,9.176172
7.775781,9.451563,9.109522,9.05459,9.426905
8.1939945,9.843164,9.033106,9.295313,9.337061
7.8299804,10.027246,8.823389,9.12417,9.600489
7.113672,10.183985,8.520166,8.780176,9.422754
6.250879,10.214014,7.9173827,7.9623046,8.896631
5.3961425,10.175684,7.0768065,6.93667,8.185694
4.62832,9.919092,6.772363,6.070703,7.7518554
4.129785,9.763575,6.438623,5.649072,7.940576
4.1273437,9.575586,6.0626464,5.125879,7.8194823
4.2884765,9.196924,5.734033,4.877832,7.172754
4.077295,8.603907,5.4381347,4.393457,6.555322
4.0768065,8.0917,5.034082,4.84707,6.0003905
4.3685546,7.7518554,5.0194335,4.787256,5.7381835
4.4588866,7.64541,4.988916,4.892236,5.6651855
4.547754,7.731836,4.846582,4.8890624,5.6371093
4.405908,7.6966796,4.865625,4.647119,5.558252
4.1219726,7.7396483,4.9203124,4.477197,5.564111
3.8480468,7.5384765,4.893701,4.3685546,5.608545
4.466699,7.566797,6.0816894,5.431787,6.2325683
5.5978026,8.176905,7.444238,6.935449,7.058252
6.7586913,9.196192,8.153955,8.452295,8.284082
7.5160155,9.57583,8.564356,8.867334,9.514307
8.090723,9.994532,10.1488285,9.717188,10.224268
8.349024,10.55044,10.535791,10.360254,10.850489
8.958643,10.910791,10.39126,10.804834,11.347071
8.695459,11.113672,10.088526,10.445215,11.332666
8.186914,11.292871,9.611231,9.913477,11.1488285
7.34292,11.323389,8.739893,9.070459,10.815088
6.209619,11.220118,7.641992,7.9217772,9.841455
5.0038085,10.6542,6.7728515,7.2086425,8.706446
4.4654784,10.016993,5.9723144,6.444238,7.9798827
4.36416,9.606836,6.095361,6.299463,7.584375
4.105371,9.1488285,5.734033,5.650293,6.874658
3.9041991,8.449121,5.2679687,5.346582,6.2591796
3.7037597,7.829492,5.4808593,5.140039,5.7660155
3.6256347,7.2655272,4.6129394,5.115381,5.547754
3.516992,6.9549804,4.108789,4.0838866,5.2677245
3.5372558,7.082422,4.388086,3.931787,4.9967284
3.476709,7.3058105,4.5855956,4.3045897,4.8663573
3.2428222,7.306543,4.827783,4.4791503,4.720117
2.924707,7.155664,4.546045,4.844873,4.80166
2.9723144,7.0018554,4.0348144,4.570459,4.736963
3.5433593,7.223291,4.779199,4.9896483,5.5785155
4.4415526,7.721826,5.5389647,5.8263183,6.4049315
4.9461913,8.247705,6.353906,6.5682616,7.5665526
5.1441894,8.82876,6.77749,7.3790526,8.641993
5.685449,9.23208,6.7308593,7.5978026,9.190332
6.2574706,9.674463,7.3944335,7.329736,9.385645
6.5138183,10.147364,7.6915526,7.692285,9.692286
6.051172,10.355371,7.4254394,7.687158,9.678858
5.4898925,10.440821,6.8145995,7.3316894,9.440821
4.827783,10.391993,6.2066894,6.6639647,9.007959
3.6900878,9.849512,5.2520995,5.416162,8.077295
2.6393065,9.198877,4.3148437,4.2540526,6.8492675
2.6917968,8.346827,3.2040038,4.119287,6.171289
2.391992,7.296533,3.136621,3.5016112,5.235254
2.079248,6.506006,2.9679198,3.4771972,4.424707
1.6417481,6.04458,2.8226562,2.9935546,4.102197
1.4928223,5.7748046,2.7765136,2.9400878,3.7711425
1.3578125,5.5592284,2.5484862,2.7799315,3.5296874
1.3705078,5.527246,2.4918456,2.3687987,3.6131835
1.0248047,5.5333495,2.273828,2.5729003,3.7618651
1.0277344,5.494287,2.0086913,1.9625489,3.5277343
1.0011231,5.282617,2.1317382,1.6351563,3.3897948
0.94814456,5.1046386,2.2230468,1.7923828,3.1773925
0.81875,5.023828,1.9579102,2.2733397,3.136621
1.6737305,4.9552245,2.956201,3.2413573,3.808496
2.5018554,5.230371,4.049951,4.2311034,4.459619
2.8646483,5.4356933,4.7333007,5.34292,5.1498046
3.2535644,5.624414,5.805078,5.641992,5.714746
3.8426757,6.1493163,6.10708,6.322412,6.4190917
4.50332,6.4725585,6.3092284,6.5992675,6.895166
4.893701,7.036035,6.6012206,6.890039,7.24917
4.6249022,7.365625,6.443994,6.806787,7.462793
3.6395507,7.445703,5.767236,6.2586913,7.5174804
3.2572265,7.334375,5.0162597,5.269922,7.065576
2.150537,7.2713866,4.2118163,4.136621,6.067285
1.6998535,6.907129,3.327783,3.0423827,5.3458495
1.447168,6.542871,3.093408,2.4483886,5.0868163
1.4330078,6.0174804,3.0926757,2.5560546,4.7381835
1.402002,5.8507323,2.8939452,2.5003905,4.0926757
1.5575196,5.287256,2.9601073,2.2242675,3.8893065
1.5792481,5.1773925,2.995996,2.4134765,3.4557128
1.1986328,5.164697,3.098291,2.7752929,3.1969237
0.8751465,5.223779,3.1656737,2.8526855,3.077783
0.6766602,5.3436522,3.3163085,2.8558593,3.7474608
0.5631348,5.001367,3.0147948,2.4879394,3.9493651
0.42836913,5.1256347,2.5296874,2.3404784,3.4171386
0.2965332,5.2801757,1.9581543,2.1822753,2.9571776
0.40664062,5.3126464,2.3878417,2.4813476,2.9159179
1.3680664,5.5299315,3.5587401,3.487451,3.6935058
2.6446776,5.9168944,4.5748534,4.4625487,4.5194335
3.6700683,6.369043,5.5785155,5.4029784,5.5262694
4.784326,7.428613,6.4935546,6.3407226,6.87417
5.897119,8.591944,7.2484374,7.2958007,7.9254394
6.705957,9.524805,7.95083,8.113672,8.645655
7.0250487,10.149073,8.298731,8.593653,9.233301
7.239404,10.573389,8.263819,8.649317,9.417871
6.8944335,10.682276,7.761377,8.247705,9.515772
5.9793944,10.55459,6.8617187,7.269922,9.305811
4.860742,10.16958,5.7540526,6.0919433,8.666895
3.9747558,9.710108,4.5001464,4.6305175,7.995752
3.4305663,9.4161625,3.6478515,3.4449706,7.88833
3.0641112,9.171534,3.2960448,2.9620605,7.615869
2.978662,8.798975,3.334375,2.8194823,7.1222167
3.0855956,8.4396,3.459375,2.8583007,6.548242
3.1925292,6.985498,3.687158,2.9237304,6.02749
3.4410644,6.4413085,3.973535,2.9710937,5.1114745
3.780908,6.051416,4.344873,3.2120605,4.4933105
3.983789,6.1754394,4.6249022,3.2088866,4.439111
3.8529296,5.709131,4.833154,3.518701,4.5875487
3.7662597,5.519922,4.680322,3.7889647,4.7604003
4.046045,5.5780272,4.390039,3.5384765,5.2193847
4.372461,5.664697,4.806787,3.5755858,5.6839843
4.6717772,5.8145995,5.1810546,3.9796386,5.796045
5.051904,6.0521483,5.3478026,5.027246,5.3253417
5.7726073,6.5558105,5.2882323,4.687158,5.103662
6.383203,7.298486,5.411279,4.799707,5.363916
6.421533,7.853662,5.5111327,5.2071776,6.2347655
5.3443847,8.43667,5.742334,5.477197,6.7347655
5.0145507,8.066797,6.102197,5.9100585,6.8958983
5.0804687,8.021387,6.3873534,6.8145995,6.800195
5.3680663,8.415186,6.1117187,6.6583495,6.8512206
5.5389647,8.8519535,5.994287,6.1041503,7.3021483
5.301416,9.320948,6.2157226,5.9171386,7.247949
5.1944823,9.26333,5.607324,5.8910155,6.891504
4.839502,9.420069,5.0438476,5.128076,6.6844726
4.9937987,9.07168,4.7313476,4.8753905,6.7325683
5.254297,8.211817,4.5870605,4.818994,6.5816894
5.4637694,8.911036,4.3651366,4.7274413,6.547754
5.499658,8.839991,4.5936522,4.379297,6.983789
5.4774413,8.528955,4.240381,4.313379,7.0660644
5.047998,8.589502,3.987451,3.9342284,7.0436034
4.711572,8.73208,4.2420897,3.7638183,6.8841796
4.3839355,8.438868,4.473291,3.4725585,6.8316894
4.1632323,8.080957,4.567285,3.6046386,6.7875
3.975,7.96499,4.596338,4.0106444,5.876611
3.803125,8.27627,5.3126464,4.378076,6.12124
3.978662,8.198145,6.1634765,4.7594237,6.7259765
4.3092284,8.1,5.657373,5.237207,6.7364745
3.9862304,8.236719,5.6776366,6.1720214,6.9793944
4.155908,8.167871,6.490869,6.952539,7.064111
5.4171386,7.9986815,8.011133,7.4098144,6.891504
5.6029296,8.329004,9.008448,7.947656,6.8788085
4.649072,8.845362,8.139551,8.239161,6.992578
4.718408,9.277246,8.0880375,7.9847655,7.346338
5.0990233,9.729151,8.388086,7.364404,7.5821776
4.8045897,9.551416,8.25625,7.6527343,7.7467284
4.869043,9.93545,7.1566405,7.3714843,7.969873
4.5436034,9.909327,6.619287,6.78457,7.961084
4.778955,9.626856,6.2818847,6.419336,7.867578
4.701074,9.569483,6.098779,6.466455,7.7086425
4.662744,9.320459,6.207666,6.4137206,7.232324
4.3858886,9.142237,6.1341796,6.0416503,6.7159667
4.2308593,8.981836,6.1048827,6.1429687,6.4725585
4.015039,8.856836,6.082666,5.9728026,6.1117187
3.9415526,8.73208,6.0453124,6.0035644,6.1534667
3.8058105,8.626123,6.022119,6.048242,6.376123
3.8416991,8.697168,5.9933105,6.154199,6.20791
3.895166,8.678858,6.1637206,6.221338,5.0562987
4.0226073,8.776758,6.250879,6.260156,3.83291
4.1390624,8.787012,6.427881,6.3062987,3.4046874
4.40249,8.726465,6.469629,6.57583,5.549951
4.886377,8.608545,7.06875,7.140283,7.7882323
5.3145995,9.047754,7.8861327,8.097803,8.951319
6.065332,9.472071,8.528223,8.851709,9.528711
7.339746,9.620264,8.949121,9.80459,10.297754
8.489405,9.967676,10.136866,10.403955,10.729395
9.555811,10.2894535,10.91543,11.228418,10.652002
10.089502,10.688868,11.256983,11.166651,10.596094
10.00503,10.733789,11.053614,10.955957,10.082422
9.409327,9.998194,10.708399,10.384424,8.802149
8.443506,9.610743,9.721582,9.66958,8.236719
7.912988,9.347559,8.9474125,9.014551,7.8705077
7.7643065,9.555323,8.366114,7.945947,8.121241
7.016504,9.887842,8.168116,7.558252,8.181055
6.223779,10.214258,8.139551,7.2586913,8.590967
6.1498046,10.370996,6.959863,6.73208,9.031153
6.155908,10.473291,6.8419433,6.3558593,9.353174
6.322412,10.32583,7.1373534,6.690332,9.383936
6.6566405,10.33584,7.338281,6.985498,9.5550785
7.042627,10.597071,7.532373,7.1307616,9.895899
7.016748,10.806055,7.7853026,7.282373,10.189356
7.127832,11.075098,7.9796386,7.56875,10.150293
7.3009276,10.942041,8.250879,7.8719726,10.128565
7.594873,11.270655,8.462061,8.245508,10.442774
8.119532,11.653223,8.7286625,8.587305,11.132471
8.646143,11.593653,9.433252,9.049707,11.266504
9.293116,10.526514,10.135889,9.645899,9.116602
10.433985,9.839746,10.856836,10.058496,8.746729
8.73501,9.671289,8.850977,8.0863285,9.458155
6.8565917,9.921289,7.863672,7.165918,10.28042
7.086084,9.902491,8.277735,7.7621093,10.719141
8.103174,10.10708,9.319239,9.051661,10.534815
8.481836,10.524561,9.4596195,9.502344,10.682764
8.495508,10.516016,9.235987,9.079981,10.557032
8.102198,10.748194,8.711084,8.611231,10.142725
7.1651855,10.707911,7.4139647,7.3197265,9.448877
6.5125976,10.375147,6.84292,7.0284667,8.2894535
6.0213866,10.356592,6.859033,6.6759276,8.072901
5.711572,10.127832,6.2733397,6.4342284,8.178614
5.168115,10.196924,5.994531,6.429834,7.6290526
5.0233397,10.062403,6.1405272,5.9913573,7.494043
5.1771483,9.826319,6.009668,5.9051757,7.348535
4.87832,9.79043,5.744043,5.6874022,7.50625
4.605615,9.887354,5.6185546,5.475244,7.345361
4.4381347,9.870264,5.771875,5.2330565,7.550195
4.3219237,9.850733,6.091455,5.930078,7.381494
4.1080565,9.83877,6.0375,5.6214843,7.2169433
4.4083495,9.882471,5.756738,5.808496,7.2223144
5.454736,9.724756,6.760156,6.5121093,8.209131
6.2833495,9.734522,7.432031,7.400781,9.020411
6.447168,9.791651,6.9288573,8.17959,9.328272
7.445947,9.640528,7.9291015,7.8443847,10.200342
8.223536,9.580957,8.864893,9.0533695,10.1158695
9.261133,9.733301,8.517481,8.784327,10.317286
8.690088,9.989405,9.285059,9.293848,10.471582
7.125879,10.241358,9.726709,9.369532,10.692041
6.8460937,10.180811,9.428858,9.414209,10.8189945
6.5926757,9.924463,8.73208,9.1939945,10.280176
5.143457,10.276758,7.5589843,8.265039,9.505274
4.4847655,9.957666,6.2875,6.5626464,7.9742675
4.5885253,9.888575,5.797998,5.5819335,7.1424804
4.31582,10.078272,5.0111327,4.65542,7.5628905
4.356836,10.100733,3.5665526,4.518213,7.1534667
4.129297,9.981348,4.1180663,4.567529,6.647119
3.8707519,9.808252,4.4239745,4.6031737,6.2711425
3.7083983,9.784815,3.6319823,3.798242,5.9103026
3.936914,9.357569,2.2472167,3.929834,5.8426757
3.9466796,9.142725,2.421289,4.518945,5.455957
3.9520507,8.811914,3.1207519,4.539697,5.270654
3.8695312,8.710352,3.6927733,3.947412,4.9984374
3.6078124,8.632471,3.094873,3.8770995,5.153955
3.5780272,8.435694,4.130029,4.471826,5.463281
4.2760253,8.324366,5.7123046,5.6007323,6.992334
4.434961,8.321924,6.992822,6.8023925,7.9310546
5.6305175,8.26919,6.9063964,7.8438964,8.624903
4.636865,8.483789,8.310694,8.427393,8.720606
7.0526366,8.457911,6.730127,8.893213,9.2130375
7.4447265,8.743555,7.796045,7.853418,9.6644535
8.013575,9.093653,8.706202,8.423487,10.012598
7.065576,9.728418,8.802393,9.0099125,10.275782
7.079004,9.808985,8.277246,9.079737,8.184229
6.3839355,10.032373,8.437159,8.573633,8.278955
5.872949,9.6800785,8.062891,7.9642577,8.6644535
5.2140136,8.339991,6.723291,6.667627,7.809961
4.084131,9.895411,5.7140136,5.7916503,6.808252
4.4339843,9.879053,5.6842284,5.5228515,7.12124
4.452539,9.751856,5.320459,5.3148437,6.7049804
4.049707,9.409082,4.980127,4.9310546,6.7137694
3.9417968,9.225,4.851953,4.482324,6.2574706
