"[299, 255]","[227, 248]","[287, 319]","[279, 328]","[230, 262]"
12.666895,17.529444,13.623926,13.61294,15.03628
12.549707,17.717432,13.247217,13.671534,14.932032
12.634668,17.697168,13.122217,13.873438,14.985743
13.168116,17.48794,12.939844,14.025782,14.865137
13.448389,17.33047,13.543848,13.968409,15.2894535
14.145899,17.397364,14.615137,14.961817,16.29751
14.638086,17.82583,15.589014,15.934229,17.453272
15.793604,18.17959,16.879053,17.046778,18.568262
17.024073,18.437891,18.432032,18.735987,19.351954
18.288965,18.470362,19.870996,20.376856,20.185694
19.48086,17.903467,21.242334,21.592188,20.849756
20.613184,17.706446,22.531641,22.698145,21.642237
21.64126,17.457422,23.879786,23.553858,22.568018
22.419825,17.272852,24.69839,24.085352,22.914942
23.059229,17.353174,24.699366,24.304102,23.058008
23.510645,17.291162,24.572168,24.538233,23.02212
23.599512,16.727198,24.506006,24.287989,22.743555
23.35171,16.76919,24.4938,23.560205,22.515528
22.740625,16.862696,23.520655,22.793848,20.459375
21.25332,17.114649,21.907862,21.779688,19.40542
19.211817,17.377588,20.121729,20.113428,17.915918
18.62588,17.673975,19.541895,19.154444,16.77334
18.910791,17.818995,18.924707,18.353907,16.512842
19.070704,17.463282,18.21206,17.32998,16.104395
19.272852,17.032862,17.521631,17.29751,15.548975
19.139551,16.949854,16.450342,17.28335,15.113428
18.9125,16.87588,15.898096,17.532373,15.079004
18.702051,17.393457,16.763819,17.397364,15.29336
18.846582,17.162745,17.67373,17.497461,15.639795
19.3771,16.826807,18.895899,18.241602,16.090479
20.727198,16.773096,20.150293,19.501612,17.06045
22.130518,17.09878,21.942286,21.22964,17.926905
23.237696,17.550928,23.167383,23.178614,18.952051
24.079737,17.433985,24.047022,24.421045,20.008692
24.819727,16.945948,24.845606,25.133936,20.816065
25.5292,16.64297,25.488672,25.882471,21.797022
26.10464,16.836573,26.008692,26.364649,21.965967
26.593653,17.112207,26.366846,26.71792,22.174463
26.993067,17.155664,26.401514,26.812159,22.049952
27.264063,17.258448,26.178858,26.387598,21.397608
27.272852,17.650782,25.67837,25.554834,20.557032
27.079004,17.832422,25.0021,24.62124,20.005518
24.971338,18.287012,23.930323,23.566797,18.978662
22.825342,18.468409,22.133448,22.08706,17.646143
20.626612,17.713282,20.050196,19.948145,16.448633
19.694239,17.324854,19.264795,18.333643,15.802393
18.833155,17.040674,17.628565,17.296778,15.401758
18.319727,16.929102,16.580225,16.258204,14.478418
17.137354,16.962793,16.085352,15.931299,15.427393
16.202295,17.097803,15.609766,15.751856,16.657862
15.687403,17.139307,16.16128,15.309717,16.461817
15.394678,17.379053,16.21206,14.873194,16.495996
15.373926,17.751612,16.066065,15.194971,16.998194
16.101221,18.168116,16.071436,15.919336,17.37295
17.649073,18.4313,16.756006,17.284327,17.856836
19.82876,18.6896,18.009912,18.868067,18.42837
21.54751,19.095118,20.137598,19.82461,18.69668
22.601465,19.413965,21.415186,19.945215,18.914454
23.626856,19.555323,20.675684,18.563135,19.528467
24.262598,19.788477,20.2167,19.252588,19.7875
24.702784,20.03213,20.790918,20.266504,20.097559
25.212793,20.145655,20.615625,20.359278,20.54629
24.723291,20.294092,20.452784,20.403223,20.777979
23.585596,20.464746,19.860987,20.153711,20.918604
22.583887,20.55752,19.037012,19.376123,21.00088
21.306055,20.536036,18.297754,18.718653,20.95498
19.867823,20.478418,17.445704,17.960596,20.655664
18.49209,20.309229,16.44253,17.112696,19.888819
17.20376,19.917627,15.649805,16.426416,19.77749
16.293848,19.463037,14.932276,15.700342,19.628565
15.744043,19.646631,14.13833,14.830957,19.49209
15.232325,19.81582,13.852198,13.954981,19.132471
14.736231,19.512354,13.72378,12.907862,18.758204
14.206202,19.24624,13.745264,12.329004,18.277002
13.639063,19.20376,13.464258,11.959131,17.815577
13.434473,19.005274,13.168116,11.448389,17.407618
13.256006,18.85586,12.841944,11.81753,17.244043
13.67959,18.647852,13.750635,12.8814945,17.551172
14.402246,18.626612,14.816065,13.911768,17.950342
15.53042,19.006495,15.866846,15.427149,18.498926
16.731104,19.20962,16.995752,16.734766,19.139795
17.90835,19.420801,17.992579,17.864649,19.450342
18.909815,19.669825,18.815577,18.887598,19.903955
19.845362,20.109278,19.61294,19.963037,20.516504
20.641993,20.552637,20.072168,21.01919,21.099512
21.19668,21.614649,20.333155,21.722803,21.47915
21.480616,21.797266,20.41421,21.890284,21.62124
21.403955,21.698877,20.189844,21.74917,21.544092
20.981592,21.65127,19.780909,21.403711,21.466211
20.16543,21.590723,19.179102,20.828516,21.164698
18.960108,21.303858,17.967432,19.583155,20.587305
17.452295,20.891504,16.386866,17.977198,20.003077
15.63833,20.40542,14.50918,16.027735,19.097315
14.236231,20.14297,13.235743,14.0021,18.998194
13.267725,20.174463,12.403223,13.007471,18.883204
12.440577,20.17666,11.920557,12.180811,18.256739
11.906153,19.92373,11.5292,11.669092,17.516748
11.356104,19.303858,11.329248,11.189356,16.724024
10.894678,18.697168,11.266504,10.751612,16.028955
10.613184,18.828516,11.182032,10.504297,15.443262
10.763819,18.559229,11.325098,10.737452,15.111963
11.507471,18.510157,12.451319,11.817774,15.551416
12.750147,18.33755,13.98501,13.370996,16.288965
14.125879,18.368067,15.494776,15.039942,16.915918
15.589991,18.295313,16.920313,16.750635,17.538233
17.358057,18.23501,18.252344,18.369532,18.201807
19.07998,18.355127,19.551416,19.810938,18.698633
20.477686,18.701563,20.752344,21.129053,19.060938
21.77627,18.975245,21.791895,22.231592,19.60708
22.687891,19.517237,22.613184,22.951075,20.26211
23.181543,19.85,23.081934,23.49331,20.869776
23.298487,21.053858,23.26797,23.865381,20.781153
23.028467,21.041407,23.155664,23.883448,20.26797
22.319727,20.712793,22.59707,23.626368,19.982569
21.092188,20.390284,21.46084,22.881983,19.26211
19.10708,20.025293,19.640772,21.053125,18.276758
17.448145,19.444727,17.897608,19.045557,16.826563
16.270899,18.900293,17.107569,17.6625,16.139307
15.223536,18.754297,16.761866,17.157618,15.806299
14.699366,18.899073,16.113916,16.761621,14.949366
14.937403,19.25503,15.063379,16.139795,14.795313
15.324366,19.566309,14.334864,15.429834,14.40835
14.690088,19.795313,13.588282,15.046778,13.737696
12.192774,19.95791,13.328516,14.517725,13.466944
12.986963,19.522364,13.971827,14.84585,14.420557
14.215723,19.194971,16.2792,16.551905,16.72964
15.796045,19.300684,17.546534,17.768702,19.17422
17.541407,19.513819,18.817774,19.092676,21.344385
19.2875,19.580957,20.475245,20.544825,22.893457
20.649073,19.457422,22.084375,22.099512,23.371485
21.4479,19.519434,23.405176,23.30752,23.8771
22.51919,19.61172,24.463526,24.22964,24.195948
23.674463,19.716944,25.282618,25.019922,24.434229
24.583155,20.262354,25.893702,25.713037,24.521387
25.318506,21.040674,26.248682,25.889551,24.558496
25.683985,22.725489,26.230616,25.849024,24.439112
25.732569,22.817286,25.859278,25.784082,23.85708
25.439356,22.621729,25.377832,25.442041,23.224024
23.635157,22.209131,24.385157,24.318506,22.626612
21.695948,21.722803,22.761866,22.560694,21.052149
19.33169,21.165186,20.718653,20.037989,18.302881
18.18545,20.599756,19.408106,18.87295,16.931787
17.399317,19.937403,18.1896,17.42959,16.694239
17.1188,19.399073,16.843653,16.918604,16.748438
15.911036,18.955957,16.456202,17.137354,16.684717
15.017969,18.579737,16.006495,16.945948,16.666162
15.1939945,18.424952,15.495752,16.799463,16.868555
14.242823,18.43081,14.493311,16.338037,16.61709
14.728907,18.375635,15.714258,15.975,16.474268
16.138575,18.452051,16.572657,16.454737,17.681055
17.969141,18.582666,17.400782,17.8229,18.394678
18.652735,19.24502,18.807032,19.518946,18.885645
20.063623,19.768702,20.505762,21.289454,19.389551
21.431055,20.068995,22.205957,22.398584,20.030909
22.939844,20.255518,23.54214,22.88418,20.793848
24.228418,20.42373,23.683252,23.561914,21.319727
25.28628,20.644922,23.342676,24.047266,21.513819
26.128809,20.815088,23.652246,24.063623,21.418116
26.612696,21.0563,23.591455,24.542627,21.47964
26.153223,21.376368,23.109034,24.850977,21.341455
24.146875,21.39712,22.935938,24.750391,21.202295
22.88125,21.334375,22.374414,24.17666,20.946436
20.716944,21.141748,21.531397,23.152002,20.689112
19.444971,21.051416,20.416895,22.13589,20.142725
18.177637,20.680567,18.910547,20.739405,19.136866
17.17422,20.087793,17.450586,18.61587,18.536036
16.508448,19.859522,16.687647,17.257227,18.83291
15.934961,19.863672,16.01089,16.244287,18.732325
15.716944,19.729395,15.444483,15.430323,18.908106
15.520166,19.63125,14.832666,14.913233,18.898829
15.027979,19.596094,14.4005375,14.391016,18.42837
14.523096,19.476465,14.1800785,13.871241,18.093164
13.345362,19.348047,14.224756,13.9125,17.83877
13.169825,19.202295,14.988428,14.784815,18.261377
13.347071,19.32339,15.855371,16.252344,18.629541
14.339991,19.83877,16.98208,17.722559,18.94839
16.401026,20.311426,18.308008,19.0729,19.574121
17.878809,20.438135,19.33462,20.200098,20.41665
19.490381,20.47964,20.426905,21.115625,21.054834
20.559961,20.753077,21.47085,22.1271,21.567286
21.242579,22.067774,22.330957,23.057032,22.103662
21.749414,22.870752,22.925684,23.682032,22.77334
22.193262,23.023584,23.306055,24.119532,23.153955
22.560205,23.056787,23.747705,24.515284,23.250391
22.587793,22.995752,23.864893,24.65005,22.900293
22.276758,22.567286,23.597315,24.385645,22.113428
21.600245,22.043116,22.558985,23.505274,21.474756
19.995508,21.55044,20.7792,22.338037,20.38418
17.940332,20.84707,18.574366,19.957422,18.619776
16.422998,20.370264,16.873194,17.765772,17.99795
15.198877,20.360743,15.8692875,17.06875,17.90249
14.292139,20.346338,15.454493,16.23916,17.770899
13.822901,20.353174,15.033106,15.718653,17.55337
13.28042,20.13833,14.715479,15.402735,17.238428
12.238184,20.086084,14.5064945,15.093409,16.636621
11.456202,20.408106,14.356836,14.795313,14.535303
11.299463,20.644434,14.404932,14.964258,14.75503
12.255762,20.716211,16.145655,15.881739,17.293116
13.786524,20.798975,17.411768,17.149805,19.658594
15.496241,20.743067,18.811426,18.623194,21.24795
17.092432,20.69082,20.433985,20.023096,22.115381
18.716944,20.57998,21.785303,21.405664,22.932276
20.240381,20.656641,22.996485,22.700586,23.661036
21.35171,20.68374,24.0917,23.978662,24.322168
22.233301,20.573633,24.691309,24.832666,24.84585
23.128077,20.656153,25.012842,25.244532,25.228662
23.787012,20.77334,25.310205,25.440332,25.49209
24.158106,20.960352,25.2792,25.555567,25.720606
24.21963,20.901758,25.153467,24.998194,24.699366
24.016504,20.901758,24.415918,24.305323,24.804346
23.274073,20.844385,23.35708,23.4313,24.559717
21.35464,20.92422,21.728907,22.064356,21.86831
18.44668,20.994287,20.01797,19.816797,19.278711
17.167871,21.01797,17.867579,18.947168,18.377832
16.041895,20.949121,15.709375,17.87295,18.22671
15.179102,21.056543,15.359034,17.589502,18.41543
15.450586,21.173975,14.904444,17.065088,18.416162
15.393457,21.13711,14.190821,17.031641,18.146143
14.690088,20.946924,14.633936,16.545313,17.777246
14.809229,20.822412,14.673731,15.975733,18.090967
15.588526,20.550684,15.599512,15.951563,18.067774
17.446924,20.06875,17.632471,17.234766,18.925684
19.505518,19.936914,19.298487,18.42544,19.689112
20.187403,20.113672,20.24917,19.617334,19.876368
20.885645,19.967188,21.00332,19.639063,18.729395
21.950342,19.520899,21.711573,19.576319,18.30166
22.970362,19.038721,21.065332,20.503077,17.92129
23.876123,18.538233,22.044336,21.472803,18.152246
24.346827,18.747461,22.02334,22.45376,18.554346
24.107569,19.19375,23.31167,22.945215,19.363672
23.320948,19.918848,23.665918,23.078516,19.6542
22.879053,20.254053,23.374659,23.00625,19.764795
22.008936,20.43667,22.94546,22.564112,19.768702
21.112207,20.6188,22.21255,21.783594,19.456446
19.91714,20.295069,21.072657,20.811182,19.129053
18.521875,19.855616,19.326075,19.317286,18.456934
16.902246,19.421778,17.532862,17.341211,17.339746
15.746973,19.016993,15.8814945,15.809961,16.69839
14.848291,18.55581,14.791651,14.7738285,16.622461
14.111231,18.275537,13.8050785,13.876856,16.289454
13.5567875,17.755762,12.444483,13.092432,15.913477
13.126612,17.347559,11.836817,12.109522,15.296045
12.726709,17.05166,11.276514,11.2442875,14.798487
12.13418,16.744776,10.662012,10.966211,14.546045
12.048975,16.569727,10.500391,11.118799,14.313868
12.540674,16.36172,11.906153,12.265528,15.378321
13.699854,16.577784,13.258448,13.801416,16.439112
14.978907,17.224512,14.493799,15.230127,17.040186
16.188868,17.467676,15.910547,15.987207,17.509912
17.448145,17.38711,17.539698,16.883448,17.83755
18.725733,17.25332,18.442286,17.551905,18.162256
19.800684,17.290918,18.964502,18.871729,18.393702
20.473291,17.578028,19.85464,19.558496,18.647364
20.784327,17.704737,20.544092,20.399317,19.124903
20.886866,17.860498,21.252344,20.996973,19.461329
20.501123,18.138086,21.614893,20.949121,19.696924
19.34707,18.317774,21.331202,19.626368,19.560938
18.966944,18.413233,19.357325,18.408106,19.288965
18.190332,18.451563,18.5729,17.768213,18.652002
17.07339,18.598291,17.838282,17.402246,18.044336
15.845118,18.805323,17.011621,16.962793,17.757471
15.406641,18.942286,16.82583,16.658838,17.642725
15.097559,19.078516,16.52505,16.437647,17.673243
14.886377,19.15713,16.28042,16.318995,17.76089
14.686914,19.26748,16.282618,16.242334,17.917871
14.390284,19.64248,16.222315,16.125391,18.185694
14.356592,19.582178,16.186426,16.01626,18.275293
14.677149,19.228174,16.230371,16.086084,17.933985
15.128077,18.888086,16.371973,16.179834,17.697657
15.6505375,18.798243,16.714746,16.566309,17.608301
15.955469,18.831934,17.251123,16.901758,17.671045
15.742823,18.501368,18.004541,17.03213,18.069971
16.116602,18.550196,18.594141,17.488672,18.444239
17.121729,18.47793,18.82046,17.86294,18.206446
17.38003,18.317286,19.338526,18.129053,18.266016
17.949366,18.304346,19.815332,19.166895,19.318995
19.08462,18.438135,20.861475,20.197657,19.380762
19.818262,18.554346,21.598291,20.301416,19.412745
19.91836,18.651026,21.374659,21.04922,19.900293
20.069239,18.884424,21.345606,20.956446,20.224512
19.557764,18.991114,21.319483,20.576807,20.616846
18.819483,18.987452,20.827784,20.437647,20.732813
18.20669,19.092432,20.38418,19.933252,20.592188
17.615625,19.231104,19.76333,19.277246,19.91421
17.080713,19.369776,18.99087,18.572657,18.975733
16.625147,19.504541,18.300928,17.991602,18.24331
16.341211,19.605127,17.589014,17.687647,17.877832
16.394922,19.684961,17.004541,17.349268,18.27334
16.279688,19.808252,16.68374,16.657618,17.81338
16.314844,19.827784,16.805567,16.939112,17.327051
16.413477,19.759668,17.067286,17.260157,16.955225
16.481592,19.748926,17.062159,17.285547,16.72793
16.560205,19.793116,17.269434,17.40127,16.917383
17.01748,20.143457,18.084375,17.949854,18.2438
17.763575,19.867823,18.980616,18.463526,19.061914
18.931543,19.746485,19.829493,19.1813,19.547022
20.106592,19.215235,20.689356,19.493555,20.10171
21.223291,19.136866,21.907618,20.903711,20.917871
21.950586,19.08877,22.875147,21.93667,21.699366
22.651026,19.032618,23.468164,22.540918,22.096582
23.375635,19.097559,23.971338,23.009912,22.350245
23.889551,19.36587,24.1,23.102686,22.687159
24.1,19.726954,23.843653,22.951319,22.890772
24.001856,19.992334,23.359278,22.68838,22.99087
23.485743,20.144678,23.048487,22.37002,23.257471
22.63418,20.363916,22.430323,21.938868,23.526026
21.68545,20.438623,21.88418,21.340479,23.317041
20.369043,20.51748,21.211817,20.810938,22.163233
18.819483,20.446192,20.173975,19.869532,19.9042
17.851221,20.467676,19.448877,19.2792,18.747461
17.298975,20.367334,19.18667,18.796778,18.391748
16.952784,20.277002,19.041895,18.355127,18.21255
16.892725,20.32046,18.539698,18.058985,18.087305
16.342432,20.399317,18.051416,17.724756,17.857813
16.106104,20.436182,17.212793,17.27212,17.625635
15.814844,20.362452,16.825342,17.52749,17.53921
15.575342,20.355371,17.054102,17.597803,17.771631
16.850489,20.501368,17.810938,17.589258,18.621973
17.815088,20.480127,18.582666,17.575586,20.27212
18.695704,20.529444,19.621729,18.089746,21.363672
19.90835,20.636866,20.583887,19.418848,22.14834
21.090723,20.597315,21.179102,20.657373,22.987452
22.287012,20.788477,21.886377,21.539454,23.660791
23.495508,20.945948,23.023584,22.737696,23.336329
24.533838,20.907373,24.27505,23.630762,23.529688
25.397364,20.958399,24.687891,24.119287,23.76333
26.147852,20.922266,24.701563,24.533838,23.016748
26.685694,20.819483,24.38125,24.345606,22.723536
26.92251,20.746729,23.693262,23.748926,22.317041
26.746729,21.011377,22.87124,22.8688,21.899805
25.859034,21.174707,22.31045,22.021387,21.257227
23.444971,21.402246,21.23086,21.142237,20.691309
21.068506,21.61709,19.181787,19.773584,19.726221
19.721338,21.685938,18.646143,19.239405,19.10586
19.009668,21.883936,18.096582,18.622217,19.04165
18.58999,22.023096,17.527002,18.17129,19.261621
18.463282,21.97671,16.561914,17.79043,19.169825
17.579248,21.775782,14.891016,17.5292,19.046778
16.1542,21.63003,14.731836,17.595606,18.921778
16.652735,21.488916,14.152979,17.14541,18.668604
17.481348,21.402246,15.793116,17.069483,18.350977
18.85415,21.284082,18.160303,17.766016,19.318262
19.982813,21.192286,19.44375,19.336817,20.749903
21.116114,21.077295,20.937403,20.611475,20.808008
22.3146,20.668604,22.32339,21.963037,21.106592
23.84707,20.044092,23.231348,22.344141,22.168604
25.312647,19.970118,23.893946,22.457422,23.36123
26.734522,20.05581,24.44082,22.433496,24.426416
28.183252,20.20669,24.820215,22.536524,25.022608
29.595362,20.446924,24.992334,22.797754,25.352686
30.158594,20.5563,24.95669,22.667627,25.365381
29.179346,20.502588,24.827784,22.508692,25.62588
27.51089,20.47915,24.504053,21.903467,26.08877
25.97964,20.719385,23.863916,21.652002,26.136133
24.65542,21.172266,23.28335,21.805323,25.754053
22.963037,21.593653,22.420557,21.393702,23.843897
20.988672,21.824366,20.2875,20.277735,21.156153
19.994776,22.053858,19.29165,19.849756,19.98623
19.808985,22.212793,19.251123,19.097803,19.360743
18.912745,21.869043,18.856348,19.296045,18.764307
18.623194,21.403711,18.997461,19.26797,19.045069
19.324121,21.35879,18.942286,18.991846,19.419092
19.070948,21.21206,18.986475,19.07583,19.510645
19.033106,21.258448,19.143702,19.158106,19.649073
18.91665,21.29922,19.31753,19.735987,19.694239
19.233301,21.282862,19.695704,20.38125,20.417871
20.309961,21.182764,19.98501,20.485498,21.509424
21.925684,20.720118,20.12002,20.330713,22.266748
23.492579,20.435938,20.09463,21.170801,22.638575
24.651514,20.48086,20.448633,20.55752,22.87588
25.842188,20.677149,20.383448,20.034815,22.99795
26.558985,21.363428,20.063868,19.883692,22.773096
26.848536,21.600977,19.88003,19.934229,22.246973
26.516993,21.275293,19.708643,19.600245,21.441553
25.39834,20.977686,19.600245,19.165674,20.543848
24.37124,21.046045,19.230127,18.906641,19.971094
22.77749,20.620508,19.116846,18.22793,19.625635
20.47793,20.30752,18.071436,18.42837,19.607569
17.943262,20.527735,18.141504,17.995996,19.004053
17.639795,19.891748,17.776026,17.394922,17.795069
17.578272,19.04922,16.36416,16.05337,17.189356
16.82461,18.551172,14.906641,14.428614,16.820704
16.022852,18.330957,13.454248,13.04336,16.047998
15.507959,17.426172,12.333643,12.219873,15.407129
14.4613285,16.927393,11.120508,11.628565,15.287012
13.870752,16.879053,10.112696,11.002588,14.816309
12.774317,16.657618,9.593897,10.566309,14.856104
11.677637,16.52456,9.186182,10.027002,14.85586
10.746973,16.599268,9.083399,9.675928,14.56167
10.986963,16.361963,10.190088,10.623194,14.706446
12.058741,16.120752,11.784327,12.085108,15.195459
13.181299,16.098291,13.183008,13.765284,15.215723
14.490381,16.213526,14.605371,14.826807,16.181543
15.543848,16.22085,15.504297,15.304102,16.595362
16.521387,16.512354,15.782129,15.6158695,17.07168
17.422998,16.545069,16.370996,16.45669,17.560694
17.92959,16.88711,15.936182,17.939844,17.225733
17.779444,17.058496,17.434961,17.998926,18.309961
17.886621,17.282862,17.901758,17.656397,18.4313
17.156885,17.629786,17.528223,17.25796,18.420069
17.226221,18.063623,17.098291,17.14248,18.244043
16.08999,18.32046,16.850977,16.714502,18.011377
15.264551,18.394678,16.02505,15.952295,17.514795
14.45083,18.325098,15.158838,15.203516,17.231348
13.414209,18.41665,13.683252,13.854151,16.283106
12.872705,18.483301,12.765528,13.0880375,15.41543
12.897852,18.24917,12.643946,12.569483,15.468164
12.140528,17.985987,12.427881,12.987452,14.057276
11.967432,17.716455,12.41128,11.659815,14.887842
12.195459,17.544336,10.960596,10.877344,14.830957
11.424707,17.215235,10.609522,11.193506,14.3832035
12.1661625,16.950098,10.181299,11.306543,14.56045
12.321924,16.84878,11.374903,11.107813,13.698145
12.491358,16.812403,12.739649,12.448389,14.411524
12.950098,16.827051,13.437159,13.0917,15.519434
13.566065,16.765772,14.017725,12.767969,15.669336
14.955713,16.82461,14.9283695,14.0394535,15.924952
15.737696,16.81167,15.225489,14.5394535,16.03335
16.324366,16.695704,15.468653,15.019678,16.2167
16.586817,16.77041,14.649561,15.1939945,16.69839
16.538965,16.987207,15.018213,13.821192,16.260645
17.244532,17.39541,14.478174,14.397608,16.269922
16.911768,17.739893,13.805811,13.745752,15.718164
16.49087,17.576075,13.358057,13.350489,16.029932
15.962305,17.340235,12.5099125,12.696436,15.439844
15.2269535,17.701075,12.602442,12.451563,15.59292
14.745996,18.302393,12.880274,12.690088,15.777246
15.030176,18.897852,12.784571,12.828028,16.717676
15.090235,19.114649,13.062159,12.766748,17.407618
15.147852,19.25796,13.285791,12.886377,17.96084
14.333155,19.404932,13.335352,13.142725,18.140284
13.931299,19.50503,13.833643,13.387598,18.239893
14.313379,19.523584,14.855127,13.662256,18.24624
14.807764,19.43081,15.331446,14.115625,18.180079
15.4042,19.307276,16.001368,14.532862,18.1542
15.853418,19.26748,16.701319,15.213526,18.119532
16.069239,19.258204,16.969385,15.940088,18.088037
16.260157,19.240381,17.253809,17.007227,18.120508
16.440332,19.266993,17.562159,17.420557,18.214014
16.676416,19.423243,17.645166,17.751856,18.35171
17.041162,19.462305,17.92251,17.826075,18.579004
17.51748,19.410059,18.470118,18.24502,18.796534
17.985987,19.49331,18.905664,18.694727,18.858057
18.594385,19.659082,19.033838,19.02505,18.893213
19.750147,19.865381,19.072412,19.253565,18.980616
20.634912,19.970118,19.113672,19.338282,19.196436
21.20376,20.04336,19.207666,19.339014,19.39004
21.397852,20.189356,19.209864,19.70962,19.40249
22.186426,20.062159,18.92129,19.442774,19.3688
21.897608,20.045313,18.641993,18.956446,19.23672
21.15542,20.015528,18.463526,18.846582,19.138575
20.11001,19.939356,18.201319,18.610987,19.067774
18.983301,19.850977,18.038477,18.454737,18.97085
18.108301,19.715967,17.963282,18.410303,18.871729
17.74502,19.571436,18.002344,18.302393,18.724024
17.56338,19.474512,17.987207,18.041407,18.560205
17.42837,19.581934,17.967676,18.145899,18.474024
17.43667,19.600489,17.935694,17.738428,18.528467
17.3146,19.646143,18.074121,17.857813,18.595606
17.167383,19.69668,18.169092,17.794825,18.650293
17.053858,19.737696,18.102198,17.731836,18.783106
17.247217,19.777246,18.278223,17.926416,19.053858
17.909815,19.885157,18.63589,18.026758,19.436914
19.049952,20.11587,18.63589,18.438868,19.845362
20.303858,20.129541,19.189112,19.461084,20.001856
21.454248,20.083887,19.696436,20.184473,19.76333
22.455957,20.418116,20.29751,20.729883,21.028467
23.484278,20.643946,20.514063,20.751123,21.281641
24.397852,20.672022,21.075586,20.32998,22.209131
24.46206,20.849024,20.91665,20.535791,22.485498
24.383448,20.649805,21.338526,21.01211,22.3146
24.450098,20.459131,21.49624,20.984278,21.931787
24.449121,20.536768,21.666895,21.498438,21.605616
24.108301,20.524317,21.535547,21.60879,21.093653
23.329737,20.507715,21.143213,21.279688,20.545557
22.012598,20.530664,20.2792,20.234278,19.88589
20.224756,20.461817,18.541407,18.847559,19.294825
18.79336,20.348047,17.941797,18.08462,19.320215
18.106104,20.272852,18.018213,17.762354,19.247217
17.725733,20.316065,18.255518,17.540674,19.438868
17.56338,20.586817,18.099756,17.344873,19.612207
17.492334,20.527002,17.744287,17.61587,19.723291
17.172754,20.45254,17.816065,17.964258,19.727198
17.208887,20.398584,17.899805,18.129786,19.718164
17.183496,20.418848,17.912256,18.303614,19.720118
17.802393,20.547754,18.66421,18.6979,20.000147
19.17129,20.658838,19.577295,19.295313,20.600977
20.426172,20.697168,20.398096,20.358057,21.135645
21.628077,20.710596,21.037989,21.27627,20.839502
22.669092,20.899317,22.100977,21.94839,21.534815
23.80581,21.022608,23.090235,22.98208,21.35
24.845118,21.344141,24.187159,23.388819,22.067774
26.132715,22.06582,25.059717,24.669336,24.049463
27.360498,22.175928,25.391993,25.161768,24.25918
28.243555,21.76748,25.453516,25.390528,23.48379
28.715235,21.600733,25.624414,25.476465,22.648584
28.628809,21.889795,25.627588,25.686914,22.621729
27.791895,21.031153,25.282618,25.133692,22.086329
26.175928,20.571924,23.794336,23.73672,20.63589
23.895166,19.923243,22.143946,22.537745,19.019434
21.606348,19.832422,20.582178,21.412745,18.36831
20.566065,19.79336,20.035059,20.724268,18.528955
20.221582,19.749659,19.385157,20.298487,18.438868
19.67129,19.542627,19.18374,20.15127,17.894434
19.373926,19.397364,19.502344,19.493555,17.569727
19.539454,19.31875,18.147852,18.488428,17.566065
19.31582,19.230127,17.726221,17.764063,17.644678
18.662012,19.241846,17.572412,17.55752,17.579493
18.275537,19.081202,17.32876,17.412256,17.532373
17.90005,19.077784,17.493555,17.520655,17.73794
17.922022,18.939112,18.08706,18.366846,17.975245
18.41665,18.739405,18.52334,19.107325,18.176172
19.370508,18.475977,18.85586,18.888819,18.826319
20.289942,18.560694,20.41543,19.337793,19.268702
20.878077,18.701563,19.47207,19.327295,19.798243
21.382715,18.812647,19.02212,19.263575,20.139063
21.711817,18.933008,20.282862,20.684717,20.476221
22.292383,19.112452,20.524317,20.608057,20.774317
22.86587,19.04922,19.903223,20.70254,20.248194
22.406153,18.90957,19.661036,20.454004,19.896875
21.85415,18.946924,19.319239,19.807764,19.440577
20.823877,18.96206,18.432764,19.256495,19.02749
19.77505,18.962305,18.326075,18.764307,18.523096
18.401758,18.930079,17.554834,17.968164,18.093409
17.113184,18.967188,16.484522,17.039454,17.92666
15.873438,19.085108,16.396631,16.726954,18.052393
14.795069,19.130762,16.443018,16.916162,17.924952
14.319727,18.993555,16.629541,16.96377,17.350489
14.093409,18.746485,16.22207,16.57339,17.08047
14.018946,18.44546,15.778467,15.537256,16.89297
13.93252,18.168116,15.15542,15.383448,16.907862
13.626368,18.010157,15.193018,15.248438,16.841455
13.784327,17.985254,15.397364,15.251368,16.62002
14.29751,17.951563,15.339502,15.436182,16.194483
15.06875,17.886377,15.837549,15.797266,15.595118
15.780176,17.567774,16.419092,16.804346,16.176172
16.10293,17.499659,17.070704,17.691309,16.204248
16.96255,17.757471,18.29458,17.86587,17.055079
16.80459,18.121973,18.92422,18.266016,17.859034
16.767237,18.35415,19.478662,19.530664,19.099268
17.061426,18.53457,20.252344,19.940088,19.866358
18.105127,18.843653,20.54922,20.06167,19.993555
17.059229,18.986475,19.319239,20.14126,19.109522
17.262842,19.144678,20.025293,19.898096,18.89956
18.538721,19.20498,19.589746,19.75503,19.036524
17.467676,19.11709,19.444971,19.126612,17.758204
16.585596,18.89004,18.123194,18.193995,17.663477
15.8988285,18.507471,17.069239,17.299707,17.262842
15.87295,18.383936,15.888086,16.156885,16.684229
15.403711,18.24087,16.083887,15.867823,16.418116
15.060938,18.207666,15.683741,15.241846,16.321436
15.051416,18.191065,15.417139,14.910059,16.281397
14.466455,17.82754,15.113428,14.954004,15.93252
13.866358,17.513575,15.022608,14.997217,15.655176
13.512598,17.143702,15.062403,14.835108,15.542627
13.441065,17.30581,14.684961,14.506983,15.521387
13.280909,17.198145,14.496485,14.375635,15.467676
13.376856,16.930567,14.92544,14.595118,15.612696
13.305567,16.964746,15.378321,15.048731,15.889063
13.640284,17.099512,15.871973,15.2721195,16.402735
13.942041,16.867579,16.12295,15.346338,16.894678
15.061426,16.861475,16.17129,16.004786,17.266748
15.530664,16.933985,17.20547,16.705225,17.867823
15.955225,17.15249,17.83999,17.323145,18.326075
15.569239,17.610743,18.419825,17.306787,18.645166
16.233301,17.910791,18.062647,17.133936,19.100245
16.45376,18.102686,17.916895,17.779932,19.576319
17.584131,18.339014,18.622705,18.287989,19.735743
17.360987,18.536768,18.89956,18.94961,19.240137
16.838282,18.669336,18.750147,18.636621,18.785791
16.516993,18.814844,17.925684,17.725489,18.558252
15.762354,19.080225,16.745752,16.870752,18.146875
15.204981,19.266993,15.739161,15.687403,17.71963
15.253077,19.383936,15.585596,15.425196,17.434961
15.222559,19.47671,15.23086,14.893457,17.369532
15.049219,19.502588,14.998438,14.509668,16.830957
14.421045,19.47793,14.296534,13.910059,16.170801
14.364649,19.273829,14.173487,14.083155,15.256983
14.344873,19.173975,13.912989,13.562159,15.657618
14.364893,19.115137,13.364161,13.653955,16.313868
14.234766,19.146875,13.737207,13.878077,16.841211
14.281153,18.949366,14.785547,14.692774,17.327784
14.587061,18.702295,15.918604,15.71792,17.316797
14.795313,18.536524,16.708155,16.630762,17.927637
15.42544,18.869532,17.673487,17.441553,17.855371
16.16836,18.747461,18.610987,18.099268,18.143213
17.263575,18.682032,18.974024,19.22085,18.804102
17.643946,18.643702,19.63711,20.322168,18.144922
17.948145,18.649073,21.222559,20.395655,18.763086
18.638575,18.701563,21.041162,19.934229,19.072412
19.12588,18.897364,20.713282,20.259424,19.573877
18.92373,19.009424,20.578272,19.928614,19.472315
18.318262,19.159082,19.82046,19.424707,19.572657
18.339502,19.336084,19.264307,19.224268,19.754786
17.8771,19.40835,18.834864,18.637842,19.088526
17.155664,19.5646,18.22915,17.948877,18.605371
16.32876,19.641993,17.6188,17.356104,18.359034
15.8363285,19.824121,17.254053,17.310205,18.12124
15.327784,19.807764,16.876612,16.916407,17.755274
15.49502,19.79458,16.22085,16.551905,17.343897
15.728174,19.836329,15.793604,15.705469,17.35171
15.712061,19.882471,15.759424,15.618311,17.52212
15.6158695,19.797266,15.676661,15.81167,17.23086
15.588282,19.54336,15.916651,15.96377,16.578516
15.47378,19.369532,16.284327,16.268946,16.89248
15.558985,19.305079,16.760645,16.521875,17.578516
16.187403,19.294336,17.686914,16.922754,18.292383
17.378077,19.302881,18.204737,17.768457,18.023584
18.351221,19.177393,18.651758,18.71084,17.720118
18.510645,18.568018,18.946436,18.667871,18.234278
18.954737,18.41714,19.555567,19.793848,19.0729
18.987452,18.651026,20.351221,20.262354,19.447412
19.841455,18.753565,21.278955,20.791162,19.760645
21.057276,19.215723,21.42837,21.059473,19.72793
20.661768,19.290186,21.484034,21.233545,19.907373
20.331446,19.28457,21.334375,21.143946,19.891504
19.406885,19.225977,20.956446,20.883936,19.515284
18.661524,19.707422,20.363916,20.165674,18.848291
17.617334,19.812647,19.33706,19.021387,17.978662
16.117579,19.437403,17.499659,17.501856,17.006495
14.627832,18.615381,15.669825,15.734034,15.133936
13.753077,18.171778,14.283106,14.515039,14.214502
13.162256,18.066065,13.243799,13.679102,13.608057
12.379541,17.996485,12.515284,13.0411625,13.627832
11.788233,17.94961,12.035547,11.875879,13.200342
11.322901,17.43081,11.608301,11.0021,12.665674
11.202295,17.284327,10.956446,10.7792,11.888575
11.24502,16.684961,9.458643,10.970118,11.145655
11.218409,16.643702,10.316309,10.973291,11.158838
11.859522,16.61123,11.740137,11.916895,13.129786
13.208399,16.713282,12.899073,12.975977,16.101221
14.563868,17.113184,14.155909,14.416651,17.31045
15.986231,17.503565,15.363916,15.903223,18.284082
17.151758,18.390528,16.741602,17.249903,19.233057
18.259668,19.481836,18.155909,18.153955,19.808496
19.593164,19.994776,19.433252,19.08877,20.251123
20.902002,19.899805,19.69546,19.074366,20.970606
21.622705,19.838282,19.125147,19.299952,21.633204
22.122705,19.845118,18.93252,19.384912,22.188135
22.98086,20.215235,19.221338,19.610743,21.850733
23.749659,20.563868,19.681787,19.775537,21.110987
23.704248,20.324121,19.574854,19.831202,20.2521
22.827784,20.166162,19.084131,19.475489,19.527246
21.10586,19.919825,18.846827,19.177149,18.853174
19.316065,19.618555,18.590967,18.951563,18.393457
18.455957,19.669336,18.572657,18.598291,18.596094
17.56338,19.808008,18.177393,18.184229,18.774073
16.823633,19.982325,18.006006,17.830225,18.690577
16.30337,20.214258,17.860743,18.103418,19.057032
15.962793,20.2438,18.123194,18.45669,19.75796
15.734034,20.01089,18.217432,18.906397,19.486963
15.619532,19.979883,18.501856,18.831446,19.375147
15.890772,20.027246,18.819727,18.566065,19.17251
16.338282,20.040186,19.141504,18.79873,19.326319
16.745264,19.992334,19.823877,18.587305,19.696192
17.376856,20.031397,19.446192,17.343409,20.137842
18.349268,20.18081,18.115137,17.946924,20.70254
19.509668,20.293848,19.313623,18.631006,20.790918
19.397608,20.168116,20.441797,19.4667,20.740381
19.613672,19.728662,20.993067,19.797266,21.065088
20.919825,19.584375,21.339258,19.692774,20.759424
21.172998,19.520899,21.30752,19.503565,21.1188
21.698145,19.516993,21.002832,19.253077,21.09463
21.218653,19.593897,20.226221,18.677149,20.821924
20.498682,19.667627,18.852442,18.786524,20.606592
19.372217,19.779688,18.177637,18.659082,20.375635
18.438868,19.943506,17.933252,18.140772,19.652735
17.393946,20.02505,17.155664,17.345118,18.78457
16.384912,19.96255,15.9300785,15.736475,17.483057
15.750879,19.822657,15.535059,14.88711,16.009424
15.143457,19.80874,15.253077,14.580225,15.464746
14.131983,19.824366,14.973047,14.277735,15.204981
13.27334,19.605616,14.349268,13.994532,15.666651
12.455957,19.256495,13.940821,13.496485,14.387598
12.316797,18.972559,13.667871,13.735254,13.812403
12.626368,18.533838,13.426661,13.497461,13.542627
12.382959,18.323633,13.139551,12.809229,13.657618
12.57583,18.159327,13.702295,13.176905,14.5064945
14.011133,18.08291,14.914698,14.503321,16.507227
15.459375,18.281885,15.737452,15.691309,17.239893
16.399317,17.977686,16.648829,16.240625,16.674707
17.08584,17.590967,17.49087,17.209375,17.170801
18.104883,17.809961,18.05874,17.170801,17.405176
18.45254,17.912745,18.859766,17.933008,18.668604
18.427393,17.99209,19.381983,18.894434,18.947168
18.630518,18.132715,19.39541,18.058496,19.194727
18.981348,18.276758,19.025537,18.438623,19.399073
18.88003,18.35415,18.836084,18.449366,19.491846
18.638086,18.589502,18.804834,18.2438,19.51626
17.839014,18.875147,17.940332,18.19961,19.36001
16.719385,19.061914,17.606836,17.64834,18.905909
15.562647,19.174952,16.417871,17.011621,17.681055
13.899317,19.19839,15.483789,15.381006,16.68838
12.920557,19.433008,14.168848,14.892481,15.591211
12.655176,19.49917,13.662012,14.494532,16.53628
12.47085,18.933496,13.687403,14.579981,16.830957
12.725733,18.43374,14.077539,14.443018,15.120508
12.307032,18.165918,14.120264,13.609766,15.899805
11.753565,17.918116,13.021387,12.998926,16.383692
11.416895,18.057764,12.378809,12.57583,15.939844
11.246973,17.515528,12.291651,13.138086,14.781397
11.553858,17.230616,13.156885,13.604395,15.48086
12.820459,17.225733,14.243555,14.098291,16.057032
13.408594,17.0646,14.813379,14.86001,16.444239
14.320215,17.331934,15.920069,15.57461,17.009668
15.97793,17.4313,16.820704,16.51919,17.616846
16.788233,17.266748,17.751368,17.676172,18.105371
17.694727,17.544825,18.581202,18.529932,18.547022
19.062647,17.86172,19.3854,19.3771,18.546534
18.911036,18.216211,19.875147,19.819971,19.09585
19.209864,18.446192,20.156641,20.106104,18.96792
19.432032,18.646875,20.198633,20.29336,19.02505
19.268702,18.968409,20.318262,20.146875,18.924463
18.7167,19.176905,19.8771,19.731836,18.42666
17.821192,19.280664,19.228907,19.09463,18.139063
16.903223,18.775782,17.858545,17.714746,17.542627
15.907373,18.54873,16.327295,16.082666,16.323877
14.839502,18.301172,15.154688,14.850977,15.255274
13.717676,17.961573,14.143702,13.867334,14.433252
13.098047,17.931055,13.216455,13.009424,14.650049
