"[299, 255]","[227, 248]","[287, 319]","[279, 328]","[230, 262]"
5.922754,9.589746,6.4798827,6.360498,7.051416
5.787988,9.304834,6.0577636,6.0313964,6.7015624
5.489404,9.051416,5.463037,5.756494,6.676172
5.157861,9.017237,5.4513183,5.341699,7.021875
4.7328124,8.563868,5.3827147,4.925195,6.65957
4.4273925,8.539942,5.241113,5.586328,6.67666
4.6344237,8.62002,6.655908,6.6075683,7.678369
4.954736,8.3971195,7.742334,7.846582,8.638819
5.891504,8.562891,8.73794,8.737452,9.282862
6.3055663,8.652979,9.736231,8.972071,9.854883
6.9652343,8.801416,10.326807,9.652491,10.46084
7.2311034,9.185938,8.359766,10.092188,10.857569
8.66836,9.4283695,10.476221,10.631006,11.278223
10.113184,9.847559,8.606104,11.156153,11.638575
10.302881,10.017725,10.824854,11.19961,11.910791
10.340479,10.113428,10.829737,10.6800785,12.141504
9.984034,10.248926,10.996729,11.019922,11.674219
9.364161,10.432276,10.861231,10.843409,10.910547
8.417871,10.520655,9.721338,9.80752,10.183496
6.3373046,10.517969,7.8038573,8.214258,9.119043
4.7591796,10.561182,6.1544433,7.1500487,8.743067
4.257959,10.525049,4.959131,6.6966796,9.152979
4.9276366,10.426905,4.6009765,6.4120116,8.480616
4.150293,10.218409,4.702539,5.237451,7.884912
4.192529,10.012354,4.9447265,4.962793,8.192774
4.1822753,9.735498,4.865381,4.8236327,8.145655
4.1581054,9.678858,5.435205,5.195703,8.4474125
4.1424804,9.721094,6.470361,5.6983886,8.554346
4.134912,9.760157,6.659082,6.0089355,8.659815
4.694238,9.908106,7.2499022,6.452783,8.851465
5.2745605,10.113916,7.675195,7.3663573,9.1974125
5.954248,10.228174,7.989404,8.47378,9.4439945
6.4061522,10.374659,8.165186,8.23794,9.872705
7.504297,10.397608,7.829248,7.8109374,10.350733
9.065821,10.435938,7.88833,7.941797,10.180323
9.300196,10.6783695,8.273096,8.487696,10.331202
9.472071,10.7755375,8.581446,8.773584,10.77334
10.320948,10.808008,9.067041,8.800928,10.682764
10.637354,10.868799,9.38003,9.1974125,10.654932
10.239893,10.953028,9.4161625,9.331202,10.665186
9.874414,10.876123,9.549952,9.248682,10.580469
9.989405,10.789209,9.329493,9.111719,10.222559
9.651758,10.932276,9.096582,9.093409,10.173731
9.343653,10.806299,8.88833,8.892237,10.052637
9.207666,10.767481,8.534571,8.773096,9.758692
8.737207,10.756739,8.214502,8.582422,9.746241
7.7228026,10.675928,8.303858,8.389063,9.623926
7.30874,10.601221,8.296289,8.329493,9.542871
7.2472167,10.818506,8.218409,8.2269535,9.63711
6.4955077,10.718164,8.095606,8.234034,9.864405
5.7447753,10.798487,7.9518065,8.205957,9.764063
5.423242,10.702051,8.089258,8.094629,9.72085
5.1776366,10.488184,8.133692,8.0255375,9.744776
5.7228026,10.410791,8.506006,8.223047,9.615625
7.0438476,10.428858,9.007471,8.534327,10.3658695
8.710596,10.743311,9.642725,9.157129,11.224024
10.227686,10.911524,10.25625,9.747705,12.003809
12.0707035,11.351709,11.146143,10.932032,12.585352
13.504786,11.78335,12.343409,12.296534,13.635157
14.785303,12.04751,12.818506,13.329493,14.605127
15.777002,11.590479,13.575586,13.951563,15.416895
16.557032,11.319727,14.0724125,14.43545,15.9908695
17.177637,11.376123,14.733057,14.866114,16.316309
17.53921,11.426661,15.465235,15.205225,16.282862
17.386866,11.495508,15.913233,15.508448,13.632227
16.890528,11.718897,15.940332,15.38125,12.820215
15.412256,12.320459,14.707422,14.3771,11.943018
13.672754,12.252588,11.370752,11.887354,10.204004
13.281397,11.653711,11.285547,10.121729,9.250879
12.885157,11.236963,9.994043,9.398584,9.125147
11.922754,11.150293,8.752344,9.1192875,9.217676
11.24209,11.1661625,7.761865,8.403467,9.128321
11.322168,11.36001,6.317041,7.567529,8.914209
11.3536625,11.3849125,5.2452636,7.4693847,8.636621
10.83877,11.118555,4.7186522,7.5838866,8.139551
10.180811,10.876368,4.3768554,7.530908,7.690088
9.784571,10.788477,4.9103026,7.7967772,7.3893065
10.063623,10.366846,7.702783,8.795557,8.419825
11.337549,10.346338,10.171289,9.455469,10.217676
11.642481,10.803125,11.370996,10.010157,10.965723
12.529688,11.124414,11.957666,11.338526,11.818262
13.393946,11.177393,12.49795,12.695215,11.684473
14.537256,10.902491,13.280176,13.197901,11.459864
15.561914,10.554102,14.403467,13.321924,10.772852
16.278955,10.714991,14.584375,13.63711,10.766504
16.055567,10.993311,14.29336,14.078272,10.844873
14.72378,11.20669,13.976709,14.194971,10.793604
13.289698,11.330957,13.79336,14.123682,10.9596195
11.918604,11.42959,13.577295,13.787256,10.875391
10.972315,11.460596,13.162012,13.432032,10.942041
10.49795,11.416407,12.7096195,12.817286,10.75503
9.760157,11.387842,12.008448,12.001123,10.144678
9.302637,11.328272,11.519678,11.356836,9.579737
9.049952,11.200586,10.18545,10.707178,9.526758
8.889551,10.900049,9.219385,10.211817,9.39126
8.965235,10.63833,9.114161,9.818262,9.130518
8.465967,10.528955,8.789698,9.442286,8.90835
8.247705,10.224268,8.464991,9.026758,8.211817
8.290918,10.009424,8.335352,8.649561,8.579737
8.18545,9.969629,8.080957,8.129297,8.748682
8.279688,10.016016,7.8182616,7.534326,8.613428
8.504297,9.87295,7.7333007,7.315088,9.265528
8.825586,9.982569,8.184961,8.058008,10.05044
8.923243,10.445459,9.362452,9.277491,10.787012
9.350489,10.858057,10.740381,10.514063,11.241114
10.166895,10.67251,11.8849125,11.427881,11.579981
11.560938,10.534571,12.8189945,12.265528,11.751856
12.497705,10.567774,13.346338,13.06875,12.3771
13.4144535,10.37002,13.660059,13.651026,12.660059
13.56167,10.410303,13.797266,13.883448,12.821924
13.333399,10.635401,13.983057,13.923243,13.176905
12.769434,10.817774,14.036768,13.631739,13.241846
12.107325,10.672266,13.925196,13.382227,13.048487
10.989161,10.615381,13.299952,12.988184,12.762598
10.099268,10.742823,12.576075,11.861231,12.246485
8.89419,10.842188,10.680323,10.040674,10.805323
7.984033,10.8675785,8.627588,8.280909,9.038965
6.830713,10.981592,7.791406,7.119287,8.344629
5.691797,10.987452,6.9554687,6.9376464,9.170801
5.3756347,10.926416,5.7108397,7.7381835,9.375391
5.0892577,10.962305,5.173242,7.1546874,9.126612
4.8126464,10.871729,5.3507323,6.7325683,9.061182
4.411035,10.532129,4.7816405,6.643945,8.451075
4.13833,10.3033695,4.561914,6.268457,8.4161625
3.2401366,10.207422,4.1324706,6.018945,8.217432
4.9669433,10.027735,5.8246093,6.742334,9.108057
6.9933105,10.054102,7.081445,7.732324,9.445948
8.185694,9.945215,8.315332,8.583887,9.316553
9.135157,9.800196,9.192774,8.828028,9.008448
10.002832,9.7755375,9.795801,8.999903,9.911768
8.812647,9.751123,9.833887,9.683008,10.570215
10.329004,9.876368,10.527246,9.921289,10.44961
10.890772,9.906397,11.33169,10.962549,10.548243
11.062403,9.995996,11.284082,11.66543,11.243311
10.933008,10.1175785,10.502588,12.101465,11.707422
10.7408695,10.343653,11.930323,11.946436,11.940332
10.600733,10.5846195,12.177881,11.391016,11.633936
9.800196,10.594629,11.548975,10.911036,11.04043
9.271875,10.545313,10.53335,10.709864,10.282373
7.954004,10.568018,9.476465,9.597559,9.530176
7.002832,10.524317,8.50503,8.808008,9.151758
6.3978515,10.21084,8.470362,8.203272,9.230371
6.3839355,10.0707035,7.275293,7.627832,9.090235
6.5892577,9.853174,6.5301757,7.447412,8.625879
6.470361,9.827051,6.37832,6.818994,8.075098
5.9203124,9.743799,6.2799315,5.971582,8.149805
5.164209,9.732813,6.1361327,5.634912,8.075098
4.89541,9.769678,5.771631,5.557031,7.5958495
4.848779,9.336573,5.6185546,5.1510253,7.9395995
5.235986,9.3346195,6.188867,5.7748046,8.606592
6.035547,9.317041,6.8788085,6.8976073,8.973047
7.2176757,9.876612,7.9154296,7.9149413,9.440577
8.587061,10.1314945,8.690577,9.181543,9.891993
9.874903,10.235498,10.9630375,9.985743,10.710596
10.950342,10.65127,12.262842,11.777246,11.174219
11.938135,10.885157,13.08584,12.679102,11.392237
12.641748,10.508692,12.937403,13.129297,11.669336
13.349756,10.445215,13.672998,13.935694,11.911036
13.358545,10.491358,13.744776,14.073633,11.934473
12.849024,10.569239,13.549952,13.907373,11.802149
12.255762,10.669092,12.653467,13.823633,11.507471
11.613672,10.858789,11.969385,13.231592,11.116602
10.691309,10.963526,11.559717,12.430811,10.425928
9.210352,11.034571,10.102686,11.201563,8.710596
8.144678,10.895411,9.329981,9.951075,6.6656737
7.1637206,10.719385,8.855616,9.48501,5.8597655
7.463037,10.591455,8.2755375,8.85293,5.751367
6.6690917,10.723536,7.480615,8.039698,5.987695
6.494043,10.7113285,7.5577636,7.969629,5.5106444
6.6358886,10.714258,8.234766,7.6458983,5.9549804
6.3038573,10.692774,7.806787,6.640283,6.3390136
6.225488,10.571924,6.881494,6.464746,6.3597655
5.3875976,10.611231,5.657861,6.386377,6.4134765
6.3390136,10.808008,7.221582,7.4642577,7.771631
7.505029,10.791651,8.671289,8.446436,9.458643
8.633448,10.8658695,10.153223,9.766016,11.097315
9.812891,11.092676,11.576807,11.099512,11.584131
10.86709,11.277246,12.557276,12.69375,11.651758
11.777735,11.368799,13.378809,13.671289,11.496729
12.641016,11.551416,14.001856,13.696436,11.531885
13.232813,11.517969,13.547998,13.019434,11.36294
13.476709,10.982569,12.470118,12.326075,10.829248
13.528955,10.614649,11.665674,11.2582035,10.068506
13.135157,10.434229,9.922998,9.862207,9.815821
12.43545,10.251856,9.2875,9.785791,9.7252445
10.101465,10.2738285,9.010157,9.68545,9.548243
8.602686,10.435694,9.1349125,9.571192,9.629786
8.814844,10.587061,9.037012,9.430811,9.823389
8.664209,10.996973,9.014063,9.333643,10.150293
8.671045,11.024561,9.061426,9.341944,10.235498
8.552393,11.064112,9.272364,9.511377,10.150049
8.347315,11.124903,9.335596,9.610987,10.286036
8.339502,11.188135,9.34292,9.72378,10.470606
8.171045,11.334375,9.4127445,9.728174,10.688868
7.9796386,11.298243,9.423243,9.587305,10.81045
7.9967284,11.274317,9.394922,9.788721,10.830469
8.162256,11.367334,9.527491,9.971582,10.853418
8.53335,11.318018,9.921045,10.144434,10.936426
8.952295,11.207911,10.152002,10.450342,11.159571
9.389551,11.243311,10.616358,10.708155,11.454493
10.016504,11.187159,10.978907,10.766504,11.7442875
10.568018,11.302881,11.065088,10.9786625,12.516016
10.943018,11.342188,11.284082,11.255762,13.307764
11.587061,11.311182,11.595362,11.729883,14.469385
11.984034,11.477686,11.897364,12.270655,14.989893
12.448389,11.570948,11.936914,12.590235,14.808741
13.233545,11.846827,12.0082035,13.152979,14.524805
13.454248,12.027979,11.986475,13.475,13.681055
12.920069,11.844873,11.926172,13.319727,13.09585
13.377832,11.81167,12.146631,12.938135,12.799463
13.260157,11.937159,12.066065,12.460596,13.094385
12.758936,12.130274,12.296534,12.474756,13.280664
12.304346,12.283106,12.461573,12.367334,13.156153
11.890284,12.4769535,12.455713,12.177881,12.859278
11.644434,12.444239,12.291651,11.972071,12.677149
11.534327,12.292871,12.150049,11.773096,12.452295
11.465967,12.203516,11.911768,11.048243,12.175196
11.330225,12.097559,11.644922,10.6332035,11.964746
11.110254,11.95669,10.697168,10.204493,11.703028
10.594873,11.707178,9.846338,9.786036,11.345362
10.38833,11.553858,8.813623,9.013819,10.543116
10.029932,11.555811,9.462061,9.085108,10.531885
9.833887,11.587061,10.391993,10.01919,11.231104
9.53335,11.559473,10.930323,10.39126,11.830225
9.888575,11.543604,11.677149,10.970362,12.28042
10.694727,11.454248,12.307764,11.849024,12.382715
10.896387,11.457178,12.865381,11.974756,12.542871
10.522608,11.248926,13.384424,12.671534,12.830469
11.310938,11.327295,13.267237,13.39419,13.139795
11.59878,11.242334,13.372461,12.744532,13.625147
11.250879,11.315088,13.300684,13.217676,14.142725
10.774805,11.719141,13.146875,12.875391,13.727686
10.677881,12.155909,12.570459,12.518702,13.429834
10.495508,11.988672,12.137354,12.059473,12.574366
10.288477,11.646143,11.547754,11.440577,11.747705
9.423487,11.535303,10.62002,10.728174,11.495752
8.7755375,11.79043,9.965723,9.80044,10.5255375
9.058741,11.910791,9.937159,9.451319,10.468653
8.705469,11.848047,9.1939945,9.620264,10.309473
8.212793,11.485254,8.838282,9.326075,9.771387
8.1002445,11.238428,8.460596,8.88125,9.846582
8.267237,11.073145,8.253321,8.697657,9.370996
8.114161,10.826807,8.685205,8.156641,9.1192875
7.790918,10.58584,7.5401855,7.8524413,8.767969
7.415918,10.250147,7.5213866,6.7779784,9.112207
6.9200683,10.209864,7.0001464,6.605615,9.169092
6.832422,10.200342,7.8819823,7.962793,9.475489
7.5404296,10.02627,9.061426,8.775293,10.198145
8.36709,10.06753,9.296289,9.17959,10.590723
9.545069,10.048487,10.003809,9.901758,11.147608
8.938623,10.270411,10.719873,8.9613285,11.403467
10.457911,10.349024,11.212549,9.98794,12.024073
10.173731,10.628077,10.780664,8.644922,12.000147
9.092188,10.554102,9.705713,10.197901,11.757227
9.884424,10.577784,11.460108,10.968653,12.414942
9.404932,10.745508,11.534327,11.11709,12.362207
8.576319,11.071924,11.150782,10.750391,12.001123
8.890284,11.253565,10.579004,10.317041,11.444239
7.581201,11.264307,9.718897,9.212793,10.907129
6.796045,11.486719,8.488672,8.441065,9.76211
6.2328124,11.535547,7.542627,7.2936034,9.39834
5.751611,11.261866,6.734033,6.5333495,8.819971
5.724756,11.041895,6.3558593,6.348779,8.399561
5.195459,10.829981,6.152246,6.329492,8.085108
4.8143554,10.409815,5.937158,6.4449706,7.553613
4.9325194,10.238672,5.4381347,6.032617,7.648828
4.8160644,10.121241,6.002588,6.5077147,7.477197
4.608789,9.966211,6.417627,6.35708,7.4171386
4.4549804,9.912989,6.4916015,6.5926757,7.7003417
4.704248,9.902735,7.164209,7.21792,8.427393
5.8827147,9.911036,8.309473,7.848535,9.1
7.1080565,9.90835,8.366358,8.082422,9.682032
7.929834,9.99209,9.355371,9.271631,9.816309
8.884668,10.174952,10.898584,10.5375,10.515528
8.798975,10.265039,10.7911625,11.201807,11.372705
9.615137,10.424219,11.231592,10.484278,11.730371
10.521387,10.707666,10.816797,10.3832035,12.636866
10.941309,10.843897,11.261866,11.295801,12.952784
10.167871,11.02334,11.496973,12.125879,12.955225
11.188623,11.128077,12.753565,12.204737,13.235498
9.946436,11.2252445,11.986963,11.034815,12.84292
10.054834,11.270411,10.748926,11.039942,12.47085
9.548975,11.354395,10.745264,10.258936,11.88418
8.309473,11.418604,10.137842,9.962793,11.396875
6.964502,11.418116,9.438379,8.844385,10.636866
6.52749,11.4667,7.693506,8.653467,9.388575
6.214746,11.393213,7.3702636,7.7035155,9.072168
6.093164,11.106592,7.6065917,7.5313964,8.87002
5.8531737,11.026514,7.2569823,6.5780272,8.09292
5.4083495,10.651514,6.4010253,6.0628905,8.371729
5.794824,10.402246,6.404199,5.569238,7.5436034
5.5907226,10.294336,6.389795,5.0904784,7.167627
5.1656737,10.164942,6.359033,4.9125,6.9066405
5.652246,10.277246,6.4669433,5.708154,8.308252
6.690576,10.246241,7.072412,7.0580077,10.166895
7.9566894,10.436182,7.9920897,8.327051,10.028223
8.920313,10.812403,9.108057,9.604883,9.58169
10.156397,10.764551,10.649317,10.721827,10.968653
11.292871,10.663477,11.947168,11.771875,11.705713
11.526514,10.655176,12.881006,12.477686,11.868555
11.325342,10.658106,13.328028,12.472315,12.562159
12.081446,10.737452,13.777735,12.765039,12.983789
12.414209,10.887354,13.6036625,13.130762,12.913965
12.459375,11.013819,13.269434,13.188868,13.177393
12.674219,11.104883,13.582422,13.126612,13.311426
11.895655,11.187403,13.045557,12.625879,12.934229
10.8692875,11.241114,12.192041,11.789698,11.382227
9.827539,11.38833,10.406153,10.642237,10.183985
8.407618,11.4300785,9.502588,10.070459,9.987207
7.6495605,11.190332,9.024073,9.395166,9.626368
6.589746,11.182764,8.412256,8.850733,9.545069
6.1705565,11.312403,7.8663573,8.413477,9.626368
5.6148925,11.294336,7.464746,8.148096,9.41836
4.876123,11.331934,7.815332,8.061914,9.303125
6.0819335,11.401026,7.730615,8.06875,9.660791
6.330713,11.380518,7.9000487,8.012354,9.910303
6.473047,11.386621,8.220606,8.1817875,10.067774
7.2384276,11.464991,8.850977,8.785547,10.569483
8.121241,11.549707,9.033594,9.364405,11.320459
8.945459,11.628077,9.569727,10.238672,11.46792
10.1957035,11.697168,9.984522,10.642237,11.409815
11.325098,11.632715,10.46377,10.46084,11.286036
12.078028,11.378565,10.109766,10.312647,11.083887
12.402735,11.461573,10.206934,10.464014,10.882715
12.202051,11.356836,10.051416,10.561182,10.804346
11.870996,11.29336,10.25918,10.587549,10.948145
11.530664,11.379297,10.406153,10.881983,10.932764
10.954248,11.497705,10.421289,10.972559,10.92959
10.304834,11.407862,10.332178,11.078028,10.877588
9.433008,11.386377,10.277979,11.079004,10.91128
9.107813,11.4667,10.20083,11.0394535,10.993555
9.161036,11.532618,10.094873,10.904444,10.985254
9.249659,11.498438,10.094385,10.798975,10.94961
9.429102,11.45669,10.194727,10.710596,10.988672
9.413477,11.488916,10.297022,10.670801,11.0533695
9.300196,11.633692,10.348047,10.608301,11.040186
9.347559,11.757959,10.406153,10.4667,11.062647
9.358301,11.735498,10.42251,10.41836,11.099268
9.415918,11.874903,10.455713,10.476465,11.163721
9.464014,11.979639,10.52627,10.484766,11.208399
9.531885,11.962061,10.637354,10.504541,11.266748
9.715967,11.900782,10.9283695,10.860987,11.373438
9.992334,11.860498,11.415186,11.571436,11.601709
10.288233,11.836084,11.903223,12.326807,12.122217
10.660059,11.812159,12.40835,12.969385,12.657618
11.001368,11.815577,12.977442,13.88003,12.961084
11.688623,11.813135,13.626612,14.631739,12.970606
12.368067,11.671289,14.124903,15.234522,12.880762
12.559717,11.777735,14.163477,15.719873,12.84878
12.993067,11.711084,14.9769535,15.732325,12.77334
13.116114,11.787989,15.478907,15.931299,13.043604
13.231104,11.958399,15.572657,16.115625,13.745752
13.061914,12.010401,15.255274,16.111475,14.330957
12.85293,12.011621,14.952051,15.74502,14.434229
12.660791,11.982569,13.9667,14.932276,13.603174
12.321192,11.957911,13.025049,13.510157,12.204981
12.005518,11.864893,12.322657,12.324854,10.578516
11.882471,11.656641,12.0255375,11.093897,10.1505375
11.762842,11.522852,11.761133,10.69961,10.110987
11.610498,11.494043,11.486231,11.146387,10.205469
11.342188,11.576563,11.209864,11.193262,10.402491
11.021631,11.644678,10.517969,11.224024,10.129786
10.755762,11.748438,10.277735,11.177393,9.946192
10.631983,11.859766,10.51333,11.06753,9.984522
10.563868,11.967188,10.6627445,10.857813,10.129541
10.868311,12.080469,11.029444,10.977442,11.059473
11.21084,12.16128,11.524317,11.322657,12.067774
11.806543,12.236719,12.24795,11.9667,13.042139
12.566309,12.327539,13.173975,12.847315,13.98086
13.419092,12.487452,14.117334,13.580957,14.800196
14.49502,12.625391,14.97378,13.610254,15.409082
15.48086,12.66958,14.684229,13.839014,15.23208
16.183252,12.692286,13.746973,14.423731,14.733545
16.679102,12.65542,13.689844,14.883936,15.934473
16.762354,12.730371,14.954737,15.019434,15.123682
16.918848,12.790918,15.064356,14.813135,15.253077
16.596094,12.731836,15.059473,14.361963,15.492334
15.777735,12.565088,14.371729,14.1488285,15.214014
15.0082035,12.611719,13.515528,14.212061,14.522364
14.375147,12.569239,13.207666,13.964746,12.816553
13.575342,12.549463,12.502344,13.192041,11.397608
13.320459,12.740137,10.914698,12.384668,11.329493
13.265284,12.927881,10.887842,11.79458,11.948877
13.232569,12.761866,9.149073,11.294336,11.950342
13.122461,12.825098,8.379541,10.297266,12.066065
12.947657,12.799219,8.123194,9.989161,11.282618
12.770166,12.721338,7.9171386,9.881983,10.736231
12.846827,12.802637,7.9203124,9.691797,10.368067
13.034082,12.902735,8.802881,9.658594,10.697901
13.480127,12.8771,10.330957,10.498194,12.261377
14.471094,12.887842,11.629297,11.718653,13.440821
15.481836,12.828272,13.123682,13.224756,14.726465
16.520655,12.989161,14.826563,14.811914,16.199854
17.200098,12.988184,16.543604,16.20791,17.31338
18.234034,13.143946,17.62295,17.374659,18.25088
17.139307,13.144922,18.39712,18.06582,17.68252
17.447168,13.168116,18.912745,18.579248,17.67837
18.730127,11.851709,19.369776,19.20083,17.609766
18.170313,10.857325,19.696192,18.978662,17.406885
17.885645,10.969141,19.746973,17.979395,17.67666
18.999659,10.763819,19.478174,17.59707,17.773829
18.58462,10.4457035,18.010645,17.739893,17.150293
17.571924,10.669092,16.965235,17.000147,16.241114
16.634668,11.006739,15.456446,15.34878,14.410547
16.367579,11.053614,14.39834,13.504053,12.238184
16.174463,11.053858,13.082911,12.140772,10.632227
15.268213,11.17544,11.421045,12.379053,10.275782
15.119043,12.05044,11.785059,12.098047,9.932032
14.761377,12.5082035,10.844385,11.617334,10.020899
14.24502,13.1625,9.030909,10.81875,9.838282
13.94961,13.510401,9.416407,10.087061,9.507227
13.633448,13.535791,9.220118,9.80752,9.452051
13.47085,13.756006,9.956202,10.516504,9.791407
14.059717,13.737207,12.484522,11.8519535,11.298487
15.203272,13.787012,14.155909,13.38711,13.115137
16.305323,12.812403,15.602442,15.109766,14.48086
17.333399,12.5221195,17.434961,16.802637,15.8417
18.424707,12.353418,18.842676,18.215967,16.725489
19.49624,12.112696,19.58169,19.346582,17.642725
20.06753,12.16128,20.115381,20.28335,18.525537
19.954248,12.2096195,20.600245,20.830957,19.04922
20.815088,12.545801,20.880762,21.17837,19.314844
21.101954,12.372217,20.923487,21.419825,19.193018
21.365381,12.583399,20.731592,21.251368,18.870752
21.245264,13.83169,20.17422,20.835596,18.279444
20.852686,14.049219,19.536768,20.132715,17.33462
19.9479,13.994532,18.364649,19.100489,15.948389
18.10415,14.357813,16.640772,16.998438,14.062159
17.203272,14.796289,15.454737,14.094385,11.951807
16.514551,14.579493,13.942774,13.069483,11.582911
14.638575,14.401514,12.452539,13.6192875,11.466211
15.019434,14.231592,12.358545,12.889551,11.331202
14.911524,14.039942,11.986475,11.796534,11.152002
14.949121,13.605127,11.198633,11.475977,10.91958
13.997461,12.663233,10.142725,11.42544,10.912989
13.098536,12.559717,8.5533695,11.027979,11.266748
13.082666,12.937159,9.496485,11.213282,11.901758
14.481104,13.25503,12.403223,12.4596195,12.765284
15.422998,13.46792,14.021631,13.824121,13.00625
16.17837,13.2167,15.782862,15.325586,13.216455
16.708155,12.986475,16.985254,16.472559,13.465479
17.278467,12.795557,17.891016,17.492579,13.631006
17.772608,12.728174,18.824121,18.082178,13.624659
18.14004,12.715723,19.517725,18.140528,13.669336
18.114893,12.823389,19.614649,17.901514,13.938868
17.992579,12.849024,19.045313,17.03213,14.758448
17.927637,12.937403,16.929102,16.79336,14.223536
17.382471,13.1800785,16.918604,17.004786,14.483301
16.423487,13.379297,16.768946,17.13833,14.537989
15.225489,13.587793,16.798487,16.783838,13.807764
14.082911,14.170801,16.427881,16.039454,12.865381
12.770411,13.390772,15.011133,14.829493,11.950586
11.301905,12.700342,13.387842,13.4042,11.339746
10.859766,12.288477,12.494043,12.929346,10.840479
10.829737,11.960596,12.16958,12.077295,10.79751
10.521875,11.973291,11.361963,10.669092,10.80459
10.597315,11.856348,10.060938,9.705957,10.391504
10.65127,11.487452,9.253321,9.532618,9.911036
10.628077,11.169825,8.244043,8.9667,9.647364
10.320215,10.9786625,7.4867187,8.6644535,9.398096
10.746973,10.541651,7.9674315,8.616846,9.220606
11.843653,10.590967,9.579981,9.739405,10.169092
12.224756,10.952539,11.584864,11.068262,11.326563
12.982325,11.732569,12.993799,12.190577,12.067286
14.246485,12.573877,13.993067,13.405176,12.798243
15.332178,13.066065,15.013086,14.765772,13.637598
16.390284,12.986475,15.99795,16.065088,14.323633
16.965967,12.940577,16.995508,17.134668,14.892725
17.360498,12.852198,18.02334,18.086329,15.397852
18.093653,12.812891,18.86172,18.93081,15.5846195
18.417627,12.823633,19.15835,19.531641,15.688379
18.741846,12.931055,18.979395,19.566309,15.816553
18.880762,12.924707,18.365625,18.98623,15.818506
18.559229,12.839991,17.592188,17.983545,15.351709
17.701319,12.683496,16.500635,17.055323,15.415186
15.283838,12.8849125,14.705713,15.264551,13.53335
13.674952,13.064356,12.49209,13.629541,11.253565
13.825342,12.88711,11.597071,12.599024,10.432032
12.754541,12.7792,11.011621,11.64419,10.850733
11.983301,13.10586,10.174707,10.932032,11.104639
11.868799,12.934229,10.180567,10.706446,11.022608
11.775293,12.899561,9.824854,10.645166,10.66128
11.500635,13.015039,10.635645,11.058008,10.832422
11.359766,13.077539,10.6939945,11.385889,11.056543
11.4908695,13.062891,10.085352,10.774317,11.35586
12.420557,13.2269535,11.570215,11.342188,12.31753
13.536036,13.125635,13.479151,12.911768,13.001856
14.56875,13.092432,14.165674,14.176416,13.440577
15.733545,13.141993,14.640772,14.636133,13.768946
16.693018,13.246241,13.968653,13.878077,13.192286
17.132227,13.046778,13.265039,12.704004,12.393457
17.221094,13.087549,11.938379,12.280909,13.234034
16.052393,13.316309,11.714502,12.010645,13.23208
14.720606,12.543604,11.394922,9.903955,11.269678
13.925928,11.939356,10.412256,11.228907,12.2911625
13.579248,12.220362,12.373438,12.958155,13.35293
9.755518,12.387842,13.17544,12.993799,13.627588
9.763575,12.646143,12.846582,12.483301,13.096338
10.234766,12.994776,11.64834,11.38418,12.536524
10.026026,13.10708,10.07168,9.721094,11.399073
8.8771,13.023584,8.916407,8.911768,10.518946
8.6019535,12.809961,8.107813,8.469629,10.44668
7.926172,12.172754,7.660547,7.8197265,10.277002
7.336572,11.938623,7.629785,7.5106444,9.73794
6.784082,11.48086,7.485742,7.3250976,9.600733
6.412744,11.09292,6.9706054,7.0643554,9.410303
6.1615233,10.844141,7.0382323,7.025293,8.440332
5.778711,10.833155,6.7555175,7.1895995,8.396631
6.100244,10.6505375,6.9935546,7.7281737,8.830713
6.3358397,10.528467,8.449854,8.411768,9.486719
7.409082,10.532129,9.092676,8.8692875,10.029444
7.891504,10.625879,10.086817,8.301172,10.608301
8.997461,10.782862,10.204737,9.509424,11.079493
9.988428,11.075342,11.304834,10.036768,11.761133
10.40542,11.427149,11.359522,10.987207,12.552881
10.147608,11.605616,12.119043,11.879053,12.6505375
11.315577,11.910303,10.73086,12.563868,13.21792
12.194483,11.479395,12.615625,12.297022,12.788965
12.426661,11.859034,13.028711,12.560938,12.667383
11.976465,11.878321,12.718409,12.28042,12.683741
11.199121,11.984766,12.224024,11.717676,12.946192
10.414209,11.958887,11.559473,11.392725,12.368311
8.806543,12.010645,10.822901,10.669825,11.738184
7.912744,12.032129,9.913721,9.754541,10.946436
6.8351073,12.096582,9.054102,8.77627,9.946924
7.1092772,12.2113285,8.533106,8.11709,9.5567875
6.610742,12.008936,8.020655,7.466699,10.2521
6.697168,11.809229,6.924707,6.791406,9.231836
6.407861,11.560938,6.386865,6.4171386,8.718409
5.765039,11.370264,6.100244,5.9813476,8.495996
5.396631,11.243799,5.6874022,5.794824,6.86416
5.1583495,11.10586,5.124414,5.673486,6.4444823
5.883203,11.003321,4.8836913,5.883447,6.3507323
6.445459,10.909815,6.4359374,7.169824,8.283594
7.197412,10.882715,8.204493,8.539698,10.05459
8.061426,10.811914,8.616114,9.360987,10.816797
8.864893,10.877832,9.753077,10.392969,11.4596195
9.685694,10.983301,11.515039,11.314112,11.581202
10.949366,11.123926,12.063868,11.819727,12.075586
11.499414,11.23794,12.5064945,11.564844,12.307276
11.596094,11.35293,10.970362,11.434717,11.68667
11.713526,11.489405,11.345606,11.176661,12.255762
11.555567,11.657373,11.593164,10.741602,12.330957
11.322168,11.727686,11.470118,11.537256,12.295069
11.115137,11.750635,11.297266,11.102442,11.687159
10.73794,11.572657,10.854883,10.728174,11.153467
10.436426,11.052393,9.964258,10.466944,10.933496
10.095362,11.381739,9.427881,9.97085,10.364405
9.291895,11.560694,8.365381,9.551172,10.220606
8.843653,11.4144535,8.44961,9.473291,10.403711
8.75503,11.204981,8.961817,9.470118,10.014795
8.609034,11.490625,8.809229,9.498926,10.0863285
8.6314945,11.505762,8.676416,9.150049,10.4786625
8.596094,11.871729,8.625391,8.743555,10.554102
8.467676,12.076075,8.610254,8.734766,10.9439945
8.271875,12.249903,8.643213,8.459864,11.290186
7.9068847,12.340235,8.798975,8.599756,11.707666
7.8541503,12.610254,9.091211,8.903467,11.83877
7.9688964,12.6800785,9.5377445,9.268702,12.001368
8.094629,12.586084,9.991846,9.467432,12.090723
8.645655,12.444971,10.038721,9.5724125,12.1271
9.548243,12.455469,10.382471,10.059473,12.105371
10.429834,12.381983,11.046045,11.558252,12.17251
11.136866,12.502588,11.9925785,12.23208,12.511866
11.723047,12.649561,12.03042,12.2877445,13.319727
11.92959,12.763086,12.297754,12.882227,14.473536
11.110743,12.88418,12.961084,13.287012,14.76626
11.03042,12.955713,13.2096195,13.5880375,14.519922
11.358545,13.007715,14.01626,14.4144535,15.326807
12.390284,13.10293,14.045801,14.127832,15.191065
12.278955,13.147364,13.5411625,12.989893,14.659327
11.965967,13.260889,12.626856,11.751123,13.849756
11.507715,13.564844,11.126123,10.808985,12.487207
11.165918,13.1542,9.940577,10.313135,11.998682
10.907129,12.866358,9.609278,9.78628,11.552149
10.064844,12.657618,9.098536,9.164942,11.374903
9.380518,12.268702,8.729151,8.724756,11.105371
8.8346195,12.006983,8.794092,8.886621,10.558008
8.545557,11.806543,8.751856,8.933008,10.41543
8.164209,11.856836,8.671778,8.731836,10.277979
8.05044,11.581446,8.804346,8.25625,10.136377
8.275293,11.474024,9.150782,8.803858,10.456202
8.639307,10.616358,9.785059,8.9439945,9.820215
9.44375,10.525782,10.499903,9.618067,9.49917
9.802393,10.113184,10.755762,10.688623,9.127832
9.962305,10.534082,10.89126,10.071436,9.302637
10.17544,11.032862,10.526758,10.032129,9.625635
10.118311,11.755518,10.73086,10.410303,10.097803
10.33584,11.51919,10.516016,10.696192,10.683496
10.173243,11.332422,10.152491,10.608789,10.603418
9.53628,11.740625,10.236231,10.076075,10.711817
9.070459,12.007471,9.9786625,10.089502,11.170801
8.886377,11.99209,9.749414,10.317041,11.581934
8.97793,12.110987,9.920557,10.236719,11.713526
9.463282,12.567041,10.3988285,10.386621,12.187159
9.797998,13.070459,10.663721,10.585596,12.187403
10.143213,13.356836,9.698633,9.254786,11.987452
10.395899,13.008448,8.292627,7.924707,11.071192
9.898096,12.354395,7.470361,7.2503905,9.978174
9.109034,11.889063,7.0506835,6.6065917,8.8658695
8.186914,11.525293,6.3478026,6.15249,8.733789
7.296045,11.07876,5.971338,5.8160644,8.344141
6.33999,10.877832,5.322412,5.3929687,8.906885
5.8700194,10.885645,5.039697,5.6754394,8.182032
5.5643554,10.699854,5.5213866,6.009912,8.326319
5.9017577,10.722315,6.7540526,6.6231933,9.000635
6.9200683,10.8033695,7.858545,7.7105956,9.6332035
8.05752,10.780664,8.7792,8.51333,10.453272
9.09292,10.813135,9.731836,9.400782,10.886133
9.774073,10.968897,10.454737,9.832422,11.387842
10.48086,11.315332,11.297754,10.561426,12.059229
9.625147,11.485254,10.88833,11.040918,12.805323
10.371729,11.766504,12.468653,12.434473,13.346338
11.570459,11.969873,13.077784,12.903711,13.873438
11.666895,12.087549,13.069483,13.070948,13.648096
11.33584,12.165674,13.059473,13.108057,13.768457
11.621241,12.169336,12.515528,12.845118,13.402979
11.08169,12.204493,12.278223,12.374414,12.853174
11.187159,12.304102,11.342676,11.523584,12.162256
10.508448,12.306299,10.22793,10.556299,11.481836
9.365137,12.136377,9.037256,9.065577,10.94668
8.579981,12.071436,8.366358,8.330225,10.8849125
8.190577,12.111719,7.1341796,8.177149,11.064844
8.174952,12.156885,6.7953124,7.7853026,11.092432
8.850977,11.836084,8.158106,7.8387694,11.059961
9.048243,11.627832,8.388086,7.9322753,10.983057
8.804346,11.723536,8.687891,8.011621,10.731592
8.8971195,11.873926,8.821192,8.233789,10.487207
9.099512,11.924219,9.247705,8.600977,10.370508
9.408838,12.035547,9.023096,9.016504,10.626612
9.945215,11.991846,8.911768,9.265772,10.7269535
10.534327,12.059229,8.93252,8.84585,10.902002
11.069483,13.017237,9.048975,8.883936,11.086573
11.733789,13.327784,9.554102,9.239161,11.389063
12.126856,13.308252,10.337305,9.955957,11.875879
12.403711,13.309717,11.081934,10.628077,13.258936
13.105371,13.46084,11.384668,11.227442,13.441797
13.900782,13.441553,11.5255375,11.610254,13.629297
14.387598,13.635645,11.878321,11.876123,13.6158695
14.377588,13.743555,12.353174,11.946192,13.663965
14.593897,13.6661625,12.959375,12.484278,13.477198
14.286768,13.551905,13.140284,12.868067,13.168848
13.922266,13.430323,13.189844,12.837305,12.923243
13.758692,13.2252445,12.906153,12.718164,12.707178
13.348536,12.981104,12.448877,12.567774,12.561182
13.110498,12.928125,12.712305,12.343653,12.474024
12.891993,12.761621,12.980127,12.375879,12.270411
12.54751,12.504297,12.639307,12.330469,11.730371
12.17959,12.12417,12.293604,12.153955,11.431055
12.170557,12.078516,12.176661,12.02627,11.341455
12.1974125,12.059229,12.143946,11.9005375,11.214502
12.191065,11.970118,12.1019535,11.749414,10.957178
12.205957,11.744532,12.0689945,11.491602,10.551905
12.351221,11.284327,12.073633,11.072901,10.30752
12.628077,11.212061,12.083399,10.879541,10.386621
12.964258,11.163233,11.315088,10.923487,10.358057
13.1505375,11.085352,11.580713,11.246485,10.458155
13.258692,10.91128,11.664942,11.706202,10.426661
13.093409,11.074121,12.027246,12.2564945,10.604639
12.042627,11.680811,12.406153,12.515039,11.059473
11.675684,11.954493,12.899317,12.9161625,11.415674
11.438868,12.238916,13.082178,12.864161,11.914942
11.413477,12.523096,12.950342,12.610498,12.238916
11.649805,12.749414,13.017237,12.679834,12.2894535
11.409327,12.933252,12.911036,12.516748,12.1314945
11.125391,12.64834,12.896631,12.430811,11.771875
10.9439945,12.527002,12.773096,12.161768,11.512354
10.787256,12.333399,12.311182,11.6542,11.183496
10.758692,12.04751,11.516504,11.147608,10.917871
10.89126,12.007715,11.232569,10.802881,10.829737
10.63125,12.124659,10.998682,10.471582,10.76626
10.4613285,11.9613285,10.557032,10.043604,10.73794
10.4474125,11.572901,10.3189945,9.839502,10.606104
10.391993,11.438135,10.176905,9.652491,10.640284
10.1974125,11.413477,9.903223,9.637354,10.700098
10.035791,11.445215,9.7167,9.599268,10.878321
9.841211,11.461573,9.609522,9.631983,11.304102
9.612696,11.641993,10.118799,9.98208,11.683741
9.578028,11.775782,10.798975,10.562159,12.021875
9.850977,12.178858,11.704737,11.364893,12.143213
9.876856,12.729639,12.495752,12.631739,12.434473
10.032618,12.677149,13.547998,13.613428,12.915674
10.308496,12.575098,14.088526,14.434473,13.255274
10.359034,12.664698,14.533594,14.853907,13.605371
10.272364,12.620996,15.194971,15.1896,13.322657
10.353418,12.722071,15.140772,15.308985,14.270899
10.563135,12.860498,15.154688,15.476465,14.406641
11.077295,13.026758,15.039698,15.372217,14.508448
11.714991,12.447168,14.817286,15.250147,14.4630375
11.587305,12.392481,14.437647,14.809717,14.087793
11.355127,12.362452,13.724756,14.185205,13.051416
10.613916,12.347315,12.685938,12.895655,11.928614
9.663965,12.509668,10.174707,11.094873,9.902246
9.141748,12.646631,8.365137,10.694483,8.532618
9.270166,12.548243,7.185449,9.778223,9.315088
8.634424,12.437647,7.336572,9.116602,9.251368
8.000147,12.647608,7.6393065,8.797022,9.053858
7.767236,12.704737,7.237695,8.705469,8.545557
7.317529,12.698145,6.596826,8.098047,8.121973
7.28042,12.594141,6.209131,7.8634276,7.700586
7.4220214,11.846582,6.7621093,8.39834,7.7037597
7.6930175,12.012354,8.886133,9.813623,9.316553
9.502588,12.440332,10.333155,11.436426,11.701319
11.145899,12.408838,11.898584,12.9474125,13.414698
12.258448,12.52627,13.477198,14.010645,14.507715
13.407373,12.784327,15.088282,15.348291,15.482813
14.996241,12.914698,16.487207,15.910303,15.825586
16.34707,12.911768,16.881495,16.334864,15.817286
16.580713,12.920069,17.313623,17.041407,15.554834
16.405176,13.001123,16.982325,17.248926,15.273096
15.141016,13.089746,15.660059,16.590967,15.07583
13.73208,13.195459,13.791895,14.555567,14.927393
12.546289,13.334131,13.467188,13.400782,14.681299
10.665674,13.340479,13.21084,13.056543,14.08877
8.486231,13.312647,12.109766,12.16128,13.308985
7.409326,13.254541,10.7738285,10.757227,12.452051
7.053125,12.847315,9.315332,9.467188,11.911768
6.886865,12.516993,8.28628,9.1783695,12.0099125
6.936914,12.475977,7.9913573,9.154688,12.012842
7.0663085,12.511377,8.237207,8.463282,12.1192875
