"[299, 255]","[227, 248]","[287, 319]","[279, 328]","[230, 262]"
5.0018554,12.315088,6.704736,6.459863,9.188379
5.1839843,12.293848,6.2691894,6.4620605,8.96084
5.382959,12.4161625,6.317285,6.1114745,8.921289
5.3858886,12.527979,5.874414,6.0919433,8.763575
5.141748,12.416407,5.438379,6.1354003,8.555811
5.070703,12.404444,5.284082,6.0902343,8.0880375
4.916162,12.692774,4.672754,6.059961,8.126123
4.5736327,12.591211,3.711328,6.412744,7.619043
5.2257323,12.645411,4.0450683,6.459619,7.9449706
5.863672,12.875391,5.742822,7.1478515,9.120264
6.53457,13.0221195,8.158594,8.156641,10.52334
7.1791015,13.2875,8.995996,8.857569,11.446436
7.666406,13.364649,9.504297,9.388575,11.798731
7.843164,13.391016,9.508448,9.424707,11.622217
7.952783,13.422998,8.687647,9.043116,11.076075
7.379785,13.536524,7.680078,7.6686034,10.127588
7.241113,13.627588,7.433496,7.282861,9.443262
6.7989745,13.654444,7.1302733,7.1756835,9.314844
6.564111,13.596338,5.7486815,7.204248,9.180323
6.187158,13.491358,5.520654,6.8055663,9.593164
6.353662,13.558008,6.1358886,6.7171874,9.602686
6.567041,13.7252445,6.3756347,6.657373,10.386377
6.4918456,13.922998,6.8561034,6.7621093,11.153223
6.5624022,13.952539,7.744043,7.5091796,11.497217
6.7347655,13.624903,7.9864745,8.18667,11.018702
7.003076,13.450586,8.551661,8.011133,10.542383
7.233545,12.674952,8.803614,8.26919,10.554834
7.534082,12.491602,9.042139,8.726709,10.407373
7.589746,12.746973,8.44668,8.5411625,10.542383
7.4295897,14.1974125,7.9847655,7.843164,11.781885
7.365625,15.0550785,8.641504,8.3067875,13.688379
7.8739257,15.396875,9.158594,8.923243,14.250391
8.981592,15.6627445,10.169825,9.736963,14.69253
9.990625,15.944971,11.823389,12.176661,15.09292
11.237452,16.129297,14.01211,13.532373,14.920313
12.228174,15.529932,13.626856,12.953272,13.978174
12.499414,14.980616,12.767481,12.332911,13.123682
11.535791,14.311426,11.419825,11.032862,12.104639
9.866358,13.853907,10.152735,10.029932,11.73501
9.335108,13.583887,9.257715,9.286036,11.39834
8.568018,13.409327,8.921534,8.969141,11.161524
8.157618,13.082178,8.660547,8.18545,10.688623
7.9757323,13.0292,7.8424315,7.7655272,10.234278
7.5179687,12.197168,7.5069823,7.529199,9.826075
6.738916,12.204493,7.5301757,7.2140136,9.781153
6.4183593,12.063379,7.014795,6.8109374,9.627344
6.3246093,12.4439945,6.8285155,6.7628417,9.950586
6.081445,12.113672,7.009668,6.8565917,10.071436
5.8336425,12.219385,7.1080565,7.119287,10.034082
5.9139647,12.309473,7.2274413,7.2433105,9.732569
5.9466796,12.128077,7.5367675,7.5399413,9.726709
6.1112304,12.219629,7.735986,7.6688476,9.708399
6.8004394,12.141016,7.88833,7.8062987,9.975733
7.1041503,12.232569,7.6949706,7.671289,10.046045
6.752588,12.2564945,7.7916503,7.7384276,10.100977
7.1083007,12.238916,7.514795,7.448877,10.363916
6.9015136,12.246973,7.5577636,7.432031,10.408838
7.1668944,12.282129,7.771875,7.6341796,10.626612
7.3617187,12.31875,8.436914,8.410059,11.0255375
7.6930175,12.375147,9.001123,8.831202,11.193506
7.728662,12.447168,9.3502445,9.129786,11.278223
7.714746,12.53628,9.1661625,9.00503,11.344141
7.4464355,12.698633,8.682032,8.675928,11.17544
7.2816405,12.743311,8.26211,7.794824,10.785303
7.228662,12.896143,7.3578124,7.2794433,10.912256
7.0108886,12.732813,7.5384765,7.1847167,10.600489
7.1134276,12.68252,6.9972167,6.832422,10.331446
7.110742,12.54043,5.7506347,6.7816405,10.569239
6.912988,12.602686,4.921289,6.61416,10.61709
6.7628417,12.843409,4.5128417,6.6979003,10.578028
6.7552733,12.510889,3.8712401,6.6825194,10.615625
6.1566405,12.730371,3.5113769,6.397119,10.762598
5.9481444,12.902246,3.5709472,6.3827147,10.879297
5.5277343,12.975,3.9918456,6.5125976,10.952539
5.168115,12.889307,4.455957,6.299463,10.937159
5.4725585,13.121241,4.770654,6.0750976,10.946924
5.8773437,12.825586,4.051172,5.330713,11.25918
5.9688964,12.920801,3.704248,4.8946776,11.062159
5.4342284,13.007959,2.4168944,4.6395507,10.939844
4.792627,13.092432,1.987207,4.5418944,11.019922
4.4671874,13.289942,2.109033,4.4217772,10.961084
5.03042,13.10708,3.4303222,4.747461,11.021143
5.7020507,13.050928,4.4444823,5.4503417,11.084864
6.228662,13.257227,5.3770995,6.152246,11.031641
6.4027343,13.347315,6.052881,6.5040526,11.104151
6.3731933,12.547266,6.064111,6.462793,11.166407
5.918115,12.610987,5.02041,5.801172,11.032373
4.5763183,12.903223,3.612451,4.6830077,10.539942
3.431787,13.118311,2.6300292,3.6981444,10.244776
3.1063476,13.407862,1.9723145,3.8106933,10.144922
3.6195312,13.306055,2.5721679,3.9254394,10.162989
4.001367,12.839502,3.2437987,4.122461,10.202539
4.225,12.550684,3.6290526,4.072656,10.4042
4.4117675,12.453272,3.9251952,4.179834,10.5411625
4.7013183,12.652735,4.317285,4.395166,10.6332035
4.64541,12.978418,4.775293,4.796045,10.567286
4.7813964,13.274561,5.034082,4.8421874,10.728907
5.0973144,13.455957,5.161279,5.072412,10.930323
5.1981444,13.429834,5.202783,5.3270507,11.021143
5.2953124,13.504541,5.4571776,5.5450683,11.168604
5.3580565,13.887598,5.7450194,5.7455077,11.416895
5.65957,13.672998,6.0003905,5.822656,11.73208
5.881738,13.608789,6.0233397,6.1529784,11.888819
5.9469237,13.906153,6.209131,6.1117187,12.012598
5.75625,13.797266,6.362695,6.216211,12.20376
6.36416,13.524073,7.0245605,6.7889647,12.33584
6.886377,13.686182,7.7799315,7.711572,12.475
7.572168,13.811182,8.582911,8.354151,12.6800785
8.299707,14.178125,8.923731,8.5255375,12.916407
8.501612,14.305811,8.888819,8.656397,13.218653
8.445948,14.426661,8.744532,8.835108,13.341211
8.166407,14.313135,8.458643,8.85,13.360743
8.095606,14.208399,8.996729,8.943506,13.3067875
8.319483,14.089258,9.502344,9.206446,13.263086
8.421778,14.171045,9.572168,9.405909,13.304102
8.449854,14.23208,9.899317,9.672754,13.261133
8.498682,14.34292,9.6817875,10.003565,13.35293
8.457911,14.664698,10.465479,10.270411,13.501612
8.738184,14.459864,10.878077,10.462793,13.843409
9.186426,14.527491,11.109522,10.608057,13.924952
9.583643,15.083643,11.597315,10.732569,14.371485
9.927637,15.173487,11.418848,11.262842,14.685205
10.399317,15.17544,12.0082035,11.393457,14.706202
10.941553,15.121241,11.987452,11.769434,14.69253
11.396631,15.160547,12.207911,11.936914,14.680811
11.622461,15.094385,12.715967,12.032862,14.688135
12.047754,15.142237,13.257471,12.881739,14.709864
12.363916,15.279932,13.689356,13.306543,14.920313
12.560694,15.580957,13.92251,13.7582035,15.034327
12.730371,15.664209,14.115625,14.085352,15.026026
13.028467,15.575342,14.275049,14.251368,15.120752
13.270411,15.645166,14.204981,14.178125,15.139551
13.436426,15.580469,14.166651,14.205957,15.187159
13.542139,15.457178,14.224024,14.010645,15.091455
13.398584,15.429102,13.8971195,13.5707035,14.973047
13.2408695,15.382227,12.554102,12.3346195,14.907618
13.141504,15.322901,11.485498,11.88125,14.791407
13.115625,15.300928,11.558985,11.852442,14.604151
12.910791,15.319971,12.119532,11.903711,14.415186
12.477198,15.390284,12.421778,12.077295,14.308985
12.007959,15.510889,12.748194,12.489649,14.32876
11.840235,15.528467,13.529932,13.181299,14.348536
12.052637,15.520899,13.592676,13.448389,14.476465
12.089502,15.497705,13.516993,13.482569,14.591455
12.091211,15.393946,13.19668,13.463526,14.623194
12.099512,15.284327,13.060205,13.407373,14.7269535
12.150782,15.168848,13.337793,13.517237,14.657618
12.156641,15.207911,13.785791,13.691309,14.645166
12.347315,15.4474125,13.878565,13.608301,14.769434
12.567041,15.266016,13.854151,13.532618,14.774805
12.768457,15.215723,13.628565,13.111231,14.7721195
12.956934,15.207666,13.047266,12.121241,14.866846
13.024805,15.278955,12.330225,11.534815,14.348047
13.147608,15.308985,11.960352,11.315088,13.177881
13.277735,14.791895,11.847315,11.088526,13.025293
13.432764,13.825098,11.697168,11.128565,12.799952
13.218653,13.572168,11.690821,10.863428,12.568018
12.625879,13.248682,11.511866,9.9127445,12.3675785
12.168604,13.238672,10.877588,9.458887,12.214502
11.7582035,13.038965,10.1542,9.241114,11.812891
11.309473,12.893213,9.643457,8.969629,11.499903
11.086817,13.040918,9.294336,8.672022,11.411768
10.937159,13.0533695,8.943262,8.365625,11.377588
10.640039,13.081934,8.624659,7.52749,11.262842
9.994532,13.037012,8.093897,6.9139647,11.16836
9.439356,12.734766,7.400537,6.69082,10.988184
9.057764,11.938868,6.3558593,6.610986,10.561914
8.785303,11.796045,6.182031,6.7657714,10.364405
8.514307,11.461573,6.4955077,6.864404,10.238184
8.473047,11.145655,6.667871,6.8773437,9.91128
8.332178,11.0099125,6.6708007,6.8333983,9.208887
8.009668,10.69253,6.7748046,6.700586,8.840479
8.072901,10.351221,6.6671386,6.5487304,8.943018
7.911279,10.321924,5.81875,6.1515136,8.814844
7.5628905,10.228174,5.044824,5.3617187,8.969873
7.5926757,10.576563,4.272363,4.921289,9.316553
7.6700683,11.270411,3.6561522,4.7135253,9.354639
7.9740233,11.510889,4.7208495,5.303613,9.861231
8.4474125,11.657373,5.58291,6.079492,10.684961
8.484766,11.85,6.1969237,6.756006,11.116602
8.8067875,12.066065,6.7118163,7.226709,11.317041
8.849024,12.340723,6.97207,7.2801757,11.22793
8.3849125,12.472559,6.3578124,6.697412,10.674219
7.0179687,12.374659,4.9034667,5.692529,9.538233
6.2867675,11.988428,3.9686522,5.025293,8.630274
5.9842772,11.422022,3.973535,4.136865,8.095362
5.7174315,11.195459,3.2777343,3.0140624,7.7418456
5.5787597,11.221094,2.4540038,3.2818847,7.322168
5.532373,11.28042,2.3810058,3.8817382,6.9933105
5.5245605,11.326319,2.7308593,3.6178222,6.2811522
5.3211913,11.3519535,2.7804198,3.596826,5.891748
5.0958495,11.69961,2.8390136,3.589746,6.058252
4.9359374,11.868555,2.280908,3.751123,6.105127
4.737451,11.805323,2.504541,3.9166503,6.011621
4.693994,12.157862,3.2179198,4.0819335,6.0746093
4.705957,12.456934,2.817285,4.204492,6.336084
4.726709,12.352198,3.0230956,4.3631835,6.6048827
4.8687987,12.48086,3.6,4.720117,7.6478515
4.8563476,12.575098,3.471826,4.7188964,8.604151
4.688623,12.874659,3.3629394,4.5804687,9.496973
4.4242187,13.17544,4.2174315,4.7467284,10.492334
4.9981933,13.895411,5.4032226,5.603418,11.6192875
6.324365,14.34878,6.9083495,6.5245605,12.347803
7.518457,14.381983,7.65542,7.440576,12.915186
8.463526,14.38711,8.913477,8.849756,12.98501
9.126612,14.255762,10.246973,10.494043,12.896875
9.587061,14.187403,10.47793,10.552637,12.577539
9.934229,14.386133,10.415186,10.652246,12.196436
10.167383,14.546534,10.637354,10.749659,12.198389
10.123194,14.651758,10.761133,11.175196,12.110254
10.061182,14.75503,11.116114,11.70376,12.738184
9.762354,14.766748,11.463526,12.063379,13.309717
9.692774,14.985987,11.965967,12.34878,13.497705
9.805323,15.034571,12.247217,12.550928,13.67251
9.873926,14.964991,12.549219,12.662989,13.670801
10.389795,14.875147,12.704493,11.743799,13.730127
10.950586,14.831202,11.257959,10.621485,13.816553
11.385401,14.798731,10.34878,10.057276,13.919092
11.679346,14.802393,9.928614,9.486231,13.906641
11.761866,14.934961,9.503809,8.911768,13.32168
11.746729,14.328516,8.976221,8.750879,12.992823
10.589746,14.416651,8.865381,8.794825,12.409327
10.325098,14.452539,8.638575,8.642725,11.945459
9.863672,14.056055,8.504786,8.212793,11.521631
9.578272,13.267481,8.295557,8.053614,11.1939945
9.125635,13.700098,8.427637,8.310694,11.097071
8.913233,13.363916,8.891993,8.892237,11.424952
8.850489,13.202784,9.433252,9.34878,11.313379
9.110254,13.139063,9.765772,9.649805,11.31875
8.987696,12.683008,9.656153,9.671534,11.416407
8.86709,12.606592,9.386377,9.440332,10.996241
8.628321,12.786768,8.889063,8.970362,10.722803
8.371241,12.924463,8.545557,8.534571,10.479395
8.235743,13.02627,8.116846,7.9469237,10.556055
8.14126,13.241602,7.7157226,7.8199706,10.515284
7.87124,13.392481,7.863672,7.7101073,10.664942
7.702539,13.420557,7.598535,7.603662,10.450098
7.516504,13.525782,7.0992675,7.415918,9.884668
7.454492,13.6175785,7.077783,7.168115,10.13125
7.499658,13.604883,6.144922,6.7594237,10.735987
7.4671874,13.64834,7.488672,7.100244,11.32168
7.4220214,13.73208,8.279444,7.408838,11.623926
7.2853026,13.771143,8.0707035,7.907373,11.877588
7.2120605,14.0064945,9.075342,8.154688,11.851465
7.098047,14.226465,9.822657,8.421534,12.024317
7.0816894,14.206934,10.1627445,8.688379,12.330713
7.070703,14.180811,10.243067,9.035059,12.733301
7.3558593,13.908106,10.092432,9.839746,12.6158695
7.584863,13.939112,10.183252,10.272364,12.579737
7.9691405,14.0377445,10.207911,10.622217,12.793604
8.523096,14.250879,10.159327,10.615381,13.140772
9.178858,14.287989,10.317286,10.565821,13.4396
9.827051,14.626856,10.434717,10.387354,13.826563
10.287256,14.979395,10.635889,10.537256,13.958155
10.460596,14.5221195,10.735987,10.620264,13.505762
10.720118,14.451319,11.054834,10.630762,12.95376
10.910547,14.41543,11.97793,11.123194,12.954493
11.105616,14.169825,11.985254,11.836817,13.007715
11.037989,14.634668,11.989161,11.579493,13.4752445
11.118067,14.892725,11.744532,11.58584,13.89419
11.025782,15.238428,11.925928,11.708155,14.097071
10.811426,15.300684,12.009668,11.940577,14.15542
10.66543,15.303614,11.989893,12.166407,14.062159
10.958643,15.366602,12.19253,12.236475,14.123194
11.01919,15.469629,12.266504,12.474756,14.370508
11.270411,15.542383,12.375147,12.752832,14.440088
11.233789,15.434717,12.392481,12.918604,14.513819
11.377344,15.335108,12.414698,12.796289,14.157129
11.609034,13.420069,12.646143,12.125879,11.385157
11.603174,12.50503,10.438868,9.739161,10.087793
9.147852,11.887842,8.869532,8.451075,9.024073
8.048487,11.578516,7.8409667,7.3561034,8.577295
7.117822,11.417627,7.1048827,7.0450683,8.720362
6.611963,11.262354,7.256738,7.0555663,9.043604
6.192285,11.350977,7.587793,7.2315917,9.46792
6.827295,11.325098,7.782861,7.480615,9.927637
7.289209,11.376123,7.2333007,7.513086,9.504297
7.4850097,11.808008,6.9728026,7.411035,9.53628
7.296289,11.942774,7.167627,7.174951,9.910547
7.2015624,11.918604,6.9203124,5.4913573,9.794825
6.653711,11.897852,7.138574,5.837793,9.7442875
6.456445,11.942041,6.5370116,6.192529,9.530176
6.2936034,12.124659,6.4691405,6.365381,9.694239
6.091455,11.674952,6.598779,6.5892577,9.86294
6.2298827,11.644434,6.8514647,6.5575194,9.708399
6.432031,11.648096,6.6429687,6.77749,9.629053
6.535791,11.625879,6.765283,6.879541,9.526514
6.667627,11.661768,6.9569335,7.025293,9.5533695
6.6217284,11.547266,6.9293456,7.011865,9.360254
6.6063476,11.441553,6.6180663,6.6043944,9.41543
6.6498046,11.570948,6.7105956,6.3722167,9.255518
6.6319823,11.452784,6.4452147,6.3700194,8.859278
6.5543456,11.200098,6.4132323,6.384912,8.76919
6.306787,11.586573,6.1253905,6.2726073,8.61294
6.357324,11.128565,5.9745116,6.077295,8.41543
6.089746,10.98086,6.2379394,5.753076,8.5411625
6.049951,10.6036625,5.745996,5.2591796,7.345361
5.172754,10.054834,5.490625,5.4117675,6.9688964
4.653711,10.198389,5.78042,5.830713,7.334375
4.4757323,9.893702,6.0802245,5.8246093,7.2401366
4.6493163,9.987696,5.98208,6.042627,7.5365233
4.3375487,9.933008,5.9708495,5.6563964,7.981836
4.021875,9.966944,5.440332,5.0541015,7.9049315
3.5765624,10.222071,4.546045,4.6114745,6.942529
3.3060546,10.309961,4.0282226,4.5145507,7.3663573
3.3529296,9.892237,4.391748,4.470361,7.2853026
3.2105956,9.75918,4.1895995,4.219873,6.1717772
2.9496093,9.941065,3.9361815,4.258447,6.110254
2.8053222,9.798731,3.5892577,4.1895995,6.2137694
2.5970702,9.699121,3.7794433,4.2420897,5.9757323
2.622705,9.40127,3.5953612,4.030664,5.751123
2.7557616,9.53042,3.3944335,4.282129,5.9291015
2.6822753,9.849512,3.772119,4.779199,5.959375
2.565332,9.968653,4.3368163,4.601709,6.0753417
2.4581542,9.125635,4.454248,4.862695,5.817041
2.483789,9.599024,4.773828,4.6876464,6.117822
2.6039062,8.927149,4.5702147,4.564111,6.3905272
2.7853026,9.097559,4.915918,4.853418,6.714502
2.7411132,9.46792,5.037744,4.994531,6.8375487
3.1317382,9.229883,5.0562987,5.09707,7.204248
3.7640624,9.299219,5.0230956,5.174707,7.40249
3.9432616,9.7738285,5.3788085,5.3580565,7.7801757
4.2018065,9.678858,5.9674315,5.6830077,7.8651366
4.4984374,10.020655,6.305322,6.0365233,8.517969
3.9344726,10.189844,6.607324,6.4964843,8.174952
3.9691405,10.457178,6.79458,6.603418,8.423487
4.318994,10.45376,6.6080565,6.407373,8.118067
4.4864745,10.440821,6.6290526,6.5035644,8.028955
4.673486,10.296289,6.398828,6.232324,7.6947265
4.3211913,10.141016,6.218164,6.003076,7.902246
4.286279,10.016748,6.327783,5.948877,7.8180175
4.7975097,10.00625,6.346338,5.735254,8.6002445
5.2210937,10.372461,6.230615,5.774072,8.406641
5.397363,10.53335,5.93667,5.6305175,8.644434
5.5836425,10.267481,5.586328,5.4728026,8.877344
5.1996093,10.474756,5.484033,5.275781,8.710596
4.7992187,10.81875,5.541406,5.4552245,8.820459
4.5746093,10.697657,5.386621,5.1793456,8.901758
4.5682616,10.96792,4.9083495,4.9537597,9.031885
4.0716796,10.950342,4.7030272,4.556543,8.969873
3.7552733,10.895655,4.2921386,4.178369,8.994043
3.7418456,10.801661,4.1656737,4.259912,8.722071
3.495996,10.227686,4.086572,3.9452147,8.257959
3.2787108,9.604639,4.0624022,3.7567382,8.198389
3.1290526,9.826075,4.0208983,3.7948241,8.388819
3.4408202,9.959131,4.2950683,4.1512694,8.458887
3.9964843,10.059717,4.6949706,4.6656737,7.902246
4.464502,9.948633,5.1603026,5.188379,8.227198
4.7416015,9.809717,5.661279,5.576074,8.518213
4.938379,9.683985,5.817285,5.7696776,8.320948
4.900537,9.495508,5.726953,5.5770507,8.701319
4.6219726,9.819239,5.2518554,5.070703,8.440088
4.3180175,9.112696,4.879297,4.638574,8.053125
3.740869,9.405664,4.432031,4.509912,7.9063964
3.077539,9.255274,3.9588866,4.055322,7.7779784
3.0616698,9.11001,3.4730468,3.1617675,7.522119
3.2904296,9.256006,2.705957,2.3600097,7.530908
2.7379394,8.859034,1.975,1.7394043,7.323877
1.6810547,7.907861,1.3993164,1.5069824,7.2958007
1.2223145,8.531397,1.0462891,1.2940918,6.890283
0.71962893,8.685938,0.6383301,1.1141602,6.671533
0.20668945,8.496973,0.19838867,0.84829104,7.009912
-0.23374024,8.354639,-0.14829102,0.62783206,6.8854003
-0.44052735,8.112696,-0.36557618,0.33901367,6.488916
-0.61435544,8.588282,-0.30454102,0.20253906,5.6344237
-0.7391113,7.254785,-0.45908204,0.06484375,5.3524413
-0.93344724,7.3697753,-0.7366699,0.053613283,5.5941405
-1.2852539,7.5921874,-0.9739746,0.097802736,5.653711
-1.2862304,7.434961,-1.1915039,0.03334961,5.7520995
-0.4551758,6.8875976,-0.7967285,0.36196288,6.209375
0.59121096,7.8561034,0.053125,1.3368164,6.611963
1.4742676,8.250391,1.4015137,2.0760741,6.9918456
1.9498535,7.9723144,2.4852538,2.6988769,7.0299315
2.1632323,8.571436,2.924707,3.068994,7.603906
2.0716796,8.952051,2.8045897,2.9166503,7.283838
1.3453614,9.041407,2.527246,2.661035,7.0699706
0.7032715,8.650049,2.2132812,2.6393065,6.903711
0.7225586,9.143457,2.2230468,2.4964843,6.8548827
0.992334,9.06875,1.8792969,2.053369,6.882959
0.7704102,9.251368,1.3849121,1.8680664,6.7020507
0.490625,8.733057,0.82241213,1.6766602,6.8268065
0.3487793,9.268946,0.53212893,1.5499512,6.7611327
0.32192382,8.8146,0.5350586,1.2379395,6.5023437
0.13417968,8.6002445,0.15004882,0.9386231,6.209619
0.29848632,8.6644535,-0.44711915,0.7403809,5.8683105
-0.27329102,8.620264,-0.5965332,0.6666504,5.846826
-0.665625,8.444727,-0.92685544,0.42055663,5.2884765
-0.64267576,8.500147,-1.4061035,0.18984374,4.9652343
-0.9620117,8.160791,-1.4388183,0.053125,5.004297
-1.370459,8.144922,-1.4339355,0.25478515,4.5819335
-1.7996582,8.094629,-1.5833496,0.009667968,3.7032714
-2.6243653,8.309961,-1.5247558,-0.59213865,3.5470214
-2.646338,8.532862,-2.3602052,-0.9598144,2.7618651
-0.60898435,8.746485,-1.3726562,-0.7679199,3.4957519
0.8419434,8.797266,-0.5005859,0.17495117,5.7159667
1.8727051,8.743311,0.16396484,1.3172852,6.9256835
1.9427735,8.834864,0.7254883,2.1253905,7.614404
1.9854981,8.788965,1.1603028,2.3023925,7.720361
1.7933594,8.867823,0.80019534,1.7237793,6.8543944
0.7496582,9.021631,-0.72373044,0.8751465,4.5958495
-0.89633787,9.113428,-1.3868164,0.29433593,2.2081542
-0.5665039,8.582911,-1.4898437,-0.42490235,2.1341796
-0.5394043,8.201319,-1.7725586,-0.42954102,2.784082
-0.51352537,8.077784,-2.4788575,-0.5064453,2.6524901
-0.36777344,8.211084,-2.561133,-1.6141113,2.706201
0.44155273,8.114649,-2.109717,-0.99716794,2.0328612
0.82436526,8.039698,-1.9327148,-1.5848144,1.9317871
0.7625977,7.7882323,-1.7645019,-1.1849121,1.7933594
0.6322266,7.4791503,-2.2789063,-0.9476074,1.7662598
-1.1575683,7.320703,-2.6783204,-0.9974121,1.6688477
0.2105957,7.211572,-2.351416,-1.2493652,1.5499512
1.0577637,7.0868163,-2.8226075,-1.0479492,1.3067871
1.2259766,6.9498534,-1.6055664,-0.9056152,1.2220703
1.2242676,7.0038085,-1.1849121,-0.7161621,0.9088379
1.242334,7.0785155,-1.7374023,-0.41586915,0.7950684
1.3912598,7.05874,-1.7149414,-0.55307615,0.980127
1.4266602,7.05874,-0.025976563,-0.08798828,1.0382324
2.0938964,7.1446776,1.2667481,0.68374026,2.190576
3.1917968,7.4208007,2.5592284,1.7721192,3.8214355
3.782373,7.6078124,3.5538573,2.6256347,5.2315917
4.292871,7.917871,3.9366698,3.108789,6.459375
4.5038085,8.148096,3.8436522,2.7665038,6.683252
3.8583007,8.106348,3.6405272,2.1656737,6.138086
2.5665526,7.754297,3.0160155,0.77797854,4.9879394
2.1988769,7.2367187,2.8231444,0.26992187,4.536279
2.117578,7.1893554,2.89541,0.16323242,4.5624022
2.0252929,6.952539,2.7906737,-1.2425293,4.8958983
2.0675292,6.919824,2.8973632,-0.016455078,4.837793
2.1708007,6.8753905,2.8229003,0.36782226,4.7552733
2.258203,7.112451,1.6837403,0.90419924,4.693506
2.1361327,7.114404,-1.2945312,0.7901856,4.5992675
2.1944823,7.2674804,-1.6429199,1.4071289,4.447656
2.4479003,7.2489257,-0.47397462,1.867334,4.4063964
2.3238769,7.449365,-0.17319337,2.8114257,4.3563476
2.2193847,7.220117,1.1366211,1.3250977,4.2938476
2.1117187,7.461572,0.7645508,-0.25717774,4.344629
2.1561522,7.5123534,1.5418946,-0.09628906,4.3700194
2.4112792,7.53042,1.115625,0.9195801,4.33999
2.5772948,7.488672,0.53164065,0.49135742,4.1964355
2.685205,7.469629,-0.003515625,0.63564456,4.2296386
2.738916,7.2489257,-1.8411621,0.26308593,4.219873
3.2948241,7.34707,-0.79477537,0.761377,4.8268065
4.1063476,7.5055175,1.4701172,2.3148437,6.0694823
4.522119,7.9693847,2.9535155,3.235742,6.8351073
5.0418944,8.645655,3.4566894,3.6004882,7.264795
4.99624,9.005274,3.3958983,3.313867,7.3976073
4.129785,9.070948,1.851709,2.7403808,6.9781737
3.0453124,9.054346,1.1322266,0.77089846,6.21792
2.3619628,8.761866,-0.4144043,1.3304688,5.521631
2.1195312,7.8893065,0.759668,1.56167,4.714746
2.0631347,7.7103515,1.1964356,1.6712891,3.678125
1.8106934,7.4791503,1.3907715,1.5833985,2.2662597
1.7047364,7.768213,1.3548828,1.3851563,2.5074706
1.6092774,7.5294433,0.9525391,1.1966797,1.7398926
1.5504395,7.412988,0.59291995,1.0428711,0.7901856
1.6644531,7.2955565,0.8641602,0.89931643,1.1922852
1.5353028,7.0936522,0.43520507,0.7477051,1.4229981
1.284082,6.728418,-0.19125977,0.54897463,0.65957034
0.94936526,6.631006,-0.102148436,0.4227539,2.046289
0.63857424,6.4916015,-0.31064454,0.3211914,1.5482422
0.30727538,6.2225585,-0.5118164,0.17714843,0.6742188
0.18862304,5.853662,-0.3350586,0.030664062,-0.08408203
0.25405273,5.643213,-0.06088867,-0.0086425785,-1.4268554
0.27504882,5.5157714,-0.031835936,-0.06381836,-0.7354492
0.30874023,5.5348144,-0.117529295,0.0018554687,-1.4349121
0.9544922,5.4151855,0.60927737,0.41640624,-0.4288086
1.8910156,5.492822,1.6063477,1.18667,2.63125
2.5299315,5.81875,2.299707,2.0252929,4.184961
2.8387694,6.2311034,2.6393065,2.6754394,5.2328124
2.7855468,6.3304687,2.4762206,2.780664,5.0885253
2.2491698,6.5873046,1.7503906,2.341455,3.9986815
1.4640137,6.971582,0.7691895,1.653711,1.6632324
0.97988284,7.202295,0.5475098,1.0196778,0.47158203
0.84829104,7.0179687,0.15078124,0.71865237,0.09121094
0.73110354,6.8819823,-0.5791992,0.53286135,0.70107424
0.7459961,6.676416,-0.051611327,0.3553711,0.8468262
0.56826174,6.7013183,-0.6290039,0.2340332,-0.33701172
0.49746093,6.6827636,-1.3865722,0.18032226,-1.0508789
0.06411133,6.87124,-0.44003907,0.19667968,-0.910498
-0.22666016,7.1061034,-0.9925293,0.19326171,-0.7828125
-0.94321287,7.2799315,-0.742041,-0.011328125,-0.44296876
-1.7640136,7.372461,-1.3389648,-0.101416014,-0.2659668
-2.248633,7.291406,-0.34384766,-0.30161133,-0.3440918
-2.2876954,7.098047,-0.36411133,-0.35678712,-0.2388672
-2.7581544,7.1046386,-1.2852539,-0.6238769,-0.2911133
-3.2012696,6.7569823,-2.0569825,-0.519873,-0.28842774
-3.917334,6.860986,-3.774756,-0.5298828,-0.4024414
-3.2603517,7.0353026,-3.3262696,-0.6043457,-0.8155273
-2.8572755,7.0233397,-2.9739747,-0.83969724,-0.7510742
-1.5301269,7.1527343,-1.0555176,-0.25620118,0.6935059
-0.2959961,7.355615,0.7369629,0.6515137,2.5555663
0.18398437,7.4950194,1.5753418,1.4291016,4.296533
0.82363284,7.657617,1.7977539,1.7777344,5.124658
1.1131836,7.810449,1.4657227,1.4930664,5.2750487
0.33510742,7.971826,0.09511719,0.38466796,4.076074
-1.3106445,8.0880375,-1.4776367,-1.5176758,1.5331055
-1.3660644,8.095118,-3.148047,-2.8919435,0.28041992
-2.0037599,7.9635253,-3.889258,-3.3323731,0.0753418
-2.0840821,7.804834,-3.7334962,-2.8560548,-1.0086426
-2.3367677,7.184961,-2.295508,-2.8082032,-0.29086915
-3.2220216,6.9972167,-3.1766114,-1.9979004,-1.4480957
-2.552588,7.0804687,-1.6177734,-2.2723145,-1.8418945
-1.347998,6.7696776,-2.6749024,-1.8450683,-0.7391113
-0.21738282,6.316797,-3.3899903,-1.5501465,-0.5376953
1.0213867,6.0267577,-2.1072755,-1.8177246,-1.0540527
-0.46567383,6.270654,-2.0865235,-1.537207,-1.2354492
-0.5186523,6.549951,-2.901465,-1.7674316,-1.28208
-0.19394532,6.804834,-2.3052735,-0.7815918,-1.2532715
0.00234375,6.7835937,-2.5198731,-0.02890625,0.05214844
0.34243163,7.044336,0.05214844,0.39589843,1.763086
0.2220703,6.9132323,1.8609864,0.21157226,2.0282226
-0.36533204,6.9588866,2.1390624,0.6588379,2.096582
-0.6207031,7.1861815,2.7315917,1.2013184,2.0667968
-0.25791016,7.4879394,2.9210448,1.452295,2.522119
0.39760742,7.7013183,3.0719237,2.1883788,3.6998534
1.4249512,7.7501464,3.2123046,2.6969237,4.455957
1.9493653,7.3473144,3.39541,2.970117,4.5057616
2.4085937,7.164697,3.2733397,2.859033,4.244531
2.391992,7.9151855,2.5252929,2.3124022,3.7086425
2.1891112,7.471338,1.617334,1.5396973,3.1324706
2.2811522,7.8114257,1.6842285,1.2047364,3.0484862
2.5643554,7.6910644,2.2333007,1.0899903,3.4986815
2.7850585,7.658838,2.3001952,1.2210938,3.7145019
3.0807128,7.7882323,2.2665038,1.150293,4.2484374
3.3265624,8.140772,2.7206054,1.7982422,4.865869
3.5960937,8.317774,3.0299315,2.4276366,5.4444823
3.6771483,8.480371,3.5287108,2.6820312,5.457666
3.331201,8.691309,3.9886718,2.683496,5.6861815
3.2325683,8.883936,4.0057616,2.2435546,5.9188476
3.3072753,9.277735,4.105371,1.494043,6.192041
3.3141112,8.937159,3.9261718,1.3287598,6.140283
3.2489257,8.938379,3.4896483,2.1881347,6.244531
2.787744,9.035547,3.9879394,2.4322753,6.3058105
2.9935546,9.060694,3.6649413,2.671533,5.888086
3.207666,9.255762,3.3619628,2.9657226,6.1632323
3.1266112,9.476221,3.6439452,3.1510253,6.1534667
3.0270019,9.604639,3.6229491,2.5250487,5.8646483
3.287744,9.869532,4.0433593,2.8585448,6.2933593
4.530664,9.86709,4.5572753,3.3268065,7.555078
5.1979003,10.1158695,5.2071776,4.0663085,8.756983
5.4432616,10.136133,5.601709,4.627832,9.026758
5.6683593,10.166407,5.504297,4.3026366,9.033106
5.515283,10.402491,4.997461,3.475244,8.641504
4.9635253,10.252832,4.0821776,1.9857422,7.1388183
4.384912,10.08584,3.6529784,1.1209961,5.7557616
4.5802245,9.973291,3.4032226,1.6026856,5.9208007
4.629541,9.8050785,3.2647948,1.9398438,5.397363
4.122705,9.777735,3.265283,1.7638184,5.204492
4.4310546,9.943262,3.358789,1.7245117,4.148584
4.3983397,9.999414,3.028955,1.8275391,3.8209472
4.0799804,10.015039,2.9139647,1.9205567,4.3353515
3.2479491,10.038965,2.909326,1.9129883,3.859033
2.8106933,9.842676,2.6930175,1.5975586,3.3099608
3.6769042,9.558008,2.579248,0.94277346,3.429834
4.139795,9.355371,2.2899413,1.0099121,4.1810546
4.537744,9.190821,2.3019042,0.87246096,4.355371
4.657373,8.951319,2.3509765,0.82680666,3.8714843
4.9029784,8.93252,2.1693358,0.9237305,4.039453
5.423242,8.998926,1.8807617,1.1288086,2.8773437
5.625879,9.038477,1.4386231,1.367334,2.0694823
5.586084,9.201319,1.6749512,1.5465332,1.3282715
5.9015136,9.577539,2.7625976,2.103662,2.85
6.0458007,9.819239,3.879785,2.8880858,5.4483886
6.1725097,9.837061,4.6795897,3.7394042,6.749658
6.247461,10.003809,5.301172,4.3163085,7.8114257
6.237207,10.23208,5.7816405,4.67666,8.450342
6.2137694,10.309473,5.9395995,4.9503417,7.7518554
5.8958983,10.339258,5.672998,4.6393065,7.084863
5.747461,10.373926,5.4134765,4.4359374,6.775293
5.7645507,10.827295,5.110742,4.442285,7.1009765
5.8109374,11.11294,5.068994,4.4010253,7.579492
6.013086,11.203516,4.8492675,4.5821776,7.685449
6.126367,11.704737,4.5851073,4.56167,7.6444335
6.2586913,11.946924,4.5521483,4.506738,8.319971
6.5174804,11.503809,4.6249022,4.4115233,8.660303
6.5768065,11.544092,4.9015136,4.418115,9.22085
6.5589843,11.67544,5.207422,4.685205,9.767481
6.551904,11.899317,5.3385253,5.0736327,9.920557
6.351953,11.988428,5.6131835,5.455713,9.972071
6.299463,11.741602,6.2342772,5.771875,9.954737
6.282373,11.64834,6.8199706,6.063867,9.721827
6.4222655,11.470362,6.9481444,6.40957,9.585352
6.4068847,11.377832,6.976953,6.699365,9.347071
6.322168,11.297022,7.20791,6.8265624,9.589746
6.2784667,10.986231,7.348535,6.7396483,9.515039
6.3634276,11.176172,7.462793,6.768457,9.0550785
6.390283,11.667383,7.5301757,7.148828,9.415674
6.577783,11.125879,7.7831054,7.331201,9.6505375
6.819238,11.091455,7.6793456,7.3976073,9.559473
6.7970214,10.926661,7.874414,7.5301757,9.20376
6.6705565,11.138086,8.1542,7.5836425,9.014063
6.5870605,11.5863285,8.043116,7.5438476,9.519678
6.7730956,11.998926,7.7032714,7.473779,10.31167
7.022119,12.526758,7.43374,7.1656737,11.129053
7.3194823,12.907129,7.365869,7.0440917,12.047998
7.9010253,13.381739,7.299707,7.1705565,12.5550785
8.311914,13.234766,8.04043,7.361963,12.454737
8.792139,13.138819,9.059961,7.995752,12.223536
9.189844,13.287256,9.383936,8.811914,12.481104
9.458155,13.54751,9.442286,8.893946,12.2582035
9.820459,13.280664,9.814844,9.096582,11.815577
10.23208,13.297266,10.33877,9.524561,12.086084
10.094385,13.202539,10.727198,9.500635,11.958399
10.232569,13.167627,10.706202,9.984522,11.955957
9.825098,12.947168,10.525782,10.218409,11.722803
9.914209,12.671534,10.365137,10.215723,11.45669
9.739405,12.140772,10.407129,10.022852,10.310694
9.613916,11.275049,10.313135,9.795069,9.240381
9.436914,11.134424,9.211817,8.914942,9.012598
8.347071,11.232569,8.706934,8.426416,8.632471
7.28457,10.964991,7.9344726,7.640283,8.641993
6.9652343,10.758692,7.9972167,7.647119,8.790918
6.6759276,10.808741,7.9273925,7.6881347,8.986475
6.4322753,10.845606,7.376367,7.455957,9.11709
6.193994,10.515772,6.8531737,6.608789,8.708887
6.047754,10.436914,6.172754,6.1500487,7.7811522
5.924707,10.361963,5.912256,5.7906737,6.8299804
5.6742187,10.466455,5.3873534,5.364404,6.3436522
5.3509765,10.188135,4.927881,4.933252,5.999658
4.8199706,10.049707,5.050195,4.4305663,5.5926757
4.5938964,10.166895,4.3807616,3.7655272,5.9305663
4.3749022,10.071436,2.50625,3.0387206,6.0440917
3.6236815,9.952295,2.8055663,3.1432128,5.934961
3.2906737,9.781885,3.6046386,3.209375,6.176904
3.1126952,9.700098,4.030664,3.478662,6.363916
3.0436034,9.609522,3.8978515,3.5841308,6.3441405
2.8028808,9.168848,4.057031,3.5267577,6.192285
2.7630858,8.568506,4.036035,3.4657226,5.8097167
2.7452636,9.163721,3.9654784,3.8646483,5.7066894
2.8910155,8.759668,4.0399413,3.8712401,5.846582
3.041162,8.821192,3.05166,3.7557616,5.7870116
2.8109374,8.861719,2.992578,3.773584,5.720361
2.6041503,8.457666,3.2645507,3.711328,5.796533
2.6700683,7.9657226,3.813867,3.6810546,6.0138183
2.895166,8.448389,4.1078124,4.271875,6.6288085
3.254541,8.275782,4.914697,4.9100585,6.817529
3.1517577,8.9613285,5.5885253,5.4137206,7.1476073
3.6043944,8.282373,5.433252,5.713281,6.912256
3.5196776,8.902979,5.5750976,5.369287,7.1219726
3.4652343,9.0394535,4.983789,4.718408,6.0208983
3.5130858,9.225733,4.455713,4.697168,5.94375
3.0599608,9.163233,4.312158,4.5072265,5.96792
2.9806151,9.2894535,4.177881,4.466699,6.2760253
3.0353026,9.109766,4.1856933,4.7835937,6.358789
2.7752929,9.136866,4.48208,4.1446776,7.1168456
3.0873046,9.057276,3.9964843,3.8817382,7.1510253
3.3575683,9.442774,3.9657226,3.3983397,7.5040526
3.6795897,9.189356,3.6837401,2.6720214,7.122705
3.6507812,9.5394535,3.05166,2.19375,7.2398925
3.4879394,9.608057,2.6483397,1.931543,7.1771483
2.9928222,9.734034,2.1993651,1.6983887,7.4117675
2.4762206,9.632471,1.7621094,1.4024903,7.5589843
1.5909668,9.626123,2.0157714,1.9408203,7.6390624
1.6754395,9.41958,2.1546874,2.5633788,7.932031
2.2437987,9.602686,2.3390136,2.7057128,7.9901366
2.4703612,9.616602,2.5157714,3.3949218,7.809961
2.476709,9.24795,3.3065429,4.007959,7.5436034
2.9166503,9.404688,3.8353515,4.6830077,7.6861815
3.8568358,9.603907,4.716699,5.0733886,8.11001
4.1654296,9.782373,5.216699,5.4103026,8.705957
4.45791,10.069483,5.605127,5.928369,9.1019535
4.917627,10.432276,5.8770995,6.1058593,9.201563
5.1095214,10.486231,5.8219237,5.7276855,9.082178
4.6839843,10.420069,5.2645507,5.036279,8.924952
4.0453124,10.32168,4.7157226,4.422754,8.919825
3.796533,10.069727,4.3565917,4.2777343,8.621241
3.5665526,10.046289,4.1722655,4.1639647,8.455957
3.2379394,10.06875,4.0648437,3.936914,8.4005375
2.9713378,10.063379,3.8299804,4.2210937,8.356348
2.83291,10.155909,3.94375,4.643213,8.311182
2.7220702,10.380274,4.0960937,4.3683105,8.332422
2.6078124,10.80459,4.028711,3.7098632,8.392481
2.830957,10.988916,3.584619,2.813623,8.210352
2.8912597,10.848291,2.8556151,2.1270995,7.9774413
2.8551269,10.826563,2.105371,1.8644043,7.9186034
2.7074218,11.099268,1.4652344,1.7992188,7.289209
2.624658,11.011133,1.2135254,2.1891112,7.3631835
2.780908,10.536524,1.5431153,2.648828,7.742334
2.253076,10.4630375,1.6671387,2.1358886,7.8856444
2.7315917,10.841455,1.775293,1.888086,7.9259276
3.70791,10.978907,2.1461425,2.2394042,8.282129
4.355371,10.912989,3.1270995,2.6793456,8.336573
4.7054687,10.085596,4.188623,3.2916503,8.237207
5.0057616,10.349512,4.7176757,4.3592772,8.3417
5.333154,10.974756,5.150293,4.803613,9.207666
5.6759276,11.830713,6.3907714,5.872461,10.134424
6.1717772,11.995752,7.3629394,7.298242,10.365137
6.865381,12.341211,8.371973,8.668604,10.994776
7.7901855,12.751123,9.543116,9.721094,11.630518
8.912012,13.076075,9.719873,9.082666,11.249903
9.221094,12.440577,8.712305,8.166651,9.648096
8.285059,11.71377,7.8980956,7.4254394,9.294825
7.293115,11.290674,6.791162,6.190088,8.407862
6.560449,11.097315,5.800195,5.786035,8.154688
5.753076,10.729395,5.7760253,5.195947,7.848291
5.408838,10.538477,5.6944823,5.208154,8.176172
5.011377,10.543604,5.485986,4.9339843,8.140528
4.7154784,10.449366,5.468164,5.258447,8.2755375
4.612207,10.126368,5.3802733,5.4635253,8.102442
4.462793,10.392481,5.853418,5.695459,8.192041
4.4344726,9.945459,5.702295,5.653955,7.9010253
4.519922,10.257471,5.5589843,5.3270507,8.436426
4.7350097,10.358545,5.211328,5.5384765,7.52749
4.6183105,9.216455,4.939111,5.1014647,7.060205
4.5335937,9.305567,4.3871093,4.971582,7.4342284
4.667871,9.694239,4.4884276,4.909326,6.785791
4.8683105,9.614405,5.0091796,5.167627,7.191797
4.8802733,9.343653,5.2989745,5.414209,7.1649413
4.7379394,9.161768,5.5907226,5.505029,7.4830565
4.6236815,8.952784,5.1839843,4.838037,7.2416015
4.705713,8.894922,4.341211,4.4171386,7.3080077
4.0904784,8.953028,3.924951,4.2992187,6.9930663
3.2672362,9.0533695,4.064111,3.980371,6.895166
3.2157226,9.268213,4.380029,4.11416,6.8802733
3.3697753,9.136866,4.122461,3.9435058,6.5111327
3.0624022,8.99795,3.657373,3.8214355,6.4791503
2.829248,8.984034,3.9166503,4.0194335,6.898828
3.02041,8.912256,3.7989745,4.0350585,6.4686522
3.093408,8.770655,3.504785,3.9503417,6.3685546
2.817041,9.06167,3.370996,4.157373,6.195947
