"[299, 255]","[227, 248]","[287, 319]","[279, 328]","[230, 262]"
9.903223,11.44253,10.48086,9.858545,9.739161
9.538721,11.249659,9.345118,9.066553,9.627588
8.907862,11.433252,8.766016,8.727198,9.952539
8.491114,11.190088,8.733545,8.550196,9.930323
8.453272,11.034082,8.902979,8.703516,9.559717
8.607569,11.143946,9.088282,9.062403,9.644678
8.654444,11.346338,9.507471,9.493555,9.833643
8.284327,11.356836,10.150782,10.2877445,10.046778
8.54043,11.504541,11.011621,11.424707,10.762842
9.469629,11.775293,11.777735,12.178614,11.477442
9.858057,12.026514,13.125635,12.906885,12.522852
10.857325,12.412012,13.890284,13.145899,13.336084
11.714746,13.215723,14.521875,14.6019535,13.434473
12.418604,13.899805,15.295801,15.56045,14.164942
13.195948,14.034327,15.973291,16.062647,14.338282
13.681543,14.325342,16.527979,16.356104,14.13003
13.913233,14.5567875,16.785791,16.451075,13.967432
13.750635,14.439356,16.447657,16.35464,13.740625
13.481836,14.372705,15.528955,14.994043,13.552881
12.223047,14.238428,14.302881,13.829248,13.120996
10.605371,14.015528,12.914698,12.224512,12.855127
10.476709,13.93667,12.311426,11.596338,12.815332
10.691065,13.9474125,11.589258,11.204981,12.510889
10.694971,13.937891,11.1,11.113672,11.968653
10.637842,14.084375,10.702784,10.832911,12.064112
10.825098,14.092432,10.128077,10.88003,12.145899
10.882959,14.035791,10.551172,10.2755375,12.125147
10.873682,14.022364,10.693506,10.306299,12.047266
10.974024,14.080957,10.767725,10.425196,12.136866
11.296289,13.933741,11.868067,11.239893,12.782862
11.610987,13.66836,13.246241,12.703028,13.377344
12.146387,13.945215,14.57461,14.161524,13.732569
12.761133,13.995996,15.395411,15.276514,14.424707
13.563868,13.981592,16.285303,16.024073,15.171289
14.049463,13.72085,17.094873,16.935694,15.688623
15.017237,13.808496,17.675684,17.407862,16.166895
16.10586,13.691065,17.973536,17.751368,16.911768
16.260645,13.801905,18.703028,18.140528,16.65542
16.45376,14.003321,18.699366,17.861963,16.190332
16.850977,14.153467,18.144678,16.417383,16.411036
17.251856,14.314112,18.069971,15.918116,16.118067
17.258936,14.589258,17.717188,16.225489,15.576075
16.756006,14.63125,16.804346,16.42666,14.777002
15.954493,14.744532,15.73501,16.055079,14.204737
14.956934,14.67251,14.422754,14.889551,14.109522
14.309229,14.541407,14.051416,14.770411,14.074121
13.721582,14.464014,13.652735,14.37295,13.975977
13.705225,14.354151,13.208399,14.039209,13.942041
13.555811,14.298487,12.907862,13.768702,13.957911
13.2875,14.364161,12.953272,13.62417,14.061914
13.256739,14.293604,12.930323,13.6488285,13.889307
13.179102,14.224756,12.988916,13.532862,13.489405
13.072168,14.106836,13.385157,13.422998,13.240137
13.073145,14.007715,13.967432,13.169092,13.312647
13.278467,13.94375,14.324121,13.275293,13.406885
13.391016,13.840479,14.9439945,13.453028,13.666895
12.926905,13.7894535,14.803125,13.872461,14.352442
13.534571,13.737696,14.779932,14.198877,14.844141
14.401514,13.760157,14.628565,14.148096,15.613916
15.683741,13.907862,14.5707035,14.379297,15.558741
16.62832,13.829981,14.526514,14.2564945,15.243311
17.570948,14.356592,13.808008,13.802149,16.035303
18.039942,14.864161,13.462793,13.477198,16.490625
18.431787,14.769434,14.33877,13.989161,15.945948
18.597559,14.659327,14.859766,15.160547,15.0846195
18.439112,14.737452,15.008448,15.714258,14.886621
17.237696,14.785547,14.860498,15.491602,14.643946
15.65127,14.753077,14.251612,14.975489,14.311914
13.969629,14.835108,13.7269535,14.694483,14.100733
13.275293,14.925928,13.674707,14.425196,14.066797
13.377832,14.589502,13.887598,14.294336,14.074366
13.398584,14.664942,14.004053,14.1957035,13.855127
12.971338,14.8536625,14.004786,13.954737,13.8675785
12.570948,14.648584,13.988428,13.758936,13.864161
12.624659,14.576563,13.871729,13.490625,13.766993
12.741114,14.245264,13.441309,12.645655,13.996729
12.602442,14.065088,12.683252,12.121973,13.246973
13.042139,13.97793,12.306543,11.973047,13.078272
13.395411,13.847559,12.26626,12.079493,13.594629
13.611475,13.652979,12.354395,12.502344,13.710352
14.582911,13.385157,12.520411,12.6661625,13.570948
15.23794,13.510401,12.842676,13.726465,13.566065
15.077295,13.584131,13.687403,13.254053,13.977686
14.276026,13.638575,15.311426,15.203028,14.279444
13.8832035,13.774805,16.393457,15.661036,14.485498
13.402735,13.859766,16.538965,15.683008,14.8067875
13.598536,13.967676,16.316553,16.279688,16.363184
13.437403,14.15127,16.113184,16.053125,16.794336
13.697168,14.358301,15.481592,15.7521,16.669336
13.851465,14.572657,15.3519535,15.025049,16.419825
13.856104,14.696192,14.774317,14.212549,15.684473
13.4942875,14.502588,13.776758,13.12295,14.81753
12.558252,14.433741,12.056543,12.119776,13.670557
12.773096,14.644434,10.974756,11.508936,12.729639
12.647852,14.377832,10.382227,10.982813,11.947168
12.104395,14.165186,9.790186,10.488916,11.270655
11.490625,13.624659,9.308985,9.500391,11.0255375
10.509424,13.198877,9.187891,9.235743,10.630274
9.370508,13.145166,9.253077,8.890039,9.878321
8.938623,13.226709,9.216211,8.45083,8.758692
8.911768,12.998926,9.046778,8.882471,8.829737
9.571924,12.951319,9.986963,9.980371,10.7792
10.464014,12.933008,11.268946,11.047022,12.291651
11.39419,12.862207,12.125879,11.98501,12.881983
12.141504,12.8346195,13.147852,12.71792,13.500391
13.108545,12.842188,14.113916,13.442774,14.153711
14.198389,12.928614,14.731104,14.162012,14.6192875
15.159327,13.007959,15.596582,14.849024,15.019678
15.91543,13.144434,16.391016,15.384424,15.644922
16.479395,13.320948,16.61123,15.797266,16.217676
17.008936,13.475733,16.578272,16.180323,16.58169
17.48379,13.596582,16.034082,16.372461,16.948877
17.945704,13.967432,15.258936,16.33706,17.160059
18.47085,14.215235,14.990381,16.075586,17.216211
18.141504,14.62295,14.594141,15.261621,16.288477
16.645166,14.721094,13.327784,14.048243,14.317041
15.805323,14.401026,10.855127,12.2792,12.646387
15.429102,13.819239,10.207422,11.164209,11.921534
15.403467,13.533106,9.912989,10.69961,11.594141
14.712305,13.25503,10.067041,10.5917,11.4396
13.815088,13.067774,10.592676,10.688135,11.589991
13.13833,12.85293,10.43545,10.6542,11.665186
12.821436,12.774805,10.1783695,10.804102,11.22085
12.382959,12.809961,9.308985,10.496729,11.757959
12.090967,13.033106,10.359766,10.443262,12.32876
12.647364,13.245264,11.642725,11.738916,12.816309
13.413233,13.435205,12.579981,13.328272,13.596094
14.395655,13.545069,13.753809,14.373194,14.137354
15.089014,13.592188,14.718409,14.517969,14.798975
16.007227,13.647364,15.16128,14.906641,15.5238285
16.89834,13.726465,15.871241,14.666651,15.173487
17.655664,13.831934,15.672998,14.179834,14.920801
18.116602,13.913721,15.374414,16.002344,15.279932
18.428614,13.961573,16.07461,16.631006,16.061914
18.577784,14.0221195,16.703516,16.622217,16.762354
18.023096,14.087549,17.244776,16.82168,17.234034
17.48086,14.090479,17.21499,16.629786,17.417871
16.768702,14.048487,16.7167,15.99502,17.122705
15.775049,14.0411625,15.987207,15.185938,16.675196
14.847315,13.9786625,14.403711,13.890528,15.584131
13.457178,13.986231,12.590967,12.18252,12.223536
12.324121,13.953516,11.02334,11.63003,11.296045
11.649561,13.858301,8.76333,10.464258,10.677149
11.278467,13.74209,8.839991,9.306055,9.995264
11.697657,13.816309,8.931543,8.721827,9.068262
12.111963,13.906641,8.031397,8.249414,8.3675785
12.270899,13.539209,7.12832,7.4623046,9.851465
12.278467,13.224756,6.6603026,7.6061034,10.074854
12.264551,12.847559,8.484522,8.91128,11.015772
12.656397,12.97378,10.702295,10.61001,12.703272
13.693018,13.608545,12.027491,11.857325,14.194971
14.933008,14.841944,13.987452,13.452784,15.153955
16.096338,15.657618,15.677881,14.969629,15.814356
17.512842,15.99917,16.54751,15.996973,16.233545
18.404932,16.257471,17.349756,16.751856,16.758692
19.250635,16.4125,18.220118,17.61709,17.248926
19.951563,16.574854,18.754786,18.4396,17.563623
20.465479,16.700342,18.558496,19.291895,17.655664
20.705957,16.716944,18.350733,19.739649,17.540186
20.52749,16.64834,18.357569,19.625391,17.103907
19.914942,16.435694,17.9396,18.90713,16.220362
18.720606,16.005274,16.98086,18.1625,15.559229
17.194971,15.583887,15.952295,17.002344,15.220118
15.572901,15.31045,14.775293,15.743067,15.031153
14.234034,15.082422,13.665186,14.308008,14.659082
13.559717,14.923487,12.736963,13.339991,14.512354
13.040186,14.757715,12.295801,12.39419,14.91836
12.833643,14.595606,12.051172,11.839014,15.203028
12.929102,15.236231,12.2911625,11.658106,15.101221
12.905664,16.374903,12.287256,11.479395,14.718409
13.191797,16.238184,12.157618,11.155664,14.538477
13.103907,16.167627,12.59878,10.518946,14.439844
12.970118,15.935938,12.975733,11.288721,14.4786625
12.91958,15.886621,13.183008,12.5707035,14.864405
13.342188,16.05337,13.210352,13.9925785,15.274317
14.26211,15.986963,14.08584,15.204248,15.879053
14.98501,16.075098,15.0567875,16.161524,15.227686
16.404932,16.239405,15.66836,16.999903,15.342432
17.750635,16.004297,16.636621,18.342432,15.86709
18.779444,16.268457,17.086084,19.043848,17.826075
19.819971,16.237696,17.21963,19.396875,18.971094
20.057276,16.01333,17.04873,19.408106,19.458399
20.720606,16.339746,16.93545,19.972315,19.579737
21.087793,15.857569,16.795313,19.90957,20.698877
20.82876,16.045069,16.28213,19.199854,21.160547
20.18545,16.12588,15.475489,18.62124,21.243555
19.795313,15.861475,14.671045,17.24795,20.900782
19.1542,15.863916,13.991358,15.68667,19.952784
19.68252,15.75503,13.594385,14.670313,19.33999
19.304102,14.640284,13.494776,14.118311,17.45669
18.1896,14.959864,13.562891,14.156885,15.405909
17.86416,15.066797,14.399805,14.293848,14.342188
17.050684,15.174219,15.08169,14.890284,13.864893
16.40713,15.109034,15.498194,15.472315,13.203516
17.16665,14.937159,15.296045,15.906641,12.821924
17.230616,14.680811,15.123194,15.948877,12.520899
17.456202,14.649805,16.062159,16.162989,12.6817875
17.460596,14.762354,17.329493,17.05166,13.663233
18.05337,14.921045,17.695704,17.873438,14.856104
18.860254,15.062891,18.059717,18.257471,15.921778
19.33584,15.564112,19.196924,19.440332,16.911768
20.541407,15.879541,20.629297,21.38296,17.966211
22.163721,16.047266,21.875147,22.531885,19.177637
23.65249,16.183008,23.251368,23.266016,20.122461
24.589502,16.51748,24.615381,23.974512,19.48672
25.397364,15.904444,25.7604,24.622461,19.002832
25.839746,15.3771,26.031885,25.175684,19.017725
26.54043,15.298731,26.458399,25.520655,18.84707
26.590235,15.258448,26.40957,24.4042,19.105616
26.420557,15.288233,25.4396,22.989893,18.63711
25.14834,15.228174,22.712305,22.029444,17.286524
24.178614,15.205225,21.578028,21.30166,16.733545
22.672022,15.218409,20.157373,20.087793,15.979639
20.970118,15.203028,19.133448,19.844385,15.431055
20.219873,15.151514,19.106348,19.778955,15.251856
19.993067,15.144434,18.90127,19.976465,14.940088
19.813623,15.185694,19.114649,19.817774,14.609766
20.019922,15.217676,18.74502,19.199854,14.187159
20.070948,14.815088,18.745752,18.54873,14.317286
19.661524,14.798731,18.090479,18.587793,13.647608
19.900293,14.948877,18.40005,18.83047,13.85586
20.522364,15.0533695,19.23086,19.386866,14.233545
21.31753,15.089014,20.186914,20.725489,14.742334
22.42129,15.047266,22.082178,21.829248,15.284327
21.537989,15.140772,23.5917,22.156397,16.069727
22.056055,15.187403,24.323633,22.589258,17.036036
23.631983,15.23501,24.986963,23.852198,18.331202
26.122217,15.264063,25.050196,25.419092,19.135157
28.001123,15.32876,26.007227,26.422022,18.129053
29.00503,15.391504,27.08755,27.335108,17.672754
27.386866,15.299952,27.866846,27.367334,17.282618
22.715235,15.0533695,28.237452,27.706934,16.735743
22.829004,14.874659,24.195215,26.797998,14.836817
23.059229,15.516504,22.64956,23.702051,15.097559
22.331202,15.4667,21.875147,21.038721,15.402491
20.959864,15.027002,20.586573,21.686426,15.260889
21.027735,14.998682,20.481836,19.8063,14.754053
21.013819,15.177637,20.557764,18.466944,14.012842
17.480127,15.443506,19.658594,19.869532,14.207422
15.19668,15.642237,18.639063,18.752588,14.465967
14.72085,15.666407,18.20791,18.072657,13.624659
14.505762,15.579248,17.761377,17.882715,13.007715
14.325586,15.61001,17.995996,17.500635,12.913477
13.993067,15.589014,17.286768,17.474268,12.725489
13.664209,15.579248,16.533594,17.704493,12.652246
13.587061,15.375147,16.323877,17.879297,13.9925785
13.621485,15.473047,16.965235,17.812159,14.903955
13.51626,15.475977,17.863428,17.590235,15.530664
13.841455,15.278711,16.812403,18.016016,15.968164
14.7911625,15.153223,17.661768,18.507227,16.368067
16.047266,14.850489,18.942774,20.065577,16.761621
18.263086,14.818262,19.694971,20.776758,16.481836
20.033594,14.982813,19.994287,20.771387,17.32046
19.96377,15.116358,20.596582,21.28213,17.869776
18.786524,15.284815,21.155176,21.560938,17.989893
17.715967,15.275293,21.340235,20.40127,17.625391
17.07754,15.261377,20.531153,19.65957,17.05581
16.984034,15.327784,19.435694,18.913477,16.348536
16.419092,15.268457,18.157373,17.803125,15.672754
15.378321,15.268946,16.58047,16.567286,14.815332
13.708155,15.243311,14.698877,15.16128,13.738184
12.777979,15.115625,13.395899,13.718897,13.133936
12.015772,14.747461,11.7877445,12.570215,12.920557
10.634424,14.553125,10.25625,12.284082,12.671289
9.861963,14.563379,10.878321,12.010889,12.582911
9.344629,14.606348,12.168848,11.549463,12.900782
9.07876,14.736719,12.793848,11.285059,13.045557
8.340479,14.690821,12.701563,11.329248,12.832178
9.069971,14.720362,12.989893,11.779444,13.329248
10.677393,14.738672,13.6471195,13.1271,14.074366
12.060694,14.990137,14.684473,14.41543,14.877832
13.200342,15.073633,15.693018,15.563623,15.682764
14.408594,15.027246,16.795557,16.596827,16.024317
15.708399,14.997461,17.827051,17.713526,16.334864
16.708399,14.9925785,18.83706,18.36172,17.34463
17.031397,15.123682,18.74624,18.474756,17.117823
16.709131,15.1488285,18.77334,18.62417,17.346582
17.125391,15.154932,17.207178,15.867823,17.449366
17.407373,15.238672,17.11831,14.946436,17.383692
17.717676,15.2269535,17.090235,15.239649,17.167383
18.184961,15.236231,17.458399,16.31582,16.485254
18.187159,15.275049,17.796045,16.817774,15.76333
17.325098,15.293116,17.268457,16.69668,15.06753
16.044092,15.203516,15.841944,15.65542,14.2877445
14.708887,15.1817875,13.954493,14.034327,13.2582035
13.703516,15.076319,12.660303,12.823145,12.526758
13.0375,14.752588,11.816553,11.9457035,12.390039
12.293848,14.722559,10.657373,11.552881,12.403711
12.267481,14.754541,9.772608,11.079493,11.679346
11.263086,14.872705,10.065821,10.704737,11.0917
9.806299,14.780664,9.139063,10.42959,10.665674
9.004297,14.760157,9.250879,9.977442,10.314356
9.407618,14.816309,10.257227,10.137598,10.662256
11.01919,14.229883,11.55752,11.433008,12.349268
12.02627,14.9667,13.022852,12.921045,14.136377
13.020166,15.011621,14.382471,14.08877,14.894678
14.1192875,14.994776,15.294092,15.384424,15.664209
15.393213,15.023584,16.325098,16.573633,15.552637
16.661036,15.0689945,17.196436,17.485254,16.067774
17.676172,15.150293,17.961817,18.183252,15.836817
18.132715,15.272852,18.336329,18.770899,15.709375
18.80459,15.333399,18.508204,18.897608,16.312159
19.24624,15.374414,19.200342,19.305079,16.09585
19.865625,16.067041,19.767725,19.709375,15.8814945
19.248926,16.21206,20.153955,19.78335,15.60586
17.986963,16.08999,19.379541,19.620508,15.042383
17.169336,15.747705,17.914942,18.310694,14.746729
16.19375,15.387842,16.532373,17.085108,14.708643
15.331446,15.1542,15.332666,15.792383,14.382959
14.533106,14.597315,14.841211,14.67251,14.284815
13.750147,14.688623,13.689112,14.280664,14.343409
12.949854,14.837549,14.045801,14.440821,14.312403
12.50503,14.965479,13.447657,13.644922,14.112452
12.349268,14.81045,12.579004,13.185205,14.066553
11.993067,15.184961,12.182764,12.219873,13.769434
11.835596,15.260401,11.63125,11.117334,13.902735
11.791407,15.3658695,11.750391,11.181299,14.330957
12.16836,15.13711,13.310938,12.964502,14.594629
12.814356,15.268213,14.518457,14.177393,14.746973
13.494776,15.441065,15.471827,15.153223,15.275293
13.940821,15.668848,16.126123,15.905664,15.974268
14.839746,15.903467,16.856592,16.314844,16.396875
15.266993,16.206446,17.562403,17.27212,16.786036
13.969141,16.569727,18.105616,17.997217,16.934717
13.779932,16.761377,18.14956,18.285547,17.070215
13.629053,17.000635,17.230616,18.140528,17.021631
10.814112,17.102686,16.635157,17.224268,16.976221
10.660791,17.082178,15.896387,16.440088,16.620264
10.932764,16.833155,15.329493,15.620508,16.535791
11.018213,16.521387,15.0863285,14.862207,16.046534
10.921778,15.045069,12.852686,14.089014,13.784327
10.727442,13.844873,12.385889,12.815088,13.14126
10.497217,13.945215,11.664698,11.793604,12.981104
10.437891,13.684473,11.434717,11.326319,12.7582035
10.602198,13.344629,11.0707035,10.939844,12.336817
10.691309,13.189356,11.098536,10.92544,11.6974125
10.747217,12.775782,10.953516,10.895899,11.505762
10.763575,12.515528,11.029688,10.88418,11.475
10.723047,12.611719,11.133936,10.945948,11.606348
10.657618,12.775782,11.214014,11.019922,12.095606
10.723291,13.131006,11.394434,11.148584,12.309473
10.933741,13.245508,11.668604,11.3971195,12.32461
11.281885,13.256739,12.053614,11.959131,12.443018
11.742823,13.403955,12.49917,12.355371,12.82461
12.296778,13.852198,12.885889,12.72378,13.162256
13.057276,13.906641,13.382471,13.282618,13.2738285
13.474268,14.260889,14.186426,14.032129,13.393946
13.92251,14.579493,14.991358,14.801661,13.96377
14.809717,15.197901,15.693018,15.44253,14.494776
15.56045,15.653955,16.30752,16.200342,14.465235
16.160547,15.832666,16.773584,16.712793,15.353418
16.503077,16.034082,16.978907,16.820215,15.938135
16.673975,16.0729,16.776026,16.72085,15.797022
16.624659,16.153955,16.477686,16.529444,15.543848
16.403223,16.151758,16.24209,16.140528,15.235254
15.529932,15.943506,15.579493,15.381739,14.9161625
14.3224125,15.64834,14.149805,14.046045,14.442286
13.641993,15.332178,13.194483,12.847803,13.809961
13.100733,15.2875,12.653955,12.448877,14.121973
12.627344,15.460108,12.086573,12.193018,14.732813
12.297266,15.938135,11.870752,11.264063,15.260889
11.892969,16.221582,11.795069,10.721094,15.428614
11.4942875,16.31045,11.736963,10.318506,14.861963
11.2408695,16.404444,11.695948,10.344873,14.489405
11.421289,16.2792,12.063623,11.070215,14.315821
12.065088,16.407862,12.874414,12.237696,14.646143
12.417139,16.65957,13.69253,13.441309,15.184229
12.995752,17.113672,14.800684,15.010401,15.686426
13.9005375,17.39956,16.05337,17.241114,16.146143
15.543848,17.79751,17.335352,18.973047,16.593897
16.113916,18.310938,17.953516,19.677393,17.5104
16.53213,18.562891,18.349024,20.151026,18.343653
16.814356,18.606592,18.433252,20.448633,19.961084
17.233057,20.114405,18.338037,20.659815,20.36294
17.20791,20.781885,18.122217,20.3063,20.67959
16.7521,20.746729,17.596827,19.593897,20.50625
16.040674,20.71084,16.883448,18.740137,20.002832
15.053125,20.529932,15.967432,17.766016,19.730127
14.158838,20.06045,14.701563,16.816553,18.804834
13.181543,19.432276,13.464502,16.082178,17.870508
12.335352,18.62295,12.268213,13.735254,16.961329
11.582178,18.02334,11.614893,12.234034,16.057032
10.871241,18.011377,11.457666,11.485254,15.331202
10.684473,18.079493,11.343653,10.853418,14.822657
10.833399,18.048243,11.191065,10.790186,14.363672
10.856348,18.14248,11.123194,10.614893,13.886621
10.49795,17.912256,10.881006,10.498194,13.465235
10.714746,17.916162,10.70669,10.255518,13.485498
10.928614,17.93545,11.24209,10.51333,13.498438
10.999414,17.342676,12.105371,11.556055,13.809229
11.517237,17.294092,12.899317,13.529688,14.13418
12.857569,16.423243,13.974268,14.849024,14.437891
13.924219,15.910059,15.057032,15.874414,13.895166
14.066797,15.114649,16.2875,17.345118,13.538233
13.933496,14.889063,17.339014,18.339014,13.624903
16.531397,15.536036,18.299707,19.29629,14.080469
16.762598,16.128809,18.920313,19.742579,14.846338
15.751612,16.012842,19.101221,19.919825,15.5689945
18.375147,16.2875,19.005518,20.298487,17.897364
19.084131,16.761866,18.667383,18.562891,19.168604
18.66128,16.780176,17.850733,17.58755,18.828028
18.06338,16.837793,16.330713,15.996973,18.265284
17.17373,17.069971,15.2408695,14.378321,18.030664
16.011621,17.67666,15.2875,14.226465,17.418604
15.359522,16.867334,15.057032,14.231836,16.982813
15.1661625,17.227198,15.020655,14.307032,16.434961
15.067774,16.972315,14.70669,14.143702,16.165918
14.871485,16.683252,14.3971195,14.019678,16.194239
14.836817,16.73672,13.958887,13.798731,15.678125
14.722071,16.506006,13.98794,13.663477,15.45083
14.40542,16.37002,13.574366,12.963526,15.32876
14.300684,16.178614,13.665674,12.813135,15.133936
14.1661625,16.075342,14.466944,13.119532,15.29458
14.2269535,15.888086,15.038965,14.2894535,15.464014
13.535547,15.959864,15.495508,15.393702,15.451319
13.882471,15.875391,15.386866,16.34585,14.943262
14.160059,15.622461,15.084375,16.08877,14.948877
14.641993,15.64419,15.721338,15.965723,15.0099125
14.559961,15.779688,16.745752,16.707422,14.948145
14.919092,16.14956,16.577051,16.75503,15.218409
15.082666,16.51333,17.27212,15.88125,15.625879
15.192286,16.493555,17.696192,15.76626,15.774073
15.005274,16.405176,18.004053,15.904688,15.920557
15.027735,15.960352,16.690577,16.718897,16.24624
14.9630375,15.933741,14.829004,15.241358,16.557276
14.884668,15.947901,14.421289,13.885401,16.578028
14.879053,16.121973,13.885401,13.487452,16.266504
14.767481,16.313868,13.587793,13.116114,15.775782
14.575098,16.383204,13.244532,12.848047,15.461817
14.4769535,16.158594,13.101709,12.650049,15.144678
14.358545,15.921045,12.934473,12.094141,15.073389
14.219873,15.868067,12.792139,11.902491,14.819483
14.221094,15.880274,12.593653,11.889307,14.437891
14.257471,15.772608,12.368799,11.6542,13.946924
13.91836,15.828028,12.086817,11.562403,13.775049
13.53335,16.012598,11.8207035,11.611719,13.611719
13.278467,16.192041,11.898096,12.0099125,13.804834
13.514307,16.290918,12.140772,12.40835,14.883692
13.971582,16.672022,12.315088,12.568262,15.94961
14.172022,16.741358,12.605127,12.700342,16.767725
14.406153,16.72207,12.939112,12.6896,17.259912
15.807032,17.05874,13.220362,12.855127,17.298975
17.232813,17.028467,13.512842,13.166895,17.488672
18.451563,16.851954,14.065577,13.594141,18.612207
19.2521,16.856104,15.3675785,14.379297,18.949854
20.083399,17.10415,17.445704,16.45669,17.955957
20.668604,17.366602,18.531153,18.200342,18.90835
20.767237,16.731592,18.45669,17.0375,19.700098
20.716211,16.404688,19.911036,17.64004,18.983301
19.596582,16.562647,19.19546,17.228907,18.280176
18.319483,16.498194,18.037012,17.132471,17.40005
18.080713,16.72378,17.308252,16.738916,16.26797
16.60708,16.781153,15.751856,15.416651,14.857325
15.752344,16.351221,14.454493,14.64419,14.109034
14.754541,16.080957,14.644922,14.956934,13.890039
13.667871,15.937403,14.6817875,15.063379,13.911768
13.765528,15.839991,14.356836,13.909815,14.144434
13.705469,15.73208,13.725977,12.09878,14.3417
13.110498,15.746729,12.406397,12.684717,14.346582
12.598047,15.840967,12.062403,12.3692875,14.59585
12.813135,15.868799,12.403711,13.02627,14.911768
13.58169,15.898096,13.904932,14.164209,15.224024
14.604151,16.04458,15.206202,15.094873,15.777979
15.598047,16.347315,16.655176,16.096094,16.426905
16.547754,16.190088,17.975,17.157862,16.91665
17.65713,16.140284,18.720118,18.008448,17.686914
18.684717,16.173243,19.067286,18.387598,18.94961
19.492823,16.13003,18.537989,18.759424,19.365625
20.252588,16.16836,18.428858,19.478907,19.446436
20.83706,16.22671,19.776758,19.846338,19.684961
21.19839,16.201563,18.742823,20.839746,19.652979
21.34585,16.13418,18.190088,21.13125,19.233057
20.976465,16.316309,19.403711,21.23794,18.66836
20.113428,16.317041,18.270166,20.586573,18.32339
19.072657,16.204248,17.850489,19.71206,17.671778
17.80874,16.119776,17.383448,18.501368,16.662745
16.175928,16.29751,16.664454,16.977442,15.152246
14.978907,16.48672,15.982325,15.416895,14.425196
14.275293,16.179346,15.242823,13.869043,13.979639
13.751856,16.224512,14.392969,13.256739,13.877832
13.288477,16.141748,14.316065,13.011377,13.528467
13.205713,16.060938,14.033594,12.958643,13.279444
12.985987,15.927393,13.683008,13.673731,13.1644535
12.757959,15.848047,13.341944,13.483545,13.097315
12.74502,15.796289,13.795801,13.720362,13.371241
13.158106,15.819483,14.540674,14.583643,14.842432
13.897852,15.974024,15.37417,15.751612,15.788233
14.749414,16.099268,16.430567,17.028955,16.74502
15.689356,16.085596,17.796778,18.266504,17.597803
16.07168,16.078516,19.43252,19.557032,18.402735
17.223536,15.924952,20.635645,20.610743,19.128077
18.679834,15.861963,21.677637,21.58999,19.926905
19.984522,15.918116,21.014307,22.343409,20.245752
20.739893,15.895166,22.39956,22.615625,19.829493
21.1271,15.849024,21.67422,22.749903,19.079737
21.265772,15.792383,20.356104,22.636621,18.877832
21.03213,15.781397,18.444483,22.389063,18.681543
20.427149,15.714014,19.17959,21.009668,18.707422
19.544336,15.86709,19.427393,20.411036,18.312891
18.382715,16.051172,18.475977,19.312647,16.905176
17.037745,16.15005,16.893457,17.230127,15.606592
16.539942,16.14541,16.032373,16.327784,13.84878
15.750635,16.114405,15.649073,15.958643,13.228907
15.504053,16.112207,15.486963,15.787256,12.410303
14.964502,16.08291,15.219141,15.535791,12.067041
14.296534,16.051905,14.9317875,15.200342,12.096338
13.766993,15.970606,14.609278,14.975489,11.785303
13.653955,15.905176,14.246729,14.594873,11.2564945
14.202295,15.871973,14.637598,14.732325,11.6817875
15.212305,15.860743,16.030176,15.709131,14.249903
16.063623,15.8346195,16.900293,16.732325,16.105127
16.41128,15.8519535,18.063868,17.799463,17.45962
17.307764,15.980616,19.23916,18.80581,18.442041
18.94375,16.15957,20.389795,19.766016,19.355127
19.728418,16.20254,21.460596,20.714258,19.902246
20.503565,16.176905,22.45669,21.724756,20.466944
21.218164,16.254053,23.238672,22.554346,20.725245
21.412012,16.402979,23.454004,23.096338,20.457422
21.363184,16.53921,21.883204,23.357325,20.305079
22.555323,16.825586,21.317286,23.620264,20.277002
22.38296,17.173243,21.447657,23.402979,19.886377
21.646143,17.657862,20.529688,22.518702,19.318506
20.749903,18.240137,19.05166,21.82339,18.824121
19.533106,18.612696,17.917383,19.168848,17.64248
18.376856,17.99917,16.733057,17.251123,15.454248
17.066065,17.429834,15.685205,16.158594,14.103174
16.084131,16.92422,15.167139,15.606348,13.1019535
15.547754,16.593409,14.819971,15.204493,12.497705
14.849024,16.576075,14.184229,14.95376,12.544092
14.32876,16.626368,13.802149,14.609766,11.848291
13.835352,16.681055,13.597559,14.132715,12.211084
13.381983,16.702784,13.440088,13.880274,12.566065
13.466211,16.66958,13.6175785,13.939356,12.801416
14.360987,16.73501,14.261866,14.686426,15.142481
15.413965,16.761377,14.895411,15.753565,17.47207
16.551172,16.677881,15.849268,16.95376,18.890284
17.381739,16.709131,17.200342,18.13418,19.987696
17.975,16.763086,18.407862,19.329004,21.225245
18.65249,17.094385,19.557032,20.530664,21.872705
19.313135,17.296778,20.696436,21.734034,22.352198
19.656153,17.329248,21.598291,22.372705,22.47085
20.20547,17.326807,22.303125,22.646387,22.588282
21.14248,17.564356,22.843409,22.97671,22.230371
21.734522,17.469141,22.60464,23.21792,22.26919
21.97207,17.388575,21.841211,23.051905,22.200342
21.229395,17.522608,20.763086,22.607325,21.894678
20.191309,17.464502,19.361475,22.043116,20.865381
18.755762,17.566309,17.753077,19.545069,19.11001
17.310205,18.478662,16.012598,17.51211,17.102198
15.8771,18.449854,14.779444,15.991114,16.716211
14.670069,18.404688,14.352686,15.121241,17.39541
13.875391,18.444971,14.224512,14.732325,17.63833
13.751612,18.971338,13.994532,14.3849125,17.258448
13.21377,19.137842,13.720606,13.98086,16.758936
12.355371,19.150537,13.395411,13.367823,16.745996
12.131006,18.809961,13.0064945,13.163721,16.598536
12.315088,18.44082,13.205469,13.394678,16.518213
13.036768,18.544092,14.35,14.478174,17.984278
14.032373,18.480616,15.917627,15.724756,19.77627
15.251612,18.476465,17.541162,17.25088,20.948633
16.592188,18.652735,18.848291,19.010157,21.98379
17.95376,18.652735,20.006495,20.58877,22.66421
19.38711,18.866846,21.187647,21.782862,22.300196
20.621973,18.751368,22.238184,22.787256,22.505274
21.574121,18.626368,22.964502,23.656885,22.728174
22.487207,18.373926,23.7167,24.32046,22.83047
23.114649,18.24087,24.283838,24.803125,22.839502
23.177881,18.136133,24.602686,24.994776,22.95669
22.340479,18.13125,24.524073,24.911036,22.730127
21.690332,18.258204,23.741602,24.573145,22.442774
20.894434,18.186914,22.30166,23.554346,21.33291
19.502344,18.204493,20.349756,21.868555,19.263819
17.736475,18.296778,18.682764,20.072412,17.422266
16.880518,18.73672,17.62417,18.63589,16.422022
16.171534,18.504053,17.13589,17.767237,16.080957
15.610743,18.440088,16.58169,17.51333,15.832422
15.243799,18.882471,16.014795,16.986475,15.390039
14.953516,19.080957,15.27627,16.13589,15.485743
15.119776,19.17129,14.602686,15.698389,14.993555
14.870752,19.209864,13.645166,15.645166,13.352686
14.705713,19.083155,14.703028,15.973047,14.342432
16.37588,18.678125,17.27334,17.010645,17.126612
17.855616,18.587793,18.605371,18.296045,19.142237
18.77041,18.746973,20.149073,19.724268,20.826319
20.290674,18.876368,21.460108,21.136866,22.007227
21.702784,18.879541,22.581202,22.39248,22.969385
22.710352,18.884912,23.599512,23.670801,23.096582
23.639795,19.016016,24.504541,24.752344,22.606348
24.389307,18.433496,25.266504,25.64419,22.50918
24.801416,18.58169,25.893702,26.239405,22.481592
25.02627,18.677149,26.355371,26.588526,22.942774
25.009912,19.196924,26.69961,26.61416,22.794336
24.762598,19.724756,26.632471,26.128565,22.615137
24.286768,20.035791,26.425684,25.2792,21.843164
23.412256,20.044336,25.085108,24.153223,21.107813
21.596827,20.018457,23.081202,22.823633,20.266748
20.114405,20.033594,20.839258,21.039942,18.376368
19.579493,19.939356,18.336573,19.894434,17.160547
19.021875,19.42422,18.016993,19.070948,15.886866
18.757715,19.195215,16.812403,18.15249,14.741358
18.613428,19.302881,17.338037,17.669092,15.43667
18.535791,18.925684,17.25918,17.92422,14.799707
18.237207,17.769678,17.328028,17.704248,14.625879
17.98379,16.812647,17.079493,17.383692,14.216211
18.097315,16.493067,17.074366,17.87832,14.620996
19.018946,16.373194,19.00503,18.791895,16.395166
20.270899,16.71255,20.297266,20.064844,18.108301
21.673487,17.058252,21.70669,21.375391,19.791895
22.64834,17.179834,23.103662,23.103174,21.253565
23.448633,16.932276,24.305567,24.615625,22.563868
24.044092,17.0292,25.452051,25.855127,23.653223
24.757471,16.943018,26.230371,26.869532,23.43081
25.318995,16.883448,26.654688,27.484034,22.343653
25.516993,16.910303,26.887598,27.599512,22.66543
25.569239,17.286768,26.96084,27.475977,23.053614
25.516748,17.836573,26.924707,27.162745,22.589502
25.225733,18.242334,26.355616,25.844873,22.36294
24.755274,18.52456,25.164698,24.545313,22.599024
24.228418,18.572412,24.021387,23.858057,22.488428
22.98794,18.667383,22.653711,22.390772,21.255762
21.806055,18.973291,20.738428,20.948145,19.553858
21.240625,19.214014,19.058008,20.526758,18.027002
20.850245,19.345118,19.671778,19.900782,17.887354
20.663965,19.504297,19.468897,19.389795,18.187403
20.384668,19.786036,19.153223,19.086084,17.994776
20.268946,20.046045,18.756006,18.77212,18.026026
20.028711,20.26504,18.822657,18.762842,18.183496
20.090235,20.24502,19.069483,18.866358,18.49624
20.022852,20.369287,19.483057,19.204737,18.86123
20.288233,20.889063,19.937891,18.91421,19.756495
20.867334,21.543116,20.797998,18.725733,21.184229
21.874414,21.828028,21.825098,20.469385,22.373926
22.757715,21.8688,23.175684,21.91128,22.95547
23.385157,21.506983,24.319483,23.38003,23.373682
23.955713,21.175684,24.718653,24.661768,23.065088
24.303614,21.287256,25.832422,25.67544,23.489405
24.43081,20.978662,26.23208,26.351954,24.242579
23.764307,20.905909,26.256006,26.253077,24.619532
23.988672,20.663965,24.828028,25.593409,24.510157
23.91128,20.456934,22.297998,24.740625,24.25796
24.869043,20.404444,23.562403,24.179834,24.2521
24.930323,20.453272,22.97207,24.00088,23.883204
23.73501,20.340723,22.267237,23.328516,22.998438
22.29751,19.96255,21.568262,22.340235,21.098291
20.36172,20.224512,20.908594,21.411768,19.472559
18.995996,20.442286,20.1354,20.870508,18.591455
18.46084,20.124903,19.672266,20.085596,18.06753
18.691553,20.145899,19.475977,19.389307,17.586084
17.9396,19.683496,18.861475,18.937647,17.517237
17.1979,19.326563,17.741846,17.94961,17.876856
16.154688,19.03628,17.103907,17.809717,17.758936
16.071924,18.82583,16.307032,17.906397,17.771631
16.723536,18.480371,17.017725,18.054346,17.615381
16.755274,18.31338,18.471582,18.46499,17.613184
17.07461,18.138575,19.324121,19.24331,17.658106
17.475245,17.887598,20.08999,19.059473,17.872461
17.934229,17.784327,20.52627,19.431787,18.268702
19.063868,17.759424,20.482569,20.510645,18.756495
19.5375,17.736963,21.240137,20.915186,19.102198
20.234278,17.715235,22.377832,21.705225,19.470606
20.793116,17.862207,22.826563,22.05581,19.870264
20.907862,18.03457,22.736475,22.048975,20.366114
20.810205,18.171778,22.47964,22.060205,20.479395
20.546045,18.328028,22.261133,21.843164,20.047754
20.145655,18.410547,21.8146,21.567041,19.564112
19.592676,18.630518,21.350245,21.127344,19.137354
18.799707,18.784815,20.64248,20.442041,18.588037
17.700586,18.802881,19.090235,19.072168,17.85
15.882959,18.669336,17.069239,17.100733,17.109034
15.205957,18.516016,15.78042,15.910791,16.959864
14.679834,18.441797,15.221582,15.243067,17.285303
14.187159,18.466944,14.737696,15.014551,17.200098
13.8849125,18.23794,13.328272,14.820459,17.13296
14.040186,18.173243,13.40542,14.198877,17.094385
14.3363285,17.960596,13.731592,13.9630375,17.046534
14.538965,17.613916,13.8380375,13.893457,16.584131
15.190088,17.446192,14.419092,14.324854,16.254786
15.508692,17.450098,15.218653,15.027979,15.922022
14.631006,17.280909,16.045313,15.656153,15.396631
14.687891,16.59878,16.454737,16.162012,15.348047
14.279688,16.82583,15.927149,15.621241,14.820459
14.106104,16.952295,15.676661,15.106104,15.507471
13.798975,17.084375,15.769434,15.113672,16.214258
14.164942,17.663477,16.129053,15.579493,17.086084
14.912989,18.132715,16.195948,15.710108,17.400293
16.424463,18.328028,15.682032,14.870752,17.7167
17.403223,18.638575,16.432764,15.877832,18.060694
18.30874,18.851465,17.546778,16.701075,18.473536
18.69375,18.987207,17.939844,17.22915,18.48208
19.12588,19.01797,18.583887,18.260157,18.481836
19.233301,18.902735,18.864405,18.349756,18.513086
19.318995,18.979395,19.116358,17.858545,18.394678
18.979395,18.787012,19.06582,18.01919,18.287256
18.644434,18.739649,17.883448,17.860498,18.046045
18.134912,18.6188,17.694483,17.362452,17.315577
15.286036,18.310694,17.939356,17.4313,16.744776
15.469873,17.898829,17.143702,17.47085,16.201075
15.012598,17.816309,16.76748,17.066309,16.149073
15.0707035,17.694971,16.760645,16.499659,16.417383
15.003565,17.744287,16.371729,15.871973,16.638086
14.443262,17.783594,16.030909,15.592432,16.800928
14.406885,17.549952,16.152002,15.988184,16.70791
15.327784,17.474756,16.841944,16.94668,16.662989
16.234278,17.632227,17.755518,17.436914,16.743555
16.819239,17.464258,18.372705,17.886621,16.632227
16.53628,17.388086,18.85,18.828028,16.831446
17.814112,17.271387,19.193018,18.650537,16.914942
17.809717,17.317041,18.208643,18.028711,17.30044
16.82583,17.306055,17.788233,18.222315,17.632471
16.824121,17.20547,17.71499,17.706934,17.528955
17.734034,17.241602,16.877832,17.777979,17.486963
17.914698,17.343164,16.699854,17.248926,17.15957
17.20547,17.324366,16.475733,17.078028,17.253809
16.288965,17.407373,15.849268,16.575586,17.017725
15.780664,17.355616,15.504786,15.962305,16.672266
15.413721,17.234278,15.3363285,15.740381,16.117334
15.092188,16.691553,15.075098,15.705957,15.050196
14.671045,16.548243,15.046778,15.685205,15.087549
14.287012,16.606592,14.960352,15.479151,15.27334
14.196436,16.558008,14.909082,15.354151,15.391748
