"[299, 255]","[227, 248]","[287, 319]","[279, 328]","[230, 262]"
-0.92758787,6.141992,0.5475098,0.50576174,2.86416
-0.83066404,6.086328,-0.32675782,-0.3765625,2.3927245
-0.61313474,6.4381347,-1.4827636,-0.45493165,2.426416
-0.88486326,6.96792,-0.76230466,-0.5745605,2.2054687
-0.7596191,5.9881835,-1.8741211,-0.8755859,2.0509276
-1.153418,6.0433593,-1.3797363,-0.9578613,1.1895996
-1.2081054,6.0714355,-2.0662599,-0.7061523,0.8053223
-0.78574216,5.683252,-1.0328125,-0.4576172,0.8150879
0.5765625,5.8927245,0.7538086,0.5348145,2.5875487
1.8292481,5.8263183,2.633203,2.0892577,4.728418
2.7430663,6.6498046,3.7672362,4.077295,5.9757323
3.7284179,6.7730956,4.8316894,5.2748046,6.588281
4.5453124,6.7396483,5.00332,5.8963866,6.829004
5.0697265,6.836328,4.1930175,5.4168944,7.040918
5.004785,6.879785,5.140039,5.910547,6.9796386
4.867578,6.8543944,4.9723144,5.8402343,6.539453
4.2118163,6.895654,4.6551757,5.3319335,5.8495116
2.6544433,6.9933105,3.4869628,3.8531737,4.935449
1.492334,7.0055175,2.0104003,2.697412,3.7003417
1.1107422,7.183496,1.9127442,2.0260253,2.8314452
1.0663086,7.117578,1.3543946,1.3424317,2.75625
1.0516602,7.1388183,1.0621582,0.9886719,2.9864745
1.1356446,6.7013183,1.1817871,0.65126956,3.673242
1.2198731,6.4916015,1.2083985,0.303125,3.4251952
1.1046387,6.5052733,1.2938477,0.62416995,3.1031737
0.933252,6.3651366,1.0672852,0.7091309,3.5475097
0.54604495,6.3719726,1.1407715,0.7979981,3.7352538
0.2442871,6.25625,1.0404297,0.6700684,3.5475097
-0.20273438,6.1163573,1.582666,0.55214846,3.2730956
-0.42050782,6.120752,1.6827637,0.46767578,3.1979003
-0.47519532,6.0541015,1.4579102,0.38051757,3.0414062
-0.13559571,6.0191894,1.7416016,0.6046387,3.1397948
0.929834,6.0885253,2.2567382,1.7027832,3.8314452
2.1705565,6.3749022,2.957666,2.7091308,4.8375487
2.815332,6.6844726,3.8905272,3.5924315,6.300195
3.2450194,6.935449,5.0143065,4.639795,7.105615
3.8736815,7.178369,5.568506,5.5108886,7.500879
4.4066405,7.110498,5.598535,6.0108886,7.4952636
4.3387694,7.507959,5.9901366,5.6722655,7.4774413
4.0055175,7.622705,5.499414,5.5023437,7.414697
3.4933105,7.6754394,4.877588,5.0416503,6.8358397
2.6825194,7.702783,3.8375487,4.202783,5.7677245
2.195703,7.299463,3.3126464,3.197412,4.6339355
1.8148438,6.9691405,2.6515136,2.601709,4.343408
1.5057617,6.516504,1.9225098,1.9637696,4.2499022
1.4544922,6.0526366,1.6688477,1.3211914,3.933496
1.1581055,5.9415526,1.6983887,1.0111328,3.251367
0.89516604,5.938379,1.4742676,0.9671875,2.4471679
0.5836426,5.982324,1.0584961,0.9007813,2.4554687
0.34023437,5.7481933,0.8709961,0.70473635,2.312158
0.21547851,5.5416503,0.5667969,0.5011231,2.2191405
0.24160156,5.456201,0.525293,0.13808593,1.8316895
0.32631835,5.723047,0.27260742,-0.08701172,1.5626465
0.30361328,5.758203,0.18398437,-0.18735352,1.5919434
0.3536621,5.801172,0.13320312,-0.17954102,1.2169434
0.63857424,5.775293,0.52382815,-0.02475586,2.5233397
1.4759766,5.3021483,1.4395996,0.8895508,3.5538573
2.1300292,4.704492,2.6449218,2.174951,3.5956054
2.785791,4.917627,3.867578,3.4669433,4.3714843
3.438867,5.4930663,4.552881,4.782861,6.0858397
3.6358886,6.054834,5.2992187,5.291406,6.504297
4.058496,6.2225585,5.3177733,4.37832,6.8871093
4.351709,6.624658,4.164453,3.3036132,6.259912
3.3839355,6.7176757,3.100244,3.8038573,6.4046874
2.2022948,6.7137694,3.4200683,4.1654296,6.266504
1.9430176,7.013574,2.6397948,2.8114257,5.540918
1.558252,7.454736,1.773584,2.360498,4.4935546
1.1366211,7.9967284,1.2877442,1.4178711,3.0277343
0.9269043,8.280909,0.027734375,1.2606446,3.1283202
1.1415039,8.006739,-0.026220703,1.1778809,2.7818847
0.8294922,7.6654296,0.6869141,1.0694824,3.3668456
0.3573242,7.516748,1.0558106,1.4708496,3.3785644
0.13710937,7.485498,0.6244141,1.4010254,3.4400878
0.104882814,7.3888183,1.4601074,1.0211426,2.7474608
0.07509766,7.169824,0.61464846,0.6231934,2.0729003
-0.22714844,7.2728515,-0.36850587,0.04897461,1.5104004
-0.16708985,7.0018554,-1.0398926,0.20351562,1.415918
-0.12412109,6.8402343,-1.103125,0.6664063,1.289209
0.13759765,6.799707,0.38344726,0.3421875,0.9254395
0.28432617,6.7970214,-0.26328126,0.34926757,1.1725098
1.0628906,6.805322,2.1605468,1.9811035,3.6300292
2.124414,6.866113,4.414209,4.171045,5.850488
3.4327636,6.9740233,5.63125,5.4469237,6.8109374
4.4828124,6.991113,5.963037,6.199365,6.8663573
5.317285,6.9850097,4.900781,6.051416,6.96499
5.7916503,6.8719726,5.473535,5.7311034,7.0924315
5.6688476,7.103906,5.771631,6.4464355,7.5836425
5.2765136,7.2210937,6.4356933,5.810205,7.5020995
4.780664,7.4601073,5.4173827,5.134668,6.6739745
3.5902343,7.482324,3.560205,3.7855468,5.296289
1.9654785,7.806787,2.4459472,2.6895995,3.8390136
1.914209,7.9842772,2.0382323,2.4176269,3.2591796
1.6395508,7.9188476,2.2398925,2.5348144,3.3407226
0.7210938,7.8910155,2.662744,3.23916,3.6803222
0.35097656,7.658838,2.9659667,3.225,4.0299315
-0.017919922,7.4693847,2.9068847,3.0641112,4.4186034
-0.46958008,7.2169433,2.9359374,2.645166,4.5228515
-0.46762696,7.039697,2.7333007,2.8990722,3.990625
-0.31308594,6.9764647,3.1361327,2.8819823,3.8670897
-0.038183592,6.8680663,3.2606444,3.2884765,3.8612304
0.15810546,6.8443847,3.3250976,2.6346679,3.9869628
0.24575195,6.667871,3.2274413,2.5472655,3.6190429
0.29555663,6.61416,2.8729491,2.3800292,3.4657226
0.42861328,6.584131,2.624658,2.2972655,3.8038573
0.9994141,6.572656,3.2696776,2.881494,5.0072265
1.9376465,6.584863,3.782373,3.1759276,5.8231444
3.4742675,6.8888183,4.2396483,3.657373,6.6043944
4.569238,6.9376464,4.6549315,4.595117,7.2523437
4.1026855,7.0702147,5.514795,5.0746093,7.910547
4.709375,7.333154,5.8475585,5.266504,7.583154
4.3714843,7.45083,5.803613,5.810449,7.6725097
4.852197,7.6,5.9225097,6.013574,7.426172
4.0138183,7.7691894,5.6231933,5.221338,6.9652343
3.2369628,7.850488,4.6822753,3.6998534,5.603906
2.4046874,8.004053,3.4186034,3.3741698,3.714746
2.3822265,7.8443847,2.6588378,2.9781737,3.7740722
2.317285,7.7452636,2.023828,2.1839843,4.348291
2.0172362,7.775293,0.8089844,1.3958985,4.3844237
1.6090332,7.811914,0.14003906,0.63686526,4.153711
0.96254885,7.4669433,-0.34750977,-0.23813477,3.839746
0.87246096,7.109033,-0.84580076,-1.3609375,3.8929687
0.09291992,6.89541,-0.941748,-0.90585935,3.6773925
-0.25473633,6.7223144,-1.3191894,-0.8909668,3.4657226
-0.058935545,6.6183105,-1.3943847,-1.1111816,3.1603026
0.41884765,6.365625,-1.0474609,-1.7085937,3.3387694
0.636377,6.124414,-1.0938476,-1.4625,2.9408202
0.71425784,5.5521483,-1.1075195,-1.5223144,3.3126464
1.370752,5.820459,-0.6297363,-0.323584,3.9081054
2.4811034,6.2887206,0.9308106,1.2083985,5.193506
3.5882812,6.5802245,2.271875,2.6170897,5.9764647
4.181787,7.299463,3.586084,3.945459,6.4190917
4.631738,7.9850097,5.3287597,5.1708007,6.830713
5.0921874,8.021143,6.158838,5.5853515,6.997949
5.336572,8.486719,6.1322265,5.7030272,7.4378905
6.3807616,8.462061,5.957666,5.638574,7.396631
6.25625,8.246729,5.2013183,5.4500976,6.991113
5.543115,7.9237304,4.8409667,4.4830565,6.474756
4.0731444,7.3805175,3.9999022,3.7723632,5.360742
2.7730956,6.794336,3.2005858,3.0223632,4.306543
2.0572753,6.3062987,2.9693847,2.5772948,4.141992
1.4449707,6.257959,2.6180663,2.4046874,4.2506347
0.92958987,6.0155272,2.5582519,1.9581543,4.26333
0.698877,5.8219237,1.886377,1.4459473,4.126611
0.6178223,6.014795,2.284082,1.2755371,3.608789
1.0072266,5.723535,1.6534668,1.0855957,3.501367
0.8792969,5.3473144,1.5858399,0.72988284,4.0370116
0.67958987,5.171045,1.0992676,0.76479495,3.8526855
1.0143067,5.143701,0.94277346,0.7237793,3.3871093
1.2240235,4.9430175,1.1412598,0.68251956,3.624658
1.1964356,4.5833983,0.7662598,0.49379882,3.1166015
0.98964846,4.474756,0.19033203,-0.007421875,3.4400878
1.211084,4.264795,0.68618166,0.25527343,3.9254394
1.6732422,4.326074,1.8202149,1.6019531,4.6617675
2.3807616,4.7889647,2.237451,2.4046874,4.8180175
2.8915038,5.548242,3.089746,3.5838866,5.4068847
3.251367,6.688867,3.6273437,3.8316894,6.0521483
3.579492,7.2311034,4.177881,4.189111,6.344873
4.419824,7.7420897,4.6231933,4.8041015,6.7660155
3.791162,8.239893,4.875879,4.598535,7.155908
3.2970214,8.186182,4.702783,4.409082,6.725
3.1441894,7.9413085,3.704248,4.2501464,6.4378905
1.6688477,7.912256,2.4393554,2.8526855,6.0006347
0.88149416,7.171045,1.0865723,1.1070801,5.306787
0.5597168,6.584375,0.3163086,0.31923828,4.811914
-0.08847656,6.2142577,-0.4185547,-0.1265625,4.0196776
-0.6880859,5.8373046,-0.79111326,-0.68125,3.9312987
-1.0816406,5.521631,-0.91538084,-0.9534668,3.5511718
-1.1780761,5.098779,-0.9126953,-1.330664,3.2975097
-1.2937988,4.80874,-1.0376953,-1.328955,3.2010741
-1.1387695,4.6856933,-0.86191404,-1.0799316,3.093408
-1.1070312,4.584131,-0.5606445,-0.74008787,3.2508788
-1.0850586,4.5128417,-0.42148438,-0.5799316,3.301416
-1.059668,4.6339355,-0.3494629,-0.47788087,3.3827147
-1.0179199,4.5660644,-0.20175782,-0.39584962,3.3036132
-0.93759763,4.6048827,-0.12631837,-0.35654297,3.2462401
-0.7215332,4.6688476,0.061425783,-0.09140625,3.565576
-0.33115235,4.6078124,0.76601565,0.39296874,4.032861
0.03310547,4.6200194,1.4046875,1.0709473,4.251123
0.66689456,4.735254,1.8604981,1.7230469,4.0648437
1.3978516,5.0194335,2.4706054,2.3163085,4.3910155
1.7394043,5.42666,2.7904296,2.7914062,5.0245605
2.0501952,5.9051757,2.7369628,2.7672362,5.2088866
2.3097167,6.3194823,3.126367,2.829248,5.6117187
2.2364745,6.822412,3.2804198,3.1014647,5.984033
1.9830567,7.159326,3.1324706,3.0365233,6.1754394
1.6686035,7.3390136,2.7069335,1.9989258,6.4413085
1.4125,7.5145507,2.1583495,1.4664551,6.5509276
1.3473145,7.728418,1.9071289,1.15542,6.66958
1.4308106,7.709619,2.0353026,1.5399414,6.6932616
1.5355469,7.707422,2.167871,1.7740723,6.6617675
1.6625,7.6498046,2.0814452,1.8434082,6.7225585
1.8214356,7.58291,2.0350585,1.9425293,6.697412
2.2186522,7.638086,2.336328,2.0436034,6.7989745
2.5067382,7.6163573,2.5868163,2.3416991,6.8478026
2.7499022,7.68374,2.7508788,2.6773925,6.9566894
3.0423827,7.832422,2.8973632,2.8724608,7.088037
3.2767577,8.048487,3.1051269,3.0780272,7.2291503
3.4676757,8.232325,3.2958007,3.2049804,7.442529
3.7447753,8.427637,3.4085937,3.397119,7.7152343
4.034326,8.987207,4.1527343,3.8089843,8.302881
4.312158,9.395166,5.169336,4.5421386,9.110254
4.8460937,9.6661625,5.8263183,5.2933593,9.682764
5.1517577,9.703028,6.958154,6.1361327,9.97085
5.2779784,9.64834,8.054346,7.0091796,9.932276
5.416162,9.693262,9.082666,7.8409667,10.261866
5.473779,10.033594,8.734278,8.038965,10.096582
5.325586,10.212061,7.992822,7.9166503,10.076319
5.195459,10.304834,7.560449,7.711328,10.484278
5.2748046,10.316553,7.127832,7.416406,10.609034
5.2708983,10.100489,6.8670897,7.091699,10.684229
5.584131,9.926416,6.4081054,6.6996093,10.721094
6.1427245,9.919336,6.2660155,6.4498534,10.4908695
6.7767577,9.960352,6.4137206,6.461572,10.585108
7.330713,9.920557,6.900293,6.723779,10.641993
7.6219726,9.899805,7.5228515,7.043115,10.596094
7.8368163,10.027491,7.837793,7.240869,10.618067
8.109034,10.071192,7.8148437,7.586084,10.629786
8.359034,10.023584,8.050928,7.79458,10.628565
8.675196,10.078028,8.121973,8.137354,10.62417
8.932032,9.98794,8.751856,8.474756,10.613428
9.160791,9.991358,9.198633,8.853907,10.599268
9.383448,10.123438,9.843897,9.316309,10.6349125
9.537012,10.215235,10.018213,9.623682,10.741358
9.780909,10.462549,10.24917,9.869043,11.09292
10.078272,10.86001,10.723047,10.19253,11.443506
10.421778,11.152246,11.611963,10.546778,12.015284
10.788233,11.531885,11.884668,10.961817,12.697657
11.261377,11.87295,12.208643,11.389307,13.266016
11.797266,12.000147,12.300928,11.533838,13.299219
12.062159,12.032862,12.703272,12.01333,13.007227
12.378809,11.922998,13.089991,12.465967,12.863916
12.467188,11.756739,13.411036,12.831202,12.688379
12.494043,11.621973,13.620752,13.048243,12.465235
12.631983,11.616602,13.633692,12.9925785,12.316065
12.643213,11.454004,13.586817,12.966211,12.019678
12.455225,11.125879,13.5082035,12.91543,11.719385
12.255274,10.803614,13.349024,12.649561,11.226709
12.062647,10.704981,12.708155,12.093653,10.472559
11.839258,10.562647,11.988428,11.520411,10.032862
11.251856,10.326563,10.433496,10.30459,9.801172
10.233301,10.120264,9.344629,9.208155,9.606592
9.382471,9.855616,8.690577,8.589014,9.319971
8.857813,9.571924,8.56875,8.510401,9.187403
8.38125,9.42251,8.314844,8.603418,9.091211
7.7875,9.261377,8.041407,8.192774,8.651514
7.334131,9.1542,7.7958007,7.640283,8.171045
7.065332,9.071436,7.3805175,7.3060546,8.355616
6.957666,8.870264,7.2157226,6.849756,8.116602
6.991113,8.7442875,7.0226073,6.4842772,8.302881
6.1498046,8.617823,7.4723144,6.905664,8.863184
7.138574,8.507227,7.69082,7.4413085,9.169336
7.8375487,8.547266,7.902246,7.5143065,9.6505375
8.553858,8.629053,8.27334,8.47378,9.841211
8.410059,8.782373,8.088526,8.301416,10.297754
8.635645,8.969629,8.559961,8.535547,10.05459
8.114649,9.3189945,8.319239,8.5064945,9.844873
8.043116,9.583887,7.7489257,7.900781,9.525049
7.494043,9.648096,7.502588,7.600488,9.29751
6.9217772,9.691309,7.37417,7.5121093,9.245996
6.886621,9.7738285,7.4898925,7.6876464,9.304346
6.6844726,9.879053,7.5714355,7.907861,9.562159
6.565576,9.941065,7.720361,7.9847655,9.641748
6.5267577,10.039942,8.042871,8.051416,9.718897
6.5316405,10.075342,8.334864,8.219629,9.809961
6.155908,9.9752445,8.354151,8.215479,9.7738285
6.015283,9.804102,8.252832,8.126856,9.610254
6.0384765,9.798975,8.138086,8.0377445,9.51333
6.1683593,9.670313,8.112696,7.9273925,9.294336
6.2574706,9.588526,7.75625,7.815332,8.812159
6.2206054,9.669336,7.011377,7.3631835,8.835108
6.197412,9.7877445,6.897119,7.098291,9.173731
6.5333495,9.781397,7.3541503,7.2640624,9.287012
6.8358397,9.329737,8.014551,7.8390136,8.749903
6.9947753,9.172266,8.668848,7.8214355,8.697168
7.119043,8.945459,9.078272,7.9393554,8.163721
7.261377,8.666895,8.376368,7.911279,8.104395
6.8648925,8.913233,8.327539,8.07461,8.841211
5.803613,9.035547,7.5907226,7.596338,9.344385
5.9723144,8.553614,7.081445,7.502588,9.06167
6.3062987,8.226465,7.5943847,7.7967772,8.796534
6.129541,7.8670897,7.379541,7.6344237,8.195215
5.598535,8.428125,6.67666,6.881494,7.384912
5.044336,8.636133,6.1324706,6.231836,7.3736815
4.5123534,8.77627,6.0541015,5.934961,7.2030272
4.5089355,8.667383,5.87417,5.807031,7.3058105
4.0467772,8.171045,5.9481444,5.6720214,7.204248
4.063623,8.515772,5.6183105,5.199365,7.3734374
3.7672362,8.17544,5.3197265,5.117822,6.759668
4.0833983,8.625879,4.819238,4.6722655,7.178613
4.2657714,8.976709,3.928369,3.7479491,7.1373534
4.5624022,8.890528,5.1075683,5.143945,6.9728026
4.7987304,8.885889,5.942529,5.397119,7.205957
5.2118163,8.580469,5.7958007,5.310449,7.139795
4.902002,8.179346,5.6217284,5.2640624,6.9483886
4.6512694,8.319239,5.3790526,5.175195,6.834375
4.7811522,8.111231,5.5489745,5.275781,7.100488
5.2604003,8.187647,5.7916503,5.2030272,7.299951
5.2833495,7.980371,5.459131,5.079736,7.47207
5.91958,8.039942,5.5106444,5.280908,7.7364745
6.1859374,8.104639,5.552881,5.226953,8.320459
6.299463,8.298487,5.395654,5.176904,8.392481
6.583154,8.298731,5.398828,5.251123,8.553858
6.4322753,8.19961,5.1791015,5.0765624,8.513086
6.4137206,8.665918,5.186914,5.0719237,7.8910155
5.87124,8.4786625,4.833154,5.015283,7.1217284
5.1166015,8.421778,4.7899413,5.0123534,7.143701
4.939111,8.392481,5.066797,5.311914,7.164697
4.646875,8.150049,5.1742187,5.244531,6.8233886
4.458154,8.004786,4.6458983,4.744531,6.211328
4.1913085,7.9098144,4.9637694,4.7760253,6.365869
3.9537597,7.6791015,5.0731444,5.0111327,6.1166015
4.047998,7.5267577,5.135156,4.8961425,6.141504
3.7350097,7.4710937,4.92666,4.671045,6.0091796
3.523828,7.376367,5.019922,4.711328,5.945459
3.3324218,7.381738,4.7813964,4.674707,5.7169433
3.4098144,7.298486,4.7865233,4.586572,5.6742187
3.4325194,7.289453,4.6996093,4.7101073,5.5243163
3.324121,7.28457,5.00332,4.768457,5.3861327
3.3404784,7.0648437,4.719873,4.6500487,5.438867
3.4322753,7.021631,4.874658,4.5401855,5.4781737
3.6878905,6.9288573,5.5140624,4.985742,6.167871
4.141504,7.010156,5.9813476,4.9845214,6.711084
4.01333,7.1463866,5.407129,4.726953,7.299463
4.9166503,7.4063964,5.5121093,4.7923827,7.6654296
4.9688964,7.65249,6.0873046,5.4637694,7.8075194
5.2967772,7.917871,6.88833,6.2469726,8.297998
5.1737304,7.687158,7.2030272,6.572168,7.20083
4.264795,7.829492,7.488916,5.5177245,7.6168456
2.9032226,8.096582,5.6014647,5.8233886,7.209131
2.8507323,7.6737304,5.7154784,5.2489257,6.4325194
2.9642577,7.820459,4.987695,4.643457,6.0382323
3.1012206,7.877832,4.419336,4.06167,5.8145995
2.8287597,7.485742,4.0851073,3.9151855,5.513086
2.6061034,7.1561522,4.0736327,3.6283202,5.2308593
2.3861327,6.9137206,3.8541503,3.4952636,4.973291
1.9562012,6.643945,3.5614257,3.657617,5.0736327
1.4840332,6.695459,3.50625,3.4015136,4.8558593
1.5899903,6.4312987,3.128076,2.9940429,4.438623
1.6444336,6.221582,2.580957,2.2831054,4.1043944
1.7784668,5.3438964,2.129785,1.5821778,3.9710937
1.7738281,5.468408,1.4601074,1.6268555,4.5228515
1.5587403,6.2086425,1.1957031,0.5257813,4.195703
1.4466797,6.317041,0.43666992,-0.11899414,3.9796386
1.1300293,6.3041015,0.4737793,0.07851563,4.452295
1.5099121,6.070703,1.2164551,1.0411621,5.4344726
2.4112792,6.553369,2.190576,2.095117,5.822412
3.2855468,6.6041503,3.2762694,3.3646483,6.308496
4.290918,6.799707,4.570459,4.522119,6.7606444
5.059961,6.6893554,5.3788085,5.377832,7.049463
5.3790526,6.7154784,5.921289,6.09707,7.103662
5.3441405,6.76333,6.3143554,6.282129,7.127832
5.0699706,6.8124022,6.1253905,6.1705565,6.9156737
4.376367,6.8668456,5.6808105,5.834131,6.458154
3.396875,6.882959,4.551416,4.6446776,5.70083
1.9554688,6.9374022,2.7284179,3.2472167,3.9771972
0.8805176,7.122949,1.4044434,2.383203,3.6217284
0.31435546,7.065576,0.8287598,2.0055175,4.216211
0.36416015,7.098779,1.3492676,1.6314942,4.463037
0.7057129,7.301416,1.6268555,1.4793946,4.7831054
1.2477051,7.457422,1.1261231,1.2113281,5.1510253
1.3717285,7.565332,1.4259278,1.5311524,5.516504
1.4073731,7.5348144,2.0311522,1.7169434,5.7555175
1.3832031,6.7887206,2.4627929,1.7103516,5.3680663
1.6002442,6.6483397,2.5685058,1.7479492,4.7083983
1.7401367,6.6581054,2.7262206,1.9969727,4.958154
0.98769534,6.865869,1.6180664,1.570459,5.2501464
0.3104492,7.684961,1.2289063,0.9093262,5.9483886
1.2340332,8.475733,1.8009278,1.0594727,7.134668
1.8629395,9.484766,2.9017577,1.9620606,8.783838
2.6927733,9.655664,3.620996,3.2875,9.792627
3.6229491,9.707911,4.21499,4.2987304,10.418604
5.0294433,9.628565,5.2574706,5.4879394,11.030176
7.1358886,9.876612,7.3358397,8.876123,11.467188
8.116358,9.756006,9.562159,9.211817,11.6332035
7.8614745,9.835596,9.212305,9.329248,11.39126
7.6170897,9.606104,9.225489,8.846094,10.747461
7.6703124,9.777002,8.66836,8.385645,10.45669
7.323877,9.885157,8.164942,7.6961913,9.876368
6.7918944,9.578272,7.218408,7.443994,9.652002
6.532373,9.958643,6.916406,7.1148925,9.084375
6.5040526,9.589991,6.9339843,6.6649413,9.211573
6.4466796,9.603907,6.2591796,6.8280272,9.195215
6.278955,9.476221,6.485254,6.756006,9.045313
6.2174315,9.44668,6.5938964,6.6029296,8.9769535
6.3731933,9.373438,6.3265624,6.5956054,9.049463
6.341211,9.222315,6.112451,6.632959,9.109278
6.431543,9.069971,6.093164,6.7748046,9.163721
6.744043,9.199366,6.1668944,6.608789,9.324366
6.98208,9.214014,6.615381,6.7088866,8.95669
7.060449,9.332911,6.6649413,6.707422,8.747217
6.90957,9.188379,6.6717772,6.478906,8.559229
6.591699,9.141016,6.5943847,6.3541503,8.672022
6.687158,8.841455,7.1327147,6.9239745,9.051905
7.030664,9.151026,7.959131,7.4864745,9.807276
7.4469237,9.342432,8.186182,7.5890136,10.332422
8.065088,9.335596,9.307276,8.741602,10.698877
8.6471195,9.469385,9.008448,8.903711,11.142237
9.74795,9.524805,9.213282,8.677393,10.842188
9.964014,9.678125,9.228418,7.8131347,11.057276
9.539942,9.592188,8.979883,7.150781,10.128077
9.149073,9.632959,8.385645,7.268701,9.957178
8.844141,9.665674,7.8075194,7.468408,9.879297
8.095118,9.681055,7.4815917,7.11416,9.534815
7.7623534,9.606836,7.0555663,6.6446776,9.355616
7.7398925,9.364649,6.7696776,6.5123534,8.795313
7.7325683,9.301172,6.558252,6.3617187,8.615137
7.7552733,9.017481,6.3253417,6.109033,8.2738285
7.7955565,8.8814945,6.190576,6.1114745,8.128565
7.3768554,8.710352,6.283838,6.065088,8.146631
6.8541503,8.63711,6.3182616,5.856836,7.938623
6.7435546,8.620752,6.0558105,5.7989745,7.726953
6.5416503,8.43252,6.0318847,5.0089355,7.495996
6.3253417,8.480127,5.7003417,4.9967284,7.3595214
5.9503417,8.389551,5.150293,4.7330565,7.1600585
5.653955,8.085352,4.950586,4.5699706,6.669824
5.181543,7.6009765,5.3490233,5.023828,6.5782714
4.954004,7.374658,5.994043,5.6371093,6.4339843
4.7611327,7.1810546,6.365625,6.1222167,6.2904296
4.4222655,7.3563476,7.2833495,6.872461,6.2225585
3.7828612,7.2066894,7.966211,7.301416,6.6480956
3.8233886,7.350244,7.9225097,7.622705,7.6791015
4.1983886,7.3072753,7.8436522,7.9549804,8.8417
4.277246,7.7811522,7.800195,7.475244,9.2252445
5.1515136,7.9637694,7.605127,7.5560546,9.459864
5.620996,8.520655,7.176172,6.94375,8.853418
5.4671874,9.028223,6.268945,6.3995605,8.195459
5.0753417,8.728174,5.8111815,5.733545,6.739404
4.3941894,8.730616,4.900781,5.061914,6.866113
3.7882323,8.437159,4.544824,4.551416,6.6268554
3.346826,8.633692,4.2191405,4.082666,6.2437987
3.221826,8.529444,3.754785,3.7591796,6.0140624
2.9937987,8.3814945,3.4898925,3.3819823,5.537988
2.8097167,8.192286,3.2208495,3.004785,5.0768065
2.5301757,8.0292,2.9933105,2.7550292,4.6480956
2.3041015,7.935205,2.8426757,2.6351562,4.4381347
2.0487304,7.855127,2.8072753,2.5438476,4.336084
1.7464844,7.7796874,2.9754882,2.5875487,4.1
1.4942871,7.770654,2.8336425,2.3939452,3.5440917
1.0545899,7.813379,2.6119628,2.2711425,3.3956542
1.7740723,7.8419433,3.7816405,3.5245605,4.900293
3.33291,7.712793,5.4168944,5.1844726,6.959619
4.9027343,7.879785,6.209375,6.165918,8.057276
5.7225585,7.98916,7.225,6.8770995,8.784082
6.1898437,8.1817875,6.947168,7.6512694,9.204004
7.3600097,8.318262,7.9691405,7.674463,9.116602
7.4203124,8.464258,7.907617,7.4708495,8.736475
7.718408,8.545801,7.12417,7.1551757,8.814112
7.2972655,8.590967,6.93667,7.011865,8.667871
7.077783,8.620508,7.0174804,6.855615,8.206934
6.227197,8.661036,6.3045897,6.3319335,7.848779
5.242578,8.724024,5.6078124,5.5348144,7.503076
4.5211425,8.663477,5.362451,5.334131,6.6305175
4.03042,8.043604,5.4444823,5.214746,6.5990233
3.6515136,7.855127,5.3700194,4.929834,5.513086
3.4657226,7.750879,4.943506,4.40957,5.8316894
3.6229491,7.3282714,4.952539,4.556787,5.813867
3.4366698,7.303125,4.738672,4.4200683,5.6932616
3.3231444,6.85,4.1561522,4.411035,5.9828124
2.801416,6.7589355,4.021875,4.202295,6.139795
2.5091796,6.749414,4.06582,4.136377,5.7447753
2.5055175,6.172998,4.001123,3.757959,5.49917
2.3231444,7.218408,4.221582,3.6327147,5.211084
2.1498046,7.5370116,3.6405272,3.6603026,4.7350097
2.2967772,7.3773437,3.8556151,3.955957,5.3409667
2.6334472,7.2452636,4.4686522,4.4325194,6.370996
2.704492,6.949365,4.2782226,5.0265136,6.8338866
3.0714355,6.893701,4.8165526,5.7103515,7.051172
3.9964843,6.789697,5.521631,6.18667,7.744043
4.608545,6.6024413,6.213281,7.253076,8.194971
4.783838,6.8739257,7.5589843,7.911035,7.5416503
4.820947,6.9225097,8.051905,7.9659667,8.061914
4.7169433,7.240625,7.452295,7.3194823,8.109766
5.029199,7.6859374,6.272119,6.92666,7.45791
4.6058593,7.9952636,5.730127,5.925195,7.0787597
3.9549804,8.115625,5.1703124,4.945459,6.110986
3.8314452,7.7645507,4.7257323,4.2105956,6.1668944
3.3377929,7.969629,3.581201,4.0904784,6.4288573
2.7022948,8.080713,3.9273925,3.2821288,6.329736
2.1849608,7.9125,3.603662,2.9950194,6.1717772
1.8504883,7.5436034,3.549707,2.73916,5.525781
1.7240235,6.807031,3.136621,2.1908202,5.593408
1.8207031,6.7206054,2.9129882,2.2640624,5.6163573
2.113916,6.6566405,2.1925292,1.2679688,5.221338
2.1253905,6.355371,1.4879395,0.62294924,5.4271483
1.4132324,6.2296386,0.82314456,0.4071289,4.6344237
0.9850098,6.1222167,0.0375,-0.019384766,4.164209
1.1583496,6.06582,-0.22666016,-0.2088379,3.6068358
1.9476563,6.0870605,0.74086916,0.50991213,4.8565917
2.8473144,6.2762694,2.2210937,2.00625,6.066797
3.6068358,6.3893065,3.3924804,3.2416015,6.5833983
4.455713,6.50625,4.5145507,4.367822,7.1200194
5.3512206,6.875879,5.613672,5.359033,7.6461425
6.0594726,7.0978026,6.6187987,6.193994,7.894922
6.6393065,7.1981444,7.2899413,7.0382323,7.8856444
6.903711,7.303613,7.9686522,7.959863,8.081934
6.9469237,7.46499,7.8148437,8.123682,7.841211
6.677881,7.6620116,6.8907714,7.115869,7.343164
5.9322753,7.8111815,5.714502,5.8841796,6.875879
4.803613,7.9637694,4.8368163,5.296533,6.8438964
4.554834,8.194239,4.4469237,5.0001464,6.961084
4.329736,8.491602,4.5453124,4.87832,7.3246093
4.422754,8.702539,4.5768065,4.805322,7.652246
4.3124022,8.7564945,4.490869,4.875879,7.706445
4.2298827,8.852442,4.5892577,5.015039,7.672754
4.0665526,8.819483,4.9571776,5.4242187,7.5301757
4.0648437,8.889063,5.2469726,5.7315917,7.7503905
4.098047,8.987696,5.3595214,5.5296874,7.673486
4.143213,9.009668,5.830713,5.8041015,7.244287
4.28457,8.971827,6.1302733,5.995752,6.6822753
4.507959,8.81875,6.4322753,6.3700194,6.6654296
4.813379,8.721094,6.43374,6.917871,6.832666
5.3045897,8.910791,7.346582,7.362207,8.048243
6.4657226,8.950098,7.2936034,7.0487304,8.666895
7.699365,8.6939945,7.2191405,7.4920897,8.973291
8.420069,8.702539,7.364404,8.121241,9.650049
9.3417,8.903467,8.153467,8.8033695,10.096827
9.680811,9.57876,8.410547,9.184961,10.64834
9.527002,9.886133,8.249659,8.947168,10.922998
9.484278,10.018946,8.011133,9.185938,10.634424
9.36709,9.971582,8.257227,8.939112,10.24209
8.86001,9.877588,8.548243,9.217188,9.838526
8.355371,9.849512,8.534815,9.073633,9.595362
7.9188476,9.847071,8.2408695,8.599512,9.405176
7.5526366,9.815332,8.014063,8.279932,9.344873
7.4583983,9.754053,7.8958983,8.254541,9.329004
7.37124,9.754786,7.874658,8.409082,9.353907
7.351953,9.777735,7.971826,8.560205,9.25918
7.3419433,9.768213,8.216944,8.837793,9.207666
7.348779,9.796045,8.329737,8.938135,9.201075
7.3075194,9.822657,8.369776,8.87002,9.260157
7.333154,9.831446,8.391504,8.745752,9.315088
7.376123,9.832178,8.386133,8.690332,9.379541
7.3976073,9.820459,8.371485,8.666895,9.422266
7.301904,9.810938,8.365625,8.67959,9.387842
7.2796874,9.863184,8.473536,8.719385,9.515772
7.4955077,9.8988285,8.815332,8.827539,9.76919
7.7259765,9.895655,9.197657,9.130518,10.0082035
8.048731,9.954004,9.4925785,9.87295,10.268702
8.48208,9.992334,9.652002,10.164942,10.505274
8.988672,10.096827,9.887354,10.338526,10.784571
9.491846,10.142725,10.183252,10.542871,11.035547
9.964258,10.2096195,10.166407,10.389307,11.173243
10.041895,10.269434,10.1192875,10.255518,10.761133
9.978174,10.282618,9.931543,10.0567875,10.430323
9.792871,10.213526,9.602442,9.794336,10.1974125
9.23501,10.133692,9.207178,9.602686,9.94375
8.491846,10.023096,8.837305,9.349512,9.495752
8.067774,10.048975,8.60586,9.247461,9.365625
8.142237,10.072657,8.543848,9.195459,9.347071
8.059229,10.063379,8.587305,9.243555,9.387598
7.9327636,10.013575,8.737452,9.264551,9.489893
7.797754,10.016016,8.705713,9.206446,9.498194
7.720361,10.050196,8.646875,9.059961,9.500391
7.702783,10.045557,8.73086,8.896631,9.467188
7.704736,9.958155,8.833155,8.680323,9.443506
7.6058593,9.964746,8.874903,8.4457035,9.417871
7.334375,9.960108,8.904688,8.337793,9.406397
7.3219237,9.973047,8.906641,7.411035,9.376123
7.293115,10.011133,8.875879,7.0038085,9.334375
7.3802733,10.011377,8.89126,7.141992,9.371729
7.560449,10.010401,8.980616,7.564111,9.441065
8.075586,10.026514,9.036036,8.065332,9.517725
8.7425785,10.034571,9.135889,8.413721,9.67959
9.281153,10.041651,9.140772,8.719629,9.761866
9.878809,10.001368,9.328272,9.140772,10.114649
10.537256,10.013819,9.544092,9.274561,10.110987
10.855616,10.090479,9.506006,9.18545,9.687403
10.7096195,10.118555,9.354639,9.175196,9.460108
10.235743,10.0863285,9.146631,9.119532,9.214502
9.508448,9.965235,8.828028,8.999659,9.002588
8.712305,9.777002,8.534327,8.865137,8.877344
8.270899,9.691065,8.390528,8.813868,8.821192
7.657861,9.811914,8.324121,8.673731,8.8658695
7.483545,9.850489,8.320215,8.377832,8.923731
7.3839355,9.820948,8.330469,8.184473,8.961573
7.0104003,9.708399,8.1332035,8.10293,9.028955
6.94375,9.64126,8.0550785,8.143457,9.080713
6.881494,9.587305,8.032618,7.879541,9.151026
6.891992,9.531397,8.020655,7.2557616,9.097803
6.8680663,9.409815,8.017237,6.9137206,7.768457
6.855371,8.4613285,7.4486327,6.3907714,7.293115
6.888574,8.451563,6.7469726,6.191797,7.3319335
6.9291015,8.230127,6.5401855,6.279199,7.525781
6.893945,8.378565,7.1952147,6.6847167,8.035303
5.8873534,9.05459,7.671289,6.721582,8.31753
5.575586,9.089991,7.774072,6.280664,8.514551
5.5423827,8.638086,8.137354,7.5301757,8.717676
5.813867,8.711573,8.966944,8.118555,9.163477
5.9154296,8.7408695,8.744532,7.92666,9.734522
6.122705,8.753565,8.781885,8.024561,9.17251
6.6441894,8.756739,7.549707,6.971582,7.8404784
7.228906,8.020166,6.9347167,7.0541015,7.922998
6.7884765,7.9999022,7.3529296,6.6598144,7.2257323
5.1673827,8.243311,5.8668456,5.8770995,6.9173827
3.725244,8.105616,4.9225097,4.7660155,6.124658
3.8072753,8.0550785,3.8543944,3.7926269,5.6412597
3.1932616,7.90249,3.5916991,3.5477538,5.44082
2.6849608,7.648584,3.5589843,3.1971679,5.5299315
2.424951,7.431787,3.1698241,3.1537108,5.1651855
2.2838378,7.214502,3.0509276,3.1612792,4.7953124
1.9745117,7.049951,2.8160644,2.7748046,4.834863
2.0018554,6.929834,3.0558105,2.5389647,4.7450194
1.5448242,6.964502,2.4869628,2.55166,4.7606444
1.7137696,6.8978515,2.6668944,2.6241698,4.5702147
1.981836,6.8492675,2.3333983,2.4601073,4.4947753
2.0416503,6.8302245,2.445703,2.6969237,4.3836913
2.02041,6.754785,2.8375487,2.6844726,4.7262206
2.8338866,6.7662597,3.905664,3.6832519,5.257959
3.2262206,6.8006835,5.344629,4.994531,5.9947753
4.69375,6.85,6.0975585,5.9066405,6.8250976
5.2433105,7.114404,6.7882323,7.334375,7.6979003
5.8404784,7.5299315,7.213281,7.3705077,8.40127
4.9085937,7.9010253,8.098291,8.006006,8.795801
6.381494,8.125147,8.580225,8.630762,9.063379
6.0194335,8.100733,8.299952,6.987695,8.743555
6.282861,8.106348,6.0040526,6.2262206,6.7938476
5.1930175,7.8634276,6.0648437,6.6668944,7.5487304
4.5592284,7.7325683,5.728662,5.768457,6.705957
3.5760741,8.29751,4.484033,4.261865,6.1717772
3.0799804,8.265528,3.720117,3.7171874,5.524072
2.834375,8.020899,3.4952636,3.60708,5.749658
2.5572753,7.775537,3.3487792,3.242334,5.7608886
2.204492,7.471826,2.56875,2.4806151,5.414453
2.2054687,7.115625,2.3321776,2.487451,4.964746
2.0528808,6.7916503,2.330957,2.2533202,4.6527343
1.827295,6.209863,1.9469239,1.9093262,3.8229003
1.309961,6.588037,1.8653809,1.5660645,3.7770019
1.0082031,6.3392577,0.5541016,1.382959,4.4125
1.4234864,6.1463866,-0.6536621,1.0555664,4.2604003
1.1793457,5.566797,-1.2813476,1.1236817,4.550195
1.028711,5.824121,0.23134765,1.4842774,4.5785155
1.3646485,6.1581054,2.023584,2.7208495,5.110986
2.2533202,6.506738,3.3504882,3.9273925,5.9156737
3.6932616,6.6307616,4.845361,4.827539,6.56582
4.5196776,7.2240233,6.227197,5.963037,7.183252
5.9652343,7.402002,7.233545,6.7972655,7.4081054
6.838281,7.481836,7.1197753,7.629785,7.3717284
5.7623534,7.612695,7.2208495,8.132227,8.383936
5.7347655,7.4671874,7.4532714,7.827295,8.516748
5.1861815,8.149805,8.178858,7.963037,8.40835
4.0436034,7.891748,7.4537597,6.086572,7.7674804
4.546045,8.078516,6.0753417,5.6219726,7.065576
3.520166,7.803613,4.261377,4.6458983,6.5455565
2.5814452,7.6048827,3.1056151,3.8065429,6.3575683
1.7716309,7.56582,2.3097167,2.8478026,6.2708983
1.268457,7.456445,1.7901856,1.9120117,6.0006347
0.72084963,7.2159667,1.0050293,1.586084,5.702539
0.25283203,6.881494,0.820459,0.6864258,5.364404
-0.08920898,6.5226073,0.2274414,0.0040527345,4.843164
-0.45249024,6.070459,-0.4793457,-0.19833985,4.305322
-1.1233886,5.7103515,-0.5174316,-0.59335935,3.874414
-1.5020508,5.4034667,-0.97446287,-0.77133787,3.593164
-1.4209961,5.1168456,-1.2105469,-0.98935544,3.2831054
-1.9378418,4.954492,-1.2339844,-1.0325683,2.9867187
-1.8633789,4.796289,-0.83310544,-0.9742187,3.3416991
-0.9625,5.015283,0.03286133,0.01430664,3.7435546
0.09658203,5.19082,1.3353516,1.3180176,4.338281
1.4059082,5.254541,2.976953,2.851709,4.7464843
2.6803222,5.454248,4.4032226,3.9288573,5.3980956
3.7132812,5.7171874,4.7779784,4.4479003,5.7884765
4.5108886,5.9205565,5.2875,4.918115,6.0926757
5.265039,6.086572,5.5648437,5.697656,5.8131347
5.017236,6.1776366,5.653955,5.565576,5.5936522
4.676904,5.9312987,5.6239257,5.2435546,5.94375
4.417871,5.9515624,5.037988,4.9693847,5.966455
3.4779296,6.205957,4.233789,4.0853515,5.267236
2.3250976,6.2520995,2.9601073,2.5699706,4.880029
1.34292,6.218164,1.6388184,1.9344727,4.6927733
0.5812012,6.186914,0.88686526,1.1769043,4.733789
0.017724609,6.100488,-0.0574707,0.5741211,4.50332
-0.67026365,5.914453,-0.6634277,0.039453126,4.3531737
-1.0608886,5.804834,-1.0293945,-0.55185544,3.968164
-1.5374511,5.431787,-1.4524902,-1.0242676,3.645166
-2.0601563,5.1407714,-1.8433594,-1.5271972,3.376123
-2.4683595,4.9811034,-2.1895509,-2.0032716,3.0472655
-2.8211427,4.6847167,-2.496924,-2.3436036,2.8043456
-3.103125,4.540918,-2.8665528,-2.6512208,2.6219726
-3.3626466,4.360254,-3.0047364,-2.8118653,2.3460937
-3.2872071,4.3514647,-2.6214356,-2.4227052,2.5431151
-2.2095704,4.471338,-1.2168945,-1.1253418,3.7018065
-0.74423826,4.969629,0.35,0.4041992,4.3165526
0.709375,5.2677245,2.023828,1.9220215,4.7643065
2.049707,5.3490233,3.6126952,3.3788085,5.211572
3.1856933,5.541162,4.37417,4.461084,5.504297
4.046533,5.782373,5.027246,4.9933105,5.928613
4.622705,6.0191894,5.2538085,5.2037597,6.1649413
4.8443847,6.1478515,5.4295897,5.2679687,6.1932616
4.547754,6.410791,5.353662,5.157373,5.4693847
4.133203,6.06167,4.903955,4.8836913,4.2779784
3.6620116,5.037256,4.1043944,4.3961425,4.08291
2.0350585,5.30874,2.1407714,2.8238769,3.5694823
1.0465332,5.5606933,0.26625976,1.370752,4.204004
0.13320312,5.4256835,0.5462891,0.7042481,2.3963866
-0.48618165,5.449365,-0.40146485,0.6324707,2.4640136
-1.1209472,5.678125,-0.16904297,0.64223635,2.1671386
-1.2037109,6.204004,-0.46103516,0.52138674,1.1666504
-1.4639648,6.3751464,-0.8099121,0.27041015,2.3534179
-1.7459472,6.122949,-1.160498,0.26967773,3.2923827
-1.5401367,6.47207,-1.5086426,0.240625,4.0316405
-1.6871094,6.1566405,-1.7381347,0.29165038,3.70083
-1.7010254,5.4879394,-2.5198731,-0.07114258,3.7394042
-1.4251465,5.3390136,-3.3055177,-0.39609376,3.4828124
-0.6568359,5.537988,-1.7012695,-0.06137695,3.7169433
0.40273437,5.2762694,0.22768554,1.1783692,4.365625
1.2193848,5.506738,1.7767578,2.417871,5.4623046
2.424707,5.8475585,3.3307128,3.4320312,6.2887206
3.797998,6.0631347,4.726709,4.261621,6.612451
4.7088866,6.360742,5.407861,4.975488,7.4378905
5.268213,6.768701,5.7472167,5.3683105,8.293848
5.9415526,7.025781,5.860986,5.384912,8.232569
5.91958,7.2054687,5.555078,5.5301757,7.966699
5.5733886,7.391992,5.4012694,5.6427245,7.68667
5.1583495,7.492334,5.2489257,5.6180663,7.2069335
4.5580077,7.5887694,5.183252,5.395166,6.7730956
3.876367,7.603906,4.5853515,4.924463,6.377832
3.2728515,7.285547,4.3541503,4.4344726,6.393457
2.878076,7.2640624,3.9132323,3.737451,6.4225097
2.3888183,7.258447,3.7223144,3.4183593,6.320947
2.0287108,7.4256835,3.5587401,3.3563476,6.3719726
2.1895995,7.619287,3.6012206,3.2748046,6.8268065
