"[299, 255]","[227, 248]","[287, 319]","[279, 328]","[230, 262]"
8.778955,12.915186,9.370996,9.52627,11.182032
8.498682,12.79336,9.317286,9.727686,10.924219
8.624903,12.799952,8.847071,9.550684,10.610498
8.617823,12.524805,8.346094,8.681299,10.25503
8.58877,11.894678,7.8983397,8.530664,10.184473
8.706202,11.545313,7.6388183,8.069239,10.220606
8.608057,11.3363285,7.261377,7.314111,10.282618
8.2269535,11.356348,7.1393065,6.881494,10.071436
7.7418456,11.154932,7.219873,6.830957,9.490625
7.235986,10.891993,7.445947,6.8722167,9.239161
6.850488,10.7582035,7.4325194,7.0055175,9.073633
6.691797,10.654444,7.6075683,7.1864257,9.088282
6.4483886,10.649317,8.214014,7.4115233,8.90835
6.06875,10.514063,8.520655,7.5838866,8.59585
6.1046386,10.534082,9.077784,8.264063,9.1625
6.198877,10.4317875,9.695459,9.963282,9.166407
6.1544433,10.205469,9.797998,10.055811,9.000391
6.64541,10.344873,9.641748,9.572168,9.3771
6.4273925,10.542139,8.565821,8.558252,9.539209
6.3702636,10.6192875,7.0924315,7.3700194,9.412256
6.395166,10.440577,6.565088,7.053125,9.424463
6.2921386,10.358301,6.9217772,7.009668,9.496973
6.3055663,10.350489,7.0645995,6.9330077,9.267481
5.9027343,10.328272,6.6202636,6.6510253,8.733789
5.605615,10.049707,6.2853026,6.738916,8.512842
5.818994,9.651758,6.2037597,6.7870116,8.625879
5.5592284,9.665674,5.912744,6.6410155,8.986475
5.211572,9.623682,5.480615,6.185449,8.7564945
5.2447753,9.56045,4.803613,5.086572,8.518213
5.4132323,9.443018,5.6097655,5.2918944,8.691065
6.4725585,9.4396,7.31167,6.782373,9.16958
7.713281,9.829737,8.492823,7.916406,9.589746
8.949854,10.580225,9.572657,8.987696,10.0880375
9.909571,11.257227,10.422022,10.097803,10.661036
10.638819,11.964502,11.434961,11.07876,11.233301
11.568262,12.447901,12.148096,11.822901,12.13125
12.336573,13.024073,12.645655,12.469873,12.743067
12.925928,13.3363285,12.732569,12.6644535,13.1271
13.0292,13.370264,12.69253,12.66543,13.142725
12.799952,13.328272,12.406153,12.146143,13.023096
12.411036,13.249414,11.5646,11.296289,12.809961
11.685205,13.205713,10.339991,10.126856,11.979395
10.365625,12.625635,8.827051,8.580469,11.433252
8.26211,12.14126,6.2679687,6.987451,10.233545
6.702783,11.726709,4.369043,5.7420897,8.699121
5.5960937,11.363916,3.530908,4.8893065,8.934717
4.601953,11.261866,3.3028808,4.4781737,9.714746
4.0294433,11.149073,3.7035155,4.343408,9.187891
3.6693358,10.783838,3.9051757,4.060205,8.318262
3.1859374,10.499903,3.176416,3.9217772,7.7420897
2.9830565,10.214258,2.8663573,3.7711425,7.226709
2.6080565,9.590723,2.7220702,3.6305175,6.7401366
2.2213378,9.392237,2.6405272,3.2967772,6.44082
3.2040038,9.331202,3.5165038,3.9432616,6.6339355
4.13833,9.222803,5.1878905,5.3873534,7.490381
5.525781,9.417383,6.725244,7.0416503,8.185694
7.4500976,10.145166,8.545557,8.135645,8.933008
8.959375,10.639307,9.260157,8.63418,9.663477
9.566797,11.20376,9.8033695,9.52627,10.298731
10.278711,11.787256,10.297266,10.168604,10.683252
10.974024,12.011377,10.218897,10.406641,10.922266
11.277979,12.245752,10.669825,10.473536,11.262354
11.170801,12.498438,10.67544,10.608057,11.410303
10.690577,12.379297,10.238672,10.131983,11.232813
10.147852,12.214991,9.7894535,9.794336,11.008936
9.170069,12.14834,8.802393,8.962305,10.768457
7.8822265,11.895411,7.801904,7.9688964,10.315821
6.466211,11.457911,6.464502,6.9413085,9.552881
5.6075683,11.292627,5.2640624,5.257959,9.548731
4.818994,11.217676,4.416406,4.485986,9.739649
4.0243163,10.92544,3.780664,4.0228515,9.250879
3.421289,10.265528,3.5060058,3.503076,8.547266
2.976709,9.567286,4.134912,4.192285,8.00625
2.6239257,9.132471,4.2950683,4.290918,7.2193847
2.5023437,8.8502445,4.1180663,4.1390624,6.8092284
2.504541,8.51919,4.822168,4.3062987,6.807031
2.6595702,8.237452,4.501123,3.9391112,6.0580077
3.0890136,7.6947265,4.3509765,3.7052245,6.353906
4.5387206,7.5992675,5.442285,4.992578,7.2708983
6.1822753,7.886865,6.7552733,6.80166,8.126612
7.0941405,8.589991,8.110254,7.886621,8.40127
7.900537,9.216211,8.800684,8.644434,9.010889
8.9667,9.940332,7.9310546,8.392481,9.94253
9.280664,10.2875,9.09585,9.153467,10.1349125
9.869532,10.555323,8.448877,8.031153,10.308496
10.206446,10.687403,9.284571,8.925684,10.522364
9.952784,10.918604,9.517481,9.857813,10.579493
9.273584,10.944727,10.188379,10.071192,10.613184
9.192286,10.94253,9.717676,10.088282,10.412012
8.022852,10.8832035,8.8519535,9.467188,9.993311
6.872461,10.782862,7.714502,8.707911,9.690821
5.961572,10.770899,6.58999,6.924707,8.923487
4.7103515,10.567774,4.9796386,5.4225097,8.196192
4.6476073,10.282129,4.4103026,4.244287,8.664209
4.25625,10.110743,3.8150878,3.9845214,8.164209
3.7108397,9.957178,3.2508788,3.1625,7.6944823
3.4601073,9.487696,2.902246,2.3551269,6.804834
3.7916503,8.883692,2.2240233,2.1541991,6.249414
3.704248,8.55752,1.4117676,2.1361327,6.0018554
2.862207,8.342676,0.8246094,1.8924805,5.723291
2.655908,8.121485,0.6573731,1.832666,4.9322753
3.157617,8.105127,2.8021483,3.0938964,6.4986815
4.671045,8.1939945,4.3993163,4.617578,7.519922
6.174707,8.501612,5.7469726,6.3548827,8.310694
7.146875,9.132471,7.4481444,7.7762694,9.057032
8.094141,9.717188,8.2875,8.661036,9.684717
8.8189945,10.012354,8.880274,9.346827,10.277246
9.541895,10.141504,9.760889,10.173487,10.682032
7.83999,10.323877,8.950098,10.767237,11.082911
9.538721,10.47793,9.927149,11.390528,11.1158695
9.895655,10.451563,9.921289,11.294092,11.079248
10.288721,10.94253,9.806299,9.508448,10.775293
9.238428,11.03335,8.874659,9.252344,10.463526
8.416407,11.345118,7.150781,8.769678,10.027002
7.4601073,10.958887,6.817285,7.6546874,9.42251
6.16958,10.434961,6.455957,6.7918944,7.844629
5.6673827,10.195215,5.345117,5.8705077,6.3006835
5.490869,9.974024,3.8836913,5.337793,6.030664
4.5780272,9.595118,4.6200194,5.5489745,6.4757323
4.706445,9.402246,5.032617,5.51333,6.0006347
5.131006,9.409571,4.6305175,5.6952147,5.7799315
5.211572,9.490625,4.2020507,5.3529296,6.1185546
5.055078,9.536524,4.5089355,5.3177733,7.6927733
4.7518554,9.683252,4.6561522,5.2848144,7.0123534
4.2135253,9.652735,4.605371,5.01333,5.6527343
4.8248534,9.38418,4.825586,5.027002,6.8478026
5.975244,9.386133,5.631738,5.463281,8.90835
6.261621,9.671778,6.407617,6.3072753,9.954737
6.7655272,10.126612,7.475244,7.204736,9.364405
7.015039,10.523096,7.8548827,7.513086,8.543848
7.8805175,9.229151,8.427881,8.304346,9.233057
7.58999,9.017237,9.221338,8.494532,9.535547
7.450586,9.6939945,9.417139,9.462549,9.449121
8.472559,10.235987,9.763575,10.035791,10.050196
8.258936,10.645411,7.41958,10.169336,10.31753
8.312647,10.954981,8.250635,10.059961,10.270899
6.5589843,10.920557,9.332911,8.090723,10.054102
7.001367,10.743067,8.994043,8.639063,9.742823
7.3055663,10.471582,7.488916,8.571924,9.32876
6.4879394,10.344873,7.381494,7.139795,8.159571
5.6725097,10.316309,6.455713,6.407373,7.787256
5.2594237,10.205713,5.278711,5.563623,7.988672
4.830957,10.264307,4.4745116,5.1932616,8.163233
4.551172,10.246241,3.8629394,4.7413573,8.879786
4.1737304,10.281885,3.5575194,4.3478026,8.295557
4.037256,10.302637,3.484033,3.6742187,8.267969
3.8062987,10.38711,3.4432616,3.0487304,8.377344
3.5018554,9.954493,3.1769042,3.049707,8.206202
3.3177733,9.713282,3.0780272,2.3424315,7.8753905
3.8446288,9.445215,4.398828,3.7435546,7.8043456
5.292627,9.583155,6.521875,5.324121,8.057276
6.7743163,10.371973,8.165186,7.763086,8.961817
8.010157,11.134424,9.501123,9.57168,10.513819
9.171534,11.929102,10.330225,10.246973,11.881006
10.294825,12.889063,10.750635,11.65542,12.670069
11.279932,13.406641,11.614893,11.753809,13.233789
12.060205,13.81753,12.280664,12.434229,13.552637
12.585108,14.254786,12.996485,13.015039,13.870996
12.859034,14.622217,13.509668,12.446436,14.061914
12.768702,14.676416,12.902735,12.873682,13.81875
12.399317,14.904932,12.455713,12.44375,14.389307
11.787012,14.9144535,11.636133,11.667871,14.135889
10.41543,14.853418,10.625391,10.522364,13.599512
8.867334,14.464746,8.99795,9.251368,13.1158695
7.6673827,13.925684,7.9413085,8.280664,12.720606
7.11416,13.646143,7.7743163,7.6651855,12.130518
6.8976073,13.051416,7.249658,7.414453,11.3224125
6.8478026,12.89834,6.6690917,6.9049315,10.953516
6.6388183,11.993799,6.2257323,6.6668944,10.23794
6.550195,10.811914,6.2103515,6.584375,8.7130375
6.6083007,10.225,6.6656737,6.430078,8.299707
6.8421874,10.111231,6.869287,6.5179687,7.8836913
6.3995605,10.17544,7.2013183,7.3612304,7.9378905
6.187158,10.372461,7.5733886,7.827783,8.106348
6.5475097,10.487207,8.097803,8.559229,8.425196
7.0890136,10.698145,8.734522,8.995752,8.836084
7.86416,10.757715,9.242334,9.419092,9.239893
8.382227,10.726465,9.441553,9.716211,9.470362
8.915918,10.827051,8.998926,9.53628,9.581446
8.659082,11.5255375,9.63833,9.059473,10.037256
8.048975,11.697901,10.4769535,10.287256,10.384424
7.7013183,12.218164,11.030909,11.349024,10.488916
8.14419,12.883692,11.376368,11.34585,10.671534
8.274073,12.776758,10.204493,11.181055,11.677637
8.543604,12.774561,9.297998,10.120264,12.805811
8.651026,12.806543,8.929102,9.32583,13.127344
8.523584,12.906641,8.423243,8.575098,12.483057
8.399073,12.899073,7.9623046,8.219141,10.716944
8.203516,12.63003,7.837793,8.00503,9.715479
8.26333,12.389795,7.8631835,7.9427733,9.650782
8.416895,12.274317,7.8631835,7.8548827,9.588526
8.132471,12.404932,7.892236,7.833154,9.725489
7.232324,12.332666,7.9308105,7.8617187,9.914698
6.8490233,12.4474125,7.7779784,7.806787,10.200342
6.6969237,12.572657,7.789209,7.648828,10.881983
6.327295,12.708887,7.9444823,7.624414,11.2442875
6.773828,12.731348,7.9815917,7.7052245,11.641504
7.572656,12.785547,8.340723,8.112696,11.900049
8.753809,13.057764,9.164942,8.990625,12.455469
9.617334,13.1957035,10.293604,10.329981,13.163965
10.932032,13.3417,10.527735,10.59585,13.774561
10.960352,13.613916,10.090967,10.475977,14.520411
11.7599125,13.656397,12.632959,11.407373,15.379297
13.299952,13.467188,12.829493,13.3519535,15.111231
13.437159,13.639795,14.39419,14.613428,14.652735
12.809229,13.632227,14.31875,13.798487,14.359522
13.021387,13.821436,13.364405,14.340479,14.808008
12.807276,13.640772,13.469141,14.413965,14.254053
13.112452,13.242823,13.146631,13.7738285,13.151026
12.681543,13.015772,13.045313,13.322168,12.436182
11.37417,13.051905,11.996241,11.941309,12.107569
10.335108,13.077051,11.619043,11.587549,12.203028
10.432764,12.823633,11.332178,11.143213,11.870996
10.621973,12.881983,11.295557,11.041651,11.774317
10.37417,12.640772,11.264795,11.087793,11.532862
10.227442,12.741358,11.177881,11.040918,11.412012
9.906153,13.084375,11.105127,10.869532,12.041895
9.986963,13.371241,10.87002,10.60586,12.439112
10.170801,13.443506,10.910059,10.441309,12.774073
10.242823,13.364161,11.15542,10.588282,12.842432
10.279932,13.37002,11.432764,10.855371,12.799219
10.241358,13.391016,11.825342,11.146143,12.826319
10.415186,13.493067,12.250879,11.800684,12.943506
11.160547,13.538477,12.763819,12.771387,13.032618
12.941553,13.564356,12.934229,12.948389,13.109278
14.769922,13.647608,12.9300785,13.501368,13.479639
15.992823,13.741602,13.214746,13.717432,13.752832
17.302881,13.793116,13.371241,13.709864,13.933985
18.006006,13.767725,13.790186,13.852442,13.723536
18.42373,13.729395,13.866114,14.490137,13.55752
17.862207,13.530176,14.149317,14.193262,13.488428
16.697412,13.380518,13.911768,13.769434,13.656885
15.142969,13.737452,13.368555,13.562403,13.9144535
14.240137,13.829981,13.357813,14.118311,13.641748
14.253077,13.678614,13.446192,13.5567875,13.38833
13.989649,13.513575,12.750147,12.568506,12.677637
13.508448,13.301416,12.304834,11.95376,12.265772
13.1974125,13.183008,11.974756,11.969873,12.099268
12.894434,13.111963,11.771875,12.005274,11.9596195
12.496241,13.063135,11.571436,11.880274,11.8146
12.088526,13.037989,11.309717,11.674219,11.652979
11.606592,12.998926,11.136133,11.4752445,11.811914
11.141504,13.026514,11.053614,11.198633,11.70376
10.728174,12.998438,11.012598,11.085108,11.885889
10.540918,13.008936,11.046534,11.184473,12.1349125
10.909327,13.008448,11.204493,11.327539,12.390528
11.550196,13.129541,11.484278,12.071192,12.740625
12.483545,13.18667,11.934961,12.617823,13.180323
13.527246,13.340723,12.370264,13.241846,13.285303
14.194239,13.188623,12.689844,13.585108,13.421289
14.485498,12.994532,13.211573,13.944727,13.484766
14.974024,13.150293,13.396631,14.035303,13.472559
15.240381,13.067286,13.183008,13.91128,13.209375
15.123438,12.870752,13.071436,13.518702,12.818262
13.82876,12.934717,12.494043,12.681543,13.349268
12.68545,12.993311,12.092188,11.86294,14.418116
12.548243,13.159815,11.819239,11.708155,15.027002
12.419092,13.095118,11.879297,12.142725,14.314844
12.385645,13.394678,11.808252,12.140772,13.537989
12.284571,13.228174,10.982813,11.298975,12.24502
12.040186,12.827784,10.202295,10.681055,11.084131
11.6471195,12.704981,9.787012,10.222315,10.6625
11.385157,12.634668,9.38125,10.075342,10.5689945
10.452295,12.5082035,8.985254,9.741114,11.18667
9.919336,12.392481,8.536036,9.721582,11.536036
9.698877,12.310938,9.133692,9.69668,11.469629
8.881739,12.412989,9.790918,9.463282,11.334864
8.020655,12.510401,9.832666,9.264307,11.3675785
8.126368,12.377588,9.568506,9.303858,11.282618
9.821192,12.149561,10.738184,10.074854,11.701807
11.009424,12.444239,11.573877,11.263819,12.13418
12.069483,12.857325,12.011866,12.687403,12.0724125
13.5377445,12.977442,13.153955,13.639307,12.854395
14.419336,12.986963,14.5221195,14.528467,12.825342
15.130274,12.998438,15.35,15.765284,12.656397
16.094141,14.05044,16.009912,16.333643,13.986475
17.123438,14.79751,16.473536,15.738428,14.884424
17.69375,14.45669,16.983057,15.464258,14.970606
17.662745,14.584131,16.324854,15.331202,16.285059
16.55752,14.547266,14.2875,16.212305,16.903223
13.501123,14.481592,15.144922,14.6036625,15.925196
14.409571,14.370996,16.04873,15.819483,15.767237
13.747705,14.389795,15.466211,15.629297,14.801416
12.950586,14.270655,14.396875,14.441065,14.042139
12.295801,13.947168,13.555567,13.43545,13.335352
11.878077,13.860498,13.056543,12.496241,12.907862
11.879297,13.59292,12.253565,12.192774,12.774317
11.933741,13.49502,12.187403,12.15835,12.054102
11.817774,13.633448,11.330225,11.225,12.428858
11.689844,13.596827,11.1939945,10.951807,12.063868
11.370508,13.555323,10.237696,10.672998,11.685938
10.989893,13.547266,10.286524,10.0917,11.857813
11.174463,13.542139,10.362207,10.400293,11.762842
12.062403,13.542871,11.162012,11.211084,12.06045
12.684229,13.688868,12.579004,12.0863285,12.852198
13.286524,13.799219,13.665674,13.370508,13.981592
14.141016,13.6939945,14.567286,14.326075,14.828272
14.96792,13.986963,14.526758,11.962061,15.722315
15.657618,13.927637,13.0846195,14.207911,16.42666
16.154444,13.827539,11.613672,14.061914,17.205957
16.762598,13.502832,13.498926,13.5375,16.498438
15.289698,13.829737,14.920069,14.420313,16.847803
15.366358,13.668116,15.67544,14.574121,15.887842
14.403223,13.519434,14.07876,13.951319,15.458643
13.4127445,13.721582,15.24917,14.587305,15.283594
13.922998,13.618067,14.408838,14.2894535,14.539698
12.26333,13.592676,13.251612,13.349512,13.706934
11.190821,13.705957,12.56753,12.243311,12.512354
10.8502445,13.291651,11.777735,11.766993,11.553125
10.452051,12.982325,11.550684,11.921778,11.343409
10.521143,12.863916,11.319239,11.80752,11.373194
10.358301,12.8207035,10.96084,11.596582,11.594141
10.632471,12.82876,10.9125,11.342432,11.500147
10.176416,12.850733,10.891504,11.182032,11.63125
9.4005375,13.012598,10.932032,11.141016,11.321192
9.065088,12.886377,10.831446,10.896387,11.18252
9.0377445,12.81167,10.319971,10.411768,11.652002
9.470606,12.907862,10.173975,10.036524,11.771875
10.002832,13.01211,10.38711,10.035059,12.527979
10.618311,12.950098,10.458155,10.653955,13.41543
11.393702,12.958643,10.768702,11.609278,13.542871
13.1957035,13.051905,11.837549,11.987207,13.571924
13.407129,12.965967,12.63418,12.366358,14.854883
14.151758,12.909082,11.297266,13.029932,15.586573
12.308496,12.98501,11.813868,12.524561,15.277979
13.003565,13.202295,13.4283695,13.332911,15.457178
12.977198,13.082666,13.994043,14.3363285,15.581934
13.6800785,13.034815,13.848291,14.580957,15.02334
13.922266,13.242334,12.614649,14.599268,14.4396
13.911524,13.208887,12.547998,13.121729,13.742823
12.788233,13.132471,12.017481,11.562159,12.995996
11.470606,13.188379,11.671045,11.185938,12.351221
10.830225,13.114893,10.610743,10.746241,11.590235
10.154688,13.188379,9.305811,10.585108,11.297022
10.116358,13.153223,8.778955,10.83169,11.132471
8.42544,13.120996,9.382227,10.097315,10.845606
7.5719237,12.990381,9.545069,9.569727,10.941309
7.3873534,13.153955,9.16836,9.111475,10.94668
7.579248,13.220606,8.43667,8.627344,11.11294
7.7240233,13.070948,8.530176,8.603418,10.228174
7.9813476,12.892725,8.889551,8.507959,10.16543
8.839014,12.751368,9.820948,9.404932,11.286768
9.902002,12.674952,11.227198,10.844629,12.330713
11.2425785,12.613672,12.269678,12.0724125,12.920069
12.173487,12.566797,13.36001,13.050684,13.290918
10.375147,12.52627,14.366358,14.141993,13.735987
10.935938,12.63833,14.473536,13.7286625,14.109278
13.510645,12.663233,14.253077,10.746485,15.135889
14.082422,12.703028,13.773584,11.5021,16.218409
14.97085,12.958887,13.996729,12.364161,15.709375
14.906885,13.139307,13.302393,13.080225,15.406641
14.941797,13.222803,12.910547,13.407129,15.215967
14.457666,13.38003,12.445459,13.205713,14.869532
14.094629,13.501612,12.488184,13.453272,14.229883
13.015528,13.686182,12.174707,12.267481,13.58877
12.031641,13.765528,11.567041,11.198633,12.700342
9.9596195,13.371241,10.84585,10.774805,11.962549
9.609766,13.362452,10.6939945,10.342188,11.535303
10.169825,13.462305,10.179346,9.9042,11.354883
9.924952,13.496485,9.420557,9.632471,11.390528
9.275782,13.569483,9.344385,9.623438,11.507471
8.964502,13.684717,9.639795,9.670557,11.472071
8.771387,13.650782,9.65542,9.615381,11.253565
8.923975,13.472315,9.361475,9.622461,10.928614
8.725733,13.312891,9.288965,9.757715,10.519434
9.344873,13.219629,10.169336,10.3363285,11.4908695
10.39126,13.182276,11.664209,11.439356,12.73794
11.525049,13.659082,13.10708,12.808741,13.683741
12.360987,13.863428,14.626368,13.792871,14.408594
13.232325,13.728174,15.566309,14.502344,15.406885
13.567774,13.743067,16.08291,15.576807,16.128565
13.134424,13.425684,14.899073,15.352442,16.1542
12.637598,13.558741,15.673731,16.921534,15.685205
13.455225,13.532862,16.34292,16.511621,15.324854
14.704981,13.536768,16.836084,17.03213,15.415186
14.311182,13.638819,16.838037,16.942041,15.325586
15.176905,13.864405,16.480127,16.707178,14.992334
14.741358,13.627588,15.014063,15.433496,14.462061
14.218164,13.731836,14.578028,14.951807,14.019922
12.890772,13.972803,14.125879,13.79336,13.399805
12.35586,13.958399,12.573633,13.166651,12.786036
12.144922,14.066065,12.702784,12.560938,13.084864
12.18252,14.144434,11.896387,11.889307,13.271875
12.062403,14.459375,11.214991,11.423487,12.95376
11.839014,14.486475,11.54751,11.132227,12.825586
11.85708,14.333887,11.666895,11.233545,12.792627
11.886621,14.531641,11.822901,11.779688,12.857569
11.905176,14.832911,11.857813,11.248682,13.433496
11.6271,14.935205,11.960352,11.15542,13.388819
11.820215,15.026514,12.29336,11.738672,13.025293
12.664209,15.29336,13.099512,12.517481,13.23086
13.766504,15.719385,13.738428,13.187647,14.223047
15.034327,16.492334,14.869776,13.932032,16.237207
15.782373,17.166162,16.015772,15.194971,18.297754
16.735987,17.64126,17.359034,16.14419,19.081934
17.166895,18.100245,18.308496,17.455713,19.422022
17.631495,18.368067,18.468409,17.629786,19.53628
18.703272,18.778955,19.003809,17.822657,19.369043
19.273584,18.922754,18.757471,18.231592,18.872461
19.193018,18.55337,18.071436,17.67422,18.020655
19.030664,17.343409,17.186426,17.159815,15.920069
18.470606,17.189112,16.501123,16.236475,15.129053
17.560938,16.06338,15.652735,15.724024,14.787989
14.170313,16.028711,15.174219,15.3224125,14.596094
14.3536625,16.000635,14.708399,14.950098,14.833399
14.387354,15.564112,12.876123,13.300196,14.857569
14.401514,14.520166,12.662012,13.014795,14.671045
14.332911,14.059229,13.078272,13.725489,13.75918
13.56753,14.070948,13.32583,13.755762,13.298243
12.788721,14.105371,13.21792,13.370508,12.623194
12.724024,14.184961,13.342432,13.39126,13.131006
12.377344,13.941065,13.219873,13.204981,13.370996
10.638819,13.310694,13.451319,13.288477,12.614161
10.217432,12.908106,13.582666,13.280176,12.339014
10.160791,12.7792,13.508692,13.471582,11.879541
9.978907,13.076319,12.079737,13.061182,11.815821
10.161524,13.062159,11.750391,12.003809,12.035303
11.304834,13.171045,11.76333,12.151026,12.148096
12.299219,12.975977,11.970362,13.621973,12.310938
13.009424,12.827051,11.676905,12.41128,12.230127
13.336084,13.162012,11.6158695,12.389063,12.496241
13.894922,13.139551,11.629786,11.937403,12.577539
14.571436,13.4942875,11.6192875,11.887354,12.893457
13.24917,13.487696,11.691309,12.180567,13.057764
13.687647,13.220606,11.644922,11.915918,12.874414
14.101465,13.554102,11.615381,11.826807,12.9144535
12.875635,13.827539,11.725733,11.964746,13.239161
12.147852,13.820948,11.792139,12.015039,13.289209
11.6817875,13.866846,11.839258,11.965967,13.329248
11.600977,13.981104,12.119043,12.133936,13.751612
11.665186,14.131006,12.4127445,12.278223,13.918848
11.363672,14.261621,12.789942,12.594385,13.493555
11.374903,14.052637,12.495752,12.319483,13.087061
11.527246,13.780664,12.258448,12.142481,12.81753
11.401758,13.721582,11.868311,11.79458,12.814112
11.032373,13.707911,11.4925785,11.513575,12.710352
10.830225,13.6349125,11.463526,11.3692875,12.680811
10.924952,13.575342,11.457911,11.416407,12.915186
11.18545,13.379786,11.359766,11.154932,13.0221195
11.273584,13.507227,11.723536,11.447168,13.471094
11.345118,13.449121,12.227198,12.121241,13.497461
11.478907,13.350733,12.976465,12.461573,13.684961
11.616114,13.181299,13.26333,12.821192,14.106836
12.427637,13.376123,12.900293,12.57461,14.313623
12.176172,13.349756,11.972803,12.645655,14.229883
12.819971,13.484278,12.133936,12.550684,13.954981
11.083155,13.371973,12.73208,12.948633,15.126612
12.063868,13.438135,12.78335,13.035547,14.449121
11.07461,13.424707,12.748926,13.154932,14.002344
11.21377,13.62002,12.639063,12.531885,13.500879
10.950342,13.612452,12.029932,11.544825,13.040918
9.99209,13.214258,11.155664,9.312159,11.99209
9.000635,13.017237,10.627588,9.316553,11.230616
8.619043,12.535059,10.262354,9.34585,10.202051
8.460108,12.279932,9.582911,9.000879,10.089014
7.7726073,11.9596195,8.896631,8.596582,9.909327
7.555078,11.840967,8.05459,8.534815,9.543116
7.6205077,11.689356,8.271143,8.340235,9.297266
7.2481933,11.466944,8.238672,7.662988,9.174707
7.1075683,11.412256,8.496485,8.241846,9.04043
6.554834,11.374903,8.379786,8.323633,9.081446
7.193994,11.363672,8.966455,8.842676,9.544336
8.116602,11.440088,9.181299,9.293604,10.291651
8.920801,11.490625,9.974512,9.683985,10.916407
9.792627,11.621485,10.499903,10.236719,11.510645
10.765039,11.747461,10.684717,10.687647,12.294092
11.418848,12.190821,11.249903,11.129297,12.915186
11.711573,12.681299,11.465723,11.649317,13.828028
12.027735,12.74209,11.222071,11.224512,14.128077
12.615625,12.921289,11.269678,11.567774,14.331202
12.33169,13.028711,12.195459,12.161036,14.44961
12.438379,13.097315,12.361475,12.278467,14.137842
12.177881,13.215967,12.243311,11.951563,14.359522
11.8519535,13.320215,11.900782,11.33584,14.118311
11.527979,13.56167,11.628809,11.014551,13.49209
10.969385,13.702784,11.531153,10.899317,12.695948
10.217432,13.910547,11.341455,10.455957,11.907618
10.001856,13.775049,10.920557,9.920069,11.717676
9.649805,13.597071,10.362696,9.927881,11.519434
8.7894535,13.205225,10.29043,10.053125,11.167139
8.283838,12.971582,10.016016,9.920557,10.500391
8.585108,12.693018,9.856104,9.628077,9.968653
8.3971195,12.575098,9.394434,9.014551,9.878077
8.129297,12.403955,8.957911,8.236719,10.060205
7.893213,12.283838,8.542139,8.417871,9.960352
8.110254,12.2582035,9.50503,9.250147,10.728907
8.803614,12.305567,10.746729,10.454004,11.556055
9.816553,12.356592,11.479395,10.863672,12.103174
10.459864,12.343653,11.926905,10.959131,12.436182
11.070215,12.380274,12.536768,11.730127,12.927637
12.095606,12.409327,13.134668,12.325342,13.459131
13.06875,12.535303,13.750391,12.597559,13.743067
13.597071,12.742823,13.57168,13.330225,14.038477
13.904932,12.910059,13.861719,13.182276,14.383692
13.913477,13.015039,14.190332,13.817774,14.717676
13.895166,13.147852,14.128321,13.757471,14.829248
13.624414,13.223291,13.892725,13.464014,14.56045
13.0377445,13.239649,13.433252,13.052393,13.909082
12.408106,13.255274,12.861231,12.581446,13.142725
11.077784,13.253565,12.114893,11.605616,11.989161
8.941553,13.17959,10.678125,10.858301,10.356104
8.28628,12.959375,10.376123,9.982325,9.477198
8.051905,12.78042,9.681055,9.585596,8.969629
8.155664,12.665674,8.288477,9.315332,8.711573
7.925195,12.724756,6.839746,8.925928,8.402246
7.7623534,12.576563,6.59292,8.7877445,8.465235
7.689111,12.2721195,6.5521483,8.646387,8.008692
7.843164,12.118799,6.7655272,8.805567,7.8592772
8.222315,11.986475,8.203516,9.026026,8.26333
9.622217,12.129053,9.145166,9.297998,10.6542
11.608789,12.439356,10.185205,9.954004,12.413233
12.618067,12.808985,11.352442,10.933741,13.564112
13.609278,13.788721,12.621241,11.986963,14.202539
14.5863285,14.285791,13.869532,13.038477,14.839746
15.506739,14.553125,14.7755375,13.926661,15.543848
16.340723,14.792139,15.366846,14.616358,16.2604
17.033106,14.813623,16.0729,15.250635,16.793848
17.610743,14.679346,16.952295,15.951563,17.065088
18.04214,15.402246,17.515772,16.596338,16.760157
18.209131,16.736963,17.885645,17.049952,16.409327
18.109766,16.724024,17.840723,17.292871,15.994043
17.63125,16.192774,15.364161,17.20547,15.573633
16.384668,15.908106,13.978418,15.88125,15.043604
14.754053,15.638575,12.864649,14.479395,14.740625
12.8771,15.177637,11.793116,13.194727,14.300928
11.825586,15.0646,11.113184,11.743311,14.549707
11.217676,15.535059,10.527735,11.018213,15.11294
10.433496,15.800196,10.257959,10.555811,14.227442
9.829737,14.954981,10.486963,10.493555,13.345606
9.469629,14.611231,10.458887,10.732569,12.868555
9.183008,14.583155,10.217188,10.639795,12.518457
9.071192,14.975489,10.06875,10.445459,12.201075
9.184717,14.789209,10.1542,10.500879,11.939844
9.804102,14.647852,10.722315,10.859034,12.085352
10.637842,14.712549,11.173487,11.752588,12.571924
11.66543,14.860498,11.8189945,12.5724125,13.593653
13.215479,14.949854,12.7599125,13.589014,14.83877
14.623926,14.927637,13.507715,14.752344,16.171778
15.683496,14.886377,14.169336,15.472315,17.309717
16.460352,15.034815,14.613672,15.914698,17.80166
17.192286,15.84585,14.624903,16.258204,18.290918
17.506739,16.761377,14.218653,15.828028,19.69375
17.28213,14.814356,13.86709,14.900049,20.359766
17.031641,14.158838,13.281397,14.45083,17.504297
16.647364,14.060938,12.621241,14.035303,16.042871
15.712549,14.51919,12.79458,13.518457,15.751123
14.619043,14.315088,12.692774,12.743311,14.535547
13.813623,14.015039,12.015528,12.244532,14.127588
13.267481,14.188623,11.501856,11.725733,13.6800785
13.439844,14.122705,11.328028,11.4127445,13.625147
13.090723,14.0646,11.48208,11.207666,13.417139
12.54751,14.120996,11.570215,11.4396,13.424707
11.768457,14.188135,11.728174,11.518213,13.473536
10.828028,14.118555,11.704737,11.392481,13.166407
10.74917,14.081446,11.998438,11.56875,12.998682
11.029932,14.058496,12.146387,11.461084,12.970606
11.035547,13.95376,12.084375,11.344873,13.129053
11.342676,13.897608,12.724756,12.706934,13.42251
12.143946,14.080713,13.85586,14.0917,13.965235
13.173731,14.452295,14.754786,14.865137,14.8067875
14.347071,14.82461,15.050196,15.091944,15.735743
15.593897,14.989161,15.671045,15.809961,15.913965
16.228662,15.117334,15.993311,15.876856,16.625147
16.932764,15.547266,14.913233,15.789698,16.782373
17.488672,15.646143,16.452784,16.973291,16.961817
17.246973,15.221338,17.169825,16.595118,16.484522
17.39419,15.270166,16.644434,16.336573,16.394678
17.33047,15.014063,16.35464,15.754053,15.40835
16.51211,14.614893,15.63418,15.359034,14.843897
15.939112,14.59585,13.931299,14.981592,14.854883
15.56045,14.654932,13.45083,14.043116,14.419092
14.753077,14.523584,13.245264,13.658594,13.777491
13.89834,14.388819,12.58584,12.936914,13.371485
12.929346,14.355371,12.406397,12.687159,13.438379
11.932276,14.279688,12.397608,12.587793,13.257471
11.784327,14.235254,12.453028,12.593164,13.182276
11.887354,14.217432,12.234278,12.521631,13.281885
11.331202,14.241846,11.748926,12.293604,13.442286
11.35586,14.08877,11.609034,12.327051,13.474024
11.2113285,14.0411625,11.88833,12.155176,13.30044
11.42959,14.097559,12.019678,11.887354,13.328272
11.768213,14.024317,12.186426,12.037012,13.406153
11.837305,13.991602,12.660547,13.068506,13.5917
12.544825,13.93667,12.777246,13.675684,14.069727
12.362696,13.908106,13.42251,14.6175785,14.2894535
13.802881,13.82583,14.405909,14.515284,15.435694
13.76211,13.709131,15.391993,14.6542,15.062891
14.593409,13.495508,16.123682,16.430323,15.171289
14.655176,13.65542,15.426905,16.319727,15.662012
16.151026,13.774317,15.856836,15.701319,15.337061
16.133448,13.730616,15.808008,15.877832,14.95376
16.033106,13.770411,14.796534,14.969385,14.952784
15.214746,13.709864,13.706934,14.678125,14.765039
14.147852,13.762598,13.868799,14.321192,14.115137
12.960108,13.940088,13.288477,13.673487,14.096827
12.031153,14.203028,12.721094,13.142725,13.690332
11.204004,13.95083,12.358545,12.527246,13.212061
11.080957,13.594385,12.177881,12.4474125,12.601221
10.762354,13.192774,12.170557,12.282862,12.045069
10.297754,12.755762,12.120752,12.232569,11.538965
10.114649,12.104395,11.94253,12.0377445,10.96084
9.364405,11.673487,11.6661625,11.9769535,10.241846
9.146875,11.221338,11.399317,11.393946,9.835108
8.618311,11.246973,11.55459,11.567286,9.760889
8.333399,11.218409,10.860254,11.556055,10.842432
8.239405,11.804834,11.191065,11.323633,11.164209
8.426661,12.107569,11.632959,10.3988285,10.886377
8.688135,11.997217,10.450586,9.907862,10.662989
9.363184,11.872461,10.093653,9.465723,10.517969
10.488672,11.586573,9.987696,9.090235,10.782373
12.385645,11.890039,9.756006,8.185205,10.309229
11.045557,11.800196,9.808741,8.329981,10.6957035
9.923975,12.130274,10.201075,9.821436,11.832911
9.567286,12.37417,10.972071,11.188135,12.736475
9.959864,12.61001,12.26211,12.105127,12.846338
10.215723,12.822168,13.002588,12.973047,12.754786
10.264551,12.880518,13.124903,13.2599125,12.489161
10.254297,12.895411,12.6542,12.352686,12.252344
10.564356,12.897608,11.622705,11.946192,11.7425785
9.965723,12.554834,11.166895,10.536768,11.161524
9.3832035,12.564356,10.285547,10.050684,10.917139
9.154444,12.684229,9.7408695,9.414942,10.725733
8.947168,12.451563,9.216211,8.268702,10.202539
8.24917,12.305811,7.9898925,7.7591796,10.145411
7.638086,12.047998,7.466455,7.4813476,9.734278
7.2604003,11.786524,7.562158,7.4845214,9.579248
7.1065917,11.82168,7.46792,7.2887206,9.35586
7.0731444,11.775782,7.0375,7.277002,9.515528
7.0003905,11.56167,7.799707,7.6844726,9.415186
7.1981444,11.336084,8.237452,7.9103026,9.752344
7.238672,11.567774,8.930811,8.704248,10.386377
8.528467,11.343897,9.762598,9.530176,10.95669
8.300684,11.33877,10.353174,10.346827,11.208643
7.8790526,11.474756,10.862452,10.907618,10.840967
9.068018,11.645411,11.876368,11.840479,11.999659
8.452784,11.258936,11.135645,12.154932,12.475489
9.768702,11.911524,10.194727,12.029444,12.778955
10.1505375,12.076075,10.505518,11.84878,13.272364
10.6627445,12.25918,10.850489,12.477442,13.038965
10.881983,12.341944,11.851709,12.194971,13.284327
10.601709,12.246729,11.190577,10.082422,12.894922
8.380274,12.438623,11.171778,10.92251,11.426416
7.5577636,11.874659,10.701075,10.2521,11.23794
7.5436034,11.798975,9.65542,9.187647,11.110987
7.4972167,12.059961,8.699854,8.119532,10.083887
7.068994,12.080469,7.4044433,7.1251464,9.651758
6.5609374,11.494532,7.485498,6.7472167,10.181299
6.2169433,11.522364,7.150293,6.5892577,9.513086
6.0802245,11.2894535,7.005029,6.4359374,9.199121
5.664697,11.308252,6.789697,6.1910644,9.329981
5.588281,11.026026,6.8268065,6.533838,9.10293
5.386865,10.892969,6.7420897,6.4066405,8.636621
5.187158,10.913233,6.5213866,6.641748,9.370996
5.3753905,10.748682,6.834131,7.2242675,9.604639
5.933496,10.813623,7.678125,7.826074,9.625879
6.338037,11.122461,8.107569,8.093653,10.058985
7.0836425,10.972803,8.501123,8.322168,10.382471
7.824121,11.38125,8.165186,8.035791,10.06167
8.467188,11.199854,8.707422,9.029688,10.008936
8.853418,11.196924,9.728174,10.096827,10.306543
9.285791,11.5255375,10.531397,10.157862,11.046045
9.535547,12.049952,10.503321,10.026026,11.431543
9.988428,12.195948,10.361719,10.632715,11.989649
9.89126,12.403467,10.312891,11.47378,12.09585
9.626856,12.308496,11.031641,11.932032,11.69668
9.598536,12.230127,11.32876,11.596827,11.432276
9.651026,12.023096,11.111231,11.257471,11.030909
9.66543,11.804346,10.288233,10.416895,10.540674
9.279444,11.609522,9.381006,9.661768,10.170557
9.072168,11.529444,8.632227,8.944483,10.255274
8.468164,11.396387,8.181543,8.296289,10.01919
7.813379,11.263819,7.6205077,7.3807616,9.720362
6.730127,10.941553,6.4532714,6.225488,9.838526
6.235254,11.062891,5.362695,5.3888183,9.477686
5.8998046,10.830469,4.9503417,4.9811034,9.338282
5.721582,10.558008,4.797998,4.601709,8.69375
5.0174804,10.410791,4.6405272,4.3236327,8.385645
5.134912,10.146875,5.268701,4.9745116,8.823145
5.830957,10.122705,6.0455565,5.992822,9.251612
6.704492,10.160303,7.174463,7.0506835,9.475489
7.6356444,10.35586,8.2877445,8.190332,10.052881
8.626856,10.460596,9.15542,8.947657,10.709375
9.460596,10.746729,9.58877,9.520411,10.734766
10.046045,10.9474125,10.4042,10.03628,10.438623
10.858545,10.839502,11.205957,10.921045,11.031153
11.096827,10.788965,11.4667,11.500391,10.536768
11.287989,10.997217,11.896387,11.682764,10.307032
11.37295,11.38711,11.776758,11.621729,11.395166
10.753321,11.523096,11.600977,11.725,11.37002
10.276514,11.381983,11.645655,11.234278,10.706446
9.621973,11.550684,10.916407,10.010157,10.672022
9.306543,11.442774,9.804346,10.010889,10.293604
8.491602,11.357569,8.719385,9.063135,9.658838
7.4518065,11.288721,8.519922,8.784082,9.755274
7.214502,11.237696,8.094141,8.13003,9.266016
7.1117187,11.2721195,7.5001464,7.8231444,9.339502
6.7240233,11.072168,7.3666015,7.2853026,9.048487
6.5121093,11.025782,6.739404,6.900537,9.29458
5.829492,10.994043,6.596338,6.9447265,9.002832
5.860986,10.84878,6.6024413,6.317285,8.291651
6.20791,10.618067,6.2940917,6.1534667,8.301172
6.6742187,10.481592,6.5799804,6.426172,9.123926
7.083154,10.941797,7.249658,7.0194335,10.345362
6.94375,11.089746,8.395899,7.8392577,10.896631
7.8336425,10.953516,8.902491,8.485743,11.526758
9.367823,10.8207035,9.587549,9.072657,11.996485
9.986475,11.139795,10.522364,9.989161,11.857813
10.923243,11.647364,10.5375,10.042627,11.595118
11.942041,11.64419,11.038477,10.804346,10.869776
12.059229,11.604151,11.209375,11.024317,10.806543
12.358301,11.817774,11.196192,11.227686,11.650782
12.478907,11.9630375,11.017969,11.095362,11.688135
12.33169,11.609278,10.938868,11.301416,11.234522
11.659082,11.430323,10.611963,10.483301,11.286768
10.615625,11.621241,8.756983,9.544825,10.633448
9.6349125,11.433252,8.181055,9.1175785,10.600977
8.628565,11.415918,7.3963866,8.216211,9.861963
7.5284667,11.301905,7.006494,8.272608,9.270655
7.02041,11.003565,5.9881835,8.208155,9.322901
6.456445,11.110987,5.4044433,7.9513183,10.040918
