"[299, 255]","[227, 248]","[287, 319]","[279, 328]","[230, 262]"
20.831202,21.009912,18.469873,19.18545,20.256495
20.930567,21.062891,18.163965,18.465479,20.07461
20.727442,21.083643,18.016016,18.099268,20.068262
20.326807,20.948633,18.63418,18.17251,20.1271
19.916407,20.786768,18.70254,18.162256,19.896387
19.558496,20.698877,18.787256,17.977198,19.791407
19.346582,20.595606,19.220118,18.248926,19.519678
20.099756,20.664454,20.251123,19.411524,20.040918
21.427149,20.684717,21.489893,21.154932,20.862207
22.754541,20.719873,22.952784,22.531153,21.493067
23.738916,20.791895,24.351954,23.04165,22.38711
24.716455,21.305323,25.44082,24.244043,23.101465
25.588037,21.762842,26.127344,24.954737,23.37588
26.154688,21.486475,26.287012,25.142237,23.083643
26.132471,21.85586,26.377832,25.208643,22.511621
25.303858,22.076075,25.888575,24.788721,22.667383
24.343897,21.78921,22.061182,24.085352,21.777002
23.092676,21.937403,20.363672,21.937891,21.288721
22.418116,21.998438,20.38589,20.49502,21.198633
22.066309,21.622461,20.726954,20.376123,21.350489
21.301416,19.784815,20.78921,20.494043,19.278711
20.166162,19.787745,20.476221,21.852198,18.182276
19.097315,20.293604,20.761866,21.351954,18.69839
19.003077,20.286036,20.56875,20.437403,18.323877
17.51748,20.228418,18.776514,18.988184,18.119287
16.70376,20.19546,17.612452,18.794336,17.727442
15.903223,20.107325,17.453272,18.551905,17.231104
15.611475,19.953516,17.52749,18.383448,16.969873
15.644434,19.581202,17.262354,18.018213,16.291162
15.537989,19.63589,16.683008,17.375391,15.916407
15.073389,19.612452,16.497461,17.004541,15.677149
15.361231,19.33584,16.63125,17.355616,16.541895
16.203516,19.139795,16.934229,18.24795,17.707422
17.142237,19.05874,17.211329,18.455713,18.538477
17.30044,19.181543,17.327784,19.135157,19.23916
18.308008,19.536036,18.388086,19.495752,19.680567
18.310938,19.960596,18.673975,19.947168,20.180323
19.065577,20.082178,19.091211,19.98623,20.19253
19.630274,20.27212,18.89248,19.415918,20.055567
19.422998,20.153467,18.562647,18.928125,19.889551
19.26748,20.326807,18.200342,18.656153,19.637842
18.403223,20.329004,17.726954,18.30874,19.325342
17.455957,20.304102,17.662256,18.200098,19.14712
16.656153,20.28213,17.543604,18.10879,19.05752
15.919092,20.228174,17.069727,18.011377,19.1542
15.39834,20.349512,17.097803,17.969141,19.37002
15.113672,20.26333,17.124903,17.731836,19.344141
15.012354,20.007227,17.061182,17.364405,18.484766
14.872461,19.810694,17.104883,17.138819,17.909815
15.053614,19.93252,17.24917,16.88833,18.238916
15.273096,19.876856,16.511133,16.773829,18.606348
15.0646,19.96206,16.32461,16.430323,18.980127
14.8849125,20.163233,16.342432,15.6957035,18.838037
15.103174,20.215967,16.353662,15.858789,18.671045
15.391748,20.28042,16.537989,15.910303,18.537989
15.712793,20.170313,16.516993,16.478662,18.32583
15.210596,20.095606,16.639795,16.997217,18.668848
15.460108,19.997217,17.11123,18.049952,19.16958
15.935205,19.96499,18.155176,19.219873,19.739405
16.149073,19.863672,18.42666,19.916407,20.123682
16.742579,19.904688,19.20669,20.396387,20.179102
17.075586,19.961329,19.69253,20.103418,20.312403
18.50625,20.034327,19.463282,19.57339,19.913233
18.985987,20.034815,18.874414,18.738916,19.742823
18.776514,20.06582,17.933985,18.261133,19.13711
17.900537,20.06582,16.607813,17.375147,18.603907
16.77505,20.03335,15.5411625,16.115625,18.10415
16.26333,20.059961,15.426905,15.742823,17.640772
15.822168,19.91421,15.74917,15.102442,17.679346
15.380274,19.882715,15.7894535,15.286524,17.832178
15.563135,19.934961,15.393702,15.340479,17.382227
14.947657,19.546045,15.457178,15.496729,17.217676
14.899561,19.572657,15.099756,15.324121,17.225733
14.904444,19.158106,15.229395,14.938379,16.70962
14.571192,18.960108,15.4439945,15.121241,16.197657
14.221827,18.701563,15.197901,14.574366,14.487696
13.886377,18.525782,15.163721,14.739161,13.723047
14.011621,18.427637,15.23208,14.783594,13.803125
14.223047,18.534815,15.24917,14.348536,13.928858
14.436182,18.528223,15.631006,14.625635,14.698145
15.021143,18.791895,16.264551,15.524317,16.726221
16.305567,18.95254,16.779444,16.831446,17.873682
17.007227,18.860987,17.535547,17.619043,18.181787
16.938868,18.749414,17.465479,18.107569,18.454248
16.796045,18.84292,17.600245,17.646387,18.630274
17.291407,17.726954,17.58584,18.18838,18.514307
17.521387,18.565332,17.097559,16.82339,18.208887
17.4125,18.977198,16.002588,16.522852,17.502832
17.031641,18.881739,15.775782,16.513819,16.95547
16.295801,18.65542,15.22085,15.67251,14.260157
15.971094,18.76211,14.869532,14.160303,13.925684
15.517725,18.631983,14.830225,13.63125,13.631739
15.04751,18.53457,14.342432,13.632959,13.961817
14.896631,18.27505,14.088526,13.593164,13.67544
14.507959,18.138575,13.809961,13.468897,13.799707
13.844873,17.885157,13.2792,13.257471,13.76211
13.39419,17.777246,12.839014,13.156641,13.002588
12.837549,17.522852,12.909327,12.975733,12.948145
12.497217,17.255762,12.69961,12.273096,12.238428
12.288965,16.99795,11.146875,11.26626,11.507471
11.802881,16.912012,11.5567875,11.399073,11.468409
11.036768,17.005762,10.9908695,11.1271,11.509424
10.906885,16.985254,10.732813,11.10708,11.505274
11.784571,16.926905,12.068018,12.000147,12.670313
12.7792,16.930079,12.976221,12.895899,14.593164
13.702539,16.57461,13.86709,14.063379,15.569727
14.855127,16.921045,14.947168,15.121973,16.000635
15.980127,17.01211,16.217188,15.803614,16.498438
16.850245,16.917871,16.989649,16.351954,16.653223
17.24209,16.890528,17.228907,16.661768,16.658594
16.717188,16.98916,16.862207,16.880762,16.648096
16.268702,17.012842,16.657373,16.613184,16.3688
15.309473,17.060205,15.577051,15.7269535,15.690577
14.433985,17.194239,13.89419,13.952784,13.814112
13.159327,17.335352,12.679102,12.81875,12.707422
11.940088,17.53921,11.115137,12.211817,12.154444
10.527491,17.63418,10.916651,10.748438,11.959375
9.606348,17.576075,10.935694,10.929346,11.604639
9.51919,16.892725,10.039209,11.154932,11.579493
9.390284,17.409327,9.860254,10.552637,12.548975
9.17959,17.465967,9.576075,9.931543,11.894922
9.324366,16.720118,9.292871,9.812647,12.692286
9.212549,17.772852,8.98208,9.472559,12.129297
9.015284,17.810205,9.132227,9.347803,12.330713
9.144434,17.527002,8.999414,9.517237,12.356348
9.210596,17.445215,9.405664,10.219629,12.616602
9.026026,17.376856,9.738428,10.302393,12.5411625
10.095362,17.41421,10.879541,11.055811,13.074854
11.576319,17.187159,12.336817,12.775293,14.0707035
12.510889,16.914942,13.960596,14.764551,14.464258
14.018213,16.202295,15.198877,15.581202,13.756739
14.062647,16.386621,15.692041,15.9042,13.969629
13.808985,16.80337,15.5707035,16.28921,14.740137
12.688379,17.195215,14.9630375,14.443506,15.222803
12.092432,18.229883,13.543604,13.12295,15.51333
11.967676,19.034082,12.899073,12.896143,16.937647
12.457911,18.967676,13.163477,12.6542,16.558008
12.658106,18.28042,13.149317,12.753077,16.029932
12.531397,18.542871,13.239893,12.756006,15.439356
13.277735,18.45669,13.497461,12.933008,15.014795
13.547266,18.4479,13.813623,13.187403,14.839746
13.466944,18.396143,13.827051,13.368555,14.996973
12.873194,18.09585,13.678614,13.224512,15.0064945
12.286524,17.865625,13.4474125,12.906153,15.073389
12.2599125,17.883448,13.310938,12.985987,14.972071
12.067774,17.896631,13.128321,12.961573,14.760889
11.97085,17.808008,12.970606,12.740381,14.839746
11.767481,17.619287,12.974756,12.815332,14.685205
11.810694,17.51626,13.050928,12.874414,14.464746
11.761621,17.488672,13.096338,12.808985,14.910303
11.660059,17.667627,13.090967,12.717676,15.046778
12.274073,17.156885,13.288721,13.083155,14.738672
13.185694,17.150782,13.900782,13.602198,14.300928
12.962061,17.754053,14.612696,14.484522,14.66836
12.894922,17.56167,14.443018,14.859034,15.194239
13.400049,17.372705,14.237452,14.516748,15.46377
13.202295,17.464258,14.515284,14.4786625,15.657129
13.34585,17.634668,14.697657,15.042871,16.250391
13.676905,17.484766,14.552393,14.708399,15.759424
13.617334,17.57046,14.532373,14.086573,15.381006
13.587793,17.933008,14.33169,13.848047,15.337793
13.6974125,18.112452,14.059229,13.650782,15.674952
14.223536,18.466211,13.761621,13.48208,16.137598
13.880518,17.779688,13.7130375,13.497217,15.747217
14.207422,17.6271,13.951563,13.658106,15.349512
14.552393,17.38418,14.500391,13.88711,15.0846195
15.0394535,17.39248,14.891504,14.25503,14.907862
15.3380375,17.10879,15.071924,14.695948,14.529688
14.110987,16.865381,14.878565,14.345118,13.964014
13.001368,17.016993,13.999414,13.646143,13.051172
12.650293,16.502832,13.837793,13.152002,13.115137
12.232325,16.442286,13.448633,12.802637,11.933741
11.805323,16.36123,12.292139,12.390528,11.2269535
11.436914,16.334131,11.928858,11.691797,10.82583
11.2269535,16.343653,11.732813,10.993799,10.701319
11.201807,16.520655,12.016016,11.323145,11.538233
11.434229,16.710352,13.161036,12.597071,13.174707
12.44375,16.852198,14.315577,13.621485,15.088526
13.502832,17.270655,15.199366,14.767481,16.305323
14.570215,17.555323,15.944483,15.573633,17.042627
15.275049,18.009424,16.305323,15.972803,17.521387
15.745264,17.756495,16.467676,16.235987,17.603418
15.865381,18.175684,16.2604,16.717188,17.258936
15.63125,18.058496,15.711573,15.973291,17.191065
14.928614,17.578272,14.729151,15.0646,16.237207
13.764551,17.625391,13.484522,13.854395,15.098291
13.170313,17.853418,12.633692,13.310938,14.470118
12.700586,17.709864,11.84292,12.437403,14.006983
12.799952,17.301905,11.562647,11.892481,13.652002
12.905909,16.838526,11.734766,11.529444,13.856104
12.802149,17.097315,11.762354,11.518457,13.303125
12.452051,17.032618,11.705225,11.29043,12.356104
12.326807,16.812891,11.966211,10.300196,11.803614
12.599024,16.653955,11.3224125,10.114405,11.261377
12.509424,16.51504,10.756739,9.649317,11.160303
12.554834,16.5646,9.824121,10.075342,11.543604
12.477198,16.77334,10.43545,10.76333,11.356592
12.486475,16.799463,10.503809,10.920069,10.999903
12.340723,16.714746,10.66128,11.407862,11.307276
12.594629,16.531153,11.32461,11.789698,12.633448
12.786036,16.704004,11.984278,12.330957,14.885401
12.417139,17.183252,12.484522,12.86709,16.416895
12.770655,17.564844,12.474024,13.243067,17.153467
12.880518,18.168848,12.234766,12.957666,17.316309
12.774317,18.203272,12.305811,12.613428,17.103662
12.673731,18.004786,12.471582,12.3771,17.330225
12.606348,18.051905,12.533106,12.321924,17.195704
12.750147,17.976954,12.494776,12.268702,16.997705
12.6783695,17.951807,12.444971,12.267237,16.172754
12.623194,17.740137,12.3814945,12.430567,15.485254
12.685938,17.554834,12.500147,12.632471,14.542627
12.719385,17.415186,12.653223,12.842432,13.987207
12.750147,17.284815,12.759424,12.862696,13.511377
12.73794,17.440088,12.811426,12.91128,13.635157
12.7521,17.652979,12.891016,13.107325,14.073877
12.861719,17.876368,12.923731,13.19375,13.528711
12.916651,17.573877,13.0567875,13.440821,13.21792
12.801172,16.980127,13.034082,13.52627,12.312403
12.837549,17.080713,13.503809,13.406641,12.988184
12.784327,17.184229,14.387354,13.297022,13.4457035
12.588282,17.364893,14.905909,13.485743,13.96084
12.454493,17.053614,14.6505375,13.489649,13.208643
12.474512,17.22793,14.740137,13.484522,12.953516
12.988184,17.734766,15.031885,13.994532,14.406153
13.607325,17.497705,15.486231,14.5550785,16.219385
13.941797,17.514307,15.430811,15.095606,16.71255
14.597071,17.600489,15.380762,15.525782,17.025293
15.4300785,17.754297,16.465479,16.055079,16.81582
15.728174,17.648584,17.21499,16.746485,17.41128
15.784571,17.665918,17.566797,17.225977,17.298243
16.083399,17.941065,17.74795,17.855616,17.083399
16.268457,17.76919,16.71084,17.543604,16.926172
15.621973,17.606348,16.35464,16.603907,16.508448
14.300928,17.671534,15.894678,15.936914,15.907862
13.971094,18.058985,15.521875,15.635401,15.191309
14.142481,18.328516,15.475489,15.384424,15.277246
13.467432,18.377344,15.358789,15.373194,14.659327
13.147852,18.002832,15.109522,15.161768,14.188379
12.380274,17.99087,14.854883,14.56753,13.718653
11.715967,18.51919,14.149561,14.011621,14.538233
11.334131,18.45547,13.729395,13.804346,13.948145
11.410303,18.235987,13.567774,13.660059,14.16128
11.328272,18.251368,13.340235,13.193262,13.322901
11.425684,18.41958,13.121241,13.031153,13.339502
11.13418,18.345362,12.467432,12.456446,13.254541
10.539209,18.05044,12.121973,11.972559,13.496485
10.59878,17.933496,12.079493,12.158594,14.248682
11.198877,17.936182,13.008448,12.4125,15.56875
12.3675785,17.985254,14.886133,13.601221,16.353662
13.676172,18.468164,15.205225,14.89126,16.098047
14.781641,18.295069,16.170313,15.587549,16.01919
16.038965,18.327295,16.52041,16.201075,16.323877
16.752344,17.146143,16.84463,16.2875,15.163721
16.803614,16.774317,16.944239,15.496973,14.369043
16.67959,16.478907,16.352686,14.618799,14.43252
16.57168,16.252588,15.990137,15.00918,13.913477
15.778223,16.388819,15.792627,15.231348,14.093897
15.069483,16.474268,15.282618,14.322168,14.360743
13.921289,16.027979,13.853174,13.459375,13.877588
12.551661,15.545801,13.210596,13.111963,13.312403
12.543848,16.501612,12.688623,13.052393,13.511621
12.504297,17.005518,12.826075,12.800196,12.852686
12.341944,16.696924,12.929834,11.939844,12.46377
12.327295,16.619532,12.027979,11.731348,12.032373
11.6896,16.394434,11.667871,11.7286625,11.950586
11.635401,16.227442,11.673487,11.74209,11.682276
11.3675785,16.043848,11.707911,11.344629,11.434229
10.921534,16.079737,10.869776,10.806055,10.950586
10.243799,16.07754,10.146143,10.329248,10.581934
9.4042,15.81875,9.808741,10.102198,10.987207
9.113916,15.732813,9.154932,9.760645,11.482325
8.980371,15.1896,9.614161,10.376612,12.264795
10.014307,15.079737,11.534571,10.942774,12.563135
11.282862,14.916651,12.2167,11.311426,13.347071
12.541895,14.77627,12.972559,10.538477,13.735498
13.225,14.722559,12.37295,11.423975,13.907129
13.252588,14.857325,12.413721,11.224024,14.271387
13.011621,15.05044,11.720362,12.329248,14.366846
12.948389,15.122705,12.56875,12.784327,14.495752
11.514063,15.475489,12.644678,12.764307,14.339991
11.726465,15.6036625,11.760401,11.810694,13.587305
10.1271,15.261377,10.2113285,10.696436,12.462549
9.779932,15.11294,9.876856,10.184473,11.683985
9.779932,16.045801,9.745508,9.748194,11.793848
8.703516,16.053858,9.488184,9.648096,11.701807
8.3849125,15.920801,8.418848,9.433985,11.05752
8.372461,15.872217,7.533838,8.794336,10.93545
8.01211,15.741602,8.242334,8.537989,10.504786
8.247461,15.630762,8.748194,9.152002,10.064356
8.464258,15.395655,9.509668,8.570459,10.432032
7.778711,15.191065,8.510157,8.799952,11.002588
7.5711913,14.937403,7.117578,9.0292,10.220118
7.381738,14.899561,6.6686034,8.702051,9.635157
7.3385253,14.738672,7.3700194,7.77749,9.714014
7.2865233,14.565577,7.041162,7.6966796,9.80752
7.915918,14.548487,8.107325,8.06167,9.954981
9.001856,14.271875,9.532618,9.455469,11.638819
10.636133,14.273096,10.596827,11.062891,12.716455
11.871973,14.783838,11.562159,11.94375,13.439112
12.431055,14.736719,12.209375,12.581202,14.174219
12.409571,14.74209,12.038233,12.195948,13.898096
12.4300785,14.460108,11.753565,12.899317,12.465967
12.882227,14.383448,11.903467,12.970606,12.479151
12.295313,14.159571,10.803858,12.198633,12.314356
10.985254,14.141504,10.07583,10.909815,11.308252
10.001123,14.256006,9.445948,9.9596195,10.753565
9.727198,14.511133,9.3417,9.423975,10.490381
8.778467,14.3417,8.984278,8.782373,10.442041
7.9693847,14.43667,8.672266,8.598536,10.893457
7.6463866,14.707422,9.019434,8.60293,10.808252
7.6568847,14.478907,8.361475,8.193018,10.392725
7.431543,14.56875,7.6788573,7.9828124,10.590235
7.4623046,14.467188,7.3231444,8.217432,10.637354
7.6844726,14.915674,7.785791,8.430567,10.27627
7.692041,14.058252,7.497949,7.818506,10.76211
7.5902343,14.407618,7.273828,7.5208983,10.441065
7.7135253,13.94668,7.594629,7.525293,10.567286
7.6493163,13.355616,7.7101073,7.6805663,10.469629
7.654199,13.930323,7.744287,7.4850097,11.547754
7.903955,14.746973,7.945459,7.407617,11.344385
8.270411,14.905664,8.308252,8.525782,12.409082
8.747217,14.824854,9.515284,10.102198,12.870264
9.643457,14.829737,10.879053,11.32583,13.56875
10.742823,14.982569,12.055567,12.341944,14.130762
12.026026,15.307032,12.911036,12.840235,14.159082
12.43667,15.307276,13.312891,13.087793,14.234766
12.539209,15.6627445,13.271143,13.139307,14.194483
12.126612,15.889063,12.850733,12.774317,14.265772
11.375879,15.559229,11.465235,11.896387,13.315577
10.286524,15.758692,10.054346,11.0411625,12.132471
9.597315,16.199366,9.747461,10.618555,11.669092
9.249414,16.4313,8.569971,9.969629,11.1542
8.575342,16.490381,7.424707,9.427149,11.691065
8.324366,16.231836,7.9796386,8.621729,10.997705
7.5926757,15.0099125,7.2569823,7.152246,11.399805
8.153467,15.109766,6.1480956,6.1981444,10.895899
7.7621093,15.330957,5.2257323,5.986963,10.518946
8.151026,15.266016,4.8197265,6.0387206,10.670069
8.402979,15.9439945,4.301416,5.921045,10.925196
8.160059,16.163965,4.9847655,6.108789,10.671045
8.351709,16.012842,3.5572753,5.916406,10.951075
8.547266,14.834375,3.2022948,5.773828,11.3363285
8.531153,13.58169,3.2953124,5.216211,10.957911
8.89126,13.933008,4.9723144,6.268213,10.7792
9.639063,13.883936,7.344873,8.02627,11.559961
10.283594,13.786524,8.835596,9.125147,12.171534
11.07168,14.158838,10.366358,10.411768,12.838282
11.766748,14.308252,11.393457,11.516504,14.147364
12.661036,14.9161625,12.249414,12.308496,15.128077
13.272852,15.5377445,12.945948,12.794825,15.144678
13.464746,16.00503,12.984522,12.798487,15.23208
13.245996,16.227442,12.384424,12.423243,14.949366
12.15542,15.72378,10.984766,11.341455,14.112452
10.264307,15.671045,9.660303,10.292871,13.213526
8.94961,16.024073,8.605127,9.500879,12.570948
8.421289,15.942774,7.7281737,8.896387,12.020899
8.006006,16.101465,6.5753417,8.21084,12.033594
7.834619,16.236475,5.416406,7.8495116,11.701075
7.863916,16.5646,5.8961425,7.830957,11.175684
7.8080077,16.686426,5.530908,7.1515136,10.319727
6.438623,16.624659,4.132959,6.2577147,10.323145
6.4605956,16.349024,4.4156737,6.627588,11.369043
6.9205565,15.857325,4.2730956,7.0228515,11.784571
7.400537,15.733789,6.1864257,7.2867675,11.981836
7.619531,15.07461,7.682031,7.8421874,11.946924
7.684961,15.311426,8.177393,8.944239,12.04751
8.230127,15.451075,8.987452,9.397852,11.789209
8.39834,14.310205,8.940577,9.465235,11.527979
8.717432,14.332666,10.052393,10.118311,11.610254
9.466211,14.032618,11.448389,10.668116,11.74917
9.683741,14.649805,11.94253,11.393702,12.573633
9.914209,14.940332,12.097803,11.664209,13.657618
10.04751,14.971827,12.623194,12.43252,13.977686
9.910059,14.708643,12.692041,12.260645,13.808496
9.663477,14.871729,10.41836,12.119532,14.026758
10.209375,15.200586,11.00503,11.719629,13.845606
10.048731,15.301416,10.207178,11.136621,13.001368
9.152735,15.636133,9.472803,9.907373,11.659082
8.266016,15.722315,9.142725,9.307032,10.960596
8.2755375,15.770899,7.98916,8.974268,11.476709
8.551905,15.955225,6.945459,8.728907,11.519434
8.828516,15.834375,8.31875,8.994532,11.408594
8.670069,15.8692875,8.760157,9.52334,11.552149
8.203272,15.899561,8.879297,8.731592,11.325342
8.531153,15.994776,9.085352,8.892481,12.16543
8.191309,16.180323,9.432032,9.462793,12.76333
8.010401,16.156397,10.034082,10.419825,13.2894535
8.228174,16.151514,11.223291,11.205713,13.61294
8.517969,16.248926,11.673243,11.987696,13.868067
8.940821,16.150293,11.99795,12.38833,14.018457
9.76626,16.176172,12.804834,12.544336,14.268213
10.3536625,16.240625,12.977686,12.388086,14.613672
10.925196,16.356348,12.879297,12.784815,14.974756
11.751368,16.641504,13.068262,13.280176,15.36001
12.226709,16.810205,13.313623,13.380762,15.88833
12.405909,16.177637,13.18252,13.777491,16.229395
11.93252,16.259668,13.16543,14.011133,16.005762
12.246729,16.516016,13.0863285,14.103418,15.488916
11.907862,17.037256,13.068262,13.94668,15.424707
11.967432,17.10171,12.481592,13.398584,15.340235
11.716944,17.235743,12.343409,12.847559,14.950586
11.356348,17.336084,12.149805,11.968897,14.776514
11.39834,17.165918,11.731592,12.287256,14.821192
11.49209,16.868067,11.424952,12.156885,13.717188
11.552881,16.101954,11.518213,11.701563,12.928858
11.5377445,17.093164,11.594873,11.813868,12.840967
12.045313,17.825586,11.369043,11.624903,13.400293
13.0221195,17.850489,11.077539,11.156397,15.823633
13.326563,17.872217,11.082666,11.152491,15.852198
13.278467,17.542871,10.839746,11.086084,15.730127
13.172754,17.4125,10.594385,10.623682,15.630274
13.205957,17.316797,10.6314945,10.476709,15.548975
13.162989,17.0563,10.89419,10.479395,15.495996
13.152735,17.202295,13.172022,10.858789,15.712305
13.050928,17.47085,14.271631,12.709375,16.124659
13.28628,17.74331,14.080713,14.327295,16.531397
13.503077,18.00332,14.809473,15.387598,16.82754
14.134668,18.462305,16.005762,15.995996,17.189112
14.801661,18.77212,16.290918,16.243555,17.488428
15.507959,18.70376,16.55337,16.6542,17.610498
16.189112,18.704004,16.836573,17.017237,17.794336
16.422022,18.764551,17.033106,17.15127,17.980127
15.754541,18.758204,17.138819,17.07754,17.962793
15.769434,18.695215,17.214014,17.021631,18.16836
15.955225,18.738184,16.73916,15.302393,17.22671
16.150537,17.178614,14.797754,13.1627445,15.404444
15.978418,16.80752,12.892481,12.113916,14.909571
15.051172,16.70254,12.0917,11.563623,14.421534
13.135889,16.419825,11.581202,11.143457,14.270899
12.241358,16.25625,10.846094,10.667627,14.054346
11.914942,15.885401,10.32461,10.052881,13.479395
11.817774,15.984766,10.013086,9.443506,13.306299
11.692774,16.159327,9.379297,9.056543,13.007227
11.587305,16.194483,9.018457,10.04043,12.139063
11.409082,15.862207,9.750635,10.123438,11.612696
11.260401,15.909571,9.56753,9.823877,11.500635
10.71792,15.78628,9.464258,9.368555,12.742334
9.87417,15.507471,9.417871,9.351709,12.00918
9.215723,15.312403,9.324366,9.063623,12.027735
9.347315,15.252344,9.42959,9.391504,11.894434
9.812647,15.2582035,10.527979,10.4752445,13.054346
10.765528,15.460108,11.5394535,11.492823,13.871973
11.866846,15.225489,12.131983,12.27334,14.329493
12.8189945,15.2425785,11.366602,12.865625,14.459864
13.265284,15.096582,12.624414,13.06875,14.66128
13.188379,15.384424,12.909082,13.111231,14.510401
13.1314945,15.701319,12.524561,12.966944,14.515039
12.391016,16.05581,12.337793,12.330957,14.299219
11.396875,16.302881,11.7130375,10.825098,13.392725
10.703028,16.382471,10.361963,10.260645,11.993067
10.2911625,16.366602,10.113428,9.732325,12.32168
9.799952,16.144434,9.624903,9.6192875,12.427149
9.480616,15.744776,9.401758,9.5724125,11.943018
9.196924,15.482569,9.376856,9.693506,11.478418
9.402002,15.239161,9.458643,9.8363285,11.652246
9.098047,15.104883,9.445215,10.252344,11.71084
9.140528,14.989649,9.848536,10.663477,11.451075
8.609766,14.653711,9.804834,10.486719,11.50625
8.117334,14.619776,9.806055,9.968653,11.755274
8.241358,14.664698,9.332911,9.181055,11.716455
8.520166,14.894922,8.722315,8.688868,11.837793
8.649561,15.180811,8.428125,8.129541,12.337549
8.587061,15.348291,7.897119,7.736963,11.777002
8.782129,15.401026,7.931787,7.7030272,12.239893
9.481348,14.812159,8.544825,8.656397,13.128321
10.589014,15.183496,9.490625,9.762598,14.206934
11.583643,14.957911,10.615137,10.67959,14.570459
12.32876,15.727442,11.743555,11.513086,15.027735
12.835352,15.904688,12.3519535,12.051661,15.133448
13.121241,16.00503,12.630274,12.479395,14.926172
13.140528,15.813623,12.451563,12.7738285,14.696924
12.849024,15.653955,11.957911,12.359766,14.235254
11.294336,15.399561,10.560205,10.914942,12.713526
9.999903,15.326319,9.701807,9.7721195,10.639063
9.731348,15.247705,8.350733,9.308741,9.855127
9.300196,14.614405,7.306787,8.790918,8.455713
8.913233,14.345362,6.2955565,8.197657,7.518945
8.923487,14.149561,6.0748534,7.949365,8.31753
8.730127,14.055323,5.785547,7.684961,8.945459
8.506739,14.024317,6.075586,7.334131,8.501368
8.3658695,14.373682,5.9015136,7.277246,8.35708
8.177393,14.8692875,6.234033,7.447168,8.226221
8.016016,14.771875,5.9745116,7.7728515,8.000391
7.864404,14.500635,6.809961,8.041895,7.917627
7.6493163,14.655176,7.8736815,8.852442,8.232569
7.365381,14.888575,8.142725,9.826075,9.153467
6.864404,14.98794,8.146875,9.886866,8.6661625
7.0492187,15.016016,8.347071,10.165186,8.911524
8.426661,15.334375,10.164209,11.082422,11.559961
9.686182,15.71084,12.28042,12.605127,13.736963
10.968897,15.680567,13.186914,13.198633,14.744043
12.050684,15.697168,13.372217,13.37295,15.123194
12.824854,15.76919,13.578516,13.516504,14.94253
13.177637,15.718897,13.692041,13.653223,14.879541
13.194727,15.810938,13.536524,13.519922,14.7894535
12.77334,15.81167,13.175684,13.235987,14.395166
11.679102,15.970606,12.740137,12.810938,13.455469
10.672754,16.03213,12.472559,12.68667,12.895166
10.219873,16.319239,12.7582035,12.929102,13.2252445
10.097559,16.464746,12.875879,12.887842,13.416407
10.005518,16.41958,12.588282,13.204981,13.483789
9.962793,16.367334,12.861719,12.890528,13.746485
9.948877,16.169825,12.400782,12.838282,13.6036625
10.094141,16.112696,12.354883,12.8814945,13.599024
10.22378,16.106348,12.146631,12.343164,13.511133
10.194483,16.26748,12.611963,12.361231,13.482325
10.219873,15.962549,12.711817,12.357325,13.168116
10.27627,15.82583,12.564844,12.246729,13.320215
10.180323,15.69375,11.649805,12.109278,12.9317875
10.244776,15.633448,11.508936,12.395166,12.434717
10.464502,15.902735,11.832911,12.729395,12.792383
10.592432,15.752344,12.750635,12.856592,12.916895
11.015528,15.882227,13.417871,13.452784,13.95669
12.057764,15.508448,14.170313,14.194727,14.870996
12.872217,15.696924,14.746241,14.767969,15.382471
13.545313,15.651758,15.445215,15.257471,15.289698
13.75918,15.825342,15.8536625,15.469385,15.624414
14.254053,16.006006,15.690332,15.396143,15.821436
14.107325,15.983545,15.362452,15.000391,15.516748
13.524561,16.188623,14.815332,14.702051,15.2442875
12.86001,16.385157,13.329493,13.8658695,14.683496
12.306055,16.72378,13.529932,13.540186,12.633936
11.627832,16.699121,12.748926,12.969385,12.297998
11.151514,16.67129,12.729883,12.549707,12.3675785
11.211817,16.824366,12.275293,12.183008,12.985498
10.497461,16.85,12.05752,11.752832,13.292627
10.560694,16.717188,11.496485,11.452784,13.183252
10.498682,16.806055,10.954004,11.230371,12.674952
10.116358,16.727442,11.63418,11.006739,12.959131
10.282373,16.636621,12.133448,11.134668,12.931543
10.074121,16.462793,11.555323,10.6627445,12.48501
10.064112,16.54873,11.68252,10.221338,12.096827
10.03335,16.625147,11.585108,10.37295,12.295557
9.982569,16.516504,11.03335,11.025782,12.335108
9.901514,16.40713,11.26919,10.808496,11.928858
9.863916,16.326807,11.479883,11.595606,11.538233
10.498194,16.384912,12.578028,12.359278,13.538233
11.422998,16.215967,13.686426,13.248438,14.699366
12.4786625,16.050196,14.314844,13.871241,15.157862
13.484278,15.924219,14.771143,14.411524,15.381006
14.052881,15.881739,14.936426,14.687159,15.691553
13.970362,15.878077,14.952539,14.677637,15.585596
13.899561,15.861719,14.690821,14.44668,15.342188
13.511133,15.708643,13.813135,13.921778,14.919336
12.75918,15.660303,13.378565,12.929834,14.201807
12.161036,15.723536,12.338526,12.115381,13.354151
11.628565,15.66836,11.9127445,12.237207,12.993799
11.392237,15.651026,11.890039,12.242334,12.188379
10.684473,15.740625,11.715479,12.094385,11.761866
10.888086,15.665186,10.919825,11.844385,12.265039
10.305323,15.607569,10.031885,11.51919,12.459864
10.051416,15.308008,10.339991,11.327539,12.364405
9.851465,15.332422,9.794092,11.1158695,11.620508
8.827539,15.073877,8.704004,10.710352,11.769922
8.157618,14.7599125,8.702295,10.138819,11.268946
7.8160644,14.829981,8.361719,8.787256,11.020411
7.593164,14.716944,8.200586,8.821192,10.333643
7.541162,14.515039,8.280176,8.573633,10.062891
6.8753905,14.583643,7.9156737,9.317286,10.184961
7.758447,14.501123,8.553125,9.714014,10.514551
10.284327,14.558496,10.237452,10.553858,11.925196
11.787256,14.769922,11.498194,11.597803,13.550684
12.79336,15.033594,12.734522,12.73501,14.990137
13.45669,15.350489,13.682276,13.687403,15.752832
13.960108,15.764551,14.248194,14.308741,16.20669
14.4474125,15.840967,14.6002445,14.786036,16.54458
14.683741,16.071192,14.750391,14.960108,16.4667
14.479395,16.47378,14.452539,14.639551,16.026758
12.6974125,16.603662,12.569727,13.151514,14.722559
11.712305,16.567286,11.863672,12.561426,12.836084
11.581934,16.374659,11.818506,12.154444,12.355616
11.337793,16.151514,11.152979,11.857325,12.236475
11.24502,15.896631,11.276514,11.594629,12.295801
10.895411,15.897608,11.539942,11.42544,12.538477
10.630274,15.933008,11.575098,11.402491,12.648584
10.336817,15.855127,11.602442,11.3692875,12.0863285
10.106836,15.761621,11.535791,11.289698,12.287256
10.066797,15.748682,11.344141,11.364893,12.324854
9.875635,15.573633,11.275293,11.246485,12.101709
9.8346195,15.403711,11.077539,11.033594,11.967188
9.905664,15.30752,11.083155,11.01626,11.271631
10.071436,15.472559,10.951319,10.967188,11.252588
10.308008,15.423243,10.931299,10.769922,11.025293
10.851709,15.520655,11.10708,10.88418,12.090479
11.559473,15.233545,11.737696,11.5533695,12.900049
12.319971,15.192774,12.756739,12.420313,13.907129
12.701563,15.6002445,13.508936,13.414209,14.983545
13.531885,16.220118,14.17544,14.31045,15.223536
13.937891,16.34463,14.998194,14.934473,15.28628
13.811914,16.667383,15.4283695,15.243311,15.283838
13.7755375,16.603662,15.371241,15.288233,15.281397
13.571924,16.337305,14.549463,14.873194,15.089258
12.863672,16.279688,13.325586,13.933496,14.320459
12.104395,16.203516,12.853907,13.387842,13.942286
11.960352,15.765284,13.031885,13.016748,13.5646
11.768946,15.573145,13.139063,13.034815,13.308741
11.766504,15.706446,13.072168,12.944971,13.0550785
11.400293,16.014795,12.69961,12.72378,12.777246
10.537989,16.147608,12.611963,12.375879,12.785547
10.421045,16.159815,12.567774,12.368799,12.8502445
10.493067,16.300928,12.241358,12.147364,12.879297
10.575342,16.417627,11.718897,11.859034,12.790918
10.672022,16.346338,11.315577,11.398584,13.073633
10.868555,16.27041,11.057764,11.209375,13.221827
10.99209,16.079248,10.826319,10.886133,13.315332
11.085352,16.064356,10.690088,10.59292,13.28042
11.201075,16.287745,10.84585,10.447168,13.454004
11.460352,16.83584,11.042139,10.575586,13.716211
12.099512,17.13589,11.839258,11.25918,14.435694
12.8971195,17.527735,12.886621,12.483301,15.196436
13.411524,17.57168,13.869532,13.413233,16.171778
14.1019535,17.180079,14.165674,13.90127,16.547754
13.913965,16.999659,13.675196,14.403711,16.249903
14.3346195,17.008692,13.503077,14.159571,16.285791
14.564112,17.216455,13.135889,14.069239,16.556787
14.40835,17.386621,13.242334,13.662256,16.57168
13.677149,17.544825,13.329004,13.4283695,16.319727
13.205225,17.614893,13.228418,13.334864,16.155176
13.044336,17.633448,13.15127,13.4127445,16.156641
13.128565,17.707422,13.336084,13.548731,16.197412
13.097559,17.673487,13.322657,13.49795,16.254541
13.074121,17.747217,13.176172,13.394922,16.301416
13.092188,17.66543,13.120508,13.249414,16.376368
13.048731,17.631495,13.128809,13.120264,16.336329
12.933741,17.622705,13.060205,12.796289,16.254541
13.057032,17.624414,12.884668,12.893457,16.086329
13.484766,17.780664,13.120752,13.083887,15.839746
13.857325,17.78628,13.332178,13.274561,16.172754
13.970606,17.806543,13.432276,13.434473,16.295069
13.657373,17.821192,13.712305,13.559717,16.437403
12.788721,17.567286,13.705713,13.616846,16.527002
13.092188,17.479883,13.896875,13.75625,16.36709
13.892725,17.425196,14.315332,14.153711,16.482325
15.040918,17.502832,14.988184,14.753809,17.011133
16.388819,17.679834,15.88125,15.829737,17.491602
17.120508,17.899317,16.579004,16.743067,18.011621
17.354395,18.041162,17.501612,17.67544,18.437403
17.616114,18.100733,18.220118,17.808985,18.51504
17.506006,18.146631,18.048487,17.662012,18.472803
16.952295,18.210108,17.270655,17.048243,18.114649
15.446192,18.169092,16.255762,16.391504,17.236963
14.353418,17.984034,15.988428,15.893946,16.617579
13.968164,17.844385,15.614161,15.216455,16.60171
13.959131,17.812403,15.391016,15.180323,16.408594
14.00918,17.853662,15.783594,15.1783695,15.964502
13.868555,17.623926,14.938868,15.306543,15.61001
13.86001,17.515528,14.460108,15.260401,15.522608
14.154688,17.567041,14.140772,14.558008,15.776514
14.0377445,17.620752,13.7911625,14.0550785,15.541895
13.815577,17.574121,13.602198,13.866114,15.729395
13.958155,17.4938,13.282618,13.79043,15.652002
13.569483,17.502588,12.850489,13.593897,15.6957035
13.729395,17.594141,12.981592,13.452295,16.011866
13.797266,17.701075,13.115381,13.204981,16.317041
13.60708,17.672754,12.573389,13.239649,16.618067
13.56875,17.751856,13.201563,13.464502,16.731592
14.0411625,17.845362,14.491846,14.047022,17.15249
14.849512,17.965479,15.395655,15.154688,17.538233
15.804834,17.974512,16.327051,16.33706,17.834864
16.464014,18.142725,16.8417,16.885645,17.93081
16.933252,18.203272,17.24917,16.979883,17.765772
17.242579,18.289698,17.257715,16.573633,17.97207
17.065577,18.330225,17.113428,16.586084,17.89712
16.828272,18.332178,16.690577,16.27334,17.783594
15.796289,18.29922,16.505274,16.016993,17.723536
15.552149,18.265284,16.512842,16.08584,17.508936
15.657862,18.260157,16.573145,16.177393,17.438135
15.583887,18.289698,16.532862,16.048975,17.516993
15.442041,18.281397,16.353662,15.948145,17.567286
15.318262,18.275293,16.19839,15.854395,17.524073
15.104639,18.228662,16.04214,15.740137,17.444727
14.869043,18.206202,15.849512,15.724024,17.380518
14.637598,18.186914,15.571192,15.614893,17.389063
14.336573,18.13589,15.422754,15.450586,17.323145
14.233789,18.098291,15.197901,15.347559,17.229395
14.051661,18.091455,14.983057,15.299707,17.239649
13.653711,18.013086,14.503321,15.301905,17.129541
13.4161625,18.03335,14.445948,15.131983,17.14712
13.4144535,17.875391,15.877588,15.140528,17.073633
13.579737,17.880274,15.741358,15.139795,16.989649
13.874903,17.92422,15.704493,15.190088,17.211329
14.284815,17.970606,16.00918,15.5689945,17.329737
14.975977,18.090967,16.646387,15.919092,17.479395
15.488428,18.122217,16.6896,16.22207,17.629786
15.990625,17.884424,16.64248,16.32583,17.39126
16.360743,17.772608,16.54043,16.264307,17.427881
16.610498,17.91665,16.535547,16.204737,17.121729
16.809229,18.158594,16.933008,16.437403,17.423487
16.460108,18.354395,17.016504,16.475733,17.646875
16.24502,18.461329,16.49087,16.1979,17.703028
16.028955,18.38003,16.544092,16.157862,17.687159
15.888819,18.144434,16.85708,16.497461,17.731592
16.157373,18.109034,17.1979,16.691065,17.79043
16.374414,18.110254,17.38711,17.13589,17.760645
16.424707,18.058252,17.434961,17.392237,17.715479
16.478907,18.252588,17.453272,17.557032,17.548243
16.736963,18.426172,17.519678,17.249659,17.662256
16.96792,18.429102,17.244532,16.992823,17.512842
16.974512,18.281397,16.951563,16.850489,17.147608
16.726954,18.095362,16.725,16.550928,16.81875
15.902491,18.015284,16.334864,16.062403,16.649805
15.376123,17.951563,15.936182,15.758936,16.417627
14.782129,17.848047,15.740381,15.375391,16.108057
14.7599125,17.715235,15.596827,15.263819,15.891748
14.899317,17.621485,15.740625,15.554346,16.187159
15.489405,17.46206,16.144922,16.13296,16.727686
16.008448,17.238916,16.804102,16.47207,16.91543
16.3417,17.129541,17.032618,16.298243,17.133692
16.895166,17.116846,16.7875,16.43838,17.164454
16.32583,17.059229,16.590235,16.258204,16.987207
16.254541,17.006739,16.054834,15.814844,16.597559
15.909571,17.126612,15.259668,15.345606,16.079737
14.666651,17.04336,14.448145,14.871485,15.499414
13.631739,17.133692,14.275782,14.653467,15.686914
12.894434,17.181787,14.413477,14.546778,16.138575
12.426905,17.183985,14.502588,14.457422,16.219385
12.293848,17.254541,14.339991,14.419825,16.320948
12.190821,17.335352,14.664209,14.511133,15.781153
12.0292,17.356592,14.662012,14.501123,15.417627
12.01333,17.458399,13.861475,14.04043,15.239649
