"[299, 255]","[227, 248]","[287, 319]","[279, 328]","[230, 262]"
7.115625,10.916895,8.967676,8.561426,9.505762
6.4693847,10.792627,8.696924,8.241114,9.022608
6.286035,10.61709,8.69375,8.105616,8.497461
6.189111,10.568506,8.572901,8.011133,7.285791
6.181543,10.439112,8.401758,7.867334,6.954492
6.3165526,10.296534,8.480616,8.0255375,8.152979
6.787988,10.41958,9.3033695,8.808008,9.835352
7.7420897,10.673975,10.179346,10.112696,10.819239
8.988184,10.748926,10.459864,10.905176,11.342188
10.15835,10.64126,10.863916,11.34878,11.751856
10.342432,10.817041,11.69253,11.707666,12.204737
11.945215,10.874903,11.684717,12.433741,12.271875
10.712549,10.9125,12.260401,12.430323,11.955225
9.310938,10.9005375,10.550928,12.593164,12.751368
10.194483,10.850733,12.409815,12.181299,12.101221
10.903955,10.7721195,12.288721,11.729151,11.964746
10.873438,10.695948,11.796778,10.611231,11.264063
10.015284,10.718897,11.035791,11.384668,10.683252
9.500391,10.638575,10.176661,10.194483,10.401026
8.595606,10.714991,8.588282,9.052881,9.937159
7.2535644,10.743799,8.043604,8.557276,9.698877
6.3888183,10.841211,8.762598,8.411768,9.534327
5.7882323,10.7167,8.514307,7.7967772,9.272852
6.4154296,10.39419,7.782129,7.346582,8.7130375
6.7594237,10.488184,7.115625,7.6378417,8.269434
6.766748,10.211084,7.56875,7.58291,8.350733
6.812158,10.131006,7.8062987,7.0924315,7.8092284
6.407129,9.941309,7.513574,6.2784667,7.379541
5.310205,9.674952,6.943994,6.355127,7.838281
6.10708,9.344385,6.9330077,6.6249022,7.697168
6.6358886,9.323389,8.230127,7.6910644,8.503077
7.240625,9.095118,9.053614,8.565088,8.816553
8.403223,8.878565,9.648584,9.015772,9.345606
9.267481,8.94668,9.397852,9.992334,9.685694
8.730371,9.042627,11.09292,11.036524,10.39126
9.589991,9.084131,11.90127,11.46377,10.794092
9.1271,9.328516,12.318506,11.831934,10.997217
10.585596,9.646387,12.426172,11.815088,11.501856
10.827784,9.947901,11.585596,12.191553,11.756983
10.739161,10.0021,10.800684,12.111475,11.883692
10.545069,10.336573,10.265772,11.622461,11.378565
9.844385,10.305323,10.704493,10.935938,11.049463
8.84292,10.583643,9.957178,10.031885,10.314356
7.1339355,10.606348,8.481348,8.606592,9.246241
5.8023925,10.394434,7.56875,7.029199,8.3536625
5.214502,10.263086,6.8924804,6.570703,7.501367
5.06582,10.243067,6.270654,6.527002,7.348047
5.532861,10.132227,5.359033,6.648584,7.575586
5.9745116,10.216211,5.668115,7.001611,8.596827
5.8770995,10.165186,5.8114257,6.5543456,8.788965
5.6168456,9.99209,5.869531,6.293115,8.402979
5.5401855,9.83584,5.708154,5.1805663,8.212793
5.5003905,9.709131,4.678369,5.0470214,7.648584
5.8131347,9.454248,5.2520995,5.56875,7.3790526
6.0799804,9.349268,6.232324,7.12832,8.486475
7.0458007,9.235254,7.6407714,7.9186034,8.8692875
8.154932,9.13833,8.889063,8.988428,9.358301
8.145411,8.979395,10.352442,10.132227,9.941309
8.35293,8.95376,11.099512,10.679346,10.576807
9.585108,9.004541,11.729151,11.796534,10.796534
9.48794,9.17544,11.633936,11.8536625,10.747217
10.444483,9.313379,11.544336,12.181299,11.170069
11.029688,9.510401,12.108545,12.464502,11.3050785
10.732813,9.716944,12.345362,12.297266,11.636377
10.183496,9.851709,12.010401,11.66128,11.246485
9.550928,10.245508,11.0255375,10.888819,10.237452
8.561914,10.4125,9.934229,10.0221195,9.930323
6.8614745,10.641748,8.39126,8.744776,9.699366
5.476953,10.798487,7.1476073,8.239893,9.746485
5.237451,11.00503,7.108545,8.107325,10.08877
4.8529296,10.921045,7.4273925,8.255274,10.232325
4.839746,10.830469,7.874414,8.228174,10.12002
4.977197,10.806055,7.867822,8.05044,10.103907
5.6222167,10.882227,8.365381,8.408594,10.2911625
6.1563964,11.096094,8.468164,8.810205,10.391016
6.603662,11.280909,8.594141,9.019434,10.00625
6.771631,11.163233,8.42959,8.863672,10.077295
7.428125,11.017481,8.4925785,8.843164,9.9125
8.214258,10.671289,8.642969,9.114893,9.867334
8.35293,10.369532,9.345118,9.248438,9.937403
8.783106,10.338282,10.119532,9.108057,9.721827
8.263086,10.277246,9.866114,9.745996,9.768946
7.2970214,10.13125,9.985987,9.320215,9.779688
6.7691894,9.91543,9.624903,8.414942,9.78628
6.754541,10.268457,9.709131,9.510645,9.734278
6.100488,9.747705,10.016993,9.812403,10.621485
6.5958495,9.86001,10.258936,10.206446,11.045313
6.360742,9.531885,10.549463,10.373926,10.298243
6.5243163,9.6800785,10.104883,8.539698,9.566065
6.100488,9.771387,8.487452,8.419336,8.730127
6.25625,10.039698,8.639795,7.7958007,8.167627
5.190332,9.757715,7.084131,6.5836425,8.269922
4.9200683,9.489405,6.57583,6.546045,8.127832
4.978662,9.7599125,6.3509765,6.4815917,8.083155
5.075586,9.444971,6.079004,6.3888183,7.9156737
5.1427245,9.642237,6.2638183,6.1825194,8.024073
5.1637206,9.789698,6.0262694,5.9710937,8.23086
5.1930175,9.573877,5.5245605,5.6822753,8.366602
5.1129394,9.836573,5.5145507,5.6183105,8.470606
5.1563964,9.615625,5.501367,5.4762206,8.603907
5.0921874,9.8224125,5.3890624,5.6827636,8.743067
5.2450194,9.667383,6.053613,6.1915526,8.672266
5.9461913,9.769434,6.9830565,7.036279,9.036768
7.0702147,10.000879,8.732569,8.246973,9.53335
8.339991,10.24209,9.408838,9.371729,10.35586
9.450342,10.655176,10.440577,10.045069,11.084375
10.597071,10.82876,10.270166,11.109766,11.659571
9.987207,10.843409,10.986231,11.6817875,12.064112
8.680811,11.382715,12.437403,12.003321,12.422266
11.972071,10.807032,12.359278,11.205713,12.126612
11.847071,11.285303,12.441797,12.834864,12.251368
10.064356,11.893457,12.215723,12.60586,11.925196
10.168604,11.732569,11.771631,12.104883,11.811914
9.677881,11.827051,11.135157,11.356348,11.594629
8.895411,11.766748,10.037012,10.114405,11.026026
7.805322,11.239893,8.633448,8.88711,10.579981
6.94375,11.055567,7.9447265,7.712793,10.085596
6.3946776,11.100977,7.659082,7.221826,9.913965
6.428369,11.018946,7.041406,7.1549315,9.865625
6.1151366,10.753077,7.13125,6.964502,9.40542
6.1859374,10.72085,6.34707,7.1354003,8.795069
6.3836913,10.166651,6.518945,6.3092284,8.702784
6.10708,9.774805,6.957666,5.4410644,8.947168
5.8495116,9.715479,6.1222167,4.8390136,7.742822
4.683496,9.498926,4.893457,4.316797,7.2276855
5.287744,9.613672,5.3075194,4.676904,8.399073
6.4447265,9.970118,6.675195,5.9830565,9.783838
7.4676757,10.518457,7.923242,6.914209,10.30459
8.314356,10.811426,8.969873,8.388086,10.5917
8.906641,11.190577,9.615381,9.269434,10.885889
9.042139,11.177149,10.45376,10.028955,11.177393
10.100489,11.120996,11.591211,10.992334,11.324854
10.552637,11.178614,12.035059,11.360987,11.460352
10.760157,11.23208,12.085108,11.643702,11.382715
11.1957035,11.426416,11.982569,11.593897,11.431055
10.7252445,11.582422,11.923487,11.777979,11.293848
10.56875,11.571192,11.615137,11.891016,11.05752
9.906397,11.628321,11.089014,11.229883,10.616358
8.791651,11.48208,9.889307,9.979151,9.9752445
7.192041,11.079248,7.7608886,8.220606,8.644678
5.823877,10.721094,6.3561034,6.4479003,7.259912
5.0196776,10.359034,4.9410644,5.374414,6.975
4.4061522,9.996973,4.3390136,4.8946776,6.3912597
3.7643065,9.7442875,4.0936522,4.3666015,5.442529
3.0611815,9.753321,2.8036132,3.910791,5.7628417
2.5572753,9.53628,2.315332,3.5899901,5.0472655
2.1725097,9.32168,1.827295,3.1786132,4.5960937
2.890283,9.376123,1.7376953,2.9537597,5.3265624
2.8475585,9.212061,1.7025391,2.898584,5.1861815
3.480371,8.907862,2.9564452,3.632959,6.00625
4.5086913,8.898096,4.63833,5.0714355,8.392481
5.784326,9.214991,6.360986,6.6375976,9.792139
7.3663573,9.922266,8.184229,8.369532,10.37417
8.637354,10.717188,9.914209,9.680567,11.077539
10.031397,10.686182,11.446924,11.0917,11.925684
11.320459,10.664942,12.819483,12.309961,12.492334
12.3519535,10.672998,13.87295,13.410059,12.750147
13.222559,10.905909,14.685694,14.279932,12.83169
13.920069,11.252344,15.226465,14.823877,12.536036
14.29458,11.617334,15.38711,15.065332,12.401758
14.290674,11.893702,15.16958,14.879541,12.156153
13.904932,12.402002,14.472315,14.2096195,11.707422
12.673487,12.368067,13.029932,12.891504,10.706446
9.839258,11.855371,10.498926,10.781153,8.877832
8.243555,11.269922,9.054346,9.20083,6.829248
7.519922,11.094141,8.1783695,8.124414,6.186914
7.6234374,10.829981,7.6075683,7.5294433,6.584375
7.454492,10.514063,7.358789,7.2418456,5.938867
7.2538085,10.307032,6.988916,6.702783,5.9503417
7.480371,10.08584,7.09292,6.161279,5.9759765
7.850244,9.988916,7.0904784,6.0819335,5.12832
7.876611,9.965723,6.8861327,6.256738,5.0191894
7.861963,9.931543,6.8995605,6.268701,5.2020507
8.179834,9.971827,7.375879,7.059961,6.9325194
8.866846,10.085596,8.074121,8.229883,9.592432
9.806543,10.198389,9.144922,9.427637,11.631006
10.775049,10.359034,10.490625,10.829004,12.771631
11.584131,10.638086,12.206202,12.337061,13.640039
12.198145,11.066553,13.826319,13.866846,14.35586
12.965235,11.266016,15.212061,15.170801,14.7599125
13.350733,11.251856,16.312891,16.095118,15.130274
13.511133,11.389551,16.90713,16.914698,15.360987
13.869776,11.487696,16.821192,17.255762,15.318018
14.172998,11.569971,16.206934,17.455957,15.195948
14.260645,11.649805,16.036036,17.594385,14.848047
14.18545,11.753077,15.637354,17.471582,14.595606
13.760157,11.621973,15.056055,16.21963,13.448633
12.993067,11.500635,13.893702,14.623682,10.921289
12.170313,11.470606,12.52627,13.994776,8.9125
11.455957,11.393946,12.486963,13.352686,7.8685546
10.888575,11.586084,12.2582035,12.732325,7.313867
10.874659,11.751856,11.94961,12.726709,6.849756
10.502344,11.37002,11.5533695,12.289942,6.9583983
9.653467,11.164698,11.249414,11.826563,7.506006
9.246485,11.048975,11.135645,11.24209,7.70791
8.799219,11.05044,10.984034,10.1783695,8.545313
8.391016,10.876368,10.524805,10.031885,9.674219
8.871485,10.843409,10.954981,10.887598,10.318018
10.240625,10.863672,11.828272,11.802149,10.596094
12.096338,10.881006,12.775049,12.811914,10.613916
13.0411625,10.48794,13.638575,13.908594,10.622217
13.914942,10.497217,14.605616,15.200342,10.801661
14.72793,10.215723,15.377588,16.113916,10.763575
15.42251,10.300684,15.860987,16.619287,10.590967
15.886133,10.121973,16.086329,17.016748,10.330469
15.955469,9.917383,16.384912,16.853662,10.021875
16.149073,9.708399,16.666895,13.624414,9.688868
15.601465,9.612696,16.32754,11.395899,9.390039
13.832911,9.563868,13.135157,11.410547,9.306055
12.908594,9.56875,11.340967,11.443018,9.205957
11.608301,9.714258,11.147608,10.964258,9.418116
10.761866,10.196436,10.874659,10.594141,9.257471
10.313135,10.464502,10.496973,10.171289,8.890039
10.017969,10.116602,10.27334,9.668116,8.615381
9.780909,9.735987,9.793848,8.95669,8.1488285
9.559717,9.629297,9.109522,8.578516,8.051905
9.126612,10.014063,8.874903,8.631739,8.137354
8.824121,10.235498,8.762598,8.702784,8.351709
8.522364,10.294336,8.75918,8.7582035,8.274561
8.413477,10.370508,8.851221,8.750391,7.95791
8.325586,10.16836,8.921289,8.661524,8.308496
8.134668,10.254053,8.979395,8.646143,8.916407
8.385889,10.499903,9.255762,8.873194,9.830713
8.753077,10.7442875,9.758448,9.348047,10.545557
9.347315,11.035547,10.459375,9.954981,11.258448
9.841211,10.916407,11.392969,10.60708,12.084864
10.255518,10.983789,12.224756,11.3658695,11.111719
11.32461,11.1192875,13.230127,12.341455,10.422754
11.563135,10.888086,13.937891,13.037012,10.80752
11.813135,11.402246,14.262842,13.474268,12.066065
11.6661625,12.287989,13.836817,13.504053,12.7564945
11.969629,12.733789,13.043116,12.853174,12.8033695
11.723291,12.740381,12.506983,12.757471,12.556543
11.284815,12.617823,11.953516,12.421778,12.376612
11.310205,12.404932,11.606836,11.931299,11.74502
11.152002,12.23794,11.63125,11.595362,11.373438
10.633936,12.115625,11.424952,11.227442,11.037989
10.409082,12.018946,10.71084,10.649073,11.421045
10.483057,11.926661,10.206446,10.30459,11.158106
10.591944,12.185694,9.944239,10.140284,10.958887
10.598536,12.149561,9.73086,9.810694,11.527735
10.375879,11.966944,9.697657,9.709131,11.444971
10.129541,12.124659,9.25503,9.469629,11.15127
9.5863285,11.895166,8.879053,8.974024,11.285791
8.941797,11.899561,8.791651,8.833887,11.226221
8.820948,12.011377,9.324121,9.358301,11.19253
8.878077,11.989405,9.806299,9.740381,10.985743
9.111963,11.61709,10.312647,10.540674,10.751612
9.942774,11.535303,11.042139,11.334131,11.322901
11.351221,11.904932,12.184229,12.450098,12.14126
12.516993,12.527491,13.706934,13.524561,13.167627
13.690088,13.027246,14.91836,14.815332,13.753809
14.553614,13.613672,15.904688,16.010645,14.273096
15.154444,13.933985,15.818506,15.724024,14.99209
14.172022,14.240137,14.891993,14.696436,15.162989
11.926661,14.462793,13.775782,13.458887,15.284082
11.709864,14.518213,13.209864,12.518702,15.214746
11.036768,14.601221,12.849512,11.922754,14.864649
10.923975,14.380762,12.500635,11.67544,13.85586
10.421045,13.942041,12.106592,11.375635,13.140528
10.044092,13.463526,10.964502,10.3519535,12.6939945
9.928858,13.292627,9.323633,9.11709,12.618311
9.523096,13.016504,8.353907,8.18545,12.405664
9.118067,12.757959,7.6483397,7.8246093,12.034327
8.667383,12.6800785,7.4310546,7.555322,11.809229
8.060938,12.260889,7.302881,7.1876464,10.707911
7.5526366,11.860498,7.827295,6.809961,10.332178
7.2523437,11.467432,8.339991,6.900293,10.196192
7.060449,11.2599125,8.3536625,7.046533,10.0863285
7.4640136,11.0394535,9.434717,7.6856933,10.522852
8.6471195,11.249903,11.222071,9.450586,11.22378
10.2564945,11.686914,12.636621,11.842676,11.703516
12.12002,12.091211,14.023096,13.435205,12.528223
13.534327,12.745996,15.29336,14.777002,13.438379
14.679102,13.238184,16.329493,15.8988285,14.277002
15.630762,13.583155,16.751856,16.47793,14.907129
16.063135,13.975733,16.840235,16.485498,15.427149
15.984034,14.339991,16.519434,16.315332,15.909327
15.609766,14.66543,16.388819,16.150782,16.02456
15.141993,14.859034,16.089746,16.03921,15.991114
14.377832,14.892969,15.608545,15.547998,15.744532
13.431299,14.715967,14.91543,14.8502445,15.169336
12.386377,14.259424,13.991114,14.184717,14.137842
10.918116,13.702295,12.155664,12.454737,13.291407
9.668848,13.243311,10.606348,10.465235,12.5238285
8.666651,12.795069,9.152002,10.192774,11.905664
7.894922,12.573145,8.421778,10.114161,10.871729
7.3685546,12.4630375,9.066065,10.264307,9.926416
7.0487304,12.476221,8.856836,10.0064945,9.769678
6.9190917,12.340723,9.039698,9.633692,9.307764
5.961328,12.279688,8.980371,9.308252,8.36709
6.8785644,12.31045,8.93252,9.096827,9.532862
7.2000976,12.309229,8.849268,9.193506,10.562159
7.733789,12.31753,9.508448,9.509424,11.253565
8.869776,12.26919,10.737696,10.476221,12.23086
10.065332,12.251856,12.031153,11.774073,13.394434
10.91958,12.184473,13.162256,12.916407,14.064112
11.981348,12.174463,14.34878,14.638819,14.778223
13.254786,12.152246,15.569483,15.804346,15.557032
14.295801,12.277491,16.686182,16.413965,16.339502
15.263086,12.293848,15.441553,16.902002,17.302149
15.759424,12.298487,16.558496,17.363428,17.761377
15.34292,12.373194,16.96206,17.739405,17.813135
16.004541,12.554102,17.001612,17.708887,17.687159
15.857569,13.014307,16.915674,17.300196,16.615625
15.161524,13.228418,16.472559,16.323145,15.830469
14.201807,13.544825,15.63711,15.014551,14.811914
12.468897,13.502588,13.085108,13.152979,13.440332
10.956934,13.301905,11.433252,11.1957035,12.571436
10.166407,13.049707,10.352198,10.17251,12.402491
10.270411,12.684717,8.575586,10.131006,12.645899
8.38418,12.309473,7.6163573,9.438379,12.347803
7.7259765,12.323145,7.7569823,8.892725,12.133692
8.722315,12.441797,7.9239745,8.617334,12.170313
9.09585,12.332178,7.424951,8.429102,12.146143
8.753077,12.128565,6.9933105,8.392481,11.703272
8.693018,11.755274,7.958154,8.449366,11.614649
9.578028,11.838282,9.293848,9.330225,11.367823
10.657862,11.896631,11.045801,10.895411,11.691553
12.00503,11.867334,12.699366,12.585596,11.956446
13.254786,12.111231,13.073633,13.855371,12.03042
14.130274,12.049952,12.817041,13.679834,12.840479
14.708399,12.162989,12.8224125,14.110987,12.505518
14.890039,12.00918,13.908106,14.906153,12.182276
14.993555,12.256739,14.089014,13.859034,12.254297
15.224756,12.069971,14.284571,14.194727,12.329004
14.407618,12.091211,14.346338,14.844385,11.948633
14.24795,11.946924,13.866602,13.844629,11.616602
13.366114,11.978418,12.747461,12.450586,11.332178
12.944483,12.189112,11.922022,12.209375,11.460108
11.772608,12.3519535,11.836084,11.539942,11.547998
10.912012,12.20669,11.411524,10.975489,11.287256
10.403711,12.175196,11.38711,10.698145,11.210596
10.138819,12.426172,11.335596,10.704248,11.463282
10.194239,12.458399,11.111231,10.694239,11.680323
9.918848,12.544336,11.021387,10.662256,11.850733
9.829737,12.554834,10.922266,10.592676,11.957666
9.878077,12.552637,11.030176,10.5394535,12.004786
10.0064945,12.497705,11.136377,10.665186,11.9596195
10.173487,12.392237,11.139551,10.78335,11.82168
10.31753,12.086817,11.1939945,10.819727,11.628565
10.482569,11.958887,11.326319,10.918604,11.168848
10.698877,11.943506,11.570459,11.11001,11.101221
10.935938,11.709864,11.9474125,11.422998,11.18667
11.215967,11.894922,12.296045,11.950586,11.268946
11.38833,11.896875,12.96084,12.243555,11.670557
11.623194,11.72793,13.21084,12.5533695,11.590235
11.619776,11.533838,13.565332,12.712305,11.746973
11.017969,11.408838,12.350733,12.591211,12.030176
10.581202,10.7582035,11.978907,12.114405,10.684229
10.160547,10.592676,12.214502,11.757471,9.393702
10.07168,11.021143,12.0646,11.941553,10.438623
9.876123,11.44253,11.293116,11.364405,10.863672
9.796289,11.504786,10.712549,10.80044,10.738184
9.782618,11.51626,10.71084,10.270166,10.547754
9.599024,11.478418,9.942774,10.277735,10.315088
9.359522,11.378077,9.791651,10.078272,9.770655
9.345118,11.271387,9.319727,9.716211,9.358545
9.228907,11.21084,8.970118,9.3675785,9.030176
8.985987,11.170069,8.122705,9.026758,8.785547
8.761377,11.0394535,7.6717772,8.45669,8.533106
8.599268,11.292627,7.6649413,7.814111,9.350977
8.403711,11.045801,7.6117187,7.336084,9.08877
8.449366,10.91128,7.919824,6.8253417,8.873926
8.501368,10.866846,8.001123,7.2140136,9.344629
8.751856,10.95669,8.871973,8.704004,10.047754
9.201807,11.253809,9.498194,9.560694,10.539942
9.557764,11.553858,10.513086,10.33877,11.264063
10.139307,12.136866,11.579248,11.057764,11.995264
10.998926,12.545801,12.501368,11.813379,12.308008
11.086573,12.868555,13.768457,12.819971,12.25918
11.525293,13.204493,13.893213,14.049219,12.799463
11.911036,13.469141,14.22793,14.467432,13.326563
12.262842,13.671289,14.745752,15.102442,13.4125
12.274317,13.483789,14.902491,15.409815,12.990381
12.630762,13.385157,15.102442,15.511133,12.951075
12.811182,13.35293,14.8536625,15.807276,12.780664
12.76211,13.612452,14.12002,15.525782,13.029444
12.643457,13.357325,12.974512,14.673487,13.0707035
12.230371,13.511377,12.409082,13.551172,12.84878
12.128321,12.724024,11.902491,12.750147,12.841211
12.091455,12.1974125,11.68667,12.292871,12.3363285
11.972071,12.193018,11.382227,11.774073,10.964502
11.470362,12.327051,11.002588,11.370752,11.082666
10.8971195,11.928125,10.993799,10.889307,11.250391
10.858545,11.839746,11.007471,10.580469,10.673243
10.68252,11.853174,10.689844,10.427149,10.39834
9.646143,11.80044,10.343164,10.240625,10.341455
9.390528,11.793604,10.145655,10.086573,10.28042
9.40835,11.719385,10.395899,10.059473,10.187647
9.48208,11.975733,10.498438,9.737452,10.391993
9.537012,11.949366,10.359034,9.464746,10.906885
9.833399,12.01919,10.258692,9.389551,11.621485
10.218897,12.052637,10.192041,9.126123,12.35708
11.245996,12.108789,10.382227,9.201319,13.323633
11.349756,12.119043,10.483545,9.3832035,14.290186
12.875879,12.18252,10.57583,9.12417,14.7582035
14.643702,12.202051,10.315577,9.135157,14.987696
15.73086,12.196192,10.35293,9.279688,15.077051
15.921534,12.163477,10.207666,9.223047,13.463282
15.877344,12.231104,10.5646,9.122217,12.774073
15.419092,12.968164,10.88418,8.940088,12.264795
13.823633,12.588282,10.339991,8.84292,11.643213
12.994043,12.412012,9.638819,8.560205,11.118799
11.757227,11.943018,8.824854,8.185694,11.175928
11.652491,11.509668,7.4132323,8.115137,10.862207
11.2269535,11.441553,7.4503417,7.898584,10.558741
10.462305,11.494776,7.9293456,7.0577636,10.411768
9.49917,12.080469,8.390528,6.6532226,10.469385
8.407373,11.774561,8.392237,7.4898925,10.479883
7.8749022,11.685694,7.815576,7.69082,9.9317875
7.603418,11.658106,7.7767577,7.4308105,9.547998
7.4432616,11.766993,7.7813964,7.3753905,9.425684
8.522852,11.752344,8.515528,7.9779296,10.048975
9.303125,11.4127445,9.58169,9.260157,11.047022
8.24917,10.652491,11.361231,10.44375,11.657129
9.758448,11.239649,12.146631,12.055811,11.956202
11.075098,11.135889,13.323877,13.042627,12.964991
12.078272,11.455225,14.876368,13.674707,13.967188
13.576075,11.6800785,13.048731,11.182276,15.078272
13.98501,11.716455,13.852442,10.249414,14.1817875
14.449854,11.882715,14.583887,12.26626,14.740137
14.358789,12.030176,12.954004,13.953028,14.380274
13.438868,12.063135,10.876368,14.791651,14.167871
11.395411,12.040674,13.146631,14.644922,13.789698
12.053614,12.052149,13.815577,14.438135,12.729151
11.361475,12.220362,13.29751,13.87295,11.950586
10.353418,12.51626,11.715967,12.511133,11.248194
9.160547,12.478418,10.149317,10.533594,11.01626
9.389307,12.295801,9.326563,8.400049,11.540186
9.677637,12.276758,7.8719726,8.391748,11.574366
9.239649,12.34878,8.233057,8.263575,11.663477
8.444239,12.349512,8.685205,8.084375,11.521875
8.017481,12.393946,8.505274,8.333399,11.529688
7.4500976,11.900293,8.601465,8.092432,11.4317875
7.6964355,11.939356,9.111963,8.724512,11.131006
7.999414,12.03628,9.677149,9.117823,11.072168
8.6505375,11.576563,10.248438,9.836573,10.75918
9.100733,11.197901,10.892725,10.510157,11.028955
10.301172,11.659082,10.808741,10.809717,11.698145
11.034571,12.001368,10.673487,10.708887,12.075342
12.206202,12.03628,12.38125,11.819971,12.817041
12.546289,12.139551,14.334375,13.064112,14.097315
12.917871,12.191309,13.174463,12.893946,13.981592
10.611475,12.2738285,12.173975,12.518213,14.563868
13.834375,12.319239,13.200098,13.766016,14.852198
12.321436,12.258692,14.537989,15.009668,14.657862
13.335352,12.347803,14.942286,14.115381,14.245264
12.1314945,12.427881,14.362207,14.089258,13.680567
10.870264,12.458643,13.598047,13.673487,13.0411625
11.571436,12.4005375,12.597315,12.699854,12.339991
11.198145,12.45669,11.090967,11.353907,11.521875
10.594141,12.195459,9.539209,9.897364,10.72793
9.309717,12.019434,8.179834,8.952295,10.368311
8.040186,12.0567875,9.28335,8.723536,10.714502
7.5978026,12.069239,8.787989,8.732325,10.983301
7.54458,12.109034,8.994776,8.8692875,11.01626
7.5885253,12.087305,9.215723,8.893457,10.901758
7.6378417,12.040186,9.183741,8.998194,10.899561
7.1187987,12.031641,8.41958,9.214991,11.046289
6.8280272,11.852686,8.723536,8.715235,11.116846
7.6649413,11.940332,9.811914,9.251368,11.332422
8.812891,11.920313,10.82583,10.499414,11.796289
10.006983,12.03335,11.422022,11.616358,12.376368
11.09292,12.464014,12.274317,12.3675785,12.412256
12.249903,12.491846,12.903711,13.127588,13.3519535
12.94961,12.501856,13.249903,13.920801,13.05459
13.48501,12.80752,14.118555,14.039942,13.486475
13.615625,13.116358,14.59292,15.189356,15.064356
13.787989,13.557276,15.741358,15.631983,15.375147
13.399805,13.703516,14.447901,15.165918,13.947901
13.247461,13.688135,14.95669,14.692774,12.293604
13.563868,12.778223,14.659327,14.470118,12.441553
13.768213,12.468409,14.696924,14.182764,11.320948
13.236231,12.191309,14.145411,14.112207,11.612207
11.9317875,12.280176,13.085352,13.438868,11.410303
10.475733,12.392725,12.64126,12.671045,11.2755375
9.842188,12.060205,12.522608,12.027735,11.167139
9.875391,11.355616,12.171045,11.07876,11.070459
10.260401,11.4317875,11.8207035,10.819239,10.171534
9.760645,11.683008,11.410303,10.737696,9.979395
9.371485,11.912012,11.029444,10.629053,9.980127
9.395411,11.872217,10.991602,10.832178,10.156885
9.364161,11.396631,10.829737,10.693018,10.145899
9.244776,11.129053,10.478418,10.288233,9.909082
9.234034,10.942774,10.610498,10.302149,9.9439945
9.087061,10.587549,10.858545,10.731592,9.868555
9.474268,10.804102,10.962061,10.579737,9.64834
10.191797,11.35293,11.339746,10.424219,9.913965
10.831934,11.658838,12.431299,10.8849125,10.375879
12.317041,11.9630375,12.6505375,12.172266,11.727198
12.93252,12.183252,11.88833,11.007227,11.462549
13.761377,12.012354,13.666407,13.602442,13.289209
12.717188,12.152979,12.190332,12.192774,14.361719
13.195459,12.027979,11.962793,12.551905,13.752832
11.645899,12.104883,13.692041,13.847803,13.299219
12.248682,12.239893,13.716211,12.394678,12.306543
11.076075,12.595118,12.925928,13.139063,11.933985
9.787012,12.524073,12.55752,12.389307,11.770655
8.786768,12.337061,11.769678,11.501856,11.714991
8.722071,12.362452,10.430567,10.089014,11.192041
8.764063,12.368555,10.454493,9.370752,11.388575
8.85,11.692286,9.906153,9.273584,11.371241
8.600489,11.420313,9.163965,9.5646,11.077784
8.477686,11.459375,9.097559,9.645166,10.363916
8.438623,11.387842,9.630274,9.376612,10.551661
8.176416,11.370508,9.727198,9.405664,10.410059
7.673486,12.0082035,9.726465,9.558008,10.338282
7.485254,11.789209,9.456446,9.475,9.588526
7.767236,11.843409,9.223536,9.577539,9.827051
8.739161,11.698145,9.5411625,9.6,11.060938
9.495996,12.03042,10.665674,10.912256,12.010157
10.457422,12.29336,11.501612,11.739893,12.452051
12.116602,12.445948,11.9613285,12.642725,12.392725
12.923487,12.152979,13.199121,13.518213,12.739649
11.920557,12.610743,13.04336,14.155909,14.341944
13.398584,12.47793,13.934229,15.069971,14.775293
11.8417,12.674707,14.867823,15.736231,14.056299
12.316797,12.737696,14.738184,15.6974125,14.411524
12.85708,12.994532,13.017237,15.198389,14.596827
12.701563,12.557276,14.398096,14.452539,13.581202
11.775782,12.760157,14.445215,14.165918,13.401026
9.149073,12.749659,13.510401,12.7096195,12.866602
9.535059,12.770899,11.829004,12.5646,12.442041
9.825586,12.336817,11.349024,11.403955,11.710596
9.752588,12.472071,10.356592,10.866846,10.245752
9.570215,12.507471,9.917383,10.284571,10.082911
9.278955,12.244532,9.728418,9.782618,10.694239
8.923243,12.157618,9.370264,9.375879,10.772852
8.829737,12.049463,9.506739,9.042383,9.775782
8.661768,12.106592,9.484766,9.189356,9.586817
8.665918,11.98501,9.183496,8.988184,9.998194
8.766993,11.773096,9.388086,9.2738285,9.873438
9.209131,11.792139,10.40127,10.0375,10.372217
9.7521,11.762598,11.606104,10.875879,11.387354
10.608057,12.175684,12.520655,11.789698,12.263575
12.292139,12.2875,13.497705,13.393457,12.921289
13.008936,12.616114,14.560938,14.097315,13.77627
14.519922,12.529444,15.580225,13.631006,14.083887
14.434961,12.484278,15.919825,13.951563,14.863672
15.5292,12.649561,15.091211,13.485498,12.888819
15.167383,12.664698,15.3849125,13.954493,11.966455
15.204493,12.499903,11.305567,12.278711,12.852686
15.345606,12.777002,12.614405,13.345606,13.625879
15.2442875,12.700098,13.719873,14.016504,13.034815
14.478174,13.208399,13.9283695,14.519922,13.142969
13.311426,13.254297,13.633692,14.405664,12.449854
12.63003,12.948877,13.456446,13.751123,12.083887
11.887598,12.753077,12.016748,12.666407,11.0863285
11.902246,12.643946,11.004053,11.248438,10.460108
11.745752,12.620996,10.932764,10.724268,10.507959
11.532862,12.436182,11.283594,10.477442,10.3692875
10.937647,12.172266,11.394922,10.809473,10.048243
10.521387,11.888819,11.591455,11.129053,9.94375
10.434961,11.649317,11.402002,11.147608,10.594385
10.544336,11.6332035,10.876123,10.721582,10.895411
9.773584,12.10586,10.607813,10.782618,11.042139
9.705225,12.44668,10.7425785,10.66543,11.84585
9.858545,12.520166,11.304834,11.047754,12.514307
10.45083,12.662256,11.9144535,11.233789,12.342676
11.115381,12.792139,13.740137,12.294092,11.99209
11.282129,12.901514,13.277246,13.176661,12.301661
11.791895,12.810694,13.440577,13.559961,12.583887
11.473536,13.001368,12.74795,13.18545,12.393213
11.495264,13.093164,12.084864,12.234766,12.668116
11.3849125,12.698633,12.538477,12.366358,13.620264
11.397364,12.822901,12.940821,12.500879,13.396143
11.339502,12.861963,12.726709,12.090967,13.942774
11.27334,12.772852,12.760157,12.119532,14.440821
11.329248,13.076563,12.683252,12.102686,13.750147
11.435938,13.498926,12.399805,11.870996,13.010889
11.577784,13.510645,12.020166,11.607325,12.667871
11.844385,13.162989,11.61001,11.267481,12.3771
11.721338,12.746973,11.463526,10.961084,12.343653
11.326563,12.653955,11.368067,10.993799,12.425928
11.2911625,12.717432,11.339502,11.074121,12.129053
11.143946,12.614161,11.285791,10.995508,12.071192
10.911524,12.605371,11.125879,10.920069,12.176172
10.722803,12.683985,10.965723,10.607813,12.278955
10.594141,12.724024,10.935205,10.350733,12.191065
10.492334,12.611719,10.707666,10.311426,12.143213
10.29043,12.621729,10.729151,10.763086,12.183985
10.437891,12.711573,11.354883,11.290186,12.450098
11.070459,12.700342,11.531397,11.237696,12.834864
12.109278,12.615381,11.331934,11.612207,13.180323
11.981104,12.574121,11.739649,11.873194,13.610987
11.449366,12.51919,12.108545,11.986475,13.862452
11.764307,12.5375,12.327295,12.009668,14.000147
11.894434,12.58584,12.371973,12.278955,14.415674
11.377832,12.844873,12.419336,12.4127445,14.611719
11.292871,13.059961,12.564844,12.398096,14.733301
10.955469,13.18667,12.522608,12.678858,14.341944
11.021143,13.2582035,12.385157,12.761866,14.026758
10.944971,13.102442,12.827051,12.863672,13.740625
10.867334,13.17251,12.867823,12.7564945,13.533594
10.722071,13.413721,12.092432,12.508936,13.208643
10.5099125,13.396875,12.090967,12.15542,12.682764
10.396631,13.306543,11.978174,11.958643,12.336573
10.229151,13.2408695,11.964502,11.819971,11.974024
9.886866,13.142725,11.888575,11.567774,11.88711
9.929346,12.890528,11.703028,11.419336,11.537012
9.834375,12.726465,11.36709,11.238184,10.953516
9.609766,12.540186,11.143213,10.822901,10.208399
9.412012,12.439844,10.9630375,10.504053,10.104151
8.991114,12.586573,10.532373,10.226465,10.802637
9.070459,12.649805,10.452295,10.157373,11.844629
9.547998,12.766016,11.110498,10.699854,12.213282
10.431299,12.890528,11.7442875,11.351465,12.534815
11.412012,13.217188,12.666895,12.550196,13.098047
12.449366,12.909082,14.364161,14.360498,13.421534
12.606592,12.669336,14.069483,15.570215,12.646875
13.105616,12.967676,14.402491,16.167383,13.527979
14.206934,13.471338,15.351465,16.589258,15.334131
14.596338,13.719873,14.493067,15.479151,16.160791
14.965723,13.367823,15.221582,15.417139,15.451075
13.812159,13.514795,14.172266,14.907129,14.490137
13.209375,13.717188,14.957911,14.74795,14.605371
12.541895,13.295801,13.864649,13.956446,13.75918
11.9786625,13.009668,13.359766,12.905664,13.047266
11.894678,12.904932,13.197657,12.90542,12.563379
11.300928,13.071924,12.697657,12.609766,12.340967
11.333887,12.8658695,12.460108,12.215967,12.29043
11.231104,12.852442,12.049219,12.157618,12.076319
11.10586,12.779688,11.899073,11.798975,12.042627
10.956446,12.800684,12.065332,11.565577,11.921534
10.82461,12.728174,12.194239,11.539209,11.45669
10.302881,12.795313,11.8502445,11.438135,11.080225
10.000879,12.845606,11.454248,11.282862,11.040674
10.082911,12.657373,11.590235,11.4317875,11.116602
10.117334,12.453272,11.549707,11.535791,11.614893
10.456934,12.683985,11.62295,11.488428,11.2721195
10.696924,12.782862,11.718897,11.567041,12.254053
10.946924,12.798487,12.317041,11.763819,13.62417
11.0880375,12.861231,13.093409,12.858057,13.83169
11.658594,12.482813,14.429102,13.546045,14.464746
12.792383,12.43545,12.569971,13.996973,14.2877445
13.861963,12.4630375,12.099024,12.165186,14.380518
14.892237,12.609278,14.242823,13.452295,14.583155
14.142481,12.705469,15.005274,14.687159,14.828028
13.638086,12.796045,15.139795,13.754786,14.825342
14.13711,12.88833,15.285303,13.986963,13.882959
12.827295,12.991846,14.70669,15.192774,13.660303
10.609522,13.073877,13.462549,14.43545,13.053125
10.311914,13.096827,12.355616,13.010889,12.364893
9.445948,12.954737,11.680567,11.829004,11.811426
9.760401,12.780176,10.784815,10.572657,11.507227
8.91958,12.801416,10.21377,9.9613285,11.839746
8.173975,12.739649,10.499414,9.745508,11.671534
8.254053,12.635157,10.842676,10.104395,11.684229
8.5082035,12.737452,10.939112,10.477442,11.815577
8.395899,12.7408695,10.847803,10.621241,11.734034
8.260645,12.705225,10.783838,10.742823,11.865625
7.9103026,12.719873,10.830957,10.778955,11.924219
8.464746,12.965235,11.073389,11.132471,12.239405
9.528223,13.304346,11.657373,11.4317875,12.92544
10.53628,13.56167,12.307276,12.058252,13.391504
11.833643,13.353174,12.753565,11.909815,13.725489
12.730127,12.783838,13.625147,12.3519535,13.219873
13.799463,13.111475,15.000391,13.83169,12.536036
13.239405,12.978907,15.68667,14.79751,12.702295
14.8417,12.455957,15.483057,15.163721,13.190821
15.863428,12.543116,15.186426,14.507715,14.439356
15.471827,13.053614,15.699854,14.116602,14.922022
15.660059,13.183252,16.020655,14.814356,15.511621
15.692041,13.460352,15.591211,15.438868,15.043116
15.095118,13.756983,15.037989,15.51626,14.493555
13.066065,13.52334,14.764551,15.486963,13.762842
12.4596195,13.53628,13.624903,14.14834,12.587793
12.134424,13.548243,12.589746,12.513086,9.977442
11.34292,13.408594,11.7894535,11.5846195,9.45376
11.204248,13.189844,10.181543,11.285059,9.02627
11.138086,13.175684,10.549463,10.83584,8.764307
11.285303,13.254541,10.294825,10.319483,8.061426
10.548975,13.203516,9.907129,10.07583,7.4288573
10.306055,12.869043,9.326075,9.730616,6.410791
10.114893,12.253809,9.486475,9.640284,6.4151855
10.001612,12.299463,9.87417,10.018213,6.0470214
10.146631,12.366602,10.540674,10.83169,10.1644535
10.663721,12.389307,11.458887,11.83584,12.409082
11.737452,12.558985,12.499414,13.0064945,13.51211
12.882715,13.091944,13.875391,14.479883,14.074366
14.292383,13.300196,14.738428,15.634668,14.63003
15.344629,13.588282,16.189844,16.187891,15.218897
15.535791,13.533106,17.21206,16.724024,15.332666
13.985498,13.50625,16.51797,17.823145,15.463526
12.265284,13.436426,16.88296,17.711329,15.57876
12.701563,13.454737,16.870996,17.162012,15.697657
12.163965,13.547754,17.306543,16.957666,15.748926
11.8224125,13.605616,16.768457,14.491358,15.628809
11.23086,13.615137,14.167383,13.959131,15.05752
11.693506,13.61709,13.790918,14.426661,14.327784
11.649317,13.59292,13.518946,14.090479,13.36294
10.889063,13.565821,12.71084,12.9474125,11.799463
10.704981,13.644434,12.352198,12.48501,11.327295
10.536768,13.673731,11.698877,11.811914,11.1661625
10.610254,13.782129,11.248682,11.128809,11.313379
10.602198,13.545557,11.034082,10.508448,11.717676
10.621241,13.183008,9.901758,9.912256,11.348291
10.7113285,13.456934,9.858545,10.04336,11.361475
10.653467,13.310694,9.742823,10.433496,12.076563
10.399317,13.161524,10.154688,10.58877,12.416407
10.4786625,13.143457,10.61709,10.867823,12.751612
11.061182,13.240381,11.302881,11.263819,13.1957035
11.825586,13.403955,11.6800785,11.910059,13.705713
12.494776,13.667383,11.9769535,12.519922,14.33877
12.705713,13.6896,13.045313,12.73501,14.662256
13.185205,13.584375,13.707178,13.820215,14.917139
13.840723,13.561182,14.757227,14.795069,15.295313
13.941553,13.605127,15.809717,15.950586,16.069971
13.931055,13.70083,16.494043,16.631739,16.062403
13.516016,13.790918,16.993067,17.391993,15.587793
12.407129,13.863184,17.276758,17.949366,15.283838
13.144678,13.839014,17.7875,18.011377,15.062647
13.500879,13.8050785,17.487207,17.475977,14.198877
13.368799,13.85586,16.763819,16.74087,13.264795
12.6175785,13.6036625,15.438868,15.534082,12.460352
11.744043,13.275049,13.711573,13.618555,11.839014
11.110498,13.23208,11.421289,11.88711,11.49917
10.710108,13.352686,9.020655,10.721827,11.681055
10.359522,12.843164,9.373926,10.003077,11.61294
