"[299, 255]","[227, 248]","[287, 319]","[279, 328]","[230, 262]"
15.174952,19.639063,14.620752,15.003077,16.56875
15.008692,19.835596,14.319727,14.527735,16.55581
14.984766,19.824121,14.859278,14.867334,16.524317
14.856348,19.64834,14.856836,14.841944,16.474756
14.739405,19.639307,13.319483,14.922266,16.600489
15.532129,19.579004,15.374659,15.643457,17.538721
16.813135,19.563135,17.389551,17.002832,19.125391
17.981104,19.698145,19.035547,18.771387,20.362696
19.184961,19.838282,20.969873,20.79336,21.228418
20.491846,20.07046,22.971827,23.001856,22.266016
21.739649,20.125147,24.237696,24.023096,23.090235
23.07583,20.306055,25.149073,24.860254,23.531153
24.085108,20.450098,25.622217,25.378077,23.987207
24.62295,20.329737,25.828272,25.680079,24.54629
24.829737,19.994043,25.873682,25.68545,24.80337
24.535059,20.183496,25.6,24.974756,24.634424
23.959864,20.384912,24.841455,23.944727,24.044336
23.196436,20.530176,23.720606,23.287012,23.35293
21.937891,20.519678,22.409082,22.468164,22.127832
20.109766,20.518702,20.73086,21.142237,20.824366
18.707422,20.653223,18.843164,19.787745,20.068506
18.143702,20.773584,18.092676,19.061182,19.749903
17.597803,20.905909,18.145655,18.538233,19.274317
17.47085,20.947412,18.254297,18.529444,18.994532
17.465723,20.896143,18.247461,18.21255,18.86831
17.621729,20.910547,18.27505,18.329493,18.509668
17.740625,20.917627,18.44082,18.131739,18.027246
17.543604,20.845606,17.770166,17.461817,17.927393
17.085352,20.695948,17.458399,17.032618,17.574366
17.456202,20.50503,17.945704,17.996973,17.84292
17.980616,20.175684,18.770899,19.062647,19.400293
18.95791,20.045557,19.95498,19.616114,20.689112
20.254541,19.908838,20.783106,20.14297,21.113672
21.692286,19.327784,21.313868,20.570948,21.406397
22.978418,19.17251,22.070704,21.80581,21.66421
24.06167,19.660791,22.775537,22.558008,21.847315
24.850977,19.873682,23.512354,23.287012,21.935205
25.247217,19.987452,23.789942,23.646143,22.424707
25.239649,20.160303,24.276514,23.318506,22.700342
24.857813,20.383936,23.690577,23.815577,22.429834
24.29165,20.66421,24.074121,24.067041,22.407618
23.687891,20.802393,24.07754,23.824366,22.20962
22.82461,21.053614,23.532373,23.15835,22.060938
21.528467,21.389551,22.302637,22.339258,21.800196
20.268946,21.656885,21.371973,21.449121,20.810205
19.52627,21.3688,20.87417,20.791407,20.261133
19.113672,21.058496,20.263086,20.025293,19.90957
19.061914,20.965723,19.966211,19.451319,19.555079
18.954737,21.087305,19.680079,19.38125,19.175928
18.96792,21.165918,19.682032,19.446192,19.416407
19.18374,21.156153,19.516993,19.047998,19.309717
18.829737,20.755518,19.266504,18.718409,19.138819
19.080713,20.653223,19.060205,18.527002,19.12295
19.948877,20.63833,19.408838,19.168116,19.74917
20.6271,20.69668,19.84585,19.626368,20.662012
21.23501,20.825342,20.545557,20.418848,21.448145
22.297754,21.200342,21.30044,21.343653,22.321192
23.05166,21.388575,22.08462,22.22378,23.144922
24.017725,21.567774,23.01797,22.777246,23.869287
25.004786,21.77627,23.909327,23.762598,24.447412
25.343409,22.029444,25.289942,24.742823,24.490625
25.870508,22.096582,26.520655,25.434961,24.726221
26.404688,21.832178,26.320215,26.060694,24.834131
25.66665,22.014307,26.495752,26.639063,24.525293
25.35,23.458155,26.465479,26.122217,23.95547
24.918848,23.207666,26.0021,25.694239,23.443995
24.300684,22.960352,24.914698,25.186426,22.555079
23.112696,22.63833,23.84463,23.613916,21.426905
22.33291,22.086329,21.672998,22.312647,20.338282
21.547022,21.744287,20.408838,21.316553,20.01211
20.566797,21.579004,19.940332,20.87124,19.681787
20.076319,21.469141,19.568995,20.386133,19.56338
19.731348,21.530664,19.356348,19.701807,19.716455
19.43545,21.507227,18.95791,19.313135,19.304346
19.170801,21.372217,18.666407,19.148584,19.058985
19.301172,21.379297,18.757227,18.826563,19.024317
19.403223,21.3417,18.779932,18.85415,18.251368
19.658838,21.005518,19.458887,19.342676,19.011621
20.322412,20.936914,20.607813,20.494532,20.57998
20.89248,21.108301,21.803125,21.840723,22.26333
21.956202,21.428125,23.232813,23.334131,23.387842
23.027246,21.604395,24.428614,24.579248,24.641993
23.614893,21.568018,25.240137,25.58169,25.545313
24.740137,21.616114,25.995996,26.40005,26.082178
25.622705,21.821924,26.469873,26.791162,26.42129
26.380762,21.811914,26.920313,27.37124,26.545557
26.451807,21.79751,27.396387,26.894434,26.6
26.743067,21.922022,27.565577,26.14956,26.412989
26.861963,21.921534,26.90835,26.514551,26.033838
26.70547,21.74087,25.922266,26.139795,25.564356
25.685205,21.759668,24.74624,25.379297,24.763575
23.525537,21.806055,23.978174,24.210352,23.121973
22.121485,21.889795,22.488184,22.797266,21.61172
21.63589,21.851954,21.659082,21.63711,20.941065
20.822168,21.682764,21.088282,20.531153,20.225733
20.158106,21.7792,20.614893,20.323633,19.627344
19.8688,22.215235,19.87124,20.020899,19.742823
19.51211,22.492579,19.394434,19.592676,19.925928
19.33584,22.386133,18.86587,19.083155,19.93252
18.957666,22.17373,17.600733,18.527002,19.829248
18.225,21.89834,17.38296,18.454737,19.621973
18.663477,21.870264,19.084131,19.130274,19.839258
20.40249,21.585108,20.401758,20.411524,20.660791
21.590479,21.069239,21.670557,22.022364,21.541895
22.990137,20.864405,23.758692,23.66543,22.123926
24.109766,20.842432,24.899317,25.196192,22.147852
25.345606,20.752588,25.783838,25.96255,22.108057
26.2521,20.842432,26.052393,25.778467,21.884424
27.021875,21.16421,26.424707,26.427637,22.222559
27.44375,21.038477,26.957666,27.550928,22.052881
27.413965,21.2521,26.946924,26.523096,21.392725
27.186426,21.42666,26.473536,25.39419,21.357813
26.361475,21.771631,25.175684,24.352686,21.38296
24.71377,22.032373,24.125635,23.430079,21.028711
22.925196,22.063868,22.930323,22.409082,20.180567
21.218897,21.343897,21.215235,21.325098,19.711329
19.857325,20.638819,19.757471,20.160059,19.151026
19.002832,20.29165,19.16958,18.687403,18.769434
18.515528,19.951319,18.163233,17.619776,18.481592
18.122217,19.694483,17.353662,16.909327,18.18545
17.35,19.304834,16.618555,16.126368,17.869532
16.96792,18.984278,16.050196,15.53628,17.203272
16.584375,18.612452,15.7096195,15.251123,16.610743
16.340235,18.29165,15.505762,15.010157,16.089502
15.864893,18.070704,15.409082,14.793848,15.802637
15.729883,17.773096,15.610987,15.077295,15.989405
16.326075,17.885645,16.108301,16.079737,17.274073
17.570704,18.232813,16.99624,17.573145,17.819239
18.752832,18.550196,18.35586,19.115625,18.275537
19.77334,18.860254,19.85415,20.474756,18.738672
20.640284,19.290674,21.507227,21.548243,19.065577
21.357569,19.555323,22.67373,22.436914,19.444971
22.332422,19.666407,23.525782,23.448633,19.696436
23.295801,19.522364,24.13003,24.280909,19.794092
23.848536,19.377832,24.60415,24.9313,19.769922
23.749903,19.789942,24.925928,24.947657,19.800196
22.565088,20.027246,24.337793,23.958399,19.632227
21.162012,20.170801,23.034815,21.887354,19.358545
20.261377,20.063868,21.327295,20.936914,18.94082
19.215723,19.749903,20.31582,20.36001,17.964746
18.527979,19.451563,19.889795,19.72207,16.491602
18.116846,18.981592,19.484766,19.53628,15.977686
17.919825,18.595362,18.968409,19.359034,16.08462
17.985254,18.342676,18.751123,19.108545,16.04214
17.569971,18.212305,18.44082,18.90957,15.797754
17.067041,18.352198,18.219141,18.514795,15.503565
16.92544,18.15957,18.135645,18.110254,15.750147
16.778467,18.188135,18.235498,17.82754,16.036036
16.521631,18.33877,18.096338,17.466211,14.724024
16.696924,18.25332,18.295801,17.922266,15.660303
17.379297,18.435938,18.991358,18.696924,17.770166
18.305079,18.555567,19.780909,19.648096,19.2875
19.607569,18.761133,20.788721,20.849268,20.68545
20.80044,19.124414,21.79336,22.043848,21.309229
22.12417,19.863916,22.650782,23.266504,21.756006
23.449366,19.907373,23.60586,24.721338,22.225733
24.530176,20.141748,24.369043,26.059473,22.631006
25.429102,20.94253,24.91543,26.613428,23.086329
26.055323,22.282618,25.114405,26.8417,23.26797
26.329493,22.657618,24.89712,26.720362,22.958643
26.160791,22.570704,24.309717,26.333399,21.963526
25.378809,22.143213,23.336573,25.418848,21.350489
24.024073,21.72671,22.106104,23.892237,21.066065
22.12124,21.31753,20.505274,22.065088,20.389307
20.56167,20.944483,19.126123,20.795801,19.753077
19.224268,20.673487,18.334375,19.95254,19.741114
18.016504,20.529444,17.869776,18.852442,19.78213
16.851954,20.401514,17.565577,17.80337,19.534327
16.484522,20.38589,17.204004,17.346582,20.273829
16.483057,20.326807,17.106104,16.858545,20.203272
16.464258,20.653955,16.92959,16.382227,19.802881
16.51211,20.959375,16.897608,16.16958,19.346827
16.35415,21.070948,16.545313,16.037989,18.97085
16.215723,21.116358,16.881983,16.514063,18.982325
16.672998,21.016504,17.927393,17.82583,19.606836
17.760645,21.028467,19.25332,19.468653,20.356348
19.26333,21.308496,20.638819,21.124659,21.06167
21.076807,21.627832,21.898829,22.820704,21.88833
22.90957,21.78042,23.013086,24.208155,22.651514
24.257227,22.240137,23.951319,25.629786,23.36001
25.312403,22.228174,24.7167,26.954248,24.080957
26.22207,23.723536,25.277979,27.477442,24.291895
26.716455,24.304834,25.580713,27.68545,24.496973
26.67544,24.240381,25.340235,27.720606,24.569483
26.120508,24.01504,24.330957,27.114405,24.171045
25.175684,23.64248,22.939112,25.96499,23.161768
23.71377,23.146875,21.349512,24.188623,22.256739
21.882715,22.60464,19.557276,21.40957,20.910303
20.423243,21.980616,18.329493,19.393946,20.245752
19.131495,21.593164,17.763575,18.20254,20.55337
17.975977,21.420069,17.478907,17.364405,20.718164
16.940332,21.52456,16.890528,16.738184,20.778467
16.427149,21.818506,16.581202,16.254297,20.574366
16.185205,21.909082,16.387354,15.903955,20.1354
15.812647,21.916895,16.229883,15.765528,19.843897
15.530909,21.475245,15.91836,15.579493,19.396387
15.364161,21.081202,15.655176,15.54751,19.222559
15.44668,20.927149,16.06875,15.974756,19.35171
16.48086,20.741114,17.444483,17.437159,20.091944
18.452295,21.03921,19.063135,19.360498,20.781397
20.700098,21.662989,20.789454,21.300928,21.521875
22.766016,21.759912,22.519922,23.093164,22.1542
24.220118,21.933496,23.941553,24.75796,22.66714
25.188623,22.599756,24.943995,26.130274,23.306543
26.402246,22.8229,25.640772,26.972803,23.632227
27.147852,23.61587,26.180079,27.751856,24.2604
27.264063,24.223536,26.395899,27.990381,24.693018
27.344873,24.453272,26.157862,27.957422,24.823145
26.862452,24.355371,25.603662,27.405909,24.485987
26.054834,23.954004,24.634424,26.50918,23.631495
24.74502,23.44961,23.172266,25.133448,22.345606
23.129053,22.720362,21.241358,23.035547,21.036524
22.102686,22.098291,19.937891,21.179346,20.007471
21.23794,21.758692,19.18081,20.130762,19.91714
20.20498,21.675196,18.82168,19.310205,19.987452
19.526026,21.637842,18.727198,18.826319,19.88125
19.531153,21.63003,18.67544,18.586573,19.751612
19.536036,21.515528,18.791162,18.22378,20.00625
19.468164,21.413721,18.873682,17.954737,20.065088
19.524317,21.572657,18.75918,17.624414,20.062403
19.26919,21.732813,18.556055,17.614649,19.825586
19.51211,21.805079,18.815332,18.2521,20.016993
20.422998,21.762354,20.128565,19.690088,21.506006
22.105616,21.901026,21.959864,21.320948,23.051172
23.75918,21.832178,23.78213,23.222315,24.527979
24.765772,21.664454,25.168604,25.162256,25.736963
25.599512,21.737696,26.074121,26.590967,26.402246
26.490625,21.850245,26.895899,27.704493,26.995264
27.426416,21.770899,27.546778,28.649073,26.58755
28.042383,21.739649,28.073145,27.765284,26.896875
28.382715,21.684229,28.456934,27.964014,26.934961
28.530664,21.432032,28.520655,28.802149,26.970606
28.485498,21.39004,28.258204,28.14956,26.339014
27.974024,21.566797,27.997217,27.336084,25.308252
26.329737,21.759912,25.85879,25.876123,24.058496
24.183252,21.981348,23.600977,23.966944,22.181543
23.092432,21.923975,22.095362,22.031641,21.051172
22.51797,21.966455,21.571924,21.706202,20.92544
21.83999,22.018213,21.528467,20.844385,20.966211
21.414942,22.08291,21.351465,20.744532,20.558496
21.156397,22.328516,20.833155,20.843653,19.850245
20.436426,22.565332,20.0563,20.85879,19.764551
19.63833,22.103418,18.647608,20.797998,20.182032
19.344873,22.053858,19.268457,20.460596,20.248926
19.85415,22.3417,19.416895,20.073633,20.057764
20.491114,22.035303,19.824854,20.546534,20.194971
21.225977,21.815332,20.935205,21.628809,21.399805
22.465967,22.334864,22.16543,22.535547,22.50796
23.64419,22.491114,23.346094,23.726954,23.677393
24.110498,22.556055,24.79922,25.26504,24.992579
25.54922,22.45498,26.331202,26.727686,25.85464
26.555079,22.533594,27.70376,27.672754,25.94961
27.481348,22.892725,28.427393,27.931787,25.971582
27.90249,23.418848,28.902002,28.238916,25.933252
28.215479,23.708399,29.02212,28.730127,25.522364
28.366114,24.166162,27.112696,27.995508,25.480127
28.288965,24.764551,26.179834,27.133204,24.835108
27.825342,24.50625,24.961817,25.912989,24.018702
26.335596,23.982569,23.428858,24.228662,23.520899
24.286524,23.521875,21.653711,22.756739,22.582422
22.795801,23.026026,20.50918,22.285059,22.205225
21.088526,22.809473,19.671778,21.593653,21.94961
19.82046,22.846094,19.004786,20.887842,21.606104
18.693995,22.926905,18.542383,19.903467,21.114649
17.626368,22.560938,18.087305,18.639551,20.683252
17.71084,22.324366,17.872217,18.29214,20.652735
17.677637,22.188135,17.741114,18.2604,20.45791
17.376123,22.103174,17.620752,18.147364,20.034327
17.076807,22.230616,17.492579,17.725977,19.669825
17.14004,22.00625,17.457178,17.908106,19.734278
17.640772,21.707666,17.841455,18.380274,21.542627
19.356348,21.874903,18.527979,19.03042,22.86416
21.060205,21.788965,19.126612,19.758692,23.576319
22.359522,21.914454,19.788721,20.254053,23.926905
23.251123,22.13589,20.34292,20.662012,24.096338
24.163233,22.496485,20.682764,21.017237,24.157618
25.047754,23.194239,21.186914,21.570215,24.333155
25.739649,23.614893,21.605371,22.293848,24.400782
25.234522,24.36709,21.87295,22.992579,24.039942
25.261866,23.94082,22.392237,23.017725,23.571924
25.378809,23.57461,22.482569,22.923487,23.07876
24.48916,23.360498,21.515528,22.421045,22.265772
22.467432,23.04336,20.30459,21.570215,21.552637
21.1896,22.452784,18.57168,19.32754,20.624414
19.498194,21.725,17.06167,17.693018,19.894678
18.158594,21.20254,15.955469,16.662012,19.558008
17.53213,20.949121,15.105616,15.609034,19.343653
17.044336,20.688623,14.638086,14.840967,19.453272
16.68374,20.44546,14.315332,14.368311,19.206202
16.36172,20.399805,14.046045,13.9769535,18.699121
15.971338,20.320948,13.921534,13.619043,18.61001
15.503321,20.293116,13.937159,13.377344,18.846582
15.163721,20.29043,13.849512,13.429346,18.4667
14.91128,20.29214,14.04336,14.001612,18.428125
15.508448,20.437159,15.140284,15.274561,19.550196
16.846094,20.595362,16.63125,16.896875,20.550684
18.725977,20.733545,18.04336,18.4125,21.548487
20.115137,20.812647,19.339502,19.836817,22.065577
21.213282,20.87832,20.391504,20.959864,22.803858
22.13589,20.949121,21.381495,22.166895,23.232325
22.885645,21.594385,22.404444,23.101221,23.36831
23.524073,22.469385,23.155664,23.535303,23.541162
24.055323,23.471582,23.514551,23.684961,23.471338
24.335596,23.32461,23.659327,23.620264,23.329493
24.264063,23.148829,23.489649,23.29873,22.702051
23.693995,22.858301,22.94668,22.863428,21.797266
22.372705,22.316309,21.645166,22.363428,20.725977
20.15127,21.613184,19.585108,20.551416,19.153955
19.336329,20.839502,17.532862,19.18081,17.826563
18.315088,20.12124,16.585596,17.959131,17.322168
17.046778,19.657862,16.48916,17.353662,17.027735
16.15127,19.376856,16.40713,16.836329,16.700342
15.548243,19.414698,16.224268,16.332422,16.42129
15.363672,19.298243,16.079493,16.829004,15.320459
15.241114,19.258692,15.972559,16.695704,15.151758
14.875879,19.244532,15.820459,16.374414,15.304102
14.843897,19.304834,15.739893,16.224512,15.404932
14.955469,19.376123,16.038721,16.095118,15.851465
16.406397,19.355127,16.874414,16.498438,18.153711
17.472803,19.728174,17.637354,17.495996,19.875147
18.438623,20.21499,19.15542,18.677637,20.805323
19.58169,20.379786,19.54629,19.603907,21.511621
19.911524,20.79629,20.189112,20.044092,21.813868
20.797022,20.994043,19.583887,20.504786,21.858301
21.537989,21.763086,20.09292,20.196436,21.74502
22.807032,21.780909,21.582422,21.014063,21.611963
23.329248,21.72671,20.38003,20.530176,21.414454
21.787745,21.60464,20.386621,21.130518,21.46792
21.333643,21.62832,19.927881,20.589014,21.356104
20.641993,21.613916,19.277979,19.800928,21.061182
19.740625,21.521143,18.992334,19.55044,20.587305
18.033594,21.175196,18.125147,18.410059,19.759668
16.477198,20.702295,16.949854,17.535303,19.294092
15.573633,20.529444,16.953028,17.46084,18.75503
15.0255375,20.021143,16.79873,16.865137,18.354883
15.042383,19.926416,16.28921,15.021387,18.494043
15.223291,19.94375,14.89126,14.83169,18.625147
15.402979,20.353907,14.74917,15.121729,18.172266
15.1627445,20.606836,14.764551,15.4474125,18.277735
15.005274,20.524805,14.717676,15.568262,18.417871
14.67959,20.211084,14.6939945,15.636377,18.468409
14.9942875,19.790674,15.019678,15.760157,18.60464
16.01089,20.120752,16.087793,16.590479,19.522608
16.522364,20.200342,17.299952,17.427637,19.775782
17.372217,20.340235,18.74502,18.827051,19.988916
15.394678,20.379053,19.364405,20.049952,20.11831
15.415674,20.149073,18.870996,20.16714,19.738428
17.831934,20.125147,20.198877,20.799707,20.833887
19.72671,20.509668,19.896875,22.433252,21.892725
18.281153,20.488916,20.018213,22.977198,19.995752
18.251368,19.973291,20.873682,21.703516,21.461329
18.350733,20.588037,21.251856,19.139551,22.11172
19.151514,20.875391,20.337793,18.96084,21.468653
19.316797,21.19082,19.864893,19.869043,21.120996
18.698877,21.250635,18.404688,18.902246,20.656641
17.50918,20.873682,17.821436,17.6813,19.508692
16.999414,20.794092,17.229883,17.08877,18.620996
16.71377,20.620996,16.48672,17.065332,18.196924
16.280664,20.188623,15.92959,16.625635,18.521143
16.129786,20.27627,15.776514,16.485987,17.85879
16.035791,19.729883,15.973047,16.47964,17.134912
16.207178,19.500391,16.008692,16.394922,16.854883
15.929834,19.786768,15.8207035,16.35293,17.152002
15.302393,19.888575,15.905176,15.704004,16.845362
14.67959,19.968897,16.146631,15.703516,17.419336
14.988428,19.333155,16.261866,15.993067,18.025782
15.984278,19.274805,16.73501,16.694971,19.037256
17.467676,19.566309,17.600489,17.711817,20.086817
18.368067,19.806543,18.66665,17.483057,20.659082
19.480127,20.165186,19.481592,19.27627,21.51504
20.56167,20.464258,20.524073,19.937647,21.194483
21.476221,20.479883,20.417871,20.58999,22.117579
22.17373,20.520166,21.505274,20.697657,22.404688
23.225977,20.547022,21.48086,22.14248,22.950342
23.588282,20.535303,21.748926,20.443018,21.81167
23.840967,20.576319,22.120264,21.296045,20.775782
23.652246,20.578272,22.954493,21.28213,21.060938
22.97793,20.634668,22.646631,21.834375,20.935938
22.11001,20.77627,21.72207,21.376612,20.66836
20.51797,20.8688,20.148829,20.22793,20.169825
20.285547,20.891504,19.699854,19.514551,19.597803
19.870508,20.643702,19.617334,19.518702,19.327051
19.22378,20.506006,19.438868,19.09463,19.112207
18.477442,20.318995,19.335596,18.815088,18.413721
18.088037,20.233301,18.987207,18.731592,17.881983
17.714502,20.184717,19.000147,18.316797,17.056055
17.304346,20.130518,18.792383,17.377344,17.058985
16.876123,20.091944,18.251856,16.834375,16.166407
16.622217,20.062891,18.099024,17.372461,15.38003
16.906885,20.03042,18.113184,17.576075,15.770899
17.906153,19.935205,19.014551,18.459864,17.346582
18.956934,19.788233,19.963282,19.512354,19.173243
20.034327,19.887598,21.294336,21.409815,20.352686
21.385157,20.224268,23.053125,23.077295,21.344873
22.72378,20.552881,24.949366,24.280176,21.89712
24.14297,20.747461,25.11709,25.286768,21.744287
25.381006,20.956202,25.761133,26.2875,21.61709
26.319727,20.93545,26.411524,26.397608,21.251856
25.1813,21.025293,26.036524,23.49331,23.003809
25.434717,21.219141,25.443995,24.525782,23.43838
26.44668,21.320215,25.68545,23.622461,23.489649
25.261866,21.396631,23.807032,21.82998,23.679834
23.492823,21.491114,20.683008,21.356104,22.499659
21.485254,22.05752,19.90542,20.238184,20.974268
20.699366,21.790674,19.725977,19.879541,19.676905
20.196436,21.069971,19.297998,19.550684,19.05337
19.65957,21.031153,19.135157,18.83047,19.050196
19.006006,20.965479,18.528223,18.655176,18.840479
18.237696,20.961084,17.8854,18.787256,18.721338
17.770899,20.678614,17.603662,18.683008,18.580225
17.414454,20.659815,17.320704,18.598536,18.537989
17.121485,20.608545,17.046534,17.679102,18.45254
16.840235,20.58999,16.828028,17.205713,18.58169
16.681055,20.377588,16.855127,17.45083,18.524805
17.575098,20.426416,17.627588,17.90713,19.1271
19.046045,20.6813,18.386621,18.927881,20.163721
20.571192,20.829004,19.289698,20.092188,21.046778
21.973291,20.931055,20.413233,21.42959,21.794336
23.982325,20.982569,21.615137,22.671534,23.12002
24.216455,21.278467,22.638086,24.216455,21.325586
25.263819,21.340235,23.566797,24.843409,20.018946
25.38418,21.421045,24.11001,25.18667,21.352198
25.978174,21.391993,24.137598,25.1188,21.756739
25.846827,21.489649,23.45669,24.786524,20.398096
24.991358,21.589746,22.530909,24.19961,20.287745
24.445215,21.495996,21.281153,23.041407,20.42959
23.681787,21.48794,20.160547,22.015772,20.085352
21.535547,21.43374,19.202784,20.355616,19.674952
20.597803,21.383204,18.615137,19.288721,18.92837
19.739893,21.256006,18.484278,18.23794,18.291407
19.112696,21.116114,18.239893,17.448877,17.685694
18.43838,21.129297,18.164942,17.133448,17.385645
18.25625,21.032373,17.903223,16.968653,17.097803
18.367334,20.715479,17.928614,16.692041,17.195704
18.375635,20.888819,17.785059,16.81338,17.592676
18.168604,20.65005,17.532373,16.964746,17.973291
18.133936,20.12588,17.464258,16.550928,17.622217
18.587305,20.03921,17.733301,16.761621,16.940577
19.460108,20.043604,18.390528,17.72964,17.983301
20.426905,20.85586,18.57998,19.145899,19.720606
21.346338,21.48794,19.322657,20.42422,21.090967
22.04165,21.705713,19.958643,21.049952,22.096338
22.752588,21.90249,20.27749,21.427393,22.851221
20.01211,22.05874,20.996973,21.749903,23.141748
20.04873,22.320215,21.946924,22.283106,23.596827
21.872461,22.12124,22.442286,23.062159,22.133204
22.62832,21.833399,22.595362,23.388086,20.938623
23.257715,21.744287,22.64004,23.764551,20.404688
23.47085,21.760157,22.383204,22.987207,20.058496
22.958155,21.766504,21.030176,22.478907,20.532618
21.755518,21.73672,20.110254,21.40957,20.558985
20.471827,21.748438,19.593409,20.265772,19.218164
20.016748,21.672998,19.220362,19.798487,18.117334
19.448145,21.72793,18.818018,19.356104,17.827051
19.732325,21.561426,18.709131,18.919092,17.626123
19.591211,21.489893,18.712793,17.927393,17.503077
18.511133,21.48086,18.879053,18.119043,16.872705
18.309717,21.497705,18.629786,18.113672,16.571192
18.172022,21.477686,18.321924,17.948145,16.52627
17.98672,21.452784,18.073145,18.399317,16.36709
18.006006,21.51333,17.405909,18.035547,16.298975
18.332666,21.559473,17.965479,18.396875,17.304346
19.154444,20.93667,19.61709,18.958155,18.880274
20.157862,20.83291,20.661768,19.887598,20.474756
20.741358,21.047266,21.623194,21.192774,21.384424
21.944727,21.327295,22.384424,22.143702,21.961817
22.86416,21.5917,23.1188,22.55044,22.58169
23.978662,21.751123,23.830225,21.163233,23.581202
24.99502,21.843897,23.145899,21.818995,23.600489
24.782618,21.792627,23.76333,22.264063,23.27505
24.858057,21.808008,24.376123,22.675684,23.000147
24.738428,21.885157,24.444971,23.474024,22.966211
24.30166,22.00796,24.14248,23.74087,22.751368
23.765772,22.202784,23.182276,23.391748,22.093653
22.266993,22.265528,21.780909,22.059473,21.39004
20.964502,22.422022,20.024805,20.347803,19.886866
20.331934,22.02505,18.963037,19.132715,18.713037
19.665918,21.495264,18.473536,18.412012,18.180323
19.166162,21.329248,18.155664,17.9396,17.797754
18.729883,21.242579,17.865137,17.630518,17.702295
18.309717,21.029932,17.610498,17.345606,17.858057
17.782862,20.974512,17.344141,17.194727,17.410791
16.652735,20.931055,17.040186,17.161036,16.985254
16.456202,20.996485,16.664698,16.86294,16.79873
16.482569,20.973291,16.021631,16.71084,16.105371
17.083643,21.23916,16.473047,16.819239,17.220118
18.220118,21.497217,18.277002,17.793116,19.442041
19.8146,21.73916,19.544092,18.849024,21.295557
21.173975,22.091211,20.934229,20.614405,22.472315
22.302637,22.442041,22.42422,22.225977,23.624903
23.291895,23.024073,23.724756,23.756739,24.605127
24.159082,22.734766,25.094385,25.271875,25.343897
24.949854,22.234034,26.373194,26.244043,25.70791
25.711329,22.185205,26.586817,26.451807,25.81582
26.087305,22.186426,26.661524,26.527979,25.696924
26.106836,22.142725,26.5375,26.324121,25.076075
25.920801,22.096338,26.26919,25.969141,24.589502
25.379541,22.124659,25.607325,25.309961,23.350733
23.747461,22.235987,24.048243,23.880762,22.05044
22.612452,22.429834,22.469385,22.520899,20.598047
22.373438,21.959864,21.17544,21.844385,20.14248
22.179102,21.792383,20.827784,20.914454,19.813623
20.810694,21.66714,20.329248,20.452784,19.59463
20.473047,21.534082,19.666895,19.95547,19.4667
20.028223,21.325098,19.548975,19.282373,19.383936
20.214502,21.257715,19.279444,18.866358,19.352442
19.9938,21.227686,18.868067,18.557764,19.352686
19.691797,21.294825,18.288233,18.453028,19.482325
19.057032,21.371485,18.298975,18.15249,19.770655
18.601465,21.408106,18.86294,18.360254,20.10879
19.298487,21.447168,19.617334,19.178614,20.626368
20.485498,21.713526,20.600977,20.54873,21.416162
21.663721,21.982569,21.709864,21.813623,22.028467
22.937647,22.18667,22.593409,22.689112,22.630762
24.014307,22.072657,23.19082,23.531397,23.2438
25.109522,22.062891,23.829004,24.169092,23.419825
26.066065,21.909082,24.266993,24.57876,23.978907
26.882715,21.89834,24.185694,24.812159,23.938868
27.407618,21.907862,24.19546,24.906153,23.891993
27.470118,21.889063,24.192041,24.52456,23.641016
27.099268,21.787012,24.017237,23.874903,23.171778
26.090235,21.76504,23.268702,23.173487,22.39541
24.020655,21.805323,22.051416,22.186914,21.653467
21.809961,21.888575,20.360254,21.251123,21.05459
20.864649,21.761377,19.33877,20.756495,20.836084
20.418604,21.672998,19.311914,20.341944,20.774317
19.95962,21.70791,19.558496,20.024805,20.511621
19.668848,21.702784,19.529932,19.811182,20.311914
19.327295,21.595118,19.45669,19.435205,20.127344
19.04165,21.37417,19.302393,19.28457,20.047998
18.265772,21.232569,19.284815,19.172998,20.11709
18.507227,21.039698,19.429834,19.096338,19.698145
19.040186,20.74331,19.222559,19.093653,19.551416
18.994532,20.663233,19.11587,18.644678,19.61831
19.217676,20.743555,19.303858,18.167383,19.920313
19.49624,20.78457,18.84707,18.149805,20.572412
21.439844,20.715723,18.580713,18.248682,20.651758
22.705713,20.778223,18.36831,18.96255,20.76748
23.337793,21.09878,18.455713,19.46963,20.87295
23.638575,21.245508,18.5917,19.492823,20.281885
23.321192,21.026026,18.676416,18.903711,20.172998
22.728174,20.594873,18.754297,18.548487,20.02041
21.644678,20.919092,19.037745,18.733301,20.16714
21.035059,21.249903,19.54751,19.718409,20.641504
20.167871,21.183985,20.133448,20.390284,20.51333
19.321436,21.172754,20.202784,20.47671,20.674952
18.915186,21.056787,19.20547,19.579248,19.853418
18.737452,20.913965,17.321192,18.14297,17.753565
18.560694,20.932276,16.940332,17.467676,16.434717
18.261866,20.970606,16.125391,16.67544,16.384668
17.533106,21.150537,15.771875,16.323633,16.4396
16.76504,21.19668,15.062647,15.965723,16.029444
15.684473,21.198633,14.20083,15.24502,16.05752
15.206446,21.182032,13.517969,14.534815,16.12588
14.9127445,20.984766,12.728907,13.694727,16.166407
14.656153,21.025537,12.031153,13.397364,16.183252
14.454737,20.826319,11.9942875,13.573145,15.812159
14.046778,20.162745,12.209864,13.948877,15.749903
15.3033695,19.920313,14.440088,15.105127,17.292383
16.639063,19.796045,15.877344,16.199366,18.83291
17.931787,19.71084,17.622217,17.624903,19.522364
19.099512,19.94668,19.694727,19.326807,20.146143
19.684473,20.032618,21.332666,20.61587,20.668116
21.117334,19.984034,21.011377,21.261133,20.848536
22.115137,20.146143,20.150293,19.828272,21.184473
23.068995,20.518946,20.031885,20.825098,21.161768
22.809473,20.795801,20.541162,21.281641,21.093409
22.162012,20.929346,20.682276,20.958887,21.204737
21.368555,21.183985,20.061914,20.338282,21.11001
20.82998,20.82876,19.330713,19.571436,20.583155
20.15542,21.239405,18.293604,18.657618,19.947412
19.056543,20.634424,17.253077,17.732569,19.4667
18.86831,20.379786,17.274317,17.131006,18.920801
18.54458,20.473291,17.277735,16.835596,18.888819
17.979883,20.861963,17.139795,16.527735,18.596582
17.727198,21.165674,17.048975,16.399073,18.543604
17.482813,21.08584,16.915918,16.136377,18.001368
17.418604,20.418604,16.453272,16.562891,18.170557
17.195215,19.938623,16.670557,16.814356,18.207422
16.83462,19.668116,16.276026,16.278223,16.884912
15.861963,19.517725,16.00088,16.092676,16.309229
15.718653,19.217188,15.967432,16.08706,16.241358
16.226465,19.171045,16.721582,16.409327,17.134912
16.7521,19.253809,17.479395,17.286524,18.18667
17.209864,18.991114,18.129786,17.456934,18.229395
17.960352,19.031397,18.86001,17.884424,18.687403
19.038721,19.075342,18.812403,18.70376,19.10171
20.358057,19.198145,18.795069,19.436426,20.246485
20.66421,19.586329,19.523584,19.765284,21.183252
20.54214,19.911036,19.295557,19.41421,20.579493
17.80752,20.232325,18.777002,19.77041,21.093653
20.58169,20.312159,18.818506,18.410303,20.652002
20.440088,20.54629,18.803614,17.250391,20.150782
19.8771,20.374414,16.80874,17.70669,19.505274
18.37832,20.259668,16.671534,15.85586,18.973047
16.996485,20.209131,15.8832035,15.4125,18.508936
16.310205,20.257471,15.528223,15.073145,18.045801
16.302149,20.378565,15.522852,15.166407,17.433496
16.146631,20.184229,14.885157,15.23208,16.937891
15.51626,20.038233,15.278711,14.777491,16.541895
15.057764,19.496729,14.898096,14.273584,16.444727
15.09292,19.134668,15.136377,14.517725,16.325342
14.728418,19.051905,15.081934,14.606592,16.468409
14.336573,19.007471,15.162256,14.475977,16.068018
14.514063,18.401514,14.50625,14.299952,15.888575
14.073633,18.577295,14.64419,14.824121,15.925928
14.35,18.771631,15.473536,15.390039,16.182276
14.9667,18.283594,16.16421,16.241358,17.112207
15.312159,18.585352,17.270899,17.01333,17.745508
16.631983,18.620508,18.633448,17.58755,18.882227
17.113428,18.941553,18.792871,18.636621,19.975245
17.59585,19.186914,19.492334,19.485743,20.72378
19.539942,19.408594,19.797754,19.89712,20.858301
19.51089,19.657862,20.483057,20.289942,21.171045
18.393457,19.894922,19.802149,19.295557,20.516748
17.667627,19.70962,18.001123,19.452051,20.326563
17.9938,19.714746,18.830713,19.171778,19.906885
17.487452,19.685205,18.49502,18.793116,19.131739
17.003077,19.846338,17.501123,17.873682,18.364405
16.75332,19.674952,16.971582,16.811914,17.806055
16.219873,19.432276,16.274317,16.225245,17.83462
15.745996,19.152246,15.752588,15.899073,17.6979
15.604639,18.726221,15.19961,15.747461,17.266504
14.928858,18.21963,15.0646,15.355127,16.676416
15.1019535,18.363184,14.974024,14.694727,16.437647
15.152979,18.249903,14.232813,14.254053,16.59707
14.862207,18.075098,13.901514,14.274073,16.779932
14.643702,18.022852,13.8067875,14.105371,16.899317
14.270411,18.19546,13.789209,14.350489,16.582178
13.979883,18.026026,14.0375,14.474268,16.603662
14.455225,17.921045,14.388575,14.527979,16.644434
15.324366,17.965235,14.77334,14.468409,17.308252
16.258448,18.070704,15.1002445,15.417627,17.348047
16.632471,18.255274,16.239649,16.379297,16.837793
16.913233,18.254541,17.12832,17.071192,17.382227
17.51089,18.283106,17.930079,17.986475,17.771143
18.522608,18.53042,18.483057,18.323633,17.873926
17.975733,18.734766,19.04922,18.272608,18.386133
18.715967,18.783106,18.748926,18.453516,18.53628
18.125391,18.761866,18.343897,18.329737,18.52212
17.964258,18.77627,18.146875,18.408838,18.162256
17.512842,18.693262,17.833887,17.664454,17.697168
16.697657,18.456202,16.627588,16.872705,16.984278
15.991846,18.391504,15.876612,16.149073,16.315332
15.770655,18.108301,15.319483,15.11709,16.26333
15.379786,18.134912,14.8146,14.255762,16.059473
14.610254,18.31338,13.438868,13.618555,16.241114
14.336817,18.38418,12.827539,13.215967,15.888086
13.583643,18.217188,12.448633,13.335352,16.026758
13.062891,18.374903,12.455957,13.2269535,16.21963
12.224268,17.912256,12.538721,13.339991,15.960352
12.540674,18.00918,12.715479,13.426905,15.665918
12.700098,17.922022,12.920069,13.242823,15.697901
12.601709,17.964258,13.668848,13.965723,16.127588
12.882471,18.091211,14.11709,14.264795,16.1354
13.248926,18.122217,13.955469,14.482325,16.220606
13.650049,17.839014,14.371729,14.109278,16.39297
13.515284,17.674463,15.129541,14.525293,16.463037
13.729395,17.443018,14.840967,15.172754,16.691553
13.697657,17.668604,15.012598,15.228907,16.993067
13.840479,17.87417,15.817774,15.407862,17.368067
13.753809,18.08462,16.55044,16.931543,17.579004
13.971094,18.20547,17.891504,15.859278,17.35
13.951319,18.409327,17.264795,16.137842,17.782862
13.559717,18.398584,17.624659,17.123194,17.691309
14.029932,18.490625,17.07168,16.732569,17.550196
13.926661,18.674952,15.585596,15.860987,17.334864
13.483057,18.512842,14.382471,14.391016,17.029688
13.276758,18.207666,13.765284,13.069727,16.879786
13.027735,18.680323,13.163965,13.07876,16.735743
13.047998,18.491358,13.043116,13.085596,16.400537
12.699854,18.04922,12.971827,13.06753,15.6627445
12.037256,17.426416,12.998926,13.022608,15.449854
11.854883,17.08999,12.998926,12.799952,15.016504
11.604883,16.8854,12.779932,12.721582,14.819483
11.71377,16.578516,12.536524,12.53042,14.767969
11.549219,16.70083,12.506983,12.188623,14.739405
11.657618,16.724756,12.1314945,12.098291,15.374903
12.039698,16.857569,12.573389,12.462549,15.9300785
12.454248,17.09463,13.682032,13.298731,16.50332
13.0846195,17.54751,15.173975,14.184961,16.960596
14.266016,17.771631,16.09878,15.378565,17.486963
15.436914,18.054102,16.838037,16.322412,18.062403
17.224756,18.333887,17.364649,17.06167,18.370752
17.508448,18.514795,17.901758,17.648584,18.523096
17.05337,18.606836,17.995264,18.042383,18.529688
18.538721,18.425928,18.136133,17.60586,18.55581
18.102198,18.309229,17.845118,17.699366,18.499414
17.391993,18.504053,17.3417,17.610254,18.080957
16.852198,18.544825,16.865137,17.148829,17.711817
15.574121,18.30874,16.016748,16.274073,16.990381
14.766504,18.244287,15.252832,15.632715,16.133692
14.106104,18.139795,14.977198,15.304346,15.886133
12.916651,17.783106,14.608789,15.062159,15.356104
13.536768,17.694483,13.988184,14.628321,15.136377
12.658838,17.85171,13.879297,14.015772,15.423731
12.418116,17.517237,13.793848,13.662012,14.864649
11.821192,17.358057,13.247217,12.930567,14.354395
11.223047,17.473047,12.548487,12.277246,14.671289
11.222315,17.50088,11.946192,11.750879,14.908594
10.962305,17.052881,11.501368,11.327051,14.945215
11.232325,17.340235,10.695215,11.285547,14.466455
12.080713,17.28921,11.594141,11.871729,14.766016
13.250879,17.233545,12.606348,13.010645,15.841455
14.478174,17.323145,13.808496,14.073389,16.506983
15.703272,17.382227,15.06753,15.037256,17.643457
16.313623,17.4313,16.193262,15.915674,17.904688
17.017725,17.50796,17.101465,16.67544,17.733301
17.470362,17.545557,17.6542,17.41958,17.864893
17.725733,17.652735,18.184961,18.066797,18.22964
17.939356,17.687159,18.47671,18.66665,18.32998
17.44082,17.69253,18.615137,18.862452,18.22378
17.023829,17.691309,18.53628,18.488184,17.979395
16.317041,17.710108,17.930079,17.841944,17.418848
14.950342,17.728418,16.398829,17.04214,16.04458
13.535059,17.714502,15.421534,16.131495,13.855616
12.8814945,17.849268,15.128809,15.320459,13.463526
12.172266,17.987696,14.362207,14.7130375,13.223047
11.809717,18.125635,13.796045,14.615137,13.324121
11.698877,18.360743,14.07461,15.06753,13.868799
