"[299, 255]","[227, 248]","[287, 319]","[279, 328]","[230, 262]"
2.423242,8.794092,3.4513183,3.2645507,6.951074
2.0628905,9.9457035,2.9937987,2.7435546,8.783838
2.4254394,10.225489,2.7186522,2.3521972,9.104395
2.73208,9.673487,2.8973632,2.6581054,7.728418
4.579004,9.197901,4.439111,3.2379394,7.1898437
5.0450683,8.203272,5.1358886,4.893457,6.5851073
3.9002929,7.909082,4.3705077,4.2621093,6.074121
3.2777343,7.6480956,4.126367,3.8180175,5.8299804
3.3854003,7.7401366,4.3392577,3.9234862,5.9847655
3.9498534,7.7264647,4.884912,4.624414,6.757959
4.1986327,7.661035,5.6878905,5.5560546,6.940576
4.444238,7.944238,5.486963,5.975,7.6214843
4.95791,8.43545,6.4935546,6.0365233,7.6249022
4.8006835,8.746485,6.75332,6.4432616,7.770654
4.4188476,8.50625,7.1585937,5.8094726,7.2135253
4.0230956,8.709131,6.827783,6.240381,7.490869
3.7635741,8.972315,5.4532714,5.9640136,7.273584
3.945459,9.191553,4.671289,5.256494,6.787988
4.4496093,8.974024,4.388574,4.704248,6.744531
4.3861327,8.683741,4.636865,4.442285,6.990625
4.4276366,8.850977,4.1625,4.332666,7.3270507
4.396631,9.004297,4.3822265,4.1913085,7.440332
4.584619,8.961573,4.3128905,3.6744628,7.2240233
4.478906,9.048975,3.980371,3.05166,7.095361
4.426904,8.993555,4.2518554,3.661035,7.1031737
4.886377,8.949854,4.009912,3.7271972,7.079492
5.1668944,8.955713,4.0904784,3.893701,6.95791
5.208154,8.928125,4.1510253,3.9225097,7.3524413
5.1983886,8.936426,4.0555663,3.860742,7.2520995
5.1395507,8.935938,4.414453,3.9276366,7.209131
5.122461,8.937891,5.7450194,5.549463,7.178613
5.160547,8.957666,5.8976073,5.6493163,7.301416
5.410547,8.893213,6.184961,6.2384276,7.7069335
5.9154296,8.895899,7.0143065,6.8456054,8.351709
6.3233886,8.945459,7.773584,7.4330077,8.728418
6.9273925,9.044092,7.973779,7.81582,9.070459
7.271631,9.082178,8.037012,8.034815,9.43545
7.777246,9.129297,8.276026,8.93545,9.823633
8.198633,9.187403,7.2779784,9.177149,9.844385
7.756738,9.233057,7.815576,8.488916,10.036524
7.0316405,9.2582035,7.155908,7.8685546,9.395655
6.17666,9.378077,6.2572265,6.603662,8.479639
5.3338866,9.374659,5.6600585,5.8807616,6.754785
5.0562987,9.368311,4.3111815,4.3246093,6.537988
5.0543456,9.287256,4.0284667,4.735986,7.205713
5.0802245,9.282129,4.3424315,5.0489745,7.2108397
5.001611,9.233057,4.264795,4.213037,6.4461913
4.718408,9.227442,4.0731444,2.9210448,5.853906
3.7540526,9.218897,3.5287108,2.172998,5.3998046
3.6344237,9.193262,2.015283,2.355371,5.1117187
3.8143554,9.002588,1.3785645,2.7499022,4.9276366
4.1754394,8.81045,1.53042,2.9325194,5.040918
3.9930663,8.888575,1.6979004,2.8395019,5.4549804
3.928125,9.147364,2.0904784,2.674707,6.2696776
3.7413573,9.246729,2.688867,3.0123534,6.5575194
4.2210937,9.20669,3.1283202,3.3028808,6.990625
5.367334,9.149561,4.022119,4.0399413,7.843408
5.741113,9.245264,5.1895995,5.2992187,8.541895
6.2799315,9.329737,6.65249,6.6185546,9.065088
6.9862304,9.218653,8.078272,7.502588,9.373926
7.7276855,9.160547,7.926172,8.48794,9.168604
7.7691894,9.152002,8.491358,6.2884765,8.998926
7.332422,8.975733,8.90127,6.711328,9.070948
7.3436522,9.068506,8.516016,7.145654,9.2286625
7.185449,9.224512,6.9305663,7.3287597,9.283594
6.4186034,9.201319,6.732324,5.9200683,8.725489
5.799951,9.066065,6.0470214,4.796533,8.035303
5.5316405,9.070459,5.2259765,4.864404,7.8128905
5.294336,9.020655,4.6378417,4.4757323,7.84707
5.083154,8.975977,4.671289,4.0660644,7.775781
4.903955,8.960596,4.405664,3.9688964,7.5155272
4.96499,8.854883,3.8878417,3.7958007,6.2733397
4.8180175,8.605127,4.005029,3.1600585,6.155908
4.5213866,8.405664,3.7455077,2.659082,6.5919433
4.4884276,8.524317,3.6688476,2.0797362,7.216211
4.602197,8.462793,3.7723632,2.1971679,7.1585937
4.770654,8.465723,3.5282226,2.7828612,7.2396483
4.836084,8.391504,3.5321288,3.57583,6.8285155
4.697168,8.337549,3.4930663,4.0089355,6.942285
4.713037,8.191797,3.699121,4.015039,7.2174315
5.4964843,8.323633,4.155908,4.4415526,7.5765624
6.3736815,8.203516,4.928125,5.1600585,7.266504
7.0299315,8.153223,5.833154,5.7967772,7.6690917
7.6,8.518457,6.5277343,6.5233397,8.224512
7.9515624,8.834131,6.9430175,7.1075683,8.677881
7.954492,8.83877,7.485254,7.1222167,8.834864
6.6620116,8.821924,7.8006835,7.6969237,8.691065
6.7291503,8.849512,7.5404296,7.8580565,8.391016
5.7711425,8.820948,7.0821776,7.268213,7.943994
4.961084,8.676416,5.9242187,6.1205077,7.28042
4.565088,8.461084,4.8089843,4.6876464,6.8719726
3.786035,8.389795,3.902246,4.346338,6.7799315
3.0140624,8.377832,3.6078124,4.007959,6.4139647
2.5250487,8.279444,3.7115722,3.5477538,6.081445
2.249414,8.35586,3.4703612,3.1788573,5.0179687
1.990625,8.529688,2.9459472,2.9435058,4.9725585
1.5104004,8.5567875,2.4105468,2.5101562,4.412256
1.1800781,8.5724125,1.9371582,1.3541504,3.3438964
0.7484375,8.509424,1.6463867,2.254541,3.2811522
0.8924805,8.464502,2.1534667,3.0118651,3.435205
-0.11948242,8.388575,1.9513184,3.3290038,3.315332
0.12978515,8.353907,2.202539,3.1893554,3.6654296
1.1437012,8.402002,2.862207,3.5746093,4.0978026
1.6629883,8.470606,3.1012206,3.8534179,4.754785
2.4312987,8.392725,4.133447,4.6251464,5.61416
3.0433593,8.145899,4.653711,5.4273925,6.2279296
3.6007323,8.327784,4.9762206,6.162256,7.323877
4.5331054,8.778467,6.3368163,7.3021483,8.523096
5.4051757,9.065821,7.020654,7.358789,8.920313
6.2137694,9.34292,7.4981933,7.4132323,8.920801
6.530664,9.539942,6.81875,6.9781737,9.057764
6.5094237,9.746241,6.721826,6.990869,9.047754
6.251123,9.802149,6.827783,7.077783,9.075098
5.975244,9.761621,6.634668,6.902002,8.732813
6.008447,9.86709,6.730371,6.5682616,8.503565
6.1649413,10.058496,6.8004394,6.6065917,9.04458
5.8946776,10.000391,7.006738,7.1986327,9.227442
5.709619,9.817041,7.2455077,7.4811034,9.23086
6.0069823,9.538477,7.7176757,7.6378417,9.191309
6.350488,9.471827,7.636377,7.836572,9.304834
6.7557616,9.548487,7.405908,7.5086913,9.31753
7.08999,9.517725,6.9864745,7.2188964,9.107813
7.3370605,9.427149,6.709131,6.6532226,8.817774
7.532129,9.319727,6.5729003,6.507959,8.607569
7.6048827,9.292383,6.362695,6.409326,8.454248
7.6388183,9.421289,6.1639647,6.1478515,8.310694
7.624414,9.610743,5.802881,5.662256,8.468897
7.737451,9.615137,5.8634276,5.8109374,8.909082
7.9029784,9.778223,6.1705565,6.181787,9.44375
8.014307,10.23794,6.2674804,6.146875,9.860498
8.143213,10.562159,6.5294433,6.125879,10.08584
8.20669,10.931055,6.955713,6.232324,10.773584
8.251856,10.844141,7.315088,6.558496,10.953516
8.85708,10.55044,7.60708,6.8998046,10.96084
9.7286625,10.545801,8.068506,7.6358886,11.0221195
10.091944,10.574121,9.542383,8.302881,10.964258
10.434961,10.552393,9.768702,8.910059,10.917383
10.418848,10.798731,9.956934,9.544336,10.864893
10.123682,10.655909,9.92544,9.871729,10.792627
10.001368,10.764063,9.878077,10.082422,10.761621
9.848291,10.798487,9.744043,10.166651,10.683252
9.768946,10.677637,9.75918,10.222559,10.653223
9.673487,10.756983,9.970118,10.356348,10.63125
9.599512,10.650293,10.108545,10.265039,10.681055
9.600977,10.769922,10.058496,10.17544,10.824366
9.612452,10.813623,9.919336,10.20669,10.972803
9.731104,10.693262,9.945215,10.387598,10.975733
9.946436,10.493067,10.069727,10.52334,11.042627
10.265039,10.652246,10.275293,10.29043,10.856836
10.156153,10.522364,10.29336,10.01626,9.438379
9.851221,9.920801,9.282129,8.572657,8.788965
9.023096,9.923487,8.3189945,7.9325194,8.530176
7.8058105,9.788965,8.442041,8.04751,8.85293
8.260157,9.663965,9.029688,8.381006,9.533106
9.012598,9.66128,8.79336,8.427393,9.927149
8.948877,9.754053,8.822657,8.288721,9.951075
8.976465,9.808985,8.860254,8.56045,9.643457
9.050928,9.69375,8.397364,8.624659,9.100977
8.559961,9.081202,7.7125487,8.157618,8.194239
7.6444335,9.128565,7.079492,7.2794433,7.9901366
6.849756,8.264063,6.2342772,6.6117187,7.1773925
5.947412,7.951074,5.499658,5.7750487,6.6737304
5.4603515,8.753565,5.50625,5.660791,7.431787
4.7176757,8.925928,5.577295,5.782129,7.699365
4.0787597,9.001123,5.55166,5.765039,7.3875976
3.9884276,8.995264,5.3634276,5.318506,7.032129
4.0890136,8.607569,5.122705,4.9864745,6.2831054
3.917871,8.418848,4.852197,4.8128905,5.848047
3.8412108,8.225489,4.693994,4.5211425,5.709863
3.3026366,8.084131,4.411279,4.331445,5.619043
2.799707,7.981836,4.414697,4.433252,5.584619
2.5577636,7.9549804,4.0301757,4.220361,5.3114257
2.3753905,7.8666015,3.9740233,4.1839843,5.331445
2.1761718,7.882959,3.7904296,3.9947753,5.2638183
2.1512694,7.940088,4.004297,4.0277343,5.3490233
2.6185546,8.14126,4.548242,4.392236,5.8092284
3.5868163,8.062647,5.4659667,5.524072,6.5787597
4.6600585,7.935449,6.310449,6.259668,7.247461
5.9151855,7.9000487,6.6688476,7.1722655,7.8807616
6.3143554,8.046289,7.1551757,7.2811522,8.160547
6.9063964,8.243799,7.579736,7.1305175,8.35708
7.235254,8.512598,7.241113,7.0892577,8.788965
6.947412,8.767969,6.350244,6.952539,8.493067
6.4134765,8.7521,6.533838,5.923242,8.341455
6.108789,8.533838,5.6446776,5.749414,8.028711
5.5580077,8.845118,5.5040526,5.6527343,7.702783
5.0836425,8.610987,5.202783,5.036035,7.3592772
4.3827147,8.175684,5.1649413,5.5455565,6.7140136
4.536279,8.346827,5.5353026,5.449365,6.5104003
4.417871,8.313868,5.5509276,5.7015624,6.313379
4.3253417,8.000635,5.2938476,5.334863,6.2677245
4.255029,7.9273925,5.3080077,5.275293,6.3390136
4.337793,7.8963866,5.1561522,5.0091796,6.3854003
4.405908,7.874414,4.5787597,4.5892577,6.238916
4.2191405,7.645166,4.707422,4.8285155,6.0833983
4.0450683,7.56582,4.719629,4.964746,5.966211
4.2923827,7.603662,4.5943847,4.476953,6.110742
4.0938964,7.265039,4.442285,4.3565917,5.994531
3.9354491,7.3722167,4.4186034,4.5318847,5.572656
3.9081054,7.4881835,4.6170897,4.560205,6.079492
4.426416,7.3219237,5.4745116,5.3055663,6.508203
4.7000976,7.4168944,6.0890136,6.041162,6.8773437
5.228906,7.517236,6.490625,6.7940917,7.636621
5.214746,7.666162,6.921289,7.2767577,8.06167
5.4239745,7.910791,7.315332,7.7350097,8.151514
5.849756,8.222803,7.536279,7.631738,8.516993
4.653711,8.437159,7.3338866,7.5665526,8.650293
5.2831054,8.268457,7.0663085,7.3092284,7.8888183
4.003076,8.496729,6.0799804,5.7501464,7.5833983
3.7989745,8.512842,5.131494,5.242578,7.0458007
3.6720214,8.672998,4.3089843,4.497705,6.124658
3.6705565,8.843164,4.2245116,4.421045,6.1270995
2.9725585,8.733545,4.0365233,3.6068358,5.898828
3.1361327,8.443506,4.0089355,3.4393554,5.8836913
2.830957,8.16836,3.4740233,2.9066405,5.8512206
2.6651855,7.7901855,3.3185058,3.094873,5.29458
2.430078,7.6361327,2.7081542,3.2257323,4.7137694
2.1976562,7.2262206,2.8629394,2.6520019,5.098047
2.0538573,7.300195,2.3094726,2.2359862,4.787256
2.115869,7.3338866,2.2323241,2.1163573,4.532129
2.0733886,7.1390624,2.5240722,2.4186034,4.484033
1.9269043,7.2430663,2.733789,2.2816405,4.1217284
1.9320313,7.110254,2.5987792,1.9837891,3.8416991
2.1119628,6.933496,2.6864257,2.0487304,4.4676757
2.5226073,7.1151366,3.101953,2.8023925,5.219629
3.103662,6.813379,3.929834,3.699121,6.109033
3.598535,6.676904,4.9398437,4.726709,6.4669433
4.5162597,6.018945,6.228662,5.4239745,6.7437987
5.1441894,7.314111,6.760156,6.057031,7.3685546
5.5074706,7.787744,6.780908,6.678125,7.7176757
4.9010253,7.1483397,6.7835937,6.8580565,7.4103026
4.2481933,7.7225585,5.9271483,6.584863,7.1390624
5.115869,7.569238,6.006494,5.900781,6.8124022
4.4398437,7.4918456,4.864404,4.5575194,6.09292
2.836084,7.3375487,3.1600585,3.225244,5.0648437
2.4364257,7.129297,2.7132812,2.7069335,5.5248046
1.6573731,7.2486815,2.0458007,2.2540526,5.5833983
1.1107422,6.912256,1.4759766,1.5726563,4.834863
0.49526367,6.8419433,0.88564456,1.0387207,5.384912
0.18862304,6.8509765,0.36074218,0.61025393,5.2296386
0.05214844,6.657861,-0.27939454,0.09487305,4.9933105
-0.30234376,6.485986,-0.8455566,-0.09116211,4.2967772
-0.81040037,6.189111,-1.2103027,-0.448584,3.9156737
-1.1722168,5.930322,-1.5574707,-0.7366699,3.547998
-1.3353027,5.7572265,-1.5083984,-1.1294922,3.3478026
-1.5933594,5.869531,-1.8355469,-1.4019531,3.120996
-1.6988281,5.9117675,-2.0899415,-1.2320312,2.7745605
-0.88974607,6.080957,-0.8912109,0.027978515,3.8314452
0.48720703,6.8131347,0.8541504,2.1046386,6.048242
1.9852539,7.315088,2.567041,4.676416,7.0873046
3.9261718,7.329492,4.1859374,5.786035,7.54458
5.8460937,7.145654,6.1839843,6.28457,8.038477
5.7499022,7.6024413,7.066797,6.418115,8.471094
6.141504,7.883447,7.510156,7.259668,8.667627
6.298486,8.067286,6.5467772,5.971338,8.4908695
5.864404,8.214746,5.665918,6.1183105,8.63418
5.1327147,8.5863285,5.827783,4.9652343,8.240381
4.4850097,8.829981,4.27749,5.0763183,7.6063476
4.240625,8.683008,3.2630858,4.7013183,6.5719237
3.9164062,8.699366,3.5628905,4.303613,5.6026855
3.3702636,8.794092,2.9149413,3.6856933,6.0406737
3.1061034,8.720362,2.4288573,3.437158,5.6620116
2.9986815,8.664698,2.3321776,3.1517577,5.4808593
2.8807616,8.507959,2.891748,3.1532226,5.9205565
2.6292968,8.11294,3.1690917,2.820703,5.804834
2.5084472,7.7401366,2.749658,3.0245605,5.456201
2.5304198,7.004541,2.9552245,3.0650878,5.268213
2.628076,6.9012694,3.16958,3.0033202,5.2728515
2.7748046,6.723535,3.3578124,3.1310058,5.421045
2.6117187,6.9950194,3.5172362,3.2752929,5.726709
2.6681151,7.483789,3.728662,3.2333007,5.970361
2.749658,7.9452147,4.3250976,3.6581054,6.6043944
2.9278808,8.490381,4.4981933,4.664697,7.4708495
3.141992,8.871729,4.652002,5.2574706,7.9549804
3.4098144,9.214502,5.098047,5.364404,8.576807
3.8145995,9.222315,5.204248,5.509668,8.836573
4.3353515,9.219385,5.4305663,5.8993163,9.458155
5.0121093,9.312159,5.794336,6.6236815,9.657862
5.725488,9.453028,6.317529,7.211084,9.913477
6.3287597,9.588282,7.2228026,7.6026855,9.906641
6.9640136,9.678614,7.758447,8.027002,9.74795
7.2708983,9.813135,7.886621,8.2442875,9.78335
7.357324,9.835596,7.843164,7.969873,9.882959
7.433496,9.906641,7.8958983,7.8373046,9.894922
7.529199,10.054346,8.062891,7.904199,9.807032
7.6405272,9.839991,8.031397,8.013086,9.785303
7.655664,9.78335,7.9530272,8.003077,9.747217
7.712793,9.886621,8.021631,8.02627,9.70083
7.8595214,10.011621,8.243555,8.271875,9.710352
8.084131,10.029688,8.390284,8.274317,9.799952
8.139795,10.026026,8.355371,8.414698,9.967676
8.124659,10.078028,8.303614,8.413721,10.181543
8.151514,10.226221,8.302881,8.586817,10.29336
8.211573,10.389307,8.431299,8.599268,10.303125
8.429346,10.411768,8.584131,8.859766,10.254786
8.670557,10.419092,8.864161,9.177637,10.248682
8.828028,10.273584,9.345606,9.27334,10.308741
9.016016,10.295557,9.799463,9.274073,10.428125
9.147364,10.487452,10.024561,9.414209,10.80044
9.258692,10.500391,10.2911625,9.443506,11.07876
9.365625,10.525293,10.307764,9.391016,11.215967
9.531153,10.55044,9.991602,9.184717,11.293604
9.723536,10.694239,9.761866,9.10293,11.034815
9.608301,10.538233,9.266504,8.466944,11.021631
9.566797,10.290186,8.1019535,7.7674804,10.641748
9.446192,10.334375,7.437158,6.768945,9.747461
9.083887,9.670801,6.7691894,6.1429687,8.470118
7.4393554,9.162989,6.402002,5.9374022,7.810449
6.4017577,8.6542,5.9049315,5.4344726,7.4847655
5.418115,8.390528,5.0313964,4.808496,6.977197
5.1302733,8.252588,4.252832,4.1083007,6.0626464
4.7557616,7.7464843,3.8749022,3.6861815,5.1839843
3.8260741,7.568506,3.2594237,3.2799315,5.087793
3.339746,7.4205565,3.343164,3.0558105,4.907861
2.8507323,6.8338866,3.1375976,3.0484862,4.804834
2.2887206,6.1358886,2.6810546,2.7035155,4.471338
1.9916016,6.2142577,2.2396483,2.266748,4.1307616
1.6644531,5.959863,2.1483397,2.3092284,3.6146483
1.4598633,6.2708983,2.0853515,2.2948241,3.8551269
1.7311035,6.187158,2.4955077,2.4742675,3.9771972
2.206201,5.9015136,3.2557616,3.3871093,4.540918
2.378076,6.3285155,4.166162,4.1405272,5.212793
3.2887206,6.5958495,4.727197,4.244531,6.2105956
3.6837401,6.8717284,5.150781,3.9688964,6.63125
4.204004,7.228906,5.6063476,4.9967284,7.1910644
4.3541503,7.7088866,5.036279,4.0243163,7.4015136
4.650537,7.9081054,4.555078,4.109033,7.6756835
4.815088,7.8927245,4.0785155,4.511865,6.896631
4.787988,8.187159,4.155664,4.518701,7.1187987
3.6900878,8.253565,3.970117,3.9784179,7.133203
4.1324706,7.553125,3.5365233,3.9208007,6.300195
2.9859862,7.907617,3.9845214,4.1979003,6.225
2.7748046,7.7123046,4.2003417,4.0799804,6.376367
3.3280272,7.7606444,3.9449706,3.615869,6.2484374
3.577539,7.7245116,3.4330077,2.9986815,6.1947265
3.5035644,7.7586913,2.9964843,2.5746093,6.2486815
3.131494,7.943506,2.3216796,2.4303222,6.0731444
3.1144042,7.918115,1.8236328,2.1864257,6.077295
2.5301757,7.8529296,1.6351563,2.0265136,5.949121
2.1358886,7.838037,1.1837403,2.1307616,5.860986
1.7323242,7.6080565,1.3570801,2.1791015,5.900781
1.7560059,7.5560546,2.292871,2.5165038,6.081201
2.2884765,7.646631,2.6566405,2.5785155,5.6302733
3.1302733,7.543115,3.7555175,3.4452147,6.1214843
4.1083007,7.619531,4.8229003,4.668115,6.933252
4.918115,7.734033,6.1632323,5.684961,7.567041
5.3924804,7.910547,6.6725097,6.326074,7.9913573
6.06875,8.044825,7.4725585,7.216455,8.7113285
6.3683105,8.196436,7.995996,7.9652343,9.212305
6.1200194,8.479639,7.506006,6.2518554,8.69253
5.8773437,8.633692,7.1568847,7.452295,8.859034
4.486963,8.840723,7.7765136,7.7557616,8.957911
5.2257323,8.495996,7.3941894,7.225,8.594873
4.3507323,8.006983,6.6117187,6.3072753,7.8458495
4.2811522,7.969873,5.2918944,4.80874,7.1966796
3.9471679,8.323633,4.3250976,4.059961,6.3980956
3.5006347,8.488428,3.7577147,3.4425292,5.447168
3.251367,8.761621,2.6041503,3.1971679,5.428125
3.0331054,8.9769535,1.0394531,3.2032714,4.619287
2.9061522,8.934961,0.2713867,2.749414,4.195947
2.4337401,8.548487,0.15224609,1.3497559,3.8734374
2.1776366,8.14419,0.41054687,0.95522463,4.067041
2.0279784,7.9288573,0.37612304,0.89223635,4.838281
2.5226073,7.480371,0.6886231,1.2352539,5.393701
2.789209,7.3819823,0.88857424,1.0206543,5.5418944
3.1625,7.605615,1.2738281,1.1148926,5.6878905
3.4813476,7.855371,1.4637696,1.3246094,5.945947
3.6356444,7.924951,2.2086425,1.9395996,6.1581054
3.803125,7.8355956,3.4459472,2.976953,6.1600585
4.2811522,7.69082,4.6634765,3.9884276,6.2281737
4.4723144,8.044336,5.0538573,4.4132323,6.522119
4.307031,8.620508,4.6996093,4.456201,7.211084
4.2452636,8.954004,4.4691405,4.065088,8.084131
4.534082,9.643702,4.3219237,3.6239257,8.6
5.0294433,10.288233,4.5089355,3.890039,10.020166
5.54458,10.289942,4.9291015,4.2538085,10.710108
6.264795,10.258692,5.4520507,4.671289,10.813623
8.239649,10.517237,6.1563964,5.220361,10.811426
9.429346,10.625635,7.1410155,6.1151366,9.504053
9.237696,9.790918,7.9171386,7.6134276,7.484033
8.455469,8.920557,7.471582,6.843164,6.970117
5.8526855,8.501368,6.3878417,5.374658,6.138574
3.928369,8.121241,4.7816405,4.306543,5.267236
3.7040038,7.5919433,3.862451,3.5943847,5.372461
3.2931151,7.173486,3.409326,3.3644042,4.5475097
2.792871,7.011865,3.358789,3.091455,4.4691405
2.1776366,6.8106933,3.007959,2.9151855,4.4222655
1.9937989,6.7020507,2.7660155,2.8841796,3.8358397
1.7865235,6.6910644,2.6170897,2.601709,4.2796874
1.559961,6.46792,2.9339843,2.753076,4.1510253
1.570459,6.662256,2.7955565,2.6742187,4.221338
2.2403808,6.7921386,3.535791,3.3661132,4.978662
3.2748046,7.338037,4.162256,4.254297,5.830957
4.4625487,7.7276855,4.2936034,5.1205077,6.511621
5.150781,8.053614,4.6097655,5.3443847,6.574121
5.649072,8.212061,4.855371,5.4273925,6.7362304
4.801416,8.562159,4.9710937,5.403711,6.7953124
4.193506,8.364405,5.855371,5.5538573,7.537256
4.5958495,8.560938,6.4811034,5.6617675,8.057764
4.649072,8.750147,6.422754,5.3929687,8.384424
4.8319335,8.226465,6.131738,5.66958,7.869043
4.5423827,8.505762,5.5699706,5.4154296,7.2801757
4.501367,8.025049,4.649072,4.5960937,6.742334
4.454004,8.142969,4.6668944,4.4481444,6.7157226
3.676416,8.319483,4.2137694,4.1375976,6.6915526
2.9708495,7.8495116,3.9234862,3.688867,6.2953124
2.8128905,7.7015624,3.643457,3.3915038,6.133203
2.7833495,7.4125,3.4537597,3.2206054,5.7906737
2.2013183,7.459375,3.237451,2.9972167,5.83999
1.8006836,7.131006,3.0814452,2.8668456,5.81582
1.5470215,6.9273925,2.9415526,2.612451,5.5541015
1.2762696,6.772119,2.556787,2.0101562,5.1273437
1.2040039,6.677881,2.0511718,1.627832,5.131006
1.0318848,6.74624,1.6480957,1.1715332,4.923242
0.62124026,6.520166,1.2223145,0.9554688,4.68374
0.7818848,6.312158,1.6825196,1.402002,5.4608397
1.5572754,6.5716796,2.367578,2.351953,5.640039
2.5924315,6.7628417,3.560205,3.5628905,6.0926757
3.3966308,6.4051757,4.575586,4.4188476,6.3827147
4.219873,6.6981444,4.9378905,4.844629,6.879297
4.698877,6.893701,5.473291,5.3038573,6.949365
4.317529,6.691797,5.4566894,5.5086913,7.006738
4.58291,6.740381,5.56582,5.518457,6.464746
3.8331542,6.5643554,5.297754,5.226709,6.609033
3.7640624,6.4254394,4.6720214,4.6307616,5.801172
2.8358397,6.178125,3.789453,4.011377,5.539209
1.9701172,6.9620605,2.9537597,2.6515136,5.0545897
1.2330567,6.80874,1.959375,1.8963867,4.99917
0.8604981,6.978906,1.5770508,1.4901367,4.692285
0.4425293,6.7835937,1.1754395,1.12417,4.165918
0.29628906,6.4168944,0.96621096,0.9508301,4.2933593
-0.14291993,6.499658,0.73598635,0.79775393,4.136377
-0.39658204,6.3980956,0.6749512,0.5807129,3.8946776
-0.3440918,6.4500976,0.19130859,0.48964843,4.0562987
-0.25668946,6.547754,-0.49960938,0.34658203,3.8087401
-0.33969727,6.27041,-0.9939941,0.25112304,3.6866698
-0.6441406,6.1007323,-1.2764648,0.14101562,4.2889647
-0.9031738,5.890283,-1.3367676,0.101464845,4.6290526
-0.95273435,6.1476073,-1.247168,0.19887695,3.8231444
-0.08896484,6.3106933,0.28554687,1.0416504,4.1151366
1.5431153,6.3514647,2.13833,2.3548827,5.0331054
2.8963866,6.2499022,3.3993163,3.7083983,5.508447
3.954248,6.306787,4.827539,5.083154,6.494287
4.537256,6.4068847,5.9188476,6.216699,6.768945
5.5128417,6.812158,7.0040526,7.351953,6.865869
5.7003417,6.983545,7.3055663,7.1666503,7.2450194
6.3941894,7.2420897,6.733545,5.6996093,7.77041
5.9217772,7.322656,6.32583,6.119287,7.5609374
5.439111,7.6080565,6.0472655,5.9481444,7.044824
4.513574,7.6842284,4.301172,5.391748,6.4322753
3.7518554,7.709375,3.810205,4.648828,5.9200683
2.7811522,7.524072,3.2018065,3.086328,5.8268065
2.6202636,7.2953124,2.6546874,2.4012694,5.598047
2.0667968,6.976953,1.5477539,2.086084,5.8148437
1.0973145,7.3202147,0.9903809,1.6842285,5.789209
0.7555176,7.2867675,0.5643555,1.179834,5.437158
0.23427734,6.8668456,0.21279296,0.8226563,5.1393065
-0.066992186,6.596826,-0.3633789,0.16958007,4.855371
-0.48251954,7.0174804,-0.7815918,-0.06723633,4.843408
-0.84506834,6.771631,-1.0328125,-0.11972656,4.7818847
-1.1580566,6.692529,-1.2271484,-0.15463868,4.8680663
-1.55625,6.931543,-1.3223633,-0.321875,4.5919433
-1.676123,6.8128905,-1.4656738,-0.45834962,4.5782714
-0.4612793,6.923242,-0.3243164,0.24746093,5.476953
0.98476565,7.053369,1.7096192,1.5658203,4.808252
2.3028808,5.7875,3.1891112,3.2608886,6.2748046
3.8810058,6.4444823,4.3670897,4.820947,6.834619
5.1024413,6.898828,5.6822753,6.158838,7.200586
5.942041,7.1236815,6.8409667,6.8023925,8.250391
5.9618163,7.462793,6.624658,6.88125,8.111963
6.5023437,7.6546874,6.3302245,7.365381,8.065821
6.723291,7.9166503,7.287744,6.4984374,7.8478026
6.011621,7.9427733,6.209619,6.4000487,7.4481444
4.7291503,7.883447,5.278955,5.7501464,6.8861327
3.5814452,7.8685546,3.747705,4.2955565,5.973047
2.9120116,7.8250976,2.6983886,3.5211425,5.6673827
1.6112305,7.56875,2.0101562,2.5782714,5.476953
1.5216309,7.2657714,1.0003906,2.112451,5.23208
0.9447266,7.053125,0.4569336,1.7523438,4.7188964
0.60366213,6.7696776,0.12001953,1.3167969,3.6131835
0.45986328,6.7779784,-0.7242187,0.48427734,2.273828
0.3565918,6.880029,-2.0618653,-0.6333984,2.1358886
-0.045996092,6.989404,-2.5721192,-1.4905761,2.1146483
-0.5047363,7.1163573,-2.6524415,-0.4083008,2.7242675
-1.2381347,7.286279,-1.4629883,-0.28964844,2.7376952
-2.6612306,7.524072,-1.4097656,-0.2947754,2.9112792
-1.771582,7.3353515,-0.77719724,0.07509766,3.0592284
0.9903809,7.454004,1.4605957,1.244043,4.547754
2.8893065,7.704248,2.9222655,2.6651855,6.30874
4.411279,7.823877,5.025537,4.4774413,8.227442
5.6239257,8.214014,6.808496,6.228418,8.691065
6.506494,8.546289,7.741113,8.015528,9.267725
7.2464843,8.491358,8.212305,8.685938,9.253809
7.4657226,8.529444,8.377588,8.606592,8.970606
7.9740233,8.558008,8.329004,8.479639,8.876612
7.346826,8.728174,8.070948,8.065088,8.628565
6.745752,8.82876,8.044092,7.892236,8.489893
5.8089843,8.82461,7.4237304,7.353662,8.209864
5.000879,8.899073,6.751611,6.690088,7.813379
4.994287,9.003809,6.4000487,6.2552733,7.8280272
5.044824,9.054102,6.3299804,6.1966796,7.900781
5.0560546,9.064356,6.3128905,6.3058105,7.959619
4.99624,9.11294,6.407129,6.370752,8.045313
4.9798827,9.121729,6.422754,6.397363,8.1542
4.9376464,9.208643,6.361963,6.45791,8.195215
4.9151855,9.179346,6.5089355,6.5213866,8.080713
4.940332,9.099756,6.53042,6.4327636,7.584375
5.136865,9.040674,6.5753417,6.216211,6.9479003
5.4608397,8.822901,6.6876464,6.1583495,6.8995605
5.643213,8.741846,6.4842772,5.8089843,7.268213
5.8233886,8.713526,6.532617,5.923486,7.272119
5.999414,8.456202,6.2169433,6.0580077,7.336328
6.0091796,8.746485,5.952295,6.0438476,7.542627
5.756006,9.031153,6.4017577,6.6776366,8.1542
5.9984374,9.059961,6.6725097,7.3856444,8.424219
6.3268065,9.091455,7.310205,7.881006,8.864405
6.8873534,9.114405,7.89541,7.301904,9.242334
7.0294433,8.950342,7.631738,7.975244,9.796534
5.88125,8.904688,8.344629,8.044825,8.744043
6.431543,8.582666,8.493311,8.061914,8.642969
6.1964355,8.606348,7.5143065,7.240869,8.403711
5.4825683,8.565332,6.0504394,6.1270995,7.443994
4.924951,7.445703,4.598291,4.9586425,6.863672
4.322168,7.859033,3.6327147,4.220361,6.360742
3.0438476,7.8592772,3.266992,3.7296386,5.933252
2.8907714,7.379297,2.8702636,3.096582,5.032129
2.2733397,6.5504394,2.8648925,2.9918456,4.620752
2.4322753,6.7000976,2.865869,2.735742,4.6427245
2.2083983,6.9518065,2.5907226,2.4190917,5.0416503
2.0138183,6.7831054,2.436914,2.3341308,4.6117187
1.827295,6.8905272,2.4166503,2.214746,4.9364257
1.5086914,6.898584,2.3395019,1.7328125,4.865625
1.2950684,6.954492,2.1112304,1.5650879,5.2643065
1.0641114,6.910791,1.8026367,1.5731446,5.2379394
1.2433106,6.814111,1.6183106,1.5379883,5.6058593
1.5050293,6.9571776,2.1222167,2.3419433,5.6598144
2.2018065,6.6944823,3.1727538,3.5333495,5.888574
3.409082,6.503076,4.4879394,4.785791,6.1812987
4.6393065,6.922754,5.7520995,5.680322,7.0299315
5.374658,7.2569823,6.8768554,6.825586,6.9933105
5.5645995,7.2157226,7.2262206,7.8214355,7.778955
6.5956054,7.2728515,7.5575194,7.8592772,8.475
6.0956054,7.529199,6.3995605,6.4186034,8.472071
5.7279296,7.9103026,5.5873046,5.237207,8.260401
4.7899413,8.196192,5.734033,5.8246093,7.956445
4.164453,8.192774,5.784326,5.324365,7.391992
3.765283,8.219385,4.8844237,4.6549315,7.2281737
3.640283,8.333155,4.3041015,4.2120605,7.4652343
3.0870605,7.7223144,4.315088,3.534082,6.949365
2.7005858,7.7950683,3.844873,2.9125,6.961328
2.1117187,7.7728515,2.8163085,2.617578,6.4808593
1.7169434,7.1483397,2.766748,2.2142577,6.1534667
1.2015625,7.1493163,2.4881835,1.9483887,5.9325194
0.57973635,6.9322753,2.329492,1.7518555,5.845117
0.55092776,6.7970214,2.2206054,1.7469727,5.8805175
0.76894534,6.6703124,2.206201,1.9481446,5.6319823
0.80922854,6.5626464,2.2950683,2.1043944,5.0960937
0.6371094,6.2799315,2.343408,2.3263183,4.791162
0.77333987,6.1009765,2.6043944,2.5785155,4.9427733
0.8629395,6.3375487,2.9540038,2.8739257,5.7745605
1.4535156,6.917871,3.4720702,3.233789,5.733545
2.0389647,6.73916,3.9662108,3.6363769,5.923242
2.692285,6.8592772,4.87832,4.4203124,5.877588
3.6051269,7.021631,5.5470214,5.0333495,6.1307616
5.181787,6.8805175,6.353418,5.424707,6.255029
5.8268065,7.0086913,6.831445,5.157129,6.3841796
5.3143554,7.421533,7.143701,5.0194335,6.3790526
5.932031,7.1041503,6.147363,4.5475097,6.176172
5.997461,7.1358886,5.6253905,4.463037,5.8683105
5.58999,6.845361,5.405908,4.492334,5.799707
4.770654,6.900293,4.6095214,4.386865,6.0018554
4.101709,7.3614745,4.3546386,4.0470214,6.469873
3.653955,7.7745605,3.9791503,3.5716796,6.6563964
3.3561034,7.8263183,3.733789,3.3695312,6.7933593
3.0692382,7.4083495,3.9835448,3.1283202,6.5804687
2.863916,7.4879394,3.7486815,3.5609374,6.3456054
2.7101073,7.2645507,3.4945312,3.657373,5.5318847
2.9271483,6.892236,3.3021483,3.511621,5.716455
2.9693847,6.964746,3.3421874,3.2125487,5.955957
2.8060546,7.0111327,3.1495605,3.4867187,5.8304687
2.671289,6.921045,4.18667,3.7081542,5.7538085
2.6986327,6.938867,4.019922,3.9549804,5.6686034
2.757959,6.806543,4.2691894,3.9227538,5.527002
3.6844726,6.9452147,4.957666,4.294336,6.120996
4.3634276,7.2865233,6.2572265,4.8802733,6.8563476
5.005029,7.7660155,6.485498,5.9427733,7.439111
6.438623,7.926416,6.333154,5.936914,7.940332
6.814111,8.116358,6.4046874,5.952295,8.238916
6.3458495,8.326807,6.882959,6.0194335,8.133692
5.3717284,8.568262,6.5509276,6.1046386,7.9430175
5.349756,8.489893,6.266504,5.9986815,7.891504
4.803369,8.389551,6.160547,5.9305663,7.834375
4.6014647,8.489649,6.041406,5.6180663,7.734033
4.31167,8.38418,5.5838866,5.4637694,7.8495116
4.213037,8.19961,5.255029,5.36416,7.579492
4.218408,8.236231,5.160791,5.225488,7.4642577
4.197656,8.153711,5.0594726,5.2835937,7.2875
3.7284179,7.93667,4.8993163,5.12124,7.216455
3.532373,8.034327,4.8436522,5.0104003,7.0943847
3.6170897,7.7118163,4.690332,4.803125,6.9969726
3.8023925,7.412256,4.6549315,5.023584,6.942529
3.976709,7.596582,4.843408,5.275781,6.955713
3.9171386,7.6063476,5.055078,5.013574,6.8788085
4.0580077,7.671045,5.087793,4.3983397,6.911279
4.389795,7.6839843,5.1305175,4.525781,6.757959
4.2760253,7.6007323,5.0128417,4.501123,6.701074
4.0104003,7.5833983,4.9444823,4.500879,6.5020995
4.2447753,7.5138183,5.4469237,5.3478026,6.6859374
4.9085937,7.642236,6.2540526,6.397363,7.178125
5.579004,7.9237304,7.2330565,7.164209,7.9898925
6.5643554,8.514551,7.5106444,7.769922,8.550928
7.4989257,8.772608,8.586817,8.219385,8.934717
8.277735,8.977442,9.198633,8.392725,9.127344
8.106836,9.270166,9.660791,8.651514,9.354883
8.027246,9.353418,8.953028,8.432032,9.346582
7.5389647,9.382471,8.731592,7.582666,9.258936
7.3160644,9.445459,6.938867,6.752832,9.074366
6.3905272,9.3675785,6.152002,6.1688476,8.550928
5.1771483,8.754297,5.2298827,5.2330565,8.047998
4.2467284,8.414698,4.985498,4.317529,7.728662
3.7228026,8.2096195,4.5594726,3.9205565,7.0804687
3.664453,7.985742,3.851953,3.8058105,6.9847655
2.990869,7.8246093,3.424951,3.2923827,7.242578
2.5033202,7.801904,2.5379882,2.1441894,6.8705077
1.8561035,7.850244,1.8036133,1.3792969,6.636865
1.3514649,7.6561522,1.1610352,1.044336,6.3443847
0.9964844,7.3907714,0.93496096,0.39907226,6.0265136
0.62954104,7.1966796,0.73720706,0.24379882,5.549707
0.036035158,6.9603515,0.32045898,-0.28476563,5.334375
-0.13339844,6.5765624,-0.06015625,-0.46323243,4.801904
-0.08164062,6.3392577,0.093408205,-0.15073243,5.1219726
1.0106446,6.329004,1.3658692,1.2418457,5.6031737
2.2088866,6.577295,2.858789,2.690332,6.0924315
3.5924315,6.796533,4.485498,4.0353026,6.7210937
4.8021483,7.1654296,6.0406737,5.230615,6.9676757
5.645166,7.3026366,7.0768065,6.1444335,7.1114745
6.0665526,7.4498534,7.3893065,6.959863,7.2401366
6.5174804,7.3233886,8.070948,7.7657714,7.3822265
7.0123534,6.737451,8.046289,8.24502,7.33291
6.862451,7.148584,7.99917,8.184229,7.408838
6.429834,7.20791,7.859033,7.6061034,7.0233397
5.0421386,7.3458495,6.9500976,7.1148925,6.7169433
4.1166015,7.4479003,6.0858397,6.2486815,6.202783
3.8351073,7.365625,5.4864745,5.3785644,6.0467772
3.048242,7.2777343,4.551904,5.131738,6.228418
1.7569824,7.3924804,4.1683593,4.737207,6.192285
1.1795899,7.405664,4.046289,3.9696288,6.0855956
0.8839356,7.361963,3.3368163,3.112207,5.60708
1.0699707,7.2137694,2.343164,2.5450683,5.1270995
0.7247559,7.1634765,1.6187989,2.3072753,4.8861327
1.0233399,7.430078,1.0816895,1.9669434,4.3495116
0.6444336,7.2711425,0.5741211,1.6185547,5.0992675
-0.7222656,6.912256,-0.37314454,1.3280274,5.504785
-1.3797363,7.0875487,-0.65341794,0.27236328,5.393213
-0.10654297,7.6515136,0.14199218,1.3219239,5.0804687
2.0299315,7.8873534,1.9400879,2.4625487,6.1810546
3.5802245,8.058008,3.1551757,3.2479491,6.8961425
4.664453,7.8436522,4.48208,3.9481444,6.9916015
5.2003417,7.3426757,5.3441405,4.6649413,6.6722655
6.0545897,7.3055663,6.557031,5.9757323,6.988916
5.9256835,7.119043,7.3072753,7.2711425,7.063623
5.665918,6.8248534,7.1412597,6.361963,7.433252
5.6776366,7.185205,6.438379,6.476953,7.332666
5.299463,7.410547,6.6515136,6.4225097,6.827539
4.647363,7.315088,6.4930663,6.0956054,6.754541
4.660791,7.4969726,6.2015624,6.1222167,6.58999
4.400537,7.7435546,5.8092284,5.8458495,6.643457
4.3229003,7.6969237,5.3443847,5.626611,6.713281
4.2816405,7.9034667,5.43374,5.739404,6.9620605
4.2208495,8.236719,5.552881,5.7108397,7.3404784
4.1341796,8.527246,5.7486815,5.731836,7.6043944
4.065332,8.638575,5.969873,5.669336,7.8629394
4.086084,8.750879,6.221582,5.525537,8.046289
4.3575683,8.897364,6.5157714,5.71499,8.222803
4.6600585,8.990625,6.777002,5.9203124,8.426905
4.9503417,9.201075,6.9156737,6.3614745,8.611963
5.2257323,9.550196,7.0162597,7.267236,8.662012
5.5296874,9.306055,6.994043,7.458154,8.492334
5.910547,9.2721195,7.2398925,7.7816405,8.42251
6.3583007,9.33169,7.769922,8.217432,8.998194
7.2296386,9.461573,8.510401,8.484522,9.452295
7.8404784,9.3658695,9.142481,9.098291,9.421778
8.168604,9.366114,9.223291,9.389307,10.034082
8.537256,9.301905,9.1957035,9.55459,10.618311
9.577539,9.382959,9.171045,10.184229,10.810938
9.798975,9.501612,9.276758,10.120264,11.204737
9.977198,9.652246,9.455225,9.903467,11.662989
9.734278,9.806055,9.462061,9.786524,11.734034
9.189112,10.076563,9.401026,9.429102,10.947168
9.272852,10.168116,9.229883,9.008936,10.096338
8.979395,9.9457035,9.132471,7.709131,9.504297
8.376368,9.458399,8.021631,7.4469237,9.128809
8.0880375,9.260401,7.579492,7.271875,8.371241
7.8058105,9.041651,7.457666,7.0074706,8.122461
7.699365,8.950586,7.3407226,6.7555175,7.973047
7.771875,9.08584,6.9850097,6.4808593,7.8595214
7.876611,9.321924,6.7191405,6.285791,7.8055663
7.9100585,9.409082,6.486963,6.2225585,7.8888183
7.8614745,9.4925785,6.483545,6.159082,8.777491
7.6998534,9.675928,6.41958,5.990869,9.347559
7.535547,9.6542,6.4706054,6.1864257,9.340479
7.403955,9.63711,6.5697265,6.238672,9.381006
7.5453124,9.68667,6.6810546,6.3998046,9.421289
7.8114257,9.892237,6.8409667,6.7606444,9.658106
8.0394535,9.954004,7.2628417,7.3299804,9.9474125
8.454248,10.038965,7.650781,7.891992,10.07168
8.861719,10.147364,8.097071,8.240381,10.413965
9.151026,10.269434,8.656885,8.676661,10.619776
9.668604,10.268702,10.120508,9.305811,10.65835
10.02627,10.270411,10.838282,10.288721,10.469385
10.342188,10.320215,11.282129,10.718164,10.42544
10.333643,10.322168,11.247461,10.934961,10.524561
10.125635,10.282129,10.997705,10.658594,10.474024
9.947168,10.412012,10.413233,10.433496,10.324366
9.649561,10.501856,9.973047,9.978174,10.250391
9.670313,10.308985,9.815088,9.590479,10.079493
9.527979,10.368067,9.830469,9.516504,9.959375
9.30044,10.307276,9.90127,9.54458,9.998926
9.219629,10.546289,10.012842,9.501856,9.984278
9.085596,10.458643,10.162256,9.570215,10.113916
