"[299, 255]","[227, 248]","[287, 319]","[279, 328]","[230, 262]"
13.358057,13.509668,14.326563,13.924952,13.622217
13.225,13.428125,14.308008,13.7130375,13.368799
13.120752,13.557764,14.188379,13.471827,13.399317
13.101465,13.382227,14.178614,13.307032,13.38418
12.682764,13.204248,14.340967,13.251612,13.1505375
12.2564945,12.88711,14.026758,12.939356,12.887842
11.954004,12.9396,13.362452,12.860498,12.884668
11.989161,13.202051,13.221827,12.64834,13.058008
12.320948,13.056055,13.469873,12.880274,13.002588
12.978174,12.738428,13.590967,12.922998,12.89419
13.373926,12.608789,13.17251,12.8224125,12.868555
13.972315,12.56045,13.190088,13.310938,13.2442875
14.567286,12.624903,13.087549,13.607325,13.561182
14.551172,12.631739,13.182032,13.983545,13.974268
14.189112,12.662989,13.361475,13.78042,13.707911
13.606592,12.709375,13.457911,13.40542,13.484278
13.133448,12.520899,12.938379,12.776758,12.973047
12.723536,12.278223,12.141504,11.923731,12.402735
12.4942875,12.18545,11.894434,11.556299,12.103418
12.3417,12.093409,11.798731,11.393457,11.987696
12.081446,12.052881,11.615625,11.139063,11.926416
11.555811,11.956202,11.285303,11.036768,11.859278
11.571436,11.8849125,11.061426,10.936914,11.70083
11.585108,11.745508,10.9786625,10.462793,11.544336
11.558741,11.731348,10.731836,10.093164,11.514063
11.533594,11.757471,10.551172,10.106104,11.517237
11.450098,11.581934,10.488184,10.172266,11.495752
11.345362,11.435205,10.587793,10.155176,11.51333
11.188868,11.413477,10.618067,10.201807,11.513086
11.138575,11.387842,10.47085,10.236475,11.512842
11.141748,11.368799,10.543848,10.149561,11.423487
11.088526,11.520899,10.623438,10.294336,11.176905
11.325586,11.645655,10.531397,10.441553,11.385401
11.747461,11.375879,10.525293,10.433741,11.502344
12.483789,11.300196,10.50503,10.315088,11.36709
12.591944,11.329737,10.538477,10.217676,11.379541
14.019434,11.502588,10.635645,9.736719,11.409082
14.684473,11.542871,10.563135,9.741114,11.30044
14.457178,11.518702,10.369532,9.786768,11.386866
14.456202,11.270655,10.491602,9.857325,11.334864
13.723047,11.318018,12.200586,9.521631,11.892237
12.70669,11.666895,10.683008,9.679102,11.586084
11.856836,11.936182,9.883448,9.482569,11.3536625
11.133692,12.260889,10.062647,9.122461,11.584131
10.751612,12.280176,10.447901,8.993067,11.782129
10.849756,12.274805,10.205225,9.373682,11.747217
10.539942,12.239649,10.708155,10.041651,11.788965
10.339258,12.219873,10.941309,10.596094,11.769922
10.1817875,12.210596,10.744776,10.434717,11.745996
9.676661,12.11294,10.571192,10.299463,11.653223
9.6939945,11.9942875,10.500635,10.206934,11.534815
9.628565,11.92251,10.614893,10.066065,11.457666
9.530664,11.860987,10.580713,9.657618,11.3692875
9.45669,11.86294,10.245996,9.195215,11.382959
9.489161,11.849512,10.104151,8.757471,11.375391
9.663721,11.8988285,10.277491,9.11709,11.501368
10.269922,11.964502,10.978907,10.086084,11.87295
11.190088,12.035303,11.460108,10.849512,12.26626
12.142969,12.162012,12.221827,11.474756,12.940821
12.483789,12.282373,12.739405,12.015284,13.780909
12.771143,12.554346,13.080225,12.546045,13.827295
12.8832035,12.745996,13.448877,12.622461,13.957666
13.236475,12.423731,13.372461,11.654932,13.277246
13.06167,12.134668,12.73501,10.341455,12.741114
12.627588,12.099512,11.124903,10.763086,12.35
11.473536,11.892481,10.373926,10.171045,11.746973
10.836817,11.743067,9.740625,9.3033695,11.446924
10.132715,11.564356,9.329248,8.688379,11.269678
9.354639,11.4317875,9.034327,8.527246,11.009424
8.92251,11.149561,8.940577,7.830957,10.448877
8.835108,10.783838,8.356104,7.5992675,9.751368
8.196192,10.744532,7.707422,6.869287,9.673975
7.9652343,10.866846,7.537256,6.0069823,9.665918
8.142969,11.018457,7.2696776,5.516504,9.613184
8.053125,11.119043,7.614404,5.5160155,9.192041
7.86416,11.153467,7.752588,6.225488,9.544336
8.041407,11.153467,7.84707,6.206445,9.7564945
8.393213,11.017969,7.910547,6.6720214,9.702295
8.705957,11.059961,7.8980956,6.8575683,9.713526
8.625147,11.172998,8.229639,7.341699,9.833643
9.998194,11.196924,9.286036,8.099756,10.746729
11.276514,11.399317,10.265039,9.185938,11.6314945
11.561426,11.516993,10.94375,10.429346,12.417383
12.434961,11.679102,11.637842,11.746485,12.71084
13.420801,11.813623,12.856836,12.604639,13.466211
13.714258,11.896143,13.269434,12.570215,13.4752445
13.455957,11.732325,12.357325,12.6939945,13.567774
13.609278,11.557032,12.421045,13.178614,13.15542
12.965967,11.475733,12.415186,12.954981,12.518213
12.159327,11.417871,11.413233,11.480371,11.019434
11.345362,11.404932,10.047998,10.580713,9.306055
10.539698,11.340479,9.832178,9.912256,8.731592
10.240625,11.2599125,9.418848,9.716944,8.088282
9.83169,11.0238285,8.9144535,9.313623,7.584131
9.5917,10.912256,9.155664,8.971094,7.411279
9.472803,10.853174,8.672754,8.562403,7.381738
9.53335,10.864161,8.118067,8.05044,7.537256
9.583643,10.772608,7.8663573,7.6722655,7.4330077
9.673243,10.624414,8.026758,7.7730956,7.0909667
9.876123,10.60293,8.212061,8.15127,7.0782714
10.000635,10.488916,8.760401,8.487696,6.9117675
9.924463,10.420557,9.143702,8.840967,6.6961913
10.048487,10.464258,9.429346,8.882959,6.6773925
10.339014,10.623926,9.653467,9.190577,7.209619
10.828516,10.826807,10.226709,9.910791,8.953272
11.7096195,11.349512,11.461817,11.189112,11.027491
11.675196,11.847803,12.416407,12.593653,12.817041
12.177637,12.167383,12.514307,12.892237,13.622705
12.683496,12.490381,13.949366,12.179834,13.886866
13.626612,12.817774,13.639063,12.966211,14.2286625
13.835596,12.844385,12.961084,13.026758,14.404688
13.138575,12.912256,13.046289,12.816065,13.975733
12.98794,13.075098,13.441065,12.748194,13.466211
12.8675785,12.898584,13.269922,12.577295,12.725489
12.683496,12.630762,13.001856,12.529932,11.940088
12.784815,12.649317,12.725489,12.537989,11.747217
12.588282,12.811182,12.423975,12.326807,12.206202
12.129297,12.896143,12.424952,12.069971,12.67251
11.82583,12.934717,12.290918,11.937403,12.905176
11.732813,13.04751,12.281885,12.07583,12.966211
11.998438,13.094385,12.257471,12.136377,13.009668
12.014795,13.057764,12.076075,11.947657,12.9457035
12.045557,13.325586,11.780176,11.476465,13.127832
11.854883,13.65127,12.07461,11.684717,13.8189945
11.708155,13.703028,12.302149,11.94253,14.17544
11.782862,13.655909,11.902246,11.997705,14.121973
11.641016,13.640772,12.016748,12.129053,13.958643
11.858057,13.547022,12.363672,12.391748,13.975
12.474268,13.479639,13.45083,12.849756,14.090723
13.297266,13.296045,14.639795,13.632227,14.335596
14.01626,13.197168,15.483057,14.622705,14.06753
14.555323,13.221827,16.087305,15.26211,13.884668
14.638575,13.245752,16.442286,15.945948,13.893946
14.637842,12.715723,16.12295,15.765039,12.829248
14.64126,12.19668,15.526514,14.885889,11.8658695
14.026026,11.993067,14.300684,14.726465,11.450342
13.343897,11.817774,13.871485,14.111719,11.154688
12.768946,11.951075,13.759424,13.704248,11.066065
12.061182,12.152491,13.265772,12.2792,11.447901
11.109522,12.089991,12.145166,11.577539,11.60293
10.6939945,11.822901,11.401514,10.998682,11.457178
10.897608,11.665918,11.448633,11.175196,11.3050785
11.054346,11.51211,11.653711,11.298487,11.341211
10.954981,11.632959,11.611719,11.285059,11.302881
10.716211,11.630762,11.587305,11.249659,11.151514
10.699121,11.589014,11.522364,11.208643,11.069483
10.715235,11.580225,11.337793,11.099756,10.925196
10.725733,11.546778,11.334864,10.85293,10.788477
10.738672,11.448145,11.018457,10.615137,10.6019535
10.6349125,11.421045,10.866114,10.628809,10.724512
10.502588,11.550684,10.3363285,10.379053,10.812159
10.611963,11.736719,10.186182,10.395899,11.03042
10.861963,11.929102,10.528223,10.625635,11.54751
11.329981,11.852686,11.352198,11.532862,11.889063
11.806055,11.895899,11.887354,11.9127445,12.141016
12.864893,12.104639,12.535059,13.071192,12.562647
12.957422,12.324121,12.988428,13.142481,12.770411
12.594873,12.447901,12.506983,12.656641,13.210596
13.2875,12.296778,12.655664,12.128321,13.389551
13.491846,12.239405,12.594385,12.542383,13.1471195
13.026026,12.379541,12.307276,12.27334,12.613672
12.087549,12.331202,11.704248,11.524317,12.289942
11.48208,12.321436,11.16128,10.6661625,12.0255375
11.503077,12.724756,10.975977,10.596582,12.041407
11.5021,12.771875,10.787989,10.391504,12.390528
10.976221,12.840479,10.9005375,10.1939945,12.592188
10.568018,12.976709,11.120996,10.282373,12.691309
10.763086,13.207666,11.458155,10.916651,13.048243
10.813868,13.356104,11.280176,10.87295,13.355127
10.837305,13.516993,11.157373,10.757471,13.53335
10.909815,13.642481,11.527246,11.035547,13.846338
10.798243,13.8050785,11.603907,11.239649,13.999903
10.713526,14.021387,11.555323,11.123682,13.826319
10.950342,14.0646,11.468409,10.990137,13.764307
11.176172,13.766748,11.714258,11.408838,13.359522
11.279688,13.97085,11.910547,11.298487,13.605616
11.285303,13.902979,11.986719,11.421534,14.302637
11.4630375,13.870752,12.4786625,11.7408695,14.089746
11.897608,13.628565,12.741846,12.4942875,13.911036
12.133448,13.57168,12.911768,12.674219,13.741846
12.435938,13.6332035,13.267237,12.810938,13.696436
12.404444,13.90127,13.691065,13.135889,14.073633
12.481348,14.120752,13.997217,13.412256,14.4042
12.738184,13.921289,14.064356,13.462061,14.237207
12.864893,13.656397,13.941309,13.508448,13.757227
12.176905,12.829981,13.15127,12.748438,12.715479
11.335596,11.947901,12.128077,11.91543,11.326807
10.497217,11.676416,11.755274,11.408838,11.119532
10.13003,11.398584,10.597071,10.487696,10.659815
9.239893,11.1957035,9.45669,9.465235,10.524317
8.892481,11.288965,8.839014,8.851221,10.386866
8.712549,11.11709,8.793116,8.803858,9.919825
8.333887,10.871241,8.378565,8.743799,9.5064945
7.665918,10.811914,7.929834,8.318262,9.097803
7.1498046,10.645899,7.8683105,7.9027343,9.206446
6.820459,10.4042,7.631494,7.8617187,8.642237
6.4378905,10.29458,7.6793456,7.8666015,8.279932
6.3526855,10.1896,7.3026366,7.3351073,8.066309
6.0267577,10.340723,7.161279,6.973535,7.8419433
6.1270995,10.38711,7.3043456,7.1441894,8.071924
6.9010253,10.245264,8.042871,7.9276366,9.10708
7.5851073,9.8363285,8.506006,8.481836,9.586817
7.883203,10.069971,9.329493,8.899073,10.36001
8.6036625,10.120508,9.87295,9.837305,10.593409
9.228174,10.3771,9.672266,9.401758,10.361719
8.911768,10.593653,10.195948,8.880518,10.355616
8.873926,10.226221,8.420313,8.651514,10.892237
8.849024,10.291407,8.598536,8.891504,10.555811
7.7586913,10.660303,8.813868,8.67959,10.043604
7.3910155,10.229639,7.6637206,7.6964355,8.97085
6.676416,10.447657,6.661279,6.778955,8.264063
5.9862304,10.668116,6.327295,6.523828,8.075586
5.8583007,10.523584,5.9623046,5.95083,8.066065
5.74624,10.417871,5.475244,5.5763183,7.1639647
5.145654,10.295801,4.9532714,5.3802733,7.346826
4.9378905,10.221582,4.4969726,5.0770507,8.031397
4.7833495,10.146143,4.4706054,4.8199706,7.3739257
4.6129394,10.001368,4.221582,4.4156737,6.730371
4.0975585,9.868799,4.2818847,3.8077636,5.872949
3.836328,9.928125,4.5509276,3.3385253,5.6007323
3.4273925,9.891016,4.8202147,3.1190429,5.5248046
3.1981444,9.878809,5.1512694,3.2499022,6.0785155
3.2896972,9.771875,5.1656737,3.6493163,5.129541
4.2276855,9.864893,5.45791,4.2677245,5.9205565
5.558252,9.817774,6.189111,5.56167,8.284082
6.6983886,9.853907,6.981836,6.9098144,9.564356
7.791406,9.887598,8.084131,8.048731,10.236719
8.501368,9.944971,9.2286625,8.652735,10.8814945
9.103418,10.045801,10.269678,9.7425785,11.394922
9.515528,10.097315,10.729151,10.420313,11.5238285
9.809229,10.165918,10.891504,10.677637,11.347071
9.86001,10.271143,10.5707035,10.451807,10.81875
9.671045,10.429834,9.7286625,10.1817875,10.084375
8.910059,10.65127,8.228907,8.628565,9.076563
7.153955,10.303614,6.6583495,7.1568847,7.7953124
6.7899413,9.9769535,5.7958007,6.131494,7.184961
6.4710937,9.8417,5.3509765,5.580957,6.827295
6.1581054,9.7911625,5.4815917,5.4554687,6.8409667
6.199365,9.837549,5.5572753,5.3055663,6.737451
5.8126464,9.861719,5.5904784,5.0052733,6.4745116
5.457422,9.862207,5.852197,4.916406,6.4312987
5.072412,9.696436,5.072656,4.6930175,6.365381
4.6529784,9.577784,4.71499,4.391992,6.244043
4.320703,9.523584,4.680078,4.044824,6.2801757
4.164453,9.477686,4.6791015,3.7535644,6.0055175
4.116113,9.390528,4.391748,3.6187987,6.095361
4.122705,9.348047,4.393701,3.6976562,6.316797
4.721826,9.407862,4.9688964,4.397119,6.8788085
6.0943847,9.673975,7.1500487,6.131494,8.285547
7.2777343,9.965967,9.07461,7.889795,9.653223
8.421534,10.274561,9.65542,9.271875,10.058008
9.336817,10.655176,9.877588,9.68545,10.627588
9.904932,11.120752,10.038721,9.660791,11.069971
10.183252,11.479151,10.205713,9.795313,11.308252
10.3050785,11.627344,10.190821,9.929102,11.112207
10.019434,11.627588,9.988672,10.073877,10.718409
9.491602,11.629541,9.589502,9.72378,10.5021
8.680567,11.713282,9.138086,9.169092,10.254786
8.172022,11.566065,8.842188,8.650293,10.044825
8.045313,11.448389,8.619043,8.403711,9.98794
7.9674315,11.247461,8.452539,8.093897,9.863428
7.754785,10.9283695,8.242334,7.789697,9.503809
7.1480956,10.781153,7.929834,7.631006,9.202784
6.734033,10.780176,7.796533,7.5069823,9.202295
6.570459,10.795557,7.728662,7.421289,9.188379
6.556787,10.913233,7.4190917,7.3282714,9.004297
6.56167,10.9317875,7.1134276,7.2003417,8.594873
6.365381,10.985254,6.646631,6.9710937,8.281641
6.1424804,11.14834,6.5660644,6.80166,8.5377445
6.211328,11.324366,6.723779,6.6251464,8.646875
6.173242,11.449854,6.8736815,6.4620605,8.662012
6.678125,11.478174,7.4659667,6.8492675,9.342432
7.414453,11.5021,8.711084,8.054102,10.290674
8.236475,11.692286,10.393457,9.5550785,11.047266
9.469629,11.931543,11.17251,10.732569,11.827539
10.378809,12.088282,11.936914,11.971094,12.558252
10.6158695,12.003565,12.327051,11.901758,12.777002
10.575342,12.420069,12.482569,12.177637,12.464746
10.3771,12.570459,12.408594,12.165186,13.001612
10.571192,12.4396,11.732569,11.771875,12.331934
10.331446,12.472315,10.94253,11.061182,11.665918
9.454737,12.469873,10.119043,9.982569,10.98086
8.581934,11.4474125,9.33169,8.940821,10.458643
8.5255375,11.802881,8.513819,8.197657,10.409082
8.257227,11.875147,8.003077,8.0099125,10.139307
8.019678,11.699854,7.8580565,7.8805175,9.637598
7.6476073,11.495264,7.450586,7.518457,9.605127
7.2813964,11.245264,7.3976073,7.2257323,9.138819
7.149072,11.04043,7.1759276,7.1078124,9.2875
6.7293944,10.813379,7.0399413,6.9583983,8.896875
6.615869,10.824854,6.9183593,6.7328124,9.021875
6.7135253,10.850977,6.8219237,6.6205077,8.969873
6.7625976,10.801661,6.657861,6.664697,8.914698
6.9808593,10.960596,6.5194335,6.6427245,9.07168
6.9688964,11.045069,6.541406,6.6722655,9.208155
7.338037,11.137598,7.145166,7.002588,9.489405
7.850488,11.189356,8.0550785,7.9933105,9.888819
8.669825,11.442774,9.13418,8.903223,10.477686
9.224756,11.286768,9.783106,9.687403,10.754053
9.326563,11.030664,10.378565,9.775293,11.017969
9.674952,11.496485,11.334864,10.6175785,11.125879
9.905176,11.687891,11.372461,11.010645,12.633936
10.04751,11.6627445,11.27627,10.837061,12.452784
10.208887,11.6542,11.250391,10.846094,11.902002
10.080469,11.466455,10.589258,10.115625,11.207422
9.2130375,11.205713,9.733789,9.289942,10.547022
8.953028,10.932032,9.194971,9.020166,10.194239
8.768702,10.981348,9.069727,8.845362,10.002832
8.290674,10.819971,9.010157,8.792139,9.932764
8.05752,10.920801,8.886133,8.6314945,9.826075
7.205713,10.764307,8.739649,8.542627,9.757715
7.160547,10.68667,8.525293,8.207422,9.710352
6.7342772,10.657862,8.444483,8.1349125,9.586817
6.432031,10.597315,8.502588,8.236719,9.5689945
6.3248534,10.554834,8.45669,8.216944,9.388575
6.2279296,10.574121,8.349024,8.207422,9.331202
6.1737304,10.614405,8.245264,8.128077,9.338526
6.016992,10.592188,8.244532,7.9061522,9.34878
5.9972167,10.556055,8.13833,7.7452636,9.14834
6.2594237,10.5707035,8.120264,7.9486327,9.560694
6.9674315,10.863428,8.375635,8.366846,10.054102
7.6512694,11.054834,8.589258,8.7521,10.63418
7.948877,11.156641,8.970362,8.702539,10.871729
8.422754,11.192774,9.509424,8.788477,10.803614
8.719629,10.771387,9.949854,9.405909,10.488916
9.156397,10.809717,9.523096,9.779932,10.438623
9.171534,10.906885,9.967432,9.951075,10.329248
8.581446,10.972071,9.985254,9.796534,10.235254
8.257715,11.035791,9.614893,9.621729,10.179102
8.194483,11.096338,9.0846195,9.123194,10.265772
8.422998,11.076075,8.930323,8.8988285,10.269434
8.446192,11.065821,9.077539,8.892725,10.423975
8.384424,11.207911,9.219141,8.862452,10.3146
8.353418,11.645411,9.238428,8.933252,9.335352
8.399561,11.485743,8.876123,8.507715,8.541407
8.396875,11.266993,7.973047,7.290918,8.340967
8.296289,11.113428,6.661035,6.6117187,8.14126
7.866113,10.980371,5.683496,6.1480956,7.345117
7.2535644,10.955713,5.348779,5.5628905,7.041406
6.943506,10.8502445,5.418115,5.2767577,6.435449
6.8827147,10.770411,5.5836425,5.4288573,6.448877
6.8565917,10.819239,5.7135253,5.074121,6.647119
6.382959,10.701319,5.739404,5.0475097,6.5626464
5.789697,10.180323,6.591699,5.907617,7.532129
6.391748,10.419336,7.8595214,7.1705565,9.423243
7.619287,11.021631,8.850733,8.875879,10.596827
9.04336,11.332422,9.737452,10.355616,11.170801
10.216944,11.365381,10.638819,11.283594,11.727198
11.059229,11.607813,11.0394535,11.433008,11.643946
11.664942,11.684229,10.979883,10.878321,11.334375
12.064112,11.756006,10.596338,10.744776,11.488184
11.760645,11.694727,9.792627,10.118067,11.722803
11.21084,11.74917,9.836084,10.520899,11.715967
10.640039,11.635401,10.034815,10.602442,11.066797
9.974756,11.659327,9.988184,10.148096,10.760889
9.6158695,11.628321,9.931299,9.816553,10.7269535
9.401026,11.581934,9.97085,9.584131,10.609766
9.096827,11.503321,9.383936,9.570459,10.4942875
8.907373,11.326075,9.084864,9.216455,10.288965
8.982325,10.909815,9.250147,8.838526,9.903223
9.050684,11.18545,8.898096,8.390039,9.737696
8.990625,11.139795,7.9842772,8.106836,9.899317
8.931055,10.899561,7.574365,7.7640624,10.0292
8.883448,10.603907,7.198877,6.9322753,9.881006
8.787989,10.396631,7.641504,6.5907226,9.650293
8.639307,10.6644535,7.8080077,6.4393554,9.423487
8.670557,10.743067,7.851953,6.581445,9.337061
8.82168,10.909327,8.4630375,7.0868163,9.592188
9.4630375,10.959864,9.271631,8.624659,10.549707
10.65835,11.228174,9.915918,10.290186,11.231592
11.130518,11.64419,10.38833,10.959131,11.834375
11.971094,12.018702,10.982813,11.447901,13.170313
12.489649,12.145655,11.361475,12.497461,13.598536
13.172998,12.282129,11.624414,12.841211,13.809961
13.4474125,11.954004,11.946924,13.156153,13.717676
13.390528,11.960596,12.072657,12.88125,13.406885
13.1019535,11.980616,11.814844,12.292871,12.953516
12.423975,11.898096,11.088526,11.526758,11.8658695
11.508936,11.946192,9.66128,10.012354,9.883692
10.798975,11.92251,8.9144535,9.172022,9.345606
10.299219,12.075586,8.628321,8.714991,9.396875
9.760889,12.466944,8.385889,8.432276,9.556299
9.615625,12.5646,8.564844,8.1644535,9.363428
9.54043,12.47085,8.583399,8.106836,9.329004
9.206446,12.271631,8.493311,8.198389,9.319727
9.086817,12.2792,8.235987,8.120508,9.458399
9.061426,12.375879,8.227686,7.848779,9.557032
8.811426,12.3067875,7.9479003,7.838281,9.31753
8.582666,12.263819,7.650781,7.555322,9.396143
8.423487,12.221338,7.3202147,7.3666015,9.451075
8.2425785,12.175196,7.3263183,7.25332,9.528955
8.733301,12.218897,8.269434,8.183008,10.298975
9.892725,12.609278,10.221094,9.850733,11.626123
11.062159,12.902246,12.592676,11.931299,12.764551
12.097071,13.394434,13.916407,13.335596,13.697168
13.0550785,13.906885,14.867334,14.526758,14.641748
13.876123,14.356592,15.497461,15.406153,15.230371
14.2252445,14.603418,15.809717,15.844873,15.576075
14.140528,14.72378,15.9144535,15.934717,15.666407
13.773584,14.930811,15.584375,15.623438,15.540918
13.225489,14.916895,14.614405,14.643213,15.185694
12.687891,14.791895,13.343653,13.270411,14.81167
12.140772,14.585108,12.5846195,12.197901,14.243799
11.61294,14.376123,12.654444,11.864893,13.963526
11.484766,14.269434,12.540186,11.729395,13.900049
11.34878,14.215723,12.110498,11.50625,13.8189945
11.319239,14.29043,11.753077,11.436914,13.807764
11.204493,14.461084,11.566797,11.546534,13.983057
11.129786,14.519678,11.59585,11.55752,14.220606
11.109034,14.452539,11.533106,11.780909,14.808008
11.216211,14.486963,11.579004,12.059473,15.078516
10.982325,14.541407,11.609278,11.951075,15.132715
10.767969,14.458399,11.627832,11.801661,14.924219
10.820459,14.224512,11.789209,11.663477,14.459131
10.63003,14.013575,12.042383,11.7167,14.275293
10.742823,12.906641,12.552149,12.093653,13.192041
11.1896,11.085108,13.198633,12.6505375,10.407129
11.193018,10.558252,13.700586,13.289942,9.692774
11.185694,10.457911,12.839991,12.830469,9.0099125
11.434473,10.692041,11.722315,10.737452,9.667139
10.201807,11.446436,9.118311,8.890772,11.260401
8.575586,11.253077,8.217432,8.011621,11.87295
8.744043,10.846582,8.570948,8.63003,11.356592
8.669336,10.978418,9.574854,9.871973,11.067041
8.8849125,10.9752445,9.515284,9.912989,10.609522
8.283594,11.019922,8.65835,8.955469,9.964746
7.0399413,11.074854,7.973047,8.048487,9.422998
6.3663573,11.044825,7.619531,7.6219726,9.330469
5.747705,10.987696,7.5665526,7.464502,9.371241
5.813623,11.027002,7.376123,7.318506,9.44961
5.3614745,10.985498,6.9964843,6.931543,9.494532
5.0267577,11.100977,6.5350585,6.992822,9.6471195
4.8458495,11.024805,6.6131835,6.7677245,9.575098
4.5816894,10.938623,6.426172,6.3006835,9.923487
4.4791503,9.420557,6.7608886,6.2105956,9.035791
4.358789,9.639795,6.300195,6.1361327,7.0992675
4.2535644,9.379053,5.7923827,6.2328124,7.8871093
4.3595214,9.702051,6.2037597,6.155664,7.233789
4.4640136,9.310694,6.5978026,6.0611815,7.9205565
5.143945,9.722559,6.62124,6.237207,7.4347167
5.7970214,9.48794,7.060449,6.504297,9.208399
6.322656,9.663721,7.6898437,7.322168,9.651758
7.596826,10.251856,7.0711913,8.307032,10.549707
6.774072,10.383692,7.827783,8.172022,11.06045
6.3575683,10.408838,7.278711,7.6444335,11.401026
5.7733397,9.945459,6.970117,8.468897,11.556299
5.485254,10.268457,8.658106,9.25625,11.491846
5.904199,10.388819,9.10708,9.598047,11.146631
6.175195,10.35,8.9630375,9.910547,10.6896
6.153955,10.382959,7.8819823,9.212305,9.656885
6.089502,10.397852,6.6043944,7.153711,7.344629
5.7726073,10.408838,5.3021483,5.8541503,6.4745116
5.792871,10.4161625,4.8404784,4.961572,5.7325683
5.8788085,10.351221,4.322168,4.643457,5.4552245
5.9103026,9.792139,3.5980468,4.030664,4.7767577
5.969873,9.731104,4.445947,3.5716796,3.3773437
6.0365233,9.552393,4.648828,3.8407226,3.0077147
5.990625,9.229639,4.5853515,3.765039,3.44375
5.8978515,8.91958,4.2186522,3.9295897,2.6532226
5.957666,8.710108,4.3216796,3.7899413,2.0245605
5.896631,8.666651,3.9117675,3.6742187,2.6739745
5.881738,8.719873,3.8055663,3.5248046,2.7499022
5.782617,8.873438,3.8490233,3.9081054,3.3836913
5.782373,8.858545,4.6498046,4.6830077,5.8282714
5.988916,9.062159,5.65542,5.5348144,8.707178
5.9100585,9.618311,6.8355956,6.6219726,10.020411
6.2362304,10.228907,8.032129,7.8424315,9.60586
6.641748,10.465235,8.805567,8.765772,9.565821
6.40542,10.364405,8.570948,8.679346,10.5550785
6.11416,10.406885,9.067774,8.242334,10.522608
6.13125,10.379786,8.91128,8.243067,10.613672
6.225488,9.983545,8.268457,8.389795,10.536768
6.176172,10.439844,8.185205,8.241602,9.86709
6.193994,10.465235,8.047266,8.237207,9.337793
6.274072,10.338282,7.5594726,7.5262694,8.154688
6.2765136,10.289698,7.1461425,7.3751464,7.7264647
6.188867,10.297266,7.2679687,7.1253905,7.488916
6.1239257,10.240381,6.9444823,7.1009765,7.9347167
6.0606933,10.1644535,7.0155272,6.8304687,7.839746
6.067041,10.095118,6.978906,6.5301757,7.435205
6.1288085,10.116602,6.5577636,6.364404,7.2018065
6.2765136,10.19961,5.8841796,5.924707,7.4120116
6.0819335,9.9769535,6.4708495,6.421045,7.494043
5.9347167,10.013819,6.233789,6.2643065,7.5450683
5.689111,9.898584,5.5731444,6.2159667,8.121241
5.5301757,9.921045,6.140283,6.110498,8.30459
5.8231444,9.8814945,6.381494,6.297998,8.19253
6.1895995,9.718897,6.7645507,6.834375,8.706202
6.672998,9.91128,7.3924804,7.2760253,8.967676
7.6932616,9.283838,7.766992,8.44961,9.6644535
8.061914,9.065332,8.220362,8.609766,9.090967
9.063135,9.664698,8.800196,9.180323,9.683252
8.387842,9.972315,8.874903,9.7096195,10.511377
9.258448,10.431543,9.481348,10.032618,10.774805
8.350977,11.038233,9.604151,9.743799,11.048975
7.6625,11.3189945,9.245996,9.507959,10.814112
6.8875976,11.378077,8.42959,8.9127445,10.451319
6.423486,11.073633,7.204492,7.689111,10.057276
5.888574,10.980127,5.823877,6.2921386,9.565577
5.1092772,10.872217,4.930322,5.3097167,8.77627
4.8373046,10.425196,4.7003417,4.815576,8.644678
4.522363,9.832422,3.7308593,4.054834,7.649072
3.8070312,9.4667,3.2694335,3.6302733,7.68374
3.3285155,9.084131,2.9635253,3.4061522,7.0423827
2.834619,8.724756,3.320703,3.4015136,6.221826
2.4415526,8.198633,2.7906737,3.3387694,5.0145507
2.2484374,7.9015136,3.1734862,3.405908,3.9781737
2.0519042,7.8299804,3.0211425,2.9654784,4.0523925
1.9325196,7.845117,2.3739257,2.3583007,3.5228515
1.9305664,8.067041,2.2333007,2.028955,4.095117
1.7799317,7.539453,1.988916,2.0409179,4.369287
2.9168944,7.3336425,3.0025878,2.855371,6.4637694
4.4825683,7.4688964,4.639795,4.1830077,8.451075
4.9449706,7.8248534,5.766992,5.6270995,9.087549
5.7730956,8.200342,6.798242,7.0265136,9.227198
6.1441894,8.499903,7.7433105,7.829004,9.640284
6.855371,8.808252,8.502832,8.493799,9.886133
6.675195,9.16836,8.717188,9.281153,9.827051
6.971338,9.717432,7.719629,9.163965,9.539698
6.7835937,10.194971,7.861963,9.038477,9.308496
6.8790526,10.049707,7.950586,8.355127,8.882471
6.001367,9.640772,6.56582,7.6739745,8.1896
5.245752,9.233545,5.756006,6.346582,6.252588
4.3861327,8.888575,5.4295897,4.9901366,5.326074
3.9759765,8.563623,4.8854003,4.779199,4.6041503
3.4637694,8.230616,4.530664,4.3705077,4.4100585
3.1737304,7.975244,3.66958,3.874658,4.2916503
2.8700194,7.7489257,2.8851562,3.0660644,4.1527343
2.4510741,7.9256835,2.0216308,2.4037108,3.9476562
1.3868653,8.136621,0.6754395,1.9347168,2.318994
1.0406739,7.9220214,0.29506835,1.273584,2.362207
1.0672852,7.855127,1.1708008,0.8697754,2.556787
1.1234375,7.989404,1.0182129,1.1678711,3.016748
1.4283692,8.020899,1.0934082,1.3172852,3.2855468
1.6581055,7.8358397,1.4415528,1.5165039,3.7574706
2.3617187,7.671533,2.9471679,2.9554687,6.204492
3.421289,7.779199,4.8219237,4.5194335,7.9190917
4.9291015,8.135401,6.0626464,5.7677245,8.316797
5.8426757,8.808741,7.180322,6.9500976,8.535791
6.735742,9.046289,8.035303,7.9659667,8.995264
7.329248,9.0377445,8.686182,8.625391,8.934961
7.8697753,9.229883,9.0064945,9.118799,8.810938
7.756006,9.167383,8.742823,8.973291,8.523096
7.518701,9.066065,8.390284,8.60293,8.143946
6.8646483,8.925684,7.668115,7.982324,7.859033
6.209863,8.87002,6.9225097,6.8282714,7.4017577
5.5660644,8.556299,5.6319823,5.291406,5.7342772
4.900781,8.255762,4.6117187,4.3390136,4.839502
4.426904,8.085108,4.476953,3.8717284,4.863672
4.304834,8.178125,4.07583,3.8314452,4.939111
3.9825683,7.959375,4.136865,3.6334472,5.652246
3.6229491,7.9046874,4.2848144,3.7115722,5.286035
3.1595702,7.6356444,4.456445,3.3197265,3.8385253
2.9894042,7.4381347,3.8092284,3.19375,3.5223632
3.1563964,7.348535,3.6429687,3.8053222,3.3299804
2.0938964,7.37832,2.9120116,3.9137206,2.9918456
1.8041016,7.520654,2.1187987,2.7574706,2.8888183
1.8770996,7.3197265,2.379785,2.435205,2.471826
1.9046875,7.3998046,3.117578,2.8546386,2.3089843
3.3963866,7.6847167,3.9408202,3.8546386,4.1234374
5.1134276,8.2408695,5.3858886,5.2674804,6.4842772
6.1358886,8.559229,6.8373046,6.7242675,8.336817
6.95083,8.970118,8.174707,7.8893065,9.635157
7.7279296,9.537012,8.916895,8.724756,10.543848
8.344385,9.945948,9.587061,9.440821,10.991846
8.918848,10.217676,10.173487,9.981348,11.171045
9.35586,10.478174,10.485987,10.415186,11.146631
9.65835,10.736231,10.601709,10.544825,10.970118
9.587061,10.8067875,10.308252,10.139307,10.396631
8.7877445,10.684473,9.169092,9.113916,9.539209
6.8946776,10.439356,7.3614745,7.5682616,8.022608
6.077295,10.202051,6.4723144,6.7242675,7.0782714
5.737451,10.128321,5.6776366,5.9125,6.802881
5.5555663,10.208155,5.4171386,5.4032226,6.8126464
5.3875976,10.061914,5.191797,5.091699,7.183252
5.1354003,10.021875,4.862207,4.8094726,7.7657714
4.8514647,10.081446,4.59292,4.6812987,8.269434
4.622461,10.214258,4.727197,4.7853026,8.7130375
4.56875,10.42251,4.943994,5.1131835,8.968653
4.421045,10.442041,4.882959,5.5458007,9.240625
4.1654296,10.368067,5.7867675,5.5543456,9.027246
4.329248,10.249414,5.836328,5.4847655,9.043848
4.838281,10.409815,5.674707,5.438867,9.069239
5.818994,10.420313,5.9271483,5.6947265,9.195459
6.3055663,10.414209,6.858789,6.221582,9.397852
6.709863,10.486963,7.226953,6.619531,9.707422
6.975488,10.54751,7.5575194,7.2882323,9.963526
7.612451,10.569239,8.201807,7.872705,10.179102
8.058496,10.61001,8.731348,8.4144535,10.229151
8.382715,10.712061,8.988428,9.039209,10.250635
8.74795,10.766016,8.978174,9.344141,10.284815
8.964014,10.783106,9.047022,9.457422,10.251612
9.005518,10.796534,9.113184,9.609034,10.172022
8.753565,10.772364,9.066797,9.297022,10.067041
8.363916,10.776026,8.811426,8.82876,9.938868
8.233545,10.781641,8.606592,8.628077,9.8675785
8.155664,10.770166,8.573633,8.5221195,9.866358
8.152246,10.796534,8.513575,8.438623,9.826807
8.162989,10.793116,8.468409,8.407862,9.790186
8.201807,10.950586,8.473047,8.411036,9.829248
8.1939945,11.1957035,8.540186,8.414698,9.943506
8.085352,11.287256,8.578516,8.429346,10.043848
7.822168,11.217676,8.635401,8.467188,10.176661
7.7767577,11.176416,8.645411,8.5292,10.224756
7.5433593,11.091211,8.631983,8.535547,10.255762
7.449365,11.090235,8.683741,8.511133,10.250635
7.3875976,11.103907,8.717676,8.577539,10.266016
7.6197753,11.152002,8.809961,8.741602,10.397608
7.9583983,11.29043,9.114161,8.996485,10.667627
8.361719,11.410059,9.490381,9.312891,10.895655
8.62002,11.54458,9.989161,9.570215,11.146387
9.017237,11.689844,10.646875,9.968897,11.457422
9.093409,11.939844,10.954981,10.507471,11.690088
9.160791,11.980127,11.60586,10.97378,11.819483
9.378565,11.859278,12.724024,11.276026,11.805811
9.486231,11.912012,12.315332,11.546045,11.714746
9.436914,12.149805,11.479883,11.235743,11.745264
9.531885,12.228907,10.982813,10.680567,11.714746
9.577295,12.056543,10.627588,10.282618,11.553125
9.589502,11.944727,10.434961,10.182276,11.400049
9.66543,11.777002,10.456446,10.097559,11.238184
9.629541,11.541407,10.490625,10.02334,11.086573
9.543604,11.565821,10.527979,9.89834,11.101465
9.565577,11.748926,10.598291,10.080469,11.194971
9.752588,11.877588,10.640772,10.372461,11.189844
9.851709,11.819971,10.568018,10.297998,10.848047
10.107325,11.118799,10.464258,10.157129,10.326319
9.812647,10.671534,10.340479,10.041651,9.571924
9.154932,10.319239,10.074121,9.891016,8.870264
8.511133,9.958155,9.603907,9.239649,8.190821
7.626367,9.819971,8.874414,8.086817,7.9935546
6.9654784,9.794825,8.05752,7.753076,8.491602
7.2435546,9.8417,8.433985,8.313379,9.243067
7.646631,9.883448,9.316309,9.221582,9.875147
7.884912,10.014063,9.668848,9.277979,10.51333
8.725733,10.202295,10.137598,9.135401,10.595362
8.842676,10.376123,10.846827,10.143946,11.136133
8.973047,10.6158695,11.172022,10.3771,11.563623
8.611231,10.694239,10.767237,10.174463,11.41836
8.832422,10.827051,10.65835,10.219385,11.661036
8.954737,10.956446,10.071192,9.522364,11.26211
8.234278,10.985498,9.054346,8.933252,10.515284
6.9344726,11.019434,7.924463,7.5106444,9.904688
5.6510253,11.069483,6.9342284,6.80874,9.448877
5.5401855,11.093897,6.6461425,6.4203124,9.521631
5.827783,10.958887,6.6412597,6.6063476,8.979395
5.692041,10.785059,6.863672,6.9796386,8.804346
5.6026855,10.757471,7.124658,7.0470214,9.043848
5.6983886,10.888086,7.1874022,6.56167,9.658838
5.6771483,10.430323,7.3514647,6.802881,9.281397
5.0475097,10.683985,7.455713,6.8612304,8.729151
4.6739745,10.914698,7.2865233,7.1239257,9.32168
5.1495605,10.125147,7.329492,7.1395507,9.03042
5.2936034,9.665674,6.80874,6.5226073,8.361963
5.4098144,10.071192,7.0279784,6.62124,8.266016
5.9339843,10.199121,7.245996,7.1012206,8.431299
6.225488,10.359766,7.6092772,7.5157714,8.979883
6.403955,10.776758,7.7848144,7.6830077,9.457178
6.7279296,10.808496,8.105127,8.211573,9.915674
6.8351073,10.493555,8.554346,8.219141,10.183496
7.1944823,10.837061,9.079981,8.156885,10.76333
7.9132323,10.955713,8.026514,7.39541,10.968897
8.160791,11.021143,8.968164,8.658594,10.69961
8.128321,11.156153,9.602198,9.723536,11.503321
7.393457,11.349512,8.847803,9.152735,11.14834
7.1012206,11.275782,8.479883,7.7691894,10.681299
6.724756,11.534082,7.3612304,7.1964355,9.749414
6.006494,11.530909,6.9955077,6.834131,8.510401
5.7623534,11.281641,5.909326,6.1671386,8.854883
5.8419433,10.9630375,5.6549315,5.548486,8.443262
5.803125,10.8207035,5.4833007,5.187158,8.403223
5.7420897,10.862696,5.284326,5.273828,9.08877
5.815576,10.317286,5.2325683,5.407617,8.583399
6.1498046,10.5863285,4.7120605,5.1014647,8.989405
6.192285,11.119776,5.8026366,5.292871,9.660547
6.411035,11.234522,6.3438964,5.720361,9.985254
7.0213866,11.614893,7.1024413,6.1805663,9.799219
7.725244,11.877588,7.8492675,7.2137694,10.270411
8.1488285,11.960596,8.444483,8.370996,10.645655
8.505274,12.031641,8.976465,8.766993,10.83169
8.989405,12.114405,9.438135,9.45083,11.040918
8.8814945,12.09292,9.543848,9.63125,11.29336
9.209864,12.121485,9.785059,9.857813,11.3675785
9.490625,11.207422,9.888819,10.458399,9.64834
9.110987,10.234278,8.921045,10.108545,9.591944
9.204493,10.483789,8.207666,8.993067,9.839991
7.9381347,10.575098,8.444727,9.843653,10.0099125
6.1986327,10.933741,8.872461,9.962793,10.256739
5.254785,11.029444,8.788965,9.084864,10.066797
5.3873534,11.019922,7.8878417,7.9378905,9.055811
5.4464355,10.629053,7.1952147,7.02749,8.208887
5.4642577,10.29336,6.7811522,5.598535,7.4867187
5.069238,10.171045,5.4693847,5.2604003,7.110254
5.3592772,10.092676,5.23208,4.970361,6.978418
5.073877,9.623926,4.627832,4.41958,6.893945
4.786279,9.094141,4.0436034,3.9696288,5.964502
4.1100097,8.842188,3.8246093,3.359033,5.644922
3.4632812,8.652979,3.3365722,3.534082,5.4764647
3.0316405,8.3207035,3.3700194,3.2828612,5.34707
2.374414,8.173243,3.0475097,2.9798827,5.227197
2.0838866,8.054346,2.786035,2.6805663,4.947412
1.889795,8.451075,2.765039,2.5260253,4.9063964
1.9815918,8.3675785,2.9391112,3.023584,5.216699
2.7284179,8.587305,4.4481444,4.419336,6.443994
3.6039062,8.210352,5.7643065,5.721582,7.254541
4.966455,8.228907,7.200586,6.4085937,7.346338
6.0121093,8.567774,7.8443847,6.9342284,8.050684
5.65957,8.844629,8.479883,8.017969,8.380518
6.6239257,9.325586,8.120752,8.768213,9.652491
5.400781,9.312891,8.836817,8.466944,9.643702
6.0191894,9.03628,7.966211,8.779444,8.6349125
7.065088,9.484034,7.922754,8.114405,8.696192
6.846582,9.673487,7.866113,7.6307616,8.379541
6.360254,9.186914,7.167627,6.5416503,8.186426
5.7606444,9.70376,6.8197265,6.1327147,8.010889
5.223047,9.743067,6.7586913,5.678369,7.370996
5.148584,9.647852,6.197412,5.4781737,7.0956054
4.875879,9.209864,5.706445,5.3316894,7.3282714
4.6024413,8.818506,5.234033,4.9937987,6.9466796
4.5614257,8.849512,4.999414,4.9291015,6.705957
