"[299, 255]","[227, 248]","[287, 319]","[279, 328]","[230, 262]"
8.092432,14.107569,9.167139,9.462061,12.174707
8.391504,13.345118,9.1036625,8.694483,11.251856
7.9188476,13.078028,7.8299804,8.333887,10.438135
7.367822,12.617823,7.2867675,7.31167,10.4283695
6.928125,12.267969,6.8214355,6.6690917,9.996241
7.1163573,12.106348,7.1983886,7.7191405,9.505274
6.692285,11.9786625,6.823877,8.118555,9.4630375
7.434961,11.775782,6.8023925,8.288477,9.505762
8.315821,11.66543,8.824121,8.856836,10.29458
8.811182,11.793604,10.093409,9.974024,11.484278
9.334131,12.277491,10.798731,10.889063,12.080713
10.079981,12.998438,11.191065,11.61709,12.510157
9.897364,13.666651,11.270166,11.671045,12.698389
9.781153,13.98086,10.739649,10.4613285,12.819239
8.9439945,13.990381,10.118555,10.550684,12.633692
8.747217,13.541407,9.814844,9.550684,12.245264
6.921045,13.556543,8.650049,8.746973,11.626368
6.619043,13.021631,7.6534667,7.427881,11.009668
6.628076,12.319971,7.3304687,5.548486,10.900049
6.2918944,11.569971,7.4757323,5.7972655,10.753809
6.34292,11.201807,6.935449,6.3248534,10.66836
6.367822,11.110743,6.4361815,5.902246,10.162989
6.273828,10.8692875,6.9776855,5.7884765,9.774073
6.0523925,10.767969,6.1183105,6.469629,9.238428
5.911035,10.669825,5.4151855,5.8683105,9.113184
5.8509765,10.597559,5.768945,5.891504,9.684717
6.1112304,10.401758,4.912256,6.1876464,10.1332035
6.0489745,10.30752,5.2594237,5.813867,9.416895
6.0541015,10.405909,6.236963,5.990381,9.483545
5.721338,10.620264,6.254541,5.7972655,8.889307
5.5804687,10.626856,5.343408,5.6544433,8.418604
5.775293,10.5411625,6.51333,6.249414,8.64126
6.6148925,10.618799,7.56582,7.4918456,9.381983
7.6197753,10.860254,8.922754,8.759668,10.303858
8.695948,11.499414,9.437647,9.465235,10.880762
9.556055,12.249903,9.386133,9.876612,11.413721
9.376856,12.990137,10.335596,10.5064945,11.6314945
9.642237,13.330957,10.560938,10.329981,11.928614
9.5880375,13.437403,9.60708,10.434961,12.165674
9.271631,13.443506,9.516504,8.983057,12.110254
8.504786,13.39126,8.19961,7.5506835,11.761133
7.5592284,12.939112,7.478906,7.1927733,11.153223
7.081201,12.517237,7.43374,7.4322753,10.467676
6.973779,12.23086,7.251611,6.8871093,11.362207
6.643457,11.915186,7.5521483,5.636865,11.030909
6.5736327,11.41836,5.6830077,6.5589843,10.395411
6.617822,11.048975,6.6737304,6.7816405,9.815088
6.1927733,10.786036,6.761865,6.7486815,8.948633
6.0711913,10.778467,5.735498,6.6690917,8.664942
6.4222655,10.52334,5.963037,6.8719726,8.604151
6.395654,10.452051,5.9305663,7.1,8.522364
6.431787,10.396387,5.438379,6.1131835,8.266748
6.6273437,10.224268,5.174463,5.768213,8.192286
6.400537,10.332666,6.144922,5.141992,8.42544
5.9571776,10.653955,6.27749,4.8490233,8.408594
5.52749,10.724512,6.626611,4.8705077,8.426905
6.314111,10.751856,7.5243163,6.6251464,8.698389
7.612695,10.641016,9.29043,8.615137,8.861719
8.469385,11.097315,10.465235,9.871973,9.383936
8.97085,11.807032,11.300928,11.058496,10.455469
8.97085,12.2167,11.706446,12.00503,10.962061
8.905664,12.254786,11.764795,12.2792,11.197168
8.646387,12.176416,11.6896,11.839258,10.986719
8.378077,11.47378,11.175928,11.421289,10.700586
6.797754,11.069971,10.443506,10.50625,9.921289
6.3077636,10.29458,9.985743,9.777491,8.800684
6.6092772,10.250147,10.075342,9.855127,8.539209
6.532373,9.984766,9.863916,9.914209,8.502344
6.2745605,9.63418,9.563868,9.908106,8.44253
6.2835937,10.435938,8.959864,9.875879,8.396143
6.35708,10.697901,8.632471,9.292627,8.452539
6.451074,11.075098,7.9466796,8.46792,8.741114
6.5648437,11.074854,7.8145995,7.803125,9.299707
6.681543,11.401758,7.8514647,7.711572,9.8519535
6.8490233,12.311426,7.2745605,7.6134276,10.203028
6.9984374,12.865381,7.111963,7.1910644,10.325098
7.157617,13.207911,7.539453,7.0765624,10.354883
7.3575683,13.330713,7.650293,7.18667,10.514551
7.4623046,13.763575,7.8592772,7.5711913,10.654688
7.601953,14.148096,8.054346,7.8250976,10.663965
8.417139,14.489893,8.378321,8.351709,11.453516
9.176416,14.983057,9.096827,8.856836,13.241114
10.204004,15.42959,9.913721,9.451319,14.431055
11.107569,15.912012,10.823389,10.217676,15.719141
11.8207035,16.454248,11.783106,11.095362,16.556787
12.040674,16.96377,12.258936,11.858789,16.813868
11.81045,17.052881,12.248438,12.157618,16.476954
11.295069,16.452784,11.686426,11.639795,15.692286
11.109522,16.031885,10.51333,10.576075,14.870752
11.171289,15.848047,10.131983,9.771387,14.097071
11.677637,15.942774,10.188868,9.626856,14.312403
12.170313,15.831446,10.318262,9.56753,14.012354
11.915674,14.91543,10.641748,10.132471,13.51919
11.386377,14.8363285,10.685205,10.6627445,13.482813
11.330469,14.428858,10.580469,10.680323,12.612207
11.434473,14.589258,10.656153,10.741846,12.300684
11.253077,14.917871,10.619043,10.8519535,12.470118
11.415674,15.416651,10.883936,10.775049,12.891016
11.440332,15.832178,11.107569,10.833643,13.1625
11.402735,15.846827,11.413477,11.272608,13.452784
11.404688,15.998926,11.885401,11.656397,13.623194
11.554346,16.204004,11.878077,11.880518,13.595118
11.823877,16.356836,11.956202,11.969141,13.966944
12.227442,16.74087,12.179346,12.118799,14.383692
12.343409,16.730616,12.58584,12.523584,15.032129
12.658106,17.280909,13.012354,13.047754,15.647852
12.904688,17.35708,13.137842,13.495508,16.417871
13.130762,17.489649,13.68667,14.132959,17.413965
13.221094,17.64126,14.238672,14.632227,17.922266
13.699121,17.79458,14.673975,14.775049,18.166162
13.813623,18.002344,14.933496,14.941309,18.102198
14.099024,18.04873,14.647608,14.899805,17.647608
14.302881,17.869532,14.025293,14.478174,16.82046
14.604151,17.639551,13.568262,14.109034,16.13589
14.805811,17.637842,13.037256,13.942774,15.458155
14.782618,17.534082,13.143213,13.864161,15.141748
14.742334,17.529932,12.687647,13.882715,15.214014
14.683496,17.563868,12.079493,13.882227,15.470118
14.638086,17.51089,12.350489,13.644434,15.85586
14.638086,17.393213,12.8675785,13.390528,16.116846
14.627832,17.462793,11.95083,13.520166,16.297754
14.595606,17.478174,12.616846,13.648096,16.584375
14.672754,17.489893,13.861231,13.797266,16.625147
14.621241,17.480371,14.044825,13.928858,16.567286
14.538477,17.378077,14.05752,13.954737,16.526514
14.555323,17.43545,13.938379,13.856104,16.452051
14.623438,17.58584,13.870508,13.585596,16.407862
14.68252,17.600245,13.893213,13.561182,16.535303
15.019678,17.705957,14.524073,14.212305,16.834864
15.492823,17.887598,15.31875,15.21377,17.458399
15.89126,18.01919,15.940088,16.008692,17.892237
16.17544,18.120752,16.590235,16.362696,18.302393
16.46963,18.199121,16.90005,17.035547,18.57046
16.616602,18.390528,17.455957,17.5375,18.696436
16.452295,18.724268,17.70376,17.754297,18.98379
15.878565,19.002588,17.20547,17.388575,18.823633
15.417871,18.985254,15.908838,16.771875,17.94839
16.124903,19.12417,14.948145,16.225489,17.644678
15.793604,19.272364,15.167139,15.727198,17.787256
15.493799,19.105127,15.355371,15.589991,17.529688
15.56875,18.946436,15.276026,15.707178,17.423975
15.679834,18.912012,15.305323,15.272608,16.729395
15.775049,18.637354,15.178125,15.123926,16.415186
15.862696,18.384912,14.911036,14.792871,17.014063
15.856836,18.053614,14.354639,14.550196,17.246973
15.612452,17.813868,14.020411,14.257715,17.118067
15.398096,17.634912,14.253565,14.229151,17.042627
15.282862,17.595362,14.679102,14.744776,16.951807
15.212061,17.732569,14.920557,14.990381,16.763575
15.093897,17.810938,15.118311,15.022364,16.521875
15.090235,17.893946,15.169092,15.346582,16.48501
15.289209,17.916895,15.131006,15.390284,16.204248
15.402246,17.875635,15.326563,15.336573,16.734766
15.164698,17.92422,15.847315,15.75918,17.592188
16.118555,17.875147,16.165918,15.933985,18.207178
17.101221,17.926416,16.77505,16.50796,18.593897
17.040674,18.099512,17.984522,17.45376,18.874659
16.781153,18.32339,18.302393,17.820704,18.844141
16.494776,18.380274,17.963282,17.714014,18.704248
16.356836,18.326807,17.093653,16.968897,18.17666
15.986231,18.28213,15.799707,15.720362,17.600977
15.674707,18.137354,15.261621,15.062159,17.463526
15.294825,17.760157,15.315332,15.068262,16.740137
15.17959,17.986963,15.062891,14.996729,16.565332
15.050928,17.943506,14.953028,15.061914,16.861963
15.112696,17.653467,15.126368,15.256006,16.560205
14.791895,17.353418,15.735498,15.224756,15.986231
14.652979,17.394922,15.34878,15.282862,15.971094
14.473047,17.42251,15.612207,15.167383,16.054346
14.400293,17.396631,15.456934,15.183985,15.76919
14.07168,16.825342,15.026514,14.704737,14.953516
14.045557,16.536768,15.096338,14.722803,14.191797
14.140772,16.41421,14.722559,14.608545,13.731836
13.940332,16.356348,14.5082035,14.51333,13.835596
13.323145,16.523584,14.58169,14.212305,13.292383
12.7877445,16.314112,14.183008,13.597315,12.428614
12.746241,16.155176,13.877344,13.211817,13.074366
13.1471195,16.102686,14.302637,13.51919,14.039209
13.585108,16.180079,14.573877,13.933252,14.373926
14.097071,16.181787,14.971827,14.039209,15.385157
14.10586,15.93252,15.01333,14.441553,14.152246
13.978174,14.937159,14.97793,14.343409,12.896387
13.1505375,15.121973,14.425196,13.949121,13.163477
12.504541,15.608301,13.556055,13.0377445,13.615625
11.25503,15.615137,11.747705,11.777246,12.660791
11.052881,15.451563,11.345606,11.1036625,12.382471
10.844873,15.78042,11.045313,11.066553,12.257715
10.450342,15.533838,10.524317,10.979639,12.49917
10.339746,15.182032,9.8832035,10.633936,12.600977
10.251123,15.2738285,10.285791,10.602686,12.440821
9.995752,15.22793,11.2582035,11.028223,12.306543
10.031641,15.2894535,10.394922,10.5567875,11.874903
9.958643,15.391748,9.941553,10.341455,11.08877
9.704737,15.449121,9.647364,10.416651,10.73208
9.621241,15.497705,10.165186,10.251612,10.363184
9.402735,15.850489,10.228174,9.986231,10.205469
8.869532,16.122705,9.707911,9.596582,9.945215
8.407862,15.640772,9.216455,8.509424,10.031641
7.817041,15.703028,8.62295,8.728418,10.439112
7.648584,15.952784,7.9486327,8.60293,10.727442
8.315821,16.093897,8.515039,9.296778,12.552393
9.645899,16.40005,10.678858,10.500147,14.184229
11.090723,16.21255,12.629053,11.668848,15.362696
11.896143,16.358545,13.631983,13.371485,15.788965
12.362696,16.694483,14.028711,13.81167,15.6505375
12.257471,16.757227,14.213526,13.96792,15.6661625
12.199366,16.410547,13.973047,13.762598,15.598536
11.680567,16.579493,13.3814945,13.052637,15.250147
11.2442875,16.467432,12.664942,12.423975,15.020899
11.283594,16.512842,12.411036,12.226465,15.108545
11.304346,16.519678,12.476465,12.256983,15.103174
11.392481,16.426172,12.535547,12.469141,15.000635
11.47378,16.344141,12.885157,12.602442,14.968653
11.405909,16.349756,12.886133,12.652246,14.9283695
11.109034,16.487452,12.927881,12.425196,14.846338
11.358545,16.610987,12.887354,12.447657,15.094385
11.346582,16.568506,12.983057,12.675928,14.971827
11.274317,16.327295,12.9769535,12.561182,14.945215
11.359034,16.554834,12.803614,12.551172,15.143946
11.300684,16.597315,12.858789,12.819971,15.364649
11.501368,16.531641,12.816309,12.916407,14.721338
11.629053,16.045801,12.582666,12.613916,14.134668
11.729883,15.845118,12.211573,11.924707,14.161524
11.853907,16.180323,12.251368,11.942041,14.512354
11.381983,16.498194,12.597071,12.133448,15.086573
11.53335,17.436182,13.058985,12.577539,15.999414
11.9144535,17.164698,13.475489,12.840235,15.366846
12.168116,16.77749,13.757715,13.348536,15.489405
12.559229,16.639551,13.862452,14.090235,15.664209
12.807276,16.498926,14.259424,14.407129,15.612452
12.90835,16.484034,14.014307,14.118311,15.196192
12.581446,16.359522,13.042627,12.788721,14.024073
11.823877,16.318018,11.790186,11.694239,11.890528
11.676661,16.280664,10.753321,10.979151,10.669092
11.919825,16.10708,10.845606,10.472803,10.3380375
12.016748,16.092188,10.996729,9.69375,9.974756
11.923243,15.892969,10.73501,9.488672,9.659327
11.729395,15.522608,9.962793,9.63418,9.468653
11.176905,15.466455,10.092188,9.596827,9.902002
11.356592,15.158106,10.65835,9.807764,10.176416
11.672266,14.585352,10.025782,9.76626,11.163233
11.857813,15.131006,9.912989,9.818506,11.479151
11.723291,15.392725,8.870996,9.208399,11.851221
11.673731,15.641993,9.746729,9.028955,11.831202
11.267237,15.693506,10.224512,9.284815,11.210596
11.007227,15.763086,10.052881,9.739649,11.91958
11.08877,15.613672,10.563135,10.048243,12.509424
11.462061,15.564356,10.454248,10.227442,13.172998
11.875391,16.172754,10.718164,10.430323,13.302393
12.276026,16.338037,11.718653,11.717432,14.058252
12.46377,16.607813,12.809961,12.691553,14.7894535
12.843897,16.458155,13.361963,13.146875,14.632959
13.049219,16.224512,13.753565,13.346582,13.8814945
13.048487,15.979883,13.875391,12.640039,13.617823
12.761866,14.712061,13.608789,12.604639,12.628077
12.549952,14.600977,12.838526,11.852198,11.848536
12.426661,14.212305,11.930811,11.505518,11.403711
12.25918,13.326807,11.26919,10.991602,11.227442
11.975489,13.008936,10.916895,10.591944,11.296534
11.823145,12.736963,10.872217,10.394678,11.090723
11.78335,12.464746,10.537989,10.283594,10.605127
11.724512,12.493799,10.412012,10.087549,10.486231
11.467676,12.477686,10.361475,9.880518,10.651758
11.267969,12.322657,10.1625,9.826319,10.713282
11.46377,12.366114,10.084131,9.687647,10.585352
11.386377,12.569239,9.931299,9.587793,10.44668
11.364893,13.012842,9.884424,9.458643,9.940088
11.366358,13.425928,9.8675785,9.3363285,10.104883
11.13833,13.476221,9.741114,9.365137,10.31045
10.859278,13.850489,9.336573,9.254786,10.366114
10.593897,14.017237,9.111963,9.13418,11.124659
10.429834,14.092432,9.172754,8.682764,11.377344
10.449854,14.402002,9.387354,9.039209,11.728174
11.002832,14.407618,10.382471,9.703028,12.4613285
11.465235,14.019434,11.591211,10.5863285,12.919092
11.840967,14.183985,12.360987,11.473536,13.359766
12.161768,13.870996,12.671045,12.144434,13.339746
12.335108,14.054346,12.876612,12.301661,12.651514
12.335108,12.98794,12.624659,12.26333,11.761377
11.992823,13.187159,12.064356,11.582422,11.240625
11.558008,13.452784,11.444239,10.930567,10.585352
11.1542,13.152246,11.140284,11.004786,10.426905
11.039698,12.987696,11.133936,11.16958,10.601465
9.827784,13.434473,11.083399,10.751612,10.437403
9.01211,13.155176,10.724512,10.552149,10.604639
9.194971,12.985498,10.38833,10.3346195,10.308741
9.098047,13.375635,10.167627,10.322901,10.456934
8.854639,13.010157,10.14834,9.702295,10.361719
8.313868,13.073877,9.81753,9.563623,10.265039
8.092188,13.202784,9.591944,9.404444,10.106592
7.9469237,12.602442,9.368799,9.277246,10.235254
7.490625,12.546045,9.1974125,9.305323,10.380518
7.6046386,12.941065,9.352686,9.372217,10.806055
7.6859374,12.708155,9.428614,9.298731,10.779932
7.4254394,13.061426,9.394678,9.166407,10.50625
7.648828,12.712061,9.249903,8.988184,10.244532
7.6302733,12.961817,9.326319,8.896387,10.619043
7.00332,13.190088,9.272364,8.846094,11.342432
7.4901366,13.169825,9.20669,9.008448,11.796289
7.9774413,13.268457,9.351221,9.253565,11.789209
8.021143,13.469629,9.56045,9.368799,11.162012
7.895654,13.147608,9.364161,8.97378,10.26626
8.284815,13.783594,8.966455,8.737696,11.449121
8.647364,14.188623,8.857813,8.879297,12.043848
8.206202,14.164698,9.045313,9.009668,12.34878
8.433252,14.044092,9.096582,9.048487,12.258936
8.597559,14.247461,9.049707,8.96792,12.417383
8.7252445,14.102442,8.972559,8.800684,12.201075
8.721338,14.018702,8.960596,8.932276,12.136133
8.773096,13.940821,9.060694,8.985987,12.059229
8.976709,13.900049,9.154444,8.945948,12.188379
8.949366,13.945215,9.052881,8.827539,12.168604
8.858057,13.929102,8.987696,8.898584,12.100489
8.979151,13.854883,9.125391,9.062403,12.246485
8.954004,13.908838,9.326319,9.163965,12.22793
8.991602,13.964014,9.394434,9.197901,12.235254
8.909082,14.054102,9.348536,9.21792,12.228418
8.958887,14.073145,9.39419,9.238428,12.308741
8.988916,13.999903,9.443262,9.297998,12.144678
9.063623,13.754053,9.47793,9.257471,11.764063
9.195948,13.771387,9.60293,9.299707,11.876612
9.302149,13.563868,9.909327,9.711084,12.260401
9.56753,13.63711,10.393213,10.220606,12.646387
9.766993,13.750879,10.621241,10.659327,12.743311
9.619776,13.677637,11.024073,11.270899,12.845362
10.181299,13.677149,11.63003,11.682276,12.702539
9.881983,14.277491,11.434717,11.486231,12.643702
9.449366,14.34585,10.016016,10.277979,12.458887
8.303858,13.530909,8.335108,9.331934,11.944971
8.027735,14.121973,9.202539,9.489893,12.253321
8.177637,14.2875,9.65127,9.089746,12.78042
7.5370116,14.689844,9.292383,9.536036,13.140284
7.667871,15.021143,9.448633,8.871973,13.753321
8.270411,15.202539,9.789698,9.156153,13.942774
8.369532,14.460108,10.346827,9.7286625,12.743799
8.751123,13.194727,10.98501,10.356348,11.392481
8.891748,13.024561,10.970606,10.651758,10.797022
9.248438,13.32461,10.07876,9.406885,10.651514
8.926416,13.284327,9.05044,8.36709,10.020899
8.5646,12.795313,8.176661,8.207911,9.341455
7.7174315,12.564356,8.138086,8.239405,8.902246
7.5311522,12.620752,7.882959,7.6100097,8.793604
6.8045897,12.204248,7.0589843,6.900781,8.690088
6.539453,12.821192,6.848047,6.6146483,8.737696
6.2279296,12.376856,6.749658,7.0558105,9.237696
6.365625,12.010157,7.513574,7.6791015,9.851465
6.563379,12.101465,8.663233,8.927393,10.715723
7.273828,12.019922,9.470606,9.500635,10.98086
8.175196,12.184229,9.729151,9.729151,11.274317
8.5221195,12.18667,9.716455,9.159327,11.074366
8.441553,12.603174,9.361719,8.84292,10.774317
8.010645,12.696192,8.375391,8.478174,10.767969
7.1080565,12.860254,7.515039,7.649072,9.882959
6.430078,12.865381,7.334863,7.089502,10.226221
6.318506,12.835352,6.41958,7.282617,9.967188
6.1581054,12.844385,6.822412,7.0643554,9.804834
6.199121,12.923487,6.49917,6.8668456,9.868555
6.020654,12.988672,6.724756,6.949365,9.702539
5.733789,12.937891,6.492578,6.8717284,9.685938
5.921533,12.826563,6.8282714,6.8631835,10.190332
6.0089355,12.351465,7.0106444,6.9049315,10.015284
5.636377,12.689356,6.1358886,6.855371,10.183741
5.230371,12.874414,7.15957,6.7418456,10.337061
5.7069335,12.8033695,7.119531,6.961084,10.426905
6.110742,12.834375,7.237695,7.4674315,10.433496
6.3924804,12.931055,7.4273925,6.42666,10.6625
6.5716796,13.285791,7.2257323,7.096826,10.407618
6.720361,13.479395,6.1424804,7.345117,10.889795
7.176172,13.582178,7.3888183,7.3844237,11.198389
7.8854003,13.807764,8.472559,8.395166,11.822901
8.467676,13.970606,9.301661,8.431299,12.553858
9.344141,14.15542,10.354395,8.96792,12.925928
10.278955,14.395899,10.673975,10.294825,12.843897
10.650293,14.402979,11.019678,10.464502,13.053125
10.671289,14.453028,10.747217,10.740137,12.844629
10.190088,14.609034,10.208643,10.335596,12.56875
9.740137,14.812891,10.207666,10.100489,12.407618
9.695215,14.330957,10.270655,10.056543,12.896143
9.586084,14.854151,10.442286,10.124903,12.816065
9.438623,15.281641,10.603418,10.00503,13.015039
9.420313,15.058252,10.648584,10.246241,13.406153
9.652002,15.169825,10.647852,10.282129,13.760889
9.871729,15.33584,10.960596,10.454981,13.9942875
10.151514,15.753809,11.298243,10.807032,14.446924
10.339991,16.092676,11.649805,11.101465,15.1158695
10.598291,16.177149,12.114405,11.708643,15.319483
11.033838,16.208643,12.6625,12.667383,15.336573
11.4908695,16.317041,13.118311,13.733301,15.40127
11.841211,16.457422,14.334131,14.641748,15.3519535
12.347071,16.402246,14.407129,14.684961,15.308008
13.061426,16.324366,14.319727,14.657618,15.289209
13.102198,16.306543,14.420801,14.603418,15.339991
13.24795,16.281641,14.520166,14.501123,15.429102
13.32876,16.410059,14.6939945,14.718164,15.571924
13.539942,16.470606,14.870752,14.961817,15.641993
13.803858,16.470118,14.993311,14.170801,14.405176
14.015528,15.93667,12.719385,12.698145,14.492334
13.494532,15.641504,12.748438,12.715967,14.259424
12.936182,15.425196,12.333155,12.136866,13.971094
11.843653,15.42544,11.563135,11.396143,13.336084
10.562403,15.408838,10.7269535,11.184961,13.328516
10.053858,15.178858,10.653955,11.017725,12.853174
9.706202,14.914209,10.357325,10.50918,12.596827
9.077295,14.654444,9.878321,10.428614,12.065088
8.70083,14.547022,9.787256,10.161768,11.7792
8.313379,14.336817,9.5707035,10.021631,11.803614
7.9481444,14.126856,9.437159,9.908106,11.577051
7.7608886,14.058008,9.300684,9.899073,11.320948
7.513086,13.865381,9.576807,10.174952,11.071192
7.4671874,13.791651,9.297266,9.498926,10.817774
7.213037,13.66128,9.261621,9.4667,10.743067
7.1007323,13.671534,9.192774,8.935694,11.137598
7.0365233,13.573633,8.914698,8.754053,11.3832035
6.9134765,13.422754,8.769922,8.849512,10.986719
6.9937987,13.462305,8.441553,8.828028,10.931543
6.912744,13.461573,8.525782,8.7564945,10.777735
7.189111,13.482325,8.997461,8.689356,10.756739
8.1314945,13.446192,9.860498,9.516748,11.605127
9.042139,13.654444,10.83877,10.728174,12.2792
9.845118,13.780176,11.425684,11.310205,12.718897
10.433496,13.866114,11.64126,11.459375,12.833155
10.53042,13.995752,11.628809,11.402979,12.777246
10.357325,14.105127,11.22378,11.037012,12.389551
9.447168,14.344873,10.6019535,10.137842,11.71792
8.848047,14.609522,9.600489,9.349756,11.40127
8.438623,14.540186,9.158838,9.211817,10.958643
8.050684,14.508692,8.573389,8.9300785,10.348536
7.8646483,14.600733,8.676416,8.602686,10.525782
7.6080565,14.607813,9.096338,8.071924,10.633448
7.381494,14.678858,8.975489,8.481836,10.609522
7.1424804,14.468409,9.35708,9.11709,11.435938
7.0353026,14.777491,9.504541,9.626856,12.124903
7.2955565,14.4042,9.642969,9.593897,12.375391
7.848779,14.364405,9.333643,10.052637,12.752344
8.1661625,14.898584,9.965235,10.419336,12.8988285
8.215235,14.807276,10.413721,10.640284,13.129297
8.181543,14.502832,10.723536,10.226465,13.248926
8.518702,14.892481,10.974268,10.493311,13.611719
8.604395,15.068262,11.204248,11.227686,13.687159
8.450586,15.19375,11.3849125,11.399561,13.868067
8.639307,15.348536,11.401758,11.493311,14.195215
9.488672,15.517725,11.781885,12.328272,14.504541
10.435205,15.452295,12.105127,12.767969,14.6939945
11.296778,15.455713,12.110498,12.9439945,14.620996
11.831202,15.465967,12.073145,13.097071,14.708887
12.20376,15.507959,12.333155,13.226465,14.771143
12.204981,15.438868,12.842188,13.429834,14.792871
12.042627,15.378809,12.83584,13.583399,14.622705
11.921778,15.388819,12.892481,13.5863285,14.517969
11.696436,15.552881,13.067286,13.583155,14.68252
11.58877,15.665186,13.060938,13.556055,14.9005375
11.542627,15.710352,13.180811,13.651026,15.115381
11.492823,15.683985,13.385157,13.815821,15.179346
11.491602,15.666651,13.630518,13.971582,15.045069
11.659571,15.839014,13.837549,14.105616,15.127588
11.858057,16.045557,14.025293,14.212549,15.293848
11.921778,16.051905,14.109034,14.298243,15.464258
11.980371,16.038477,14.107813,14.375879,15.553858
12.137842,16.116602,14.071436,14.41836,15.452539
12.364161,16.167627,14.1002445,14.391504,15.478418
12.372217,16.208643,14.292871,14.38418,15.596338
12.758448,16.25796,14.409815,14.470362,15.621241
12.801172,16.23794,14.426172,14.549219,15.587793
12.882471,16.181055,14.471827,14.641748,15.448633
12.992823,16.140772,14.513086,14.739649,15.53042
12.956446,16.018946,14.603907,14.842432,15.597559
13.252832,15.736719,14.807032,14.899073,15.658106
13.656397,15.675928,14.906641,15.17959,15.897852
13.727686,15.6661625,15.372461,15.460108,15.970606
13.861719,15.620508,15.350977,15.268213,16.043116
13.954981,15.608057,14.786036,14.636133,15.589014
13.942286,15.748438,14.017481,13.703028,14.998438
13.968653,15.881006,13.216455,12.915674,14.486475
14.008936,15.939844,12.954737,12.639307,14.630518
14.021631,15.872217,12.679346,12.454248,14.535303
13.888086,15.718653,12.65542,12.215479,14.378077
13.802149,15.670801,12.463526,12.237452,14.090479
13.656885,15.420801,12.122217,12.070215,13.696436
13.507715,15.0082035,11.83584,11.739161,13.361719
13.484278,14.796289,12.964014,11.446436,13.293604
13.372217,14.511621,12.624903,11.7792,12.690332
12.798487,14.530909,11.911524,11.712061,11.932764
12.905664,14.526026,11.310694,11.177393,12.00918
12.713282,14.55044,10.703028,10.393457,12.709375
11.351221,14.549952,10.144678,9.926416,12.624659
10.84585,14.277979,10.151758,10.567041,12.243311
10.134668,13.583399,10.444727,10.190577,11.364161
9.519678,12.479151,8.762842,9.030664,10.2252445
9.045801,11.86709,8.403467,8.01211,9.829493
8.330713,11.650293,8.16543,8.318262,10.067774
8.2130375,11.7792,8.47793,8.055567,10.433496
8.435694,11.921289,8.663965,8.487207,10.819971
8.735498,12.136866,9.13125,8.857813,11.062891
8.798487,12.47378,8.996729,8.094873,10.977198
8.538721,12.500879,8.774805,8.195215,10.695948
7.8563476,12.569727,8.067041,7.6083007,10.415186
6.978906,12.688135,7.0123534,7.049463,10.287012
6.766748,12.386133,6.8878417,6.662256,9.984034
6.8751464,12.163965,6.400293,7.21792,8.501612
6.938623,11.727442,6.5311522,7.194238,7.8827147
6.399072,11.6332035,6.2142577,6.84292,8.0411625
6.377588,11.786524,6.5179687,7.0489745,8.36709
6.2362304,11.758692,6.3165526,6.8006835,8.619043
5.95791,11.897364,6.2330565,6.617578,8.717676
5.9603515,11.621973,6.3106933,6.3409667,8.979639
6.251367,12.0377445,6.1856933,6.1544433,9.371973
5.773828,12.01211,6.1583495,6.181787,9.427149
5.475244,12.180323,6.190088,6.362451,9.017969
5.4947753,12.172754,5.9205565,6.3072753,9.312403
5.595117,12.36001,6.238916,6.0545897,9.799707
5.85708,12.467432,6.566797,5.5384765,10.034082
6.039697,12.613428,6.954004,5.963281,10.021387
6.2867675,12.5377445,6.876367,6.154199,9.708155
6.7169433,12.043116,6.5851073,6.471582,9.270899
7.1532226,11.616602,7.0387206,6.928369,9.237207
7.2936034,11.876368,7.3058105,6.9933105,9.694727
7.1725097,11.592432,7.3683105,7.711084,9.94375
7.2274413,11.636866,7.199365,7.8998046,9.858545
6.8321776,11.774317,6.9183593,7.574365,9.8033695
6.160547,11.452784,6.2811522,6.5018554,9.381983
5.934961,11.267725,5.7472167,5.8236327,8.472071
5.830957,10.819971,4.9623046,5.528711,8.5064945
5.5316405,10.850733,5.0836425,5.3177733,8.030909
4.8719726,10.749659,4.572168,4.940088,8.202784
4.591699,10.5099125,4.8895507,4.928613,7.414453
4.520166,10.233301,4.716211,4.0262694,7.1754394
4.30874,10.726465,4.706445,3.8700194,7.3983397
4.096826,10.71084,3.9884276,3.5890136,7.5438476
3.829492,10.8502445,3.2760253,3.4818358,7.619043
3.5787597,10.9161625,3.9999022,3.5006347,6.902246
3.702783,10.11001,3.749658,3.537744,7.8229003
3.6080565,10.103907,4.3773437,3.8077636,7.7245116
4.0299315,11.027491,4.8807616,4.213281,7.752588
4.0077147,11.035059,5.0562987,4.733545,8.791895
4.124414,11.447168,4.782861,5.1874022,8.1542
4.2142577,11.430811,5.4376464,4.8062987,7.817285
4.4808593,11.166895,4.9479003,5.140283,7.78042
4.616113,11.094385,6.2577147,6.091211,8.5221195
5.2350097,11.117334,7.0335937,7.2628417,9.386133
5.9640136,11.126368,7.7813964,7.386377,9.825098
6.452539,11.169336,7.9554687,7.5892577,9.792383
6.823877,11.159082,7.673242,7.9757323,10.23208
6.848535,11.3658695,7.6253905,7.4947753,9.671778
6.3700194,11.798731,6.3106933,6.0250487,8.801172
5.6822753,11.79336,5.82583,5.8580565,7.791162
5.5228515,11.959375,5.8683105,5.6097655,7.539697
5.0785155,11.6627445,5.6012206,5.0458007,8.332911
4.690332,11.01211,5.6407714,4.915918,8.476465
4.825586,10.972803,5.3836913,5.1061034,8.04336
5.298242,10.229883,5.2728515,5.016504,8.121485
5.386377,9.837061,5.3871093,5.093164,7.973779
5.4688964,9.524805,4.5001464,5.21499,7.876611
5.443506,9.359766,4.322412,4.3856444,7.3529296
5.223535,9.016504,4.8219237,4.817529,7.0558105
5.1568847,8.554834,4.883447,5.536035,6.709131
5.1390624,8.88711,5.1480956,5.26333,6.39541
4.638574,9.368799,5.236963,5.081445,6.278711
4.3722167,10.148584,5.2569823,4.9693847,6.5765624
5.0401855,10.845362,5.346338,5.119531,7.2069335
6.4015136,10.024073,5.198877,5.5003905,8.747461
7.515283,9.946924,4.8905272,5.323877,8.787256
6.8929687,10.174219,4.803125,5.4847655,8.723047
6.56875,10.3988285,5.7975097,5.4520507,9.03042
6.367334,10.7252445,6.7384276,6.242578,8.592188
5.298242,10.0724125,7.499658,6.9305663,7.9322753
4.9466796,9.358301,7.940088,7.6759276,7.595361
4.7853026,9.955225,7.839502,7.893213,8.590479
5.0702147,10.17959,7.5265136,7.65957,8.832911
5.4686522,9.933252,7.138574,7.185205,8.511133
5.4947753,10.248926,7.157373,6.945459,8.076807
5.19082,10.135645,7.3211913,6.360254,8.137842
5.0421386,10.457422,7.124658,6.3907714,8.431055
5.1615233,10.720606,6.6827636,6.791162,8.755762
5.4937987,11.015284,6.858789,6.777246,9.076807
5.3531737,11.223536,6.851953,6.5401855,8.820948
5.501367,11.383448,6.8495116,7.0785155,9.285059
5.474756,10.682032,7.107324,7.0648437,9.349024
5.4125,10.833399,7.0885253,6.9061522,8.960108
5.2831054,11.1158695,6.6583495,6.4449706,8.882959
5.4203124,11.245508,6.1625,5.9479003,9.187403
5.220361,11.176661,5.918115,5.9183593,9.297266
5.3124022,11.371729,5.7018065,5.8387694,9.4396
5.3978515,11.409327,5.90542,6.0277343,9.507715
5.3888183,11.278467,5.7940917,6.1441894,9.198633
5.783838,11.24917,6.041406,6.094629,8.859766
5.959863,10.886621,6.098779,6.135156,8.830713
6.4134765,11.433008,6.317041,6.4845214,9.172998
6.653955,11.378077,6.7120605,6.853418,9.783838
6.849756,11.511133,7.194238,7.204248,9.714991
7.018213,11.230127,7.2767577,7.294824,9.659571
6.9120116,11.093897,7.25625,7.0313964,9.38003
6.296289,11.277979,6.84707,6.473535,9.435694
5.969629,11.309717,6.44375,5.712793,9.189844
5.5858397,11.401026,5.863672,5.3246093,8.802637
5.3841796,10.869532,5.6634765,5.009912,8.711084
5.3216796,10.580957,4.9972167,4.6585937,8.543116
4.8844237,11.204493,4.4964843,4.609033,8.257715
4.5868163,10.778467,4.5736327,4.41958,8.297754
4.558496,10.251856,3.8719726,4.27749,7.725488
4.6913085,10.53628,3.3514647,4.145166,7.884912
4.3473144,10.606348,3.2872558,3.8043456,8.020166
4.263086,10.301905,2.976709,3.5143065,8.110743
4.4947753,10.44961,2.6537108,3.0379882,7.8021483
4.5250487,10.708643,2.2174315,2.787744,6.9654784
4.495752,9.990381,1.820459,2.445459,7.1776366
4.464746,10.036768,0.9952637,2.063867,6.9984374
4.2472167,10.2096195,0.7699219,0.73061526,6.557031
4.360986,9.870264,1.4496094,0.4317871,6.5819335
4.2899413,10.414942,0.7032715,0.25698242,7.33291
4.256494,10.243555,2.26333,2.1883788,7.6874022
4.744287,10.5533695,3.7328124,3.237451,8.089991
5.117822,10.379786,4.5748534,4.452295,8.580713
5.575586,10.224268,5.2159667,5.289697,9.096827
5.60708,10.907862,5.7088866,6.599756,8.39834
5.9339843,10.942774,5.125879,6.1861815,8.153223
5.476953,10.908594,3.9254394,5.1476073,7.4256835
4.306543,10.94961,3.0094237,4.1205077,6.973535
4.1354003,9.319483,3.4972167,4.2193847,7.0143065
4.12832,10.550928,2.0433593,4.3089843,7.162988
3.959375,10.792139,1.2420899,3.5111327,6.4063964
3.942285,10.501856,3.1803222,3.178369,6.841211
3.8685546,10.804102,2.6258788,3.2970214,7.0665526
3.4305663,10.803125,2.7035155,3.9037108,7.0335937
3.4061522,10.825098,3.077783,3.9557128,7.8143554
3.3163085,11.064844,3.1917968,3.921289,7.646631
3.56875,11.316309,2.6515136,3.548242,7.7225585
3.7010741,10.937159,2.5975585,3.6151366,7.346582
3.7601562,10.649317,2.6014647,3.2154784,7.443994
3.7311034,10.74917,3.0714355,3.562158,6.945703
4.003076,10.507227,3.112207,4.0331054,7.6737304
4.2467284,11.142969,3.5216308,4.053613,6.8702636
4.4520507,11.243555,2.921533,3.348291,6.244043
4.7193847,11.222803,3.414453,3.2489257,5.605615
5.0091796,11.1542,4.5541015,3.971582,6.898584
5.50332,11.267237,5.1986327,4.8368163,8.6644535
6.228906,11.141504,5.796533,5.6671386,9.198145
6.940332,11.269678,6.202783,6.1048827,9.520655
7.101953,11.514551,6.3822265,6.275781,9.615381
6.8402343,11.735498,5.851953,5.8827147,9.11001
5.579004,11.628077,4.3163085,4.859033,8.232813
4.9723144,10.907373,3.7281737,4.2264647,7.3980956
4.726709,10.29751,4.308252,4.0960937,7.2643065
4.636377,10.188623,4.096826,4.0265136,7.254297
4.7347655,10.245996,3.9674315,3.754541,7.5768065
4.704004,10.405176,3.63833,3.6275878,7.747949
4.5890136,10.646631,3.4928222,3.4884276,7.9879394
4.385156,10.18252,3.943994,3.5858397,8.298731
4.732324,9.988428,4.562158,4.213281,8.439356
4.9620605,10.204737,4.580713,4.4828124,8.055323
5.3163085,10.466455,4.7520995,4.754297,8.340479
5.3458495,10.676905,5.0294433,5.3236327,8.626856
5.47207,10.983301,5.310205,5.690576,8.890528
5.530664,11.173487,5.7083983,6.180078,9.264063
5.7000976,11.452784,6.0404296,6.4723144,9.5064945
6.070947,11.851709,6.355371,6.8617187,9.974024
6.452295,12.379541,6.6429687,6.772363,10.690577
6.923486,13.133692,6.780908,6.7611327,11.424463
7.36416,13.443018,6.995752,6.875879,11.979639
7.6771483,13.704737,7.169824,7.161279,12.296289
8.113428,14.1957035,7.4395995,7.402002,12.834375
8.615137,14.643457,7.7989745,7.723535,13.741602
9.11001,14.508936,8.003077,8.062647,13.755274
9.840967,14.448389,8.207911,8.27334,13.425196
10.161524,14.411524,8.300684,8.425684,13.123682
10.298487,14.370752,8.283594,8.42959,12.675196
10.430811,14.304102,8.438868,8.456446,12.351221
10.438379,14.083887,8.613184,8.433252,12.119532
10.334375,13.845606,8.832178,8.719141,12.194727
9.963282,13.865381,9.048487,9.024073,12.158106
9.783106,13.769922,9.163233,9.224024,11.370752
9.843164,13.592188,9.1271,9.148584,10.757959
9.746485,13.809961,9.308008,9.268702,10.388819
9.488916,13.474512,8.6896,8.943018,10.251368
9.13711,13.407373,8.829737,9.219873,10.595606
9.127588,13.533838,8.753565,9.554346,11.073145
8.970118,13.615137,8.683496,9.167383,11.019922
9.073877,13.287989,8.919092,8.848291,11.085108
9.099512,13.361963,8.748682,9.203028,11.106348
9.356592,13.385889,8.317286,9.371973,10.472559
9.392725,13.388819,7.922998,8.557276,10.390772
9.705225,13.321192,8.082666,8.276758,10.504053
9.905909,13.421534,8.767969,8.514307,10.763819
10.501612,13.5863285,9.567286,9.1627445,11.777002
10.594385,13.705957,10.554102,9.922022,12.491602
10.851221,13.856836,11.051172,10.550196,12.980127
10.810205,14.176661,10.851709,10.902491,12.616602
10.868067,14.436182,10.500147,10.496973,12.398584
10.760157,14.51919,9.949366,10.153955,12.149805
10.945459,14.572657,9.995508,9.931543,12.448145
11.332911,14.5724125,10.264063,10.265528,12.8224125
11.655909,14.565821,10.538233,10.846582,12.970362
11.791407,14.731592,10.912256,11.339991,13.113428
11.940821,14.853907,11.262354,11.658594,12.971582
11.932764,14.829248,11.604639,11.956446,13.08877
11.788721,14.950586,12.013575,12.316797,13.528955
11.524561,14.642481,12.170557,12.433985,13.285303
11.2721195,14.204493,12.124903,12.391993,12.891748
10.973536,13.674707,11.719385,12.174219,12.520899
10.551172,13.464258,11.386621,11.751856,12.51626
10.368067,13.25503,11.175196,11.296045,12.400049
10.179102,13.369776,11.024561,11.078516,12.208887
10.06753,13.553125,10.962549,10.832422,12.108545
9.859766,13.632227,10.74209,10.751612,12.084131
9.660303,13.648096,10.392237,10.593897,12.008692
9.504297,13.549952,10.213526,10.427881,11.907129
9.4144535,13.533594,10.311426,10.648096,11.964991
9.171289,13.599024,10.438379,10.610498,12.013086
9.003077,13.6488285,10.503321,10.639063,12.078516
9.082911,13.56045,10.444727,10.605371,12.038477
8.924463,13.337793,10.502832,10.503565,12.043848
8.609766,13.196192,10.166651,10.250391,11.826563
8.417627,13.2269535,9.743799,9.944727,11.438868
8.24795,13.200342,9.374659,9.338282,11.273584
8.0550785,13.196436,9.167139,8.883448,11.241358
8.179346,13.186182,9.267725,8.734034,11.266016
8.16958,13.18545,9.216944,8.704493,11.239161
8.258692,13.183985,9.125147,8.601465,11.161036
8.361963,13.180323,9.045557,8.629053,11.265528
8.472803,13.319239,9.046045,8.816797,11.111963
8.728907,13.108789,9.073877,8.993067,10.749903
