"[299, 255]","[227, 248]","[287, 319]","[279, 328]","[230, 262]"
10.966944,15.550684,11.082422,10.793848,12.76333
10.657862,15.285547,10.873194,10.795801,13.174463
10.80459,15.407129,10.868555,10.6974125,12.80044
10.695948,15.666895,10.63711,10.30459,12.663233
10.340479,15.826563,10.4161625,9.925196,12.526758
10.036524,15.689356,10.198633,9.811426,11.521875
9.895166,15.58169,9.683985,9.25625,13.209375
9.332178,14.947168,8.556543,7.969873,13.490381
9.520655,14.968164,8.535059,8.045557,13.80459
9.847071,14.951075,9.606348,9.077051,13.846827
10.422998,14.913965,10.550684,10.04043,13.59878
11.057764,14.833155,11.486963,10.597315,13.563135
11.473047,14.585108,12.054346,11.5846195,13.659571
11.536524,14.49917,12.347071,11.9144535,13.794092
11.439844,14.512842,12.048975,11.721338,13.315088
11.086817,14.177881,11.511377,11.141504,13.001856
10.288477,14.14834,10.900782,10.41128,11.427881
9.0238285,14.059229,9.798731,9.420069,10.316553
8.371241,13.609034,8.56753,9.179102,10.463282
8.214746,13.680323,9.313868,8.661768,11.508692
7.8680663,13.640284,9.668604,8.850489,11.098047
7.5492187,13.353907,8.488428,8.671778,11.280664
7.4217772,12.977686,7.8421874,8.027735,10.694239
7.2298827,12.788965,7.723291,7.5382323,10.307764
7.0770507,12.642969,7.111963,7.1568847,9.107569
7.0301757,12.432032,6.876611,6.6231933,8.280664
7.250879,12.549463,6.5094237,6.7606444,7.563867
7.226953,12.568506,6.176904,6.4339843,7.639795
7.082666,12.532862,5.364404,6.421045,7.6722655
6.9986815,12.407129,4.974756,6.468408,7.223779
6.9725585,12.287989,4.763574,5.860254,7.3495116
7.191797,12.150782,4.7794433,6.0562987,7.8163085
8.131739,12.378565,6.852197,7.3878417,9.25625
9.499414,12.663721,8.042627,8.44668,11.333887
10.510157,12.882715,8.988428,9.524561,12.539209
11.160791,13.1957035,9.808985,10.693262,13.204248
11.488916,13.557032,10.352198,11.219385,13.604883
11.518213,13.864405,10.927149,11.470606,13.78335
11.205225,14.092676,11.226221,11.215235,13.528955
10.709864,14.222071,10.547754,10.356348,12.906885
9.526026,14.338526,8.859522,9.060938,11.790186
9.236475,14.450098,8.009668,8.440577,11.102686
8.644922,14.215235,8.042139,7.942529,11.163477
8.058496,14.056299,8.280664,7.6856933,10.455469
7.5157714,14.104395,7.1703124,7.265039,9.040674
7.282373,14.034327,6.582422,6.8841796,9.220362
6.7137694,13.936914,6.207666,6.756494,9.455225
6.584863,13.536036,5.396875,6.5160155,8.508692
6.556787,13.326807,5.0799804,6.4046874,8.053125
6.6759276,13.515284,4.7850585,6.2660155,7.77041
6.299463,14.011377,4.2186522,6.0074706,8.646631
5.6874022,14.355616,3.7748046,6.039697,9.627344
5.0614257,13.877588,4.054834,6.059961,9.494776
4.983545,13.231348,4.601953,5.9845214,8.843164
5.3280272,13.511133,4.462793,5.766504,9.81753
5.4618163,13.677149,4.926416,5.6708007,10.474024
6.676172,12.653955,5.283838,6.08999,11.124903
8.152735,12.947657,6.221582,7.193506,12.12417
9.004786,13.162989,7.4381347,8.420313,12.749903
9.485743,13.524805,8.811426,9.196924,13.379297
9.783594,13.778467,10.120752,9.554834,13.332422
10.090479,13.876368,11.011377,9.8363285,13.085352
10.198877,14.043116,10.871241,9.908838,12.871241
10.153223,13.876368,10.2252445,9.390284,12.302393
8.881739,13.717676,8.902491,8.580713,10.33877
8.14834,13.573389,7.468408,7.7452636,8.991602
7.3438964,12.870508,6.612451,6.761621,8.698633
7.0470214,12.673243,6.267236,6.587793,8.998194
6.794336,12.719385,5.803125,6.4742675,9.3207035
6.63833,12.559961,5.726709,6.351709,9.068506
6.664453,12.423487,5.595117,6.1930175,9.764551
6.4864745,12.532373,5.3802733,5.921045,9.861475
6.3282714,12.529932,5.147119,5.7591796,9.08169
6.259668,12.346338,4.971338,5.6493163,9.799463
6.1776366,12.370752,3.687158,5.013086,9.461084
6.096582,12.301416,2.8246093,5.1407714,8.409571
5.8578124,12.36709,3.2989745,5.714502,9.187159
5.5301757,12.236231,4.690088,5.6095214,8.268946
5.8368163,12.323145,4.8492675,5.7228026,8.941553
6.1979003,12.409082,4.652246,5.6839843,7.7726073
7.268457,12.579737,5.6200194,6.427881,8.558008
8.289209,12.672998,6.468408,7.1341796,11.566797
8.8814945,12.7564945,7.5890136,8.120996,12.456202
9.66958,13.114161,8.682276,9.156153,12.610987
10.143946,13.58877,9.414942,9.98501,13.23794
10.280664,13.976709,9.807764,10.390284,13.286768
10.173731,14.192041,10.115137,10.396875,13.012842
9.520655,14.077295,9.266504,9.392481,12.184717
7.4950194,13.925196,6.8421874,7.5250487,10.367823
6.611963,13.888086,6.240381,6.8583007,9.944727
6.2418456,13.890528,5.624658,6.133447,10.427393
6.3995605,13.900049,4.9513183,5.1759276,10.575098
6.0611815,13.891748,4.2157226,5.681543,10.903467
5.626611,14.090235,3.4137206,5.7606444,9.724268
5.2726073,14.200098,3.94375,5.5248046,8.4161625
4.356836,14.124659,3.92666,5.440088,8.050196
3.7970214,13.82461,3.4833007,5.898828,8.01626
3.334619,13.878565,4.3426757,5.954492,7.985742
3.0433593,13.848047,2.9674315,6.1649413,8.3363285
3.6129394,14.016748,4.1078124,6.35,8.889551
3.2237792,14.0099125,5.7083983,6.5665526,9.444727
2.8563476,14.06167,5.5873046,6.2208495,9.626123
2.7774901,14.054346,5.44375,6.025293,9.500879
3.27041,13.985743,5.3958983,6.185449,8.824854
5.6166015,14.205225,6.2362304,6.74917,9.417627
7.451074,14.414209,7.7384276,7.718408,10.9786625
9.113916,14.5550785,8.593164,8.594629,12.198145
9.575342,14.489893,9.32168,9.326563,13.148584
9.834131,14.5255375,10.219629,9.74209,13.785547
9.551416,14.727442,10.307276,10.109766,13.735498
9.116358,14.881006,10.401026,10.790918,13.439844
8.951807,15.000391,9.752344,10.450342,12.958399
8.712061,14.856104,8.441065,9.635889,12.094141
8.519678,14.503565,8.3146,9.100489,11.664942
8.622217,14.29336,8.444483,8.920801,11.657129
8.515284,14.7425785,8.577539,8.971094,11.987452
8.46792,15.183985,8.880518,9.316309,11.780176
8.377344,15.209131,8.930323,9.396875,11.962549
8.337061,15.067041,9.36294,9.617334,12.425684
8.118067,15.094873,10.052637,9.415918,12.606104
7.9464355,15.374414,10.040186,9.354639,12.6625
7.7875,15.055567,10.187159,9.921778,12.8346195
7.987207,15.048243,9.930323,10.004297,13.015039
8.264795,14.929834,9.986963,9.864649,13.11294
8.266016,14.885645,10.097803,10.40127,13.106592
8.524805,14.541407,10.238916,10.096338,12.601465
8.712793,14.946436,10.948633,10.441309,13.379786
8.882227,14.887354,11.098291,12.023584,13.640039
9.126612,15.045557,11.169825,12.207422,13.576075
9.461573,15.1644535,11.535547,12.980371,13.959131
9.496485,15.219629,11.860987,12.958399,14.146387
9.6158695,15.658838,12.093164,13.346094,14.502588
9.438379,16.155176,12.278711,13.605616,14.99209
9.313868,16.437159,12.361963,13.860743,15.469873
9.411524,16.70254,12.659327,14.551172,15.869776
9.892237,16.76626,13.007471,14.640772,16.07583
10.792139,16.652979,13.329981,14.671289,16.112452
11.627344,16.64956,14.628321,14.728907,16.160547
12.468653,16.657618,14.767969,14.885157,16.208399
13.180323,16.700098,14.792871,14.909327,16.246485
13.545557,16.731104,14.739405,14.773096,16.261377
13.745508,16.712793,14.844629,14.427881,16.302637
13.687403,16.731348,14.892237,14.330469,16.228907
13.253077,17.045801,14.758448,14.408838,16.232569
13.399561,17.051416,14.615137,14.332666,16.224024
13.47085,17.087305,14.302149,14.079004,16.28335
13.672998,17.068018,13.87295,13.846582,16.279444
13.969141,17.081446,14.110743,13.86001,16.332422
14.177881,17.175684,14.422754,14.196436,16.440577
14.300684,17.20547,14.894922,14.49795,16.527735
14.464991,17.183985,15.172998,14.690088,16.575342
14.727442,17.241846,15.226709,14.872461,16.520899
14.808741,17.322657,15.359766,15.021387,16.605616
14.890528,17.293116,15.685205,15.295557,16.726465
14.935205,17.271631,15.958399,15.780664,16.813135
15.014795,17.34463,15.967188,16.193995,16.813868
15.141748,17.340723,15.978418,16.246729,16.806787
15.143946,17.415674,16.004297,16.229395,16.668604
15.074366,17.601954,16.04214,16.222315,16.68838
14.973047,17.61172,15.985498,16.261866,16.729395
14.766504,17.446436,16.064356,16.240381,16.619532
14.792139,17.487207,15.954248,16.208155,16.58462
14.812891,17.471094,15.806299,16.103174,16.599268
14.730616,17.455225,15.847071,15.943262,16.53628
14.564844,17.413965,15.900049,15.968409,16.467188
14.35,17.42129,15.808496,15.9596195,16.537256
14.021143,17.386377,15.669825,15.843164,16.571192
13.815088,17.329737,15.53042,15.692774,16.48623
13.534571,17.24331,15.201563,15.566797,16.330225
13.338526,17.159082,14.930567,15.360254,16.257227
13.154444,17.145166,14.628809,15.031397,16.301172
12.860987,16.922022,14.616846,14.801661,16.271143
12.5292,16.764795,14.363916,14.480616,15.776514
12.323389,16.712793,14.433496,14.253321,15.703028
12.244043,16.65127,14.341944,13.964991,15.612207
12.316797,16.726465,14.07461,13.756006,15.704248
12.550196,16.895655,14.197657,13.612207,15.879786
12.759668,17.234522,14.178858,13.789942,16.214746
13.125879,17.3854,14.376368,13.991602,16.507471
13.822168,17.369043,14.629053,14.508448,16.666162
14.407618,17.454004,15.342676,15.503077,16.95791
14.955469,17.398584,15.448877,15.643457,16.930323
15.371973,17.404932,14.990625,15.050196,16.707666
14.8502445,17.26748,14.678125,14.668604,16.621729
14.434961,17.129053,14.570215,14.530909,16.488672
13.970362,17.278711,14.625879,14.837793,16.472803
13.715235,17.247705,15.074366,14.962793,16.13125
13.644678,17.012842,15.069727,14.784082,15.753809
13.954737,17.052637,15.038965,14.651758,15.378565
13.984522,16.808985,14.719629,14.030176,15.417871
13.781641,16.683252,14.287256,14.046289,15.30044
13.461084,16.585108,14.128809,14.172022,15.083399
12.99209,16.578028,14.310694,14.135157,15.072901
12.955957,16.473047,14.141016,13.951319,14.7096195
12.871973,16.347315,13.969141,13.747461,14.444483
12.757227,16.278467,13.523096,13.437647,13.942774
12.495264,16.144922,12.752344,12.580225,13.961084
12.160791,16.15005,12.071192,12.329004,13.605616
11.847559,16.077295,11.956934,12.066553,13.579737
11.451319,15.976221,11.800928,11.682764,13.592188
11.456934,15.831446,12.101465,11.864161,14.218653
11.744776,15.947901,12.836084,12.851221,14.770655
12.635157,15.84292,13.569483,13.5689945,15.1783695
13.207666,15.870264,14.080225,13.747461,15.205225
13.707422,15.883448,14.006739,13.954981,15.127832
13.81753,15.878321,13.838526,13.843164,15.160303
13.706934,16.002588,13.328516,13.734278,15.140528
13.337793,16.226221,13.064844,13.269678,14.964258
12.569483,16.425928,13.021875,13.049707,14.694971
11.808496,16.556543,13.0099125,12.9908695,14.885645
11.348291,16.561182,13.322901,13.3050785,15.153467
11.705957,16.72793,13.340479,13.360743,15.265528
11.99209,16.741358,13.545069,13.402491,15.358301
12.087061,16.742334,13.63125,13.519678,15.440821
12.12417,16.810938,13.709864,13.665674,15.6349125
12.145166,16.794092,13.919092,13.820215,15.6471195
12.035547,16.86001,13.864161,13.753321,15.658594
12.065577,16.884424,13.846582,13.614893,15.660303
12.24795,16.86001,13.504053,13.435205,15.545557
12.223291,16.81753,13.454981,13.354395,15.509668
12.26919,16.803858,13.274561,13.296778,15.237696
12.402491,16.837305,13.284327,13.59585,14.961084
12.524561,16.818262,13.434717,13.471827,14.920801
12.63711,16.825586,13.682032,13.582911,15.177149
12.832911,16.83584,14.051172,13.858789,15.375879
13.142969,16.882471,14.414698,14.159327,16.097559
13.626856,16.960352,14.847315,14.357569,16.447412
14.144922,16.973536,14.468409,14.4396,16.676905
14.62417,17.007715,14.760645,14.703028,16.813135
15.100489,17.004297,14.878077,14.823877,16.664942
14.86294,17.034327,14.819971,14.83169,16.484522
14.307032,17.028711,14.642481,14.521631,16.218653
13.677393,17.078516,14.478174,14.146875,15.937403
13.354883,17.098536,14.310205,14.036036,16.005518
13.220362,17.137598,14.405176,13.903711,16.16714
13.12295,17.146143,14.519922,13.972803,16.223047
13.050928,17.19546,14.623194,14.238672,16.357325
13.174219,17.222803,14.6974125,14.300196,16.351221
13.440332,16.98794,14.735743,13.573633,15.946192
13.351465,16.753565,13.817286,12.717188,15.421534
13.319727,16.538965,12.573145,12.279688,15.218164
13.424463,16.550928,11.783838,11.675196,14.455713
13.137598,16.427393,11.261866,11.103174,13.310938
12.444483,16.290918,11.286524,10.764795,12.789209
12.495264,16.242579,11.049952,10.241358,12.063379
12.2286625,16.11416,10.747217,10.051416,11.663721
11.795069,16.01797,10.176661,10.269678,11.352198
10.8207035,15.905176,9.903955,10.379786,11.029688
10.635889,15.87417,10.247705,10.744043,11.484766
11.376856,15.882715,11.44668,11.372217,13.261377
12.197657,15.915186,12.680811,12.774317,14.721094
12.859278,15.896631,13.578516,13.432764,15.266504
13.255762,15.954004,13.792139,13.775293,15.443506
13.324854,16.084864,13.811426,13.8502445,15.363672
13.072168,16.240137,13.320215,13.32583,14.979395
12.187647,16.244043,12.212549,12.537012,14.133936
11.304834,16.104883,10.950342,11.414209,13.204248
11.234766,16.198145,9.619776,10.823145,13.161524
11.317041,16.268213,10.108545,10.287012,13.761133
12.152002,16.677881,9.643946,10.414942,14.37417
12.821436,16.833155,10.15542,10.373926,14.997217
13.123194,16.788965,10.659571,10.475733,15.469629
13.114893,16.957178,11.077295,10.995752,15.73208
13.068018,17.08755,11.749903,11.284082,16.029688
13.259668,16.893946,12.767481,11.644678,16.111963
13.428858,17.079004,13.312403,12.298243,16.129297
13.421289,16.919092,13.834375,12.912012,16.048975
13.519922,16.869532,14.146631,13.252588,15.771875
13.404444,16.79751,14.421289,13.661768,15.76333
13.287989,16.742334,14.30044,13.962549,15.56753
13.168848,16.720362,14.038721,14.016993,15.398096
13.118799,16.882227,13.504786,13.844141,15.728907
13.4317875,17.16421,13.669092,13.98086,16.490137
13.660791,17.280176,14.627588,14.444239,17.120508
13.734278,17.449854,15.368799,15.038965,17.57583
13.88833,17.634912,16.122461,15.639307,17.722559
14.377344,17.846582,16.592432,16.277979,18.013575
14.736475,18.090479,16.691553,16.501856,18.193262
14.556055,17.883204,16.557276,16.085596,18.01797
13.987452,17.527002,16.279688,15.618555,16.9479
13.6271,17.272364,15.935938,15.3207035,16.560205
13.621973,17.00918,15.4667,15.165186,16.206446
13.5064945,16.88711,14.886621,14.609278,15.870508
13.027735,16.805079,14.159571,14.170069,15.848291
12.567286,16.64248,13.790186,14.208643,15.683008
12.5099125,16.607569,13.94253,14.193018,15.561914
12.669336,16.876368,13.746241,14.05459,15.829493
12.888086,16.883936,13.845606,14.125635,15.560205
13.0021,16.793116,14.235743,14.0292,15.751123
13.184961,15.869532,14.698145,13.944483,14.245996
13.4125,16.363916,14.194971,13.647852,14.069239
13.665186,16.209375,13.627588,12.911524,13.4283695
13.1644535,16.04629,12.537012,12.249903,13.074366
12.465723,15.941553,11.71792,11.900293,12.376612
12.274073,15.934473,11.167627,11.468409,12.120996
11.713282,15.82461,10.886133,10.864161,11.717188
11.462793,15.676416,11.053125,10.6957035,11.725489
11.645655,15.638086,11.718653,11.721338,13.074121
12.112452,15.641748,12.625635,12.784082,14.333399
12.749903,15.773584,13.228174,13.50625,14.958643
13.150049,15.86294,13.677149,13.773096,15.248438
13.333887,16.083887,14.128321,13.74795,15.252588
13.210596,16.235254,13.412989,13.673975,14.911768
12.297998,16.284082,12.297022,12.746973,14.07168
11.166895,16.05874,11.558008,11.670069,13.198145
10.934717,16.022364,11.601709,11.13418,12.9127445
10.720118,15.94375,11.680323,10.813135,13.022364
10.563379,15.941553,11.254786,10.858301,12.809961
10.391504,16.033594,10.471338,10.767969,12.717676
10.180567,15.933496,10.136377,10.6,12.655664
10.047754,15.953028,9.668848,10.296534,12.751368
9.843897,15.829493,7.881738,10.106836,12.875391
9.771631,15.662012,9.307764,10.106348,12.712305
9.58169,15.57168,9.75625,9.995996,12.48501
9.66836,15.514063,9.331934,9.706446,12.894922
9.650293,15.401026,8.677881,9.446192,12.441797
9.586084,15.07168,8.906397,9.149073,12.1471195
9.601465,15.1488285,8.871729,8.917627,12.117334
9.689356,14.977442,8.852686,8.795069,11.781885
9.586084,15.019434,8.955957,8.704493,11.91543
10.018702,15.124659,10.072168,9.170557,12.424707
11.061182,15.203028,11.71084,10.38125,13.344141
11.927637,15.558496,12.798487,11.819727,14.362207
12.458643,15.848291,13.507959,12.748438,15.310938
13.080225,16.16543,13.999414,13.344629,15.734522
13.248438,16.447657,13.946192,13.645166,15.857569
12.980127,16.782862,13.5082035,13.437403,15.842676
12.38003,16.935694,12.686914,13.101465,15.072657
11.970362,16.863916,12.665918,12.37295,13.526026
12.007959,16.737696,12.434961,11.974512,13.308252
11.918604,16.475977,11.5533695,11.600977,13.645166
11.925196,16.560205,11.05752,11.109766,13.560694
11.739893,16.43252,10.856348,10.807276,13.675684
11.9596195,16.33877,11.034082,10.580225,13.546778
12.038233,16.395655,11.613672,10.644678,13.588526
11.921534,16.756006,11.74209,11.2911625,13.948389
12.060694,17.082422,12.000635,11.672266,14.346582
12.198877,17.204004,11.708155,11.877832,14.103174
12.38003,17.055079,11.593653,11.4317875,15.126123
12.47793,16.873926,11.135401,10.900049,15.688868
12.60293,16.627832,11.02334,10.703516,15.433252
12.840967,16.598047,11.32461,10.737452,14.987452
12.889551,16.71792,11.612207,11.022852,14.624659
13.148584,16.68838,11.952051,11.454493,13.688623
13.4596195,17.247461,12.572657,11.924707,13.667627
14.079493,17.934961,13.625391,12.920801,15.631983
14.890284,18.519678,15.038233,14.032373,17.830713
15.483545,18.861963,16.014551,15.0646,19.057276
16.282862,18.999414,16.360254,15.707422,19.435205
16.521387,18.983301,16.401026,16.120752,19.235498
16.12832,18.950098,16.30166,15.990137,18.954737
15.265284,18.798243,15.526758,15.451075,18.203028
14.418604,18.571924,14.508692,15.487207,17.241114
14.267481,18.429346,14.266504,14.67959,16.98672
14.464502,18.195948,14.202539,13.892725,17.040918
14.391748,17.987696,13.998194,14.059473,16.640528
14.081202,17.749659,14.254053,13.939112,16.044092
13.79336,17.632715,14.185694,13.906153,16.059961
13.828516,17.64834,13.909571,13.576563,15.774073
13.987696,17.683008,13.497461,13.547754,15.623926
14.118799,17.596582,12.855127,13.370508,15.479883
14.123926,17.706446,12.642725,13.402246,15.405909
14.051905,17.745996,12.73208,13.345118,15.832666
13.923731,17.552149,12.88003,13.4125,15.951075
13.766748,17.422266,13.032618,13.493799,15.863916
13.767237,17.252588,13.178858,13.172998,15.401026
13.971094,16.7167,13.777491,13.406885,15.549463
13.937403,16.60879,14.226465,13.788721,15.3050785
14.093653,16.123682,14.282862,13.698145,14.933741
14.357569,16.059717,14.045313,13.822168,15.116846
14.799219,16.09463,14.152246,14.165918,15.3380375
14.989649,16.26504,15.542627,14.989161,15.503321
14.847803,16.187403,15.734034,15.476709,15.6505375
14.603174,15.894678,15.474756,15.266748,15.617334
14.391016,15.980371,14.891993,14.766748,15.339502
14.030664,15.704737,14.265528,14.387842,15.093897
13.416895,15.211084,13.749903,13.96377,14.602442
13.184717,14.878077,13.325342,13.590479,13.988428
12.764307,14.608545,13.538965,13.190821,13.448145
12.481104,14.404932,13.520655,12.871485,13.290186
12.06753,14.528955,13.364405,12.8971195,12.959864
11.905664,14.549463,13.595362,12.73794,12.885645
11.632471,14.472315,13.280909,12.505274,12.193018
11.0863285,14.256739,13.173243,12.784082,11.752588
10.777002,14.238428,12.845118,12.364161,11.107813
10.474024,14.386866,12.317774,11.730371,10.538965
10.177637,14.20083,11.326075,11.365137,10.275782
9.666651,14.173975,10.603907,10.578516,10.099268
9.336084,14.060205,10.608789,9.843897,9.451075
8.506739,14.12002,9.489161,9.158838,9.181543
8.063379,14.188135,8.771387,8.698145,8.743555
7.5296874,14.1471195,8.413233,8.373682,8.440577
7.764795,14.203028,8.659082,8.387598,8.630762
8.831202,14.15127,9.604639,9.114649,10.331934
9.85708,14.295069,10.769678,10.282862,12.355616
10.745264,14.51626,11.426905,11.333887,13.497217
10.914942,14.799707,11.7442875,11.964258,13.829248
11.208155,15.069971,11.953028,11.97085,13.821436
11.067286,14.929346,11.4908695,11.641748,13.563868
10.254786,14.980371,11.019922,10.485254,12.4125
8.972071,14.887842,9.4613285,9.654932,11.38711
8.472315,14.759424,8.864893,9.647852,11.120264
8.354639,14.765039,8.750879,8.587793,11.07461
8.259424,14.764551,8.670069,8.46377,10.445215
8.172022,14.602686,8.831446,7.989404,11.186182
8.13418,14.336573,8.19961,8.546289,10.833155
8.089991,14.23086,7.1864257,8.543848,10.807032
8.055811,14.163965,7.9254394,7.9513183,10.796534
7.8578124,13.856348,7.8836913,7.613916,10.629541
7.7401366,13.544092,6.8995605,7.3458495,9.884668
7.6061034,13.531153,5.903955,7.1949706,9.6002445
7.5436034,13.389307,5.4085937,6.9708495,9.062403
7.7000976,13.271143,5.254541,6.8006835,8.795557
8.136621,13.120996,5.6354003,6.7503905,8.598291
9.148096,13.074121,6.09707,6.6324706,8.159571
9.450098,13.109766,6.6881347,6.5367675,8.381006
9.660791,13.282373,7.261865,6.8426757,9.121729
10.149805,13.498926,8.406885,7.819238,10.46792
10.832911,13.7442875,9.731592,9.016016,11.952784
11.080225,14.160791,10.782129,10.126123,13.2269535
11.606836,14.160303,11.637354,11.258448,13.484522
11.891748,14.433985,12.564112,11.85293,13.587793
11.952784,14.62417,12.503809,11.899317,13.440821
11.730616,14.729151,11.905176,11.496485,13.105127
11.589014,14.4144535,11.718164,11.17959,12.89834
11.702784,14.254541,11.532129,11.324121,12.976221
11.778223,14.628809,11.375391,11.4125,12.996485
11.649561,14.6175785,11.7792,11.389795,13.191797
11.679834,14.083643,11.755274,11.103174,13.336573
11.945215,14.1939945,11.671534,11.104395,13.226221
11.986475,14.47378,11.868555,10.863184,13.192041
11.819239,15.087793,12.256739,10.269922,13.273096
11.726709,15.2911625,12.358789,10.821192,13.297998
11.596582,15.221094,12.485498,11.210596,13.156397
11.673243,15.208887,12.519922,11.364649,12.306055
11.587061,15.373438,12.516993,11.174952,12.724512
11.65127,14.872217,12.379786,11.393457,12.9042
11.572901,14.613428,12.070948,11.507959,12.179834
11.5533695,14.616358,12.174219,11.481348,11.450586
11.5550785,14.80459,12.250147,11.51333,11.211817
11.724268,14.912256,12.28628,12.003077,11.710596
12.435205,14.940577,12.899317,12.6036625,13.131006
12.885157,15.282618,13.551661,13.219141,14.296289
13.531641,15.710108,14.380274,13.782129,15.067286
13.745752,16.494532,14.804834,14.297022,15.532373
13.786524,16.676905,14.878809,14.533106,15.7252445
13.639795,16.656641,14.583155,14.385889,15.69961
13.218653,16.316309,13.915918,13.563135,15.021875
12.649317,15.575098,13.274317,12.844629,14.4474125
12.318262,15.467432,13.079981,12.460108,14.167383
11.920313,15.490625,13.01626,12.473536,13.906885
11.667383,15.723291,12.800196,12.339746,13.833887
12.428125,15.620264,11.940577,12.155909,13.88833
12.616358,15.469629,11.9630375,11.607813,13.934229
12.500635,15.685694,12.038233,11.607325,13.9613285
12.408106,15.602198,12.021387,11.829248,13.705225
12.309717,15.504541,12.056055,12.040186,13.234034
11.827051,15.586817,12.187891,11.910791,13.238428
11.910547,15.481348,12.452784,12.05752,12.603418
11.891016,15.386133,12.500635,12.251123,12.373926
11.83584,15.216944,12.662256,12.347315,12.183008
11.663233,15.073389,12.730616,12.222071,12.388819
11.091944,15.280176,12.399317,11.789698,12.543604
10.741846,15.610254,12.256006,11.858057,12.820215
10.628809,15.802881,12.003565,11.965235,13.4630375
11.239405,15.58584,12.020411,12.090479,14.12417
12.085596,15.874414,12.528223,12.228907,14.546778
12.866846,16.00625,13.287256,12.698145,15.15835
13.224268,16.213282,13.884668,13.339014,14.964991
13.431055,16.462793,13.860254,13.5394535,15.094873
13.377588,16.525782,13.799463,13.294825,15.238916
12.785059,16.083643,13.666407,13.13003,14.750147
12.482569,16.147608,13.625635,13.219141,14.474512
12.8502445,16.40957,13.596094,13.3033695,14.683008
12.8971195,16.409815,13.583887,13.339258,14.741846
12.80044,16.084375,13.340479,12.978907,14.871485
12.82461,16.304834,13.431543,12.9942875,14.8189945
13.042871,16.271143,13.637598,13.1896,14.942774
13.153955,16.393702,13.759668,13.415186,14.990137
12.979395,16.41421,13.597315,13.3067875,15.150049
13.012842,16.513086,13.675196,13.464014,15.196924
12.964991,16.572168,13.736475,13.309473,15.0646
12.927149,16.559473,13.722803,13.38418,14.981836
13.010401,15.146387,13.771143,13.436426,13.500635
13.191065,13.745996,13.863184,13.414209,12.581446
13.223536,13.377344,13.823877,13.518946,11.80459
13.1957035,12.961573,13.903711,13.607325,11.908594
13.191065,13.042139,14.05044,10.9942875,11.513575
13.188135,12.796534,14.104883,10.620996,11.332422
13.206934,12.6505375,12.534571,10.296534,11.057764
13.486719,12.451807,10.75918,10.62002,11.360987
13.518213,12.375147,10.834375,10.439356,11.290674
13.321436,12.333643,11.017725,10.339014,11.021387
13.113184,12.274317,10.872461,10.327784,10.815332
13.110743,12.176172,10.754297,10.324121,11.04043
13.02334,12.395655,10.700586,10.242823,10.952539
13.066797,12.300684,10.699366,10.410791,11.041407
13.189844,12.296534,10.654688,10.406397,11.172998
12.982325,12.363916,10.690088,10.307032,11.19961
13.036036,12.254786,10.678125,10.298731,11.149561
13.049707,12.222559,10.656641,10.210596,11.030909
13.047754,12.400782,10.457666,9.952295,10.921289
13.04751,12.648584,10.266748,9.890772,10.896631
13.042139,12.920069,10.200586,9.982569,11.0082035
12.983545,13.065577,10.241114,10.017725,11.123438
11.399073,13.243311,10.215479,9.995508,11.191553
11.003077,13.476221,10.185694,9.878809,10.740381
10.719629,13.3224125,10.018702,9.795801,10.482569
10.448389,13.20376,9.938623,9.547754,10.6896
10.369532,13.426172,9.7408695,9.2167,10.1332035
10.334375,13.53042,9.545557,9.020655,10.287989
10.387598,13.430323,9.417627,8.983545,10.656153
10.442774,13.068506,9.403223,9.089502,10.818506
10.370264,13.091944,9.555811,9.419336,11.245752
10.30459,13.282862,9.783838,9.700586,11.968897
10.279932,13.600489,10.080225,9.83169,12.592676
10.213526,14.096827,10.241846,9.985743,12.977442
10.3067875,14.111963,10.359522,10.136621,12.949854
10.301905,14.020655,10.291651,10.017237,12.215723
10.336084,13.990625,10.115381,9.857569,10.597559
10.266016,13.863672,9.9596195,9.369532,8.81875
9.869532,13.657129,9.79336,8.688379,8.557276
9.679102,13.7113285,9.527002,8.164209,8.298243
9.297266,13.960596,8.716944,7.2743163,8.053614
8.875391,14.226221,7.3548827,6.2760253,8.161524
7.7101073,14.392725,6.572168,6.3304687,7.9833007
6.8646483,14.037989,5.3946776,6.532373,8.291407
6.3980956,14.207911,5.1568847,6.3299804,9.958643
6.146631,14.390284,4.6007323,6.2782226,11.290186
6.048242,14.778467,5.8749022,6.4166503,11.223291
6.2000976,14.946192,7.010156,6.8731933,12.729151
6.30874,15.211573,7.9830565,7.5121093,13.488428
6.7396483,15.18667,9.5099125,8.636621,13.44961
6.9061522,15.234278,9.840235,9.031885,13.289942
7.2186522,15.101221,10.033838,9.012842,13.3519535
7.6686034,15.223291,9.937647,9.191553,13.027002
8.057032,14.946436,10.164698,10.020411,13.237207
8.536768,14.94253,10.464014,10.771631,13.230616
9.250391,15.620508,11.518946,12.274805,14.279688
10.062403,16.467432,12.847803,13.079248,15.055811
10.898096,16.557276,13.200586,13.139551,14.836573
11.661768,16.0646,12.79458,12.593164,14.480371
12.047754,15.67959,11.701319,11.758448,13.991114
10.736231,15.266504,11.036524,10.620264,13.581202
10.058741,15.229883,10.504053,10.021387,12.178125
9.291895,15.046534,10.0064945,9.767481,11.449366
8.979883,14.618799,9.96792,9.348536,11.474512
8.619776,14.280664,9.934229,9.357325,11.445948
8.351709,13.979151,9.629541,9.237452,11.576563
8.103174,13.739649,8.822657,8.68252,11.128321
7.8924804,13.458887,8.204981,8.422754,10.793604
7.8199706,13.431543,8.190577,8.377588,10.706202
7.4483886,13.109278,8.250391,7.329004,9.744043
7.37832,13.181299,7.9327636,7.317529,8.791407
7.315332,12.660791,7.669824,7.3719726,9.003321
6.7733397,12.741602,7.6012206,7.3089843,9.163477
6.488916,12.561182,7.032373,7.2848144,8.888575
5.954492,12.617334,6.5350585,7.2049804,9.050684
5.7088866,12.948389,6.674463,7.3719726,9.444727
5.65957,12.806055,7.2188964,7.5802245,9.413233
5.985498,12.725977,6.9535155,7.598779,9.576319
6.709375,12.828516,7.3229003,8.104395,10.14834
7.588281,12.624659,8.419336,8.589991,10.553858
8.333887,12.578272,8.14834,8.476465,10.9752445
8.88003,12.339991,7.6878905,8.839258,11.046289
8.8988285,12.422266,7.5782714,8.320215,10.735254
7.893945,12.433741,7.4132323,6.9588866,10.528223
7.280664,12.624903,5.6793456,6.316797,9.915674
6.5555663,12.664698,6.293115,6.9239745,9.64834
6.098047,12.406641,6.005029,6.751123,9.152246
5.77749,12.534815,6.013086,6.385156,9.548975
5.638086,12.603174,6.0265136,6.351953,9.442286
5.478418,12.397608,6.0821776,6.742822,9.331202
5.551172,12.279688,6.4586425,7.184961,9.444971
5.5125976,12.19961,6.7223144,7.1410155,9.620752
5.468408,12.241114,6.6483397,7.440088,9.223047
5.124658,12.2252445,6.9137206,7.4115233,9.312403
5.425195,12.037989,7.174951,7.5665526,9.277979
5.3736815,12.164209,6.992578,7.688867,9.463526
5.303125,12.32168,7.1961913,7.5121093,9.13418
5.3126464,12.320459,7.552881,7.3680663,9.25625
5.3407226,12.319727,7.8924804,7.3180175,9.32461
5.5121093,12.167871,7.4481444,7.2899413,9.081446
5.52749,12.612207,7.5475097,7.4427733,9.469141
5.629785,12.456446,7.271631,7.4464355,9.370996
5.8807616,12.2792,7.4015136,7.5936522,9.980127
6.7108397,12.582666,7.9793944,8.043848,10.732813
7.0313964,12.664942,8.260889,8.695948,11.309473
7.6893554,12.900049,8.371241,8.967432,11.561426
7.9901366,12.940088,8.143702,9.250635,11.449854
7.5660644,12.916407,8.0863285,9.039209,11.01919
7.5296874,12.698633,7.769922,8.292383,9.967188
7.0572753,12.8675785,7.2206054,7.7577147,9.140772
6.2450194,12.941797,6.6234374,7.3248534,8.472803
5.7240233,13.100977,4.733789,6.716211,8.683741
5.6532226,12.894434,5.279199,7.2569823,8.251123
5.2604003,12.593164,4.8856444,6.275781,8.344141
4.974756,12.409082,6.06582,5.942285,8.248194
4.69082,12.459375,6.4461913,6.267236,7.8680663
4.846582,12.275049,6.641748,6.318994,8.459864
5.1117187,12.308741,5.249658,6.3424315,8.288721
5.7362304,12.5377445,5.5440917,5.65542,9.008692
6.051172,11.661768,5.7054687,5.428369,9.361719
6.3094726,11.290186,5.820459,5.8702636,8.441065
6.4686522,12.314112,6.4601073,6.3285155,9.115625
6.5875487,13.097315,6.570947,6.320459,10.584375
6.59707,14.396631,6.461084,6.082422,11.755762
6.9972167,15.609522,7.1930175,6.2264647,13.431055
7.866113,14.399805,8.415918,7.4652343,11.924219
9.305567,13.8536625,9.514551,8.657129,11.219629
9.934229,13.515039,10.324121,9.956446,11.490137
9.558985,13.2130375,10.45376,10.130518,11.684717
9.020655,12.952539,9.832178,10.04336,11.41958
8.833643,12.8363285,9.7521,9.422022,11.035059
8.602198,12.508448,8.805323,8.751612,11.080225
8.244043,12.3814945,8.6158695,8.45669,10.570215
7.741113,12.485743,8.541651,8.265039,10.356348
7.487451,12.450342,8.390772,8.312647,10.281885
7.402246,12.248682,9.085352,9.015772,10.326563
7.3177733,12.090723,9.226709,8.849268,10.304346
7.174463,11.798243,8.954248,8.881739,10.018702
6.9027343,12.312647,8.543848,8.792627,10.292383
6.77749,12.110498,8.261621,8.552149,10.350977
6.980127,12.134424,8.536036,8.408594,10.09292
6.9242187,12.506006,8.401514,8.198877,10.0082035
7.05166,12.576319,8.131739,8.1019535,10.19961
7.2481933,12.292627,8.178858,7.9708495,10.3988285
7.7989745,12.161768,7.473047,7.31582,10.384424
7.707666,12.221582,7.541162,7.6700683,10.220362
7.178125,12.2911625,8.002588,7.9571776,10.270899
7.5851073,12.090235,7.831445,7.6705565,10.100977
7.490869,12.312891,7.5941405,7.376367,9.875635
7.4217772,12.350977,7.438867,7.1458983,10.451075
7.551904,12.3814945,7.534326,7.150537,10.482813
7.4984374,12.114405,7.3373046,6.9271483,10.5375
7.5592284,12.14834,7.0870605,6.9676757,10.62002
7.8199706,12.332911,7.180322,7.048486,10.963282
7.834619,12.480371,7.159082,7.10708,10.868311
7.1639647,12.464991,6.80874,6.789209,10.463526
6.3490233,12.552393,5.869043,5.969629,9.991602
5.448877,12.525293,5.069238,5.6412597,9.973291
4.6874022,12.207422,3.9305663,5.480615,9.053125
4.678369,11.947657,2.2750487,5.643701,8.576319
4.1495605,11.728174,3.3075194,5.740381,8.549707
4.8561034,11.776514,3.2638183,5.7000976,8.818506
4.829248,11.546534,5.5594726,6.103662,9.0238285
5.135156,11.551905,5.9032226,6.4173827,8.348536
5.2691894,11.323145,5.864404,5.9955077,8.669825
5.454736,11.547754,5.272119,5.890039,8.792627
5.35708,11.635157,5.3006835,5.789209,8.103907
4.742578,11.175684,4.7154784,5.688379,8.161524
4.6288085,11.280909,4.716699,5.422998,7.867578
4.4537597,11.456446,3.539209,5.6217284,7.56167
4.3077636,11.481836,4.3839355,5.803125,8.428858
4.4825683,11.687647,4.2745605,5.4103026,7.778955
4.501611,11.712793,3.007959,5.8634276,7.226709
4.572656,11.580957,3.5592284,5.403955,7.0475097
4.8924804,11.714991,5.1427245,6.129785,7.831201
5.4190917,12.113916,6.5208983,7.195947,9.085596
5.959863,12.102198,7.706201,7.885156,10.056299
6.549463,12.244532,8.543116,8.815332,10.501612
6.8927245,12.341211,8.053125,8.871729,10.403711
6.7206054,12.734522,7.521875,8.346827,10.059961
5.938623,13.103907,6.8583007,7.2708983,9.965967
5.518945,13.403711,6.557031,6.933496,10.528223
5.4496093,13.575342,6.07583,6.8687987,11.152735
5.5875487,13.157618,6.7157226,7.3358397,11.3658695
5.7506347,12.701319,7.5868163,7.999414,10.936426
5.7728515,13.22378,8.059717,7.7674804,11.590479
6.06875,13.498194,8.066797,7.5121093,11.968409
6.516504,13.864893,8.417139,7.7691894,12.402491
6.908838,14.287256,8.935694,8.31167,12.973536
7.275293,14.393702,9.318506,8.613428,13.433008
7.756494,14.789209,9.817041,8.976709,14.070215
8.2521,15.039942,10.382959,9.459375,14.486231
8.788233,15.264063,10.921289,10.250635,14.585108
9.436182,15.735743,11.416407,10.668604,14.8033695
10.151026,15.591944,12.080469,11.66128,14.913477
10.961084,15.652979,13.00918,12.827539,15.07876
11.698389,15.73208,13.688135,14.227686,15.239649
12.517969,15.949121,14.376612,14.548975,15.328516
13.4125,16.060694,14.560205,13.873438,14.557764
13.748438,14.157862,12.345606,10.982325,12.486963
12.851221,13.200342,10.863428,10.208887,11.863916
10.843897,12.867823,10.166407,9.703028,11.426661
10.098291,12.844141,10.024317,9.506006,11.599268
9.154932,13.090479,9.494532,9.129541,11.296289
8.733545,13.211084,8.479395,8.667383,10.854151
8.198877,12.911524,8.042383,7.9972167,10.420313
7.723291,12.798731,7.5816894,7.5833983,9.9786625
7.103418,12.610254,7.3321776,7.2191405,9.801172
6.580713,12.538477,7.258203,7.8404784,9.77334
6.5782714,12.548243,7.1166015,7.349756,9.427637
6.235254,12.374903,7.0677733,7.1185546,9.319971
5.85,11.991602,6.6754394,6.638086,9.218897
5.641992,12.083887,6.473047,6.6344237,8.703028
5.53457,12.254786,6.480615,6.587793,8.609278
4.763574,12.1314945,6.6585937,6.2916503,8.706446
4.704736,12.284571,6.77749,6.52041,8.702539
4.6029296,12.311914,6.5077147,6.5243163,9.007471
4.550195,12.401514,6.5089355,6.7464843,8.759424
4.6185546,12.527979,6.3802733,6.667871,8.850489
4.689111,12.634424,6.395166,6.471582,9.110743
4.646631,12.841455,6.5992675,6.551904,9.4769535
4.7992187,13.070215,7.025293,6.845117,9.964258
5.8873534,13.396387,8.225733,8.066309,10.8224125
6.925195,13.499659,9.417871,9.627588,11.5550785
7.90542,13.672998,10.245752,10.413965,12.084131
8.504297,13.823877,10.547266,10.758692,12.47793
8.7252445,13.996973,10.696924,10.7582035,12.63711
8.636133,14.145166,10.751123,10.723536,12.830225
8.409327,14.264795,10.690577,10.76626,12.94253
8.32876,14.3067875,10.721338,10.510157,12.957666
8.608545,13.92959,10.8849125,10.518213,12.833887
8.750879,14.195948,11.2894535,10.659571,13.006006
9.123682,14.534571,11.462305,10.819483,13.216944
9.239893,14.797754,11.233057,10.935938,13.595606
9.591944,14.891748,11.205225,10.982569,13.532618
9.722803,14.727686,11.315332,11.123194,13.563379
9.917139,14.799952,11.658106,11.4457035,13.620508
