"[299, 255]","[227, 248]","[287, 319]","[279, 328]","[230, 262]"
-0.074072264,4.0978026,-3.2369142,-2.9544435,0.34609374
-0.58920896,4.2030272,-2.9122071,-2.7515626,0.45375976
-0.18979493,4.219629,-3.1263185,-2.3663087,0.6070801
-0.23984376,4.1302733,-2.5945802,-1.7598633,-0.30429688
-0.5035156,4.0331054,-2.3475099,-1.6329101,-0.71713865
-0.31552735,4.1427245,-1.6404785,-1.6814941,-0.9825195
-0.5467285,4.043115,-1.5113281,-1.6678222,-0.79111326
-0.94003904,3.9464355,-1.2640136,-1.4581054,-0.15561524
-0.8575195,4.0819335,-0.99350584,-1.1827148,0.3709961
0.028955078,4.252832,-0.43979493,-0.69492185,1.1507813
0.55922854,4.5089355,0.38149413,0.12392578,1.9752442
1.4764649,4.9452147,1.101709,0.78115237,2.6961913
1.752832,5.4605956,1.6344239,1.178125,3.3531737
1.6771485,5.7362304,1.5592285,1.0916992,3.914209
1.3971192,5.881494,1.3441406,1.0873047,3.8089843
0.9947754,5.9481444,1.0953614,0.97402346,3.8773437
0.64931643,5.914209,0.73769534,0.56777346,3.7225585
0.5047852,6.1112304,0.61757815,0.07900391,3.4002929
0.52089846,6.3600097,0.50405276,0.410791,3.6
0.55214846,6.2730956,1.0438477,0.6480957,3.5262694
0.65249026,6.207666,1.09292,0.7953125,3.7484374
0.86806643,6.2193847,1.1585938,0.91689456,4.051904
0.9574219,6.1812987,1.2413574,1.0611817,3.8924804
0.9393555,6.2240233,1.1637207,1.181543,3.9288573
0.9854981,6.2586913,1.1339356,1.1732422,4.112451
1.0882813,6.407617,1.2721192,1.1073242,4.3299804
1.1671387,6.6510253,1.3207031,1.059961,4.7396483
1.211084,6.969629,1.159082,0.9388672,5.0353026
1.1722656,7.2325683,0.9881836,0.9898926,5.1234374
1.1766602,7.525537,1.0191895,1.1373535,5.388574
1.3348633,7.4913573,1.1102539,1.4359375,5.588037
1.608545,7.409326,1.3333985,1.6639649,5.7350097
1.7760254,7.5858397,1.5597168,1.7713867,5.764795
2.0421386,7.737451,2.0384765,2.1214843,5.9896483
2.367578,7.8770995,2.815332,2.728662,6.505029
2.7030272,7.950586,3.6249022,3.2040038,6.904199
2.9745116,8.235254,4.1234374,3.766992,7.231836
3.1883788,8.545801,4.2625976,3.98208,7.49624
3.5208983,8.754541,4.1620116,3.9105468,7.5787597
3.5697265,8.940577,3.9828124,3.7157226,7.2486815
3.518701,8.978418,3.874414,3.6126952,6.8583007
3.5680175,9.020411,3.735742,3.5960937,6.9913573
3.6725097,9.156641,3.7127929,3.5921874,7.027002
3.75625,9.163233,3.5421386,3.6114745,6.8124022
3.7953124,8.988428,3.5228515,3.628076,6.9342284
3.6239257,8.822168,3.461084,3.5003905,6.9225097
3.2931151,8.735498,3.5262694,3.7247558,7.224756
2.7523437,8.473536,4.327295,4.159326,7.3734374
2.3043456,8.152491,4.525537,4.399072,7.174707
1.9400879,7.8565917,4.360742,4.2992187,6.625879
1.5970703,7.5436034,3.881494,3.926416,6.174707
1.3917481,7.178613,3.5958495,3.6666503,5.862451
1.1991211,6.916406,3.492334,3.4303222,5.5731444
0.22036132,6.966699,3.2801757,3.129785,5.507959
-0.26083985,7.2472167,2.7660155,2.6546874,5.412988
-0.32797852,7.375879,2.4359374,2.2501464,5.768945
-0.38168946,7.6112304,2.2367187,1.8929688,6.055078
-0.5799316,8.0917,1.7513672,1.7040039,6.4723144
-0.47641602,8.808496,1.8348633,1.7071778,7.5440917
-0.48862305,9.597315,2.0179687,2.084375,8.389551
-0.25375977,9.485987,2.1935058,2.1083007,8.670313
0.0362793,9.353907,2.3446288,2.1368651,8.571924
0.2887207,9.355371,2.5155272,2.5318847,7.9481444
0.44667968,9.495508,2.9969726,2.7770019,6.4242187
0.69277346,9.48208,3.070703,2.4986815,4.7906737
0.99379885,9.10708,3.0609374,2.516748,4.6500487
1.3233887,8.9474125,3.0157714,2.5858397,4.907373
1.5182129,8.688379,3.0460448,2.487451,5.1527343
1.7264649,8.373682,3.13125,2.6266112,5.070459
2.016992,7.5680175,3.1837401,2.4591308,5.4376464
2.1778808,7.867822,3.065332,2.1893554,5.245752
2.2335448,8.082666,3.1270995,2.0118651,5.108789
2.3492675,7.891748,3.141748,2.0282226,5.3287597
2.4674315,7.8114257,3.1424804,2.6266112,4.6031737
2.5313964,7.9125,3.2550292,2.903955,5.083154
2.119287,7.761377,3.2074218,3.291162,4.9100585
2.1683593,7.825586,3.051416,3.4166503,5.063867
2.1671386,7.4125,2.3473144,3.2623534,5.0978026
1.6573731,7.589746,1.987207,2.5946288,5.3895507
1.7247559,6.8373046,1.8338867,1.8519531,5.2938476
1.9098145,6.7083983,1.9183594,1.7506348,4.9864745
1.6395508,6.3236327,2.063867,1.820459,4.664697
1.6625,6.3143554,2.3734374,2.7123046,4.719873
1.870752,6.0558105,3.3065429,3.3602538,4.926904
2.2154784,6.15542,3.2831054,4.027002,4.750879
2.4937987,6.0648437,3.3148437,3.872705,4.506738
2.6439452,5.982324,3.983789,3.9632812,4.778711
2.9603515,5.9950194,4.0458007,3.6029296,5.254297
3.081201,6.35708,3.7328124,3.2479491,5.307031
3.11416,6.752832,3.3949218,3.1517577,5.3822265
3.0274901,6.862451,3.6742187,3.44375,5.635156
2.8602538,6.9222655,3.5682616,3.3268065,5.530908
2.9383788,7.115381,3.0284667,3.0714355,5.459863
2.8250976,7.1305175,2.608789,2.7240233,4.9237304
2.744287,6.865381,2.5711913,2.626367,4.6944823
2.8058105,6.872949,2.7608886,2.049707,3.7958007
2.2882323,7.040918,2.5960937,1.7669922,2.5938964
1.7027832,6.666406,2.4146972,1.5907227,1.8719727
1.2989746,6.1270995,2.220117,1.3087403,2.5094237
0.6834961,6.8375487,1.8700196,0.9891602,2.3304687
0.16420898,6.856836,1.9815918,1.3956543,1.7049805
-0.19956055,6.6205077,1.9432617,1.6859375,1.6888672
0.33120117,6.664453,1.9139649,1.7374512,2.4288573
1.1161133,6.7159667,1.9242188,1.7992188,3.0790038
1.5313965,6.88125,1.6649414,1.4198242,3.5633788
1.9764649,6.760156,1.834375,1.3619629,4.1063476
2.391748,7.0301757,2.6112304,2.1266112,4.692041
2.9310546,7.1097655,3.39541,2.705957,4.926172
3.0509276,6.992578,3.667871,2.9984374,5.1014647
2.7064452,7.103906,3.5819335,3.159082,5.084863
2.5450683,7.190332,3.4066405,3.2213378,5.1290526
2.3463378,7.2572265,3.4378905,3.1996093,5.3248534
2.1444335,7.2467284,3.447412,3.1395507,5.589746
2.1327147,7.2674804,3.3336425,3.0301757,5.7264647
2.3270507,7.4395995,3.1378417,2.8424315,5.964502
2.6358886,7.7486815,3.155908,2.8097167,6.2816405
2.9825683,8.029444,3.1803222,2.917871,6.7118163
3.1058593,8.543116,3.3001952,2.9671874,7.287256
3.2896972,9.402979,3.4659667,3.146875,8.026026
3.5721679,10.295069,3.456201,3.2154784,9.069971
3.8111815,10.38418,3.5113769,3.289453,9.809961
4.058496,10.468897,3.5802245,3.454248,9.948877
4.374414,10.320215,3.8336425,3.6236815,9.931055
4.7518554,10.183985,4.113672,3.9312987,9.70669
5.1861815,10.465479,4.4125,4.2467284,9.782862
5.5631347,11.015528,4.702783,4.6327147,10.623926
6.06582,11.146143,5.0023437,4.7662597,10.761377
6.869043,11.364405,5.223291,5.1361327,10.418604
7.3490233,10.680567,6.383447,6.834131,9.929346
7.7350097,10.55459,6.841211,7.145166,9.3224125
7.4083495,10.250635,7.341699,7.2049804,9.275293
7.039453,10.214014,7.6639647,7.5179687,9.219629
7.1134276,10.187891,7.875879,7.6527343,9.149073
7.0631347,10.228174,7.7000976,7.653711,9.308008
6.780908,10.231836,7.6654296,7.6895995,9.271875
6.616113,10.302393,7.4029784,7.3321776,9.135401
6.4603515,10.377588,7.1058593,7.1187987,9.082666
6.416162,10.419825,7.0179687,6.8407226,9.111719
6.403955,10.468897,6.620996,6.2013183,9.1974125
6.35,10.44375,6.223291,6.6739745,9.225489
6.3756347,10.4144535,6.008203,6.731836,8.731348
6.3060546,10.32461,5.546045,6.609033,8.611231
6.2662597,10.246241,5.988672,6.5104003,8.479395
6.3268065,10.166407,5.9100585,5.994287,8.149073
6.3219237,10.0646,5.6952147,5.8021483,7.8456054
6.157861,9.979639,5.5853515,5.891748,6.630029
5.907617,9.824121,5.9706054,5.6690917,6.6688476
5.6285644,9.446192,5.720361,5.5404296,7.0475097
5.2975097,9.220362,5.65542,5.5382323,7.320459
4.9642577,9.2599125,5.4937987,5.3978515,7.3841796
4.207666,9.370996,5.5284667,5.4222655,7.356836
4.2210937,9.132227,5.64541,5.466699,7.6390624
4.7811522,9.128565,5.728906,5.5611815,7.7188964
5.011621,9.068506,5.720361,5.6549315,7.7538085
5.136865,9.176416,5.759668,5.752832,7.764795
5.143213,9.194971,5.7362304,5.509668,7.924463
5.1625,9.60586,5.6007323,5.3663573,8.35
5.188623,9.858545,5.2401366,5.171289,8.5880375
5.275293,9.809717,5.036279,4.96792,9.055811
5.2623534,9.778711,4.9798827,4.915918,9.293848
5.3685546,10.231104,5.033838,4.9930663,9.57461
5.411279,10.636377,5.143213,5.0677733,9.969873
5.629785,11.106836,5.362207,5.16958,10.614893
5.874658,11.292139,5.535791,5.317285,11.251856
6.1197753,11.297998,5.678369,5.5162597,11.935938
6.302881,11.397608,5.83291,5.749414,12.131006
6.52749,11.378565,6.084375,6.0179687,12.305567
6.94082,11.246241,6.577783,6.431787,12.295313
7.6268554,11.217188,6.862207,6.8854003,12.212305
8.425196,11.194239,7.443994,7.348779,12.15835
9.558496,11.287256,7.20791,8.060694,12.179834
10.265284,11.285791,8.591944,9.7792,12.26919
10.338526,11.228418,9.575586,11.321192,12.118311
10.393213,11.214502,9.974024,11.552637,12.178858
10.478907,11.2425785,10.629786,11.903467,12.256983
10.611719,11.307764,11.043848,11.977686,12.415674
10.7113285,11.286036,11.349512,11.949121,12.4127445
10.858057,11.251612,11.54336,12.033106,12.5646
10.9925785,11.216211,11.828028,12.266016,12.744043
11.257715,11.144922,12.485254,12.398584,12.757227
11.57168,11.140284,12.767969,12.351221,12.826807
11.889307,11.248926,12.496973,11.856348,12.950098
11.876123,11.194239,11.939356,11.382471,12.870508
11.700342,11.023584,11.207911,10.870996,12.511133
11.483057,10.937891,10.601465,10.476465,11.90127
11.15835,10.74917,10.382715,10.051661,11.707666
10.860498,10.751368,10.067041,9.829981,11.485254
10.502344,10.8658695,9.643213,9.452295,11.412989
10.26211,10.983545,9.49209,9.299707,11.460596
10.123682,11.191797,9.469873,9.238428,11.299219
10.002344,10.935938,9.204493,9.288233,11.129541
9.928614,10.854883,8.737207,8.777246,11.091455
9.879541,10.873194,8.35293,8.7113285,10.8692875
10.04751,10.907373,8.294092,8.556299,10.922998
10.194727,11.058741,8.4161625,8.406641,11.347559
10.364649,11.093409,8.559229,8.524317,11.653711
10.454493,11.028711,9.009668,8.698877,11.677149
10.429346,10.962305,9.196924,8.9630375,11.580225
10.386621,11.002832,9.267481,9.085108,11.202295
10.319483,11.08584,10.028467,9.457911,11.144434
10.173243,11.1542,9.985987,10.205713,11.114893
10.143946,11.276026,10.173975,10.738184,11.176172
10.277491,11.298731,10.762354,11.104151,11.277735
10.392969,11.365137,10.970362,11.34292,11.381739
10.448633,11.388086,11.087061,11.356592,11.465723
10.431299,11.483545,11.125147,11.406153,11.521875
10.277002,11.375635,10.785791,11.246729,11.323633
9.996485,11.352686,10.451563,10.788477,11.046778
9.618555,11.264551,10.180567,10.479639,10.865137
9.343653,11.193262,9.980616,10.154932,10.940577
9.19668,11.293848,9.731592,9.897608,10.859766
9.141748,11.256983,9.58877,9.74917,10.841944
9.208643,11.3380375,9.570215,9.657618,11.025293
9.271387,11.257715,9.589746,9.76211,10.924219
9.302149,10.962549,9.719873,9.749414,10.612696
9.067774,10.64419,9.356836,10.017969,10.563868
8.79336,10.699121,9.358057,10.204493,10.714746
8.764307,10.798487,9.532129,10.129297,10.788477
8.721338,10.824854,9.637354,9.902002,10.706446
8.776758,10.748438,9.535791,9.581446,10.435694
8.934229,10.827295,9.249903,9.3771,10.399073
9.075586,10.926416,9.032129,9.320948,10.360254
9.177637,10.950342,8.900782,9.070459,10.317041
9.234278,10.949121,8.892481,8.984522,10.314844
9.128809,10.961084,8.881739,8.964014,10.324854
9.094385,10.98208,9.144678,9.132471,10.472071
9.307032,11.018213,9.500879,9.510157,10.712549
9.626123,11.041407,9.818018,9.934717,10.913965
9.717676,11.000391,10.089014,10.073389,11.108301
9.298731,10.967432,10.083887,10.023584,11.072901
8.855616,10.949121,9.788721,9.741846,10.824366
8.553858,10.949366,9.254297,9.138819,10.498194
8.311914,10.938623,8.580713,8.582666,10.085352
8.218409,10.943506,8.334131,8.359034,9.926172
8.106104,10.945215,8.100977,7.9669433,9.848291
7.935205,10.936182,7.7325683,7.612451,9.457422
7.6075683,10.916407,7.2398925,7.1166015,8.747705
7.539697,10.820948,6.7379394,6.8219237,8.051905
7.4188476,10.692041,6.0104003,6.4796386,7.447656
7.0492187,10.515528,5.256006,6.0750976,7.036035
6.4322753,10.443506,5.6898437,5.956445,6.778955
5.429834,10.361963,5.5538573,5.942041,6.6249022
4.900537,10.278467,5.372461,5.8058105,6.370996
4.249658,10.183985,5.2364745,5.4291015,5.9376464
3.791162,10.07461,5.171289,5.186914,5.843408
3.5191894,10.040186,5.0697265,4.940576,6.0311522
3.2552733,9.986475,5.0125976,4.964746,6.1517577
3.0372558,10.062647,4.5628905,4.806543,6.095117
3.0294433,10.059473,4.664209,4.6290526,6.065088
3.6854491,9.652491,5.2660155,4.834863,6.801904
4.666406,9.664698,6.251367,5.6458983,8.167627
5.37124,9.885889,7.073877,6.2657714,9.204248
5.96792,10.229883,7.6390624,7.428613,9.62295
6.1219726,10.14419,7.5555663,7.829736,9.921289
6.0162597,10.117334,7.3006835,7.5208983,9.776758
5.497461,10.099268,7.147363,7.2469726,9.214502
5.0250487,10.226465,6.9520507,7.133447,8.889795
4.7569823,10.2408695,7.03042,7.113672,8.937891
4.5924315,10.257715,6.956201,7.197168,9.051905
4.6634765,10.202784,6.954248,7.421045,9.079248
4.6183105,10.189356,6.7540526,6.9513183,9.13833
4.43374,10.228907,6.891992,6.778711,9.290674
4.503076,10.308741,6.8856444,6.9098144,9.464991
4.7223144,10.519678,7.04458,7.1273437,9.693018
4.8097167,10.533594,7.084619,7.2308593,9.701563
5.052881,10.652735,6.961084,7.2779784,9.3988285
5.4659667,10.846338,6.714746,7.204248,9.5550785
6.0631347,10.712549,6.9139647,7.001611,9.703516
6.723047,11.0255375,7.476709,7.688867,10.135889
7.044336,10.947657,8.360254,8.640039,10.263575
7.511865,11.084131,8.944483,9.202539,10.875879
8.173731,11.498194,9.6314945,9.827051,11.2738285
8.6627445,11.606104,9.968897,9.639307,10.960108
9.266993,11.570459,9.503809,9.135157,10.430323
9.079248,11.202539,9.061426,8.798243,10.007715
8.652246,11.000635,8.86709,8.468897,9.928858
8.266016,11.014551,8.5021,8.549707,10.068506
8.256006,10.948389,8.168848,8.268457,10.2755375
8.123682,10.922754,7.6915526,7.98208,10.204004
7.7276855,10.921045,7.3583007,7.7835937,9.465723
7.223535,10.690821,7.067529,7.7108397,9.018946
6.48916,10.56045,7.2049804,7.117334,9.115381
5.8004394,10.439112,6.617822,6.824121,8.751368
5.6527343,10.350489,6.7245116,7.0907226,8.548243
5.438623,10.103174,6.742578,6.4686522,8.208155
5.4686522,9.842188,6.643945,6.333154,8.154932
5.315576,9.711573,6.620752,6.2118163,7.9779296
5.456201,9.670313,6.3319335,5.929834,7.833154
5.2481933,9.361231,6.1075683,5.5243163,7.634668
5.0924315,9.366846,5.928613,5.3629394,7.5606933
5.179834,9.053614,5.3131347,5.2589355,7.2018065
4.90957,8.891504,5.051172,5.284082,6.9652343
4.579248,9.01211,4.9781737,5.0714355,6.9850097
4.8075194,8.927881,5.06582,4.988672,7.0121093
4.859033,8.952539,4.955957,4.8614745,7.0177245
4.9618163,8.786768,5.0904784,5.0697265,6.6546874
4.931787,9.028711,5.2489257,4.932031,6.852197
4.962793,9.0255375,5.2066894,5.16958,7.1876464
5.3529296,8.989405,5.704736,5.463037,7.7035155
5.7882323,9.058741,5.459131,5.591211,8.019678
5.7767577,9.255762,5.9503417,5.900293,8.280664
5.7279296,9.489893,6.3983397,5.9549804,8.48208
5.7418456,9.7167,6.3685546,6.3006835,8.498682
5.587793,9.964502,6.1134276,5.9205565,8.55752
5.576074,10.115381,5.612207,5.5421386,8.379297
5.372705,10.254786,5.778955,5.6703124,8.380274
5.5694823,10.285303,5.978418,6.0453124,8.64126
5.691797,10.164942,6.153955,5.853662,8.683496
5.259668,10.015772,6.271631,6.250879,8.387354
5.063867,10.056055,6.4273925,6.3402343,8.129541
5.1930175,10.076807,6.4947753,6.1354003,8.077784
4.918115,10.037012,6.298242,6.0938964,7.894922
4.886621,9.802149,6.0597167,6.1969237,8.44961
4.564111,10.061914,6.2486815,6.2882323,8.914698
4.732324,9.521875,6.181543,5.970361,8.554834
4.79458,9.379297,6.449121,6.1410155,8.370508
4.5294433,9.4752445,6.447168,6.6285644,8.429102
4.858789,9.830957,6.1483397,7.1603026,8.853907
5.3475585,11.075586,6.4410644,7.1065917,10.180323
6.096338,11.363916,6.7467284,7.3719726,11.311914
7.242822,11.235254,7.5106444,8.753565,11.54336
8.811182,11.819727,9.314112,10.135889,12.075342
10.236475,12.184229,10.610987,10.109522,11.561182
10.074366,11.136866,9.4630375,9.567774,10.846827
8.950098,11.26211,9.2408695,8.992823,10.361231
7.9793944,11.010401,8.265772,8.204493,9.774317
7.65542,10.92959,8.413233,8.06167,9.209864
7.2623534,10.446192,7.84292,7.685449,8.844141
6.5780272,10.454981,7.2367187,7.4623046,8.687159
6.065088,10.464991,6.890283,7.1944823,8.62002
6.1012206,10.354883,6.893213,6.975,8.822168
5.8839355,10.149805,6.6913085,6.968408,8.770411
5.8128905,10.022364,6.6327147,6.5318847,8.448389
5.721582,9.886866,6.738672,6.6898437,8.331446
5.6395507,9.692041,6.511621,6.528711,7.975488
5.1947265,9.42544,6.292871,6.4098144,7.9605956
5.126367,8.943262,6.1981444,6.037988,7.75332
4.890283,8.819239,6.060205,5.87124,7.6861815
4.584131,8.530176,5.832422,5.7691894,7.536279
4.4000487,8.638819,5.7745605,5.5350585,7.318994
4.2103515,8.439112,5.617334,5.4444823,7.3685546
4.3531737,8.626612,5.4500976,5.2245116,7.626123
4.4466796,8.90542,5.309961,5.245996,7.690332
4.168115,8.993555,5.341211,5.1844726,7.497705
4.2035155,8.909327,5.6358886,5.221338,7.234033
4.485986,8.783594,5.388574,5.1061034,7.417627
4.6788573,8.788965,5.6163573,5.400781,7.731836
5.2140136,8.41836,6.223291,5.9884276,7.859033
5.1356444,8.911768,6.7967772,6.5453124,7.824365
5.445459,8.870264,6.959375,6.787988,8.091211
5.2154784,9.190088,6.9344726,6.442285,8.085352
5.096826,8.885401,5.980615,6.1634765,7.9659667
4.725244,8.958643,5.6808105,5.7853026,7.5589843
4.6615233,8.872705,5.414697,5.516504,7.548486
4.268213,8.527002,4.750879,4.69375,7.438623
3.9640136,8.552149,4.5228515,4.409082,6.9500976
3.7657714,8.853174,4.6515136,4.4913573,6.796045
3.863916,8.605127,4.813623,4.668115,7.209619
3.8089843,8.410059,4.700586,4.434961,7.3946776
3.971826,8.5099125,4.9171386,4.8038573,6.785547
4.0316405,8.562647,5.122949,5.021875,6.8946776
4.0956054,8.521143,5.346582,5.0870605,6.884912
4.285547,8.646143,5.2210937,4.9081054,7.0577636
4.4935546,8.65542,5.0919433,5.1307616,6.7152343
4.4659667,8.482325,5.0545897,5.1231933,7.0606933
4.363672,8.715967,4.8697753,4.9813476,7.2765136
4.184961,8.752832,4.884668,4.978418,7.2347655
3.8927245,8.790918,4.9937987,4.763086,7.6029296
3.7569823,8.760645,4.7398925,3.8878417,7.6551757
3.865869,8.569239,4.2210937,3.745996,7.515283
4.1168456,8.862452,4.471826,4.220361,7.742334
4.5140624,8.739405,4.9151855,4.7174315,7.7379394
4.8265624,8.579981,5.3182616,5.1949706,7.808252
4.991113,8.812159,5.535547,5.405664,8.296778
4.959375,8.823389,5.426904,5.4864745,7.914697
4.4330077,9.0707035,5.0423827,4.6373534,7.6856933
3.6183105,8.901514,4.079248,3.687158,7.0907226
3.08291,8.902002,3.7257323,3.4708495,6.944238
2.5016112,8.821436,3.053125,3.2535644,6.4325194
2.129541,8.913721,2.2870116,2.9957519,6.454248
1.801416,8.806299,2.1727538,2.7943358,6.268945
1.4549805,8.85,1.8202149,2.3072753,6.462793
1.3307129,8.931055,1.5675293,1.9771973,5.974756
1.403711,8.766993,1.7601563,1.8416992,6.0626464
1.4833008,8.818018,1.8250977,1.7479492,5.6688476
1.43667,8.802637,1.8961426,1.839502,6.1148925
1.461084,8.5255375,2.0118651,1.947168,5.6290526
1.7450196,8.576319,2.0660644,2.0892577,5.1429687
2.1029296,8.551905,2.0438476,1.606836,4.7481933
2.0748534,8.5567875,1.8453614,1.1070801,4.076074
1.1922852,8.52627,1.6083008,0.81655276,4.5057616
1.0975586,8.493799,1.4850098,0.07509766,4.6598144
1.5179688,8.643213,1.5245606,1.3978516,4.8980956
2.6510253,8.863672,2.223535,2.393457,5.9813476
3.287744,8.830957,3.2179198,3.2298827,6.9503417
4.0489745,9.000147,4.521631,4.0123534,7.309961
4.440332,9.20376,4.7325683,4.862695,7.831201
4.6444335,8.8502445,5.271631,5.4327636,7.646631
4.6393065,8.768702,5.4537597,5.4884276,7.543115
4.425195,9.138575,5.449365,5.5072265,7.865869
4.1827636,9.607325,5.478418,5.3805175,8.425196
4.3045897,10.114893,5.6407714,5.691797,9.262354
4.6134276,10.330713,5.6703124,6.2228026,9.757227
4.978418,10.455713,6.079248,5.787988,9.898584
5.6222167,10.504541,6.584619,5.88833,10.0238285
6.6717772,10.483057,7.409082,6.112695,10.1627445
7.3683105,10.4925785,8.141993,7.174951,10.261866
7.7611327,10.55459,8.676661,9.252588,10.374659
8.08169,10.642969,9.30044,9.485743,10.361963
8.260645,10.610987,9.615625,9.56167,10.130518
8.406153,10.583155,9.485254,9.491602,10.159571
8.3502445,10.813379,9.364893,9.3771,10.156885
8.398584,10.7911625,9.199366,9.34292,9.9300785
8.579737,10.7113285,9.131983,9.249903,9.798487
8.356592,10.745752,8.941309,8.934717,9.582666
8.00503,10.676172,8.612696,8.613428,9.656397
7.984033,10.722071,8.25918,8.202784,9.782618
8.065332,10.767725,8.614649,8.491114,9.9925785
8.108057,10.826563,8.9769535,9.117823,10.242334
8.1332035,10.82583,9.118555,9.30459,10.454248
8.219629,10.899805,9.233301,9.241846,10.523584
8.332666,10.947168,9.220606,9.174219,10.627832
8.313868,10.948389,9.208643,9.132471,10.582666
8.1542,10.853174,9.373438,9.014307,10.481592
7.9115233,10.674707,9.19668,8.91543,9.862696
7.6236815,10.579737,9.08169,8.447901,9.534815
7.416406,10.215723,8.628321,7.16958,7.4273925
7.318994,8.819483,8.62295,7.0472655,7.2748046
7.236963,8.823389,8.646631,7.0057616,7.1654296
7.016992,8.795069,8.320215,6.8827147,7.266748
6.747705,8.147364,7.954492,6.7499022,6.702539
6.6388183,7.5909667,7.0816894,6.6170897,6.464746
6.546045,7.1949706,6.8043456,6.5750976,6.505029
6.5978026,6.6830077,6.662744,6.383203,5.968164
6.3373046,6.595117,6.565332,6.105127,5.730371
6.1131835,6.7481933,6.430078,5.7936034,5.7018065
6.1231933,6.588281,6.131494,5.289697,5.6065917
6.0924315,6.830713,5.4815917,4.907129,5.533838
5.7865233,7.0855956,5.016504,4.815576,5.348779
5.5140624,6.957666,4.837793,4.754541,5.319238
5.3612304,6.7430663,4.8080077,4.744287,5.2645507
5.292871,6.929834,4.8512206,4.7745605,5.3094726
5.115381,7.081201,4.866113,4.844629,5.386865
4.8861327,7.048486,4.890039,4.81582,5.675195
4.930078,7.30874,4.869043,4.626123,6.435449
4.985498,7.653711,4.680322,4.42666,6.9044433
4.813623,8.003077,4.3912597,4.487451,6.7296386
4.0509276,7.695703,4.4691405,4.542627,5.352197
4.1356444,7.834131,4.3407226,4.5155272,5.176416
3.9754882,7.6429687,4.4972167,4.546533,5.2484374
3.8580565,5.764795,4.520654,4.5592284,5.2696776
3.8338866,6.2206054,4.475488,4.379541,4.9447265
3.789209,6.4757323,4.3253417,4.1810546,4.3270507
3.8412108,6.6065917,4.039453,3.8145995,4.307031
3.8683105,6.459863,3.9557128,3.6847167,4.38833
3.7879882,6.0990233,3.900537,4.01333,4.518213
3.6910644,6.4186034,3.6493163,4.033838,4.80874
3.2618651,6.528711,3.659082,3.9669433,5.0094237
3.1512694,6.765039,3.8248534,3.9024901,3.9642577
3.4842772,7.0072265,3.9332519,3.9540038,3.2804198
3.6578612,7.320459,4.053369,3.907373,3.096582
3.8248534,7.541162,3.935205,3.7884765,2.8409667
3.844873,7.5748534,3.7613769,3.556787,2.784082
3.7088866,7.495752,3.676416,3.4134765,2.345117
3.4549804,7.253076,3.6898437,3.1649413,1.9847656
3.5147948,7.2191405,3.9049315,3.3421874,2.928369
3.8243651,7.2606444,4.84292,3.8546386,4.6986327
4.24624,7.56167,5.275781,4.407129,6.055322
4.5140624,7.688867,5.48916,4.8963866,6.8958983
4.837793,7.8072753,5.7108397,5.192285,7.171045
4.8421874,7.895654,5.634912,5.2191405,7.0086913
4.5543456,8.010401,5.095117,4.362207,6.096582
3.497705,7.9237304,4.6527343,2.2896972,4.5299315
2.4393554,7.610254,4.6617675,2.0597167,4.674707
2.6395507,7.051904,3.9432616,1.4449707,4.3878417
2.6676269,6.7694335,3.3165526,1.6581055,4.1327147
3.0997558,6.440332,2.5904784,2.0851073,4.062158
3.2210937,6.448877,2.8216796,1.2186524,4.0104003
3.577783,6.2743163,2.4652343,0.48427734,3.6615233
3.7848144,6.0074706,1.978418,0.46767578,3.2520995
3.870996,5.885156,1.9244629,0.4371582,3.272119
3.923242,5.8075194,1.6625,0.27529296,3.593408
3.9662108,5.988916,1.6131836,0.35756835,3.8077636
4.291162,6.061914,1.337793,0.67055666,4.334863
4.4378905,6.426416,1.7379395,0.9166504,4.8495116
4.612695,6.7643065,2.5038085,0.9676758,5.4063964
4.803125,6.9063964,3.2054687,1.3102051,5.402246
4.8995605,7.016748,3.4979491,1.9251953,5.6915526
5.176172,7.049463,3.0157714,3.0145507,6.201074
5.4469237,7.292871,3.0448241,3.768457,6.6371093
5.7159667,7.610986,4.261621,4.1014647,7.1270995
5.9742675,7.8856444,4.9706054,4.393945,7.3592772
6.149072,7.975,5.258447,5.1534667,7.396875
6.317529,8.135645,5.893945,5.8456054,7.1927733
6.636377,8.1957035,5.8895507,6.1185546,7.2347655
7.0455565,8.335596,6.0370116,6.379297,7.4793944
7.473291,8.471338,6.506738,6.2782226,7.6859374
7.550195,8.514795,6.87832,6.1112304,7.770654
7.591455,8.488916,7.3646483,6.00332,7.942529
7.725244,8.621973,7.5694823,6.549951,8.119532
7.805322,8.880274,7.829492,7.3844237,8.390528
7.5885253,9.323633,7.805078,7.645166,8.782129
7.363672,9.8363285,7.569238,7.5191894,8.956446
7.3944335,10.214991,7.5624022,7.4986815,9.026514
7.2413573,10.266016,7.562158,7.588037,9.063623
7.0580077,10.32876,7.4305663,7.501367,9.0292
6.9364257,10.2877445,7.3731933,7.380029,8.987696
6.911035,10.243555,7.3165526,7.3302245,8.960108
6.917871,10.199854,7.1170897,7.3131347,8.868067
6.9916015,10.112452,7.1371093,7.230615,8.742823
6.848535,9.874659,7.154199,7.334375,8.343409
6.5731444,9.695459,7.0179687,7.289697,7.4381347
6.516504,9.794825,6.751611,7.098779,6.127832
6.7313476,9.878321,7.0416503,7.119531,7.218164
7.053613,9.905664,7.4503417,7.4393554,8.44961
7.362207,10.17959,8.176416,7.921533,9.059473
7.815576,10.477442,9.008692,8.501368,9.645899
7.928125,10.704737,9.258448,8.822657,9.951563
7.7518554,10.788233,8.709864,8.641748,9.732813
7.2350097,10.618799,7.6703124,7.574121,9.004053
6.205957,10.320215,6.799951,6.2762694,7.933496
5.6566405,9.895655,6.0125976,5.678369,7.62124
5.7325683,9.687159,5.657861,5.2191405,7.626611
5.383203,9.546534,5.669336,4.8976073,7.487695
4.970117,9.373438,5.289697,4.5506835,7.0294433
4.600488,9.148096,4.725244,4.1949706,6.6495605
4.3912597,8.918604,3.9984374,3.9549804,6.4625487
4.214746,8.694971,4.2018065,3.2950683,6.008203
4.4625487,8.827295,4.9430175,3.563623,5.9217772
4.8055663,8.786524,5.1327147,3.8788085,5.8807616
4.7970214,8.73794,4.914209,3.799951,5.7660155
5.0609374,8.620996,4.539209,3.3150878,5.8180175
5.343164,8.62417,4.524072,1.950586,6.430322
5.426416,8.850977,4.9310546,3.1249022,6.2818847
5.042627,8.944483,5.2152343,3.3629394,6.136621
4.9000487,9.32461,4.8548827,3.3980956,5.897119
4.9012694,9.1332035,4.521875,4.067285,5.759668
4.926172,8.775049,4.6810546,4.2083983,6.7257323
4.8390136,9.042627,4.7899413,4.463281,7.6083007
4.7347655,9.575342,4.7748046,4.6078124,8.202784
4.6495605,9.844629,4.650293,4.9588866,8.327539
4.6012206,9.8207035,4.626367,4.8438964,8.497217
4.574365,9.846827,4.6405272,4.794336,8.56045
4.502832,9.777979,4.8250976,4.725244,8.108057
4.3250976,9.616358,4.803369,4.518457,7.923486
4.157617,9.342432,4.704736,4.3370605,7.7035155
4.221826,9.409571,4.31875,4.2569823,7.4293456
4.366113,9.455225,4.2315917,4.1222167,7.5562987
4.4642577,9.66543,4.2381835,4.1080565,7.5040526
4.735742,9.7286625,4.073877,3.9574218,7.2848144
5.1546874,9.736963,3.5936522,3.8131347,7.7191405
5.560449,9.643946,3.2306151,3.4408202,8.110254
5.7538085,9.643457,3.2730956,3.084619,8.078516
5.6930175,9.839746,3.4481444,3.036035,8.176905
5.6759276,9.954004,3.8229003,3.3453612,8.459131
5.542871,9.724512,4.311914,3.765039,8.478418
5.087793,9.4474125,5.4618163,4.3407226,7.9259276
4.7901855,9.194727,6.2655272,5.3333983,7.396631
4.8392577,8.993799,6.41958,5.858545,6.8194823
4.690576,8.895166,5.9361815,5.859033,6.4342284
4.9188476,9.173243,5.778711,5.683496,6.8407226
5.230371,9.174707,5.6080565,5.745996,7.1737304
5.4774413,9.427637,6.409326,5.9466796,7.954736
6.225244,9.904688,7.0562987,6.638086,9.170557
6.7645507,10.04043,7.6812987,7.1898437,9.657129
7.0174804,10.006739,7.8026366,7.608789,9.532862
6.883203,10.056055,7.751123,7.4845214,9.270899
6.533838,9.924707,7.327783,7.228906,8.97793
6.103662,10.010645,6.8770995,6.966699,8.957422
5.8580565,9.545313,7.162256,7.2193847,8.794336
5.6324706,9.113916,7.146875,6.8995605,8.421778
5.244287,8.797754,6.9188476,6.8094726,7.959619
5.0436034,8.228418,6.9952636,6.7972655,7.0958495
4.9447265,8.032862,6.677881,6.6373534,6.769922
4.9896483,8.176416,6.2728515,6.174463,6.683496
4.6493163,8.405909,6.164697,5.9549804,6.608545
4.461328,8.971827,6.188867,6.046533,6.636621
4.381006,9.405909,6.0990233,5.6476073,6.7520995
4.3285155,9.363672,5.827295,5.3946776,6.992334
4.5526366,9.300196,5.5526366,5.310449,6.983789
4.591211,9.178614,5.265283,4.8055663,6.6717772
4.824121,9.121485,5.221582,4.6949706,6.6239257
4.862451,9.07583,5.174951,4.820703,6.181787
4.3280272,9.086817,5.3473144,4.8541503,5.810449
4.1825194,9.028955,5.154199,4.9898925,5.7606444
4.671045,9.026026,5.631738,5.3905272,6.416162
5.0921874,9.040674,6.520166,6.1239257,7.4188476
5.5943847,9.196924,7.037256,6.7577147,8.167627
6.096338,9.418116,7.5350585,7.105371,8.847315
6.261377,9.690577,7.554834,7.2225585,9.125879
6.060449,9.829981,7.306787,7.2225585,9.065821
5.4513183,9.942041,6.337793,6.586572,8.608545
4.360986,9.88125,4.9254394,5.1964355,7.8438964
4.0177245,9.580469,4.0663085,4.315576,6.9764647
4.1048827,9.3849125,3.7518554,3.6322265,6.87124
4.1095214,9.452784,3.6268554,3.410791,7.157617
4.1563964,9.454493,3.600244,3.282373,7.572656
3.9703612,9.027979,3.4549804,3.051416,7.978662
3.7984862,8.855371,3.3768554,2.7975097,7.723047
3.8133788,9.171289,3.0799804,2.601953,7.3392577
4.469629,9.623438,2.9320312,2.8873534,7.518213
4.326074,9.623926,3.4757323,3.4137206,7.9669433
4.195703,9.127832,4.2726073,4.2989745,7.9034667
4.4173827,9.570215,4.567041,4.5855956,8.012842
4.730615,9.498438,4.5804687,4.785547,7.9125
4.973291,9.417871,4.5404296,4.815332,7.8756347
5.31875,9.485254,4.6876464,4.861963,8.007227
5.3165526,9.453028,4.9623046,4.8687987,7.9361815
5.402002,9.616358,5.282861,4.99624,7.2884765
5.4972167,9.971827,6.2398925,5.438379,8.0863285
6.1302733,10.043116,6.490381,6.4051757,8.765528
6.7174315,10.047266,6.9623046,6.9061522,9.355371
6.851709,10.015528,7.8143554,7.497705,9.536524
7.3438964,9.752588,8.084131,8.062159,9.261133
7.5597167,9.548243,7.9291015,8.028955,8.670557
7.183252,9.814356,7.4483886,7.5870605,8.770655
6.8509765,9.981836,7.176904,7.055322,9.077539
6.5819335,10.13418,6.8827147,6.7950683,9.506739
6.8558593,10.409082,6.782373,6.709375,10.061182
7.2882323,10.406397,7.331201,6.7552733,10.24795
7.622949,10.594141,7.524072,6.9930663,10.210352
7.888574,10.38003,7.848779,7.2674804,10.024805
8.153711,10.356836,8.150782,7.50625,9.877832
8.451075,10.270655,8.310205,7.6893554,9.589746
8.466211,10.24209,8.488916,7.8583007,9.587793
8.234766,10.249414,8.521875,8.027979,9.586084
7.968408,10.337793,8.457422,7.94375,9.598291
7.737207,10.189844,8.252588,7.6410155,9.735254
7.3788085,10.228418,8.1471195,7.315332,9.502832
7.131494,9.996241,7.9120116,7.2225585,9.06045
7.081445,9.970362,7.640283,7.07583,9.015039
6.938867,9.877344,7.669336,6.85708,8.538233
6.9186034,9.82461,8.070948,7.0487304,8.594141
7.232324,10.21377,8.583887,7.553125,9.299707
7.3263183,10.162989,8.884424,8.422998,9.898584
7.640039,10.342676,8.959375,9.265284,10.058741
8.353418,10.469629,9.349268,9.653223,10.161768
8.454737,10.410303,9.742823,9.715235,10.216944
8.811426,10.438623,9.349756,9.224756,10.418848
8.473536,10.581202,9.073633,8.744043,10.041407
8.046289,10.59292,8.4317875,8.389795,9.453516
7.7003417,10.657862,8.185694,8.162012,9.035791
7.381494,10.59585,8.017237,7.8890624,9.140039
7.139795,10.7167,7.9012694,7.7018065,9.900782
6.839746,10.719385,7.4676757,7.2501464,9.961817
6.9725585,10.715723,8.018457,7.565576,10.196192
7.548242,10.940088,8.238672,8.045801,10.336573
8.120752,11.02334,8.774073,8.555323,10.438135
8.520166,11.124903,9.349512,9.128321,10.553858
8.797998,11.180323,9.424952,9.383448,10.662012
8.965479,11.22378,9.610498,9.531641,10.734278
9.118311,11.238428,9.738428,9.77334,10.7877445
9.329004,11.218897,9.952295,9.908594,10.8363285
9.50625,11.176416,10.0292,9.999659,10.819727
9.700342,11.16128,9.96792,10.115381,10.863916
9.790186,11.2911625,9.955713,10.087305,11.009668
9.860498,11.302149,10.141993,10.256006,11.126123
10.0238285,11.32876,10.308252,10.555811,11.094629
10.165674,11.55044,10.662989,11.0064945,11.297266
10.492823,11.711084,10.728174,10.921045,11.450098
10.662012,11.675928,10.66128,10.757715,11.424463
10.825342,11.413233,10.36709,10.982325,11.421289
11.068262,11.377832,10.491114,11.168116,11.464991
11.231836,11.454248,10.7755375,11.333887,11.560938
11.136133,11.597315,10.828028,11.406885,11.673243
11.126368,11.711817,10.882227,11.487207,11.825342
11.126368,11.800196,10.979395,11.686914,11.935938
11.263819,11.884424,11.186182,11.859522,11.945948
11.384424,11.895166,11.514063,11.947168,11.960596
11.4439945,11.868067,11.6002445,11.860987,11.911524
11.39834,11.627588,11.309473,11.827784,11.781885
11.288477,11.7286625,11.135889,11.718164,11.634668
11.244776,12.003077,11.216211,11.470118,11.786524
11.230616,12.026758,11.238916,11.423731,11.702051
11.039942,11.995752,11.675928,11.300928,11.651758
10.819727,11.963282,11.656885,11.250391,11.540918
10.58584,11.854883,11.579981,11.157618,11.400049
10.539209,11.701807,11.316797,10.98208,11.1314945
10.681055,10.951075,10.993311,10.379541,10.39834
10.356836,10.530909,10.427637,9.849512,10.02627
10.5550785,10.310694,9.631739,9.520411,9.726221
10.796289,10.375391,9.483301,9.343897,9.7599125
10.747705,10.241602,9.432032,9.264551,9.656641
10.618799,10.21792,9.396631,9.181055,9.479639
8.91958,10.29458,9.308985,8.945948,9.438135
8.767481,10.395166,9.027979,7.0179687,9.461573
8.386377,10.362452,7.7782226,6.55874,9.485254
8.239893,10.107325,6.7279296,6.5526366,9.066309
8.010157,10.170801,7.322412,6.725,8.797266
7.697656,10.369776,7.154199,6.6529784,9.128077
7.4288573,10.472559,6.940576,6.5733886,9.122705
7.1996093,10.437891,7.423486,6.848779,8.942041
7.0978026,10.440577,7.735498,6.9188476,8.896387
6.904199,10.486475,7.753076,6.7867675,8.993799
6.8460937,10.56045,7.570947,6.615869,9.194239
6.712793,10.353174,7.2953124,7.1239257,9.205957
6.4305663,10.062403,7.2557616,7.3148437,8.440332
6.5057616,10.133936,7.268457,6.4881835,8.58169
6.5682616,10.512354,7.2833495,6.7816405,8.673975
6.4120116,10.526026,7.002588,6.837793,8.964258
6.2125487,10.323145,6.9967284,6.324365,8.868311
6.1483397,9.856104,7.2120605,6.6927733,8.419336
6.0404296,9.430811,7.2574706,6.78457,7.9918456
5.950586,9.299463,6.895654,6.6544433,8.258692
5.6686034,9.287256,6.799951,6.6822753,8.4630375
6.067529,9.4005375,6.612451,6.684961,8.8033695
6.5074706,9.456202,6.9833007,6.8739257,9.076075
7.042627,9.527491,7.2206054,7.2540526,9.198145
7.536279,9.670069,7.54458,7.471582,9.608301
6.405908,9.978174,7.4532714,6.9686522,9.551905
6.485742,10.342432,6.2801757,6.140283,9.498682
6.78042,10.520899,6.476709,6.4413085,9.348536
6.572412,10.507227,6.657373,6.508447,8.824854
6.421533,10.527735,6.709619,6.657617,8.327784
6.1856933,10.400049,6.8583007,6.726709,8.514551
5.81582,10.313868,6.737695,6.652002,8.233789
5.5770507,10.15835,6.6771483,6.4447265,7.778955
5.2430663,9.945215,6.4901366,6.3822265,7.789453
5.213281,9.803125,6.2430663,5.99917,7.6856933
5.051904,9.6175785,6.266504,5.8263183,7.2733397
