"[299, 255]","[227, 248]","[287, 319]","[279, 328]","[230, 262]"
2.580957,8.771387,3.507959,4.0074706,6.5560546
2.4044433,8.840235,3.1705565,3.8116698,6.3263183
2.673242,9.099024,2.9813476,3.8766112,6.607324
2.6341796,8.941553,3.3124022,3.7516112,6.742334
2.8287597,8.715235,3.2972655,3.9068847,6.5938964
3.0174804,8.771387,3.4659667,3.7162108,6.422998
2.8790526,8.922998,3.1891112,3.6822753,6.1307616
2.7257323,8.694483,3.3612304,3.9571776,6.433252
2.5213866,8.791895,3.695703,4.198877,6.355371
2.624414,8.76211,4.184961,4.355371,6.392236
3.301416,8.781885,5.0316405,5.2660155,7.2628417
4.1480956,8.865137,5.596582,6.05166,7.6649413
4.756006,8.937159,6.2538085,6.184961,7.6395507
5.089746,9.02334,5.992334,5.8993163,7.747949
4.99624,9.074121,5.28457,5.547998,7.586328
4.4066405,9.366358,4.417627,4.677881,7.3080077
3.7308593,9.352686,3.8285155,4.478906,7.1927733
3.8609862,9.468409,4.2330565,3.6358886,6.9740233
3.2696776,9.418848,3.711084,3.0455565,7.120996
3.5680175,9.362452,3.3600097,2.5101562,6.8128905
3.2350097,8.965479,2.1786132,1.7872559,5.7186522
2.4395995,8.917871,0.96181643,1.5279785,6.3163085
1.7296387,9.303125,0.32558593,1.8695313,6.624658
0.93789065,9.430323,0.7760254,2.4847655,6.968408
1.0956055,9.49209,2.4413085,2.504785,6.883447
0.94521487,8.950342,2.367334,2.296289,6.6290526
1.966211,9.021143,2.1571288,1.848291,7.197412
2.0804687,8.828516,1.7625977,1.4557129,6.7123046
2.1832519,9.013575,1.0367676,0.9779297,6.9549804
1.2547852,8.808252,0.11611328,0.69448245,6.794824
0.808252,8.60293,-0.25522462,0.24038085,6.443994
0.20327148,8.778467,-0.3116211,0.1480957,6.064111
-0.13706055,8.909327,-0.4546875,0.37319335,6.6717772
0.37197265,9.1,-0.24472657,0.87587893,6.876123
1.4828125,9.379297,0.6039063,1.6268555,6.7889647
2.3231444,9.039209,1.7018067,2.4515624,6.2506347
2.9586425,9.230127,2.6300292,3.172998,7.0555663
3.1083007,9.239161,3.0331054,3.5194335,7.1058593
3.02041,9.450342,3.1822753,3.3106933,6.6881347
2.2350097,8.050928,2.6681151,2.4105468,6.400537
1.5414063,8.399561,1.8524414,1.7499024,5.624658
1.120752,8.354883,1.0140625,1.4769531,5.5870605
0.78774416,8.78628,0.6280762,1.3023926,6.1222167
0.6651856,8.804102,0.26674804,1.1136719,5.626367
0.25063476,8.952295,-0.4407715,0.90004885,5.6344237
-0.009375,8.267481,-0.9222168,0.7469727,5.419336
-0.09091797,8.87295,-0.9080566,0.61269534,5.75625
-0.13486329,8.177881,-0.87094724,0.3861328,5.948877
-0.15854493,7.9779296,-1.0174316,0.01796875,6.18667
-0.4407715,8.382227,-1.2466797,-0.1998047,4.7987304
-0.77548826,7.060205,-1.408789,-0.030371094,4.85708
-1.0845703,6.6617675,-1.4861816,-0.043798827,5.5487304
-1.4305176,7.490869,-1.5257324,-0.08164062,5.5904784
-1.6746582,7.5450683,-1.7896484,-0.16708985,5.6078124
-1.6915039,7.355371,-1.7452148,-0.20078126,5.1478515
-1.3726562,7.353418,-2.5958009,-0.14194337,5.184961
-1.2691406,7.5836425,-2.4180665,0.0128417965,5.289697
-0.693457,7.6512694,-0.9812988,0.34536132,5.784082
0.17763671,7.81875,0.1144043,1.3731934,6.718408
0.86708987,8.180323,1.4393555,2.5975585,7.375879
1.6251465,8.487207,2.4586425,3.1241698,7.605615
2.1285644,8.627832,2.8092284,3.160791,7.528711
2.176416,8.613672,2.456201,2.6837401,7.1358886
1.7113281,8.560694,1.1078125,1.7037598,5.6007323
0.50698245,8.363916,-1.4620117,0.7115723,3.5243163
-0.0953125,8.148096,-2.0760255,0.3536621,2.7677245
0.053857423,7.560205,-1.4534668,0.5042969,2.2108397
0.646875,7.584619,-1.9581054,0.25942382,1.6524903
0.84707034,7.2228026,-2.8123536,0.11171875,1.7708985
0.69082034,6.974756,-1.6368164,-1.3138183,2.1393065
0.081689455,7.153711,-2.113379,-1.8509277,2.067041
-0.7530273,7.407861,-1.4874023,-2.2183595,1.277002
-1.1438965,7.48208,-1.5140136,-1.0784668,1.4913574
-1.4090332,7.298486,-1.3428711,-1.0982422,1.2220703
-0.42416993,7.563379,-1.3992676,-1.2256836,1.0665528
0.36708984,7.507959,-1.2134765,-1.1802734,1.105127
0.5375,7.2972655,-1.997168,-1.0628418,0.9969727
0.032128908,7.4044433,-2.099463,-0.9458984,0.95302737
-1.9563965,7.5038085,-1.4043945,-0.73886716,0.962793
-1.9458984,7.5455565,-1.169043,-0.3614258,0.98769534
-2.2354493,7.2274413,-0.87412107,-0.1541504,1.1014649
0.13881835,7.1881347,-0.02109375,0.16835937,2.311914
2.1998534,7.392236,0.896875,0.78530276,4.0057616
3.157373,7.6983886,1.6251465,1.5189453,5.1327147
3.6461425,8.126368,2.2240233,2.1844726,6.0282226
3.2518554,9.2599125,2.2347655,2.3685546,6.591211
2.5504394,9.237207,1.4549805,2.081201,6.6234374
1.7894531,9.152246,0.38442382,1.4999024,6.414453
1.4254395,9.061914,-0.76889646,1.1197754,6.7452636
1.1546875,9.256739,-0.20078126,1.075586,6.879785
1.1229492,9.427393,0.7511231,1.341211,6.9901366
1.0665528,9.455713,1.8539063,1.6466309,7.3768554
1.0328614,9.493555,2.4513183,1.9903809,7.3600097
1.2047364,9.761133,2.5902343,2.161035,7.4952636
1.3844239,9.949366,2.692041,2.6490722,7.8827147
1.7269531,9.944727,3.0609374,4.094629,8.184229
2.0055175,10.162012,3.648584,4.556543,8.313135
2.2950683,10.309961,4.185205,5.757959,8.762598
2.5763183,10.9769535,4.5001464,6.561914,10.250147
2.999658,12.089746,5.1947265,7.0816894,10.263086
3.3980956,11.624903,6.021631,7.4618163,9.700098
3.7293944,11.227198,6.3409667,7.881738,9.782373
3.88833,11.3988285,6.7433105,7.9225097,9.831202
4.0541015,11.533594,7.0926757,7.96499,9.826319
4.284082,11.491358,7.2552733,7.9344726,9.848047
4.728662,11.578028,7.3407226,7.8668456,9.9439945
5.252588,11.469385,7.4950194,8.035547,10.040674
5.9239745,11.350977,7.8905272,8.393946,10.142725
6.455957,11.342188,8.343897,8.72378,10.224024
6.796045,11.348536,8.405664,8.864161,10.253565
6.9999022,11.34585,8.038965,8.466211,10.240381
7.112451,11.33584,7.422754,6.9310546,10.151514
7.2291503,11.363428,7.0267577,6.3404784,10.073633
7.318506,11.381006,6.643213,6.399072,10.0917
7.269922,11.39834,6.504297,5.699121,10.139307
7.2518554,11.410059,5.519922,5.9566894,10.187159
7.2367187,11.402491,5.009912,5.9395995,10.218653
7.242578,11.395411,3.9322753,4.983789,10.22378
7.2069335,11.366846,2.3944335,5.3180175,10.205225
7.1964355,11.33169,2.659082,4.492578,10.211817
7.182031,11.567774,3.1891112,5.428125,10.236963
7.1812987,11.804834,3.1239257,5.233789,10.214258
7.1776366,11.784327,3.1622558,5.172998,10.187403
7.1378417,11.735498,4.3827147,5.049463,10.172998
7.117822,11.804834,4.827539,5.523584,10.049707
7.119043,11.859034,5.2621093,5.566797,9.987452
7.136377,11.824366,5.598535,5.816797,9.702051
7.167871,11.731836,5.8075194,6.0978026,9.680323
7.2108397,11.56167,5.9798827,6.3978515,9.189844
7.4708495,11.48086,6.5992675,6.8373046,9.311914
7.841455,11.470606,7.400537,7.447168,10.124659
8.286036,11.594141,8.169336,8.124659,10.816553
8.538477,11.7286625,9.135889,8.757959,11.100733
8.753321,11.767481,9.448145,8.910791,11.130518
8.586817,11.774805,8.92959,8.762842,10.980371
7.820459,11.609278,8.60586,8.471094,10.484766
6.791406,11.369776,7.9469237,7.5475097,10.041651
6.8392577,11.23794,7.348535,7.570459,9.729151
7.041162,11.167139,7.334863,7.3983397,9.380762
7.1788573,11.090479,7.37417,7.1166015,8.999659
7.3202147,11.103418,7.070703,6.9239745,8.741846
7.3253417,10.907618,7.1095214,6.7413573,8.673487
7.2901855,10.843897,7.049951,6.8182616,8.274317
7.4430175,10.785303,6.909326,6.8438964,8.1661625
7.5350585,10.691309,6.704248,7.08291,8.244043
7.4068847,10.62295,6.6874022,7.0245605,8.237696
7.180078,10.600733,6.6776366,6.7777343,8.124659
7.0055175,10.5375,6.5875487,6.737207,8.100733
6.826074,10.643213,6.6808105,6.709619,7.8773437
6.87417,10.8146,6.7953124,6.7638183,8.311182
6.942529,10.6817875,6.7628417,6.829492,8.481104
6.7767577,10.51626,6.7381835,6.9010253,8.71084
6.5577636,10.379053,6.870996,6.8839355,8.751123
6.616113,10.416651,7.303369,7.1375976,8.741846
6.66958,10.57583,8.137598,7.6441894,9.360987
7.0125976,10.753321,8.690821,8.051905,9.768946
7.259668,10.993799,8.455469,8.114161,10.102686
7.3321776,11.024317,8.455225,8.112696,10.174463
7.035791,11.135157,8.256006,7.975488,9.936426
6.6581054,11.146387,7.87832,7.747705,9.646631
6.1395507,11.097315,7.5753417,7.381494,9.454981
5.810449,10.996485,7.730615,7.3705077,9.540918
5.6319823,10.812647,7.701074,7.4344726,9.503809
5.7188964,10.577784,7.5106444,7.360986,9.428858
5.501123,10.446192,7.595117,7.3548827,9.353174
5.558496,10.214258,7.4745116,7.348047,8.943262
5.3927245,10.113428,7.2210937,7.3355956,8.824121
5.2625976,10.00503,7.015039,7.2257323,8.6036625
4.7228026,9.783106,6.668115,7.023828,8.496729
4.5733886,9.726709,6.1270995,6.6339355,8.334131
4.505029,9.688135,6.023828,6.2713866,8.233789
4.3700194,9.833887,5.9017577,6.184961,8.323389
4.26333,10.028955,5.8976073,6.0333495,8.4596195
3.9637694,10.217432,5.9029784,5.930078,8.683741
4.0455565,10.386377,5.88125,5.9847655,8.664698
4.1812987,10.375635,5.843164,5.886377,8.691797
4.1788573,10.479883,5.813379,5.841211,8.978907
4.4220214,10.4752445,6.0506835,6.025537,9.271875
4.939111,10.659327,6.6446776,6.3617187,9.696192
5.6324706,10.731836,7.4693847,6.8941894,9.97085
6.4222655,10.980371,7.7262206,7.459619,10.129786
6.685205,11.317041,8.035303,7.6568847,10.44375
6.473047,11.562647,8.112207,7.5902343,10.457666
6.068994,11.5021,8.074854,7.4933105,10.100489
6.0250487,11.644434,7.912988,7.5487304,10.195459
6.1290526,11.646875,7.9898925,7.4884276,10.3658695
6.311914,11.701563,8.293116,7.586328,10.47793
6.3248534,11.663965,8.6349125,7.7123046,10.405664
6.284082,11.650782,8.917383,7.9723144,10.405176
6.211572,11.774073,9.196436,8.308008,10.636377
6.2325683,11.825586,9.31167,8.543604,10.766993
6.3546386,11.8502445,9.612696,8.596582,10.860498
6.4513183,11.788721,9.648584,8.63003,10.915186
6.619531,11.624659,9.889063,8.876368,10.82461
6.704248,11.7167,10.014307,8.978418,10.899561
6.865869,11.775049,10.180811,8.949366,11.202539
7.053369,11.738184,10.295313,9.081934,11.263086
7.102197,11.621973,10.421045,9.3363285,11.237207
7.062158,11.825098,10.250879,9.462061,11.331934
7.1500487,12.114405,10.314844,9.409327,11.594629
7.3180175,12.249414,10.223536,9.579493,11.758692
7.5580077,12.416651,10.189356,9.565577,11.854639
7.786279,12.580225,10.116358,9.558496,11.987452
7.9625487,12.5377445,10.52334,9.917871,11.951807
8.163965,12.485498,10.746973,10.32876,11.854151
8.471582,12.541407,10.753565,10.479151,11.976465
8.757471,12.566309,10.776758,10.404932,11.610743
8.851709,11.302637,10.493067,8.827051,9.387354
9.008936,10.316797,9.539942,7.924463,9.120264
9.189112,10.268702,8.187891,7.6517577,8.913721
9.408106,10.121973,7.725,7.14541,8.671289
9.464991,9.965235,7.216455,6.4166503,8.3519535
8.996485,9.7875,6.40957,5.41958,7.9066405
7.6483397,9.503321,5.8270507,4.4793944,7.4986815
7.054834,9.360743,5.238916,4.067041,7.2000976
6.5450683,9.22378,4.772119,4.0780272,6.8785644
7.040918,9.034571,4.4652343,4.113672,6.596582
7.051904,8.854151,4.2052245,2.1549315,6.5492187
6.935449,8.817286,3.6900878,2.7245116,6.705957
7.110254,8.920313,3.690576,2.9234862,7.1026855
7.103906,8.948633,4.0416503,2.6207519,7.541162
7.0406737,8.896387,4.2208495,2.3707519,7.4774413
6.9725585,9.019434,4.7918944,2.6588378,7.4171386
7.077295,9.354395,5.178125,3.6632323,7.5335937
7.334131,9.902735,5.785547,4.3355956,7.9793944
7.9359374,10.532618,6.452539,5.37417,8.913965
8.610254,11.68667,7.4361815,6.674707,9.802393
9.660547,12.270166,8.126856,7.718164,10.371729
10.618555,12.960352,8.645899,8.271875,12.062159
10.891504,13.284327,8.992334,8.752344,12.910303
11.444727,13.444483,8.870996,9.0689945,13.215479
11.720362,13.24795,9.461817,9.077051,13.151026
11.866114,13.064844,10.988184,9.645899,12.962061
11.926905,13.043848,12.385157,10.897852,13.046045
11.832178,13.260157,12.957911,11.612452,13.005518
11.541895,13.315088,12.974512,12.184961,13.023584
11.198633,13.296534,12.833399,12.316309,12.974756
10.924463,13.210352,12.790186,12.201075,12.801661
10.715235,13.138086,12.639307,12.030176,12.63125
10.670313,12.830957,12.414942,11.652979,12.623194
10.778955,12.609766,11.781397,11.879786,12.605127
10.956202,12.439356,11.44375,11.671045,12.340479
11.147608,12.386621,11.372461,10.3536625,11.624414
11.308496,12.384668,9.680811,8.945948,11.496729
11.4161625,12.360498,7.919824,7.994043,11.179834
11.344873,12.398584,6.6822753,7.150781,11.01333
11.134668,12.393457,6.9049315,7.5909667,11.277491
10.7792,12.380762,7.8548827,7.8512206,11.531885
10.456202,12.437891,9.220362,8.677637,11.496485
10.236475,12.514795,9.906397,9.374414,11.598291
10.346094,12.506739,10.360254,9.94253,11.596827
10.513086,12.600977,10.743067,10.405176,11.558741
10.520655,12.499659,10.610498,9.80044,11.061182
10.530664,11.158594,9.676172,9.323633,10.266504
10.48501,10.998194,8.880518,9.0646,9.864405
10.469141,10.4769535,8.621729,8.249414,9.623682
10.39834,10.153467,7.98208,6.8839355,9.524073
8.164942,10.277979,7.070459,6.242822,9.209131
7.14541,10.589991,6.1463866,5.7574706,9.032862
7.0284667,10.743311,4.4288573,5.2950683,8.766993
7.060449,10.82461,2.7169433,3.8438964,8.300684
6.751367,10.731348,3.2040038,3.1026855,7.3819823
6.4569335,10.3380375,3.7533202,3.3927245,6.6012206
6.6944823,10.165918,3.6285644,3.4186034,6.5816894
7.1170897,10.003077,3.14541,3.4276366,6.0802245
7.1671386,9.900782,3.0379882,3.344873,5.8287597
7.096582,9.848536,3.039209,3.1327147,6.645166
7.1759276,9.755274,2.943994,2.940576,7.943994
7.234033,9.845118,2.8297362,2.7699218,8.505762
7.341699,9.652002,3.0760741,2.6080565,8.577295
7.6112304,9.593409,3.5265136,2.6717772,8.538965
7.999414,10.159327,4.6129394,3.2875,8.709375
8.36294,11.588526,5.55166,4.2381835,9.031153
8.8189945,11.872461,6.1458983,5.2311034,9.524805
9.22378,12.064844,6.841211,5.7035155,10.331934
9.571192,11.961817,7.5294433,6.277246,10.770655
9.8067875,11.779932,7.9276366,6.9513183,11.013819
10.369776,11.711084,8.168604,7.428613,10.720362
10.741114,11.681299,8.373682,7.7000976,10.668604
10.707911,11.666651,8.156397,7.627588,10.859278
10.752588,11.949366,7.9745116,7.421289,11.072901
10.837305,12.22085,7.6444335,7.6563964,11.112207
10.270655,12.472803,8.143457,7.7938476,11.485254
9.660059,12.558252,8.621729,8.135889,11.63833
9.440088,12.550684,9.009424,8.162012,11.406885
9.530664,12.482569,9.76626,8.917383,11.166407
9.623438,12.266504,10.266504,9.5411625,10.505762
9.829737,11.773584,10.007959,9.331202,9.414942
9.295069,11.348291,8.779444,8.378321,9.132471
7.6808105,11.133448,7.858789,7.6185546,8.62002
6.8944335,10.946192,7.435205,7.145654,8.467676
6.386377,10.883936,6.805078,6.6336913,8.315332
6.0711913,10.646387,6.813379,6.554834,8.1896
5.698877,10.476465,6.3854003,6.279199,8.010889
5.4740233,10.3224125,6.4518065,6.2875,8.163477
5.4117675,10.337305,6.6654296,6.59707,7.9134765
5.236963,10.21084,6.7835937,6.6373534,7.8355956
5.3265624,10.038233,7.0506835,6.8353515,8.242823
5.8683105,10.079737,7.3722167,7.3165526,8.718897
6.483545,10.018213,7.596582,7.5892577,9.154932
6.8751464,10.027735,7.8687987,7.6793456,9.274073
7.0086913,10.287012,7.940088,7.4688964,9.192774
6.8402343,10.364649,7.818506,7.2552733,9.09878
6.7137694,10.47378,7.443506,7.0213866,8.944483
6.4190917,10.469629,7.2728515,6.9947753,8.751123
6.130029,10.343409,6.8387694,6.606836,8.285547
5.6322265,10.074121,6.897119,6.1515136,7.9781737
5.2210937,9.822657,6.360254,5.650293,7.8114257
4.7608886,9.7130375,5.9242187,5.6183105,7.8231444
4.9586425,9.828272,5.924707,5.3944335,7.258447
4.5526366,9.41543,5.418115,5.3419433,7.2767577
4.677881,9.390039,5.4762206,4.9293456,7.159326
4.572168,9.526758,5.360742,5.1979003,6.9139647
4.3651366,9.580713,5.411279,5.434961,7.0294433
4.562158,9.463282,5.417627,5.127832,6.8236327
4.385156,9.59292,4.938867,5.0245605,6.5770507
4.037256,9.426172,4.7347655,4.697656,6.1617675
3.6290526,9.713282,4.5250487,4.7640624,5.8836913
3.0113769,9.955469,4.2640624,4.312158,6.2086425
2.7767577,9.98501,4.070459,4.218408,6.9503417
2.6512694,10.292383,4.4608397,4.4657226,7.083154
3.565576,10.502832,5.322168,5.225,8.024805
4.71792,10.519434,6.09707,5.8836913,9.045069
5.424951,10.716944,6.713281,6.466455,9.282129
5.731836,10.470118,7.0069823,6.681787,8.6471195
5.5555663,10.172754,6.518701,6.405664,8.7167
5.2313476,10.616358,6.658838,6.598047,9.172998
5.870752,11.037256,6.6151366,7.0819335,9.682032
6.242822,11.200098,6.881006,7.709619,9.99209
6.376367,11.376856,7.2350097,7.8407226,10.241358
6.480371,11.62295,7.7206054,8.274317,10.480616
6.8785644,11.801661,8.168116,8.829248,10.756983
7.0470214,11.863672,8.49209,9.112452,10.910303
7.2101073,11.955713,8.701563,9.108789,11.082422
7.5196776,12.085108,8.882715,8.578028,11.259424
7.955957,12.23501,8.941553,8.230127,11.387598
8.2877445,12.125879,8.963526,8.299952,11.058741
8.665918,11.880274,8.9127445,8.205713,10.744776
8.938868,12.101221,8.740381,8.585596,10.501856
8.948877,11.56167,8.860987,8.733545,9.816797
8.357325,10.555567,8.721827,8.4300785,8.607813
7.572412,9.271143,8.233789,7.070459,7.070947
6.5938964,8.992823,5.3075194,4.922998,6.430078
4.77749,9.246241,4.720361,4.6063476,6.75332
3.8893065,8.671045,4.9862304,5.002832,6.393701
4.5399413,8.480616,5.303125,4.841211,6.2606444
4.747949,8.470118,5.176172,4.9188476,6.782617
4.971582,8.582422,5.5560546,5.343164,7.048242
4.1544433,8.806299,5.6805663,5.1583495,7.1285644
4.26333,8.634424,5.1583495,4.99917,7.10708
4.0545897,8.750147,5.122705,4.8646483,7.1546874
4.0311522,8.933741,4.5699706,4.7623534,6.902246
3.251123,8.976465,4.086084,4.506738,6.581201
2.610498,8.737696,3.8270507,4.072412,6.1529784
2.5992675,8.782862,3.528955,3.6063476,6.0230956
2.4339843,8.6175785,3.6129394,3.348535,5.976709
2.3424315,8.951563,2.8932128,3.2977538,6.1305175
2.310205,9.122705,3.19375,3.4471679,6.407617
2.0594726,8.946924,3.2301269,2.8504882,6.9688964
2.3663573,8.035303,2.8927245,2.7213378,6.857324
3.110498,7.4132323,3.452783,3.3158202,6.0387206
3.1317382,7.738672,3.632959,3.4742675,5.3197265
2.891992,7.9027343,3.613916,3.3712401,5.37124
3.0587401,7.9896483,4.148584,3.558496,5.6041503
3.2264647,8.834375,3.7762694,3.574121,6.032617
3.473291,11.88711,3.2765136,3.1187987,7.1322265
3.876123,12.649561,2.63125,2.740869,11.558741
5.1270995,12.685694,2.3463378,2.64541,12.035791
7.928613,12.983301,2.0020995,2.4518065,12.306299
9.836817,13.335352,1.9825684,2.4688964,12.36001
10.388086,13.271875,2.7752929,3.3487792,12.175196
10.004297,12.7286625,7.1544433,4.945947,11.782862
9.080713,11.98086,9.256006,6.5370116,11.119776
8.564844,10.156641,8.239161,5.067285,8.216944
7.0365233,8.883692,6.731836,4.2794433,6.3058105
4.355127,7.8941894,4.4933105,3.7416015,6.1546874
3.2306151,8.563868,3.863916,3.3717284,6.385156
3.284082,8.697657,3.5714355,3.2489257,6.336084
3.16958,8.185205,3.393457,3.0973144,5.9374022
3.199121,7.8456054,3.2152343,2.8580565,6.074121
3.3421874,7.773828,2.9947753,2.8619628,5.601953
2.9466796,8.015528,3.127832,3.0020995,5.5558105
2.9269042,7.9828124,3.306787,2.942285,5.4972167
2.6554198,7.9920897,3.2188964,2.5987792,5.492578
2.2640624,7.941797,2.7398925,2.1944823,5.3219237
2.4330077,7.9293456,2.25625,2.2899413,5.228906
2.2596679,7.440088,2.4869628,2.7557616,4.8929687
2.7384276,7.152246,2.9469237,3.0438476,4.7083983
2.5697265,7.402002,3.1178222,2.9957519,4.6270995
2.3314452,7.4220214,3.0907226,3.1285644,4.615869
1.5306641,7.7455077,3.351953,3.237451,4.630029
1.514795,7.7694335,3.2569823,3.3460937,4.7003417
1.4271485,7.9049315,3.068994,3.1493163,4.6944823
1.2386719,7.5003905,3.5101562,3.1007323,5.168115
1.9742676,7.688379,3.6131835,3.560205,5.6830077
2.9911132,7.458154,4.43374,4.310205,6.1253905
3.4125,8.082422,4.638574,4.6058593,6.2628417
2.6217284,7.8097167,5.08291,4.9395995,6.4552245
3.0609374,8.081446,4.6029296,4.608545,6.6668944
2.8995605,8.082178,4.0558105,3.9991698,6.127832
2.1371093,8.3363285,3.6959472,3.9359374,5.9044433
2.2086425,8.444483,3.284326,3.2977538,5.7640624
1.3077637,8.665674,3.2594237,3.615869,6.041162
1.8333985,8.417627,3.3341308,3.4273925,5.94375
2.0892577,8.250635,3.2411132,3.265039,6.1358886
2.773828,8.160547,3.1930175,2.94375,6.4479003
2.8399901,8.48208,2.8712401,2.4259276,6.5174804
3.1041503,8.097315,2.369287,2.0384765,6.549951
2.5509276,8.7096195,1.8766114,1.8045899,6.8270507
1.8385254,8.65542,1.492334,1.88125,5.9981933
1.7259766,8.705957,2.0052733,2.131494,5.818994
1.5482422,8.587793,2.213037,2.2740722,6.0265136
1.5831543,8.529932,2.275537,2.3011718,6.1947265
1.5609375,8.348291,2.5599608,2.4381347,6.572168
1.9552246,8.274805,2.5375,2.6026855,6.0990233
1.9806153,8.471582,2.6358886,2.5003905,5.883447
2.3009276,8.366602,2.428125,2.4510741,5.96499
2.7264647,8.187891,2.8307128,2.7621093,6.468164
3.355371,8.371973,3.6480956,3.4112792,6.6771483
3.396875,8.485987,4.2538085,4.015039,7.0213866
3.7225585,8.299463,4.3495116,3.8836913,7.2052245
3.9071288,8.699121,4.5191894,4.370752,7.258203
3.723535,8.640284,4.4811034,4.3583007,7.0892577
3.4930663,8.645899,3.8177733,3.6102538,6.8944335
2.6056151,8.693506,3.1161132,2.8478026,6.324365
1.9916016,8.453028,2.4330077,2.4190917,5.930322
1.6097656,8.640039,2.039209,2.0819335,6.2501464
1.1749512,8.460352,1.5138184,1.69375,6.1131835
0.7369629,8.589991,1.2003418,1.3075196,6.016504
0.35341796,8.412989,0.78896487,0.7992188,5.800195
0.2262207,8.272852,0.21401367,0.82485354,5.61416
0.2052246,8.3189945,0.6983887,0.9447266,5.5973144
-0.055029295,8.293604,0.5609375,0.31923828,5.730127
-0.15122071,8.363916,0.018701172,-0.32016602,5.7501464
-0.24619141,7.973779,-0.9703125,-0.5113281,5.2520995
-0.86923826,7.919336,-1.7310547,-0.6644043,4.9271483
-1.0691894,8.172998,-2.0794435,-0.276709,5.6395507
-1.3873047,8.035791,-2.023291,-0.30234376,5.160547
-1.6131347,8.021631,-2.0469728,-0.44614258,4.853662
-1.7276367,7.5521483,-2.1731935,-0.6409668,4.787988
-2.0113282,7.714746,-2.2911134,-0.8755859,4.654199
-1.2669433,7.4603515,-1.6946777,-0.44418946,5.0245605
0.04067383,7.355615,-0.49985352,0.49355468,5.7958007
0.9945313,7.070459,0.65834963,1.25625,6.2342772
1.6134278,7.6793456,1.5841309,1.8590332,6.3219237
2.1397948,7.5440917,1.9825684,2.2469726,6.0365233
2.1502929,6.9347167,1.9374024,2.249658,5.9742675
1.3961426,7.5350585,1.2533203,1.4935547,5.829248
-0.17807618,7.355615,-0.027197266,0.37807617,4.959131
-1.1792969,7.4061522,-0.98520505,-0.19296876,4.563623
-1.3558105,6.9200683,-1.5760254,-0.4690918,4.501123
-1.6626953,6.6666503,-1.825293,-0.6421875,4.11416
-2.0154786,6.3749022,-2.3592286,-0.9964355,3.6231933
-2.3499513,6.2586913,-3.2859864,-1.3511719,2.5406737
-2.7132325,6.34707,-3.6263185,-2.1988282,1.4134766
-3.250586,6.34707,-3.6866212,-3.0188966,0.4491211
-3.0652833,6.238916,-4.365332,-2.6316895,0.10341797
-2.9698243,5.7362304,-4.100928,-2.4644532,-1.160498
-2.375342,5.6810546,-4.0811524,-2.3951173,0.10756836
-1.6253418,5.9605956,-3.5086427,-2.1070313,0.2015625
-1.4361328,6.4322753,-3.1385255,-1.9153808,-0.22202149
-1.6819824,6.4452147,-3.1421876,-1.7435058,-0.25888672
-1.9373535,6.645654,-3.276465,-1.6282715,-0.15805665
-2.339209,6.742578,-3.170752,-1.5652832,-0.23715821
-2.7894044,6.4586425,-2.1478028,-1.5721191,-0.415625
-1.0408691,6.3595214,-0.8086914,-0.941748,0.77749026
0.59829104,6.2020507,0.3729492,0.1546875,2.829492
1.6927735,6.329736,1.4740235,1.0799805,4.2875
2.4901366,6.5213866,2.2677245,1.7982422,5.0265136
2.7103515,6.7784667,2.7396483,2.1004882,5.4046874
2.4203124,7.018701,2.034326,1.8910156,5.1129394
1.0697266,7.0475097,0.8583008,1.0799805,4.0140624
-0.14536133,6.610986,0.24355468,0.22890624,2.574121
-0.37265626,6.048242,-0.18881837,-0.25498047,1.9808594
-0.37998047,5.766504,-0.3104004,-0.56259763,2.0714355
-0.35898438,5.685449,-0.16806641,-0.59287107,2.5155272
-0.43051758,6.0731444,-0.24082032,-0.6736816,3.0399413
-0.597998,6.407129,-0.13876954,-0.60947263,3.4171386
-0.7674316,6.329248,0.13808593,-0.35678712,3.6549315
-0.38022462,6.6031737,0.42617187,-0.10654297,4.1393065
0.058496095,6.4259276,0.9996582,0.13295898,4.1600585
0.21914062,6.2557616,0.94863284,0.2965332,3.938867
0.29189453,6.4063964,0.81777346,0.5963379,4.1041503
0.35854492,6.511621,0.7835938,0.8138672,4.291162
0.40444335,6.643457,1.3875977,1.1021973,4.357324
0.2015625,6.131494,1.7762696,1.3692871,4.1996093
0.11611328,5.6637206,1.492334,1.1930176,3.4674315
0.24868163,5.1476073,1.2428223,0.78286135,3.093408
0.2064453,4.2728515,1.273584,0.86928713,2.4884276
0.07924805,4.6358886,1.284082,0.98842776,2.431787
0.1144043,5.4154296,1.3380371,1.1307617,3.33291
-0.38217774,6.0472655,1.0072266,0.8678223,3.3365722
-0.93466794,6.3385253,1.0655762,0.6058594,3.7115722
-0.85166013,6.634912,0.67470706,0.53774416,4.5086913
-0.738623,7.264795,0.55019534,0.11831055,5.105127
-0.33334962,7.855127,0.53286135,-0.059912108,5.2123046
-0.15317383,8.767969,0.3824707,-0.21567383,4.851953
-0.09262695,8.878321,0.3470703,-0.029150391,4.686914
0.14199218,9.262598,0.30239257,-0.17270508,4.613916
0.45913085,9.072657,0.36635742,0.20302734,5.4588866
0.57436526,9.06167,0.46083984,0.5216309,5.87417
0.47158203,8.74917,0.48964843,0.47573242,5.891748
0.85488284,9.472803,0.87709963,0.56655276,6.04458
1.6661621,9.280176,0.8419434,0.7938477,5.957422
1.700586,10.163965,0.49624023,1.067041,5.7801757
2.1085448,10.384668,0.5108887,0.95644534,5.429834
2.4044433,10.128077,0.74257815,1.0318848,5.341455
2.5243163,9.815821,1.3553711,1.059961,5.9518065
2.4200683,9.698877,1.9725586,1.4029785,6.0729003
2.4818358,9.714258,2.0558105,1.9452149,5.957666
2.6065917,9.702295,1.4874512,1.9947754,5.0892577
2.6668944,9.699121,1.1454102,1.9530274,5.258203
2.6517577,9.846582,1.2069336,1.7977539,4.6947265
3.2213378,9.813868,1.6634766,2.00625,5.9166503
3.8524413,9.418848,2.0772948,2.5328612,7.260156
4.553613,9.739405,2.5484862,3.1368651,8.239405
4.794824,10.042139,2.8580565,3.4867187,8.92544
4.143701,10.091944,3.016748,3.8895507,8.984034
3.8070312,10.113428,3.13125,4.0597167,8.366114
3.3463378,10.202295,2.848535,3.664209,8.068262
2.5250487,9.663721,2.365625,2.8331542,6.742578
1.9188477,8.848536,2.235498,2.3888183,7.0277343
1.6864258,8.603174,2.251123,2.3487792,6.8060546
1.5355469,7.610742,2.4564452,1.837793,6.0384765
1.8275391,7.560449,2.971826,2.2484374,5.282373
2.0787597,7.1009765,2.9398437,2.1942382,5.7257323
2.1495605,7.1703124,2.9850097,2.023828,6.8265624
2.4137206,7.4012694,2.3197265,1.3851563,6.3458495
2.4876952,7.5924315,1.8807617,0.66689456,5.709619
2.4747558,7.9027343,1.7833496,1.1344239,5.4708495
2.25625,7.919336,2.2870116,1.6571289,5.539209
1.9300781,7.7540526,1.7643067,1.3172852,5.37124
1.2616211,7.6656737,1.3919922,1.1021973,4.9618163
1.0360352,6.966211,1.6161133,1.2721192,5.006006
0.99257815,6.848047,0.46621093,0.35585937,5.0504394
0.7477051,6.740625,0.60610354,-1.2156738,4.8106933
0.49355468,6.555322,0.31972656,-0.08310547,4.769922
0.8788086,6.3458495,0.36000976,0.36953124,4.7679687
1.447168,6.315088,1.6805664,1.7506348,4.848779
2.2794433,6.405908,3.1229491,2.7000976,5.1183105
2.8111815,6.641992,3.539209,3.4957519,5.5868163
2.9425292,6.9552245,3.7591796,4.017236,5.786035
2.7604003,6.9933105,3.6024413,3.6861815,5.668115
1.9322754,6.997705,2.225,2.5338378,5.3287597
-0.21079102,6.6046386,0.84365237,1.5182129,4.5560546
-0.6124023,6.1148925,-0.22958985,0.65249026,4.0318847
-0.55673826,5.7350097,-0.63071287,-0.8892578,3.3978515
-0.6128906,5.4601073,-0.992041,-1.867041,3.244287
-0.5767578,5.249658,-1.3206543,-1.2129883,2.2794433
-0.6009277,5.3407226,-1.5262207,-1.4195312,1.8612305
-0.51694334,5.2816405,-1.5328125,-1.5982422,1.9381348
-0.39780274,5.2384276,-1.4002441,-1.4178222,2.0909667
-0.32626954,5.100244,-1.0245117,-1.273291,1.9371582
-0.22006837,5.1183105,-0.71225584,-1.1460937,2.3104491
-0.2022461,5.1324706,-0.4366211,-0.95810544,2.6793456
-0.34799805,5.0909667,-0.40878907,-0.7588867,3.053125
-0.32797852,4.990625,-0.38339844,-0.72788084,3.1258788
-0.33188477,5.0003905,-0.29746094,-0.47739258,3.4442382
-0.16733399,4.679834,-0.15073243,-0.09555664,3.280908
-0.23325196,4.815088,0.10830078,0.20546874,3.0433593
-1.2063965,5.048486,0.37758788,0.60366213,2.719873
-1.1770996,5.169336,0.43227538,0.8504883,2.5311522
-1.0279297,5.480371,0.39589843,0.8070313,2.655664
-0.95224607,5.4967284,-0.18491212,0.45083007,2.9952636
-0.9207519,6.0626464,-0.16269532,0.56044924,3.589746
-0.7828125,7.1842284,0.042871095,0.7325684,4.65542
-0.67978513,8.964746,0.3158203,0.66274416,6.0421386
-0.49741212,10.674952,0.30605468,0.8185059,8.16958
-0.48911133,10.552881,0.553125,1.0733887,7.782861
-0.7842773,10.219385,0.511377,1.1183106,7.3456054
-0.7840332,10.380762,0.39614257,1.0414063,6.612207
-0.9505371,10.140528,0.51650393,0.9891602,6.4271483
-1.113623,9.988428,0.632959,1.2936035,7.021875
-1.1783203,9.7167,0.5030762,1.3097168,6.4879394
-1.3279785,9.631983,0.5597168,1.2181641,5.7621093
-1.2991699,9.608301,0.54555666,1.205957,4.779199
-1.2999023,8.765772,0.72158206,1.1915528,3.9789062
-1.3260254,7.0370116,0.69204104,1.3121582,2.8983397
-1.2327636,5.9808593,0.89931643,1.2103516,2.2672362
-1.0772461,5.827539,0.9056641,1.1107422,1.865625
-0.95639646,4.8895507,0.8780762,1.073877,1.7938477
-1.0345215,4.398584,0.67958987,0.7704102,2.0067382
-1.2244629,4.2350097,0.3565918,0.869043,1.8329102
-1.1543945,3.9051757,0.07192383,0.48793945,2.0960937
-1.2637695,3.8700194,0.75454104,0.104882814,2.3099608
-1.2022461,3.9706054,1.2538086,0.84707034,2.6048827
-0.5713867,4.1236815,1.3521973,1.9554688,2.775537
-0.26572266,4.450586,2.4046874,2.7469726,3.0726562
0.030908203,4.7015624,2.6751952,3.0807128,3.6351562
0.15200195,4.910547,3.0470214,2.4693847,3.8109374
0.0140625,4.973047,2.6432128,2.5782714,3.9051757
-0.74350584,5.0157714,1.4762207,1.7459961,3.7552733
-1.6026367,4.8021483,-0.3404297,0.65004885,3.4879394
-2.467383,4.5333495,-1.3006347,-0.4317383,3.3585448
-2.6109376,4.298242,-1.8082031,-0.81943357,3.1205077
-2.7352052,3.9962401,-1.7239746,-1.2261719,2.7362304
-2.9998536,3.7542968,-2.1397462,-1.37583,2.6034179
-3.740088,3.351953,-2.115088,-1.679541,2.0738769
-3.7212892,3.0665526,-2.6941895,-1.6429199,1.7437989
-2.9585938,2.8211913,-2.4913087,-1.5853027,1.5379883
-2.498633,2.7506347,-2.679541,-0.8780273,1.6100098
-2.8191895,2.876123,-2.1978517,-1.4107422,1.6036621
-3.9253907,2.9608397,-1.5486816,-1.3138183,1.634668
-4.4549317,2.968408,-1.799414,-0.7305664,1.8138672
-4.4234376,2.839746,-2.4805665,-1.0125488,1.6461426
-4.481787,2.79458,-2.1172853,-1.0875,1.596582
-4.014746,2.8687987,-1.8980469,-1.7835449,2.0770507
-3.2198243,2.8614745,-1.5799316,-1.6370605,1.5106446
-2.6946778,3.0782714,-1.4856933,-1.4583496,1.5726563
-2.0218263,3.0382323,-0.9537109,-1.0657715,3.157617
-1.1648926,3.4898925,-0.035009764,0.016992187,3.054834
-0.3873047,4.0648437,0.7481934,0.9713379,3.8065429
-0.113867186,4.430078,1.4322754,1.4364258,3.3858886
0.12661132,4.662744,1.8578125,1.6556641,4.4295897
0.26308593,4.909082,1.6805664,1.4803711,4.3929687
-0.49155274,5.1253905,0.37514648,0.44472656,3.9969726
-1.9236816,5.0233397,-1.0630859,-0.7867187,3.522119
-2.0652833,5.0580077,-1.6363281,-1.3257812,2.3878417
-2.2291017,5.2762694,-2.052588,-1.5833496,2.6180663
-2.2459474,5.187158,-2.3956056,-1.4061035,1.4154297
-2.318213,4.6544433,-2.9070802,-1.6543945,0.6161133
-2.4720216,5.013574,-2.5523438,-2.0442872,-0.1607422
-3.4998536,5.690088,-2.6854005,-2.3948731,-0.64511716
-3.9083009,6.0995116,-2.9463868,-1.8353027,-1.1138672
-3.9678712,5.6129394,-2.543799,-1.611914,-0.8707031
-4.788672,5.6493163,-2.0623536,-1.2339844,0.4720703
-5.7046876,5.94375,-1.3255371,-0.98032224,1.0758301
-6.2303224,6.3927245,-0.93173826,-0.41464844,0.019433593
-5.1543946,7.162744,-0.03305664,0.49038085,-0.16708985
-2.700293,6.83999,-0.017675782,1.5763184,1.2784668
-2.5279298,6.7472167,0.7501465,1.6539551,2.1620116
-2.953467,6.657373,1.3770996,2.0057616,2.3268065
-1.5787109,6.7765136,1.5030762,2.1842284,2.9332519
-0.6695312,7.098291,2.6534667,2.8094726,4.3268065
-0.16098633,7.4051757,3.1495605,3.3307128,5.394922
0.63735354,7.537256,3.4427733,3.5240722,5.8875976
1.3399903,7.6187987,3.7672362,3.6236815,6.260156
1.8104492,7.447656,3.874658,3.4920897,6.497705
2.015283,7.738672,3.5946288,3.3355956,6.2691894
1.8243653,7.7813964,3.3163085,3.2506347,5.9916015
1.1319824,7.8023925,3.0755858,3.2318358,5.787744
0.7213379,7.836328,2.994287,3.3456054,5.752832
0.64882815,7.8072753,3.0841308,3.4666991,5.438623
0.57241213,7.812158,3.2210937,3.6346679,5.438379
0.67348635,7.8844237,3.292871,3.5436034,5.497461
1.3407227,7.7853026,3.0545897,3.499658,5.516504
1.4500977,8.022364,2.9017577,2.9583983,5.583154
1.7650391,7.817041,2.0067382,1.5172364,5.864404
1.7867676,7.741113,0.2989746,0.070214845,6.0851073
2.223291,7.886865,-0.6758789,-0.77182615,5.6810546
2.1405272,7.85708,-1.4402832,-1.2879394,5.0892577
0.1439453,6.9828124,-1.9639648,-1.6353515,4.3685546
-1.1717285,6.47207,-2.3296876,-1.7564453,3.8773437
-1.5538086,6.088037,-2.5887208,-1.7742676,3.4574218
-2.5381837,5.8839355,-2.823584,-1.8265136,3.1710448
-2.9314942,5.587793,-3.0538087,-1.7662109,2.9574218
-2.8924317,5.419824,-3.0728517,-1.5210937,3.1778808
-2.0511231,5.5816894,-2.021338,-0.95322263,4.4981933
-1.0699219,6.0643554,-0.84750974,-0.08774414,5.2242675
-0.24936524,5.5597167,0.3800293,0.52504885,5.4571776
0.40029296,6.065576,0.8756348,1.0731446,5.5787597
1.0748535,6.2916503,1.2740723,1.4034668,5.4640136
1.2164551,6.569238,1.2948242,1.3824707,5.2225585
0.54360354,6.516992,0.8917481,0.7550293,4.7447753
-0.18808594,6.384912,-0.40854493,-0.4078125,4.20083
-0.8387207,5.8788085,-1.6282715,-1.0574707,3.9208007
-1.7125,5.7936034,-2.1053224,-1.5120605,3.7213378
-2.3240724,5.6412597,-2.4668946,-1.6700195,3.4012694
-2.6434083,5.2611327,-2.5235353,-1.6653808,3.2418456
-2.8934083,5.0606933,-2.5738282,-1.570166,3.3023925
-3.0279298,5.192529,-2.4200196,-1.5005859,3.671289
-3.1021485,5.5870605,-2.0037599,-1.3614258,3.879541
-3.2408204,5.679834,-1.5262207,-0.8648437,3.8854003
-3.2422853,5.4864745,-0.7674316,-0.4415039,3.7618651
-3.0555177,5.5438476,-0.39169922,-0.050146483,3.6368651
-2.6927247,5.482324,-0.16586915,0.03359375,3.688867
-2.2254395,5.598047,-0.24887696,-0.051123045,3.9764647
-2.4700685,5.6844726,-0.16708985,-0.22714844,4.0836425
-2.243506,5.5924315,-0.34458008,-0.3482422,4.1808105
-1.3812011,5.845117,-0.46103516,-0.6255859,4.1339355
-1.3829101,5.7506347,-0.48276368,-0.754248,4.0594726
-0.3868164,5.8355956,0.12539062,-0.061621092,4.7833495
0.7555176,6.352197,0.9820801,1.0013672,5.4395995
1.7105957,6.65249,1.7708985,1.8231446,5.6078124
2.537744,6.6690917,2.492334,2.5199218,5.7015624
2.7293944,6.6805663,2.874414,2.8651366,5.709375
2.4894042,6.591455,2.6971679,2.5682616,5.461572
1.648584,6.435205,1.5550781,1.6925293,4.976709
0.19936523,6.3407226,0.17543945,0.5284668,4.126367
-0.84165037,6.1700683,-0.4095215,-0.21884766,3.3792968
-1.2427734,5.7901855,-1.1648926,-0.6370605,3.0118651
-1.5345215,5.25332,-1.4922851,-1.1028808,2.9676757
-1.9310058,5.3233886,-1.7798828,-1.351416,2.8021483
-2.2959962,5.2518554,-2.0254884,-1.2964844,2.5729003
-2.3724122,5.1446776,-2.2969728,-1.321875,2.3062987
-2.328711,5.0211425,-2.420508,-1.5845703,2.2154784
-2.5765138,4.923486,-2.7405763,-1.8355469,1.9972168
-2.7564454,5.020166,-3.122168,-1.9849609,1.7713867
-2.9478517,4.898828,-3.0462403,-2.038916,2.1480956
-3.1751466,5.338281,-3.1612306,-2.1451173,1.7723633
-3.151709,5.4659667,-3.1805177,-1.9500488,1.5775391
-3.1456056,4.863916,-3.0970216,-1.8238281,1.9056641
-3.240088,5.2157226,-2.8689942,-2.0340333,1.0770508
-3.375342,5.2523437,-2.8658204,-2.181006,1.1358887
-3.3228517,4.9100585,-2.63584,-2.115088,1.5169922
-2.4307618,5.1187987,-1.8125976,-1.1202148,2.9149413
-1.6150879,5.081201,-0.75986326,-0.10898437,3.91958
-0.7933105,5.155664,0.5331055,0.79360354,4.4725585
-0.029638672,5.400781,1.3514649,1.3028809,4.7884765
0.5296875,5.5804687,1.7923828,1.5528809,4.9276366
0.8685547,5.7489257,1.8590332,1.6283203,4.893945
0.5650879,5.8426757,0.931543,1.044336,4.697656
-0.046972655,5.7906737,0.09462891,0.10708008,4.125879
-1.0889648,5.166406,-0.46030274,-0.3387207,3.5313964
-1.372168,5.15249,-0.8868164,-0.7041992,3.0909667
-1.7706054,5.0645995,-0.91318357,-1.1868652,2.692285
-2.200293,4.706445,-0.8387207,-1.2908691,2.6861815
-1.8963379,4.7342772,-1.1875976,-1.3611816,3.1307616
-1.2754883,5.058496,-1.9512695,-1.4766601,3.3868651
-1.3660644,4.794336,-1.7347168,-1.5723633,2.6666503
