"[299, 255]","[227, 248]","[287, 319]","[279, 328]","[230, 262]"
10.722803,16.369532,8.684961,9.514795,12.859766
10.832422,16.173975,9.054102,10.204737,13.087305
11.044336,16.276514,9.206202,10.32876,12.947168
11.08877,16.169092,9.323633,10.592188,13.091455
11.157862,16.106104,10.197168,10.54751,12.989893
10.951563,15.766748,10.642725,11.187159,12.679346
10.688135,15.755762,10.998682,11.366602,12.369532
10.625147,15.657862,11.678858,11.712061,13.476221
11.033106,15.799219,12.86709,12.552149,14.187891
12.269678,15.820948,13.979151,13.324366,14.805567
12.145411,16.030909,14.454493,14.010157,15.82168
12.429346,16.04873,14.580957,13.988184,16.310694
13.041895,16.223536,14.987452,14.042383,16.649073
13.237696,16.29922,13.493555,12.909815,16.8771
14.241114,16.762598,14.249659,13.761133,16.878077
14.122705,16.968897,13.66543,13.59878,15.898096
13.529688,16.889063,13.855616,13.303858,14.94668
12.821924,17.067041,12.935205,12.799463,14.469629
11.995996,17.1271,12.152491,12.327051,13.884668
11.595362,17.198633,11.880762,11.755762,13.849268
11.326319,17.253809,11.781397,11.890772,13.835596
11.36709,16.723291,11.729883,11.972803,13.864161
10.918848,16.762354,11.4005375,11.544825,13.892725
10.979395,16.549707,11.44253,11.652002,13.670313
10.669825,16.40835,10.78042,11.150782,13.845362
10.717188,16.367579,10.715235,11.354883,13.761133
10.762598,15.965723,11.471582,11.357569,13.356348
10.5917,15.906153,10.917383,10.515772,13.809717
10.560938,16.086573,10.216944,10.720118,13.451563
10.587305,15.808008,10.222803,10.472559,13.194483
10.610987,15.857569,9.756739,10.10586,12.996241
10.849512,16.09292,10.936914,10.932276,13.862696
11.413965,16.106104,12.011866,12.243311,14.952784
11.520899,15.677881,13.048731,13.05752,15.53628
11.886377,15.969629,13.741358,13.700098,15.8771
13.272852,15.878809,14.162012,13.675684,15.547266
13.206934,16.044336,14.793116,14.141748,15.483301
13.629297,16.2875,15.057764,14.382959,15.563868
14.244776,16.892725,14.7877445,14.084864,15.935694
13.857813,17.245264,14.406153,13.94668,16.245264
13.338282,17.500147,13.590723,13.279688,16.144922
12.784571,17.66128,12.816797,12.84292,16.04873
12.375391,17.807032,12.512598,12.545069,15.45376
12.339746,17.84585,12.397608,12.027491,15.074854
12.1314945,17.501123,12.513819,12.0377445,14.928125
12.232813,17.324854,12.753321,12.246241,14.937647
12.488916,17.288233,13.7130375,12.924219,15.013819
12.747217,17.243067,13.857325,13.385157,15.140772
13.047022,17.149073,14.085596,13.736963,15.357325
13.155176,17.475733,14.244043,14.0255375,15.4752445
13.044825,17.903955,14.392481,14.375391,15.664209
13.211817,17.985498,14.964014,14.871485,16.12295
13.476221,18.06167,15.444727,15.418604,16.503565
13.969873,18.11294,16.14834,16.321436,16.899073
14.586573,18.200586,16.544092,16.518457,17.29751
15.254297,18.316309,16.682764,16.119776,17.633204
15.791407,18.62295,16.685205,15.875635,17.9396
16.176905,18.920801,16.689112,14.941065,17.816309
16.542383,18.362696,15.698877,15.83169,16.854395
15.295313,17.89126,16.21963,16.020166,17.412989
14.938623,17.861963,16.056055,15.919825,17.851221
14.925196,18.180079,15.546045,14.157129,17.436182
14.634424,17.86123,15.336817,14.511621,17.127832
14.482569,17.675196,13.990381,14.249903,16.734766
13.944727,17.475977,13.705469,13.749903,15.971827
13.3849125,17.329493,13.302881,13.41958,15.503809
12.802149,17.136377,12.970118,12.813379,14.979639
12.739161,16.748926,13.045557,12.833399,14.6271
12.182764,16.498194,12.805323,12.101221,14.195215
12.026514,16.420557,12.101709,11.749414,14.052637
11.926905,16.181787,11.552881,11.445459,13.8224125
11.9042,15.967188,11.422998,11.389795,13.79336
11.882959,15.884424,11.1817875,11.306055,13.532862
11.711084,15.712549,10.954004,11.032862,13.61294
11.6175785,15.504297,10.898096,11.000879,13.354639
10.891748,15.434961,10.9474125,10.950342,13.409082
10.167139,15.501612,10.749414,10.605127,13.436426
10.260645,15.247461,10.565821,10.542871,13.400782
10.104395,15.150782,10.213282,10.340479,13.075342
10.368799,15.221582,11.02334,11.077784,13.620508
11.361963,15.161036,12.065821,11.873926,14.176416
12.139307,15.185205,12.983301,12.726465,14.56045
12.760889,15.265284,13.732325,13.469873,14.9908695
13.112452,15.385401,14.018702,14.007227,15.324121
13.464258,15.574366,14.51919,13.849512,15.718164
13.44668,15.831446,14.672998,14.360743,15.794336
13.532373,15.9613285,14.421289,14.11294,15.956934
13.182764,16.5375,14.04751,13.775782,15.823389
12.7252445,16.802881,13.332178,13.20669,15.204004
11.969873,16.813868,12.014551,12.198877,13.697901
11.360498,17.000635,11.149561,11.563135,13.098047
10.462305,16.964746,10.9942875,11.167383,12.958643
10.437159,16.885645,11.280664,10.396875,13.6
10.489893,16.833399,10.8363285,10.707911,13.143946
9.7582035,16.524805,10.347803,10.096827,11.678125
9.985498,16.308985,9.727198,9.795557,10.600489
9.723536,16.12002,9.459131,9.67959,10.340479
9.014063,15.979151,9.397852,9.673243,9.929834
8.685205,15.874659,9.152491,9.583155,10.046534
8.688135,15.807276,9.146143,9.556299,9.997461
8.115137,15.763575,7.576074,9.215723,9.506006
7.921289,15.654932,6.58291,8.727686,8.886133
7.880029,15.628809,6.2794433,8.368067,9.09878
8.911524,15.5377445,8.565332,9.609034,10.399073
10.455225,15.402491,10.389307,10.232569,11.989161
11.762598,15.666651,12.720118,11.975977,13.813868
12.75503,15.510645,13.71084,13.649561,14.805567
13.361475,15.657373,14.483057,14.194971,14.391993
13.546289,16.160059,14.527735,14.389063,14.171534
13.422754,16.551172,14.316065,13.930567,14.093897
13.112207,16.69082,13.394678,13.339014,14.085596
12.900293,16.326563,13.014551,12.832666,13.6271
12.503077,16.18667,12.029444,11.251123,13.194483
12.274073,15.613184,11.226221,10.616846,13.251612
12.4144535,15.214746,10.757715,10.313135,12.6974125
12.425196,16.218897,10.422266,10.121485,12.042383
12.296778,17.161036,10.6505375,10.177881,13.265772
11.809961,17.458643,10.684961,10.295801,14.376856
12.42251,17.677149,10.889307,10.405176,15.120996
12.038965,17.82754,10.87417,10.393457,15.370508
12.357325,17.981348,11.417871,10.544092,15.8971195
11.829248,18.022852,12.215723,11.099268,16.034327
11.858789,18.147364,13.073389,11.783838,16.310205
12.296289,18.235743,13.633936,15.108301,16.562159
12.31875,18.301416,15.172022,16.008204,16.75088
12.649561,18.32754,15.946436,16.351465,16.98794
12.923243,18.443262,16.231592,16.535059,17.259912
13.1783695,18.526026,16.503809,16.717432,17.48086
13.598291,18.63833,16.81753,16.947168,17.747461
14.491114,18.709375,17.012598,17.234766,18.053858
15.411036,18.678614,17.191309,17.515284,18.257715
16.320704,18.501368,17.355371,17.791407,18.314356
16.909815,18.341455,17.557032,17.856592,18.30337
17.32339,18.22671,17.510157,18.091944,18.253077
17.52749,18.215479,17.526758,18.557764,18.255762
17.396387,18.234522,17.56338,18.6896,18.171534
17.034327,18.23379,17.862696,18.284327,18.018213
16.72207,18.199854,17.684473,17.697168,17.87295
16.580713,18.189112,17.439844,17.389307,17.840479
16.460108,18.161768,17.381739,17.225245,17.840723
16.40957,18.14297,17.300196,17.136377,17.793848
16.487207,18.257227,17.09878,17.01089,17.76333
16.627344,18.326075,16.715723,16.705957,17.621973
16.75625,18.335596,16.163965,16.34292,17.37588
16.720606,18.307276,15.489405,15.646875,16.874903
16.303125,18.24624,15.223536,15.583155,16.537256
15.932764,18.06045,15.256006,15.386621,16.336084
15.5064945,17.930567,15.166895,15.303125,16.458887
15.00503,17.48672,14.965967,15.143946,16.282618
14.723291,17.22207,14.794825,14.670069,16.113916
14.433496,17.451563,14.370264,14.136133,15.829737
13.7582035,17.16665,14.155664,13.258448,15.396387
12.848536,16.962793,13.954737,12.372705,14.544825
12.302637,16.663721,14.133936,11.700342,14.702539
13.012598,16.459131,14.801416,13.381006,15.548731
12.738428,16.256983,14.5021,13.781885,12.909815
12.2252445,16.045069,14.342188,13.869532,13.406397
12.466944,15.810938,14.355616,14.045801,15.165918
10.7911625,16.307764,13.985254,13.971094,15.396387
11.675928,16.747217,13.402979,12.939112,15.272608
11.800684,16.717676,11.960108,11.937403,15.332911
11.660303,16.630274,11.439112,11.442774,14.941309
11.6488285,16.747461,11.385889,11.822168,14.924463
11.619776,16.287256,11.257227,10.761133,14.468897
11.627344,15.830713,10.849512,10.808985,13.788233
10.445948,14.848291,10.731104,10.429834,12.668116
10.075586,15.0917,9.819727,9.471094,12.92959
9.622705,14.845362,9.064112,8.827051,12.687159
9.771387,15.183985,8.767969,8.873682,12.5646
9.371729,14.885889,9.4908695,9.373438,12.335108
9.093409,14.31045,9.342188,8.829493,11.673243
9.028223,14.085108,8.845606,8.265039,11.584375
8.304102,13.975977,8.290186,7.742334,12.228907
7.820703,13.972315,7.984033,7.501611,11.852442
7.3060546,13.804834,7.758203,7.013574,11.464014
7.2850585,13.755518,7.6249022,7.3890624,10.72793
8.053858,13.367334,8.522608,8.29458,12.013819
9.122705,13.564112,9.462305,9.176661,12.431543
10.125879,13.402246,10.187647,9.996973,12.533594
10.681543,13.910059,10.833643,10.652735,13.039209
10.896143,13.6661625,11.286036,11.078028,13.144922
8.329248,13.490625,11.287012,11.123438,11.432764
9.253077,14.018702,11.079981,10.945948,11.187403
8.524073,14.202051,10.313135,10.163477,9.914209
7.5577636,13.099268,9.289942,9.284082,8.320948
6.410791,12.35586,8.329493,8.274317,8.503809
5.77041,13.401514,7.756494,8.012842,9.593653
5.787256,12.8224125,7.848291,7.716699,9.4769535
5.7811522,12.965235,7.5919433,7.3458495,8.962061
5.397119,12.592188,7.169824,6.99917,8.99795
5.228418,12.608789,6.5682616,6.4796386,9.7408695
5.2955565,12.142969,5.747461,5.969873,8.948389
5.171289,12.340235,5.2936034,5.587793,9.372217
4.5350585,12.434473,4.929834,5.1705565,8.983057
4.1981444,11.482813,4.652002,4.8790526,8.42544
3.8348632,11.824121,4.369531,4.6688476,9.369043
3.5877929,11.891504,4.058252,4.5509276,9.193262
3.27041,12.154688,3.7516112,4.6827636,9.577051
3.131494,12.114405,4.022363,4.7867675,10.127832
4.0370116,12.443262,4.6290526,5.588037,10.060938
5.7264647,12.84878,6.1856933,7.312158,11.089502
7.234033,12.238428,7.7274413,8.320459,11.265528
8.904688,11.660547,9.181299,9.347071,12.47085
9.870264,13.247217,10.266748,10.543848,12.697168
10.444727,13.943506,11.276514,11.160303,13.169092
10.820459,13.93667,11.362696,11.45083,13.402491
10.922266,14.017725,11.307032,11.519922,13.0917
10.63125,13.851221,11.085352,11.189112,13.027979
10.011377,13.682276,10.519922,10.333399,12.304102
8.823633,13.731104,9.315088,9.106348,11.551905
7.376611,13.82876,8.240381,8.286524,11.516504
6.935449,13.656397,7.173242,7.480127,11.015284
6.554834,13.437159,6.292627,7.3250976,10.6192875
5.7152343,13.372705,5.6822753,6.836328,10.905664
6.070703,13.797022,5.20083,6.235742,10.8033695
5.4447265,13.01333,4.454492,5.992822,9.907618
5.3490233,13.022364,4.6686034,5.6634765,10.045557
5.146631,13.829248,4.926416,5.283838,9.476709
4.863916,13.894922,5.209375,5.1371093,9.034571
4.62124,14.0707035,4.968408,5.3177733,9.214258
5.2315917,14.3380375,5.1463866,5.408838,9.566309
5.504785,14.595118,5.3355956,5.8114257,10.041895
6.2035155,14.707666,5.8509765,6.1183105,11.069239
6.983789,14.761866,6.985498,6.838037,11.654932
7.725244,14.243799,8.0863285,7.6478515,11.482325
7.8600097,13.214502,8.832666,8.184473,11.349268
8.407373,13.236231,9.111963,8.029444,10.922998
8.39834,13.4144535,9.19253,7.944238,11.604395
7.723779,13.708887,9.6192875,9.000879,11.644922
7.8265624,13.896143,9.873682,9.875879,12.335352
8.111475,14.476465,9.859278,10.410059,12.781885
8.159815,14.735987,9.93545,9.598047,13.264063
8.549707,15.507959,10.017969,9.507715,14.234034
9.001123,16.540674,10.125635,9.691065,14.813135
9.328028,16.563623,10.2911625,9.87002,14.989649
9.455957,16.710596,10.577784,10.0550785,15.386133
9.446924,16.79629,11.014063,10.245508,15.706202
9.75918,16.95254,11.305567,10.7286625,15.930323
10.462549,17.051416,11.893213,11.970118,16.028223
11.245996,17.120752,12.66128,13.67251,16.069239
11.76333,17.114649,13.469141,14.387842,15.974756
12.694239,17.168848,14.082911,14.667627,15.910547
13.951563,17.273584,14.594873,14.817286,16.004297
14.32876,17.407373,14.915918,14.956934,16.120996
14.490137,17.441797,15.04043,15.087549,16.240381
14.611719,17.37832,15.084864,15.204981,16.33877
14.734522,17.43081,15.11294,15.319971,16.417383
14.917139,17.443506,15.403223,15.49502,16.608301
15.124903,17.49502,15.929346,15.866846,16.923975
15.311426,17.535059,16.789942,16.47671,17.204493
15.412989,17.50503,17.651026,16.544825,17.554346
15.531641,17.399317,17.813135,16.59585,17.613184
15.551661,17.38589,18.128077,16.75918,17.493555
15.489161,17.41421,18.204004,17.228662,17.503809
15.394922,17.42837,18.261621,17.435694,17.630274
15.360743,17.523584,17.955225,17.301416,18.139307
15.344629,17.589014,16.895899,16.880274,18.007715
15.289942,17.653955,16.215967,16.64956,17.591455
15.319239,17.908594,16.107325,16.908106,17.730371
15.419336,18.22207,16.386866,17.451319,17.875391
15.472559,18.240137,16.716455,17.558985,17.96206
15.364893,18.289942,16.893946,17.471094,17.9313
15.628321,18.13833,16.927149,17.318262,17.601954
15.881739,18.000635,16.926416,17.143946,17.307764
15.961817,17.88711,16.869287,16.841211,17.345606
15.899317,17.751612,16.5563,16.696192,17.176905
15.795313,17.72671,16.394922,16.705957,17.13003
15.629053,17.683008,16.413965,16.69961,17.0375
15.365381,17.580225,16.488184,16.676172,17.08755
15.109278,17.53335,16.600733,16.660059,17.099024
15.014307,17.503077,16.65249,16.626856,17.124903
15.172754,17.577051,16.926905,16.771631,17.189844
15.50503,17.534815,17.460352,17.109766,17.298487
15.964258,17.497461,17.872461,17.414698,17.58169
16.746729,17.547022,18.255274,17.610498,18.052881
17.623682,17.602686,18.581934,17.780176,18.677149
18.326319,17.552637,18.495508,18.094873,19.457666
18.674707,17.61172,18.406397,18.37417,19.24209
18.65127,17.57339,18.218653,18.200586,18.639795
18.358301,17.699854,17.686914,17.86294,18.603418
17.733057,17.893213,17.48794,17.583643,18.38125
16.824366,17.889551,17.340723,17.430567,18.000147
16.514063,17.826319,17.233545,17.400537,18.085108
16.42422,17.891016,17.14004,17.506495,17.997217
16.275782,17.986475,17.047022,17.52334,17.91714
16.069727,18.011133,17.071924,17.449854,17.903467
15.940577,17.913233,17.142237,17.250147,18.054346
15.805811,17.938135,17.008692,16.971094,18.043604
15.771387,17.940088,16.871485,16.857813,17.916407
15.876368,17.856836,16.937159,16.798243,17.881006
16.026758,17.854395,17.00088,16.830713,17.83169
16.064112,17.8854,16.963282,16.915674,17.718653
15.994776,17.817774,16.900537,16.715967,17.725
15.99209,17.690332,15.765284,15.197901,17.689844
16.011621,17.578272,13.39834,14.725733,17.622217
16.133448,17.609766,12.889795,14.599024,17.699366
16.311426,17.628809,12.757471,13.806299,17.768946
16.517725,17.580225,12.92544,13.521875,17.939356
16.639551,17.489649,13.232569,13.735743,18.131495
16.747217,17.468653,13.487207,14.078516,18.128809
16.86001,17.461329,13.507715,14.350733,18.130518
16.944239,17.420557,13.268702,14.31167,18.173487
16.99209,17.302881,13.203028,14.090723,17.800928
15.462549,17.245996,13.05752,14.018457,17.06875
14.593409,17.18374,12.796289,13.736719,16.731836
14.041895,17.19082,12.427149,13.428858,16.381495
13.653955,17.345362,12.234278,13.143702,16.263086
13.332911,17.132471,12.085108,12.8536625,16.230371
13.175928,17.024073,12.110987,12.566553,16.24624
12.799952,17.00332,12.156641,12.38125,16.30581
12.536036,16.94961,12.151026,12.264795,16.26919
12.424952,16.902979,12.119532,12.112452,16.434717
12.188379,16.879053,12.008692,11.839502,16.14126
11.999414,16.819483,11.815577,11.63003,16.071192
11.905176,16.856592,11.770411,11.214014,16.132227
11.845606,16.829493,11.799463,11.274561,16.009912
11.826563,16.840479,11.94253,11.465723,15.988428
11.81875,16.931787,11.907862,11.569727,15.885889
11.782129,17.054346,11.835108,11.508692,15.884668
11.933252,16.990625,12.109766,11.89419,16.485254
12.260645,17.184961,12.84585,12.607569,17.373926
12.843653,17.493555,13.774073,13.297266,17.852442
13.526514,17.634424,14.79458,14.287989,18.512842
14.170801,17.653711,15.7096195,15.225,18.590479
14.814112,17.767237,16.152735,15.923487,18.252832
15.3363285,17.815577,16.412989,16.396143,17.979883
15.632471,17.73623,16.642725,16.54214,18.453272
15.595362,17.823145,16.586084,16.145899,18.492823
15.018946,17.884424,15.731836,15.512598,17.849268
14.215723,17.899317,14.472803,14.31875,16.331446
13.861231,17.650782,13.476465,13.857325,16.386377
13.221094,17.742334,13.162256,13.547998,16.775537
12.9125,17.741846,13.168604,13.079737,16.79922
12.677393,17.739893,13.108057,12.808008,16.316309
12.532373,17.6813,12.743311,12.532618,15.798731
12.0724125,17.658594,12.219629,12.165918,15.657129
11.783106,17.690088,11.908594,11.759668,15.901514
11.576319,17.749659,11.858545,11.484522,15.683985
11.3814945,17.757715,11.764795,11.367823,15.571192
11.307276,17.9396,11.448633,11.339258,15.776026
11.056543,18.014063,10.912989,11.209375,15.8417
10.882471,17.790918,10.567286,10.955225,15.974268
10.604395,17.40957,10.642725,10.815821,15.902735
10.833643,17.108301,11.411524,11.246973,16.14248
11.922022,17.019678,12.877344,12.574366,16.573877
12.976709,17.218409,14.201075,14.017237,17.121485
13.864893,17.43667,15.605616,15.536768,17.298975
14.54336,17.526758,16.301172,16.690577,17.88125
15.0880375,17.560694,16.599756,17.076075,18.498682
15.329004,17.646631,16.904932,17.225245,18.489649
15.320948,17.744532,16.960596,17.325098,18.167383
14.962305,17.583155,16.340479,16.768213,17.357569
13.699121,17.245508,14.871485,15.277491,16.213037
12.058985,17.056543,12.974756,13.905909,14.675928
11.90127,17.115381,12.733789,13.271631,13.893457
11.840479,17.089502,12.232325,12.722559,12.987207
11.720606,16.598536,11.4908695,12.278467,12.781153
11.399805,16.280176,11.241602,11.852198,12.322901
11.037012,16.088526,10.841211,11.204737,11.823877
10.508692,15.999659,10.369043,10.806543,11.530664
10.037012,15.82876,10.166407,10.392481,11.209864
9.703516,15.840479,9.806543,10.132227,10.773584
9.503321,15.817286,9.536768,9.755274,10.49917
9.378077,15.575586,8.995752,9.558008,10.214502
9.102442,15.43667,8.170801,9.373438,10.064356
8.819483,15.293604,7.2923827,9.160547,9.966944
8.640039,15.08877,7.1256347,9.087305,9.947168
9.083155,14.997461,8.484034,9.331934,10.493067
10.400293,15.246241,10.488672,10.389551,12.5255375
11.7167,15.612207,11.788233,11.923975,14.624414
12.89834,15.975977,13.2792,13.430323,15.984278
13.812891,16.149317,14.122705,14.777491,16.560205
14.44253,16.31753,14.8207035,15.747705,16.88003
14.842432,16.561426,15.08169,16.285059,16.973536
14.888575,16.802393,14.9042,16.047998,16.756006
14.571436,16.55337,14.430811,15.448633,16.163721
13.1974125,16.450586,12.785547,13.942774,14.978907
11.439112,16.481836,11.110254,12.5394535,13.097315
11.327539,16.369043,10.198877,11.702051,12.504541
11.163233,16.052881,10.0689945,11.297998,12.262842
10.8814945,15.981836,10.330469,10.985743,11.877344
10.681543,16.21084,10.232813,10.751368,11.714991
10.32876,16.366602,10.148096,10.537012,11.960352
10.00918,16.437159,9.897364,10.42251,11.921778
9.856836,16.347803,9.770899,10.205957,11.632227
9.319971,16.338526,9.776758,10.113916,11.444727
8.784571,16.216211,9.717432,10.143213,11.930323
8.750879,16.533594,9.747705,10.164698,12.343653
8.733545,16.411036,9.220118,10.186914,12.036524
8.615137,16.828272,9.537256,10.272364,12.360743
8.7286625,16.550196,10.356592,10.323145,12.377588
9.712549,16.481348,11.00625,10.864893,13.23208
10.959131,16.534327,12.178125,11.768946,14.49795
11.942286,16.668848,13.3189945,12.582422,15.812647
12.8050785,16.83706,14.207422,13.61709,16.16543
13.698389,16.977198,14.692774,14.141016,15.927149
14.565577,16.974268,14.660059,14.647364,16.566065
15.056055,17.069483,14.080225,14.321924,16.778955
14.948877,17.170801,14.273584,14.378809,16.310694
14.420801,17.122217,14.262842,14.09878,15.885889
13.981104,17.117334,13.418848,13.63711,15.449854
13.793604,16.979883,13.062159,13.374659,14.967676
13.76626,16.996729,13.222803,13.263819,14.882715
13.611719,16.942774,13.125635,13.23086,14.962061
13.568506,17.0104,13.063868,13.128809,15.105371
13.469141,17.103418,12.9925785,13.11294,15.116846
13.375635,17.025782,13.010157,13.118555,15.09292
13.353418,16.967188,12.809717,13.007471,14.982569
13.394922,16.976221,12.675684,12.903223,15.072168
13.414942,16.75503,12.914942,12.897608,15.100733
13.344385,16.365625,12.971827,12.8067875,14.844873
13.192286,16.32876,12.89419,12.782862,14.677881
13.472315,16.307032,12.913233,12.823145,14.5689945
13.739161,16.080957,12.954493,12.880274,14.5550785
13.704248,15.988672,13.03628,12.970362,14.820215
13.551905,16.181055,13.15542,13.108301,14.960108
13.567041,16.179346,13.347803,13.329981,15.2096195
13.572901,16.43252,13.668604,13.559229,15.518213
13.836817,16.632471,13.9925785,12.634424,15.904688
14.118799,17.064112,13.296534,12.270411,15.8988285
13.875635,17.121485,12.843164,11.669336,15.941065
13.750147,16.974512,12.360743,11.373926,15.974268
13.670557,17.154688,11.975,11.011377,15.889063
13.561914,16.950586,11.574366,10.983301,15.777979
13.420801,16.614649,11.396143,11.056299,15.691065
13.201075,16.331202,11.075342,10.822657,15.518213
12.839014,15.879786,11.1175785,11.063379,14.646143
11.89126,15.414209,11.24795,11.143213,14.223291
11.420069,15.166895,11.20376,10.6505375,14.001368
10.826563,14.926905,10.891016,10.394678,13.925196
10.529932,14.753565,10.623926,9.741358,13.760157
10.4005375,14.5567875,9.799952,9.511621,13.520655
10.3519535,14.397364,9.841944,8.9144535,13.410791
10.052393,14.3502445,9.650049,8.702295,13.292383
9.819239,14.308741,9.211084,8.582422,13.017725
9.497217,14.226709,7.983789,8.40127,12.896875
9.141993,14.066797,8.980371,8.317286,12.673243
8.916895,13.971338,9.017237,7.9532714,12.535059
8.676416,13.769922,8.673487,8.430323,12.442286
8.801905,13.62295,8.761866,9.06045,12.661036
9.592432,13.627588,9.95083,9.61709,12.979395
10.610254,13.840235,11.211084,10.772852,13.401758
11.431055,14.15835,12.020899,11.66836,13.706446
12.106836,14.476465,12.902979,12.460352,13.895411
12.510401,14.772608,13.154688,12.892725,14.228907
12.893702,15.165674,13.598047,12.935938,14.464502
12.763575,15.34585,13.213526,12.931055,14.482569
12.420557,15.374903,12.538477,12.315088,14.219141
11.592676,15.360743,11.4752445,11.092188,13.627344
11.1625,15.29458,9.903711,10.159082,13.337061
10.140039,14.862696,9.975489,9.653955,13.1192875
9.429102,14.202784,9.6332035,9.076319,12.611963
9.097315,13.925196,9.004053,8.3814945,13.160547
9.017481,13.9161625,8.663965,7.8211913,13.335352
9.052393,13.673975,8.102198,8.440821,12.496729
9.02627,13.513086,7.0768065,8.3771,11.379786
8.841211,13.478418,6.8558593,7.950586,10.301172
8.699854,13.565821,6.532129,7.9356933,10.460352
7.9154296,13.465479,6.9637694,7.7174315,10.378077
7.654199,13.375147,6.053369,6.5074706,10.473536
7.3475585,13.4144535,5.3790526,6.01333,10.187891
6.9217772,13.462305,4.5648437,6.17666,10.030176
6.9393554,13.253809,4.051416,5.8871093,9.790674
7.5072265,13.425196,4.919336,6.5702147,10.134668
9.449121,13.410059,8.278467,8.512354,11.867823
11.043848,13.516993,9.609278,9.818018,13.102442
11.981592,13.711817,10.933008,11.133936,13.600489
12.725489,14.621973,12.135645,12.199121,14.080469
13.014551,15.501123,12.868067,12.718897,14.393457
13.160303,15.583155,13.212549,12.980371,14.568262
13.0292,15.810938,13.264551,13.0064945,14.551172
12.579493,16.139795,12.824854,12.485254,14.253809
10.944483,16.108545,12.026758,10.975977,13.084131
9.398096,15.339991,10.433496,9.806299,11.698633
8.922266,14.800684,9.034082,9.224268,10.461817
8.456446,14.454004,8.593897,9.176172,10.047998
8.267969,14.410059,8.106104,8.298243,9.456446
8.051416,14.207422,7.4964843,7.7708983,8.081202
7.8043456,14.104151,7.261621,7.3355956,8.485254
7.5782714,13.877344,6.8912597,6.9085937,9.059229
7.4288573,13.663965,6.5094237,6.5450683,8.158838
7.289209,13.099512,6.2640624,6.2398925,7.383447
7.209619,12.628809,6.1493163,5.9652343,7.834863
6.933252,12.509668,5.6969237,5.774072,6.8670897
6.6375976,12.508936,5.2264647,5.6654296,6.425195
6.471826,12.515528,4.771875,5.579248,6.355615
6.3219237,12.4474125,4.449121,5.412256,6.256006
6.5108886,12.352198,5.3944335,5.8062987,6.7489257
7.697656,12.356104,7.3197265,7.0003905,10.084131
8.772608,12.524561,8.873194,8.2408695,12.241114
9.658838,12.690332,10.331202,9.455713,12.726465
10.325586,13.076563,11.3771,10.800928,12.853174
10.87002,13.433008,11.921778,11.631739,13.074121
10.973291,13.842188,12.10708,11.8692875,12.9317875
10.854395,14.235254,12.054834,11.882227,12.823145
10.449854,14.473291,11.304102,11.485254,12.288477
9.426905,14.37002,9.772364,9.662012,11.260401
8.339258,13.54458,8.2599125,8.551172,10.3346195
7.782861,12.806543,7.280664,7.8773437,10.0377445
7.117334,12.280176,6.955713,7.2103515,9.303858
6.8077636,12.114649,6.6412597,6.7030272,9.078028
6.635156,11.99795,6.1671386,6.2308593,9.342676
6.5404296,11.769922,6.027246,6.037256,9.282129
6.634668,11.626368,6.1842284,4.978906,9.493311
6.9798827,11.544092,6.3844237,4.79458,9.340723
7.679834,11.48086,6.4034667,4.9376464,8.026026
8.202295,11.387598,6.2210937,4.988916,6.3976073
8.450098,11.524317,5.7401366,5.0382323,6.277246
8.391748,11.354639,4.8419433,5.108545,6.8702636
8.542139,10.781397,4.017236,4.9601073,8.2269535
8.768702,11.152491,5.452295,5.162988,8.959375
9.305811,11.279932,6.695703,6.1776366,9.616846
9.912989,11.730371,7.9825683,7.8753905,11.219385
10.329004,12.1627445,8.910547,8.951319,12.093653
10.777002,12.752832,9.952784,10.014551,12.857325
12.065088,13.996729,11.128809,11.147852,13.529444
12.701563,15.35586,12.13418,12.148096,13.91543
12.979151,15.65127,12.028467,12.366602,14.1
13.439844,15.998194,11.492823,12.256006,14.1661625
13.1271,15.943506,11.4125,11.887598,14.222315
12.454981,15.988672,11.399561,11.295313,13.927637
11.693262,15.700586,11.358789,10.873682,13.461573
11.344141,15.324854,11.369043,10.940088,13.663965
11.06045,14.546778,10.499903,10.731836,13.651026
10.696436,14.291651,9.806299,9.320459,13.531397
10.589258,14.555811,9.531641,8.580225,13.044336
10.173975,14.592676,9.407618,8.638819,12.67959
9.769434,14.035547,9.749414,8.123438,12.232813
9.4161625,13.6471195,9.874659,8.157373,11.734766
9.167627,13.356104,9.458887,8.6800785,11.268213
8.929346,13.14834,9.13833,8.552881,10.8417
8.805567,12.973291,8.98208,8.218164,10.614649
8.770899,12.930811,9.071924,7.8805175,10.447901
8.678614,12.94375,9.118067,7.662256,10.484766
8.66128,12.962549,9.2442875,7.9498534,10.367334
8.984522,12.844629,9.31167,7.9637694,10.710352
9.670801,12.6175785,10.184717,9.389063,11.293116
10.50918,13.137598,11.328028,10.803858,11.85293
11.132959,14.175928,12.510401,12.315577,12.544336
11.792383,15.09585,13.321436,13.548243,13.462549
12.312403,15.779688,13.812891,14.105127,13.99917
12.874903,16.389063,14.135401,14.319727,14.278467
12.998682,16.79336,14.215967,14.214746,14.635401
12.585596,16.614405,13.6192875,13.451807,14.503565
11.623682,16.234034,12.523584,11.984766,14.021143
10.736719,15.877832,11.623194,11.06045,13.701319
10.090235,15.781885,11.087061,10.571192,13.278955
9.612452,15.791407,10.684961,10.246485,12.915918
9.342188,15.636377,10.3692875,10.011621,12.722315
9.162012,14.861231,10.212549,9.810694,12.323877
9.079248,15.424219,10.082911,9.738672,11.892237
9.030664,15.205713,9.902002,9.516016,11.60586
8.902979,15.285303,9.7442875,9.109766,11.292139
8.813868,15.447657,9.585596,9.000879,11.015284
8.747217,14.909082,9.461817,8.911768,10.908106
8.69961,14.913233,9.383692,8.807764,10.942041
8.698145,15.506006,9.271387,8.618555,10.783106
8.762354,15.955225,9.215967,8.407373,10.622461
8.793116,15.799463,9.1783695,8.363184,10.72378
9.023096,14.028955,9.424952,8.650782,11.183252
9.772852,15.165918,10.63125,9.800928,12.2894535
11.001123,15.410791,11.901514,11.601709,13.425196
11.935694,15.533838,12.873926,13.200586,14.2599125
12.940821,16.432032,13.725489,14.294825,15.360743
13.483545,17.194483,14.121241,14.900049,16.309473
13.668604,17.57461,14.229151,14.840479,16.622217
13.734278,17.750635,14.0064945,14.527002,16.395899
13.341211,17.826563,13.260401,13.586573,15.674219
12.553614,17.76626,12.197657,12.30459,14.554834
11.964746,17.223291,11.591211,11.582178,13.695215
11.484278,16.804834,11.167871,11.143946,13.124903
11.03628,16.693995,10.744043,10.532373,12.79751
10.738184,16.682764,10.465235,10.079981,12.531641
10.408106,16.98672,10.2521,9.856836,12.054346
10.113672,17.032862,9.960108,9.518457,11.886133
9.8988285,17.060694,9.704493,9.297022,11.789698
9.797998,16.76211,9.48794,9.212305,11.671778
9.656885,16.108545,9.286768,9.198145,11.190332
9.578516,16.15957,9.266504,9.142969,10.595362
9.361475,16.330957,9.241358,9.089991,9.890039
9.169825,16.278711,9.200098,9.183252,9.828516
9.062891,16.522364,9.176905,9.12417,9.790674
8.933496,16.91543,9.161036,9.046045,11.248682
9.177393,17.168604,9.4439945,9.211817,11.753565
9.777491,17.177637,10.333399,10.080469,12.664209
10.584864,16.74209,11.375147,11.253077,13.976709
11.804102,16.27749,12.345362,12.493067,15.25918
13.133936,16.696924,13.343897,13.651758,16.376368
13.705957,16.879541,14.133692,14.4125,16.666162
13.944971,16.944239,14.389795,14.764551,16.748438
13.395166,17.21792,14.126123,14.629297,16.570215
12.660059,17.32046,13.276514,13.846582,16.03042
12.191309,17.109278,12.293116,12.691309,14.876123
12.105127,16.991846,11.701807,12.026026,14.073633
11.842676,16.973291,11.555567,11.608545,13.75918
11.5646,17.13125,11.257959,11.156153,13.262598
11.279932,17.032373,10.87295,10.739893,12.550928
11.030909,16.981836,10.481348,10.399561,12.11294
10.763819,16.937159,10.233789,10.032373,11.72793
10.531885,16.842432,9.99795,9.686182,11.493311
10.321192,16.768946,9.648096,9.395166,10.442774
10.007959,16.716944,9.430323,9.099024,10.417139
9.405176,16.568262,9.291407,8.812647,10.728907
8.88833,16.131739,9.135157,8.532618,11.193506
9.155176,15.775293,8.877588,8.413477,11.078516
9.105371,15.486963,8.881006,8.302637,11.190332
9.261866,15.745752,8.717188,8.210596,11.210352
9.4596195,15.956202,8.8675785,8.245264,11.420069
10.031153,16.130274,10.083399,9.189356,12.661036
10.836817,16.273096,11.309229,10.744532,13.688135
11.733545,16.37417,12.275049,12.164942,14.609278
12.628809,16.379297,13.333887,13.163965,15.442041
13.397364,16.519678,13.979883,13.921534,16.281153
13.858789,16.621973,14.120508,14.23501,16.6625
13.725489,16.652979,13.789698,14.056055,16.427637
13.075586,16.745508,12.957422,13.252344,15.818506
12.171778,16.87124,11.54751,12.036036,14.293116
11.569483,16.847315,10.6783695,11.000147,13.150049
10.989161,16.503565,10.598291,10.433741,12.234278
10.270411,16.138086,10.360498,10.134668,11.407129
9.727442,16.01333,9.920313,9.7792,11.427149
9.532862,16.050196,9.432764,9.412989,11.34878
9.550684,16.13296,8.886133,8.9925785,11.01333
9.267969,16.15542,8.728907,8.689844,11.170069
8.890284,16.173243,8.451319,8.376123,11.974512
8.761621,16.144678,8.333155,8.128077,11.700586
8.650782,16.128809,8.375635,7.891748,11.729883
8.420801,16.10415,8.328028,7.921045,11.671289
8.512354,16.113184,8.261621,7.86416,11.800196
8.335596,16.094873,8.03628,7.714502,12.066065
8.194727,16.065088,7.7606444,7.7103515,12.212061
8.346094,16.244532,7.792871,7.7713866,12.349024
8.963526,16.50625,8.651026,8.526026,13.241602
10.358789,16.801416,9.825342,9.830713,14.797266
11.863428,17.241602,11.062647,11.196924,15.858057
13.122705,17.794336,12.125147,12.423487,17.316065
14.046289,18.261133,13.110987,13.512842,18.154688
14.4283695,18.58462,13.298243,14.086817,17.89712
14.472803,18.67251,13.150049,13.920557,18.055323
13.835352,18.545557,12.603174,13.375879,18.012598
12.838282,18.270899,11.7442875,12.445215,16.749414
12.27334,17.83877,11.448145,11.558252,15.905909
12.043848,17.431055,11.578272,11.188135,16.160791
12.198633,17.327295,11.505518,11.1,15.808741
12.182764,17.435938,11.29043,10.972071,15.954248
12.155664,17.641504,11.052393,10.957178,16.035547
12.205225,17.731104,11.26333,10.903223,15.694971
12.143702,17.709131,11.474268,11.358301,15.580713
12.03042,17.631739,11.519678,11.5533695,15.71377
11.924463,17.590967,11.614405,11.214502,16.06753
11.827051,17.567774,11.618311,11.297022,16.809473
11.853418,17.512842,11.994043,11.39126,16.977442
12.051905,17.564356,12.1175785,11.330469,17.080225
11.989893,17.582666,12.127344,11.517237,17.188135
11.898584,17.569971,12.541651,11.734522,17.173975
12.037012,17.560205,12.933741,12.029688,17.224756
12.754053,17.559473,13.721582,13.06167,17.60464
13.590723,17.587305,15.010157,14.44668,18.22964
14.16958,17.54873,15.888575,15.924463,18.642237
15.058985,17.750147,16.42373,17.013086,18.833155
15.543116,17.893213,16.781885,17.11123,19.120752
15.758936,17.725489,16.96499,16.450586,19.225733
15.144678,17.413965,16.203272,15.782618,18.235987
14.877588,17.262598,14.97378,15.360987,17.616846
14.848536,17.379541,14.651026,14.979151,16.861475
14.855371,17.132471,14.626123,14.560938,16.654932
14.969629,16.943506,14.594629,14.517725,16.357569
14.909082,16.763575,14.587793,14.449854,16.16421
14.922022,16.715723,14.997461,14.501123,16.052881
14.810694,16.65249,15.351709,14.762354,15.899073
14.69668,16.730616,15.41836,15.111719,15.750147
14.632959,16.773829,15.167871,14.985254,15.9283695
14.319239,16.762598,15.000879,14.864405,16.05166
14.020166,16.739893,14.593897,14.32168,16.13296
13.590479,16.73208,14.240625,14.097071,15.702295
13.526026,16.437403,14.401758,14.026514,15.290186
13.613916,16.136866,14.63711,13.997705,14.636621
13.79751,15.961817,14.665674,14.062891,14.160059
13.807764,15.920801,14.513819,14.051905,14.052149
13.868555,15.877832,13.924707,13.83169,14.146875
13.546045,15.894434,14.042139,13.457911,14.474024
13.385889,15.905909,13.929834,13.503809,15.034082
13.137354,15.7738285,14.129053,13.688868,15.160547
13.491846,15.717676,14.419092,14.301416,15.630762
13.903223,15.7599125,14.846338,14.429102,15.972559
14.019434,15.8346195,14.913965,14.671045,16.01211
13.803858,15.920069,14.765528,14.422754,15.819727
13.305323,16.060938,13.761621,13.948389,15.191309
11.883692,16.096582,12.64834,12.888575,14.305567
10.9439945,15.7738285,11.428614,11.951807,13.731348
10.696436,15.726709,11.260157,11.39419,13.671289
10.998926,15.860498,11.510889,11.472071,13.889063
10.808008,16.055567,12.10293,11.792627,14.302149
10.670557,16.336084,12.686182,12.738184,15.044092
10.958155,16.576807,12.854395,13.13711,15.340479
11.176416,16.672754,13.013086,13.265284,15.583155
11.407129,16.797754,13.152979,13.503077,15.979395
11.369532,17.044092,13.450098,14.11001,16.271875
11.5567875,17.153467,13.506983,14.403223,16.371485
11.667139,17.336573,13.481592,14.749903,16.565577
11.906885,17.423487,13.721094,15.107325,16.865137
12.198145,17.56045,14.13833,15.234278,17.045557
12.442774,17.647608,14.65835,15.512598,17.11294
12.823389,17.679834,14.916651,15.702051,17.144922
13.049707,17.710596,15.034327,15.984766,17.278955
13.753565,17.649317,15.441309,16.641748,17.397364
14.365625,17.749903,15.945948,17.155176,17.771387
15.319483,17.724024,16.475977,17.607569,17.95962
16.131983,17.758204,16.771631,17.70962,18.047998
16.246485,17.904932,16.841455,17.509912,17.934961
15.88418,17.891016,16.881006,16.813623,17.716944
16.156397,17.856592,16.874659,16.726465,17.555567
16.353662,17.6271,16.607325,16.193262,17.550196
16.29751,17.424952,15.973291,15.694727,17.36831
16.259424,17.312891,15.826807,14.579004,17.221338
16.166895,17.22085,14.601465,13.111231,15.977442
16.068262,16.348291,12.909571,12.271143,14.851465
16.006983,15.890284,11.845606,11.191065,14.695948
15.070459,15.892725,10.63833,10.865137,14.29043
12.739893,15.896875,10.000635,10.76626,13.448389
