Date,Hour,Datasource,DryBulb,DewPoint,RelHum,AtmosPressure,ExtHorzRad,ExtDirRad,HorzIRSky,GloHorzRad,DirNormRad,DifHorzRad,GloHorzIllum {lux},DirNormIllum {lux},DifHorzIllum {lux},ZenLum,WindDir,WindSpd,TotSkyCvr,OpaqSkyCvr,Visibility {km},Ceiling_Hgt,PresWeathObs,PresWeathCodes,Precip_Wtr,Aerosol_Opt_Depth,SnowDepth,Days_Last_Snow,Albedo,Rain,Rain_Quantity
1966/8/20,01:00,_____*__9*M_Q_M_Q_Q_Q_9_____________*_*___*,11.766666666666666,5.912177232112998,67.3451986071327,101780,0,9999,304,0,0,0,0,0,0,999900,270,2.8,0,0,48.3,77770,0,'999999999,0,0.0,0,88,0.0,0.0,0.0
1966/8/20,02:00,_____*__9*M_Q_M_Q_Q_Q_9_____________*_*___*,10.666666666666664,5.176228426521676,68.8343933234674,101800,0,9999,302,0,0,0,0,0,0,999900,270,3.6,0,0,48.3,77770,0,'999999999,0,0.0,0,88,0.0,0.0,0.0
1966/8/20,03:00,_____*__9*M_Q_M_Q_Q_Q_9_____________*_*___*,9.733333333333334,5.169188724058391,73.22640191587459,101820,0,9999,294,0,0,0,0,0,0,999900,292,2.8,0,0,48.3,77770,0,'999999999,0,0.0,0,88,0.0,0.0,0.0
1966/8/20,04:00,_____*__9*M_Q_M_Q_Q_Q_9_____________*_*___*,9.0,4.998230612758105,76.01783951882929,101860,0,9999,292,0,0,0,0,0,0,999900,270,3.1,0,0,48.3,77770,0,'999999999,0,0.0,0,88,0.0,0.0,0.0
1966/8/20,05:00,_____*__9*M_Q_M_Q_Q_Q_9_____________*_*___*,9.0,4.634408394381722,74.1136297468904,101880,0,9999,298,0,0,0,0,0,0,999900,270,3.1,1,1,48.3,77770,0,'999999999,0,0.0,0,88,0.0,0.0,0.0
1966/8/20,06:00,_____*__9*M_Q_M_Q_Q_Q_9_____________*_*___*,11.2,5.721414246384039,69.0,101940,54,9999,309,21,136,13,1800,5200,1600,999900,270,3.6,1,1,48.3,77770,0,'999999999,0,0.0,0,88,0.0,0.0,0.0
1966/8/20,07:00,_____*__9*M_Q_M_Q_Q_Q_9_____________*_*___*,14.6,7.399387111268238,62.0,101990,267,9999,319,171,608,49,17000,52900,6400,999900,292,3.1,0,0,48.3,77770,0,'999999999,0,0.0,0,88,0.0,0.0,0.0
1966/8/20,08:00,_____*__9*M_Q_M_Q_Q_Q_9_____________*_*___*,17.9,7.328446043866818,50.0,102000,487,9999,334,351,819,51,38200,86400,6600,999900,315,2.8,0,0,48.3,77770,0,'999999999,0,0.0,0,88,0.0,0.0,0.0
1966/8/20,09:00,_____*__9*M_Q_M_Q_Q_Q_9_____________*_*___*,21.8,7.2301164278851004,39.0,102000,689,9999,352,523,893,61,57600,96500,7700,999900,292,2.2,0,0,48.3,77770,0,'999999999,0,0.0,0,88,0.0,0.0,0.0
1966/8/20,10:00,_____*__9*M_Q_M_Q_Q_Q_9_____________*_*___*,22.3,5.24889440225436,33.0,102000,859,9999,352,670,935,67,74100,101900,8300,999900,90,2.8,0,0,64.4,77770,0,'999999999,0,0.0,0,88,0.0,0.0,0.0
1966/8/20,11:00,_____*__9*M_Q_M_Q_Q_Q_9_____________*_*___*,22.3,9.117586589696185,43.0,101980,985,9999,357,785,965,71,86700,105200,8900,999900,90,3.6,0,0,64.4,77770,0,'999999999,0,0.0,0,88,0.0,0.0,0.0
1966/8/20,12:00,_____*__9*M_Q_M_Q_Q_Q_9_____________*_*___*,22.9,8.951368805553146,41.0,101960,1060,9999,360,844,968,74,93100,105500,9100,999900,112,3.9,0,0,64.4,77770,0,'999999999,0,0.0,0,88,0.0,0.0,0.0
1966/8/20,13:00,_____*__9*M_Q_M_Q_Q_Q_9_____________*_*___*,24.0,8.41434109205585,37.0,101930,1077,9999,364,859,971,74,94700,105800,9200,999900,90,2.8,0,0,64.4,77770,0,'999999999,0,0.0,0,88,0.0,0.0,0.0
1966/8/20,14:00,_____*__9*M_Q_M_Q_Q_Q_9_____________*_*___*,24.6,8.540786246877465,36.0,101890,1036,9999,367,824,966,73,90900,105300,9000,999900,90,2.8,0,0,64.4,77770,0,'999999999,0,0.0,0,88,0.0,0.0,0.0
1966/8/20,15:00,_____*__9*M_Q_M_Q_Q_Q_9_____________*_*___*,25.1,8.137850392558729,34.0,101810,939,9999,369,739,949,70,81600,103400,8700,999900,90,3.1,0,0,64.4,77770,0,'999999999,0,0.0,0,88,0.0,0.0,0.0
1966/8/20,16:00,_____*__9*M_Q_M_Q_Q_Q_9_____________*_*___*,25.1,7.248109160380197,32.0,101760,793,9999,368,612,919,65,67600,99900,8100,999900,68,2.8,0,0,80.5,77770,0,'999999999,0,0.0,0,88,0.0,0.0,0.0
1966/8/20,17:00,_____*__9*M_Q_M_Q_Q_Q_9_____________*_*___*,25.1,8.137850392558729,34.0,101690,608,9999,369,454,869,57,49800,93100,7300,999900,68,2.2,0,0,80.5,77770,0,'999999999,0,0.0,0,88,0.0,0.0,0.0
1966/8/20,18:00,_____*__9*M_Q_M_Q_Q_Q_9_____________*_*___*,23.4,11.123804199599595,46.0,101640,397,9999,365,276,771,46,29100,77600,6000,999900,90,2.2,0,0,80.5,77770,0,'999999999,0,0.0,0,88,0.0,0.0,0.0
1966/8/20,19:00,_____*__9*M_Q_M_Q_Q_Q_9_____________*_*___*,19.0,8.043267044824418,49.0,101580,174,9999,340,100,551,28,8900,39400,3700,999900,68,1.4,0,0,80.5,77770,0,'999999999,0,0.0,0,88,0.0,0.0,0.0
1966/8/20,20:00,_____*__9*M_Q_M_Q_Q_Q_9_____________*_*___*,15.100000000000001,6.384746429620064,56.0,101590,9,9999,320,0,0,0,0,0,0,999900,180,1.4,0,0,64.4,77770,0,'999999999,0,0.0,0,88,0.0,0.0,0.0
1966/8/20,21:00,_____*__9*M_Q_M_Q_Q_Q_9_____________*_*___*,12.866666666666667,8.103615198443391,72.7996117635992,101580,0,9999,317,0,0,0,0,0,0,999900,292,1.4,0,0,64.4,77770,0,'999999999,0,0.0,0,88,0.0,0.0,0.0
1966/8/20,22:00,_____*__9*M_Q_M_Q_Q_Q_9_____________*_*___*,12.300000000000002,8.099360669079578,75.53299331065476,101580,0,9999,309,0,0,0,0,0,0,999900,270,1.7,0,0,48.3,77770,0,'999999999,0,0.0,0,88,0.0,0.0,0.0
1966/8/20,23:00,_____*__9*M_Q_M_Q_Q_Q_9_____________*_*___*,12.133333333333335,7.204993822215625,71.84903391214256,101570,0,9999,311,0,0,0,0,0,0,999900,270,2.8,0,0,48.3,77770,0,'999999999,0,0.0,0,88,0.0,0.0,0.0
1966/8/20,24:00,_____*__9*M_Q_M_Q_Q_Q_9_____________*_*___*,11.766666666666666,5.912177232112998,67.3451986071327,101560,0,9999,310,0,0,0,0,0,0,999900,270,3.9,0,0,48.3,77770,0,'999999999,0,0.0,0,88,0.0,0.0,0.0
