"[299, 255]","[227, 248]","[287, 319]","[279, 328]","[230, 262]"
1.023449e-19,0.0,5.771116e-20,3.65175e-18,1.6939254e-18
1.023449e-19,0.0,5.771116e-20,3.65175e-18,1.6939254e-18
1.023449e-19,0.0,5.771116e-20,3.65175e-18,1.6939254e-18
1.023449e-19,0.0,5.771116e-20,3.65175e-18,1.6939254e-18
1.023449e-19,0.0,5.771116e-20,3.65175e-18,1.6939254e-18
1.023449e-19,0.0,5.771116e-20,3.65175e-18,1.6939254e-18
1.023449e-19,0.0,5.771116e-20,3.65175e-18,1.6939254e-18
1.023449e-19,0.0,5.771116e-20,3.65175e-18,1.6939254e-18
1.023449e-19,0.0,5.771116e-20,3.65175e-18,1.6939254e-18
1.023449e-19,0.0,5.771116e-20,3.65175e-18,1.6939254e-18
1.023449e-19,0.0,5.771116e-20,3.65175e-18,1.6939254e-18
1.023449e-19,0.0,5.771116e-20,3.65175e-18,1.6939254e-18
3.7894856e-07,0.0,0.00017432852,3.65175e-18,1.6939254e-18
1.023449e-19,0.0,5.771116e-20,3.65175e-18,1.6939254e-18
1.023449e-19,0.0,5.771116e-20,3.65175e-18,1.6939254e-18
1.023449e-19,0.0,5.771116e-20,3.65175e-18,1.6939254e-18
1.023449e-19,0.0,5.771116e-20,3.65175e-18,1.6939254e-18
0.0015933595,0.0,0.0014852656,0.00062722655,1.6939254e-18
0.0012068488,0.0,0.003143144,0.0018983256,1.6939254e-18
1.023449e-19,0.0,5.771116e-20,3.65175e-18,1.6939254e-18
1.023449e-19,0.0,5.771116e-20,3.65175e-18,1.6939254e-18
1.023449e-19,0.0,0.0014020727,3.65175e-18,1.6939254e-18
1.023449e-19,0.0,5.771116e-20,3.65175e-18,1.6939254e-18
1.023449e-19,0.0,5.771116e-20,3.65175e-18,1.6939254e-18
1.023449e-19,0.0,5.771116e-20,3.65175e-18,1.6939254e-18
1.023449e-19,0.0,5.771116e-20,3.65175e-18,1.6939254e-18
1.023449e-19,0.0,5.771116e-20,3.65175e-18,1.6939254e-18
1.023449e-19,0.0,5.771116e-20,3.65175e-18,1.6939254e-18
1.023449e-19,0.0,5.771116e-20,3.65175e-18,1.6939254e-18
1.023449e-19,0.0,5.771116e-20,3.65175e-18,1.6939254e-18
1.023449e-19,0.0,5.771116e-20,3.65175e-18,1.6939254e-18
1.023449e-19,0.0,5.771116e-20,3.65175e-18,1.6939254e-18
1.023449e-19,0.0,5.771116e-20,3.65175e-18,1.6939254e-18
0.00038543352,0.0,0.000714657,3.65175e-18,1.6939254e-18
6.385493e-05,0.0,0.0017470528,3.65175e-18,1.6939254e-18
1.023449e-19,0.0,5.771116e-20,3.65175e-18,1.6939254e-18
0.0018859002,0.0,0.0017009178,0.00023013292,1.6939254e-18
0.00074415863,0.0,0.0006085651,6.023582e-05,1.6939254e-18
1.023449e-19,0.0,5.771116e-20,3.65175e-18,1.6939254e-18
1.023449e-19,0.0,5.771116e-20,3.65175e-18,1.6939254e-18
1.023449e-19,0.0,5.771116e-20,3.65175e-18,1.6939254e-18
1.023449e-19,0.0,5.771116e-20,3.65175e-18,1.6939254e-18
1.023449e-19,0.0,5.771116e-20,3.65175e-18,1.6939254e-18
1.023449e-19,0.0,5.771116e-20,3.65175e-18,1.6939254e-18
1.023449e-19,0.0,5.771116e-20,3.65175e-18,1.6939254e-18
1.023449e-19,0.0,5.771116e-20,3.65175e-18,1.6939254e-18
1.023449e-19,0.0,5.771116e-20,3.65175e-18,1.6939254e-18
1.023449e-19,0.0,5.771116e-20,3.65175e-18,1.6939254e-18
1.023449e-19,0.0,5.771116e-20,3.65175e-18,1.6939254e-18
1.023449e-19,0.0,5.771116e-20,3.65175e-18,1.6939254e-18
1.023449e-19,0.0,5.771116e-20,3.65175e-18,1.6939254e-18
1.023449e-19,0.0,5.771116e-20,3.65175e-18,1.6939254e-18
1.023449e-19,0.0,5.771116e-20,3.65175e-18,1.6939254e-18
1.023449e-19,0.0,5.771116e-20,3.65175e-18,1.6939254e-18
0.00059164007,0.0,5.771116e-20,1.4603962e-08,1.6939254e-18
0.0020328767,0.0,0.0013937026,0.0012476125,1.6939254e-18
0.011385426,0.0,0.002443302,0.0022849399,1.6939254e-18
2.2228452e-12,0.0,6.5898e-07,0.00050389435,1.6939254e-18
1.07730685e-19,0.0,1.2971642e-19,4.6806602e-18,1.6939254e-18
1.07730685e-19,0.0,1.2971642e-19,4.6806602e-18,1.6939254e-18
1.07730685e-19,0.0,1.2971642e-19,4.6806602e-18,1.6939254e-18
1.07730685e-19,0.0,1.2971642e-19,4.6806602e-18,1.6939254e-18
1.07730685e-19,0.0,1.2971642e-19,4.6806602e-18,1.6939254e-18
1.07730685e-19,0.0,1.2971642e-19,4.6806602e-18,1.6939254e-18
1.07730685e-19,0.0,1.2971642e-19,4.6806602e-18,1.6939254e-18
1.07730685e-19,0.0,1.2971642e-19,4.6806602e-18,1.6939254e-18
1.07730685e-19,0.0,1.2971642e-19,4.6806602e-18,1.6939254e-18
9.472027e-05,0.0,0.00053876336,4.6806602e-18,1.6939254e-18
1.07730685e-19,0.0,1.2971642e-19,4.6806602e-18,1.6939254e-18
1.07730685e-19,0.0,1.2971642e-19,4.6806602e-18,1.6939254e-18
1.07730685e-19,0.0,1.2971642e-19,4.6806602e-18,1.6939254e-18
1.07730685e-19,0.0,1.2971642e-19,4.6806602e-18,1.6939254e-18
1.07730685e-19,0.0,1.2971642e-19,4.6806602e-18,1.6939254e-18
1.07730685e-19,0.0,1.2971642e-19,4.6806602e-18,1.6939254e-18
1.07730685e-19,0.0,1.2971642e-19,4.6806602e-18,1.6939254e-18
1.07730685e-19,0.0,1.2971642e-19,4.6806602e-18,1.6939254e-18
1.07730685e-19,0.0,1.2971642e-19,4.6806602e-18,1.6939254e-18
1.07730685e-19,0.0,1.2971642e-19,4.6806602e-18,1.6939254e-18
1.07730685e-19,0.0,1.2971642e-19,4.6806602e-18,1.6939254e-18
1.07730685e-19,0.0,1.2971642e-19,4.6806602e-18,1.6939254e-18
1.07730685e-19,0.0,1.2971642e-19,4.6806602e-18,1.6939254e-18
1.07730685e-19,0.0,1.2971642e-19,4.6806602e-18,1.6939254e-18
1.07730685e-19,0.0,1.2971642e-19,4.6806602e-18,1.6939254e-18
1.07730685e-19,0.0,1.2971642e-19,4.6806602e-18,1.6939254e-18
1.07730685e-19,0.0,1.2971642e-19,4.6806602e-18,1.6939254e-18
1.07730685e-19,0.0,1.2971642e-19,4.6806602e-18,1.6939254e-18
3.7080812e-05,0.0,0.0017399606,4.192121e-05,1.6939254e-18
1.0654795e-19,0.0,1.2971642e-19,4.6806602e-18,1.6939254e-18
1.0654795e-19,0.0,1.2971642e-19,4.6806602e-18,1.6939254e-18
1.0654795e-19,0.0,1.2971642e-19,4.6806602e-18,1.6939254e-18
1.0654795e-19,0.0,1.2971642e-19,4.6806602e-18,1.6939254e-18
1.0654795e-19,0.0,1.2971642e-19,4.6806602e-18,1.6939254e-18
0.00019520851,0.0,1.2971642e-19,4.6806602e-18,1.6939254e-18
0.0038007388,0.0,1.2971642e-19,0.0013022964,1.6939254e-18
1.07730685e-19,0.0,1.2971642e-19,4.6806602e-18,1.6939254e-18
1.07730685e-19,0.0,1.2971642e-19,4.6806602e-18,1.6939254e-18
1.07730685e-19,0.0,1.2971642e-19,4.6806602e-18,1.6939254e-18
1.07730685e-19,0.0,1.2971642e-19,4.6806602e-18,1.6939254e-18
1.07730685e-19,0.0,1.2971642e-19,4.6806602e-18,1.6939254e-18
1.07730685e-19,0.0,1.2971642e-19,4.6806602e-18,1.6939254e-18
1.07730685e-19,0.0,1.2971642e-19,4.6806602e-18,1.6939254e-18
1.07730685e-19,0.0,1.2971642e-19,4.6806602e-18,1.6939254e-18
1.07730685e-19,0.0,1.2971642e-19,4.6806602e-18,1.6939254e-18
1.07730685e-19,0.0,1.2971642e-19,4.6806602e-18,1.6939254e-18
2.5923315e-09,0.0,1.2971642e-19,4.6806602e-18,1.6939254e-18
1.07730685e-19,0.0,1.2971642e-19,4.6806602e-18,1.6939254e-18
1.07730685e-19,0.0,1.2971642e-19,4.6806602e-18,1.6939254e-18
1.07730685e-19,0.0,1.2971642e-19,4.6806602e-18,1.6939254e-18
1.07730685e-19,0.0,1.2971642e-19,4.6806602e-18,1.6939254e-18
1.07730685e-19,0.0,4.508229e-07,4.6806602e-18,1.6939254e-18
0.000112967624,0.0,0.0032825358,6.71488e-05,1.6939254e-18
1.07730685e-19,0.0,1.2971642e-19,4.6806602e-18,1.6939254e-18
3.791178e-05,0.0,1.2971642e-19,4.6806602e-18,1.6939254e-18
1.07730685e-19,0.0,1.2971642e-19,4.6806602e-18,1.6939254e-18
1.07730685e-19,0.0,1.2971642e-19,4.6806602e-18,1.6939254e-18
1.07730685e-19,0.0,1.2971642e-19,4.6806602e-18,1.6939254e-18
0.00040600315,0.0,0.00078099204,0.0013151402,1.6939254e-18
0.0013007071,0.0,0.0017735111,0.00013987512,1.6939254e-18
1.07730685e-19,0.0,2.0307427e-05,5.335506e-09,1.6939254e-18
1.07730685e-19,0.0,1.2971642e-19,4.6806602e-18,1.6939254e-18
1.07730685e-19,0.0,1.2971642e-19,4.6806602e-18,1.6939254e-18
1.07730685e-19,0.0,1.2971642e-19,4.6806602e-18,1.6939254e-18
1.07730685e-19,0.0,1.2971642e-19,4.6806602e-18,1.6939254e-18
1.07730685e-19,0.0,1.2971642e-19,4.6806602e-18,1.6939254e-18
1.07730685e-19,0.0,3.571528e-05,4.6806602e-18,1.6939254e-18
1.7514934e-05,0.0,0.0010160267,4.6806602e-18,1.6939254e-18
0.00018744331,0.0,0.0001251959,0.0004469121,1.6939254e-18
3.7786823e-08,0.0,0.00033299116,0.00045697205,0.0012220159
0.0007503435,0.0,2.8801715e-05,4.6806602e-18,1.6939254e-18
0.0025732827,0.0,0.00028817405,5.870128e-05,6.577042e-07
9.4202456e-05,0.0,0.00060462696,4.6806602e-18,8.926097e-05
1.07730685e-19,0.0,1.2971642e-19,4.6806602e-18,0.0005335019
1.07730685e-19,0.0,1.2971642e-19,4.6806602e-18,1.6939254e-18
1.07730685e-19,0.0,1.2971642e-19,4.6806602e-18,1.6939254e-18
1.07730685e-19,0.0,1.2971642e-19,4.6806602e-18,1.6939254e-18
0.00015717071,0.0,2.8310902e-05,1.8685741e-06,1.6939254e-18
0.0017503622,0.0,0.0012458749,0.0009175791,1.753055e-05
0.0005463581,0.0,0.0023601938,0.00049268967,0.0007938716
1.07730685e-19,0.0,0.00027471266,4.6806602e-18,1.6939254e-18
1.07730685e-19,0.0,0.00049952074,9.9625024e-05,1.6939254e-18
5.015805e-05,0.0,0.0014911685,4.8321013e-05,0.0015541811
0.00082024775,0.0,0.00017188268,4.6806602e-18,1.6939254e-18
1.07730685e-19,0.0,1.2971642e-19,4.6806602e-18,1.6939254e-18
1.07730685e-19,0.0,1.2971642e-19,4.6806602e-18,1.6939254e-18
1.07730685e-19,0.0,1.2971642e-19,4.6806602e-18,1.6939254e-18
1.07730685e-19,0.0,1.2971642e-19,4.6806602e-18,1.6939254e-18
1.07730685e-19,0.0,1.2971642e-19,4.6806602e-18,1.6939254e-18
1.07730685e-19,0.0,0.00051654415,4.6806602e-18,1.6939254e-18
1.07730685e-19,0.0,1.2971642e-19,4.6806602e-18,1.6939254e-18
1.07730685e-19,0.0,1.2971642e-19,4.6806602e-18,1.6939254e-18
1.07730685e-19,0.0,1.2971642e-19,4.6806602e-18,1.6939254e-18
1.07730685e-19,0.0,1.2971642e-19,4.6806602e-18,1.6939254e-18
1.07730685e-19,0.0,1.2971642e-19,4.6806602e-18,1.6939254e-18
1.07730685e-19,0.0,1.2971642e-19,4.6806602e-18,1.6939254e-18
1.07730685e-19,0.0,1.2971642e-19,4.6806602e-18,1.6939254e-18
1.07730685e-19,0.0,1.2971642e-19,4.6806602e-18,1.6939254e-18
1.07730685e-19,0.0,1.2971642e-19,4.6806602e-18,1.6939254e-18
1.07730685e-19,0.0,1.2971642e-19,4.6806602e-18,1.6939254e-18
1.07730685e-19,0.0,1.2971642e-19,4.6806602e-18,1.6939254e-18
1.07730685e-19,0.0,1.2971642e-19,4.6806602e-18,1.6939254e-18
1.07730685e-19,0.0,1.2971642e-19,4.6806602e-18,1.6939254e-18
1.07730685e-19,0.0,1.2971642e-19,4.6806602e-18,1.6939254e-18
1.07730685e-19,0.0,1.2971642e-19,4.6806602e-18,1.6939254e-18
1.07730685e-19,0.0,1.2971642e-19,4.6806602e-18,1.6939254e-18
1.07730685e-19,0.0,1.2971642e-19,4.6806602e-18,1.6939254e-18
1.07730685e-19,0.0,1.2971642e-19,4.6806602e-18,1.6939254e-18
1.07730685e-19,0.0,1.2971642e-19,4.6806602e-18,1.6939254e-18
1.07730685e-19,0.0,1.2971642e-19,4.6806602e-18,1.6939254e-18
1.07730685e-19,0.0,1.2971642e-19,4.6806602e-18,1.6939254e-18
1.07730685e-19,0.0,1.2971642e-19,4.6806602e-18,1.6939254e-18
1.07730685e-19,0.0,1.2971642e-19,4.6806602e-18,1.6939254e-18
1.07730685e-19,0.0,1.2971642e-19,4.6806602e-18,1.6939254e-18
1.07730685e-19,0.0,1.2971642e-19,4.6806602e-18,1.6939254e-18
1.07730685e-19,0.0,1.2971642e-19,4.6806602e-18,1.6939254e-18
1.07730685e-19,0.0,1.2971642e-19,4.6806602e-18,1.6939254e-18
1.07730685e-19,0.0,1.2971642e-19,4.6806602e-18,1.6939254e-18
1.07730685e-19,0.0,1.2971642e-19,4.6806602e-18,1.6939254e-18
1.07730685e-19,0.0,1.2971642e-19,4.6806602e-18,1.6939254e-18
1.07730685e-19,0.0,1.2971642e-19,4.6806602e-18,1.6939254e-18
1.07730685e-19,0.0,1.2971642e-19,4.6806602e-18,1.6939254e-18
1.07730685e-19,0.0,1.2971642e-19,4.6806602e-18,1.6939254e-18
1.07730685e-19,0.0,1.2971642e-19,4.6806602e-18,1.6939254e-18
1.07730685e-19,0.0,1.2971642e-19,4.6806602e-18,1.6939254e-18
1.07730685e-19,0.0,1.2971642e-19,4.6806602e-18,1.6939254e-18
1.07730685e-19,0.0,1.2971642e-19,4.6806602e-18,1.6939254e-18
1.07730685e-19,0.0,1.2971642e-19,4.6806602e-18,1.6939254e-18
1.07730685e-19,0.0,1.2971642e-19,4.6806602e-18,1.6939254e-18
1.07730685e-19,0.0,1.2971642e-19,4.6806602e-18,1.6939254e-18
1.07730685e-19,0.0,1.2971642e-19,4.6806602e-18,1.6939254e-18
1.07730685e-19,0.0,1.2971642e-19,4.6806602e-18,1.6939254e-18
1.07730685e-19,0.0,1.2971642e-19,4.6806602e-18,1.6939254e-18
1.07730685e-19,0.0,1.2971642e-19,4.6806602e-18,1.6939254e-18
1.07730685e-19,0.0,1.2971642e-19,4.6806602e-18,1.6939254e-18
1.07730685e-19,0.0,1.2971642e-19,4.6806602e-18,1.6939254e-18
1.07730685e-19,0.0,1.2971642e-19,4.6806602e-18,1.6939254e-18
1.07730685e-19,0.0,1.2971642e-19,4.6806602e-18,1.6939254e-18
1.07730685e-19,0.0,1.2971642e-19,4.6806602e-18,1.6939254e-18
1.07730685e-19,0.0,1.2971642e-19,4.6806602e-18,1.6939254e-18
1.07730685e-19,0.0,1.2971642e-19,4.6806602e-18,1.6939254e-18
1.07730685e-19,0.0,1.2971642e-19,4.6806602e-18,1.6939254e-18
1.07730685e-19,0.0,1.2971642e-19,4.6806602e-18,1.6939254e-18
1.07730685e-19,0.0,1.2971642e-19,4.6806602e-18,1.6939254e-18
1.07730685e-19,0.0,1.2971642e-19,4.6806602e-18,1.6939254e-18
1.07730685e-19,0.0,1.2971642e-19,4.6806602e-18,1.6939254e-18
1.07730685e-19,0.0,1.2971642e-19,4.6806602e-18,1.6939254e-18
1.07730685e-19,0.0,1.2971642e-19,4.6806602e-18,1.6939254e-18
1.07730685e-19,0.0,1.2971642e-19,4.6806602e-18,1.6939254e-18
1.07730685e-19,0.0,1.2971642e-19,4.6806602e-18,1.6939254e-18
1.07730685e-19,0.0,1.2971642e-19,4.6806602e-18,1.6939254e-18
1.07730685e-19,0.0,1.2971642e-19,4.6806602e-18,1.6939254e-18
1.07730685e-19,0.0,1.2971642e-19,4.6806602e-18,1.6939254e-18
1.07730685e-19,0.0,1.2971642e-19,4.6806602e-18,1.6939254e-18
1.07730685e-19,0.0,1.2971642e-19,4.6806602e-18,1.6939254e-18
1.07730685e-19,0.0,1.2971642e-19,4.6806602e-18,1.6939254e-18
1.07730685e-19,0.0,1.2971642e-19,4.6806602e-18,1.6939254e-18
1.07730685e-19,0.0,1.2971642e-19,4.6806602e-18,1.6939254e-18
1.07730685e-19,0.0,1.2971642e-19,4.6806602e-18,1.6939254e-18
1.07730685e-19,0.0,1.2971642e-19,4.6806602e-18,1.6939254e-18
1.07730685e-19,0.0,1.2971642e-19,4.6806602e-18,1.6939254e-18
1.07730685e-19,0.0,1.2971642e-19,4.6806602e-18,1.6939254e-18
1.07730685e-19,0.0,1.2971642e-19,4.6806602e-18,1.6939254e-18
1.07730685e-19,0.0,1.2971642e-19,4.6806602e-18,1.6939254e-18
1.07730685e-19,0.0,1.2971642e-19,4.6806602e-18,1.6939254e-18
1.07730685e-19,0.0,1.2971642e-19,4.6806602e-18,1.6939254e-18
1.07730685e-19,0.0,1.2971642e-19,4.6806602e-18,1.6939254e-18
1.07730685e-19,0.0,1.2971642e-19,4.6806602e-18,1.6939254e-18
1.07730685e-19,0.0,1.2971642e-19,4.6806602e-18,1.6939254e-18
1.07730685e-19,0.0,1.2971642e-19,4.6806602e-18,1.6939254e-18
1.07730685e-19,0.0,1.2971642e-19,4.6806602e-18,1.6939254e-18
1.07730685e-19,0.0,1.2971642e-19,4.6806602e-18,1.6939254e-18
1.07730685e-19,0.0,1.2971642e-19,4.6806602e-18,1.6939254e-18
1.07730685e-19,0.0,1.2971642e-19,4.6806602e-18,1.6939254e-18
1.07730685e-19,0.0,1.2971642e-19,4.6806602e-18,1.6939254e-18
1.07730685e-19,0.0,1.2971642e-19,4.6806602e-18,1.6939254e-18
1.07730685e-19,0.0,1.2971642e-19,4.6806602e-18,1.6939254e-18
1.07730685e-19,0.0,1.2971642e-19,4.6806602e-18,1.6939254e-18
1.07730685e-19,0.0,1.2971642e-19,4.6806602e-18,1.6939254e-18
1.07730685e-19,0.0,1.2971642e-19,4.6806602e-18,1.6939254e-18
1.07730685e-19,0.0,1.2971642e-19,4.6806602e-18,1.6939254e-18
1.07730685e-19,0.0,1.2971642e-19,4.6806602e-18,1.6939254e-18
1.07730685e-19,0.0,1.2971642e-19,4.6806602e-18,1.6939254e-18
1.07730685e-19,0.0,1.2971642e-19,4.6806602e-18,1.6939254e-18
1.07730685e-19,0.0,1.2971642e-19,4.6806602e-18,1.6939254e-18
1.07730685e-19,0.0,1.2971642e-19,4.6806602e-18,1.6939254e-18
1.07730685e-19,0.0,1.2971642e-19,4.6806602e-18,1.6939254e-18
1.07730685e-19,0.0,1.2971642e-19,4.6806602e-18,1.6939254e-18
1.07730685e-19,0.0,1.2971642e-19,4.6806602e-18,1.6939254e-18
1.07730685e-19,0.0,1.2971642e-19,4.6806602e-18,1.6939254e-18
1.07730685e-19,0.0,1.2971642e-19,4.6806602e-18,1.6939254e-18
1.07730685e-19,0.0,1.2971642e-19,4.6806602e-18,1.6939254e-18
1.07730685e-19,0.0,1.2971642e-19,4.6806602e-18,1.6939254e-18
1.07730685e-19,0.0,1.2971642e-19,4.6806602e-18,1.6939254e-18
1.07730685e-19,0.0,1.2971642e-19,4.6806602e-18,1.6939254e-18
1.07730685e-19,0.0,1.2971642e-19,4.6806602e-18,1.6939254e-18
1.07730685e-19,0.0,1.2971642e-19,4.6806602e-18,1.6939254e-18
1.07730685e-19,0.0,1.2971642e-19,4.6806602e-18,1.6939254e-18
1.07730685e-19,0.0,1.2971642e-19,4.6806602e-18,1.6939254e-18
1.07730685e-19,0.0,1.2971642e-19,4.6806602e-18,1.6939254e-18
1.07730685e-19,0.0,1.2971642e-19,4.6806602e-18,1.6939254e-18
1.07730685e-19,0.0,1.2971642e-19,4.6806602e-18,1.6939254e-18
1.07730685e-19,0.0,1.2971642e-19,4.6806602e-18,1.6939254e-18
1.07730685e-19,0.0,1.2971642e-19,4.6806602e-18,1.6939254e-18
1.07730685e-19,0.0,1.2971642e-19,4.6806602e-18,1.6939254e-18
1.07730685e-19,0.0,1.2971642e-19,4.6806602e-18,1.6939254e-18
1.07730685e-19,0.0,1.2971642e-19,4.6806602e-18,1.6939254e-18
1.07730685e-19,0.0,1.2971642e-19,4.6806602e-18,1.6939254e-18
1.07730685e-19,0.0,1.2971642e-19,4.6806602e-18,1.6939254e-18
1.07730685e-19,0.0,1.2971642e-19,4.6806602e-18,1.6939254e-18
1.07730685e-19,0.0,1.2971642e-19,4.6806602e-18,1.6939254e-18
1.07730685e-19,0.0,1.2971642e-19,4.6806602e-18,1.6939254e-18
1.07730685e-19,0.0,1.2971642e-19,4.6806602e-18,1.6939254e-18
1.07730685e-19,0.0,1.2971642e-19,4.6806602e-18,1.6939254e-18
1.07730685e-19,0.0,1.2971642e-19,4.6806602e-18,1.6939254e-18
1.07730685e-19,0.0,1.2971642e-19,4.6806602e-18,1.6939254e-18
1.07730685e-19,0.0,1.2971642e-19,4.6806602e-18,1.6939254e-18
1.07730685e-19,0.0,1.2971642e-19,4.6806602e-18,1.6939254e-18
1.07730685e-19,0.0,1.2971642e-19,4.6806602e-18,1.6939254e-18
1.07730685e-19,0.0,1.2971642e-19,4.6806602e-18,1.6939254e-18
1.07730685e-19,0.0,1.2971642e-19,4.6806602e-18,1.6939254e-18
1.07730685e-19,0.0,1.2971642e-19,4.6806602e-18,1.6939254e-18
1.07730685e-19,0.0,1.2971642e-19,4.6806602e-18,1.6939254e-18
1.07730685e-19,0.0,1.2971642e-19,4.6806602e-18,1.6939254e-18
1.07730685e-19,0.0,1.2971642e-19,4.6806602e-18,1.6939254e-18
1.07730685e-19,0.0,1.2971642e-19,4.6806602e-18,1.6939254e-18
1.07730685e-19,0.0,1.2971642e-19,4.6806602e-18,1.6939254e-18
1.07730685e-19,0.0,1.2971642e-19,4.6806602e-18,1.6939254e-18
1.07730685e-19,0.0,1.2971642e-19,4.6806602e-18,1.6939254e-18
1.07730685e-19,0.0,1.2971642e-19,4.6806602e-18,1.6939254e-18
1.07730685e-19,0.0,1.2971642e-19,4.6806602e-18,1.6939254e-18
1.07730685e-19,0.0,1.2971642e-19,4.6806602e-18,1.6939254e-18
1.07730685e-19,0.0,1.2971642e-19,4.6806602e-18,1.6939254e-18
1.07730685e-19,0.0,1.2971642e-19,4.6806602e-18,1.6939254e-18
1.07730685e-19,0.0,1.2971642e-19,4.6806602e-18,1.6939254e-18
1.07730685e-19,0.0,1.2971642e-19,4.6806602e-18,1.6939254e-18
1.07730685e-19,0.0,1.2971642e-19,4.6806602e-18,1.6939254e-18
1.07730685e-19,0.0,1.2971642e-19,4.6806602e-18,1.6939254e-18
1.07730685e-19,0.0,1.2971642e-19,4.6806602e-18,1.6939254e-18
1.07730685e-19,0.0,1.2971642e-19,4.6806602e-18,1.6939254e-18
1.07730685e-19,0.0,1.2971642e-19,4.6806602e-18,1.6939254e-18
1.07730685e-19,0.0,1.2971642e-19,4.6806602e-18,1.6939254e-18
1.07730685e-19,0.0,1.2971642e-19,4.6806602e-18,1.6939254e-18
1.07730685e-19,0.0,1.2971642e-19,4.6806602e-18,1.6939254e-18
1.07730685e-19,0.0,1.2971642e-19,4.6806602e-18,1.6939254e-18
1.07730685e-19,0.0,1.2971642e-19,4.6806602e-18,1.6939254e-18
1.07730685e-19,0.0,1.2971642e-19,4.6806602e-18,1.6939254e-18
1.07730685e-19,0.0,1.2971642e-19,4.6806602e-18,1.6939254e-18
1.07730685e-19,0.0,1.2971642e-19,4.6806602e-18,1.6939254e-18
1.07730685e-19,0.0,1.2971642e-19,4.6806602e-18,1.6939254e-18
1.07730685e-19,0.0,1.2971642e-19,4.6806602e-18,1.6939254e-18
1.07730685e-19,0.0,1.2971642e-19,4.6806602e-18,1.6939254e-18
1.07730685e-19,0.0,1.2971642e-19,4.6806602e-18,1.6939254e-18
1.07730685e-19,0.0,1.2971642e-19,4.6806602e-18,1.6939254e-18
1.07730685e-19,0.0,1.2971642e-19,4.6806602e-18,1.6939254e-18
1.07730685e-19,0.0,1.2971642e-19,4.6806602e-18,1.6939254e-18
1.07730685e-19,0.0,1.2971642e-19,4.6806602e-18,1.6939254e-18
1.07730685e-19,0.0,1.2971642e-19,4.6806602e-18,1.6939254e-18
1.07730685e-19,0.0,1.2971642e-19,4.6806602e-18,1.6939254e-18
1.07730685e-19,0.0,1.2971642e-19,4.6806602e-18,1.6939254e-18
1.07730685e-19,0.0,1.2971642e-19,4.6806602e-18,1.6939254e-18
1.07730685e-19,0.0,1.2971642e-19,4.6806602e-18,1.6939254e-18
1.07730685e-19,0.0,1.2971642e-19,4.6806602e-18,1.6939254e-18
1.07730685e-19,0.0,1.2971642e-19,4.6806602e-18,1.6939254e-18
1.07730685e-19,0.0,1.2971642e-19,4.6806602e-18,1.6939254e-18
1.07730685e-19,0.0,1.2971642e-19,4.6806602e-18,1.6939254e-18
1.07730685e-19,0.0,1.2971642e-19,4.6806602e-18,1.6939254e-18
1.07730685e-19,0.0,1.2971642e-19,4.6806602e-18,1.6939254e-18
1.07730685e-19,0.0,1.2971642e-19,4.6806602e-18,1.6939254e-18
1.07730685e-19,0.0,1.2971642e-19,4.6806602e-18,1.6939254e-18
1.07730685e-19,0.0,1.2971642e-19,4.6806602e-18,1.6939254e-18
1.07730685e-19,0.0,1.2971642e-19,4.6806602e-18,1.6939254e-18
1.07730685e-19,0.0,1.2971642e-19,4.6806602e-18,1.6939254e-18
1.07730685e-19,0.0,1.2971642e-19,4.6806602e-18,1.6939254e-18
1.07730685e-19,0.0,1.2971642e-19,4.6806602e-18,1.6939254e-18
1.07730685e-19,0.0,1.2971642e-19,4.6806602e-18,1.6939254e-18
1.07730685e-19,0.0,1.2971642e-19,4.6806602e-18,1.6939254e-18
1.07730685e-19,0.0,1.2971642e-19,4.6806602e-18,1.6939254e-18
1.07730685e-19,0.0,1.2971642e-19,4.6806602e-18,1.6939254e-18
1.07730685e-19,0.0,0.00044693076,4.6806602e-18,1.6939254e-18
1.07730685e-19,0.0,1.2971642e-19,4.6806602e-18,1.6939254e-18
1.07730685e-19,0.0,1.2971642e-19,4.6806602e-18,1.6939254e-18
1.07730685e-19,0.0,1.2971642e-19,4.6806602e-18,1.6939254e-18
1.07730685e-19,0.0,1.2971642e-19,4.6806602e-18,1.6939254e-18
1.07730685e-19,0.0,1.2971642e-19,4.6806602e-18,1.6939254e-18
1.07730685e-19,0.0,1.2971642e-19,4.6806602e-18,1.6939254e-18
1.07730685e-19,0.0,1.2971642e-19,4.6806602e-18,1.6939254e-18
1.07730685e-19,0.0,1.2971642e-19,4.6806602e-18,1.6939254e-18
1.07730685e-19,0.0,1.2971642e-19,4.6806602e-18,1.6939254e-18
1.07730685e-19,0.0,1.2971642e-19,4.6806602e-18,1.6939254e-18
1.07730685e-19,0.0,0.00064665347,4.6806602e-18,1.6939254e-18
1.07730685e-19,0.0,1.2971642e-19,4.6806602e-18,1.6939254e-18
1.07730685e-19,0.0,1.2971642e-19,4.6806602e-18,1.6939254e-18
1.07730685e-19,0.0,1.2971642e-19,4.6806602e-18,1.6939254e-18
1.07730685e-19,0.0,1.2971642e-19,4.6806602e-18,1.6939254e-18
1.07730685e-19,0.0,1.2971642e-19,4.6806602e-18,1.6939254e-18
1.07730685e-19,0.0,1.2971642e-19,4.6806602e-18,1.6939254e-18
1.07730685e-19,0.0,1.2971642e-19,4.6806602e-18,1.6939254e-18
1.07730685e-19,0.0,1.2971642e-19,4.6806602e-18,1.6939254e-18
1.07730685e-19,0.0,1.2971642e-19,4.6806602e-18,1.6939254e-18
1.07730685e-19,0.0,1.2971642e-19,4.6806602e-18,1.6939254e-18
1.07730685e-19,0.0,1.2971642e-19,4.6806602e-18,1.6939254e-18
