"[299, 255]","[227, 248]","[287, 319]","[279, 328]","[230, 262]"
5.1764116e-20,0.0,1.3061248e-19,2.6828737e-18,2.0731448e-18
5.1764116e-20,0.0,1.3061248e-19,2.6828737e-18,2.0731448e-18
5.1764116e-20,0.0,1.3061248e-19,2.6828737e-18,2.0731448e-18
5.1764116e-20,0.0,1.3061248e-19,2.6828737e-18,2.0731448e-18
5.1764116e-20,0.0,1.3061248e-19,2.6828737e-18,2.0731448e-18
5.1764116e-20,0.0,1.3061248e-19,2.6828737e-18,2.0731448e-18
5.1764116e-20,0.0,1.3061248e-19,2.6828737e-18,2.0731448e-18
5.1764116e-20,0.0,1.3061248e-19,2.6828737e-18,2.0731448e-18
5.1764116e-20,0.0,1.3061248e-19,2.6828737e-18,2.0731448e-18
5.1764116e-20,0.0,1.3061248e-19,2.6828737e-18,2.0731448e-18
5.1764116e-20,0.0,1.3061248e-19,2.6828737e-18,2.0731448e-18
5.1764116e-20,0.0,1.3061248e-19,2.6828737e-18,2.0731448e-18
5.1764116e-20,0.0,1.3061248e-19,2.6828737e-18,2.0731448e-18
5.1764116e-20,0.0,1.3061248e-19,2.6828737e-18,2.0731448e-18
5.1764116e-20,0.0,1.3061248e-19,2.6828737e-18,2.0731448e-18
5.1764116e-20,0.0,1.3061248e-19,2.6828737e-18,2.0731448e-18
5.1764116e-20,0.0,1.3061248e-19,2.6828737e-18,2.0731448e-18
5.1764116e-20,0.0,1.3061248e-19,2.6828737e-18,2.0731448e-18
5.1764116e-20,0.0,1.3061248e-19,2.6828737e-18,2.0731448e-18
5.1764116e-20,0.0,1.3061248e-19,2.6828737e-18,2.0731448e-18
5.1764116e-20,0.0,1.3061248e-19,2.6828737e-18,2.0731448e-18
5.1764116e-20,0.0,1.3061248e-19,2.6828737e-18,2.0731448e-18
5.1764116e-20,0.0,1.3061248e-19,2.6828737e-18,2.0731448e-18
5.1764116e-20,0.0,1.3061248e-19,2.6828737e-18,2.0731448e-18
5.1764116e-20,0.0,1.3061248e-19,2.6828737e-18,2.0731448e-18
5.1764116e-20,0.0,1.3061248e-19,2.6828737e-18,2.0731448e-18
5.1764116e-20,0.0,1.3061248e-19,2.6828737e-18,2.0731448e-18
5.1764116e-20,0.0,1.3061248e-19,2.6828737e-18,2.0731448e-18
5.1764116e-20,0.0,1.3061248e-19,2.6828737e-18,2.0731448e-18
5.1764116e-20,0.0,1.3061248e-19,2.6828737e-18,2.0731448e-18
5.1764116e-20,0.0,1.3061248e-19,2.6828737e-18,2.0731448e-18
5.1764116e-20,0.0,1.3061248e-19,2.6828737e-18,2.0731448e-18
5.1764116e-20,0.0,1.3061248e-19,2.6828737e-18,2.0731448e-18
5.1764116e-20,0.0,1.3061248e-19,2.6828737e-18,2.0731448e-18
5.1764116e-20,0.0,1.3061248e-19,2.6828737e-18,2.0731448e-18
5.1764116e-20,0.0,1.3061248e-19,2.6828737e-18,2.0731448e-18
5.1764116e-20,0.0,1.3061248e-19,2.6828737e-18,2.0731448e-18
5.1764116e-20,0.0,0.000337447,2.6828737e-18,2.0731448e-18
1.1464027e-06,0.0,0.0008911883,2.6828737e-18,2.0731448e-18
5.1764116e-20,0.0,1.3061248e-19,2.6828737e-18,2.0731448e-18
5.1764116e-20,0.0,1.3061248e-19,2.6828737e-18,2.0731448e-18
1.4741516e-05,0.0,1.3061248e-19,2.6828737e-18,2.0731448e-18
5.1764116e-20,0.0,1.3061248e-19,2.6828737e-18,2.0731448e-18
5.1764116e-20,0.0,0.0011744985,0.00038446847,2.0731448e-18
5.1764116e-20,0.0,0.0025701472,0.0014536864,2.0731448e-18
5.1764116e-20,0.0,1.3061248e-19,2.6828737e-18,2.0731448e-18
5.1764116e-20,0.0,1.3061248e-19,2.6828737e-18,2.0731448e-18
5.1764116e-20,0.0,1.3061248e-19,2.6828737e-18,2.0731448e-18
5.1764116e-20,0.0,1.3061248e-19,2.6828737e-18,2.0731448e-18
5.1764116e-20,0.0,1.3061248e-19,2.6828737e-18,2.0731448e-18
0.0006446046,0.0,7.122199e-05,0.00045949512,2.0731448e-18
5.1764116e-20,0.0,1.3061248e-19,2.6828737e-18,2.0731448e-18
5.1764116e-20,0.0,1.3061248e-19,2.6828737e-18,2.0731448e-18
5.1764116e-20,0.0,1.3061248e-19,2.6828737e-18,2.0731448e-18
5.1764116e-20,0.0,1.3061248e-19,2.6828737e-18,2.0731448e-18
5.1764116e-20,0.0,1.3061248e-19,2.6828737e-18,2.0731448e-18
5.1764116e-20,0.0,1.3061248e-19,2.6828737e-18,2.0731448e-18
5.1764116e-20,0.0,1.3061248e-19,2.6828737e-18,2.0731448e-18
5.1764116e-20,0.0,1.3061248e-19,2.6828737e-18,2.0731448e-18
5.1764116e-20,0.0,1.3061248e-19,2.6828737e-18,2.0731448e-18
5.1764116e-20,0.0,1.3061248e-19,2.6828737e-18,2.0731448e-18
5.1764116e-20,0.0,0.0010340973,0.0007670531,2.0731448e-18
5.1764116e-20,0.0,1.3061248e-19,2.6828737e-18,2.0731448e-18
5.1764116e-20,0.0,1.3061248e-19,2.6828737e-18,2.0731448e-18
5.1764116e-20,0.0,1.3061248e-19,2.6828737e-18,2.0731448e-18
5.1764116e-20,0.0,1.3061248e-19,2.6828737e-18,2.0731448e-18
5.1764116e-20,0.0,1.3061248e-19,2.6828737e-18,2.0731448e-18
5.1764116e-20,0.0,1.3061248e-19,2.6828737e-18,2.0731448e-18
0.00020795588,0.0,1.3061248e-19,2.6828737e-18,2.0731448e-18
5.1764116e-20,0.0,1.3061248e-19,2.6828737e-18,2.0731448e-18
0.00014065762,0.0,0.00019373374,4.55481e-06,2.0731448e-18
0.0035488724,0.0,0.00645343,0.0029343732,0.00043092106
0.005209599,0.0,0.0060593914,0.004427036,0.00015113028
0.003668089,0.0,0.0021203542,0.0009060169,2.0731448e-18
9.752467e-13,0.0,0.0049334634,0.002428001,1.28608335e-05
2.6526348e-20,0.0,0.00014963292,2.6828737e-18,2.0731448e-18
1.3640932e-06,0.0,1.3061248e-19,2.6828737e-18,2.0731448e-18
0.62530595,0.0,6.1163646e-06,0.33637342,4.2943244e-12
0.6362281,0.0,0.00041648655,0.15094584,0.0004294034
0.02935623,0.0,0.012930858,0.009624214,0.012658633
7.7071216e-20,0.0,1.3851568e-19,4.441351e-18,1.8782641e-18
7.7071216e-20,0.0,1.3851568e-19,4.441351e-18,1.8782641e-18
7.7071216e-20,0.0,1.3851568e-19,4.441351e-18,1.8782641e-18
7.7071216e-20,0.0,1.3851568e-19,4.441351e-18,1.8782641e-18
7.7071216e-20,0.0,1.3851568e-19,4.441351e-18,1.8782641e-18
7.7071216e-20,0.0,1.3851568e-19,4.441351e-18,1.8782641e-18
7.7071216e-20,0.0,1.3851568e-19,4.441351e-18,1.8782641e-18
7.7071216e-20,0.0,1.3851568e-19,4.441351e-18,1.8782641e-18
7.7071216e-20,0.0,1.3851568e-19,4.441351e-18,1.8782641e-18
7.7071216e-20,0.0,1.3851568e-19,4.441351e-18,1.8782641e-18
7.7071216e-20,0.0,1.3851568e-19,4.441351e-18,1.8782641e-18
7.7071216e-20,0.0,1.3851568e-19,4.441351e-18,1.8782641e-18
7.7071216e-20,0.0,1.3851568e-19,4.441351e-18,1.8782641e-18
7.7071216e-20,0.0,1.3851568e-19,4.441351e-18,1.8782641e-18
7.7071216e-20,0.0,1.3851568e-19,4.441351e-18,1.8782641e-18
7.7071216e-20,0.0,1.3851568e-19,4.441351e-18,1.8782641e-18
7.7071216e-20,0.0,1.3851568e-19,4.441351e-18,1.8782641e-18
7.7071216e-20,0.0,1.3851568e-19,4.441351e-18,1.8782641e-18
7.7071216e-20,0.0,1.3851568e-19,4.441351e-18,1.8782641e-18
7.7071216e-20,0.0,1.3851568e-19,4.441351e-18,1.8782641e-18
7.7071216e-20,0.0,1.3851568e-19,4.441351e-18,1.8782641e-18
7.7071216e-20,0.0,1.3851568e-19,4.441351e-18,1.8782641e-18
7.7071216e-20,0.0,0.0005034198,0.00023455778,1.8782641e-18
0.00033414163,0.0,1.3851568e-19,4.4415335e-18,1.8782641e-18
7.7071216e-20,0.0,4.519459e-06,4.4415335e-18,1.8782641e-18
0.00036713725,0.0,0.00031627313,4.4415335e-18,1.8782641e-18
7.7071216e-20,0.0,1.3851568e-19,4.4415335e-18,1.8782641e-18
7.7071216e-20,0.0,1.3851568e-19,4.4415335e-18,1.8782641e-18
7.7071216e-20,0.0,1.3851568e-19,4.4415335e-18,1.8782641e-18
7.7071216e-20,0.0,1.3851568e-19,4.4415335e-18,1.8782641e-18
7.7071216e-20,0.0,1.3851568e-19,4.4415335e-18,1.8782641e-18
0.00035687012,0.0,0.0007297796,6.942308e-05,1.8782641e-18
7.7071216e-20,0.0,1.3851568e-19,4.4415335e-18,1.8782641e-18
7.7071216e-20,0.0,1.3851568e-19,4.4415335e-18,1.8782641e-18
7.7071216e-20,0.0,1.3851568e-19,4.4415335e-18,1.8782641e-18
7.7071216e-20,0.0,1.3851568e-19,4.4415335e-18,1.8782641e-18
7.7071216e-20,0.0,1.3851568e-19,4.4415335e-18,1.8782641e-18
7.7071216e-20,0.0,1.3851568e-19,4.4415335e-18,1.8782641e-18
7.7071216e-20,0.0,1.3851568e-19,4.4415335e-18,1.8782641e-18
7.7071216e-20,0.0,1.3851568e-19,4.4415335e-18,1.8782641e-18
7.7071216e-20,0.0,1.3851568e-19,4.4415335e-18,1.8782641e-18
7.7071216e-20,0.0,1.3851568e-19,4.4415335e-18,1.8782641e-18
7.7071216e-20,0.0,1.6255084e-06,4.4415335e-18,1.8782641e-18
7.7071216e-20,0.0,0.00029018498,7.18458e-05,1.8782641e-18
7.7071216e-20,0.0,1.3851568e-19,4.4415335e-18,1.8782641e-18
7.7071216e-20,0.0,1.3851568e-19,4.4415335e-18,1.8782641e-18
7.7071216e-20,0.0,1.3851568e-19,4.4415335e-18,1.8782641e-18
7.7071216e-20,0.0,1.3851568e-19,4.4415335e-18,1.8782641e-18
7.7071216e-20,0.0,1.3851568e-19,4.4415335e-18,1.8782641e-18
7.7071216e-20,0.0,1.3851568e-19,4.4415335e-18,1.8782641e-18
7.7071216e-20,0.0,1.3851568e-19,4.4415335e-18,1.8782641e-18
7.7071216e-20,0.0,1.3851568e-19,4.4415335e-18,1.8782641e-18
7.7071216e-20,0.0,1.3851568e-19,4.4415335e-18,1.8782641e-18
7.7071216e-20,0.0,1.3851568e-19,4.4415335e-18,1.8782641e-18
7.7071216e-20,0.0,1.3851568e-19,4.4415335e-18,1.8782641e-18
7.7071216e-20,0.0,1.3851568e-19,4.4415335e-18,1.8782641e-18
7.7071216e-20,0.0,1.3851568e-19,4.4415335e-18,1.8782641e-18
7.7071216e-20,0.0,1.3851568e-19,4.4415335e-18,1.8782641e-18
7.7071216e-20,0.0,1.3851568e-19,4.4415335e-18,1.8782641e-18
7.7071216e-20,0.0,1.3851568e-19,4.4415335e-18,1.8782641e-18
7.7071216e-20,0.0,1.3851568e-19,4.4415335e-18,1.8782641e-18
7.7071216e-20,0.0,1.3851568e-19,4.4415335e-18,1.8782641e-18
7.7071216e-20,0.0,1.3851568e-19,4.4415335e-18,1.8782641e-18
7.7071216e-20,0.0,1.3851568e-19,4.4415335e-18,1.8782641e-18
7.7071216e-20,0.0,1.3851568e-19,4.4415335e-18,1.8782641e-18
7.7071216e-20,0.0,1.3851568e-19,4.4415335e-18,1.8782641e-18
7.7071216e-20,0.0,1.3851568e-19,4.4415335e-18,1.8782641e-18
7.7071216e-20,0.0,1.3851568e-19,4.4415335e-18,1.8782641e-18
7.7071216e-20,0.0,1.3851568e-19,4.4415335e-18,1.8782641e-18
7.7071216e-20,0.0,1.3851568e-19,4.4415335e-18,1.8782641e-18
7.7071216e-20,0.0,1.3851568e-19,4.4415335e-18,1.8782641e-18
7.7071216e-20,0.0,1.3851568e-19,4.4415335e-18,1.8782641e-18
7.7071216e-20,0.0,1.3851568e-19,4.4415335e-18,1.8782641e-18
7.7071216e-20,0.0,1.3851568e-19,4.4415335e-18,1.8782641e-18
7.7071216e-20,0.0,1.3851568e-19,4.4415335e-18,1.8782641e-18
7.7071216e-20,0.0,1.3851568e-19,4.4415335e-18,1.8782641e-18
7.7071216e-20,0.0,1.3851568e-19,4.4415335e-18,1.8782641e-18
7.7071216e-20,0.0,1.3851568e-19,4.4415335e-18,1.8782641e-18
7.7071216e-20,0.0,1.3851568e-19,4.4415335e-18,1.8782641e-18
7.7071216e-20,0.0,1.3851568e-19,4.4415335e-18,1.8782641e-18
7.7071216e-20,0.0,1.3851568e-19,4.4415335e-18,1.8782641e-18
7.7071216e-20,0.0,1.3851568e-19,4.4415335e-18,1.8782641e-18
7.7071216e-20,0.0,1.3851568e-19,4.4415335e-18,1.8782641e-18
7.7071216e-20,0.0,1.3851568e-19,4.4415335e-18,1.8782641e-18
7.7071216e-20,0.0,1.3851568e-19,4.4415335e-18,1.8782641e-18
7.7071216e-20,0.0,1.3851568e-19,4.4415335e-18,1.8782641e-18
7.7071216e-20,0.0,4.316296e-06,4.4415335e-18,1.8782641e-18
7.7071216e-20,0.0,1.3851568e-19,4.4415335e-18,1.8782641e-18
7.7071216e-20,0.0,1.3851568e-19,4.4415335e-18,1.8782641e-18
7.7071216e-20,0.0,1.3851568e-19,4.4415335e-18,1.8782641e-18
7.7071216e-20,0.0,1.3851568e-19,4.4415335e-18,1.8782641e-18
7.7071216e-20,0.0,1.3851568e-19,4.4415335e-18,1.8782641e-18
7.7071216e-20,0.0,1.3851568e-19,4.4415335e-18,1.8782641e-18
7.7071216e-20,0.0,1.3851568e-19,4.4415335e-18,1.8782641e-18
7.7071216e-20,0.0,1.3851568e-19,4.4415335e-18,1.8782641e-18
7.7071216e-20,0.0,1.3851568e-19,4.4415335e-18,1.8782641e-18
7.7071216e-20,0.0,1.3851568e-19,4.4415335e-18,1.8782641e-18
7.7071216e-20,0.0,1.3851568e-19,4.4415335e-18,1.8782641e-18
7.7071216e-20,0.0,1.3851568e-19,4.4415335e-18,1.8782641e-18
7.7071216e-20,0.0,1.3851568e-19,4.4415335e-18,1.8782641e-18
7.7071216e-20,0.0,1.3851568e-19,4.4415335e-18,1.8782641e-18
7.7071216e-20,0.0,1.3851568e-19,4.4415335e-18,1.8782641e-18
7.7071216e-20,0.0,1.3851568e-19,4.4415335e-18,1.8782641e-18
7.7071216e-20,0.0,1.3851568e-19,4.4415335e-18,1.8782641e-18
7.7071216e-20,0.0,1.3851568e-19,4.4415335e-18,1.8782641e-18
7.7071216e-20,0.0,1.3851568e-19,4.4415335e-18,1.8782641e-18
7.7071216e-20,0.0,1.3851568e-19,4.4415335e-18,1.8782641e-18
7.7071216e-20,0.0,1.3851568e-19,4.4415335e-18,1.8782641e-18
7.7071216e-20,0.0,1.3851568e-19,4.4415335e-18,1.8782641e-18
7.7071216e-20,0.0,1.3851568e-19,4.4415335e-18,1.8782641e-18
7.7071216e-20,0.0,1.3851568e-19,4.4415335e-18,1.8782641e-18
7.7071216e-20,0.0,1.3851568e-19,4.4415335e-18,1.8782641e-18
7.7071216e-20,0.0,1.3851568e-19,4.4415335e-18,1.8782641e-18
7.7071216e-20,0.0,1.3851568e-19,4.4415335e-18,1.8782641e-18
7.7071216e-20,0.0,1.3851568e-19,4.4415335e-18,1.8782641e-18
7.7071216e-20,0.0,1.3851568e-19,4.4415335e-18,1.8782641e-18
7.7071216e-20,0.0,1.3851568e-19,4.4415335e-18,1.8782641e-18
7.7071216e-20,0.0,1.3851568e-19,4.4415335e-18,1.8782641e-18
7.7071216e-20,0.0,1.3851568e-19,4.4415335e-18,1.8782641e-18
7.7071216e-20,0.0,1.3851568e-19,4.4415335e-18,1.8782641e-18
7.7071216e-20,0.0,1.3851568e-19,4.4415335e-18,1.8782641e-18
7.7071216e-20,0.0,1.3851568e-19,4.4415335e-18,1.8782641e-18
7.7071216e-20,0.0,1.3851568e-19,4.4415335e-18,1.8782641e-18
7.7071216e-20,0.0,1.3851568e-19,4.4415335e-18,1.8782641e-18
7.7071216e-20,0.0,1.3851568e-19,4.4415335e-18,1.8782641e-18
7.7071216e-20,0.0,1.3851568e-19,4.4415335e-18,1.8782641e-18
7.7071216e-20,0.0,1.3851568e-19,4.4415335e-18,1.8782641e-18
7.7071216e-20,0.0,1.3851568e-19,4.4415335e-18,1.8782641e-18
7.7071216e-20,0.0,1.3851568e-19,4.4415335e-18,1.8782641e-18
7.7071216e-20,0.0,1.3851568e-19,4.4415335e-18,1.8782641e-18
7.7071216e-20,0.0,1.3851568e-19,4.4415335e-18,1.8782641e-18
7.7071216e-20,0.0,1.3851568e-19,4.4415335e-18,1.8782641e-18
7.7071216e-20,0.0,1.3851568e-19,4.4415335e-18,1.8782641e-18
7.7071216e-20,0.0,1.3851568e-19,4.4415335e-18,1.8782641e-18
7.7071216e-20,0.0,1.3851568e-19,4.4415335e-18,1.8782641e-18
7.7071216e-20,0.0,1.3851568e-19,4.4415335e-18,1.8782641e-18
7.7071216e-20,0.0,1.3851568e-19,4.4415335e-18,1.8782641e-18
7.7071216e-20,0.0,1.3851568e-19,4.4415335e-18,1.8782641e-18
7.7071216e-20,0.0,1.3851568e-19,4.4415335e-18,1.8782641e-18
7.7071216e-20,0.0,1.3851568e-19,4.4415335e-18,1.8782641e-18
7.7071216e-20,0.0,1.3851568e-19,4.4415335e-18,1.8782641e-18
7.7071216e-20,0.0,1.3851568e-19,4.4415335e-18,1.8782641e-18
7.7071216e-20,0.0,1.3851568e-19,4.4415335e-18,1.8782641e-18
7.7071216e-20,0.0,1.3851568e-19,4.4415335e-18,1.8782641e-18
7.7071216e-20,0.0,1.3851568e-19,4.4415335e-18,1.8782641e-18
7.7071216e-20,0.0,1.3851568e-19,4.4415335e-18,1.8782641e-18
7.7071216e-20,0.0,1.3851568e-19,4.4415335e-18,1.8782641e-18
7.7071216e-20,0.0,1.3851568e-19,4.4415335e-18,1.8782641e-18
7.7071216e-20,0.0,1.3851568e-19,4.4415335e-18,1.8782641e-18
7.7071216e-20,0.0,1.3851568e-19,4.4415335e-18,1.8782641e-18
7.7071216e-20,0.0,1.3851568e-19,4.4415335e-18,1.8782641e-18
7.7071216e-20,0.0,1.3851568e-19,4.4415335e-18,1.8782641e-18
7.7071216e-20,0.0,1.3851568e-19,4.4415335e-18,1.8782641e-18
7.7071216e-20,0.0,1.3851568e-19,4.4415335e-18,1.8782641e-18
7.7071216e-20,0.0,1.3851568e-19,4.4415335e-18,1.8782641e-18
7.7071216e-20,0.0,1.3851568e-19,4.4415335e-18,1.8782641e-18
7.7071216e-20,0.0,1.3851568e-19,4.4415335e-18,1.8782641e-18
7.7071216e-20,0.0,1.3851568e-19,4.4415335e-18,1.8782641e-18
7.7071216e-20,0.0,1.3851568e-19,4.4415335e-18,1.8782641e-18
7.7071216e-20,0.0,1.3851568e-19,4.4415335e-18,1.8782641e-18
7.7071216e-20,0.0,1.3851568e-19,4.4415335e-18,1.8782641e-18
7.7071216e-20,0.0,1.3851568e-19,4.4415335e-18,1.8782641e-18
7.7071216e-20,0.0,1.3851568e-19,4.4415335e-18,1.8782641e-18
7.7071216e-20,0.0,1.3851568e-19,4.4415335e-18,1.8782641e-18
7.7071216e-20,0.0,1.3851568e-19,4.4415335e-18,1.8782641e-18
7.7071216e-20,0.0,1.3851568e-19,4.4415335e-18,1.8782641e-18
7.7071216e-20,0.0,1.3851568e-19,4.4415335e-18,1.8782641e-18
7.7071216e-20,0.0,1.3851568e-19,4.4415335e-18,1.8782641e-18
7.7071216e-20,0.0,1.3851568e-19,4.4415335e-18,1.8782641e-18
7.7071216e-20,0.0,1.3851568e-19,4.4415335e-18,1.8782641e-18
7.7071216e-20,0.0,1.3851568e-19,4.4415335e-18,1.8782641e-18
7.7071216e-20,0.0,1.3851568e-19,4.4415335e-18,1.8782641e-18
7.7071216e-20,0.0,1.3851568e-19,4.4415335e-18,1.8782641e-18
7.7071216e-20,0.0,1.3851568e-19,4.4415335e-18,1.8782641e-18
7.7071216e-20,0.0,1.3851568e-19,4.4415335e-18,1.8782641e-18
7.7071216e-20,0.0,1.3851568e-19,4.4415335e-18,1.8782641e-18
7.7071216e-20,0.0,1.3851568e-19,4.4415335e-18,1.8782641e-18
7.7071216e-20,0.0,1.3851568e-19,4.4415335e-18,1.8782641e-18
7.7071216e-20,0.0,1.3851568e-19,4.4415335e-18,1.8782641e-18
7.7071216e-20,0.0,1.3851568e-19,4.4415335e-18,1.8782641e-18
7.7071216e-20,0.0,1.3851568e-19,4.4415335e-18,1.8782641e-18
7.7071216e-20,0.0,1.3851568e-19,4.4415335e-18,1.8782641e-18
7.7071216e-20,0.0,1.3851568e-19,4.4415335e-18,1.8782641e-18
7.7071216e-20,0.0,1.3851568e-19,4.4415335e-18,1.8782641e-18
7.7071216e-20,0.0,1.3851568e-19,4.4415335e-18,1.8782641e-18
7.7071216e-20,0.0,1.3851568e-19,4.4415335e-18,1.8782641e-18
7.7071216e-20,0.0,1.3851568e-19,4.4415335e-18,1.8782641e-18
7.7071216e-20,0.0,1.3851568e-19,4.4415335e-18,1.8782641e-18
7.7071216e-20,0.0,1.3851568e-19,4.4415335e-18,1.8782641e-18
7.7071216e-20,0.0,1.3851568e-19,4.4415335e-18,1.8782641e-18
7.7071216e-20,0.0,1.3851568e-19,4.4415335e-18,1.8782641e-18
7.7071216e-20,0.0,1.3851568e-19,4.4415335e-18,1.8782641e-18
7.7071216e-20,0.0,1.3851568e-19,4.4415335e-18,1.8782641e-18
7.7071216e-20,0.0,1.3851568e-19,4.4415335e-18,1.8782641e-18
7.7071216e-20,0.0,1.3851568e-19,4.4415335e-18,1.8782641e-18
7.7071216e-20,0.0,1.3851568e-19,4.4415335e-18,1.8782641e-18
7.7071216e-20,0.0,1.3851568e-19,4.4415335e-18,1.8782641e-18
7.7071216e-20,0.0,1.3851568e-19,4.4415335e-18,1.8782641e-18
7.7071216e-20,0.0,1.3851568e-19,4.4415335e-18,1.8782641e-18
7.7071216e-20,0.0,1.3851568e-19,4.4415335e-18,1.8782641e-18
7.7071216e-20,0.0,1.3851568e-19,4.4415335e-18,1.8782641e-18
7.7071216e-20,0.0,1.3851568e-19,4.4415335e-18,1.8782641e-18
7.7071216e-20,0.0,1.3851568e-19,4.4415335e-18,1.8782641e-18
7.7071216e-20,0.0,1.3851568e-19,4.4415335e-18,1.8782641e-18
7.7071216e-20,0.0,1.3851568e-19,4.4415335e-18,1.8782641e-18
7.7071216e-20,0.0,1.3851568e-19,4.4415335e-18,1.8782641e-18
7.7071216e-20,0.0,1.3851568e-19,4.4415335e-18,1.8782641e-18
7.7071216e-20,0.0,1.3851568e-19,4.4415335e-18,1.8782641e-18
7.7071216e-20,0.0,1.3851568e-19,4.4415335e-18,1.8782641e-18
7.7071216e-20,0.0,1.3851568e-19,4.4415335e-18,1.8782641e-18
7.7071216e-20,0.0,1.3851568e-19,4.4415335e-18,1.8782641e-18
7.7071216e-20,0.0,1.3851568e-19,4.4415335e-18,1.8782641e-18
7.7071216e-20,0.0,1.3851568e-19,4.4415335e-18,1.8782641e-18
7.7071216e-20,0.0,1.3851568e-19,4.4415335e-18,1.8782641e-18
7.7071216e-20,0.0,1.3851568e-19,4.4415335e-18,1.8782641e-18
7.7071216e-20,0.0,1.3851568e-19,4.4415335e-18,1.8782641e-18
7.7071216e-20,0.0,1.3851568e-19,4.4415335e-18,1.8782641e-18
7.7071216e-20,0.0,1.3851568e-19,4.4415335e-18,1.8782641e-18
7.7071216e-20,0.0,1.3851568e-19,4.4415335e-18,1.8782641e-18
7.7071216e-20,0.0,1.3851568e-19,4.4415335e-18,1.8782641e-18
7.7071216e-20,0.0,1.3851568e-19,4.4415335e-18,1.8782641e-18
7.7071216e-20,0.0,1.3851568e-19,4.4415335e-18,1.8782641e-18
7.7071216e-20,0.0,1.3851568e-19,4.4415335e-18,1.8782641e-18
7.7071216e-20,0.0,1.3851568e-19,4.4415335e-18,1.8782641e-18
7.7071216e-20,0.0,1.3851568e-19,4.4415335e-18,1.8782641e-18
7.7071216e-20,0.0,1.3851568e-19,4.4415335e-18,1.8782641e-18
7.7071216e-20,0.0,1.3851568e-19,4.4415335e-18,1.8782641e-18
7.7071216e-20,0.0,1.3851568e-19,4.4415335e-18,1.8782641e-18
7.7071216e-20,0.0,1.3851568e-19,4.4415335e-18,1.8782641e-18
7.7071216e-20,0.0,1.3851568e-19,4.4415335e-18,1.8782641e-18
7.7071216e-20,0.0,1.3851568e-19,4.4415335e-18,1.8782641e-18
7.7071216e-20,0.0,1.3851568e-19,4.4415335e-18,1.8782641e-18
7.7071216e-20,0.0,1.3851568e-19,4.4415335e-18,1.8782641e-18
7.7071216e-20,0.0,1.3851568e-19,4.4415335e-18,1.8782641e-18
7.7071216e-20,0.0,1.3851568e-19,4.4415335e-18,1.8782641e-18
7.7071216e-20,0.0,1.3851568e-19,4.4415335e-18,1.8782641e-18
7.7071216e-20,0.0,1.3851568e-19,4.4415335e-18,1.8782641e-18
7.7071216e-20,0.0,1.3851568e-19,4.4415335e-18,1.8782641e-18
7.7071216e-20,0.0,1.3851568e-19,4.4415335e-18,1.8782641e-18
7.7071216e-20,0.0,1.3851568e-19,4.4415335e-18,1.8782641e-18
7.7071216e-20,0.0,1.3851568e-19,4.4415335e-18,1.8782641e-18
7.7071216e-20,0.0,1.3851568e-19,4.4415335e-18,1.8782641e-18
7.7071216e-20,0.0,1.3851568e-19,4.4415335e-18,1.8782641e-18
7.7071216e-20,0.0,1.3851568e-19,4.4415335e-18,1.8782641e-18
7.7071216e-20,0.0,1.3851568e-19,4.4415335e-18,1.8782641e-18
7.7071216e-20,0.0,1.3851568e-19,4.4415335e-18,1.8782641e-18
7.7071216e-20,0.0,1.3851568e-19,4.4415335e-18,1.8782641e-18
7.7071216e-20,0.0,1.3851568e-19,4.4415335e-18,1.8782641e-18
7.7071216e-20,0.0,1.3851568e-19,4.4415335e-18,1.8782641e-18
7.7071216e-20,0.0,1.3851568e-19,4.4415335e-18,1.8782641e-18
7.7071216e-20,0.0,1.3851568e-19,4.4415335e-18,1.8782641e-18
7.7071216e-20,0.0,1.3851568e-19,4.4415335e-18,1.8782641e-18
7.7071216e-20,0.0,1.3851568e-19,4.4415335e-18,1.8782641e-18
7.7071216e-20,0.0,1.3851568e-19,4.4415335e-18,1.8782641e-18
7.7071216e-20,0.0,1.3851568e-19,4.4415335e-18,1.8782641e-18
7.7071216e-20,0.0,1.3851568e-19,4.4415335e-18,1.8782641e-18
7.7071216e-20,0.0,1.3851568e-19,4.4415335e-18,1.8782641e-18
7.7071216e-20,0.0,1.3851568e-19,4.4415335e-18,1.8782641e-18
7.7071216e-20,0.0,1.3851568e-19,4.4415335e-18,1.8782641e-18
7.7071216e-20,0.0,1.3851568e-19,4.4415335e-18,1.8782641e-18
7.7071216e-20,0.0,1.3851568e-19,4.4415335e-18,1.8782641e-18
7.7071216e-20,0.0,1.3851568e-19,4.4415335e-18,1.8782641e-18
7.7071216e-20,0.0,1.3851568e-19,4.4415335e-18,1.8782641e-18
7.7071216e-20,0.0,1.3851568e-19,4.4415335e-18,1.8782641e-18
7.7071216e-20,0.0,1.3851568e-19,4.4415335e-18,1.8782641e-18
7.7071216e-20,0.0,1.3851568e-19,4.4415335e-18,1.8782641e-18
7.7071216e-20,0.0,1.3851568e-19,4.4415335e-18,1.8782641e-18
7.7071216e-20,0.0,1.3851568e-19,4.4415335e-18,1.8782641e-18
7.7071216e-20,0.0,1.3851568e-19,4.4415335e-18,1.8782641e-18
7.7071216e-20,0.0,1.3851568e-19,4.4415335e-18,1.8782641e-18
7.7071216e-20,0.0,1.3851568e-19,4.4415335e-18,1.8782641e-18
7.7071216e-20,0.0,1.3851568e-19,4.4415335e-18,1.8782641e-18
7.7071216e-20,0.0,1.3851568e-19,4.4415335e-18,1.8782641e-18
7.7071216e-20,0.0,1.3851568e-19,4.4415335e-18,1.8782641e-18
7.7071216e-20,0.0,1.3851568e-19,4.4415335e-18,1.8782641e-18
7.7071216e-20,0.0,1.3851568e-19,4.4415335e-18,1.8782641e-18
7.7071216e-20,0.0,1.3851568e-19,4.4415335e-18,1.8782641e-18
7.7071216e-20,0.0,1.3851568e-19,4.4415335e-18,1.8782641e-18
7.7071216e-20,0.0,1.3851568e-19,4.4415335e-18,1.8782641e-18
7.7071216e-20,0.0,1.3851568e-19,4.4415335e-18,1.8782641e-18
