"[299, 255]","[227, 248]","[287, 319]","[279, 328]","[230, 262]"
9.897514e-20,0.0,3.2252447e-20,4.1884774e-18,1.6939254e-18
9.897514e-20,0.0,3.2252447e-20,4.1884774e-18,1.6939254e-18
9.897514e-20,0.0,3.2252447e-20,4.1884774e-18,1.6939254e-18
9.897514e-20,0.0,3.2252447e-20,4.1884774e-18,1.6939254e-18
9.897514e-20,0.0,3.2252447e-20,4.1884774e-18,1.6939254e-18
9.897514e-20,0.0,3.2252447e-20,4.1884774e-18,1.6939254e-18
9.897514e-20,0.0,3.2252447e-20,4.1884774e-18,1.6939254e-18
9.897514e-20,0.0,3.2252447e-20,4.1884774e-18,1.6939254e-18
9.897514e-20,0.0,3.2252447e-20,4.1884774e-18,1.6939254e-18
9.897514e-20,0.0,3.2252447e-20,4.1884774e-18,1.6939254e-18
9.897514e-20,0.0,3.2252447e-20,4.1884774e-18,1.6939254e-18
9.897514e-20,0.0,3.2252447e-20,4.1884774e-18,1.6939254e-18
9.897514e-20,0.0,3.2252447e-20,4.1884774e-18,1.6939254e-18
9.897514e-20,0.0,3.2252447e-20,4.1884774e-18,1.6939254e-18
9.897514e-20,0.0,3.2252447e-20,4.1884774e-18,1.6939254e-18
0.0005430595,0.0,2.520503e-05,0.0017097986,1.6939254e-18
0.001716354,0.0,0.0031058472,0.0032491754,1.6939254e-18
9.897514e-20,0.0,6.636441e-05,6.103689e-05,1.6939254e-18
9.897514e-20,0.0,3.2252447e-20,4.1884774e-18,1.6939254e-18
9.897514e-20,0.0,3.2252447e-20,4.1884774e-18,1.6939254e-18
9.897514e-20,0.0,3.2252447e-20,4.1884774e-18,1.6939254e-18
9.897514e-20,0.0,3.2252447e-20,4.1884774e-18,1.6939254e-18
9.897514e-20,0.0,3.2252447e-20,4.1884774e-18,1.6939254e-18
9.897514e-20,0.0,3.2252447e-20,4.1884774e-18,1.6939254e-18
9.897514e-20,0.0,3.2252447e-20,4.1884774e-18,1.6939254e-18
9.897514e-20,0.0,3.2252447e-20,4.1884774e-18,1.6939254e-18
9.897514e-20,0.0,3.2252447e-20,4.1884774e-18,1.6939254e-18
9.897514e-20,0.0,3.2252447e-20,4.1884774e-18,1.6939254e-18
0.0019071696,0.0,0.00376962,0.003021993,1.6939254e-18
9.897514e-20,0.0,3.2252447e-20,4.1884774e-18,1.6939254e-18
9.897514e-20,0.0,3.2252447e-20,4.1884774e-18,1.6939254e-18
9.897514e-20,0.0,0.001133441,4.1884774e-18,1.6939254e-18
9.897514e-20,0.0,3.2252447e-20,4.1884774e-18,1.6939254e-18
9.897514e-20,0.0,3.2252447e-20,4.1884774e-18,1.6939254e-18
0.0004545823,0.0,0.0012754104,0.0022769722,4.964534e-05
0.006139035,0.0,0.0040774173,0.01228777,0.0013581009
0.002752825,0.0,0.0005731957,7.884125e-06,1.6939254e-18
0.0033842642,0.0,0.011952992,0.0029618116,1.6939254e-18
9.806625e-20,0.0,0.0012931423,8.1044134e-05,1.6939254e-18
9.806625e-20,0.0,4.1634445e-05,4.1884774e-18,1.6939254e-18
9.806625e-20,0.0,3.2252447e-20,4.1884774e-18,1.6939254e-18
9.806625e-20,0.0,3.2252447e-20,4.1884774e-18,1.6939254e-18
0.00018764411,0.0,0.0020179362,4.1884774e-18,1.6939254e-18
0.00090241886,0.0,0.014420703,0.00051680196,1.6939254e-18
0.0020953577,0.0,0.0066096676,0.007793081,0.0002810478
3.6690235e-05,0.0,0.0011726544,0.0035483912,1.6431924e-05
0.5378628,0.0,0.004041135,0.092229076,1.6939254e-18
0.08535153,0.0,0.071638845,0.04193822,1.6939254e-18
0.17192405,0.0,0.040252212,0.009100081,1.6939254e-18
0.006878176,0.0,0.0021208161,0.007406381,1.6939254e-18
0.050460123,0.0,0.0014488411,0.007329823,1.6939254e-18
0.009701197,0.0,0.008613055,0.013743096,0.0018323542
0.011383101,0.0,0.00030324675,0.0076275202,1.6939254e-18
0.008186042,0.0,0.00010599535,0.0060865325,1.6939254e-18
1.2100731e-19,0.0,8.24399e-05,0.0006869672,1.6939254e-18
1.2100731e-19,0.0,1.251406e-19,3.3437647e-18,1.6939254e-18
1.2100731e-19,0.0,1.251406e-19,3.3437647e-18,1.6939254e-18
1.2100731e-19,0.0,1.251406e-19,3.3437647e-18,1.6939254e-18
1.2100731e-19,0.0,1.251406e-19,3.3437647e-18,1.6939254e-18
1.2100731e-19,0.0,1.251406e-19,3.3437647e-18,1.6939254e-18
1.2100731e-19,0.0,1.8778083e-07,4.0320753e-08,1.6939254e-18
1.2100731e-19,0.0,0.031224888,4.432204e-10,1.6939254e-18
1.2100731e-19,0.0,8.729008e-20,3.8963524e-18,1.6939254e-18
1.2100731e-19,0.0,8.729008e-20,3.8963524e-18,1.6939254e-18
1.2100731e-19,0.0,8.729008e-20,3.8963524e-18,1.6939254e-18
1.2100731e-19,0.0,8.729008e-20,3.8963524e-18,1.6939254e-18
9.301501e-07,0.0,8.729008e-20,6.9114117e-06,1.6939254e-18
1.2100731e-19,0.0,1.2435248e-05,4.902388e-05,1.6939254e-18
1.2100731e-19,0.0,0.0024291049,0.00082937843,6.473967e-05
0.0014424846,0.0,0.011142721,0.008900114,1.304892e-06
0.0053047882,0.0,0.008038491,0.0123883765,0.00018303475
0.005836447,0.0,0.0049869977,0.0010618006,0.00040736244
3.736339e-05,0.0,0.009903393,0.005286228,5.6580557e-05
0.02143059,0.0,0.0002586117,8.292556e-06,9.610616e-05
0.016687172,0.0,1.6785898e-10,8.439781e-12,0.00072045333
0.0038011293,0.0,8.193643e-20,3.8945e-18,1.6939254e-18
8.983719e-20,0.0,8.193643e-20,3.8945e-18,1.6939254e-18
8.983719e-20,0.0,8.193643e-20,3.8945e-18,1.6939254e-18
8.983719e-20,0.0,8.193643e-20,3.8945e-18,1.6939254e-18
8.983719e-20,0.0,8.193643e-20,3.8945e-18,1.6939254e-18
0.00026083106,0.0,8.193643e-20,3.8945e-18,1.6939254e-18
0.0014018123,0.0,3.5611054e-05,0.00031757058,1.6939254e-18
8.983719e-20,0.0,8.193643e-20,3.8945e-18,1.6939254e-18
8.983719e-20,0.0,8.193643e-20,3.8945e-18,1.6939254e-18
1.5075743e-05,0.0,8.193643e-20,3.8945e-18,1.6939254e-18
8.983719e-20,0.0,8.193643e-20,3.8945e-18,1.6939254e-18
8.983719e-20,0.0,8.193643e-20,3.8945e-18,1.6939254e-18
7.8934005e-05,0.0,1.544012e-05,6.4252326e-08,1.6939254e-18
8.983719e-20,0.0,8.193643e-20,3.8945e-18,1.6939254e-18
8.983719e-20,0.0,8.193643e-20,3.8945e-18,1.6939254e-18
8.983719e-20,0.0,8.193643e-20,3.8945e-18,1.6939254e-18
0.0006352846,0.0,8.193643e-20,3.8945e-18,1.6939254e-18
0.0032055923,0.0,8.193643e-20,3.8945e-18,1.6939254e-18
8.983719e-20,0.0,8.193643e-20,3.8945e-18,1.6939254e-18
8.983719e-20,0.0,8.193643e-20,3.8945e-18,1.6939254e-18
8.983719e-20,0.0,8.193643e-20,3.8945e-18,1.6939254e-18
8.983719e-20,0.0,8.193643e-20,3.8945e-18,1.6939254e-18
8.983719e-20,0.0,8.193643e-20,3.8945e-18,1.6939254e-18
8.983719e-20,0.0,8.193643e-20,3.8945e-18,1.6939254e-18
8.983719e-20,0.0,8.193643e-20,3.8945e-18,1.6939254e-18
8.983719e-20,0.0,8.193643e-20,3.8945e-18,1.6939254e-18
8.983719e-20,0.0,8.193643e-20,0.00013389037,1.6939254e-18
8.983719e-20,0.0,8.193643e-20,3.8945e-18,1.6939254e-18
8.983719e-20,0.0,8.193643e-20,3.8945e-18,1.6939254e-18
8.983719e-20,0.0,8.193643e-20,3.8945e-18,1.6939254e-18
8.983719e-20,0.0,8.193643e-20,3.8945e-18,1.6939254e-18
0.0008225236,0.0,8.193643e-20,0.0006772814,1.6939254e-18
0.02138003,0.0,1.1695229e-08,3.8945e-18,1.6939254e-18
0.02361036,0.0,1.5370193e-05,9.149017e-07,1.6939254e-18
0.013935035,0.0,7.8353494e-20,3.8945e-18,5.702097e-05
7.541673e-20,0.0,3.9176683e-07,3.8945e-18,0.0014273035
7.541673e-20,0.0,7.8353494e-20,3.8945e-18,1.6939254e-18
7.541673e-20,0.0,7.8353494e-20,3.8945e-18,1.6939254e-18
7.541673e-20,0.0,7.8353494e-20,3.8945e-18,1.6939254e-18
7.541673e-20,0.0,7.8353494e-20,3.8945e-18,1.6939254e-18
7.541673e-20,0.0,7.8353494e-20,3.8945e-18,1.6939254e-18
7.541673e-20,0.0,7.8353494e-20,3.8945e-18,1.6939254e-18
7.541673e-20,0.0,7.8353494e-20,3.8945e-18,1.6939254e-18
7.541673e-20,0.0,7.8353494e-20,3.8945e-18,1.6939254e-18
7.541673e-20,0.0,7.8353494e-20,3.8945e-18,1.6939254e-18
7.541673e-20,0.0,0.00025924394,0.0013814108,1.6939254e-18
2.677737e-05,0.0,1.2955379e-05,3.8945e-18,4.915811e-07
0.0013707503,0.0,0.0008857511,0.00031715867,1.6939254e-18
7.541673e-20,0.0,7.8353494e-20,3.8945e-18,1.6939254e-18
5.349265e-06,0.0,1.5592314e-06,3.8945e-18,1.6939254e-18
0.00021612924,0.0,0.00014539936,3.8945e-18,3.807608e-05
7.541673e-20,0.0,6.531274e-07,5.6544613e-05,2.6282487e-05
7.541673e-20,0.0,9.741883e-05,3.4791392e-05,0.00026629385
7.541673e-20,0.0,2.8782733e-05,0.0010652937,1.3353443e-06
7.541673e-20,0.0,7.8353494e-20,3.8945e-18,8.249327e-05
0.00030041934,0.0,7.8353494e-20,3.8945e-18,0.0024859135
7.541673e-20,0.0,7.8353494e-20,0.00022274804,1.6939254e-18
7.541673e-20,0.0,7.8353494e-20,3.8945e-18,1.6939254e-18
7.541673e-20,0.0,2.361051e-06,3.8945e-18,1.6939254e-18
9.16989e-06,0.0,0.00027105745,3.8945e-18,1.6939254e-18
6.2469016e-06,0.0,0.0010950945,1.3082784e-05,0.0018067646
7.541673e-20,0.0,6.1313053e-06,3.8945e-18,8.844827e-05
0.00025090974,0.0,3.6325848e-05,3.8945e-18,2.5309359e-05
7.541673e-20,0.0,0.00028317817,3.8945e-18,0.00096293
7.541673e-20,0.0,7.8353494e-20,3.8945e-18,1.6939254e-18
7.541673e-20,0.0,7.8353494e-20,3.8945e-18,1.6939254e-18
7.541673e-20,0.0,7.8353494e-20,3.8945e-18,1.6939254e-18
1.3201975e-05,0.0,0.00012565157,1.1251171e-05,1.6939254e-18
7.541673e-20,0.0,1.9403125e-05,3.8945e-18,1.6939254e-18
7.541673e-20,0.0,7.8353494e-20,3.8945e-18,1.6939254e-18
7.541673e-20,0.0,7.8353494e-20,3.8945e-18,1.6939254e-18
7.541673e-20,0.0,7.8353494e-20,3.8945e-18,1.6939254e-18
7.541673e-20,0.0,7.8353494e-20,3.8945e-18,1.6939254e-18
0.00021510175,0.0,0.00034299458,3.8945e-18,1.6939254e-18
7.541673e-20,0.0,7.8353494e-20,3.8945e-18,1.6939254e-18
7.541673e-20,0.0,7.8353494e-20,3.8945e-18,1.6939254e-18
7.541673e-20,0.0,7.8353494e-20,3.8945e-18,1.6939254e-18
7.541673e-20,0.0,7.8353494e-20,3.8945e-18,1.6939254e-18
7.541673e-20,0.0,7.8353494e-20,3.8945e-18,1.6939254e-18
7.541673e-20,0.0,7.8353494e-20,3.8945e-18,1.6939254e-18
7.541673e-20,0.0,7.8353494e-20,3.8945e-18,1.6939254e-18
7.541673e-20,0.0,0.0007416562,3.8945e-18,1.6939254e-18
7.541673e-20,0.0,7.8353494e-20,3.8945e-18,1.6939254e-18
7.541673e-20,0.0,7.8353494e-20,3.8945e-18,1.6939254e-18
7.541673e-20,0.0,7.8353494e-20,3.8945e-18,1.6939254e-18
7.541673e-20,0.0,7.8353494e-20,3.8945e-18,1.6939254e-18
7.541673e-20,0.0,7.8353494e-20,3.8945e-18,1.6939254e-18
7.541673e-20,0.0,7.8353494e-20,3.8945e-18,1.6939254e-18
7.541673e-20,0.0,7.8353494e-20,3.8945e-18,1.6939254e-18
7.541673e-20,0.0,7.8353494e-20,3.8945e-18,1.6939254e-18
7.541673e-20,0.0,7.8353494e-20,3.8945e-18,1.6939254e-18
7.541673e-20,0.0,7.8353494e-20,3.8945e-18,1.6939254e-18
7.541673e-20,0.0,7.8353494e-20,3.8945e-18,1.6939254e-18
7.541673e-20,0.0,7.8353494e-20,3.8945e-18,1.6939254e-18
7.541673e-20,0.0,7.8353494e-20,3.8945e-18,1.6939254e-18
7.541673e-20,0.0,7.8353494e-20,3.8945e-18,1.6939254e-18
7.541673e-20,0.0,7.8353494e-20,3.8945e-18,1.6939254e-18
7.541673e-20,0.0,7.8353494e-20,3.8945e-18,1.6939254e-18
7.541673e-20,0.0,7.8353494e-20,3.8945e-18,1.6939254e-18
7.541673e-20,0.0,7.8353494e-20,3.8945e-18,1.6939254e-18
7.541673e-20,0.0,7.8353494e-20,3.8945e-18,1.6939254e-18
7.541673e-20,0.0,7.8353494e-20,3.8945e-18,1.6939254e-18
7.541673e-20,0.0,7.8353494e-20,3.8945e-18,1.6939254e-18
7.541673e-20,0.0,7.8353494e-20,3.8945e-18,1.6939254e-18
7.541673e-20,0.0,7.8353494e-20,3.8945e-18,1.6939254e-18
7.541673e-20,0.0,7.8353494e-20,3.8945e-18,1.6939254e-18
7.541673e-20,0.0,7.8353494e-20,3.8945e-18,1.6939254e-18
7.541673e-20,0.0,7.8353494e-20,3.8945e-18,1.6939254e-18
7.541673e-20,0.0,7.8353494e-20,3.8945e-18,1.6939254e-18
7.541673e-20,0.0,7.8353494e-20,3.8945e-18,1.6939254e-18
7.541673e-20,0.0,7.8353494e-20,3.8945e-18,1.6939254e-18
7.541673e-20,0.0,7.8353494e-20,3.8945e-18,1.6939254e-18
7.541673e-20,0.0,7.8353494e-20,3.8945e-18,1.6939254e-18
7.541673e-20,0.0,7.8353494e-20,3.8945e-18,1.6939254e-18
7.541673e-20,0.0,7.8353494e-20,3.8945e-18,1.6939254e-18
7.541673e-20,0.0,7.8353494e-20,3.8945e-18,1.6939254e-18
7.541673e-20,0.0,7.8353494e-20,3.8945e-18,1.6939254e-18
7.541673e-20,0.0,7.8353494e-20,3.8945e-18,1.6939254e-18
7.541673e-20,0.0,7.8353494e-20,3.8945e-18,1.6939254e-18
7.541673e-20,0.0,7.8353494e-20,3.8945e-18,1.6939254e-18
7.541673e-20,0.0,7.8353494e-20,3.8945e-18,1.6939254e-18
7.541673e-20,0.0,7.8353494e-20,3.8945e-18,1.6939254e-18
7.541673e-20,0.0,7.8353494e-20,3.8945e-18,1.6939254e-18
7.541673e-20,0.0,7.8353494e-20,3.8945e-18,1.6939254e-18
7.541673e-20,0.0,7.8353494e-20,3.8945e-18,1.6939254e-18
7.541673e-20,0.0,7.8353494e-20,3.8945e-18,1.6939254e-18
7.541673e-20,0.0,7.8353494e-20,3.8945e-18,1.6939254e-18
7.541673e-20,0.0,7.8353494e-20,3.8945e-18,1.6939254e-18
7.541673e-20,0.0,7.8353494e-20,3.8945e-18,1.6939254e-18
7.541673e-20,0.0,7.8353494e-20,3.8945e-18,1.6939254e-18
7.541673e-20,0.0,7.8353494e-20,3.8945e-18,1.6939254e-18
7.541673e-20,0.0,7.8353494e-20,3.8945e-18,1.6939254e-18
7.541673e-20,0.0,7.8353494e-20,3.8945e-18,1.6939254e-18
7.541673e-20,0.0,7.8353494e-20,3.8945e-18,1.6939254e-18
7.541673e-20,0.0,7.8353494e-20,3.8945e-18,1.6939254e-18
7.541673e-20,0.0,7.8353494e-20,3.8945e-18,1.6939254e-18
7.541673e-20,0.0,7.8353494e-20,3.8945e-18,1.6939254e-18
7.541673e-20,0.0,7.8353494e-20,3.8945e-18,1.6939254e-18
7.541673e-20,0.0,7.8353494e-20,3.8945e-18,1.6939254e-18
7.541673e-20,0.0,7.8353494e-20,3.8945e-18,1.6939254e-18
7.541673e-20,0.0,7.8353494e-20,3.8945e-18,1.6939254e-18
7.541673e-20,0.0,7.8353494e-20,3.8945e-18,1.6939254e-18
7.541673e-20,0.0,7.8353494e-20,3.8945e-18,1.6939254e-18
7.541673e-20,0.0,7.8353494e-20,3.8945e-18,1.6939254e-18
7.541673e-20,0.0,7.8353494e-20,3.8945e-18,1.6939254e-18
7.541673e-20,0.0,7.8353494e-20,3.8945e-18,1.6939254e-18
7.541673e-20,0.0,7.8353494e-20,3.8945e-18,1.6939254e-18
7.541673e-20,0.0,7.8353494e-20,3.8945e-18,1.6939254e-18
7.541673e-20,0.0,7.8353494e-20,3.8945e-18,1.6939254e-18
7.541673e-20,0.0,7.8353494e-20,3.8945e-18,1.6939254e-18
7.541673e-20,0.0,7.8353494e-20,3.8945e-18,1.6939254e-18
7.541673e-20,0.0,7.8353494e-20,3.8945e-18,1.6939254e-18
7.541673e-20,0.0,7.8353494e-20,3.8945e-18,1.6939254e-18
7.541673e-20,0.0,7.8353494e-20,3.8945e-18,1.6939254e-18
7.541673e-20,0.0,7.8353494e-20,3.8945e-18,1.6939254e-18
7.541673e-20,0.0,7.8353494e-20,3.8945e-18,1.6939254e-18
7.541673e-20,0.0,7.8353494e-20,3.8945e-18,1.6939254e-18
7.541673e-20,0.0,7.8353494e-20,3.8945e-18,1.6939254e-18
7.541673e-20,0.0,7.8353494e-20,3.8945e-18,1.6939254e-18
7.541673e-20,0.0,7.8353494e-20,3.8945e-18,1.6939254e-18
7.541673e-20,0.0,7.8353494e-20,3.8945e-18,1.6939254e-18
7.541673e-20,0.0,7.8353494e-20,3.8945e-18,1.6939254e-18
7.541673e-20,0.0,7.8353494e-20,3.8945e-18,1.6939254e-18
7.541673e-20,0.0,7.8353494e-20,3.8945e-18,1.6939254e-18
7.541673e-20,0.0,7.8353494e-20,3.8945e-18,1.6939254e-18
7.541673e-20,0.0,7.8353494e-20,3.8945e-18,1.6939254e-18
7.541673e-20,0.0,7.8353494e-20,3.8945e-18,1.6939254e-18
7.541673e-20,0.0,7.8353494e-20,3.8945e-18,1.6939254e-18
7.541673e-20,0.0,7.8353494e-20,3.8945e-18,1.6939254e-18
7.541673e-20,0.0,7.8353494e-20,3.8945e-18,1.6939254e-18
7.541673e-20,0.0,7.8353494e-20,3.8945e-18,1.6939254e-18
7.541673e-20,0.0,7.8353494e-20,3.8945e-18,1.6939254e-18
7.541673e-20,0.0,7.8353494e-20,3.8945e-18,1.6939254e-18
7.541673e-20,0.0,7.8353494e-20,3.8945e-18,1.6939254e-18
7.541673e-20,0.0,7.8353494e-20,3.8945e-18,1.6939254e-18
7.541673e-20,0.0,7.8353494e-20,3.8945e-18,1.6939254e-18
7.541673e-20,0.0,7.8353494e-20,3.8945e-18,1.6939254e-18
7.541673e-20,0.0,7.8353494e-20,3.8945e-18,1.6939254e-18
7.541673e-20,0.0,7.8353494e-20,3.8945e-18,1.6939254e-18
7.541673e-20,0.0,7.8353494e-20,3.8945e-18,1.6939254e-18
7.541673e-20,0.0,7.8353494e-20,3.8945e-18,1.6939254e-18
7.541673e-20,0.0,7.8353494e-20,3.8945e-18,1.6939254e-18
7.541673e-20,0.0,7.8353494e-20,3.8945e-18,1.6939254e-18
7.541673e-20,0.0,7.8353494e-20,3.8945e-18,1.6939254e-18
7.541673e-20,0.0,7.8353494e-20,3.8945e-18,1.6939254e-18
7.541673e-20,0.0,7.8353494e-20,3.8945e-18,1.6939254e-18
7.541673e-20,0.0,7.8353494e-20,3.8945e-18,1.6939254e-18
7.541673e-20,0.0,7.8353494e-20,3.8945e-18,1.6939254e-18
7.541673e-20,0.0,7.8353494e-20,3.8945e-18,1.6939254e-18
7.541673e-20,0.0,7.8353494e-20,3.8945e-18,1.6939254e-18
7.541673e-20,0.0,7.8353494e-20,3.8945e-18,1.6939254e-18
7.541673e-20,0.0,7.8353494e-20,3.8945e-18,1.6939254e-18
7.541673e-20,0.0,7.8353494e-20,3.8945e-18,1.6939254e-18
7.541673e-20,0.0,7.8353494e-20,3.8945e-18,1.6939254e-18
7.541673e-20,0.0,7.8353494e-20,3.8945e-18,1.6939254e-18
7.541673e-20,0.0,7.8353494e-20,3.8945e-18,1.6939254e-18
7.541673e-20,0.0,7.8353494e-20,3.8945e-18,1.6939254e-18
7.541673e-20,0.0,7.8353494e-20,3.8945e-18,1.6939254e-18
7.541673e-20,0.0,7.8353494e-20,3.8945e-18,1.6939254e-18
7.541673e-20,0.0,7.8353494e-20,3.8945e-18,1.6939254e-18
7.541673e-20,0.0,7.8353494e-20,3.8945e-18,1.6939254e-18
7.541673e-20,0.0,7.8353494e-20,3.8945e-18,1.6939254e-18
7.541673e-20,0.0,7.8353494e-20,3.8945e-18,1.6939254e-18
7.541673e-20,0.0,7.8353494e-20,3.8945e-18,1.6939254e-18
7.541673e-20,0.0,7.8353494e-20,3.8945e-18,1.6939254e-18
7.541673e-20,0.0,7.8353494e-20,3.8945e-18,1.6939254e-18
7.541673e-20,0.0,7.8353494e-20,3.8945e-18,1.6939254e-18
7.541673e-20,0.0,7.8353494e-20,3.8945e-18,1.6939254e-18
7.541673e-20,0.0,7.8353494e-20,3.8945e-18,1.6939254e-18
7.541673e-20,0.0,7.8353494e-20,3.8945e-18,1.6939254e-18
7.541673e-20,0.0,7.8353494e-20,3.8945e-18,1.6939254e-18
7.541673e-20,0.0,7.8353494e-20,3.8945e-18,1.6939254e-18
7.541673e-20,0.0,7.8353494e-20,3.8945e-18,1.6939254e-18
7.541673e-20,0.0,7.8353494e-20,3.8945e-18,1.6939254e-18
7.541673e-20,0.0,7.8353494e-20,3.8945e-18,1.6939254e-18
7.541673e-20,0.0,7.8353494e-20,3.8945e-18,1.6939254e-18
7.541673e-20,0.0,7.8353494e-20,3.8945e-18,1.6939254e-18
7.541673e-20,0.0,7.8353494e-20,3.8945e-18,1.6939254e-18
7.541673e-20,0.0,7.8353494e-20,3.8945e-18,1.6939254e-18
7.541673e-20,0.0,7.8353494e-20,3.8945e-18,1.6939254e-18
7.541673e-20,0.0,7.8353494e-20,3.8945e-18,1.6939254e-18
7.541673e-20,0.0,7.8353494e-20,3.8945e-18,1.6939254e-18
7.541673e-20,0.0,7.8353494e-20,3.8945e-18,1.6939254e-18
7.541673e-20,0.0,7.8353494e-20,3.8945e-18,1.6939254e-18
7.541673e-20,0.0,7.8353494e-20,3.8945e-18,1.6939254e-18
7.541673e-20,0.0,7.8353494e-20,3.8945e-18,1.6939254e-18
7.541673e-20,0.0,7.8353494e-20,3.8945e-18,1.6939254e-18
7.541673e-20,0.0,7.8353494e-20,3.8945e-18,1.6939254e-18
7.541673e-20,0.0,7.8353494e-20,3.8945e-18,1.6939254e-18
7.541673e-20,0.0,7.8353494e-20,3.8945e-18,1.6939254e-18
7.541673e-20,0.0,7.8353494e-20,3.8945e-18,1.6939254e-18
7.541673e-20,0.0,7.8353494e-20,3.8945e-18,1.6939254e-18
7.541673e-20,0.0,7.8353494e-20,3.8945e-18,1.6939254e-18
7.541673e-20,0.0,7.8353494e-20,3.8945e-18,1.6939254e-18
7.541673e-20,0.0,7.8353494e-20,3.8945e-18,1.6939254e-18
7.541673e-20,0.0,7.8353494e-20,3.8945e-18,1.6939254e-18
7.541673e-20,0.0,7.8353494e-20,3.8945e-18,1.6939254e-18
7.541673e-20,0.0,7.8353494e-20,3.8945e-18,1.6939254e-18
7.541673e-20,0.0,7.8353494e-20,3.8945e-18,1.6939254e-18
7.541673e-20,0.0,7.8353494e-20,3.8945e-18,1.6939254e-18
7.541673e-20,0.0,7.8353494e-20,3.8945e-18,1.6939254e-18
7.541673e-20,0.0,7.8353494e-20,3.8945e-18,1.6939254e-18
7.541673e-20,0.0,7.8353494e-20,3.8945e-18,1.6939254e-18
7.541673e-20,0.0,7.8353494e-20,3.8945e-18,1.6939254e-18
7.541673e-20,0.0,7.8353494e-20,3.8945e-18,1.6939254e-18
7.541673e-20,0.0,7.8353494e-20,3.8945e-18,1.6939254e-18
7.541673e-20,0.0,7.8353494e-20,3.8945e-18,1.6939254e-18
7.541673e-20,0.0,7.8353494e-20,3.8945e-18,1.6939254e-18
7.541673e-20,0.0,7.8353494e-20,3.8945e-18,1.6939254e-18
7.541673e-20,0.0,7.8353494e-20,3.8945e-18,1.6939254e-18
7.541673e-20,0.0,9.43639e-08,3.8945e-18,1.6939254e-18
7.541673e-20,0.0,7.8353494e-20,3.8945e-18,1.6939254e-18
7.541673e-20,0.0,7.8353494e-20,3.8945e-18,1.6939254e-18
7.541673e-20,0.0,7.8353494e-20,3.8945e-18,1.6939254e-18
7.541673e-20,0.0,7.8353494e-20,3.8945e-18,1.6939254e-18
7.541673e-20,0.0,7.8353494e-20,3.8945e-18,1.6939254e-18
7.541673e-20,0.0,7.8353494e-20,3.8945e-18,1.6939254e-18
7.541673e-20,0.0,7.8353494e-20,3.8945e-18,1.6939254e-18
7.541673e-20,0.0,7.8353494e-20,3.8945e-18,1.6939254e-18
7.541673e-20,0.0,7.8353494e-20,3.8945e-18,1.6939254e-18
7.541673e-20,0.0,7.8353494e-20,3.8945e-18,1.6939254e-18
7.541673e-20,0.0,7.8353494e-20,3.8945e-18,1.6939254e-18
7.541673e-20,0.0,7.8353494e-20,3.8945e-18,1.6939254e-18
7.541673e-20,0.0,7.8353494e-20,3.8945e-18,1.6939254e-18
7.541673e-20,0.0,7.8353494e-20,3.8945e-18,1.6939254e-18
7.541673e-20,0.0,7.8353494e-20,3.8945e-18,1.6939254e-18
7.541673e-20,0.0,7.8353494e-20,3.8945e-18,1.6939254e-18
7.541673e-20,0.0,7.8353494e-20,3.8945e-18,1.6939254e-18
6.4777832e-06,0.0,0.00044710326,3.8945e-18,1.6939254e-18
0.0011747264,0.0,0.0024044686,3.8945e-18,1.6939254e-18
7.541673e-20,0.0,7.8353494e-20,3.8945e-18,1.6939254e-18
7.541673e-20,0.0,7.8353494e-20,3.8945e-18,1.6939254e-18
7.541673e-20,0.0,7.8353494e-20,3.8945e-18,1.6939254e-18
7.541673e-20,0.0,7.8353494e-20,3.8945e-18,1.6939254e-18
7.541673e-20,0.0,7.8353494e-20,3.8945e-18,1.6939254e-18
7.541673e-20,0.0,7.8353494e-20,3.8945e-18,1.6939254e-18
7.541673e-20,0.0,7.8353494e-20,3.8945e-18,1.6939254e-18
4.1220166e-05,0.0,0.0015577589,0.0030644361,1.6939254e-18
1.2905334e-05,0.0,0.0021377788,0.0006313219,1.6939254e-18
7.541673e-20,0.0,7.8353494e-20,3.8945e-18,1.6939254e-18
7.541673e-20,0.0,0.00073199044,3.8945e-18,1.6939254e-18
7.541673e-20,0.0,7.8353494e-20,3.8945e-18,1.6939254e-18
7.541673e-20,0.0,7.8353494e-20,3.8945e-18,1.6939254e-18
7.541673e-20,0.0,7.8353494e-20,3.8945e-18,1.6939254e-18
7.541673e-20,0.0,7.8353494e-20,3.8945e-18,1.6939254e-18
