"[299, 255]","[227, 248]","[287, 319]","[279, 328]","[230, 262]"
12.517237,16.424952,13.074366,12.958887,15.586817
11.173731,16.290918,9.816797,9.44253,15.25918
9.272608,15.024317,10.958887,10.729395,13.4005375
13.212549,16.264063,14.436426,14.396631,15.415918
10.495264,13.671534,10.186914,9.532373,11.2096195
7.5765624,14.034327,8.373194,8.109278,11.972559
11.728174,15.626123,12.268946,11.818018,14.135889
6.506738,12.251856,6.6410155,6.676172,10.517481
6.402002,14.001856,8.338526,9.201563,12.8814945
12.576319,15.305323,13.485987,13.242334,14.302637
12.213526,15.277735,13.093897,13.13833,14.22793
9.389307,13.33584,8.511621,8.6471195,11.087305
9.43545,13.902002,10.800928,10.475489,12.557032
10.028223,13.494776,10.825586,10.490625,11.605616
8.025293,12.11001,8.810205,8.451807,8.782129
6.4967284,11.180811,7.2643065,7.0179687,9.673243
5.3858886,10.837305,6.8355956,6.7638183,8.789209
5.7206054,11.668604,5.848535,6.1705565,8.5707035
5.4637694,11.225733,4.143457,5.4845214,8.329981
4.001611,9.518946,3.980371,3.6837401,6.435449
3.7157226,9.783106,3.0294433,3.1500487,7.674707
4.1476073,11.082666,3.2120605,3.3270507,8.399317
9.162989,13.778955,10.655664,10.462793,12.035791
9.8675785,13.887354,11.410059,11.322168,13.184961
9.932032,13.8067875,11.302637,11.970362,13.241114
8.830469,10.4127445,6.8890624,6.551416,9.125879
4.216699,10.367334,4.799707,4.3578124,7.9330077
6.3458495,12.476465,8.541895,7.9654784,11.621973
5.582666,11.598291,7.9015136,7.73208,10.035547
5.52041,9.461573,4.6185546,4.0311522,7.8753905
5.7020507,9.481836,3.768701,3.983789,6.947656
4.9657226,12.377344,8.5021,9.109766,10.784082
8.404932,13.063868,9.824854,9.423487,12.089014
9.663233,13.343409,11.804834,11.856836,12.4908695
9.708887,13.192286,10.889551,11.069971,12.561426
8.232325,12.746485,7.2728515,7.0211425,10.1332035
8.754053,12.708155,9.636621,9.228174,11.853907
7.1996093,12.345362,9.076319,8.801172,11.132959
5.228662,9.41958,7.488916,7.459619,8.64419
5.4969726,9.741358,7.8233886,7.8426757,8.343164
5.7430663,10.195459,7.958154,7.9745116,9.016993
6.6534667,10.431299,7.032861,7.0575194,9.4925785
8.11001,12.188868,9.516993,9.409082,10.375391
6.3905272,11.125635,7.760156,7.678613,9.62417
6.3856444,10.659082,5.8436522,5.808496,9.410547
9.953272,12.725733,10.89419,10.82461,11.971094
9.079737,12.404688,8.635401,7.858789,10.054834
4.5836425,9.21084,5.671289,5.3646483,7.299463
4.0404296,9.045313,5.0714355,4.811914,7.5230956
3.6207519,8.377588,2.924707,2.8490233,6.942529
3.0160155,8.271875,4.049707,3.8827147,6.7765136
5.3094726,11.203272,5.930078,5.705957,9.503077
6.051172,10.10708,6.172998,6.051416,8.566065
8.119532,11.899317,9.86294,9.897608,11.511621
9.439844,11.957911,9.785059,9.135157,11.430811
5.398828,9.985498,5.9935546,5.7799315,8.228907
9.037989,11.892969,9.680811,9.316553,11.389551
9.323145,11.952051,9.43252,8.943262,11.388819
7.62832,11.323877,9.140528,9.299952,10.562647
11.010157,11.669336,11.507715,12.815088,12.129297
8.329737,11.41958,10.471094,10.378809,11.325586
5.558496,10.995264,6.750879,6.610254,10.464746
7.083154,10.744043,8.199854,8.029688,9.879297
8.586084,11.153955,9.457178,9.09585,10.6974125
7.804834,11.319239,8.097315,8.136866,10.542871
9.186182,11.598291,9.401026,9.375879,10.971338
9.5567875,11.345362,10.007471,10.045557,11.184717
7.492578,10.656397,8.362207,8.134424,9.413721
7.87417,10.423243,7.567529,7.047998,9.67959
6.7105956,9.132715,7.7176757,7.284326,8.016748
4.699365,7.7186522,6.829736,6.7469726,6.258203
3.2953124,8.8988285,5.0335937,4.841699,7.577539
3.4669433,8.876123,6.2398925,6.867578,7.5733886
2.7240233,7.534326,4.661035,4.03042,6.852197
4.5680175,11.018946,5.3836913,4.9620605,10.437891
8.680567,11.281885,9.1271,9.279444,10.082911
7.2557616,10.981592,7.36416,7.433496,9.886866
6.317041,10.040918,7.67666,7.480371,8.483301
8.085352,11.265039,9.012354,8.889307,10.854151
5.989404,10.111719,7.2557616,6.686914,8.781885
9.671289,12.3146,10.565577,10.39419,11.892237
6.829736,9.537256,7.049707,7.5162597,8.95083
9.208155,12.167383,10.123438,9.775049,11.401514
7.3111815,10.639551,8.005762,7.141504,8.842432
5.4989257,8.07461,6.9310546,6.439111,7.6620116
5.3629394,8.511866,6.5492187,6.431543,7.952295
5.6131835,7.619531,5.6478515,5.2691894,6.9117675
6.3929687,8.234522,7.751123,6.9605956,7.7086425
5.737695,7.7916503,5.9652343,6.0575194,7.0086913
5.4740233,8.710352,6.150537,6.100488,7.801416
5.740625,8.245264,6.678613,6.603662,7.9642577
5.5401855,8.423487,6.297998,6.73208,7.21499
5.59292,8.421045,6.292627,6.034082,8.092188
4.5279784,8.283838,7.2865233,5.8597655,7.4811034
6.202783,7.3075194,6.639795,6.6739745,6.56582
6.3731933,8.068018,6.881738,6.7506347,8.111719
6.707666,9.003565,8.197901,8.104639,8.905909
6.04458,8.637598,7.7054687,7.628076,9.115137
3.9361815,6.8111815,5.4706054,5.5699706,6.5736327
2.970117,9.882227,4.8612304,5.7262206,9.151026
6.39541,10.223291,4.3285155,5.7171874,9.579004
4.995752,8.003321,5.8265624,5.8526855,7.3958983
4.09707,8.284327,5.666406,6.1058593,7.501367
3.5328612,7.6805663,6.9986815,7.227197,7.138574
7.018945,9.557276,7.4669433,7.6874022,8.564112
5.1598144,8.815821,7.051904,6.789209,8.499414
8.133692,9.182764,8.931055,8.758692,8.975977
7.690576,9.788233,8.326563,7.7279296,9.766504
7.975,10.313868,10.689356,10.357569,11.18667
8.18667,9.086084,10.57461,10.682764,9.904444
9.367823,10.469873,10.720118,10.602198,10.867334
11.214502,10.810694,10.497461,10.772364,11.105371
12.198633,11.084131,11.757959,12.219141,12.225977
9.041651,9.674463,9.13833,8.58169,9.060205
5.4166503,8.606104,4.6759276,4.9486327,7.5006347
7.5001464,9.698877,9.681055,9.565332,10.7755375
8.93667,8.764063,9.400049,9.26919,9.017237
8.174219,9.452295,8.95669,9.326563,9.799463
7.8094726,8.723291,9.340967,7.990869,8.948389
8.265772,8.855616,8.035547,8.98501,7.7569823
7.738672,8.389551,8.511133,8.929346,8.566065
8.518213,8.764551,9.660547,9.434229,8.923731
9.097803,11.173731,9.430811,9.579737,10.643213
9.114161,9.942774,9.572657,9.570459,9.797754
7.961328,9.896875,8.828516,8.446924,10.130274
9.938868,10.524073,10.403223,10.233301,11.256006
10.620264,10.620752,10.3146,10.423487,11.621973
7.6234374,9.217432,9.258936,8.843897,10.407862
7.572168,10.489405,8.565332,9.546289,9.66836
8.359278,10.161036,8.417139,8.299463,10.688623
10.917871,10.439112,10.668848,10.5567875,12.302881
10.558985,10.589014,10.090479,10.203516,10.83584
10.366358,10.050196,11.884424,11.384424,11.664942
10.6800785,10.134424,11.059229,10.671778,10.823145
8.452051,10.188135,8.666895,10.322168,9.55752
10.197657,10.1314945,9.2564945,9.371973,9.049463
7.955713,9.6314945,9.073389,8.857325,10.47085
9.122705,10.5689945,10.464502,9.789209,9.932764
11.579737,11.365625,11.826807,11.147364,12.196924
11.876123,10.6627445,11.183741,11.077295,11.807764
15.357569,13.2875,16.309229,16.2875,16.559961
16.39248,15.53335,16.708643,17.64541,16.153467
15.944239,15.749903,16.881495,17.156641,18.802637
15.990625,13.94961,16.625147,16.58462,16.063868
12.647364,12.839258,12.89834,13.312403,14.174707
12.964746,12.424463,14.163233,14.118555,14.866846
15.026758,13.06045,14.082666,12.776758,13.364893
15.830469,12.860254,16.663477,17.456446,15.427149
19.069971,13.687403,17.580713,17.208887,13.399073
21.572412,17.874659,20.039454,20.464502,20.245508
21.083887,16.292383,21.114405,21.518946,22.29165
18.252344,16.222315,17.13003,17.965235,18.389307
19.522364,17.1271,19.523096,20.549463,19.231836
21.989405,17.10415,19.766016,21.769922,18.952784
20.677149,19.281153,19.285791,22.549463,20.761621
14.082666,16.074121,15.652979,16.148584,17.347559
21.608057,15.561182,18.352198,20.018702,16.31167
22.833399,17.252588,20.51626,22.116602,20.253077
22.831446,20.077784,21.744776,22.97915,21.886621
23.08291,19.471094,21.978662,22.77041,22.257471
22.353418,20.13003,21.92422,23.096094,22.70547
16.6271,18.396387,18.991358,17.942774,19.126123
12.420557,17.232813,16.987696,17.889307,17.283838
13.541407,17.233545,16.5563,16.64419,17.64712
13.91958,15.868067,15.6192875,16.197657,16.458155
15.370996,14.265284,16.510157,16.924463,15.738916
15.980127,14.217188,15.197168,13.4752445,13.905664
16.83999,15.144434,18.237207,17.726465,15.891993
11.493555,14.00918,12.524561,11.599024,13.40835
10.389307,13.074121,11.03042,10.392725,13.937647
10.087793,12.935694,14.864405,14.594629,12.911036
11.45376,12.24917,13.248194,13.296289,13.3346195
13.036768,12.115137,14.149561,13.449121,13.3363285
10.609034,13.655909,15.207422,15.506006,14.301661
14.74209,14.308741,13.192041,13.479639,15.167871
16.04873,13.864161,16.214258,15.939112,14.732813
13.729883,12.771143,13.694727,14.344141,12.893702
14.209375,13.3067875,14.244043,14.168604,14.376612
15.475,13.871241,15.704493,15.593409,15.315821
13.113916,14.015772,15.493555,14.798975,15.920801
14.674219,14.1800785,14.614161,14.63418,15.65542
16.669825,14.097559,18.001856,17.393702,16.047754
14.4127445,13.144922,15.095362,14.922998,13.306299
12.889551,13.074854,13.935938,14.845118,12.969629
13.604151,14.05459,14.796289,14.527491,14.41128
17.280664,14.341944,15.761621,15.855371,15.68667
23.778711,20.123194,23.605127,24.080713,26.465235
27.006006,18.762354,27.861475,28.49209,20.460596
17.885645,15.354883,17.05752,16.85171,16.49331
17.643702,14.706446,18.562891,18.702295,17.519434
16.07168,14.890528,17.978174,17.596338,16.174707
16.465723,14.531153,18.708399,18.45791,15.372217
18.741114,15.235987,18.22964,18.863916,15.239405
16.23379,16.060694,18.741358,19.068506,19.39834
16.898096,15.619043,17.774317,17.996485,16.082422
20.592676,16.319727,17.270899,20.003809,18.141504
16.50088,15.507471,17.063868,16.815577,15.724024
14.3380375,14.830469,15.69253,15.962305,16.780176
17.829493,17.028467,19.586573,18.009912,18.231592
19.610987,17.440577,21.844141,20.999414,22.14956
17.178614,17.02749,18.497461,17.77334,17.965235
15.194483,15.32461,16.539942,16.414454,17.203272
15.042139,17.068262,17.26626,16.619776,19.969873
19.734522,17.067774,20.113184,19.246973,19.966944
21.569239,18.646875,20.778467,20.449854,18.670069
24.158594,21.021631,23.573633,23.660547,23.658838
22.954737,19.790186,24.080713,24.886133,23.20547
25.994532,20.123194,23.71377,23.70962,24.996729
21.118067,18.20376,17.748926,17.964502,18.74795
17.156885,17.814112,17.020655,17.26333,18.785547
15.859278,17.347803,15.960352,15.859034,17.553614
15.57876,17.386866,18.748682,17.956446,17.605616
18.562891,17.363672,19.147608,18.341944,16.833643
21.802149,18.399073,18.976954,20.214258,20.919092
19.02212,17.758204,19.136621,19.215479,19.930567
14.896875,17.305567,16.237696,16.657373,17.883936
17.124903,16.657862,18.184717,17.904932,18.636133
17.924707,17.938135,19.485743,19.584131,18.173487
19.098291,16.943995,20.295069,20.164454,17.369776
22.592432,17.270899,21.631983,21.73086,20.44253
21.87417,17.930079,20.183496,20.6354,20.201563
19.832178,18.278955,20.876856,20.060694,19.777002
25.027246,18.826319,20.253077,20.804834,20.245508
21.86587,18.960108,21.926172,21.239649,18.420069
23.582422,19.590235,24.036036,23.561426,23.897608
23.406641,20.528955,24.48794,25.149073,21.150537
26.569483,20.407862,27.339502,27.466944,21.285791
27.036524,21.046045,25.828516,27.012354,26.312647
19.542627,20.025537,19.367334,19.318506,18.340723
19.53628,18.20376,20.496485,20.276758,19.70254
22.09585,19.762598,22.076563,21.352198,22.596094
25.615381,20.031885,25.838282,26.506006,25.475489
28.88833,24.12002,28.43374,28.18252,25.204004
32.048973,23.744287,30.631739,31.741114,28.685205
31.253809,26.871729,31.11709,31.474512,29.403955
30.636621,26.99087,30.381006,32.060448,28.641016
28.872705,26.706446,30.751612,30.802149,28.04629
28.589258,25.7792,28.966211,31.317774,26.37002
29.592432,25.452784,30.336817,31.795313,25.451319
32.10952,26.918848,32.95791,32.509422,31.05874
31.377588,24.338526,31.485987,30.30581,24.808985
25.205957,22.288965,25.859278,23.60171,23.057764
21.17666,22.455713,21.692774,21.976221,21.665918
23.28213,22.666407,23.926416,24.319971,23.947657
28.187159,23.127832,25.975245,26.522364,25.827784
26.409327,21.953272,23.433985,23.316065,24.592676
22.818506,21.839502,21.848291,21.06582,22.395166
19.025293,20.076807,20.517237,20.848291,19.643457
22.524317,21.200342,21.306787,21.214746,22.781641
22.044336,21.038477,21.61172,22.355127,21.515772
22.5729,21.597315,23.180323,23.06338,22.400782
25.369287,23.370508,24.68252,25.314356,23.808985
27.464502,23.157373,28.500635,28.225489,25.755518
26.054102,24.554102,26.597315,27.13589,25.907862
28.544336,23.805079,27.91836,28.58047,25.776026
25.990137,21.891016,23.106592,24.274073,23.25503
23.48208,21.063623,21.217432,21.463526,21.403467
21.705225,21.05166,21.44082,20.961329,21.384668
23.402246,21.142725,21.79336,21.631983,21.673243
22.361963,20.779932,21.38125,22.277979,22.935694
23.222559,20.302637,23.49795,23.53042,21.71963
21.239893,21.675196,22.838037,21.255518,22.412012
18.79165,21.3417,21.030909,22.162012,20.99624
21.31875,20.068995,21.793116,22.801172,19.51919
18.173487,21.357813,18.518702,18.24502,20.50918
19.119043,20.462305,18.555323,18.540918,19.852686
18.745996,19.627832,19.475,18.717188,19.1979
18.604395,18.7438,19.643946,19.78628,18.280909
19.32046,18.042383,19.928858,19.801172,17.652002
18.422998,20.08706,19.33755,19.167627,19.874903
19.41543,19.199121,20.285303,20.375635,20.727686
21.696436,20.003565,22.43667,22.086817,19.406641
20.076319,20.52627,21.771631,20.440088,21.0292
18.191309,19.964258,19.256495,18.34707,19.255274
18.178614,19.672998,19.404444,17.675684,19.98623
15.650782,19.41958,18.623194,18.941065,18.464014
18.958643,20.591944,19.36416,18.370264,19.903711
18.189844,20.202051,20.353174,19.637598,20.04458
18.461084,20.397852,22.357325,22.108545,21.984522
23.849756,21.825586,25.397608,25.141993,21.704248
24.44082,22.338526,25.88711,25.366602,22.208155
22.03628,23.825586,26.143702,26.802881,23.818995
21.347315,21.137598,23.026514,23.575586,23.360254
25.747217,21.407618,26.10879,26.366846,24.858545
29.077784,20.954493,28.045557,27.43252,22.143457
18.95498,21.132227,19.987452,20.120508,19.998438
20.276026,20.00796,19.13833,19.524805,19.02041
16.158106,18.865137,16.06753,15.390772,17.004786
17.780176,19.294336,17.971827,17.787745,18.238184
18.953272,19.226954,18.698633,18.548487,19.437891
20.683008,19.710352,19.011866,19.6896,19.943018
15.438623,17.575098,16.288477,16.165674,16.595606
15.268213,17.718164,16.157373,15.876368,16.704004
17.330713,19.12588,17.884912,17.77505,18.478174
16.966455,18.737696,17.67666,18.965723,17.173487
18.085108,18.462305,18.551416,18.786036,19.547754
19.307764,18.913965,20.203028,19.554102,19.661768
19.52212,19.270166,20.245752,19.85415,20.100489
21.457666,20.518702,21.431055,21.800684,22.006983
22.568262,21.574854,23.639307,23.688623,23.074121
21.779932,21.488428,23.28457,23.67544,23.240137
23.83877,22.071436,25.090723,25.303858,25.849024
20.545557,19.788477,23.954004,24.45962,18.682276
20.060694,20.11709,21.234766,21.812891,19.754297
21.01333,20.194239,20.906153,21.614649,21.231592
20.956202,20.290674,21.955225,21.846094,20.0917
19.932276,20.187647,20.68545,20.713037,18.477442
19.557764,19.656397,20.1979,20.05337,18.694483
18.17544,20.280664,19.57754,19.671045,18.764795
18.545069,19.920801,18.526758,18.82168,19.880274
17.332666,19.570704,18.311426,18.698877,19.003809
19.428614,20.900537,20.166407,20.483057,21.579004
17.088526,19.8417,17.243067,16.852442,18.85464
17.540918,20.619776,18.969385,18.507471,19.964014
19.478174,20.582178,19.943995,19.701319,19.828028
16.157373,18.67837,16.112207,16.43081,16.687159
11.981592,17.072657,13.792871,14.120264,14.66128
11.514063,15.968653,12.091211,12.020166,14.269434
12.579248,17.07046,11.652735,11.740137,15.671045
13.541895,18.14004,14.859522,14.778955,16.101221
15.632959,18.78628,16.788721,16.519434,17.392725
16.596094,18.668848,18.380762,17.997705,17.497217
19.297266,19.337793,19.641016,20.278955,17.97207
15.519678,19.331446,15.888575,15.652002,17.067774
13.708399,16.836084,16.236475,16.241114,15.769678
14.04043,16.877588,15.443506,15.628565,15.155664
15.160791,19.319239,15.557032,15.356348,17.35708
15.225977,19.627588,15.826075,16.363672,17.196924
14.0550785,20.477198,15.214502,16.096582,17.812403
15.111475,20.07046,15.729883,16.737696,20.0729
16.0917,18.752832,17.367823,17.338526,17.90957
12.56753,17.09463,13.562647,13.911524,15.530176
14.452784,18.582666,15.145655,14.985987,17.460352
14.676172,18.177393,15.433741,15.264307,16.95498
17.50796,18.604883,18.100977,17.712305,18.138819
18.220362,18.537012,18.5563,19.157862,18.67959
14.209864,17.79214,14.693262,14.043848,16.004786
13.682032,18.083155,14.735254,14.680811,17.021387
16.63296,18.463526,17.111475,16.710596,17.545069
16.240381,17.739649,14.3346195,14.132959,15.646631
11.542627,16.51626,11.534815,11.379786,14.30752
11.034815,16.24331,12.599512,12.215723,14.554834
13.533106,16.926172,14.557764,14.727198,16.152979
13.74795,17.076075,14.851709,14.777246,16.010645
11.0550785,15.577784,12.37417,12.220606,13.9457035
11.237207,16.744043,14.171778,13.996241,15.343409
14.292139,16.898096,14.561182,14.346582,16.021631
15.751368,17.589258,16.156641,16.104395,16.677149
15.396143,17.569727,15.996241,15.913721,16.532618
8.470362,13.450586,10.015284,9.613428,11.055811
8.557032,15.670557,10.095362,9.191797,13.47085
12.418116,16.209375,13.520655,13.600733,15.417383
9.877344,14.857569,12.204981,11.932276,13.712061
8.959864,14.867823,10.237696,10.693262,13.460352
9.923975,15.000147,11.118067,10.926661,13.4005375
7.4671874,12.806543,9.034327,9.538721,10.818018
14.166407,16.813623,14.723291,14.428125,15.623682
8.191309,13.592676,9.080225,9.399317,10.960352
7.863916,13.189844,8.609278,8.307764,10.330713
5.7933593,11.872705,7.360742,6.4654784,8.3692875
