"[299, 255]","[227, 248]","[287, 319]","[279, 328]","[230, 262]"
12.995752,15.394434,14.354639,13.947168,14.751612
10.407618,14.369776,11.083155,10.719629,12.544825
8.962305,14.681299,8.84878,9.213526,12.816309
9.512842,14.100977,9.84878,9.363672,12.335108
8.913721,14.020166,10.292383,9.870264,12.422754
8.800684,13.20376,9.356836,9.418116,10.451075
7.164697,12.083155,7.2066894,7.0174804,9.602442
6.633447,11.702539,7.7276855,7.5284667,9.531397
6.237207,11.3207035,6.279199,6.3368163,9.534082
8.159815,13.484034,9.277246,8.243067,12.506983
11.995264,14.036036,12.821192,12.61709,13.73208
12.443262,14.38418,13.0255375,13.281885,13.751123
12.171534,14.4283695,13.208399,13.25918,13.9474125
9.040186,11.980127,7.7569823,7.4151855,9.580469
6.182031,11.381739,5.9933105,5.38833,9.599024
6.0799804,12.834131,9.601221,9.573877,11.609766
7.869531,12.954248,10.7286625,10.015528,11.945215
7.414209,12.760889,10.239405,10.200098,11.566553
8.070459,13.513819,9.918116,9.793848,12.429346
10.264551,13.709375,11.480616,11.129786,13.040186
11.521631,13.853174,12.033106,11.487696,13.564112
11.455469,14.051416,12.434229,11.8692875,13.567041
10.7582035,13.9786625,12.025782,11.152246,13.4752445
6.2279296,12.618067,7.478418,7.55166,11.51919
9.399073,13.471582,10.964746,10.884668,12.549707
7.5855956,12.629053,9.798975,9.790674,11.059473
11.441797,13.769678,12.236231,12.11001,13.084864
7.9642577,11.298487,7.9151855,7.2750487,8.766993
7.0885253,12.569483,7.5038085,7.108789,10.584864
6.912988,11.495752,8.484522,8.401026,9.960596
4.862695,10.001856,6.582422,6.5191894,8.046534
3.9220214,10.031885,5.0660644,4.9952636,7.8526855
2.0523925,9.520899,1.5682617,1.7228028,7.02749
2.7242675,9.556543,3.7159667,3.9234862,6.8253417
6.447412,12.425684,7.317041,6.679834,10.699121
5.7206054,9.412012,7.365381,6.5350585,7.9791503
4.6012206,8.506983,4.537256,4.4156737,7.4496093
4.4132323,8.057276,3.900537,4.5406737,6.4708495
4.8495116,7.252832,6.004541,6.1725097,5.8841796
4.001611,7.326074,5.0277343,5.070947,6.034082
5.434961,10.708399,5.192529,4.845361,9.481592
9.290918,12.537256,10.108301,9.782129,12.014551
6.346826,10.836084,7.5174804,6.7342772,9.036036
5.40249,10.159327,6.358545,5.8995605,7.407129
4.211328,10.073633,5.037744,5.471582,8.071436
6.963281,11.832422,8.817286,7.805078,11.268946
9.054102,11.82583,10.204004,10.0255375,11.34292
10.445215,12.041407,11.097071,11.031397,11.934717
10.894922,12.494532,11.190577,11.067286,11.998194
10.271875,12.520655,10.81045,11.024073,11.969629
7.9530272,11.21377,9.456446,9.239893,9.743311
10.818262,12.7425785,11.024805,9.998194,12.271387
12.309229,13.184229,12.52334,12.919092,12.854883
13.177393,13.105616,13.114649,13.094141,12.958399
11.6175785,13.048975,11.6036625,10.884424,12.738184
11.625147,12.839258,12.381006,11.994043,12.294825
10.720606,12.726465,12.781397,12.11709,14.114649
10.711817,12.752344,10.928125,10.382715,12.654444
9.252344,13.161768,12.465479,11.960596,12.704004
7.327295,11.937891,8.092188,7.964746,11.74917
5.9452147,11.137842,6.5279784,6.452783,10.159082
6.363916,11.428614,5.060449,5.6673827,9.968897
3.9471679,11.145899,4.028955,3.7804198,8.337305
-0.5040039,3.4430175,1.7367188,1.8414551,2.5831542
1.1976563,6.7743163,4.148584,3.5375,5.6515136
-0.72788084,5.725,1.9073731,2.1466308,5.0226073
-3.182959,2.4945312,0.41225585,0.1817871,2.244287
0.69692385,4.455713,1.9535156,2.271875,2.9652343
0.08071289,6.645654,2.4415526,2.2638183,4.576074
1.7459961,7.4847655,4.0956054,3.6512694,6.9796386
4.110986,7.9154296,4.5350585,4.3402343,7.330713
4.6512694,8.03042,5.631006,5.8009276,7.5455565
3.0611815,6.4989257,5.1388183,4.7210937,5.768701
1.3333985,8.420801,3.8150878,4.117578,5.910791
3.0321288,7.254785,3.7865233,3.8966308,5.390039
5.0575194,7.7867675,6.5375,6.770166,6.9808593
4.730371,9.22793,5.2953124,5.6029296,7.605127
6.028711,9.953272,7.1249022,7.0267577,8.925196
6.3268065,9.921778,7.8233886,7.358545,8.777491
8.399561,11.0707035,9.262598,8.864893,10.387598
7.25332,10.067774,8.301416,7.7330565,8.80752
9.869776,10.987452,8.822901,9.867823,10.327051
8.787256,10.452784,10.4942875,10.4396,9.929834
10.001612,10.288233,11.58584,11.437647,9.83584
8.413965,9.675196,8.932764,9.397608,10.650293
8.0221195,11.1158695,8.594141,8.412012,10.2286625
7.8844237,10.05459,8.814844,8.72085,9.7755375
8.558741,10.0375,8.949121,8.631739,9.788477
9.533594,11.451807,11.094873,10.689112,11.3363285
9.265528,9.853418,9.388575,9.037012,10.012354
7.6117187,10.321436,8.616358,8.72085,9.862452
9.441553,10.717676,9.624414,8.947901,10.997705
7.4325194,8.892237,6.82583,7.1683593,9.029932
6.5389647,8.915918,7.8495116,7.8651366,8.535059
3.8011718,9.220606,6.4154296,5.6615233,8.093653
7.3495116,9.19961,8.54336,8.361719,9.269434
6.751611,8.9474125,8.799952,8.360498,8.527735
8.334375,9.077539,9.247217,8.862696,9.578516
6.803125,10.001612,6.9427733,6.5350585,9.390772
8.864649,10.978174,12.54336,11.679834,11.44375
6.995752,10.059229,9.308252,9.196192,9.755762
7.79458,9.777002,8.032129,6.8126464,9.698145
9.385889,10.704248,9.391504,9.047022,10.308496
9.223291,10.920313,10.592432,10.548975,11.248194
9.290186,10.51333,10.08584,10.306299,9.926905
9.612207,10.478174,10.112452,9.652246,11.349268
9.613916,10.268946,9.714991,9.991114,10.594385
10.852442,11.183741,11.114893,10.556055,11.585596
11.416651,12.416407,12.017969,11.757959,12.7877445
8.399317,10.736719,9.657373,8.998194,10.658106
8.8771,10.16958,9.12295,9.687159,10.645411
9.698877,11.73501,10.568018,10.381006,11.212549
10.824121,10.608057,10.361475,10.209864,11.458643
10.996485,10.704004,10.995264,11.03335,11.889795
10.051661,10.178614,10.80459,10.717188,11.654444
11.878077,11.924707,12.981104,12.17251,12.708399
11.994532,11.879297,12.9317875,12.816065,13.222559
10.503077,10.650049,11.245264,11.194971,11.500879
11.235987,11.0846195,10.591211,11.903467,11.613184
8.257227,9.273096,9.253077,9.059961,9.677149
9.81167,10.712793,10.324854,10.515772,11.467188
11.100733,11.5567875,12.191309,12.346338,13.257959
8.699121,10.10708,9.526514,9.184961,10.315577
6.7347655,8.802881,8.051661,8.163721,8.441797
8.875147,9.498438,8.808252,9.310938,9.504541
7.3888183,9.016993,8.464258,8.180567,9.056055
9.134424,10.185205,10.216455,10.493067,10.161768
9.930811,10.657373,10.670313,10.952295,10.260401
7.5138183,10.545313,9.937647,10.128809,10.6957035
11.0880375,9.61001,10.626856,10.267725,9.670313
9.561182,10.429346,9.99917,9.723291,10.723047
11.115137,11.481348,11.573145,12.345362,11.714014
15.174952,11.98208,12.941065,14.104151,14.782373
11.026514,11.365137,12.165918,11.819727,12.379053
9.320948,11.303614,11.715235,10.967432,11.951075
9.45376,9.429102,9.761866,9.520166,9.69668
6.934961,9.193262,9.042383,8.789942,9.69375
8.118311,8.954737,8.847071,8.796289,8.645411
9.05044,10.245996,9.593897,9.290674,9.928858
10.0377445,10.546289,10.746973,10.606592,9.959864
11.048731,11.784082,11.220362,11.375147,11.810694
9.973536,11.343653,11.871973,11.937403,11.219385
11.436914,11.703272,12.462549,12.286036,11.522852
11.638575,10.699366,11.825342,11.580225,10.521875
13.704004,11.126856,13.763575,13.943018,13.885157
15.704248,12.147852,17.3417,17.038965,14.345118
16.193506,11.369776,14.306055,12.827295,11.549952
10.542627,11.991114,11.915674,12.64126,12.438379
14.089746,11.467432,14.586817,13.523096,13.826563
15.414698,13.461573,17.097803,16.488672,14.455225
15.871485,15.212061,17.35415,19.258204,15.9908695
16.668848,16.42666,16.875635,18.415186,17.441797
17.494776,17.439112,17.498926,17.588037,18.730127
19.866114,17.819727,19.735743,20.716455,20.681543
18.491114,17.853662,19.073633,19.925928,18.975733
19.228174,15.922022,20.030176,20.155176,17.957178
10.731348,14.656153,13.109034,13.122461,13.014307
11.575342,11.424707,12.889551,12.542139,11.271875
10.882959,11.952051,12.382471,12.10708,11.9752445
11.137354,11.577539,13.30044,13.39419,11.589258
14.971094,13.382959,14.469385,15.135645,14.09585
11.182032,11.10586,11.761621,11.825098,12.357325
12.54336,11.097803,11.601465,12.625391,13.385645
11.853907,13.542383,14.078028,14.052637,13.586817
15.351465,12.978907,16.129297,15.906885,14.021631
12.974024,13.014307,14.234766,14.031885,13.034082
14.951319,14.382227,14.589746,14.28628,14.624659
14.482569,15.260889,13.895166,14.18252,16.844873
13.896143,14.859278,14.089502,14.027491,14.447901
15.965967,17.537745,15.6271,16.434961,17.891016
16.35415,15.402002,16.39004,17.090235,15.361475
12.626368,16.01797,15.748926,16.674463,16.426905
16.151514,16.348047,15.708643,16.851221,16.988916
20.338282,17.558985,19.343409,19.580957,19.575098
21.449854,15.848047,21.308496,21.40542,17.309961
19.729395,16.498926,20.48794,21.643457,19.652735
24.00918,16.97207,23.980127,23.61123,21.575342
24.712305,20.098047,24.613672,24.719385,21.264063
23.720362,19.920313,23.048975,23.21206,20.575098
19.246973,19.910791,21.100733,21.382715,19.696192
20.811426,19.188135,20.5917,20.530909,19.37832
21.392725,21.36831,18.849268,18.76211,21.853662
16.732325,18.575098,15.472559,15.640284,18.126856
14.670069,16.219873,15.381739,15.286036,16.23672
17.631739,16.28921,16.15713,16.55166,15.647608
12.4439945,16.950342,16.8229,18.251368,16.556787
19.886377,17.274805,19.11416,19.490137,19.603662
24.73794,18.277002,24.000391,24.047266,21.55044
26.317041,23.55166,27.301172,27.846338,25.419825
30.380274,23.496973,31.424707,32.00625,29.606348
30.930079,20.163721,26.91665,29.0375,24.516993
20.577051,19.244287,21.29922,20.57339,20.357813
22.41543,18.618555,21.89126,21.684229,21.508448
26.174463,21.955713,21.505274,22.508448,22.629297
26.235254,22.340967,22.95254,25.498194,23.412745
26.620508,21.63296,26.172998,27.535791,22.20547
23.00503,20.221827,25.487207,26.42959,20.721338
25.997217,21.58755,25.302393,25.05044,24.447168
29.386621,20.654444,27.89956,28.58755,26.346094
31.04629,23.306787,29.886621,30.904444,26.138086
27.710108,23.319483,22.888819,24.895655,25.685205
23.748194,19.822657,23.86123,23.404688,19.984034
20.851954,18.61416,21.038477,20.75918,19.69375
21.55166,19.027002,21.308985,20.475977,20.56167
24.732325,19.023829,20.976221,20.752832,20.621485
22.225489,18.906397,18.992823,19.708887,20.431055
17.07754,18.315088,16.77041,18.104395,17.323145
18.949121,18.620264,21.176172,21.11587,19.971094
17.301905,19.02749,21.528711,21.102442,19.645899
21.006983,19.059717,20.858545,20.919336,19.553125
22.396387,19.48379,24.317041,23.82168,21.459375
21.929102,19.43252,21.218409,21.898096,21.59585
24.49795,19.59292,22.690577,23.018946,21.277735
24.015772,19.950586,22.114405,20.519678,21.836817
19.840479,18.588037,19.632227,19.318018,19.147852
18.590479,18.837305,19.399073,19.11001,19.7875
21.944239,19.256739,19.275782,18.89004,20.101954
25.169825,20.074366,22.639307,22.474024,20.858545
26.550196,19.622217,26.00918,25.021143,21.237207
18.63418,19.022608,19.628809,19.131983,19.96792
19.6625,18.974024,20.350489,19.727442,19.97915
18.058008,18.842432,18.992579,18.35,19.310938
19.756983,18.629541,21.238428,20.79043,18.878077
19.468409,18.816553,20.933985,20.760645,18.879786
21.43252,19.466944,21.43374,21.101221,20.051905
20.238184,20.074854,22.613672,22.349024,22.249903
19.722803,18.653223,20.510645,20.020166,19.729883
16.73208,19.34585,15.827295,17.345606,18.702295
17.833643,18.651514,19.537745,19.535791,18.604883
17.709375,18.399317,19.823145,20.093409,18.22671
18.194727,18.42251,19.845118,19.639795,18.454248
19.343897,19.548243,19.632471,19.212305,19.887598
20.338282,19.122217,20.360987,19.784082,19.925684
20.219873,19.316309,21.61172,20.77456,20.13003
23.947412,19.839014,22.442286,22.572657,21.448877
21.488916,19.78213,23.074366,22.68252,21.303614
23.783594,20.357325,23.38296,22.519922,20.061426
17.120264,19.491114,23.424952,23.43081,19.771631
20.966455,19.179346,21.152979,20.41665,19.609034
18.810205,19.94668,21.7792,21.153711,21.574854
20.709375,18.664942,24.107325,23.521387,19.427881
23.162745,20.928614,25.25088,24.005274,20.968164
26.723291,22.479395,27.660303,27.441065,27.344873
27.689112,22.628565,29.10171,29.441553,26.314356
24.211573,20.948877,25.228662,24.46792,20.177393
23.19961,20.867823,23.565332,23.725733,20.629053
22.36709,20.25503,23.091211,22.79873,20.845606
22.865381,21.028955,22.454248,22.125635,21.126856
21.786524,21.022608,22.918848,22.320704,21.412745
24.853907,21.504541,24.078272,22.58462,24.660303
25.793116,22.281641,27.417383,26.923243,22.969141
26.42544,23.211573,28.339746,27.691309,23.503077
27.125635,24.453028,29.341455,29.390284,24.464502
25.979395,23.263086,28.440088,28.886621,26.86123
27.023829,24.917627,26.38833,26.376856,24.958887
25.581202,24.29214,26.512842,27.77505,23.473047
20.457422,23.577784,21.704248,22.267725,23.70791
24.583399,22.60464,27.045313,26.431055,22.92666
25.32998,22.842188,26.123926,26.829493,24.415674
25.216944,21.80337,25.420557,25.44253,22.470606
24.667383,20.824366,26.031885,25.299707,20.908838
24.511621,21.221827,23.451319,23.47915,22.640772
24.300684,21.02041,21.029688,19.95254,20.331934
19.24917,20.349756,19.544825,19.561426,20.209375
18.266016,19.25796,19.895899,19.995752,19.470606
18.208887,20.278467,19.899317,19.834864,19.598536
16.921534,20.429346,21.436182,21.128809,19.895899
19.764307,19.494776,20.939356,20.260645,19.480127
18.975977,20.384668,17.930567,18.12124,18.35293
16.857813,19.114649,19.304346,18.76748,19.291162
16.682276,19.07339,17.549463,17.672754,18.54458
17.052881,18.868067,18.169825,17.816065,18.029444
18.054834,19.040918,19.241846,19.737696,19.19668
19.766504,19.901514,18.30874,18.574854,19.942774
20.162989,20.143457,19.789942,20.829737,21.329004
21.447168,20.275537,22.682032,22.38833,22.237207
22.706446,20.433496,23.24624,23.139307,22.972315
22.24087,20.754541,22.9313,21.980371,22.189112
18.500391,20.374903,19.360254,19.09585,18.843164
17.19375,17.88833,17.716211,18.00332,17.584864
17.862696,19.090967,18.152979,18.141748,19.42959
18.712305,20.068995,19.57583,19.693018,21.000391
20.691797,19.772364,20.361475,20.864893,20.83462
21.71499,19.717432,21.20254,21.695215,21.362207
24.4938,20.439844,22.434961,22.790186,22.008936
23.622461,20.780909,22.876368,22.83291,22.80459
25.314844,22.768457,26.104395,26.014063,25.927393
25.197168,23.110987,25.305323,25.387598,25.076807
24.896631,25.125147,25.570948,25.873926,27.65127
25.785059,23.29043,25.957666,26.927637,26.201319
22.365381,20.761866,26.5104,25.881739,22.06338
19.235498,20.062647,19.727442,19.586573,19.430323
17.105127,19.816065,16.692774,17.082422,19.072168
17.514795,19.461084,18.329737,18.116114,17.540674
17.694239,19.239893,17.503809,16.933985,18.560205
16.705225,18.821436,16.979395,16.75332,18.138575
16.028955,18.611963,17.511866,16.12002,17.761866
18.002588,20.217432,18.469385,18.357569,19.98794
17.625635,20.117823,18.50918,18.205957,20.135157
18.872217,20.169092,19.685205,19.756006,20.54873
21.402979,20.03335,21.0104,21.137354,21.481348
21.931055,19.730616,21.248438,20.818018,21.327784
22.82461,19.397364,20.608057,21.287989,20.80581
20.023096,19.970606,20.093409,19.6354,20.199854
15.53628,17.708643,16.304834,15.933252,16.768457
15.968164,18.349024,16.003809,16.475,17.569483
14.921534,17.27334,14.855371,14.410547,15.995996
14.996729,18.574121,15.454248,15.754053,17.327051
15.198877,18.63833,16.210596,16.045801,17.48208
13.368311,17.169336,14.218653,14.511133,15.479639
14.594629,17.446436,15.812891,15.632959,16.576563
16.01504,17.849024,16.853662,16.971582,17.664942
14.748926,17.795801,17.675684,16.75625,16.792627
15.584864,17.783838,15.609278,15.469873,16.685938
13.879297,16.614649,14.582666,14.233301,15.447657
12.457178,16.401026,13.698389,13.492334,14.69961
11.350733,15.239893,10.050196,10.140284,12.854395
9.388819,13.574121,10.416651,10.111475,12.292383
11.574121,16.3417,11.641748,11.891504,14.55459
14.160791,16.396387,14.90127,15.153223,15.850489
13.8050785,16.016993,14.636133,14.330957,15.097315
13.048731,15.699121,14.328516,13.568262,15.475733
14.77627,16.997705,15.54043,15.974512,17.37417
16.311182,16.964014,15.76211,15.63833,16.556055
12.129541,15.826563,13.309961,12.912012,14.777979
12.611475,16.071924,11.758692,12.619043,14.458887
13.932276,16.957666,14.559717,14.449854,15.929102
13.281153,16.737696,13.885889,13.293848,14.556543
11.611231,15.616114,12.206934,12.096827,13.609766
14.76333,15.895655,15.348536,13.257715,14.172998
11.441797,14.462793,11.355127,11.444483,12.667871
11.008692,14.715235,11.567774,11.514551,13.269922
12.87417,15.914209,13.510157,13.086817,14.138086
12.635889,15.509668,12.339991,11.94668,15.368555
10.40542,15.202784,11.236231,11.645166,13.065821
12.795069,15.593653,13.902002,13.6627445,14.5021
13.3519535,15.475,14.383448,14.396387,14.906885
13.135889,15.631983,13.663477,13.549463,14.652979
9.444483,13.937891,10.6,10.479151,12.251368
11.011133,14.886133,11.804102,11.994776,13.954248
10.485743,15.103418,11.848047,11.868311,13.861231
7.8717284,12.7894535,8.885157,8.511133,10.501123
10.284327,14.360498,11.195215,11.65542,13.172266
6.812158,11.26919,7.860742,7.8373046,9.303125
6.1808105,11.387598,6.962793,6.3646483,8.498438
5.364404,10.873438,5.173486,6.171289,9.4300785
4.5301757,10.458155,4.416162,4.739404,9.089014
2.4654784,8.947168,3.174951,3.6761718,7.52041
3.3145995,10.249414,3.291162,3.6544433,8.257715
7.485742,13.835352,6.5145507,6.302881,12.58584
10.658106,13.987452,10.758692,10.995996,12.971338
10.127588,14.171778,12.13833,11.261621,13.731348
12.682764,14.334375,13.489893,13.736475,14.12002
12.867334,14.206446,13.490381,13.589258,13.998682
6.991113,11.848047,8.455957,7.976953,9.7792
6.792627,13.479151,8.365625,8.03042,12.089502
10.592432,14.0221195,12.241358,12.231348,12.986231
12.349268,14.378809,13.156885,13.230616,13.7582035
12.274317,14.610987,13.653467,13.723047,14.138086
12.811914,13.943262,13.495752,13.121729,13.610743
