"[299, 255]","[227, 248]","[287, 319]","[279, 328]","[230, 262]"
8.702784,12.674952,10.692041,10.539209,11.228174
8.46792,12.575586,9.749903,10.263086,11.9300785
7.8910155,11.932276,8.840235,9.900049,11.164942
7.6654296,12.230616,9.43252,9.410303,10.684473
7.5162597,11.183252,7.7035155,7.8106933,10.2113285
5.888086,10.562159,6.985986,6.997461,9.263819
7.690576,12.634668,10.106836,10.31167,11.404932
8.926661,12.542627,10.767237,10.90542,11.654932
8.335108,12.442286,9.871729,9.422998,11.905664
7.631494,12.526026,8.51626,9.201563,11.696192
10.725977,14.365381,11.068018,11.182032,14.403467
9.449121,13.630762,10.616358,10.981348,11.483789
9.360987,12.798731,10.347559,10.171045,12.170801
7.640039,12.251856,8.372705,8.444483,11.074854
6.5626464,11.573145,7.9554687,7.7730956,9.63125
5.506738,10.726221,6.807031,6.970117,8.479395
8.201319,12.368799,7.381738,8.131006,10.167139
8.599024,11.999414,7.242822,8.178125,10.112696
7.6170897,10.082911,9.744776,8.405176,8.847315
7.681787,10.495752,8.119532,7.1651855,9.379786
7.209131,12.264307,8.426416,8.089991,10.043848
7.289209,12.104883,7.658838,6.997705,9.757715
6.018457,9.842676,5.180078,5.35708,8.380518
5.011377,8.5550785,5.157373,4.867578,6.775781
4.177881,9.836573,4.0194335,3.7845702,7.480127
9.768213,12.688623,10.813868,10.5082035,11.864649
10.534571,13.35708,11.902979,11.592676,12.556299
6.655664,10.854639,7.459619,6.678613,8.779444
9.0021,12.6192875,10.362452,9.9925785,12.153711
9.0221195,12.487207,10.448145,10.046534,11.552393
9.465723,12.247217,10.395899,10.020655,10.911524
8.6002445,12.247461,9.7269535,9.403467,10.911768
8.048487,12.217188,8.720362,8.511133,11.2167
5.9830565,11.441065,7.1319823,7.2975097,9.186914
9.654932,13.016748,10.427149,9.809473,12.292383
6.584131,11.123438,7.5885253,7.2713866,9.4042
6.227197,10.703272,7.0855956,6.9068847,9.381739
12.12295,13.172022,12.210108,12.013819,12.921289
8.077295,11.808252,8.849512,9.021631,10.512598
5.2865233,9.919336,6.1373534,5.8421874,8.3146
5.497705,10.239161,6.771875,6.628076,8.604883
5.2569823,11.515039,6.5213866,5.87832,9.577295
6.7315917,11.257227,8.1002445,7.7223144,9.206446
10.922266,12.952784,11.690577,11.57168,12.515528
11.079737,13.079493,11.974512,11.481348,12.546289
4.71792,8.523096,5.2066894,5.0733886,7.0748534
6.8773437,11.614649,7.8270507,7.393213,10.233057
7.216455,11.0646,7.376367,6.9166503,9.055323
3.9720702,10.378565,2.6839843,3.2535644,7.874414
10.792383,12.450586,11.359034,11.084375,12.095362
10.829004,12.389551,11.240381,11.111719,12.073877
6.6551757,11.094141,7.3634276,7.430078,9.003565
5.766504,9.414209,7.1910644,6.723779,8.107325
4.808496,9.539698,5.845361,5.8646483,7.8409667
2.5511718,8.485498,2.917871,3.0345702,6.8893065
2.6693358,7.211572,2.2435546,2.1480956,6.042871
2.8390136,6.927881,1.9916016,1.9410645,6.202295
4.02749,9.834864,5.6100097,5.1097655,8.35
8.281885,11.4769535,9.619043,9.264551,11.331446
6.74917,10.764795,7.6239257,7.4137206,9.819239
8.411524,11.693262,8.589746,9.440821,10.936182
5.9937987,9.770166,6.4603515,5.8944335,8.031885
5.3355956,8.986963,6.402002,6.050195,8.126123
5.6356444,9.363428,6.5768065,6.4137206,7.8495116
4.940576,9.23794,6.553369,5.869043,8.205957
4.565576,8.887842,5.539697,5.5001464,6.3543944
5.8836913,10.027246,6.524072,6.3749022,8.580713
3.8939452,8.349756,3.8939452,4.709375,6.9310546
5.344629,8.576807,6.603662,6.4083495,7.3109374
4.6097655,8.33877,6.284326,6.023584,7.971338
5.461572,9.879297,7.0833983,7.127832,8.882227
6.6012206,11.140284,7.5145507,7.13125,9.895899
8.178858,10.202295,8.954737,8.356104,10.391993
8.002588,10.372217,8.530909,8.450586,9.5255375
8.600977,10.437891,8.697901,8.492823,10.185938
8.607569,10.1505375,9.217188,8.608789,9.88003
10.246729,11.385157,10.620996,10.851709,11.316797
6.879541,9.853418,6.832666,7.442041,9.214991
6.509912,10.079004,8.604151,8.418848,9.299219
9.474756,11.070215,9.016504,8.656641,10.668848
9.772852,11.010157,10.107325,9.565332,10.472803
9.340479,11.0411625,6.376123,5.941797,10.943018
7.744531,10.265528,8.761133,8.487207,10.290918
6.2591796,10.174219,6.7020507,6.4015136,8.68252
6.06167,9.250635,6.695703,6.1795897,8.069483
5.9532714,9.683985,7.1412597,7.3072753,9.181299
6.074121,8.880274,7.3646483,7.3062987,8.442286
6.404199,8.308008,7.603418,7.251123,7.85
5.9969726,8.127588,6.9066405,6.6910644,8.347315
6.8321776,8.893213,7.6356444,7.0267577,8.850733
7.7484374,9.295557,8.044336,8.413965,8.881006
7.849756,9.814844,8.82168,8.448389,9.311914
7.6151366,9.283838,8.653223,8.678858,9.017969
6.983545,9.439356,8.225733,8.194971,8.694483
6.657617,9.282373,7.1534667,7.450586,9.086573
7.383447,9.380518,7.657373,7.8836913,8.95669
5.5990233,8.362452,6.823877,6.562158,7.6793456
3.2550292,8.814356,3.5851073,3.7936034,7.7049804
5.940088,8.39126,7.2362304,7.6844726,8.076807
6.1388183,7.785547,8.551416,8.429102,8.52334
5.740381,9.407862,6.343164,6.261621,8.536036
8.943506,9.665186,7.192041,7.275537,8.629541
6.494531,9.770899,9.082178,9.517237,10.433252
6.306543,8.875879,8.751856,8.730616,8.996485
6.8216796,10.184961,8.401514,8.276026,9.794092
11.020655,10.709375,11.467676,11.15542,11.662012
12.254541,10.726221,9.713282,10.895899,10.303858
9.364161,9.866602,10.177149,10.045557,10.134668
10.955957,11.050928,11.850733,11.648584,12.402979
9.097559,9.344141,8.799952,8.388819,10.981348
8.541895,10.535791,9.50503,9.70376,10.720362
9.419092,10.340723,10.4630375,10.612207,10.871973
11.772608,11.788233,11.68545,11.831446,12.816553
11.144922,11.425928,11.256983,10.493067,12.66836
9.722803,10.794825,9.642969,9.073633,10.728418
13.6957035,11.385401,13.757227,13.87002,14.140039
12.330957,11.693018,13.347315,13.290918,14.341455
12.07461,10.285059,12.899805,13.388819,10.671534
10.699366,10.18252,9.558985,9.240137,10.802393
10.533594,10.300928,12.493555,12.185205,11.361231
8.694727,10.662012,11.879297,11.95669,9.9786625
8.301416,10.36294,9.490625,8.953516,9.231104
8.454981,9.344385,8.736719,8.507959,8.941553
8.248926,8.516016,8.448633,8.164209,8.549707
7.3338866,8.4439945,8.413721,8.676416,8.1644535
8.885401,9.129053,9.140528,9.317041,9.638086
9.004786,9.551661,10.418848,10.5099125,10.566309
7.7953124,10.041407,7.0335937,7.6239257,8.295313
8.704493,12.058252,7.2401366,6.702783,9.900293
14.240381,12.866358,8.880762,8.952539,14.876856
15.788965,12.528467,8.810938,10.760157,14.095606
9.715479,12.558008,9.452051,9.931543,12.700098
8.685694,11.498194,10.115381,9.863672,11.035547
5.579248,8.612452,6.6239257,6.6322265,7.608545
7.2765136,8.080469,8.335596,8.422998,8.359522
8.618799,8.026026,9.180323,9.078516,9.084131
10.439112,10.079981,11.332422,11.340723,9.9630375
10.828272,9.813868,11.194483,10.738916,11.899317
10.7877445,9.9769535,11.1349125,10.299707,12.033838
11.073633,10.78042,12.922998,12.758936,12.64834
12.012598,11.171045,14.440577,14.715967,13.3033695
14.7167,14.171778,12.516993,11.839014,14.125635
9.444239,11.837793,8.608057,8.136377,11.050928
9.127832,10.767237,10.940088,10.780664,10.625635
8.25625,9.374903,9.315821,8.846582,9.033106
8.919825,9.678125,9.636866,9.577539,9.49795
9.185205,10.06753,9.314356,9.814356,9.185694
8.6175785,8.735254,9.552149,9.3988285,8.833887
9.617334,9.073633,10.105371,9.666651,8.818506
7.310449,10.47378,9.56875,9.789698,12.830713
11.719873,10.122217,11.370996,10.903467,11.6314945
10.540186,10.618311,12.352198,11.929102,12.914942
8.731592,10.560938,13.096338,12.968409,11.4005375
15.291651,13.159327,14.296045,13.1002445,14.855127
13.045313,11.492334,13.890528,11.537989,11.253565
11.105127,10.933741,12.331446,11.971582,12.395411
12.362696,10.955225,12.127344,13.005518,12.826319
11.545069,10.799707,12.4596195,12.264795,12.671045
11.393213,10.2911625,11.284571,11.605371,11.105616
9.925928,10.069239,10.575342,10.224512,10.627588
10.995752,10.055323,12.266016,11.479883,10.802637
11.296045,10.756006,11.520411,11.408594,12.237696
12.510157,12.20669,14.235498,13.686426,14.88711
12.0377445,12.265772,14.906885,14.986719,14.609522
11.806543,11.751612,15.361475,14.921534,12.099512
12.847803,12.015284,13.8849125,13.1817875,14.502344
12.055811,11.901758,12.722803,12.114893,13.094141
12.321436,11.610987,13.524561,12.441797,12.433252
12.408838,12.665674,14.576563,13.884424,13.993311
14.995752,12.495996,14.474268,13.431055,14.49795
14.435694,12.444483,14.730127,15.002344,15.147364
11.569971,12.461084,11.857325,12.358789,12.334864
15.31875,12.665918,15.886621,15.249903,15.081446
14.668848,12.716211,15.099268,14.634424,14.600489
13.923487,12.863184,15.464014,15.917383,15.342188
11.15542,12.2167,12.139063,12.452784,12.374659
11.91836,12.907129,14.534815,14.215479,13.88125
13.003077,12.480127,14.60708,14.61001,12.92251
15.6314945,12.982813,16.719141,16.142237,15.923487
12.7521,13.326807,13.81045,14.114405,14.849512
14.703516,13.8050785,16.16714,16.005518,15.090235
13.49502,13.39834,14.682276,14.619776,15.650049
15.937403,13.910303,16.457666,16.409082,15.316309
16.749903,14.856592,17.123194,16.145166,19.714014
19.422998,15.902246,20.571924,20.391993,19.214502
20.106836,16.898829,22.296045,21.804102,19.874903
17.82583,16.802149,18.340479,17.937891,16.226954
24.113428,20.357813,25.158594,25.07339,25.400293
24.685938,20.383692,23.324366,22.767237,20.9938
19.567774,16.73379,20.566065,20.409082,17.462793
21.41836,18.083399,22.253565,22.19668,19.652002
21.869776,18.287012,24.72207,24.863184,19.607325
21.65542,17.248682,23.633936,23.167871,19.14956
24.91665,17.438135,23.989405,25.311914,22.12295
25.619043,18.33999,25.278467,26.326075,22.846582
24.67251,19.591211,26.476221,25.531153,24.096094
27.916162,19.526758,27.902002,27.935938,24.652735
25.50796,20.965967,23.05044,23.07046,21.695704
26.324121,22.419825,26.751368,26.857569,23.494776
27.578516,23.521875,28.841455,28.593897,26.594141
28.083399,23.706202,28.403711,29.899073,26.451319
24.937891,23.79165,25.06875,25.655664,24.845606
22.768702,22.059473,22.65835,22.913965,22.130518
25.44546,23.224756,25.832666,26.636621,23.552637
28.62295,24.432032,30.313868,30.600489,26.377588
30.117579,23.27334,29.93667,30.486475,27.892237
25.76333,20.936182,24.354395,23.807764,20.808252
17.703516,19.266504,18.738916,19.343897,19.79751
20.486963,18.481836,19.975489,20.04336,18.87417
21.59707,18.177637,20.812403,21.521875,18.829493
22.66543,18.391993,22.998926,23.375391,21.599268
26.354395,19.258448,24.891748,25.833399,23.275537
24.89541,19.568262,24.246973,25.128565,24.374659
22.561914,20.149805,23.47793,23.725977,20.01333
19.766016,18.50088,20.883692,20.990381,19.220118
18.897364,19.771875,22.040674,21.546778,20.611475
20.933496,19.698633,22.40542,21.440332,22.198877
20.44668,19.980616,21.317041,20.823633,21.45254
20.569727,19.412989,20.879297,20.428125,20.86172
20.771875,19.42251,21.700098,21.69668,21.636621
22.551905,20.345362,21.964746,22.13833,21.23208
26.389063,20.966211,25.680323,26.147608,26.354883
25.302393,20.85708,22.988916,22.925928,22.228174
23.199366,20.098047,22.242579,22.20669,20.145899
21.72915,20.081202,22.333399,22.470118,20.035059
22.948877,21.623926,24.402979,24.596338,22.170069
22.975245,21.924463,23.29043,23.699121,22.919092
23.034327,21.649805,24.683008,25.208643,21.85586
24.362207,22.908106,27.517725,27.99917,23.30874
28.968409,24.931055,32.178856,32.443504,26.944971
27.266748,25.446436,26.516016,28.858301,27.97207
30.932032,22.764551,29.600489,29.731104,28.287256
31.156885,23.293848,27.084375,26.685205,27.39956
26.815088,23.432764,24.87417,26.194239,26.755518
23.381495,22.70547,21.450586,20.798487,22.110498
22.353174,22.255762,21.240625,22.1979,21.403955
23.177393,21.284082,23.589746,23.62124,22.527735
22.91543,21.324854,21.924707,22.939844,23.446192
25.205713,21.768702,24.16128,24.410547,23.817041
23.778223,21.522852,26.083399,25.546045,24.25625
26.449366,21.856104,25.993067,25.452051,24.259424
23.676416,22.187647,25.505762,28.562647,23.278467
25.88003,22.853418,25.5729,24.624659,24.341211
24.888086,22.629297,25.812891,25.663233,23.544092
26.848047,21.68374,28.919092,28.555567,23.194971
27.92373,25.038721,29.511377,29.305323,26.231348
25.590479,25.191553,27.279688,29.062891,26.9125
29.423243,25.965235,28.834864,30.182032,27.154932
30.58462,24.917383,28.173243,29.209131,27.744532
27.817286,26.817286,29.533838,31.20376,28.260157
25.88296,23.305567,25.52041,25.668116,24.414454
27.493067,25.662989,28.703272,27.859278,25.444239
26.957666,23.932276,27.86294,28.149805,24.276758
25.94253,22.992823,26.946924,26.72671,24.770655
25.045557,22.557276,25.047266,23.964258,22.879541
23.753565,22.121973,24.322168,24.144678,24.193506
24.294336,22.141993,24.418848,24.042627,24.457666
23.824366,21.998194,23.910547,24.35586,23.129297
20.891504,21.889551,22.153711,21.20962,22.37124
20.85464,21.764307,23.949854,23.766993,22.546045
21.489893,21.371973,23.899317,23.401758,21.646875
23.766993,22.271631,24.147364,25.198877,24.346582
24.78335,21.845118,23.965235,23.76211,23.92251
22.870264,21.839258,22.643702,21.583155,21.192041
20.688623,20.653711,21.858301,21.058008,20.663233
24.378077,21.6354,21.926416,21.059961,22.214746
25.973047,21.504786,21.528223,21.276758,20.993067
20.62002,21.435694,22.815088,22.294092,19.68545
20.782862,19.780664,22.92666,23.650293,20.245996
21.36831,21.376612,21.086084,20.772608,21.606592
20.292383,21.369776,20.840723,20.68667,21.114405
19.90957,19.281885,19.800928,19.607325,19.528711
20.060694,20.815577,19.811914,20.165674,21.215235
24.400293,22.02505,23.46206,23.749903,24.085108
23.226221,20.80581,20.805079,20.252832,22.784815
23.435205,22.037256,22.393702,22.432032,23.530176
27.535059,22.708155,25.606592,25.62417,23.70376
26.309717,22.996485,23.955957,23.733057,23.71792
26.74331,22.683496,25.849024,25.652979,24.583887
21.42666,21.048243,20.934473,20.726221,22.472803
20.276758,20.715723,19.243555,19.241602,20.625147
16.474268,20.00918,19.007227,18.157618,19.758448
19.615625,20.122461,19.35415,19.360498,20.000147
18.65127,20.019434,20.126856,19.809229,20.219873
15.503077,18.960108,17.662012,17.459375,18.374659
17.110987,18.881739,18.521143,18.314356,18.98623
20.470118,20.201563,19.643946,19.949854,20.679102
18.75625,19.76748,19.630518,18.644434,19.194727
19.368555,19.555079,19.42422,19.167871,19.618067
22.030176,20.674707,20.210596,19.64834,21.582422
19.99917,19.39126,19.278955,18.889795,20.138086
19.232569,19.623926,19.036768,18.25088,19.340967
19.326563,20.508936,19.184229,18.893946,21.874659
22.311182,20.916162,21.658106,22.369532,23.758692
21.878809,22.765528,21.478174,21.201563,23.539942
17.98379,19.404444,18.935938,18.531153,19.013819
19.362452,19.534082,19.754541,18.825342,18.563135
13.082422,16.85415,15.139551,15.303614,16.698145
16.174463,17.265528,16.444483,16.224756,15.995508
17.597559,19.089502,18.192774,18.524073,18.725977
18.897852,18.83877,19.44668,19.574366,18.82168
17.844873,18.197412,19.158838,19.105127,19.418116
19.15542,18.395166,20.045801,20.01748,19.85415
18.427149,19.767237,19.405909,19.43667,20.6354
19.48672,20.749903,20.228662,20.172754,22.17959
20.099512,19.083887,20.576807,20.782862,19.608057
18.771875,19.14297,19.085596,19.29873,18.79165
18.124903,19.661524,17.850733,17.955957,20.068262
17.04165,18.799707,17.59463,17.567286,19.254541
16.671534,19.182764,17.88589,17.136621,19.04043
17.918604,19.094873,18.278223,18.82754,18.630274
17.733301,19.03213,18.522608,18.174707,19.060205
16.831934,17.830957,18.187159,18.187159,17.773829
13.473536,16.799463,13.354639,13.729639,15.242823
14.778711,18.07168,15.156885,15.582666,16.880762
13.33877,17.483301,14.075342,13.90127,15.8519535
11.442286,16.124903,13.73208,13.455713,15.040918
11.895411,15.257471,11.906885,12.142481,14.865381
12.639063,17.619043,13.058252,12.703028,17.084864
17.512354,18.018457,18.726221,18.309229,17.999414
14.543116,17.037745,15.820948,15.238184,16.682764
15.286524,18.40249,14.991602,14.370752,17.043604
13.319239,16.18081,12.59878,12.622217,14.718897
9.113184,15.12002,9.937891,9.898584,11.4786625
10.627588,14.766748,10.248926,10.000391,13.988184
11.929346,14.926172,13.01919,12.719141,14.000147
11.606348,14.621241,12.269434,11.923487,13.828028
11.411036,15.414942,13.118799,13.119776,13.728907
11.716455,16.69253,13.007227,12.472315,16.15249
14.696924,17.574121,15.715723,15.612207,16.818018
8.044825,12.965723,9.04458,8.981836,11.667627
6.8163085,13.536036,7.6720214,7.7918944,11.017969
10.169336,15.0533695,12.511621,12.312891,13.59878
12.690577,16.224268,14.110987,13.08584,15.721338
12.899805,15.907618,12.6349125,12.549707,15.352198
13.698389,16.147364,14.922266,15.139307,15.678614
13.31875,15.649317,12.904444,12.919825,14.284327
9.941065,14.25918,11.723047,10.864893,11.870752
9.692286,13.0221195,10.356104,10.224024,12.142237
9.414209,15.047022,9.676661,9.693018,14.55459
14.264551,15.553858,14.372461,14.097315,14.971094
12.820215,16.629297,14.0567875,14.0292,15.384424
12.895411,15.922998,14.183008,14.6800785,14.2875
11.934717,15.09878,12.068262,12.918848,13.439356
11.810694,14.936426,13.21377,12.670313,13.951807
10.642969,14.54458,13.200342,12.849024,13.516504
10.572901,13.96377,11.73794,11.782618,12.974024
14.210108,15.965967,14.211573,13.635645,15.777246
14.202295,16.146143,14.244043,13.947657,15.504541
12.695215,15.831446,13.423487,13.111963,14.806299
12.694483,16.525537,13.130518,13.076563,16.14419
14.636377,16.38296,14.577784,14.423243,16.019678
12.484522,15.837793,13.264795,12.614405,14.672266
8.926172,13.2425785,11.0021,10.93252,11.461084
12.458887,15.589746,10.215723,9.655664,14.74209
12.644922,15.587061,13.507715,13.327784,14.733301
7.713281,12.553125,9.287012,9.150782,10.94375
12.255518,15.496729,11.876612,10.724512,14.374659
7.850488,13.446924,9.694483,9.404932,12.217432
8.57461,13.76211,8.7599125,8.670069,12.131983
