"[299, 255]","[227, 248]","[287, 319]","[279, 328]","[230, 262]"
4.0174804,9.44961,5.879785,5.484033,8.335352
7.4847655,10.02334,6.8668456,6.2455077,8.729883
8.501368,11.308741,10.450586,10.553614,10.876612
7.221582,10.486963,9.094141,8.682764,10.039942
6.687158,10.580469,8.780664,8.30044,9.555811
7.6048827,11.364893,9.083887,8.935205,10.804102
6.5902343,11.176905,5.949365,5.87417,10.287012
6.3717284,11.387842,6.0018554,5.6913085,10.35708
1.7191406,9.018946,1.1646973,1.7276856,7.484033
0.5997559,8.058496,1.8895508,2.0069823,6.7401366
0.1908203,7.8021483,1.6524903,1.6854492,6.5421386
1.5365235,7.7779784,2.0270019,1.9955078,6.242334
-0.011816407,7.4134765,0.88735354,0.89589846,6.195703
1.1830078,7.495752,1.9552246,1.6939942,4.1725097
2.3719726,7.6534667,2.0206542,1.7589356,6.324365
1.6842285,7.3524413,1.7540528,1.6803223,3.9991698
1.9776856,9.213526,1.606836,1.3136231,3.7889647
3.2447753,9.495508,3.063623,3.5248046,5.9203124
7.3197265,11.577784,7.0384765,7.2745605,10.54751
12.314356,13.985498,12.917627,12.430323,13.807032
12.383692,13.576807,13.102686,12.370752,13.376123
8.9613285,12.5221195,6.7418456,6.451074,11.840479
9.162989,12.454248,9.981592,9.517969,11.63125
7.971582,11.92544,9.452784,9.224756,10.346338
6.396875,10.075586,6.4532714,6.244531,9.315332
5.475244,11.009668,7.0509276,6.179834,9.294336
6.088281,11.086573,5.823877,5.591699,10.432764
6.511865,10.008448,6.280664,5.737207,7.992822
3.7813964,8.962793,4.7750487,4.3319335,7.2899413
6.294336,10.500147,8.516504,8.246241,9.244043
3.485742,9.326319,4.1966796,3.9901366,7.6429687
2.2264647,8.366846,2.9183593,2.9835448,7.417627
0.7386719,8.3658695,0.29750976,0.9098145,6.3548827
7.379297,11.279932,7.505029,7.7015624,10.319971
8.652246,11.687159,4.9659667,4.7281737,10.441065
5.0580077,9.653711,4.641748,4.3844237,8.261377
9.996241,11.891016,9.829004,9.66958,11.616114
6.506738,10.35,8.136377,7.8194823,8.911036
6.4793944,10.664698,7.665918,8.121729,9.787989
5.2555175,9.871729,6.619287,6.3858886,8.221582
9.787989,11.15542,10.353907,10.460352,11.698145
9.724024,10.92251,8.934229,8.077295,10.112696
6.4583983,9.248926,6.881006,7.080713,8.214991
7.6793456,10.815088,8.449366,8.41958,10.042871
4.1969237,8.839014,5.15249,4.87124,6.634668
4.3072753,9.183252,5.7000976,5.8700194,8.204493
3.7787108,8.652246,4.361963,4.291406,7.424707
5.9537597,10.82583,7.4254394,8.065332,10.141748
8.6542,10.881983,10.191309,9.8832035,11.04043
7.7259765,10.579737,7.9535155,7.643945,10.160303
7.188867,10.501123,7.831201,7.304834,9.6332035
9.779444,11.477442,8.510645,8.385157,11.547998
11.526514,11.515039,11.866114,11.835108,11.976221
10.4925785,11.436914,10.761133,10.553125,11.190332
7.220361,10.504786,8.101709,7.770654,9.59878
10.663477,11.580225,12.099756,11.716455,12.401514
10.430811,11.241602,10.893702,11.064844,11.647852
4.552881,9.45669,4.4015136,4.485254,8.093164
3.843408,9.163233,5.0589843,5.6947265,7.4913573
5.173242,9.371485,6.0262694,6.052881,8.611719
7.022363,10.212061,9.411768,9.20083,9.292627
6.8460937,10.276026,8.2877445,8.049707,9.240137
7.5313964,10.150782,8.625635,8.437647,9.486475
7.2484374,10.152491,8.271387,8.013819,8.547754
6.8509765,9.650782,8.891016,9.381983,9.642969
7.372705,9.011133,7.9808593,8.019434,8.957422
5.223047,8.739161,8.036768,6.6546874,7.803369
6.5179687,9.462305,7.3946776,6.622705,8.181299
9.843164,11.155664,10.655176,10.333399,10.419825
11.336573,12.393457,12.707911,11.435938,13.39834
11.387842,12.429346,12.976465,12.690088,14.532862
3.6705565,10.738672,5.660547,7.3595214,7.9027343
7.713281,11.460596,7.896631,7.759668,11.7582035
9.264063,11.272364,9.820948,9.440821,11.668604
10.517237,10.827539,10.905176,10.480616,12.248438
9.295557,10.17251,9.299219,9.356836,10.2286625
5.132959,10.860498,5.103662,4.8282714,10.621485
3.3573241,10.408106,3.1637206,3.6622558,9.621485
2.3336425,6.5416503,4.2193847,4.2801757,5.6703124
3.4425292,6.522363,3.971826,3.6170897,5.334375
2.9481444,5.9415526,3.0685058,2.8260741,5.4671874
3.0460448,7.0753417,3.7665038,4.0819335,6.02041
4.559961,7.1388183,5.0367675,5.2433105,7.0716796
6.8680663,11.270655,3.2416015,3.6776366,10.413477
8.40835,10.687647,9.270166,8.913477,10.0377445
6.2118163,9.438623,7.011865,6.8233886,8.6271
4.829004,7.756494,6.1458983,5.81167,7.1500487
4.739404,7.3739257,5.461084,5.4808593,6.9532714
4.189111,7.120996,5.9798827,5.823877,5.7066894
3.3028808,5.9208007,5.7037597,5.1339355,5.021875
4.1288085,6.2328124,4.767236,4.2589355,5.895166
3.4063964,6.968408,4.7606444,4.6517577,5.606836
4.8409667,7.711572,5.8128905,5.7396483,7.1239257
6.0643554,9.152735,6.970117,6.7003417,9.268946
8.000147,9.105371,9.000879,9.145655,9.981348
6.6546874,9.347071,7.6197753,7.9325194,9.431543
6.5353026,7.1048827,7.797754,7.5626464,6.7030272
7.0492187,8.164698,8.68252,8.303614,8.341211
8.1,9.586573,9.346338,9.859034,10.22793
7.761621,10.150293,10.437891,9.509424,9.882227
8.832911,10.134668,9.906397,9.816553,10.6036625
7.5909667,9.856348,9.740625,10.696924,11.349512
10.250635,9.861719,12.612452,12.287256,12.968653
11.2755375,10.538721,10.917871,10.527246,11.457666
10.276514,10.137842,10.031397,9.209375,10.491602
6.805322,9.454004,7.6793456,7.199121,9.265772
7.0406737,7.768457,7.253076,6.954736,7.751611
6.798486,8.673731,8.607569,8.380274,8.547022
8.270411,10.209864,11.496973,11.418116,10.868799
8.761377,9.740625,9.712549,9.922022,10.032618
8.69961,9.876856,9.88003,9.4127445,10.014551
6.6187987,9.723536,8.792383,9.389551,9.1817875
8.1957035,8.488916,10.142969,10.131739,7.5697265
8.498194,9.523584,9.206934,9.02334,8.9596195
13.843653,13.090967,12.311182,13.44253,13.261866
17.610743,13.164209,16.832178,16.720118,13.5689945
16.090967,9.331446,15.70669,16.190577,12.863184
11.739649,9.694239,14.35,14.441553,10.921534
12.576319,10.774805,13.141504,13.534815,13.231104
11.87002,10.657618,13.465479,12.665918,12.9317875
9.060938,10.027979,9.045313,9.151758,11.229395
6.1405272,9.717188,9.740625,9.184473,10.199121
9.721582,9.032129,8.992823,8.537989,9.498194
9.422022,9.629053,10.198389,9.729151,9.817041
8.291651,9.35293,8.206446,9.255518,9.51333
8.155176,8.9908695,8.128809,8.102442,9.010889
8.741358,9.009668,9.398096,8.845118,8.922266
9.030909,8.700586,9.704981,9.67544,8.389795
10.344385,10.087793,11.411036,11.289698,10.273584
10.008936,9.408838,11.957178,12.493555,11.964014
11.752588,9.830713,13.281153,13.189112,11.798243
12.7721195,10.834375,13.296534,13.023096,12.196192
13.021143,10.993067,14.210596,13.583643,13.696924
12.320948,12.032129,13.001612,12.817041,12.603907
9.768213,10.976221,9.979639,10.066553,10.874414
11.10293,11.090967,11.443506,11.390039,10.819239
10.768946,9.770166,13.096582,13.296289,11.392969
13.089746,11.041407,15.887354,15.563135,14.674219
14.035303,11.611475,13.695948,14.437647,12.896143
12.409815,11.361963,12.534571,13.265772,13.014795
11.927149,12.000635,12.3814945,12.441553,12.670801
12.312403,11.713526,13.140284,12.566309,13.164209
11.908838,11.986963,13.542383,13.2582035,12.316553
11.160303,10.957178,11.746973,11.66836,10.97793
10.58584,10.955225,9.798731,10.328272,11.116358
10.681543,11.336573,11.406153,11.331202,11.261621
11.6271,11.586573,12.52334,12.554102,11.517481
9.580713,12.115137,11.354395,11.717188,13.437403
8.712549,11.323145,11.019434,10.962305,11.792871
10.276026,10.731592,9.018213,10.301416,10.300928
10.953516,11.50503,12.599024,12.174952,11.223291
12.076075,11.577051,13.583887,12.826319,12.463526
12.565821,11.927637,12.847071,12.752832,13.656397
12.600733,11.6002445,13.86294,13.865625,12.436182
9.879541,10.41958,11.21792,10.65542,9.920069
10.126612,11.093164,13.066309,12.106836,11.53335
11.473536,11.066553,12.566309,13.051172,12.796289
13.072901,11.3658695,11.823877,10.861719,13.0375
14.717432,13.079493,15.038477,15.403955,14.527002
20.321924,15.062159,19.764307,19.396631,17.629786
21.813623,19.877832,22.994287,23.329737,23.069239
18.785547,18.100489,19.699854,20.443995,20.454493
20.448877,18.581446,21.101954,21.467432,21.133936
20.566553,17.789698,20.13589,22.167871,20.445948
21.093409,17.338526,22.204493,22.297022,18.825586
14.964991,15.173243,13.611719,13.203272,15.144678
13.757959,13.664209,14.624414,14.843653,12.899073
15.815088,15.278955,17.495508,17.343653,17.761133
17.948877,15.369532,15.67959,14.459375,14.971338
17.340479,14.735743,17.970362,16.678125,14.9769535
17.797022,15.277491,18.914942,19.477686,17.429834
16.018946,14.780664,17.807276,16.60293,15.86001
13.762842,14.596338,15.1817875,15.241114,16.019678
14.263575,13.876123,15.561914,15.841455,15.508936
15.52334,14.618067,12.780909,12.558741,14.747461
14.190821,15.653223,13.900049,14.201319,15.508692
16.221338,14.479883,16.319483,14.5082035,16.5292
18.79629,15.616358,18.250635,18.449366,16.646631
21.619043,17.94961,20.087305,19.479883,20.837793
18.92959,17.446192,18.991602,19.3063,18.031641
14.517481,15.099268,16.919092,17.706202,16.599024
15.048975,15.333155,16.912745,16.464014,16.955225
17.633936,15.3346195,17.05166,18.092188,18.221094
17.848291,15.309717,16.336817,16.441553,17.333399
15.4942875,16.245264,20.656153,20.728907,17.410303
16.542871,16.057276,19.3063,19.043116,17.358057
18.983301,16.809473,14.491602,16.52749,19.356348
17.949121,17.653955,17.46206,16.984522,19.344385
20.856104,17.829004,21.026758,21.496973,20.55337
18.941797,17.139795,18.879541,18.021631,16.452051
15.819483,14.923243,17.597315,18.288477,15.886621
17.238672,16.64834,17.875147,16.778955,17.778223
15.349756,17.297266,15.313868,15.988184,17.113184
14.472803,16.403955,17.36294,18.00088,17.92666
15.635157,15.713282,18.336817,17.940577,18.455225
16.25503,16.433252,18.494776,18.849512,18.537745
18.63003,16.214014,19.196924,19.29043,18.421534
16.383448,15.587793,18.461573,19.083399,17.175196
18.830225,17.004053,18.744776,19.87832,19.538721
17.802149,16.631006,19.295313,19.331202,17.648829
19.236475,17.117334,18.86709,18.36587,19.711329
22.094873,18.101465,19.91714,20.102198,19.752832
17.150537,18.069239,17.907373,18.14419,17.876123
15.827784,18.200098,19.090723,19.125391,20.308252
16.688868,17.141016,18.694239,18.666895,19.360743
19.100489,17.681543,19.103174,19.340967,18.836817
19.50503,18.30459,19.613916,19.613672,18.683252
17.109522,19.118555,19.555079,18.688623,20.886377
16.858057,18.522852,18.079493,17.974756,18.742579
17.833399,18.288477,18.785547,18.114893,18.040918
17.95547,18.815088,17.49795,17.036036,19.464502
16.895899,17.854883,19.09878,18.798975,18.83169
18.13125,17.133448,19.97964,19.64248,17.654932
18.459131,17.350245,20.299952,19.817286,18.908594
17.817041,18.979395,19.277979,18.17129,19.532862
20.651026,19.499414,20.448633,20.219385,22.112696
25.941309,20.418116,27.533838,26.39419,26.091944
27.79873,21.113916,25.903223,25.562647,25.113184
22.632715,21.242334,23.829004,23.619287,21.6542
25.532862,21.948633,24.63711,24.753565,24.908594
21.071192,21.357569,21.876368,20.998926,21.721094
18.359278,19.614893,18.762354,18.660303,19.627344
18.380274,19.106104,18.898584,18.274317,18.401758
17.073633,19.028223,17.904932,17.437159,18.393457
18.38296,18.663721,19.566797,19.090723,18.937647
20.921778,18.532618,20.754541,20.914698,20.766993
19.951807,18.879297,19.440088,19.383448,20.933496
19.082178,19.04629,19.306543,18.313868,20.136377
16.72964,18.725977,17.325098,17.71084,17.80337
18.63296,18.46377,20.209375,19.533594,19.056055
17.95083,18.288233,18.110987,18.848536,19.242334
17.398829,18.195948,19.61416,18.749414,17.67129
17.238916,19.421778,18.931055,18.834375,20.635157
20.169336,19.344385,20.603174,20.11172,21.568018
17.628565,19.788965,17.504541,16.928858,20.65249
16.046534,19.23208,17.889551,18.086329,19.735743
18.441797,19.02627,20.587305,20.263575,19.318262
19.508936,19.691309,20.524317,19.912012,20.519434
19.429834,19.475245,21.281885,20.776758,21.062647
20.157373,19.523096,21.8854,21.240381,20.69961
23.9479,20.501612,22.418116,22.606592,21.772852
26.33706,20.910791,23.840479,23.42837,22.557276
24.642725,20.973291,23.036768,23.299463,21.744532
21.9396,20.101465,23.089014,23.541407,20.535303
23.027246,19.437403,23.464502,23.363184,22.009912
23.653223,22.58999,23.892725,23.357569,24.817286
22.29873,23.768457,22.348291,23.370264,23.728907
19.198633,21.496485,21.302881,21.314356,20.951075
23.200342,21.593653,21.787745,21.41421,21.693995
21.687403,20.714258,22.391993,21.734766,22.109034
21.04873,20.67544,20.586084,19.821924,20.059717
20.003077,20.526514,20.214258,19.540918,20.38711
19.770899,20.168848,21.420313,21.066553,20.182032
19.346338,20.183985,21.16714,21.072412,20.081934
17.254786,20.625635,18.155664,18.402735,19.6896
18.366602,19.93252,19.927881,19.730371,21.451563
19.223536,20.042871,19.80752,19.385645,20.043604
18.363428,19.920801,20.506739,20.701563,20.370508
20.287989,20.410791,21.074854,20.490381,22.26504
20.8688,21.21792,20.65835,20.335352,22.079493
21.435694,19.873926,20.823877,20.773829,21.461573
20.35,19.873438,20.047022,21.081202,20.797022
21.411036,20.20669,20.392237,21.861475,22.89419
22.009668,21.41836,21.460596,21.3229,20.876612
19.751612,19.435938,20.395899,19.498682,19.593653
21.22085,20.168604,19.75625,20.44375,18.652979
20.519434,19.92959,21.564112,20.860498,20.779688
22.120264,21.116358,22.11172,22.279444,21.02627
23.103907,20.146143,23.13711,22.926416,23.045557
25.647364,21.07876,23.275782,23.7792,23.241358
22.722559,21.61001,23.73623,23.013575,23.769922
25.759912,21.653711,24.02334,23.591455,23.625635
20.977686,21.155909,20.311914,20.39297,20.41128
21.408594,21.06582,21.234766,21.095362,20.53213
20.395655,20.754786,20.357325,20.819239,21.388819
19.118067,20.350977,18.445704,18.625147,18.944239
18.233057,20.039454,19.656153,19.391016,19.310205
18.470606,18.457422,19.19546,19.327051,18.584864
19.038477,20.057764,20.185694,20.445704,19.534082
20.53628,20.834864,21.403467,21.66543,22.626856
22.885645,21.052637,22.36294,22.549463,23.63296
24.009668,21.434229,23.110987,23.305567,24.824854
25.402246,22.104395,25.109034,24.56753,25.81338
25.831446,21.095606,24.402246,25.998926,22.627832
19.376612,20.562159,21.369776,20.874903,20.894678
18.103174,19.99087,18.337305,18.2604,18.57046
17.782618,19.908838,18.19961,18.068018,18.379053
18.807276,20.693262,18.651026,18.925196,20.31753
14.153711,18.423243,13.602198,13.230371,16.848291
17.331202,19.162012,18.067774,18.218164,19.017237
18.461084,20.17129,20.795801,20.45376,21.270166
18.877832,19.853907,20.5375,20.436426,20.709131
19.314112,20.019678,20.819727,20.291162,20.806543
19.32461,19.977198,20.573145,20.28042,20.590479
18.272852,19.759912,21.895166,21.46792,19.797998
20.508692,19.812647,22.502344,22.001368,22.178858
19.516504,19.882715,21.213282,20.826319,21.204248
18.176905,19.599024,19.485254,19.231836,20.327295
21.78457,20.416407,22.887354,22.246729,22.830957
22.820948,20.829493,23.154444,23.475733,24.354883
23.802637,22.11587,25.227442,25.016016,24.144434
22.612696,21.443262,22.523829,23.1813,24.691553
20.691309,20.304102,22.205713,22.363672,23.111963
16.614893,19.215723,18.576075,18.195215,17.617579
15.095606,18.662989,16.004053,16.409815,18.035547
13.91836,17.26797,15.500391,15.542871,15.707666
15.735498,19.076319,16.940332,17.040918,18.40957
17.518702,19.620996,19.03335,18.879053,19.320948
16.964014,19.219873,17.351221,17.116846,18.117579
15.538965,18.120752,16.59292,16.4042,17.565332
13.287989,16.917627,13.831446,13.765772,15.807032
15.119776,18.11831,16.004297,15.886621,16.90713
17.399317,18.59707,16.764795,15.604639,18.132715
15.686426,18.509912,15.972315,15.729639,17.226221
12.898096,16.709864,13.045069,13.62417,15.482569
16.290918,18.79873,17.125391,16.257471,18.120996
13.3675785,16.894922,13.170557,13.298487,15.127832
10.810694,15.252344,11.305567,11.361475,13.523096
16.434229,18.645899,16.616358,16.498438,18.240381
16.974024,18.261133,18.203516,18.04458,19.020655
15.85586,17.626856,16.817774,17.074366,17.161768
13.602686,17.385157,14.975733,14.602686,16.36172
16.441553,17.89956,16.82876,16.58047,17.470118
17.112696,18.261133,17.030909,16.55581,18.02334
17.501856,18.537256,17.964746,17.985254,18.860254
18.38296,18.994532,18.881739,17.826807,18.757227
14.864649,17.202051,14.9908695,15.152735,16.624414
13.252588,16.173975,12.8536625,13.086817,15.076563
11.679834,14.498682,10.881983,10.937403,12.753321
13.96792,20.45962,14.272364,14.168604,16.79922
18.249414,19.643946,18.506495,17.816065,18.80459
15.19961,16.917627,15.346827,15.499659,16.922998
11.567286,14.567774,12.538965,11.9613285,13.599268
11.563135,16.504297,12.927881,12.516748,14.673487
11.802637,15.315577,12.684961,12.308252,14.126368
9.769678,14.460108,11.10708,11.017481,13.042871
10.031153,14.612696,10.573389,9.166407,12.603174
11.554346,15.623926,12.15835,11.789209,14.369532
7.8531737,12.98794,9.001856,8.708643,10.629541
7.0174804,12.656641,8.616358,8.388819,11.297022
7.445459,12.478907,8.579981,8.126856,11.263575
6.8878417,11.460596,8.200342,7.9208007,10.361475
9.651758,13.120508,11.17959,11.407129,12.037256
9.735498,13.048731,10.600489,10.339258,12.0724125
10.027979,13.40835,12.437159,12.192041,13.074121
8.623194,12.98208,9.821436,9.646631,11.155664
9.56875,13.202784,9.415918,9.646143,12.143457
9.936914,13.311182,11.781153,11.692774,12.272852
10.438379,13.043848,9.760157,10.153223,12.223536
8.636621,12.152979,8.67544,9.343409,11.263575
7.0592284,10.217676,9.430811,9.677881,9.381983
5.8983397,9.044825,9.40127,9.216211,8.285059
6.4200683,8.555567,8.640284,8.359522,7.310205
4.861963,11.651758,8.166407,8.580225,9.328272
8.235987,11.649561,6.975,6.9098144,10.258936
6.8663573,10.052881,7.0143065,5.7328124,8.898096
6.899072,10.472315,5.4015136,5.390039,8.841211
6.747949,11.515284,6.5802245,6.7967772,9.635401
10.142481,13.674952,7.8600097,8.383448,12.826319
13.3675785,15.078272,14.105371,13.673487,15.04751
