"[299, 255]","[227, 248]","[287, 319]","[279, 328]","[230, 262]"
5.7455077,12.323633,6.8648925,7.0924315,9.533106
11.582422,15.141504,13.731104,13.698877,14.178614
13.140039,15.461573,14.040674,13.982569,15.018702
13.245508,15.842188,14.5863285,15.104639,15.26626
12.922022,15.536036,13.652246,13.27627,14.588282
6.8629394,11.252588,8.195948,8.283838,9.231348
5.407129,11.161036,5.6671386,5.280664,8.404932
5.817285,10.667871,7.6234374,7.6808105,8.464258
8.493067,11.319239,9.332666,9.671534,10.687159
6.632959,12.746485,5.96499,5.8075194,9.511133
11.270411,14.166651,11.930323,11.880274,13.070215
6.5174804,11.736719,7.8370605,7.1480956,9.754053
5.0802245,11.406885,5.3163085,5.150293,9.212061
10.449366,13.817286,11.368067,11.360987,12.8814945
12.396631,14.506983,12.512598,12.205469,13.794825
12.352442,14.302149,11.373682,8.057764,13.220118
5.0858397,11.290918,5.485498,5.756738,9.339014
4.8038573,11.339991,5.105127,4.8460937,9.389307
11.07461,13.947901,8.474268,8.21792,12.824121
11.718897,14.114649,12.576075,12.472071,13.614405
11.919825,14.024073,12.602198,12.573389,13.6036625
6.4552245,11.222559,6.6373534,6.308252,8.703028
5.741113,10.941553,7.15957,7.044336,9.466944
8.380762,12.907862,10.958643,10.642969,11.878077
10.35,13.174219,11.51919,11.7113285,12.458643
10.159082,12.978907,11.153467,11.480371,12.383936
5.0333495,10.06045,6.2152343,6.2379394,8.185938
5.9552245,12.2721195,6.9930663,6.490381,10.747705
7.666162,11.839258,7.38125,6.5606933,9.895166
3.8893065,9.277979,5.391748,5.44375,7.114404
4.077295,9.367334,5.155908,4.657129,8.062159
3.6898437,9.564844,4.3526855,4.1100097,7.439111
3.5484862,9.975977,3.8888183,3.7628417,7.7711425
9.464991,12.782129,9.361719,8.921289,11.920313
4.341211,8.435205,5.497461,5.098535,6.943994
4.846582,8.593897,5.101709,4.817529,6.8492675
7.35708,12.241358,6.320703,5.6603026,11.578028
10.452051,12.587549,10.511866,9.818506,12.151758
8.19375,11.498926,9.051661,8.670313,10.575586
8.524317,10.99209,8.686426,8.793848,10.79751
7.21499,10.422754,7.930078,7.175195,9.077784
6.251611,9.845118,6.169336,5.5140624,8.761866
5.7569823,10.582911,6.282861,5.528711,8.719629
6.3890624,10.341455,7.7313476,7.6808105,8.997705
8.151514,11.579493,8.562891,8.428858,10.911524
6.2694335,10.173975,7.5665526,7.838037,9.245752
6.0711913,9.299463,6.8370605,6.365869,8.353907
4.136377,8.243311,5.4635253,5.06167,7.4188476
3.6014647,7.4486327,4.706445,3.947412,6.503076
3.4435058,8.239893,2.5450683,3.3460937,7.4676757
3.9312987,8.472315,2.8114257,2.9964843,6.2159667
4.740381,10.183496,4.803613,4.877588,9.802881
9.043116,10.528711,8.648584,8.471094,11.001612
9.173731,10.702539,9.046778,9.645166,10.545313
7.5450683,10.995508,8.959131,8.975,9.975489
4.608545,8.884424,5.6856933,5.5162597,7.226709
4.008203,8.90835,4.115869,4.2345214,8.239649
3.8685546,7.805322,3.4911132,4.442285,6.765283
4.287744,9.576075,5.407617,4.904199,7.546045
5.782373,10.162989,6.428369,6.6217284,9.609034
6.120752,10.32583,7.584375,7.824121,9.780176
8.704981,10.791407,10.059961,9.636377,11.1542
7.567529,10.59292,9.146631,9.271631,10.1505375
8.804834,10.736719,10.605371,10.185938,11.043604
8.9925785,10.771875,11.323389,11.117823,11.078028
6.6686034,10.041407,8.559717,8.633448,9.233545
6.064111,8.972315,7.3836913,6.4430175,7.5138183
4.956445,9.6036625,6.494531,7.4688964,8.302881
6.573877,9.667627,9.271143,8.979395,9.484522
6.7486815,9.44253,9.305567,8.934961,9.29043
7.428613,9.995508,9.546534,9.418604,10.06875
8.759668,10.725977,10.413477,10.001612,10.419825
9.377344,11.422266,10.600977,10.173243,11.589014
5.431787,9.453272,5.8680663,5.8216796,8.360987
6.6876464,9.955225,4.0111327,4.0577636,9.516016
5.542871,7.9781737,5.9498534,6.0104003,7.3734374
4.105127,8.037989,4.6881347,4.867334,7.1344237
6.796045,10.224268,8.6896,8.784571,9.603174
3.343164,8.041895,4.2362304,3.780908,6.893213
2.9757323,6.9774413,4.601953,4.2262206,6.3458495
4.205957,7.942041,4.7987304,5.0978026,7.1568847
4.1336913,8.621973,4.7228026,4.4120116,6.8946776
4.535547,7.5091796,4.930078,4.7210937,6.836572
4.912256,7.70083,5.45083,5.225,7.1061034
4.7594237,7.8199706,5.7154784,5.96499,7.7933593
6.3895507,9.286524,6.532373,6.478662,9.10293
6.4830565,9.139063,6.1585937,6.0350585,8.605127
7.258203,9.494532,8.199121,7.7430663,9.519434
7.9625487,10.82583,8.100733,7.609033,11.116358
13.877588,11.995996,12.878809,12.418848,12.444971
13.822657,14.933985,17.86123,16.871973,18.133936
12.145166,11.6625,13.493311,13.059961,12.769922
13.046534,11.990625,11.29458,11.060205,12.0646
12.86001,11.699366,11.166895,11.060694,11.979639
9.061426,10.6349125,9.5082035,9.379053,10.552637
5.5833983,9.012842,5.7223144,5.640283,7.9063964
5.034082,10.108545,3.0001464,2.6825194,7.250879
4.9498534,8.610987,4.9937987,4.5194335,6.737451
6.0091796,8.657618,6.7796874,6.641504,8.016016
6.6319823,8.3417,7.23208,7.002588,7.908838
5.341699,8.673975,5.7940917,5.8856444,6.9327636
6.1654296,8.521143,7.077539,7.03457,7.8385253
4.581201,9.311914,6.4640136,6.672754,9.298487
8.241846,8.608545,5.6949706,5.435205,9.7877445
7.4168944,8.799707,8.065821,8.308985,8.843653
7.15542,7.7066894,7.672998,7.6898437,7.394922
5.7472167,8.774317,7.6097655,7.3355956,8.71377
5.8145995,7.5558105,6.6686034,6.7328124,7.2569823
7.777246,8.861719,7.1805663,6.660547,9.703028
5.376611,9.9300785,10.024317,9.885157,9.145899
9.596094,10.153711,10.351465,9.730616,9.95376
5.139795,9.346094,7.341211,7.0509276,7.0892577
6.049951,8.407373,7.7572265,7.5423827,8.379297
7.0799804,8.894922,8.587793,8.421289,8.404688
7.5331054,8.578028,8.760401,9.044336,8.002588
5.5885253,8.7875,7.863672,8.277735,7.268701
6.094873,8.289698,7.754785,7.374658,7.471582
7.553125,8.499659,8.724756,8.310694,8.416407
7.7345214,9.485743,10.430811,10.186914,10.341211
7.815332,11.220118,8.84878,8.1939945,10.233789
7.751123,10.209864,10.086573,9.749659,10.35586
10.414209,11.11294,10.481348,10.285303,11.125635
8.501612,9.440821,9.278223,8.882715,9.9457035
10.356348,10.850733,11.686914,11.676416,11.556055
9.289209,9.996973,10.461084,10.334864,11.305323
10.661524,11.84292,10.7521,10.213526,11.82168
10.671289,10.288477,11.108789,10.801905,11.469385
9.601221,9.943506,10.57876,10.4144535,9.830957
11.613428,10.720606,10.846827,11.228418,12.325586
12.893213,10.826075,14.875391,14.165674,14.406397
15.0375,11.324121,14.189356,13.197168,13.1349125
14.0646,11.702295,14.028467,13.464502,12.084864
15.475977,12.296534,15.299219,15.055811,13.280909
10.912012,11.033106,12.6175785,12.626612,13.058252
10.614893,10.4769535,12.644434,12.189112,11.942041
13.053858,11.16836,13.6,13.263086,13.557032
11.413721,12.200586,14.511133,14.501612,15.551172
12.006006,11.046534,16.126123,15.541651,11.201807
13.358789,10.60586,15.046289,14.520899,11.778711
10.13418,11.786524,11.181543,11.170069,11.655664
9.732813,10.483301,10.533594,10.881739,10.896387
9.123926,10.022852,10.43545,10.459131,9.774561
9.96084,10.24917,11.031153,10.285303,10.140039
10.410303,10.521143,10.358301,10.290186,11.649317
8.574366,10.885401,9.948877,10.2425785,11.413965
10.965479,10.619532,11.727686,11.423487,11.580469
11.540186,11.868555,9.582666,9.183985,11.837549
13.79336,12.946924,13.856836,12.899317,13.102442
13.714502,12.33584,14.40127,14.017481,15.001368
12.941797,11.892237,14.452295,14.034082,13.6542
12.732569,13.18252,16.057276,15.656397,13.611963
12.366114,13.015772,11.822657,12.421045,13.779688
16.109522,13.566797,15.657618,15.704737,15.404932
16.843409,13.286524,14.176416,14.405176,13.673731
15.264307,12.683252,15.634424,15.234034,15.428858
16.737452,14.642481,16.100733,16.181055,14.621485
15.605371,14.61709,16.149317,16.132715,14.23794
10.880274,11.313868,12.527979,12.378809,11.308008
12.960108,12.555567,12.845118,12.898096,11.573877
13.639063,15.607325,15.151758,15.354639,17.246973
18.60171,16.74331,18.781397,18.983301,21.847559
23.534815,15.219385,23.255274,22.438135,18.683008
13.811182,14.075098,16.317286,15.844873,16.755762
15.086573,14.160303,16.198145,16.081934,16.327784
19.853174,14.757227,17.622705,17.84878,17.450342
15.617334,14.675928,16.2167,16.977686,15.509424
14.96377,13.485743,13.964014,13.940577,15.475733
12.096338,12.28628,12.369532,11.742823,13.79043
12.233789,13.243311,13.788233,13.549707,13.229639
10.514063,13.452539,12.144434,11.747705,13.16958
11.792627,13.409082,14.795069,14.920313,15.982813
14.441309,13.722803,14.345362,14.053858,13.951075
12.068018,11.888575,13.76333,13.597559,11.133692
13.327784,12.553125,13.875391,13.362452,13.289698
11.990137,13.455469,10.78628,11.014063,11.8692875
13.0238285,13.121485,14.237452,13.692286,15.299463
14.141993,14.514307,14.684717,14.41958,14.775293
16.251856,14.225489,17.402735,17.169092,14.618067
18.2521,16.61416,20.18545,20.73672,16.608545
18.397852,17.13418,20.387598,20.739893,17.498926
19.970118,16.6,21.992334,21.965967,19.94961
19.666895,16.825342,18.671534,17.58462,17.691553
14.371241,14.175684,13.379053,13.283838,14.545557
15.275293,14.06753,15.163965,14.899073,14.066309
13.848047,13.648584,15.815821,14.979883,13.555811
13.267969,12.698389,14.015528,13.985498,13.292871
17.509912,14.784082,15.4474125,15.540674,15.686914
13.512842,14.392969,13.902979,13.534815,14.280176
12.99795,13.333399,12.698145,12.736475,14.261377
16.271387,14.86001,16.733057,16.253565,17.771875
19.135157,15.151026,18.13003,17.794336,16.871973
16.469385,15.933252,18.879786,18.513819,16.1
14.269434,15.178858,16.673243,15.82461,15.7792
16.088282,14.610254,15.548975,15.721338,15.648096
17.122705,14.864161,16.27749,15.843897,16.651026
17.029932,15.209375,15.872217,15.6192875,15.984522
18.558252,15.620752,19.38125,19.662989,18.333155
22.968897,18.800196,22.391504,21.883692,19.22793
16.79165,18.984278,17.525293,18.96792,19.608057
14.122217,15.876856,15.824121,14.8814945,15.219385
18.588282,16.26919,19.802881,19.574121,19.111475
20.14248,16.975733,19.563623,18.574366,17.72964
15.14419,17.451807,15.570459,15.509424,17.09878
16.701319,15.922022,17.058008,17.06582,17.275293
17.5375,17.69082,18.302149,18.088526,17.836817
20.573145,16.703272,20.795069,20.976221,19.741846
18.054346,16.86709,19.284327,18.47671,17.915918
15.382471,17.566797,17.534815,16.659327,20.223536
19.264307,16.78042,21.683008,21.606836,18.127588
17.231592,16.568506,19.424463,18.362696,17.344385
16.013086,16.590235,19.045557,19.01333,17.2792
21.548243,17.998926,20.61294,21.45791,19.485743
21.635645,18.879053,21.546045,21.675684,20.930567
20.948877,17.960108,21.968409,22.295801,20.417871
20.702051,19.14956,21.975977,21.965235,22.421534
19.55166,18.078028,22.329248,22.403711,20.078516
18.910791,18.130518,17.392237,18.018213,19.45083
21.319483,20.01797,21.964746,22.016748,20.308008
22.345118,20.01333,22.2167,22.221582,19.686426
23.563868,21.779932,22.610743,23.402246,22.059961
26.494043,21.541895,25.655664,25.960108,25.726465
19.908106,21.031153,21.309717,21.148829,20.668604
17.904444,19.533838,20.219141,19.651026,20.513575
21.840235,19.229395,20.433008,20.00796,20.180567
20.196436,19.089014,22.208399,22.983301,20.041162
24.781885,20.383936,21.89297,22.1,22.45498
22.637598,20.683008,21.425196,22.038233,21.432764
20.4313,19.340235,21.336329,20.950586,19.226465
20.989893,19.531641,20.892237,20.863428,19.249903
26.050196,20.101954,24.486475,23.941309,21.33169
20.857813,19.542627,22.035059,23.162745,21.848291
22.95498,20.264063,20.80459,21.015528,20.997461
24.035791,20.246485,20.589258,22.727442,21.133448
23.803125,19.43838,22.296534,22.197657,21.600977
26.283594,21.86831,23.936426,24.70498,21.826807
21.283106,22.135157,21.688868,22.792383,22.026026
22.934961,22.29336,22.542627,23.362696,22.309961
23.183985,20.881739,23.893702,23.821192,22.548487
24.893702,21.453028,24.083643,24.03213,23.85293
24.626856,21.251612,25.08706,25.581934,22.35708
23.09292,21.029932,22.632227,22.935694,22.1542
20.071924,20.607569,23.103418,22.759668,21.728174
20.237207,20.369532,21.680567,20.869776,20.516993
19.866114,19.653223,19.752588,18.887354,19.609522
18.470362,19.544336,19.485743,19.393946,20.125147
18.313135,20.779688,18.64541,18.6188,20.271143
22.933008,21.72085,25.0563,23.983545,23.608545
26.069239,21.393946,23.62832,24.236475,23.900293
25.085108,21.480371,23.123682,21.179346,21.13589
21.159327,21.824121,20.896143,21.976465,21.22207
18.580957,22.846094,19.132227,20.001123,20.810205
18.027979,21.284082,17.830713,16.951807,20.620508
20.136621,21.104883,19.766016,20.193262,21.281397
20.986963,21.003565,20.304834,20.193995,20.601465
22.128809,20.37588,22.501368,22.696924,21.832178
23.710596,22.209864,23.456446,23.58462,22.629786
23.397608,21.965967,25.660791,25.168116,21.427149
24.984034,22.59585,25.325342,25.998926,23.582178
25.342432,22.47378,26.205225,26.1542,26.903955
24.06338,22.190088,24.849024,23.562159,22.58999
24.34463,21.401758,23.000147,22.362452,20.005518
22.49624,19.77456,22.448877,22.588037,20.71255
21.965723,20.41421,22.96499,23.109278,20.929834
23.745996,20.927881,23.633448,22.863672,23.103418
20.856592,20.968164,21.555323,20.464502,20.205957
21.804346,21.324366,23.931787,23.645655,21.51797
23.518457,21.094873,24.607813,24.260157,23.19375
22.855371,22.121485,23.981348,23.840967,24.188135
24.801172,22.115381,25.459864,25.186914,25.428125
24.137598,21.60415,21.730371,21.571924,22.162256
17.619776,19.346094,17.90542,17.755518,19.217676
16.759912,17.949366,17.411524,17.572168,17.619043
17.523096,17.673243,18.101221,18.044092,17.646387
18.699366,19.299707,18.68545,18.312159,18.611475
18.893702,19.21499,19.269678,19.466455,20.239893
20.460352,20.009668,21.481104,20.757471,20.771143
21.887598,20.482325,23.144434,22.82461,22.255274
23.328028,20.853907,23.34585,24.0021,23.220118
22.133204,20.094385,20.30459,20.899805,20.390284
22.83291,20.65835,22.35708,23.17544,22.14248
24.249903,21.168848,22.506983,23.275782,22.703516
25.021875,21.528467,23.428125,24.258692,23.976465
25.20547,21.51089,23.722559,24.103418,24.051416
21.921045,20.970362,22.57583,21.332178,21.983301
25.755274,20.615625,22.99502,24.815577,22.525537
23.789454,20.886866,22.439112,22.71792,22.663477
24.55581,20.543604,20.351465,20.5563,22.29873
23.685938,20.757715,21.00332,21.084131,21.096338
18.637354,20.875635,19.515284,20.155664,21.010157
18.685694,21.11587,16.952051,16.82876,21.378077
16.430567,21.138819,16.570215,16.150293,20.168116
22.66714,22.145166,22.192774,22.06875,23.613916
21.249903,21.078272,21.687891,20.2604,20.087305
16.074121,20.07046,17.319727,17.475489,18.668848
19.172022,19.421045,20.002344,19.566309,20.028467
20.68667,20.406153,21.052881,21.21499,21.194239
21.002588,21.166407,22.090479,21.699854,22.426416
19.713526,20.30459,19.36294,18.702784,20.991358
18.147852,18.559229,16.517237,17.301416,18.880762
16.845606,18.556055,18.178125,17.42373,17.87295
18.023829,18.889551,17.726221,18.581446,18.972803
17.028711,18.359522,17.35708,17.123438,17.26333
17.235498,19.805323,19.290186,18.362207,18.445704
18.865381,19.849512,18.202784,18.897608,18.795313
18.208399,19.585596,18.802637,18.397608,19.552393
17.911524,19.088526,17.57754,17.45254,19.149317
18.538477,19.182764,18.555323,18.556055,18.643213
19.365625,19.145655,19.028467,19.027735,19.009668
20.648829,20.079493,21.353907,20.402979,19.931055
18.037989,18.995752,18.896875,18.536036,18.83291
17.539454,18.346582,17.586573,17.995508,18.552881
15.701319,18.382715,17.006495,16.58169,17.24917
15.528711,17.492334,15.070948,13.766748,16.876612
9.933252,14.068262,10.851709,10.770899,12.926905
11.538965,17.349268,14.606592,14.22793,15.668116
14.06167,17.697412,16.202295,15.4396,16.668604
14.025049,16.778955,14.561426,14.049707,15.73208
14.093164,16.919336,14.258692,13.943018,15.488428
12.483545,16.261621,13.487696,12.763819,14.339502
10.3814945,14.674219,11.064112,11.167627,13.787012
10.551172,14.282129,11.364161,11.032862,13.328516
10.6817875,15.592676,13.457911,13.384424,14.358057
12.69668,16.365381,13.857569,13.6644535,14.868799
10.459131,14.536036,12.452539,12.1002445,13.532129
9.334131,13.455225,10.469141,10.026026,11.927149
10.090723,14.427149,10.871241,10.94253,12.640772
8.782618,13.58169,11.232569,10.989893,11.863916
10.784571,14.910059,11.60586,11.877588,14.045069
12.895655,14.859766,13.814112,13.451075,14.913965
14.223047,16.64956,14.8067875,13.907373,16.120996
14.944239,15.475,15.394678,14.746485,14.496729
12.47793,15.460108,13.962793,13.606836,15.212305
11.885889,14.701075,13.5377445,13.334864,14.210352
12.091944,14.352686,13.248926,12.454004,13.741358
11.073633,14.642237,12.139551,12.471827,13.333399
12.532862,16.538477,13.51626,12.687647,16.335596
12.871241,16.379053,13.160791,13.738428,15.968653
13.784327,16.610743,14.181055,14.254786,16.664698
13.903955,16.738184,14.514307,14.461573,16.73672
14.673243,16.672266,15.670801,15.379786,16.015772
14.171534,15.75918,14.264795,14.6939945,15.7721195
15.380518,16.72207,15.963282,15.552637,16.797754
12.067286,15.189356,13.176416,13.350733,14.359278
10.442774,14.709375,11.855616,11.568506,12.566797
8.724268,11.960352,8.340235,8.359034,10.521875
11.580713,14.927393,11.269434,10.636133,13.327784
10.271875,14.13125,10.956934,10.991846,12.38125
10.578516,14.720362,11.333399,11.203272,13.345362
10.334864,14.148096,12.288965,12.031153,13.171534
10.550684,14.768457,12.101221,11.411036,13.605371
10.923975,14.766016,12.337549,12.222315,13.718653
9.976221,13.98086,11.11001,10.550928,11.632959
7.6895995,12.2425785,8.693262,8.788721,10.620752
7.6671386,12.511377,9.166407,8.60586,11.162256
9.246973,13.402246,9.031641,8.685694,11.981836
7.3819823,12.514795,9.3363285,8.88711,10.879297
8.07583,12.725489,8.914698,8.701319,11.163721
9.34292,13.261621,8.966455,9.204004,12.131006
8.027979,11.764307,8.928858,8.559717,10.671534
4.125879,10.560205,6.025781,6.2818847,9.240137
