"[299, 255]","[227, 248]","[287, 319]","[279, 328]","[230, 262]"
10.194239,14.328516,9.176172,8.98086,12.811914
11.544825,14.238184,11.784327,11.670069,13.210596
11.047998,13.499903,12.024073,11.587793,12.616358
9.568018,13.31753,10.022364,9.661524,12.007227
9.116114,12.510645,9.479639,9.420313,11.396631
7.980371,10.790918,7.2936034,7.0902343,9.423731
6.6634765,13.214746,8.47085,8.898584,10.926661
9.315088,13.012598,10.5099125,10.179346,11.76919
6.3280272,11.725733,7.2625976,6.9029784,9.317041
7.735986,12.815332,7.408838,6.7484374,11.527979
11.128565,14.230127,12.353418,12.171534,13.405176
12.179834,14.424463,13.757471,13.690821,14.48794
12.591211,14.427149,13.672998,13.773584,14.394434
12.241114,14.7894535,12.7113285,12.714258,14.756739
11.302637,13.568506,10.840723,9.785791,12.735743
10.538477,14.164209,11.655664,10.631983,13.408838
6.1390624,11.2167,6.239404,6.1458983,9.196436
7.5995116,13.440577,8.105616,8.095606,11.199366
7.686914,12.060205,8.657129,8.362207,10.723291
7.461328,11.489405,8.272364,7.9723144,10.115137
5.129785,10.371729,6.150781,6.542627,8.84878
4.378076,11.281153,5.992578,5.5265136,9.907618
5.7816405,12.254541,6.638574,7.034326,9.83877
4.3507323,10.253565,5.471826,6.0123534,7.8111815
9.373682,13.390284,7.409082,7.2865233,12.402735
9.31753,13.06875,10.030176,9.641504,12.401026
12.909571,14.852442,13.5099125,13.13833,14.362207
8.742823,12.818506,9.824366,9.735987,11.392969
9.56167,13.0689945,11.206446,11.047266,12.553614
11.093164,13.623438,11.777735,12.158594,13.27334
11.590235,13.710596,12.921778,13.266504,13.20669
11.445215,11.946192,9.25625,9.031153,10.231592
8.666651,12.631006,9.688868,9.510645,11.458643
9.813135,13.012598,10.764795,11.120996,11.843409
12.048975,13.341211,12.769922,12.424952,13.849512
11.716944,13.455713,12.370996,12.157129,13.157129
11.517969,13.198877,12.970362,12.4457035,13.23501
9.929834,12.964991,11.995996,11.706934,12.078028
9.709131,12.690821,11.863184,11.325342,11.972803
9.996241,12.642237,10.173243,9.594629,12.193262
8.660791,12.282373,9.331934,9.040186,10.785059
7.106836,10.308008,8.433252,7.1463866,9.179346
6.942041,10.91128,8.524317,8.7096195,9.840235
5.9000487,11.142969,6.8612304,6.622461,9.94961
8.058496,12.510401,8.643457,8.723536,11.118311
10.691309,13.494043,12.405176,12.093164,13.396387
10.651026,14.120752,12.437403,12.346094,13.937891
10.552149,13.456202,11.57461,11.373438,12.913965
8.710352,12.574121,9.859766,9.748438,11.795313
7.089502,10.769922,8.675684,7.8666015,8.464258
6.556543,12.199366,8.874903,9.964502,11.166651
9.441065,12.409815,10.455713,11.038477,11.962793
6.6305175,11.30459,8.612452,8.415918,10.118067
9.266993,11.386621,9.429102,8.793116,10.270655
8.871729,13.053614,10.279688,9.944483,12.234034
12.892481,13.345606,12.024073,11.93545,12.782129
6.61416,10.678858,7.4220214,7.4134765,8.422998
7.952783,11.727198,7.997705,8.315577,10.111231
8.847559,12.3346195,7.739404,7.6219726,11.554834
13.035303,13.834375,13.397852,13.202784,13.82461
12.361475,13.639063,13.118555,13.027491,13.3849125
11.7894535,12.554102,10.621241,10.326075,11.329737
9.196192,12.445215,10.415918,10.25503,11.9005375
10.643702,12.852686,11.180323,11.337061,12.301172
10.3536625,12.890284,11.01333,10.88833,12.233301
6.640039,10.485254,6.704004,7.04458,8.875391
7.8387694,10.689844,7.9901366,7.6639647,9.174952
5.0538573,9.399805,6.1690917,6.055322,8.068262
4.6187987,10.436914,5.3495116,5.4825683,8.25503
8.353907,11.549952,9.564356,9.786524,10.4161625
11.862696,12.062159,11.783106,12.095362,11.930567
9.777979,12.107813,10.493799,10.823877,11.385889
6.6214843,10.40542,7.912256,7.376367,9.046045
7.5267577,11.005274,8.810205,8.594629,9.868311
10.525293,11.890772,11.257227,11.077051,12.515039
10.302393,12.2521,11.080225,10.749414,12.462549
8.908594,11.69375,8.190577,7.5699706,10.158838
7.228662,10.81167,8.559473,8.197657,10.31167
9.753809,11.064844,10.236963,10.867823,11.042627
9.421289,10.942041,10.315332,10.6627445,11.338282
7.355615,10.958155,8.708399,8.491846,9.563623
11.109034,11.857569,11.31875,11.8849125,11.698633
11.131006,12.185938,11.332422,11.511377,12.020411
10.813135,12.199121,10.689844,10.127832,11.508692
8.109522,10.535059,9.035059,8.316065,10.014307
5.6776366,9.058985,5.7865233,5.630029,7.49917
3.1673827,8.309961,6.644922,6.5265136,6.8736815
5.754297,8.640772,6.2940917,6.3456054,7.961572
6.3402343,8.767969,6.7035155,6.5370116,8.093897
7.3873534,10.748682,8.009424,7.704248,9.630518
6.520166,9.467188,7.563867,7.3941894,9.02627
7.93374,9.618799,8.498682,8.359522,9.203516
9.135401,10.283838,10.701807,10.190088,11.294336
9.775293,10.246973,10.930811,10.503077,10.922022
9.348047,10.152246,10.849756,10.662256,10.711573
10.277491,10.380274,7.9779296,9.392481,11.237207
8.166895,10.557032,8.95376,9.082666,10.536524
7.8531737,10.680811,7.6620116,7.4916015,10.572657
4.8702636,8.955469,5.116113,4.8749022,7.3541503
6.2660155,10.444727,7.380029,7.289453,8.818018
6.9134765,9.600977,8.201807,8.211573,9.014795
7.456201,9.952539,8.53628,8.309717,9.927149
7.2777343,10.99795,9.358301,8.790186,9.827784
7.5504394,10.736719,8.870508,9.272608,11.190821
9.538477,10.940821,10.349024,10.016993,10.776026
12.51626,12.23086,12.292871,9.917383,12.158594
8.446192,9.712793,9.993311,8.743555,9.280909
8.358301,10.913965,9.260401,9.284082,10.146875
11.963282,11.7442875,10.838526,11.618555,12.028955
8.594873,9.864405,8.067041,8.305811,8.962793
7.7918944,10.309473,9.52627,9.4613285,10.516993
9.108545,9.880274,10.07168,9.753565,10.2721195
8.353174,10.602442,8.507959,8.231348,9.189356
8.092676,10.823877,8.748438,8.646631,10.399073
7.975,9.971094,8.72793,7.8822265,10.222803
8.840967,10.8189945,9.9596195,9.910791,9.084375
8.765772,10.855371,9.553125,8.585596,9.6471195
7.971338,9.52334,9.067041,8.445459,10.03628
9.136621,10.98208,10.001368,9.320459,10.679102
9.85586,10.683741,11.675196,10.940821,10.896875
8.890528,10.541895,9.598291,9.326319,10.743555
10.529932,10.451075,9.917139,10.17251,11.970362
9.0021,10.014063,8.808496,8.676172,9.658838
9.577539,10.368799,10.234522,9.682032,11.442041
9.108789,10.573633,10.561182,10.319727,11.533106
9.056543,10.462793,10.017237,10.56167,9.737452
15.073877,14.485254,15.0238285,14.652735,18.101465
14.559473,12.656397,14.701319,14.286768,14.086817
14.141016,11.833643,12.363428,12.605127,12.949854
17.352198,15.563379,17.979883,17.76797,18.61172
15.528467,12.754297,14.233545,14.182764,14.882227
12.506983,11.399317,12.283838,11.63833,12.602442
13.723047,12.0411625,13.940088,14.052637,14.744776
17.084375,12.678125,15.721338,15.983789,16.597559
18.007715,16.242334,19.662256,19.404444,19.554346
23.893946,17.246485,20.630762,21.227198,18.528955
26.657373,17.860498,23.714746,23.860743,17.941553
25.331934,18.132471,26.458155,26.75625,26.842676
23.101954,17.983057,23.284327,23.483545,23.869043
21.920069,16.778223,24.05337,23.947412,20.67422
17.208399,15.900293,12.863428,12.821192,16.168604
18.018946,14.656153,17.93081,18.36294,19.023096
14.950586,12.500147,14.981592,14.272608,13.003809
9.869776,10.875147,10.797266,10.064112,11.173243
8.903467,12.173731,10.997705,10.129297,11.093653
11.888819,12.262598,13.901514,13.31875,13.237696
13.151514,11.999414,12.668848,12.326075,11.953272
15.027491,12.879786,15.316309,15.365381,15.483545
18.847315,14.205957,18.40005,17.37002,18.652246
21.73501,15.791651,22.472559,21.699366,21.674463
23.41714,16.482569,23.246485,23.310205,21.544092
23.513086,16.23916,20.284815,20.828272,19.474512
12.922998,14.718164,14.214502,13.982813,14.467188
10.719629,12.864649,11.370996,11.579981,12.764551
9.785547,10.915186,10.849512,10.977198,11.840967
9.31045,10.169336,10.218164,9.860254,11.199121
10.3033695,10.666651,11.040674,11.05752,11.096827
11.966944,11.103174,10.695215,11.628077,11.197657
13.479395,11.6349125,11.564356,11.270899,12.438868
14.026026,12.4396,12.715479,12.99917,13.213526
14.905176,12.218409,13.968897,14.085352,13.646387
15.720118,12.490381,15.918848,15.992823,14.426905
18.671778,13.362696,18.784815,18.340235,14.585352
12.398584,12.949366,14.454981,14.254297,14.051905
13.604639,12.688135,13.687647,13.505518,14.099024
14.361719,13.353907,13.411036,13.376123,14.156641
11.919336,12.806543,11.620752,11.909082,12.978907
10.673975,12.068506,13.126368,13.228418,14.063135
14.805567,13.937403,14.648584,12.761866,14.632715
15.043116,14.2599125,14.415674,14.902002,15.103907
14.122461,13.184717,14.756739,14.572657,15.012354
12.864893,12.553858,13.749659,13.608789,13.9396
12.791651,13.156153,14.56167,13.743799,13.758692
12.87295,12.81753,14.038233,14.19668,14.413965
15.675928,14.450098,16.325586,16.430079,15.267237
15.737207,14.090723,14.867334,15.6192875,15.877588
13.566797,14.1175785,14.951807,14.498682,13.30459
14.260401,13.683741,14.910303,16.320215,15.658838
15.472315,13.792871,16.837793,16.591944,15.0238285
15.930323,14.666407,17.485498,17.112452,16.469873
17.418848,14.942774,17.007227,17.392237,14.396875
18.901026,15.616114,19.714014,19.470362,16.715235
19.298487,19.942286,20.19253,20.81753,20.463037
21.882471,21.67251,21.601465,22.653467,22.345118
22.85,19.80752,21.915918,21.951319,20.220362
23.92959,15.785059,24.117579,22.731836,20.159815
26.279932,19.846827,25.629297,24.3063,21.667871
27.073633,22.116358,28.002344,27.933008,26.563868
27.789942,20.985743,25.946192,25.05166,21.795069
28.464258,19.545557,27.045313,26.904932,21.191309
27.630518,21.887842,27.5021,26.34463,23.145899
26.846094,21.765284,28.001856,28.83169,21.61587
24.309473,17.645899,23.56338,23.277735,20.488184
22.283594,18.057032,26.143702,26.225,19.455957
15.196192,17.189844,18.805079,18.73672,16.090723
14.833155,16.051416,14.143213,13.252344,16.377588
14.452051,16.173487,19.345362,19.575586,15.618311
19.37417,16.900293,21.413965,20.721827,17.870264
17.23501,17.232569,20.62832,20.347559,17.501123
20.799463,17.621485,21.53457,21.71255,18.05044
19.430079,19.025293,21.139307,21.576319,19.920069
19.436426,18.933252,23.449854,23.824121,19.161524
21.029688,19.354395,23.991846,23.980371,19.9667
21.586084,18.783838,22.936914,22.544825,18.560938
17.927149,17.85171,15.511621,16.113672,18.904688
18.601465,18.662745,21.488184,21.695704,18.793848
23.655664,20.579493,24.62417,24.114405,22.204493
25.297022,22.194483,26.750147,27.422022,23.309961
25.2875,22.92251,26.246485,26.483301,24.548243
25.350489,22.789698,23.925684,26.878809,23.753565
27.429834,23.756983,27.594385,29.022608,24.212305
23.823145,23.727686,23.094873,25.006495,24.427637
24.081934,22.846094,23.230371,24.639551,22.616846
25.417383,22.684717,26.42544,26.766016,22.76626
26.6813,23.140284,27.187159,28.638819,23.55752
26.76748,22.39419,26.221094,27.492579,22.65005
26.024805,21.067041,26.310694,26.627588,21.900782
27.306543,22.326807,27.838282,27.90713,23.987452
27.368067,22.215723,27.803858,28.71206,24.033594
29.670557,24.156885,29.00332,29.968653,25.953028
30.791895,25.418848,30.186914,30.455713,27.265284
27.001612,25.154688,28.555079,29.12002,25.423487
29.05459,24.189356,29.96255,30.373682,24.061426
34.157616,25.36709,32.81289,33.253075,26.514307
32.856834,24.795557,32.768456,33.448387,26.30166
29.622705,27.5917,31.636133,32.64956,30.561182
25.44961,24.629786,25.86831,27.549707,25.844141
30.762354,25.122461,31.03042,32.776512,25.581446
26.444971,23.091455,24.856592,24.64297,23.341211
24.49502,20.930323,24.326807,24.37295,22.013819
27.876612,21.712305,23.319727,24.115137,22.579493
25.460596,22.488184,24.804102,24.297022,23.788233
28.961084,23.023829,26.277979,26.677881,26.83291
25.526026,22.632715,23.852442,23.310205,24.86172
25.731348,22.908838,23.82876,22.718653,25.461817
31.834131,23.535303,23.438623,24.266504,26.305079
36.465965,24.13296,29.38003,28.995264,29.60708
41.01455,26.878565,38.86123,37.045555,34.98501
24.342676,21.654932,25.179834,25.317774,21.86294
25.790674,22.373438,24.914698,24.753565,21.78335
28.329493,24.176172,26.727442,26.416407,24.034082
30.451319,25.942774,29.87124,30.198877,27.178125
31.142725,27.148096,31.459131,31.549952,30.173243
29.713282,26.925928,30.038721,31.022852,28.084864
29.768457,26.377344,29.386621,30.41421,27.285547
32.162254,26.318018,30.55459,31.035303,26.891504
31.00088,26.625635,29.284327,29.08291,27.14834
26.978418,25.410303,24.827784,24.681787,26.20669
27.100245,25.614405,25.573877,26.033106,25.946436
27.921778,24.600977,25.851221,26.437647,25.160547
29.402735,24.344141,27.562647,28.628565,25.317774
29.67129,24.938623,28.971827,30.20547,25.351954
30.366114,24.215479,30.452295,30.14004,24.53628
28.651514,25.47207,26.408594,26.300684,26.288233
27.896387,25.031153,27.66714,27.936182,24.559473
28.458155,25.076807,28.21963,30.294825,25.736475
29.756006,22.889795,30.272364,30.370508,27.341455
30.70376,23.31167,30.688135,30.596338,28.21206
32.15249,24.464014,30.380762,30.541407,28.650293
28.266504,23.004053,25.775537,26.361963,23.938623
21.951075,23.130762,24.080225,25.33047,26.742823
25.663233,23.090967,23.401514,24.196192,24.594873
24.015528,22.643946,24.528467,23.642725,24.11587
25.166162,23.422754,25.31582,25.263575,23.76089
29.26626,24.381495,27.248926,27.196436,27.429102
28.503565,23.107325,23.862696,24.60464,24.695215
26.866114,23.187891,25.387354,24.910303,25.322168
25.1979,23.07168,24.582666,23.828272,24.677881
32.616844,27.261133,30.704737,31.226465,35.068993
36.88076,28.199854,36.312157,36.682274,35.400047
34.65664,25.86587,35.00332,34.616844,33.330223
29.126368,23.049952,27.471827,28.51504,27.065577
23.07754,21.606836,23.807764,23.370508,22.478662
27.402979,22.824121,23.55752,23.544336,23.926905
23.95669,22.874903,23.537745,23.773829,22.349268
23.715967,23.055079,24.246485,24.413233,25.21084
24.121729,23.515772,23.373438,22.8063,24.028711
19.886133,21.890528,20.448145,20.382715,21.587305
24.957666,21.76504,22.091211,23.015772,21.927393
19.840235,21.73672,20.14419,19.582422,20.912989
20.452295,20.62002,20.290918,20.061914,20.537989
23.788233,22.527979,23.116846,23.516748,23.76504
27.956446,24.89419,27.868555,27.817286,28.058252
30.793848,23.18374,28.624414,27.941797,24.688135
24.95376,22.140284,22.420069,22.327051,21.971827
17.465967,18.791162,17.867823,17.556543,18.643702
18.234278,19.93081,20.53628,20.253565,20.359278
22.84585,21.450342,21.041895,21.229395,22.137598
20.12124,21.252344,19.871485,19.609522,20.941797
20.676905,21.394678,20.690577,20.55752,22.065332
24.521631,21.621973,20.703272,20.921534,22.813623
24.487696,21.563868,19.631495,20.062159,22.04629
18.695948,20.589502,18.033106,18.097803,19.339014
19.227686,19.664698,18.70376,18.3771,19.279444
20.670313,20.96255,19.238184,19.449854,21.079493
15.409327,18.789454,15.760401,15.1175785,18.203272
19.519434,20.401758,17.833887,17.509668,20.340967
22.943262,20.916407,20.433252,20.147364,21.518457
18.455225,20.859522,18.319971,18.960108,20.17544
19.891993,19.971094,18.265772,19.100977,20.629297
16.862696,19.3146,16.59463,16.910303,18.37124
16.725489,18.730371,17.12588,17.058985,18.339258
18.38711,19.279688,17.447168,18.45498,19.629541
17.22915,19.08291,16.686426,16.57876,17.745996
17.873438,18.632715,17.562159,17.345606,17.850977
15.840479,18.27334,15.90127,15.945459,17.15249
16.316797,18.683008,16.756983,16.412989,17.840967
15.652246,18.81875,16.219141,15.923487,17.793116
16.3063,19.067286,17.16128,16.556543,18.921534
13.472803,17.057276,13.471338,13.45669,16.006983
14.607569,18.601954,15.521387,16.27456,17.360987
16.773829,18.015772,18.982569,18.942041,17.871485
18.214746,18.254297,18.79165,17.553614,18.226221
17.298975,18.541895,18.476221,17.836573,17.901514
14.118311,18.714746,14.927149,15.273584,17.497461
14.268702,17.076075,15.550928,15.549952,16.577784
14.184229,16.904932,14.887842,14.778467,15.9769535
14.096094,17.169336,14.738428,14.680567,16.964014
14.604151,16.713037,14.971094,14.752832,16.311182
15.048487,17.330957,15.48501,15.540674,16.930567
15.666407,19.262354,16.23208,16.27505,18.636133
18.389795,18.388819,18.150782,18.276758,18.936182
17.558496,19.572412,18.290186,18.244287,20.82168
13.438623,18.54336,14.227198,14.333155,16.094141
12.297754,15.685694,13.582178,13.907373,14.775782
11.347559,15.416407,14.131739,14.021387,14.458643
14.244776,17.465967,15.74917,16.103174,15.3050785
16.877588,18.870264,18.700586,18.469141,18.447168
17.302881,18.218897,18.4396,18.123926,17.46255
16.974024,17.516748,16.674463,15.844385,17.123682
14.292627,16.93374,15.875391,16.452295,16.053858
16.359278,18.260645,17.07876,17.294092,17.69668
16.011621,17.734522,15.934229,15.981836,15.121973
13.767481,17.069239,12.811426,12.380762,14.446924
14.003565,16.203272,13.875879,13.666651,15.440332
14.8832035,17.127344,13.640284,13.316797,15.629541
12.462549,15.923487,11.698389,11.913721,13.141993
10.153467,14.244776,10.32876,10.578028,12.137598
10.032618,16.605616,10.319971,10.344141,14.636133
11.370752,16.01333,12.176172,12.212305,13.85293
11.652979,15.420557,11.781641,12.528955,13.705957
13.251123,17.524317,14.099268,13.697168,16.423975
9.310694,14.312403,10.088526,10.229151,12.324366
9.214014,14.628321,11.069239,10.7252445,12.4752445
10.018457,15.393702,11.533838,11.513086,13.360498
12.377344,16.164454,13.146875,13.776026,15.417139
15.872705,17.218653,16.185205,16.25503,16.68838
11.236963,14.855127,10.955713,11.173243,13.327051
10.645166,15.787989,11.868311,11.70669,14.0707035
11.459375,15.628809,12.38711,12.337305,14.351221
9.505518,13.684473,9.316309,9.293604,11.94253
11.366358,14.034082,11.194727,10.608301,11.973291
7.570703,12.343164,8.72378,8.427637,10.1817875
6.8299804,11.216455,5.799707,5.5663085,10.111963
5.914453,9.568018,3.275537,3.570459,8.231836
6.5094237,10.982569,5.391992,5.0770507,9.165918
6.58291,11.528711,6.923242,6.9356933,9.386133
6.8944335,11.76626,7.7398925,8.776026,9.670313
6.7433105,12.032862,7.548486,7.954736,10.301661
8.1192875,11.556055,7.6305175,8.253077,9.968164
