"[299, 255]","[227, 248]","[287, 319]","[279, 328]","[230, 262]"
10.853418,15.063623,11.7877445,11.330713,13.792871
7.4642577,13.293848,8.685205,8.4908695,10.701807
7.798242,13.2792,8.569971,8.328028,10.435205
11.599756,15.201319,11.850489,11.283594,14.206446
10.672266,13.117334,11.622461,11.101221,10.977198
10.750147,13.120508,11.22793,10.909571,12.371241
8.596094,13.962305,10.540918,11.568506,12.729639
10.3971195,14.330469,12.995508,12.897852,13.256983
10.248194,13.739893,10.166651,10.457911,13.002588
10.143457,13.321436,11.800196,11.188623,11.706202
10.542627,14.892481,12.041895,11.573389,14.372705
10.892969,14.847315,11.895411,11.382471,13.582666
7.058496,11.386133,4.6805663,4.2645507,9.869776
7.297998,12.782618,8.913721,9.354395,10.582666
8.246485,13.339746,10.084864,10.157618,11.883448
9.180323,13.454248,10.209375,10.788477,12.479639
8.455469,13.160791,10.09878,9.710596,10.823389
5.7523437,11.701807,9.097559,8.927637,10.038721
7.9044433,13.539209,10.515528,10.316065,12.122217
8.070459,11.806055,8.687647,8.457911,9.338526
6.1197753,11.612696,6.6874022,6.7882323,9.882959
10.64126,13.603418,12.340235,12.315332,12.910547
11.30459,13.885157,12.331934,12.295557,13.232813
9.917139,13.313379,11.14126,11.220362,12.043848
5.299463,11.232325,6.501123,6.2958007,9.269434
12.580713,14.262842,12.089258,11.955225,13.420069
5.888086,9.819971,6.839502,6.9447265,8.307032
3.3131347,9.312403,2.6727538,4.0558105,7.87124
2.5077147,8.234278,2.5052733,2.6458983,5.7835937
2.4029784,9.402002,1.8229004,1.2088867,7.0250487
9.429102,12.715235,10.420313,9.9752445,11.630762
4.657129,9.717188,5.876611,5.4583983,7.815088
4.489404,9.060205,5.7447753,5.6205077,7.4479003
3.7896972,8.936426,4.452295,4.0489745,6.551904
2.796533,7.7906737,2.9549804,3.36416,5.4034667
3.9757323,9.031885,3.9166503,3.9945312,7.7794433
5.471338,10.438868,2.0990233,2.7594237,8.860743
4.9413085,9.704493,3.7540526,3.3592772,6.735498
4.0455565,8.248682,4.056543,3.7499022,7.1793456
2.9320312,9.147608,3.4620605,2.853662,7.2799315
4.066797,8.53628,4.3702636,4.103418,6.5750976
3.5787597,9.9752445,5.365381,4.891504,8.559473
5.251611,9.787012,6.327295,5.7958007,7.9896483
2.4725585,8.910547,3.7638183,3.6959472,7.5992675
4.1217284,9.106104,4.9757323,5.185205,7.9327636
6.5575194,10.61709,7.230371,7.025781,9.3771
5.011377,9.571192,5.9669433,5.7191405,7.8802733
10.404444,11.285547,9.683496,8.765528,11.110254
10.379541,10.356836,8.024561,7.027002,9.078516
3.6336913,8.336084,3.803125,4.0782714,6.954248
2.2491698,9.441553,4.259912,4.620996,7.7013183
4.6200194,9.610254,6.1251464,6.2958007,7.8460937
6.1009765,9.762598,6.2733397,5.6795897,8.560938
8.880518,10.981348,5.884668,5.744287,10.6158695
4.334375,8.759424,4.5729003,4.6146483,6.241113
3.0414062,7.869531,3.4151855,3.3863769,6.7662597
5.055322,9.5567875,7.529199,7.586328,8.099024
7.9640136,10.490381,9.825098,9.376612,9.544092
7.709619,10.082911,9.005518,8.982569,9.653955
7.267236,10.096338,8.066553,8.030664,9.147852
7.92666,10.822657,9.628077,9.241602,10.445459
8.751368,11.095362,9.331446,9.110498,10.587305
7.8854003,10.590479,9.123926,9.163477,10.391504
9.666407,10.952784,10.543116,11.16958,10.602686
9.432276,11.077051,10.091211,10.180811,10.382471
7.8285155,8.926661,6.865381,6.364404,8.239161
4.676172,8.333399,5.056543,5.1793456,6.9757323
10.757715,11.041895,10.547998,10.892725,10.87002
10.40127,11.121729,9.956934,9.229395,10.785791
3.6429687,7.916162,5.886865,5.9798827,6.674707
4.973535,8.511621,6.2435546,5.900537,7.2660155
8.64419,11.030664,8.324121,7.640283,10.7269535
9.736231,11.117334,10.233057,9.994532,10.799952
9.548975,10.79751,9.812891,9.595118,9.878809
5.820459,9.8380375,7.330713,7.4427733,8.89126
10.193506,10.710108,9.8536625,10.379541,10.606348
10.41958,10.805323,10.70669,10.61294,10.743311
5.495752,9.093409,6.286035,5.8839355,7.9364257
6.797754,9.776026,7.9220214,7.662744,9.096582
6.9918456,9.930323,7.7125487,7.1324706,9.152246
7.001367,10.043604,6.8836913,6.5086913,9.589258
8.228174,10.356592,8.725489,8.332178,9.86294
5.2691894,8.865625,6.805322,6.829492,7.9103026
5.52041,9.895655,7.3229003,7.6529784,9.159571
6.4671874,9.735743,7.724756,7.6515136,8.571924
7.7281737,10.270655,7.9288573,7.164209,9.818262
5.624414,8.193262,6.9393554,6.48916,8.094141
5.016992,8.138086,6.041162,5.949121,7.2003417
5.4571776,8.51919,6.3282714,6.1009765,8.412989
9.6957035,10.491358,10.169092,9.70669,10.871485
5.2225585,7.4757323,5.859033,5.59292,6.7435546
7.9271483,10.244776,8.382959,8.700098,10.104639
6.233545,8.382715,7.157861,7.1358886,8.660791
6.202783,8.136866,6.8646483,6.8385253,8.155909
4.2054687,8.462305,5.7259765,5.9203124,7.49624
7.3285155,9.376612,8.438135,8.238672,9.460352
5.730371,7.6722655,6.945947,6.7169433,7.184961
5.851953,8.652979,7.1458983,6.9530272,7.9791503
7.9132323,9.5863285,10.507227,10.114649,10.33584
7.709375,10.670557,9.047998,8.503565,11.661036
8.046045,10.149317,10.331446,10.233545,12.273584
5.9969726,9.315577,6.8722167,7.1324706,9.842432
7.822656,9.281153,9.153467,8.671045,10.085596
8.154932,9.155176,9.077539,8.726465,9.798731
7.140039,8.7442875,8.084131,8.302393,8.177149
6.0365233,8.390528,7.0938964,7.6480956,8.065577
7.9603515,8.00918,10.373438,10.28335,7.1708007
8.081202,8.791651,10.063623,11.038965,8.370264
9.04336,8.964258,12.029932,12.03628,8.794092
8.761621,8.564356,9.434229,9.540186,10.499659
8.418604,9.198877,9.198877,8.85293,9.774317
7.2433105,9.339014,7.9981933,8.849024,9.756983
6.7191405,8.539698,8.086817,8.0863285,8.849512
2.867578,7.88833,5.9828124,5.886377,5.648828
7.0541015,9.369776,7.9469237,7.860742,8.752344
6.671533,9.367334,9.040186,8.784327,9.60708
11.546045,10.713526,11.410059,11.441797,10.740137
7.665918,9.371729,6.732324,7.7813964,9.482569
6.705713,8.978174,7.6344237,7.2987304,8.891016
10.815821,11.268213,10.818506,11.125879,11.375635
9.382471,10.607325,12.832666,13.236719,13.330957
10.120752,9.0292,8.663233,9.140284,9.805323
7.254785,9.080713,8.758936,8.724756,9.450098
8.864405,10.393946,9.381739,9.576563,10.177149
10.11709,10.529444,10.449854,10.977442,10.218409
9.145166,9.6332035,10.212549,9.969385,11.375147
7.902246,9.521387,9.470606,9.191065,9.829004
10.428858,10.226709,9.649317,9.843653,10.795801
15.062159,10.378077,10.370508,11.433985,11.118067
17.537256,14.9942875,19.416895,18.683985,18.756495
19.927149,16.348047,23.64712,22.3771,19.84292
12.371729,11.396875,12.624659,13.165918,13.450586
12.184961,11.56875,11.4457035,11.306543,12.518702
11.409327,10.478418,10.664209,11.060205,12.065332
10.725489,9.458887,8.265528,8.461817,9.500879
9.872705,9.531641,9.488184,9.467188,8.94375
11.161768,9.930567,10.123438,10.426905,12.444239
13.837061,10.599024,13.065332,13.184229,12.210108
12.227686,10.434717,14.018213,13.911036,9.736475
14.760157,11.09585,13.785791,14.217676,12.833887
16.640284,13.967188,17.966455,17.691065,17.353418
17.992334,14.127588,18.341944,18.146631,17.975733
11.569971,10.738672,11.826075,11.8067875,9.775782
9.082911,10.392481,11.451563,11.838526,11.959375
14.500147,11.113428,12.868555,12.32876,10.788965
16.639063,10.615381,16.133936,15.235254,10.230371
10.560938,12.478907,10.660059,10.526758,12.457422
10.86294,10.836573,9.636866,9.425684,11.186426
13.438135,10.722803,14.908838,14.533594,11.915186
14.644678,13.204737,14.819239,14.340723,14.288233
12.677881,11.573633,14.102686,14.027491,12.399805
14.0411625,11.302149,15.166407,15.187891,13.400293
13.095606,11.464258,12.318506,12.708155,11.784571
8.872705,11.223291,13.725489,14.873926,11.0724125
10.490381,11.920313,9.763819,9.288721,12.616846
10.642237,10.632227,10.758448,10.607325,10.388086
10.452784,10.817774,11.383692,11.677881,10.479883
11.1542,12.535791,11.293604,11.34292,12.222803
10.970118,12.377832,10.937647,11.406885,11.966944
11.522852,12.507471,11.076807,11.089258,12.226221
13.735743,12.53628,12.407129,11.5064945,12.402246
12.386377,11.589258,10.370264,11.14834,11.5567875
7.8770995,10.736475,6.773828,6.6187987,10.749659
12.482325,11.860743,11.915674,11.988916,13.033838
12.489893,12.808985,12.316797,12.358789,12.287012
16.478907,12.967676,13.326319,14.921778,12.834375
16.574121,12.544092,15.778467,16.110987,15.532862
15.970362,12.348536,17.141016,17.103662,15.185938
15.028467,11.977442,15.90835,15.390772,14.851221
12.152002,12.114893,13.4667,13.042871,13.4125
10.372461,12.2113285,14.085352,14.517969,11.98208
13.253809,11.836817,14.124414,13.58877,13.607325
11.928858,11.175928,13.315577,12.676416,12.768702
11.275049,11.918604,13.187647,13.008936,13.08169
13.394678,12.623194,14.192774,14.045801,14.07583
17.623194,15.048487,17.12002,17.58755,17.521875
14.635889,13.990137,13.693506,13.996485,15.871729
15.802637,13.518457,16.640772,17.050684,16.634668
15.253321,13.487207,15.599268,15.152735,15.983789
16.761866,15.771143,16.341455,17.009668,16.60879
21.397364,15.967432,20.32583,20.078272,19.123194
16.374903,13.916651,15.61294,15.774073,15.86709
20.039454,13.399561,17.18374,18.248194,15.059473
24.424707,15.541895,19.467188,21.554346,18.444727
27.825342,18.643702,26.65542,25.418848,21.817041
24.958399,20.490137,23.670801,25.859034,23.227442
20.207178,19.136133,19.274805,18.603418,20.475489
17.778955,17.334131,17.048243,17.386133,17.524805
18.616358,18.28457,17.468409,19.403467,18.450342
21.010645,20.078516,19.454248,21.24502,20.506983
25.395655,22.245752,24.342188,24.73623,23.666895
26.016993,20.589502,22.893946,25.492823,22.954248
20.30874,16.839502,18.433252,19.682764,17.14834
17.177393,16.843164,17.098291,16.65542,16.990381
17.674707,15.894434,19.36709,19.483057,16.240381
23.21792,17.085108,24.552637,24.182276,19.908838
26.29873,18.952051,25.78335,26.888086,25.339502
27.53921,20.804834,28.170557,29.143946,26.343897
29.796778,23.926416,29.648096,30.949121,26.54458
31.98623,22.119043,30.16958,31.108057,25.670801
24.23672,18.76504,22.139795,22.773829,18.139307
22.382471,18.761377,23.593409,24.020655,20.409815
24.122461,18.896875,23.430323,22.117823,21.19375
19.840479,18.014063,19.567041,19.377832,17.328272
20.540674,17.704737,21.706202,20.99209,21.406885
21.281641,18.528711,21.22378,20.829248,20.57168
24.66421,19.455957,24.92251,24.209864,23.452295
21.890284,19.778223,22.716455,22.801416,18.958643
23.098536,20.113672,22.325098,21.680079,22.586573
25.253077,21.068018,24.289942,23.862696,24.418848
20.022364,20.348291,21.147364,22.085596,19.8417
21.21206,17.237207,20.937647,21.372461,17.8771
19.460352,18.680079,21.436426,20.93545,20.42422
20.33291,18.967432,21.537745,21.643946,18.487696
24.475977,20.218409,23.79873,24.03921,20.206446
22.674707,18.70083,23.969141,24.001856,19.32876
23.171534,19.842676,21.78213,21.605127,21.514063
25.334864,19.911768,22.525293,22.623682,21.599024
27.228418,22.389551,22.420801,22.97378,22.88003
20.592676,20.750635,19.968897,20.357569,20.593653
22.0917,20.402979,22.24209,23.04458,21.654688
24.644434,21.296045,24.470606,24.27749,23.451563
23.167383,21.321436,23.183496,22.463282,20.673487
23.700098,21.509424,23.927637,24.05752,23.63418
28.081202,22.71792,25.603662,26.949854,24.83877
28.015284,22.82754,26.18838,25.870752,25.275537
26.585108,24.215235,25.605127,25.058985,24.112696
30.465723,24.342676,27.516504,27.57583,28.271143
26.398584,23.254541,25.018213,26.788721,24.714258
19.295557,20.526026,20.030176,19.991358,20.220118
22.431055,20.596094,22.359522,23.928858,23.131739
22.156397,21.56753,22.869532,22.711329,24.443262
20.881006,20.568506,21.74917,21.09292,21.527002
24.17129,20.712305,24.175684,23.577784,22.595606
29.238184,21.703272,26.77749,27.974512,25.764063
26.425684,21.573633,26.237452,26.078028,26.097559
27.39004,21.975733,26.602198,25.6,25.013086
26.106836,22.175684,24.531397,24.833399,25.636133
25.543604,22.26211,25.460352,25.67959,21.506739
32.629784,23.161524,30.139795,31.427149,29.23794
33.989403,25.714258,29.879541,31.51089,28.909327
25.145655,23.24917,25.286524,25.038721,21.447657
25.98623,21.840723,25.69546,24.744532,25.669825
29.31045,22.109278,26.65249,27.19546,26.764795
30.11172,23.117334,27.750391,27.921045,26.920069
32.440086,23.415186,27.80166,30.008204,23.568506
27.526026,21.823145,24.86294,25.189356,23.028711
29.951319,23.167383,29.219385,29.964258,26.016016
34.766014,23.321436,31.875391,33.244774,29.77749
32.211327,23.54922,32.25991,30.41836,28.200586
26.9479,25.849512,24.432276,26.01333,26.632471
26.56582,24.513086,25.528955,27.101465,24.07461
28.75332,25.025782,29.124903,28.83291,27.687403
27.990625,24.501856,28.601221,29.161036,23.349024
31.653467,27.026514,33.940086,34.949608,30.720606
33.756737,26.347315,34.335106,35.993553,30.169825
26.794336,24.613916,22.468164,23.131739,25.071436
22.775537,21.103174,22.644922,23.001612,20.80337
26.502832,23.663965,26.69668,26.50503,24.087793
28.436914,24.947657,28.683496,29.802149,25.227686
28.865625,26.168848,28.426905,30.50332,26.31167
28.870996,26.941797,29.243555,32.381493,27.327784
28.753809,27.098047,30.64126,32.438377,27.677881
29.282373,26.63125,29.428614,34.796776,27.281641
29.01211,25.528467,27.698877,30.311182,26.193995
28.21792,25.52334,27.622705,29.50332,26.211329
28.45791,23.98623,26.079004,28.916407,23.755274
28.030909,24.835352,25.137354,26.793604,25.13833
24.975245,24.110254,24.374903,25.718897,23.737452
24.59463,23.608057,24.877832,26.006739,23.933496
24.474268,23.810694,24.88003,26.172022,24.15835
24.696924,23.254297,25.998194,26.564356,24.00918
27.16543,23.94082,28.491114,28.17837,24.253565
29.762354,23.439844,27.34707,28.372461,27.448145
21.023829,21.528955,23.24795,23.527735,21.306055
22.860743,20.783106,23.077784,23.020655,21.08999
23.12588,21.031885,24.185938,23.873194,22.708399
24.401026,21.898829,24.793848,25.029932,24.855371
24.308985,21.557032,23.685205,23.59878,23.95376
23.494287,21.332422,24.153467,23.83047,21.622705
24.93838,22.01089,24.356836,24.23208,25.049707
27.072657,22.554102,28.201075,28.537256,27.293116
27.670801,22.147608,28.33999,28.490137,26.512354
25.542871,21.969873,26.985743,26.40713,24.620264
22.08291,20.31582,22.326319,22.39834,20.822412
18.86001,19.319239,19.1188,19.008936,19.460352
20.50625,20.789942,21.19375,21.011866,20.538477
20.14004,20.697412,20.638575,20.64834,20.4479
20.878565,20.473047,21.356104,21.561426,20.224756
22.029688,20.95254,22.74087,23.365381,23.226954
23.39419,20.985987,23.665918,23.960108,23.954004
24.068262,21.771143,24.70962,23.940332,24.138086
23.639307,22.264063,23.028711,23.534815,22.030909
20.478418,21.08584,19.99087,19.558985,19.766993
20.825586,20.699366,20.880518,20.776758,20.10879
20.248194,21.317041,21.561914,21.849268,20.786036
19.8417,20.922022,21.341211,21.75796,20.44668
19.547266,20.601465,21.273096,21.922266,20.165186
20.628565,19.64248,21.920313,22.055323,18.722803
19.958887,18.648096,20.721338,20.631006,18.761621
18.657862,19.928125,18.6542,18.245996,19.663965
19.131739,19.415186,19.781885,19.959131,19.316309
19.815088,19.856592,20.60464,21.031641,21.61831
18.80459,19.992579,20.38589,20.605127,21.210108
19.601221,20.65542,19.951075,20.278955,21.206446
19.28921,21.088037,19.778711,20.222315,20.481348
21.304346,22.674707,21.680079,21.95962,21.33584
22.508204,21.998194,22.82339,23.22964,23.879786
22.414454,21.55752,22.921534,23.412745,24.54458
22.093897,21.282862,24.459864,24.96084,24.177637
19.860254,21.310694,21.405176,22.126123,22.702295
19.086817,19.46206,20.008204,20.1188,20.005274
18.458399,19.360987,19.69546,19.848536,20.47671
18.019922,19.175684,17.507227,17.460352,20.676416
19.811182,19.002832,21.592188,21.714746,20.326319
18.429346,19.637354,19.977442,20.540674,20.154444
21.124903,20.870752,20.667871,21.977198,22.04214
23.948633,21.564112,21.825586,23.113916,23.002344
23.433496,21.555567,22.13296,24.561182,24.46255
23.356592,20.873438,22.360254,23.145899,20.965967
20.79922,19.92129,20.681055,20.93374,20.97671
20.410059,20.011866,20.579737,21.47793,20.704493
19.428614,19.449366,21.117823,20.870264,20.866602
20.17837,19.9396,21.423487,21.161768,21.202295
20.427881,20.737207,18.894434,18.917627,19.329248
17.33755,19.57461,19.514795,19.755274,18.945948
17.016748,18.639063,17.841455,17.85415,19.194483
13.27334,16.683252,12.915674,12.628321,15.414942
12.26919,14.276026,11.93252,11.561426,13.485254
11.773096,14.578272,11.894922,11.471582,13.516993
11.932276,15.785547,12.548243,12.8692875,14.922266
12.542139,16.165674,13.941553,13.63418,15.288721
15.181543,18.784327,15.200098,15.055323,17.778955
15.17544,18.874414,15.434473,15.482569,17.258692
14.363428,17.911768,14.957911,14.634424,16.558985
12.99502,17.167383,13.822901,13.671045,15.441553
10.924463,16.864405,12.346582,12.188135,14.371241
15.250635,18.734034,16.060938,15.298731,17.728418
15.890528,18.750147,16.60415,16.519678,17.752832
12.410059,16.83169,11.735254,13.93667,15.35708
11.956934,16.42129,12.44961,12.325586,14.778711
11.839502,17.242334,12.96084,14.600733,15.9667
15.919336,17.485254,16.375391,16.442041,16.958887
15.698877,17.82461,16.309717,16.443995,16.804102
13.475489,18.188623,16.7875,16.369287,17.859278
12.6019535,15.906641,13.214502,13.535791,14.645411
11.279932,15.700586,11.937403,12.305323,13.506006
13.25503,17.0292,13.56753,12.896143,15.865381
12.986963,16.953272,13.094385,13.086817,14.696436
14.725977,17.47793,15.3849125,14.977686,16.61123
13.98501,17.13296,14.69961,14.402491,15.838282
14.99795,17.348047,15.868555,15.906397,16.543604
15.333887,17.36172,16.39004,16.117334,16.781153
12.118067,16.042383,13.278467,13.014551,14.507471
9.725,13.761621,10.426416,10.584131,12.322901
8.106592,13.086817,7.6097655,7.8648925,11.490137
6.3180175,13.023584,6.77749,8.1158695,11.470606
3.848535,13.26211,3.9515624,4.4742675,10.690821
7.93667,15.327051,8.4125,7.889795,13.100977
10.052637,15.966211,11.304102,10.585596,14.899561
