"[299, 255]","[227, 248]","[287, 319]","[279, 328]","[230, 262]"
8.354151,11.236719,9.797266,9.423731,10.687159
8.836573,11.507959,9.085352,8.815577,9.477442
7.758447,11.349756,8.129786,8.1036625,10.059229
7.7625976,11.936182,8.234034,8.029932,10.048487
7.8041015,11.538477,9.027246,9.128565,9.437647
7.0631347,12.288965,6.374658,6.131738,10.583155
11.999659,14.228418,12.278223,11.36294,13.864161
12.349756,14.139795,12.0646,12.144922,13.670557
13.344873,14.306299,13.093653,12.99917,14.063623
9.464014,13.40835,10.1,9.730616,11.7599125
12.811182,14.846094,13.5377445,13.55044,14.5533695
11.208887,14.739893,9.390039,9.473536,13.565821
11.473291,15.863428,11.257715,11.699854,14.020166
7.7384276,12.889551,9.160791,8.427637,11.254053
7.6534667,12.118799,7.8912597,7.7831054,11.377832
7.058252,11.695459,6.9898925,6.860254,10.4667
8.182276,12.5917,8.990381,9.003321,11.63003
5.631006,11.238184,6.412744,6.1830077,10.108057
2.5196776,7.362207,3.9259276,3.7757812,6.2662597
3.5157714,10.170313,4.909326,4.9984374,8.234766
4.2801757,10.327784,8.071436,7.470361,8.704493
3.6913085,10.666407,5.673486,5.0208983,9.337305
4.9432616,10.267237,5.360742,5.398828,9.105616
5.9137206,11.643946,5.5580077,5.3731933,9.714991
7.2760253,12.73794,9.54336,9.781397,11.932032
7.3543944,11.656153,9.052149,9.671778,10.940088
6.146631,11.266748,7.5125976,7.7245116,9.818506
7.0885253,11.543116,7.8287597,7.632959,9.994043
9.695459,13.40127,10.36294,10.062647,13.03628
11.76626,13.459131,8.921778,8.334864,13.262842
9.7167,13.238428,9.72378,8.197901,12.628809
6.213281,11.46377,6.982324,6.976953,9.817774
9.754053,12.439356,9.281397,8.751612,11.456934
7.492578,11.578272,8.29751,8.291407,9.763819
5.8993163,10.580225,6.628076,6.4085937,8.787989
10.408106,13.3502445,11.011377,10.660303,12.655664
6.817285,10.328272,7.0487304,6.992578,8.812403
5.3375487,10.530909,6.204248,5.8441405,8.454004
7.105615,12.121973,7.0057616,5.90957,10.422266
7.0492187,11.274805,7.7782226,8.06753,9.843409
5.589746,10.327295,6.7628417,6.3907714,8.680323
7.5648437,12.313135,7.0416503,6.7594237,11.797022
12.185938,13.032862,11.997217,12.122705,12.625147
8.309717,11.596094,8.962793,8.491114,10.44375
4.789453,9.519678,5.3912597,5.228662,7.504785
6.1856933,10.7564945,7.869043,7.638086,9.404444
6.693994,11.408838,8.146143,8.240381,9.86709
10.270411,11.814844,10.072901,10.1192875,11.692286
8.001123,11.542139,9.788477,9.763819,10.6800785
8.084131,11.716944,8.7442875,8.558741,11.46084
5.957666,10.276026,7.018945,6.65542,8.140284
6.2210937,10.449121,6.817285,6.131494,8.204493
4.5367675,9.065332,6.1898437,5.9728026,7.4728026
5.38833,9.966944,6.4149413,6.7950683,8.341211
5.2591796,10.309229,5.726953,5.684961,9.248926
7.750879,11.471582,7.986963,8.047998,11.483789
10.326563,11.4125,10.769678,10.971338,11.409571
9.343653,11.212305,10.2877445,10.627588,11.765039
8.751368,11.334864,10.606348,10.73086,11.766993
7.771875,10.899805,9.817286,9.355616,9.831202
6.7469726,10.4396,9.38418,9.212061,8.829004
6.7171874,10.118311,8.227198,8.013819,9.172266
6.799707,10.003809,6.7750487,6.6686034,9.04458
3.4466796,7.1686034,4.4291015,4.6717772,6.197412
1.8727051,6.3854003,2.6512694,2.4132323,4.827783
1.3744141,5.894922,3.6910644,2.82583,4.9447265
2.7450194,6.9137206,4.068994,4.397119,5.747949
2.093408,6.284082,2.8429198,2.8470702,5.7379394
4.167627,7.3441405,3.1393065,4.386865,7.1395507
4.8927245,7.1495605,4.158838,5.0389647,6.00625
4.5538573,7.414453,5.491113,5.4017577,7.1720214
6.256006,11.001612,7.640039,6.6910644,10.414698
7.9642577,10.354883,8.509424,7.4654784,10.052637
7.7311034,10.111475,7.987695,7.9808593,9.771143
9.008692,11.6019535,9.888819,9.467188,11.386377
8.947657,10.975977,9.938623,9.594385,10.895655
7.084131,9.398096,6.6893554,6.4811034,9.16128
6.549707,9.602198,8.520899,8.29751,9.292627
5.6078124,9.153955,7.286035,7.32583,8.346338
5.098779,6.9964843,5.801172,5.1700683,6.0404296
3.5140624,7.641748,4.4864745,4.396875,6.595361
0.4725586,6.5077147,2.0108886,2.2970214,3.179834
4.0782714,5.547998,3.7618651,3.7699218,4.721338
6.9637694,9.350977,5.3038573,4.6668944,7.452539
5.85708,9.215235,6.667627,6.5521483,7.4498534
5.2796874,8.8033695,6.5904784,6.662744,8.436426
7.1476073,8.78335,6.473047,6.3058105,8.270166
9.876612,11.558008,7.7748046,7.791406,11.95376
13.0238285,13.23086,14.714991,14.178858,15.952295
11.105371,10.346827,12.010157,11.551905,11.004541
9.734522,11.113184,11.339258,11.399805,11.068262
13.889307,11.939356,13.251856,12.4630375,13.0846195
9.801905,10.474024,10.315821,9.826563,11.191309
7.7186522,10.211084,7.973779,7.9046874,9.660059
8.251368,10.087549,9.831202,9.779444,10.16543
9.907862,11.1192875,12.297266,11.904932,11.160059
9.287256,10.510645,10.024317,9.940088,11.569239
11.012598,11.682032,10.157862,10.575586,10.817774
9.709864,11.171778,11.353907,11.358789,11.275782
7.66958,10.044092,5.667871,6.0597167,8.613428
5.751367,7.9117675,6.348779,6.4061522,6.916162
5.230615,8.3536625,5.8805175,5.5560546,7.048242
7.2206054,10.296534,7.924707,7.518701,9.860743
7.8978515,9.653223,7.7594237,7.7347655,9.133448
5.5631347,9.371973,7.1336913,7.0277343,9.339746
7.1654296,11.35293,9.302149,9.590723,10.20669
9.69253,10.8207035,10.80044,10.897608,11.344141
8.216944,12.222071,10.490137,9.885157,13.980616
12.046534,12.108545,12.539698,12.605127,13.88125
10.409082,12.532618,13.189356,13.115381,12.671778
9.327295,11.135645,10.63833,10.266993,11.157373
10.001612,10.998194,10.96084,10.406885,11.490137
9.599268,12.799463,11.068506,10.885645,13.464258
13.522852,12.711573,11.663233,12.434473,14.306055
13.015772,12.704981,13.8417,13.568506,13.827295
10.64834,13.767725,10.4667,10.906885,13.718409
8.473047,9.110987,9.474756,9.658106,8.878809
9.348536,11.372705,9.919825,9.78042,11.639795
10.606104,11.273584,12.207178,11.659082,12.275782
11.302393,12.683008,12.715479,12.053614,12.681055
12.607569,12.131006,12.337061,12.402491,12.749414
10.508448,11.426905,11.565088,12.174463,12.792871
11.053614,11.42251,11.504786,11.142237,12.653467
11.873926,12.4942875,11.712305,12.059961,12.49917
13.672266,12.504297,14.542627,13.07876,13.483057
11.290674,11.5021,12.432032,12.522608,12.044092
10.608057,11.980371,10.318018,11.094141,12.192286
13.691065,11.982325,12.673487,12.226709,12.770899
10.194727,12.034815,12.174219,12.095118,12.798487
12.871729,11.431543,13.330469,12.715479,12.998194
11.994043,11.071436,12.764307,12.793116,13.139551
9.388086,11.811182,10.946924,10.568262,10.992823
9.08584,10.830469,9.840479,9.481836,11.531397
9.553614,12.153711,6.625879,6.985742,9.965479
11.108545,11.489649,11.70376,11.57583,12.064112
12.033838,11.672022,13.264551,12.665186,11.510645
12.484034,11.763819,13.260645,12.376123,11.909327
14.2877445,13.122705,15.390772,14.812159,14.652002
15.286768,14.762598,16.850245,17.106348,15.797022
17.829493,15.161768,19.12832,18.83169,16.603418
18.115381,13.509668,15.719629,15.304102,13.35293
12.716211,12.045801,12.937159,12.222803,11.751856
11.870264,13.2408695,12.983301,12.875879,14.40835
15.578272,14.089991,17.314844,17.300684,14.2252445
19.37002,14.885645,19.695704,18.57876,14.627832
11.79458,13.902491,12.960352,13.76919,13.024805
11.136866,13.132227,11.428614,11.797022,12.395655
11.608057,13.8189945,12.151026,12.431543,12.555323
12.569727,12.857325,14.050196,13.676172,11.99209
12.441553,12.092676,11.84878,11.873682,11.672754
11.436426,11.38418,10.815821,11.34878,10.793848
14.587061,13.437159,15.569971,14.918848,14.157129
17.738916,15.365381,18.933252,18.92837,16.835108
17.576563,15.415186,18.970118,18.993555,17.788233
16.10464,13.853907,16.516504,18.577295,15.666407
15.042871,14.290186,16.495264,16.959131,13.815088
17.792383,14.570459,16.808252,17.684229,17.483301
13.44253,13.753809,15.644678,14.084131,14.177149
12.804834,14.051416,14.013819,13.8417,13.934961
13.456446,13.8417,14.900049,13.92544,14.713282
13.32461,13.402735,14.274073,13.507959,13.370264
14.503565,12.713526,15.800684,15.577295,13.598047
12.140772,12.706446,13.91836,13.636866,13.639307
11.38003,13.625147,12.433496,11.857325,12.298731
11.373926,12.2130375,12.0846195,11.569971,12.4667
12.08169,12.4630375,12.952784,13.916651,13.561914
13.51626,12.827784,15.040186,15.208643,14.61001
12.208155,12.719385,13.162989,13.784327,13.704737
14.685694,12.639551,14.989161,14.694727,13.326319
14.75625,14.321192,15.3050785,15.970362,14.117334
14.133692,13.848536,13.83169,14.540674,15.47793
14.125879,13.927637,15.506983,15.05459,15.6957035
13.679834,14.129297,14.79336,14.256006,15.321192
11.065821,13.859766,12.425196,12.548731,14.143702
16.520166,14.74502,17.790674,17.613672,15.339746
17.034327,14.538477,18.409327,17.98086,17.199854
18.968409,15.173731,19.616846,20.295069,18.172998
20.630762,16.58999,19.691797,20.70254,19.466211
23.934473,16.767237,22.247461,22.34878,21.945215
25.356836,18.602198,26.036768,26.053125,26.177149
26.756006,17.88296,26.633448,26.322168,19.235743
21.758448,19.802393,20.86709,21.228418,21.304834
20.817041,19.609766,19.873682,21.952784,20.358545
21.136133,19.753809,22.12588,23.216944,19.92837
23.336329,20.617334,25.339502,25.745264,22.30459
22.17422,20.852198,22.129297,23.727686,21.960596
24.521387,20.58877,25.953272,26.039942,21.370752
20.983545,19.856592,21.101221,21.47793,20.11294
22.139307,21.421778,22.133936,24.490137,21.348536
24.46963,20.67422,25.054834,25.902735,24.036036
28.363428,23.035791,28.030664,28.80581,27.03628
27.562647,25.211084,28.050684,28.893457,27.26797
26.01211,26.53335,26.228662,27.817774,27.346094
28.651758,21.645899,26.684229,30.186182,25.725
25.062403,20.287256,23.625635,24.413233,22.110987
27.342188,21.897364,26.690577,26.581934,21.797754
29.731592,23.696924,28.807276,29.147364,24.593164
29.519922,24.251123,29.85464,30.570704,26.062159
29.914698,22.28628,29.677881,31.291407,27.873194
23.994287,22.082178,23.172022,22.598536,21.086329
21.887354,20.262842,22.565577,22.653955,19.936914
23.3229,19.449121,22.774073,22.843653,20.166162
21.016504,18.50625,23.097803,22.810205,20.30337
21.475,19.308496,24.374414,24.387354,21.036768
23.1813,20.618067,23.19253,24.484522,20.537745
25.07461,22.088526,26.473536,27.36416,23.25918
25.735743,23.264551,26.865625,30.917871,25.071924
23.671045,23.218164,23.116114,24.156397,23.948877
22.483545,21.368555,22.158838,22.043116,20.848536
22.974268,22.358057,22.880762,23.315088,23.120508
25.922022,21.480616,25.972803,25.557276,24.46255
20.508936,20.399073,22.364893,21.908594,22.654444
18.807276,18.62124,21.111475,21.598047,18.415918
20.249903,18.766993,21.318506,20.82339,20.446924
16.65127,18.824121,21.231836,20.98379,19.204493
23.10708,18.256739,23.10415,23.555567,19.483057
18.993555,18.610743,21.153223,21.559961,20.382715
20.189356,18.710108,17.612207,17.175928,20.511621
19.672754,19.89126,18.438868,19.093409,20.089258
21.145166,19.534327,21.725977,22.120508,20.36587
18.027735,18.833643,20.708887,20.800196,19.505518
19.540674,19.064112,18.907618,19.530664,19.739649
20.020166,19.49087,18.9125,20.534815,21.128809
18.46255,19.383448,19.178614,20.23086,20.11831
19.16958,20.09707,19.975245,20.315332,20.212793
19.222315,20.818506,21.461084,21.473047,21.684229
18.707178,20.589746,20.104395,20.603907,20.77041
19.809229,19.236963,21.192286,21.309473,19.29458
20.565088,20.931787,19.293848,19.272608,22.879053
16.396875,18.714014,18.369287,19.780909,19.394678
20.721338,18.582422,23.711329,24.0563,19.506739
19.253809,19.848291,19.14956,18.713037,20.22378
19.758204,19.359034,21.320948,21.19253,20.972559
19.85293,20.1271,20.407618,20.92422,19.509912
19.926416,19.974756,22.090479,21.672022,21.551905
18.531641,19.652735,20.487696,20.21206,19.236475
17.677881,19.27334,21.298243,21.137842,19.810694
19.668848,18.593409,22.219141,22.287989,19.547998
20.629541,19.497705,23.171045,23.275782,19.412012
19.658594,20.218653,22.48794,22.778711,20.147608
22.041407,21.421534,23.377588,23.497705,21.816309
23.159327,20.945215,25.343897,25.505518,22.407373
21.072412,21.33999,21.90835,21.904688,21.239649
20.673487,21.638575,22.48794,22.77212,21.313135
22.360254,20.600733,23.44668,23.708155,21.928614
19.826563,21.149073,22.730616,23.240625,21.308252
17.157618,18.871973,18.418604,17.856836,17.944483
19.9125,19.655664,21.92959,22.059473,21.620264
20.012842,20.84585,22.281641,22.917383,20.367334
20.942041,20.697412,23.873194,23.535303,20.919092
19.152979,20.557764,21.086573,20.20498,20.540674
19.707666,20.521875,22.457178,22.115625,21.003809
18.926905,20.937159,22.2167,21.337793,21.548243
19.57583,20.916895,22.319483,22.318018,20.683252
22.77334,21.396387,24.83706,24.028711,24.815088
24.278223,21.887354,24.222559,25.041162,24.145899
21.549952,21.984278,21.433496,21.47207,22.047022
21.192041,21.551905,21.71255,21.496973,22.568018
19.532373,21.472315,21.313623,20.923243,20.432276
18.65835,20.078028,22.024073,22.625147,19.650537
18.621973,20.998194,21.354883,21.55752,20.411524
18.339502,20.30337,21.194727,21.366114,19.989893
21.267237,20.793116,22.613184,21.720606,22.08169
23.067774,21.432764,23.691797,23.557032,22.5292
21.389063,21.25796,19.600245,19.668604,20.665674
21.223291,21.224756,23.391993,23.496729,22.468409
19.724268,21.20791,21.126856,21.099512,22.818262
17.248194,20.588282,18.359522,18.007227,20.444727
18.560938,19.645899,20.309473,20.14297,19.688868
21.09707,21.339014,21.008448,20.60171,20.825586
20.315332,20.819971,22.644922,21.91543,20.57461
20.66836,21.669092,22.301416,22.575342,21.652735
21.817041,20.565088,23.006495,23.07168,20.716455
22.956934,21.89297,23.468164,23.697168,21.887598
21.931787,23.276514,23.297754,23.19082,23.954737
20.698877,21.712793,23.514551,23.965723,20.607813
21.195215,21.200342,22.83584,23.89541,22.207666
22.22085,21.29336,25.49917,25.292627,23.765772
22.007715,21.38418,22.880518,24.095606,22.833643
21.067774,21.396387,22.309473,21.89419,20.8229
22.497705,21.57583,23.597803,24.26919,23.822168
24.872705,22.601221,26.526026,26.838526,25.808496
24.641993,23.115137,27.803125,28.402735,27.266504
29.189112,24.472803,29.04043,29.416162,28.44082
21.670801,21.125147,21.160059,21.19668,20.232569
19.37588,19.357813,20.148096,20.11001,19.150293
18.296778,20.389795,20.009424,19.965235,19.961573
18.313623,19.778223,20.483301,20.602442,19.1
18.208399,20.119532,19.682276,19.609522,19.126856
18.685694,19.91836,20.204004,20.195948,19.512598
16.32583,18.82461,17.398584,17.425196,17.730616
16.987207,19.626856,18.754053,18.6896,19.54043
19.04165,19.254786,21.014795,21.033106,18.805567
19.312403,18.904932,20.633692,20.356836,19.015284
18.6354,19.279932,20.376612,20.241602,19.590967
19.50796,19.432032,19.531153,19.591211,19.903955
17.70962,18.981104,18.964502,19.270166,18.67129
17.08047,19.318018,18.243555,18.706446,18.670557
17.42251,19.728907,17.852442,18.389063,19.038233
18.057032,19.942774,19.96377,20.210108,19.475
19.145899,19.660791,20.488428,20.756006,21.254541
17.578272,18.92422,19.60879,19.975245,20.100245
19.083155,19.349512,20.36416,20.35,19.541407
17.696192,19.16665,19.23916,19.54165,19.547754
18.004541,19.397364,16.339746,15.995264,19.188623
15.746973,18.475977,16.513575,16.560205,17.906885
14.873194,17.358301,16.60586,17.80874,17.682276
17.1271,19.202295,19.444239,19.308008,19.23208
16.890772,19.262598,18.218897,18.455713,19.244043
16.001368,18.80581,17.152002,16.97085,18.19668
16.034082,18.64419,17.28042,17.365137,18.355616
14.410791,17.39541,15.604639,15.515528,16.692774
12.808496,15.148096,13.905909,13.924952,14.747705
11.795801,16.520899,13.644922,13.285303,15.4786625
12.521875,16.353418,13.699366,13.149561,14.554346
11.392481,14.385645,13.226221,13.157618,14.690332
12.5377445,16.463526,13.781153,13.415674,15.841455
11.7167,15.405176,13.072168,12.831934,14.523584
11.350977,15.787012,14.575342,14.683008,15.24502
13.645655,16.035547,13.936914,13.814844,15.629053
14.174707,15.692774,15.066309,15.1625,15.656885
14.077539,16.283106,14.847071,14.949121,15.329493
14.172998,16.495508,15.068018,15.380518,16.72207
14.561426,17.172022,16.050684,16.495264,17.049463
14.457178,17.347559,17.064356,16.991846,16.165918
15.129053,17.3229,16.948633,16.734034,16.756495
13.5394535,17.19839,15.310938,15.202051,16.03213
13.190577,17.22793,15.073389,15.088282,15.989161
17.980616,18.310938,16.77334,17.301905,18.090723
10.787256,14.536036,10.828272,10.3502445,12.79043
9.482325,13.556299,10.474756,10.231348,11.613428
9.130274,15.114405,11.021143,11.028955,12.425196
13.882959,16.162012,14.513819,14.143457,16.009912
12.404932,16.064356,14.732813,14.626612,15.061182
12.137354,15.660547,13.807764,13.390284,14.735987
11.997461,15.399805,13.160791,13.517725,14.832422
11.210352,15.471827,12.334131,12.094629,14.233789
10.392237,14.85586,9.15127,9.316065,12.680811
8.193506,12.108057,9.765528,9.215723,11.042139
9.253077,11.951563,9.886866,9.3971195,11.08169
10.314356,12.567774,9.893457,9.105616,11.567286
10.225489,13.15127,10.788233,10.549463,12.343653
8.583155,11.941309,10.187647,10.308008,11.0880375
6.883203,9.783106,9.135401,9.486231,8.842432
6.879541,10.301661,9.170801,9.435205,9.237207
7.763574,12.042871,10.2875,10.650049,10.2286625
10.186914,14.49502,12.060938,11.330957,12.926905
11.196436,14.174707,12.206202,12.502588,12.774805
9.603907,13.951075,10.996973,11.50625,12.84878
7.2345214,11.470362,8.804834,9.210352,10.897608
6.351953,10.553858,8.02334,7.734033,10.028711
6.7350097,10.470118,7.610742,7.1549315,9.464258
5.9203124,10.683008,7.0038085,6.6847167,9.8363285
4.00332,14.119043,5.639795,5.690088,11.879297
9.487452,14.136866,7.1791015,7.6686034,12.775782
10.275049,12.641748,8.467676,8.663477,11.252344
5.904199,10.332422,7.0958495,7.2052245,9.290918
5.826074,10.339014,6.5458007,6.9032226,9.516748
4.543115,7.987451,6.1,6.2975097,7.412256
4.5094237,8.81875,6.3683105,4.612451,8.164698
