"[299, 255]","[227, 248]","[287, 319]","[279, 328]","[230, 262]"
7.933496,12.989405,9.910547,9.828516,10.998194
8.121729,13.083643,8.843409,8.692286,10.851465
5.619531,12.260889,4.831445,5.2970214,10.627344
7.7169433,13.674707,10.065821,10.048487,11.866846
9.891993,13.890772,11.472559,11.390039,12.803125
8.151514,13.306299,10.57168,10.684961,12.436914
9.026758,13.296045,9.9300785,10.840723,11.323389
7.934961,12.927881,9.770411,9.755518,11.667627
7.6256347,10.707178,6.2298827,6.139795,7.8336425
3.5291991,9.63125,4.9898925,4.829736,6.9012694
2.695703,9.894678,1.7286621,1.6712891,7.228906
2.5501952,9.805323,3.5401855,3.6041503,7.9291015
5.708154,9.627588,4.0387206,3.690576,7.0816894
5.815332,10.9752445,6.0594726,5.8905272,9.163721
6.3165526,10.876612,6.4156737,6.4952636,9.629053
5.7765136,10.364405,6.004785,5.896631,8.869532
3.8841796,10.780909,5.4708495,5.334863,9.254053
6.4808593,11.843897,7.5572753,7.6874022,10.339258
6.3126464,11.541651,8.295557,8.481104,10.020166
6.5138183,12.379786,8.56045,9.020655,10.724512
6.2469726,11.0846195,6.407129,6.584863,9.158838
2.6986327,8.768702,1.990625,2.1307616,6.4652343
3.7955565,10.7425785,4.899072,4.3006835,9.061426
2.8578124,10.115381,4.6185546,4.1812987,7.8976073
8.99209,12.251856,9.253321,8.364649,11.128321
9.088526,12.43252,9.850977,9.537989,11.280664
10.400049,12.12295,8.637598,8.346094,10.260889
10.355127,11.496973,7.411279,7.126367,9.293116
7.2188964,12.447168,6.824121,6.7936034,10.407373
11.027002,12.964991,11.252344,11.027491,12.570215
9.076563,12.833643,10.771875,10.557764,11.928614
5.8336425,11.364405,7.468164,7.4066405,9.86001
8.578272,12.351221,8.304834,8.270899,11.034571
10.895655,12.892481,11.180323,11.433008,12.390528
10.511133,12.835596,11.074121,11.406397,12.212549
10.543848,12.62002,10.839258,10.26333,12.483789
10.839991,12.856104,11.239405,11.775293,12.457911
9.92251,12.818506,11.0880375,11.03628,12.082178
7.504297,11.652491,9.025293,8.7096195,10.272852
5.0108886,10.54458,3.983789,4.6754394,9.165674
5.240625,9.185205,5.077295,5.511377,7.8368163
5.765039,9.038965,5.86416,5.6759276,8.328516
5.600488,10.077539,5.8976073,5.456201,8.403467
1.4952637,9.048975,6.9100585,6.233789,6.7142577
4.6202636,9.016748,4.3148437,4.8563476,8.005274
4.533838,8.7269535,5.780908,5.356836,7.007959
3.6493163,6.7777343,3.9642577,2.740869,6.5697265
1.7696778,6.7210937,1.5506836,1.3651367,5.4640136
2.48208,8.670069,2.648828,3.1866698,7.103418
2.867334,8.44253,3.4239745,3.2479491,6.760156
3.765283,8.939844,3.7098632,4.0631347,7.44082
1.5533692,9.048243,3.4078612,4.041406,7.1717772
4.627588,9.536524,7.1998534,6.9706054,8.358057
6.3805175,10.021631,8.258692,7.848535,9.184717
5.499414,9.79043,6.2604003,6.634912,8.315332
6.672754,11.673243,5.9535155,4.910547,11.147852
9.173731,11.818506,9.333887,8.9317875,11.356592
6.8375487,8.673731,4.6654296,4.30166,6.9410644
7.2157226,11.3050785,8.468409,8.3033695,10.143946
8.340235,11.508936,9.275293,9.130518,10.429102
9.54751,12.023584,10.548243,9.721582,11.552881
8.8502445,11.173731,9.280664,8.991358,10.584864
5.991113,9.599024,7.1893554,6.74624,8.134424
3.992334,8.31875,5.478906,5.4132323,6.6725097
3.0904784,7.955713,3.1935058,2.8551269,5.9955077
1.3299805,8.652735,3.5038085,3.3233886,6.1637206
7.6534667,10.431299,7.5155272,7.242578,9.800684
8.729639,11.351221,9.70083,9.471338,10.163233
7.6656737,10.127344,8.50625,8.451319,8.567041
8.284082,9.264795,7.70083,7.0450683,7.796045
7.8854003,10.17959,7.6839843,8.446436,9.671045
8.111719,10.147608,8.088282,8.590967,9.817286
9.010157,11.437891,9.249903,9.165186,10.367334
8.473536,11.599268,9.103174,8.816797,10.74795
12.469629,12.157618,11.741114,11.525049,12.115625
12.803125,13.626123,11.907862,12.600733,13.587061
13.428858,14.537012,15.146631,14.423487,14.76211
12.417627,12.988428,12.6349125,12.334131,12.760401
10.263575,11.633936,9.678858,9.724268,11.563379
10.848047,11.699854,11.860254,12.06753,12.1271
8.766748,10.6314945,8.322168,7.6671386,9.156885
7.062158,11.12002,7.908838,8.273584,10.034327
11.186182,12.090723,11.173731,11.27627,11.812647
11.077539,12.072168,11.43545,11.637842,11.807276
10.339991,11.5238285,10.397852,10.00918,10.846582
7.5416503,9.537989,7.8443847,7.975488,8.840723
6.655664,9.842432,7.25625,7.213281,8.451319
6.780664,9.854395,9.0689945,8.91958,9.43545
11.517725,12.8519535,11.735743,11.509668,12.465723
11.325098,11.785547,11.909327,11.343409,12.871729
12.340723,12.651758,11.310938,10.858301,14.56167
11.204737,12.165918,11.503565,11.683741,13.099024
10.643213,11.661524,12.245508,12.563868,13.100977
11.613916,12.4439945,11.513575,11.320948,11.570459
6.4793944,10.223536,6.063379,6.447656,8.547754
3.3124022,7.009912,4.249414,4.381006,6.0941405
2.9793944,7.94375,2.7000976,3.2313476,7.153711
4.2589355,6.9347167,5.1,5.021631,6.1686034
3.9654784,8.889307,6.537256,6.653955,8.386133
2.6776366,7.877588,3.5709472,3.6595702,5.6725097
4.817041,6.427881,4.601709,5.0262694,6.5284667
6.486963,7.969873,6.40957,4.0750976,7.360742
4.8443847,6.8507323,5.569238,5.4779296,6.547998
6.62832,10.03628,5.4085937,6.6061034,10.096582
8.976221,9.899561,8.999903,9.661036,10.78042
12.001368,11.143702,12.980616,12.1019535,13.2408695
5.6913085,11.328272,5.0040526,5.185449,9.359766
4.633203,7.730615,6.6773925,6.754541,7.1356444
5.799463,7.4395995,6.4530272,5.8021483,6.9378905
6.3651366,7.0833983,7.001611,6.9273925,6.620996
2.2501464,8.412012,5.4554687,5.411279,8.102686
6.7186522,8.057032,8.144678,8.085352,8.127344
3.992578,9.457911,6.1966796,6.673486,7.9452147
4.504785,10.6974125,3.9361815,4.5562987,10.273096
10.114649,11.85,8.09585,8.72793,11.030664
9.004786,10.286036,8.414942,10.828516,10.012842
6.8375487,9.409815,7.5450683,7.674951,8.600977
5.978418,8.243799,6.6214843,6.9461913,7.9432616
7.9208007,10.640772,8.387842,8.172022,9.662989
9.030664,10.97085,10.488672,10.4144535,12.274561
11.337305,12.079493,10.83877,10.410059,12.264063
17.75332,15.199854,18.22793,17.86001,19.85
12.12295,11.49917,13.692774,13.467188,11.965479
11.778955,11.926905,13.321924,12.7113285,12.818262
13.853907,11.810205,13.754053,13.555323,13.468409
12.211084,11.894678,12.390528,12.30044,15.063868
13.869043,14.633448,13.0221195,13.595606,13.852198
13.153955,11.886133,12.411524,12.732569,11.72378
7.055322,9.172266,8.613672,9.13003,7.569238
8.613428,9.519678,9.879786,9.451075,9.949121
7.4220214,8.150782,7.3336425,7.223779,7.922754
7.0782714,11.118555,7.01333,6.8216796,10.711084
9.356348,10.66128,8.855371,8.110743,12.292383
4.1305175,10.957178,6.3993163,6.9693847,11.473047
5.345361,10.072168,7.1668944,7.5663085,8.1627445
10.97793,11.714991,11.57876,11.004053,12.63418
10.880762,13.050196,13.286768,12.841455,12.450342
11.355371,11.322657,13.339014,13.145411,11.716944
11.186426,10.90835,14.080957,14.130762,12.847315
7.9273925,11.115381,12.155176,12.614649,11.46377
13.246729,11.46792,14.234034,13.225977,12.955225
10.674707,11.938135,11.6,11.479151,11.1175785
14.727442,13.789209,16.814112,15.959864,15.196192
12.577784,11.892725,12.485254,13.146387,13.3224125
14.376123,12.897852,14.055811,13.53628,14.286768
17.141993,15.826075,17.08877,16.980616,16.588037
16.969873,13.480127,15.170069,16.45254,15.932032
14.919336,12.700098,16.359034,15.657618,13.646875
11.9942875,12.159327,13.844141,12.760401,12.150049
12.582422,14.013575,10.68545,11.856592,13.201563
9.109766,12.98086,9.777246,10.573389,12.007715
11.481104,10.985254,12.073633,11.639063,10.142725
14.601709,12.63125,16.044825,15.543116,14.742823
14.083643,13.328028,15.051416,14.985987,15.590723
16.538965,14.633936,18.087305,18.09878,16.360987
19.089502,15.91836,20.267237,20.36294,17.494287
19.822168,16.460596,21.11123,21.981592,20.302149
21.847315,19.766993,23.787989,23.563868,24.637598
23.422266,18.458155,24.655176,24.515772,24.220606
23.296045,17.873682,24.020166,24.784815,21.252588
19.511621,16.757471,20.708155,19.959375,17.228174
20.394434,15.831446,20.971094,20.12124,19.174952
17.402002,15.19253,17.331202,17.000635,16.288233
18.871485,15.083155,18.186182,18.805079,16.85879
20.210108,15.447901,19.261866,17.527735,18.340723
26.033594,20.472803,25.9125,25.650537,25.543116
20.86416,17.806787,18.724512,17.98623,16.169825
15.918116,16.569483,15.573633,16.467676,16.637354
15.330713,15.440821,15.917383,15.155176,16.131739
11.717188,13.761621,12.865381,12.857813,13.28628
12.542871,13.993311,13.936914,14.304346,14.643457
17.09463,15.212305,16.808252,16.465967,16.840723
16.99917,14.653955,15.991114,15.764063,14.972803
12.360498,13.521387,14.642237,13.873438,14.23208
15.871485,14.611475,13.073877,12.462305,14.1349125
12.889307,14.56045,14.274317,14.004541,14.599024
12.219385,14.152979,13.9474125,13.795557,11.938623
12.488916,12.646875,11.624903,11.43667,11.680323
14.909082,14.119532,13.718653,14.991846,14.857569
18.030909,16.601465,15.320459,15.6896,16.827051
17.555567,15.449366,17.0104,17.146631,16.823633
14.313868,14.308985,14.683985,14.819971,13.745996
15.688623,14.868067,17.221582,16.603907,15.922022
18.953028,15.698633,17.850977,16.845606,17.698633
17.85293,15.901758,18.754053,18.23916,19.44546
13.465723,15.886621,14.411768,14.771631,15.791651
16.133692,15.258936,9.918848,9.660303,14.023096
13.319727,13.455469,13.5846195,13.689356,13.54336
15.236719,14.940332,15.959131,15.658106,14.302881
15.394434,15.027002,17.143213,16.794825,15.55044
16.499414,15.88125,15.865625,15.481348,15.781885
17.511133,16.73379,17.138575,18.366602,16.32339
18.547998,19.335596,16.671778,19.370508,19.349512
20.075586,20.311914,19.182276,21.51211,23.788233
22.531885,16.776026,20.196436,21.843164,21.072412
22.924463,16.35,22.082178,24.063623,20.004053
18.099268,16.938868,21.10879,19.773584,20.271875
22.546534,17.357813,21.362207,20.991846,21.310205
22.128077,18.692041,24.256495,24.178125,21.0292
20.9479,18.12002,22.275782,19.709864,20.131495
18.397364,17.357813,22.545557,21.863184,18.933496
18.174707,17.468164,17.592188,17.394922,17.38003
18.36123,17.142237,16.577784,17.08706,16.56753
19.84292,17.576563,19.372705,19.66665,19.062647
17.974756,17.627344,18.825586,19.705713,19.187647
21.810694,17.616846,21.23916,21.437891,20.745996
22.749659,18.021143,21.043848,21.461329,20.199366
25.536524,18.226221,21.413233,22.980616,20.347559
22.53921,18.185205,17.99917,19.103907,20.065088
17.14126,18.50332,19.838526,18.89712,19.790918
17.141504,17.471827,17.069239,17.26211,18.32583
16.256006,17.689844,16.529688,16.207666,18.128077
19.347315,17.286036,17.671778,17.878077,18.14248
21.686914,18.710108,20.053125,20.66543,20.044092
20.629541,17.377588,19.544825,20.39126,20.073877
21.01919,17.856592,19.881495,19.816065,18.892237
21.513086,20.14248,20.234522,19.81582,20.318262
21.555567,19.586329,21.778223,21.78213,19.504541
18.366114,17.73623,20.014795,20.159815,18.101221
19.115137,16.843409,20.71792,20.85879,17.099512
19.920557,18.790674,20.160791,20.210108,19.103662
21.978174,18.48916,23.471338,22.91958,21.84878
19.656397,19.346094,22.11587,22.081934,21.085596
23.005274,19.857569,23.140528,22.855616,22.958155
23.239649,19.787012,23.557032,22.415186,23.478418
21.566553,20.02041,21.202784,21.119043,22.5917
18.050928,19.189844,19.639063,19.15957,19.81582
26.230616,20.61416,22.247461,22.223536,23.373438
21.583887,19.542871,22.196436,22.80459,20.982569
23.754053,20.956446,22.653711,22.219385,21.175684
27.011866,21.41128,25.15249,26.016504,26.300684
24.55752,21.343653,25.03628,24.86172,25.112207
26.488672,22.537012,28.246485,27.600245,26.31753
25.207178,21.974512,25.230127,24.871485,23.47378
30.687159,23.439844,29.218897,30.311182,24.220118
33.379784,26.570948,33.924217,35.04238,29.176172
36.377098,26.753077,35.321434,36.462303,32.912987
39.067772,29.049952,35.57705,35.89199,31.106348
28.51089,25.922998,26.452784,28.461817,26.6813
28.158106,24.155664,23.273096,25.006006,25.62124
19.636377,21.163721,19.978418,20.555079,19.528223
20.604395,20.208643,20.201075,20.586084,19.398584
25.589502,22.794092,25.996485,26.675196,23.722559
27.550928,24.336329,28.390284,29.315577,26.821924
28.82754,23.15127,28.39004,28.463037,23.766016
25.818995,22.26797,25.593164,25.301172,22.61587
24.571192,21.932764,26.793604,26.166895,23.375391
23.85171,22.462305,24.634912,23.58462,23.495508
23.318018,23.029688,23.302149,23.064112,25.316065
21.360498,22.073145,22.14419,22.152246,23.388086
20.899317,20.88418,20.12588,20.055079,21.38711
20.3063,19.896631,21.502344,20.933496,19.398096
22.143702,20.661768,20.454737,20.72964,21.835596
21.859766,21.205225,21.16543,21.292383,21.11001
18.65957,20.762598,19.997705,20.470362,19.73501
18.838037,20.701319,18.808008,19.152735,21.024805
20.20254,21.215479,18.92373,19.236963,20.88589
27.608545,23.04629,24.75332,25.88125,26.82168
31.012842,23.228907,28.2604,28.29873,26.025537
24.237207,21.433496,23.577051,24.406641,23.633448
23.71084,20.766993,21.141748,21.340967,22.685694
20.760645,19.98916,20.787989,20.937647,19.064844
21.999903,20.577295,20.123194,21.295313,19.718409
18.39956,19.924463,19.14541,18.130518,18.984278
25.071924,20.610743,24.68374,24.224512,20.371729
24.332666,19.367579,24.083155,24.325586,19.467432
20.104883,18.858057,21.960352,22.005762,19.068506
22.123926,19.401758,22.936914,23.553858,19.179346
25.297754,22.162256,26.294092,26.629786,23.85708
28.019434,22.944727,27.718653,27.83047,25.674463
27.617334,22.755274,26.30581,26.103418,25.175684
21.721338,21.233057,23.365137,23.434229,20.914942
19.80044,20.665674,19.646631,20.974024,21.098047
21.248194,20.427393,20.177637,21.26919,21.620508
23.10708,22.145166,23.868555,23.882471,22.23501
24.60708,21.346582,24.877832,24.607569,24.217432
26.456446,21.696436,25.477686,26.357325,25.259424
26.516748,22.879541,25.573877,25.70962,23.464014
26.291895,23.943995,25.20083,25.780909,24.044336
24.60586,24.269434,25.635645,27.397608,24.504297
27.649073,24.105371,26.020899,26.454248,25.109522
29.05874,24.45791,25.610254,27.040674,25.7521
24.869776,22.01333,24.532862,26.037256,24.214014
25.104395,21.883692,24.66665,24.963282,23.592676
23.058985,21.826319,24.683496,23.601221,22.24795
20.184473,20.738184,21.743067,21.413477,20.682276
21.23501,21.349756,19.64004,19.876612,20.909815
20.1188,21.241358,21.01089,20.663721,20.45254
21.810205,20.753809,22.41714,22.698633,22.589014
22.526758,21.532618,23.06167,23.714746,22.949121
20.791407,20.559473,18.973536,18.61123,20.329737
21.819971,22.07583,20.922998,21.54043,21.48379
23.768946,21.078028,22.568018,23.804102,20.805079
23.463282,22.208887,22.767725,23.566065,21.860254
20.156641,20.935205,20.037745,19.863428,20.918604
22.22207,20.18374,20.978662,22.131983,19.660791
22.826807,21.300928,23.69375,23.518702,21.193018
24.149317,21.632471,23.04922,23.139063,22.784815
24.151026,21.410547,24.181543,24.355616,23.661524
23.011377,21.740625,23.633936,24.068995,22.536768
22.655176,20.943995,23.158106,23.288477,23.5021
22.73794,20.265772,22.890772,23.398829,22.919825
22.468409,20.902246,21.532373,21.895166,21.842432
18.109522,20.079493,18.295313,18.397852,18.87295
17.99502,19.103418,18.79336,19.035059,19.741114
19.534082,19.983301,19.426416,19.089746,20.491846
17.035303,20.11831,18.363916,18.063623,20.418848
19.921778,19.956202,20.060205,19.94375,20.662256
19.662256,20.215723,20.4479,19.449366,20.83169
20.75625,20.158594,19.852686,20.403955,21.316065
21.064112,21.96792,20.852442,20.701807,22.421778
24.53335,21.194239,23.603174,23.213526,21.166895
24.284815,21.031153,20.129541,19.442286,20.56582
15.6036625,18.615625,15.949854,16.162745,17.07754
16.34292,19.179102,16.841455,16.380762,17.776026
12.490381,16.795801,13.5099125,13.34878,15.593409
14.903223,18.514307,15.875391,15.733301,16.891504
16.907373,18.856592,17.735254,17.553858,18.643457
17.30874,18.60586,18.759424,18.41714,19.76748
18.042383,18.37588,18.167383,18.14419,19.012354
17.624659,19.003565,17.44961,18.399073,19.105371
17.422754,18.916895,18.054834,17.259912,17.991846
15.382715,18.780909,16.832422,16.043116,17.632715
14.692041,18.182764,17.388819,17.200586,17.52041
16.272852,19.064112,17.26797,17.547998,18.579493
14.635645,17.69082,15.149317,15.5394535,16.343164
15.839746,17.768702,16.751123,16.795801,16.90542
16.546534,19.792871,16.819239,18.09585,17.446436
14.6332035,17.88589,16.028955,16.03457,16.677881
12.376612,15.283838,13.899317,13.66958,14.599512
11.847071,14.656397,13.115381,12.961817,13.678858
11.471827,15.518457,12.424463,12.248438,14.751368
13.217432,18.17129,14.037989,13.817286,17.61172
13.111719,16.745508,13.809961,13.355616,15.110254
12.30044,14.506983,12.155909,12.286036,13.388819
11.697657,14.866846,12.921289,13.211084,14.333155
11.202295,14.735254,12.836084,12.607813,14.0377445
10.057764,15.88833,11.658594,12.380274,14.316797
10.48208,15.617823,11.612207,11.387354,13.712549
11.774561,15.570948,12.119043,13.22793,14.359766
11.442286,16.368067,12.558252,12.246485,14.72085
12.492334,17.343653,12.751368,12.710108,15.091944
11.436182,15.763575,11.982569,11.600733,14.200586
13.580469,17.316797,14.391016,13.984766,16.708887
12.5377445,17.390528,14.089746,13.767969,16.065332
7.9208007,13.380518,9.749414,9.5724125,11.625391
6.8202147,12.333399,7.190332,7.1910644,11.062403
8.306543,15.803858,9.528955,8.888086,13.752344
11.847559,15.940088,11.987207,11.491358,14.586084
11.213282,15.396143,11.267969,10.477442,12.796534
9.930567,14.915186,10.135889,10.20376,13.527002
11.590479,15.258448,12.421778,12.350977,13.86294
10.785059,14.569239,11.29458,11.464014,12.949121
14.129053,16.63296,15.038233,14.715479,15.782618
14.1542,16.297998,12.761377,12.169092,14.004053
9.418604,13.52334,9.798731,10.023584,12.241602
8.12295,14.04043,9.058008,8.931055,11.436182
12.698877,15.823145,13.785791,13.370264,14.909815
14.306543,16.273584,14.5863285,14.278223,16.110498
13.625147,15.761133,10.799219,10.752588,15.0377445
