"[299, 255]","[227, 248]","[287, 319]","[279, 328]","[230, 262]"
7.5924315,11.77627,8.205225,8.044825,10.258936
9.850733,13.484522,9.6,8.674952,12.3363285
11.48794,13.808985,11.70083,11.361963,13.226709
9.835352,13.286036,9.939112,9.546045,12.26626
6.7501464,12.998438,8.911524,8.557276,12.050928
10.041651,13.76333,11.57583,11.683496,13.431299
9.69961,13.174707,10.584131,10.828028,12.225
11.001368,13.233545,7.2970214,6.9288573,12.010889
12.194483,13.810938,12.542627,12.601465,13.516748
13.218897,13.89834,13.249903,12.962549,13.516504
12.153467,13.890772,13.184473,13.006739,13.323145
10.4942875,13.85293,10.811426,10.093164,13.275782
11.638575,13.8519535,11.803858,10.96084,13.121729
7.3907714,11.944483,7.812158,8.046534,10.505762
8.307764,12.961817,8.865381,8.2425785,11.112696
8.04751,12.452784,8.999414,9.150049,9.770166
8.933008,13.669092,9.556299,9.034082,12.261866
6.0995116,10.468409,8.926416,8.84292,9.176661
5.7940917,10.195215,6.1095214,6.164453,8.179346
4.8595214,9.6192875,5.7557616,5.8575683,7.8246093
4.9027343,9.824121,5.7813964,5.408838,8.214258
4.2101073,9.964746,5.337793,4.652002,7.9183593
4.9498534,9.659815,4.4601073,4.0697265,7.4291015
3.1126952,10.546778,6.162744,5.1026855,9.234766
4.9254394,10.454493,6.2958007,5.566797,9.512598
5.1463866,8.748926,3.8216796,3.3512206,7.8963866
3.7796874,8.944727,4.7518554,4.5248046,6.9881835
5.591699,11.228174,6.2589355,6.253076,10.3189945
4.8358397,10.560205,6.8353515,6.7621093,9.930811
3.049951,10.729151,3.093164,3.3441405,9.001612
5.867822,9.676172,5.9776855,5.747949,8.13833
8.243311,11.244043,8.67544,8.168604,10.354151
8.231104,12.281641,9.031153,8.92251,11.687403
8.464258,12.40835,10.111963,9.926172,12.016748
3.8009276,9.1957035,5.3280272,5.4601073,9.168116
2.103662,8.739405,2.4256835,2.171289,8.094629
-1.3333496,6.384912,0.8780762,0.6366211,5.1498046
1.5008789,8.135645,2.7662597,3.4486327,5.266504
4.752588,9.981592,4.8202147,6.211572,8.572168
6.631494,10.609034,6.513574,6.24917,8.898584
8.770899,12.382959,9.766748,9.409815,11.413721
9.177637,12.280176,10.269678,10.161036,12.22085
8.181299,11.129786,9.534327,9.386621,10.78335
8.329004,10.4596195,9.455469,8.998194,9.653223
7.464746,11.191553,8.640528,8.481104,10.506006
8.7521,11.356348,8.80459,8.464014,10.876368
11.426416,12.931055,11.296778,10.263575,12.882959
9.330957,11.752588,9.454981,9.109278,10.142481
7.5833983,10.220606,8.172022,8.709131,9.278467
4.2538085,8.261866,5.0072265,5.2611327,7.3336425
5.4654784,11.44253,6.03042,5.3802733,10.1271
7.640039,11.457911,9.176416,8.769434,10.182032
6.5851073,10.256983,7.329248,7.1024413,8.8519535
5.463037,9.872705,6.2853026,6.3145995,8.03628
4.155664,8.59878,4.612695,4.98916,7.2279296
4.9361815,9.3832035,6.0196776,5.903955,7.7679687
4.109033,8.66958,6.0802245,6.0086913,7.358545
4.1078124,7.2921386,5.5467772,4.9659667,6.3617187
2.9381347,6.786035,3.5174804,2.947412,6.141504
1.6742188,5.28457,1.4334961,1.5711914,4.515039
1.5960938,6.204492,2.4898925,2.025537,5.0926757
1.273584,5.1412597,2.3998046,2.7923827,3.563867
-0.96835935,4.2330565,1.237207,1.3253418,3.8475585
0.22524413,5.3858886,2.0990233,1.8258301,4.2662597
0.7345215,5.673486,2.211328,1.7669922,4.7750487
1.3316895,6.1219726,1.6634766,1.8917481,5.363916
1.6349121,8.130762,1.8231446,2.015283,5.535547
9.115381,10.976221,6.563867,6.094873,10.952295
8.6661625,10.626123,8.47378,8.0880375,10.517725
8.818018,9.874903,8.660791,8.401026,9.801905
8.330469,10.669336,8.945459,8.660547,10.173487
6.853906,9.725489,7.7430663,7.7906737,9.145411
6.601953,9.487452,8.110987,7.5643554,8.8146
6.3822265,9.27334,8.078028,7.6563964,8.455713
6.879297,9.381983,7.2418456,7.0555663,9.425196
6.8663573,8.880762,8.142725,7.5401855,8.239405
6.2367187,8.714502,7.4515624,7.3280272,8.900293
7.266504,10.2286625,8.205225,8.235498,10.589014
6.8202147,10.515528,9.033838,9.031153,9.811182
11.028711,11.243799,11.073389,11.61709,11.341944
7.516748,9.660303,8.041651,8.068506,9.38418
5.7088866,8.869776,7.6483397,7.364404,7.765283
7.214502,9.323389,7.3512206,7.963281,9.468164
10.233545,11.080713,10.836573,10.820948,11.704004
9.218164,10.842676,9.883936,9.655176,10.714502
6.4359374,10.000147,7.816797,7.6791015,9.089502
9.01919,10.881006,9.330225,10.338526,10.84585
9.950342,10.805567,10.1158695,10.388819,11.408594
7.4566894,10.526758,8.688379,8.292627,10.079737
6.891504,10.0394535,7.8268065,7.136621,9.305567
7.6927733,9.277002,8.213526,8.05752,9.48794
8.29458,9.445215,10.563868,10.153223,10.6002445
9.945459,10.090723,9.760645,9.879786,10.3417
8.314356,9.516993,7.4139647,7.332422,8.803125
9.587793,9.802881,10.079737,10.029444,10.847559
10.058252,10.748194,11.662012,11.160303,11.819971
10.836084,9.434229,10.224024,10.810694,10.716455
12.139551,9.687891,11.305323,11.147364,12.373682
9.896875,9.682764,11.62002,12.299219,10.727442
13.379297,11.838282,12.732325,12.862207,12.979395
12.42544,13.054102,14.436914,15.047998,13.364161
11.969629,13.416407,13.126123,13.373194,14.979883
9.99209,13.576563,11.607569,13.790186,12.125879
12.160791,13.521875,11.63418,13.635401,12.602198
9.617334,12.211817,9.753565,11.625147,11.596827
7.969629,11.031397,7.2020507,7.8856444,10.851465
7.2052245,11.145166,9.174463,10.027002,10.330225
7.322656,11.3692875,6.770166,7.607324,12.100977
10.822657,11.582178,10.747705,11.326075,12.194971
10.74795,12.702295,10.876856,11.097803,14.531153
9.072657,11.157618,10.570459,9.978174,10.281153
11.298243,10.985987,11.138819,11.855127,11.791651
11.954493,11.371485,12.1471195,11.627344,11.025049
11.007471,12.374903,12.69253,12.710108,13.846827
8.826807,10.724024,10.011866,9.726465,9.886133
9.483789,10.341211,10.536524,11.13711,10.802149
9.42544,10.960596,12.798243,12.2911625,12.405176
8.824366,11.079004,9.636377,9.672754,10.70669
16.619776,12.74502,15.0082035,15.688868,15.169336
11.444727,11.880762,12.389551,12.262842,12.543604
10.840235,11.279932,12.030909,11.977198,12.242823
14.042383,11.126612,12.244043,12.552637,11.895899
14.955225,11.883936,15.495752,16.446436,16.281397
15.850489,11.439844,17.947657,16.590967,14.555567
17.952295,12.324854,18.074121,17.905176,17.926416
19.773096,15.118311,19.765528,20.81167,20.244287
17.535547,14.947168,16.139063,15.59878,13.39419
10.683496,10.897364,10.971827,10.617334,11.311914
9.863916,10.334864,10.323389,10.386621,10.478174
9.739893,10.500635,10.731836,10.55044,9.965723
11.920313,11.906885,13.164209,12.860743,12.119776
13.465235,12.720118,14.392969,14.581934,13.466944
13.327295,14.453516,14.644922,14.753809,14.292871
14.572657,14.745264,15.309229,15.549463,15.549952
15.0880375,14.313379,15.937647,16.14297,17.257471
15.429346,14.368311,16.777979,16.943018,16.299952
10.721338,13.584864,11.710352,10.515039,12.349512
13.35708,12.629053,13.57168,13.010157,12.278467
15.248926,14.205469,15.673975,15.949121,14.991358
15.249414,15.349268,16.310694,16.757471,16.141993
17.582666,14.861719,17.745996,17.909815,15.396631
18.845118,16.911524,17.00088,18.55874,17.377344
16.79165,16.258448,15.810938,16.989405,17.49502
18.001612,15.1314945,19.062891,19.697657,18.394678
19.937159,14.8849125,14.993555,15.291895,15.859766
11.205713,12.626368,11.774317,12.047022,13.30044
11.507959,13.496485,14.575342,14.076563,15.143213
11.56045,11.751123,13.120264,12.722071,12.739161
13.201075,12.806055,11.973291,12.014551,12.477686
10.684229,11.725733,11.740381,11.310938,12.743311
11.648584,13.303614,12.483057,12.395411,13.596094
15.167139,13.850733,16.760157,17.18374,17.083643
19.38125,13.849756,16.430323,16.806787,16.399805
22.920313,17.788721,22.594141,22.123682,20.989405
24.078272,20.486963,24.59707,25.168604,26.158838
22.458887,21.838282,22.616846,23.306787,24.177149
17.281397,14.820459,18.001123,18.831934,16.85464
19.350489,15.291407,18.18252,19.268213,17.772608
14.432764,14.720362,13.306299,13.030176,14.423487
14.113428,15.427149,14.179102,14.388086,14.812403
16.08584,16.326319,16.869043,16.727686,15.424219
16.77749,16.863184,20.122705,20.36831,18.39004
18.340723,15.213282,18.29165,18.954493,15.543116
11.719141,14.6158695,12.646387,12.935938,13.416407
16.528711,14.9125,15.450586,15.265039,16.88125
18.725977,15.607813,16.592676,15.970362,16.146387
16.132715,14.992334,13.903467,14.615625,15.173487
14.207911,13.084131,13.854883,13.479883,14.526758
14.744776,13.794825,13.930567,14.200586,14.044336
12.028711,14.244532,13.1957035,12.51626,14.38418
14.775782,14.477198,14.198877,14.3849125,16.100977
11.398584,13.402491,11.632471,12.711084,14.850977
11.556543,12.844629,13.249903,13.383936,13.178125
9.705713,13.351465,13.216944,12.356348,12.934961
11.908594,13.1939945,13.282373,13.514795,13.510401
14.085108,12.99209,14.695215,13.434717,13.1332035
17.907862,15.046045,20.846338,20.433008,15.91128
17.734034,16.120996,20.651514,20.688623,17.617334
16.38711,16.512598,18.077784,17.937891,17.247461
15.392481,15.609766,15.651514,15.409815,15.168116
13.538233,14.5238285,14.032129,13.920069,14.611719
13.020166,13.722071,13.547266,13.593653,13.635645
12.241846,13.337061,12.982813,12.893457,13.026514
13.309473,13.817041,12.744532,12.3519535,13.383936
11.549707,14.505274,13.233545,13.672754,16.157862
8.91543,13.909327,13.766504,14.349268,14.032129
14.571924,13.754053,13.863428,14.477686,14.449366
15.016016,14.531397,15.940577,15.527246,14.8771
15.472071,15.153467,17.360743,17.010645,16.433252
18.168848,15.501612,18.552881,18.460596,18.003565
20.626856,17.31167,20.23623,20.324121,20.721827
22.194239,18.965723,22.065577,21.497217,21.767725
25.941309,21.704493,26.035791,25.88125,24.132715
26.193506,21.446192,27.197657,27.630518,26.943018
29.022852,23.127832,28.833887,30.33877,26.121973
31.405664,24.450098,31.33047,32.19863,29.390772
32.89785,25.88125,32.165184,33.158836,31.07168
34.622948,28.785059,34.63662,35.471825,33.405663
35.31582,25.342676,31.916162,34.54824,29.188135
21.01211,22.998926,17.258448,16.570948,21.439112
16.950586,18.945215,17.113184,17.224512,18.521875
18.316553,19.434961,18.970606,19.53042,19.02212
21.983301,18.619287,23.044336,22.844385,19.20498
20.578516,18.410547,23.464746,23.813623,19.768457
22.596338,20.455713,24.790918,24.858057,22.752832
25.240625,21.92959,24.220362,24.454248,24.008204
24.58584,20.341211,25.066065,26.464502,22.725245
25.691553,20.01504,25.624903,24.88589,23.166162
21.106348,19.812159,22.39541,22.28457,19.804102
23.349512,21.398096,21.708399,20.807276,21.749659
25.155176,22.497217,24.004053,24.528223,23.366846
22.814356,21.974756,22.731348,24.666162,22.800684
25.730616,21.105371,27.214746,27.697657,25.489893
26.070215,21.318506,24.59585,24.036768,21.233057
21.534082,23.234278,22.213282,23.769922,23.484522
26.241358,22.146875,26.806543,26.741358,26.287745
27.181543,22.328516,27.09878,26.967188,25.353418
26.355371,21.600977,22.6813,24.27212,21.49502
27.492579,21.687159,25.342188,24.775293,24.55337
20.853174,21.672998,21.120996,20.48086,21.474756
20.410059,19.606348,21.308496,21.120752,19.608057
21.10708,19.534327,21.445704,20.825098,20.15713
20.917383,20.584131,19.40249,18.740137,20.163721
19.801172,20.476954,18.674952,19.242579,21.643702
19.99502,19.694971,21.398096,21.321436,20.619776
24.291895,20.445704,25.394678,24.95376,24.235987
28.05874,21.596338,27.288721,28.591944,25.684717
21.550196,21.396387,23.393213,22.875391,20.464746
21.827295,19.119776,22.000635,21.70376,20.504053
27.44668,20.787989,24.34463,24.324854,23.66421
23.7438,21.024073,22.484278,23.19375,22.990137
26.906153,22.293116,26.259424,25.324854,22.491846
29.927393,24.664698,29.08291,29.927149,27.11709
31.052637,28.475,33.454735,33.79043,31.283594
32.58071,28.606348,33.341454,34.18325,31.468409
33.14199,26.4938,34.142967,34.267723,32.158104
34.67324,26.783106,35.229393,36.05947,32.52871
32.953514,23.724512,30.763575,31.205713,28.285547
25.315088,27.39297,23.123194,23.224756,26.410303
24.058496,25.871973,22.758448,24.99331,26.253077
28.62002,23.581934,28.88833,28.131495,23.6354
27.67251,23.39004,28.06582,27.458643,23.160791
24.394922,25.327295,22.174952,22.693262,24.755518
22.74795,24.717188,20.838037,21.943995,24.217676
21.419336,23.145899,20.985254,21.753077,22.171534
24.934961,23.738916,22.891504,23.04629,25.57168
21.6,21.160303,18.383936,17.16836,19.271387
21.81167,20.888819,21.700342,21.336817,20.802149
24.125391,21.321436,23.393213,22.714502,24.71792
26.648584,23.36709,25.22915,25.431543,25.833155
30.597559,24.37417,29.592432,29.535791,30.560205
28.130518,26.178858,29.740137,28.768457,27.63003
28.510157,24.981104,25.4479,27.178858,25.487452
31.129297,25.579737,28.0021,29.68374,26.719141
33.5187,25.715235,30.934961,31.846094,26.668848
32.51577,24.445215,30.554834,30.2167,24.30459
30.185938,27.75332,27.337793,29.492823,29.044092
34.890526,25.275293,32.46572,32.83535,30.688623
25.738428,22.476221,23.805323,24.309717,24.132471
24.94961,21.93667,23.423975,23.11416,23.792627
27.826563,22.129786,25.225,25.615625,24.98672
31.101221,24.724268,28.695948,28.306055,25.143702
29.763086,23.965723,29.14541,29.11587,25.114893
25.590235,22.273096,23.998194,22.877832,22.600245
18.819727,20.366602,21.741114,20.586084,20.673975
20.037989,19.58584,20.972315,21.115625,19.621973
23.8417,20.605616,22.086817,20.875635,22.11831
26.656885,20.695704,24.54336,24.988672,23.416895
31.213282,24.350977,29.077295,28.672998,24.85464
31.542627,22.527735,31.45498,31.737207,29.799463
27.354395,21.627588,25.376856,23.227442,20.904688
21.38833,20.23794,22.180567,21.507715,20.374414
21.724024,20.229883,21.903711,21.035791,22.1271
23.777002,20.828516,23.830957,24.16836,24.520166
25.165674,20.975733,25.207666,24.688135,24.070704
20.089258,19.055567,19.951807,19.551172,19.127344
20.403711,19.069483,20.90249,20.21499,19.931787
21.494776,20.39004,20.193506,19.867579,19.676172
22.36001,20.816553,22.374414,22.060938,22.64297
20.535791,20.620508,19.158106,19.031397,18.706446
20.208155,18.570948,18.216211,18.39541,18.816553
19.283106,19.329004,19.659815,19.100733,20.565577
21.070704,20.092188,18.584375,17.604395,19.297022
24.799463,21.208155,23.62295,22.660059,22.995996
24.745264,20.503077,19.530176,19.412745,20.468409
23.543116,20.775782,19.636377,20.416407,20.57998
24.509424,21.366114,21.634424,21.955957,22.194483
18.672266,20.826563,19.21084,19.207178,20.104883
19.371729,20.246973,19.442774,19.42373,19.989893
21.515772,19.973536,20.557032,20.596094,21.241358
22.256739,19.86831,18.602442,18.594385,20.748926
19.030664,19.672266,17.695215,17.7792,17.722315
20.931543,20.228174,18.43545,18.779932,20.194483
16.885645,20.085596,16.955713,17.03213,17.949121
16.79629,18.895166,17.060938,16.612696,18.156153
15.711573,17.545313,16.225245,16.160303,16.764551
16.374659,18.47671,16.481104,15.979639,15.559229
16.259668,19.26919,17.668116,17.497461,18.229883
16.6188,19.277246,17.63003,17.211329,18.138819
13.520411,15.513819,13.955469,13.416895,14.957911
14.966455,17.328516,15.802149,16.040186,17.565332
17.36172,18.685205,18.64297,17.666895,19.183985
19.068262,19.191309,20.787256,20.199854,21.021387
16.33999,18.494532,16.33047,16.388086,18.442286
17.036036,18.257227,17.475977,17.552881,17.631983
19.79922,18.8688,18.55044,18.599268,19.343164
20.145655,19.52627,18.954004,19.754053,20.527735
21.670801,19.78457,19.47964,19.456934,20.41421
17.391993,18.594873,18.215235,18.13711,18.199366
15.023584,17.424707,16.977198,16.216211,17.067041
15.359522,17.125391,15.683985,14.98501,16.907862
14.666895,17.290674,15.506739,14.738428,15.718653
14.250391,17.137842,15.099756,14.394678,16.112452
12.0064945,15.926905,12.277491,12.040918,14.2875
8.378809,14.324366,11.044825,10.298731,12.602442
10.223536,14.488184,11.783106,11.641016,13.778467
15.146875,18.191797,15.208643,15.076807,17.596338
15.92251,18.409327,16.441065,16.0375,18.048487
16.83047,18.07339,17.722803,17.172022,18.515528
15.383936,17.308985,15.657373,15.732813,16.984766
15.359034,17.022608,15.602686,15.946436,16.240625
14.369776,16.822168,15.160791,15.177393,15.314356
13.544336,16.331446,14.401514,14.234766,15.50625
16.656885,17.944727,16.536524,16.311914,17.226465
15.957422,17.5563,14.866602,15.323145,17.17251
16.701807,18.405176,16.812891,16.49917,18.39956
14.807276,17.170313,15.860987,13.612207,15.409571
11.043116,14.868311,11.832666,11.820948,12.808741
11.251856,14.852686,12.176661,12.276758,13.865625
12.251856,14.6314945,13.3346195,12.859766,13.48501
13.903467,16.06875,15.133936,14.767237,15.606104
12.455225,15.800196,14.325342,13.850733,15.124659
11.955713,14.695948,12.023584,11.866358,13.745508
11.670801,13.829248,12.7425785,11.832422,13.121241
9.618311,13.073877,10.81045,10.521143,12.324366
9.813135,12.488184,11.035303,10.8146,12.007959
9.762842,12.203272,10.883692,8.87002,11.545313
10.738184,13.633448,11.568506,11.093409,12.194727
9.692774,14.258448,10.190088,10.783106,12.938135
10.544336,14.013819,11.556055,11.194727,12.895655
7.0770507,12.483789,7.7958007,8.238672,11.414209
6.2608886,11.626368,6.548486,6.4254394,10.614893
6.428369,11.556543,8.039942,7.49917,9.20376
6.0919433,10.382715,9.207422,9.279444,7.9481444
6.292627,8.617823,8.132959,8.002588,7.907861
5.6446776,10.017237,7.5294433,6.9444823,8.094629
3.7699218,11.98794,6.464502,6.2191405,10.415186
7.5782714,14.039209,8.827539,8.503077,10.621485
7.8697753,12.837793,8.731592,8.444239,10.221338
9.501123,13.873926,10.027735,9.771143,12.420801
10.162256,13.63418,10.55459,10.343409,11.465723
9.7792,14.098047,10.695459,11.059717,12.302881
9.0238285,14.039942,9.90542,9.114649,12.960352
9.5724125,12.381006,9.575342,8.949121,10.83169
9.507471,12.864161,9.879053,9.802637,11.572168
9.894922,14.073389,10.787989,10.429346,12.044825
13.27627,15.810205,13.91543,13.515284,15.215967
12.996973,15.771143,14.201807,13.841455,15.067041
10.964991,14.150782,11.940332,12.024073,13.611719
9.769922,14.438623,11.5375,11.495996,13.077051
