"[299, 255]","[227, 248]","[287, 319]","[279, 328]","[230, 262]"
7.230127,13.105616,8.766993,8.801905,10.558985
10.6644535,15.170801,10.589746,10.591211,13.368067
14.432276,16.416895,15.068506,15.122705,15.90835
13.373682,16.042871,13.698145,13.422998,15.3224125
7.3458495,13.337793,9.308496,9.586084,11.428858
9.053858,13.42959,9.501368,9.229151,11.934961
7.894922,12.686914,6.989404,5.6981444,10.228418
9.897608,14.329493,11.294336,10.719385,13.224024
9.4439945,13.330469,10.226221,9.924952,11.477686
5.9608397,13.049463,6.4999022,6.429834,9.046045
8.429346,14.085352,9.983545,9.805811,12.330957
6.976953,11.109766,7.258203,6.753076,8.274805
8.917627,13.530664,7.3373046,7.087793,11.6542
8.282129,12.588282,7.3131347,7.4378905,9.734766
4.778955,9.571924,6.3839355,6.5873046,8.022852
4.5645995,11.255518,5.5299315,5.301416,9.690577
4.4850097,10.870508,3.7535644,4.7628417,9.176416
11.630518,13.891748,11.22378,9.560694,13.399561
11.699854,13.841211,12.035547,11.594629,13.128321
5.8131347,10.739893,6.4674315,6.5577636,8.939356
4.2171874,10.1349125,6.0020995,5.923242,7.957666
3.7032714,9.724268,5.275781,5.3543944,7.5606933
3.1698241,9.158106,4.3268065,3.8619628,7.9530272
0.7860352,8.286036,2.5121093,2.367334,7.768213
5.360254,8.702295,2.8810058,3.3592772,8.090723
6.3790526,9.625391,6.655664,6.1075683,9.071192
6.543115,9.201319,7.8197265,7.3043456,8.837793
4.388086,6.880029,5.7484374,5.9850097,6.319238
3.5267577,7.0523925,6.684961,4.7835937,5.0250487
3.7196288,8.678614,4.615869,4.1041503,6.4171386
8.402002,11.802393,7.8734374,7.480371,10.329004
11.265039,13.522364,11.965967,11.471582,13.1488285
9.211573,12.689112,10.162256,9.552149,11.6349125
7.735498,12.03042,8.163233,8.010889,9.766504
5.9999022,10.570948,7.235254,7.175195,8.861475
4.9618163,10.606592,5.6581054,6.190576,8.8771
11.782862,13.433252,11.130518,10.913233,13.1019535
8.284571,12.158106,9.316065,9.278711,11.059717
11.986963,13.3502445,9.545313,9.524317,13.298731
11.83584,12.903467,6.8358397,6.688867,9.050928
4.642236,9.924219,6.282617,6.1493163,7.907373
5.4483886,10.433008,5.065576,6.149072,9.460352
8.107813,11.515039,9.282129,9.242823,10.593653
7.7784667,11.267481,8.535547,8.801905,10.107569
3.9896483,8.441309,6.376367,5.5226073,7.013086
3.563867,8.934473,3.8407226,4.894922,8.010889
6.2677245,10.630274,7.2413573,6.256494,8.277491
8.68252,12.082911,10.371729,10.317774,11.521631
8.419092,11.077051,8.663233,7.5575194,10.501368
4.440088,7.7240233,3.4784179,3.3592772,6.7018065
4.3941894,9.451319,7.0714355,6.957666,7.282373
7.5753417,10.666651,8.672022,8.455469,9.8189945
7.7953124,11.01919,8.732325,8.713526,9.959131
7.827539,10.921534,9.784571,9.504541,9.949854
7.9706054,10.794092,8.833887,9.267481,10.577051
6.8770995,11.172754,8.833155,8.436914,10.55752
5.6197753,10.382959,7.3263183,6.936914,8.927149
7.7916503,9.858789,8.299463,7.516748,8.62417
7.61416,11.822168,8.752344,8.29458,11.279688
8.669092,11.587305,9.291651,9.001856,10.597559
5.813379,9.751856,7.4642577,6.662988,8.107569
4.595361,8.972559,5.448877,5.4842772,7.938623
-0.76401365,6.99624,0.48964843,0.27211913,5.721338
0.57314456,5.249414,2.2533202,1.9635254,3.7774901
3.3983397,7.1234374,5.1656737,4.7940917,6.0365233
3.4381347,7.2000976,3.2049804,4.12417,6.403711
5.867578,9.836084,6.629297,7.1893554,9.873438
7.9569335,10.448877,9.602442,8.964014,10.542139
7.7811522,10.887842,9.829248,9.07168,10.241114
6.7066894,10.289698,7.879541,7.9398437,9.204737
6.3197265,9.924952,6.2782226,6.195947,9.135889
8.166651,11.026026,9.471094,9.545801,10.405176
6.0348144,10.2911625,6.389795,6.458154,8.866602
9.8224125,12.563868,10.495508,10.362696,12.534082
7.195459,10.162989,7.405664,7.209131,9.391748
5.5018554,8.226465,6.1197753,6.2088866,7.242822
6.0660644,8.91836,6.403711,6.3353515,8.636866
4.44375,7.69082,5.682031,5.2696776,7.1515136
5.40542,7.922754,5.767236,5.6549315,7.098535
5.5265136,9.72378,6.294824,7.0226073,8.781885
8.014307,10.200342,8.065821,8.396631,9.254297
8.876368,11.044336,8.699366,8.865381,10.690821
10.808008,11.524073,9.500635,10.31045,11.464991
10.256006,11.743799,12.182276,11.714258,12.367823
8.805811,11.280176,11.033594,10.879786,12.5082035
7.723047,10.342432,8.94668,9.319483,9.865137
9.827539,11.615137,10.323145,10.396875,11.150782
12.699366,12.587305,14.088282,13.368799,14.6175785
10.619532,12.434717,11.577784,11.346338,12.416407
11.365625,11.412012,8.929102,8.918604,9.786768
6.855371,9.765284,8.955469,8.597071,8.667383
6.7228026,9.757471,7.2264647,7.501611,8.610987
9.015284,10.913721,8.933496,8.893702,10.983057
8.805811,10.736963,10.359278,9.957422,10.386377
9.074854,11.259424,9.620752,8.469141,10.949121
10.694971,11.880518,10.326319,9.873438,11.940332
11.286036,12.752588,11.217676,10.641748,12.470118
9.535791,10.921778,9.721582,9.986475,11.31875
12.187891,12.468653,8.633448,7.598291,12.667383
8.895655,10.438379,9.673243,9.0082035,10.804102
6.212793,9.306055,7.475244,7.346582,8.39419
8.386377,10.2096195,9.372461,8.817041,10.949366
9.803125,11.039698,10.511377,10.191309,11.240625
10.801172,14.004053,13.907129,13.024073,13.631983
14.254786,12.972071,17.191309,16.011866,13.516748
11.774073,11.364649,11.748438,12.277735,12.318018
9.676661,11.302881,11.142481,11.088282,12.320215
10.794825,12.02627,11.621241,11.590479,11.80752
11.482325,12.737207,12.629053,12.262598,12.553125
10.8050785,11.480127,11.502832,11.354639,12.114893
8.441065,10.638819,9.137354,9.023584,10.30044
9.291651,11.413233,9.5689945,9.272852,10.713526
9.195215,10.561182,9.491846,8.880762,10.475977
8.673975,9.582911,8.810205,7.8282714,9.636866
8.957666,9.965479,10.068506,9.528223,10.87002
9.315577,9.875879,9.310205,10.896143,9.858789
9.354395,9.743067,9.47085,9.514063,9.741846
9.57461,10.508692,10.926661,10.894922,11.329737
8.938135,11.7252445,9.273096,9.300928,11.270411
10.938135,10.977442,12.421045,12.822657,11.703272
12.7286625,12.262842,13.656641,13.239893,12.829248
10.441065,11.61709,9.709131,9.8502445,11.121241
12.257471,12.126856,13.167871,12.833399,13.243311
11.132471,10.94253,11.920801,12.208155,11.228418
11.282618,10.965967,12.028955,11.219141,11.503565
9.964258,9.913965,10.6896,10.361231,9.575098
8.722803,11.018946,10.80752,11.1192875,12.37002
9.106104,11.229639,11.160059,10.901758,11.482813
10.580713,11.7521,10.390284,9.248682,11.902491
9.106348,9.98501,9.522364,9.397364,9.92959
10.0550785,11.530909,11.088282,11.087549,12.925196
7.9728026,10.163965,9.719873,9.427881,10.542871
10.434473,10.796045,11.602442,11.415186,11.29751
10.675196,12.290674,11.187891,9.932032,11.8971195
14.726221,13.128809,14.270166,13.837793,13.030664
11.577539,11.182032,11.799952,11.60586,12.026026
9.8067875,10.237207,10.615381,10.203516,10.654932
9.870996,10.259668,10.8675785,10.700586,10.400049
9.365137,10.577051,10.829737,11.104395,10.466944
9.935694,9.67544,10.050684,10.143457,10.121241
9.260401,9.163721,9.289209,9.196192,9.18545
9.241358,9.362207,10.057032,9.178614,9.197657
11.994043,11.330957,12.530909,12.404932,11.347071
6.7923827,10.76919,9.455957,10.119532,10.6957035
7.9981933,10.59585,9.813379,10.05459,10.225
8.139795,10.025049,10.090479,9.6644535,9.352442
7.707422,10.291407,11.015284,11.100489,10.628077
12.6817875,12.071436,13.077295,13.527246,14.188868
14.607325,13.074121,15.514551,14.7167,13.479639
16.823145,12.129541,18.936426,18.83047,14.183496
15.137598,12.978418,13.455469,13.371973,13.9613285
14.888575,13.1002445,13.636866,13.157862,15.234278
12.855127,11.991846,13.60708,12.764307,12.784571
15.540186,12.592432,15.491602,15.014551,14.716455
18.192286,16.07998,18.2875,18.64419,20.041895
19.580225,15.840967,19.931787,19.108545,20.342432
16.949121,13.317286,14.771387,15.958643,15.630274
14.33169,12.6332035,15.25918,14.683008,14.49502
13.918116,12.233545,13.383448,13.494043,13.883448
12.771143,12.044825,15.388819,15.841944,13.724756
13.57461,13.23086,14.268702,14.546534,15.438623
12.680567,12.54751,10.90835,10.88711,10.705225
12.312647,12.391993,13.729151,12.885889,13.409571
13.006983,11.963282,14.489405,13.938623,13.550196
16.733545,14.083399,14.236719,14.477198,17.825586
14.232325,13.544092,15.048731,14.88125,13.694727
14.622705,13.605127,15.921289,16.042871,14.8346195
12.545801,13.69668,14.664942,13.788721,14.426416
10.484034,11.779444,11.998438,11.776758,12.177393
11.034327,11.286524,11.16543,11.381983,11.638819
12.524805,12.568262,11.125635,10.339991,12.797266
13.781885,13.694483,14.343409,14.055567,13.8146
13.473047,12.93545,16.71499,16.596582,14.366358
16.385157,14.223047,17.20547,16.881006,16.223536
17.568995,14.885645,15.721582,15.624414,16.823633
12.1314945,14.895655,14.737452,15.26919,16.034082
18.913233,15.082666,16.926416,16.634668,16.261133
20.92666,14.709864,19.069727,18.632471,16.84292
16.563135,14.860987,17.936914,17.285547,17.200342
19.423975,15.558252,18.220118,18.499659,17.34707
23.234766,17.431543,22.454737,22.75088,19.429346
23.345606,16.326807,22.301172,23.445948,22.403223
23.497461,16.695215,24.287256,22.811426,20.517725
22.61709,16.763575,21.105127,21.96255,20.309473
25.370508,17.320948,22.484766,23.19668,20.943262
28.488916,17.565577,25.86172,26.692286,25.476954
25.847803,18.361963,23.751123,22.67666,18.567774
20.940332,20.724512,19.62295,20.366846,22.155176
20.092432,21.023096,19.230127,21.426416,21.577784
21.222315,20.88003,20.308008,23.237207,21.798243
24.985743,22.71963,23.52334,25.579004,24.613916
26.736963,23.649073,26.678858,27.38003,26.019678
27.689112,23.46499,27.35879,28.100733,26.604883
31.144678,24.256983,29.850733,30.479883,28.226954
32.480125,25.332666,31.744287,32.27944,29.532618
34.359276,25.093409,32.96914,33.96694,30.788233
35.55459,25.021631,34.251366,35.415672,31.32754
36.838768,26.230616,33.08413,34.673973,25.616358
38.169334,28.79043,38.446922,38.481834,35.12197
41.672997,26.40835,41.098778,40.83999,28.355371
27.51748,20.195215,28.395166,28.208399,23.703028
28.557032,19.98501,26.70498,26.578272,25.747705
26.847559,20.599268,24.228418,23.28335,20.735498
22.420801,20.109278,23.800928,22.66665,20.887598
20.572168,19.566553,22.73672,22.192041,20.319727
20.128809,19.23208,20.961329,20.939844,19.440577
21.893213,19.197168,23.343409,23.045557,20.322657
21.339014,21.159815,21.48623,21.251612,21.99624
19.405909,18.702295,22.64248,22.63833,19.965967
20.674707,17.792383,21.486963,21.550928,18.070948
18.076563,18.39248,21.519434,21.401026,21.008936
18.748194,18.278955,22.004297,22.062647,18.738184
22.22915,17.903223,23.755762,24.076563,20.749414
25.94082,19.235743,26.420069,25.961084,26.482813
26.715235,22.558252,28.230127,27.09707,25.139063
26.849512,24.850977,29.108301,30.539942,28.486475
26.248682,24.628809,26.96499,30.01089,26.318018
27.04214,24.703516,26.15127,29.52212,24.954004
28.69668,24.863428,29.933008,32.00332,26.351465
30.9479,25.873438,32.003075,32.99038,29.295069
32.227196,26.572657,34.74111,34.422264,32.120506
32.335106,28.05166,33.383934,34.238914,32.471336
34.868065,26.470606,36.848534,36.083397,32.81704
36.328514,27.36294,36.64199,36.54043,32.098534
30.389795,27.61001,32.877586,33.057762,28.589746
29.092676,27.21255,31.087305,33.3666,29.7438
36.372948,30.577784,35.644188,37.724266,34.70742
38.700096,29.362696,38.649315,39.12539,37.237206
39.968163,25.965723,41.123436,41.178856,30.391748
26.249903,23.152979,26.68667,26.94668,23.139551
23.97671,21.783106,25.262842,24.824854,21.949366
26.215967,24.884424,27.309961,28.0563,25.06167
30.124903,24.98623,30.506739,30.37002,26.109278
30.33047,25.590967,31.941065,31.277735,27.664454
28.789698,24.894678,29.656641,30.848291,25.805567
29.98208,24.505762,31.119287,30.95376,26.505762
28.835108,24.583399,29.116602,29.093409,24.45376
28.152735,22.480127,28.888575,28.133692,25.790186
30.895655,23.786036,30.67544,29.039942,28.110254
29.23379,25.215235,26.816065,26.261621,25.53921
30.943506,25.311182,27.130274,27.506006,26.381739
33.214012,26.334375,35.03286,34.243797,26.381495
33.174706,25.793116,33.797264,32.708397,28.005274
25.449854,23.831202,25.96499,25.39297,23.435694
21.941797,23.8146,23.256495,23.910791,24.80581
25.165186,22.867334,26.909082,26.250635,22.625391
28.518946,22.534815,29.504541,29.84878,22.782618
28.60464,23.515284,30.14004,29.150293,24.329493
28.047754,22.347559,27.731836,25.706934,27.110987
28.052881,22.205225,26.258204,24.808008,25.240625
24.551905,22.506739,26.732813,26.769678,24.246973
25.009912,21.740137,23.134668,21.584131,23.552393
20.36001,20.797022,21.98379,21.88418,22.470118
23.874903,21.499659,25.856104,25.126612,23.3146
22.773829,21.740137,25.281641,24.268702,24.578272
22.634668,21.516016,23.099268,22.382471,22.836573
24.91958,22.481104,24.680079,24.747217,24.896143
27.743555,22.432276,24.531885,24.584864,23.988184
25.744287,21.756495,24.568995,23.718409,23.37832
25.108545,22.266016,24.909327,24.478662,24.703516
24.77334,22.113184,23.227198,22.767725,23.031153
25.815577,22.931787,23.383936,22.93081,23.769678
24.825342,22.420069,24.577051,23.29458,23.715967
20.88003,21.907618,21.960108,21.24209,22.031397
21.156397,21.79873,20.952295,20.19961,21.877588
20.752344,21.62295,20.704004,20.368067,21.647364
19.846582,21.8063,20.351954,19.952051,21.080713
20.320948,20.294336,21.11001,19.977442,20.617579
22.585352,21.958155,22.666895,22.633448,23.860743
21.44839,22.01626,21.701075,20.795069,21.995264
19.60879,20.238184,20.866846,20.290918,20.383204
20.448877,21.142725,21.047754,20.067286,20.620752
22.643457,22.01089,23.641504,22.62124,21.67544
23.9042,23.525293,24.874903,24.978174,24.296045
21.623926,23.109034,22.957422,24.708643,23.03457
24.997705,22.300928,22.494776,23.43838,22.427149
25.496973,24.3854,24.859766,26.163965,24.027979
23.722803,22.647364,24.626612,25.101465,24.623438
22.744532,21.638819,24.275782,23.594385,22.95498
21.824854,23.259668,20.997705,20.816309,22.829248
21.796045,23.76797,21.07998,22.156641,22.991358
21.946436,22.461573,22.375147,23.410547,21.12295
21.44253,22.750147,19.652002,19.423487,22.328272
22.33584,22.312647,23.549952,23.412256,22.933985
24.759424,22.27505,23.82046,24.476221,23.801416
22.960352,22.138819,22.244287,21.970606,23.819971
23.641016,21.939356,22.639307,24.122705,23.100489
23.060694,21.68374,23.405664,22.560694,23.009912
22.491358,22.00796,21.790186,22.28335,23.495752
21.29873,22.409327,24.3417,23.40835,23.431055
19.453028,22.317286,18.901514,18.471582,21.181543
17.766016,20.333155,17.80044,18.361475,18.936914
19.537989,21.8229,19.744532,20.04629,21.42837
20.188623,22.185694,20.602198,20.363184,21.366846
20.059961,21.873438,19.6188,20.175684,20.730371
19.482325,21.668848,20.247461,20.067041,21.45498
19.473047,21.21206,19.557276,19.713037,19.485498
19.108545,21.486475,19.1542,19.065577,20.26089
18.744043,20.86294,18.961573,19.018702,20.1979
19.628809,21.927149,19.741602,20.176905,20.802393
21.527979,22.606348,20.408838,20.610254,22.19375
23.232325,22.92422,22.683496,22.941797,24.321436
21.340235,21.658838,22.66714,22.643702,21.83462
18.6,20.7521,20.603907,20.608545,20.640284
20.396143,20.29458,20.786524,20.290674,20.286524
17.868555,20.35293,18.19082,18.2521,19.18545
15.684229,18.27334,15.515772,15.817774,17.278711
13.112452,18.30581,15.278223,15.693262,17.369532
14.810938,17.761377,15.46084,15.507715,16.530664
15.404444,17.876123,16.123682,16.023584,17.24087
15.245264,19.257715,17.369043,17.096094,18.064356
18.052393,19.335352,18.653467,18.850489,19.204737
19.239405,19.74795,18.631006,19.035547,19.761621
19.205225,19.374659,17.29922,17.42666,19.187403
16.641504,19.420313,17.590235,17.29873,18.240381
14.810694,18.680079,15.662256,15.2792,16.371485
18.829004,19.886866,18.639551,19.068995,20.293848
19.328028,19.80166,19.54458,20.113916,20.503077
20.336573,19.654932,20.113428,19.414454,20.627344
16.372705,19.64126,17.258204,16.958399,18.578272
15.156885,18.577295,16.637842,15.938135,17.971582
16.639063,18.64419,15.847559,16.097803,17.359034
14.96792,18.087305,15.359034,14.52334,16.320948
14.244043,18.032373,14.905176,14.4596195,16.577784
12.344141,16.105371,13.482569,12.831934,14.3346195
10.506983,15.802637,11.282129,11.531641,14.013575
10.432764,15.3988285,11.94668,11.910059,13.903955
13.478174,17.766993,12.592676,12.036768,16.003565
12.975,16.04165,13.462305,13.533594,15.09585
15.115625,18.39541,15.076075,14.609522,17.004297
13.879053,16.119043,14.063623,13.640772,14.413721
11.777246,15.617334,12.154688,11.962305,13.91543
10.629053,14.203272,11.357325,11.708887,12.772608
10.671778,14.632227,12.831202,12.39834,13.586084
11.106592,14.361231,10.512842,10.615137,13.048487
11.118555,15.714502,10.339746,10.266748,13.618311
11.955957,15.954981,12.794092,12.602686,14.290674
12.548243,16.91128,13.481836,13.172022,15.759424
13.876123,17.440088,14.975,14.474512,16.540186
13.592188,18.076563,16.600245,16.15005,17.68252
11.875879,17.931787,15.15835,14.859034,17.85
14.388086,17.082422,14.284571,13.991114,15.655664
14.608057,17.9313,15.909327,15.532129,17.259668
16.092432,18.041895,16.629297,16.182764,17.189356
12.284815,16.927149,13.99209,13.939844,15.705469
12.420557,16.560205,13.31753,11.739161,15.886866
12.057032,15.895655,12.233301,11.985254,13.9283695
11.064112,15.894678,11.522852,11.934473,13.891016
11.005518,14.920557,11.397608,10.935938,13.4457035
13.884424,17.23379,13.414698,12.626856,16.552881
12.521631,16.297998,13.10708,12.826807,14.907862
8.453272,13.267725,9.960596,9.602198,11.237452
8.407373,13.699854,9.832422,9.652735,11.802393
8.917139,14.69375,9.657129,9.38003,12.816797
7.209131,14.301661,8.846338,8.932276,12.727198
4.8424315,10.281641,6.747949,6.718408,8.698877
5.4427733,9.246729,6.425195,6.3250976,8.722559
5.876367,9.659815,6.3124022,7.0665526,8.00918
4.209619,9.574121,6.3668456,6.0973144,7.088037
9.987207,14.549219,10.149561,9.720362,13.1314945
