"[299, 255]","[227, 248]","[287, 319]","[279, 328]","[230, 262]"
6.7657714,10.161768,8.290674,7.414453,8.394922
4.7367187,10.393702,7.0348144,7.2726073,7.624414
10.23794,14.087061,8.76211,9.235254,12.482813
9.133936,13.43252,9.225733,9.380274,11.503565
9.0880375,14.108057,8.933985,9.313623,12.241114
9.225733,14.013086,10.145899,9.626856,11.981836
9.559961,12.838282,9.780176,9.479395,11.439844
7.4798827,11.4752445,8.378809,8.299707,9.90835
6.9173827,10.795313,7.006738,6.9791503,9.5863285
5.1163573,10.324854,3.9974608,3.411035,8.027735
6.9964843,14.655176,8.323877,7.775537,13.048975
13.781397,15.651758,14.3536625,13.49209,15.658594
6.4779296,12.862696,7.9867187,7.761865,10.424219
7.9447265,13.610743,8.636133,8.56167,10.423487
13.974512,15.576563,14.427881,14.3988285,15.083399
13.427149,15.134668,13.465967,13.413233,14.595606
7.6615233,12.483057,8.04043,8.072168,10.176416
9.30044,13.298731,9.605371,9.117334,11.377588
13.054346,15.795801,13.913721,13.539942,15.174219
10.526514,14.159327,12.291895,12.02334,12.927393
6.6961913,12.177393,7.7662597,7.8145995,9.240137
8.045557,12.043848,7.1476073,7.0736327,9.918116
8.546534,11.057764,9.0082035,8.6957035,10.211817
8.673487,11.946436,9.168116,9.215967,10.796289
8.882227,11.387598,9.853418,9.87417,10.544336
8.39419,12.00918,9.340235,9.066309,10.683985
8.173487,12.630274,9.663477,9.335596,10.927149
8.116358,12.308252,9.551416,9.048975,10.935938
5.9447265,11.368067,7.204248,7.072168,9.901514
7.0384765,12.155176,7.311914,7.492822,11.168848
5.9496093,11.743067,6.2169433,5.8287597,9.927149
6.902002,9.888819,5.505029,6.702539,7.980127
6.552881,9.067286,7.334375,7.5926757,8.5724125
6.398584,9.471827,6.9217772,6.9984374,8.736719
4.4186034,8.448145,6.091211,5.626611,6.0121093
2.1351562,8.38711,3.9522948,3.4671874,6.219629
2.5147948,8.218409,3.7350097,3.492578,6.322412
3.26333,7.443506,4.810205,4.1009765,6.860254
3.2831054,7.79458,4.506006,4.2955565,6.83999
3.3556151,7.461084,4.8368163,4.0592284,6.738672
4.084131,7.247949,4.980371,5.3460937,6.473291
4.1639647,8.420313,5.0572753,4.896875,6.731836
4.0052733,8.890528,2.332666,3.08291,7.9173827
5.3980956,8.96792,6.032861,5.8478026,8.026758
4.414453,8.344141,4.8333983,3.3124022,6.8229003
5.0423827,8.214746,5.1214843,3.7191405,7.332666
3.2550292,8.179834,4.96792,4.665918,6.6585937
5.8941894,10.8988285,4.733789,4.3980956,8.978174
6.704004,10.994532,5.5858397,5.142236,9.284082
9.49795,12.344385,8.652002,8.236963,11.922754
7.367578,11.964014,7.990381,7.393701,9.921289
7.577539,10.806543,7.7206054,7.443994,9.63418
6.556543,10.654932,5.942041,5.80166,9.7269535
4.6131835,8.153955,4.4339843,3.824121,6.6859374
3.5719237,8.460596,2.1371093,2.7992187,7.6493163
3.225244,7.921289,3.0035644,3.148828,6.8421874
3.7679687,7.4776855,2.845117,2.4513183,6.817041
3.2157226,9.069239,3.362451,3.0711913,6.6058593
2.7166991,8.846094,2.6378417,3.6368651,6.956445
4.7499022,9.175684,5.5348144,5.254541,7.744043
2.9186034,8.038233,4.2018065,3.9151855,5.971826
5.0506835,9.311426,5.21792,6.3424315,8.178614
8.17959,11.484034,9.227442,9.116358,11.310694
8.447657,10.80752,9.240381,9.010889,10.220362
6.380029,9.914942,8.557764,9.044092,8.741846
7.9149413,9.886866,7.891504,6.56875,9.697901
5.157861,9.419825,5.400293,5.1253905,7.878076
4.4999022,8.426172,5.53042,5.591699,7.4896483
3.5521483,7.4137206,4.945947,4.8163085,6.400781
5.230127,8.168116,4.662744,4.829736,7.376367
3.7127929,9.975977,5.351953,6.383203,8.7286625
7.4964843,10.08169,7.911035,8.506983,9.342676
8.147852,10.902246,8.924219,8.615381,10.285547
6.6634765,9.525782,8.119776,7.831201,8.897608
8.2721195,10.9752445,9.612207,9.505274,10.7792
5.6061034,9.082911,6.8229003,6.94082,8.082422
6.7657714,9.952539,7.911035,8.399805,9.864893
7.320459,9.10708,7.7035155,6.7662597,7.5353026
4.021875,7.921289,6.0990233,6.1373534,7.230615
5.6026855,9.84292,6.341455,6.2555175,8.3189945
8.180323,11.048731,9.18545,7.9779296,10.802881
8.5064945,9.407618,8.920557,7.976953,9.031153
7.5626464,9.462793,9.486963,9.096338,8.890772
7.5418944,9.469141,8.406153,8.436182,9.801661
6.3509765,10.83877,6.987695,7.091211,9.80459
5.27749,9.611475,6.6527343,6.8248534,8.447657
7.082422,9.084864,8.342432,7.9688964,8.783594
7.391504,10.292871,9.10708,8.399317,10.017481
10.880518,11.861719,11.898096,12.058252,12.49209
8.356104,10.601709,9.015528,8.995264,10.404444
8.611475,11.536768,9.056299,8.707666,9.894678
8.829737,11.5724125,8.640039,8.278223,11.063868
8.4596195,10.152246,9.596094,9.171045,10.393946
6.8929687,10.174219,7.7679687,7.4305663,9.054346
7.1981444,8.729883,7.860986,7.9588866,7.6097655
5.1981444,8.468164,6.2953124,6.348779,7.8905272
4.9935546,8.747461,7.462793,7.565088,8.815088
4.881738,8.097315,7.131006,7.499658,7.473047
6.3941894,9.19375,7.298486,6.4312987,7.2782226
9.052881,10.82583,11.320459,9.998926,10.137598
9.003809,11.043604,9.007471,8.954004,10.610743
9.118311,10.318506,9.3988285,9.285059,10.56167
10.117334,10.901514,10.796534,10.361719,11.656153
10.783106,11.4630375,13.391993,13.1036625,12.007471
13.493799,11.235743,14.663233,13.576563,13.225977
12.146631,11.747705,13.178858,11.549463,12.305567
8.806543,11.333155,9.40542,9.252832,10.284327
6.8280272,9.768946,8.139795,8.102198,8.4283695
7.1979003,10.997705,9.132715,9.180567,10.547266
6.3807616,9.016504,7.4532714,7.4308105,8.440088
7.9811034,9.397852,9.007959,9.038721,9.98208
9.792871,9.876612,10.224512,10.42251,10.50625
10.707422,10.650782,10.322168,10.715235,11.19375
12.858301,11.418116,10.764795,11.143457,11.67251
11.155176,11.315577,13.194483,13.24209,12.29458
9.822657,10.829981,10.576563,10.445215,12.057276
9.757227,10.618799,10.391016,10.038965,10.646875
11.621973,12.027002,12.373682,11.7113285,12.871485
11.224756,12.125391,11.175196,10.756983,12.608057
12.106592,12.471338,12.433985,12.704493,12.396143
13.235498,11.885157,11.358789,12.724756,12.324121
7.4225097,11.208887,8.183496,8.562159,9.558741
11.081446,11.24209,12.207422,11.348291,12.579004
10.613428,11.733057,12.143457,10.927393,12.162012
12.117334,11.521875,12.464991,12.42251,13.222803
12.392237,11.529444,13.156153,12.864161,12.290186
8.167627,11.297998,10.741114,10.573877,10.921778
11.999659,11.110987,11.985498,13.01333,11.513575
10.278467,11.673975,11.707911,11.703516,11.988184
11.596094,13.151758,12.568018,12.501856,14.452539
12.585108,12.880762,11.597803,12.823145,13.260401
11.642237,11.189844,12.120996,11.528955,11.011377
12.036524,11.631006,12.261377,12.452295,12.613672
13.944727,13.315577,15.39419,15.314356,15.330713
15.972315,14.127588,15.85,15.417383,18.08706
14.640039,13.764551,15.864649,16.432276,13.517969
11.097071,11.680323,11.378077,11.125635,12.069971
8.991358,12.037256,10.896875,10.984766,12.162989
13.120996,11.175196,13.719141,13.640528,12.326075
13.5021,13.481592,14.857813,14.653467,14.733301
16.401026,14.888575,16.81582,16.93545,18.36587
14.281641,13.536524,16.157618,16.29629,12.731348
16.124903,13.290186,15.322168,15.6192875,14.573389
12.76333,12.96792,12.715235,12.648096,12.617334
11.49209,12.8033695,12.930323,12.690821,14.188379
10.975977,12.3346195,11.830957,12.204004,13.121729
12.123194,12.303614,13.540186,12.989893,13.0021
12.137598,13.128565,15.552881,15.022364,13.666651
14.716944,14.03628,15.866114,16.274073,14.655909
16.500147,14.287989,17.996485,18.234522,17.893457
17.675196,13.576807,17.43252,17.884424,17.047022
18.286768,13.983789,18.753077,18.711329,17.152246
18.264063,17.350245,17.864893,18.559717,17.424463
22.77041,16.955225,21.909815,22.635157,24.009912
19.203028,15.225977,19.222803,17.167627,15.453272
15.11294,13.88418,16.496485,16.755518,15.924707
14.540186,14.234034,13.707666,14.474756,15.4769535
16.370508,15.154688,15.729639,17.271875,16.785547
14.241114,13.595118,14.583399,14.670557,15.021875
14.702295,14.748438,15.7521,15.305567,14.245264
14.157373,15.858301,15.407862,15.0567875,15.322657
13.407618,14.870264,14.611719,15.188868,14.781641
14.5082035,13.8224125,15.873438,14.822901,15.7755375
12.322657,14.104883,13.379297,13.278223,13.657129
13.268457,14.7252445,13.33584,13.76211,14.236475
13.888575,14.284082,14.805323,14.359522,15.16836
12.517969,14.608789,14.556543,14.482325,15.396631
14.797022,14.101709,13.7096195,14.315088,15.472559
12.611963,14.28042,13.11294,12.652491,14.281641
13.184473,13.411768,14.723047,14.955713,13.139551
15.868555,13.424463,14.859766,14.093653,14.2442875
12.190332,14.279688,14.01919,15.415918,15.695948
19.469873,14.306543,19.80752,19.095118,17.187891
14.599756,14.153711,15.71377,15.694239,14.776514
18.860254,14.878321,16.748682,16.556787,15.954248
13.596338,14.949121,14.39419,14.561426,15.151026
13.646875,14.474024,15.046778,15.4925785,14.19668
14.79458,14.668848,13.447901,13.066553,14.406885
14.671534,14.868067,15.959864,16.137842,16.423243
14.137842,14.964014,16.04873,16.051172,15.939356
19.395899,14.822657,16.070948,16.120264,16.670557
19.609278,16.782862,21.216211,20.668116,19.447657
23.62417,20.345362,22.484034,22.533838,22.51919
27.40542,20.593409,27.507715,27.5646,27.93374
30.47915,23.079248,30.764795,30.99087,32.988182
31.71499,24.027735,32.147606,32.475,31.3771
31.904444,24.25088,33.07998,34.224754,31.021631
31.98916,23.66714,33.465965,34.2853,32.014793
33.775047,25.37417,33.064598,34.44448,30.125391
29.231592,25.15249,26.227198,29.943506,28.074121
27.81875,24.994287,27.146143,29.221582,26.949121
27.519922,26.576807,28.29922,30.449366,27.309473
26.518457,25.116114,26.265772,27.124659,24.88418
29.56875,25.983545,28.039698,30.176416,26.83462
28.52212,24.937891,29.146387,29.790918,26.596827
29.59292,23.537012,28.535303,29.620752,25.099268
29.26211,25.139307,28.91958,31.324121,27.730616
29.601465,23.481592,30.702784,30.66714,24.513086
17.680079,18.876123,17.81875,17.842676,18.139551
15.77627,17.545801,18.395899,17.985498,18.383448
16.01919,17.177881,17.07339,17.375391,17.465723
19.693995,16.613672,20.55044,21.254786,17.677881
16.787745,17.209864,20.027735,19.267237,17.467188
18.410059,16.943018,18.32168,18.082666,17.69839
18.653467,17.998682,20.17837,20.345118,18.47671
22.734034,17.767725,22.281641,21.816797,20.363184
23.228174,18.249903,22.25503,22.098291,20.639551
21.703516,18.975,19.753809,19.714502,21.807276
30.637842,20.984278,29.856592,29.062159,25.777979
22.545801,18.826319,20.613428,22.277002,20.696192
23.389795,19.303125,22.763819,23.43252,21.579493
24.213282,19.290918,23.098536,24.070215,24.656153
24.103907,19.58999,24.434717,24.532862,22.114405
28.156153,20.439844,23.86123,24.230371,22.237696
21.757227,19.749659,20.819971,20.775537,20.978418
20.816065,19.654932,22.605616,22.39297,22.743067
23.499414,20.481348,22.997705,22.0292,23.275293
22.304346,20.209131,21.371729,21.391748,21.700342
24.260645,21.40713,24.254786,23.49331,20.520899
28.528223,23.388086,28.495752,26.984278,26.545801
32.615623,23.972315,31.100245,31.840235,24.032618
30.628809,25.664698,31.460108,32.219627,31.427881
33.176903,26.128077,34.25332,35.056786,34.715477
36.60195,26.30044,35.41494,35.651512,30.957666
20.29629,21.381983,28.656885,29.66543,21.385157
23.110498,21.547754,26.725489,26.65249,23.555323
23.983545,22.296778,26.353907,25.679102,25.530176
24.792627,22.968653,25.001612,24.093653,25.416407
26.886866,22.735987,21.957178,21.245508,24.975489
23.25503,23.156153,19.621729,20.881983,23.287745
24.502588,22.474268,25.15249,25.268702,22.23086
25.6354,21.320215,25.063623,24.924952,20.86172
23.226954,20.056543,25.967188,24.560694,20.384912
23.261377,21.092432,24.245508,23.784082,20.842676
26.12295,22.885157,26.70083,26.41665,22.61831
28.17373,23.05581,28.13711,28.431787,27.312891
29.756983,25.43081,30.10586,29.819483,29.824121
31.943262,24.899073,31.4313,31.155909,30.632227
26.781641,23.88589,24.969141,24.184717,24.828272
26.420069,23.402735,26.683985,26.764307,23.280909
27.79214,24.185938,25.443506,25.727198,25.769678
20.388575,21.994532,21.344873,21.687647,21.857813
23.156397,21.677393,24.256006,24.127588,22.959375
18.194483,21.81875,23.116358,23.975977,22.60586
20.523096,21.819239,22.050196,21.86172,20.3417
23.430079,21.454248,22.329493,23.988672,20.099024
20.870264,21.718897,21.32461,22.16714,22.37588
20.032862,21.096582,21.849756,21.264795,21.616846
26.398096,21.060938,23.80874,24.523584,22.127832
20.22378,21.381983,23.172266,22.425196,21.819971
20.036524,21.66128,21.279932,21.055323,21.333643
20.374659,21.44375,21.909082,21.489649,22.830225
22.259668,20.246973,21.634668,21.156885,20.817286
21.019434,20.808008,20.562403,20.344873,21.58706
18.7604,20.50088,20.842432,19.564356,21.16543
20.320215,19.360743,20.97915,20.676416,20.896143
23.593409,21.504786,20.726221,20.418116,23.367823
22.15713,20.829737,22.580225,21.440332,22.388575
20.672266,20.737696,21.751368,20.808252,22.51919
20.968409,20.815088,21.484766,21.241114,20.85171
21.51333,21.178125,21.468164,20.624659,20.597559
19.61416,20.369043,20.22915,19.633692,20.407862
21.904688,21.590723,22.665674,22.16836,21.286036
23.907373,21.971582,24.965723,24.303858,21.660547
26.374414,23.394922,27.058008,26.998194,23.578516
23.863184,22.982569,23.419825,21.398584,23.732325
21.681055,20.539698,21.685694,20.781641,20.25796
22.121729,20.452295,23.128565,22.00332,21.600977
21.518702,20.468409,23.930323,22.469385,20.130518
22.749659,20.783838,23.108057,22.789454,20.764551
22.741114,20.982569,23.565332,22.45498,21.15005
23.003077,21.36001,23.012354,21.75088,21.21792
25.396631,22.086817,26.206202,25.366114,24.282373
26.341455,22.403223,24.329004,21.540918,23.981836
20.514063,21.108301,21.016016,20.641016,20.791407
22.49209,21.433496,23.334864,22.768946,20.880762
25.16421,23.682276,25.903223,26.099756,26.995264
23.535303,23.443995,24.753565,25.086329,25.378809
26.724024,23.956202,25.275782,25.266016,27.535303
28.389795,22.138575,28.11416,27.507227,25.062159
24.779688,22.659815,25.046045,23.398584,22.848047
24.342432,23.469385,22.107325,22.313868,23.840723
25.543116,22.776026,24.784082,24.65005,24.576807
23.384912,22.081934,24.572657,23.399805,22.932032
22.960108,22.94082,24.03628,24.629541,24.33755
26.04629,22.680567,24.850733,25.022852,24.865381
26.643457,22.36831,23.798487,23.49917,24.193506
23.244776,21.885645,22.793116,21.752344,21.908594
21.207666,21.777246,19.616114,18.925684,21.383692
22.398584,22.387598,22.137842,22.133204,23.912012
24.505518,22.139795,23.045069,22.719385,25.034327
26.178125,22.338526,22.822657,23.262842,23.288721
20.633936,21.748194,21.502588,20.558496,21.47671
18.901514,21.797754,18.711573,18.394678,20.32046
22.606836,21.798487,20.733057,20.484522,22.18252
19.289454,21.65249,20.866358,20.920557,21.24502
15.118067,18.61123,16.964502,16.379297,17.786036
15.452295,17.214502,15.677881,15.137598,16.118555
16.40957,18.10464,16.586817,16.55044,17.90127
17.714014,19.60586,18.288965,18.169825,19.547266
18.217188,20.179102,18.478662,19.311426,21.624659
18.675196,19.0563,18.752588,19.025537,20.089014
20.987207,21.508448,20.86123,20.698877,22.934229
22.738672,20.62295,21.054102,20.020166,19.55874
18.893457,19.662989,18.47793,18.08169,20.389307
21.39834,20.696192,19.238184,18.021387,21.513575
23.586329,23.624903,23.736475,23.259424,25.711084
25.382471,24.094873,25.721094,24.609522,27.467188
25.927637,24.188135,26.306055,26.179346,29.378077
24.915186,23.013819,24.84463,24.449366,28.107325
26.367334,22.64248,27.152002,26.581202,28.483545
27.17129,20.25625,27.32754,26.474268,23.825342
25.074854,19.947412,27.552637,26.934961,23.239649
19.157373,20.833399,20.14004,19.868555,21.511621
19.23208,21.163721,19.841211,19.63418,22.120508
20.058496,23.144678,20.955713,21.424463,24.211084
21.620264,20.798487,22.707422,22.38125,21.232569
16.847803,19.09585,17.423487,17.251612,18.271875
18.709375,19.6188,18.85464,18.55874,19.549463
20.52627,20.594385,19.86001,20.358057,21.348291
21.85293,20.230371,20.692774,19.845362,21.13418
21.289942,20.613428,21.296778,20.937159,21.396387
22.900537,21.190088,23.150537,22.021143,22.401514
22.370264,22.131983,22.240381,21.691309,22.96499
17.745996,19.781641,18.09463,18.352442,19.593409
15.931543,18.536524,15.968164,15.88418,17.39419
12.882959,17.565088,12.886133,13.4908695,15.867823
16.799952,19.401514,16.656153,15.694727,18.604395
18.42422,19.670801,17.625147,16.480127,18.896631
18.744287,20.795069,19.035059,18.74209,20.058985
21.065332,20.740137,19.583155,19.591455,20.085596
16.891993,19.606836,17.20791,16.949854,18.504541
12.256983,15.599756,11.826075,11.780909,13.711573
10.349756,14.51211,11.496241,10.732569,12.51626
15.226221,18.541895,16.430079,15.780664,17.129297
16.536524,19.301416,18.115625,18.701563,18.171778
16.317286,18.89297,17.573633,17.62588,18.389307
16.0021,18.352686,15.853907,15.816553,17.50796
12.1488285,17.503809,12.946436,12.782129,15.356836
12.103174,15.200098,12.461084,12.531397,14.011133
10.106348,14.85293,11.812403,11.937891,13.249659
14.056299,17.728174,12.152491,11.987452,17.160303
14.642969,17.724756,15.346582,14.78628,16.290186
15.274317,18.666895,16.374659,16.130762,18.017725
14.282862,16.988428,14.502588,14.628565,15.686182
14.05752,17.289942,15.760645,15.584864,16.831934
10.352442,16.133936,11.566553,11.60293,13.857569
7.233545,13.211817,8.705225,9.205957,10.421778
9.354883,13.181055,10.31875,9.761866,10.554834
12.44375,15.933008,12.715235,12.799219,14.041407
10.585596,15.827784,11.6175785,11.981592,13.64126
13.242334,17.390772,14.053125,13.505274,16.379297
14.733301,15.716944,14.98501,14.356592,13.186182
8.825586,14.216211,9.881006,9.812891,11.405176
9.629786,14.199366,10.328028,10.063868,12.120996
9.169092,14.301172,9.954737,10.535547,12.54458
8.9396,13.6505375,10.05752,10.081446,11.981104
10.076563,15.257471,11.146631,10.680811,13.527979
11.35708,15.2113285,11.81875,11.4613285,13.72085
9.076807,14.522852,10.465235,10.36294,12.204493
