"[299, 255]","[227, 248]","[287, 319]","[279, 328]","[230, 262]"
3.4898925,12.292871,5.2035155,5.380029,7.954248
8.218164,13.163965,8.609522,7.834131,11.012354
11.290918,15.332178,11.986719,11.524561,14.183008
10.414209,13.817041,11.227686,11.215967,12.1158695
7.1146483,11.632715,7.381006,7.0279784,9.704493
6.765283,14.107325,7.3871093,6.860254,11.790186
11.057764,14.530176,11.514551,10.803125,13.384424
10.662012,14.222071,11.408106,10.6939945,13.699854
11.223047,14.813379,12.151514,11.687403,13.906397
8.391016,13.564844,10.035303,9.942286,9.90127
9.962549,14.616358,10.692286,10.215967,13.560694
10.889063,14.636621,11.647608,11.368555,13.868311
8.640039,13.780664,10.445948,9.808741,12.82583
10.724512,14.145655,11.445459,10.971582,13.278955
11.053614,14.066065,11.941553,11.503809,12.9161625
8.528223,13.434961,9.724512,9.471094,11.927637
9.842188,14.049219,11.29751,11.173243,12.632227
4.916162,11.386866,5.589746,5.4669433,9.374903
5.66958,12.562159,7.8231444,7.714746,11.065332
9.476709,13.771143,11.040186,10.952539,12.40542
13.736719,14.984034,13.6800785,13.480127,14.491358
13.584864,15.137598,13.632471,13.482813,14.5021
10.103907,12.058496,10.044825,9.558252,9.640772
6.947168,11.918604,7.768457,7.6998534,9.519678
6.440088,12.825098,7.5975585,7.521631,11.44375
10.359766,13.682032,11.154444,11.214502,12.6158695
11.519434,14.398584,12.221338,12.164209,13.30044
9.610498,13.426661,9.646387,9.071192,12.116602
10.9396,13.4042,10.859766,10.27627,11.8675785
7.4825683,11.988916,8.462549,8.279688,10.641016
7.7899413,12.587305,8.262598,7.898584,11.196924
12.961573,15.016748,13.135645,12.874414,14.626856
7.7013183,12.245508,8.16543,8.383936,10.613916
9.251856,13.071436,10.504053,10.322901,11.692041
9.092432,12.579981,9.485254,8.919336,10.276026
11.544825,13.744043,12.194483,11.853907,13.052881
6.797754,10.856348,7.103662,7.4618163,9.79751
7.061914,11.306299,7.9530272,8.201319,9.504541
8.96377,12.583887,10.596827,10.429346,11.722071
10.847071,12.937647,11.228907,10.985254,12.429102
4.4830565,10.074854,5.8375487,5.5609374,6.853906
5.40957,10.502344,6.452783,6.050195,8.700586
10.253077,13.050684,11.061914,10.746729,12.403223
4.2003417,9.18252,5.2262206,4.9776855,6.8441405
5.3321776,9.608545,6.485742,6.35,8.5021
4.7452636,9.613428,4.6561522,4.440088,6.8773437
7.1197753,12.673731,4.6148925,3.9989257,12.240625
11.187159,12.753809,6.7015624,5.8392577,12.2521
2.9425292,8.096582,3.8561034,3.1910644,6.4256835
2.5299315,8.374414,1.959375,2.549707,6.464502
3.1722655,10.515528,3.8114257,3.7931151,8.576563
5.551904,10.762354,5.5106444,5.377832,9.992823
9.236475,11.719873,8.249659,7.7003417,11.197657
5.402246,10.219385,5.8231444,5.6996093,7.997705
5.0299315,9.315332,5.2916503,5.345361,6.999658
4.600244,8.378321,5.94375,5.7760253,7.3697753
4.504785,8.818262,4.6581054,4.3492675,7.2975097
8.052881,11.117823,7.251367,7.4913573,10.429102
12.527735,12.3346195,11.978418,12.515284,12.468409
11.306299,13.122217,12.236963,12.085108,13.31167
10.409327,12.022364,11.770411,10.861231,11.086573
10.834131,12.726465,11.72085,11.361231,13.071924
10.714746,12.405909,11.401026,10.93545,11.391016
8.412256,12.957178,8.929834,8.551416,12.5099125
11.439356,12.994043,11.986963,11.716944,12.547266
7.8177733,12.114405,7.9364257,7.980371,10.767725
10.274805,12.508448,10.984278,10.461084,11.678125
5.896875,11.492334,6.5711913,6.1979003,10.441065
11.028955,12.3189945,11.301905,11.329737,11.970606
8.84585,10.216211,7.0072265,6.9757323,8.868311
9.142725,12.712061,9.392481,9.319727,11.831202
5.969629,10.037012,7.8285155,7.4779296,9.059961
2.2535644,7.8651366,4.5020995,4.023584,5.470361
5.734033,10.195459,6.5785155,6.271631,8.519678
5.640283,9.214258,6.7975097,6.454248,8.342188
7.469873,11.246241,7.7591796,8.083643,10.497705
5.598535,9.13003,5.756738,5.681543,7.817041
5.8263183,8.820215,6.730615,6.237451,7.9955077
5.548486,9.0238285,6.2105956,6.4779296,7.780908
8.068262,10.5099125,8.452051,8.562891,9.6896
7.735742,9.176661,7.4688964,7.482324,9.167871
7.175195,9.236963,6.2296386,6.0821776,8.479151
5.3734374,9.171534,5.5450683,6.275293,8.2130375
8.053858,10.00625,8.762354,8.397852,9.388819
7.7972655,9.834375,6.988672,7.34292,9.19961
10.03335,11.302881,10.890039,10.956934,11.783838
8.211573,9.887598,6.880029,6.9312987,8.327784
5.260156,8.093653,6.2608886,5.5780272,7.0072265
5.2420897,8.407862,6.053613,6.0233397,7.2870116
5.87832,9.021143,7.444238,7.469873,8.345606
7.891992,10.646143,8.419092,8.337061,9.886866
6.7867675,10.353907,7.2572265,7.1915526,9.006983
8.264551,9.471827,8.510645,8.496485,9.271875
5.551416,8.447657,6.370996,6.25625,8.119043
7.0196776,10.098536,8.1817875,7.9757323,9.511133
9.952784,10.320948,11.448633,11.620996,11.289942
8.875635,10.005518,9.989649,9.559961,10.216211
10.325342,10.930567,9.772608,11.77627,12.100733
8.427637,9.714502,8.707911,8.756739,9.23086
8.735498,9.472071,10.097071,9.847559,9.121973
9.008692,10.300928,9.8814945,9.503321,10.219873
8.3519535,9.593897,9.809229,9.522608,9.167383
9.584375,9.867334,9.989161,10.809961,11.003565
10.336084,10.267481,11.080225,10.790918,10.446924
9.514063,10.035059,10.9125,10.423975,10.704981
11.394922,9.785791,8.699366,9.671778,10.082178
8.229151,9.808008,8.062891,8.068506,9.399317
7.839746,10.48208,6.329248,6.521875,9.569971
11.490625,12.308985,11.157129,11.454004,12.730616
8.928614,9.723291,8.832911,8.80044,9.850489
6.147119,8.713282,7.18667,6.877832,8.575098
8.250635,10.002832,8.036036,7.959375,10.187403
7.740625,10.563868,8.490625,7.310449,9.872705
6.753076,9.281885,8.382227,7.6202636,9.878077
7.551416,9.625879,9.68667,9.8050785,9.948877
8.31753,9.598536,8.561182,8.4127445,10.319239
7.7906737,9.614161,8.536524,9.079004,10.042139
7.1129394,9.99795,7.5526366,7.2972655,8.928125
8.444239,9.972803,10.42959,10.231348,10.458643
7.1949706,8.680323,8.561426,8.982813,8.745752
6.24624,9.704981,8.030909,8.022608,8.949854
9.24917,10.672998,10.272852,9.738184,12.15835
14.562891,11.215479,12.159327,12.708643,13.893702
11.500879,10.5411625,11.815332,11.971338,12.377832
8.82461,9.1661625,9.501368,8.571924,9.421045
6.2328124,8.348291,6.8165526,6.43374,7.21499
8.340235,8.997217,9.744776,8.643457,9.674463
7.6078124,8.381739,8.326563,8.211573,8.707911
7.039697,10.028955,8.869043,8.876368,9.5567875
8.022364,10.116114,5.609033,5.7257323,9.56753
7.7210937,8.813868,8.848536,8.391748,9.98501
5.171533,9.500147,6.4549804,7.070703,10.364649
12.552149,10.652246,12.401514,12.221582,12.284815
11.8536625,10.8988285,12.3771,12.134424,12.122217
11.600733,10.15542,11.597315,11.936914,12.148584
14.093164,11.394434,12.40835,11.818506,11.926172
14.985498,10.56753,10.7408695,10.711817,10.240381
11.202784,10.521631,8.9317875,8.142725,9.334864
9.244532,10.131739,10.766993,10.713526,10.558252
9.766993,10.24209,10.060694,9.470118,10.017725
9.104883,10.535059,10.395411,9.96792,11.498194
10.313379,9.672754,11.160059,10.98208,10.24209
11.324366,10.986475,9.697901,9.136377,10.4317875
11.928125,10.843164,13.241846,11.854883,11.851709
16.301416,11.332178,12.027979,12.959864,11.072168
11.966455,11.299219,13.219873,12.692774,13.587549
11.970606,11.829981,11.604639,11.439112,11.532862
14.865381,13.190088,13.660303,13.138819,14.323389
17.364405,13.714258,17.393457,17.834375,19.54336
19.94253,15.787256,20.43252,20.300684,21.576319
20.782618,14.264551,19.255274,17.504053,16.827784
21.859034,14.842676,17.666407,17.953028,18.600733
18.153711,13.015772,18.083155,17.52749,16.745996
20.459375,13.380274,14.8675785,17.369043,15.847559
15.877344,13.238916,16.751368,16.12124,13.394434
16.772364,14.486475,17.553614,16.848536,15.811426
20.362696,15.930567,20.92837,20.608545,18.074121
22.099268,17.837793,21.72085,21.072657,20.411524
22.650782,16.50918,22.841944,23.6,21.246729
24.10586,17.72793,24.124414,24.110498,22.308008
14.717676,14.962305,13.597315,13.899805,15.417139
16.620264,14.326075,17.256006,17.208155,14.657862
17.357325,16.034082,17.698877,17.564844,16.615381
17.670313,15.707666,19.283106,19.11123,16.926905
20.23672,15.379053,20.757715,21.76748,17.282618
18.44546,17.256739,19.544825,20.937403,17.595606
22.383204,16.551905,23.59707,23.431787,22.997705
22.046045,16.162012,18.941309,18.855616,19.557764
17.386377,16.021387,18.044336,18.010157,15.632715
19.136133,16.028711,20.10415,19.791407,16.467432
21.518457,15.604395,19.090479,19.566797,18.78457
14.403467,14.363184,16.001123,15.391504,15.673243
17.80874,15.464502,17.513575,17.639551,16.628077
16.227686,16.124659,16.020166,16.048975,16.145655
16.903711,15.531397,17.224024,17.45962,15.500635
16.902979,16.185938,16.302881,17.34707,16.36587
22.609522,17.72207,21.565577,22.620752,17.944483
19.755274,16.129297,17.346338,18.322168,16.818018
14.691553,16.055079,17.978907,17.34878,17.761377
18.326075,16.04214,15.602686,15.764795,16.237696
12.432764,14.784327,15.659571,16.09707,15.119043
14.812891,15.479639,16.105127,15.866114,15.427149
15.62295,15.738428,16.775293,16.010157,17.995264
14.365625,15.374903,16.042871,15.582911,15.52627
15.673243,15.025049,16.62002,16.711084,14.767969
18.162256,15.882715,18.321924,17.969873,16.501856
18.522608,17.56167,18.365381,17.964258,19.19546
21.142237,18.227442,19.996973,19.636866,20.079493
23.5646,18.189844,20.218897,20.411768,19.370264
19.344141,18.06045,18.73086,19.284327,19.85
18.30337,17.035059,18.425196,18.158594,20.058496
18.393457,17.00625,16.251368,15.646143,16.678614
18.382471,16.914942,17.61001,17.36416,16.916407
19.365137,16.838526,19.344141,18.815577,19.60415
17.959864,17.981592,18.516993,17.939112,19.701563
18.527979,17.797998,18.954493,18.068018,20.212305
16.931787,16.90957,16.849268,16.779444,17.511133
16.203028,16.901758,17.730127,17.458155,17.779444
16.944727,16.450342,17.89712,16.333887,17.539942
15.68545,15.871973,16.205225,15.712061,15.178125
16.385645,15.858057,17.735498,17.277246,16.3229
16.617823,16.703516,17.673975,17.33755,17.194239
15.739893,16.941553,16.26626,15.973047,17.029444
11.597803,15.707666,14.3224125,14.311182,15.405909
15.215479,15.984278,16.69839,17.554346,16.27749
17.670801,16.365625,18.906885,18.69961,17.302149
17.44961,16.544825,20.637354,20.65005,17.622705
18.999414,16.165186,21.109278,21.191797,17.810694
20.783838,17.506006,23.353907,22.742334,19.60708
17.864893,18.42129,18.599512,18.491358,18.690577
21.54043,18.504053,20.433985,21.599024,19.625635
23.99502,19.238184,22.32339,21.243067,19.487207
17.997217,18.19839,18.687159,18.76626,20.014063
19.138575,18.09878,19.240137,19.258692,19.659815
18.917871,18.790918,18.281641,18.01919,20.312647
19.780176,18.364405,20.592676,20.833155,18.758692
20.949854,18.424952,20.317774,20.497705,21.52212
23.523829,19.043848,19.569971,19.955713,19.428125
23.93667,19.47671,22.457422,22.160547,22.232813
19.51797,19.249659,20.283838,19.748194,20.998926
23.27749,19.487696,19.065088,19.348291,21.475733
23.8771,19.687891,21.236963,21.952784,20.792871
21.623682,19.501856,22.487696,21.164698,22.165674
24.082178,20.246729,22.155909,22.548487,21.98501
19.463526,19.315577,22.024317,22.183985,20.77627
19.593653,19.318262,20.066065,19.916407,21.156641
19.796045,18.866114,20.109034,19.956934,21.000635
23.39248,20.696436,21.322657,20.58706,22.311426
23.35415,19.869776,20.931787,21.16543,22.258692
19.661036,19.020166,20.765528,20.888575,20.91128
24.15542,20.984278,23.234278,23.406153,23.883204
26.67422,20.347559,22.380762,23.052881,21.495508
22.605371,21.029688,22.756495,22.257227,20.889551
25.082422,20.955225,24.465967,25.091455,24.011866
29.37295,21.640772,25.131006,25.92422,25.014063
29.680079,21.545313,25.1542,25.876856,23.778467
27.785791,20.986963,27.78042,26.57583,24.237452
27.487452,21.71377,24.820215,25.647608,23.446924
24.525537,21.230371,23.568506,23.472803,23.462305
27.633448,21.76919,23.391016,24.198145,24.175928
28.893946,21.956934,24.593164,24.938623,25.129053
22.068262,21.386377,24.324366,23.689844,25.103907
27.427393,21.429102,23.734522,23.27334,23.9042
23.185938,21.22964,22.231836,21.682032,22.052149
22.38296,21.799463,21.812159,21.239405,21.53457
27.520655,23.816309,25.648584,24.814356,24.417627
33.24331,26.070704,27.017725,27.07998,27.06875
32.648582,25.306055,27.413477,29.733301,26.007715
23.232325,21.586817,22.92373,22.67666,22.118555
23.409082,21.630274,21.000635,21.021143,21.525537
24.420557,21.848291,23.301905,23.758692,22.166162
26.684473,23.587793,24.755274,24.470362,23.620508
29.465967,23.950586,27.177881,27.991358,28.02041
29.445215,23.61709,28.137354,29.127832,27.083155
28.613916,22.160059,24.913477,24.462305,22.86709
26.454248,21.165186,25.181787,25.254053,22.294336
25.096582,22.061182,24.047266,23.389063,23.063868
25.4042,21.671534,25.539942,24.86172,24.471827
29.999659,23.532618,28.131739,28.453272,28.61587
32.37417,24.632227,31.183985,31.453516,30.800684
29.70547,23.913233,28.189112,27.410791,25.973536
33.64199,23.71963,29.143457,29.152246,26.84585
28.234034,23.01919,26.758936,26.553125,23.936182
26.56045,23.674952,25.056787,25.594873,25.495996
32.600487,23.80752,27.359522,29.682276,27.593409
37.995995,25.103907,34.087547,34.85122,28.004053
29.695215,22.906153,28.341211,27.551416,22.62295
25.547754,23.003565,24.202784,23.596094,22.97378
26.683985,22.548487,24.630518,24.854883,25.29458
33.223045,26.08999,29.7875,30.302393,26.605127
30.448633,23.053125,30.410791,30.064356,23.981348
26.941553,22.75918,25.61831,26.101465,25.092432
27.442286,22.67666,25.903711,25.402979,27.911768
27.043848,22.812403,24.29873,23.92666,23.071436
24.482569,22.234278,23.627588,22.948633,22.54873
22.762354,22.046045,20.024073,20.444727,21.928614
19.559473,20.304102,19.34585,19.435205,19.3688
18.883936,19.31338,18.808985,18.648584,19.196924
18.083887,20.429102,17.82168,17.697412,18.883448
18.08462,21.198877,18.995264,18.683008,20.282618
19.605127,21.06582,21.240381,20.575586,21.677393
20.992579,21.20498,19.800684,19.827051,21.250635
19.600733,19.264063,19.384668,19.370996,19.430079
18.310205,19.967188,20.256006,20.098047,19.448145
20.728174,19.972803,20.904932,21.240137,19.716455
21.413965,19.941553,21.185694,20.273096,20.679834
21.608057,20.796045,20.31875,20.09463,21.447412
22.346094,20.589014,20.208887,20.566065,21.524805
22.511866,20.488184,19.87002,18.708399,20.046534
17.832178,19.269678,18.313868,18.134668,19.022608
21.032618,20.795069,20.084375,19.684717,21.50796
19.429834,20.653223,19.627588,20.521631,21.21792
19.886377,19.920313,18.105127,17.586817,18.6271
14.641504,19.468653,15.99917,15.968897,17.88296
18.63418,20.037012,18.402735,17.67666,19.235987
18.006739,20.087793,17.702051,17.58462,19.813868
18.468164,19.384668,17.934473,18.596827,19.664454
19.900537,20.401026,19.368555,19.029932,19.66958
17.720118,19.906641,17.80166,17.547754,19.102686
18.703028,20.424952,18.493555,18.339502,20.239893
21.21377,20.892237,19.864405,19.433008,20.026758
14.6542,17.074366,15.635645,15.086084,16.475
14.85293,17.98623,15.5533695,15.574854,17.906885
17.160059,19.364405,17.359278,16.958643,17.781153
16.903711,18.577295,16.244776,16.326807,17.441065
16.33047,18.34707,16.421778,16.316553,17.667871
15.9439945,19.322168,17.423487,17.610254,18.494532
15.721094,18.811914,17.043116,16.237696,17.206202
14.312647,17.607325,15.239649,15.332911,16.177393
13.458399,18.292627,15.295801,15.19961,16.77212
16.58999,18.300684,17.244776,17.210108,17.855371
17.710352,18.719385,17.249903,16.925928,19.615137
16.192041,18.927881,16.675928,16.685205,18.646143
15.034571,17.951563,16.651514,17.051416,18.749903
16.705957,18.578028,18.101465,17.85415,19.094385
17.561182,18.670801,18.098536,18.214502,18.63003
17.24502,18.59707,17.770899,17.647852,19.180567
17.383448,18.75918,19.117823,17.804834,18.61416
17.607325,19.004786,17.463037,17.1625,18.030909
17.335352,18.685694,18.374903,18.75918,18.269434
16.79165,18.030909,15.875147,15.219385,17.552881
17.279932,17.857813,16.91128,16.8146,17.194483
16.270655,18.5646,17.232325,17.299707,17.906397
15.7252445,17.027002,15.927881,16.25625,16.369043
13.33877,16.528223,13.85,13.603907,15.094141
13.605127,17.127344,14.295313,13.97085,15.7894535
10.882471,14.598047,10.940088,10.947657,12.63003
9.225977,14.020166,10.116114,10.017481,12.636377
9.979395,16.093897,12.472315,12.545313,14.102198
14.483545,16.99331,15.143946,14.971582,16.491846
13.592676,16.852686,14.073633,13.689844,16.083399
13.620264,16.659082,13.898096,14.896631,15.960108
14.152002,16.753565,15.418604,15.317286,16.094141
17.34585,18.263575,17.870752,17.371973,17.990381
16.754053,17.937891,17.124414,17.199121,17.353907
9.590723,15.279688,11.371729,10.32876,12.71084
10.422022,15.10586,10.690821,10.250635,12.396875
9.989161,13.12417,11.061914,10.145166,11.997461
6.855615,13.050684,7.02749,7.5523925,10.682276
8.480127,14.355127,9.390039,9.839991,11.666895
10.997461,16.143946,12.897608,12.241602,14.700098
11.010401,15.8988285,13.654444,13.435694,14.652002
15.745264,17.308008,15.902979,15.291895,16.66543
13.45376,17.19839,14.094873,13.898584,16.068262
12.637842,16.403467,13.971582,13.745508,15.529932
13.68545,15.827784,13.945215,14.212305,15.926416
11.79458,15.459864,12.303125,12.826563,13.991114
12.786524,15.821924,14.47085,14.806543,15.252832
11.423731,15.567041,14.099024,14.393702,14.450098
12.352442,15.525049,11.474024,11.326319,13.433008
10.839014,15.431055,11.289209,11.039698,13.266016
10.878077,15.7286625,11.820948,11.57168,14.589746
13.934961,17.053858,15.134424,14.479151,16.69253
14.947657,16.6813,15.177393,15.06875,15.967676
15.669825,16.704737,15.764307,15.641993,16.186914
15.65542,16.796045,15.753809,15.583643,16.181055
10.699121,14.671778,10.252344,10.265772,13.360498
10.091944,15.032129,11.632715,11.106104,13.414942
11.243067,14.628321,11.899561,11.143457,13.222803
11.784082,13.608301,10.114649,10.281397,11.996485
