"[299, 255]","[227, 248]","[287, 319]","[279, 328]","[230, 262]"
9.212061,14.02334,10.953272,11.071436,13.108301
8.599512,12.867823,9.635645,9.610254,11.413965
8.632959,13.223536,9.130274,8.124659,10.978907
8.719385,13.087061,9.300196,9.034327,11.00503
5.730127,11.074121,6.9549804,6.553125,9.126856
5.450586,10.425196,5.6551757,5.681543,7.8961425
7.3805175,13.566065,5.8280272,6.0145507,11.604639
10.218164,13.723047,11.189844,10.44375,12.858545
8.760645,12.546778,9.5082035,9.231836,10.772608
7.6371093,11.434229,7.0108886,6.6666503,9.221582
8.540918,11.300684,7.010156,6.3055663,9.37417
5.861963,10.615137,4.9676757,4.3634276,8.504297
5.2384276,11.486231,6.0069823,5.830713,10.116846
8.416895,13.028711,9.16836,8.796045,12.254786
9.332178,13.072901,10.174463,9.697901,12.358301
8.213282,11.431299,8.473291,8.475,9.659082
5.613916,10.6314945,5.7069335,5.650293,8.121973
7.2037597,11.3050785,6.4359374,6.664697,9.761621
10.084131,13.112696,10.609766,9.868799,12.227686
8.722315,12.815577,9.701563,8.665918,11.510157
9.069971,12.520411,9.567041,8.983301,11.319483
8.159082,12.280909,8.697657,8.66543,10.895166
6.9381347,11.429346,8.222315,8.441797,10.152735
7.6876464,12.659571,7.8478026,7.2923827,10.815577
6.8089843,11.29336,7.6305175,7.8163085,9.833887
6.0160155,10.309473,7.45791,7.2362304,8.914942
5.688623,10.357325,7.0384765,7.0919433,8.902979
5.45083,10.574854,6.8575683,6.1668944,8.436182
5.3751464,10.125879,7.1117187,6.867334,8.116114
3.565332,9.181299,5.0040526,5.0768065,6.853906
8.150293,12.674219,8.204981,7.649072,11.3363285
9.36709,12.681543,6.205957,5.9344726,8.118799
4.6043944,10.543604,6.106836,6.193994,8.351465
4.783838,9.84292,4.3575683,5.7625976,7.6341796
4.2850585,10.402735,5.5140624,5.723291,7.4029784
5.1666503,10.9283695,7.317529,8.392969,10.2269535
3.8768554,9.733545,6.330713,6.5140624,7.5714355
6.180078,10.405664,6.6048827,6.09707,9.202051
6.138574,11.325098,6.2799315,6.1830077,9.83877
7.994287,11.789209,8.337061,7.834131,11.445948
11.4596195,12.711573,12.024317,11.604883,12.379053
6.0333495,10.527002,7.693506,7.7176757,9.206446
10.169336,11.893213,10.507715,10.396143,11.3771
5.345361,9.816797,6.0035644,5.9166503,8.188135
5.2364745,9.172266,5.2711425,4.9486327,6.9637694
4.6117187,8.993799,4.5179687,4.6202636,7.971826
9.573389,11.549463,10.195459,10.003565,11.277979
9.266993,11.1036625,9.334131,9.13833,10.288965
8.899317,11.706934,9.598291,9.411036,10.886377
3.7118163,7.6290526,3.8270507,3.671289,6.056543
7.3409667,10.306055,7.5868163,6.4884276,9.954493
8.433252,10.885157,9.454981,9.596338,10.14126
8.420801,10.569483,7.65957,7.596338,9.982813
8.896387,10.777735,9.626856,9.477686,10.369043
7.0294433,8.911768,7.223779,6.76333,7.718408
3.7901855,8.134668,4.980615,4.7364745,6.7708983
4.1930175,9.313379,5.006738,4.1949706,8.458399
8.471582,11.277246,9.559473,9.271143,10.687647
9.319971,11.126123,10.0863285,9.573389,10.599512
9.199854,10.947168,9.731348,9.375635,10.927393
8.417627,10.636621,8.877832,8.581202,9.816553
9.902491,10.760645,10.169336,9.940821,10.797754
5.0868163,8.538721,6.1793456,6.129297,7.711084
6.662988,10.148584,8.625635,8.163477,9.44253
7.447168,9.988916,9.214502,8.796778,9.75918
8.594629,10.4005375,9.293848,9.693506,10.114161
6.31582,9.186914,6.2552733,6.162744,7.287988
2.6632323,7.7760253,4.135156,3.9713378,6.4291015
4.3514647,8.484034,5.475488,5.3370605,7.126367
7.369043,10.306543,8.319971,8.30459,9.619776
6.7696776,10.058985,4.702295,4.9200683,8.844141
6.14541,9.972559,5.928125,5.5094237,9.106348
9.196192,10.53628,9.341211,7.9850097,10.207178
5.167871,8.26919,6.3216796,6.08291,7.147363
7.0978026,9.910791,7.8233886,7.4916015,9.231104
4.1791015,7.079248,4.615625,4.5384765,6.1722655
4.159326,7.237695,5.555078,5.6305175,6.2538085
3.2276855,9.353418,5.0423827,5.724756,6.803613
5.6830077,8.399317,7.024072,6.947168,7.8060546
3.9710937,7.641504,5.3514647,5.1478515,7.197412
2.334619,6.7054687,4.551904,4.388574,5.506006
2.806787,7.4674315,5.5995116,5.431787,6.428125
5.839502,7.348047,6.542627,5.904199,5.963037
6.8722167,8.57583,6.6476073,6.784326,6.6112304
5.888086,8.142725,7.6078124,8.37417,8.188379
9.691309,10.713282,10.095118,9.224268,12.527002
9.752344,9.460108,8.918116,9.595362,10.112207
4.3280272,7.4913573,5.749658,5.5423827,7.3495116
5.2259765,8.21377,5.970117,5.926904,6.81875
6.6756835,9.131006,8.7792,8.835596,9.1158695
8.171534,9.387842,11.084131,11.1271,9.581934
8.981104,9.069971,10.708887,10.677637,9.391016
8.468653,8.433741,10.85,10.371729,8.339746
8.629786,8.060205,9.983057,9.939112,8.660547
7.6725097,8.592188,8.777979,8.793116,8.416651
7.524072,8.603418,8.298975,8.042139,8.226465
6.5750976,8.159082,9.206446,9.217676,8.731592
6.119531,8.578516,8.518457,8.391748,8.325098
7.7418456,8.270166,8.30752,7.471826,8.179346
5.528955,8.314844,6.4967284,6.2013183,9.408106
5.5919433,8.105371,5.0736327,5.221826,7.4034667
2.881494,5.8907714,4.659326,5.0123534,4.830957
4.454492,6.091455,5.483789,5.7401366,5.8163085
4.4640136,6.166162,5.443506,5.8592772,6.959619
5.1517577,7.3592772,6.1234374,6.249414,6.5763183
5.305078,7.850244,6.301416,6.485254,7.7281737
7.2398925,8.450586,7.6776366,7.249414,9.138575
7.31875,8.230616,9.737696,9.251368,8.705957
7.978662,9.004053,9.404444,8.548975,9.097559
8.327051,8.770899,9.410547,8.851221,10.471094
7.209863,8.393702,8.38833,9.007227,7.961084
7.5680175,8.09878,9.8380375,9.534327,7.624658
8.305567,8.266016,9.805811,9.418848,9.415918
6.616113,9.100977,8.030176,7.3580565,9.445459
6.333154,8.246241,8.159327,7.933252,8.870752
8.455225,8.979395,10.49917,10.360254,10.425196
7.968408,9.802637,7.164453,7.2035155,11.104639
13.490381,10.346827,14.830957,15.268946,12.074854
11.023584,9.381739,13.004053,13.055323,10.581202
15.838282,10.740381,11.806299,12.455469,12.893702
11.801416,9.743311,10.803614,10.296534,10.431299
11.354883,9.650293,11.49502,11.097071,11.759424
10.021143,9.712305,10.956202,10.761621,11.450342
11.14419,10.608301,11.384668,11.157129,10.979151
5.2889647,9.32876,6.3060546,6.6603026,7.82583
8.635645,9.76919,9.003321,8.851709,9.681543
8.485498,8.048731,10.628321,10.233789,7.7713866
10.697901,10.316797,11.659327,11.217188,10.587793
9.068506,10.9127445,9.7286625,9.702539,11.782618
9.170557,11.080225,9.017725,9.702784,10.860987
8.680567,11.1661625,10.488428,10.543604,11.073145
10.292871,12.0411625,10.561426,10.989161,12.113672
13.48794,12.07461,13.579981,14.721338,12.623194
15.370264,13.322657,16.91665,16.700098,13.355371
14.912989,12.099024,16.329248,17.24331,13.571192
9.271631,10.141504,10.446924,10.07168,11.08584
8.313868,10.469141,9.328516,9.258448,9.970606
8.2442875,9.942774,8.385401,8.454737,8.910547
7.537744,8.695459,8.571192,8.609522,8.952784
7.8006835,9.858545,8.576807,8.619776,9.39834
7.4469237,9.471582,8.647364,8.367334,10.475
8.796045,8.940332,10.60708,10.416651,9.643946
10.055323,9.3771,11.477686,10.782373,10.969141
7.9132323,10.25625,9.558496,9.005518,10.866846
11.283838,10.154444,12.577051,12.601465,11.657129
11.970606,12.346827,13.4161625,12.900782,12.0375
14.047022,10.779444,15.845362,15.865381,12.645655
12.385645,11.937403,13.773584,13.667871,12.35586
12.512354,11.633448,13.939112,13.6505375,11.767969
9.474512,12.015772,12.275049,12.282862,12.353418
10.4283695,11.768457,12.383448,12.761621,12.560694
15.66128,11.921045,16.752588,16.912012,12.638819
9.991114,10.650293,11.446924,11.277735,11.022608
7.9937987,9.588526,9.017969,9.149561,9.108301
8.355371,9.374414,9.657618,9.863184,9.889307
8.590479,9.997461,9.6661625,9.538721,10.471827
7.094873,8.6627445,8.558741,8.530909,8.06753
9.603174,11.215479,9.467676,10.247217,12.444727
7.544824,9.579981,7.7638183,7.775781,9.991358
8.835352,10.300684,10.871973,11.468409,11.097315
9.3067875,11.550928,9.428614,9.788721,10.199121
8.989649,10.978174,9.424463,9.53628,10.895166
8.62002,10.309229,12.521143,12.111963,10.271875
10.946192,10.005762,11.589746,11.053858,11.2096195
10.650782,10.054102,10.961817,11.284571,10.320948
10.553858,10.722071,11.406885,11.245752,11.386133
10.922266,11.96377,12.924219,13.076563,13.296778
14.180567,12.3067875,12.083155,12.903955,13.030909
12.660059,11.469873,13.225733,12.542871,13.798731
14.260645,11.253565,13.192774,13.211084,12.280176
13.035303,12.1192875,12.706202,12.928125,13.063135
11.949854,11.3971195,13.950342,13.358057,13.767481
11.676661,11.682276,12.840967,12.5567875,12.803614
10.628321,12.215235,13.339258,13.366846,12.994043
12.210352,12.170069,11.4752445,11.1488285,13.978907
11.323389,11.021143,13.082911,12.518702,12.152246
13.430323,11.330225,13.931055,13.451075,12.35586
12.846094,13.745996,14.9144535,14.601465,16.56582
20.458399,15.097559,19.782618,19.558496,18.823145
15.366846,13.306543,15.882471,15.418848,14.777246
18.022364,15.333887,18.01748,16.914698,16.041162
18.127588,17.835108,18.62417,18.830225,19.030176
17.953516,16.66665,17.643946,19.045557,17.538233
18.931787,17.45376,20.079004,20.40835,18.210596
20.931787,16.066553,21.320704,21.782618,20.629053
21.657373,16.054346,19.108301,19.06875,17.129053
21.052637,16.243067,21.583643,20.28335,20.632471
20.529688,16.617823,19.51089,18.681543,16.574121
20.480371,17.13125,20.231592,18.81167,21.364649
25.483057,19.286524,23.053125,24.549707,24.58706
19.570948,18.059717,18.432764,17.677881,18.254541
17.042383,15.8224125,16.438868,16.052149,15.48208
16.056543,14.359766,17.228418,17.126856,14.674952
16.272608,15.321192,16.119287,15.654932,16.432764
20.549463,16.202784,20.576075,19.249903,19.243555
26.271143,19.636621,24.362696,23.984034,20.792627
27.401026,22.922022,27.077051,28.008448,26.49502
23.559473,17.819727,21.641993,21.076563,20.873438
21.195215,17.296778,17.213282,18.142725,18.9125
17.953516,19.197168,18.24795,18.862696,18.500391
22.778467,20.26504,21.95669,22.136133,20.237207
23.096582,18.326563,16.334864,14.777979,18.29873
22.454004,18.854883,21.270166,21.294825,21.201807
23.586573,18.836329,21.08462,21.291162,21.10171
21.764063,18.282618,20.807764,21.68374,20.871729
22.652002,18.310938,19.81338,20.160547,21.147852
21.250635,17.86587,20.330225,20.55874,20.31045
18.357569,17.566065,18.548243,18.71206,17.672998
20.167871,17.88589,21.117334,20.35586,18.853662
16.963526,16.382227,18.027979,18.427149,16.668116
19.435694,17.427881,18.372217,18.47207,17.454493
18.990625,18.099512,18.511377,19.069239,19.093653
21.30874,17.939112,20.598047,21.00332,18.978907
20.854395,19.04629,20.276026,20.974268,19.285303
22.349024,18.00918,22.961084,22.879541,19.443995
25.476221,19.423243,22.86172,22.764551,24.526026
29.473536,23.094873,26.752588,26.235987,24.208155
26.616846,20.204493,24.997461,26.559229,23.66421
21.777979,19.218653,24.178858,23.244532,21.552393
22.410547,19.478662,22.7167,21.66128,22.08169
19.68081,19.135645,19.928125,19.712305,19.984278
18.337793,18.97207,18.79751,18.920557,19.58291
22.775537,19.247461,22.992579,23.195948,22.954004
25.647364,20.793116,26.05044,26.319483,25.704493
25.196924,21.445215,22.410059,22.699366,24.421778
24.016748,21.589746,23.39419,23.777735,21.02334
22.880274,20.206446,24.316065,24.213037,21.349268
23.941553,21.325342,24.005762,23.5729,24.88418
22.152979,20.876368,21.92666,22.073877,19.644922
19.936914,19.386866,20.906885,21.07876,19.841455
19.213037,20.233301,20.137842,21.103662,21.275782
20.020899,18.615381,19.882715,19.43667,19.797266
18.196436,18.773096,18.708643,18.46792,19.602442
18.981836,19.185205,20.45791,20.851954,20.215235
20.707422,19.167627,20.41421,20.504053,18.781641
22.623926,20.154444,21.662012,22.679346,22.014795
21.949121,20.070948,23.371485,23.39004,19.660791
27.234522,20.549463,23.050684,23.022608,22.656641
21.425196,20.058985,21.660547,21.455957,20.160547
22.883204,20.49917,22.564356,23.090479,22.797754
26.597315,20.658594,25.419825,25.52456,23.188135
21.14004,20.635157,21.15713,20.645655,21.277979
21.535791,20.296778,20.857569,20.54214,19.568018
25.008448,20.268946,25.54165,24.719141,23.724512
27.714014,20.805079,25.523096,26.25918,25.447412
22.71377,20.28335,22.547022,22.596338,20.274805
24.077784,21.51089,24.576075,24.50625,21.044825
23.822412,23.157862,24.373926,25.279688,23.876612
23.309717,23.363672,24.677881,25.169336,23.401758
24.606836,23.315577,25.832178,26.492334,24.501612
26.457178,23.160059,26.204737,25.723047,26.441309
28.782618,22.345606,28.446436,25.115381,27.77627
28.657862,22.295557,26.544092,25.942041,25.175928
25.294825,22.527002,24.359278,24.383204,24.884912
28.083643,22.523096,27.939356,25.627832,25.682764
27.438868,22.14248,25.589502,25.131495,24.88003
25.29922,21.173487,24.54043,24.01211,20.451319
26.935205,21.764551,24.170801,24.12588,23.835596
28.702051,22.102442,24.10171,24.12002,23.90957
24.416407,21.718409,23.050684,22.84585,21.962793
25.493555,21.935205,22.709131,22.309961,20.886866
28.077784,23.240625,26.545801,25.758692,24.379786
30.86709,23.231104,28.765284,28.863184,26.448145
32.218163,22.958643,28.383204,28.918604,25.900537
23.11001,20.187159,22.442041,22.234522,20.34463
18.651026,21.35293,18.863184,18.251123,21.171045
22.533838,21.34585,22.62417,21.722315,22.572657
22.586084,21.88711,24.08169,22.491846,24.536768
22.160547,21.849512,21.514795,21.059473,23.164942
18.775782,19.599024,18.891504,18.68252,19.77749
20.306787,18.544336,20.008936,19.991114,19.21084
23.212793,19.786768,21.517237,21.686182,21.757227
24.302881,20.465235,20.824854,21.8229,23.4667
31.313623,22.3229,26.517725,26.11831,26.482813
33.455956,22.08291,28.202784,27.9667,24.421534
25.851465,22.004053,21.385157,19.826563,22.268702
25.373194,21.636133,22.272852,22.293604,21.13418
26.54214,22.076319,23.86123,23.47378,21.952295
31.365137,24.05044,28.768702,27.191797,24.099756
26.439112,21.212793,27.758448,27.99917,22.191797
22.495264,20.60879,20.480616,22.258204,21.884424
19.541407,20.27212,19.449854,19.307276,19.38296
18.838526,18.396875,18.098047,17.397608,18.879541
20.364649,20.016993,18.757227,18.533106,19.9938
18.790674,19.26211,19.897852,19.63003,19.151758
21.720606,19.853418,21.172022,21.22207,21.111963
23.406397,20.004541,21.336329,21.533838,20.609034
26.668116,22.997705,25.801172,25.779932,26.520655
31.432032,21.119532,28.448145,28.806055,24.386133
19.826075,20.089502,21.570948,21.205957,20.731104
19.920557,19.679834,18.966944,19.20376,19.54873
18.086573,19.695215,18.08706,18.633692,18.362207
16.08291,19.5375,16.715967,16.444727,17.917627
15.777979,19.618555,17.630518,16.957666,18.723047
17.839258,19.90713,20.081202,19.244532,19.530909
19.12832,19.90835,21.092188,20.743067,20.845362
19.724512,19.991846,20.765284,20.722559,21.019922
24.035547,21.413233,23.808252,23.20498,21.904932
22.748194,22.27041,21.569239,21.721582,24.060694
22.696924,22.876123,22.94546,23.204493,26.13003
22.85,20.292871,20.33584,20.638575,21.458155
20.272852,19.990381,20.1188,20.926416,20.39126
18.574854,19.579004,18.633448,18.723291,20.15005
20.10879,18.88589,19.38003,19.498194,19.029444
17.242823,18.487207,16.165674,16.724756,17.617823
17.730371,19.134912,16.606836,17.471338,18.619287
18.173487,19.177637,18.282862,19.271387,18.868555
17.031641,17.985987,16.798975,17.668604,18.133936
17.093409,17.84707,16.917871,16.869532,17.63589
14.906885,17.771143,17.373682,17.73208,16.253809
15.426416,17.716455,17.081202,16.92422,16.40005
16.389063,17.691309,17.341211,17.423975,16.608057
15.472559,18.650293,15.532373,15.816309,17.14004
17.015772,18.243067,16.910059,17.20083,17.730127
12.623438,16.746485,13.977198,13.775049,15.128321
14.450098,17.897608,16.430567,15.949121,16.903955
15.355127,18.278467,16.620752,16.742823,17.67373
13.236963,16.369532,12.893946,13.039698,15.238428
12.305567,16.249414,13.457911,13.140528,14.817774
12.7875,15.421778,13.199366,13.150293,14.665918
15.498682,17.289454,17.166162,17.189844,17.465235
15.841944,17.437891,16.048243,16.189356,16.343897
15.672998,17.06753,16.690088,16.47964,17.33584
15.390528,16.58999,14.77334,14.559473,15.170557
12.956934,16.734034,13.803125,13.69253,15.13833
13.243555,16.840479,15.091211,15.5707035,15.986475
14.784571,17.402735,16.07046,15.883448,16.757715
13.63125,16.595606,14.572168,14.376856,15.620752
11.516016,16.392237,13.092676,12.983301,14.761621
14.69961,17.386866,16.478907,16.058008,17.11416
16.083155,17.508204,16.8417,16.218653,17.409327
15.139307,17.634912,15.153467,14.6625,17.084131
15.683496,16.72207,16.558008,16.651514,17.09707
13.580713,16.661036,15.099756,14.705225,15.518213
8.882227,13.699121,9.002344,8.912256,11.029444
15.725,17.439844,15.895411,16.04336,16.86709
15.383692,16.495996,14.606348,14.186426,15.339502
11.847559,15.224024,11.825342,12.062159,14.13418
8.99917,14.020411,10.494043,10.404932,12.31045
8.218653,13.51333,9.553614,9.636377,11.914942
9.510157,13.835352,9.807032,11.604639,12.476709
10.106836,14.377588,11.893213,12.290918,13.390772
9.293604,13.674707,10.146875,9.835596,12.771631
10.646143,13.997461,10.71377,10.179346,12.87295
10.391016,14.223536,10.575586,11.540674,13.741358
10.503321,15.394678,12.735498,12.557276,14.4300785
12.558741,15.632715,13.669092,13.599512,14.613672
12.931543,15.651026,14.022608,13.687891,14.785791
11.893213,15.927393,12.299707,12.481348,14.945459
13.775049,16.077295,15.268702,14.899561,16.278467
7.549951,12.170069,8.163965,8.064356,9.136377
4.0614257,10.966944,4.1986327,4.830713,8.168604
6.85708,13.378321,8.581202,9.9908695,11.787989
7.698877,12.563135,9.125879,8.951319,10.729639
7.620752,10.423731,8.701075,8.139307,9.752832
6.3595214,9.890039,6.307031,6.308496,8.23501
6.989404,10.115137,7.2992187,8.13833,8.9596195
6.8858886,9.928614,7.117578,7.410791,9.133692
4.7604003,10.902491,6.8514647,6.6024413,9.472071
5.829248,10.803614,6.9168944,5.6932616,8.118799
