"[299, 255]","[227, 248]","[287, 319]","[279, 328]","[230, 262]"
12.923243,15.895655,13.380762,11.988916,15.032129
8.952051,14.248194,9.567286,9.543848,10.8971195
12.88833,16.441309,13.036524,12.580957,15.171045
11.849512,13.998926,12.288965,12.012598,12.154932
5.33999,11.21377,5.93667,5.8021483,8.539698
4.605371,11.0375,6.350244,6.3270507,8.716455
11.237207,15.270899,12.391504,11.968897,14.18667
6.489404,11.448389,8.517969,8.500391,9.520411
4.796045,11.088526,7.341211,7.017236,8.848047
5.0077147,11.659571,6.653711,6.6375976,10.243067
6.817529,13.121485,10.288965,10.431055,11.46792
10.379053,14.399317,11.961084,11.7582035,12.967188
9.001368,13.020166,9.10293,8.853907,11.718653
10.89834,14.068018,12.221094,12.136621,13.255274
10.984522,13.775293,11.7755375,11.4908695,12.98208
5.3512206,10.589014,6.810205,6.247949,8.76211
7.830957,12.831446,10.600733,10.437403,11.821924
11.987696,14.084375,12.771143,12.6349125,13.617823
12.4144535,14.156885,13.017725,12.842676,13.722071
5.086328,10.40835,5.6444335,5.62832,8.031885
7.094873,12.669825,8.736963,8.43667,11.1471195
12.381739,13.998682,12.858789,12.654932,13.696924
14.4942875,14.817774,14.333399,14.520411,14.779444
8.566797,12.095362,7.985742,8.038965,10.65127
7.603906,11.592432,9.174219,8.801172,10.545557
7.1981444,12.12002,9.077539,9.316553,11.010157
12.0021,13.884668,12.94253,13.231104,13.714258
12.051172,14.064112,12.86294,12.572168,13.16543
11.441309,13.214502,11.818262,10.988672,12.010645
5.327295,10.908106,6.09707,6.2801757,8.119043
6.0960937,11.384668,7.009668,6.701074,8.772608
14.300196,15.089258,14.054834,14.145655,14.783838
5.7313476,10.565332,7.5057616,7.161279,8.712305
4.761621,10.176661,6.0421386,5.506494,7.7933593
4.977197,10.621973,5.37417,5.1544433,8.611231
8.476709,12.505762,10.088526,10.050928,11.451807
9.815577,12.951807,11.336084,11.464014,12.452051
10.67959,13.125635,11.266016,11.137598,12.634668
7.850488,12.022608,8.862452,8.778467,10.571192
10.657129,12.633448,10.652735,10.4667,12.087793
10.721338,12.588526,11.158838,8.223536,12.203028
8.586573,11.456446,6.642236,6.1412597,9.974512
4.298486,9.108545,3.9720702,3.916162,7.4203124
2.7398925,10.945215,4.0680175,3.584375,7.008203
8.8675785,12.546045,9.586817,9.28042,11.376368
8.841944,12.369043,9.049952,8.920801,10.116358
7.1671386,11.834375,7.6737304,7.433252,10.580713
6.55874,12.070948,7.091699,6.8614745,11.263819
10.801416,13.232813,10.082911,9.816309,13.054834
7.8280272,11.793848,7.855615,7.6996093,10.851465
7.8531737,12.425928,8.240625,7.702783,10.471094
5.4242187,9.933252,6.4884276,6.237695,8.568262
4.4305663,9.208887,5.0191894,4.7169433,7.532861
11.624414,12.18252,12.274561,12.130762,13.106592
11.572657,12.052149,11.743555,11.674219,12.479639
5.959619,10.235254,6.9520507,6.867334,8.6783695
8.464014,11.413233,9.791895,9.558252,10.666651
11.184229,12.580225,12.417139,11.928614,12.790186
10.8067875,12.155176,11.713282,11.831934,12.83877
9.490625,11.769678,10.313379,10.659815,11.19668
5.9791503,9.297266,6.002832,5.7921386,8.174463
7.789453,11.058741,8.609522,8.572657,10.459131
9.753809,11.296534,10.319483,10.743067,11.043848
9.981836,12.23208,10.715235,10.978418,11.675928
10.667383,10.57583,7.133447,7.3094726,9.311426
6.5387206,10.626856,7.261621,7.4259276,9.4596195
7.978418,11.17544,9.185205,8.926172,10.052881
10.38833,11.857569,10.692774,10.398096,11.690577
10.662012,11.824366,8.007959,6.756494,9.003565
9.844629,12.109034,7.273584,6.63125,11.227442
3.4269042,8.046534,5.622705,5.2818847,6.7833495
5.462793,9.598047,6.777246,6.301416,7.7154784
9.07876,11.180811,9.652246,9.855127,10.893946
10.5646,11.1625,10.368067,10.368311,12.253565
11.130762,11.316797,10.714991,11.436426,11.441309
9.802881,11.268946,10.099512,10.1957035,10.848047
5.548242,9.438135,6.8473144,6.3524413,8.49795
8.136377,10.295801,8.443262,8.274805,10.128809
8.753077,11.362452,9.527735,9.878565,10.942286
8.125879,10.654932,7.3807616,6.57583,9.57876
5.5663085,8.649561,6.107324,6.0335937,7.881494
5.4884276,8.344385,6.279199,6.591455,7.8219237
5.245996,9.8832035,5.902246,5.313623,8.830225
6.080713,9.339991,6.747949,6.177881,8.13003
5.6773925,8.80459,6.298242,5.9432616,7.827295
8.593409,10.192041,8.343409,8.631983,9.8346195
9.043604,10.936914,8.336817,8.328028,10.301172
11.295801,11.702784,11.176416,12.056543,11.799707
12.103418,11.712061,11.546534,11.426905,11.865137
7.672754,9.899561,8.977198,8.267725,10.045801
5.725,8.975489,7.6170897,7.305078,8.321436
5.1668944,9.538721,6.0382323,6.056787,8.113184
5.7799315,8.568262,6.7049804,6.617822,8.339502
6.4847655,9.05752,7.3700194,7.3788085,9.082911
8.47378,10.153223,8.868799,9.394922,10.126368
10.4752445,10.160059,8.923731,9.73501,10.612452
8.922998,10.42959,10.214258,10.152491,11.296289
7.608545,8.720362,7.690332,7.488672,8.872705
8.306543,9.42544,8.441309,8.920069,10.154444
6.903955,9.448389,7.148828,7.202783,8.799952
6.348047,9.093409,7.9188476,8.261377,9.047754
8.953516,10.314356,9.345362,9.43252,10.159082
12.188379,10.666895,10.735254,10.877832,10.59292
8.442286,9.764307,7.8597655,7.6615233,9.6957035
9.233789,9.909327,9.624414,9.437403,10.808496
13.064356,11.316065,10.938135,12.003077,11.946192
13.872217,11.301661,12.404932,11.626368,11.333887
11.832666,11.87002,13.08877,12.484522,12.035059
8.308985,9.663477,9.257471,8.81753,10.268946
8.643457,9.129297,8.787989,9.116358,8.946436
8.6192875,9.6661625,9.0394535,8.873682,9.032862
9.656885,8.974268,10.349756,10.373926,10.012354
9.34585,9.7425785,10.596582,10.471338,9.9908695
10.140284,9.911768,11.0689945,11.481104,11.4925785
11.614405,10.015039,10.459375,10.815332,11.42959
9.443506,9.801905,9.9769535,9.795801,10.462793
7.180322,9.434229,8.596338,8.361475,9.318018
7.2049804,8.300196,8.106104,7.9032226,8.319483
7.041162,8.104639,7.3907714,7.4618163,7.3038573
7.5089355,8.003809,7.5614257,7.730127,7.780664
6.2418456,7.8092284,7.261865,7.4791503,7.3023925
5.540918,8.079737,8.001368,7.723291,7.4884276
10.857325,12.572901,7.70791,9.809961,11.706202
11.45083,11.371485,12.596094,12.04043,12.093409
9.366846,10.561182,11.326563,12.2721195,11.659082
8.556055,9.532373,9.266748,8.911768,9.260645
7.9603515,8.956202,9.374659,9.170801,8.699121
7.6637206,8.82876,9.09878,8.83584,8.88711
8.395899,8.664209,8.890528,8.73794,8.923243
9.650782,9.754297,8.508936,9.841455,11.945215
10.056543,11.258448,9.738916,10.638575,10.532129
12.514795,11.277246,12.224512,12.046045,13.217188
9.112207,11.013819,9.909571,10.137598,11.421045
9.770655,9.971827,10.216944,10.270899,10.013575
7.87124,9.885889,9.479883,9.313623,9.920801
9.182276,10.535547,8.706934,8.671534,11.45083
8.659327,9.657862,10.083887,9.180323,10.683008
9.191065,9.296045,9.749659,9.288721,9.006983
8.659082,9.231348,9.628077,9.501368,9.497217
9.562159,9.697901,9.203272,9.741602,8.717432
9.711817,10.010157,12.108057,12.027002,11.306055
11.632715,10.583643,11.158594,11.641993,11.282373
13.414942,11.175684,14.6314945,13.426661,11.79751
14.416895,12.584131,15.688135,15.915674,17.84463
16.541162,14.1019535,17.433252,17.162012,17.457178
17.606104,15.183985,17.527735,17.208887,18.743555
18.811182,12.859034,16.77212,16.70254,15.080225
19.207422,11.267237,15.609522,14.300928,13.086573
12.406885,10.963282,13.208887,13.311914,11.789942
13.42959,11.070215,12.177637,12.8971195,12.188623
12.06045,10.949854,13.310694,12.524561,12.537989
11.580469,11.162012,9.740137,10.468897,9.545313
11.632471,11.230616,12.514063,12.241846,11.851709
13.201075,11.421289,13.058741,12.962305,13.079737
14.077051,12.301416,11.798487,13.392481,12.456446
15.450098,13.279688,14.668116,13.569727,15.225
16.337305,14.548487,17.495752,17.338282,18.854883
15.1002445,14.200586,14.998682,14.324121,16.03628
19.497705,15.906397,18.724024,18.783106,16.14248
24.085352,19.530664,24.39541,24.491358,25.402979
17.847803,18.199366,18.838282,18.601221,17.21963
20.081446,14.04336,16.67422,16.27749,17.367334
12.694239,13.384668,13.335352,13.56045,13.655909
13.1957035,12.636133,13.568506,13.57583,13.668848
16.818506,13.251612,16.44253,17.240625,15.881006
19.614893,14.935205,17.376123,17.97793,17.278955
21.676416,15.405664,20.65957,20.356836,20.01089
23.126123,15.986719,23.335596,23.366602,19.469873
26.04214,18.401026,26.652002,26.927149,20.819971
27.563868,21.302637,26.705713,27.88125,25.018457
27.14419,22.723291,26.336817,27.34292,25.963037
26.966211,21.945948,25.62588,27.022852,24.251612
26.793848,20.822412,24.60708,24.703516,23.449121
25.181787,19.197168,24.856348,26.169336,25.061914
19.213037,16.991358,23.445704,25.023096,19.560694
18.45547,16.657862,20.10708,21.238672,17.774317
15.837793,16.55044,19.507471,18.412256,17.58462
15.958155,16.318995,20.010157,20.655176,15.91543
21.412012,16.675684,21.649805,21.285303,17.523584
19.97085,16.83047,20.440577,21.075586,17.399073
22.396387,17.686914,22.8417,22.299952,21.269678
24.346338,18.328272,24.438868,24.570215,21.820704
24.502344,19.649317,24.884424,24.985743,23.174952
23.464746,19.094873,21.559961,21.60879,21.485987
15.206446,17.737696,16.887598,16.85171,17.104395
14.334864,16.221827,16.850245,16.809717,16.75796
15.069483,15.679346,16.215723,15.969873,16.603907
14.678614,15.954248,15.712305,15.423243,16.656641
18.76626,16.8771,18.250391,18.678125,18.350489
24.18545,18.274805,20.501856,19.015528,21.634424
24.008448,19.476221,23.316797,22.949854,21.800196
17.594385,17.00918,17.953516,17.535547,17.944971
18.561426,17.014307,18.446436,17.983301,16.382715
22.728907,17.566797,19.591211,20.377344,19.927393
17.00918,16.950342,16.27041,16.004297,17.800196
17.015528,16.94253,17.197657,17.780176,18.697168
17.254541,16.829248,18.55752,18.164454,15.686426
15.832911,16.185205,16.485743,15.859278,16.79165
18.38589,17.55752,18.225489,18.193995,17.640528
22.529932,18.322657,20.603662,20.915186,22.623682
21.231104,18.764551,21.038721,19.509912,22.350733
19.978662,19.04922,20.154444,20.278223,18.650537
21.82339,21.141748,23.414942,23.52334,22.284327
25.271875,23.09585,26.353174,26.420801,24.294825
26.008936,22.812647,27.677149,28.82583,26.225733
30.011866,23.920557,28.853662,29.990137,29.910303
28.70547,22.046045,29.244776,27.964258,20.942041
25.051172,19.66421,24.03921,24.089258,21.435205
26.35586,19.928125,23.962305,23.571192,23.96255
30.276514,22.255762,27.140284,26.876123,24.349512
21.008204,19.568262,21.437159,21.396143,19.068018
21.488916,20.331934,20.336084,18.757471,21.714502
21.471338,18.963282,22.340479,22.113184,20.818262
21.184473,19.906153,21.525537,20.156885,24.068262
24.602442,21.436182,26.40957,25.756739,26.922754
21.844141,21.789698,20.614893,20.320704,22.267237
20.63711,19.109522,23.110987,23.1354,20.51089
29.062647,22.105371,25.373194,25.731592,26.52627
30.014551,21.54165,26.171778,26.108057,26.95498
32.00625,26.143457,31.802637,32.49209,28.682032
25.236475,22.18374,21.210108,20.35586,21.585108
24.041162,22.109522,23.042627,23.75332,22.756495
22.742334,22.639063,24.031641,24.81753,23.107325
24.43374,21.790918,24.327295,23.952051,22.694239
24.86416,21.61416,22.830225,23.563623,22.86709
20.887598,21.068995,20.305079,20.66958,21.992334
19.233301,19.952784,19.539454,19.06167,20.745996
18.326807,19.025782,19.398096,19.45791,20.095362
19.37295,19.735498,22.33706,22.48501,19.840723
26.462793,21.514551,24.562647,25.366358,24.33584
27.04873,21.940577,22.126123,24.160303,23.214258
23.67373,21.15957,21.705225,22.003809,20.806543
20.968897,19.975489,20.604883,20.848047,20.908838
21.262354,19.616358,21.79165,22.376123,20.709131
25.025782,21.105616,22.840479,25.310694,20.969141
27.313135,22.757715,25.410059,26.069483,25.484278
22.6354,20.861475,22.247217,22.752588,21.209375
24.847559,21.035547,21.870752,22.531153,23.83291
20.89248,20.720118,20.223291,20.59585,21.849024
19.881495,20.517237,17.933252,18.780909,17.774317
19.592188,19.370508,20.667871,20.813623,19.909327
20.502832,19.759912,20.68252,20.397608,20.238184
24.070948,21.840235,23.282862,23.176416,24.815088
29.722803,22.800684,28.44082,28.569971,27.891993
29.02041,22.349268,26.52749,25.52627,21.971338
18.819483,20.629541,20.37124,19.46792,20.326563
19.804346,20.379541,20.725,19.835596,20.769922
19.83584,19.896631,20.931055,21.024317,20.629786
20.019678,20.080713,20.586573,20.718653,19.565088
23.099512,20.985498,23.41958,23.409327,23.458399
24.738672,21.10879,25.625147,25.327051,24.985987
23.537745,21.98916,23.85708,23.850733,25.530909
27.20669,23.176416,25.765528,26.838282,26.732325
28.032862,23.703272,27.13711,27.517237,27.646387
23.148829,21.814844,22.050196,22.17373,20.359034
26.57754,21.509668,24.057764,24.42837,25.42666
24.920069,22.153223,22.681787,23.387842,23.929834
19.637598,21.708155,19.089258,19.102686,20.476954
20.294092,19.359034,19.623194,19.648829,18.731104
20.221338,20.913477,16.701807,16.478418,22.319971
24.51089,21.568995,22.45669,23.124659,22.816797
25.23672,21.716944,23.851221,25.08462,23.660303
20.284082,21.155664,20.159082,19.485987,21.18667
20.175928,21.115137,19.419825,19.621973,22.106104
19.69961,20.579004,19.075342,19.377588,20.308496
21.815332,20.596827,20.098536,19.427881,21.21377
22.312403,21.304834,19.241602,18.585352,24.555567
23.476954,20.954737,20.225733,19.8417,23.20547
17.06338,20.86001,18.20669,18.270166,20.029932
20.349756,20.695704,19.811426,19.734522,19.970118
22.482325,21.998438,21.678125,21.322657,23.396143
23.222803,23.308985,23.28921,23.079004,24.193262
24.299463,23.983301,23.539942,23.546778,24.099756
28.110254,23.04873,25.813623,26.331202,27.301172
27.015284,22.035547,26.633448,26.817774,24.970606
25.843897,22.413721,23.854883,24.02456,24.526514
21.12832,20.465235,20.092188,20.001856,19.645166
18.519922,20.32583,18.098536,17.628565,19.738672
18.090723,20.23086,18.501856,18.276514,19.32339
18.758936,19.849268,18.398096,18.428614,18.782862
20.34878,19.714014,19.804834,19.626123,19.72964
22.60293,20.80752,18.70962,18.396387,21.382471
22.025293,21.16128,20.997461,20.785059,21.588037
22.367823,21.069483,22.86001,22.409327,22.488916
24.705713,22.968653,25.618555,25.459131,26.433252
26.117334,23.163965,25.15127,25.170313,25.675928
26.201563,21.762842,25.337793,24.70254,20.76626
23.502588,20.109766,21.694483,22.321436,19.996485
17.245508,20.168116,17.290918,17.263086,18.858545
17.998926,19.446192,17.186426,17.221094,18.904932
19.998682,20.499659,20.385157,20.46792,21.946924
21.211817,20.704004,21.009912,21.31045,23.070215
22.744532,21.234034,20.364649,21.164698,22.61587
28.462793,21.8417,26.045557,25.382471,26.144434
22.857569,20.657862,20.83462,20.262598,20.095118
16.589258,18.752832,16.975977,16.92422,17.765772
18.11172,19.113672,18.310938,18.754786,19.558252
19.404444,19.759668,19.110743,19.422266,20.61172
19.024073,19.547266,19.090479,19.83169,20.084375
17.240137,18.525293,19.216944,18.828516,17.745996
18.485498,19.591211,18.967676,18.511621,19.214014
22.327784,19.740137,20.184473,20.958399,21.139063
21.109034,20.635157,19.292627,19.622461,20.40835
19.241114,20.148096,19.49917,19.547266,20.252832
18.71377,18.936426,18.250391,18.108301,19.708643
18.496729,19.453272,18.903711,18.258448,19.177637
19.297754,19.563868,18.484522,18.4479,21.015772
21.1896,20.011133,20.335596,20.4479,20.093409
19.546778,19.444239,20.779688,20.199366,20.373682
19.715967,19.173243,19.482813,18.721338,19.843409
20.830713,20.248682,19.08999,19.531397,21.419336
21.340967,19.820948,20.123682,20.72671,20.627344
18.836329,19.222803,20.043848,19.720606,18.782862
22.63418,20.763575,21.114893,21.007471,21.967188
20.205225,19.884424,20.114893,20.045313,20.32754
23.35708,18.922266,20.28628,20.82998,20.532618
24.356348,20.930567,23.353418,23.177149,24.214746
23.906641,22.340723,23.5917,23.222315,23.83706
22.913965,21.947657,22.922754,22.91421,25.01748
23.906397,22.099024,23.32461,22.888086,23.571192
19.49624,19.75088,18.239405,18.839746,19.743555
19.14126,19.67251,18.233301,15.700342,19.894434
17.99795,19.521631,16.546534,15.354151,18.40957
18.195948,19.818018,17.709375,17.659327,19.07046
12.955713,16.953028,12.7792,12.811914,14.6627445
13.474024,17.326075,12.335352,12.59292,15.202295
11.652002,16.40249,11.518702,11.078516,13.751123
14.498194,18.369776,15.076319,15.10708,17.155909
16.084375,18.555323,15.990137,15.421778,17.504297
17.071924,18.766748,17.295801,16.836329,18.341944
17.806055,18.79214,17.319971,16.881495,18.339746
9.645411,13.593897,9.2442875,8.699121,11.433008
10.172266,15.640528,11.243311,11.141748,13.721582
13.613672,17.168116,12.721338,11.209375,15.786036
12.713526,16.676416,13.949121,13.850733,15.478907
16.674707,19.221094,18.060938,17.196192,18.473047
15.954981,18.525782,16.980616,16.429346,17.699121
15.324121,18.130518,16.23794,15.587549,17.05581
11.355127,15.664698,12.054834,12.026026,13.379053
11.67544,16.838037,11.983789,10.9752445,14.830713
11.543848,14.690821,12.0375,11.024561,12.43667
8.103418,13.146875,9.017481,8.7096195,10.707911
6.7186522,13.5082035,7.0770507,6.289453,11.193506
16.76089,17.463282,16.37588,16.08755,16.937403
12.3519535,15.031153,11.61709,11.583887,13.583887
6.884912,13.44253,8.426416,7.9312987,10.403711
8.604395,14.323877,10.893457,10.801416,12.413477
11.308985,14.869532,12.81875,12.41543,14.016993
11.410791,14.854151,12.109278,12.197657,13.794092
12.486231,15.685205,13.503321,13.73208,15.38003
11.346338,15.413233,12.825098,13.429834,14.549707
12.589991,15.448389,13.778223,14.005518,14.516993
8.942041,12.311914,7.844873,7.594629,11.163477
12.985254,16.138819,11.165186,10.854639,15.258448
13.463282,16.238916,14.57461,14.003565,15.678125
11.633448,15.902002,12.061914,11.815088,14.418848
10.718409,14.437891,11.208155,10.390039,12.787256
12.71377,15.5550785,11.819239,10.803125,15.018946
13.837549,15.834375,14.516748,14.253809,15.513575
8.4042,12.507715,9.09878,8.945215,11.171534
