"[299, 255]","[227, 248]","[287, 319]","[279, 328]","[230, 262]"
12.291895,15.071436,13.332911,13.285059,14.553858
6.3734374,13.227198,8.141993,8.001368,9.923487
6.3719726,10.558496,7.6620116,7.3282714,9.274805
4.6168456,10.698145,4.4356933,3.9935546,8.782862
3.6266112,9.977442,4.6773925,4.261377,7.7916503
3.5057616,11.57461,3.1153808,3.5716796,7.78042
8.015772,12.437647,7.841699,7.4117675,11.07876
8.920557,12.254297,9.51626,9.345606,11.529932
6.638086,10.29458,7.317285,7.5267577,8.022852
5.0284667,10.906641,5.954248,5.3819823,9.078028
7.7604003,13.395899,7.6878905,7.641992,11.479151
7.8180175,12.700098,9.322657,9.291895,10.65542
7.3912597,12.025049,7.079248,7.0455565,8.727686
8.007471,12.842676,9.371729,9.116358,11.023584
10.0377445,14.181543,10.559473,9.936426,13.053125
11.284571,15.100489,12.407618,11.076807,14.222803
11.236231,15.133692,12.4042,11.9283695,14.120508
7.7750487,12.9630375,8.864405,8.706446,11.083155
8.508448,12.909327,9.946192,9.535547,11.125391
11.181055,14.714258,11.965967,11.206202,13.848047
10.73794,11.381739,8.567774,8.314356,9.818262
3.2501464,9.065332,3.688623,3.6717772,7.605615
5.380029,11.228174,6.2972655,7.002588,9.652246
1.7113281,9.755274,3.1942382,2.9850097,8.122217
3.2804198,10.890039,4.5399413,5.2535644,9.7877445
6.008447,11.579737,6.9183593,7.6183105,10.702295
7.0020995,11.564112,7.808496,7.709863,10.642725
6.718164,11.986231,5.7875,5.1961913,9.443018
7.652246,12.510157,8.323389,7.772363,10.653467
9.049707,12.9925785,10.115381,9.724512,11.363916
4.6861815,10.532373,5.1864257,5.1061034,8.985498
3.495996,12.269434,5.086572,5.249658,10.845362
8.026514,12.517481,7.6112304,8.204737,11.053125
4.6461425,9.672754,5.212793,5.2975097,7.7848144
8.903711,12.549463,9.674219,10.058985,11.639063
9.538233,12.98208,11.003077,11.225489,12.464502
10.454248,13.245508,11.216211,11.204737,12.472315
9.967188,13.050684,8.598047,8.381739,11.708155
5.93667,10.527735,6.487695,6.081445,8.212061
5.251611,9.915674,6.1876464,6.147119,8.089502
4.3963866,9.568262,4.674463,4.655908,8.086573
2.3583007,9.486231,2.2970214,2.827783,7.40957
0.7884766,7.3336425,1.5211426,1.5797364,6.398584
2.9193358,8.431055,2.4754882,2.4471679,7.0802245
4.205713,11.021875,7.068994,7.5069823,9.122217
9.589991,12.438135,10.734278,10.511133,12.126856
9.316797,12.257715,10.443262,10.272852,11.883936
9.822657,12.3771,10.978174,10.873682,11.806299
11.341211,12.918604,11.349756,11.182032,12.670801
9.837549,13.014795,11.571924,11.704248,12.769922
11.248194,13.1332035,12.035547,11.873926,12.78042
8.422998,11.592188,9.174952,8.801661,10.279932
11.30044,12.973291,11.569971,11.286524,12.935938
11.590723,12.466455,10.209864,10.213526,12.282129
13.185694,13.359034,13.024317,13.522364,13.209864
8.631739,11.707422,8.542383,8.489893,10.31167
7.3282714,11.2130375,7.9063964,7.6996093,9.420069
4.7037597,9.2113285,5.1839843,5.2818847,8.184717
3.8006835,8.534327,2.7855468,3.1185546,7.4850097
4.119531,11.048487,5.0597167,5.8219237,9.488916
8.052149,10.975489,9.857325,9.738184,10.275049
7.815088,11.204248,9.739893,10.462793,10.758448
8.94961,11.54043,9.467432,9.163233,11.274317
9.192774,12.374659,10.558741,10.336817,11.868799
10.058985,12.605127,11.235498,10.943262,12.283838
10.059961,12.29751,11.23086,10.88711,11.862207
9.604395,11.252344,10.097559,10.66128,10.564844
7.0470214,10.799463,8.814356,9.154444,10.241846
7.55166,11.416407,9.793604,10.569483,10.763575
8.919092,11.574121,9.28042,8.505274,10.926416
6.551416,10.569239,8.176416,8.085352,9.176905
4.1354003,10.013819,5.8443847,5.610254,8.570948
9.423487,12.316065,10.203028,9.133448,12.092676
11.222803,12.439112,11.852442,11.967188,12.238184
8.894678,11.264307,9.946436,9.768213,10.800928
7.68667,10.740381,8.915674,8.861719,10.195948
8.195948,11.231836,8.850733,8.823877,10.215235
8.091455,11.233301,8.095362,7.858789,10.288477
7.0611815,11.471582,8.664209,8.810694,10.642969
5.809961,9.921289,6.813867,6.9237304,9.50918
5.9708495,9.063135,7.254785,6.680322,8.978907
5.211572,8.763575,5.9017577,5.546045,7.7330565
5.226953,10.163965,7.40542,6.207422,9.056055
4.5941405,9.167383,4.843408,5.023584,7.3824706
4.1844726,7.6131835,4.030664,4.5265136,6.6270995
3.483789,6.50625,5.057031,4.8236327,5.6915526
4.268457,7.2035155,5.4537597,5.076074,6.296045
3.778955,7.503076,4.902002,4.980615,6.886377
4.112451,7.806787,3.8358397,3.7850585,6.5350585
3.8314452,8.637354,5.278711,5.305078,7.52749
7.211328,10.525049,7.1187987,6.830713,10.132715
10.938868,11.187403,10.374659,10.922022,12.777735
10.579004,11.542871,11.277735,11.034815,12.353418
12.967432,13.326563,13.134668,12.435694,14.157618
12.293604,12.180567,13.668604,13.188623,13.44375
12.006006,11.290674,12.86294,12.280909,13.589014
12.406397,11.668848,13.301661,13.209375,13.975733
14.462061,11.779932,12.925684,12.937891,12.539942
16.760157,12.955713,15.632471,15.49209,15.622217
16.122217,14.256006,18.708399,18.818995,15.477442
15.503809,12.470606,18.049463,17.702051,14.57168
9.964014,12.295313,10.368311,11.101465,12.065577
5.53042,9.930323,7.4637694,7.841699,8.776514
4.7120605,7.9605956,6.261865,6.572412,7.188623
4.2137694,6.6949706,6.4032226,6.270654,6.300195
5.686914,8.390284,6.8790526,7.0125976,8.610743
4.4208007,8.4474125,5.831201,6.0606933,7.675195
6.0125976,8.377832,8.114649,7.3756347,8.117823
5.8368163,8.168848,6.7396483,6.8143554,7.8194823
5.9569335,8.425196,7.6185546,7.6703124,7.9168944
4.890283,7.355371,6.613672,7.363672,6.6180663
5.1231933,7.532861,6.91958,7.0833983,7.1219726
4.568506,6.5140624,5.9762206,5.921289,6.322168
4.388086,6.4469237,6.191797,5.369531,6.205713
4.549951,6.5694823,5.775293,5.3355956,6.0335937
5.421533,7.427881,6.1031737,5.641992,6.5594726
7.7535644,9.686426,8.13418,8.805811,10.736719
8.540186,9.166407,8.78042,8.36294,8.43252
7.839746,10.625635,9.459864,9.597559,10.92959
3.2245116,8.764795,6.000879,6.245752,7.3836913
8.024805,13.009424,8.286524,9.626123,10.971827
8.979395,11.4667,9.281885,9.20669,11.052393
7.218164,10.160547,8.638819,8.331446,9.390772
10.215479,10.825342,10.277491,10.2442875,9.56753
11.278467,12.250391,11.90127,12.118067,11.825586
11.773584,14.096827,12.237696,13.561426,13.959375
8.209864,11.670557,9.431055,10.141504,11.128565
8.828028,11.081934,10.464991,10.8971195,11.13003
10.324366,11.449366,11.440577,11.273584,11.423731
11.465479,12.515528,11.56167,11.454004,11.89419
11.631006,12.001856,12.322168,12.065332,13.103418
10.635645,11.102442,9.129053,9.954248,10.538965
10.066309,10.650293,11.422754,11.073633,10.546534
10.353907,9.878809,10.051661,10.027979,9.754786
11.410791,12.633448,11.397852,10.887842,12.988184
12.782862,12.579981,12.56875,13.655176,13.651758
9.553614,11.726709,11.225,10.756739,11.361475
11.47793,11.690332,11.098536,10.63711,11.621973
12.078272,11.935205,13.015528,13.323877,12.755518
12.190577,12.384668,11.9127445,11.948633,12.957666
12.442774,12.292871,13.283594,13.103907,12.292871
11.785547,12.573633,10.011133,9.565821,12.826075
14.469873,12.895411,14.2167,14.269434,16.008448
9.988184,10.289209,11.141748,10.944971,10.785791
8.5567875,9.983789,9.562159,9.284571,10.1332035
8.883448,9.0567875,9.942774,9.142237,9.365625
8.186182,8.767969,9.004297,8.403711,9.537012
9.721338,9.567286,9.532862,8.812647,9.378809
11.032862,13.383936,11.09292,9.181543,13.146631
13.078272,13.1036625,13.404932,12.711817,15.299463
10.880274,11.652735,13.600733,14.130274,13.812647
15.361475,12.749659,11.018213,11.719873,15.218409
14.559473,11.415674,8.4317875,8.007471,10.4667
11.584375,11.957666,11.183985,11.634668,12.197168
13.242334,11.56875,14.179346,13.934229,12.980371
12.846827,11.575098,12.912012,12.739405,12.9474125
14.989649,12.959864,15.087061,15.013086,15.227198
13.655176,12.832422,12.202784,12.719141,13.214746
12.621241,12.9283695,15.061182,13.485498,15.361719
13.025782,12.494776,14.008936,14.195215,14.393702
15.32876,13.450586,15.889063,16.610743,15.058496
13.994776,12.956934,15.200098,15.026758,13.636621
13.753809,14.073877,17.302881,17.153955,13.972071
10.959131,14.070948,14.782373,15.737452,13.777979
13.781641,13.850733,15.151758,12.636866,13.64834
16.245752,14.676172,12.707666,12.879053,15.569239
16.540674,15.970362,19.067774,18.569727,16.981348
19.38418,15.261377,19.385157,18.841944,18.534082
21.591455,16.730127,21.234522,21.884912,21.077784
21.713282,18.636133,23.758692,23.56338,20.607325
22.880518,18.918116,22.646631,23.276026,21.740625
23.453028,18.756495,24.941553,24.939844,21.58291
14.131739,14.374903,15.12002,14.642725,15.951075
12.9144535,14.636377,16.11416,15.917383,14.424707
14.718409,14.42251,16.71255,16.5729,15.255274
15.359278,15.724512,17.034082,17.17666,17.755274
18.133448,15.194483,19.907618,19.277735,17.901026
18.971827,17.119043,22.6896,22.450342,19.492579
20.412256,19.778223,23.155909,23.552149,21.339014
19.314356,19.156397,18.61001,19.595606,19.710596
22.791895,21.38125,24.089502,24.241114,23.346338
22.460596,23.00332,19.488428,21.246729,23.1625
22.02505,21.14541,21.599024,23.305079,23.764063
20.333399,17.418116,22.468164,23.149073,20.12295
24.5729,20.368067,26.9125,26.310694,24.73672
25.866358,22.881006,27.82754,27.948145,26.235743
27.311914,23.910547,28.38833,28.99209,27.546778
25.778711,24.19668,25.954493,28.381983,26.411036
28.722559,21.763086,28.298487,30.7167,26.927881
28.476954,24.559961,29.093897,30.216455,27.882471
28.609766,21.72671,26.781153,27.969385,25.808985
23.384668,24.176905,22.706202,24.423243,23.618555
25.013086,23.552637,25.166162,25.934717,23.929346
19.420801,23.28213,20.405909,21.060938,23.22378
22.508692,21.93545,24.573145,25.391993,21.857325
21.611475,21.481592,21.82046,22.568995,21.54458
18.768702,20.226465,19.904932,19.790186,19.919336
17.844385,19.26211,20.621729,21.259424,18.857813
21.412256,19.264307,24.724024,24.638575,19.223536
17.134912,20.196436,23.880518,23.657862,20.369043
20.893702,19.940577,19.389795,20.891993,18.48501
17.769434,19.044825,18.832666,19.602686,19.676905
18.497461,17.507471,19.848291,18.856592,18.944727
20.086084,18.383204,21.012354,21.098047,19.671045
18.930323,18.921045,20.764795,20.696436,20.87295
18.906397,18.683252,20.649317,20.631983,19.633936
19.96499,19.926905,20.247705,19.933985,20.10708
22.266504,21.303858,23.473536,24.45791,22.277735
23.45376,21.579004,25.187891,25.928614,22.607325
23.756006,21.481592,23.547266,23.378077,22.503077
21.415674,21.57168,22.991114,21.980127,22.985254
18.356348,20.720118,20.239649,20.561914,20.058008
17.889063,21.132471,22.095118,22.326075,22.108545
21.493067,20.72793,22.32754,22.417871,21.990381
22.905909,20.82583,23.791162,23.82168,23.578516
22.639307,20.796534,21.960108,22.543604,22.959864
21.113428,20.931543,21.592188,21.38589,21.892725
19.633448,20.148584,21.248926,20.903467,20.32583
17.896631,19.634424,20.517725,20.412256,18.918116
18.575586,21.246729,20.088526,19.690332,22.455225
19.591455,20.703028,22.731592,21.96499,21.829248
23.689844,21.054834,22.899805,23.423975,22.308985
20.975733,20.336084,21.485987,21.61294,22.154932
19.866602,20.86294,21.740381,21.999659,22.783838
21.272364,20.016016,21.448633,21.508448,21.277246
24.990137,20.155664,23.121485,23.985498,21.693995
20.986963,20.262842,24.406641,23.672266,21.778955
24.088526,22.256495,23.753809,23.644678,22.904932
24.64541,21.501368,24.845606,24.220362,21.353907
25.558008,21.317041,24.798243,24.015528,21.92666
27.37588,21.574121,27.352442,27.642725,24.570215
26.90957,21.400537,26.797266,27.92422,24.468653
25.875147,21.846338,26.86587,26.18838,25.315332
26.596582,22.768457,23.088526,23.592432,24.660303
29.788233,22.63711,25.134424,25.607325,24.874903
24.117334,22.380274,24.675928,23.88003,21.596338
25.493067,21.602198,25.64248,25.583887,21.538233
27.366358,23.130518,28.578516,28.490625,25.201807
28.472559,24.019922,29.521875,29.61709,28.745508
31.649805,23.928858,30.218653,30.837305,26.616602
27.744287,23.623926,27.7875,27.326807,22.97793
29.080957,25.049463,29.585596,30.276026,28.703028
28.724512,25.1979,30.808252,32.527,29.24209
34.441063,29.21499,29.92422,33.187157,32.302635
29.115137,28.57998,36.411278,37.14614,27.861963
29.455957,23.908594,27.821436,28.721094,26.923975
30.30874,24.77334,30.872705,31.863428,27.537745
30.116602,24.053614,29.910303,28.803125,27.50625
27.810938,23.976221,26.228662,28.275537,24.166895
24.956446,23.457666,29.586329,31.45547,25.879541
23.692286,23.16128,26.355616,27.491602,25.196924
21.924952,21.975489,23.15249,21.85879,21.537745
23.420313,21.937647,26.292383,26.131495,22.079248
25.017237,24.10415,26.463526,26.306543,24.396143
26.576807,22.786036,28.98086,28.331202,24.315088
22.91836,22.697168,25.375391,25.176905,22.795313
22.839258,21.870264,25.062647,24.253809,22.173487
24.807764,23.276758,28.817774,28.615381,25.251856
23.342188,22.9313,25.932764,25.54922,24.131006
26.945948,24.402002,29.70962,28.962793,24.477442
28.054346,25.240137,30.473291,30.485498,25.785303
26.98672,24.99624,28.51626,30.012354,27.913477
26.920069,24.269922,27.951807,26.068262,27.296045
28.591944,23.796778,25.21377,24.662012,25.158838
23.536036,23.192286,23.90957,23.578272,25.646875
22.713526,22.002344,22.02212,21.949366,23.654932
19.631983,22.531641,20.348536,20.127344,22.59707
19.565332,22.030909,20.515772,19.865625,22.05581
21.281153,21.44253,21.917383,21.30752,22.232325
23.523584,22.590479,24.314844,23.593897,22.268702
22.766748,23.50332,24.248682,24.434717,25.361475
23.107569,23.20498,23.766748,24.069239,23.1188
24.474512,24.253809,26.40249,25.882227,24.773584
24.759668,24.812891,26.914942,26.622217,25.447657
23.759424,23.895655,25.196436,25.609522,24.593897
24.2604,23.09707,25.825586,26.206202,26.465967
21.615625,22.36001,22.466944,22.312647,21.552393
20.832178,22.764795,22.82339,22.039698,22.820215
23.323145,22.813623,24.193262,24.003565,24.905176
24.016016,22.686426,22.226954,21.555567,23.364649
22.575342,22.4125,20.402979,19.726465,23.300928
24.21084,22.3688,21.91714,21.17422,24.114405
19.842432,21.14956,20.152735,19.376368,20.523096
18.918116,20.497217,19.54922,19.056787,19.212305
17.292871,19.38589,18.17666,17.91128,18.491114
19.350245,21.840479,21.771875,21.583399,23.14297
20.692041,21.189356,20.361475,21.29873,21.999903
20.482813,20.890528,19.937403,20.21499,21.8688
20.136133,20.734034,19.308008,19.252588,20.841211
20.635645,20.99917,21.981836,22.052637,21.913965
19.926416,20.057276,18.970118,19.101465,20.56338
18.651758,19.110987,17.405664,17.17666,18.356836
16.021387,19.389307,18.386133,17.502588,19.278223
18.114405,19.974268,19.56338,18.640772,19.826075
19.902002,20.560205,20.133936,19.556543,20.771631
19.810938,19.639307,19.295801,19.574366,20.453516
19.20669,19.625147,18.906641,19.213526,19.060694
19.274073,19.673487,19.065577,18.687647,18.768946
21.209864,19.609522,20.996485,21.023584,20.938135
21.760157,21.2521,21.943506,21.414454,22.05044
20.413721,21.16665,21.287745,20.996973,22.02749
17.519922,18.899073,17.623438,17.499414,18.483545
17.555079,19.504053,19.906641,19.603418,19.616602
18.771631,20.113184,19.969385,19.716211,19.72671
19.201319,19.998682,20.19082,20.297998,20.451319
18.57339,18.936426,19.510645,19.780176,20.129786
18.259668,19.404932,18.929346,18.828516,20.360498
17.491114,19.157373,17.049463,17.001123,18.103418
16.985743,19.24502,17.133204,17.23379,18.951807
17.734278,19.147852,18.341211,18.123438,20.785059
19.262842,18.445948,18.162012,18.721827,18.880274
14.345606,18.694971,16.162989,15.929346,17.5646
13.143213,16.886621,14.001612,13.839258,15.409082
12.268457,16.59878,13.187403,13.579248,15.277979
15.979395,18.645166,12.905176,13.187403,18.237207
17.73208,19.237452,18.128565,18.043848,19.68374
15.085596,18.393213,16.499903,16.483057,17.686182
16.257715,17.964502,17.490625,16.903711,17.97793
18.608301,19.142725,18.049707,18.790918,18.77456
16.317774,19.081934,18.48916,18.39004,18.959864
16.393702,18.478418,16.9396,15.416651,16.863428
15.778955,17.91128,16.674952,16.304102,17.648584
16.002832,18.743067,16.380762,16.311426,17.843653
13.1349125,16.359522,13.405664,13.43252,15.090967
11.828516,16.107813,12.376368,12.305811,15.76919
12.81753,15.840235,14.063135,13.809717,15.651026
12.960108,16.436426,13.030176,12.67544,15.142237
14.204493,17.150782,14.686914,14.18667,16.68667
12.451075,16.758936,14.944239,14.845606,16.130274
13.49795,16.11416,14.454737,14.229395,15.340479
14.723291,16.803858,15.039698,15.139795,15.858789
14.029688,16.240625,15.169092,15.168116,15.661036
12.402735,16.394678,13.516748,13.323145,16.182032
13.044092,17.833399,13.498194,13.255274,16.686182
15.641504,17.711817,14.653955,15.216455,17.449121
12.548487,16.432276,14.070215,13.704493,15.403223
12.087305,16.177149,13.262842,12.965723,14.849512
13.00503,16.853662,13.370508,13.232813,15.051661
13.40835,16.7521,14.295557,13.948145,15.045069
11.641504,15.905909,13.659571,13.5099125,14.653223
11.698877,15.140039,14.063868,13.428858,14.022364
11.357813,15.19668,12.126856,11.733301,13.488916
11.037012,16.442041,11.660059,11.216211,15.289209
14.921534,17.158106,15.275049,14.469629,16.595118
15.016993,16.864893,15.262842,14.469629,15.672022
11.615625,15.54458,11.827539,11.972559,14.13418
10.438868,15.233301,11.529444,11.024073,13.755274
10.685205,14.744776,11.505274,10.990381,12.384668
9.342432,14.429346,9.260645,9.04043,13.234766
9.821192,14.528223,9.782129,9.270899,12.474756
13.739893,16.372705,10.071192,9.972071,15.522608
13.712793,15.521143,10.808741,10.537012,13.65127
9.236231,14.167139,9.130762,8.756983,11.660547
10.319727,14.341455,10.767237,10.774073,12.451563
10.360498,14.579248,11.003321,10.585352,12.782373
8.110987,14.685938,10.531397,9.474512,12.751612
12.12295,15.68667,12.927149,12.464991,14.964502
12.0411625,15.516016,12.687159,11.803858,14.061182
8.036524,13.439844,8.929102,8.953028,11.548975
10.808252,14.646387,8.854395,8.662012,13.537989
