"[299, 255]","[227, 248]","[287, 319]","[279, 328]","[230, 262]"
7.1600585,13.303125,7.4190917,7.6549315,12.261621
11.243555,14.653223,12.671289,12.157862,13.584375
11.109034,14.784082,12.6505375,12.942041,13.995508
10.786524,14.719629,12.637354,12.7721195,13.5411625
9.283106,12.779932,7.7420897,6.9986815,11.205713
6.006738,12.436426,6.945947,6.900293,10.506739
12.223536,15.504786,13.0880375,12.539209,14.428614
10.204004,12.969385,8.849268,8.547998,10.620508
6.5956054,12.569483,7.549707,7.4120116,9.602198
7.791406,14.333887,10.955957,11.043116,13.343897
11.024561,14.753809,12.538233,12.615137,13.868799
10.983057,12.959375,9.609034,8.809473,10.281153
8.078028,13.618799,10.487207,10.748926,12.767725
8.344873,13.672022,10.195215,10.230616,12.821924
5.9447265,12.354883,8.21084,8.303858,10.091944
10.714991,13.913477,11.136377,11.074121,12.517969
7.278955,11.181055,7.202783,6.5509276,8.319239
4.831445,10.197657,5.601709,5.5423827,7.433252
5.8722167,11.37417,7.627588,7.6756835,9.319483
11.209375,13.7286625,11.819239,11.569971,12.962793
11.213526,13.648584,11.815821,11.395655,12.682764
10.109034,13.307032,12.132959,12.257227,12.907862
11.7113285,13.329004,12.404932,12.238184,12.869043
5.0702147,9.55752,4.657861,4.9415526,7.206445
3.8089843,10.662989,5.259668,5.761377,8.221582
6.1063476,11.344385,6.577783,6.634668,9.72378
4.3731933,10.027735,6.0995116,6.042871,7.8680663
5.2813964,9.543116,6.191797,6.206201,7.805322
5.925195,9.919336,3.2584472,3.2799315,8.566553
4.5418944,10.589746,7.348535,7.193506,9.18667
6.247461,11.079248,7.905664,7.5108886,9.607813
6.129785,11.064844,7.806543,7.6319823,9.631006
5.7958007,10.420069,6.600244,6.3753905,8.801661
4.37832,9.516016,5.471826,5.278711,7.8336425
9.06875,11.929346,10.156153,9.931055,11.08877
10.620508,12.107813,11.151026,10.958399,11.7408695
11.17959,12.34878,11.038965,11.929346,12.194239
11.751856,12.891993,11.774073,12.229395,12.503077
11.758448,12.790918,6.593408,5.78042,12.219873
5.7796874,9.976465,6.777002,6.350488,8.591211
8.030664,12.080469,8.320459,7.6424804,11.097559
9.3658695,11.248682,8.762598,7.9254394,9.605371
11.480127,12.200342,12.078516,11.941797,12.528223
11.9613285,12.797022,11.806299,11.686914,12.328272
7.204004,10.403711,7.134668,7.256006,8.916895
4.081445,9.043116,5.2152343,5.3702636,7.643945
3.492578,10.552149,3.9256835,3.4979491,8.317041
6.5401855,10.951319,6.834131,6.2950683,9.575586
4.3614745,9.425684,4.9515624,5.093164,7.426416
5.687158,10.215723,5.1341796,4.823877,9.065577
7.7396483,11.355616,5.506006,5.3177733,10.90835
10.571436,12.115137,11.435205,11.108301,11.659082
11.054102,11.918848,11.400782,11.511866,11.817041
5.5299315,9.156641,7.143457,7.068506,8.248438
5.214502,8.441065,6.0179687,5.8441405,7.62124
5.139795,9.755762,6.3565917,6.502588,8.905664
7.395654,10.373926,7.5455565,6.8941894,9.574366
5.829004,8.407862,6.2311034,4.961084,7.372705
5.8216796,9.142237,5.7906737,5.682031,7.978662
6.095117,8.619532,5.938623,5.492334,7.6322265
5.9588866,8.489649,6.820703,6.0606933,7.610254
4.4532714,8.000147,6.287256,5.5208983,6.9842772
6.7811522,10.232325,7.2030272,7.1371093,8.762842
7.633447,10.140039,6.8558593,6.9398437,8.859034
8.814112,11.009668,8.257227,7.7555175,10.580225
11.881739,12.401026,11.343409,11.486475,12.250635
5.5140624,9.497705,7.310205,6.8773437,8.560694
4.7398925,9.035303,6.2159667,6.0143065,7.9339843
5.40957,8.441797,5.9503417,5.0541015,7.1236815
3.8548827,6.8333983,4.7135253,4.7794433,6.4710937
2.8731933,6.127832,3.377832,3.8585448,5.1949706
0.3524414,4.716455,2.5631347,2.5250487,3.6031737
6.7279296,10.67959,4.3409667,4.71499,10.399317
9.166895,10.02627,8.394922,8.663721,10.924707
7.4618163,10.444483,7.3229003,6.942041,9.575586
6.4708495,9.296778,6.935205,6.440332,7.891504
9.853907,11.655176,10.261133,10.942286,11.329737
10.47793,11.636621,11.101709,11.182764,11.358057
10.174463,11.049219,9.747461,8.98208,9.645166
11.854151,11.821924,11.237452,11.506739,11.971094
12.214014,11.413233,11.195948,11.385889,11.50503
13.437891,11.324366,11.753809,10.664698,11.051905
6.0594726,10.106592,6.216211,6.5370116,8.729883
8.3771,10.845118,8.846338,8.6471195,10.610254
5.709619,8.950098,6.4410644,6.332666,7.8993163
4.091699,8.222559,6.333154,6.0645995,7.006006
4.751611,8.424463,6.084619,5.421533,7.3368163
5.3958983,7.69375,6.948877,6.8409667,7.5404296
6.3844237,9.618555,6.8233886,6.559961,9.42251
6.985498,9.458399,7.7188964,7.629785,9.129053
8.945948,10.285547,10.151758,9.937403,10.19961
9.79458,11.563868,11.744043,11.5064945,12.829981
10.841211,11.538965,13.322168,13.001368,13.057032
12.129053,12.208155,12.433985,12.440821,12.542871
11.702051,11.571924,11.837305,11.393946,11.432276
8.41128,9.196436,8.289942,8.429346,8.474268
7.8475585,9.244532,8.395166,8.230616,9.031885
6.0870605,9.980371,7.0628905,7.4376464,9.813868
8.54043,8.106592,8.628321,8.524317,8.382227
8.748682,9.438379,9.201563,8.725,9.4005375
6.2125487,9.297754,9.326075,9.171045,9.579248
8.241846,8.704004,8.496973,8.424463,9.047754
9.553858,10.25625,10.768213,10.263819,11.956446
11.3346195,10.28628,13.080957,12.462061,12.531885
9.609766,10.114649,11.127832,11.791651,10.707911
8.516016,9.535547,9.45669,9.540674,8.840479
9.409815,11.015772,10.563135,11.074854,9.792139
8.1036625,9.4769535,9.922022,9.899805,10.517481
7.0191894,8.438623,8.285791,9.174707,8.755274
8.5707035,9.079981,9.566797,9.740137,9.648096
10.428125,9.926905,8.389307,9.137598,10.449366
8.916651,9.76626,9.39834,9.440821,9.9630375
12.35586,13.4786625,12.033594,11.9005375,13.941309
15.941797,15.307276,15.877832,15.567286,18.843897
13.076807,14.629053,12.66958,13.093409,15.066553
10.241114,11.573145,11.291651,11.213282,12.07876
10.090235,9.991358,9.562403,10.06875,10.251612
8.599512,11.004541,9.005518,8.225733,10.074366
9.548487,11.127832,9.831446,9.130762,10.724756
7.471338,9.6542,8.081934,8.115381,9.762842
8.361963,9.500147,9.952539,10.035059,10.111719
8.028955,8.786768,8.816309,8.432032,8.863916
8.479395,9.857325,8.361475,8.964991,9.965479
6.5367675,9.92544,9.176416,8.658838,10.00918
7.7452636,10.27334,10.017237,9.993799,10.693262
8.800684,11.192774,10.8224125,10.6158695,12.639307
9.279932,10.5724125,10.920801,10.881739,11.249414
8.19253,10.674463,9.228907,9.835108,10.143213
7.893213,9.2521,8.355371,8.709864,9.796534
8.165918,9.940821,9.896387,9.312403,9.973536
7.772119,9.614649,9.575586,9.714502,9.017969
8.47793,9.640039,10.205957,9.978418,10.9144535
8.773584,9.72793,10.596827,10.940821,10.269434
9.667627,10.140284,10.325586,10.514795,9.218409
7.0282226,10.181543,9.772364,10.333399,9.123194
9.039942,8.869532,9.065821,9.11294,9.778711
7.282129,8.627588,8.719873,9.122217,8.722315
9.06167,10.1175785,9.325342,9.493311,10.275049
8.187403,10.211573,9.174707,9.411036,9.700586
10.067286,11.461084,9.998926,10.440577,11.929102
15.040918,14.048487,15.421045,15.7911625,15.0724125
13.172022,12.869776,14.7521,15.377832,13.377832
14.431299,13.360987,14.952295,16.51919,13.283106
16.12295,14.536036,16.561426,16.850733,15.399561
18.059473,15.187891,17.282618,18.723536,16.129786
18.496973,12.640528,17.271387,16.100245,12.757959
11.208643,11.944483,11.476221,9.970118,11.594629
8.614405,10.829737,9.929102,9.957666,10.714991
10.3971195,10.7564945,9.198633,9.564844,10.721094
13.110987,10.926416,14.0021,13.523096,10.736231
15.672022,11.389795,13.01211,13.891016,13.486719
12.029444,11.674952,13.565332,13.174463,11.670557
12.4596195,11.466455,13.397852,13.0082035,12.264551
14.024561,11.965479,13.844141,13.562159,13.989405
13.233057,11.985254,13.377344,13.1939945,13.699121
16.540674,12.642969,13.383936,13.761866,14.857813
22.353174,15.058008,19.706202,19.874659,18.98086
13.082911,11.431299,12.559473,12.767725,13.609034
10.530664,12.114649,10.872705,11.176416,12.493067
10.638086,10.601465,10.980616,10.807764,12.577784
9.249414,10.893213,12.20083,11.958887,12.554834
11.189112,11.082666,12.614405,12.599024,11.593897
12.016993,11.233301,13.073389,12.934961,12.911768
13.308985,11.738428,13.232813,13.0064945,12.475733
15.8519535,13.366602,18.068506,18.0375,15.925684
14.876612,15.943018,17.403223,17.879053,17.515528
16.096338,15.208887,17.309229,18.001856,15.987452
17.6979,15.2167,14.956202,15.281885,16.43545
15.58169,13.339014,15.991846,17.12417,17.743067
16.098291,16.081934,14.765284,14.619532,17.11294
15.556299,15.814356,17.370996,18.438135,17.059961
18.746729,17.630518,19.840967,21.376123,18.939112
17.432032,17.173243,18.26211,18.133692,17.912745
14.947657,15.076075,15.296289,15.042383,14.706446
16.162256,15.221827,15.207422,15.518946,15.222803
14.775293,14.835596,15.543848,15.563135,14.927637
16.177149,14.659327,15.939356,15.855127,15.310694
15.078028,15.25503,15.339502,15.161524,15.296289
16.23208,14.958643,17.482569,17.568018,16.28921
18.962305,15.899317,19.806543,19.48208,15.601709
21.247217,14.747705,21.191797,21.676905,18.24331
20.12588,16.772364,18.757715,18.738428,16.372217
20.024073,17.477442,22.015528,22.149073,17.888575
18.040918,19.22915,18.655664,20.542871,19.747461
17.525782,17.968164,17.84463,18.499659,18.353907
17.318995,16.721338,17.978662,17.905664,20.453516
18.031641,17.461573,18.022364,18.946924,17.777979
20.556787,18.49502,21.804102,22.127588,19.344873
21.734278,17.5729,20.97207,23.053614,20.251612
21.564112,19.668848,21.672754,23.52041,20.1271
21.435938,20.731348,19.81875,23.14419,21.251612
20.39834,19.221338,19.724512,20.95547,20.782373
21.60415,18.968164,22.319727,23.112207,22.26333
20.696924,19.103907,20.156397,19.814356,21.640284
23.852442,19.649805,20.56338,20.42251,23.196436
22.333887,21.386621,21.999659,22.914454,22.900293
23.814356,21.330713,24.386377,24.929346,22.688623
25.835596,21.26748,25.216211,26.089746,24.809717
22.77456,21.433985,22.161036,22.512842,21.531153
26.983301,21.645166,25.32583,26.097315,27.073145
29.245264,22.19082,27.23379,26.809717,25.846338
30.983057,22.500147,25.847315,26.801905,25.769922
24.665918,21.852442,23.919336,23.665186,24.211084
32.4374,22.09585,27.384668,28.567774,27.876123
38.27578,30.143946,34.039696,35.420067,39.273094
29.603418,22.0646,25.47085,27.571192,25.369776
18.149073,18.848291,18.455957,18.5646,19.697168
20.051905,19.339258,20.277979,20.405664,18.756983
25.281885,19.67959,22.450586,23.387354,22.97085
24.715967,19.373438,20.231592,20.149073,20.937159
19.191797,19.346094,18.885157,20.268702,20.619532
18.067041,19.015528,19.582422,19.58462,20.336084
22.230371,18.924707,21.344141,21.717676,21.570704
20.643213,19.078028,20.745508,20.694483,21.20083
23.44668,19.33999,20.89712,21.57339,21.350733
24.060938,19.29922,23.111475,23.209864,22.992579
25.36831,19.757715,23.63711,25.208155,23.306055
26.899317,21.135157,25.788233,26.263819,26.190577
29.694483,21.105127,23.82583,23.786524,25.03457
22.349756,20.591455,21.50503,21.361963,23.030176
26.43374,20.541407,20.4667,21.146387,21.427393
23.639307,20.369532,21.219141,20.433008,20.266016
22.936914,21.409082,21.61123,21.521143,23.019678
26.773096,20.66543,23.03921,23.301172,23.604883
22.019434,19.774805,22.331202,22.398096,20.480371
24.887598,20.88589,23.754297,23.90005,20.809717
27.097559,22.4396,26.531641,25.399073,24.018457
30.406641,23.575586,27.823877,27.49502,24.356104
30.535791,23.420801,28.523829,28.148829,23.950098
27.222803,22.478907,25.33047,24.908594,25.201075
22.128809,21.89297,21.80044,20.871729,24.350489
26.202784,21.799707,25.110498,25.007227,24.79922
24.758692,21.531397,22.006739,21.64297,23.500147
21.974756,20.666895,21.767237,21.465967,20.841944
24.3417,19.841211,22.192286,23.740625,20.50503
21.436426,20.836329,21.456446,21.12295,22.339502
26.583155,20.64126,22.690577,22.417383,23.996485
29.623438,22.093897,25.024317,26.33755,26.128565
30.242579,22.00918,25.842676,26.025782,26.007471
28.701807,22.534327,26.035791,25.946436,23.026026
29.379541,21.505762,26.606592,27.428614,24.586329
24.185938,21.977198,24.951807,25.239649,21.945704
27.858057,22.493067,26.93252,26.62002,24.634912
28.939112,25.234034,28.306055,28.874903,26.916895
31.110743,23.967188,30.261621,31.142237,29.86587
31.333155,22.900782,26.667383,28.466211,25.866114
29.359522,22.937159,25.94082,26.13296,26.252588
28.990625,23.8229,25.880762,27.019922,22.826807
28.330225,22.756739,25.437159,25.749903,23.46792
28.988428,22.967432,27.413965,27.158106,25.4313
32.29702,25.432276,29.026514,29.653467,28.31582
33.526756,24.95498,31.86587,32.519432,28.67837
25.878077,23.37124,27.6896,28.147608,24.859522
26.659082,22.950098,23.920801,24.560694,24.219385
26.391016,22.991114,25.7875,26.28628,26.012598
27.817286,23.862207,28.618067,28.431543,24.9042
28.819239,23.68081,26.023829,26.803858,23.96792
25.035059,22.169092,25.692286,25.038477,23.824854
24.430079,22.915918,23.261133,23.516993,21.421778
25.17837,22.83047,24.39541,24.674707,21.879297
26.758448,23.165186,26.04043,25.692774,24.20498
27.028467,23.543116,25.603907,25.840723,24.906641
27.506495,23.526758,25.167871,26.00625,23.367334
25.955957,23.008936,26.14834,26.51089,23.380274
27.26333,23.185938,27.152735,27.021631,24.972315
29.991358,22.932764,27.0646,27.307764,27.115625
23.72085,22.704248,23.508692,21.685694,21.930567
21.599512,20.485743,21.770655,21.301905,20.443995
20.662256,19.76919,21.063868,20.690088,20.372705
21.134668,21.52334,21.40835,21.644434,21.143702
19.569239,21.444239,21.2521,21.048975,22.74209
20.053614,20.780176,18.402735,19.054102,20.871485
17.870264,19.571924,19.594141,19.482569,20.00625
16.3229,17.706934,16.943995,16.726954,17.827784
15.6349125,18.9125,17.529932,17.06753,18.502588
17.908594,18.842676,17.55752,17.71499,19.23794
20.963037,19.336573,20.407618,20.189844,19.828272
19.83706,19.893702,20.71255,19.349512,20.037256
19.611963,19.202051,19.699121,19.17837,19.77041
20.016016,19.511377,19.095362,18.772364,19.700586
18.683252,18.433985,20.535059,20.374414,18.972315
18.385157,17.83999,18.933008,18.917627,18.154688
19.49087,18.867823,21.262842,20.042627,19.559717
20.881983,18.522852,22.97793,22.278467,20.6271
22.847315,20.790674,24.367823,24.657862,23.67422
21.589014,20.534082,22.17837,22.627344,22.801416
21.450342,20.635645,22.139063,23.12832,22.881495
20.590479,19.891748,23.64541,23.938868,21.953516
19.919336,19.703516,20.301172,19.703028,19.748926
18.829493,19.647364,18.220606,18.088282,20.392725
21.339014,19.959131,20.233057,20.37002,21.043604
23.206446,20.652735,21.511621,21.665674,21.28042
24.145899,22.282373,23.962793,24.103907,23.267237
24.293848,22.558496,24.630762,25.157862,22.779444
23.041407,21.428125,22.255274,23.650782,21.251123
21.471338,22.19546,20.169825,21.612207,21.619776
24.123194,23.48672,21.865625,23.734766,25.346582
24.049952,22.669092,26.758204,27.237696,24.563868
20.215967,21.626612,20.76333,22.178858,20.382715
19.195948,19.34292,19.927637,20.23672,19.415674
19.162989,19.995508,19.131495,19.591455,20.080957
21.805079,22.382715,21.829737,21.835352,24.098291
21.5021,20.757715,22.128809,21.264795,22.154932
22.998926,20.064356,21.444239,21.877832,20.83999
21.84585,20.286524,20.691797,20.441309,21.223536
22.08291,20.133448,20.2792,20.717676,21.030909
25.706934,21.216944,25.14126,24.777735,23.840723
22.741602,20.905909,21.940577,21.432764,21.740137
22.448145,20.352198,20.363184,19.677393,21.251123
21.339746,20.311426,19.155664,18.994287,20.886866
20.930567,20.601465,20.921534,20.642237,21.170801
16.851465,19.203516,17.717676,17.125147,18.490381
19.049707,18.526758,18.123194,18.457178,18.456934
16.108301,18.194239,16.108057,15.926172,16.908106
19.043848,19.27505,18.336817,18.39248,19.22085
16.90005,19.184717,17.632471,17.641993,18.481836
13.547998,17.016016,13.748438,14.135889,15.2442875
16.124903,17.826807,15.633936,15.757715,17.53628
15.389551,18.109522,15.674219,15.16836,17.216455
17.264063,18.511133,16.893946,16.923975,18.693018
17.595118,18.426905,16.608057,16.627588,17.55337
13.921534,15.629541,13.688135,13.422754,14.6192875
10.488184,15.315577,10.759424,10.520166,13.55752
11.31753,13.892481,12.25625,11.817774,13.082666
12.244532,14.444239,12.350489,12.701075,13.817041
11.639307,14.527246,13.092188,13.042139,13.9925785
10.995264,14.328516,14.735254,14.708887,13.5099125
12.689356,17.149073,13.633448,13.623926,15.89834
14.3033695,17.004297,15.163965,14.556543,15.884424
13.738428,15.829493,14.181299,13.720606,15.210596
12.774561,15.387598,13.909327,13.636377,14.741358
13.048243,16.108545,15.517237,15.19961,15.4317875
13.870264,15.819727,15.246241,14.774805,15.251856
13.8363285,15.896143,14.945948,14.511377,14.809473
14.077051,15.611719,15.119043,14.186426,14.596094
12.369532,15.409815,12.988916,12.595362,13.857813
12.355127,16.520899,13.333155,13.089014,14.343653
12.011621,15.316797,11.958643,11.082178,13.349024
9.18545,13.722071,9.491602,9.518946,11.598536
8.009668,13.071192,9.859766,9.725,11.507471
10.144678,14.992334,10.741358,11.453516,13.196192
11.801416,15.600977,13.385889,13.631006,14.374414
14.031885,15.912256,14.410547,14.550196,15.520899
13.795801,15.86001,14.410303,14.666651,15.118555
13.284815,15.744776,11.81753,11.797022,14.673487
10.434961,14.564844,11.760401,11.653955,13.044092
11.859766,15.260889,12.953516,12.748682,13.991846
10.781641,13.942774,9.524317,9.548487,12.796045
6.5606933,12.504053,8.248682,8.209864,11.104883
9.104883,14.550196,12.5689945,12.433985,13.310205
9.55752,14.527491,12.153223,12.023096,12.683741
9.458643,13.796534,10.373438,10.3519535,12.377588
8.514551,14.632471,10.644678,10.142237,13.264551
13.957911,15.511621,14.859522,14.916651,15.563135
14.251856,15.924219,15.116358,15.304346,15.656885
10.071192,14.14834,10.780176,10.592188,12.642481
9.0411625,13.111963,10.584375,10.329981,11.870996
8.745752,12.724512,9.774805,10.005274,11.09878
7.582422,13.728907,9.842676,10.154444,12.788965
7.9154296,13.887598,9.982813,10.464014,12.567286
