"[299, 255]","[227, 248]","[287, 319]","[279, 328]","[230, 262]"
10.95083,14.614893,10.998682,10.2582035,11.629053
9.094629,15.348536,10.448389,10.605616,14.399805
13.572168,15.998682,13.854639,13.708643,15.204248
13.155909,15.48086,12.403955,11.749903,14.084131
12.109034,14.525049,10.698145,9.8380375,12.308252
7.0455565,13.067041,8.042871,8.053858,10.337061
11.555323,15.142969,12.686426,12.473047,14.25625
10.06875,13.22793,9.933008,9.520411,10.895166
6.059961,11.9769535,5.90542,5.6668944,10.156885
5.626367,13.970362,8.241358,7.425195,12.668604
8.543848,14.15835,10.090723,9.746729,13.01626
5.039697,11.95376,5.964746,5.551172,8.709131
4.876123,11.632715,5.784082,5.393945,9.037256
4.176416,11.8417,3.830957,5.6358886,9.1271
11.741602,14.730371,13.224268,13.333155,14.126368
12.7875,15.143702,13.403223,13.397608,14.463526
7.056543,12.2738285,8.013086,7.737207,10.951563
9.717676,13.96377,7.8375487,7.5318847,12.750391
10.614405,14.124414,12.277979,12.082422,13.333643
7.763574,13.170557,9.141993,8.933496,11.492823
9.870264,13.90835,11.052881,10.202539,12.98208
10.579981,14.425196,11.672022,11.385401,13.343897
10.617334,14.311182,11.933496,11.584375,13.627832
9.062403,12.38833,9.248438,8.953028,9.588526
9.084131,14.597315,9.366846,9.320215,13.195948
12.954737,15.034815,13.769922,13.549219,14.766016
13.816797,15.390528,14.613672,14.255518,14.863916
4.8236327,9.911524,6.289209,6.1285644,7.721582
11.731592,13.904444,12.63418,12.781641,13.29458
11.727442,14.009424,12.577539,12.635889,13.148584
5.4764647,10.527979,6.7398925,6.519922,8.282373
8.954248,12.829248,10.804346,11.095362,11.748194
11.762354,13.074854,12.858057,12.776758,13.2521
10.998438,13.338526,12.182276,11.906397,13.03628
10.934473,13.161036,10.010889,9.087549,12.569727
5.75332,10.544825,4.9381347,4.8666015,9.516016
7.449121,11.531641,3.0890136,3.1615233,9.750391
8.567041,12.750147,10.614893,10.471094,12.059229
9.136133,12.659815,10.842676,10.742823,11.956934
6.640283,10.9125,7.5365233,7.247461,8.848047
6.7435546,10.726709,5.980615,5.7052245,8.864161
5.0545897,10.077051,5.8473144,5.665918,8.599756
4.6947265,9.881006,3.4588866,3.7381835,8.536036
10.954981,12.428125,11.870752,11.790918,12.21084
11.007959,12.521387,11.843409,11.756739,12.054102
6.2108397,9.855127,7.235742,7.3160644,8.531153
5.3841796,10.727442,6.7762694,7.013086,8.683741
9.854395,12.134424,11.621241,11.072168,12.11001
9.873194,11.859522,11.655176,11.047266,11.843409
7.5541015,11.189112,8.462061,8.372217,9.7521
7.171533,10.1783695,9.4630375,9.51626,9.882959
7.792871,11.3417,8.074121,8.003565,10.0377445
5.1603026,8.99795,5.7801757,5.823877,7.0992675
3.7020507,7.521875,4.574365,4.7066894,6.4537597
4.567285,7.9608397,7.096826,5.0973144,6.412988
4.8734374,9.299952,5.7123046,5.6183105,7.05166
5.1625,10.877588,6.1429687,6.088281,9.357325
7.046289,11.370264,7.720361,7.5091796,11.047266
11.149561,13.363916,11.971094,11.519922,13.270166
8.146875,11.230616,7.9833007,7.2708983,10.126123
7.2811522,10.19961,8.204004,7.8905272,8.608057
11.052393,12.929102,11.414942,11.159815,12.63833
9.462793,11.812891,9.543604,9.503077,11.062403
9.98086,12.3971195,10.94253,10.4144535,12.187647
13.022364,13.757959,14.259424,13.678858,13.601221
11.457422,12.400293,11.579981,11.0377445,11.964014
8.5646,10.811182,9.121973,8.652002,9.872705
6.0748534,10.091944,7.100488,6.4781737,8.089746
8.962793,12.159082,10.114893,9.906641,11.427393
10.321924,11.669825,9.392725,9.058496,10.174463
9.741358,10.496729,7.4691405,7.1722655,8.5238285
7.7264647,11.782373,8.342188,8.580469,10.077539
9.857569,12.070459,11.239161,10.948389,11.555323
10.246485,11.9630375,12.923243,11.841944,12.401026
11.487452,11.508692,9.344873,10.796289,11.060205
10.329248,11.655909,11.06875,10.826075,11.80459
9.919336,11.463526,10.1,10.370996,11.413965
11.667871,13.710352,13.754297,12.978907,13.548731
12.507227,13.239893,13.116114,12.771387,13.488184
9.239893,10.559717,9.338282,8.708155,9.477198
8.613916,12.248438,10.573389,10.37295,11.520655
12.054834,12.354151,11.849756,11.89419,12.8988285
11.476465,13.07876,11.999659,11.891748,12.499903
8.907129,11.300196,9.062403,9.5394535,11.189112
10.692774,11.944727,8.599756,8.07168,12.246729
10.824366,12.212793,11.148096,11.117334,11.883936
8.737696,11.133936,9.614649,9.189356,10.08584
5.714746,10.518946,6.646875,6.596826,8.863672
7.034082,10.795069,8.334131,8.42544,9.164942
9.224024,10.911524,9.411524,9.701563,10.501123
8.509668,10.870264,10.30044,10.169092,10.675928
11.013819,11.899073,10.520411,10.160303,11.671778
9.800196,12.1349125,10.6349125,10.451563,11.702295
6.8856444,8.753565,6.5106444,6.6656737,8.143702
6.539453,9.616358,7.7811522,7.5555663,8.687647
8.160303,10.731592,8.641993,9.223047,10.235987
9.714258,10.846094,10.759668,10.316309,10.741114
10.40127,11.267481,11.360987,10.905909,10.678125
12.882959,13.401758,10.743067,10.680567,12.932276
12.041895,13.095118,11.986719,12.488184,12.5863285
8.387598,10.780664,7.8548827,8.170313,9.538721
6.235254,10.253809,8.028711,7.757959,8.440088
10.234522,11.770899,10.691553,10.966944,11.684229
12.725977,11.8814945,10.540674,11.125879,11.83877
10.828028,11.202539,10.103174,10.380518,11.320215
10.698633,11.31875,11.465723,9.90542,11.395411
6.858789,10.336084,7.343408,6.7367187,8.980127
6.166162,9.548731,8.185694,7.56167,8.842188
8.600977,11.246241,9.298487,9.220606,11.39834
8.469385,11.350733,9.116846,8.895411,10.60708
6.676172,9.464746,8.319239,8.127588,9.583643
9.870752,11.672022,9.326563,9.792139,12.107569
8.368799,11.159571,8.609766,7.7940917,10.568506
7.006494,9.755762,7.560449,7.4937987,8.832178
7.428369,10.489405,9.274317,8.614893,10.287012
10.690821,11.23086,11.319971,12.078028,12.177637
9.860743,11.042139,10.875147,10.274073,11.489161
8.014795,10.051172,10.059961,9.818506,10.617823
8.271387,10.086817,9.44253,9.258448,9.933008
11.14126,10.389551,10.913721,10.045557,11.192774
13.655176,11.68667,11.15835,11.125635,13.275782
17.17959,13.899317,15.7425785,16.231348,16.815088
18.199121,13.733789,17.443018,17.498926,13.114649
11.378565,11.326075,11.056055,11.320215,10.63711
7.6168456,9.171045,8.3988285,8.3067875,8.549463
9.453028,10.879541,9.944971,9.3146,11.049219
13.985987,12.619776,13.27627,12.899561,13.844141
12.9752445,12.005762,12.302881,11.78628,12.674952
12.17959,12.969873,13.481592,13.593653,12.971094
9.411768,9.984522,9.211084,9.373194,10.600733
10.9300785,11.434229,10.278223,10.226465,11.63003
8.092432,9.988916,8.870996,9.202295,10.554834
9.678125,9.835108,10.125147,9.622705,10.336573
8.659815,9.637842,9.779444,9.798487,10.795557
8.934717,10.746241,10.958887,10.407862,10.801661
12.922022,11.69668,11.16543,11.37002,12.632227
18.211084,11.896631,15.084131,15.579737,14.889795
15.233789,11.830469,13.099756,13.167627,13.25918
15.811426,11.320948,17.072657,17.641993,14.936426
19.520899,13.829493,19.439356,19.495996,19.098047
22.296045,15.095362,19.354395,20.047998,19.584375
13.004297,13.370996,12.395899,12.017725,12.1800785
11.5292,11.727442,12.188623,12.005762,10.410303
11.158106,12.865381,10.092188,9.803125,12.477198
9.095118,11.834864,10.138575,9.907373,11.688623
9.595606,11.32876,11.038233,10.466455,11.3971195
10.136377,10.826075,12.1192875,11.5255375,11.460108
11.905176,11.689112,12.183741,12.243555,13.0550785
12.123926,12.773096,13.858301,14.654688,15.344873
12.387842,11.649073,12.280664,12.459375,13.231104
15.484522,12.254786,13.497705,13.0238285,13.636621
15.714014,11.893946,10.748682,11.454248,12.156885
14.036036,12.2425785,14.392725,13.779688,11.989161
15.480616,12.7408695,14.931299,13.513086,12.921778
12.148096,11.342188,12.806055,12.37417,12.63003
10.79336,10.873682,11.692774,10.385645,10.946436
11.1019535,10.834131,11.302637,10.69253,10.751123
12.87002,11.903711,14.511133,14.337061,11.577295
14.309473,11.993799,16.20962,16.376123,14.454004
14.875879,12.280909,12.6471195,12.145166,13.746241
12.240137,12.513575,13.091455,11.873194,13.364405
12.521631,12.2894535,13.437403,13.307764,12.593897
13.641993,12.521631,14.068506,13.954493,12.834375
18.0021,13.963282,18.132471,17.7792,17.530909
20.517725,14.746973,18.44082,19.421534,18.875391
16.771631,14.428614,15.364893,15.256983,15.632715
13.954737,13.929834,9.932276,9.991846,13.936426
15.037989,15.734766,10.767725,9.982813,16.603662
12.752344,13.424707,13.406397,13.73501,12.8658695
17.215723,15.276514,17.699366,17.877832,16.237696
20.123682,19.001123,21.33462,21.485254,19.506006
21.999903,20.551172,21.232569,21.829004,22.491114
19.283106,17.494532,18.536036,17.735987,18.363184
15.209864,15.269434,16.391993,14.9457035,14.616602
16.637598,14.79043,16.386621,15.398584,15.576319
18.95669,15.769678,19.206202,19.175196,18.537012
21.755762,17.81338,21.89297,21.733057,20.743555
25.593897,18.87002,24.16543,24.484034,24.026514
26.98501,19.874659,24.9479,23.860987,20.213037
23.616114,23.019434,20.174952,22.191309,28.561426
29.162012,25.51748,27.495996,27.497217,32.29702
32.363182,26.018702,31.409082,32.20449,34.77529
33.731834,20.558008,31.712793,32.71743,30.847559
23.147852,19.95791,22.055079,22.60879,21.111475
21.999903,17.301416,22.038477,21.460108,18.181055
19.537256,16.346582,21.133204,21.257227,17.00088
16.805079,15.854883,20.485987,19.883448,16.20962
14.748438,14.118067,14.758692,14.953272,13.784571
14.20083,13.514063,14.694727,14.9042,13.555811
13.783106,13.57583,15.845362,16.140284,13.091211
15.747461,14.432764,15.963526,16.445948,15.094141
13.938379,14.575586,15.672022,15.734034,15.74917
17.0292,15.487452,15.892725,16.412745,17.322412
15.837305,14.992334,17.442041,17.204493,16.935205
14.755274,14.837061,15.720606,15.451807,15.768213
15.885157,15.074366,15.269678,15.264063,16.70547
15.410303,15.115625,15.652002,15.038965,16.805323
16.818995,15.234034,17.079493,16.088526,17.164942
15.656397,15.37417,16.090967,15.582178,16.498926
16.591944,15.715479,17.746973,17.531397,17.262354
17.70547,16.241846,20.231348,19.992823,16.388819
19.727198,17.057276,20.648584,19.754541,18.215235
19.47793,15.94668,21.4667,20.958643,16.741602
18.985498,17.768213,19.454248,19.372705,17.952295
21.238428,17.810694,19.85708,20.67837,20.332666
22.579248,17.112696,21.723536,22.386377,18.733301
22.841944,21.605127,23.196924,23.806055,22.590479
21.766993,22.989893,19.550196,20.187647,21.54043
18.283106,18.885157,17.262354,16.753077,18.819239
19.236963,16.958887,17.954737,17.680567,17.661036
17.432764,17.328272,20.949121,20.927881,18.28457
20.972315,19.06167,21.30874,20.271387,21.221094
17.792627,18.7792,17.39541,17.278223,18.728174
17.375391,17.756495,19.005518,18.860498,17.64956
20.040918,18.954248,21.03042,21.059717,22.26089
23.00503,19.76504,24.119043,23.062647,23.777979
24.66958,19.98501,25.027246,26.90127,24.236475
28.409327,20.489893,28.193018,25.933008,25.923975
33.362694,23.678125,29.725733,29.316065,28.259668
34.810936,23.373682,33.358055,33.223534,25.432764
20.398829,20.80166,23.174707,22.858057,20.891016
22.148829,19.763086,20.573877,20.144434,19.775782
23.985987,20.333399,20.52456,21.51919,19.517725
23.974024,22.762598,22.763575,23.695948,22.729395
23.144678,22.717676,22.54873,23.944483,23.039454
24.292871,23.2792,23.962793,24.785059,24.001856
22.692041,22.375635,22.84463,23.553125,21.861475
23.724024,22.261621,21.795557,22.131006,22.04922
23.389795,21.423975,25.163233,24.913233,22.534815
24.96792,20.103418,26.250391,25.640284,23.25332
24.47793,21.522364,24.78335,24.79043,24.679346
23.26211,21.062891,23.092432,22.666895,22.232569
23.886621,21.02505,23.431787,23.613916,20.578028
26.008448,20.55581,28.18081,28.444727,21.719141
24.850489,21.732569,26.01748,25.927149,21.652735
27.107325,23.397608,28.733057,27.591211,24.8854
29.58169,24.640284,28.368555,27.917871,27.05337
34.42959,25.73208,33.791405,33.98208,29.984034
34.157616,25.433985,32.320946,32.531883,28.92422
31.151026,24.724268,30.75796,29.656397,25.182276
32.560448,23.895166,29.88125,29.043848,24.134912
29.630518,25.717188,28.641748,30.485498,28.474512
28.93081,26.257471,27.703028,30.559961,27.58999
30.258936,27.002832,28.650782,31.72207,30.136866
31.829737,27.22378,30.745752,33.509666,30.455225
33.51455,29.53213,33.932762,35.082664,32.42788
33.28823,29.134912,33.307762,34.353416,31.848291
34.283104,28.961817,35.25161,34.930565,30.842676
27.470118,25.860254,27.076075,27.5292,26.5375
26.96206,22.644678,25.905909,25.834375,23.620996
26.954248,23.691065,26.22378,26.079737,26.998682
24.210108,22.492823,24.405909,24.446192,21.826563
22.953516,21.754786,22.755762,22.383692,22.883204
24.753077,23.441065,20.647364,20.148829,24.362452
25.671778,23.038477,23.631006,24.051416,25.712305
28.956202,23.061914,28.165674,27.141993,25.757471
29.772608,23.286524,29.938868,29.921778,25.225489
23.307276,22.49087,25.01089,23.61831,23.944727
23.447168,22.347803,23.777002,23.443995,21.922022
24.475733,23.051416,22.650782,22.22671,23.671778
23.919092,23.524805,25.25088,23.995508,23.422022
23.118555,21.217676,23.065088,22.368067,21.263819
21.88833,22.689844,22.382227,22.109522,22.70498
22.6813,23.585596,24.127588,23.717676,23.614405
22.410547,23.734522,23.455713,24.050928,24.137598
24.173487,22.434229,24.177149,24.776514,22.552393
26.129541,23.863916,25.36172,24.931787,24.297998
26.95547,22.282618,27.29336,26.001368,23.897852
23.383936,21.756495,20.785303,20.91665,21.658594
22.54458,21.155664,22.815088,22.538721,20.853418
22.944971,21.847315,24.727442,24.311426,21.418604
24.860498,23.133936,24.914454,25.315088,23.175684
26.240137,23.806787,27.571192,27.93545,26.35415
26.821192,23.175684,27.58462,27.702051,26.277246
27.674463,22.324366,27.669092,27.302637,25.098047
24.036768,22.913477,22.217676,24.370264,25.521143
21.879297,21.46206,22.71255,22.074121,22.20669
20.656397,22.025537,22.189356,21.641016,22.19375
21.678614,21.6188,22.636866,21.96499,22.36831
23.901758,22.223047,23.100489,22.842188,22.306055
21.152002,21.589502,20.413477,20.285547,21.409327
21.302149,21.506739,19.373438,19.055079,19.802881
21.167871,21.3688,23.458887,23.07876,21.834864
22.286036,21.089014,23.128077,23.120996,23.08169
25.096582,21.571436,24.910059,24.584375,24.850489
24.373682,21.294336,21.858545,22.035059,21.987696
22.16665,21.109034,20.891748,20.771143,20.677881
20.24209,21.107569,20.540918,20.228174,20.458643
17.352442,20.773829,20.544092,20.238184,20.374659
17.840479,19.266504,18.24917,18.204493,18.809229
20.594873,20.569239,19.236963,19.614649,20.006495
20.47793,20.709375,19.490625,18.946924,19.901514
18.988184,19.548975,19.28042,18.838526,19.603418
23.300684,20.905909,20.244776,21.133936,21.48501
25.346827,21.896387,24.325342,23.672266,25.001368
26.804102,23.600733,25.163233,25.231836,27.27041
30.24795,23.565332,28.615137,28.592432,22.492823
22.962793,21.4313,21.961084,22.567774,22.816797
23.02505,21.91714,22.758936,22.86416,23.481348
26.676905,22.864649,24.772364,24.971094,25.69961
18.536524,19.588282,17.434961,16.592188,18.204737
16.916162,19.225,15.660547,16.066309,17.633448
20.015772,20.67544,20.115137,19.519434,20.328272
16.34878,19.164454,16.613916,16.488672,18.72671
16.923243,18.46963,17.312891,16.891504,18.234034
18.883936,18.921045,20.291407,20.311426,19.596094
21.60293,20.975,21.55166,22.170801,22.574121
22.586084,20.575586,21.868555,21.50503,21.691065
22.761377,20.807032,23.286524,23.471827,23.19839
24.78628,20.942774,22.661036,22.14712,24.097315
18.278223,19.083399,18.509668,17.822168,18.219385
14.492823,18.359034,15.13833,15.072657,16.45083
14.573877,16.882715,14.335108,14.098536,16.36587
12.59878,18.79458,9.382959,9.789209,16.4125
14.59878,18.985498,9.616602,8.961817,17.47793
11.219385,13.31875,10.58584,9.859034,12.456202
9.445948,13.202051,9.501612,9.301416,13.328028
11.077295,14.917383,12.670069,11.994043,13.631739
10.063379,14.906397,10.713282,11.061182,13.448877
13.052393,17.268946,13.516748,13.480127,15.955957
14.966455,17.757227,14.790674,15.329981,16.659082
14.532862,18.051905,15.683252,16.051905,17.724024
14.28042,17.287012,15.298975,14.307764,16.226221
11.611719,15.565332,12.054346,12.046534,13.505518
11.294336,15.188135,13.661768,13.31753,14.284815
11.747461,16.15127,12.435694,12.261133,14.462549
11.663233,16.360987,13.1800785,12.833399,14.61294
9.470118,14.26919,10.219873,10.096338,13.029932
9.991602,16.70498,9.1349125,9.610743,15.535303
12.317286,16.56045,14.032618,13.673487,16.675684
14.9786625,17.227686,15.533594,15.707911,16.849268
13.917383,16.051905,13.426905,13.297022,14.820459
12.812159,17.085596,14.340479,14.221338,15.536768
13.043848,16.96206,11.15835,10.380518,15.475977
14.63711,17.230616,16.355616,15.53628,17.710108
15.403467,17.12124,15.736719,16.7521,16.829248
14.835352,17.35415,16.47793,16.741602,16.879297
12.417871,17.20498,14.29336,14.741114,16.319483
15.101709,17.495996,15.840235,15.668116,16.85171
17.79751,18.880762,17.747217,18.232325,19.148096
17.037989,18.23379,17.123438,17.420801,17.914454
15.98794,16.71255,14.631739,14.828028,14.878809
10.331446,14.76333,11.264307,11.296289,13.454737
11.165674,14.937403,11.163233,10.390039,14.159327
10.474756,14.399073,11.234278,11.895655,13.367823
9.3536625,13.521631,10.403711,9.608301,12.454981
7.7384276,13.708399,9.916895,9.963526,12.546045
9.029444,15.31167,8.39834,8.642725,13.144922
13.315332,16.726954,14.016993,13.252832,16.379053
12.608789,16.11001,14.919825,14.35586,15.32461
10.91958,15.282129,12.048731,11.986719,14.663721
10.52334,14.882471,10.203272,9.299952,13.348291
14.522364,17.354395,15.1800785,14.895411,16.55166
15.549707,17.175684,15.614893,15.4752445,16.723047
14.4613285,16.24624,12.81045,12.518702,14.916895
13.948633,17.202051,15.044336,15.313135,16.643702
13.628565,17.087305,15.144922,15.345606,16.825342
14.451807,16.406885,15.268946,14.655176,15.944483
12.230371,16.370996,13.54458,12.369043,15.509424
8.434717,13.081202,8.114161,7.917627,10.275293
