"[299, 255]","[227, 248]","[287, 319]","[279, 328]","[230, 262]"
7.282617,14.173731,10.873194,9.546045,12.385645
13.687647,15.903223,13.9942875,13.641016,15.310938
13.947901,15.503321,14.127588,13.681055,15.014063
7.9496093,12.183741,8.020411,7.93667,9.803125
7.930322,13.882715,10.015284,10.04458,11.941553
10.001368,14.292627,11.510889,12.083155,13.522852
12.419092,15.308741,13.720362,13.672754,14.613184
10.037989,14.558252,9.6661625,9.301416,13.103907
5.9259276,10.536768,6.4242187,6.5611815,9.2599125
3.895166,10.9474125,5.2328124,4.890283,8.455225
5.006006,12.853174,6.7662597,5.9449706,11.260401
8.727198,13.215723,9.739161,8.940088,12.149073
9.473047,13.029688,9.955713,9.137354,11.424952
9.506739,12.524073,10.018946,9.370996,10.428858
9.9667,12.438868,10.82583,10.44375,11.054346
7.299951,11.444239,7.1476073,6.640283,10.398096
4.507959,9.455225,3.706201,3.034326,7.9051757
4.793115,11.181543,5.8871093,5.28042,9.915918
9.95669,13.632959,9.865381,9.664942,13.079004
11.775293,13.930567,10.605371,10.297998,12.431299
9.0550785,12.395411,10.254297,9.614161,10.329493
6.521631,10.191309,6.923486,6.393945,9.032373
7.731836,11.194971,8.074854,7.7240233,10.139795
6.471582,12.392237,7.5938964,7.150781,10.306055
4.2916503,10.683496,5.1566405,4.8197265,8.183252
5.421289,10.190821,6.525781,6.19375,8.278955
3.3915038,8.89126,4.454248,4.5763183,7.0040526
3.0460448,10.195459,4.9000487,4.591211,8.2792
2.61416,9.966455,2.8790526,3.0228515,8.414698
3.8133788,9.627344,3.7745605,2.5631347,7.8600097
2.596582,9.076563,2.7345214,2.1390624,6.7555175
6.0504394,11.43667,6.237695,6.1097655,9.934229
4.360986,10.518457,6.251123,6.35708,9.613916
6.0020995,12.534327,6.313623,6.471826,11.254786
8.954737,12.907373,9.066797,8.81045,12.486231
9.479395,12.430567,10.5021,10.102686,12.319239
9.613184,12.735987,10.274317,10.02334,12.118555
6.7835937,10.82583,7.6285644,7.4276366,9.358545
8.653955,12.826563,9.441309,9.081202,12.426905
4.850244,10.43667,6.3756347,6.322168,8.136621
6.7003417,11.523584,7.9947753,7.1949706,10.143946
11.795557,13.120996,12.156397,12.224024,12.957178
9.371973,12.822657,10.474512,10.606836,12.017969
9.299952,12.461084,10.660547,10.452051,11.449121
6.671289,10.819727,8.107325,7.85,9.75503
6.141992,11.270899,7.612451,7.449365,9.153223
8.093653,12.334375,8.307764,7.7125487,12.23208
10.532129,12.650049,10.911768,10.310205,12.297754
5.9217772,10.795069,6.9642577,6.7953124,9.346827
11.350733,12.789698,11.851465,12.123926,12.419336
11.406641,13.2894535,12.326563,11.683496,12.358545
6.875879,11.114405,8.106592,7.8512206,9.029932
9.559961,12.547754,10.205713,9.168848,11.927881
11.553125,13.147852,11.790674,11.188135,12.664698
7.630029,10.810205,8.96792,8.519678,9.600977
7.237451,11.053858,8.414698,8.357569,9.75918
9.430811,11.6817875,10.260889,9.983545,11.330957
6.0086913,9.915186,5.6268554,5.377832,7.5052733
5.4139647,9.207911,6.407617,6.2228026,7.9657226
5.942529,10.840479,7.0731444,6.548242,9.405176
3.5953612,8.347803,3.673242,3.6170897,7.150781
4.0694823,7.99624,4.601953,4.3080077,6.829492
3.2098632,8.130762,2.6288085,2.839746,7.241113
5.827295,10.527491,7.0282226,7.83291,9.241358
6.921045,10.363672,6.3038573,7.119531,10.096094
8.474268,10.201075,9.304102,10.178614,9.810694
8.368555,10.724024,9.442286,9.22085,10.547266
3.7936034,9.329493,6.8805175,6.822412,9.0863285
1.4896485,5.9168944,3.0946288,3.190332,4.0055175
1.143457,4.732324,3.0431151,3.2679687,3.6292968
4.9171386,9.438135,3.7682128,3.9476562,8.860987
7.1981444,11.040186,7.079248,7.5040526,11.908106
4.9027343,9.470606,5.129785,5.56167,7.830957
3.4376464,7.1112304,5.563379,5.133203,6.5348144
4.172754,7.3229003,6.0572753,5.4798827,6.573877
3.0304198,6.745996,3.414453,3.0873046,5.8543944
2.6849608,6.111963,3.4940429,3.438867,5.8302245
1.4825684,6.256494,3.572412,3.6703124,5.1656737
1.386377,6.1061034,3.204248,3.4730468,5.290918
3.7665038,7.584863,4.143213,4.331445,6.9378905
4.0370116,9.673243,3.9168944,3.6351562,7.6793456
9.098047,9.639795,10.43252,9.796534,10.439356
10.349512,10.4005375,9.545313,9.832422,10.266016
11.105616,10.760889,10.646387,10.915674,11.626856
9.338282,10.50918,9.209864,9.356104,10.204004
5.6649413,8.705469,6.3526855,6.2674804,7.8077636
6.424707,9.423487,7.0370116,7.0228515,8.945459
7.0677733,9.785791,7.9608397,7.801416,9.668604
8.268702,10.648584,7.973535,7.671045,10.7286625
10.968897,10.970118,11.475489,10.66128,11.178858
7.0885253,9.5411625,9.326563,8.510889,9.481592
8.351221,9.78335,8.837305,8.584375,10.12417
7.3856444,8.5846195,5.608789,5.5370116,8.810694
5.934961,9.408594,6.690576,6.506738,8.293116
5.7833495,9.353907,6.204248,6.25625,7.274072
5.3143554,7.0145507,5.7992187,5.6615233,7.540918
6.780908,8.557276,7.360742,7.2816405,8.326075
3.390283,6.855615,4.004541,4.266504,5.7518554
3.1241698,8.275293,4.73208,5.09707,6.9862304
6.0316405,8.209375,5.219873,5.2604003,7.6932616
4.846338,8.4283695,6.6754394,6.978662,8.097803
6.516504,8.502832,5.806543,4.988672,7.6166015
5.2347655,7.8404784,6.247949,6.480371,7.1205077
5.3910155,8.621485,6.754785,6.2281737,7.876611
6.419824,7.686914,7.3131347,7.829004,7.2379394
7.1100097,8.6175785,7.565576,7.301172,7.475488
6.3270507,9.130762,6.914209,7.2281737,7.858789
6.5562987,7.861963,7.5052733,7.174463,7.4447265
6.9151855,8.339746,7.4518065,7.1163573,8.0099125
6.92666,8.223291,7.5035644,7.495752,7.9791503
5.973535,8.111231,7.7296386,8.121241,7.869531
6.5870605,7.7552733,8.157618,8.159571,7.537744
7.5592284,9.200586,9.61001,10.058741,9.29043
8.768213,9.132471,9.566797,9.356592,10.299463
8.817286,10.0394535,8.368067,8.423975,9.640528
10.79336,11.026026,10.892481,11.314356,11.933496
8.252344,9.471582,8.823877,8.758448,10.018213
8.311426,9.395411,9.15127,8.688868,10.316553
8.265528,9.296289,9.362452,8.408106,9.783106
11.280664,10.700342,10.172266,10.277979,11.27334
9.107813,9.676172,9.4630375,10.921778,11.872705
9.291407,9.339258,9.688135,10.11709,10.943018
9.202784,9.475,10.911036,10.12417,11.440577
8.069971,10.385645,9.492823,9.969629,10.698877
6.968164,9.708155,9.12002,8.835108,9.965723
9.122705,9.79751,10.325098,10.108789,11.294336
10.6783695,9.913233,9.896143,11.219873,10.251612
8.178125,8.812647,8.153955,8.142237,8.126856
8.245752,9.001856,8.861719,8.590723,7.8875976
8.729639,12.843897,9.460352,9.466455,15.483545
7.419336,10.848291,9.744043,9.58584,14.232325
8.2721195,11.28335,9.267481,9.251123,10.564112
10.930811,11.009424,11.674707,12.112696,12.3675785
8.244043,9.834375,10.888575,11.626368,9.206934
11.226221,10.572901,11.281153,12.120264,10.579981
8.873194,10.324121,9.239161,10.156397,10.413965
7.916162,10.626368,10.75625,10.961573,10.476465
13.719629,12.081202,14.795801,13.094385,14.619776
9.2599125,10.88003,9.732813,9.144922,11.890284
8.682032,8.800928,12.04458,11.408838,9.266748
10.74917,10.0689945,11.550196,11.0550785,8.977442
10.664209,10.136377,11.800684,12.014307,10.808496
11.2564945,10.382471,10.053614,9.360498,11.439356
11.369043,9.893457,11.214014,11.185694,10.362452
11.153955,10.440332,12.063379,12.012842,11.681299
13.203272,11.654444,13.998926,13.852198,11.665186
12.679346,11.61709,12.138819,12.868067,13.0064945
11.577051,11.577051,12.150293,11.180323,12.839746
10.503321,11.15542,11.194239,10.543604,11.995752
10.364893,9.964502,10.690577,10.734766,11.145411
10.3971195,9.841944,10.418604,10.16543,10.039942
9.858789,9.715967,10.410059,10.165918,10.454737
10.53628,10.2894535,11.158838,11.261133,10.066553
10.06167,11.191065,10.725733,12.293848,10.959375
12.537989,12.239161,13.587061,12.794825,13.831446
11.873682,11.479639,10.794825,10.6542,12.152002
9.422022,9.984766,10.19375,8.392237,10.448145
10.741846,10.319239,11.560205,10.699854,10.771387
11.914942,10.796534,10.822168,10.737696,11.309473
13.548243,11.663721,14.23208,13.597071,13.932764
15.079004,13.318262,15.238916,15.278223,15.964014
16.060205,14.664698,15.308008,15.350489,15.128565
13.901514,12.468897,14.745264,14.181543,15.040918
14.280909,12.890528,15.275782,14.163965,13.005274
14.583887,13.067774,12.579493,12.824366,12.683496
13.581202,12.283594,10.395655,10.834131,13.149805
11.094629,10.825342,12.986475,12.4396,11.331934
11.66128,11.067286,11.766748,12.8675785,11.424219
12.595362,12.899561,11.427881,12.841455,13.021631
11.95376,13.283838,13.736475,14.252832,14.228907
12.497217,13.396387,14.353174,14.88003,13.07461
14.86709,13.688868,16.369776,16.446924,13.526026
17.513086,13.804102,18.567774,18.48379,18.438135
18.967676,15.082422,18.027979,18.581446,17.705225
18.696436,14.112696,16.190577,17.037745,14.422754
11.121241,13.728174,14.355127,14.698389,13.780664
16.290674,14.194483,17.51089,17.640528,15.825342
19.766748,14.481836,20.028223,19.931787,19.45254
22.000391,17.925684,22.827295,22.186426,21.204493
23.47793,17.434717,22.754541,23.052881,21.781885
18.360743,16.37002,17.798487,17.137354,16.303125
21.382715,16.278711,17.346338,17.741358,16.840235
15.369776,14.59292,15.665186,15.3832035,14.020166
18.828028,15.654444,19.07754,17.973291,16.023096
18.987452,16.5292,18.273584,17.609766,16.441797
21.55459,17.401758,20.615381,21.452295,21.198633
20.765772,16.133448,18.126856,17.89248,19.501368
23.706202,17.687647,20.53457,21.000391,20.698145
26.497705,17.845118,23.728174,25.218653,22.033594
28.788721,18.30459,27.03457,28.298487,25.290674
32.464012,21.193506,27.458643,29.020899,27.130274
25.360498,19.407862,21.093653,19.725,18.18374
18.546534,19.512842,17.552637,18.184473,18.983057
13.129786,17.85586,16.849756,18.48208,17.74917
18.397608,16.397364,18.286524,17.566065,17.702295
21.072657,16.636621,16.395166,18.205957,17.16543
22.231104,17.690577,20.232325,20.013575,20.381495
26.181543,16.970606,22.677149,22.51211,21.94839
21.862207,17.5729,22.20254,20.860743,17.146387
27.498438,17.353662,24.967432,24.058008,20.69375
19.355371,17.14712,18.162989,17.755762,19.210596
17.877832,16.622217,18.149317,18.059717,18.406397
19.075098,16.587793,18.05752,17.517237,17.598291
19.686182,16.586084,18.963037,17.87002,19.001368
22.50918,18.785791,21.858545,22.327051,19.06753
24.166407,19.14956,22.664698,22.482325,24.174952
27.35293,19.058008,23.136621,23.334131,23.230371
22.68252,18.38125,22.217432,20.735743,20.744776
18.919092,18.85415,20.256983,19.05752,19.021143
15.617334,18.099756,16.82583,16.584864,17.034815
17.954493,16.10293,18.663721,18.552149,17.506983
16.43374,17.333887,16.810694,16.994776,17.60464
16.415674,17.114649,18.433252,17.889307,17.681055
18.952784,17.339502,18.63711,18.37832,17.33877
18.774073,17.136133,20.95083,20.126612,17.705957
19.193995,17.97964,16.282862,15.863916,18.339746
20.554346,19.416407,19.31753,20.096827,19.979395
21.772852,18.720362,18.830713,20.391504,19.942774
21.629541,17.95498,21.616358,21.169092,19.503809
21.866114,19.016016,22.329004,21.903467,21.873682
24.961573,19.413721,23.725489,23.23794,23.620264
26.236475,20.05581,25.00625,25.108545,25.783106
31.70254,20.722315,30.312647,29.929102,23.133936
21.514307,20.300196,22.099756,21.51748,19.93838
23.236475,19.309229,20.4125,20.95547,19.737696
19.900293,19.152002,19.880518,19.96963,19.761621
22.214746,18.468653,20.542627,20.270166,20.233301
26.067774,19.87295,22.921534,23.031153,22.914454
28.30044,22.072412,26.052637,26.01919,23.69839
30.83755,23.45083,28.789454,28.164454,24.6188
30.533106,22.935205,27.97207,27.210596,23.208399
32.66323,24.069483,29.971338,30.373682,27.71084
36.715965,23.688868,32.895164,34.48574,31.276514
34.813377,23.964746,30.916895,29.111963,25.203028
27.501856,20.55752,24.1354,23.859278,20.500391
24.316309,21.224024,23.78042,23.516016,21.602198
25.953028,20.225977,24.826319,24.18374,24.904688
22.343164,19.98916,22.067774,21.21255,21.824854
21.87417,20.06045,22.371729,21.976221,20.287256
18.660791,19.223291,19.411524,19.48916,19.6813
20.777979,18.3146,20.75796,20.714746,19.057764
21.050684,18.37417,21.250391,20.833887,18.64297
19.764551,18.242334,20.06753,19.676905,18.264551
22.223536,18.626612,21.449366,21.290674,20.012598
24.177393,20.271875,23.556543,23.919336,22.635157
22.631983,19.427393,22.737696,22.310694,22.031885
23.28335,19.6188,22.335596,22.729395,23.057032
27.137598,20.133936,24.860743,25.602442,23.781153
22.512354,19.67373,23.15127,23.269922,22.033594
21.569971,21.328516,21.495752,21.374414,22.019678
23.473291,19.792627,23.08462,22.922022,20.979395
23.922022,20.193995,22.499659,21.853174,23.92666
24.839502,20.874659,23.931055,24.105371,24.371973
25.990137,21.194483,22.196192,21.956202,22.247217
21.40713,20.992579,22.091211,21.20547,20.930567
24.123926,20.876612,21.379053,22.371973,21.056787
18.60586,19.139551,19.553125,18.821436,19.200342
21.413965,20.230127,21.175196,21.026026,21.399805
23.515284,20.553858,22.329493,21.951807,22.485743
17.16836,19.746729,18.437403,18.253565,19.646631
19.53213,19.501368,20.021875,19.542383,20.159327
23.482813,19.79751,21.395166,21.084131,21.29336
27.391016,20.641016,23.870508,23.493555,22.510157
22.096094,19.950098,20.372705,19.780909,20.655176
19.836817,19.324366,19.113672,18.276758,20.889551
19.139551,18.768213,18.711329,18.360498,19.848291
19.640528,19.20254,19.859766,19.061182,19.638575
20.881495,19.810938,20.752588,20.271143,19.735987
22.707178,20.85171,21.748926,21.4396,21.427637
24.055567,19.987696,23.442286,23.23672,23.263086
23.618555,20.098291,22.468897,21.415186,22.85293
23.589746,22.353418,24.79336,24.829248,23.085108
23.835352,21.836329,24.170557,24.51919,25.26626
26.230616,21.896143,25.755518,25.670069,28.230616
28.42129,21.42837,25.678125,24.724756,22.69082
21.5104,20.100245,18.81875,18.199854,20.306787
20.634912,20.157862,19.9667,19.259424,21.420313
22.375391,19.58706,20.331202,20.074366,20.599268
23.923975,20.97207,23.305079,22.8854,23.915918
24.678125,20.428858,25.326075,24.207666,24.388086
28.095362,22.829737,25.622461,23.069239,23.51504
28.632471,22.08169,26.317041,25.612696,25.958643
27.77212,21.031641,27.222803,26.221582,26.230127
28.91421,24.793116,24.224756,23.693262,26.308252
23.777002,21.646387,21.640284,21.682032,23.485743
18.591455,19.1542,17.230127,16.994043,17.76919
18.52505,19.902735,18.098536,18.034327,19.025782
19.35879,19.725977,21.085352,20.908106,19.312159
21.37002,20.565332,21.25796,20.857813,19.922998
18.693262,19.91714,24.077784,23.718653,20.417627
22.450098,20.858545,23.424952,23.781153,22.86587
24.354395,20.36831,24.543116,24.369532,24.678125
23.345606,20.286036,23.812159,22.225489,21.171534
21.462793,21.662256,22.685694,22.050928,21.867579
23.504786,20.394922,22.344141,21.620996,21.647852
20.77505,20.088037,20.498682,20.481348,19.574121
19.610743,19.241114,21.433496,20.870996,20.681543
21.904444,19.607325,21.855616,21.501612,21.228662
22.449366,19.365381,21.92373,20.757715,20.73208
20.619287,19.249903,19.226465,18.005518,20.776026
18.07046,19.39419,18.20962,17.813868,18.62002
18.896143,19.705225,17.64541,17.281397,19.604883
18.955713,19.282618,18.264063,17.92544,19.532618
17.723536,19.568506,18.250147,17.910059,18.922022
16.062403,18.888819,17.525537,15.913477,18.568018
15.550684,18.718409,15.992823,15.940088,17.432764
19.112452,19.214746,17.726221,17.831446,19.468164
18.690088,19.566309,18.94375,18.877344,21.033106
18.862452,19.752832,21.169336,20.014307,20.191797
16.636621,19.175684,17.420557,17.382227,18.688135
16.721827,18.248194,16.428858,16.50503,18.40835
17.777979,18.94668,17.803125,18.04873,19.6979
17.115625,18.597315,17.763086,17.749659,18.857569
18.320215,18.718409,17.659082,18.613428,19.249414
16.778955,19.35879,17.733545,18.266016,18.454248
17.83706,17.31753,18.176172,17.80166,18.6271
20.675928,18.348291,18.172998,18.340967,18.188868
18.217188,18.64248,17.06167,17.413965,18.560694
16.765528,18.815332,15.883692,15.112696,17.412745
17.929102,18.931787,16.970362,16.32168,18.748438
14.087061,16.297266,14.254541,13.1644535,14.879541
10.335596,15.535547,11.693262,11.330957,13.635157
12.048487,15.059961,12.051416,11.2755375,14.25625
7.645166,14.080225,9.860498,10.312159,12.597315
11.35708,14.9769535,11.892725,11.974268,13.761866
12.796778,15.975733,13.760401,13.145899,15.264063
10.301172,15.436426,12.653467,12.653955,14.875635
13.330469,15.524805,12.058985,11.912989,14.815577
13.176172,17.352686,12.613184,11.901514,16.543116
14.077051,17.312159,14.577539,14.25503,16.567774
15.355127,17.793848,15.548975,15.105127,17.208399
15.196924,17.866358,15.88418,14.942286,17.086329
13.733789,17.558985,14.153711,14.572901,16.191553
17.449366,18.093653,16.824121,16.917627,18.023829
15.760401,17.861963,16.124414,15.594141,17.055567
11.823633,15.794336,12.400049,12.628077,13.962305
12.979151,17.274073,13.722559,13.270411,15.548975
11.595118,15.704248,14.239649,13.736719,13.988916
13.201563,16.463282,13.944727,13.479883,15.511133
10.281885,16.64541,10.017725,10.202784,15.348047
15.08169,17.109766,14.672754,14.864161,16.452051
14.37002,16.96963,15.106836,15.08877,16.331934
10.815088,15.438135,12.685938,12.575342,14.297754
15.1644535,17.349756,15.130274,15.214502,17.28457
15.272608,17.756006,16.331446,16.011866,17.547754
18.376368,18.995508,17.504053,16.650537,19.267725
15.520899,18.613672,16.837305,16.451807,18.714746
14.721094,18.265284,14.324366,15.34292,17.584864
14.350489,17.046534,15.513086,14.338282,16.293604
14.692774,16.782618,14.616846,14.56875,16.211084
12.382959,16.196192,12.003809,11.69375,14.408838
15.096582,16.700586,14.384668,14.148584,15.64126
10.815332,14.307764,11.683008,11.427393,12.706934
9.893946,13.893213,9.952295,9.681055,12.677149
11.218409,16.11416,13.8536625,12.609766,15.222071
11.215235,15.252344,12.589014,12.528711,14.050684
14.656885,16.369287,14.902246,15.099756,15.929834
13.729639,16.172754,14.476465,14.6175785,15.198877
9.112207,14.339746,11.114649,11.150049,12.8224125
11.7792,15.645655,12.844629,12.608301,14.564844
