"[299, 255]","[227, 248]","[287, 319]","[279, 328]","[230, 262]"
12.856836,10.851465,9.1488285,8.717676,9.4769535
7.1187987,12.370508,6.7276855,6.0020995,9.406397
5.1927733,10.129541,6.5729003,6.3910155,9.310205
7.0702147,11.661524,7.470117,6.5816894,9.460352
7.4669433,13.004541,8.862452,8.28628,11.496973
5.3717284,10.46377,5.0262694,4.6688476,7.036279
4.603418,10.648096,5.261377,5.30166,8.483789
5.6776366,12.709131,6.450586,7.2660155,11.5099125
9.719141,13.290918,10.721338,10.585352,11.957422
5.7643065,11.020166,7.1463866,6.7552733,9.065088
5.0887694,12.624659,6.233545,5.8392577,10.201075
7.645654,12.713282,7.3478026,7.671045,10.878077
5.8441405,12.323145,7.044336,8.675684,11.176661
10.836573,13.473047,11.708887,12.162989,13.055811
11.209864,13.730127,12.570459,12.69253,13.233545
10.6471195,13.710352,11.774561,12.115381,13.274073
12.422266,13.844141,13.034327,12.853418,13.350733
11.184473,13.99795,12.78335,13.02334,13.705713
12.39419,14.056055,12.836817,13.104151,13.841944
13.587549,13.479151,13.090967,13.632227,13.085596
12.200098,13.281153,12.034815,12.631739,12.34585
11.027735,12.799219,10.922998,10.741114,12.000635
9.875391,11.121241,9.936426,9.455225,10.565332
8.140528,12.7113285,8.515772,9.761133,11.694971
10.028955,12.827295,11.653467,11.462549,12.443506
5.9708495,11.536036,8.641993,8.664209,9.563135
7.848047,11.988672,8.982569,8.664698,10.457178
3.2437987,9.510889,4.3514647,4.30874,7.730127
3.9151855,7.839746,4.619531,4.3302245,6.3844237
6.7503905,11.464991,9.315577,9.541407,10.649317
8.623682,11.825098,9.745996,9.602686,11.108301
5.065088,9.814844,6.3373046,5.834863,8.172022
3.1793456,9.042627,3.8729491,3.688623,7.430322
4.1197753,9.004541,4.148828,4.7657714,7.695459
4.0128417,10.872705,4.945947,4.600488,10.487207
8.612452,11.986963,10.41543,9.944727,11.698389
5.369043,9.913233,6.657373,6.0665526,7.9217772
7.1014647,11.13418,7.9171386,6.9881835,10.060205
7.0941405,10.759424,7.5545897,6.927881,8.687403
3.9776855,8.278223,4.581201,3.8861327,6.1583495
4.60708,8.0411625,6.004297,5.9149413,7.2940917
2.9808593,8.23501,4.089502,4.3944335,7.1827636
3.5570312,7.924707,4.602197,4.1810546,6.976709
4.223291,8.16543,4.803125,4.494287,7.1512694
4.600488,8.316553,5.4950194,4.6998534,6.7767577
2.6932616,7.1910644,3.1815429,2.4288573,6.508203
1.71792,6.9486327,3.7325683,3.095117,4.8236327
3.6659179,6.346338,4.454004,3.1034179,5.3558593
3.8463378,6.058252,5.2660155,5.161279,4.820459
2.3734374,4.55874,4.202295,4.1322265,3.6085448
2.3939452,4.011865,4.473535,4.431787,2.8019042
1.7882324,5.046045,4.193506,3.4303222,2.959375
3.4601073,6.388574,4.5750976,3.0528808,4.8858886
2.4581542,7.0956054,4.0992675,4.216211,4.752588
4.3944335,7.0174804,5.624414,4.434961,6.0208983
5.632959,7.5077147,3.334619,3.3856444,6.8946776
5.9154296,9.481592,8.385645,8.335352,8.309961
6.050195,9.848291,8.396631,8.3417,8.966455
5.8163085,9.568506,5.9674315,6.1998534,8.242334
2.692041,7.6424804,2.7674804,2.4913573,5.869531
1.9015137,6.8199706,2.1554198,2.3680663,5.659326
3.197412,6.416406,2.1639647,2.070703,5.452539
2.6761718,7.720361,3.2003417,2.6988769,5.773584
4.4237304,10.156885,7.7901855,8.327295,9.522364
8.263819,10.496485,10.134424,10.468653,10.832422
6.721826,9.343897,7.641748,6.853906,8.683008
3.6268554,8.273584,8.386133,8.393457,8.368555
5.0543456,9.514063,7.523828,6.2225585,8.937159
7.9898925,10.50503,9.687403,9.38711,11.405664
7.404199,9.469385,7.3509765,7.36416,10.082666
6.212793,9.341211,7.348047,7.120996,9.681055
5.1893554,9.172266,6.660547,6.734033,6.836084
2.6224608,7.7594237,4.422754,4.3597655,7.5575194
6.491113,10.952051,3.8021483,4.3460937,11.814844
6.2137694,9.402979,7.690088,7.5316405,9.475977
5.823877,10.375147,7.176416,7.5248046,10.805811
7.058496,10.408106,7.3663573,7.713281,8.657618
6.115381,8.810694,6.0128417,5.534326,8.123194
8.941797,9.386133,6.9381347,6.692285,8.342188
5.483545,9.28335,7.6998534,6.2154784,7.6239257
9.183985,11.562159,7.666162,7.7940917,10.957666
9.595118,11.708643,11.104151,11.204981,11.483545
7.969629,10.207666,8.274805,8.740625,9.483789
8.0646,10.3988285,8.063868,7.8873534,9.623682
9.733545,10.022852,8.948877,8.96792,9.331202
9.296778,10.665918,8.439356,9.813623,9.706446
7.511865,8.413233,7.761377,7.6041503,7.678125
3.978662,7.7171874,6.392236,6.2120605,6.8861327
4.046533,6.225244,4.499414,4.7159667,5.671289
4.2574706,6.4671874,4.2655272,3.3629394,6.5416503
3.8788085,6.4515624,5.4305663,6.0714355,5.209619
2.3060546,6.565576,4.108545,3.9217772,5.598047
2.9830565,8.173975,5.860986,6.419336,6.1561522
7.155664,9.097315,7.4254394,8.00918,8.30459
7.330713,8.427149,8.995264,8.332178,7.5538573
9.719141,8.330469,9.056543,9.550196,9.472071
7.6024413,10.077784,9.400293,9.861231,10.451319
6.0719237,9.644434,6.7347655,7.2760253,8.4439945
5.0230956,7.709619,5.8375487,6.3038573,6.7401366
5.331201,7.9549804,5.8229003,6.042627,6.1544433
6.461328,10.014551,7.055322,6.992578,9.982813
8.376368,10.772852,6.612451,6.7120605,11.366602
10.704248,10.8417,10.948389,10.26211,10.881983
10.545801,10.1644535,12.187891,12.021631,11.782373
10.532618,9.9005375,12.337793,11.460596,10.35293
9.319239,9.098536,7.4254394,6.547998,10.4439945
7.4183593,8.376612,9.6271,10.140528,8.49795
12.236475,11.370264,11.774073,12.627588,12.287256
11.527246,11.365137,11.772608,11.501368,11.565332
8.338282,9.921045,9.870264,9.232325,10.998682
9.2755375,9.771387,11.089502,10.820215,10.042871
11.568506,10.545313,10.986719,12.339502,12.396143
13.008936,11.538721,11.570459,12.796289,12.2894535
13.984278,11.533106,13.214258,13.175684,14.073877
14.710352,11.877344,14.701319,15.024805,14.916895
16.356348,12.0724125,14.83584,15.206934,14.219873
10.647608,10.729883,11.101221,10.599512,10.296534
12.347071,11.223047,11.478907,11.800684,12.034327
9.577539,11.062647,11.054102,10.579004,11.782373
12.256983,12.6175785,12.333399,12.592676,14.895899
12.607813,14.165674,11.880762,12.049463,12.511621
8.520899,12.829248,8.482569,9.288233,10.811426
6.6080565,10.073389,6.7228026,6.2853026,9.066553
8.5394535,11.093653,11.2252445,11.594629,13.090723
9.613428,11.746241,11.557032,11.345118,12.61709
9.897364,12.204493,10.288965,10.298487,12.35708
10.432764,12.51919,10.712793,10.925196,14.203272
15.621973,12.087305,13.166651,13.437647,13.490381
16.118555,12.809473,16.86001,16.477198,16.2438
15.489893,13.846338,15.057764,15.020899,14.1271
16.359522,14.95669,15.344629,16.025293,14.940088
13.665674,12.485254,16.605371,16.600489,11.668604
14.663477,14.210108,16.98501,16.36831,16.815088
13.327784,13.401514,14.730127,14.96377,13.309473
9.571192,12.244532,9.489161,9.754786,12.063379
6.785791,10.161524,7.176904,8.097071,9.313379
7.6847167,10.360498,9.709131,9.778467,10.007471
9.408594,10.417383,11.040674,10.453516,10.297754
9.17251,11.199366,11.403955,11.635157,11.479151
9.542383,11.826319,10.566065,11.369043,11.461817
11.116602,11.737207,14.306299,13.758692,12.143457
8.853418,12.962793,8.640772,8.643946,13.981104
11.941309,15.224512,10.791651,10.754297,15.902491
11.765284,13.698877,12.348536,12.310938,13.295557
15.102686,14.214991,14.761377,14.688623,16.16128
14.406397,14.292383,16.370752,16.44375,16.433496
14.718897,13.868311,15.678614,15.234766,15.398096
14.8363285,13.621973,16.043604,15.611475,16.032862
14.16836,13.549707,15.210596,14.649073,15.853418
15.147852,13.70669,15.464991,14.549707,14.420801
17.06875,17.955713,14.966211,13.837793,19.58462
14.65542,13.746729,11.808008,12.150049,15.231836
8.722315,12.241602,10.110743,9.563868,10.9925785
10.1661625,12.063135,12.136377,11.659815,11.579493
10.895411,11.780909,10.632471,11.478418,11.623926
13.521387,12.619776,14.097071,14.486719,13.99209
9.716211,12.244532,11.6896,10.995752,11.470606
12.239161,13.312403,11.781397,11.927393,14.151758
10.912989,12.402979,8.51333,9.406641,12.77334
10.344629,10.949366,10.588526,10.481348,11.881983
10.750635,11.479883,11.876612,11.888575,11.813135
11.272852,13.771875,11.940821,12.06045,13.331934
15.859522,13.97085,16.012842,15.626612,16.024805
16.393213,13.942041,16.880274,16.607813,16.546778
18.826807,14.843409,18.320948,18.338037,19.33999
21.058496,17.865625,21.657618,21.780176,20.1188
21.718897,19.027735,22.72378,23.929102,20.664454
20.566065,19.353662,18.520166,19.287989,20.416407
17.94082,18.738184,16.823145,17.734278,18.912012
21.014795,16.653467,21.550196,21.41836,17.138086
20.675928,17.644434,21.153955,20.392237,18.16128
15.925928,14.646875,15.729883,15.998682,16.225977
13.747461,14.903711,16.512354,17.138575,16.913477
16.701807,14.533106,16.590235,16.845606,16.863184
14.316065,15.118067,15.327784,14.745996,14.36294
17.14248,14.928614,18.58584,18.803858,16.999414
17.429346,14.726221,16.33755,17.012842,16.595118
15.743067,15.428614,17.601954,16.62588,17.486963
19.632471,15.680567,17.88418,18.184229,16.991602
21.49624,15.325586,20.237696,17.129053,15.882227
17.811182,15.052637,18.054834,18.735987,18.062159
17.678858,16.196192,18.591211,17.907618,16.97915
17.744287,15.659571,17.40835,17.403955,18.174707
16.474756,15.7521,17.58462,17.381495,17.944483
15.47085,15.4317875,16.781641,16.724268,16.801416
15.471827,15.338282,15.26919,15.138086,14.215967
16.764795,15.667627,18.225245,18.384668,16.746729
19.85,16.830225,20.382471,20.098291,17.0729
23.279932,17.864893,23.46255,23.659082,22.538477
24.96084,18.599024,25.213037,25.25625,23.326075
24.504053,17.576563,24.353418,21.914942,17.465723
23.911768,17.53335,22.97793,23.362207,18.128809
18.942041,16.925684,18.23672,18.65957,18.33047
17.172998,16.854883,17.634668,17.737696,18.377588
17.168848,16.034327,17.628809,17.557764,17.622705
21.427881,16.62417,18.85415,17.878077,17.688135
20.969873,17.00503,20.91543,20.60171,17.810938
24.833155,19.725977,24.084131,23.931787,21.040674
20.329004,18.44546,18.130762,18.720606,21.004053
21.183496,18.522852,22.399317,22.453272,21.359766
19.306543,18.386133,20.280664,20.48794,19.614893
20.406153,18.532373,19.97964,19.851221,19.58584
19.417871,17.684717,18.822657,18.571192,19.340235
18.612696,17.612207,18.326075,18.683252,18.490625
19.16543,17.41128,18.475245,17.858545,17.427637
16.287256,17.678858,18.77041,18.58584,18.026758
20.376612,18.076075,20.1354,20.199366,18.691553
19.822168,19.853174,21.036524,20.748194,20.21084
22.257471,18.795801,22.863184,23.067041,22.434961
24.322168,19.478174,24.928125,24.928125,23.928125
27.171778,20.080713,25.450098,26.253565,23.929346
28.05752,22.701319,26.289454,27.420801,26.88296
29.896143,23.100245,29.767725,30.027246,28.261133
30.44668,23.488916,28.225733,28.127832,23.938623
27.85586,25.799707,23.844873,23.87002,27.412012
33.603172,24.77456,29.38418,29.534082,26.707666
26.94375,22.311426,25.581446,25.311182,22.89297
27.119776,24.452295,26.241846,26.167383,25.559229
24.378565,21.337793,24.748194,23.89419,20.579493
22.92129,19.53921,22.315332,21.593409,21.189356
22.040186,20.0104,22.99917,23.0646,19.942041
20.539942,19.731836,18.863428,18.48208,18.880518
21.362696,19.609766,22.9125,22.610254,20.671534
25.114405,20.705225,21.733057,21.257715,21.108545
25.819239,20.383448,24.032862,24.579493,22.248194
23.5375,20.686914,23.998926,24.374659,23.084131
23.07754,20.865381,22.828272,23.11123,21.522852
23.376856,21.030664,21.173975,22.356348,20.558008
22.8854,22.2521,23.015528,23.13296,23.009912
25.471582,21.86831,26.11123,26.328516,25.055323
24.255762,21.574854,23.850977,23.67666,22.79165
22.727686,21.592676,23.934473,23.298975,22.750391
21.293116,21.094873,22.078028,21.928858,20.232325
24.059473,21.465235,25.758448,25.049463,24.807764
30.187403,24.89541,28.855616,29.363184,27.036036
29.619043,27.37124,29.70547,31.388086,28.556055
28.44253,28.249659,28.224512,29.586573,28.500147
28.089258,27.898096,27.925196,29.881983,29.087793
28.31167,26.532373,26.858301,28.984034,26.81045
28.355371,26.059961,27.382715,30.416407,26.394922
30.62124,27.166895,29.928858,31.120508,28.64248
32.120262,26.67251,31.311182,32.178368,28.43374
23.905664,25.89956,22.64297,23.83462,26.241602
25.91714,23.511866,24.727198,25.324854,22.759912
26.61709,22.94082,26.143213,26.13711,23.26333
26.02505,23.07461,25.295069,24.690577,24.932764
27.475733,23.225489,24.163233,23.994043,24.273829
22.4042,21.805079,22.629786,21.744043,21.435205
21.066309,20.4042,21.474024,21.415186,20.563868
22.52212,21.51211,20.930567,20.660303,20.43374
26.609766,21.806787,23.465723,23.922022,23.478174
23.52456,21.54458,23.74795,23.52212,22.60293
25.3771,21.95254,24.2875,23.823877,21.943995
24.96792,22.748682,25.495508,25.35708,23.180079
28.542627,23.416162,28.481592,28.972803,24.909815
28.059717,23.919092,27.545313,27.099756,24.04165
28.11831,23.433496,27.1354,27.817286,23.43667
26.615137,25.209375,27.894678,28.498194,26.147608
27.129541,22.2875,27.516993,26.904444,26.44839
26.330957,22.549952,25.54922,25.48501,22.004297
24.82754,22.979883,24.451563,24.803614,24.568995
29.79873,22.656641,27.461084,27.867579,25.819483
29.866358,22.419825,25.841455,26.240381,24.713282
22.967676,22.127832,23.386621,23.038965,22.248438
21.660303,20.04336,21.306543,20.921778,20.168604
22.143457,21.28335,22.363672,22.108545,22.508936
24.540918,21.08755,22.385645,22.485254,22.484034
27.621729,21.931787,24.185694,24.472803,23.556055
21.693506,20.951075,25.529444,24.168116,23.317041
30.610254,24.225245,25.643457,26.383692,25.014063
29.259668,22.737207,28.533838,28.495752,24.889551
26.687647,21.62002,27.69668,26.637598,24.681543
26.955225,22.947412,26.347559,25.540918,23.57583
28.828272,22.826807,26.658838,26.867579,25.344385
21.87124,22.017725,22.629053,22.078272,21.068262
21.400293,22.179346,21.132227,20.811914,21.806787
21.944727,22.09585,20.521387,20.15005,23.927881
24.677149,22.0021,22.359522,22.250635,22.599024
18.556543,21.398584,18.265284,18.494532,20.671045
18.959131,20.307276,20.038477,19.863428,19.224756
19.900537,20.523829,18.491358,19.318506,20.413721
19.641993,20.373682,19.795313,19.50918,19.716944
20.131006,21.425196,19.837793,19.689356,21.381495
20.170313,21.521387,20.04922,20.46255,20.448877
19.976221,21.024073,19.3146,19.624414,19.831934
19.61123,20.538233,19.536036,20.084131,18.99331
19.76089,21.493067,19.590723,20.238428,19.540186
21.939844,20.931787,22.136377,22.27505,20.318506
22.516748,21.937647,23.009424,23.425928,22.670557
20.025293,20.742334,20.149805,20.435938,20.695948
20.36709,20.891748,21.503077,21.39712,20.379541
20.195948,19.508936,19.138575,19.33462,19.205957
18.762354,18.818018,19.258204,18.961573,19.587305
18.584375,19.46792,19.09878,18.491358,18.714258
19.89712,20.657618,20.27041,19.953272,20.535547
25.613916,21.03042,24.36416,23.358301,21.32998
17.58291,19.926416,18.280664,17.315577,18.799707
16.874414,18.04165,17.949366,17.75918,18.173243
20.169336,20.176416,19.565088,19.268457,20.316797
19.93838,19.450342,18.947657,19.498194,19.878809
18.626123,19.042383,18.839502,17.655664,18.034815
19.827051,18.301416,19.211817,18.684473,18.49502
20.21792,19.648584,20.1188,19.925928,18.501856
20.32046,19.540918,20.858301,20.61123,20.932764
19.940332,19.517725,20.934717,21.21377,20.803614
20.559961,19.109522,20.581202,19.43838,18.863428
19.697168,20.866846,20.002588,19.34707,20.519922
19.231104,20.040186,20.38711,20.988672,18.793604
18.738428,20.747461,19.007715,19.507715,20.019922
17.723047,18.505518,17.597803,17.675928,17.440088
19.373194,19.43252,19.760157,20.016504,18.761377
18.514551,20.13125,18.316553,18.753565,19.076075
17.160547,18.87417,16.558496,16.649073,17.682764
18.316309,19.820704,18.035303,17.848536,19.758692
17.97085,18.720362,18.344141,18.129541,19.404932
17.500147,18.48379,18.258448,17.722315,18.629786
16.969873,19.189112,17.43838,17.352686,19.201807
18.151758,21.028955,17.497705,17.286036,20.5104
19.599268,20.48794,18.619532,19.575586,21.095606
20.860254,20.4042,21.654688,20.977686,21.683985
15.692774,18.171534,16.638819,15.5221195,16.98379
16.543848,18.947168,17.183008,16.693018,18.220118
17.096582,19.128565,17.20547,16.707178,18.62295
13.871241,17.483301,14.666407,14.485987,15.895166
14.217676,16.79922,14.259668,14.178125,15.705713
13.683008,16.525293,14.871241,15.160547,16.1896
14.49209,17.477686,15.246729,15.497705,16.318995
14.949854,17.45376,15.006983,15.542627,16.618067
14.108057,17.900293,15.830957,16.238916,17.167871
13.37417,16.576563,14.244532,13.957178,15.462061
12.982813,16.894434,14.475,14.017969,14.993067
10.833399,15.060938,12.660303,12.774805,13.312403
10.308985,14.1800785,10.866846,10.814844,12.292139
11.419825,16.335108,12.220606,12.087305,14.284571
11.107325,15.45669,12.630518,12.306055,14.089991
10.817774,15.481348,11.333887,11.219873,13.067041
10.589258,14.356836,10.925684,12.149073,13.428614
11.475733,16.97671,12.520166,12.051661,15.991114
11.288965,15.536768,11.670069,11.306543,13.280909
15.010889,17.07998,15.722559,15.870264,16.481836
16.244287,17.4396,16.560694,16.710596,17.246485
13.718409,16.820215,14.366846,14.322657,16.156641
11.305811,16.072412,12.153467,11.8363285,14.808008
11.298487,16.117579,12.500391,12.391993,14.120752
14.035303,16.78335,14.636866,14.364649,15.983301
13.910303,17.09463,15.923731,15.799707,16.356348
11.572168,15.533594,12.308496,11.948633,14.055323
14.892969,17.249903,15.627832,15.325098,16.971827
11.741602,14.646631,12.450342,12.437891,13.250879
8.748438,13.421289,10.512354,10.19668,11.865625
8.288233,14.487452,9.724024,9.307764,12.246485
11.0394535,15.63125,12.489161,12.416895,14.837549
10.981104,15.083887,11.557764,11.180323,12.494532
9.113428,15.01333,10.957178,10.330469,13.731836
10.064844,14.87417,11.448389,11.135889,13.504541
10.406641,14.787989,12.404444,12.302393,13.064844
11.544092,15.0880375,13.181299,12.855127,14.174219
11.214502,14.900782,13.215967,13.427881,14.4127445
9.738428,14.79336,11.557276,11.559229,13.029444
8.186426,13.799707,9.244043,9.032373,11.873682
