"[299, 255]","[227, 248]","[287, 319]","[279, 328]","[230, 262]"
8.0255375,13.451075,10.080713,9.874903,12.353174
12.326563,15.339014,12.862696,12.427393,14.533106
6.8827147,11.3519535,7.2987304,6.9276366,9.444239
12.241114,14.218653,13.786036,13.602686,14.233789
13.776514,15.151514,13.454248,13.988428,15.01626
12.880762,15.043848,13.679834,13.610987,14.596338
10.050684,14.304834,6.846338,6.980127,9.014551
11.677393,14.442774,12.214014,11.852198,13.432032
11.57876,14.896143,12.569483,12.452051,13.780664
10.360987,11.608545,9.883448,8.542383,9.691065
4.7955565,10.418848,6.047998,5.876123,9.077539
5.310205,10.81753,6.0926757,5.9757323,9.1175785
2.2293944,10.399073,0.9164063,3.3260741,6.9117675
4.7611327,11.800196,5.903711,7.2379394,8.686182
5.898828,11.903955,7.535547,7.2367187,9.472071
4.827539,12.004541,5.5418944,4.9745116,8.819239
5.565576,11.9613285,6.214746,6.4259276,10.439112
11.924463,13.345118,12.122705,12.766504,13.319971
12.072168,13.142969,12.561426,12.6332035,13.175928
5.671045,10.896875,5.5868163,5.569238,8.187647
4.032129,9.290674,4.4125,4.3268065,7.027246
3.744287,9.311426,3.728662,3.870996,7.601953
3.4969726,9.065088,4.9708495,4.905908,7.360498
6.943506,13.4283695,3.5851073,3.4024901,11.671778
6.414697,11.19961,2.878076,2.5519042,9.555811
2.5907226,9.013086,3.3941894,3.4759765,6.567285
2.565332,8.819483,1.8719727,3.0211425,6.54458
9.096827,12.204004,5.5802245,6.14541,11.53628
10.03628,11.759424,8.233545,7.596826,10.36001
9.747217,12.351709,10.261377,10.307764,11.536768
7.8060546,11.118067,7.519922,7.173242,9.026514
4.938867,9.88125,5.654199,5.704004,7.8475585
6.7188964,11.996973,7.5155272,7.3443847,11.170069
10.717432,12.940577,11.568506,11.888086,12.463282
5.1861815,10.883692,5.8734374,5.657129,9.442041
6.726709,11.14419,7.875879,8.008448,9.948145
3.0658202,8.370264,4.5069823,4.0799804,6.3233886
3.8351073,11.5255375,4.7540526,4.6319823,10.607325
6.9327636,11.583399,5.2535644,6.3739257,10.680567
4.2503905,8.632715,4.1344237,3.8268065,7.0855956
1.2826172,7.9625487,1.1991211,1.3404785,5.9027343
0.50576174,5.832422,-0.029394532,-0.24960938,3.5416503
-0.48618165,5.805322,1.4293457,1.2477051,3.9205565
1.372461,5.90542,2.1986327,1.5370117,4.572412
1.8617188,7.105371,0.29091796,0.034570314,4.3827147
3.0094237,9.983057,5.2745605,6.1217284,9.2113285
6.409326,10.248438,8.190577,8.613428,9.85
7.431787,10.303125,8.321436,8.666895,9.6158695
5.936914,9.256739,6.416162,6.3441405,7.824121
7.68667,10.500879,8.764307,9.218897,10.185205
7.5580077,10.464991,8.524561,9.137598,9.797266
8.900293,10.742334,8.882227,9.37417,10.955225
7.8805175,11.06875,9.67251,9.288477,10.645411
5.484033,9.77334,6.3478026,6.065576,8.057032
8.723047,10.972803,9.630274,9.8849125,10.632959
8.568018,10.971582,9.106348,9.612207,10.915186
8.069483,11.507715,10.227198,9.67959,11.858789
8.109522,9.260157,9.694483,9.264063,8.604883
9.082422,11.240137,9.497217,9.093653,10.723047
6.9432616,9.785303,7.2069335,7.3077636,8.330957
8.6939945,10.903467,9.778955,9.895655,10.868067
4.438623,8.766504,5.690088,5.412744,6.855371
5.449365,10.203028,5.8978515,5.381006,8.848047
4.466699,8.410547,5.725488,5.2743163,6.895166
3.4181151,6.640039,4.428369,4.3148437,5.2921386
3.562158,8.996485,4.721826,4.7308593,6.735498
6.0335937,8.441309,4.825586,4.610254,7.6080565
8.023584,10.459375,8.108545,8.1019535,9.990381
10.10586,10.839014,10.30044,10.51333,11.0917
10.974512,11.448633,10.433008,10.118555,11.09292
9.233301,10.149561,9.132471,8.424952,8.709375
5.0626464,8.765284,5.8060546,5.185449,7.5887694
7.879785,10.186182,8.599024,8.434961,9.830225
3.3045897,7.509912,4.7921386,4.612695,5.720361
4.3253417,8.194971,5.5643554,5.1012206,6.931787
2.963037,7.5572753,5.438867,5.6200194,5.767236
4.2638183,9.059229,3.60708,4.1231933,5.73208
4.938623,7.9273925,4.6756835,4.5523925,6.532373
3.3741698,7.961572,4.15249,3.1720214,6.3299804
5.235742,8.485254,7.2169433,7.4017577,7.768945
7.8390136,10.11001,9.121973,8.6192875,10.115137
10.104151,10.788477,9.393702,9.790186,11.439112
10.890528,10.970118,10.555811,10.858789,11.754053
10.952784,10.7113285,11.396387,11.364893,11.6661625
4.650537,8.430323,6.2276855,5.938867,7.454004
6.3358397,8.287989,7.138574,7.2381835,8.360254
7.244531,8.643213,7.9588866,8.729395,9.069971
5.517236,8.520411,6.2811522,6.688867,8.1349125
5.912988,8.167383,6.147363,6.1358886,7.3402343
6.6168456,9.149073,7.4515624,6.778711,8.969141
9.586817,10.0846195,9.569971,8.979151,10.969873
9.497705,10.084375,10.1627445,9.99917,10.732813
9.51919,11.181055,10.228418,10.042871,11.282129
6.680078,8.367823,7.2186522,6.9779296,8.352198
4.767236,7.2906737,6.3353515,6.159082,6.247461
9.538233,10.477442,9.66128,8.92544,10.192286
10.491358,11.036768,10.768702,9.771143,10.728174
7.65542,9.064356,7.619043,7.648584,8.557032
5.954004,8.285547,6.8038573,7.279199,8.240137
7.2760253,8.024805,7.4588866,7.3045897,8.064844
11.437891,10.860987,10.449366,13.159571,11.368067
10.456446,9.8502445,9.547022,8.509424,10.110498
7.3565917,8.706202,7.0890136,6.5799804,8.851221
5.6830077,7.9811034,6.598535,6.4188476,7.6568847
5.1388183,7.494043,6.751367,6.9061522,7.666162
5.3526855,7.4933105,6.2191405,6.3092284,7.268457
3.6737304,8.46377,4.7503905,4.802881,6.813623
6.563623,8.395655,7.244043,7.0660644,7.6429687
6.692529,8.085596,5.4981933,5.365625,7.4339843
10.212549,9.387842,12.166407,11.981104,10.610743
8.750391,9.691553,10.962793,9.602686,10.194971
6.516748,7.8355956,5.926904,5.792627,7.6930175
7.6839843,9.832911,7.556543,7.4132323,9.542139
10.424463,10.431543,9.525049,9.815577,10.555811
6.2586913,7.486963,7.603662,7.4305663,7.569238
7.9276366,8.449121,8.094385,7.8861327,8.202295
7.324365,8.615381,7.872949,7.822656,7.8177733
8.13003,9.88833,9.63418,9.459864,10.601465
9.392237,10.286768,10.141748,9.721827,11.086084
15.417627,13.336084,16.886133,16.488428,17.01748
12.214502,10.139307,11.886133,10.562647,11.583887
9.176172,9.433008,9.866358,9.553125,9.878321
9.114405,9.514063,10.660791,9.933741,9.942774
10.167627,9.645655,10.886133,10.496729,9.410791
8.953028,10.557032,10.780909,10.587549,10.358789
7.6170897,9.5646,8.502344,8.748194,9.787256
8.6488285,10.000879,9.7425785,8.787256,9.433008
9.94961,9.646875,12.126123,11.746241,10.282618
8.468164,11.167383,10.762354,10.343164,10.694971
13.340967,11.412012,14.67251,14.628321,12.157129
15.043848,11.323877,16.791895,16.326807,14.535059
9.089502,10.946924,10.481348,9.821192,10.483057
5.6200194,6.8807616,6.6319823,6.3927245,6.2186522
6.024072,8.172754,6.673242,6.2342772,7.4356933
7.646631,8.695215,7.4291015,7.3773437,8.894922
9.726465,9.889551,10.560694,9.626856,11.110498
11.236963,10.320459,10.565821,11.391748,12.232325
13.934717,11.17959,12.867334,12.499659,11.531885
9.625635,9.7755375,11.630762,11.067774,9.568262
10.288965,9.494776,10.014307,10.151026,11.160547
14.041895,9.538477,7.65249,7.678125,8.085108
9.201075,9.494043,10.114893,10.536036,11.081934
10.3189945,9.832911,11.393457,11.339991,11.082422
9.998438,10.803125,11.3832035,11.2269535,10.665674
11.576563,10.7096195,13.215723,12.867334,13.744532
12.399317,10.932276,14.555567,14.126612,13.302393
11.081934,11.39419,10.945215,11.472803,11.294825
15.771631,12.342432,15.049463,14.808741,14.265528
19.690332,14.100733,14.844629,14.84878,15.135889
13.058496,12.56753,13.654444,12.795069,12.060938
10.866602,10.954248,12.544825,12.120264,12.927881
13.018213,11.091944,10.87417,10.789209,11.652979
11.526514,10.502588,10.83584,10.643946,11.592432
9.946192,10.749903,11.146143,10.662012,12.052881
10.020166,10.627588,11.421534,11.212061,12.111719
13.596094,11.279444,12.399317,12.354395,12.632471
17.127344,11.800928,14.111475,15.031885,14.10293
17.797754,12.150293,15.29336,14.0099125,15.1974125
15.029444,12.081934,13.961817,13.676905,12.088526
15.225733,13.863916,16.43374,16.487452,17.727442
18.701807,14.307764,18.016504,18.002832,18.394434
21.327051,15.149805,20.630274,21.64712,20.503809
20.252832,15.38833,18.592432,18.080957,15.150782
22.178125,16.863672,21.312159,21.490381,21.881495
25.130274,20.709131,26.332666,26.12124,26.40713
20.567774,17.675196,22.0292,22.203028,17.6625
13.479883,12.997461,13.337305,13.281885,13.942286
13.430323,13.180323,13.767725,13.1314945,14.219873
14.579004,13.015039,15.964014,15.391016,15.1158695
9.860254,13.204737,14.417383,14.878565,12.475977
17.835108,17.075342,18.65835,19.00796,18.32876
14.191309,15.401026,16.369287,16.393457,16.558496
16.340235,13.560694,16.483057,15.557032,14.808741
17.66836,14.644434,16.61172,16.069483,17.01089
14.310938,13.351465,15.446192,14.322901,14.97793
15.333887,14.2582035,13.919336,14.331202,15.06045
15.067774,13.6349125,15.334375,15.631983,13.617823
16.87588,14.044092,17.721338,17.07461,17.912012
20.388575,16.268213,20.69839,20.561182,19.226221
21.314112,18.641993,22.310205,21.468409,19.961084
23.501612,19.304834,23.282618,22.973536,19.755518
26.358301,20.849512,25.9125,25.017237,23.326563
27.764551,20.170069,26.052637,26.765528,24.831934
24.22793,18.681055,20.690332,18.887598,18.964258
15.955469,14.377344,14.231348,14.26211,13.777979
13.249659,13.506739,13.195215,13.385157,13.745752
15.197657,13.828516,16.047022,16.124903,15.046778
16.86294,13.860743,16.495508,16.807276,16.263819
18.621485,14.907618,18.515528,19.17251,17.638819
20.055323,16.013819,19.47207,18.611963,18.453516
22.039454,17.603907,22.93838,22.47915,18.987207
22.7604,18.872461,23.481348,22.938868,22.671045
22.104395,17.931055,21.367823,21.620996,19.677637
23.892237,19.820215,23.65957,23.584375,24.380762
22.176416,19.452784,21.172998,20.332178,20.010157
17.446436,18.455957,16.95498,17.07046,17.30752
15.987696,16.19253,16.974756,17.185694,15.653467
18.911768,16.565577,19.214746,19.872217,17.035303
18.513575,18.224268,19.47793,19.376368,20.416895
22.850977,19.42422,21.849268,22.28213,18.802393
22.305079,21.58999,23.695948,24.497461,23.931055
23.344873,19.921045,23.66421,23.51211,19.263575
22.188623,19.951075,22.491602,22.219385,21.980616
25.839014,20.117579,20.7521,21.18545,22.001856
23.988672,19.578272,21.983301,21.804834,22.661768
17.043116,18.209131,17.450098,17.276026,18.545069
16.154932,18.02627,17.270899,17.099756,18.114405
19.527979,18.046045,19.484766,19.602198,17.100245
20.72793,19.550196,21.777735,21.87295,21.482569
24.262598,21.412989,23.438868,23.276026,23.08291
27.573633,21.06875,23.765772,23.6813,24.173975
21.201075,20.577051,20.21377,20.336817,18.742823
17.57583,17.693995,18.33291,18.29751,18.871973
18.254053,17.942041,18.634668,18.349024,17.413721
17.969141,18.185694,18.269678,18.219873,17.694971
14.923975,18.167871,16.696924,17.167627,17.129297
16.415186,16.359766,16.974024,17.48916,16.984766
18.819483,16.533838,20.082666,20.143213,16.92959
19.240381,17.902002,17.177393,17.131739,17.990137
20.809717,18.397364,20.958399,20.647608,21.778223
21.683496,19.261133,20.387598,20.97671,19.790674
19.519922,18.799952,17.025782,18.235254,19.420801
17.027002,18.401026,19.49209,19.303125,19.037745
19.147364,18.093409,19.378565,19.103418,19.177637
20.100489,18.18545,20.39126,19.930323,20.088282
19.110498,18.527979,18.259912,18.73916,19.450098
20.459131,18.43374,21.202784,22.407618,20.03335
23.745752,19.49331,22.42959,23.001123,21.88003
21.288965,19.293848,20.205957,20.175684,20.311182
18.126612,18.55044,17.829248,17.800684,19.91714
17.135645,17.08462,17.447168,17.402735,17.17251
20.213037,18.119532,20.599756,20.34292,17.768702
23.18374,19.880274,23.67129,24.613184,19.744043
25.438623,21.642237,25.02212,25.211817,22.930567
26.950098,22.27749,26.961329,27.787989,26.304834
27.398096,23.883936,28.34292,28.069971,26.287256
28.113916,22.417383,28.420313,29.253077,22.360743
25.937647,22.989405,26.676905,26.676416,23.325586
25.772364,23.140772,25.284327,25.759912,25.982325
21.112452,21.051905,20.389795,20.108545,20.042383
23.394678,19.042627,22.993555,23.695215,19.869776
19.10171,19.354395,20.447657,20.263086,20.223536
22.246973,19.120996,22.684229,23.01504,19.338037
22.51504,20.104395,23.733057,23.952784,20.17129
24.373194,20.662989,25.68545,25.686426,23.078028
24.732325,20.942774,27.494043,27.285547,20.26089
24.088526,21.562647,24.126368,24.480127,22.6813
25.476954,21.126123,27.245264,26.624659,21.189112
21.767237,21.560694,21.448877,21.202051,21.275537
21.943995,18.718164,22.802881,22.05752,18.674952
21.421778,20.455713,21.884912,22.160059,20.399805
24.133448,21.639551,25.819483,26.034815,21.980616
26.395166,21.999659,27.787745,27.782862,23.557276
26.890528,24.252344,28.740137,29.751612,26.724756
23.864893,23.485498,27.125147,29.197168,23.728907
23.469385,23.426905,21.774073,22.91958,23.620264
21.790186,21.436426,21.620996,21.638819,20.086084
24.459131,22.113672,25.321192,25.384668,23.09585
25.396387,21.894922,25.18667,24.970362,23.623926
26.934229,22.131006,27.609522,26.571192,22.137598
27.271387,22.222315,28.059229,27.908106,22.646631
27.969141,21.67666,28.597559,28.38003,26.16836
28.276758,23.602442,27.417383,26.72793,23.53042
27.207178,23.214746,27.571436,27.98916,26.683008
25.894434,23.82168,28.11831,28.971338,27.565332
24.619776,24.811914,26.585108,28.911524,24.127588
27.138086,21.80459,26.478662,26.163721,25.231836
26.727198,20.218653,25.537256,25.11123,20.754541
23.759912,20.101954,22.51089,22.076807,21.201319
22.874659,21.288477,23.660303,23.036524,23.027979
22.426416,21.762354,24.361475,24.062891,23.5375
24.68667,22.755518,25.536768,26.132471,24.216211
26.078028,23.65713,27.142237,27.865137,24.234766
22.463526,22.829004,22.141748,23.231104,23.7792
28.150537,25.92129,27.787012,28.196436,31.032373
29.070704,22.479395,29.282862,30.151514,29.403467
30.054346,21.677149,29.39248,30.045313,24.76211
28.024805,24.583399,26.65542,28.454248,25.344385
28.033838,22.737696,27.897852,28.668604,25.132715
24.65249,20.115137,21.134668,18.907618,21.19253
24.884912,21.389063,24.232813,24.316553,23.749903
24.623438,21.178614,23.268213,23.734522,22.127588
25.187647,21.241602,23.317041,23.768457,21.278955
27.177881,21.693018,25.45962,25.767725,25.423487
28.480616,24.125391,29.031153,29.208643,29.086084
27.908594,22.492579,26.026026,26.32461,23.379053
23.19839,20.978418,20.954248,21.27749,20.56582
24.04629,21.355616,21.687159,21.470362,22.019434
18.33462,19.631495,18.939112,19.370752,19.519678
15.8033695,18.51626,17.648096,17.039454,18.641748
16.17422,18.95791,18.315577,18.024317,18.324854
18.304346,19.953272,19.059229,19.164698,20.503565
17.055567,18.7875,17.92837,17.654688,17.43838
18.220362,19.227198,18.036768,18.299463,18.44375
16.486475,19.580957,18.96377,18.097803,17.761621
19.249414,19.44668,19.47085,20.020655,21.74209
17.130274,19.366602,18.58999,18.228418,18.472559
14.150049,17.190332,14.6627445,13.869532,16.069239
15.050196,17.636377,14.687647,14.34878,16.603907
13.866846,15.639795,13.788233,13.812891,14.459375
12.772608,16.28335,14.446924,14.380762,15.129053
13.844385,18.046534,13.6175785,13.339991,16.468653
12.892725,16.138086,13.836573,13.554346,15.012842
10.346338,15.776514,11.570215,10.738672,13.017237
12.537989,15.878565,13.657618,13.100733,14.628321
12.725489,15.434473,13.050684,12.609278,15.129297
17.2875,18.740625,16.294092,15.754053,18.026758
15.926416,17.227442,16.173487,15.927637,15.625879
18.113672,19.078272,18.46377,17.953516,19.070704
13.366114,17.041895,14.923975,14.502588,15.748926
11.297266,17.131495,11.811426,11.020411,14.642969
15.515772,19.165186,15.115137,14.424219,18.931055
19.349268,18.764795,20.188135,18.915186,18.824366
17.347315,18.254786,16.898584,16.97915,18.169336
14.100733,16.333399,13.802637,13.696924,15.24209
13.36001,16.073633,12.818262,13.087793,14.6974125
13.196924,15.860987,13.829737,13.183741,14.796045
12.673975,16.269434,14.434473,13.785303,14.714991
14.558252,15.778711,14.57583,13.702784,15.189844
13.499659,15.707422,14.11001,14.01919,14.169092
14.621485,16.897608,15.773096,15.089991,15.812647
12.977442,16.220362,13.661036,13.309473,14.912256
12.608789,15.942286,14.0646,13.560205,14.745508
13.123682,16.160303,14.416407,14.3067875,15.555567
12.025293,15.578516,10.5707035,10.618799,12.857813
7.5128417,11.458643,7.1476073,7.2662597,9.639795
7.0892577,12.502832,7.0545897,7.2992187,10.244043
8.304102,13.382471,9.620752,9.056055,11.231348
9.350733,14.733789,11.632715,11.916407,13.440332
11.499414,14.663233,12.680567,12.469629,14.221582
10.777246,14.847803,12.130274,12.351465,14.005762
13.617823,15.663477,14.010157,15.2113285,16.05044
10.604151,15.002832,12.2113285,12.772852,13.642237
11.231836,15.364649,12.944971,13.133448,15.285547
11.7721195,14.523584,13.433252,13.34585,13.972071
11.754786,15.1471195,12.579248,12.48208,14.165186
11.152002,15.153467,12.099512,12.116114,13.552149
12.9630375,15.676172,14.328272,14.5724125,15.505762
13.814356,16.286036,14.314112,13.392725,15.678125
11.01919,14.432764,12.288965,12.077784,13.634668
10.324854,13.985254,11.380518,10.875391,12.848291
10.6627445,13.798731,11.405664,13.19668,13.785791
14.894922,14.705957,13.183985,13.507471,13.754786
14.412012,15.200342,12.146631,12.515772,15.151514
10.863428,14.832422,12.495996,12.387354,10.991114
8.5724125,12.109766,11.122705,10.807276,11.007471
11.089014,14.702295,11.051661,11.258448,13.062891
11.913965,14.229395,12.094141,12.120264,12.518457
9.750635,14.169336,10.902735,10.479639,12.658594
7.037256,11.541407,8.249659,8.017725,9.746485
5.77041,11.407129,5.3126464,5.202783,9.804102
6.238672,12.071924,7.475244,7.236963,10.539942
14.874659,15.401026,14.504541,14.267969,15.512598
15.024561,15.451807,14.760645,14.916651,15.541407
15.243311,16.001612,16.58584,16.141748,15.835596
14.637842,15.661036,14.683985,14.485743,15.234034
8.80459,13.18667,9.356104,9.097071,10.942774
9.688868,14.826319,11.3417,9.837793,14.357325
13.336817,14.9161625,14.623926,14.401514,14.916895
12.899317,15.063135,13.525049,13.768213,14.715479
