"[299, 255]","[227, 248]","[287, 319]","[279, 328]","[230, 262]"
11.332178,14.922754,11.953272,11.477686,13.908838
11.370264,14.442286,12.139795,12.079981,14.069483
10.15835,13.722071,11.232813,10.902491,12.327539
10.047998,14.226221,10.900293,10.77334,12.723047
9.724512,13.498682,10.999903,10.7167,12.563135
8.7582035,12.827784,9.614405,9.145655,11.780909
11.276758,14.1019535,11.372705,10.995264,12.845362
8.533838,12.233789,9.590723,9.231836,10.332422
9.058741,12.827051,10.301661,10.218164,11.474756
8.201075,12.376856,9.708399,9.424463,10.949121
11.705469,14.647364,12.685205,12.676172,13.760157
10.832666,13.244532,10.396631,9.75625,11.114649
8.302637,12.377832,9.599268,9.639551,10.945459
7.541406,12.563135,8.258936,8.165674,10.837549
7.334863,12.209131,7.3612304,7.5313964,10.703516
10.135401,13.219385,8.981348,8.988184,11.300196
11.244776,13.656885,10.120264,9.851465,11.197901
12.362452,14.282373,12.065577,11.652002,13.508936
10.455225,13.667139,11.063135,10.805811,12.545557
9.356836,12.552149,9.41958,8.748926,9.80752
6.680078,10.933741,7.959375,7.739404,9.432764
6.301416,11.548487,6.1671386,6.3478026,10.274073
6.4964843,12.518946,6.9132323,7.236963,9.994532
7.2345214,11.649561,8.052637,7.9742675,9.874659
5.826074,11.43252,5.2228026,4.4012694,9.69668
5.7606444,13.704737,5.161035,5.947412,13.169092
4.6844726,9.340479,5.372949,4.9603515,8.39126
3.9024901,9.663721,2.6666503,2.740625,8.33169
3.9774413,10.432764,5.049463,4.4312987,8.447901
8.027979,12.8971195,8.297754,8.219385,12.18545
9.872705,12.196924,9.735254,8.91836,10.663233
8.090235,11.529932,9.3346195,9.158594,10.210596
5.3473144,11.32461,6.786035,6.747705,7.1688476
4.3790526,10.788721,6.6078124,6.582422,6.759912
3.6112304,7.0333495,6.586328,6.6288085,6.439111
7.459131,11.782862,6.5370116,6.4833007,10.644678
9.045557,12.310938,9.636377,9.271875,11.840967
8.33169,12.018213,8.992334,8.645411,10.704737
7.4779296,11.362696,8.031153,8.15127,9.427393
5.1407714,9.494776,2.8580565,3.086328,8.124659
1.43667,8.168604,1.3011719,1.770166,6.7801757
1.2760254,6.8077636,-0.0328125,0.90834963,5.674707
2.615625,5.9273925,2.964746,2.02041,4.947412
2.0631347,5.3055663,3.459619,2.9830565,4.9381347
1.4852539,5.683252,1.5262696,0.94399416,4.542627
-0.18125,6.4947753,0.33120117,0.8172852,4.5714355
0.22719726,5.4964843,1.2008301,0.89272463,3.7032714
6.546045,12.057032,3.7018065,2.7555175,10.998194
8.390528,11.873682,7.834863,7.022119,11.008936
6.69082,10.284571,7.273584,7.176416,9.181055
8.541651,12.0375,8.175684,6.725244,11.442041
9.193506,11.810694,9.538233,8.37417,11.133448
12.366358,13.46792,11.928614,11.635401,13.2096195
5.864404,10.026026,6.3128905,6.1361327,8.224756
5.4706054,9.043604,4.1515136,4.2069335,7.95083
4.2174315,8.904444,4.3648925,3.63833,7.37417
5.6390624,8.649073,6.079248,4.855127,7.591211
4.701074,11.005518,6.4605956,6.82583,9.552881
8.708155,11.276514,9.292139,9.492334,10.593897
10.699854,11.657129,11.070948,11.079737,12.008936
8.960352,11.706202,11.385157,10.719385,11.503565
8.919825,11.771143,10.4396,10.224024,11.726709
7.5301757,10.8502445,8.41836,8.555323,9.856104
5.4305663,10.562159,6.5736327,7.32583,9.348291
8.223291,10.8832035,9.111475,9.064844,10.407129
9.513575,11.360254,10.156885,9.762842,11.07168
8.204248,11.352442,8.366846,7.813379,10.614405
6.2760253,10.614649,7.245996,7.100244,9.506006
4.8338866,9.749903,4.193506,4.1007323,8.081446
4.00332,8.608789,4.2469726,4.105371,6.680078
3.8973632,7.582422,4.881006,5.1495605,6.608545
3.9034667,8.652002,5.5580077,5.938623,8.009668
7.345361,9.632959,8.415674,8.29043,9.663233
6.9845214,10.198145,7.730371,7.827783,9.711084
9.05459,11.048487,9.26211,9.04751,10.416895
8.69668,11.431299,10.170801,9.507715,11.898584
8.579737,11.346582,9.639551,10.349268,10.654932
8.602442,10.88833,10.061914,9.781885,10.972803
8.301905,10.701075,9.276758,9.514063,10.237207
8.181055,10.533106,9.681543,9.369532,10.899317
7.9046874,11.170801,9.435694,9.078516,10.267725
9.7755375,11.807764,10.562647,10.097071,11.595606
10.587305,12.663477,10.664209,9.983057,12.126856
8.4474125,10.645411,8.658838,8.278467,9.931055
6.7345214,10.31753,9.145655,8.571192,9.554346
7.552881,10.752588,8.769922,9.131983,10.255518
7.4913573,11.038233,10.534327,10.052149,10.617823
8.86294,10.29458,10.017237,9.78335,10.504053
8.325342,10.207911,9.461817,9.119043,9.921045
6.15249,9.495996,7.5475097,8.0533695,9.49502
6.9515624,10.404688,7.1458983,6.971338,8.2721195
6.819238,9.785303,7.9273925,8.42251,8.375635
6.494287,10.377588,7.2623534,6.8565917,9.439844
9.231836,10.012354,9.338526,9.26333,10.514063
7.8460937,11.485254,9.288965,9.06753,11.223047
9.60708,11.006739,9.907618,10.04043,10.808985
7.928369,10.787989,8.984278,8.494776,10.21084
6.3055663,10.478907,7.98208,7.7276855,8.979883
8.681299,11.202539,9.816065,9.646387,10.874903
9.473047,11.538965,11.198633,11.001368,12.004541
9.869776,11.478174,10.676905,10.361475,10.942774
12.897608,12.802881,12.354151,12.174707,13.271387
12.554834,12.3988285,12.572168,14.297998,13.136377
14.491846,12.859522,13.497705,13.397852,14.540918
9.589014,11.117823,11.736963,11.649317,10.622705
11.101709,11.758692,11.489161,11.148096,11.248926
11.472315,12.511133,12.554102,12.597803,14.453028
12.447168,12.066797,13.597803,14.043848,13.873194
11.940088,11.435938,11.582178,11.137354,11.325586
8.351709,10.986963,11.111231,11.345118,10.146143
12.738184,12.672266,13.100977,12.566553,13.63125
15.974756,13.617334,15.546534,14.674219,12.993555
12.410547,12.779932,12.754786,12.670801,13.031885
10.879297,11.701075,11.583887,11.205225,10.907862
10.672022,12.402246,12.872461,12.360498,13.209864
8.554834,10.962061,9.226709,9.35293,10.65835
11.364405,10.91958,10.878321,10.806543,11.419825
12.688379,11.601709,10.480127,9.559229,12.719873
10.150293,11.572657,8.834864,8.063135,10.093897
8.764063,11.862452,9.891748,8.428858,10.243799
6.5416503,9.482813,8.559229,8.099512,9.359278
9.753809,9.631006,10.737207,10.641993,9.362207
7.786035,10.612696,8.013575,8.389551,9.558252
8.369043,10.035059,9.376612,9.139551,9.942041
8.63125,11.403955,9.289942,8.536036,10.816553
8.403467,10.801172,9.507227,9.168604,10.558985
7.016992,11.026026,9.543604,9.185205,10.454248
11.289209,11.741114,10.074854,9.9667,13.007715
13.253321,12.511866,13.621729,13.895655,14.589502
19.548975,13.983057,20.20669,19.70083,17.616114
20.964258,16.744287,21.88125,21.397364,21.29336
13.451075,12.422266,12.69961,12.936426,12.30044
11.502832,11.645899,13.451075,13.2096195,13.434961
14.721827,12.100489,13.799463,14.094873,13.446924
14.6036625,12.296778,13.270899,13.947657,13.811182
10.034571,11.885401,11.090235,10.934717,11.564356
7.985742,9.900782,9.1939945,10.091455,8.416895
10.656641,11.926172,11.090235,11.691309,12.331934
9.792871,11.640772,10.2911625,10.069483,11.277491
9.967676,11.233789,10.442774,10.186182,11.674952
10.403467,12.264063,11.942774,12.2894535,13.6
11.941309,12.066309,11.0724125,11.4474125,11.569727
10.601465,12.022852,12.425196,11.8207035,11.945215
11.031153,11.119043,9.913965,9.630274,11.141748
9.910059,10.488916,12.327051,11.428125,12.080957
8.475489,10.426416,10.657618,10.243799,11.160547
10.913965,10.917139,11.226709,10.989161,10.761377
10.843897,13.363184,10.265039,10.282129,13.250147
13.19375,13.156397,11.029932,11.887354,14.366114
13.91958,12.762354,14.27334,13.612452,14.746485
15.769678,13.56753,13.627588,13.374903,13.457666
21.558252,14.3363285,20.89956,20.49502,18.989405
24.453028,13.368799,25.139307,24.630518,20.842432
18.677881,14.674463,18.557032,17.54629,15.016504
13.777735,13.04458,15.458643,14.994776,14.3189945
14.362452,13.718897,14.203028,13.9439945,15.712793
13.22378,12.6627445,14.276758,14.649073,14.147852
8.750147,12.025782,9.910791,9.379541,11.05044
11.368555,12.379541,13.415918,13.53042,13.199366
12.513819,12.194727,14.816065,13.813868,12.956934
14.180323,12.950586,15.840235,15.551661,13.793848
16.64956,14.087305,17.639795,17.845118,16.627344
18.393457,16.481104,19.886377,20.342432,17.995264
17.420557,17.001123,18.31338,17.511133,17.042383
15.458399,15.812647,16.00088,15.801905,15.884424
15.39126,16.183496,16.478907,16.675196,16.652735
18.86416,16.984766,18.497217,18.120996,18.117823
13.753809,16.009912,14.673975,14.689112,15.808496
15.350733,16.667627,16.123682,15.636866,16.21255
12.354395,15.72378,12.809717,12.091455,14.7755375
13.38418,13.972803,12.638086,12.411768,13.827539
12.458399,12.6192875,12.951075,12.421289,12.43545
12.544825,12.527491,13.083155,12.439112,12.387354
14.717432,13.518946,14.108301,13.282618,14.829981
14.1644535,15.911768,15.781153,16.289454,15.989649
16.44961,16.058008,17.503565,18.217676,17.784327
17.86587,15.788233,18.924707,18.996973,18.231348
12.335108,14.061426,17.375635,15.889551,13.167383
16.092188,14.701075,16.258936,17.014551,14.346582
16.47207,16.596827,16.57046,16.119043,16.77749
16.809473,15.714991,14.943018,14.870752,15.639307
17.752344,17.414942,17.68081,18.20254,17.468653
18.301416,15.27334,16.41665,15.6957035,18.26797
21.783594,17.778223,21.357813,20.932764,18.741846
20.005518,18.603662,20.433008,22.213282,18.326563
15.104883,17.271143,18.30752,18.399805,16.151026
18.929346,17.329004,18.78213,17.952784,17.629053
15.623926,16.922998,16.619287,15.770655,17.634424
14.23208,14.9925785,15.459375,15.824366,14.529688
12.6817875,14.3033695,13.571436,13.808252,14.996241
15.937403,14.605616,16.617334,16.433496,15.170069
16.853418,15.585352,19.680567,19.066797,15.893457
20.369776,17.280176,19.46084,20.037012,20.169825
24.273096,17.29336,21.57168,22.297022,20.29165
25.313135,17.506006,22.774805,23.246973,22.182032
26.464502,20.033838,25.392725,25.302393,21.263086
22.590723,21.104395,21.605371,22.490381,21.878077
21.661524,19.788233,22.83706,22.947412,19.921534
23.500391,21.90542,23.848536,25.290918,22.760157
24.028955,22.250147,23.547266,26.20791,22.741114
24.733057,22.555079,23.774805,26.240137,23.24209
26.42666,23.012354,27.540918,28.837793,24.228662
28.830225,24.468897,30.0563,30.449854,27.707178
28.021631,24.818506,27.544336,30.160791,28.444727
26.796045,24.078028,26.291895,29.719873,27.309961
26.598536,25.675196,25.634912,28.687647,26.326807
25.437891,24.526514,28.35293,28.754053,24.308496
22.056543,22.762842,23.696924,23.248194,22.415918
20.6354,22.011866,21.366358,22.247461,21.211573
21.961329,21.983057,22.330713,23.145899,20.891748
22.359522,22.21084,22.518946,23.348291,24.206446
21.17422,22.67373,20.669336,22.187647,22.48379
23.189844,22.483301,24.339746,24.77749,21.8229
23.1979,22.486963,23.514307,22.922754,23.012842
22.554102,22.060938,23.89956,23.57168,23.283594
18.611963,21.176416,19.499903,20.09585,22.151026
18.934717,19.856104,20.55874,19.852686,20.19546
18.146875,19.948877,20.755762,20.536524,20.875147
20.100977,19.855616,20.883936,20.29165,19.430567
21.533594,21.659082,19.435938,19.898829,23.530664
21.87124,21.318995,21.207422,21.102686,22.75503
20.194971,21.344385,22.286036,23.050196,20.937647
22.856348,21.1354,24.451319,23.912012,23.728907
25.146875,21.264795,23.91665,22.60708,22.586817
20.562891,21.282618,23.635645,22.668604,23.363916
18.396143,20.441553,17.2167,17.417627,20.274805
15.15127,19.92666,16.18252,14.690821,19.189112
18.629541,20.352686,20.724512,19.831934,20.160059
21.178858,20.510645,21.620752,20.891993,21.16665
25.008692,20.640528,24.307032,24.83755,22.67959
19.869043,20.829493,21.917871,21.137354,20.85
22.946924,20.819727,21.014063,21.494776,22.137842
20.764063,20.994287,22.11001,21.46499,21.697657
24.31875,21.049707,21.46255,20.350245,23.366358
21.05874,21.146875,21.809229,23.04629,23.47671
22.030176,20.957666,21.892725,21.47378,22.506739
20.700098,20.173975,21.867579,21.159327,20.79751
22.807764,20.957666,22.225977,22.356592,20.520655
19.748926,20.682032,21.348536,20.665186,20.416407
14.936426,20.61587,17.1271,16.420801,17.836084
16.386377,20.14126,17.697168,16.656153,19.775537
17.770899,19.389795,16.225245,15.982569,20.026514
19.833155,19.699121,20.376123,19.550928,19.833155
18.266504,19.067286,18.718897,18.75796,19.391016
18.280909,20.078516,18.879297,19.15005,20.755274
23.91421,20.569483,23.060938,22.885645,23.526758
24.163477,20.531885,21.420069,21.435205,20.883936
22.65005,20.947168,23.476221,22.69961,22.54458
23.104883,20.921778,21.838282,21.4042,21.455957
27.575098,23.054346,26.169336,25.369287,23.876368
28.971094,23.170069,25.084375,26.722315,28.0729
25.59878,21.550928,23.565088,24.741846,23.812403
22.90127,21.47915,23.577295,22.87124,21.556543
22.727198,20.857325,23.380518,22.974024,21.10171
24.42251,21.86831,24.552881,24.291407,21.722803
25.58462,21.217676,24.96499,24.69546,24.527002
23.48916,21.624414,20.955957,20.54458,21.85586
24.296534,21.639551,24.386621,24.094873,20.722803
23.53457,21.470362,25.118067,25.81753,21.602442
25.04873,21.593897,25.351954,23.454493,22.43374
24.78213,21.534815,24.071924,23.630518,22.871729
24.122461,22.0292,24.776514,23.799952,22.079004
25.336573,23.489893,25.81338,24.965479,24.78628
28.144922,24.90249,26.755762,26.207422,26.545313
29.114893,25.289698,25.801905,22.248926,26.018702
22.251856,23.123438,22.554346,22.490625,22.95498
20.47964,21.099512,21.505762,21.1354,20.849268
19.889307,20.927149,21.206202,20.869776,20.615137
20.43081,21.288477,21.046778,21.310205,20.62417
22.775537,22.368555,21.281641,22.35293,24.243067
24.480127,22.013086,23.923487,24.216455,24.314356
19.30044,21.492823,19.736963,19.54458,22.369287
19.887354,19.64126,20.164698,19.62832,20.076319
18.933985,19.528711,19.00503,18.493555,19.114405
19.552393,20.568506,20.917627,20.14419,20.55337
18.80874,21.19082,21.684961,20.969385,21.223047
20.739405,21.508936,20.880762,19.917383,22.745996
22.150782,21.958399,22.509424,22.769922,24.241602
22.17959,21.977686,22.419092,22.281641,21.308496
22.94546,21.981104,23.258204,22.442041,24.507715
18.662989,21.017237,19.31875,18.586817,20.218653
18.429834,19.279932,19.082666,18.977442,19.255518
19.839746,20.454737,19.272364,19.552393,20.697168
19.355371,20.723047,19.643702,18.974268,21.066065
17.257227,19.375147,17.836329,17.790186,19.033106
19.071924,20.395655,19.296045,18.977442,19.856104
19.95498,20.671534,20.903223,20.685205,22.577295
21.758692,21.757227,22.445704,22.022852,22.52456
22.2875,21.309473,22.351954,22.458155,22.688135
24.772364,22.882471,25.442774,25.326807,25.993067
26.28335,22.47915,25.56338,24.956202,26.01089
26.797998,21.714258,24.863428,25.208155,24.266016
27.715235,22.85293,25.318995,24.497461,25.530176
25.433252,21.521631,21.14956,22.379541,22.326807
26.816797,21.444971,26.508692,25.863428,23.685938
23.084864,21.441065,21.974024,22.725245,22.582422
20.837305,21.140284,20.6625,20.160791,21.29629
17.691309,20.359278,18.345606,18.148584,20.318506
17.116358,19.809229,17.45376,17.363428,19.226954
16.682032,18.196192,16.54043,16.592676,17.866114
15.491358,18.774317,17.35415,17.681543,19.013086
19.353662,19.466944,20.4479,20.224024,20.704493
19.776758,19.833399,19.361475,18.987452,21.018457
21.590479,20.952784,20.293848,20.668116,22.298487
22.206202,20.544336,20.256739,21.00625,21.507471
21.307276,20.106592,20.623194,21.019678,20.983057
19.060694,20.120508,18.781397,18.806787,20.352442
17.874414,19.951075,17.863184,17.683008,19.178858
17.454737,19.46377,18.11172,17.641993,18.881006
17.336817,19.523096,17.908594,17.33999,18.846338
15.95376,19.28213,15.6271,15.430811,17.469385
13.04336,15.84585,13.16128,12.814844,14.85
13.646143,16.444239,14.079981,14.214991,15.9127445
14.146631,16.407618,14.962061,14.634668,15.798975
15.237696,17.561426,15.354883,15.658594,16.397608
14.396631,16.247705,15.399073,15.143213,16.027002
14.907618,18.557764,14.917383,15.21084,17.145899
14.769434,18.33462,14.905176,14.697657,15.7564945
14.694727,18.104883,14.542871,14.3814945,16.78335
14.879297,18.27041,16.463037,16.093653,17.636621
15.84878,17.963282,17.386621,17.964014,18.335108
16.282862,18.39419,16.730127,17.593164,18.099512
16.738428,18.214502,16.567286,16.934961,17.684229
17.218653,18.883204,17.799463,17.61123,18.42422
17.013575,18.223536,15.707911,15.535547,17.1979
13.882959,17.11587,14.909327,14.844141,16.168848
13.136133,16.346582,14.047754,13.891993,15.4786625
13.051416,16.52456,14.480127,14.631006,15.344385
13.67959,17.391993,15.393457,14.978174,16.568506
9.864405,15.196192,9.827295,9.889307,12.5707035
9.163965,15.065088,9.707911,10.11294,13.620508
12.929102,17.104395,15.105127,15.166895,15.673243
13.720362,17.002344,16.294336,15.654688,16.721094
15.563623,17.419092,16.202051,16.781397,17.389795
13.08169,16.837793,13.986231,13.710108,15.211084
13.0238285,16.78628,13.892237,13.581446,15.427881
14.35708,17.522364,16.206446,16.246485,16.695215
15.227686,17.673243,16.51748,16.351954,16.974512
11.437647,15.6542,12.527491,12.2877445,13.970606
12.993799,16.44839,14.102442,13.939356,15.042383
15.377588,17.3417,15.262842,15.046045,16.830957
15.657618,17.53213,15.782618,15.772852,16.840479
11.983545,16.238916,12.222315,12.275293,14.183985
8.079004,13.37417,8.384668,8.168116,11.094629
6.183252,13.310694,8.084131,7.8392577,10.674219
6.7884765,12.321192,6.1183105,6.172998,11.075342
6.4171386,11.162012,7.5731444,6.7188964,9.246241
7.7674804,10.671045,8.753321,8.533838,9.258936
8.044825,15.674463,8.299952,7.6668944,14.955957
13.353418,15.858545,12.603174,12.670069,15.18252
9.506006,13.900782,11.153711,10.906153,12.252832
14.273096,16.06338,14.557276,15.040918,15.6939945
15.630762,16.95547,15.692774,16.444971,16.835596
8.965479,12.470606,8.71792,8.328516,10.704981
6.991113,12.021387,8.014063,7.6673827,10.04043
8.636621,15.16958,7.044824,7.440088,12.367823
12.33877,15.823633,12.835596,12.568018,14.5724125
12.589014,14.952784,11.908838,11.875391,13.808496
10.163721,14.067286,10.721338,10.087793,12.902246
7.4520507,11.391504,7.7311034,7.4381347,10.014795
