"[299, 255]","[227, 248]","[287, 319]","[279, 328]","[230, 262]"
7.5660644,12.990137,6.1114745,5.812158,9.925684
8.37295,14.963282,7.818506,8.000879,14.001123
10.941797,14.97085,12.517969,11.989893,14.34878
10.084131,14.669336,12.196436,11.839746,13.778467
6.802881,13.198389,9.773584,9.790186,12.281641
5.266504,10.726709,7.098291,6.9676757,8.236719
7.475244,10.356104,8.806299,7.961572,9.687403
5.9898925,10.666407,7.495996,7.1373534,9.076807
6.9969726,12.791651,7.988916,7.5404296,10.6471195
6.1009765,13.038965,8.041895,7.850488,10.571436
10.722803,14.452539,12.534327,12.407129,13.590235
12.552149,14.988184,13.751368,13.88003,14.323389
10.386377,14.714746,11.062403,10.370996,13.114893
9.300928,13.714258,10.4042,10.153711,11.840723
13.274317,15.405664,13.583887,13.667139,14.779932
8.7911625,10.856348,6.5436034,6.4972167,8.670557
5.565576,10.590723,6.3734374,6.344873,8.539698
5.966699,13.377588,5.2472167,4.6598144,8.832666
2.153955,9.31167,1.9688965,2.2779784,7.59292
5.572656,12.081934,8.412989,8.119043,10.24795
5.9139647,11.089991,7.4469237,7.129297,7.773584
4.2325683,10.695459,5.4483886,4.7018065,8.703516
8.7911625,13.20669,8.8832035,8.452295,11.72793
9.164209,12.395655,9.3536625,8.891993,10.810205
8.28042,11.097803,8.1175785,8.036036,9.761866
8.706934,13.396875,8.345606,8.740625,11.987696
12.588526,14.21377,12.732325,12.4457035,13.5567875
8.696924,12.208643,9.389063,7.3478026,10.266993
10.15835,13.268946,10.900293,10.833887,12.383448
12.133936,13.650049,12.638086,12.569239,13.329493
7.38833,11.809717,7.98208,7.808252,9.500391
5.7608886,10.841944,7.032617,6.633203,8.643946
5.751123,9.907618,6.2750487,5.398828,8.424952
6.657617,11.884668,7.9671874,8.678614,10.198633
7.7901855,12.048243,8.837549,8.68252,10.479151
5.1683593,9.366602,5.589502,5.514795,7.899072
5.6078124,11.400293,5.780664,5.4151855,10.406885
9.890772,12.05044,9.660303,10.297754,11.822901
10.137842,12.00503,11.213526,11.159571,11.812159
9.616114,12.072657,10.309717,10.7792,11.663233
9.1627445,12.145899,10.569239,10.372461,11.697168
10.140039,12.521143,11.667871,11.238672,12.061914
6.595117,10.157862,7.2398925,6.8807616,7.8565917
9.957178,12.660791,11.025293,10.6939945,11.994532
9.757227,11.803858,9.389795,8.146875,9.812647
5.88125,10.279688,5.877832,6.021875,8.326807
11.839258,12.770899,11.804102,11.640284,12.336084
13.159082,13.641016,12.645411,12.630274,13.477198
13.751123,14.16543,13.309717,13.53628,13.849024
9.255518,11.465723,9.569239,9.320215,10.24502
6.966699,10.565332,7.610498,7.907373,9.099024
7.832666,12.276514,9.757471,10.667139,11.635157
10.183496,12.334375,11.020899,11.275049,12.2113285
9.88711,12.026026,10.152735,11.682276,11.6627445
8.832422,11.4005375,10.172754,11.494776,11.089014
9.761621,12.357813,11.262842,10.972071,12.219629
9.770411,12.0567875,11.747705,11.797998,12.85
9.51626,12.047754,10.913965,10.3988285,12.028467
8.347559,11.633936,11.474512,10.854639,11.025782
8.841944,11.482569,10.775782,10.951563,10.271631
8.412989,11.251123,9.994776,10.829981,10.88418
9.048487,11.354151,9.323877,9.357325,10.796045
8.2269535,11.074121,8.685938,8.6957035,10.501856
5.9691405,10.386377,6.7071776,6.5265136,9.077784
4.497461,8.71792,6.3941894,6.4356933,7.9930663
5.6825194,9.583643,7.5282226,7.50625,8.593653
5.5267577,8.871729,6.338037,5.9898925,7.9608397
3.7635741,7.3375487,4.4085937,4.273828,6.0870605
2.9242187,6.315332,3.8868651,3.6463866,5.207666
3.461084,6.444238,4.1966796,3.6146483,5.5626464
1.7616211,6.238916,3.673242,3.3490233,5.062158
2.805078,6.742578,5.643701,5.72207,6.240381
3.705957,6.5138183,4.284082,3.402246,5.6981444
2.89541,6.3038573,3.363916,3.218164,5.2835937
2.3319335,5.768457,2.3912597,2.2577147,5.1441894
1.5987793,5.9986815,2.5587401,2.4020019,5.258203
2.5633788,7.477197,3.4273925,4.2523437,5.900781
3.4269042,7.162988,3.2018065,3.8573241,6.457666
3.1881347,7.180078,3.9337401,3.9049315,6.3827147
4.8092284,9.667383,5.3858886,5.799951,8.051172
6.971338,10.272608,8.067041,7.9098144,10.762598
7.407617,10.379053,9.526514,9.754053,10.371241
7.7032714,10.350733,8.723291,8.359034,9.736719
4.709131,6.826074,4.932031,4.5887694,5.7662597
4.435205,7.305322,4.4222655,5.0074706,6.560205
7.362207,10.095362,3.7943358,3.8636718,9.402491
11.417627,12.322657,10.647852,10.633692,13.123438
5.1410155,9.586573,6.675195,6.9864745,7.7850585
7.6637206,9.974512,7.6600585,7.657861,10.378809
6.3631835,9.246241,7.617822,7.1964355,8.991114
7.9239745,9.274073,8.965235,8.72378,9.112207
9.187403,10.218164,9.213282,9.67544,10.902246
7.9464355,9.745996,11.171289,11.034327,11.2755375
8.72085,8.803125,9.896875,9.676661,9.209131
9.254786,9.587793,8.287256,9.029688,9.823145
10.209131,10.156397,9.864649,9.229151,10.637842
6.9833007,10.152735,8.256006,8.189112,9.531397
7.197168,10.66543,4.6231933,4.680078,11.209131
10.326807,11.731348,10.811914,10.352442,12.368067
12.015772,12.04751,13.736231,12.720362,13.140528
9.851465,10.050684,9.628565,9.934229,10.855127
9.507715,10.546045,11.53628,11.64419,10.817041
8.509424,10.693262,11.714991,11.259424,10.339502
5.6754394,9.587549,6.766748,6.6080565,8.740625
6.469873,8.348536,8.746973,8.635645,8.253565
6.4081054,7.848291,6.8941894,6.70791,7.62832
7.0851073,7.541406,7.5543456,7.2103515,6.9952636
6.432031,8.575586,7.326074,7.287256,8.420557
7.358789,9.077051,7.8473144,8.166407,8.478418
8.54336,9.531641,10.478907,10.254053,10.636866
10.565821,11.061426,11.475733,11.093897,11.425684
12.243555,10.558008,11.384424,11.372217,11.796778
10.091211,10.23794,11.376368,10.914209,10.606836
12.830713,13.355127,13.680811,13.510889,15.771875
13.143213,13.307764,14.756739,14.973536,16.637598
14.922266,11.965967,14.606104,14.716211,13.7877445
15.076807,12.852686,14.78628,15.220606,15.420069
13.00625,11.804346,14.21084,14.199366,14.943018
12.088526,10.990625,11.591211,12.484766,12.740625
13.339502,12.616846,14.391993,13.971094,14.256983
13.79336,14.386621,16.07339,15.343897,17.503077
12.216944,13.772364,12.358057,13.114649,13.512598
14.465967,13.108545,9.678614,10.64834,14.673487
10.534327,12.31753,9.54043,10.341455,12.347803
7.758447,10.469385,9.326075,9.7286625,10.299707
9.48501,10.371485,9.336084,9.308741,10.3814945
9.880762,11.321436,9.617823,9.231836,11.827784
11.653711,9.402979,12.274805,11.750879,10.691553
11.396387,11.136133,10.943018,8.406153,11.706202
10.373926,10.484522,10.689844,10.496729,11.30459
9.812159,10.332422,9.583887,9.865625,10.794092
10.13418,10.049219,9.545557,9.686426,10.594873
10.809473,10.8363285,11.219141,10.451563,10.833399
8.062891,10.414698,9.513575,8.785547,10.190821
10.129297,10.645899,10.244776,9.95083,11.4396
9.328516,11.384424,8.313379,8.599024,11.183008
11.156153,11.064844,10.678125,10.555567,10.34878
10.953272,12.616602,7.890039,7.8089843,14.278955
11.110743,11.926416,11.844385,10.574121,12.054834
9.969385,12.562891,7.884912,8.785791,13.096582
15.675196,12.938868,13.520166,13.827539,13.478418
13.128077,12.737696,12.519678,11.844629,14.822657
15.682032,13.443506,16.50503,16.049707,15.447657
14.885645,13.406397,15.556055,14.6019535,16.090479
12.435694,11.503077,16.514307,15.716211,11.342432
8.900293,9.843164,9.18252,9.708887,9.871729
9.585596,9.944727,10.492334,10.310205,9.835352
8.702051,11.558985,10.283106,10.403711,11.008448
12.023096,12.110987,14.702295,14.542139,13.368067
10.084864,11.531641,10.281397,10.271875,11.346094
9.809961,10.531153,10.826319,10.69961,10.301172
11.18667,12.040918,12.932276,12.563868,12.908106
11.89419,12.422754,13.537989,13.475,12.23501
13.13003,12.148096,13.767237,13.411768,14.043848
16.006006,12.354639,15.512842,15.781885,15.599268
18.228174,12.451807,15.453516,15.904444,14.739893
15.823389,12.791407,14.017969,13.865137,14.608545
15.908838,13.343653,15.399073,15.434473,16.08047
16.162256,13.914942,17.099024,16.512842,17.462793
20.00625,17.886866,22.080957,21.856348,21.725245
21.387842,18.821924,21.821192,22.16543,21.58047
23.26748,18.580713,23.91421,23.990137,26.839014
23.727442,18.913965,24.557276,25.268946,22.838037
21.37124,19.582422,20.897364,21.749903,21.245752
16.489649,17.951807,17.034815,18.24331,18.725977
17.909815,15.731348,19.98794,19.926172,16.202295
17.471827,15.010401,19.14834,18.993067,15.79458
17.202784,14.733789,17.169336,17.876368,16.375635
18.57754,16.08877,19.201563,19.496729,18.820704
21.151026,17.914942,20.752832,20.845118,20.019922
20.803614,17.300196,19.447168,19.940332,16.820704
19.981104,17.254053,21.548487,21.718897,19.730127
16.399805,16.045557,17.343409,16.63418,16.522364
13.797022,16.50796,15.876123,17.05459,15.954248
17.090723,15.488916,17.892725,18.126612,16.981104
12.875879,15.79336,12.819727,13.087061,13.981104
14.329737,16.69839,16.247461,15.930567,17.005762
15.586573,17.259912,16.432276,16.904688,16.625391
18.746973,17.34707,16.08291,15.6002445,17.162012
10.184717,13.82461,10.892481,11.211817,12.987452
15.531885,17.083887,18.562159,18.79165,16.707422
15.763819,17.926905,18.997461,18.589746,19.012354
16.536036,16.815577,18.142725,17.941553,17.65542
18.72793,18.368067,18.513086,17.940088,17.892725
22.570704,19.65542,21.14956,19.862452,20.494532
22.245752,20.780664,23.44253,23.725245,23.823145
21.514795,22.426172,22.297754,23.071924,22.787256
18.641016,21.066797,18.781641,21.536524,20.485498
18.677149,18.569483,18.461329,18.39541,19.11831
20.460352,17.69082,19.643946,19.975977,19.349024
17.63589,18.819971,19.723047,18.62588,19.408594
22.438868,19.086573,22.445948,22.692041,19.965967
22.741602,19.898829,18.666162,19.14126,20.612207
21.280909,18.45083,20.715723,20.93374,20.009424
17.152979,17.96792,17.80337,16.931055,19.360498
17.286524,16.395166,18.144678,17.871973,16.171534
18.836573,18.387842,19.168604,18.566309,17.807764
18.799463,17.032618,19.720362,19.613184,17.70376
16.989649,16.911524,18.3229,18.366358,17.173975
17.43252,17.814844,18.281641,17.797266,18.840723
16.166895,16.92373,16.127588,16.540186,16.47085
19.853174,18.700342,20.178614,20.134424,18.174707
22.710108,20.709864,23.169825,23.37295,21.25503
23.875635,22.072168,24.704493,25.69668,22.512354
22.733545,23.339014,25.478418,26.51089,24.425928
29.684229,22.64956,29.348536,29.54043,24.202784
31.229883,24.531885,30.721827,31.589014,30.478174
24.239405,22.253809,23.778223,23.180323,22.09463
20.888819,18.82754,21.958155,21.57583,18.781153
24.137354,19.814356,25.248194,24.579737,20.434473
27.36416,21.83999,26.640772,26.534327,24.32876
30.249414,22.852442,29.67422,29.715479,26.356836
32.461815,23.197168,30.95498,31.339014,30.470118
35.71035,25.605127,32.922997,34.759422,32.901024
38.3478,28.26919,35.97622,37.536522,34.036522
38.9457,31.681055,39.713036,40.476463,35.33584
38.67324,28.27627,39.580956,40.20205,34.50747
41.608788,28.25918,42.06582,42.68862,34.22866
39.815086,26.674707,34.198143,38.02041,29.356104
32.107567,24.843164,28.284327,30.701075,26.339258
31.032373,22.473291,32.641014,34.212303,28.763819
35.620506,24.535059,32.918846,31.752588,32.723045
31.344873,22.648584,26.458643,28.001612,24.824366
20.667383,19.493067,21.984522,21.703516,18.867334
19.272364,20.228418,19.58755,19.156885,21.640284
19.763819,19.781885,21.095606,21.079737,20.034815
20.37832,20.158838,20.717432,20.861475,20.564844
22.619287,20.427393,25.229883,25.525782,21.218897
22.858545,20.296778,24.03921,25.032618,21.510157
20.207666,18.867579,22.795069,23.031641,19.187891
25.028955,21.545801,24.263086,25.102686,22.250147
24.207178,21.764307,24.331202,24.533106,23.240625
24.023829,19.974512,22.8063,24.103662,19.798975
21.2438,19.519434,22.185205,22.460108,20.856836
24.038965,22.526514,22.706934,22.610743,22.523096
20.948145,23.14126,22.035791,24.260645,22.38833
17.561914,21.804102,22.055323,22.824854,21.773096
22.478662,22.231104,23.68838,24.09585,22.119287
23.319971,21.927393,24.714502,26.118555,25.058252
25.17422,23.061426,26.003077,26.546534,23.785303
19.49795,22.015772,20.404688,20.65127,22.789454
23.106592,22.39126,24.094873,24.408106,23.711329
22.661036,21.696924,23.897608,23.991114,23.06582
24.566309,22.38418,22.979395,23.770899,23.179834
23.5729,22.119287,25.433008,25.29873,24.721827
27.277002,23.44253,25.567041,25.610254,25.099268
29.389307,23.376856,27.058496,26.93374,25.062159
26.988184,22.44961,26.20254,26.754786,23.872217
27.102442,23.263086,24.473536,24.786036,24.790186
22.436914,22.220362,22.970606,22.636621,22.416162
22.728174,21.88125,22.826807,22.847803,21.41958
24.771875,22.350977,24.793116,25.822168,25.408838
23.838282,22.906153,22.515284,23.39004,23.991846
23.48379,22.435205,24.794825,24.8229,25.191065
23.511377,22.42837,22.823145,23.838526,22.475
25.092432,23.058008,25.554102,25.190577,24.773096
26.510157,23.074854,24.483545,25.228907,24.348047
24.145655,22.909327,23.383692,23.333887,21.93374
22.826807,22.119043,22.08169,22.382227,22.916895
22.940577,22.35879,22.887598,23.58755,22.311914
25.05581,23.29165,24.41543,25.616114,22.981104
26.4938,22.97085,25.851465,26.454493,24.003077
25.622705,23.217432,25.76919,25.950098,23.770899
28.099512,23.964746,25.996973,25.86709,24.82168
26.612207,23.572412,25.47671,25.908594,25.897608
28.241358,24.34707,26.637354,25.280664,23.659327
29.471094,24.115625,28.711329,30.139795,26.105371
25.68667,23.309229,25.725,24.873926,22.695948
22.301172,23.89541,21.366846,21.289698,22.92373
25.500391,23.512598,22.609766,23.638575,23.757471
24.17422,23.489649,22.0021,21.278223,24.786768
23.570704,23.495996,23.708155,23.11123,25.463037
24.914698,23.332666,23.92666,23.172998,25.42422
20.704004,22.934229,20.201807,19.850733,21.553125
19.425928,20.461573,20.178858,19.866602,20.484766
20.879053,21.677881,20.554102,20.410303,22.82168
23.85708,23.071192,20.750391,20.63296,23.418116
23.125635,22.85879,24.04873,23.5021,23.20254
24.514551,22.809229,22.373438,22.257471,22.452784
22.586329,23.060694,20.256739,19.879786,21.793604
22.878565,22.151026,20.14834,21.17666,21.20669
22.182764,22.168848,20.474512,20.392725,22.472559
18.525782,20.721827,18.258936,18.056055,19.59585
18.8688,20.17837,18.736963,18.450342,19.726221
18.40249,19.545069,18.819483,18.22085,19.384668
21.62002,21.011621,20.49624,20.074121,21.349024
22.819727,21.820215,22.112696,21.495752,23.106592
23.04165,21.660791,23.185694,22.532618,22.948877
25.571436,23.389551,24.690577,24.769434,25.01748
27.053858,22.740381,25.760157,25.506006,25.481348
27.765284,23.194483,26.120752,26.01748,23.02627
24.810205,24.23501,23.52212,25.202051,23.527002
24.085596,24.036768,22.82754,24.247217,23.609766
23.422754,22.455713,23.394434,23.248682,23.997461
23.333155,22.433008,23.148096,23.177393,23.43545
22.190332,22.502588,22.688623,23.060938,24.32461
21.143946,22.081934,21.908106,22.0021,23.06875
20.013819,21.524317,19.969873,19.827051,21.476221
21.91543,22.048243,21.173243,21.242334,22.797754
22.788477,22.317774,21.197412,20.79629,22.750147
22.581446,22.313623,20.793604,20.857569,21.349024
17.460596,20.137598,18.21206,17.802881,19.316553
18.109034,18.852442,17.974268,17.69082,19.05752
20.566309,20.653467,18.71377,19.293116,20.482569
22.138086,21.035059,18.97671,19.776758,20.20669
19.470606,20.479395,18.313623,18.349756,20.190088
18.007227,20.026026,17.468409,16.968164,19.145655
16.093653,19.597559,16.474268,16.455957,18.076807
16.288721,18.863916,16.399317,15.937647,17.61831
18.01797,20.652246,19.538233,19.247705,19.91958
14.984034,17.89248,14.550684,13.883448,16.358545
15.99917,19.89712,17.573145,17.721827,18.99624
19.309473,20.000147,18.49331,18.223536,19.153223
14.8189945,17.421534,15.179346,14.495996,15.931299
15.10708,16.850245,14.888819,13.8033695,16.049952
14.5082035,17.11709,15.413965,15.26626,16.470362
17.358301,20.184229,18.210596,17.670801,19.23208
19.78921,20.887842,19.41714,18.744532,20.295557
21.157373,20.251612,18.099024,18.250635,20.67251
18.903955,19.465235,18.238184,17.815577,19.396387
15.978418,18.17837,15.460108,15.178858,16.821924
14.348291,17.119043,15.961573,15.989649,16.67544
16.201807,18.41421,16.183496,16.029444,17.295069
15.005762,17.13711,14.556055,15.098047,16.502344
12.702295,16.906153,13.111475,12.662256,14.751368
12.893457,17.89004,13.352686,13.125879,16.06753
13.422022,18.04043,14.71377,14.309473,16.223291
11.3146,18.741114,12.480127,11.485743,18.167383
18.21963,19.565332,18.57046,18.914454,18.92129
14.761133,18.155909,14.806055,14.45083,16.51211
11.663965,16.282373,11.947901,11.902491,13.670313
12.826563,17.087793,13.633936,12.882959,15.3502445
16.85293,19.546778,14.182032,13.279444,14.853418
10.267969,14.478174,10.65835,10.580225,11.94375
9.382227,13.7564945,10.343164,10.477686,11.987452
9.235254,12.989405,8.864161,8.448633,11.468897
10.33877,13.348291,11.003321,10.475733,12.129297
10.411768,13.394678,11.791895,11.113672,12.329981
10.269678,12.966211,9.371241,9.678125,12.097071
9.173975,12.755518,10.760645,10.502588,11.746729
10.16543,11.950098,10.505762,9.905664,11.229639
10.11001,12.649073,10.480371,9.68667,12.06753
7.546533,12.158838,8.260645,8.420313,11.551905
10.0099125,15.687403,12.6349125,12.446924,14.385157
10.75503,15.139551,11.676905,11.444483,13.367823
14.13418,16.56045,14.766504,14.658594,16.295313
10.605371,15.672266,12.636133,12.587793,14.614893
11.323145,15.693506,12.739405,12.539942,14.220606
6.318994,12.6192875,7.801904,7.740625,10.028711
13.426905,16.421534,14.300928,14.250391,15.498682
14.258692,16.802637,15.166895,14.8849125,16.15005
8.279444,12.496729,8.485743,8.241602,11.417139
7.2086425,12.476709,6.8963866,7.213037,11.244043
12.080225,15.325098,12.731104,12.25503,14.462305
10.939356,14.224512,10.222803,10.263575,12.829737
13.477442,15.933496,13.95669,13.389795,15.302637
7.737451,12.461573,8.381006,8.288233,10.5238285
7.6170897,12.610254,8.108301,7.6759276,10.578516
13.31045,15.142725,13.244532,13.398096,15.036524
10.653711,14.124659,10.679102,10.6271,12.471094
