"[299, 255]","[227, 248]","[287, 319]","[279, 328]","[230, 262]"
8.186914,13.666651,9.494043,9.355616,11.476221
7.376611,13.4125,8.266748,7.2640624,10.219385
5.3038573,11.138819,3.8905272,4.4217772,8.750147
7.709131,13.423487,7.8717284,8.1332035,11.936914
9.319971,14.708643,10.015528,8.710596,13.937647
12.00503,15.456934,13.118067,13.044825,14.636377
13.228418,15.478174,13.608545,13.886377,14.987207
11.608545,14.702051,12.572657,11.621729,13.601221
10.372461,14.550928,10.873926,10.63418,12.829248
8.525293,12.994776,9.656885,9.471094,11.290186
9.858057,14.595606,9.135157,8.808985,13.642969
12.020166,15.069239,13.181543,12.719629,14.533594
9.528955,14.018946,10.643702,10.46084,12.390039
12.018702,14.635401,12.906885,12.961573,13.790186
12.13003,14.564844,13.040186,13.015039,13.825098
8.479151,13.290918,8.8146,9.083399,11.057276
10.214502,14.566797,11.076319,10.614893,13.808985
13.0238285,15.070459,13.642237,13.589014,14.218653
12.354639,14.935938,12.938623,13.099756,14.166895
8.489893,13.6002445,10.14834,10.205713,12.636377
9.705225,14.130274,10.574366,10.168116,12.668848
10.173243,14.292139,10.3050785,9.748438,12.928614
8.286036,12.640284,9.589991,9.305811,11.5021
5.6649413,11.035547,5.558252,5.431787,8.109522
4.426172,10.69668,6.013086,6.09707,8.176905
4.9481444,10.8675785,6.4652343,6.471338,9.098536
4.7086425,9.831446,6.289453,6.438379,8.13833
4.226709,10.26333,5.7467284,6.5438476,8.023584
9.722315,13.270655,9.665186,9.08584,12.377832
5.69375,10.701075,6.0748534,5.79458,8.847071
5.266992,10.79751,5.6898437,5.518457,9.304834
6.390283,11.581934,6.497461,6.60708,9.437159
5.735254,10.624903,7.256006,6.8043456,8.814112
5.1009765,10.4786625,5.306543,5.3805175,9.382959
2.8631835,10.797266,4.822168,6.298486,8.849512
8.966211,12.128565,11.132959,10.829493,11.382959
9.254297,12.451075,11.337793,10.948633,12.0064945
9.731836,12.507715,10.8658695,10.420069,12.15835
5.994287,11.565821,4.5375,4.2142577,9.48086
1.8460938,9.559229,1.921045,3.0194335,7.209619
7.212793,11.050196,8.534815,8.598536,9.626612
7.572656,11.186914,9.281153,9.421534,10.439844
7.2157226,11.254297,8.64126,8.7911625,10.549707
9.078272,12.260401,10.065332,10.079493,11.7911625
10.045313,12.1505375,10.376368,9.528711,11.485254
7.958154,12.106836,9.531641,9.639307,11.489405
8.871729,12.082911,9.555811,9.61709,11.076075
5.7604003,9.704981,6.0406737,6.251611,8.589014
8.143702,11.941309,8.877832,9.274805,11.142969
9.578028,12.374414,10.43667,10.322168,11.473291
4.657617,9.613672,4.8680663,5.2452636,7.617578
5.4935546,9.443262,5.7794433,5.4347167,7.8280272
5.157129,9.433741,5.7745605,5.907861,8.5292
6.660547,11.098291,7.1007323,6.3507323,9.333155
6.426904,10.204493,7.0836425,6.3648925,8.025049
4.199365,9.479395,5.948877,5.881738,7.6
5.84292,9.226709,6.631006,6.8043456,8.239161
4.3631835,8.153223,5.2018065,5.5072265,7.370996
3.5572753,6.7831054,4.932031,4.740381,5.7608886
2.226709,6.0748534,5.6620116,5.4618163,3.9193358
3.3175292,8.101465,4.67666,4.723535,6.950586
4.231836,9.5394535,4.369531,4.8666015,8.214991
5.43667,9.462549,6.957666,6.105615,8.121973
6.209619,9.425196,6.591211,5.9347167,8.437647
10.671534,11.98794,11.572168,11.875391,12.395411
7.2853026,10.926661,7.098291,6.6876464,9.080957
3.810205,8.60586,3.581201,2.8333983,6.7206054
9.133936,11.3814945,6.209863,5.9654784,10.844629
5.2608886,8.364649,5.630029,5.393945,8.166651
5.2958007,10.267481,5.921045,5.852197,7.97207
10.385889,11.503321,10.977442,10.677393,11.886377
10.396631,11.281641,8.832666,8.287012,10.493067
5.048242,9.533838,6.09292,5.721582,8.077784
5.4081054,8.714991,6.690332,6.333154,7.833154
5.0052733,8.627344,6.403711,6.2955565,7.5052733
4.560449,7.8407226,5.6065917,4.6812987,6.7069335
3.3460937,6.1429687,3.5338378,3.546533,5.098535
2.4217772,6.0763183,3.3114257,3.2486815,5.1844726
3.1612792,9.248438,5.77749,5.942041,7.815332
7.5455565,10.034327,9.774561,9.621241,9.986719
8.964258,9.956202,10.755274,11.230127,11.0550785
8.654444,10.173243,10.343653,9.974512,11.25503
8.010157,9.471094,8.734766,8.74502,9.61001
7.189111,8.731836,9.626123,9.653711,9.329737
7.6251464,9.404932,9.477686,9.564844,9.566553
7.322168,10.014551,8.12002,8.653955,10.017969
9.291651,11.2408695,9.386133,8.802881,11.005518
12.395411,12.427881,12.930323,13.203272,12.402491
10.295069,11.613672,9.691553,9.57168,11.087061
10.086573,10.5394535,10.72793,10.365625,11.17544
6.3338866,9.739649,7.4640136,7.5228515,8.846827
7.1722655,9.390772,7.9137206,7.0699706,8.540186
5.985254,7.9188476,6.03457,5.8687987,6.43374
6.03457,6.9327636,6.53042,6.255029,6.415918
6.9464355,7.8263183,6.95791,6.843164,6.957422
3.7647948,8.264551,5.6427245,5.672998,7.5921874
6.3421874,8.735254,6.0804687,6.7711425,7.9774413
6.46499,8.833887,7.375879,7.4242187,8.251123
6.37124,10.145411,7.6585937,7.4288573,9.247217
6.1410155,8.63125,7.5626464,7.2437987,8.948877
9.782373,10.733301,9.975733,9.867334,12.258936
10.116114,9.496485,6.8558593,6.768213,7.768701
8.552881,9.657862,9.118311,8.716211,10.158106
9.155909,9.649317,9.975733,9.8067875,10.836573
9.697168,11.991846,10.429834,10.308008,12.396387
10.021143,11.598536,9.440088,8.943506,13.54336
9.411036,11.735498,10.0846195,10.014063,14.860254
13.923487,11.825586,15.224756,15.011377,14.761133
12.893946,11.801172,13.493799,13.489405,13.589991
14.147852,13.470362,15.400293,14.981104,15.613184
12.126368,12.804346,14.885401,14.151026,12.303125
10.322657,10.93252,12.267725,12.567041,12.465967
9.790186,10.206202,10.481104,10.354151,10.921534
10.806299,11.740625,11.866846,11.900049,13.16128
14.512354,13.042383,14.410791,13.990381,14.582178
13.357325,13.039942,12.618555,12.477442,13.579981
13.850489,11.59585,14.060205,13.978418,13.216211
15.151514,11.079493,13.233789,13.020655,13.0880375
17.615625,11.951807,17.27505,17.707178,16.903711
14.712549,15.732325,14.226465,14.601221,19.071924
13.375635,13.206202,15.2130375,15.484278,16.9479
12.920557,11.860498,14.965967,14.668116,13.265284
13.528955,11.8363285,15.560694,15.896631,14.419825
13.559229,12.433008,14.94961,15.131739,12.873438
12.774317,12.316553,14.2252445,14.626123,16.068506
13.682032,13.1019535,15.467432,15.279444,14.879786
15.833155,12.765284,16.434717,17.337305,15.87417
16.289698,12.51211,15.31875,15.65835,15.167139
9.563868,11.625391,9.577539,10.285059,10.839014
11.303858,11.511377,12.252588,12.055567,10.27627
13.225489,11.989405,14.053614,14.068262,13.654932
14.547022,13.305567,14.704248,15.218164,14.390772
15.569971,14.124414,17.006983,16.959131,16.014063
17.232569,14.00625,16.81338,17.23379,16.96963
14.517481,13.343409,15.871485,15.476221,14.282618
15.635157,13.820215,15.85586,16.11587,16.803858
15.644922,13.933252,14.111475,13.300196,16.454493
15.340479,13.249903,11.955957,11.371241,15.505518
17.151758,14.206446,9.475489,10.460108,16.779688
15.483545,14.21377,6.909326,6.8856444,13.886621
9.733301,13.222315,9.580469,9.647852,12.042627
11.534571,11.683985,10.590723,9.9613285,11.455225
13.593897,13.485498,13.651514,13.701075,15.540186
12.773584,12.007715,12.158594,11.793604,13.589502
10.407373,11.788965,11.038477,10.465723,12.390284
10.077539,11.321436,11.104883,10.686426,11.86001
13.712793,11.822657,12.204248,12.163965,12.360254
18.740625,13.670313,15.728907,16.236963,17.347315
21.994043,18.468653,22.230616,22.333155,19.500635
16.504297,16.830713,16.492334,17.326563,16.5104
23.009424,17.35293,23.019678,22.278955,17.935938
23.329004,17.501368,22.030664,22.994043,18.655909
14.69668,13.876612,15.225,14.633448,15.028467
19.398829,14.262354,18.33755,19.38003,16.54922
21.023829,18.7438,19.598291,20.211573,19.436426
20.86123,17.382471,20.94375,21.1813,21.202784
22.743555,19.57583,22.476954,23.728174,21.030664
17.234766,19.292627,15.387354,16.936914,19.25625
20.062647,17.018946,19.258936,19.297266,19.679346
20.044092,15.638819,19.943018,19.931055,18.724024
17.215723,15.0724125,17.683008,17.691553,17.799707
17.350977,15.714991,17.213282,17.32754,17.50503
15.856836,14.098047,14.490381,14.331934,15.597803
12.551661,13.497217,13.546289,13.672266,14.056543
14.352198,14.402979,14.636621,14.1271,15.510401
14.788721,15.456446,16.298243,17.290674,15.659815
16.868555,14.402735,16.041895,16.31045,17.075098
16.313623,14.658106,15.851465,15.542627,14.066553
9.229151,13.522852,11.719141,12.209864,12.332911
15.153711,15.240137,17.669825,17.60879,14.56875
17.277002,18.430323,18.641504,19.093897,19.85171
21.168116,17.35,21.63589,20.696436,18.295069
21.891993,16.509912,22.573145,22.194483,17.631006
22.746729,20.731592,22.292871,22.717188,21.667383
21.976954,18.275537,21.664454,21.551416,19.809961
17.969873,15.442041,16.85,17.306787,17.538965
18.571436,20.230371,17.573877,18.625635,18.996485
20.862452,17.331202,19.758448,19.981592,21.735254
21.53213,17.089258,23.24209,24.186182,18.78457
19.662012,16.844385,19.40542,19.777735,18.783838
18.122705,16.978418,18.554346,18.783838,18.608545
16.298487,17.03628,16.357813,15.9752445,16.074366
16.606348,16.279444,16.90542,16.630274,16.347803
16.362207,16.241114,15.910547,15.90835,17.068018
18.6896,17.033838,20.136621,20.054102,17.78042
19.478662,18.456934,21.589258,21.579248,22.20791
20.755518,20.980371,20.074121,21.301905,20.87295
22.248926,20.65957,22.415186,23.735254,22.04043
23.190088,21.466455,23.864893,24.5104,21.694971
24.666407,22.350977,25.62417,26.865381,23.063868
26.026514,23.34585,27.991114,27.65957,24.286768
25.459131,23.99624,25.866114,26.24209,25.025782
23.505274,22.047998,23.40127,23.829737,22.216455
24.372217,22.833399,25.44961,25.009668,23.349268
20.705957,21.552149,20.391504,20.945215,21.47378
23.861475,22.990381,23.805323,24.3417,24.194483
23.918604,21.902002,23.406153,24.17837,23.405909
23.159815,21.366358,24.907618,25.215479,22.241602
24.6,20.01211,25.313135,25.62417,20.530176
19.994532,21.185938,20.468164,20.747217,24.640284
24.143457,19.971338,24.334131,24.306787,21.632227
21.629541,18.48208,20.146631,21.261133,19.456202
21.037012,18.261133,20.699366,21.392725,20.146143
21.436426,18.437647,20.826807,21.121485,20.344385
21.799707,18.648584,21.671045,22.636133,22.262842
22.739405,19.5292,22.579248,22.110254,20.811426
25.29165,20.725489,24.092188,23.640284,20.791407
21.96206,19.897852,23.944483,23.778223,21.00796
22.221827,20.147852,22.618555,22.555323,22.061182
20.779688,20.165186,17.902735,18.396875,20.33706
19.294092,18.170801,21.070948,21.42959,20.204737
18.77041,17.813868,19.899317,18.911768,19.648096
19.56338,18.326075,19.420069,20.21792,19.53628
20.581202,18.36172,21.797022,21.622217,20.018946
23.980371,19.765284,22.501368,23.343897,23.019678
21.871485,19.797266,21.097315,21.123194,22.092188
25.15713,20.101465,22.630762,23.678858,22.108545
26.815577,20.17251,24.317286,25.495264,23.54922
26.1813,20.903223,23.517237,24.248438,23.459375
22.89712,20.176416,22.064112,21.5021,19.457178
17.95791,19.947412,16.697168,16.133204,19.68081
25.16958,20.555079,25.003565,25.36123,21.316553
27.290186,20.635645,24.728662,24.652979,21.987207
25.195215,21.55874,24.32998,24.431543,21.55044
25.502832,21.432032,25.518946,25.128077,22.160547
27.110498,22.680567,27.5917,27.853418,22.695948
26.60293,21.8146,25.91714,25.603662,21.900537
25.70376,20.884668,26.31875,26.547998,20.984522
27.162012,21.366846,27.310205,27.417383,21.671778
29.441797,22.390284,29.434473,29.412745,22.218897
28.602686,23.556543,30.295801,30.744532,29.41714
27.17666,25.272852,25.668116,26.740137,26.674707
30.134424,23.16543,29.040674,28.81582,27.752832
35.43496,22.434229,33.954002,34.432762,29.578028
24.23794,21.51089,23.929346,22.853907,23.238672
23.162745,21.400782,22.81338,22.802393,22.791895
24.95962,21.656641,23.362452,23.139307,23.300684
23.745752,21.241114,22.47207,23.187647,24.00796
25.466944,21.395655,24.950586,24.949121,21.528955
25.458399,23.485498,25.832666,25.857325,24.652735
25.46084,23.89541,27.524805,27.547998,27.210108
28.832422,23.045801,29.41958,29.25503,28.071924
31.112207,24.559473,31.939356,29.034327,25.89004
31.03628,25.231104,28.672022,28.728662,26.056055
31.920313,27.404932,33.140526,32.901756,30.405176
32.522606,24.96963,33.238182,32.610252,27.536524
29.904932,23.28921,29.420313,27.571436,25.209864
28.815332,22.691797,27.098536,25.725,25.236963
20.662745,21.01333,22.364649,22.255274,21.79043
21.502588,20.22793,23.038233,22.61709,20.829493
25.519434,22.939844,25.13418,24.526758,23.375147
27.622461,23.12002,27.667383,27.336817,25.005762
28.572412,22.382227,27.911768,28.007471,25.789454
28.18545,22.499903,26.901758,27.650782,24.03628
21.206446,22.744287,22.088037,21.788721,23.01626
20.074121,21.913965,21.409327,22.008692,22.581202
23.1979,20.652735,23.261621,22.68838,22.177881
22.41128,21.79336,22.373682,22.842676,23.64712
27.441553,22.318506,25.07876,24.684961,23.698633
24.689844,21.77212,26.125391,23.811182,24.965967
25.06582,22.39956,25.79165,24.33755,23.083399
26.247705,22.234278,22.917627,25.262842,22.834864
24.476954,21.865137,22.796534,23.3063,23.056055
23.993067,21.518457,23.173975,22.375635,21.778223
23.061426,21.34707,24.26626,23.234278,21.366358
23.034082,21.859766,23.43374,23.153711,23.41128
24.283594,22.753809,23.156153,22.657373,22.763086
22.866602,23.11001,23.891993,23.149073,23.14248
23.319483,22.52456,22.943506,22.35879,22.963282
20.055567,22.12588,20.421778,20.734278,20.481104
22.016504,21.317286,23.482325,23.191065,22.733301
26.528711,23.266016,25.41128,25.632715,26.512354
29.864649,26.987207,28.008936,28.911524,28.866602
25.725977,22.331446,24.781153,25.811914,23.975733
21.231104,22.3854,23.876123,24.316553,23.680567
20.889551,22.186914,21.123682,20.442774,20.08706
22.78335,22.063623,21.985987,21.90542,23.010157
24.26089,22.052393,24.200098,24.292383,24.754297
27.214502,22.297998,24.797266,24.897852,24.307032
28.220118,22.662989,26.039942,26.654932,24.897852
24.721827,22.058985,23.174707,22.545313,22.45083
18.559229,20.681055,18.804346,18.9479,19.946436
18.357569,21.225,18.687891,18.516504,19.655176
17.796778,19.922022,17.820215,17.80337,18.644678
18.453272,21.027246,19.890284,19.537989,20.836573
17.50625,18.109522,17.66421,17.691065,17.721094
20.29922,20.484278,18.949366,19.186914,20.119776
22.79165,21.200098,22.141504,22.25503,23.450098
24.783106,21.360254,23.43374,24.64004,23.390284
26.075098,22.670069,24.55166,23.38125,22.471582
17.0021,19.827051,15.894922,16.035791,18.485254
15.34585,16.70254,15.668848,15.359034,16.248194
16.498926,18.265284,17.022608,17.284082,17.6542
18.061914,19.05459,18.90713,19.022364,18.96377
18.29873,19.869776,19.752588,20.096827,20.618555
18.889063,20.841211,19.95376,20.176172,20.239893
19.047998,20.70547,20.290674,21.348047,19.509668
19.18545,20.124903,20.475245,21.548487,22.164698
20.809961,21.298243,21.095118,21.49795,21.539698
19.988916,22.217432,20.545557,21.31338,23.586329
19.600977,21.414454,20.45254,21.776758,21.736475
21.20669,21.132715,21.742823,22.402979,21.154932
19.970606,21.379541,19.961084,20.197657,19.87417
19.54336,20.612207,19.013819,19.054346,20.57046
18.370996,20.467188,18.069727,18.279444,19.868067
17.68838,19.89419,17.625391,18.188868,19.1896
17.058252,19.623194,17.965723,18.454493,18.662012
17.687403,19.245996,18.447168,18.6354,18.624659
17.268946,19.065332,18.031885,18.131006,18.749903
15.247705,18.0646,16.186182,16.3771,17.61416
18.516993,19.185205,17.849512,17.885645,19.739893
18.292383,20.500635,17.620508,17.54751,20.503565
18.159327,20.748194,19.137354,19.623438,23.107813
20.192774,20.461084,19.54873,20.025537,21.225733
20.352198,20.291407,19.794092,19.007715,20.552393
20.726954,20.82876,20.631495,20.413477,20.870264
20.891748,22.424707,20.931055,21.130274,22.909327
24.154932,22.513086,23.568018,23.362452,24.399073
17.510645,18.22378,17.553858,17.148584,18.097803
17.169092,19.254297,17.727442,18.13418,18.581446
18.484278,19.887598,17.894678,19.214502,20.123682
17.531641,19.648584,18.098047,18.362452,20.147852
17.767725,19.088526,18.78042,18.495752,19.55166
17.075586,18.691065,17.513086,16.42129,17.064844
18.006739,19.794336,18.325342,18.291162,18.74087
14.526758,18.879053,15.920069,15.620264,17.516748
14.480371,17.18081,14.707178,14.359766,16.616114
15.155909,18.047998,15.66836,14.82583,16.001123
13.314112,16.317286,14.948389,14.829004,16.001123
12.800684,15.2599125,12.999903,12.28628,14.722559
14.38833,16.792383,14.920069,14.778467,16.269922
12.053858,16.531153,13.656153,14.034815,15.938868
9.749659,13.597315,11.537989,11.502344,12.4283695
8.344385,11.189844,10.515039,10.584864,9.991846
10.282862,14.015284,10.472315,10.799219,11.548975
13.422754,17.521631,14.608789,14.966211,16.867334
14.399805,18.002344,13.766504,14.184717,16.061182
13.754053,17.205225,14.79458,14.179834,16.309717
12.303125,15.785547,13.059229,14.043604,14.670313
13.8207035,16.33047,12.619043,12.493067,14.962793
10.267237,14.668116,11.6019535,11.950586,13.195459
10.771387,14.571924,11.530664,11.954737,13.581202
12.34878,16.4313,11.821924,11.540918,14.23086
13.071192,16.165918,12.982813,12.589991,13.855616
11.448633,15.676905,11.906397,11.508936,14.407373
11.248194,15.806543,12.462061,12.56045,14.577539
16.263575,18.048243,16.747705,17.10586,17.460352
12.889063,15.661768,11.565088,11.465723,13.263086
11.182276,15.1800785,11.44253,10.974512,13.013575
9.096094,14.65542,9.996729,9.883692,12.257715
12.209375,16.420313,14.142481,14.370508,15.286036
10.005518,14.054346,11.034815,10.594873,12.417383
11.922998,16.237696,12.465723,12.420069,14.99209
10.750147,15.117823,11.406153,11.695215,13.012842
8.761866,13.558985,9.910547,10.155909,12.070459
13.770655,16.26797,14.78042,14.844873,15.32876
13.269678,16.256006,14.047998,13.729151,15.108789
6.595361,13.528955,7.0052733,6.9759765,10.959375
12.849024,15.729395,14.027491,13.740381,14.919092
9.628321,13.676416,10.408838,10.093409,12.072168
