"[299, 255]","[227, 248]","[287, 319]","[279, 328]","[230, 262]"
10.103418,14.5863285,9.343653,9.02334,13.474024
7.908838,12.392237,8.278711,8.025782,10.176172
3.8961425,10.56045,3.4979491,4.105371,8.551172
6.975,11.823389,8.645166,8.368311,10.215723
5.2901855,11.900782,4.939111,4.598779,10.908838
4.8233886,11.44375,6.0440917,5.669336,9.868799
6.620752,12.702051,8.636621,8.755762,11.152491
9.536768,13.018457,9.836573,9.647852,11.767969
8.929834,12.127832,6.661035,6.8321776,9.844873
6.548486,11.33877,6.1830077,6.0248046,9.374903
11.812403,13.910059,12.543848,12.527246,13.277246
10.802637,13.723047,11.228907,11.350733,12.782862
10.929834,14.069239,10.565088,8.543604,13.645655
12.008692,14.470362,10.384668,7.8404784,14.266016
1.8976074,8.970118,0.8797852,1.763086,7.440576
2.5106444,9.120752,2.504541,1.8543946,6.6898437
2.2853026,8.748926,2.006494,1.5238281,6.7157226
1.2582031,8.52627,1.2252442,1.4632813,6.353906
0.867334,8.216944,1.5941406,1.6009766,6.5904784
2.7154784,9.783106,3.4847655,4.005029,7.8944335
8.670069,11.845118,9.8502445,9.700342,10.634424
9.343653,12.078272,11.468409,11.039698,11.709375
9.649805,12.055811,9.548975,9.124414,11.527979
5.128076,9.793848,5.315576,5.0279784,8.567286
2.666162,9.336573,1.6166016,1.5545899,7.570459
4.4486327,9.885645,4.7206054,4.7777343,8.401026
4.930322,9.901026,4.845117,4.7315917,8.01333
3.8875976,7.45791,4.7660155,5.150781,6.0919433
3.3631835,6.7779784,5.12417,4.5365233,6.247949
3.567285,8.031641,2.5284667,2.2882323,5.603662
9.340235,12.6974125,9.562891,9.136377,12.452784
11.715967,12.750635,11.699366,11.121485,12.505762
4.728906,10.130762,5.7953124,5.6703124,8.342188
8.741358,11.750879,9.864649,9.699366,11.107569
6.511377,9.294336,6.1632323,6.175195,7.6356444
7.5992675,11.904932,8.596582,7.9535155,11.712061
9.664698,12.172754,10.62417,10.326807,11.844385
8.965479,12.170801,10.257959,10.113916,11.94253
9.589014,11.848536,9.85586,8.606592,9.823389
10.3207035,12.510401,7.114404,6.8805175,12.056055
11.118799,12.993067,11.754297,11.257471,12.717188
5.2240233,9.476221,6.3043456,6.1446776,7.3819823
9.661768,11.581446,10.340967,10.288233,11.06875
10.455713,11.83584,11.198633,11.0064945,11.572901
4.9867187,9.78042,5.6688476,5.5072265,7.567529
6.740381,10.669092,7.4955077,7.282129,9.7894535
6.1551757,9.667871,6.674707,6.272363,9.110743
8.891504,11.366358,8.962793,9.751612,11.188623
10.537012,11.84292,10.407862,10.917139,11.410303
10.234278,11.226221,10.600733,10.439356,11.218164
7.8165526,10.98794,7.442285,7.4496093,10.440577
9.700342,12.393213,9.574121,9.729151,12.188379
8.876123,12.376368,10.388575,9.920069,12.05459
9.903467,12.332911,11.10293,10.603174,11.901026
6.4293456,10.339746,8.280176,8.277735,9.218164
5.442529,9.552149,6.1742187,6.1649413,7.7455077
6.579492,9.144678,5.602197,5.610986,7.1168456
5.476953,9.432276,5.7330565,5.671289,7.230371
4.661035,9.281397,5.518457,5.5230956,7.1083007
4.739404,9.15835,4.2105956,4.207422,7.205713
8.258936,11.815821,9.316309,9.329248,10.755762
7.553369,10.101465,7.8443847,7.756494,9.493311
6.1092772,9.733057,7.900293,6.87417,8.427149
6.6791015,10.683741,8.311914,8.066065,10.183741
6.869287,10.090235,7.602197,7.8492675,9.450098
4.9344726,8.840479,5.265039,4.895654,7.4342284
6.8009276,11.089258,7.605371,6.4830565,9.909327
5.4288573,9.269922,6.2677245,5.6534667,7.860254
5.82583,9.015039,5.9583983,5.87832,7.603662
4.827783,8.422022,3.6549315,3.6710448,7.2103515
4.4671874,9.036524,5.147363,5.1112304,7.299463
10.435938,11.304346,10.956934,10.791407,11.132715
9.359766,9.240137,6.7889647,6.5973144,8.28335
5.7159667,8.266748,5.9117675,5.8231444,7.227197
3.3653808,7.087793,5.8561034,5.633203,6.235986
2.4098144,8.268213,3.8180175,4.7577147,6.955957
4.9415526,9.843653,5.4308105,5.549463,8.669336
5.3844237,9.792627,6.2569823,6.270654,8.11294
10.487452,12.107813,10.486231,8.376612,11.465479
7.516992,9.72085,7.6012206,6.976953,9.568262
7.4569335,9.924707,7.591699,7.7367187,9.330469
7.4259276,9.764063,8.017969,7.8194823,9.137842
6.803369,9.253565,8.267725,7.749658,9.334864
8.042871,9.308741,7.9706054,8.539698,9.579004
8.980616,9.693506,10.027002,9.282373,10.285791
8.291407,10.531885,9.11709,8.908594,10.27627
6.4496093,9.689356,7.0174804,7.3841796,8.760401
7.6253905,10.149805,7.7330565,8.162989,9.656153
9.425928,9.018457,9.452295,9.073633,9.635645
8.569971,10.064844,9.386377,9.604395,10.081202
8.672266,10.56045,9.6271,9.795069,10.335352
9.99795,10.808252,9.314112,10.000147,10.7167
8.359766,10.4925785,9.298731,9.485743,10.089991
7.061914,9.106592,7.9168944,7.8697753,8.695215
7.860254,10.168604,9.114893,8.98208,9.809961
11.539698,10.728418,11.106592,11.196192,10.966944
11.548731,10.9457035,11.364649,11.156641,11.731592
8.0375,8.583887,8.817774,8.487696,9.323633
7.6202636,10.173731,9.757715,9.553858,9.786524
10.24917,10.566553,11.055323,10.9439945,11.589502
9.401026,10.257471,9.796289,10.58877,11.130762
12.267237,11.747461,12.256739,12.2599125,12.337305
7.4051757,9.783594,8.297266,8.39126,10.187159
10.1,10.765528,10.707911,10.6036625,11.190332
10.186426,11.475489,11.278223,11.241114,11.264063
8.522852,9.293604,8.270899,8.375879,9.898584
9.222803,8.860743,7.2696776,7.060449,9.901514
5.65249,7.7918944,7.0838866,7.0558105,8.172998
3.641992,7.308496,6.966455,7.2794433,6.44375
7.4137206,8.303858,8.027002,8.214014,8.132715
6.4220214,7.6793456,6.5001464,7.261377,6.896875
6.15957,8.186182,7.2447753,7.286035,7.9271483
8.718409,9.049219,9.602198,9.45083,9.6314945
8.338526,9.762598,9.144922,9.332666,9.412012
7.870752,9.358545,9.120508,9.401758,9.016993
7.7875,9.297754,9.058008,9.239405,10.1644535
6.6708007,8.757471,8.096094,8.2113285,9.777735
6.454248,8.201075,7.577783,7.640039,7.3006835
6.7066894,8.846582,8.003565,8.116114,9.1349125
9.142481,9.528955,9.001612,8.757715,8.5917
6.26333,8.874414,6.464502,5.7938476,7.657861
8.759668,8.695215,8.493067,8.972559,9.217676
8.739405,8.679834,10.584375,10.379541,8.364649
10.775049,10.152979,11.378321,11.226709,9.860498
10.641993,10.586084,13.371973,13.745752,13.137842
13.534571,10.874903,13.991846,15.292383,13.47085
16.78042,12.504297,18.176172,18.543116,16.684473
16.797754,15.121729,16.97378,17.083643,18.256983
14.798487,13.993555,16.350733,17.864649,15.34878
17.195948,15.602442,18.141748,18.225489,15.334864
13.982813,12.777002,15.592188,14.7877445,13.762842
13.433496,12.051661,13.892237,13.937647,14.033106
14.896875,12.886133,14.125635,14.174952,13.734766
9.2599125,11.049952,11.875391,12.1783695,12.597803
12.360987,10.892969,12.106836,12.50918,12.849512
12.741846,11.597071,12.501612,13.07168,12.9474125
11.598536,10.0375,10.801172,10.819971,11.766748
10.434473,10.375391,11.500147,11.246729,11.545313
7.3458495,10.765772,9.399805,10.519922,10.704981
12.171289,10.285303,13.059717,13.001856,13.527979
12.726465,11.4042,11.611231,13.842676,11.547754
16.605371,12.033838,13.666895,14.4596195,12.644678
14.294336,11.960352,14.225733,13.271875,13.932032
18.981592,13.540918,16.998438,16.779932,17.701075
21.603662,14.019678,19.753077,20.098291,19.022608
19.466455,12.547754,14.283106,16.170313,13.966944
8.509668,10.81045,10.434229,10.373194,11.19961
9.696924,10.586084,11.739893,11.8363285,10.775782
13.768946,12.392481,11.353174,12.086573,12.239161
16.14834,12.028711,12.887598,13.124659,12.663477
10.734766,11.241358,11.389063,11.207178,12.604883
10.141748,11.439844,11.131739,11.007959,12.498194
11.604883,11.108057,12.785547,12.124903,12.642969
13.191065,11.573389,13.527491,13.574854,13.333643
14.950342,11.956446,15.194239,15.042139,15.130762
15.025049,12.055811,15.444727,14.475977,12.164698
10.770655,11.302149,10.580713,10.9752445,11.596338
10.223536,11.123194,11.144922,10.863184,11.635645
9.07168,11.619043,10.694727,10.839746,10.991114
11.684961,12.238916,13.146875,12.905909,13.704004
14.341455,12.191309,14.402735,13.678614,13.207422
14.709375,11.751123,11.270655,11.512598,11.29043
12.594873,12.284815,13.05752,13.23208,14.412989
9.046289,11.852442,9.712549,9.376612,12.1939945
10.668116,11.989893,14.1002445,14.112452,12.50625
13.598047,11.847071,14.2877445,14.12002,12.611963
17.347315,13.1192875,17.245264,17.798243,16.494532
19.441309,16.140284,21.4042,21.422754,18.62417
20.69839,15.879541,20.933985,21.569971,17.36123
20.650293,17.37417,19.663965,20.485254,18.990625
24.697412,18.76919,23.56338,25.588282,21.425196
26.356348,18.17422,25.035059,26.644434,25.38296
21.791407,15.737452,22.146875,22.30337,16.377588
17.237696,14.853418,17.38296,17.254053,15.762842
15.370996,13.968164,16.915674,17.183985,15.214746
18.589746,14.3832035,16.433252,16.613428,16.266504
20.507227,14.807032,18.853662,19.332178,17.17666
19.640772,15.082422,15.747217,17.350489,16.122461
16.251612,14.870996,16.258936,16.216455,16.74209
18.04458,15.730127,18.087305,18.578272,18.619043
21.016016,17.908594,22.362207,22.131983,22.646875
28.156153,19.02212,27.230127,26.683985,26.930567
22.446192,16.568995,23.113672,22.085108,21.046778
20.641504,16.92959,19.513819,19.832178,18.311426
19.2521,15.641016,17.806787,18.17422,17.763819
18.663721,15.059717,16.931055,17.390772,17.338037
17.237207,15.459864,18.128809,17.780909,16.8688
18.22915,15.684473,18.467676,18.959375,18.644922
17.917383,15.706934,16.35708,16.302149,16.04873
16.72207,16.041407,17.248194,16.989649,16.034082
15.436914,15.677637,17.133936,17.33169,16.82168
16.574121,15.527246,17.391504,17.29165,16.77041
15.379786,14.708399,15.831446,15.724512,17.020166
13.560205,15.318506,15.776026,15.434717,16.50332
13.957666,15.3832035,17.264795,15.738428,16.271143
15.517725,14.69375,17.68081,17.61709,15.689356
18.241846,16.274317,18.037256,18.300196,16.488428
19.475489,16.387842,18.894434,19.347315,18.150537
17.37832,16.195215,18.881006,19.471338,16.812647
17.553858,16.592676,18.900537,18.872461,16.087793
17.957666,16.568018,18.606348,18.011377,18.047266
25.085352,19.57046,24.257471,23.841455,22.69253
29.303858,20.254541,28.921534,28.93667,29.783106
21.742579,18.339502,22.089258,21.524805,18.196192
21.239405,19.523584,20.13589,20.752832,19.913233
19.14297,18.245508,19.35879,19.646875,18.1979
18.252344,17.013819,18.965479,19.452784,17.611475
20.557032,18.386133,19.507227,19.24331,18.902979
21.858057,18.239893,22.579004,22.878809,19.005274
18.579004,18.56338,18.145899,18.635645,19.060694
19.570948,17.432032,19.441065,19.703516,18.875147
18.13589,16.869532,18.964014,19.099268,17.378565
17.825586,17.50625,19.05581,19.476221,17.81582
18.224512,17.214746,19.61001,19.558252,18.16421
17.338282,17.537989,19.183008,18.984034,17.47085
19.10708,17.609034,19.204004,18.904444,19.628809
19.767725,17.898829,20.052881,19.30337,19.697412
23.172022,19.013575,20.29922,19.882227,21.288721
18.284815,18.866602,19.932032,19.409082,19.621973
21.296778,18.39297,20.18081,20.554346,20.902002
22.773096,19.622461,22.21963,22.50625,22.740381
26.314844,19.269922,25.298243,25.097315,23.973536
28.001123,20.526514,25.66714,25.958643,24.661036
26.721338,19.882227,25.153955,25.215723,24.42544
33.2604,21.083643,29.22671,29.231348,29.882471
25.398096,21.029932,22.689844,23.645899,23.68545
21.806787,20.094141,22.131495,22.139063,22.331446
22.707422,19.748682,20.882471,21.980127,22.847559
25.109278,20.170069,21.20669,22.18374,22.938135
22.467676,20.354883,22.429346,23.04873,20.588526
22.025782,20.812403,22.17544,23.556543,22.241358
23.285791,20.098291,20.54873,22.026026,21.788721
23.53628,19.90835,21.659327,21.967676,21.225
24.41958,20.785303,23.093409,23.27334,23.108301
22.237207,21.282373,21.02212,20.053125,22.901758
22.869043,19.776758,22.200342,20.832666,20.354883
20.30337,19.587305,20.924707,20.320948,19.953516
21.086329,19.934229,20.361475,19.514795,21.05337
20.111963,20.375635,20.800928,19.82998,19.603662
18.932032,20.23086,19.550196,18.601465,21.370752
21.49917,20.462793,20.606104,19.51797,22.050928
22.216455,20.917627,21.553125,21.548975,22.090967
21.91958,20.301172,22.192041,21.496485,21.979883
24.142725,21.68667,23.896143,22.582422,22.07339
19.784815,21.524073,20.864405,21.364405,20.74624
19.458155,20.089014,19.197657,18.56875,19.532618
21.588526,21.094385,22.861963,22.938868,20.54458
22.531153,19.96255,23.142725,22.468164,20.83999
23.104883,21.267725,22.265772,23.27041,22.893213
23.436182,21.213526,24.604883,24.686182,24.701807
23.682764,21.74087,23.839258,22.662745,22.54336
21.431543,21.596582,22.174952,22.28335,21.067774
22.66714,22.167383,24.209131,24.177881,21.940088
20.669336,21.35708,20.819483,20.779932,20.26919
20.81167,20.231836,20.266993,21.163965,21.049463
21.41665,20.116358,21.425684,21.6813,21.43252
20.717676,21.569483,21.21377,21.809229,22.213037
22.36416,22.23379,23.152979,23.46255,22.206934
22.370752,22.58755,21.79922,21.878077,22.324854
21.8146,24.151758,20.96963,21.914942,23.24209
23.6271,21.365625,21.978418,22.448633,23.912012
22.326319,21.211329,22.137354,22.709375,22.281885
21.605127,20.837793,22.979883,22.758204,22.403223
23.64956,21.569727,23.980371,23.74087,23.859278
25.380518,21.58169,23.926905,23.273096,25.067286
21.594141,21.708643,21.41128,20.880518,21.751856
22.199121,21.66958,21.950586,22.03042,22.01211
22.240625,21.155909,22.46084,21.190332,22.170313
21.879786,21.061426,20.05752,19.706934,22.04336
20.303125,20.59878,19.379541,18.90957,20.011133
19.282618,21.374659,20.406153,20.684961,22.020899
20.873438,20.874414,20.284082,20.32046,20.281153
20.840967,20.90835,21.349756,21.428125,21.694483
19.922022,19.50796,21.359522,20.336573,20.955957
20.094873,20.35879,20.45962,20.440332,21.672022
25.38711,24.83755,25.906641,24.345362,25.459375
23.051416,23.144678,23.955957,23.715479,22.73672
18.573877,19.634424,20.17422,19.925196,18.903711
18.700586,18.534082,19.49502,19.129541,18.59292
18.209375,19.791407,17.242334,17.218897,18.760645
19.407373,19.766993,20.99624,20.4042,20.984766
20.152002,19.369043,20.333155,20.630274,20.297754
21.090967,19.593897,19.746729,20.47085,21.082422
20.345118,20.574121,20.295313,20.04165,21.36587
21.909327,20.381739,21.925928,21.515528,22.919092
21.65835,20.29165,22.485254,22.531397,21.574366
22.401758,22.51089,22.861475,22.60293,22.636866
23.284082,21.532618,21.938868,21.850489,20.700342
22.614893,20.270655,23.29043,22.79629,23.111475
23.60171,21.148829,22.362696,23.851465,23.466944
24.826563,21.396143,22.169336,23.063868,23.166407
21.586329,19.101465,19.101221,19.516993,18.560694
22.103662,19.138575,22.220362,21.308496,19.960108
21.541407,20.83291,20.467432,19.717676,19.670557
20.5104,21.120508,20.776758,19.62124,19.868067
18.713526,20.620996,19.976954,19.984278,19.822168
18.852442,18.709864,18.80581,19.54873,18.310205
17.125635,17.201319,15.050928,14.865381,17.478418
12.936182,16.6813,14.396631,14.293848,15.706934
13.547022,16.18081,14.490381,14.428858,15.585108
14.062159,18.186914,15.645655,15.596582,16.864405
16.647852,18.503809,16.941553,16.716455,18.465479
17.550684,18.454004,17.22964,17.699366,18.095362
17.828516,18.344141,16.922022,17.383448,17.521631
13.945948,17.063135,14.894922,15.118311,15.762842
14.608301,18.106836,15.802393,16.14834,16.780176
10.755762,14.928125,12.190332,11.915674,13.548243
12.137354,15.2564945,13.351465,13.315332,14.7738285
11.251856,16.560694,11.261377,11.127588,14.434717
12.74795,16.995508,13.732813,13.720362,15.669825
10.566065,15.888575,13.617334,13.902246,14.569483
8.516504,15.797022,10.775782,10.176416,11.701075
8.542139,14.342432,10.904444,10.670557,13.4125
11.848291,14.392237,12.235254,12.334131,13.455225
12.609278,15.64126,13.269922,13.617823,14.229883
13.56875,15.133692,13.877344,13.413965,14.816553
14.769922,16.256495,15.298487,14.6817875,16.195215
12.519922,16.023584,13.577539,13.438135,14.559717
12.168848,14.738428,12.809473,12.798487,14.13833
12.360743,15.024805,12.928614,13.422998,14.804346
13.114405,15.5292,13.2252445,12.825098,14.989893
12.568506,15.534327,13.444483,13.275049,14.126612
13.091211,14.535303,14.032129,13.066309,12.932764
11.424463,14.076319,12.122461,12.06045,13.01333
12.097071,14.263575,12.943506,12.716944,14.332178
11.184473,14.495752,10.922022,11.018213,13.395411
11.956934,14.9786625,11.951807,12.657862,14.065088
13.394678,15.941553,12.215235,12.025782,15.6661625
14.562159,16.126368,13.0238285,12.982569,16.265528
15.969629,16.246485,17.17373,16.762598,17.394922
14.694971,15.675684,14.409082,13.964746,15.405176
12.746485,16.018702,13.77627,13.842432,15.650049
12.149805,15.601709,14.705713,13.317286,15.038477
11.822657,16.011133,12.672754,12.778955,14.808496
12.53335,16.024805,14.364893,14.686426,13.991114
12.223536,16.06167,13.812159,13.99209,14.735743
14.132959,16.620996,14.928858,15.171045,16.223047
13.800928,16.784815,14.871485,14.800928,16.661524
13.643457,16.040186,15.042383,14.631739,15.33877
13.1800785,15.679346,13.724024,13.716211,15.257959
12.215967,14.97378,12.089502,12.052149,13.533838
10.887354,14.789209,12.486475,11.846827,13.117334
11.814844,15.267481,12.978174,12.59585,14.198145
11.857813,14.93667,12.1488285,11.746485,12.494532
10.4908695,14.1974125,11.193262,10.584131,12.516016
9.420069,13.329981,11.131006,11.094385,12.510645
7.414453,11.340479,8.309717,8.104151,9.2408695
6.7889647,12.38711,7.7000976,7.806787,10.571436
8.818018,13.274805,8.832422,8.809473,11.957178
8.123682,12.727198,9.596094,9.39126,11.175684
8.525049,12.985254,9.898096,9.703272,11.687891
7.280908,12.838282,7.176172,7.355615,11.814844
11.30044,14.783594,11.7755375,12.198389,14.205469
11.138575,13.81045,9.928858,9.78335,12.007959
5.212793,11.549707,6.7418456,6.478418,9.464258
6.3558593,11.748438,6.643701,6.723047,9.986963
4.491113,11.70083,3.9666991,4.843408,9.6314945
4.8385253,9.550684,4.233789,3.0570312,8.011133
7.672754,9.183008,5.473291,4.511865,6.7848144
6.31875,10.96377,6.386621,5.8961425,8.642481
