"[299, 255]","[227, 248]","[287, 319]","[279, 328]","[230, 262]"
12.816065,15.470606,14.418848,14.407129,15.656153
13.041651,15.258936,14.225489,14.268946,15.15127
11.058252,13.641016,12.3675785,11.785547,12.794825
10.41836,15.052149,12.642725,11.812891,14.753809
10.224512,14.794336,12.263819,11.637842,14.34878
10.139307,14.224512,11.333887,11.496485,13.351465
11.574854,15.126856,12.093409,11.987696,14.401514
10.732569,15.067286,11.933252,12.106836,14.231592
11.682032,14.83169,13.297998,13.619043,14.047754
10.903467,15.212549,12.48501,12.698877,14.717188
11.448145,14.908106,12.417383,11.816065,14.010645
9.3658695,14.646875,11.308008,11.285547,13.557032
10.279688,14.692286,10.656153,10.603174,13.461084
11.355127,15.3189945,10.84585,10.580469,13.934229
14.117334,15.719385,14.116114,13.673243,15.373194
8.403711,13.371485,9.159082,8.847071,10.974024
12.181055,15.353418,13.718653,13.772608,14.496485
12.954981,15.459375,13.814356,14.200098,14.891504
13.545557,15.302881,14.232813,14.056299,14.784815
13.64126,15.4317875,14.364893,13.890039,14.741846
12.700098,15.135889,13.38711,12.975,14.580957
9.254053,15.5099125,11.368555,10.215235,14.4283695
13.006006,15.566553,13.663477,13.423731,14.498438
7.2469726,13.043604,8.538721,8.734034,11.290186
12.043116,14.900782,12.595362,12.265772,13.911524
12.890772,11.1817875,7.7728515,7.4742675,8.520411
5.2538085,10.910791,6.095117,5.848779,8.700342
2.629785,10.560205,2.3321776,3.1178222,8.760645
5.443506,10.701563,3.1720214,3.4151855,8.849024
5.921533,12.948633,8.547022,7.622461,11.675196
6.0423827,13.091944,8.757715,8.346338,11.563868
8.035303,13.299219,9.272852,9.06875,12.464014
7.160547,12.575098,9.044336,9.083399,10.872217
7.9432616,12.812891,9.973047,9.890772,11.441553
9.544336,13.178858,11.048487,10.954248,12.22085
9.845606,13.11294,11.162012,11.166895,12.232813
10.603174,13.623926,11.5917,11.927393,12.98501
9.9283695,12.118555,8.462305,8.330713,9.54751
10.734278,13.984034,12.011866,11.621485,13.128565
8.613184,11.110743,9.995508,9.197901,9.78042
6.177881,10.951807,6.1410155,6.236963,8.616358
6.9745116,12.923487,8.369776,8.839258,12.320215
11.370264,13.818018,12.232569,11.986719,13.134668
11.83169,13.647364,12.174952,11.993555,13.010157
9.764795,12.547754,8.45083,8.655176,10.397852
6.4898925,10.610498,6.6961913,6.7691894,8.678858
7.445947,11.425684,8.941553,8.426661,10.223047
10.580713,13.119532,11.033594,11.04458,12.294092
11.616358,13.755518,12.427393,12.318506,13.329248
11.597803,13.765039,12.503077,12.017481,13.1314945
5.5316405,9.7130375,6.770654,6.551416,8.258936
5.0736327,9.406397,4.6795897,4.3839355,8.038965
12.099268,13.560205,12.41836,12.842188,13.781885
8.301416,12.021631,9.3519535,9.013819,10.952051
7.876367,11.930811,8.73086,8.632471,10.814356
9.06045,12.746241,9.855371,9.269434,11.621241
8.848291,12.447168,10.027491,9.630518,11.582666
11.773096,13.135645,12.125635,11.861719,13.298975
11.679102,12.935205,11.955469,11.863916,13.166651
10.967676,12.629786,11.432764,10.777002,12.118799
7.2748046,11.318262,8.907862,8.679102,9.996973
8.558741,11.237207,9.887354,10.11001,10.636866
6.759912,11.081934,7.9691405,8.04751,10.58584
6.664209,10.91128,7.3438964,7.480615,9.731348
9.170801,12.532618,10.886866,10.536036,11.799707
6.613916,10.890528,7.279199,6.954736,9.089014
4.650537,8.552149,5.583154,5.3370605,7.1375976
5.778955,9.205713,6.954248,6.7916503,7.926416
4.167871,9.055323,6.3788085,6.5555663,7.5086913
4.177881,9.297266,4.5423827,4.7745605,7.2726073
4.5855956,8.053614,5.5545897,5.6270995,6.629297
2.945703,7.924951,3.8880858,4.0885253,6.2157226
4.197412,8.490381,6.062158,6.0487304,7.596582
3.9623046,8.835596,5.3617187,5.5038085,6.4100585
3.8438964,7.56167,3.7228026,4.2228026,6.7591796
5.507959,10.358545,6.574365,6.947656,8.697657
7.7743163,10.533594,9.26626,9.461573,10.79336
10.374659,11.810205,10.995752,9.733301,11.682276
11.008692,11.861719,11.421778,11.02334,12.407862
10.748194,11.983057,11.645411,11.542627,13.072168
7.648828,10.638575,7.497461,7.369287,8.872705
5.126611,8.939112,5.5211425,5.3202147,7.5504394
3.4813476,8.5707035,4.025781,4.0956054,6.4710937
6.242578,9.22793,7.3731933,7.1986327,8.719385
5.2765136,7.936914,6.866113,6.7608886,7.4530272
6.3268065,8.699854,7.3856444,7.016504,8.163477
5.860742,8.527979,6.6302733,5.6615233,8.278955
3.9413085,7.287256,4.491113,4.5782714,5.9691405
5.4486327,10.024805,6.7142577,6.63125,7.780664
4.4793944,8.062891,6.525293,6.244043,7.098779
5.7867675,8.842188,5.3895507,5.141504,8.300196
3.1856933,8.488184,3.9066405,4.9479003,7.6683593
6.6944823,8.928614,7.8895507,7.853418,8.47378
7.9623046,9.545801,8.725489,8.701075,9.659327
8.426172,10.269434,9.830469,10.131983,10.931543
11.711817,11.601221,12.153955,12.292627,12.096582
12.707422,11.645655,10.832422,11.257471,11.379786
13.80044,12.726709,14.231836,12.88125,12.606592
18.150293,16.193506,18.594141,18.254297,16.846827
16.016748,16.66836,17.201563,17.778467,18.404688
10.399805,13.160059,12.40127,13.201319,12.3692875
7.882959,10.464502,8.579004,9.354883,9.61709
7.826074,11.035547,9.962061,10.560694,10.413233
7.004541,10.455225,9.895899,10.546045,9.742334
7.2726073,10.050196,8.747217,9.408838,8.41836
5.7887206,8.9769535,7.5589843,7.698877,8.517969
7.1512694,10.430567,9.541407,9.69375,10.335352
6.7333007,10.444483,7.0714355,7.2228026,10.11001
5.9688964,8.217676,7.5475097,7.408838,7.4203124
4.537988,8.298487,5.237451,5.3263183,5.963037
3.8670897,6.44082,5.9325194,6.146875,5.7503905
4.877588,7.3114257,6.286035,6.5711913,6.92666
5.267236,6.928613,6.273584,6.0543456,7.0316405
2.6363769,7.103418,6.3871093,6.56167,5.716455
7.705713,8.289698,8.4283695,8.22793,7.791162
6.279199,8.283594,6.4898925,6.1998534,7.568506
7.95083,9.873926,8.087061,7.9359374,10.18545
8.490381,10.995508,9.563135,9.650782,10.318018
8.539209,9.855616,10.072657,10.0689945,8.470362
10.528955,9.964502,12.361719,12.118799,11.261621
10.012598,10.663233,10.910547,11.662012,12.031397
13.669336,12.01919,13.826563,12.714502,13.959131
12.331202,13.296289,12.405909,12.502832,14.851465
13.409815,13.005274,12.85,12.933252,15.258692
12.41128,13.015039,13.011621,12.470118,13.142237
13.59585,13.120996,14.33877,14.761866,14.680811
11.773096,13.270166,13.037256,12.793604,12.944727
10.261133,11.753077,10.834864,10.22378,12.944483
11.0099125,11.42544,12.3033695,11.837305,12.59878
15.965479,13.690821,14.501856,14.900293,14.362207
15.691553,14.919825,15.929102,15.618067,15.402246
17.651026,15.674219,19.89248,19.34292,20.650293
16.366114,14.390039,18.087793,17.148829,14.613184
14.205225,12.323877,14.750635,14.196192,13.49917
12.577051,11.733301,13.649073,11.44253,14.327539
13.614405,11.724756,15.172022,14.744043,12.5238285
14.2442875,12.424952,14.930811,14.85,13.221338
11.142725,12.174463,10.537012,10.334131,13.0689945
14.163721,12.989649,13.287989,13.825342,13.054102
13.248926,12.7096195,13.846094,14.811182,14.083399
15.783594,17.218409,15.6488285,15.600733,15.909571
12.229395,14.936426,12.265039,13.797266,14.616846
10.792871,11.988184,12.871485,14.015528,11.731592
7.7467284,12.4439945,13.858057,13.919092,11.2877445
13.210352,12.189844,14.112452,13.850733,13.407862
10.590235,13.611475,11.806055,10.815577,14.657618
10.891016,13.104639,14.1957035,13.837305,13.575586
13.162256,12.455713,14.763575,14.99502,13.916895
15.5917,13.163233,16.792871,17.171778,15.722071
16.028711,13.3067875,16.817774,16.652979,15.154932
17.21377,13.938623,17.089258,17.277002,16.491846
17.797022,15.405909,18.879053,18.400782,17.296534
14.309229,13.421778,15.237452,14.797998,13.779932
13.540918,13.3050785,14.215479,14.1939945,14.0375
17.662989,14.514307,15.390039,14.417383,13.875147
15.18252,14.856836,16.294092,15.1627445,15.502344
16.878077,13.074854,15.451075,14.790186,12.908838
13.967676,13.757471,16.16836,16.062647,15.225489
16.209131,13.66543,15.690088,15.192286,14.116114
13.572657,13.22085,15.003321,14.725489,14.678614
16.735498,13.665918,15.703516,15.66543,15.723291
17.438623,14.444483,16.092188,16.79873,16.541895
21.148584,17.68545,22.106348,22.0021,20.505274
20.649805,18.379541,21.280909,21.93545,21.700342
22.891748,17.21963,23.065577,22.627344,23.282618
17.554346,15.884668,17.673487,16.022364,15.545557
12.733789,13.18667,14.360987,14.239405,13.7894535
9.007227,13.8067875,11.098536,11.840967,13.168848
17.209375,16.379053,17.383448,16.819239,16.952784
16.921534,15.984278,18.685205,19.01089,16.867823
14.857813,15.189356,16.232569,16.126123,16.176905
16.27334,15.853174,17.492334,17.246729,15.774073
17.581934,15.843164,20.172266,19.913965,16.786036
19.27505,16.074366,19.705225,18.861475,19.160547
17.248682,15.526514,14.723291,14.879297,16.396631
13.087061,14.702784,13.968653,13.582178,14.875635
12.999414,14.390528,15.126368,15.7286625,15.301905
17.967676,15.92959,17.35171,16.32583,15.289209
14.236231,14.542627,13.09878,13.787256,15.207422
12.78628,14.524073,13.610743,13.978907,13.256739
15.812891,14.796534,16.241846,16.026514,16.473536
13.667383,15.837305,12.882227,12.189844,15.38003
15.46377,15.64419,16.63711,16.217188,16.490137
15.897364,15.764063,17.852686,16.875147,17.402246
16.481836,16.152979,17.566309,16.936426,18.254053
17.787012,16.033838,15.851709,15.467188,16.608301
15.493311,16.068018,16.500147,15.871241,17.226221
15.788965,15.077784,16.656153,16.319483,16.700586
20.822168,16.264063,18.7438,19.117579,18.341211
15.01333,15.8832035,15.748682,14.757227,16.393702
13.948877,14.917383,15.113916,15.030176,15.209131
11.97793,16.160303,12.576319,12.804346,14.973047
16.706934,15.513575,15.07876,15.182032,16.669825
17.671778,16.711329,16.542627,16.504541,17.68252
16.282373,16.311914,17.218653,16.704737,16.916407
14.499414,16.311914,15.061182,14.415918,17.699121
14.382959,16.032618,17.02041,16.974268,16.805567
16.048487,17.028955,17.170801,16.082422,17.57998
22.000147,17.625391,18.691065,17.857569,20.77334
21.706446,17.295069,17.377344,16.619043,18.347559
20.48208,14.860498,12.537256,12.195948,14.183008
17.583399,16.158594,17.567774,17.033594,16.060938
17.919825,18.251612,17.909327,18.376123,18.448145
18.449854,18.197168,18.347315,18.907862,18.325342
22.314844,20.884424,21.121729,22.801416,22.38296
23.87124,20.724512,23.242579,23.575586,21.697168
22.231836,20.912256,21.876123,22.274317,22.269434
23.876368,21.054346,22.101954,23.326319,21.244776
24.762842,21.629541,22.574121,23.808252,22.001856
23.065332,21.704737,22.177637,23.039698,22.685938
23.788721,21.525782,22.863428,23.580225,22.236475
22.558496,20.613184,21.848291,21.24331,22.78457
23.694483,19.021631,22.11831,21.864649,19.996485
20.076319,18.992823,20.1354,19.453028,19.374414
22.451319,19.457422,21.284082,20.74087,19.877832
21.20791,19.671534,21.81753,21.193995,21.88711
21.468897,19.831202,19.39834,19.183008,21.44253
18.155176,19.129297,19.679102,19.146387,20.247461
18.86831,19.64712,14.296289,14.01919,20.312647
16.466211,17.510157,16.77505,17.336573,17.755518
16.618067,18.237696,16.753809,16.179834,18.457666
19.0021,19.333399,18.463037,19.136621,20.66958
18.757227,19.33291,18.19253,17.230127,18.403223
20.916407,19.143702,19.190332,19.121973,19.883448
19.232569,18.95498,20.221582,19.66836,20.083399
18.911524,18.945704,19.789454,19.202051,19.547754
20.010157,18.631983,18.818018,18.506495,18.911036
20.096582,19.55337,22.644434,20.858301,21.31338
20.911768,19.254786,21.933008,21.266504,20.781641
20.145655,21.598536,19.505274,19.184229,21.675196
22.362207,20.971338,23.297266,23.062403,25.961573
24.723047,20.734766,21.539698,21.221827,22.176905
24.46792,20.909815,21.56753,21.628809,23.855616
21.98672,20.64126,22.363672,21.467432,20.825098
20.14712,20.194971,20.281397,20.15835,21.426172
19.433985,19.505762,19.90542,19.600733,20.701075
21.467676,20.642725,20.171778,22.026026,21.176905
21.992334,20.501123,20.870996,20.945704,21.110254
21.898829,20.5104,21.23501,21.253565,20.997217
27.456202,20.957666,23.617334,23.521631,23.16421
21.643213,20.35415,21.717676,21.936182,20.985254
20.598047,20.0729,20.756739,20.138575,20.989649
17.940088,20.068995,18.968897,19.049463,20.136621
20.319483,20.983545,21.80874,21.288477,20.379053
22.76748,20.754053,23.771387,23.796534,20.64297
23.287745,20.9667,24.271387,23.96206,21.230616
22.873682,20.514307,23.091944,21.941797,20.268946
20.00088,20.323145,21.452784,20.889795,20.055079
23.49331,20.718164,25.19253,24.496485,23.851221
25.399317,21.945948,26.512598,25.52749,24.954737
23.234278,22.17544,23.960352,23.343164,25.20498
26.246485,23.715967,26.423243,26.104883,27.5292
29.52749,25.657373,26.678614,26.146143,26.31875
32.08364,28.084375,30.844385,30.38418,31.749903
27.216455,23.8229,27.531641,27.079004,25.319483
27.739649,23.584375,26.144922,26.241602,25.047022
21.926905,23.418848,22.372705,22.138575,22.099512
24.946436,22.429346,21.861963,21.546045,22.475977
22.373194,21.553614,20.568018,20.694971,22.402735
20.060694,21.117334,20.65957,20.568506,21.60171
22.903467,21.873438,22.054346,21.888575,23.345362
23.512354,21.714502,23.765528,22.87002,23.8417
25.700342,22.328028,25.500391,25.496485,25.903467
29.695704,23.617823,27.818506,27.822168,26.376123
26.555567,22.340235,24.499414,23.591455,24.30874
25.626123,22.355616,26.049952,24.264795,25.071436
31.03335,25.146143,29.522364,29.020899,27.248438
30.873194,25.816065,30.521875,30.90542,32.042625
35.437157,25.54214,33.2228,33.152977,32.214012
26.228174,24.256006,24.850977,24.246485,22.7792
28.237207,23.639551,27.092432,26.83999,27.582422
31.340235,27.158106,29.704737,29.755518,29.853418
34.251366,29.389063,31.75503,31.711573,39.030174
37.72329,29.610987,36.30703,37.020164,39.555565
38.528954,27.50332,36.143456,36.600487,35.795067
38.41665,30.00088,37.907127,38.180077,41.22793
29.503809,23.73794,27.645899,29.906397,24.855127
21.147852,21.266016,21.426172,21.05752,20.528711
20.95962,22.11587,21.143946,19.396143,21.561914
20.996973,22.547754,23.285303,23.225,22.42959
18.934717,21.090967,18.395166,17.787989,19.977686
17.926905,18.15957,18.402002,17.707422,17.09707
20.16543,19.50918,19.395899,18.997217,19.75625
22.574854,20.666407,21.476954,21.752344,21.310938
20.096827,20.59292,19.224024,18.846338,19.417871
17.26504,20.069971,18.243067,17.579248,18.358545
20.215723,20.297266,18.983057,20.156885,20.128565
20.510157,20.270166,20.95254,19.787256,21.164942
22.451075,20.516504,20.524073,20.55459,20.725
16.12832,18.335352,16.598291,16.121485,18.40835
18.63833,17.752344,17.955225,17.498682,18.108301
20.287989,18.985987,17.92544,18.228174,18.815332
16.88833,18.833643,16.084131,16.351465,17.528955
16.934473,18.812647,16.762842,16.573633,17.889551
16.140528,17.315577,16.363428,16.176416,16.411768
20.417871,20.108301,18.512354,19.936914,20.263819
22.682032,20.015772,19.941309,21.1271,19.20498
23.00088,20.107325,19.904688,19.828516,20.285303
21.07754,19.421534,19.181055,18.676416,18.567286
18.409082,19.50332,17.45669,17.26797,19.018213
16.19961,19.654932,16.061914,15.967676,18.711573
18.914698,19.970118,18.945948,19.20547,19.478174
16.956202,19.370264,16.740137,16.041162,18.0104
14.045069,16.39834,13.675196,13.636133,15.314112
17.45669,19.66543,18.252832,17.130274,18.934229
14.1896,17.224024,15.4144535,15.010645,16.205957
15.118067,16.731104,15.014551,14.878077,16.025293
17.335108,19.67959,17.529444,17.131739,20.321436
17.966455,20.293604,18.304102,18.302881,20.973291
21.118067,21.169336,20.400293,20.411524,23.097803
21.681055,20.085596,19.913721,19.851954,19.582178
17.057276,18.620996,16.871973,16.838037,18.4938
18.814844,19.30581,18.564844,20.14297,19.623926
19.066309,19.159327,18.17666,19.119776,19.294092
19.817286,19.447657,17.68374,18.256739,20.212793
19.753077,21.509424,20.528223,20.583887,24.005274
20.955225,20.162745,21.602686,21.226221,20.858301
18.38003,20.273096,20.000391,19.141016,21.194483
20.032862,19.671534,20.077051,20.454737,20.078272
15.922022,18.390284,16.394434,15.747705,17.97207
14.0411625,17.785791,13.995264,13.637842,16.007715
12.7442875,16.853907,13.121729,13.208399,14.891016
14.714991,17.781885,16.165186,15.586573,17.058252
16.293848,18.21499,16.022608,16.92837,17.513086
15.734278,18.734278,16.612207,16.616358,18.372217
15.81875,18.61001,16.89834,16.318506,18.907862
15.249659,18.368555,16.506739,17.117579,17.28457
13.57168,17.276514,14.256006,14.339014,15.465967
16.05337,18.042627,17.053858,16.812891,17.734522
15.914209,18.630518,17.336084,16.974268,18.103907
11.917383,17.860987,13.348536,13.453272,16.294336
11.202784,15.645411,12.586817,12.481592,15.280176
12.016504,14.520655,12.556543,12.498682,13.870752
10.902246,14.079981,11.664698,11.658106,12.64126
10.724756,13.579737,11.503565,11.528223,11.856836
10.854395,17.579737,10.741114,11.009668,14.865381
13.074854,18.318018,14.067041,13.440821,17.63003
15.667139,18.622217,17.3229,16.988428,17.910791
10.491602,15.62002,11.675928,12.501368,14.250635
11.680323,15.967188,12.854395,12.075098,14.82461
11.647364,16.052149,13.249903,13.424952,14.9786625
13.977442,16.612452,14.439112,14.876612,16.211573
14.00625,15.697657,14.45376,14.862452,15.44375
11.383692,14.843653,12.609278,12.121729,13.892481
11.453028,14.118799,10.499903,10.779444,13.253565
8.149317,13.351221,11.767237,11.557276,13.0082035
9.947657,13.045069,10.413721,9.550196,12.035303
11.20376,13.49502,10.157373,10.092188,12.297022
8.728907,16.467188,11.610987,11.697657,14.707666
9.8849125,16.184229,11.846094,11.675196,14.235498
7.846826,13.969385,8.52334,9.093897,12.019678
9.797022,16.031885,12.06753,12.49917,13.796778
11.804102,16.586084,13.363184,13.983057,15.716211
12.902002,16.307032,13.763086,14.7894535,15.558008
14.232325,16.02749,14.479395,14.521387,15.202784
14.705957,16.939112,15.312647,15.321192,16.610987
14.793848,17.093653,15.587061,15.205957,16.445215
13.842676,15.370508,14.871241,14.0846195,12.966455
8.147608,13.507959,8.954493,9.457178,11.22378
11.010645,15.7442875,12.776514,12.96084,14.31753
