"[299, 255]","[227, 248]","[287, 319]","[279, 328]","[230, 262]"
11.1002445,14.9144535,11.09878,11.649317,13.12002
11.134668,15.313135,11.158594,10.876612,13.087061
12.9908695,16.268946,13.638575,13.725489,14.6644535
12.479151,14.933985,13.204004,12.464746,13.318018
12.972071,16.969873,14.225,14.216455,16.040918
10.741114,15.472315,11.865381,12.161036,14.393946
11.227442,14.770411,12.058985,11.558252,13.181543
11.202539,14.494532,12.093409,11.6175785,13.022852
13.018946,16.07339,12.379297,12.328272,14.85293
12.292627,15.582911,12.153955,11.725,13.758448
13.237452,15.88003,13.35,13.011133,14.920557
16.024317,17.420801,16.089258,16.269434,16.469385
13.90127,16.238428,14.085596,12.569239,15.596827
14.177149,16.333155,14.704737,13.909082,15.587305
13.207911,16.17422,13.433741,13.000391,15.140039
14.673487,16.295801,12.833155,12.423243,15.844385
10.868067,14.519434,11.590479,11.17959,12.718653
9.775782,13.777735,10.970362,10.968409,12.652979
8.179834,11.849024,7.197412,6.4010253,10.16543
13.437403,15.917383,14.509424,13.268702,15.4596195
14.801172,15.954981,14.943262,14.7252445,15.460352
8.30459,12.464991,9.043116,8.78628,10.928125
10.340967,14.81875,10.290674,9.201807,13.1175785
10.324854,14.325098,10.237452,9.453028,11.907862
7.7188964,13.262354,8.491602,7.515283,9.284082
4.791162,11.121241,5.4518065,5.320947,8.844873
6.2245116,11.271387,6.797998,6.681543,9.19375
6.3197265,11.474756,6.5509276,7.174951,9.294092
5.785547,11.707911,5.6534667,5.8924804,8.463282
7.46499,9.86294,6.405908,6.005029,8.1800785
6.660791,13.090479,7.98208,7.6112304,11.907862
8.621973,13.214502,9.262842,9.191797,11.98086
6.7604003,12.298975,7.5802245,7.572656,9.460596
5.5714355,10.660791,4.231836,4.4984374,8.421534
7.191797,12.686426,9.288965,9.533838,11.250147
10.697168,13.587305,12.369776,11.927881,12.915674
11.219629,14.081934,13.162989,12.409082,13.653223
8.890039,13.370264,7.65542,7.1725097,10.667627
4.9327636,10.124414,5.41958,5.2501464,8.124903
3.7906737,9.870996,2.5814452,2.7936034,8.250147
10.080957,13.166651,11.58877,11.480616,12.308252
10.248926,12.314844,9.03335,8.372217,10.508936
6.8131347,10.985498,7.547998,7.055322,9.651026
5.9552245,10.249414,6.7867675,6.5233397,8.565332
9.386377,12.533106,10.058252,9.646875,11.846582
6.925195,11.082422,8.366602,8.124903,9.848536
5.323877,10.280176,5.3629394,4.829248,9.192774
4.8509765,8.979151,6.1249022,5.768945,7.7523437
5.160547,9.272364,6.428613,5.897119,8.299463
6.400781,9.754297,7.5248046,7.5055175,9.284327
5.3561034,8.615137,6.723535,6.503076,7.973047
4.6690917,8.096827,5.91958,5.3456054,7.2691894
4.8858886,8.238428,5.551416,4.9603515,7.3680663
4.658838,9.619776,3.924707,4.3216796,7.6305175
6.280908,9.673243,7.6185546,7.70083,8.96792
7.7889647,9.6471195,6.4273925,6.7418456,8.865137
6.2520995,9.877344,7.4149413,7.5094237,9.668848
5.0018554,10.302881,6.831445,6.169824,9.376368
8.85,12.270166,11.139063,11.176661,11.875879
10.208399,11.93252,11.306055,11.909327,11.690332
12.925928,12.572168,12.33877,14.145166,12.717676
11.670801,12.378321,11.830957,11.966211,12.498438
6.3092284,10.614405,8.637598,7.9051757,9.415918
5.213281,9.870996,6.327539,6.273584,8.043848
4.8058105,9.635157,5.9432616,6.236963,7.8583007
4.202539,11.2269535,4.0926757,4.169824,10.286036
9.930323,11.972559,10.639551,10.112207,12.067774
7.6930175,11.059229,7.7054687,7.3648925,9.040918
4.591699,8.940821,5.035791,5.057031,7.742822
3.2447753,8.281153,3.5782714,3.6861815,6.6583495
5.239404,10.685694,7.4898925,8.140772,9.722803
7.4554687,10.994532,8.669336,8.878809,10.159082
9.105616,11.587305,10.252832,9.810694,11.606104
9.725977,12.308741,10.795801,10.544092,11.869532
11.014551,12.296289,11.975733,11.833643,11.909082
8.669092,10.537256,8.8146,8.653711,10.079737
7.033838,11.474268,7.86416,7.711084,9.516748
7.8419433,11.028955,8.461084,7.65957,9.110254
7.2816405,10.54336,7.846582,7.6256347,10.263819
5.617334,11.437403,7.508203,7.2813964,10.653467
5.981836,11.181055,7.0194335,6.6859374,10.587793
8.583155,11.1800785,9.431299,9.0238285,11.287012
7.8802733,10.800928,10.09585,9.758692,10.625147
9.823633,10.569971,8.209131,7.709863,10.000391
6.8680663,9.942774,7.2176757,7.2154784,9.003565
5.200586,10.506739,5.9879394,6.1249022,7.6219726
10.212061,11.477198,10.170313,11.064112,12.404688
5.849756,10.264551,8.452539,8.665674,8.901026
8.9667,10.416407,9.69253,9.745752,10.970118
11.732813,12.364893,10.843653,12.1332035,13.360987
13.159327,12.514795,11.764307,13.12295,13.282862
12.35,12.346582,13.486719,13.362207,13.864649
14.236963,12.431543,12.38125,13.573877,12.770899
9.285547,11.896875,10.129053,10.141504,11.172754
8.190088,11.733545,9.399561,9.365381,10.855371
13.414698,12.298243,12.199854,12.502588,13.429346
9.510889,11.73794,9.233789,9.239161,11.06753
9.535303,11.339746,10.431543,10.031885,11.868555
8.376368,11.2425785,8.680567,8.696924,10.235743
7.522363,11.464258,8.579248,8.230371,10.311182
11.329737,12.467432,10.811426,10.660059,11.923975
7.162256,10.111231,9.3675785,9.673487,10.155176
6.93667,9.735743,8.097559,8.309961,8.974512
6.778711,8.747705,7.903711,8.041651,8.648584
7.376611,10.511377,7.9930663,7.8878417,9.568506
11.833887,11.682276,10.555811,10.9457035,11.899073
10.068018,11.767481,11.699366,11.62002,11.797754
10.851465,12.220362,12.255518,12.296534,13.439356
14.474756,12.483545,11.815332,11.860254,14.305811
13.892237,12.1192875,13.630762,13.408106,13.766016
15.261866,12.049707,11.122705,12.646875,12.102686
14.3363285,11.6314945,11.758692,13.183741,12.809473
16.080957,13.957422,16.151026,16.829248,14.118067
13.600489,14.604639,14.176661,13.831202,18.454493
14.249659,12.483301,14.491358,14.3814945,14.901514
12.064356,12.188135,11.500879,11.863184,12.592676
16.227198,12.718897,13.014063,13.3346195,12.885645
13.95083,12.857325,14.149317,13.826563,14.694239
11.266748,12.110254,11.732813,11.271631,13.254297
12.063135,13.004786,11.4613285,11.899073,13.056055
14.349268,12.427149,13.874903,14.289942,14.640039
10.85,12.03335,11.571436,11.417383,12.945215
9.13003,11.734034,9.149805,8.751612,10.121973
8.471582,9.906153,8.263819,8.494776,9.385157
8.215967,9.534327,8.840967,8.334864,9.464991
8.798487,10.1817875,9.586084,8.836573,10.027735
8.058496,10.068506,9.9396,9.673975,9.969385
8.644922,9.941309,10.051416,9.665918,10.618555
8.186426,10.826807,9.995508,9.799707,11.296534
8.550196,10.729395,9.840235,10.975489,11.333887
10.849268,12.353418,12.31045,12.358301,12.729639
12.161036,11.380274,13.548731,13.590723,10.652246
12.317286,11.924463,14.275293,13.903711,12.633448
10.85,11.781885,11.734766,12.049952,12.640528
13.887842,12.957178,15.029444,14.895411,13.616114
13.063135,13.5099125,15.41836,15.505762,14.626612
15.531153,15.0724125,16.537745,17.177881,15.807276
17.045801,16.284815,17.332422,17.182032,17.418604
18.450098,14.598047,17.72085,17.83877,19.079248
12.361231,13.511866,16.306055,16.060694,14.802393
16.181055,12.187891,17.914698,16.876612,15.4042
16.971582,15.017725,18.431787,18.447657,20.064844
18.796778,15.759424,19.414698,19.763819,17.195704
18.314356,17.686914,18.180567,18.840967,19.016748
15.941797,17.379053,17.692774,17.96499,18.95547
17.345606,16.047998,16.72793,16.58755,17.713526
13.566553,13.231836,13.639795,13.690332,14.341944
9.896875,13.217432,12.227442,11.388819,12.55459
12.069727,12.467676,13.200098,12.754786,11.920801
10.38003,13.193506,12.704737,13.068018,14.554102
11.041895,12.853174,15.424463,15.423731,14.013575
12.387354,12.91958,15.612207,15.557276,14.735254
14.41836,13.287989,15.086817,15.0646,13.475977
14.752344,13.311182,15.843409,15.532373,15.6019535
16.347803,15.639795,16.30337,14.698877,16.960352
18.798975,16.52212,19.582666,18.753565,16.860987
22.424463,18.068506,18.636866,19.984522,18.999903
15.982325,17.625635,15.501612,16.20498,17.494043
15.737452,14.716211,17.231836,17.580225,15.282862
18.031885,14.662256,17.932032,18.499659,17.06045
15.968653,14.762842,15.183496,15.24502,14.428125
12.254541,13.755762,14.373194,13.722315,14.046045
14.579248,14.055811,17.170313,16.963282,15.815088
16.902979,14.359034,18.583399,18.3229,16.072168
15.684473,15.667139,17.747705,17.578516,18.21206
20.475,15.450586,17.411524,17.007471,18.08291
14.160303,13.465967,15.4667,14.871485,13.846582
14.744776,15.018213,15.643702,14.5533695,14.941309
16.233545,14.808252,16.250635,16.708155,14.708887
16.819971,16.28042,17.94961,18.351954,16.982325
16.42837,16.989893,17.106348,17.841944,16.770899
15.971827,16.87295,16.336817,18.029688,16.746485
18.176905,18.00796,17.200098,19.578272,18.051172
17.878077,18.483057,16.705713,17.64126,18.776514
19.976954,18.96792,18.508448,19.336817,19.672266
20.829248,20.033838,19.60293,21.675928,21.17666
23.737207,22.19668,21.12002,22.5021,22.917627
24.368555,18.71963,21.6188,20.45083,21.788477
22.047998,16.668604,23.86123,23.883204,21.701563
22.350489,16.773096,21.994043,22.414698,20.482325
23.96499,19.238184,25.855371,25.839502,19.986475
25.031153,17.919825,25.663477,25.722315,20.623926
25.73379,19.369043,25.345362,26.018702,23.654932
23.746485,19.576807,18.890284,19.185694,20.052149
26.596338,19.01504,25.172754,25.641016,24.106836
28.818262,18.195704,24.788721,24.777979,20.574854
16.534815,16.636133,16.560938,17.60415,17.075098
16.400537,16.047998,18.658838,19.100245,17.136133
13.194483,17.203516,15.792871,18.116358,17.39248
19.412256,18.69668,23.098536,23.04458,19.46206
21.932032,17.80581,23.894434,25.230127,20.015284
22.805323,20.526026,23.268457,23.399317,21.252344
18.093409,19.205957,22.08877,21.901026,19.765772
22.491846,21.090967,25.304102,24.777979,22.379541
23.172022,21.05459,24.067041,23.757715,22.135645
23.318018,21.32583,24.814356,25.46206,21.995264
22.290186,20.812159,25.23208,25.56045,21.92959
20.035547,20.954493,20.896875,21.441065,22.395166
20.663965,19.97378,22.341455,22.588526,19.14004
24.475489,20.543604,25.840967,26.068262,21.54629
25.96963,19.826075,26.99795,27.942286,24.245508
24.391993,20.84585,25.357569,25.586329,20.808008
22.511377,19.784327,23.68252,23.70547,20.110987
22.28213,21.116846,22.27456,22.839746,21.625635
23.652002,20.153223,23.243555,22.348536,22.264795
18.982569,18.5563,22.04043,21.162256,19.853174
23.587305,21.1625,23.85586,23.613672,23.098047
22.420801,20.497705,24.508448,22.680323,23.436182
24.270166,20.585596,23.190577,23.750635,24.16543
23.153955,19.65542,24.035791,23.193506,21.224512
22.185938,21.076319,23.30459,23.629297,23.207666
23.974268,21.382715,23.358545,24.15249,24.005274
21.423243,21.287989,22.912012,23.403955,23.20083
24.445215,21.915186,25.07168,25.06582,23.547754
26.311426,22.256983,25.807276,26.582178,25.458643
29.769678,22.470606,25.915918,25.404444,25.248438
28.63711,22.527246,28.132715,27.629053,25.847559
25.806787,22.770655,26.322168,25.738184,24.713282
24.793848,22.145655,26.158594,26.542871,23.711084
24.54751,21.89126,24.151758,23.718409,23.220362
24.311914,21.465967,24.422754,24.247461,22.545069
23.013575,21.995996,23.42129,24.179346,24.102442
23.225489,21.25503,21.751368,22.001123,21.773584
23.359522,21.651758,22.769922,22.884668,22.83877
22.521631,21.446192,23.788965,23.906885,21.587793
23.86001,21.765772,23.547022,23.427637,21.7167
24.90005,22.390284,24.180323,24.046778,22.494287
27.628809,22.7167,26.156397,26.74209,24.97085
23.589502,21.77041,23.740137,24.535303,21.874659
22.918848,21.26504,23.843653,24.318018,21.929346
21.417627,22.279932,21.238672,21.400782,22.662256
22.251123,21.543116,23.75625,23.130518,23.443018
24.274317,21.953272,25.55166,25.631495,22.601954
23.71792,22.721094,22.261133,22.316309,22.693506
24.345606,22.297998,24.437159,23.83291,23.599024
26.149317,22.966455,24.295557,24.318995,25.342432
24.70376,23.062159,24.777979,24.518946,24.958643
28.614893,23.809961,25.912256,25.753565,26.085596
24.954737,23.162989,24.336329,23.808985,23.612452
25.066553,23.159815,23.899805,24.083399,24.195704
24.614405,22.996973,23.41665,23.360743,23.320948
22.898829,23.149073,23.330713,23.635645,24.876612
24.303858,22.769922,24.693262,24.060205,22.568506
24.39956,22.721827,24.662012,24.458155,22.503565
26.4396,23.884912,25.305079,24.70376,24.607569
23.565332,22.339502,22.234766,22.1979,22.389551
20.30874,22.31875,20.775537,22.428614,22.335108
19.61123,23.216211,23.237696,23.256495,22.797998
22.648584,21.855127,21.920557,22.288477,22.639063
22.296534,21.87295,21.86587,21.508692,22.787012
20.807276,22.626123,22.002588,21.420313,21.90542
21.574121,22.61001,22.365137,21.803858,21.355371
24.273096,21.579737,23.458887,23.569239,23.367823
25.235743,21.864893,23.308985,23.63833,24.475489
22.922998,21.667871,23.099268,22.621729,22.843897
24.39541,22.754786,23.829737,23.357813,24.316553
27.198145,23.264551,25.482569,25.036524,24.800196
26.488916,23.312403,26.023584,25.598291,25.643946
23.146631,22.86587,22.9667,22.502832,22.504297
21.478662,22.227686,22.218897,22.508692,21.600977
24.155664,22.924463,24.56338,23.36587,24.610987
27.173243,23.264795,25.745996,25.580957,25.852198
27.131006,23.089502,25.537989,24.270655,25.981592
28.191309,23.319727,26.711817,26.534082,25.634668
26.160791,23.181787,23.357569,23.278711,23.684961
23.941553,24.21084,23.590235,24.01919,23.508448
26.05874,23.026514,25.139063,24.808496,24.828516
27.55166,23.229883,24.89541,25.213037,25.210352
25.214502,23.14956,23.902246,21.749414,22.847559
26.288233,23.3771,24.347803,24.373926,23.825342
23.316309,22.792627,23.349024,22.402246,23.988428
22.015772,22.17666,21.516993,21.326319,22.076319
21.124659,22.651514,22.728907,22.287989,23.703272
24.339502,22.643457,24.332666,23.543604,24.627832
21.583887,21.286036,21.117334,20.931055,21.096827
21.94253,21.120752,20.695215,20.725245,20.855127
22.637354,22.274073,22.703516,22.997705,23.23501
24.016993,22.189112,23.689112,22.879053,23.64126
27.710352,22.55581,25.502832,25.106348,22.305323
27.228174,24.723047,26.048243,25.6,26.415186
24.419825,24.702051,24.557032,24.866846,26.818262
23.488916,23.391748,24.40957,24.85879,25.441797
23.528955,24.056055,22.6896,22.850489,23.100489
23.701807,23.610498,22.34292,22.143457,23.067041
26.110743,23.397364,24.361475,23.76626,22.762598
23.87832,24.479395,23.654444,23.803858,24.173975
23.63296,22.232813,22.33462,22.370752,22.013575
20.496485,21.10708,20.757471,20.211084,21.009912
20.131006,20.41421,20.003077,19.54165,19.722559
20.913721,20.679346,20.57046,20.22378,20.9396
21.93374,21.78213,21.495508,20.967432,21.051905
22.839502,22.306543,22.641504,22.1813,23.526514
25.020166,23.44668,24.234766,23.961329,26.079004
27.441065,22.971582,26.321924,26.164454,27.503809
22.517725,21.589014,23.617823,23.93374,21.75088
21.668604,21.646387,22.611475,21.899317,23.812403
24.140772,22.014307,21.464502,22.381006,22.88296
23.127588,21.699121,22.133936,21.88003,22.272364
25.095362,21.776758,23.794336,24.062647,23.711817
26.742334,23.74087,25.887842,25.79458,26.365625
26.995752,25.511133,25.959131,26.011866,28.626856
25.328272,22.552881,23.024073,22.346094,21.574366
26.197168,21.285547,22.459131,23.082422,21.76626
26.418604,20.63125,20.365625,19.856592,19.15127
22.473047,21.863916,22.036524,21.933008,22.299952
28.131983,25.263575,25.785547,25.172754,27.757715
28.317774,25.26919,27.41421,27.144678,28.605127
26.340479,23.429102,25.674463,25.17129,25.05166
23.964014,22.679346,24.513819,23.886133,23.830957
23.338282,23.881495,22.987696,23.659082,23.376856
26.283594,22.660059,24.998194,24.928125,23.370264
26.281885,22.7875,25.2604,25.538233,24.535547
19.342432,21.269678,19.055079,18.71499,20.18667
14.760889,18.732325,15.714258,15.493311,17.859522
17.656397,20.951563,18.8146,18.570704,20.002832
18.698877,20.797754,17.94082,17.97915,20.133692
16.662745,20.860743,16.453272,16.550196,18.44961
17.260645,20.152246,17.831202,17.488916,19.613672
18.869532,21.626368,19.68252,19.735498,20.43374
17.4938,20.00796,15.851221,15.6625,17.482325
15.847071,19.03921,15.550196,16.225245,17.62417
14.302149,17.73916,14.825098,14.586573,16.558496
13.43667,17.887354,13.707666,13.486963,16.026758
12.959375,16.137598,13.419092,13.053858,15.256739
13.454004,15.983057,14.089502,13.594385,15.0533695
13.304834,16.584864,14.472315,14.37002,15.823389
13.725,16.72964,14.457178,14.039209,15.654688
13.651514,16.514551,14.748438,14.38418,16.04043
14.412256,17.302149,15.349756,14.457422,16.119776
14.014307,17.33706,14.48208,14.047754,15.547754
14.900049,17.183985,14.1271,14.397608,16.62417
15.116358,17.344385,14.543848,14.341944,16.547754
14.474268,17.987207,15.141504,14.440821,16.251856
14.975977,18.076563,16.571436,15.423243,16.807032
14.364649,18.126123,16.161036,15.591944,16.737452
14.586084,18.037256,15.612207,16.335108,16.44839
12.002588,16.37295,11.89419,12.183252,15.098536
12.710352,16.536036,13.688623,13.7286625,15.813868
13.227198,17.164454,14.341455,14.020899,15.722071
12.6957035,16.623926,14.0411625,13.69961,15.665186
13.558008,18.376123,14.832666,14.318018,17.746485
16.296045,18.968409,17.23501,16.862696,18.444971
17.556543,19.72207,17.614893,17.492334,20.100733
18.099512,20.229883,19.124659,19.194239,21.369532
18.167383,18.223047,19.108545,18.779444,17.317286
14.743555,17.450342,15.922998,15.780176,15.971338
13.797998,17.942286,15.678614,15.404932,17.277735
14.682032,17.846094,15.188135,15.03628,16.806055
13.866602,17.195215,13.781885,13.23501,16.165674
12.209375,17.22915,13.461817,13.174463,15.4752445
15.379786,18.007715,16.32046,16.606836,17.02505
15.382715,17.835352,16.225245,15.770411,16.531885
14.290918,15.403467,10.505274,10.126368,12.36001
11.539698,16.377588,11.924952,11.684229,14.756983
16.596338,18.155176,17.043848,17.062159,17.507471
17.00918,18.44546,17.41543,17.53921,17.69546
16.059717,18.45669,17.089746,16.748926,18.206202
11.453272,16.083399,12.566553,12.093164,13.910791
11.81753,16.40005,12.361963,11.829981,14.508692
11.960596,16.558985,12.814844,12.460108,14.6332035
