"[299, 255]","[227, 248]","[287, 319]","[279, 328]","[230, 262]"
13.246729,15.281397,12.377588,12.191797,14.48794
12.968409,15.174219,13.821192,13.565332,14.531153
8.273096,12.910059,9.272852,8.933741,11.48086
9.645899,13.665674,10.206446,10.063135,12.173731
5.577783,10.876123,6.674707,6.3214355,8.715235
4.5382323,11.072901,6.1932616,6.2660155,8.346338
9.644922,14.322168,11.66128,12.068262,13.502344
13.378321,15.099024,12.767237,12.698633,14.900049
12.557032,14.940088,12.686426,12.324121,13.988428
8.47378,11.2911625,9.667383,8.968897,9.183496
4.7013183,10.471338,5.282617,5.1217284,8.29458
3.563623,10.176416,3.4305663,4.331201,7.8460937
4.0299315,10.456446,3.8912597,2.9227538,6.872705
2.2767577,8.646875,1.1361328,1.3927246,6.7535644
6.0138183,12.42544,4.303125,4.520654,10.256739
13.182764,14.068506,13.842188,13.973536,14.029688
13.20669,14.284082,13.277491,13.340967,14.204737
14.0377445,15.206934,12.576319,12.26919,14.908106
7.930322,12.29336,9.133936,9.145899,10.593409
6.589502,12.119043,6.60708,7.140039,9.45376
8.896143,13.629541,10.874903,10.554834,12.790186
11.339991,13.620264,12.2599125,12.13125,13.135157
11.003321,14.018213,12.144922,11.8971195,13.268457
10.345118,13.770166,10.704248,10.521631,13.017481
10.116602,12.908106,9.67251,9.239893,10.789698
12.299952,13.775293,13.085352,12.771875,14.01333
12.114161,13.698145,10.345362,10.082666,13.516748
6.0453124,10.732813,6.345117,6.2481933,8.672022
8.365137,13.810694,6.0094237,5.336084,13.122461
11.751856,13.900049,12.663721,12.256983,13.253565
8.064112,12.166651,8.455713,8.727198,10.580225
3.6026855,9.291651,5.686914,5.483789,7.4762206
2.7940917,9.5707035,2.860742,2.7508788,7.5836425
7.9881835,12.515528,9.548975,9.334131,11.463526
11.785303,13.924952,12.820948,12.43667,13.433985
6.2049804,11.682032,7.2347655,6.9518065,9.865625
8.834375,12.606104,10.072168,9.346582,12.073145
8.354151,13.604395,9.8849125,9.510645,13.581202
8.024073,12.984522,8.763575,9.0533695,11.928858
8.972803,12.905176,9.625879,9.304102,11.631006
8.239405,10.038965,6.8666015,6.6239257,9.439112
11.769922,13.437647,12.694727,12.024561,12.864161
11.201319,13.390528,11.981348,11.583643,12.720362
5.3648925,9.656641,6.7901855,6.640039,7.8888183
4.530664,9.883448,5.9466796,6.1424804,7.686914
7.777002,11.003809,8.533594,8.294092,9.631006
11.884424,13.0238285,12.749903,12.4908695,13.53335
11.704981,12.7408695,10.860498,9.989405,11.874903
5.728662,10.580225,7.4881835,7.4779296,9.291407
6.924951,10.84878,8.517969,8.400293,9.685694
5.8753905,11.103174,8.9769535,7.6825194,10.443506
11.119776,13.065332,11.677393,11.583155,12.575342
11.127344,11.011866,10.425928,9.848291,9.230127
6.1844726,10.533594,8.136866,8.018457,9.205469
7.2958007,11.105371,8.643457,8.699121,10.407862
9.037256,12.265528,10.658106,10.68667,11.860743
5.201074,9.657373,6.168115,5.914453,7.751123
9.007227,12.3519535,9.977442,10.01919,11.725977
9.359278,9.7521,7.8045897,6.5782714,7.610254
5.9671874,9.698145,6.1307616,5.942529,8.472803
9.173731,11.673243,10.013086,10.226465,11.229151
10.585352,11.694239,11.358789,10.733545,11.850977
11.889795,12.430811,11.851221,12.200342,12.369776
11.5221195,12.299219,13.309717,12.380274,12.596827
12.731104,13.529932,13.483789,12.9752445,13.696436
10.764307,12.512354,11.483789,11.538477,12.116114
10.562647,12.290918,11.007715,10.969141,11.593409
8.883692,11.621973,8.873926,8.65127,10.294336
11.893457,10.817774,6.629297,6.9046874,8.830713
11.495996,13.318262,11.327295,10.835596,12.78042
12.584375,13.514551,13.356836,12.845606,13.473536
7.634912,11.415918,8.805811,8.295069,9.76211
6.921045,10.388086,8.107813,7.6776366,9.378809
5.379297,9.765284,7.0472655,7.164453,8.383448
6.8280272,10.837793,9.073877,8.607325,9.895166
11.984522,11.74209,10.976465,11.611719,11.861719
12.381983,13.0880375,12.823145,12.802637,13.205713
11.593653,12.8988285,12.146875,11.661524,14.307276
11.962549,14.176661,12.216211,11.805811,14.595362
7.317529,11.593897,8.138086,8.007715,10.047266
10.2269535,12.0707035,10.6158695,10.688135,11.4144535
9.83584,11.880762,10.405909,10.2877445,11.0099125
7.388574,10.489649,7.544336,7.041406,8.624659
6.534082,9.106592,7.384912,7.1222167,8.674463
6.1771483,9.234278,7.464502,7.6388183,9.020655
9.167383,11.010401,9.885401,9.4613285,10.185938
12.312647,12.833887,12.621973,12.549707,12.904444
13.832422,13.390284,13.781397,12.830957,13.51211
16.036524,13.994043,14.109766,13.454248,14.121729
12.346094,12.229639,12.515284,12.036036,12.013575
9.005274,11.949366,10.573633,10.101465,11.294092
8.915918,11.548243,9.297754,9.325342,11.199121
10.033106,12.421778,10.356836,10.300684,11.291651
8.652979,10.896143,7.7105956,7.8124022,9.271143
6.8236327,9.808741,7.280908,8.121973,9.366358
7.819238,9.362207,8.907862,9.029932,9.515528
5.9469237,9.10586,7.261865,7.4881835,8.195459
6.395654,9.379541,5.966699,6.353906,8.094385
12.093897,12.297998,13.722071,13.515528,14.185694
10.913965,12.162256,14.259424,13.978907,14.387842
11.27334,11.995264,11.156397,11.985498,12.024073
8.945215,11.104883,9.239405,8.406641,10.328516
8.924463,11.821192,10.157129,9.705713,11.51919
11.278711,12.367334,12.222071,12.237207,12.612207
10.441797,11.711817,11.643213,11.344385,12.430567
9.984278,11.609522,11.127344,10.722071,11.349024
13.733057,14.998194,12.489893,12.9596195,14.788965
13.457911,13.7408695,15.876612,14.794825,14.246241
9.710108,11.978907,11.592676,11.381739,11.364649
11.2894535,11.65542,14.877832,14.266748,13.190821
7.213281,10.771387,7.711328,8.493067,10.478174
7.271631,11.881006,9.326075,9.427881,11.7792
10.293848,13.104639,11.3849125,11.711084,12.868067
10.629053,12.201319,10.706446,10.468897,13.520411
12.606104,12.424952,13.2130375,12.74209,12.771631
9.691309,11.273584,9.894434,10.281641,11.446436
10.01626,10.883936,9.698389,9.671534,11.28628
7.8402343,10.605371,9.979639,9.146875,10.496973
10.013575,11.31875,11.441309,11.799463,11.608545
8.532373,11.55044,10.375879,10.101465,11.16128
12.189844,11.946436,13.237452,14.738428,13.659571
13.564844,13.854395,14.715723,14.5917,16.1625
13.595362,13.334375,14.623438,15.126368,13.530909
11.333887,12.908106,12.004541,12.809229,12.666895
10.633692,13.813868,11.56753,12.378077,12.915674
13.206202,12.414942,13.486963,13.7911625,12.285303
15.19961,12.749903,15.496485,15.776026,14.3224125
14.429102,13.971582,16.5646,16.852442,13.709375
12.865137,12.872217,12.912989,12.754786,14.152246
15.831446,13.905909,15.360987,14.907373,13.912012
13.252588,12.926905,12.818506,12.417383,14.35586
10.104395,12.337549,10.355371,10.095606,12.504297
12.472315,12.712305,10.642481,10.302637,13.32461
11.153711,12.524805,12.090235,12.725,13.44375
12.830713,12.181543,13.176172,13.138819,12.962793
13.126368,12.720118,12.933985,12.448145,14.181543
19.75625,16.71206,17.98916,17.207666,17.602686
20.745264,17.88003,21.85586,21.108545,20.0729
12.046534,12.455225,11.758936,10.9596195,12.769678
13.732813,12.951319,14.650049,14.62002,13.241358
10.879053,11.629541,12.857325,12.059229,13.798731
11.431543,11.57876,12.036036,12.35708,12.107325
11.6627445,12.101221,12.942286,12.260645,13.782618
8.950342,11.343409,10.046045,10.754297,11.506006
10.05459,11.676416,11.188135,10.724024,12.635889
12.341211,12.311182,12.494043,12.286768,12.491602
14.358057,13.549219,15.915674,16.324854,15.951807
18.136377,16.418116,19.319971,19.749414,19.75796
16.74795,15.469873,17.280909,18.236963,17.322168
14.1783695,14.568506,15.2425785,15.6896,14.029688
16.1542,13.711817,16.723536,16.609766,16.666162
18.886377,16.684961,18.43374,19.524073,16.826319
13.033838,15.768946,12.493555,13.93545,14.960352
11.965479,13.333887,13.446192,13.593164,12.941553
14.961573,13.680323,12.679346,12.410059,14.138086
16.166895,14.234034,16.03628,15.527735,16.298243
16.106836,14.008692,16.555567,16.176416,15.136133
15.366358,13.997217,15.733301,14.794336,14.829737
14.911768,14.847559,16.473047,16.671045,16.675196
16.578028,14.333643,17.270655,16.495752,16.966455
14.556299,14.953272,17.626123,17.601465,16.677149
12.882959,13.809473,14.749903,16.497705,15.71084
13.111719,13.958155,14.480616,14.280176,14.998438
14.661036,13.258448,14.573633,14.97793,14.615381
15.491602,13.579981,14.502344,15.038233,14.791895
17.31582,15.414942,16.177881,17.04214,16.91421
15.810938,14.103907,15.827051,15.883692,14.781153
16.226465,14.971338,17.779688,16.218409,16.620508
18.567041,15.914209,18.034327,18.65249,17.66665
18.70376,15.150049,16.54922,16.466944,16.171534
15.731592,14.924707,17.375391,16.577051,16.266993
17.67251,16.528467,17.795069,17.670557,16.894434
20.10415,16.849756,21.17373,21.19546,17.591944
18.060938,16.21792,19.047266,19.017725,17.533594
15.079981,17.938868,17.0729,17.431787,17.973047
18.333399,17.8771,18.51919,18.237207,17.508692
19.084131,18.212305,20.780664,20.40713,19.58999
22.6896,19.456202,24.126856,23.806055,22.361475
24.583155,17.804102,24.76626,24.40713,23.519922
20.819971,17.755274,20.346582,19.038721,18.397852
21.57998,17.55459,21.820948,20.39126,21.15249
21.897364,18.787989,22.954004,21.766504,18.214746
23.832178,18.895899,24.804346,23.274317,20.42544
20.60464,17.338526,21.113184,20.269922,16.643457
21.740625,17.506006,21.233301,21.487696,20.1625
27.940577,20.053125,26.586329,26.545313,26.572657
24.921534,20.574121,26.073877,25.42666,23.308985
21.024073,18.14004,19.500391,19.966455,18.69082
19.49795,17.657618,18.315332,18.100245,18.360498
20.834864,17.460108,19.122705,19.183008,19.095118
23.883692,17.600733,20.234034,20.772608,19.476465
22.165674,17.016504,16.594873,17.88418,16.576319
18.209375,17.283838,18.8854,18.435205,18.047266
18.166162,16.767237,18.506006,18.383448,17.778223
19.99502,17.213526,17.990381,18.119043,18.673243
19.04336,16.840235,19.211329,18.607325,19.096094
22.735498,18.054102,20.922266,21.597315,21.01919
19.70669,17.463526,19.161036,18.880762,18.092188
20.45791,18.990625,20.796045,20.845118,18.203272
23.846582,20.80459,24.624414,24.317774,21.917871
26.175196,21.71792,26.283106,26.059229,24.31045
24.56753,19.450586,24.884668,24.511133,19.37588
22.383448,20.04751,22.89834,23.204737,20.804346
23.093653,19.85171,23.893946,23.652735,19.706202
27.193995,20.683008,26.890528,26.808252,21.133692
27.838282,20.919092,26.593409,26.526514,21.453028
21.634424,18.231104,18.143946,18.898096,18.664942
17.835596,16.922754,19.488672,19.60879,18.258936
16.992579,17.000635,19.0646,19.603418,17.646875
19.256495,17.333643,20.53042,21.138086,17.36001
19.62588,19.618555,20.857569,21.599512,19.831934
23.181055,18.562647,21.941797,21.246485,21.804102
24.08291,18.55337,20.501123,20.74624,20.532862
20.48916,18.823145,20.501123,21.169092,19.826319
18.872705,18.856592,19.868067,19.58291,19.658594
18.08584,18.152246,20.24087,20.397852,19.311426
18.957178,19.159327,20.282618,20.593897,18.656641
23.15713,20.126856,23.744776,23.21084,22.022364
23.948145,19.833399,23.67666,23.355371,22.51333
22.10171,19.460352,22.324854,22.694727,21.653223
21.634424,19.261621,21.730371,21.62417,22.761133
21.213037,19.725245,21.914454,22.290186,21.187891
20.39541,20.129541,20.634424,21.04629,21.54922
25.069971,20.686426,23.52627,23.755762,24.01333
23.746973,21.081934,20.984034,21.95791,22.52749
21.14004,20.201807,21.906885,21.247217,21.160303
22.636866,20.90542,22.261377,22.894434,21.142725
22.969385,21.297754,23.54629,23.450098,21.43545
25.76211,22.326807,25.856104,26.016748,22.74624
27.19546,22.347559,27.95791,27.974756,23.27041
27.682032,23.71255,28.347315,28.942774,24.544336
30.699854,25.440332,29.791162,30.100489,26.746973
31.235254,26.191309,29.008692,29.224268,27.213282
31.850245,26.066065,30.329248,31.285791,29.4042
32.032127,28.46963,29.635645,30.922266,29.775782
26.780664,23.36001,27.957422,29.576075,28.203272
26.99087,23.494043,25.87124,26.964014,25.532862
26.017237,22.726221,24.786036,24.747461,23.43252
23.694727,22.945215,23.23623,23.47793,22.461329
24.16836,22.35708,23.75625,23.779444,23.54214
24.875391,22.612452,25.140772,25.379541,23.905664
26.528955,23.384424,26.010645,26.995752,26.797754
26.84878,23.373194,25.608545,26.756495,26.912989
28.883448,23.528223,27.479395,27.885645,26.364405
24.225977,23.425196,23.968409,24.589746,22.939112
25.357325,22.453272,25.350245,25.892237,24.380518
25.618067,23.030176,25.649805,25.441797,24.889063
28.08462,23.996485,26.68838,27.014307,25.394678
30.860498,25.263086,29.013575,31.047754,25.536768
31.552881,25.822168,29.6896,29.850245,27.657618
30.532862,26.368555,30.33877,31.75088,26.793848
29.73379,25.457422,28.358301,29.861475,27.483301
29.823633,25.482569,29.143457,30.77212,27.989405
29.58755,24.943995,28.712793,30.856348,30.259912
29.860254,25.852198,30.095118,31.113916,31.173975
31.13711,24.178614,30.638819,32.260887,28.932276
32.01626,24.475733,30.955225,32.38613,29.0729
22.540186,24.188135,23.814844,24.305079,24.766504
25.922266,24.136621,24.481104,25.422754,24.509912
26.116602,23.845118,25.29629,24.81875,26.562403
25.679834,22.994532,24.727198,25.75088,25.33877
26.491846,23.989405,24.546045,24.745752,25.439112
28.40835,23.99917,25.547998,25.039698,25.95083
24.291895,23.122461,23.505274,23.25503,23.260645
22.872705,22.915186,22.47671,22.230127,22.951807
24.371729,22.941065,22.489405,23.268457,22.846827
23.770899,22.936182,23.160791,23.029444,22.485254
23.204737,21.15713,22.058985,23.230127,22.706202
25.466944,23.10464,23.221338,23.532618,23.816309
24.08291,22.266504,22.064356,22.974024,22.704004
23.571436,22.537012,21.81753,22.396387,24.104883
22.833887,22.60293,22.422266,22.183496,22.120264
24.309961,22.704737,22.37295,23.10293,22.453516
23.521631,22.454004,22.724268,22.299463,22.348047
22.394678,22.202784,22.340235,22.769922,22.704737
22.58291,22.230616,22.712305,21.905176,22.958399
21.928858,21.742334,22.423975,21.122217,22.460352
24.462793,22.43545,22.79043,22.866602,23.009424
24.705713,22.70547,22.067286,21.572412,23.85
25.62417,22.377588,22.17544,21.961573,23.519678
26.471827,22.803614,23.285791,23.976954,24.836573
27.817041,22.766993,27.884668,27.651514,25.34878
21.027002,21.15542,20.589502,20.041407,21.485498
19.459864,21.454248,19.3063,19.10879,20.189356
23.117823,22.038477,22.06753,20.844385,22.844873
23.968653,22.236963,20.623194,21.081446,21.961329
20.252344,21.22915,20.550684,20.349024,20.305567
19.159327,20.396631,19.276514,18.417383,19.729883
19.51089,20.493067,19.074366,18.746485,20.594141
18.544092,19.58755,16.939112,17.173487,19.23794
18.362696,19.479883,17.445704,18.690332,19.864649
17.947657,19.171778,18.348047,18.713526,18.584131
18.862452,18.937891,18.18545,17.483545,18.058008
16.808008,19.001856,18.361963,18.223536,19.148584
16.081934,18.196192,16.767237,16.143946,16.634912
12.95669,17.86416,14.2167,14.281153,17.03042
14.761866,17.800196,15.490381,15.3067875,16.623194
13.202295,17.543116,15.48501,15.743067,16.162256
17.183008,18.096827,18.018702,18.014063,18.434473
15.979883,18.446192,18.418604,18.157862,19.047266
18.670069,19.28628,18.588037,18.05044,19.948633
18.351954,19.363672,16.363672,17.249903,18.402002
18.269678,19.318262,17.295801,17.858301,20.020166
19.442774,21.069971,21.054102,20.916895,20.759912
19.333155,20.089258,19.123194,19.559717,19.691309
18.483057,20.002588,19.427881,19.804102,19.589258
21.502344,20.481348,21.093653,21.554834,20.579248
21.877344,21.856836,21.556787,21.725245,22.101465
23.677637,20.578028,23.18545,22.895655,24.633204
23.446436,19.931787,24.068018,23.632227,23.378077
19.770166,20.81045,22.397364,22.098536,23.377588
18.06338,19.852198,19.308008,19.241114,20.758936
16.743555,18.624659,17.07461,16.682764,18.217188
15.4769535,18.356592,16.77627,16.63833,17.193262
15.295557,17.298243,15.337793,15.631006,17.018702
15.634668,18.331202,15.349512,15.444483,17.57998
15.244043,18.12832,17.095118,16.732569,17.434229
16.714746,19.006006,17.271631,16.84585,18.347803
18.342676,19.714258,18.80581,18.24502,19.275293
19.803614,19.769434,18.596338,18.243555,19.275782
21.617579,20.444483,19.673243,19.537256,20.646631
17.83291,17.88418,17.670313,16.319971,16.742334
15.242334,17.986475,16.752588,15.6036625,16.937891
14.887842,17.902735,16.117823,16.48208,17.406885
16.77749,18.490381,16.889551,16.514063,17.57046
16.297022,16.993555,16.049952,15.735498,16.019678
12.107569,16.942286,13.655909,13.761866,15.824366
12.298243,16.726465,13.029688,12.617334,14.689844
11.722071,15.947901,13.264307,12.888819,13.993311
16.034327,18.312159,15.890039,16.880274,17.791407
13.924463,17.354883,14.917871,14.896875,16.01211
13.950098,17.776758,14.703516,14.936182,16.610987
14.224024,17.103907,15.440088,14.937159,16.188623
12.323389,16.914942,13.342676,13.275782,15.102198
11.426661,15.719629,10.630274,10.925684,13.401758
11.1314945,15.954981,11.792627,11.864405,14.174219
11.4613285,15.293848,12.64419,12.608789,13.691553
12.277979,17.151026,14.430567,14.373926,16.117579
15.406885,17.355616,15.765772,15.498438,17.63003
16.359522,17.535547,16.518946,17.386133,17.10708
15.727442,17.5646,15.948877,15.813868,16.73794
12.035547,16.164942,12.658594,12.274073,14.046778
13.65542,17.147364,14.928614,14.83169,16.361963
14.241602,17.058985,14.962305,14.841944,16.550684
11.701319,15.658106,13.078028,13.364405,14.719873
15.958155,18.069239,17.134912,16.225733,17.424707
15.833887,17.837793,16.780176,16.274073,17.185938
11.530176,16.15713,11.391993,11.444971,14.059717
12.459131,16.19082,14.10293,13.824854,16.063623
12.700586,16.544825,13.406397,13.323877,14.827051
11.147852,14.633692,10.8050785,10.691797,12.859766
8.357813,12.524317,8.597803,8.473291,11.522364
7.0580077,11.054834,7.3722167,6.5104003,9.764063
7.1493163,10.301661,5.5367675,5.0423827,9.646387
5.6129394,9.64834,3.315576,2.817285,8.27627
4.076074,9.547022,3.278955,3.9762206,8.315088
6.171289,10.3832035,3.5594726,4.227197,8.962061
6.763086,10.163477,4.414453,5.1388183,8.662989
4.1043944,8.6158695,5.692285,5.503076,6.0138183
1.9791504,6.238672,3.9754882,4.0052733,4.527246
