"[299, 255]","[227, 248]","[287, 319]","[279, 328]","[230, 262]"
9.454493,13.409815,8.953272,9.039209,11.189356
10.934229,13.456446,10.572168,10.455713,11.8033695
10.697657,13.973291,11.917871,11.4667,13.06045
11.834131,14.693506,11.611231,11.17959,14.167139
12.747705,15.187403,13.1471195,12.751612,14.434961
12.078516,14.009424,12.218897,11.934717,12.576563
10.91128,14.138819,11.472071,10.746485,11.971582
9.900049,13.275049,9.558252,8.864405,10.899561
8.9005375,13.312403,9.9457035,9.579981,11.093409
8.238428,12.332666,9.129053,8.777002,11.293116
8.540918,13.480616,8.770899,8.975977,11.631006
11.717676,14.816065,12.411768,12.2755375,13.923731
8.761621,13.516748,10.038721,9.903467,11.570459
6.33291,11.512354,7.5177245,7.4740233,8.76333
6.232324,10.487452,7.7210937,7.8421874,9.068018
3.8961425,10.124659,3.234033,3.3458495,7.535547
4.058252,9.91836,4.237695,4.1253905,7.8546386
7.2276855,13.177881,8.623926,8.108545,10.267969
8.509668,11.510401,8.088282,8.270655,9.456934
8.661524,12.100489,7.1637206,7.129297,8.830225
11.327539,13.985743,11.393213,10.7286625,13.075342
9.998682,11.783594,10.524561,9.764307,8.995752
11.25625,13.890039,12.469141,12.149561,13.284571
11.4457035,14.200586,12.87002,12.5221195,13.600489
10.701807,13.449854,10.999903,10.615137,12.5846195
10.766504,13.760401,11.652246,11.954737,13.106348
10.954493,14.065088,12.446924,11.858545,13.580957
4.4864745,10.354883,6.084619,5.8822265,8.071436
4.9432616,11.823145,6.8592772,6.2867675,9.261133
6.3495116,11.487696,7.989404,7.6358886,9.46084
5.994531,10.942286,6.1754394,6.1776366,9.239161
7.7103515,11.258692,7.381006,8.454493,9.985987
7.7591796,11.40127,8.385157,8.089258,9.569239
6.3385253,11.632959,7.9828124,7.3578124,10.402246
4.8231444,9.598047,5.1336913,5.0382323,7.0089355
3.6847167,8.7792,1.7132813,1.290918,6.9205565
5.0423827,10.570215,5.268945,4.841211,8.609034
3.6598144,9.714502,4.7308593,4.8824706,7.214502
8.759424,12.225,9.501856,9.611475,11.224512
7.9691405,11.82876,7.830957,7.7538085,10.220118
10.536524,13.09585,6.3736815,6.1183105,12.6158695
4.4808593,9.060938,5.61416,5.546289,7.2867675
3.508203,9.081202,5.0631347,5.1185546,7.041162
2.9017577,8.778955,4.0902343,4.33291,6.7437987
2.1583495,8.234278,1.2369629,1.2853028,6.818506
2.0611815,6.796045,1.5301758,1.1961914,4.1324706
2.2091308,7.7940917,2.3038573,1.2860352,4.7987304
1.6556641,7.390039,1.4691406,0.96425784,4.908838
1.4486328,7.3368163,0.6263672,1.5621582,5.1986327
2.4825683,7.346582,3.003076,2.690576,5.608789
1.2794434,7.5575194,1.0462891,1.5042969,5.5733886
2.735742,7.674951,1.9735352,1.8041016,6.1810546
1.2359864,6.174707,2.4686522,2.282373,4.4916015
7.610498,10.709375,4.473047,5.1375976,8.923975
8.042383,10.4630375,6.9554687,7.473291,9.863184
7.841699,9.822168,7.1373534,7.0821776,8.998438
7.079736,11.0533695,7.451074,6.93374,10.845118
7.956445,10.995508,9.390039,9.209864,10.595606
10.120996,11.645899,9.367334,9.384424,11.391993
8.223536,10.524317,7.5335937,8.243555,9.590723
5.856836,9.510401,3.3416991,4.405664,8.574854
6.4657226,10.025293,6.0077147,5.895166,8.472559
6.0523925,9.573633,7.532373,7.233789,8.5021
5.386621,10.099268,5.9322753,6.7049804,8.493555
6.082666,9.103418,6.3419433,6.0753417,7.5226073
6.38833,9.015039,7.24917,7.14541,8.688135
2.4203124,7.6405272,3.817285,4.1720214,5.6078124
2.2950683,5.890283,3.6397948,3.4117675,4.6256347
2.716455,6.298242,3.2271972,2.9166503,5.3663573
2.9381347,6.1844726,3.963037,2.8233886,5.532373
2.2467284,7.070703,3.6009765,2.570459,5.8888183
2.8368163,6.350244,4.806787,4.504785,5.704004
2.0313964,4.8055663,3.4427733,3.2918944,3.994287
0.3006836,4.162744,2.890039,3.098291,3.485498
1.7340332,8.664209,2.8175292,4.551904,6.594629
8.382227,9.793604,8.479639,8.204981,9.141016
9.323877,12.573389,9.898584,9.6625,13.192774
10.355371,12.854151,11.278223,10.848536,13.425196
11.629541,11.414698,11.857569,10.998682,12.4005375
7.5851073,9.327539,8.275293,7.940576,8.505274
6.988672,9.049707,7.2884765,7.348779,8.481836
7.0990233,10.542139,7.310205,7.1534667,9.632471
10.024073,11.724268,10.767481,10.726465,11.433985
8.468653,9.979883,8.08169,8.496485,8.636377
7.2416015,9.914698,7.9916015,7.992334,9.052393
6.2228026,10.153711,7.376123,7.7767577,9.327051
6.344629,8.476221,7.5162597,7.3287597,7.768457
5.7137694,8.636133,6.5855956,6.3785644,8.301416
6.9305663,9.214258,6.99917,6.829736,8.308985
8.953028,10.609766,9.058252,8.87295,10.464014
5.9015136,8.4161625,7.1546874,7.2240233,6.4842772
5.9359374,8.233545,6.8529296,6.6458983,7.273828
5.9676757,7.605127,6.7831054,6.471826,7.226953
6.3353515,8.5846195,7.575586,7.251123,8.006739
4.9046874,9.474756,5.687158,5.3526855,8.072657
6.9867187,9.136133,8.858057,8.668848,9.5394535
8.348536,9.8050785,7.9896483,8.453516,9.593653
10.599756,10.601709,10.177149,11.071192,11.279932
12.000147,10.967188,12.436182,14.277491,12.66836
10.929834,13.076563,15.0292,15.0550785,16.081446
9.95376,11.756739,11.069727,11.776514,11.050928
7.8080077,10.4127445,9.487696,10.232569,9.626123
9.939356,11.209375,10.2442875,11.230127,9.815577
11.434961,9.746485,8.0292,7.695459,8.587793
6.1791015,8.92959,6.705957,6.0335937,8.395411
5.772363,8.489405,8.482569,8.2130375,8.4317875
5.903955,7.548486,7.0174804,6.7416015,7.1551757
5.7711425,7.334863,6.5597167,6.113672,7.3871093
5.480127,6.635156,6.8944335,6.685449,6.6737304
1.836084,7.584375,6.1546874,6.9000487,7.6131835
5.4642577,8.7408695,7.593164,7.554834,8.423731
6.9217772,9.579248,8.774561,8.778711,9.707911
11.780664,10.820215,11.842188,12.331934,13.172754
12.312403,11.653223,13.374659,12.623682,12.744532
11.282862,10.344385,11.319239,10.9908695,12.634424
9.871241,10.215723,9.289698,9.279932,11.806299
9.89126,10.093653,9.631983,9.835108,11.546289
9.527246,9.625391,10.379786,9.709131,10.892237
7.423242,8.78042,9.892481,8.957178,9.590967
8.637598,9.546045,8.031885,7.59707,9.913721
8.368067,9.418848,9.616358,9.35586,9.809229
7.935449,8.408838,9.112696,8.780176,9.152735
7.4669433,8.246973,9.590235,9.163965,8.245508
6.072412,7.221826,4.6344237,4.786035,6.1322265
5.421289,8.286524,7.4669433,7.994043,7.9132323
7.0389647,8.066553,8.115137,8.170557,8.0255375
5.572168,8.489649,7.768213,8.266748,8.44253
7.2655272,8.687891,8.519434,8.757227,8.949366
6.504541,9.389795,7.2848144,7.0995116,9.159082
8.195215,8.0863285,6.8353515,5.7308593,8.301905
8.081202,8.080957,8.651026,8.542383,8.339014
5.8773437,7.6654296,9.302637,8.890528,6.774072
6.8993163,9.655176,7.6336913,7.353906,10.069727
7.477197,9.8050785,7.1341796,8.022364,11.610743
10.550196,10.571924,11.605371,11.618067,10.851465
10.260157,11.17251,12.074121,12.9769535,10.932276
11.026026,11.6661625,13.735254,13.366358,11.543604
12.841211,11.858545,14.557276,13.905664,11.303858
13.4317875,11.153467,13.208643,12.796778,11.8849125
9.687647,10.233545,10.741602,10.710596,10.766993
8.965723,10.614893,10.864405,9.613916,11.037989
8.271631,8.584375,8.541407,8.606836,8.611963
8.402735,10.217432,9.615137,9.519434,9.71792
8.436426,10.46377,8.27627,8.668604,9.734766
10.692286,10.671289,9.352686,9.682032,10.136621
9.010889,10.221827,9.45376,9.416407,13.317041
10.678858,10.242823,12.416651,11.853907,11.922266
8.317041,10.370996,9.5567875,9.532862,11.111475
12.189356,11.139795,13.052637,13.076807,12.900049
12.551172,12.173487,12.946436,12.597559,13.376856
12.2521,10.971338,13.155176,12.997461,13.266504
11.087061,10.666407,12.673487,12.352198,12.00503
11.114893,11.017725,12.639795,12.544092,11.701319
9.129786,11.356348,10.794825,11.133692,11.349024
12.395166,11.986231,14.104639,13.717188,12.665674
11.536036,11.64126,12.23794,11.927881,11.494532
14.355127,12.535791,15.397364,15.093409,12.890284
14.272852,11.815577,17.01919,17.622705,15.390039
16.176905,11.534327,17.242334,17.154688,10.919825
12.020411,12.786036,14.388575,13.722315,12.877588
15.281153,14.64126,16.007715,16.229883,15.334131
16.104395,14.919092,16.897608,16.582178,16.064356
16.251123,13.751612,17.731104,18.016993,17.847315
15.369776,12.612452,15.0099125,15.324366,13.031153
11.827295,12.578028,13.633448,12.974756,12.702784
12.865625,13.738428,15.1349125,15.882471,13.626856
16.076563,13.2408695,11.055811,11.070215,15.190088
14.970118,12.592676,15.437891,14.907618,15.577295
14.760645,12.514795,15.559229,15.389307,14.934961
14.4667,13.744776,16.281397,16.002832,15.708399
14.557276,12.815088,14.691553,14.582911,14.981104
14.57876,13.15835,15.591211,16.056055,15.395655
16.190332,13.491846,16.583399,15.179102,15.697901
12.067041,13.61709,14.264063,13.725,14.6
12.3658695,13.449121,13.056055,12.930567,14.799952
15.09585,13.802881,15.643946,16.8771,16.66128
15.499903,13.270411,15.572168,15.403711,15.4630375
16.19546,13.898096,16.140284,15.686426,15.660303
15.837549,13.83169,17.676416,18.912256,15.847559
14.07168,13.941797,18.025293,18.23794,16.353418
14.303125,13.616846,17.699366,17.628077,15.286036
16.25332,14.058985,19.422754,19.388575,16.272364
15.86001,14.975489,16.321436,16.238184,17.3146
14.043848,14.006983,16.614893,16.64834,16.469385
16.411768,14.340723,16.294825,16.29043,16.164698
15.802881,14.106592,16.033106,15.600977,16.997217
13.297266,14.316553,13.78042,14.845606,16.227686
15.734522,14.370752,14.506006,15.339502,14.528955
15.403711,15.421778,16.70547,16.70254,15.042139
19.107569,17.028711,18.866846,18.25918,17.569727
20.3229,18.64956,21.961084,22.203272,19.768457
19.073633,17.350733,19.967676,21.288477,19.498438
21.408838,18.689356,21.967432,22.63125,20.045801
21.441553,18.935205,21.767237,23.013575,23.317774
17.068262,16.139063,19.7438,20.288965,17.871485
20.83584,16.79751,20.926905,21.008448,18.596582
16.066309,16.489405,18.162012,19.17251,16.599512
22.041162,16.625147,21.196924,21.473291,19.424707
18.369776,16.07168,18.953272,18.362452,17.958155
18.234278,16.505762,20.222803,19.610498,18.607325
16.524317,16.002588,15.38711,17.74087,17.36831
16.130762,16.058985,17.91958,18.494287,17.313623
19.029932,17.4479,18.631495,19.272364,17.231348
19.381495,17.36172,19.247705,18.047266,19.469873
17.587305,17.26919,17.872217,18.07046,17.343653
18.716455,18.488672,20.431543,20.902735,19.903223
19.924707,18.547022,19.689844,19.285791,21.319483
20.70376,18.425928,21.45498,20.194971,20.3417
22.531153,18.440332,18.9042,18.975,19.893702
23.53628,18.954248,19.227686,20.602686,20.08877
18.954737,18.295069,19.082178,18.45547,19.313868
22.92959,18.610498,21.371973,21.936426,20.8417
23.316797,18.710596,20.047022,21.289454,20.106592
17.406641,18.62588,18.665186,19.061914,18.503565
18.71963,18.606104,20.190332,19.86416,18.547754
19.716455,17.922754,21.416895,21.45547,18.44253
22.76089,18.4042,20.337305,20.298487,19.667627
24.81582,19.41714,22.23086,21.984034,22.331934
28.052881,22.411524,26.700098,26.933252,23.244043
27.26504,24.546534,26.278711,27.458155,26.536036
24.110743,22.08584,23.653711,22.975977,22.077784
22.68252,21.828516,19.528955,20.108057,25.166407
27.62832,24.716944,27.862696,26.011621,26.540918
27.652002,24.06338,25.575098,26.673243,26.468164
23.569483,21.257471,22.11416,21.942041,24.31753
22.017725,22.680323,23.673243,23.195215,22.382471
24.45791,21.943506,25.184717,24.528223,22.305323
23.624659,19.953516,23.806543,23.583643,19.954004
20.067286,20.550928,20.381006,20.040918,21.51626
22.274805,21.403955,24.21963,24.272852,23.638086
25.598536,22.688623,26.08877,25.877588,25.637598
28.097559,23.089014,25.678614,27.225733,26.264795
29.0646,22.908594,27.569971,26.949854,24.401514
20.784815,21.870264,21.410547,21.021143,21.476954
20.976465,20.379786,21.668116,21.226221,20.468409
22.780664,22.005762,22.498194,22.014307,21.969385
24.755762,22.71377,25.179102,25.08462,24.130518
26.704248,22.885645,26.761377,27.527246,26.219873
27.091944,24.393457,27.85415,28.043848,25.465479
25.800684,21.933985,27.245996,27.509424,21.818506
23.291162,21.872705,23.450098,23.266504,21.48379
23.057276,21.533594,22.469385,22.130762,23.167383
25.403467,22.428858,27.306787,27.025293,22.762354
28.349756,23.032862,28.745264,28.965479,24.534327
29.94668,24.64248,29.17666,28.336573,27.265528
32.27334,26.377588,33.44155,34.251366,29.921045
32.368065,27.729395,31.439112,32.745506,29.875391
28.35293,28.829004,28.89297,31.700342,29.2521
26.98379,25.397608,28.162989,29.296045,28.162256
28.733545,21.985254,30.344873,29.50796,25.983545
28.990625,22.032373,29.025537,29.190577,24.070215
27.002588,22.579004,28.70962,28.757715,23.796778
28.62588,22.348536,30.45962,30.148096,24.3688
26.44668,22.848047,26.89834,26.159327,25.102442
20.545313,22.926905,22.214746,22.066065,22.297022
18.514063,19.184961,20.951075,20.475245,19.88125
18.99624,18.20083,19.58291,19.306543,18.73623
20.037256,20.914454,22.752588,22.088282,21.64834
23.938868,21.367334,23.070215,23.042627,22.776026
22.584375,22.339502,22.483301,22.223047,21.870508
21.044336,21.82876,23.838037,23.534815,21.902735
25.184229,22.676905,23.959864,24.424952,26.6625
28.045557,23.694727,26.843897,26.377588,26.851221
25.982813,23.311182,24.076807,23.538721,25.085596
24.985743,23.227686,25.464502,25.004297,22.346338
26.139795,24.937891,27.950098,28.299952,27.13589
26.980127,23.911768,29.852442,29.954493,26.062891
27.647364,25.048975,29.995752,30.929346,27.228662
27.419825,25.706202,29.544092,30.994287,26.34585
27.420069,23.049952,27.290186,25.997217,22.666895
21.322657,23.158594,23.536768,23.45962,23.806787
23.644678,20.60415,24.961817,24.458155,20.618555
24.21377,20.996729,25.961084,24.30581,20.709375
24.460352,21.892725,23.131739,22.985987,22.42373
24.254053,22.742334,25.336329,25.910303,23.480127
23.815088,21.868067,26.067774,25.494043,25.42251
22.429102,21.81338,21.299463,22.55166,22.403223
22.098291,20.27334,20.160059,19.07876,19.546778
21.204493,21.268946,22.269922,22.79629,23.465235
19.651758,20.63296,20.794092,20.469141,21.479395
20.759668,20.686182,21.101221,20.995752,21.120264
22.83169,22.103662,23.429102,23.562159,23.479395
24.019678,22.975245,25.041895,24.30166,23.387598
24.768457,23.189356,26.418604,26.73379,26.374659
27.009424,22.884424,28.640528,28.778223,26.356348
28.776514,26.100245,30.26797,30.79165,29.078516
28.454737,27.275293,31.76748,31.81045,31.630274
26.886133,25.930079,28.460108,29.327295,27.46963
27.391993,26.735743,26.5917,26.977686,31.52749
26.529688,21.705957,28.509912,28.400293,20.449121
20.746485,20.91543,20.609766,20.32583,21.105371
20.208399,20.172754,20.288965,21.099268,19.52456
17.55459,18.831446,18.638086,18.51089,18.319727
17.08169,18.990137,18.212793,17.894678,18.945948
16.007227,20.45669,16.89419,16.5563,18.004297
15.169825,18.458399,17.442286,17.198145,17.560205
18.770899,18.987696,20.021143,19.729395,18.666895
15.507227,19.053858,15.589258,15.400049,17.384912
18.16128,18.44082,18.498438,17.781885,18.096827
16.741114,18.778955,17.954737,17.866358,18.17544
17.121729,18.40249,17.847315,17.595118,17.852686
17.36709,18.10879,17.404444,17.520899,18.106592
17.004053,18.725,18.991602,18.396875,17.698633
16.244043,18.437403,17.904932,17.359278,16.615137
16.632227,17.804834,18.0375,17.37002,18.008936
17.745996,18.561182,18.274073,17.197168,19.362696
18.118067,19.13296,19.013086,19.847803,19.62588
19.638575,19.881739,20.508204,20.633936,20.96377
23.589746,22.397364,24.266504,24.298975,26.32754
24.97378,21.839746,25.777735,25.531885,23.954004
21.321924,20.433496,20.281153,19.918848,20.991602
22.912989,21.617823,24.382471,24.478418,23.367823
20.568262,20.318018,20.687647,20.10879,20.52041
17.748438,19.143457,18.238916,18.384912,19.220606
18.090479,19.146875,18.532618,19.164942,18.83169
16.886133,18.65005,15.999903,15.304346,17.231348
13.236719,16.609522,14.317286,14.174463,14.547266
12.839014,16.197412,13.156397,12.09585,15.332422
12.544092,15.004297,12.885157,12.412256,13.846582
13.975489,15.282618,13.843164,13.674463,14.464502
13.059229,15.969629,13.631739,14.12295,15.206446
9.897608,15.886866,10.467676,10.64834,14.135401
9.558008,13.610254,8.865137,9.106592,12.624659
7.9686522,12.819483,9.266748,9.239405,11.5863285
7.7777343,12.392481,8.271875,8.3207035,10.94253
8.510157,13.159082,8.25918,8.482569,10.715967
10.562403,16.024073,12.460596,13.931543,15.062891
13.246729,16.665918,13.928125,14.079737,15.630274
9.593653,14.045069,10.483301,10.896631,11.965967
8.165186,12.585352,8.4474125,8.423975,11.167139
7.848047,14.083643,8.356348,8.308252,12.376856
9.360987,12.915674,10.142725,10.231348,12.162989
11.742334,14.444971,12.739405,12.168116,13.581446
11.579981,14.109278,11.129786,10.518946,13.5099125
9.257471,14.122705,9.515039,11.559229,12.713282
10.882959,14.741846,10.131006,10.789698,13.50503
10.690332,13.1974125,10.6661625,11.141016,12.530664
11.616602,13.72378,11.892481,11.926172,13.49502
11.7582035,13.896143,12.060694,12.204737,13.198877
9.6939945,14.142725,10.35293,10.301905,12.170313
9.668848,13.370996,10.063623,10.129053,11.240381
10.289698,14.861475,12.784571,13.127588,13.857813
12.24502,15.28042,13.855616,13.589502,14.444971
7.0162597,13.027246,7.7171874,7.8824706,12.110254
8.857813,13.761866,10.159571,10.366114,12.327295
10.817286,14.30459,12.546534,13.241846,13.981104
8.256006,12.974268,10.3971195,10.339014,11.873438
7.505029,12.366602,10.463526,10.537256,11.570948
9.035791,13.826807,10.215723,9.748438,12.233789
11.288721,14.98208,12.40835,12.040674,13.880518
10.218897,13.998682,10.189112,10.093164,11.912012
6.3993163,12.079981,7.905664,7.7276855,10.442041
4.5367675,10.937159,4.477197,4.966455,9.158594
7.711572,14.163965,7.655664,7.7298827,11.813623
7.936914,13.227198,8.897852,9.483545,11.48794
9.757715,14.379786,10.779932,10.161036,13.663477
12.849512,15.282618,14.752344,14.394434,14.944239
11.954248,15.552393,14.737452,14.052149,15.566309
15.865137,15.231592,14.365137,13.963526,16.066553
11.872461,14.391504,13.354639,13.251856,15.272364
