"[299, 255]","[227, 248]","[287, 319]","[279, 328]","[230, 262]"
9.519434,12.668604,10.705713,10.623194,11.976465
8.368311,11.390284,8.79751,8.508448,9.391016
5.042871,10.537989,4.785791,3.3695312,8.493067
8.798487,13.015772,9.608057,9.137598,12.37417
10.639307,12.998926,11.385889,11.07168,12.412256
7.8302245,11.939356,8.610498,8.740381,11.105127
10.41543,12.227198,11.343897,11.368555,11.734766
10.767969,12.379297,11.199366,10.856104,11.873438
10.973291,13.678858,12.065577,11.285303,13.10586
10.094385,14.555811,11.953516,10.843653,14.147608
11.424219,12.847559,11.358301,10.865381,12.143457
7.244043,10.965723,7.2923827,6.87417,9.284327
7.2520995,10.586573,7.755029,7.280664,9.208887
6.338037,11.298731,7.0523925,6.362207,9.717188
5.1444335,10.2911625,5.6117187,5.2142577,8.046778
6.425195,11.83584,7.0902343,6.3790526,9.947901
7.6131835,11.784815,8.395899,7.983789,10.423487
10.709864,12.891993,11.673731,10.889307,12.298243
11.129297,9.56753,5.6222167,5.3546386,7.952539
10.954981,9.696436,5.3285155,5.1656737,7.7330565
4.7154784,10.137354,5.721338,5.532617,8.402246
2.9937987,8.459131,4.218408,4.102197,6.334131
3.3961425,8.935938,3.6883788,3.5260253,7.0333495
6.2228026,10.702051,7.419336,7.8424315,10.159327
11.047266,11.727198,11.181299,11.657373,11.478907
9.874659,11.448389,10.4786625,10.857325,10.945948
9.438868,11.433496,10.194727,9.990625,10.423487
3.1986327,7.941797,4.893701,4.483789,6.1756835
8.888819,11.534815,9.688379,9.50918,10.758692
8.472315,11.330225,8.739893,8.238428,10.02334
8.879297,11.09292,9.873926,9.621729,10.500391
3.6776366,8.339991,4.605127,4.5160155,6.466699
3.3470702,10.404444,4.4588866,4.5890136,9.208399
10.048731,11.887842,10.406397,10.229151,11.418116
4.2245116,8.784815,4.720117,4.5750976,6.643213
7.9034667,10.159082,8.862696,8.814112,9.776758
8.892481,10.809961,9.540186,9.990381,9.968409
9.518457,11.070459,10.847315,10.534082,11.04043
10.213282,11.893213,11.420801,11.153711,11.768213
7.21792,8.809717,8.269434,7.738672,7.023828
3.803369,6.5279784,3.5472655,3.5577636,5.1358886
2.8521972,7.680078,3.9007812,3.6229491,6.537988
3.7225585,7.327539,4.3856444,4.454492,6.324121
3.1161132,7.609033,3.4430175,3.0216308,6.15957
2.659082,7.879541,3.5719237,2.409326,6.7586913
6.860986,9.714014,6.820703,6.2625976,8.918604
11.381006,12.03335,12.296778,11.748926,12.031641
5.9745116,9.771631,6.9259276,7.616113,8.536524
6.5506835,10.028223,6.410547,6.2503905,8.09292
7.162256,10.331446,8.275049,7.7154784,9.436914
8.933008,10.981836,9.799463,9.0394535,10.34292
3.3941894,7.7799315,4.0677733,4.067041,6.405664
3.0226073,7.3597655,3.720117,3.9552245,6.2992187
7.5350585,9.864649,4.8202147,4.9999022,9.334864
7.9652343,9.792383,6.9813476,6.497949,9.1002445
5.768213,9.145411,6.8841796,6.707666,8.011133
4.8839355,8.82461,5.320947,4.9481444,7.4413085
3.2762694,7.4381347,4.076074,4.0526366,5.7140136
6.980371,10.079493,4.8368163,5.5018554,10.034082
7.9642577,11.128565,8.500147,9.196924,10.18252
6.5177245,9.02627,6.0436034,6.0851073,8.192774
8.470362,9.832666,6.8182616,6.091211,9.312403
9.274805,10.922754,8.024805,7.3819823,10.217432
6.2186522,9.466211,7.344873,7.1722655,8.372461
2.3253417,6.730371,2.777246,2.9037108,5.9359374
2.051416,6.8197265,2.0665526,2.497705,6.1913085
3.3351073,8.705713,4.4010253,4.0853515,7.5057616
4.8404784,9.236719,5.726953,5.4989257,8.041407
9.184961,10.278223,9.571192,9.687159,9.966211
10.292383,11.237207,10.00625,9.879541,10.679346
9.441797,8.089502,7.142236,6.0660644,6.6966796
3.7779784,7.579004,4.0782714,4.0545897,6.1551757
4.1083007,9.063868,5.2464843,4.62832,6.3263183
9.60293,10.245508,9.189356,9.575098,9.919336
9.688379,10.267237,9.512842,9.450098,9.913477
2.992578,7.4583983,3.6598144,4.190576,5.4100585
5.5702147,7.936914,6.9537597,6.869531,7.576074
8.522852,9.869043,5.576074,5.6029296,9.439844
10.548243,10.027002,10.1,8.96377,9.9786625
10.672998,10.017481,10.28042,9.855616,9.953516
9.243311,9.153223,8.065577,8.053858,8.552393
4.77041,8.3814945,5.282373,5.050195,6.553125
5.777246,7.855371,6.6603026,7.018213,7.792871
5.172754,7.8963866,5.9554687,5.6480956,7.791162
3.969873,6.640283,5.051172,5.098291,5.548486
3.1705565,6.398828,3.77041,3.223535,5.2621093
4.4046874,9.326075,5.233789,5.195947,8.519434
9.588526,10.077051,8.952295,9.194239,9.737207
4.6759276,7.5538573,4.527246,4.6600585,6.7315917
4.77041,7.0487304,5.447412,4.9850097,6.4791503
4.353906,6.5077147,5.410547,5.679834,6.020166
3.546289,5.884668,4.3705077,4.036279,4.963037
4.9066405,7.3546386,5.676416,6.0855956,6.5753417
4.2018065,7.4808593,5.6986327,5.636621,6.973047
7.6654296,10.240137,8.119776,8.047754,10.321436
10.604639,10.73794,12.047754,13.07876,13.182276
7.4085937,8.628565,8.394922,8.210108,7.9359374
8.005518,9.932276,8.64834,8.499659,10.173975
12.532129,10.85586,11.522608,11.445459,11.145655
12.44668,11.909082,13.817041,13.755274,14.685205
9.192286,8.667383,9.676905,9.301172,8.166407
8.51626,9.000635,9.330957,9.339258,8.116846
8.957422,8.043604,10.965967,10.453272,10.001856
9.819727,9.185205,8.681299,8.385157,10.140772
6.5816894,8.298731,6.4552245,6.50332,7.94375
6.725,8.451075,8.541407,8.552637,9.381006
8.152491,8.308496,10.2286625,9.817041,8.241846
7.914697,8.541895,9.167383,8.489649,9.068262
7.510156,8.743799,8.130518,8.212793,8.996485
6.3351073,8.722559,7.3878417,7.150781,9.704737
9.454004,9.253809,9.0238285,8.280909,9.62417
8.317774,9.293116,8.644434,8.779688,9.368555
6.4044433,7.8094726,7.297754,6.4798827,8.355616
5.91958,8.181299,7.723047,7.45791,8.3363285
9.212549,9.013086,9.543848,9.313623,9.15542
13.511621,11.093164,10.62295,10.643457,11.538721
14.083399,11.68667,14.340235,13.774073,12.417627
7.432031,8.948633,9.98501,9.667139,9.089991
9.63418,8.709131,9.19668,9.6192875,9.6625
11.864893,9.250391,9.953516,10.390284,10.310938
10.667871,9.059473,7.6981444,8.049707,8.454493
13.8502445,11.706934,14.079981,13.619776,13.461817
13.847071,10.577784,13.067286,12.787012,11.753077
13.080957,11.75625,14.540186,13.339746,13.150049
10.403711,9.324366,11.191553,10.829248,10.104639
6.4222655,8.336573,8.299219,9.57168,8.154688
9.558985,8.712061,9.76211,10.029688,9.562891
5.4034667,8.0646,6.0467772,6.1134276,8.262598
5.7933593,7.055322,6.155908,5.923242,5.9461913
6.086572,7.418115,6.1568847,5.8355956,7.0301757
4.491113,8.922022,5.8387694,5.7140136,7.657617
7.8219237,8.315577,7.893701,7.9356933,9.874903
7.858545,8.278467,9.530664,7.938379,7.6187987
9.122461,8.874659,8.919092,8.587061,8.594629
8.608545,9.5917,8.909571,9.684473,11.084131
8.873926,8.595118,10.418116,10.354395,10.42959
9.10293,8.445459,8.540674,9.029932,9.06753
7.499414,9.14834,7.888574,8.342432,9.654932
9.072901,8.873194,10.289698,10.0375,9.364161
12.038233,9.837061,10.705469,9.464991,9.705469
9.409815,8.919825,11.148584,10.627588,10.57461
10.714502,9.722315,9.795557,10.295801,10.571924
15.1661625,12.840723,14.879297,14.135645,15.743799
12.422754,12.609766,12.313379,12.190332,12.091211
11.900782,10.363916,12.258936,12.002832,10.562891
12.066309,12.433252,14.215479,14.5292,13.74502
11.733057,10.489161,12.853174,12.142481,12.002344
10.41958,9.126368,11.5917,10.650293,9.705957
7.693994,9.211084,9.84292,9.468897,9.194483
8.675928,9.272608,9.004053,8.46792,11.125147
12.776758,9.746241,14.9457035,15.100489,11.352198
15.48794,11.516993,15.90127,15.725,14.502832
15.928125,12.706202,17.035059,17.479883,17.091944
16.526758,15.07876,16.721582,16.807276,16.210596
18.208887,14.350977,18.370508,18.452051,17.29214
20.877344,15.6314945,20.905909,20.920069,20.379053
20.015284,15.417871,20.045313,20.74087,20.812891
13.271875,12.94375,12.114893,12.424219,11.975489
9.597315,10.595362,10.94375,10.805323,10.7096195
11.6974125,10.261621,14.337305,14.657618,11.337549
12.8146,11.176172,15.348047,14.95083,11.834864
12.936914,11.588282,13.173975,13.064112,12.639063
11.589991,11.593164,14.3832035,14.526026,14.180567
14.986475,13.759668,15.745508,16.246973,14.559473
15.704493,13.821924,17.613184,17.422754,17.117334
17.871973,13.965479,19.090235,19.225489,17.609766
12.3536625,13.512598,13.080469,12.02334,12.893457
12.781397,12.465967,13.734766,13.768457,13.170557
10.337793,12.201563,10.953028,9.941309,11.731104
18.538477,16.048243,19.48794,19.131006,16.464258
16.859034,14.973291,17.486963,17.991358,16.172022
15.114161,15.148584,14.8675785,14.479639,15.557764
16.325098,15.424707,16.427393,16.36416,16.473536
14.910547,14.76333,15.85708,17.054834,14.482813
21.14956,16.055323,21.934961,21.262354,17.18374
22.992579,17.764307,23.70962,23.268946,22.631739
23.332666,18.560205,23.61123,23.833399,20.519678
20.396143,18.616846,21.462793,22.880274,20.976954
22.319971,17.192774,23.143702,22.780176,21.248926
23.745264,18.78457,22.22793,23.368555,21.706202
24.69668,18.677393,26.32046,25.807276,19.686182
17.67251,14.736719,16.289454,16.951563,14.154444
15.775293,14.319483,15.567286,15.448389,14.368555
17.027246,15.106592,19.270166,18.805079,16.370508
16.249903,14.156397,16.18838,16.656397,15.059961
12.535547,14.324121,14.054346,13.072901,15.24502
17.167871,14.175684,15.801416,15.601709,15.680567
13.774561,13.844629,14.027979,13.580957,14.555567
15.613428,13.313135,15.427881,14.359766,13.800684
13.200098,14.387598,13.776758,14.68545,13.782862
16.543848,14.390528,15.109522,15.753809,14.627588
12.685694,15.288965,16.033838,16.595606,15.822901
18.40835,18.564844,17.243555,18.02505,18.093409
23.98379,16.044825,26.556055,26.886377,17.873926
20.376856,15.8849125,20.13418,19.85879,18.11416
23.60464,16.123438,22.062647,21.693995,17.937647
24.0646,14.855127,26.630274,26.114649,18.504297
21.436182,15.579981,22.393946,21.589014,19.37588
21.839258,16.02505,21.114893,20.379053,19.334131
20.570215,15.834131,19.580957,20.018457,18.280909
16.680567,16.182764,18.764551,18.96084,18.635157
16.099756,15.583155,15.824366,16.819239,15.850489
16.542871,14.786524,17.562891,17.5917,15.018946
16.581202,14.546289,18.698633,18.276758,16.476954
18.92251,16.390284,20.926905,21.144922,15.731348
21.121973,17.457422,21.28213,20.665918,18.115625
23.91958,17.581934,23.991846,24.630518,20.355616
25.197412,18.63833,25.726954,25.838282,24.246973
27.08047,22.329248,28.282618,28.881495,25.396143
27.58999,23.807276,29.072657,29.670801,25.638575
22.533106,22.442286,23.271631,22.973291,22.650537
20.661768,19.088282,19.775537,20.168604,20.155176
18.936182,17.863428,19.839746,20.02212,17.936914
16.544092,16.834131,17.224756,16.65542,17.941309
17.233301,16.976954,16.210108,17.388575,17.646387
13.509668,16.166407,16.217676,15.326319,15.560694
16.449366,16.405664,17.583155,17.664942,16.303614
16.558496,16.050196,18.329248,18.764307,18.52456
19.352198,16.375391,15.772364,16.542627,18.578516
18.867334,15.943506,18.969385,20.000635,18.733301
20.991602,16.634424,20.002588,20.60708,19.489649
20.090235,17.1354,21.974268,22.896143,19.718897
22.948877,19.121729,22.613184,22.979395,22.604395
22.521631,18.452051,19.47964,20.79043,20.584375
19.124414,18.0021,21.870508,23.006739,19.007227
18.319971,18.39004,17.170557,17.187647,19.74331
18.720606,18.527246,18.419825,19.019922,18.774317
18.644434,17.533838,18.263819,16.714502,18.304102
18.324854,17.112696,19.8063,19.82461,17.199121
17.210108,16.84585,14.989405,14.988184,16.33584
15.8380375,16.822168,17.242579,17.607569,17.600733
18.082422,16.947168,18.045801,17.937159,16.722559
19.97207,18.21499,19.843164,19.656153,19.422266
17.025293,17.764551,20.633448,20.98623,19.824121
22.780909,18.751368,23.15127,23.630274,21.731104
25.044825,19.001856,21.22964,22.733301,20.310694
19.020166,18.603907,22.201807,22.72793,18.353907
22.682032,19.58584,23.949366,24.104395,21.470362
23.50088,20.140772,25.15127,24.599512,23.294092
25.139307,20.156885,25.437647,25.579737,24.976954
26.871973,20.224756,27.429102,27.189356,24.680079
25.719141,20.19668,23.342432,24.028223,23.059229
29.113428,23.740381,27.781153,27.816553,25.11294
28.837305,22.80044,25.724024,26.92666,23.6979
23.280176,20.70962,23.59292,22.8771,22.049707
21.432276,19.661036,19.987452,19.43838,19.436182
21.538477,19.968164,22.694971,21.974756,21.52212
23.351954,20.618067,21.479395,20.14248,23.031397
22.754053,19.94839,22.904688,23.557764,19.569239
24.645899,20.770655,25.821436,25.871973,20.961084
27.915918,21.371485,27.88003,28.031153,22.147608
26.647608,20.742334,25.983545,25.598291,19.976221
24.936914,20.426416,26.146143,25.57876,20.26089
24.281397,21.856348,25.166895,25.042871,23.832422
26.270655,23.284327,25.904932,25.975489,23.031641
25.209864,24.001612,24.107569,23.663233,24.660059
23.829737,22.02505,22.204004,21.56753,22.476221
19.891748,20.76626,19.180567,19.587305,20.357325
19.546778,21.98672,20.222315,21.136866,20.68838
21.80166,21.054346,22.65957,22.008204,24.180079
22.60708,20.427393,21.870264,20.944971,21.539454
19.172266,20.004297,17.596338,18.018213,19.798243
17.079737,19.834864,16.043848,16.35879,19.480616
18.725977,18.93838,20.076563,19.48623,18.899805
18.78335,18.320704,19.634668,19.2438,18.522852
17.822412,19.125635,17.422998,19.333155,19.792627
17.342676,18.829493,18.201807,17.98086,19.2875
16.045801,19.369043,17.451319,17.215479,19.203272
17.934473,19.687159,18.80166,19.79214,19.923975
18.262598,19.662989,18.503077,19.04214,20.071436
16.301416,19.104395,17.321192,17.054102,19.209864
19.639063,19.496973,17.906153,18.573633,20.275293
18.648584,19.148829,18.869776,18.405664,19.58291
17.532373,19.22378,18.105371,17.939112,19.054834
16.960352,17.247705,17.153955,17.13833,17.521143
16.245752,16.639307,16.080713,16.07583,16.687891
14.830469,17.68081,16.04214,16.248194,17.064844
17.36294,17.950098,18.748682,18.170069,18.318995
19.537256,18.71206,19.347803,19.501612,18.020166
18.366114,20.329737,18.424463,18.66958,20.781153
19.136133,21.20254,18.991358,18.982813,22.103662
18.703516,18.952295,19.160791,18.100489,19.35
16.74209,18.553858,18.074854,16.667627,18.249903
16.802881,18.47085,15.771387,15.174463,18.391748
16.419825,18.49087,17.43545,17.119776,18.911524
15.186182,17.422998,14.945948,15.33584,15.2252445
15.26919,16.90542,16.350489,16.399317,16.46963
15.791407,16.944971,17.817286,17.106348,17.889063
16.353174,17.283594,15.609522,15.499903,17.412012
14.063379,18.246485,15.623682,15.099756,16.607813
17.91128,18.310205,18.991846,19.329737,17.916895
16.014307,16.818262,17.325342,17.769678,15.767725
14.495996,15.702295,14.152002,14.377832,15.41836
14.928858,16.625391,16.639307,16.51089,16.925196
15.258936,17.279932,16.365137,16.428614,16.81338
14.672022,16.628809,15.938623,16.16714,16.539942
15.29751,17.558252,15.7252445,15.827051,16.38003
16.041162,17.813135,16.511866,16.757715,17.078272
16.083155,17.475,16.734522,16.781885,16.675196
13.886133,15.853174,14.885645,14.146875,15.067286
14.981592,17.043116,15.827051,15.610743,16.641504
14.86001,16.481348,14.656641,14.197168,16.064112
13.495264,15.204248,14.843409,14.31753,14.991602
13.912989,15.924952,14.125391,14.035791,15.278467
17.040918,16.180323,15.031153,15.728907,16.056787
14.247705,16.670801,16.89956,16.425684,15.993067
14.7599125,16.580225,15.562159,15.181543,15.943262
17.409327,17.769434,18.920557,18.396387,19.375635
17.223047,17.563135,17.471338,17.492334,17.123438
13.057764,15.755274,13.546534,13.81045,14.664698
15.977442,16.318506,15.28628,16.05874,15.469141
11.711084,14.897364,11.632227,11.650782,13.23208
13.027979,14.862696,12.575342,12.771631,14.112207
11.140039,14.93252,11.51211,11.55459,13.162256
11.254297,13.643457,11.288477,10.917139,13.026758
9.962061,13.511621,11.118311,11.22378,12.191309
15.022364,15.564356,14.598291,14.856348,14.947168
14.419092,15.528711,14.61709,13.926416,14.57461
14.899317,15.378321,12.993311,12.87002,14.77334
15.154444,15.759668,14.562159,15.112696,15.011621
14.252344,15.818018,14.548975,14.40835,14.961817
14.596094,12.756006,9.74795,9.818262,11.402246
9.666895,12.911768,10.5567875,10.096582,11.851465
8.981836,11.888819,9.419336,9.269922,11.159082
10.676172,13.394922,11.409082,11.450342,12.408594
11.327295,16.948877,11.840235,12.133448,14.566309
13.234522,15.126368,14.426416,13.083155,14.559717
13.677881,15.044825,13.220118,14.047754,14.967676
11.39126,14.245508,12.691065,12.267725,13.088526
10.545313,13.810938,12.031153,11.868799,12.314112
10.892237,14.326319,11.57583,12.393946,13.327539
12.802881,14.094385,13.141993,13.113916,14.1625
11.248682,14.1817875,12.643946,12.424219,13.694971
11.524561,13.933252,13.482325,12.836084,13.04336
7.502588,12.979151,8.205469,8.042139,11.135401
12.427637,14.6314945,13.156397,13.035547,14.281641
12.555323,14.759424,13.204004,13.1314945,14.402979
12.530664,15.458887,14.533838,13.459864,14.869776
13.195215,15.2521,14.196192,13.832911,14.689112
7.8839355,11.460596,8.51919,7.9950194,9.501123
7.4896483,12.162012,8.223536,8.461084,10.410547
12.120264,14.618799,13.039698,12.8692875,13.829004
9.825586,13.687403,11.233057,10.875147,12.386621
12.316309,14.322657,12.799707,14.218164,13.79043
14.927881,15.5394535,15.73794,15.62417,15.956202
14.803614,15.088282,15.157862,14.8692875,15.189844
11.420069,13.653711,11.899561,11.924707,12.743799
10.414698,12.283838,9.417627,8.879053,10.345118
6.1185546,10.666651,6.483789,6.5580077,8.461573
4.727197,9.815821,5.3844237,4.9513183,7.9955077
5.6515136,8.999414,6.1515136,5.5819335,8.216455
4.206201,8.858545,4.603662,4.06875,7.3905272
4.4293456,8.864405,5.407129,4.761621,6.70791
4.3287597,8.739649,5.2503905,4.302881,7.4498534
3.0733886,8.459375,7.5421386,7.0782714,8.101709
4.6725097,9.889795,4.933496,4.8402343,7.4935546
6.2054687,10.185205,8.383692,8.1957035,9.120508
7.3387694,10.9596195,6.8077636,6.108545,8.556543
6.3802733,11.069727,8.324121,8.549463,9.9439945
5.3861327,11.133936,5.883203,6.7362304,10.20669
