"[299, 255]","[227, 248]","[287, 319]","[279, 328]","[230, 262]"
4.4745116,9.0846195,5.5921874,5.310449,7.4308105
4.376611,8.671289,5.0885253,4.8646483,7.3094726
7.511377,10.845118,8.163477,7.6893554,9.955713
8.841211,11.071924,9.206202,9.038965,10.500879
6.5086913,9.969629,7.3375487,7.206445,8.4925785
5.289697,9.111475,5.598291,5.2433105,7.26333
1.8126465,7.549707,0.049462892,0.61757815,5.673242
0.59121096,6.0243163,2.1356444,1.7184082,4.5333495
1.7784668,6.0453124,1.1583496,0.91274416,4.888086
2.5147948,7.879297,2.8961425,2.6041503,6.1061034
3.9251952,10.184717,4.2223144,4.345361,10.007471
10.443018,11.205957,9.628321,7.6288085,11.15127
4.7362304,9.238184,5.525537,5.6996093,7.5331054
6.1273437,10.025293,7.2865233,7.4669433,9.640772
6.0267577,8.909815,6.702783,5.620752,7.851709
4.555322,7.4674315,5.6114745,5.3075194,5.985742
2.1664062,8.231348,3.2503905,3.8382812,6.846338
5.166406,9.597071,6.6217284,6.555078,8.690332
3.244287,9.160059,4.1825194,3.92666,5.8043456
6.9815917,11.066309,7.7245116,7.5780272,10.189844
7.432031,10.172266,7.845361,7.745996,9.574366
6.9291015,10.081446,8.247217,8.28628,9.3519535
8.630274,10.622705,9.866114,10.167871,10.53335
11.869532,10.934229,11.406885,11.813379,11.826075
7.0370116,9.843897,6.7889647,6.6568847,8.569971
10.231104,10.400049,8.983789,9.58169,10.959375
8.293848,10.287256,9.174952,9.1644535,10.804834
7.94082,10.660059,8.658106,8.966944,9.502588
9.75503,10.456202,11.776758,12.452784,11.026758
9.342188,10.424952,11.049952,11.18252,11.001123
6.419336,8.644678,7.303613,7.202539,7.714502
6.997461,9.9125,7.6810546,6.242334,8.195215
6.535791,9.995508,8.830957,8.589502,8.343897
5.5543456,7.565576,5.6444335,5.301172,7.064111
3.0768065,8.700342,5.2782226,4.7691894,7.668115
8.518946,10.527491,8.585108,8.792627,10.653467
9.651514,10.951075,9.357325,9.53042,11.016993
8.724024,10.042871,9.848047,9.7877445,9.815577
8.343897,10.566309,9.342676,10.065088,10.142237
8.400293,10.177637,9.057032,9.039942,9.359034
3.7909179,9.203028,4.369043,5.187158,7.8319335
5.177881,9.132471,6.4828124,6.252588,7.643701
4.8478026,9.506006,5.4847655,4.714746,9.004297
8.566065,9.991114,9.103418,9.946192,10.126123
8.498438,10.339991,9.349268,9.361231,10.118555
5.351953,8.969385,5.9762206,5.647363,7.5680175
7.2865233,10.237696,5.567285,5.105127,9.641993
9.910547,10.923731,10.179346,10.618311,10.694483
5.447168,8.5689945,6.211572,5.95083,7.7311034
2.410791,7.452783,3.70083,3.1881347,5.266504
1.1285645,5.8836913,0.8619629,0.6456543,4.810449
1.3971192,7.3385253,1.7086426,1.2848145,5.6170897
5.6390624,9.596582,4.7015624,4.580713,9.018702
5.0121093,8.171534,5.3548827,5.593164,6.829004
7.3751464,10.270655,5.084131,5.6720214,9.2408695
5.061914,8.489893,4.687158,4.769922,7.459863
2.82583,8.975,4.944238,4.9764647,6.690576
7.230127,10.340723,7.5194335,7.027246,9.957666
6.253076,10.106836,7.185449,6.664697,9.833643
11.597315,10.849268,11.479639,11.172998,10.964014
10.927637,10.64419,11.622217,11.330225,11.017237
12.294336,12.801661,14.0394535,13.133448,13.630762
9.974756,10.555811,10.782129,10.4439945,10.300196
7.0399413,9.470362,7.213281,6.827783,8.560694
10.940088,11.287989,11.074121,10.478174,11.121973
5.6651855,8.323877,5.427881,5.2398925,6.846826
6.1080565,9.318506,6.9745116,6.673242,8.456446
4.9774413,8.827784,5.954736,5.6639647,7.4046874
7.3697753,9.692774,8.126856,8.075098,9.11294
8.271143,9.6542,7.8512206,7.7733397,9.063379
8.670801,9.183496,7.805078,7.769922,9.274805
6.8473144,9.821436,7.504541,7.4842772,9.102686
9.049952,10.169336,9.731104,9.26919,9.769922
6.487695,8.794825,5.1007323,3.2503905,6.976709
3.259912,6.539209,3.9435058,4.0902343,5.5748534
3.9618163,7.8097167,4.3077636,4.261865,7.1183105
7.6881347,9.231348,6.940576,6.4308105,9.385645
6.584619,9.660059,6.6668944,6.505029,9.024317
5.709375,8.7269535,7.041406,7.0179687,8.24502
6.2555175,9.165674,7.6895995,7.1986327,8.795801
7.809961,9.846094,9.1192875,8.707422,8.79336
6.2765136,9.546778,5.025293,5.4222655,8.78042
3.3233886,6.9725585,5.238916,5.62124,4.99624
3.999414,7.771875,5.1666503,4.8233886,6.424951
3.4571776,6.1112304,4.152246,3.954248,5.263086
2.2479491,4.591455,1.6830078,1.648584,4.485742
2.5956054,5.1700683,3.5733886,2.803369,4.329004
3.0174804,5.9293456,3.6966796,3.515283,5.345117
2.8729491,8.744532,4.072656,3.5396972,7.389795
5.8419433,9.204248,6.7159667,6.600244,9.545069
7.938379,10.106104,9.381006,9.181299,9.558252
10.324854,9.926905,9.91836,9.236231,9.587549
8.097803,10.097559,8.971338,8.624659,9.614405
6.7037597,8.396143,6.9208007,6.598535,8.474512
9.939112,10.833643,11.052637,10.42959,10.904688
10.312159,10.796534,11.026514,10.519678,10.517481
9.3771,12.771143,11.5255375,10.93252,12.8224125
13.389795,12.9457035,13.255762,12.153467,12.821924
8.269678,9.247461,9.658106,9.1471195,9.97085
6.92666,8.721338,8.385889,8.172998,10.06167
5.8316894,8.425196,8.50918,8.421045,7.8773437
8.901758,9.214258,9.524805,9.13125,9.304102
6.35708,9.927149,8.344629,8.118799,9.812647
6.679834,8.981592,7.7000976,7.3871093,7.7987304
8.096827,9.721094,8.422266,7.8617187,10.270166
4.9083495,7.5086913,5.575586,5.485742,7.2433105
5.943994,7.8805175,7.2154784,6.57583,7.50332
6.2433105,8.7113285,6.492578,5.114404,7.801904
4.10708,7.988916,5.4554687,5.5265136,6.790918
3.7984862,7.3062987,6.440088,5.9239745,6.5035644
5.223779,7.1185546,6.447656,6.251367,7.1378417
5.8368163,8.424707,6.640039,6.525537,8.1349125
5.6563964,6.598535,6.244287,5.841455,6.565332
4.747949,6.9447265,5.64541,5.633447,6.4989257
5.8216796,6.90249,6.191797,6.099756,7.7159667
8.09292,8.400782,7.752832,7.1217284,8.769678
5.5855956,8.276758,7.594873,7.6290526,8.940577
7.5787597,8.4457035,8.677637,8.678614,9.38418
8.738672,9.214014,10.608545,10.642481,9.646631
12.359766,10.084864,10.97378,10.951075,11.349756
17.589258,12.293848,13.794336,14.869776,16.856836
20.151026,14.390528,21.013086,21.103907,21.609278
18.164698,13.707666,14.070215,14.568018,13.820948
13.847315,14.627832,13.582422,14.524073,16.519678
11.655664,12.131983,11.234034,11.237452,13.17544
8.527979,8.338526,9.938135,9.362207,9.188135
10.512842,9.582911,10.305323,9.537989,10.279932
11.296289,10.100733,10.905176,10.901514,9.772852
14.547998,11.182276,12.968897,12.260889,11.707666
21.055567,14.340479,19.241114,18.957666,18.905176
18.103662,11.27334,15.98794,16.05874,13.06167
17.477198,10.253809,13.643702,13.270411,16.38003
14.464746,10.358057,12.682032,13.505274,10.016993
7.804834,10.691065,9.733057,10.486719,10.613184
10.479395,10.257959,10.679346,10.885889,10.450098
8.923487,10.096827,9.482569,9.240625,10.319727
7.1915526,8.236963,7.727197,7.0887694,8.743067
6.6231933,8.440088,9.425684,9.434717,8.885645
6.3248534,7.4571776,8.268702,8.014551,7.677881
8.0707035,9.156885,8.557764,8.600733,8.786768
6.529199,8.738184,7.726709,8.005762,8.953516
7.2345214,8.41958,7.942285,7.728906,8.224756
7.8233886,8.796289,8.01919,8.234034,8.565821
6.660791,8.284327,8.392969,8.180567,9.044336
8.2755375,8.256006,9.918604,9.495752,9.722071
8.988916,8.619043,9.67959,10.479395,9.163965
7.850244,8.734522,9.627344,9.270166,9.246729
7.9605956,9.957422,8.774805,8.547754,9.808985
10.482569,9.881739,10.067774,10.209131,11.176416
10.004297,9.536524,10.6158695,10.848047,11.583155
9.327784,9.736231,9.639063,9.57461,9.398584
10.844629,10.745996,10.53335,10.944239,10.604151
10.613916,10.955957,11.330957,11.190821,12.77627
10.364405,9.767969,10.851221,10.12002,11.263575
11.781885,11.038477,11.292383,11.2167,10.52334
13.947657,13.660059,15.392969,15.331934,15.882715
14.863916,14.489893,15.700586,15.85293,19.453028
18.052881,14.323389,18.967188,18.442041,14.877832
17.991602,16.617579,16.94546,17.656885,17.789454
16.657373,15.7721195,13.073389,14.168848,15.683741
11.310694,11.232813,13.532862,13.150049,12.437403
14.361719,12.625635,11.384424,10.945459,12.745996
14.51919,12.052637,14.1,14.321192,14.880762
12.878321,12.773096,14.086084,13.579248,13.278467
14.040674,12.587793,14.923975,14.0411625,13.770166
9.012354,10.142237,10.438379,12.099268,11.131739
12.458887,11.096827,12.8692875,12.309961,12.515772
8.921534,9.319483,10.035547,9.687647,9.763575
9.019922,9.358545,11.246241,10.957666,10.1974125
12.4752445,10.6314945,13.034571,12.753565,12.706446
12.337793,10.559961,12.652491,12.510401,11.217432
14.060938,12.068018,13.868799,13.174463,14.032862
15.160303,12.069971,15.574121,14.248926,11.819971
11.391748,11.462061,12.8971195,12.664942,10.902979
13.5375,12.291407,13.700342,14.777002,12.120264
15.92251,11.394434,17.008692,15.701319,14.725
13.317286,12.0021,15.680567,15.212793,12.186426
12.810205,12.596338,13.774317,13.82461,12.763086
16.1,13.478418,17.396875,17.207178,14.160059
17.766504,12.741846,19.387354,18.919825,14.034815
17.797998,13.922266,17.714502,16.641016,13.964991
17.238428,13.672022,15.967432,16.118555,14.173243
15.088526,14.771143,16.47378,17.124414,15.082666
13.833399,14.201075,18.245996,18.176416,15.235254
19.223047,15.226221,19.144678,19.611475,15.936426
21.23086,16.342188,21.935205,21.152246,20.959864
22.172998,16.18081,22.138819,22.016748,17.49917
21.853662,16.006495,21.055079,20.17666,16.283838
22.223536,17.37832,23.416162,22.921778,17.772608
22.119287,15.928125,24.114649,24.592676,22.995264
13.902491,14.516504,14.136133,14.169092,14.781397
11.249414,12.934717,14.38833,14.663477,13.89126
15.314356,15.104639,16.472803,16.836084,17.891993
14.254786,14.503809,15.985743,15.213282,16.036768
13.0533695,14.402979,13.489649,12.909327,14.87295
14.739649,13.520411,17.292627,17.998438,13.80752
16.85293,13.5724125,18.058008,18.41836,14.214991
13.753077,13.921289,14.219141,14.137354,15.007959
13.330225,13.688379,13.894678,14.367334,12.975
13.350489,13.32461,13.9613285,15.353174,15.079004
10.987452,13.79336,14.661524,15.108545,12.7738285
16.140284,13.946924,14.734522,14.348291,14.905664
16.837793,14.85708,17.549707,17.146143,16.997461
17.768213,16.014795,15.346338,15.099268,16.066065
23.50503,16.697168,19.867334,19.031153,19.553614
22.722315,17.795069,22.460352,23.158594,23.400782
30.051905,19.247217,26.545801,27.13003,25.993067
27.041895,19.620508,24.794092,22.903955,20.45498
19.628809,20.282862,16.274073,17.050684,20.86416
18.266748,19.396631,16.76089,18.890284,19.615381
22.072168,19.133692,20.136377,22.009424,21.495264
25.580713,20.54165,24.669092,25.348291,23.69839
31.651514,20.735987,28.312403,29.112696,27.05459
21.01919,17.534082,21.234766,21.152002,18.639307
22.146875,18.008204,21.398829,20.908838,20.130274
22.62832,18.000391,22.17129,21.297266,19.431055
24.996485,17.57876,22.370752,22.343164,21.125391
24.206446,17.961817,23.461817,23.031641,20.381006
23.170557,17.524805,22.470362,22.01211,20.516504
22.676416,17.514307,21.485743,20.584131,19.814356
19.075098,17.959864,17.139551,17.56875,16.822657
21.464014,17.99624,21.542627,20.947412,19.932276
20.513086,18.251123,19.59463,18.972315,18.342676
24.412012,17.850733,22.647852,22.748682,20.358057
19.446436,18.15127,19.6271,19.052149,19.497217
18.640528,17.983057,18.400537,17.616846,20.23794
16.810938,17.403223,17.716211,17.387598,18.069239
21.290186,17.12295,18.524805,18.279932,18.851221
16.199121,17.296778,15.939844,15.863672,17.572168
16.933008,17.381006,18.954248,18.679834,16.981104
18.909327,17.291407,19.192286,19.199854,18.542871
23.021875,18.24331,20.19839,19.944239,19.131006
19.46206,17.433496,18.529444,19.917383,19.835352
17.13296,17.823145,17.149317,16.554834,17.657373
17.6542,17.45498,18.716944,18.709864,19.068018
17.94375,17.565088,17.50088,18.679346,19.44839
16.503565,17.152979,16.634424,16.241602,17.544336
15.731348,17.13296,16.530176,16.773584,16.367579
17.18838,17.291407,17.882715,17.96084,18.069727
22.37002,18.086329,18.618067,18.464746,17.65835
16.36709,16.54629,18.365625,17.144678,15.6974125
15.91543,16.35708,17.286036,17.26211,17.381739
18.163477,16.57754,18.386866,18.663965,16.682032
16.178125,17.053614,18.038965,17.88833,17.941797
16.65835,16.83291,18.460352,17.864893,17.095606
17.745508,17.172998,17.83706,18.005518,18.15542
17.019434,16.38003,17.932276,16.906397,17.596094
19.89956,18.201075,19.170557,18.303125,19.99624
22.154444,17.970362,18.842188,19.0375,20.534082
18.043848,16.47964,17.09878,16.614649,17.307032
20.685205,17.535791,19.390772,19.56338,19.829004
17.167871,17.377344,17.220362,16.787256,16.99087
16.830957,16.879297,18.933252,18.00503,17.203028
19.096582,17.353418,20.220362,19.82339,17.993067
16.512842,17.9396,18.139063,18.02505,18.512598
20.92251,18.998194,23.393457,24.08755,19.718653
23.760645,19.66836,25.989405,26.71377,20.64004
26.042627,20.482813,26.865625,26.23208,21.260157
27.150782,20.659327,28.288233,28.588526,24.693995
22.981836,20.20376,26.134424,26.55874,22.891016
20.49087,17.759424,20.5292,19.280909,17.232325
16.649317,16.916895,19.876368,19.266993,16.933008
16.319971,17.316065,19.016993,18.803858,17.126612
17.096338,18.39541,17.898096,17.687403,18.453516
20.389795,18.160547,18.066065,17.809961,19.367334
16.462793,18.162256,16.791162,17.269434,18.011621
17.3146,17.942286,17.438135,17.83047,17.071436
13.57168,16.77456,15.544336,14.859278,16.60171
19.434717,17.578272,16.753565,17.05581,18.021875
17.396631,17.371729,16.504053,16.796778,17.326563
18.599024,18.724024,18.202295,18.226954,19.98623
22.53921,17.720362,20.40249,20.79214,18.76333
23.520166,18.607813,20.244287,22.307032,20.576807
24.133448,20.920313,25.898584,25.919825,23.510157
26.222315,22.680567,25.214014,25.458155,27.553614
28.157618,21.842676,26.114649,26.941309,26.628809
28.157373,18.54336,27.577051,27.731348,22.351221
21.706202,17.992579,20.599024,21.07461,17.847315
18.777246,18.17959,19.044336,18.096338,17.866358
20.903223,18.33047,18.982325,18.594141,18.86831
20.109522,18.394434,18.259668,17.561914,17.90249
16.035059,17.007471,16.676905,16.645899,16.511133
15.736231,16.784082,16.606836,16.263575,16.610498
15.252344,17.344873,16.689844,16.138575,16.780176
14.981348,16.725,17.06753,16.65835,16.512354
19.183985,17.653467,17.34707,17.437891,17.248194
19.721338,17.835352,18.60879,18.316065,17.593897
21.356348,17.425928,19.411768,18.287256,17.03042
17.906397,16.683985,18.322657,17.800684,16.39419
18.326807,17.001612,16.491846,17.286768,17.55044
16.811914,17.800928,17.15005,16.438135,17.352442
14.736475,15.812647,15.2252445,14.7408695,15.651026
16.593653,17.051416,16.02627,16.056543,16.89248
17.62417,17.383936,17.759912,18.458155,18.3688
15.457178,14.885645,15.324366,15.091455,15.528955
16.663721,15.860743,17.014063,16.863428,17.498682
18.447168,15.895655,18.27212,18.656397,17.214746
17.974268,15.744532,13.235987,12.981348,14.775293
13.092432,15.017481,13.274805,13.110743,14.028711
16.46206,17.014063,15.173243,15.423487,16.006983
20.889063,18.486475,20.194483,19.875635,18.845362
14.900782,16.826807,16.302637,15.945215,15.409327
14.230371,15.986963,14.950342,14.735498,15.441797
15.192041,16.29336,16.76089,16.886621,16.552881
18.749903,18.4313,18.289942,17.813868,19.044092
14.824121,18.04043,15.187891,14.741358,16.419825
13.789942,15.118555,14.019434,13.638819,15.16543
14.238672,15.649073,14.047266,13.906641,15.326075
14.594629,15.57583,14.48086,14.006006,14.778223
14.530664,15.5533695,14.165674,13.676905,15.115381
16.753809,15.449121,14.94253,14.868311,15.330469
18.440088,18.254541,17.197412,16.265284,18.396143
21.042871,18.863672,20.431055,19.478907,19.30581
11.672022,13.851465,11.737696,11.623682,13.237207
13.7521,15.852686,13.178125,13.076807,14.784082
15.12417,17.843897,14.615137,14.4630375,18.091944
18.463526,18.61172,17.893213,17.183985,18.615625
18.756739,19.561914,19.593897,19.862696,21.703028
14.344629,16.179834,15.974756,15.021875,15.749414
14.871241,15.699854,15.014795,15.615381,15.983545
14.003809,15.407129,14.290186,14.703272,15.032373
15.147364,16.054346,16.127832,16.124414,15.761866
9.167139,13.10293,10.219629,10.405909,11.278467
8.636133,12.916895,9.9283695,9.514795,11.285059
8.701075,12.194483,8.669825,8.773584,11.167383
13.046534,15.395655,14.05044,13.981836,14.591455
12.878809,14.819727,12.572901,12.194971,12.858789
11.246485,14.492334,12.184961,12.754297,13.4283695
14.25503,14.426905,14.022364,14.623682,14.377832
13.250879,14.588526,12.826319,13.190332,13.474512
15.316309,15.389795,13.896631,14.856836,15.445948
16.719873,17.69839,17.979883,16.629297,17.231104
17.33462,17.039942,17.315577,16.327784,16.9479
14.1036625,13.594385,14.61001,13.721582,12.745264
9.650049,13.016993,10.563379,9.974512,11.65542
10.605371,13.861963,11.918116,12.419336,13.609034
10.062159,13.9125,10.793116,10.575342,12.793848
9.860254,13.948877,11.012354,10.950586,12.860254
6.1827636,9.372705,8.379541,8.436182,8.188379
7.615869,14.040918,9.047022,9.021143,13.019922
13.376856,14.546534,13.313135,13.392237,14.495996
14.0533695,15.378077,14.560938,14.645166,14.745508
7.883447,11.801172,8.289209,7.905908,10.234034
8.256983,12.16128,8.721094,8.677393,11.055567
8.684473,12.043116,9.413965,9.024805,9.775293
7.9066405,11.899561,9.652246,9.502588,10.264795
8.750391,11.99502,10.216455,10.3417,10.857325
8.85,11.831446,8.763819,8.751612,10.4769535
6.4322753,10.472315,8.176172,8.417139,8.772364
8.225489,13.500879,9.142969,8.999414,11.767237
8.046778,11.824121,8.958155,8.458155,10.844629
8.857325,12.913477,7.5179687,6.910791,9.740381
8.528223,11.749659,7.893945,7.4293456,10.422998
4.171533,8.776026,4.173242,3.968408,7.912256
5.330713,11.956202,5.8802733,5.819238,9.945948
6.4171386,11.890284,7.3004394,7.4308105,9.969873
6.6185546,11.493311,6.9864745,6.7125487,9.5082035
6.5938964,10.971094,7.615625,7.5489745,9.099512
6.691797,10.797998,7.6969237,7.4691405,9.307032
6.171045,10.691553,6.048242,6.0645995,8.621241
