"[299, 255]","[227, 248]","[287, 319]","[279, 328]","[230, 262]"
10.43545,13.896631,11.82461,12.068262,13.612207
8.048487,13.237207,9.815821,9.433496,12.07461
12.82461,14.744043,13.780909,13.785547,14.6800785
13.102442,15.093897,13.450342,13.647608,14.891993
11.41836,14.111719,12.767237,13.114161,13.792871
10.003809,13.390284,11.603418,11.396875,12.531153
8.329493,12.351709,11.08169,10.598291,11.042627
6.9620605,11.790918,8.515039,8.419825,10.728418
9.471338,14.002832,10.423243,10.166407,13.2442875
9.5846195,13.008448,10.367823,10.606836,11.543604
9.3849125,13.723291,12.257471,12.098047,13.112452
7.928369,13.076075,10.368799,11.154444,11.870508
10.899805,14.037012,11.559473,11.3519535,13.076807
10.439112,13.759424,11.398096,10.963526,12.486963
6.866113,12.537989,8.87295,9.034327,10.65127
8.975,12.590479,8.551416,7.9920897,10.614161
5.183252,10.707666,5.903711,6.3683105,8.315332
5.9171386,11.210108,7.048486,7.1688476,9.086084
4.8873534,11.040186,5.5626464,5.6458983,9.343897
6.3514647,12.889795,6.525537,6.2416015,11.803858
9.768213,13.251123,10.41543,9.850733,12.189356
6.6615233,10.894678,7.7955565,7.707666,9.574366
5.704492,10.648584,6.805078,7.263574,8.868311
8.189112,12.579737,7.575586,7.8351073,9.816065
6.65542,12.338282,8.58584,8.116846,10.845118
8.222071,12.5221195,9.230127,9.053614,11.120508
4.7833495,9.772852,5.922998,6.132959,8.021875
5.613672,10.682764,6.7655272,6.6270995,8.779932
9.582911,12.8814945,8.165674,8.598047,11.737207
9.207666,11.580957,7.9637694,7.728662,9.914209
9.144922,12.406397,11.000391,10.6542,11.714502
10.323877,12.60293,11.576075,11.179346,12.318262
12.42959,13.159327,12.528467,12.927149,12.899317
7.438867,10.6505375,6.992578,6.6842284,8.707666
9.116846,12.508692,10.134424,10.144434,11.663721
6.263574,10.183985,7.2875,6.7882323,8.427637
3.975,9.656397,3.6068358,4.4625487,7.880029
9.037256,11.851465,10.783594,10.729151,11.644678
9.860254,12.308741,10.834375,10.745264,11.878565
7.591699,10.321192,7.7882323,7.7293944,8.844873
11.045313,12.784571,11.638819,11.443018,12.399561
8.528223,11.700342,9.495508,9.455225,10.719385
11.572901,13.170313,12.620996,12.484522,13.017481
11.739893,13.413233,12.96792,12.598536,13.143213
11.630762,12.522852,12.548243,12.112696,11.332666
9.64419,12.79458,10.071924,9.556055,11.91836
3.6666503,9.52334,6.1532226,6.204248,7.473291
5.4586425,9.9942875,6.813623,6.679834,8.640284
10.19375,12.837549,10.792139,10.5255375,12.124414
5.0108886,9.712061,7.001123,6.7621093,8.445948
6.782373,10.524317,8.41958,8.163233,9.495264
11.670069,12.829004,12.170801,12.471582,12.699121
11.008692,12.218409,10.380762,9.449121,10.204981
9.799219,11.962549,10.2564945,9.900782,11.420801
7.6864257,10.352442,7.548486,7.3722167,9.026514
8.204981,10.824854,7.302881,6.862207,9.497461
8.566309,11.792139,10.231836,10.119043,11.012598
6.994043,11.073633,7.759912,7.7193847,9.296534
6.204736,10.554834,7.066797,6.8163085,8.6661625
7.022119,11.04458,8.199854,7.8421874,9.908838
9.769434,12.316309,10.249659,9.657129,11.924707
7.0714355,10.055323,7.3321776,7.3177733,8.571436
7.3106933,11.09292,8.45376,8.426661,10.277002
7.5260253,11.084131,9.158106,9.189844,11.038233
7.669336,11.5021,9.080469,9.63833,10.870264
11.985987,12.537256,11.990137,12.277735,12.328272
11.399073,10.756983,7.8895507,7.851709,9.471827
8.343409,10.906397,9.40127,9.727686,10.838526
10.35586,11.858057,10.8849125,10.689356,11.513819
8.925684,11.804834,9.415918,9.260645,11.282129
11.625635,12.68252,12.478907,11.921289,12.683985
8.417383,10.368799,8.581202,8.173487,8.808985
6.282373,9.60708,7.120752,6.92666,8.274317
6.727197,10.861475,7.2711425,6.808252,10.003321
8.747461,10.8189945,9.515772,9.563868,10.188623
7.1549315,10.442041,8.083887,8.795801,9.464258
11.330469,12.278467,11.073633,10.813379,12.083643
11.097559,12.245264,11.04043,10.722803,11.438623
7.714746,10.818506,7.405664,7.5040526,10.202784
7.358789,10.0292,6.685449,6.424463,8.390772
6.1842284,8.99209,6.4452147,6.4342284,8.203028
5.959619,8.856836,5.35708,6.33999,7.928369
6.5538573,10.187403,6.609033,6.956201,9.1314945
6.9237304,9.645411,7.3143554,7.319238,9.370996
7.7779784,10.010401,5.7989745,5.553613,9.711817
8.155176,10.75625,7.916406,7.3055663,10.2721195
7.4745116,9.914209,7.6407714,7.7086425,9.676661
8.042871,10.551416,9.339014,9.001368,10.359034
10.331202,11.669092,10.690088,10.45083,11.250391
8.800196,10.725977,8.659815,9.1800785,10.057276
8.428858,11.397852,9.000879,8.830225,11.10708
9.653955,11.3146,10.562891,10.190332,10.709375
9.332911,10.764307,9.391993,9.903955,10.23208
8.456934,11.534327,10.183252,10.038965,11.250391
10.483057,11.711084,12.705225,11.969629,12.667383
13.697657,12.418116,11.883448,13.205225,13.644434
14.620752,11.153955,11.548975,12.90127,11.709375
11.717188,10.945215,9.923731,10.237207,10.596094
7.8670897,9.6158695,8.511133,8.356104,9.5099125
5.976953,9.792871,7.2916503,7.297998,8.821192
6.3734374,8.770411,7.1483397,7.4308105,8.341211
5.1344237,8.774317,6.853662,7.0838866,7.6544433
7.108545,8.882959,8.735254,8.48501,8.6488285
5.7015624,8.309717,6.7279296,6.7015624,6.0191894
8.008692,8.447657,7.8790526,8.202295,8.392481
7.586572,8.743067,7.7884765,8.107569,8.968653
6.454492,9.182764,7.8839355,7.987695,8.311914
7.0023437,8.500879,8.004541,7.4566894,8.31167
6.8089843,9.842188,7.9208007,7.7940917,9.369532
9.905664,10.158838,10.901026,10.157862,9.97378
8.924219,10.483057,12.750391,12.387354,11.114161
10.437403,10.114161,12.944483,12.54043,9.797754
13.849756,10.163965,15.407618,15.399317,11.801661
14.037989,10.132227,14.099512,12.916407,13.097803
12.304346,11.736231,11.244776,12.354639,11.771875
9.532618,11.050684,10.122217,10.354883,10.328272
10.778467,11.345118,13.044336,12.6471195,12.594141
9.942286,11.277246,12.6271,12.076563,12.522608
10.965479,11.068506,12.8988285,12.220606,12.193506
9.786524,10.333643,10.876368,10.37295,11.609034
9.861963,12.513819,10.058741,10.313623,12.037989
10.951563,13.155176,12.153223,12.222559,14.924952
10.749903,12.844629,11.595118,12.036768,14.382959
9.023096,10.812403,10.2167,8.866358,12.148584
10.3224125,10.520166,12.143457,12.408106,12.26211
11.020655,10.299463,12.687891,12.418116,11.308985
10.155176,10.682276,9.650049,10.37295,11.120996
10.291895,10.52334,11.353907,11.049219,10.505762
10.45376,10.516748,11.623438,11.053858,11.404444
10.714746,11.757471,11.946924,11.7894535,11.638575
8.587305,10.504786,9.392725,9.162989,10.917627
8.11294,10.708643,10.0567875,10.127344,10.571192
9.504786,9.4925785,10.25918,10.317774,10.050928
8.5707035,9.053125,9.04336,9.17251,9.6644535
7.701074,9.593164,9.44668,9.004297,9.712793
8.569483,10.190332,10.461573,10.72378,10.382959
8.569239,10.945948,9.657373,10.003077,10.339991
10.645655,11.087793,12.028467,10.986231,10.910303
9.807764,10.78628,11.030909,11.092432,12.174707
11.036036,11.088282,12.444971,11.148584,12.127588
9.415674,11.108057,10.677637,10.252588,13.192286
10.208643,10.711084,11.299219,11.392237,12.165918
10.893457,11.805811,11.716944,12.2442875,11.579248
16.217432,13.735254,16.955225,16.63589,16.680079
16.949366,15.56753,17.768702,18.114649,17.563868
18.83755,17.335108,19.331446,19.943995,19.73086
20.590967,14.826075,18.32339,19.891504,17.24917
11.855127,12.322168,14.764307,15.952784,14.103418
12.421778,13.214502,12.772364,12.657618,14.1175785
12.1817875,12.950342,12.945459,12.378077,14.728907
13.780176,12.957666,15.622705,15.35293,14.560694
17.462305,14.793604,17.670313,18.165918,16.10464
16.898096,15.696436,17.041162,17.686426,16.701563
16.837793,14.4596195,18.296534,18.339014,17.918116
16.271387,13.291651,16.040918,16.20791,12.717676
15.6158695,14.198633,16.48916,16.99917,16.797266
16.374659,14.9752445,15.6957035,16.064112,16.65005
15.24209,14.055811,15.92959,15.919336,15.802393
13.698877,13.8146,14.748926,15.034571,16.083643
14.076075,12.606836,14.301172,14.439844,14.979883
14.423975,13.476221,14.148096,13.641748,15.837793
13.395166,14.271875,18.110987,17.784327,13.9125
15.1783695,14.188623,16.353907,17.10171,16.991358
17.1625,15.159082,17.81753,17.958887,17.121973
11.640039,14.524805,11.854395,12.252344,15.715723
12.038965,13.876123,12.855616,13.552881,13.243067
14.310694,15.25625,14.427637,15.218897,15.290674
13.729639,14.145899,13.919092,14.293848,14.443018
14.714502,15.19668,15.129053,14.657373,15.119776
14.231348,14.81753,14.748438,15.274561,14.405664
15.876123,14.681299,16.869287,16.268946,16.623194
15.950586,14.408838,17.685694,17.161036,16.831446
14.965723,14.536768,15.595118,16.105371,17.553614
13.883692,13.672266,13.474268,13.083399,15.523096
14.2442875,13.754297,14.046289,14.446436,14.874414
10.296045,13.240381,10.61709,9.826075,14.454004
13.139551,13.541895,14.238184,13.692286,14.617823
15.92251,14.610498,15.7269535,15.720606,17.160791
17.650537,14.877588,17.500391,17.32876,17.804834
15.652246,14.632227,17.777979,17.416407,16.509424
15.161036,14.406885,15.625391,15.896143,14.094873
18.36294,15.251612,19.122705,16.207422,17.562159
18.565332,15.736475,20.79214,19.258936,17.29458
20.841211,15.611475,20.91665,22.156153,17.005518
18.224024,15.240625,22.01797,22.543116,14.9144535
17.855616,16.254541,16.257471,16.54336,17.117334
16.942774,16.91836,19.470118,19.910303,19.193018
19.33291,18.08584,19.024073,19.870752,18.41665
21.08462,19.370508,21.824366,21.295801,22.241114
14.640039,20.053125,15.593164,16.294825,18.768702
19.308252,17.842188,21.273829,21.614405,19.437159
19.076563,16.841944,18.846094,19.509912,19.099756
19.13003,16.473291,17.806543,18.251123,18.68667
16.398096,16.630274,16.40542,17.753809,17.013575
21.065577,17.386133,19.43374,20.358301,19.193995
25.229395,17.25625,26.0729,25.937891,21.103662
27.160547,21.317774,28.451319,28.379786,26.19253
29.698145,21.567286,29.365137,29.137354,26.64712
26.730371,18.874903,24.827295,25.68081,20.887842
18.522608,17.344141,18.794336,18.528223,18.941553
16.359766,16.530909,17.764307,17.610498,16.610743
16.767725,15.685205,16.64126,16.396143,15.966455
17.701075,17.215723,18.528711,18.65127,17.151026
18.999414,16.654444,20.222803,20.188623,19.259424
16.696924,17.220118,16.400537,16.602686,17.032373
17.389795,17.035791,17.498926,17.49917,16.545801
20.922266,16.897608,18.779688,19.11294,18.49795
18.508448,17.22793,20.001123,18.913965,18.839014
19.102686,17.595362,17.729883,17.974756,16.633448
20.064356,18.154444,22.02627,21.921045,19.704004
22.1542,18.343164,18.738916,18.667383,20.09585
20.262842,18.512354,20.724024,19.980371,19.634424
24.389795,18.76626,20.710352,19.92129,21.779444
22.418604,18.628077,22.821924,21.796778,20.704737
24.177881,18.599512,22.420557,22.004786,20.265772
18.290186,18.287745,19.111475,18.985987,18.972559
21.181787,18.511866,19.843409,20.11831,19.21255
23.251856,19.269434,21.614405,22.188868,20.09463
19.134668,19.179102,19.859766,19.557032,19.89126
21.870752,18.482325,19.498194,19.684473,19.85464
20.009668,19.002344,19.256006,19.486475,20.363672
19.568506,18.761866,19.086573,18.799707,19.759912
25.818018,20.697657,23.569239,22.916895,23.257471
30.217432,22.314356,29.725245,29.894922,25.516993
20.134912,19.495264,19.946924,19.494776,19.518457
21.955957,18.73623,19.533106,18.989893,19.481104
21.943262,19.409327,20.933252,20.870264,22.077051
19.88003,19.5021,19.701807,19.502832,20.012842
17.548975,19.461573,19.245508,19.200098,19.150782
19.027002,18.38003,20.691797,20.637598,19.251368
22.32876,20.322412,21.781153,21.776758,21.37002
24.197412,20.067774,19.378077,19.75918,22.826319
24.162012,21.902246,21.646143,22.594385,24.030909
27.661524,21.384912,26.83047,26.901026,25.855127
28.170557,20.756739,25.089014,25.79165,23.526758
31.378077,22.315577,27.233301,27.9396,33.35
35.76992,26.77212,31.858545,32.362206,27.35171
26.768457,23.2167,26.251123,27.300196,23.666162
21.442041,20.693262,22.463037,22.76089,21.593897
25.025782,21.653467,25.381495,24.053125,24.108057
22.388819,21.10415,24.228662,23.3771,23.865381
22.562403,21.146143,23.960596,23.468653,21.007227
24.715967,20.704248,25.753077,25.568018,22.800928
22.196924,20.227198,22.948633,23.20962,20.096827
23.131983,21.085108,22.108545,21.549463,21.570704
26.323145,21.210352,24.72964,25.34707,25.139307
27.73086,21.227198,24.763086,23.896387,23.95498
27.736963,21.664942,23.414698,25.005518,23.887354
23.699121,21.315332,20.991114,21.103174,21.968897
21.044092,20.085108,20.272852,20.61123,20.46792
20.72207,19.660059,20.477686,20.514063,20.646387
20.403223,20.333643,20.169825,19.619043,20.357325
21.794336,19.484034,20.775537,20.263575,19.662745
21.711817,20.399073,20.977442,20.690332,22.023096
19.00503,19.5917,19.013819,19.28921,20.722559
24.11587,19.636377,18.241358,18.672022,19.172754
18.407373,18.470606,18.281885,17.862452,17.710108
16.730127,18.446436,19.536524,19.649317,18.86172
17.562647,18.034082,18.752832,18.74502,18.612696
20.56582,18.74331,19.891993,20.044092,20.113672
21.521143,19.133692,20.40249,20.873926,20.278223
23.060694,20.055323,19.812647,20.091455,22.601465
25.282618,22.193018,19.392237,20.865137,22.296534
21.883692,21.440088,21.754541,22.885157,21.667627
20.419336,21.124903,20.691065,21.09292,21.068995
22.250147,20.69961,21.276758,21.837305,22.468409
16.851465,19.048243,18.321192,17.750635,18.970118
18.318262,19.464746,19.611963,19.159327,19.06875
18.954248,20.149805,21.291162,20.964746,20.54873
19.85586,19.846338,22.140528,21.819727,22.240137
21.695948,20.617334,22.515772,22.068995,21.248194
24.591944,21.721338,25.766993,25.668848,23.87417
22.22378,22.570704,25.172022,26.068506,22.4313
21.768702,22.956446,23.308985,25.315577,22.156397
23.39712,23.910059,24.517725,27.639063,23.52212
25.721827,23.07461,24.219141,24.453028,23.9042
25.319239,23.205225,24.51748,24.624659,23.86123
25.832666,23.346094,25.187403,25.56875,24.617823
24.747705,23.637842,25.18545,25.481104,23.763819
23.278223,22.580957,22.819727,23.0292,22.810938
21.079248,22.152002,20.06167,20.611963,21.156641
20.60708,20.759912,21.139307,21.241114,22.42251
21.717676,20.787256,22.136377,22.460596,22.494043
22.6979,21.309229,22.420069,22.564844,23.195948
22.0917,21.66128,22.588037,23.008936,22.396143
23.136133,20.906641,23.06167,23.20376,22.244776
22.190332,21.063623,23.317041,23.076563,22.364649
21.130518,21.424707,19.606592,19.513086,21.052637
19.848047,21.547754,19.653955,20.088282,21.96377
20.754786,21.594141,20.992579,22.179346,22.21255
22.570704,21.829004,22.146387,22.24331,21.579248
25.378809,23.226465,23.600245,23.683496,24.061182
22.837305,23.260645,23.683985,23.608301,24.431055
22.811914,22.056055,22.663721,23.119532,23.012842
19.098291,21.255518,19.740137,18.893702,19.935938
17.65713,19.328272,18.133448,18.512842,19.340723
20.42129,20.569239,18.360254,19.217432,20.6896
16.34463,17.733545,16.687403,16.383448,17.79873
20.523829,21.420313,18.578028,18.038721,22.120996
20.044825,20.958887,19.566309,19.658838,20.319727
22.12417,21.72915,20.843897,20.715723,21.812891
18.834375,19.635157,18.167383,17.81875,19.586573
15.673975,17.378809,15.503077,15.046045,16.76626
13.789698,16.431787,13.497705,13.57583,15.788477
14.249414,16.467188,14.931543,14.461573,15.770166
14.870752,17.40542,15.345606,14.916651,17.298487
14.422998,18.047022,15.654444,16.057764,17.2167
13.978174,17.813868,14.292871,13.865137,16.83706
13.218409,15.306543,13.630762,13.266993,14.695948
13.778467,15.671045,13.139551,13.095118,14.995996
13.51626,15.941797,13.299952,13.071192,15.486719
13.193262,15.869776,12.012354,10.743555,14.979639
13.485743,15.812891,13.618555,13.730127,15.679102
12.611963,15.495508,13.483545,13.247461,15.01333
13.271387,15.82876,13.7877445,13.90542,15.526514
14.082666,16.947412,14.533106,14.85,15.734034
11.654444,16.092432,12.892725,12.403223,14.160791
9.660303,14.939112,9.829004,9.90542,12.667627
10.1175785,14.118799,10.209864,10.10586,12.823145
11.299463,13.921534,10.1625,10.210352,13.512354
11.236963,13.544336,10.953272,11.224512,12.710108
12.1314945,14.667627,12.002832,11.625635,13.555567
12.396875,16.289698,12.358057,11.973536,14.734522
10.414698,15.844385,12.451319,12.464258,14.198145
14.54336,16.720118,12.260157,11.59878,16.53457
11.288965,14.810938,10.916407,10.790918,13.5533695
10.234034,14.601221,10.692041,10.601709,12.3692875
10.333643,14.563379,9.806055,9.616358,13.721827
11.097803,16.110987,11.689844,11.186182,14.336817
14.867823,17.23379,15.360254,15.405176,16.734522
13.750147,16.767725,13.438379,13.434717,15.973291
11.459864,15.586084,11.562891,11.256739,14.287256
15.55459,16.47085,15.461817,15.383692,17.347559
15.9144535,16.37124,15.512354,15.6505375,16.62124
15.374659,16.227198,14.5550785,14.268457,16.248194
13.1332035,16.318262,13.880518,13.655664,15.699121
14.25918,16.215723,14.386621,14.203272,16.511377
14.802881,16.62417,15.726221,16.014551,16.258204
11.32876,14.92544,12.592188,12.324121,13.833887
10.153711,14.891748,11.2911625,11.121973,12.915186
7.019922,12.006739,8.270899,7.875879,9.970118
13.118311,16.199121,14.043848,13.475489,15.358789
11.099512,15.529932,10.768702,10.41128,13.838282
8.203516,12.54751,9.204248,9.022364,10.48086
8.366114,14.9317875,7.8436522,7.341455,13.057764
8.392725,13.62417,7.774072,7.0819335,11.079493
5.648828,11.735498,6.0282226,6.3543944,10.514551
4.5682616,11.130762,5.471826,5.505029,8.859034
7.43374,13.931543,7.221338,7.332666,11.613428
6.456445,11.068506,7.1842284,7.464502,9.734766
6.3026366,10.439112,4.572168,4.9120116,9.440821
6.1412597,13.198877,7.959619,7.4496093,11.195948
9.319239,13.998682,10.942286,10.6974125,12.318262
6.8375487,12.907618,8.018213,8.003809,9.886621
5.469873,12.46377,6.1861815,5.6737304,10.842432
8.994043,13.601221,10.151026,9.92544,11.998194
10.622461,14.566553,10.29458,10.190332,13.509668
7.6219726,11.926172,8.670313,8.592676,10.56753
7.27749,11.664698,7.612451,7.4061522,10.162012
3.80166,10.263819,3.869287,4.5262694,9.05752
