"[299, 255]","[227, 248]","[287, 319]","[279, 328]","[230, 262]"
7.8045897,12.57461,9.079004,8.882715,10.838282
7.829736,12.605616,8.392969,8.4667,11.093897
6.9762206,13.5880375,9.081202,9.662012,11.5021
7.963281,13.794336,11.253077,11.278223,12.758448
8.319971,14.470362,10.592676,9.532862,13.712305
10.923731,14.683252,11.902002,11.873682,13.960352
9.661768,13.941553,10.902979,10.828028,12.469141
9.5221195,13.938623,11.058741,10.50503,12.816309
6.957422,11.690821,7.9830565,7.6708007,9.50625
5.9051757,12.454248,7.34292,8.0724125,9.580713
10.590235,14.465723,12.245264,12.394678,13.73086
10.939844,14.334864,12.389307,12.773096,13.635157
11.098536,14.187403,11.37417,11.4667,13.270655
12.168116,14.589014,10.755518,9.88125,12.357569
4.8514647,11.1896,5.7572265,5.9083495,8.544825
6.388086,13.251856,7.669336,7.884912,11.293848
9.4439945,13.484766,9.757715,9.731104,11.663965
6.075586,10.761377,6.7401366,6.4654784,8.630518
7.0406737,12.377588,7.5506835,7.21792,10.13003
4.966455,10.209864,5.533838,5.5858397,7.5038085
4.9620605,11.298243,7.011377,7.4708495,9.061182
8.683985,12.92544,9.371729,8.890039,11.817286
5.660791,10.630518,6.7296386,6.4950194,8.637598
9.249414,13.019678,10.966944,11.143946,12.408838
13.396387,13.709864,13.721338,13.649805,14.729639
13.455225,14.116846,13.941065,13.637354,14.218653
7.209619,11.174463,7.0885253,7.0399413,9.264063
5.912256,11.440332,7.2413573,6.809961,9.508448
6.639795,11.284082,7.516748,6.787744,9.489649
4.4601073,10.56875,4.8597655,4.6305175,7.978662
10.62002,12.547022,11.118799,11.368067,12.427881
7.127588,10.770166,6.1480956,6.157861,8.28335
4.2437987,9.3380375,5.6061034,5.7293944,7.5213866
4.315088,8.831202,3.317041,3.5987792,6.9881835
3.1270995,8.908838,3.5353026,4.0211425,6.7452636
2.7525878,8.410059,2.0160155,2.5697265,7.2433105
2.1258788,7.9166503,2.30166,2.5626464,6.6566405
3.0697265,7.9029784,2.8707519,2.6507812,5.251611
3.1126952,7.1686034,3.485498,3.612451,4.912256
2.091455,7.4500976,3.2813964,3.1178222,5.9913573
0.8617188,5.480127,2.5086913,2.3106933,4.5301757
2.4928222,6.3219237,3.7142577,3.4847655,5.1222167
5.3819823,9.549219,5.657617,4.5382323,8.131006
5.370996,9.339991,6.0401855,5.8097167,7.970361
4.4171386,9.089746,6.03457,5.976709,7.7279296
3.3565917,9.1271,5.051904,5.098779,7.807031
6.1336913,11.003565,6.6219726,5.853906,9.713526
4.5680175,8.582911,6.0157714,6.037256,7.0699706
8.930567,12.29043,9.328272,9.190332,11.632959
5.5365233,9.627344,6.8492675,6.7606444,7.9825683
4.8998046,9.126368,3.8717284,3.3807616,7.6183105
5.270166,9.521875,7.4937987,6.742822,8.957422
3.4400878,10.059717,4.2384276,4.690332,8.43667
4.2437987,9.068262,5.330713,5.636377,7.926416
5.88125,10.208155,5.292871,4.734033,8.3146
6.5868163,10.826563,7.5628905,7.0875487,9.960352
6.7589355,10.585108,6.0992675,5.5643554,10.332422
7.6117187,10.764551,8.489893,8.669825,10.288965
5.6393065,9.764551,6.6395507,6.4120116,8.234766
6.9378905,10.538233,8.305567,8.237452,9.739893
8.983057,11.291407,9.66836,9.947657,10.912012
11.272364,12.429102,11.116358,10.746729,12.393457
12.908106,12.499659,12.685205,13.420313,12.586573
12.080713,12.439844,12.163965,11.919336,12.405909
9.060938,11.774805,9.891016,9.287012,11.481592
11.114893,12.552637,11.610987,11.5567875,12.2875
6.800195,10.309229,8.277735,7.8705077,9.33584
7.7379394,10.722559,9.183985,9.162989,10.679102
7.6446776,10.664698,9.521631,8.9786625,10.494776
6.848535,9.572657,9.844629,9.593897,9.552393
6.263086,9.296534,8.214991,8.432764,9.147608
5.3321776,9.266016,8.199121,8.074366,8.48086
6.4447265,10.445459,4.8651366,5.0836425,9.7269535
9.705469,11.470118,9.615381,9.207422,10.974512
9.65542,11.623682,10.302149,9.964258,11.363184
8.715235,11.683741,9.556543,9.224512,11.172022
6.8890624,10.203028,7.9972167,7.568506,9.165674
7.4081054,11.002588,8.418604,8.271143,10.2877445
5.370996,8.9630375,6.036035,5.886865,7.1424804
9.651514,11.915918,10.300928,10.040186,11.519922
7.148828,10.584864,8.125391,8.057764,9.514795
5.407617,8.794336,7.579248,7.559961,8.04751
6.6632323,10.748438,4.081445,4.2694335,9.843409
5.6546874,9.261133,6.668115,6.954492,8.333399
7.1444335,9.03042,7.5125976,7.527002,8.68252
7.0833983,9.625879,7.661035,7.3268065,9.13418
7.3165526,9.453516,8.346827,8.192774,9.427149
6.8924804,9.559717,8.241358,8.179102,8.966455
4.2933593,7.48916,5.832666,5.992334,6.0904784
10.231836,11.453272,11.203028,11.267725,11.754053
12.828028,11.865625,12.527491,12.580957,13.222803
11.798243,11.785547,12.310205,12.351221,12.52334
9.158838,10.994776,10.284082,10.231592,10.806055
11.2252445,10.894922,9.546045,9.588282,10.902002
15.71084,11.847071,13.032618,12.328028,11.885157
10.260401,9.789942,7.678613,7.3355956,8.626856
9.433008,10.912012,9.97085,10.747705,10.846582
12.287256,11.95669,11.490137,11.527002,12.686914
11.148584,11.425196,11.847315,11.234278,11.208643
8.190088,9.472803,8.504053,8.0377445,9.473047
7.301416,10.067286,10.361475,10.41958,11.126856
7.7154784,9.826075,9.172754,8.788477,9.423975
7.4693847,10.015039,7.9745116,8.445459,9.597803
8.401026,10.174707,9.421778,9.04458,10.337305
6.8670897,10.409327,7.9605956,7.612207,9.287256
8.256983,9.552881,9.346094,9.081446,9.713282
10.717676,12.00625,11.375391,11.288721,12.388086
9.774073,10.365625,9.937891,9.692774,11.342676
9.697168,10.954004,10.283106,10.124903,10.743311
6.7364745,9.827295,7.7262206,7.7660155,9.441797
9.513819,11.313868,10.264307,9.943262,11.172998
10.343164,11.719873,11.600489,11.370996,12.371241
10.966211,11.336817,11.616846,11.914942,11.376123
8.138086,10.418116,8.194727,8.202051,9.529444
11.333399,11.223047,10.917871,10.489405,12.7599125
10.918604,11.097559,10.23086,10.212305,10.775293
7.011865,10.303614,9.134668,9.111719,9.469629
7.372705,8.532373,8.998926,8.118799,8.917871
7.7152343,8.711817,8.484034,8.652979,8.627832
9.226709,10.198877,9.029932,8.801172,10.583643
8.684473,10.752832,9.767725,9.608301,10.154932
7.959619,9.643213,8.285303,9.376856,9.6314945
7.794336,10.337549,11.116358,11.028467,10.883936
8.231104,11.079248,8.599024,8.509424,11.2792
9.485987,11.289698,11.141748,10.574366,11.258936
9.020166,9.912256,10.055811,9.522364,11.027246
8.008936,9.91543,9.953272,10.2252445,10.308496
9.550196,10.100489,11.525293,11.199366,10.711817
10.901758,10.444971,11.206202,10.877588,10.393213
9.938379,10.276758,9.012598,8.73208,9.904444
11.106348,10.321436,11.007227,11.455957,12.039942
11.279932,10.531641,11.798975,11.757715,11.838526
8.900782,9.74209,9.201807,9.009668,9.9127445
10.348536,10.005274,11.657129,11.827051,10.602686
11.9144535,11.383936,13.282618,13.194483,13.963282
12.021387,11.673487,10.6627445,10.734766,12.2425785
9.9667,10.745264,11.522364,11.3224125,11.73086
9.667139,10.117334,10.620264,9.993555,10.2599125
13.167139,11.99917,13.851465,13.433496,13.32876
16.38296,13.178614,16.545069,17.288477,17.004297
16.418848,13.339014,17.376856,17.05752,13.049219
18.160791,12.721094,18.05752,17.841455,13.789209
13.17544,12.592432,15.270411,13.820215,14.708155
15.099756,12.494776,14.269678,14.450098,14.687647
13.286524,12.202539,16.528467,15.938379,15.515772
14.465235,13.558985,13.078028,13.017481,16.045557
18.984522,13.618555,19.912989,19.053858,19.415186
14.8502445,15.577539,16.412989,18.564112,16.99624
14.816553,14.968409,15.049952,16.66665,15.554102
15.672022,14.441797,16.282373,17.023584,14.991846
16.228174,14.20083,15.662989,15.41836,14.758936
15.452295,14.60293,14.220362,13.957666,15.175196
15.152735,15.113428,15.218653,16.34292,15.396143
15.1783695,14.6783695,15.815821,15.883936,14.5567875
16.525782,13.724268,18.07046,17.13125,15.714991
13.525293,13.676661,14.38003,14.55044,13.24795
15.136377,14.816065,14.81753,14.204248,15.13833
12.808985,13.821436,11.981104,11.906153,12.857813
12.962305,12.611475,13.189844,12.894678,13.017481
15.561426,14.331202,15.960596,16.054346,16.889063
17.24795,14.985498,17.66543,17.914942,16.898584
17.91128,15.245996,17.414698,17.754541,16.83584
15.98501,13.554102,15.524073,14.797266,12.728174
12.1817875,12.809961,12.869043,12.445948,13.660059
15.903711,13.472071,14.860987,15.326563,14.618555
14.6817875,13.998438,13.286036,12.966211,14.399561
14.768457,13.5411625,14.122461,14.969873,15.140039
14.024805,13.145411,13.976709,13.531153,13.898096
13.523096,13.97378,13.428858,13.732325,13.383448
12.747461,13.788721,14.441309,13.982569,14.129786
13.13003,14.595606,13.792139,13.619043,13.96792
12.773096,13.568018,15.010401,14.575342,14.856836
15.80044,13.332911,14.316797,14.520899,13.926661
13.334375,13.293604,14.126123,13.538721,14.753077
12.096827,12.370508,12.242823,12.607813,12.541407
12.383448,11.843409,12.663477,12.603907,12.534815
12.843409,13.491846,12.493311,12.0880375,13.766504
11.172022,12.530909,11.027491,10.954248,11.7252445
12.334375,13.514551,15.359522,16.36294,14.912256
16.214014,15.768457,18.155664,18.197657,16.927637
16.94375,14.890528,17.37295,17.747217,16.948877
18.000635,14.308985,17.211817,16.458887,15.943262
17.78042,15.834375,17.82754,17.557276,16.504297
19.832178,17.505762,21.43838,21.311426,18.075586
22.463526,19.398829,22.244043,22.289698,21.66714
16.612207,17.90957,16.84707,17.272852,17.728174
16.668604,15.205225,14.908594,15.151758,14.867334
18.519434,15.884424,18.346827,18.502344,17.883692
19.761866,16.555567,19.412989,18.184961,19.434961
18.766748,16.280909,19.08755,19.363428,18.054346
18.834864,15.74795,20.468164,18.959131,16.302393
17.738672,16.210352,18.781153,18.626612,18.193995
15.766016,16.49795,15.677393,14.336084,17.191309
16.18252,15.935694,16.419092,16.322657,16.014551
16.936914,15.498926,16.7792,17.114649,15.345118
17.29214,15.466944,16.349268,17.523829,16.23916
18.129053,17.137598,17.6271,17.724268,18.30752
18.64956,16.845118,19.164698,19.293116,19.794336
18.379053,17.699854,17.980127,17.781641,18.873438
18.480371,17.931543,19.007471,18.705225,17.62124
15.989649,16.648584,18.451563,18.063868,17.340967
18.099268,17.378565,19.955957,19.569239,18.222315
19.45962,17.710108,18.987696,19.4125,20.599268
19.62417,18.135157,18.501368,18.549707,18.767237
20.426905,18.439844,20.3854,19.378565,21.01504
20.043848,17.435694,20.213037,19.154444,18.756739
18.63711,17.402246,20.277246,20.246973,17.343897
16.285547,17.760157,17.918848,17.663721,18.209375
19.032862,17.601465,18.6896,18.539942,18.29165
17.481836,18.808008,17.664698,17.547022,17.653223
21.427637,19.339258,19.901758,20.15005,21.054346
19.413477,19.36587,19.810938,19.93667,19.496973
18.974756,18.976465,19.567286,19.22378,18.817041
18.672998,17.66665,19.091455,18.354883,17.488916
19.340723,18.06875,19.619287,19.605371,19.150782
18.624659,18.28921,17.521875,17.580713,17.963282
19.187159,18.256495,22.198145,22.015284,18.821924
21.913965,19.320215,22.103418,21.841211,22.024805
21.288965,20.945948,21.85586,20.808252,23.901758
18.073145,20.026514,18.688623,18.332666,20.763575
16.551416,18.915674,19.684961,18.6542,18.491602
18.85,18.472803,18.294092,18.974024,19.723536
20.528955,18.424952,20.357325,19.94961,18.576319
20.874903,19.423243,21.206202,20.686914,21.332666
22.99917,19.937159,22.61416,22.725,22.205225
23.076319,20.82876,21.909082,22.204004,21.886377
21.28042,20.896143,21.891748,20.95498,21.55166
23.029444,20.519678,22.114405,21.287989,20.278467
22.945704,21.4479,21.990625,21.425684,22.767725
24.722315,21.32339,25.169825,25.366846,23.579737
26.61123,22.603418,25.679102,26.14126,22.46377
29.825586,22.126856,28.585596,28.498194,26.83462
27.230371,22.219873,28.151026,25.77627,23.287745
22.957178,21.44961,22.075342,22.161036,20.747461
20.496973,21.008204,21.05752,20.840479,20.270899
23.96255,20.856592,23.363916,23.923243,22.685205
22.345118,20.155176,22.710108,22.261133,21.628565
25.11587,22.476954,24.277002,23.884424,23.020899
26.239893,22.537256,25.661036,24.876612,22.5104
27.89248,22.791895,28.476954,28.094873,24.887354
27.835108,23.112696,27.694239,26.993067,24.228418
29.16836,23.95254,28.669825,28.293848,24.359278
28.061426,25.77334,27.504541,28.12588,26.549952
31.00332,25.209131,30.21792,30.67129,25.579737
28.416895,27.971582,25.848047,28.919336,28.431055
34.886375,26.899073,31.909082,31.744287,30.058985
22.912989,23.598291,24.021631,23.622705,22.310205
26.216455,23.32998,25.398584,25.344141,25.529688
28.278467,23.696924,25.56753,25.467676,25.898096
21.269434,22.149317,23.058496,23.46792,22.106104
23.25332,20.213037,21.260157,21.581446,20.446924
22.949121,22.126368,22.545313,22.36831,22.110743
19.923487,21.978418,20.578028,20.56338,20.630762
25.29214,22.55874,21.769922,22.549463,23.999903
20.73794,22.526514,20.616602,20.670313,21.771387
19.889063,19.439356,20.008692,20.145655,19.413965
22.720118,21.075342,20.198877,19.676416,21.896143
26.858545,21.915186,24.115625,24.03213,23.134668
32.55117,23.677881,27.43252,28.215479,28.015772
31.032862,23.179102,27.401514,26.512354,23.585596
24.674463,21.356836,23.927393,23.819727,21.77505
25.699121,21.351221,23.505274,23.763819,22.96084
26.024805,21.95498,22.918116,23.041162,23.710108
19.973291,21.30459,20.506739,20.39004,21.77456
20.164698,20.956446,20.147364,19.718409,21.092432
19.627344,20.355371,17.38589,15.567286,18.616358
20.969873,19.964258,20.08291,19.77212,19.520166
18.438623,20.44546,21.120752,20.76089,19.876123
22.880518,21.11709,22.315332,22.037256,23.100977
20.028955,20.725,20.062891,19.060694,20.66421
20.989893,20.768457,20.957422,19.982325,20.849756
23.887842,21.061426,20.500147,20.604883,21.51211
18.430323,19.826807,19.176172,18.218653,19.16543
18.410791,18.739405,18.482569,18.354395,18.643702
17.566065,17.52505,16.875391,16.817041,17.542383
20.72964,21.067774,19.14712,19.048975,21.003565
22.028711,20.851221,21.111475,21.852198,22.082178
23.596338,20.1,21.60171,21.213037,22.029932
22.496485,20.474268,19.976465,20.925928,21.995264
18.294825,20.263819,19.11416,19.30459,19.582422
17.910059,19.576807,18.45547,17.893213,19.336084
17.67544,20.263575,17.9938,18.13418,21.145166
18.86709,20.609034,20.00088,19.520655,20.666895
18.479883,20.320704,18.513575,18.189844,19.589258
18.116602,18.61123,18.21499,17.776514,18.220118
17.785303,19.854395,15.920069,15.589746,18.001123
17.685938,18.947412,17.358301,17.341211,18.428125
16.792627,18.255518,16.643457,16.320948,17.004053
17.31167,18.903711,17.006983,16.795069,17.126612
17.91543,18.848536,17.119043,17.121729,18.201319
18.23086,18.60171,18.271387,18.079493,18.741846
19.33169,19.26919,18.98916,19.035547,20.29629
17.47207,18.74795,18.5292,17.946436,18.369532
21.271143,19.187403,19.399073,20.57046,20.071436
21.245752,19.34585,18.480616,19.46499,19.762354
17.79043,18.219873,17.456202,17.36709,17.67666
16.85,18.130274,16.401026,17.359522,18.273584
19.374903,18.836329,18.13003,18.367579,18.601954
17.614649,19.103662,18.289454,17.72378,18.63003
15.264795,17.695948,16.008692,15.727686,17.090967
17.420557,19.746485,15.965479,16.136866,19.568506
18.927637,19.941065,19.735987,20.910547,22.309717
23.59707,20.7875,20.973047,21.089258,21.833155
22.451075,19.498194,19.672022,20.599756,18.923487
21.799463,19.421778,18.754053,19.886866,19.559229
17.964014,18.784815,18.439844,17.82876,19.085352
14.2252445,18.287745,15.135889,15.250879,16.709864
12.816553,15.853174,12.73794,12.391993,13.379786
11.843164,13.767725,11.229883,11.150049,12.683741
11.394922,15.746485,12.225489,12.0375,13.781885
13.184961,16.950586,14.424952,14.344629,15.363184
14.933252,17.995508,15.393702,15.171289,16.897364
14.08169,17.1896,14.784082,14.8536625,15.772852
17.655176,18.539454,16.400293,16.420313,17.886866
15.136866,17.557764,14.567041,15.2755375,17.382471
12.527491,16.776514,12.62295,12.195215,15.046778
14.34878,16.834131,14.123926,13.809229,15.913233
16.286036,18.072168,15.117334,14.6192875,17.224024
17.930567,19.191065,17.873926,18.052637,18.530909
17.63125,18.448145,17.456934,14.9396,18.036036
20.041407,20.406397,20.605127,19.769678,22.723536
17.396143,18.575342,18.109278,17.075342,18.438623
13.149317,16.298487,14.309229,13.9667,15.310938
14.263819,16.790918,15.421045,15.696436,16.691797
14.500391,17.125635,15.482569,14.979639,16.245996
14.881739,17.622705,15.437403,15.221582,16.471827
11.337305,16.36831,12.237452,12.326319,14.433985
12.677637,16.755518,13.488428,11.0917,15.3988285
15.678614,17.89956,15.425928,14.522364,17.134424
13.716455,16.55874,14.283838,13.5724125,15.115381
11.770899,15.796045,12.082911,11.474512,13.284571
11.71792,16.983301,12.8207035,12.348536,15.998926
14.424952,17.458155,15.279932,14.735743,16.604883
10.739161,14.531885,11.478418,11.872217,12.883936
9.760645,13.415186,11.170069,10.632471,12.498438
11.032129,14.053858,10.897852,11.349024,13.310694
12.080225,15.423243,12.967676,12.663721,14.243067
12.60708,16.357325,13.352686,12.9161625,14.679102
14.93252,16.85171,14.988184,12.226709,15.922754
10.61294,13.989405,11.208643,11.077051,12.663965
10.192041,14.586084,10.898096,10.049219,12.434961
12.8417,15.901026,13.679834,13.201807,14.846338
8.557764,13.819727,9.802637,9.6625,11.745996
13.268702,16.02749,8.639551,8.615625,15.0255375
6.713281,12.112452,6.8861327,6.909082,11.031153
9.286524,14.86001,8.838282,9.066309,13.129053
10.675196,14.580469,10.496241,10.087793,12.699854
9.388819,13.224268,10.419092,10.019434,11.831446
6.6026855,12.183985,7.6024413,7.7086425,10.831934
6.0106444,11.80752,6.4203124,6.5140624,9.37002
7.1739745,12.449854,5.415918,5.7870116,10.308496
6.158838,12.3536625,5.518457,5.7257323,9.700342
5.881494,9.699366,6.740381,5.94375,8.667871
3.8543944,9.297754,2.9015136,3.1415038,7.9415526
3.830957,10.46792,2.7264647,3.0824218,7.990381
7.6354003,13.328028,9.86294,9.59878,11.184229
9.963526,14.327539,11.436914,11.42544,13.060205
7.1512694,12.229883,8.848291,8.730371,11.063379
13.260645,14.998926,13.589258,13.093164,14.9005375
12.626123,14.840967,10.767237,9.774317,14.502832
