"[299, 255]","[227, 248]","[287, 319]","[279, 328]","[230, 262]"
11.114649,12.805567,11.990625,12.205469,10.452295
8.257227,12.962549,8.992334,8.986963,11.389551
8.545557,12.825342,8.927149,9.665918,10.996241
9.950586,12.425196,10.982813,10.799952,11.845362
10.76211,14.061426,12.020655,11.836573,13.40835
11.1817875,14.530176,12.191797,11.545069,13.4457035
11.621973,13.775293,12.342188,11.723536,12.895655
8.813623,12.988184,10.435694,10.317774,11.564356
8.6661625,14.164209,10.271387,10.639795,12.722071
10.688135,14.652735,12.363428,12.017237,13.331202
7.503076,13.566553,8.544336,8.558252,11.876368
11.977198,15.0646,13.236719,13.095606,14.081446
8.311182,12.954737,9.8971195,9.892725,11.019922
9.727686,14.6002445,12.109766,12.94668,13.848047
12.765772,15.277491,13.301905,13.681299,14.555567
7.8214355,11.969629,8.050196,7.9518065,9.603174
8.376856,13.24795,9.861963,9.704737,11.283106
9.322901,13.722315,10.657862,10.344873,12.407373
8.903955,13.566553,9.232569,8.829981,11.846338
10.777491,13.995752,11.510645,11.5064945,12.435205
7.301904,12.188379,8.330713,8.245264,10.327295
6.6236815,11.860254,7.237451,7.6673827,9.8675785
7.9063964,13.210108,9.64126,9.701807,11.817041
10.959131,14.113184,12.278711,12.089991,13.3033695
11.286036,13.748682,10.606836,9.829004,11.239893
6.9308105,12.793116,7.641748,7.613916,9.198389
8.034571,12.160547,7.8963866,7.3531737,9.539209
10.430811,13.14834,10.8814945,10.337061,11.541651
6.721582,11.593164,6.9137206,7.0628905,9.232813
6.6842284,11.743799,8.123926,8.386866,9.894678
5.9825683,10.6271,8.121729,8.001368,9.157618
6.7594237,11.120508,7.4374022,7.449121,9.883936
5.666162,10.884424,6.4312987,6.1185546,8.769678
5.1583495,9.765039,6.2779784,5.978662,7.37417
5.13833,9.662989,6.6236815,6.3736815,8.363428
2.759912,10.676905,3.1861815,3.3548827,8.158838
8.172022,12.461817,8.94961,9.314356,11.442041
8.593897,11.727686,9.418604,9.403711,10.547754
7.0543456,11.463282,8.926661,8.653467,9.975
7.4166503,11.526758,8.371241,8.51333,10.083887
9.7875,12.434473,10.772608,11.559717,11.819971
10.384668,12.317041,10.77627,11.513086,12.038477
8.28628,12.142725,9.981104,9.955713,10.898096
8.403955,11.9317875,9.472559,9.371241,10.665186
5.9166503,10.354151,5.9171386,6.3236327,8.170069
9.737696,12.24795,9.129297,8.392237,11.643213
4.716699,9.658106,5.333154,4.9569335,7.15542
9.488184,12.26333,10.5292,10.524073,11.184473
11.790918,12.839014,12.284082,12.341211,13.589991
11.839991,12.559961,12.154932,12.654688,12.48794
11.133692,12.54458,12.71792,12.464991,12.714258
9.643457,12.01333,7.302881,6.822412,11.315821
9.417139,9.358789,4.352197,4.1686034,7.382959
3.0125976,9.761377,2.5543456,3.5143065,7.1305175
6.907617,11.544825,7.8458495,7.369043,9.73086
4.954492,9.927881,5.2437987,5.402246,9.113672
6.0770507,11.750391,8.237452,9.676905,10.792627
9.894922,12.272364,10.624903,10.784327,11.812891
9.524317,11.905176,10.185938,10.410303,11.808496
8.780909,11.727686,8.428125,8.055811,12.278467
9.301661,11.538721,8.499903,9.833155,11.308985
10.908838,11.63125,7.6336913,7.188623,10.505274
8.688135,14.200342,11.988428,12.182276,13.340723
5.931787,11.198389,7.046533,6.384912,10.028467
5.504785,11.28042,7.711572,7.475244,11.259424
5.197168,11.021143,7.6842284,8.707178,10.471338
8.952539,12.415186,9.113672,9.008936,11.538233
8.209375,12.873438,8.818262,9.007471,11.929346
9.16543,12.163477,9.815332,9.803614,11.840967
8.964991,12.314112,9.500635,8.989649,11.04458
5.98208,9.582422,7.0003905,6.5399413,7.705957
6.3531737,9.774317,6.521631,5.9952636,7.830957
6.7611327,10.943262,7.617578,7.286279,9.635401
12.325342,12.743555,11.792139,12.560205,12.582422
11.981836,12.576807,12.1627445,11.690332,12.064844
7.299951,10.606592,8.576807,8.6,9.843897
8.403223,10.983545,8.592432,9.034815,9.865137
8.205713,11.415186,9.312891,9.445948,10.579004
9.347559,11.678614,10.652246,10.012598,11.474512
10.451563,11.205713,11.942774,11.573389,11.469141
12.350733,10.144678,9.730127,12.162012,11.050928
8.450586,10.903955,10.568506,10.05752,9.748438
9.200098,11.042139,9.621973,9.226221,10.273584
8.64834,11.124903,11.114649,10.593653,11.1349125
8.896875,11.204004,9.516504,9.094873,9.879541
10.884424,11.5846195,11.295801,11.378321,11.083643
8.3675785,11.637598,11.501368,11.433985,13.012842
12.496729,12.155176,11.518946,11.248682,12.453516
7.8270507,11.456202,8.902979,8.688868,10.027735
8.940088,11.880274,9.7425785,9.593409,11.260401
9.388575,11.446924,12.74502,13.282373,12.1019535
9.400293,11.67544,11.218653,10.912256,11.484034
8.857325,11.629053,10.771143,9.921289,11.303858
7.325586,10.525049,8.033594,8.127588,8.719629
7.4952636,11.047022,8.946436,8.853907,10.046778
8.864161,11.60586,12.300684,13.045313,11.319727
7.9532714,11.2792,10.637354,9.711084,11.193506
9.379297,11.171289,12.651026,11.747217,11.533594
8.641748,10.795801,11.170557,10.7113285,9.727686
9.727442,10.583399,12.566797,11.002832,10.102686
10.528467,11.604639,9.420069,10.402246,11.315577
10.545801,11.309961,11.499659,10.98794,12.05752
8.8067875,10.880274,9.957178,9.316553,9.733789
9.924952,10.642481,10.252832,10.447168,10.91958
8.707666,11.121973,8.937647,8.356836,10.324366
7.2330565,9.775782,8.000391,8.0689945,8.500391
8.683008,10.988184,9.406153,9.622461,10.731104
8.162989,10.843409,9.840723,9.762598,10.399317
9.979883,10.205957,10.957911,10.892969,10.953272
11.635889,10.661768,12.231592,12.704737,12.143946
12.686426,11.089991,15.102198,14.566065,13.00918
11.799219,11.607325,11.308496,11.442286,12.534571
8.434961,10.115137,9.471338,9.385401,10.144922
7.171045,9.858057,8.995508,9.046778,9.864893
8.285303,8.801661,8.790674,8.31167,9.107813
6.87124,10.883448,7.1546874,7.8929687,9.860743
8.427149,10.892481,10.027491,9.766993,10.358789
8.0724125,9.547022,8.597315,7.8683105,9.033594
6.3807616,9.417627,8.532618,8.67251,9.232325
8.04043,10.656885,9.379786,8.983301,10.235987
11.363916,11.613184,12.300684,11.407373,13.100977
10.355616,11.606348,11.309229,10.816797,11.654688
16.027979,12.280176,13.851709,15.913965,13.047266
14.010889,11.49502,11.830469,12.232569,14.173243
9.236475,10.9667,10.46377,10.363184,11.584131
8.934229,10.287256,9.775049,9.596827,10.536524
7.2940917,8.5550785,7.719873,7.65957,8.366602
8.08877,11.050928,9.823145,9.638575,10.1800785
10.343897,11.170313,13.055323,12.754786,12.13418
14.726465,12.108301,15.824121,15.299952,14.781397
15.061426,13.097803,17.307032,16.97085,16.490381
16.285547,14.108789,16.68252,16.75796,15.746485
18.143213,15.67251,19.40005,18.761866,17.522608
14.167871,14.535303,14.262354,14.657129,16.27456
13.594629,13.207422,14.4925785,14.677637,14.920313
14.442286,12.877344,13.845362,14.359522,14.024317
10.161768,11.573633,10.283106,10.750391,10.991114
11.445459,11.889307,13.183985,13.031641,11.670557
12.001856,11.802149,10.787012,10.494043,11.44668
12.567286,12.577295,12.969629,12.756983,12.150049
12.558252,13.485498,14.130274,13.991114,13.21792
12.357325,13.817041,13.029444,12.813379,13.549463
13.422754,12.737696,13.268946,14.342188,11.847071
12.351465,13.586573,12.911524,13.361719,12.844873
12.732325,13.258448,13.899805,14.378809,13.407862
13.410547,13.167627,13.918116,13.83169,13.096582
14.07583,13.547754,15.290186,15.139795,13.095606
14.875635,14.107813,15.081446,16.427149,13.345362
14.435938,14.10586,16.582666,17.052637,16.653711
17.364893,13.481836,17.562891,16.74502,14.312891
16.5292,14.468897,16.578516,16.646875,14.65542
18.92129,18.570948,19.334131,19.97915,20.306055
19.0729,19.492334,17.486963,18.242334,20.238672
16.43667,17.27456,15.218897,15.9005375,17.445704
15.721827,15.008448,16.123926,16.121485,13.696924
14.364893,15.195459,14.61294,15.112207,17.547266
16.395166,14.055323,16.119043,15.965479,15.947168
18.352198,15.5550785,16.931055,17.466944,17.54336
22.161768,18.855371,22.916407,23.043116,23.143702
20.8854,18.134424,19.85415,20.4396,19.03921
22.543848,17.96963,22.040918,22.215235,18.7604
23.492823,18.235743,23.178858,23.089502,20.747461
29.728174,19.029444,27.448633,27.080957,25.028223
25.240137,18.945704,24.024073,24.287256,20.822412
17.129053,16.630274,17.96255,17.495752,16.615137
17.220606,17.312891,18.129297,17.680079,19.230616
16.49917,16.530176,16.505274,17.615625,17.487452
17.909815,16.509912,17.680323,17.586329,16.641993
16.731348,16.068506,19.748194,19.833399,15.742334
16.556543,15.548731,18.180323,17.115137,15.926172
21.640284,16.600733,19.754786,19.198877,18.616602
22.33291,19.751368,21.950586,21.944727,20.604883
26.56338,20.909815,26.11001,26.168604,26.816065
20.103907,18.460596,18.049463,17.817286,16.823877
14.976709,15.9769535,16.106836,15.585596,15.8224125
13.060205,14.293604,14.71084,14.633936,15.615625
13.471094,14.31753,14.468409,14.333399,14.818506
15.521875,15.841211,16.641748,16.640284,15.589991
17.570704,16.708887,19.178614,18.99209,18.616114
18.30874,18.860254,18.583155,18.248438,20.319483
22.21206,18.913965,18.67422,18.64297,21.44375
16.941553,17.080957,15.895899,15.3675785,16.748926
21.007471,17.545557,21.135157,21.25503,17.508448
21.028223,17.268457,19.732325,18.809961,20.771143
23.381006,17.67129,20.393213,15.606104,18.435205
15.826319,15.719629,17.273584,17.721827,16.252832
12.808741,14.685694,13.167871,11.457911,14.458155
14.749659,15.546778,16.106104,15.65127,16.51626
15.315821,16.386866,17.358057,17.444971,18.166407
18.74209,16.561914,20.47671,20.218409,18.679102
18.400293,16.667627,19.517725,19.268213,19.023584
17.418848,16.90005,18.591944,18.383692,18.538233
18.6896,18.123194,21.2875,20.85879,20.054834
19.684961,17.566797,19.740381,19.884424,19.055079
14.786036,17.285547,19.323145,19.721827,18.485498
18.601465,17.672754,17.715479,17.48208,18.086329
18.770166,17.495996,19.355616,19.610498,17.393213
20.950098,17.545801,21.454737,21.618067,20.398096
22.282618,17.751856,23.274805,23.406885,18.667627
17.544336,17.73379,21.146387,21.49087,18.45376
21.61416,18.115625,24.234278,23.207178,21.266993
21.782373,19.104883,23.633204,22.83047,21.921534
23.812159,19.935205,22.952295,23.126856,23.04043
21.165918,19.227686,23.586817,23.50088,18.850733
23.643457,20.327784,23.48794,22.023584,20.608057
26.319239,20.39834,24.201563,25.076075,25.137598
21.674952,19.708399,20.947657,20.68667,21.967676
23.022364,20.43252,22.993067,22.75918,22.90249
21.738428,20.819483,22.467676,22.213526,23.05752
27.737696,22.51626,26.644922,27.286036,26.521875
24.224024,23.139307,26.455713,26.184717,23.066553
29.8146,24.82168,30.823145,30.150537,31.06167
26.775782,23.875635,27.61416,26.064356,23.383448
21.119043,20.86709,21.414454,21.323145,22.62002
20.645899,20.508204,20.538477,19.437647,20.671778
20.701563,19.55044,21.8771,21.52456,20.348291
20.37295,19.822657,19.678125,19.146143,21.261621
24.411768,20.867823,23.38711,23.011866,22.855616
26.834864,21.831934,26.033106,25.821436,25.65127
20.697657,20.711084,23.018457,22.613916,22.315088
18.2438,19.067041,20.29165,19.261621,19.700342
18.794825,19.222559,20.92544,22.522608,20.296778
19.884668,20.265772,19.930567,20.427393,21.04043
23.535303,20.279444,25.087793,23.567041,22.30581
25.246485,21.151514,24.856592,23.976221,25.17251
28.94082,23.096827,28.45547,27.476465,26.93838
32.363426,25.086329,31.206934,30.922266,24.597803
33.69668,25.27212,33.829247,33.23403,25.876368
34.45376,29.529688,35.60781,36.229393,33.922264
35.12319,29.61001,32.514793,33.766014,35.79238
40.399315,27.576807,40.27236,40.449608,33.005272
40.04702,22.853174,43.077538,43.143456,26.834864
25.4396,22.943262,32.184715,32.262596,26.954004
30.72964,23.959864,29.576563,29.44082,24.866358
28.698877,23.384424,28.860987,28.048243,25.303125
30.008692,23.176905,29.603174,28.292871,26.74331
32.689842,23.974024,30.601954,31.173975,29.494776
32.665184,23.593409,29.516993,31.06167,27.645655
31.916162,24.26504,28.156153,28.506495,27.683008
25.728907,23.810938,26.542871,25.828028,23.828028
26.435205,25.90542,25.597803,26.038965,27.161524
28.069483,25.234034,26.938623,28.49331,25.588037
30.766504,26.886377,28.77456,31.506739,28.172998
32.195457,27.504053,30.789942,34.992577,27.658838
34.788475,30.146875,35.51406,36.654686,31.90835
34.1083,28.759668,35.848778,36.54995,32.047752
32.664207,27.253809,32.40029,34.154198,27.52627
34.697655,26.728907,35.283592,34.99209,27.352686
34.00576,25.11001,35.043114,33.88906,26.316309
33.37539,24.993555,33.526512,31.514063,25.405664
32.418602,25.234766,30.269922,28.43545,26.294092
34.758446,25.521875,32.779198,30.769678,25.651026
30.900537,22.323145,29.7875,29.143213,23.054102
28.691309,22.56045,29.078028,28.734522,22.932032
29.945948,23.941309,30.198145,29.675196,24.514307
31.238184,25.116846,31.116602,29.792627,25.905909
30.646875,25.319239,29.088526,28.261621,27.273584
26.5104,24.500147,28.40127,28.322657,26.022852
29.464502,23.995752,28.808985,27.583399,28.074854
28.069727,24.30337,28.724024,28.082666,23.42959
30.194239,23.923487,32.74209,32.21206,30.871973
27.542627,22.647852,29.64248,28.507715,23.80337
23.562647,22.121485,23.871973,22.840967,22.746973
28.031153,23.81582,25.897852,25.937647,26.118067
26.421778,23.496729,25.528467,24.367579,25.442286
28.154932,24.283106,23.073633,25.112696,25.735987
32.658836,23.89541,27.659815,28.221338,26.614893
20.961817,19.930567,20.164698,19.727442,20.145655
22.55874,20.929346,23.209864,23.048487,20.885157
26.869776,23.569727,27.985254,27.814112,24.102686
30.101954,23.42373,30.46255,29.28628,25.07876
26.845606,21.687647,26.33291,25.397608,25.617334
24.86001,22.723047,25.777246,25.110498,27.126612
24.231836,23.056055,25.900293,23.775537,25.364405
22.750635,21.693995,24.34463,23.719385,22.896631
25.280664,22.759912,24.930567,24.639307,25.364893
20.808985,22.167627,20.389307,20.129541,21.984522
20.112452,19.694483,20.397852,20.237452,19.670801
21.611963,20.93252,22.241602,21.98916,20.785059
20.869776,21.57461,21.98086,21.580225,22.444483
18.301905,19.985743,19.690088,19.996485,20.846582
20.456446,19.624414,20.878077,20.663233,19.60708
21.864893,21.407862,20.458887,20.455713,23.608057
23.906153,21.69253,24.500635,24.416407,24.825342
23.940088,21.684961,22.835352,22.444483,25.597315
22.959131,22.088282,22.865137,22.373682,24.709375
22.388819,21.945215,23.43667,22.777246,24.270166
24.257227,22.056787,24.38125,24.204737,25.387842
27.134424,23.466211,27.501123,27.140284,27.058008
26.481104,25.975489,27.712793,27.892725,31.343164
25.112696,24.651514,25.687647,25.846094,29.142237
25.867823,24.052881,26.758936,27.16543,26.18252
28.323633,26.029444,28.139063,28.625391,29.629053
31.598047,22.83877,31.166407,31.416407,25.913965
26.561182,22.214014,23.734034,24.959131,21.81045
24.127588,21.653955,23.520899,24.124903,22.184229
21.765528,21.069971,21.298975,21.55459,21.372217
21.791407,22.156153,21.940577,21.904932,21.558008
23.269678,22.805567,24.208155,24.275537,22.818262
21.232813,22.63003,21.85,23.222315,21.89956
23.17959,22.038721,22.37588,22.3688,22.782373
22.94839,22.673243,23.519434,23.826807,23.60586
22.060205,22.591455,22.410059,23.017237,22.760157
21.538965,22.352442,22.0104,22.090967,23.552149
23.278711,22.300928,22.905176,23.156397,23.419825
24.346582,23.386866,25.28335,25.755762,22.607325
24.064356,22.340479,23.737207,24.194239,21.638819
22.509424,22.812403,23.386377,23.596338,22.621485
22.58755,22.582178,21.97085,22.163721,23.207666
23.461084,24.08169,24.001856,24.256006,24.561914
23.11172,22.348047,23.543604,23.781641,23.474756
24.621485,22.232813,25.151514,24.91714,26.093409
22.680567,21.83047,22.493067,22.514307,21.409327
19.004786,20.448877,20.072657,19.881495,19.518946
19.559473,21.17837,18.952784,19.730616,20.975977
18.835108,21.01333,18.348291,17.462793,20.083399
14.635645,19.555567,14.992334,15.207178,17.257227
18.047754,20.74087,18.328028,18.146143,19.79043
17.898584,20.691553,18.64956,18.388575,19.880274
14.890284,18.878565,15.324366,14.6158695,17.385157
15.2599125,19.845606,16.471338,16.649073,18.549463
15.995752,19.698633,17.184717,16.811182,18.16836
14.448633,18.415918,15.080469,14.994043,16.805567
18.895655,19.906153,18.741114,19.66543,19.416407
18.445704,19.775782,18.671534,18.64419,19.167383
18.577295,19.91958,19.38125,19.54165,19.551416
18.285059,19.334864,17.855127,18.095118,19.377832
15.929102,18.440332,15.479151,15.203272,17.366114
15.083643,19.134424,15.604151,15.465967,18.414698
15.154688,19.451319,15.420801,15.540186,19.64004
15.947168,19.928614,17.23794,16.435205,19.964746
18.083643,19.235743,16.99917,17.827295,19.666162
17.932276,20.285791,17.90249,17.955713,19.875391
17.731104,18.864405,18.072657,17.86587,18.77334
21.55581,21.238184,20.078028,19.340967,21.785547
17.58755,20.047998,18.977442,18.357569,19.022852
16.174707,18.58999,16.413233,16.884668,17.92544
17.696192,18.971094,18.107569,18.46084,18.18667
13.92544,17.801416,15.053614,14.913477,16.442041
13.990625,17.662989,15.601465,15.597315,16.994287
14.327295,18.359034,15.43545,14.875879,17.349756
17.126368,18.812403,17.702784,18.422266,18.768213
17.234522,18.959131,17.490625,17.715967,18.485254
13.964258,17.844141,15.087061,15.262598,16.258204
14.786036,18.328028,15.301416,14.875391,17.274317
15.543848,18.357813,16.547754,16.48208,17.865625
15.452784,18.131983,15.135401,14.3417,16.531885
11.8658695,15.768213,12.163965,11.940088,14.573145
13.449121,16.754541,13.386133,13.258448,15.450342
9.295069,14.05752,9.375879,9.810938,12.702051
8.414209,14.418116,8.860743,9.1661625,12.579981
9.077539,15.80459,10.673975,9.892481,14.281397
9.099024,14.181299,10.0238285,10.001612,12.604151
9.889795,15.855127,11.8849125,11.481836,13.341211
14.454004,17.485743,13.951563,13.874903,16.643457
9.047998,14.205225,10.116114,10.145655,12.065088
13.728174,17.03457,9.239405,9.243067,15.494776
6.922998,12.608301,7.9447265,7.806787,10.289209
13.85,16.783838,14.911036,14.660547,15.773096
13.933008,16.778711,14.897852,14.586084,15.763819
