"[299, 255]","[227, 248]","[287, 319]","[279, 328]","[230, 262]"
11.170557,15.2286625,13.241602,13.606592,14.56875
13.8033695,15.396875,14.936426,15.422998,15.3224125
8.093164,12.59585,8.000391,7.5924315,10.856836
5.630029,11.243311,5.525781,5.613916,8.707911
3.6881347,9.1661625,4.250879,4.348291,7.803125
7.780664,12.651758,10.207422,10.431055,11.219385
10.406153,14.081202,11.163477,11.058008,12.838282
6.2831054,11.39126,7.029199,7.1163573,9.309473
4.7401366,10.571436,6.655908,6.0907226,8.295069
5.929834,11.995752,6.928613,6.7274413,10.308741
8.562403,13.138819,10.841455,10.901758,11.868311
12.799952,14.309961,14.282129,13.792139,14.3346195
11.937403,13.809473,13.017725,13.055811,13.694727
11.850977,13.7096195,12.895166,12.980127,13.424219
6.192285,11.327295,5.252832,5.421533,9.245996
11.71377,13.69961,12.471827,12.510645,13.503321
11.189356,13.623682,12.761133,12.312403,12.981348
10.12002,13.29336,11.282373,11.252344,12.877588
10.551905,13.820948,11.588526,11.924463,13.4161625
12.304102,13.508692,13.387842,13.102442,13.464258
10.882959,13.614893,11.724268,11.8207035,13.128565
10.617823,13.299952,11.656885,11.851465,12.933985
10.736719,13.792383,11.761621,12.106348,13.143213
9.886133,12.670069,8.826807,9.000147,9.998194
13.37002,14.211573,14.245508,14.014795,14.704737
13.680323,14.357813,14.124659,14.011133,14.073877
9.582666,12.895166,9.47085,9.301905,10.994043
11.139063,13.73794,11.722071,12.059473,13.238428
13.277491,14.012598,13.849512,13.831934,14.217188
8.245996,12.57168,7.959863,7.605371,9.3675785
4.848535,11.90835,5.684961,5.6273437,10.114161
6.569238,11.66836,6.605371,6.9427733,9.839991
2.8385253,9.052393,4.386621,3.9322753,6.0492187
3.2005858,9.37002,4.4046874,3.0616698,6.8392577
3.2403808,9.698145,4.1256347,3.3368163,7.1639647
4.2691894,10.279688,4.2848144,4.133203,8.020655
3.8819823,9.748682,4.190332,4.3963866,7.862451
3.008203,10.720606,3.6051269,4.3163085,8.109034
8.956934,12.311426,7.3390136,7.034326,10.85708
5.214746,9.81753,5.6249022,5.5155272,7.307031
3.5938964,8.907373,4.9432616,4.3524413,7.141748
3.522119,9.176416,2.3670897,2.721582,7.919336
7.7118163,11.542627,8.312159,8.040674,10.24795
5.6007323,9.982569,5.882959,6.0387206,8.201075
6.334131,12.06753,6.382959,6.3575683,11.008936
7.838281,11.714746,7.9537597,7.006494,10.395655
5.275537,10.038233,5.9989257,5.6510253,7.9796386
3.9483886,8.535547,4.6668944,4.8878417,6.67666
4.4603515,9.129297,5.55874,5.112207,7.7506347
4.513574,8.85708,5.5018554,5.5250487,7.475
2.4723144,8.048975,3.6341796,2.7289062,6.1600585
1.8958985,8.019922,2.0538573,2.4359374,6.407617
1.5846192,7.4200683,2.2015624,3.0199218,5.296045
2.3407226,7.86416,4.299951,3.9237304,6.032373
2.0008788,7.8336425,2.0980468,2.245996,5.6549315
2.5230956,10.074121,1.827295,1.2662598,8.66836
5.7437987,9.910791,5.410791,5.5572753,8.666407
2.9237304,8.9396,3.5020995,3.1612792,7.3316894
4.3197265,8.653223,5.548242,5.265039,7.100488
1.7513672,7.9967284,1.9476563,1.4022461,5.1720214
10.405909,11.420557,9.739161,8.880762,11.548975
11.596338,11.925196,11.339258,11.528711,11.999659
12.912256,12.509424,13.257471,12.697901,12.983057
12.381739,11.55459,11.552637,10.604395,11.424952
6.7538085,9.985498,8.356592,7.97207,8.738672
6.9764647,9.70083,8.064112,7.7311034,9.445215
5.367334,9.866114,6.345117,6.767236,8.277735
8.966211,11.201807,8.609766,7.9669433,10.171778
12.459864,12.433741,11.656397,11.988428,12.228418
9.889795,12.136133,9.66836,9.7582035,11.46792
8.166895,10.352198,8.664209,8.468409,9.729883
9.167139,12.461817,9.90835,9.416407,11.784327
9.034327,11.428858,9.680811,9.4667,10.377588
11.84585,12.585108,13.136377,12.424463,12.537989
11.849512,13.6471195,11.681299,11.781153,13.638086
14.03335,14.774805,15.817041,15.108301,16.86172
13.924219,14.6939945,15.422266,13.85,15.255762
7.2455077,9.795801,8.3814945,7.9845214,9.748926
6.205957,10.189844,7.3246093,7.791162,9.110987
7.183496,9.262842,7.897363,7.1444335,8.598536
5.088037,9.182032,6.0753417,5.971826,7.5138183
9.469385,11.746485,9.782373,8.125391,11.619532
7.2801757,9.987207,8.126123,7.5597167,9.577539
8.186182,11.988428,7.591455,7.2921386,11.439844
9.682276,12.230616,8.329248,8.193018,11.329981
11.045069,11.478174,9.063868,9.121729,11.596094
13.5021,12.150049,12.74209,13.171534,13.029688
12.208887,13.910303,10.972803,12.155176,12.735743
14.414209,14.340723,12.88833,12.557764,14.447168
9.618799,10.425196,9.633936,9.785547,10.293604
14.05459,12.959375,12.3033695,11.496729,11.665674
12.845362,12.939844,11.906641,11.258692,12.370996
8.271387,10.109522,8.758692,8.529932,9.4005375
7.0802245,9.307032,7.4461913,7.0680175,8.160059
7.525293,11.240625,8.549707,8.299219,10.190088
6.7655272,9.379786,7.8631835,7.858789,9.223047
6.3714843,9.082422,7.0592284,6.6205077,8.605127
5.110742,8.97793,4.9608397,4.702295,7.9137206
4.1041503,7.1671386,4.754541,4.5301757,6.6458983
4.9842772,7.8670897,5.65957,5.369287,7.2433105
7.2918944,9.987452,9.178614,9.043604,9.899073
9.009424,11.4005375,10.4908695,10.004786,11.893457
7.9225097,10.671289,8.964502,8.726709,10.957911
7.8202147,10.607569,10.835352,10.8849125,10.912256
9.341211,9.295069,13.045801,11.712793,9.1349125
11.954248,11.255274,14.158838,13.624414,10.343653
14.7425785,12.614649,15.995996,15.534082,17.012354
13.339502,12.690332,15.334131,15.241602,16.943018
17.03921,15.306055,19.137598,19.42837,20.257715
16.1979,14.069971,19.719141,19.285547,15.199121
12.138086,11.62002,12.426905,12.350733,13.384668
13.2096195,11.864161,13.407618,12.843409,12.997217
15.125635,14.301416,16.17251,15.95376,15.38418
12.4786625,11.8692875,12.940577,13.026514,12.464502
10.362207,10.169092,10.087305,10.305567,10.446436
11.724756,11.272608,11.964258,12.453272,12.641504
13.479639,11.072901,11.6192875,10.983789,11.9125
13.551905,12.09585,14.447901,14.544825,13.94961
14.305567,12.272852,14.689112,14.000391,12.16958
11.720118,11.581446,7.1842284,6.2191405,10.140039
8.354883,9.2442875,9.097559,9.018946,9.041895
9.358545,10.26626,10.157373,9.532862,10.152735
11.369532,10.667383,10.224268,10.246485,11.746485
12.136133,11.413233,10.205957,10.436914,12.892237
12.937891,11.45669,13.007471,13.1002445,13.632715
17.036768,15.805567,18.336817,18.390528,20.679834
12.225,11.810938,12.432276,12.840235,11.921045
9.185938,11.347315,9.647852,9.055811,10.6192875
11.223536,11.081446,10.606592,10.544825,11.708399
9.282618,10.575586,10.532862,10.565088,12.213526
9.1625,11.225489,9.696924,9.431299,10.537256
9.262598,9.915674,10.222071,10.025293,10.767481
8.178614,10.136866,10.029444,9.385645,10.308985
9.704493,10.078516,10.299952,10.157129,10.115625
11.883936,11.45669,12.6158695,12.709131,12.535791
12.871241,11.179102,12.993555,12.947168,12.841455
13.721827,12.210596,16.37417,15.90127,14.757471
16.480127,16.046778,17.11416,17.154688,17.439112
19.002344,16.64834,19.797022,19.84878,21.735987
21.518213,16.725489,22.13833,22.616114,22.80752
20.94546,15.3380375,20.401514,20.0021,15.785059
22.27041,16.798487,23.372217,23.922998,24.732569
22.90542,16.584864,23.388086,21.172754,20.629297
19.786768,16.297998,19.827051,18.683496,16.59707
12.930811,15.184961,12.318018,12.487696,14.374659
11.585108,11.794092,11.080225,10.50918,11.814112
11.081446,10.771631,11.426416,11.957422,10.137598
13.192286,12.877832,14.428125,14.5375,12.873682
12.659082,14.712061,14.972803,15.28042,14.61001
15.444483,14.397364,17.02505,18.015284,15.766016
16.786036,14.923243,17.881983,18.115625,17.509424
19.92666,14.10586,20.203272,20.581446,17.843653
22.448877,18.041895,21.953272,21.865137,23.620996
24.469385,15.982569,21.927881,20.574121,17.776514
14.652002,13.987696,15.561182,15.390528,14.968897
15.738428,13.538965,16.766016,17.131983,14.666407
15.28042,14.724512,16.341211,15.426416,16.688868
12.896631,14.007471,14.79043,14.803125,14.854639
16.384424,13.996729,17.445215,16.90249,15.075586
19.247705,16.412989,20.579493,20.130518,17.196436
21.300196,17.152246,22.34292,22.921534,21.321924
20.52334,17.914942,21.817774,22.369043,20.797266
19.066797,16.880518,18.667383,18.624414,18.404932
21.247705,15.785547,19.858301,20.342676,18.77456
14.053614,14.866602,15.0846195,14.769678,15.068018
15.56875,13.899805,15.683252,15.8346195,13.324366
15.209864,13.705469,16.069239,16.858057,16.125147
12.29751,15.298975,13.950586,14.33169,15.88833
13.63418,14.933252,12.832422,12.774805,15.5533695
14.646875,13.965479,14.2792,13.800684,14.57583
14.297022,13.6542,13.529688,14.070459,14.701075
12.006983,12.771143,13.190332,13.473536,13.51211
12.572901,12.97378,13.371241,13.11709,13.6974125
11.92544,12.686426,13.39834,12.538477,11.287256
12.465723,13.098536,14.735987,14.447168,14.733545
10.81875,13.921289,11.676661,10.888819,11.774073
14.089746,13.047266,15.101465,15.071436,13.348291
17.234034,16.587793,17.994532,18.301172,16.61123
14.772364,16.630518,16.623194,17.578516,17.137842
11.492334,14.601709,14.216455,15.36709,14.296534
12.370996,14.625879,14.646387,15.161036,14.173731
15.467432,14.962549,16.144434,16.126856,14.770655
14.81875,15.55459,14.914209,15.577051,15.543848
18.802393,17.492579,19.14541,21.050196,17.781397
22.729395,18.939844,22.37417,23.462305,21.362452
25.692774,18.977198,26.73086,27.332178,23.172998
26.041162,19.711573,25.126123,25.094385,21.556543
19.677637,16.187159,17.959375,17.525782,17.682764
19.239893,16.106592,19.20376,19.004297,18.59292
18.053858,16.04629,19.840967,19.57998,19.076563
15.240625,15.20376,17.134668,16.85171,16.020166
18.205957,15.718409,19.611475,19.707422,16.418116
19.171045,15.856348,19.669336,19.865625,17.536524
21.729883,19.933985,23.57461,23.466944,21.071436
22.18081,20.152002,24.625147,26.58462,22.374414
22.773829,22.020899,25.021143,28.44375,23.35586
25.309229,22.41543,25.5104,28.221582,23.913721
25.428125,22.085108,25.384912,28.228418,24.027735
25.197412,21.8854,25.902735,26.54629,24.22915
27.692286,24.336329,27.075098,29.782373,26.221827
25.576807,23.800928,25.92373,27.336084,25.459131
26.993555,23.2438,25.811182,27.591944,24.759668
28.49502,25.184717,29.983301,30.340723,27.618067
30.448877,24.430323,31.198145,31.494776,26.528711
29.626123,20.49624,30.865137,30.704493,22.727686
27.415918,20.241358,26.687403,26.768946,21.301172
20.137598,18.934473,20.733545,19.861475,20.538965
17.799952,18.301416,20.263575,20.205957,18.74502
16.72378,16.56045,17.314844,17.50918,17.30166
17.862452,16.564356,22.096338,22.041407,17.421778
18.863184,17.871485,19.946192,18.734278,20.131495
19.495508,18.5104,22.195215,22.511377,19.07461
21.472803,17.558008,22.746973,23.41421,19.356348
21.406885,16.952051,23.323633,23.239649,17.662745
15.623926,18.1625,19.555323,18.7438,17.783594
22.717432,17.997705,21.12588,20.052637,17.355127
17.958643,19.046534,19.242579,20.266748,19.714502
19.668848,17.922754,21.274805,21.50796,18.696436
21.603907,19.092188,22.911768,22.874414,22.208643
20.29336,18.961573,19.2521,20.055567,20.464014
21.46084,19.95254,18.17422,17.897608,21.240381
23.763086,19.57168,20.585596,19.629786,23.020899
24.539698,20.87832,24.46255,23.620264,20.954248
25.817041,21.945215,27.03457,26.407862,21.957666
27.475977,23.04458,28.487696,29.004786,23.587305
28.593164,24.597803,29.850489,30.373926,28.627832
28.622461,25.127832,30.983057,32.363182,27.316797
30.376123,23.013575,31.347315,31.460352,23.771387
29.645166,22.158838,30.913721,30.652735,25.48208
30.884668,22.70376,29.6542,30.974756,27.718409
28.622461,23.23916,24.073145,22.615625,28.079493
30.490381,23.0729,27.88833,28.27505,26.311426
25.251612,22.858057,25.839014,23.899317,24.101954
28.068262,23.47964,25.013086,25.036036,26.442286
30.259424,23.168116,29.292627,29.61172,26.92544
23.433985,22.412745,25.871973,24.980616,22.307276
25.23501,21.496729,26.896875,26.217676,23.17544
28.194239,22.656885,28.711329,28.267725,27.325098
30.127344,23.623194,29.277002,29.192774,27.34585
30.334131,23.725,29.42373,28.523829,28.266748
34.968407,27.053858,34.70205,32.35659,28.52456
34.908836,26.654444,30.75796,30.403467,27.034082
33.456932,28.113916,34.231102,34.063133,32.856346
35.701317,29.874414,34.007225,33.12832,34.395897
34.25332,29.47085,30.768946,32.571922,31.86831
34.31167,23.568262,29.234522,31.822168,26.878077
30.545801,22.596582,28.734278,29.751856,26.402735
29.406153,22.468897,29.558008,28.372461,24.1354
24.413721,22.802881,26.284082,25.540918,25.509424
29.001612,22.920801,27.780176,28.277002,26.34707
30.395166,22.785303,27.153223,26.875147,26.364649
26.075342,22.642725,27.201319,26.859034,22.527002
28.379297,24.123682,28.439112,27.001123,24.97085
29.516748,23.763086,28.285059,27.090479,24.830957
31.625147,23.248682,27.845606,28.617579,26.947657
23.24502,22.86587,24.162256,23.54629,23.82461
22.362696,22.193262,22.54751,22.04043,22.795313
23.801905,21.500147,23.397852,22.82876,22.580713
26.844873,23.128809,27.07168,27.15249,25.82461
29.803614,24.03921,29.62417,30.039454,28.120508
30.687647,25.23501,29.144922,28.29165,25.700342
29.131006,25.296045,29.70083,30.092676,29.531397
30.921534,25.623682,31.04214,31.101954,30.30874
27.813623,22.913721,26.887354,26.196924,24.034082
20.857325,22.920801,22.160059,21.33462,21.753565
20.458643,22.119532,21.999903,22.22207,22.590723
24.076807,22.207666,25.069483,26.968409,25.570948
22.953028,22.42373,21.311914,21.106836,22.03628
21.36831,21.127832,20.5375,20.188623,20.986963
23.117334,22.117334,23.26089,23.910059,23.594385
22.460352,22.177637,20.557032,21.14297,22.697168
19.400782,21.467188,19.60879,18.975245,21.140284
21.007227,20.975,20.81875,20.488916,20.961573
21.605616,20.946924,21.383936,20.208399,21.971338
24.040674,21.123438,23.370752,23.24331,23.465235
25.905176,21.66714,25.200586,24.536036,25.19961
27.440577,24.20669,26.461084,25.807032,24.685694
25.267725,23.417627,25.903223,26.162745,24.34292
25.41836,23.470118,24.43252,24.903467,24.72964
29.933008,23.103907,27.408594,27.764795,25.72793
29.603418,22.829737,26.852442,26.633936,23.451075
21.04214,20.653223,20.771143,20.58047,20.799707
20.644434,20.421045,20.34707,20.7167,19.757471
20.764307,20.428858,20.88589,20.432032,20.706934
22.856592,21.412012,21.995264,21.728418,20.053125
20.107569,21.401758,22.13296,21.79629,22.874903
17.350733,20.759912,18.640284,17.899805,19.741358
16.79043,21.311182,17.714258,17.279444,20.28921
17.490625,20.427881,17.548487,17.827051,19.10586
16.749903,20.685205,18.0646,17.69082,19.150782
17.760645,20.366358,18.02041,17.86172,19.801905
19.728662,20.373194,20.968653,21.572168,20.046045
17.47793,20.014063,18.366114,18.183008,18.815088
17.733301,19.788233,17.832422,16.947168,19.141993
20.393702,20.936426,20.265528,20.244287,20.577295
18.545313,19.818262,17.406641,17.951807,19.476465
15.440821,18.067774,15.826319,15.694239,17.585108
13.932764,17.629541,15.511621,15.467432,16.805567
14.642237,18.60171,16.076807,15.972803,17.25796
16.683008,19.454493,17.816797,17.598536,19.583643
17.612452,19.782373,17.75796,17.91421,19.365137
17.535303,19.464258,19.471827,18.204493,19.548975
19.83877,19.457422,20.01626,19.936914,20.602686
19.764063,19.716944,19.313623,19.502832,20.76748
21.809229,19.443995,22.363184,21.849756,20.840723
24.238672,20.89712,24.58755,24.798975,22.687403
20.563868,20.125391,21.366846,21.36001,19.618067
17.991846,19.095118,16.994287,16.710352,18.546778
14.105371,17.932032,14.895655,14.749659,16.916407
16.222315,18.009424,17.215967,16.504053,17.363184
16.266504,18.469385,16.51211,16.260157,18.303614
11.500391,14.966211,11.766504,11.653711,13.604151
10.55752,15.374903,11.389307,11.145411,14.237696
12.709131,16.736475,14.158106,14.085352,15.619532
15.734034,17.632715,17.097803,17.066065,17.744532
15.957666,17.813135,16.34585,15.938868,17.802881
16.135157,18.83291,17.46377,17.02334,19.236475
15.417871,18.912012,16.681543,16.51797,19.14834
16.215723,18.540674,16.98501,16.996485,18.11416
16.728418,19.228907,17.997461,17.895899,18.80459
16.163721,19.38833,17.326563,17.27456,18.050928
14.88711,18.740137,16.26626,16.66958,17.360254
17.92837,19.19082,17.860743,17.92422,20.32339
17.908838,18.116358,19.470606,19.228174,19.160303
15.519434,18.914698,16.623438,16.976221,19.002344
16.01211,18.617823,17.435938,16.940577,18.000147
17.604395,18.884668,19.016748,18.534082,18.964258
16.468897,18.453028,17.292383,16.83462,18.462793
13.739161,17.065088,14.640772,14.6332035,15.467432
13.78042,17.283838,14.065577,14.253565,16.290186
12.993311,15.135401,12.052881,11.271875,13.7521
11.10293,14.271387,10.699121,10.616846,13.116358
8.821192,13.159815,9.102686,8.346094,11.438379
7.7713866,14.954004,8.207911,7.586572,12.435938
13.625391,16.731836,13.567286,13.178125,16.05874
13.115381,14.752344,11.41543,11.082911,13.058008
7.846338,13.606836,9.515772,9.171534,11.566065
7.880029,14.673731,8.595118,9.376368,12.69668
12.53335,16.05044,14.021387,13.697168,14.620996
13.91958,16.781641,14.8363285,14.599024,16.180323
13.250147,16.316553,13.582422,13.344385,15.281885
11.083155,15.9300785,12.998926,12.8189945,15.501856
12.113428,15.739893,13.542627,14.058252,15.195215
11.855371,15.345362,13.337061,12.571192,14.081446
11.257227,15.666651,12.885889,12.586084,14.566553
11.609278,13.843164,11.601465,11.202051,11.722803
10.043116,15.561426,9.211817,8.9769535,13.132715
10.115137,14.228907,10.491114,9.9752445,11.966455
10.389795,13.966455,10.692286,10.601465,12.04336
8.16958,11.895655,8.510401,8.085596,10.420801
8.097559,14.442041,7.3998046,6.8739257,10.218897
9.226709,13.614893,9.642237,9.264795,11.00503
6.99917,12.241114,8.4667,7.962793,9.694727
6.494531,12.330469,7.872949,8.045313,9.917383
7.384668,14.250147,6.832666,6.352197,11.309473
6.915918,12.059717,8.303614,7.909082,10.579004
5.103418,12.50918,5.067285,5.8355956,10.123682
6.2955565,12.478418,6.3021483,6.2418456,10.125147
5.779199,10.706446,7.0191894,6.9583983,9.321436
6.539697,10.977198,7.5643554,6.9952636,9.68252
