"[299, 255]","[227, 248]","[287, 319]","[279, 328]","[230, 262]"
7.255029,12.8502445,8.16836,7.872461,10.824121
11.072657,14.928614,11.866846,11.486719,13.193506
14.111475,15.858789,14.688135,14.567774,15.325586
14.463282,15.805567,14.758448,14.571192,15.379297
13.4925785,13.9125,10.362452,9.177149,12.195215
8.761133,14.117823,10.907862,11.076807,12.113916
9.829493,14.307764,11.656885,11.744043,13.435205
12.301416,14.736475,13.049219,13.095362,14.156397
12.776026,15.032618,13.560938,13.299952,13.984034
8.667627,12.525049,8.188623,7.9276366,9.813135
6.7921386,11.6002445,8.449854,8.470118,9.772364
7.679834,14.316553,6.897119,6.0558105,13.022608
11.308008,14.530909,11.715235,11.346827,13.467188
6.242822,11.099268,6.9120116,6.501367,9.153955
2.7950683,9.046534,1.7345215,2.053369,6.3824706
0.3121582,8.372705,2.0155272,1.8336426,5.308496
1.2000977,7.160791,2.1490722,1.5011231,5.341455
1.1541992,8.016993,0.63930666,1.1202637,5.5733886
1.2616211,8.624659,2.8133788,2.4847655,5.2228026
0.4256836,8.354883,-0.0652832,0.7645508,5.549951
-0.13461915,7.219873,-1.9124511,-0.31479493,5.100488
1.339502,8.871973,0.42495117,0.44643554,5.8836913
1.9261719,9.407618,3.5562987,3.4078612,6.3631835
1.6507813,9.047998,0.6310059,0.8480469,5.5821776
2.0575194,7.3248534,2.775537,2.3524413,5.652002
2.2308593,10.273584,2.7933593,2.9044433,8.811182
7.3648925,11.416407,6.1585937,5.7379394,10.686426
8.781641,12.20083,6.8507323,6.9825683,11.936182
7.369043,12.229883,6.3592772,6.42666,9.844385
3.8233886,9.701563,3.4713378,4.5423827,6.3280272
3.1065917,8.286036,4.403955,4.5279784,5.8460937
3.657617,8.938379,3.7550292,3.6285644,8.1800785
4.008203,8.809961,2.5509276,2.7416015,7.5907226
10.364649,12.943262,10.873194,10.476709,12.667871
9.320948,11.994776,9.6036625,9.231592,10.951319
4.8231444,8.83877,5.1305175,4.487207,7.093164
2.2171874,8.139795,0.5157715,1.2176758,5.926904
3.812158,10.286524,4.4515624,4.298242,7.7760253
6.474756,10.277979,5.950586,5.9774413,8.424952
5.565576,11.118311,6.431787,6.782373,9.986719
7.4205565,11.475489,7.730127,7.595117,10.167871
4.6756835,9.244776,5.1620116,5.0736327,7.6722655
2.2635741,9.067774,2.5252929,2.6563964,7.034326
1.6078125,11.8814945,2.324121,2.1378417,11.45376
4.102197,9.057032,4.4415526,4.905664,7.7142577
5.346338,10.068018,5.914697,5.865625,8.407129
7.5020995,11.318018,8.991358,8.939112,10.8849125
7.6986327,11.238916,9.99502,9.63418,10.49502
7.258203,11.211817,9.337793,9.600489,10.9439945
6.8390136,10.714991,7.508447,7.9183593,9.708155
8.539209,11.573145,9.483301,9.903223,11.059961
9.059229,11.554346,10.420313,10.152002,11.124659
10.042871,11.377588,10.856348,10.854883,11.26211
8.393946,11.434229,9.064356,9.083887,10.370264
5.2455077,9.1661625,4.353906,4.2708983,8.510401
7.2696776,11.376856,4.8651366,5.004785,10.855127
8.367334,11.324366,8.677637,8.204737,11.249659
7.563867,10.948877,9.355371,9.32583,10.425684
11.541651,12.548243,11.719385,11.538233,12.686182
11.250147,12.986719,13.142725,12.170801,12.7894535
9.383936,12.086817,10.599756,10.405909,11.702784
10.855616,12.217676,8.125879,8.673243,12.295313
6.273584,9.462061,7.3670897,6.9483886,8.225977
7.0663085,10.163233,7.628076,7.799951,9.527002
6.2350097,8.162012,4.8124022,4.6134276,6.6446776
5.844629,10.624414,6.380029,6.225244,9.286524
9.991602,12.024561,11.12002,11.195948,11.491358
8.184473,11.181543,9.27627,8.995508,10.630762
7.893701,11.002832,8.226709,7.9781737,9.763819
5.3089843,9.471582,5.5267577,5.513574,7.7557616
5.0609374,10.6002445,6.0682616,5.6131835,9.448877
10.974024,11.921534,11.910303,12.004053,12.397852
11.6817875,12.530176,12.581934,12.900049,12.353418
12.560205,12.834131,11.8417,12.269922,12.332422
11.504541,12.178125,11.193262,11.137598,12.579493
11.912256,12.185205,12.143213,11.832422,12.588282
10.98086,12.621241,12.378809,12.68667,12.586573
8.766504,11.434717,9.547022,9.649805,10.765039
8.427881,11.89126,9.523096,9.189844,10.861963
10.699366,13.009668,6.596582,5.9342284,12.627344
7.0375,9.737452,5.680078,4.9117675,8.33877
4.3819823,8.6661625,5.8663573,5.7853026,7.039697
3.5645995,8.4396,4.1847167,4.676172,5.7540526
4.65957,11.673487,5.5331054,5.3995605,10.368067
6.7418456,11.3971195,6.6063476,6.758203,9.844629
4.8785644,9.168848,5.360254,5.692285,6.9999022
4.579492,8.083643,4.814111,4.280664,6.1046386
3.1056151,6.3302245,3.298242,3.5101562,5.560449
3.83291,8.066309,4.5284667,4.405664,7.022363
4.8822265,8.936182,5.1336913,4.2904296,7.6202636
5.2125487,6.966455,5.671289,5.8836913,6.310449
6.0489745,7.9017577,6.6063476,6.235986,7.907617
5.666406,7.554834,6.155664,5.751367,6.709863
2.341455,6.7955565,2.7726073,2.8768554,6.0833983
4.6805663,6.4759765,4.1009765,3.2237792,5.377588
5.561914,7.1078124,4.935205,4.3351073,6.529199
2.8321776,6.883203,2.1385741,2.128076,6.18667
4.7262206,8.052393,5.148828,5.4671874,7.209131
7.145654,9.688868,9.688623,9.059717,10.106592
7.7933593,9.964258,8.4317875,8.005274,9.625391
6.3368163,8.964258,6.969629,6.566797,9.185938
4.9125,8.621729,7.353662,7.443994,8.355616
7.8231444,8.907862,7.6336913,7.2159667,9.5724125
8.452539,10.165918,9.048243,8.933252,10.702539
7.48208,9.500391,9.0550785,9.069971,9.035791
9.526514,9.610987,9.991114,9.736719,10.44253
11.050684,9.986231,11.233057,11.459131,11.246973
9.849512,11.267725,11.156397,12.225977,11.026026
11.147608,9.847559,12.407129,12.395166,12.094141
6.851709,9.769678,9.845118,9.5082035,9.297022
5.9500976,8.62417,6.9359374,7.0140624,8.584131
8.952295,9.327051,8.97378,8.21084,8.878565
8.719629,9.905664,10.231592,10.236963,10.640284
9.89419,10.012842,11.594629,11.323145,11.040918
9.8207035,11.295069,13.364893,13.755274,11.168116
11.035791,10.067774,12.377832,12.861475,11.337061
10.296045,10.261866,12.062403,12.2875,11.277491
12.007471,10.793848,12.897608,13.338282,12.11294
7.3265624,10.949366,7.8145995,7.5645995,9.839258
6.36416,7.565088,6.570703,6.13125,7.032861
5.1649413,8.037256,6.1805663,6.150781,7.8856444
6.579004,7.7123046,7.7137694,7.872949,7.317285
2.0870605,5.8338866,4.9237304,5.675195,5.087793
7.9725585,8.7521,7.30874,6.1603026,8.007227
9.518213,9.4942875,9.076807,7.9981933,10.789698
10.014551,9.844141,9.33877,10.599512,11.233301
10.209864,9.475977,11.277735,11.341455,10.869776
6.360498,9.083155,8.3033695,8.739893,8.243067
8.65835,9.896143,9.572901,9.644434,10.243555
8.779932,9.68667,8.872705,7.9220214,9.730371
14.3146,13.431299,14.656397,13.937647,16.210596
17.223536,13.234522,17.109522,15.697901,15.14834
13.673731,11.774317,12.477198,12.652979,12.300196
14.616114,11.7425785,15.294825,15.277979,13.329981
14.720362,12.095606,15.327784,15.006983,15.027979
14.539942,11.328272,15.170801,14.928125,15.200342
13.960108,12.307764,13.6019535,13.661036,13.467188
13.66128,11.889063,14.350489,14.317041,13.420557
12.453516,11.569727,12.052393,12.453272,11.998926
10.986963,10.944727,10.421534,11.160547,10.890284
10.375879,10.211573,10.620508,10.4769535,11.1542
12.190821,11.719873,13.131006,14.06875,11.004053
13.530176,11.61709,14.366602,14.216211,11.932032
9.935938,11.9457035,12.604883,11.596094,12.7877445
10.659815,12.392969,11.796289,11.540918,13.408594
11.062647,11.838282,12.670557,12.518213,13.558985
11.231104,12.538965,10.910303,11.736719,14.396143
17.806543,12.601221,16.174707,16.393457,15.241114
19.96792,11.667871,14.953272,16.644678,14.462549
15.977198,12.557764,16.391016,15.613672,14.183252
13.260157,13.293604,13.743311,13.534327,13.004541
12.13833,12.010401,14.266504,14.093164,11.855127
13.47378,12.182764,15.364893,15.173731,12.787012
15.7738285,14.457666,16.14126,16.425684,14.3380375
10.618555,12.9317875,11.944239,11.636133,12.400049
10.912989,12.351221,9.524561,9.643946,13.126368
11.45669,12.5917,12.882227,11.703272,13.619532
12.056055,11.773096,12.298975,12.461817,11.954248
12.595362,13.292139,11.558252,12.555567,14.067286
12.21377,12.954004,15.059473,14.312403,13.925684
11.220362,13.207422,12.6627445,12.785791,13.946924
11.28335,12.496485,12.109766,12.123682,13.140528
10.133692,12.726709,10.538965,10.788233,12.542383
11.485743,12.629053,12.015284,11.425684,12.763819
11.876368,12.6192875,12.896387,12.627588,13.038965
11.76626,13.622461,10.69375,10.719141,12.693262
16.325098,14.765772,20.003809,19.569483,14.844385
17.956446,17.91836,20.106592,20.728662,20.064112
20.070948,18.490625,20.753565,20.878565,22.46499
19.867823,16.324854,18.646143,18.986475,17.61001
20.118067,16.902246,19.58877,19.404688,17.85171
20.421534,19.744287,21.193506,21.89419,21.991114
15.077784,18.616114,18.195704,19.271631,19.31167
22.068018,19.494043,17.475,22.39956,21.83169
14.027735,17.25625,13.408838,13.781153,15.784571
15.165918,15.8146,14.762354,15.971827,16.17373
19.156153,15.783594,19.697168,19.776758,16.946924
20.686426,17.661524,20.599024,20.441797,18.800684
23.369043,19.693995,23.945948,24.319483,23.960108
26.714014,19.140528,27.242579,27.550684,24.406397
15.958155,16.73794,18.680079,19.402979,17.7792
16.933008,16.372217,18.676172,18.352198,17.176416
15.697168,16.42129,17.816065,16.619776,16.357569
15.378565,16.44961,14.822168,14.652491,15.428614
13.368555,16.14712,14.727198,14.546045,15.228418
18.158838,17.811914,19.858301,18.678614,18.836817
17.373438,17.706446,18.212305,18.053614,16.884912
21.234278,18.097559,20.061426,18.998926,20.506983
16.732569,16.612452,17.684473,16.865381,16.80459
18.972803,17.61123,19.091211,19.325342,17.27041
20.401514,18.737696,20.621729,20.58047,20.48379
20.806055,18.130762,17.898584,18.528711,18.596094
20.280176,17.712305,18.21206,16.983301,17.403711
17.479395,18.60415,21.296045,21.356592,18.405664
22.746973,20.915674,23.715723,23.907862,24.376368
23.935205,22.689112,25.49209,26.261133,25.366114
29.192774,23.477442,28.857325,29.752588,26.707422
24.513086,19.050684,20.974024,21.965967,21.187647
23.737696,18.612696,19.325098,18.491602,19.497461
18.709864,17.636866,18.0646,18.362452,17.947168
19.35879,18.212305,20.44546,20.371973,18.180567
20.460108,18.614649,21.12002,22.159327,20.426172
22.599024,19.500635,19.881739,19.918116,20.802881
17.945704,18.859034,18.76211,18.740137,20.062403
15.8832035,19.035791,16.748926,15.93545,19.7875
17.244776,17.748194,21.012842,20.846094,17.89248
20.390528,17.79214,20.671778,20.710352,18.180567
18.886866,18.36416,23.518457,23.24624,18.66543
20.297266,18.083643,22.949854,22.810205,19.048487
22.795313,18.303125,25.390528,25.601221,18.18545
25.998682,20.57168,27.410303,27.154688,22.417871
26.080225,21.609522,26.845606,27.16543,24.244532
28.709375,21.418116,29.253077,30.227198,28.343897
28.591455,24.009912,27.495508,26.908838,26.010645
26.346827,21.958887,25.952051,26.286036,22.26504
24.288721,19.147364,24.751612,24.711817,20.335596
20.14248,19.497705,18.995264,19.832178,20.292627
21.626368,18.512354,22.961817,23.072412,20.521143
24.261133,21.872461,24.510157,25.467188,22.084131
26.98379,21.355127,27.362207,28.515772,25.879541
27.487696,21.436182,27.376123,29.02041,25.913721
28.638819,21.529688,27.425196,27.741846,24.442286
29.75332,22.871729,28.084864,28.160791,27.162256
26.000635,22.824366,25.871485,25.167871,24.320948
22.958887,19.611963,22.083643,22.21377,20.165918
21.512598,20.268946,23.46963,23.971582,20.728418
22.16543,19.784327,23.33999,22.699854,21.0104
24.803858,22.00625,26.48672,26.174463,22.458399
27.425928,23.114649,27.248926,26.666895,24.044336
30.176905,24.407862,29.688623,29.439356,25.13589
32.56875,24.849024,33.51528,31.467188,25.948145
28.926172,23.977198,30.612696,29.478662,25.832178
26.929102,25.014795,25.599024,26.008448,26.64419
24.3063,22.554834,24.364649,24.705957,22.579248
24.957422,21.832666,25.922754,25.665918,23.828028
25.019922,22.078516,25.545801,24.956202,26.201075
27.727198,22.332666,27.13125,26.086817,25.828516
29.83169,22.529444,27.401026,28.48623,26.266504
24.5292,22.51333,25.555079,24.502832,24.434229
22.37002,22.089014,22.456934,22.234522,22.5021
27.285059,22.47964,24.307032,24.573877,24.86172
30.324366,24.461329,29.480371,28.20083,25.363184
28.38296,24.043604,23.60464,24.438135,23.333887
23.174952,23.50918,22.308008,22.474512,23.701563
25.796534,22.790674,25.518213,25.342432,22.48623
27.003565,23.336084,27.170801,26.906885,24.639551
27.18374,22.001612,26.868555,25.906641,24.368067
24.298243,22.089014,24.614405,24.09463,23.691553
28.809473,22.039698,25.787989,25.429346,24.816553
27.031885,21.971338,25.211817,24.52456,21.511377
26.70083,22.246485,24.1,23.821924,22.48794
25.428125,22.759424,25.440332,25.577295,24.410059
28.768702,22.235254,27.079737,27.760645,26.014063
29.445215,22.675928,25.646875,27.603907,25.019922
25.172266,21.925684,24.32998,23.818262,22.098536
26.668604,21.98916,25.316797,24.904444,21.643702
26.39712,22.030909,26.04458,25.568995,25.355616
25.41665,22.182276,26.063868,24.69253,24.694239
26.379786,22.567286,24.459131,25.047754,24.282862
25.843897,23.03921,25.652979,26.089258,26.696192
27.347803,22.579004,24.094141,23.893213,25.83462
28.453516,23.097559,25.003809,25.936426,25.29336
24.825342,21.953028,22.820948,22.537012,24.330957
22.172998,20.936426,22.39956,21.872461,22.246729
23.53921,21.11416,22.880518,23.634668,22.928858
27.073877,22.078028,25.065332,25.752832,26.133448
26.039942,21.68667,22.212793,22.988184,22.95254
27.409327,21.503809,25.537989,25.14419,24.620264
24.533106,21.35879,22.19668,21.646631,23.504541
20.625635,20.181055,21.36123,20.860498,20.609766
22.64956,21.579248,23.831934,23.033594,24.063623
24.826807,21.35586,24.636866,23.818506,24.387354
24.09463,21.386866,23.501123,23.2167,24.023584
25.191065,21.551416,24.686426,24.033106,24.761377
25.559229,22.369776,24.99624,24.093653,23.701807
26.169336,24.03628,27.214746,27.069239,27.626856
25.92837,22.86416,25.906641,25.796778,24.364893
32.69741,24.001368,27.118067,28.502588,24.120508
26.955713,25.662012,27.65713,28.50088,26.572657
27.986475,24.748438,25.454493,25.935205,26.046778
25.288965,24.110254,23.052881,23.76504,24.337305
25.834131,23.513086,24.139795,25.453028,23.045557
27.712793,25.04336,26.336817,27.668604,24.24624
28.289698,23.646387,26.40713,27.383204,23.70376
22.772852,22.93838,21.033106,20.941065,22.576319
20.694483,20.884424,21.198145,21.057032,20.118555
20.615381,20.443995,20.88833,20.236963,19.94839
24.108057,21.415918,24.285791,24.495264,22.96084
26.871729,21.330225,27.594873,27.860254,22.768702
22.85293,20.516504,23.265284,22.652979,22.687403
23.739649,21.517237,22.971338,22.69082,22.38589
20.027979,20.553614,21.229395,20.783594,20.620508
19.754297,20.464746,20.473536,19.920313,20.790918
19.948633,20.787989,18.404688,18.646387,21.053125
21.427637,20.928614,19.538721,19.667871,21.019678
22.075342,20.899317,21.170557,21.905664,21.893702
24.351221,21.763086,21.54165,21.787256,22.94546
20.183985,21.013086,15.958155,15.74917,16.147608
22.364893,21.175196,14.45083,14.174219,16.834864
14.72378,18.523584,14.312159,14.596338,16.61001
18.88125,20.637598,15.598536,15.331446,19.674463
16.004297,18.16421,15.652246,15.4667,17.159815
15.64419,18.927637,16.74502,16.49624,17.316309
16.133936,19.376368,15.876123,15.883936,17.877344
17.016748,18.978418,17.352198,16.963037,17.877832
16.981348,19.518946,18.32339,17.903711,18.276026
19.030176,19.507471,19.241602,18.643702,19.187159
19.106348,19.369287,19.705225,20.325342,19.495508
22.86416,21.450586,19.742334,20.906641,20.554102
20.305567,20.859034,20.035547,19.401758,20.249659
20.066797,20.351465,19.433008,18.971582,20.544336
17.130274,20.375391,18.154688,17.687159,19.545313
15.788965,18.902735,16.004541,15.307276,17.224756
18.349268,19.549952,17.569483,17.725733,19.31875
18.919825,20.980127,20.42373,19.511621,20.556543
18.614649,21.032618,18.413721,18.65542,19.277246
22.290186,22.124903,21.837793,21.624659,22.524317
20.28213,20.459375,19.509424,19.118555,20.262842
18.61172,19.876368,18.021875,17.641748,18.415186
17.129541,19.310205,17.6896,17.805323,19.19839
14.916407,18.001123,15.500635,15.358057,16.833887
16.691797,19.221827,17.605616,17.379297,18.242579
15.105127,18.753077,15.721582,15.81753,16.854395
17.978907,20.080225,18.228174,17.922266,19.1813
12.344141,16.472315,13.010645,12.720362,14.580225
13.866602,17.16543,14.461573,13.4769535,15.551416
16.767725,18.99087,17.709375,17.436914,18.576075
17.440577,19.360498,18.22964,18.19668,19.265528
17.143946,19.298487,17.617579,17.046778,18.277979
14.47378,17.290674,15.016504,15.452539,16.23672
12.974512,16.700098,13.245752,13.152979,14.816797
13.301416,16.819483,14.412012,14.093409,16.140284
13.956446,17.036768,15.089014,14.765284,16.01089
10.744043,16.211817,11.921534,11.942286,13.63711
10.995752,15.99917,11.336817,11.836573,14.452539
12.653711,16.45547,14.6800785,14.847803,15.240625
13.268702,16.507227,13.78042,13.515528,15.307032
12.028467,15.945948,14.165674,14.113184,14.246241
12.119776,15.420313,13.414209,13.13125,13.371485
12.8189945,16.013575,14.0099125,14.501368,15.7755375
11.136621,16.200342,14.110254,14.113916,14.663477
10.548487,15.91836,12.495264,12.139551,13.568262
9.954004,13.922266,9.559717,9.359278,11.880518
10.395411,14.9942875,11.294092,10.657129,13.202539
6.570703,13.147364,8.59585,8.509424,11.049952
6.954248,13.286036,7.8631835,8.037012,12.373438
9.151514,16.258936,12.170557,13.050928,15.337793
10.801172,16.251368,11.257959,10.844873,15.186426
10.293848,15.254786,13.171534,13.568506,14.291407
12.159571,15.864893,13.274317,13.096338,14.6036625
8.850489,13.818018,8.913477,9.390039,11.4283695
10.358545,15.31753,10.888086,10.396875,13.34878
8.311182,13.040186,9.34292,9.364161,11.06167
6.162256,11.590723,6.5230956,6.495996,9.310694
4.754785,12.727686,4.258447,5.190088,10.063868
9.086817,14.847071,8.468164,8.22793,12.887842
6.4796386,11.778467,6.115869,6.919336,9.920557
5.55166,11.425196,6.4151855,6.3424315,8.875147
4.8680663,10.88003,5.818506,5.192041,8.460352
5.5052733,10.62002,6.3229003,5.938623,9.339014
