"[299, 255]","[227, 248]","[287, 319]","[279, 328]","[230, 262]"
8.419336,13.750635,9.00625,9.000635,10.43252
8.267481,13.372217,8.871973,8.444239,10.8519535
12.614405,15.904444,8.008936,7.708154,11.661036
6.958154,12.774073,7.5331054,7.292871,11.310938
5.412988,12.192774,4.0375,5.2350097,10.970606
7.158838,12.699366,7.3075194,7.381738,10.644434
6.8927245,13.308985,7.544824,7.921533,11.284327
9.29336,15.20083,11.626368,11.808741,14.595606
14.026758,15.5292,14.052149,14.633448,15.409815
12.379053,15.244043,13.683008,13.857569,14.761866
10.532618,14.603907,11.835596,11.242823,14.016016
8.787012,11.870264,7.8670897,7.361963,10.883692
6.5191894,11.6542,4.9166503,4.787744,10.054834
6.362695,11.868799,5.5995116,4.646875,8.911524
6.3058105,11.8146,7.7274413,7.2574706,9.86709
7.742822,13.028223,9.335108,9.078272,10.836573
8.046045,11.745264,5.5492187,6.997705,9.701807
8.252832,10.923243,7.782129,7.6026855,9.533838
6.7955565,9.816065,7.569238,6.377832,7.9518065
4.3089843,7.7188964,5.799463,5.603418,6.349756
2.558496,7.8631835,4.2730956,3.9173827,5.7071776
3.4251952,7.966455,3.9181151,3.7242675,6.638086
0.8270508,9.4161625,4.1720214,3.6043944,7.8370605
-0.4732422,8.184717,0.7320801,0.55214846,6.568506
2.3800292,10.385401,1.0477539,0.75405276,6.9552245
6.900293,12.5411625,8.188135,8.241846,10.465967
6.8145995,11.015284,7.482324,7.289209,8.403223
5.7970214,12.848536,8.439844,8.334131,10.923975
8.406397,12.981348,9.653955,9.366114,11.723291
5.5091796,12.060694,5.9937987,5.954492,9.700586
6.41958,11.546534,6.9964843,6.2574706,9.136866
3.9154296,9.583399,6.105371,5.9085937,7.6551757
3.9447265,8.971338,4.1839843,4.0541015,6.6808105
3.7660155,9.27627,5.6463866,4.7831054,8.013086
5.8478026,11.190332,6.2499022,5.5680175,8.089258
7.235742,11.049952,7.836572,7.865381,8.293848
6.450586,10.848536,7.4276366,6.92666,8.58584
6.069238,11.2738285,6.714746,5.9642577,8.67544
6.431787,10.721582,7.680078,7.6822753,9.1036625
6.3041015,11.23086,7.5543456,7.4010253,9.625147
4.7003417,9.3207035,6.521631,6.2850585,7.4359374
3.8775878,9.011866,5.3336425,5.1598144,6.4530272
3.3416991,10.043604,5.06582,5.435205,8.769678
4.667871,10.279444,5.2904296,5.4063964,8.564112
6.5157714,11.040674,6.9156737,6.7796874,9.261377
6.173486,10.781641,6.907617,6.819238,9.339991
3.5599608,8.59878,4.386377,3.5631347,6.19375
4.5248046,10.219141,4.4813476,4.5694823,8.353907
4.1561522,10.786036,5.5716796,4.9618163,9.664698
10.703272,12.359034,11.343409,10.160547,12.247217
9.3067875,11.197657,9.223536,8.260401,9.246973
6.390283,10.128077,7.542627,7.2953124,8.664209
6.616113,10.657129,7.9935546,7.8392577,8.993555
9.886866,12.310205,10.923975,10.587549,11.833887
6.7835937,10.81045,8.000391,7.932031,9.730616
7.5455565,10.672754,9.226465,8.910059,9.563868
9.233545,12.018702,10.766504,10.827051,11.492334
11.748194,12.532129,11.441797,11.215235,12.504297
10.767725,11.590967,8.208643,7.883447,10.105616
9.461573,12.518213,5.3419433,5.5228515,11.591211
5.0228515,9.5221195,5.2328124,4.7557616,7.480615
7.1395507,11.896387,6.037256,5.1666503,10.927881
8.034815,11.0846195,8.28042,8.081446,10.734522
7.660791,10.076319,6.834619,8.304346,9.21792
7.290918,10.166895,7.424951,6.98208,9.006983
10.278223,12.968897,10.6349125,9.606348,12.135645
9.042139,11.565332,9.279688,9.402002,11.340235
8.59292,11.753565,10.363916,9.781397,11.415918
8.116114,11.345118,8.204004,8.509668,10.135645
6.3392577,10.186182,7.9103026,7.9344726,8.882227
9.185694,14.228907,5.7970214,5.782617,12.001368
10.3814945,12.248682,9.695948,9.37417,11.552393
7.9937987,11.057276,8.3771,8.272608,11.22085
8.813135,12.121485,8.972803,8.910547,12.6817875
10.482813,12.957422,10.776758,10.842432,13.66128
11.824366,12.556055,11.894922,12.1271,13.120752
10.784815,12.165186,12.354151,11.979151,12.283106
10.495264,12.090967,11.262842,11.087549,12.007471
8.673487,10.332178,7.71499,7.4725585,9.379786
6.72207,11.868799,7.8233886,7.7916503,10.945459
8.447168,11.410303,8.829737,8.914942,10.010401
8.103418,11.653223,9.035791,8.894678,11.133936
9.026514,11.631739,9.834864,8.934229,10.800684
10.40835,12.238916,10.944727,10.82168,11.878565
8.460596,11.748682,9.593409,8.80459,11.225733
8.929834,11.361231,10.345118,9.934229,11.42959
9.204737,11.621241,9.852442,9.710352,11.112207
9.869043,11.693018,10.840967,10.436182,11.161768
6.6026855,10.004786,7.2120605,7.132959,8.611231
6.391504,8.726465,6.7330565,6.803369,8.7269535
3.5743651,8.268946,7.01333,7.0631347,7.919824
2.2577147,7.752588,4.7730956,5.3651366,7.03042
4.88125,7.9190917,6.345361,6.0423827,7.6029296
3.1439452,6.5887694,5.1771483,5.568506,5.730127
6.497705,8.854151,5.846826,6.1688476,7.894922
5.402246,7.932031,6.1031737,5.8373046,7.12417
5.8026366,8.346827,6.911279,6.876123,7.800195
4.8441405,8.262598,5.9706054,4.9693847,5.4364257
6.30166,8.07461,6.3304687,6.441797,7.3336425
6.7679687,7.595117,7.5006347,6.95791,7.0453124
6.8402343,10.204493,9.433741,9.582422,9.947657
9.377344,11.632959,12.272608,12.136621,12.948877
9.805323,11.120752,11.1896,11.499659,11.61709
11.418116,12.321924,13.066553,13.1036625,12.954248
9.846338,11.024805,10.926172,10.074366,11.0238285
11.623438,11.88418,11.389795,11.338282,11.821924
10.21792,12.448877,12.475489,12.286036,13.412989
10.843653,13.054102,12.094629,11.536036,13.131006
13.741602,15.551905,12.246729,13.49209,15.81045
13.2599125,12.713526,13.081446,12.722071,14.373682
12.145899,13.312159,13.336573,13.01919,13.382471
12.488184,12.967188,12.723291,12.481104,14.5567875
11.192286,12.436914,10.0377445,9.618311,11.495996
12.103418,11.94668,14.061182,13.512354,14.213526
13.16958,12.417383,14.297998,13.603174,14.664942
9.663477,11.4752445,9.196436,9.343164,10.618067
12.005518,11.708643,11.217676,10.870264,14.516016
11.683496,11.313135,12.127344,12.172998,13.224756
8.693506,10.826075,10.606348,10.667139,11.547998
10.792383,10.840235,11.609278,11.078028,12.339991
8.9942875,10.538721,9.714991,9.898096,10.182764
9.791651,10.754297,10.78042,10.418848,9.987207
9.819239,11.958887,10.807032,11.034327,10.917383
9.82583,11.109522,11.350489,11.239161,10.583643
8.917383,11.854151,9.397608,9.370264,10.138575
8.641016,11.426905,9.479395,9.929102,10.979639
8.930811,11.569239,10.106836,10.159815,11.1
9.548975,10.516748,10.299952,10.484522,10.939844
11.393946,12.28042,11.730616,12.218409,13.376368
8.941553,12.148584,8.731592,9.0255375,10.231104
9.825098,12.611963,9.595362,9.855127,11.947657
5.9237304,10.049219,9.056055,9.652246,9.235498
5.3563476,9.046289,9.557276,9.2167,8.294825
8.33584,9.426416,9.3050785,9.079737,9.221338
8.673731,9.880762,10.257959,9.804346,9.924707
6.541162,9.79751,10.1488285,10.593164,8.48208
11.195459,13.843409,7.490869,8.13711,15.448633
16.13125,12.986475,18.920801,17.749414,14.854639
11.422266,11.841944,12.262598,11.801905,12.953028
13.959864,13.296045,14.679102,13.676905,14.176661
12.8519535,12.496485,13.146143,13.188623,14.593164
13.037989,12.195215,14.994532,14.714991,15.096338
15.348291,14.115625,15.669092,15.432276,14.284327
14.46792,13.47793,13.754297,13.345606,15.929834
17.79214,14.874414,15.059473,15.382959,16.443995
17.797266,15.049707,16.223291,16.229395,15.371973
18.879297,15.536524,18.869776,16.406153,16.591455
13.559961,13.051416,14.186426,13.273584,15.795069
13.566797,13.2894535,13.468164,12.902979,14.213526
14.676172,16.623194,18.390772,18.333887,17.93081
13.904688,12.992334,15.744532,14.561426,14.772364
12.813623,12.493555,12.65542,12.522852,13.93667
16.899805,13.319239,14.258936,15.368799,14.104639
15.438379,13.501123,17.131739,16.077051,15.986231
18.693262,15.333399,17.72964,16.95791,16.568018
20.113916,16.603418,20.73208,20.225733,17.911524
23.365381,17.982325,23.714502,23.738428,23.028467
23.207178,17.423243,26.12002,26.005518,18.96255
15.458155,12.870264,15.312891,13.52334,12.169092
12.504297,12.488672,14.4396,13.57168,13.113672
12.5082035,12.232569,13.9769535,13.81875,12.492334
12.419825,12.617334,13.177393,12.667627,13.563868
11.547266,13.626612,13.467676,13.709131,13.31875
11.406397,13.057032,11.581934,10.601221,12.243799
12.063868,12.8849125,13.989405,13.76626,13.764551
13.320459,12.748194,14.91543,14.420313,13.713282
17.056543,13.738428,15.284082,15.659327,15.100977
15.994776,13.797022,12.787256,12.885645,13.29751
13.349268,13.483301,15.14834,14.672998,15.082666
14.764795,12.937159,15.184961,14.445459,14.0375
13.589014,13.481104,15.179102,15.274073,15.218897
12.644678,13.324854,14.314112,13.964014,14.971827
15.836817,14.443506,16.329493,15.746485,15.120508
18.252588,16.49624,18.818018,18.61709,17.237452
18.615381,18.11123,20.083887,20.798975,19.07046
17.839258,18.634424,18.413477,20.166895,19.09878
18.407373,17.625635,20.157373,21.161036,18.060205
24.920801,17.849512,23.905664,24.00503,19.71255
24.36709,18.845118,23.998926,23.839258,20.481592
22.250391,18.859522,24.278223,23.76748,20.053614
17.339014,16.629297,16.426172,16.57461,17.146143
16.940088,15.439112,18.389307,18.29873,16.10879
14.511377,14.26626,15.580225,16.434717,14.725977
15.996729,16.005274,14.971094,16.249414,17.23794
14.48208,15.301172,15.377344,14.788477,15.337061
16.038477,14.664698,16.370264,15.606836,15.309473
16.667871,15.03042,16.427149,16.791895,15.894922
18.684961,16.01919,18.388819,18.222803,18.466211
14.972803,16.237207,16.47085,16.781885,18.420801
15.6939945,16.316309,17.036768,16.668116,18.375635
15.738672,16.205713,16.99795,16.233057,18.006739
16.918604,15.809473,19.704737,19.75625,15.433252
17.747217,17.224268,17.859766,18.48501,17.452295
23.940577,17.238428,21.395655,22.034327,19.751368
24.309473,18.557764,23.205225,23.00503,21.04629
27.3854,18.469873,24.397852,24.847559,20.91714
18.631495,17.463037,18.812647,18.808985,17.511866
17.527246,16.333399,19.76333,18.998194,16.96084
17.207422,15.918848,17.226954,17.98208,17.500147
18.6188,16.300196,19.62002,19.890772,18.531885
17.621485,17.468653,20.681055,20.615137,18.46084
16.12124,16.506983,16.107569,15.83169,17.657862
18.053125,16.589014,18.466211,18.40542,18.769678
18.268457,17.211329,19.904444,19.62295,20.146875
19.00332,17.322168,16.981348,16.921778,18.417871
23.41128,18.350489,19.860743,20.033594,20.56753
20.225245,17.86172,20.491846,20.532373,18.108301
20.338282,18.991846,21.477686,21.443506,19.326319
20.472559,20.224512,22.295801,23.18081,21.396387
24.171778,21.770166,25.924952,25.883448,22.417627
27.622217,23.898829,30.396875,30.730371,26.161524
26.399317,22.846094,26.11831,26.138575,25.077051
25.393457,22.17959,26.144434,26.571192,22.462305
21.494043,23.616846,23.24624,26.349756,22.809961
26.016016,22.141748,26.981348,27.01797,24.393702
27.538965,21.860743,27.393213,27.336573,22.43374
26.311182,23.263086,27.507227,27.189112,22.980127
33.524803,24.208155,29.569239,28.927393,24.383448
31.07046,23.650537,29.586329,32.342186,24.225
23.780664,21.01919,24.110987,24.248926,24.475977
22.869776,21.23916,22.536524,22.096094,23.218409
20.576563,19.298975,21.029688,20.985743,19.819483
20.87002,19.73501,22.056055,22.269922,19.233057
22.217432,20.886866,25.289942,25.496485,22.394922
28.37832,24.00625,30.305323,29.621485,24.582178
27.648096,24.39712,27.816309,27.649317,27.687159
26.217432,24.35708,25.981836,27.223536,24.294825
28.531397,25.935694,29.54922,30.040674,26.334375
30.851954,26.10708,31.190332,33.890526,28.332422
34.523827,27.674463,32.039207,32.838036,29.373194
30.04214,26.796534,26.69961,29.578028,27.0917
27.291162,23.542871,27.221582,25.956202,25.018946
23.281153,22.380518,23.986963,23.753565,21.790674
22.402979,20.659815,23.233545,22.793848,19.633692
21.887842,22.01748,22.846338,22.172022,21.937647
25.718409,22.72207,24.304346,24.182032,23.66665
27.016504,23.67666,28.601221,28.391504,24.951075
31.099268,24.791407,31.485987,31.14248,34.093163
33.451317,26.802393,32.86953,33.293602,29.9938
30.460352,24.98086,31.339258,30.476221,26.523584
26.750147,23.51748,27.857325,27.129297,25.897364
28.628565,23.839746,27.215479,27.533838,25.919092
28.139795,23.620996,27.472803,27.73208,26.328028
25.954493,22.668848,26.80166,26.173975,23.524073
23.671778,22.645899,24.731592,23.822657,23.385157
25.131739,23.562647,25.020655,24.808252,23.447168
27.348291,25.166162,28.166407,28.170557,25.594873
27.429346,26.614649,29.614893,29.9313,27.43838
27.852442,27.78921,30.511377,30.853174,27.91714
29.888086,26.113672,31.984766,31.589746,29.083155
32.37124,25.592188,33.0104,33.364403,30.939844
34.036522,25.756983,32.857567,33.15542,30.14712
25.455957,24.597803,25.657862,24.876123,22.923975
23.365381,22.741114,24.072168,23.992334,22.525537
21.937403,22.352198,24.471582,24.313868,21.928858
24.624903,24.449121,25.407373,24.990137,24.300196
27.16128,23.79336,27.015528,27.400293,27.177149
28.03213,23.052393,26.60293,26.320948,26.198145
27.060205,23.41714,26.755518,25.3229,26.734522
24.095606,23.017237,23.503809,23.491602,23.333887
27.144922,23.144922,24.951319,25.351465,24.554102
20.758204,21.708155,21.629297,22.030664,21.927637
21.97207,22.767725,21.134912,21.72378,22.198145
22.602686,22.498926,22.41958,22.27627,21.279688
24.560938,21.576807,24.03628,24.211329,21.181787
23.960352,23.552881,24.34707,24.67959,22.918604
25.858057,23.11172,25.15957,25.466455,22.081934
26.606104,24.876856,27.02749,27.853418,24.741846
29.901514,26.794092,29.444483,30.161768,26.254053
31.474512,26.74209,32.265038,32.400536,32.34243
29.294825,27.571192,30.35879,31.170069,30.687159
28.532373,24.077784,26.388086,26.35,28.55874
31.251368,25.44082,28.71377,28.48916,28.808496
20.398584,22.47671,19.065088,18.869043,20.734034
19.793116,20.934961,19.494287,19.49795,20.737452
23.574121,23.105127,24.228662,24.184717,25.476221
28.05337,23.388086,27.95083,27.398096,26.183985
24.371729,22.366846,24.78921,24.071192,25.770655
27.507227,22.762354,26.652979,27.19082,25.81875
28.353907,22.846582,24.768457,24.649317,25.132715
27.915918,23.203028,25.013086,25.043604,25.577051
24.397608,22.941797,24.162745,23.977198,24.302637
26.520166,22.830225,25.035791,26.04629,25.27627
26.606592,22.533594,25.075586,25.218653,26.374659
33.669823,24.076319,27.076807,28.5104,26.57339
27.795313,23.312159,26.591211,25.749903,26.599756
27.811914,24.426905,23.365381,23.074121,24.009424
24.826319,23.748926,23.247461,23.475977,27.765284
26.13418,22.8771,23.517237,22.973291,23.296534
21.705225,21.99917,20.713282,20.833887,21.093409
24.609278,21.552393,22.339502,22.008692,22.54458
21.555079,21.81753,20.944239,20.858301,22.10171
20.508936,21.853418,20.884668,20.629297,20.577051
22.55459,21.781153,22.621729,22.320215,23.145899
24.002588,22.754541,21.989893,21.920069,22.728907
21.210108,22.107813,21.249659,21.488428,23.265528
22.917871,21.937891,24.273584,24.08999,23.17544
19.222559,22.035791,19.945215,19.551416,22.142725
18.08169,20.70254,18.675684,18.47378,20.432032
18.616114,21.483301,20.246485,19.770166,20.819483
19.63296,21.497705,20.034082,19.98794,21.55874
19.1979,21.745996,20.532618,20.097315,21.797754
19.787745,21.521875,19.500147,19.390528,20.482569
20.22207,20.184229,19.925196,19.430079,20.006983
20.317774,21.083887,19.82998,19.644434,20.856348
21.166895,22.02505,20.709864,20.628077,22.039942
22.620508,21.998438,20.475489,19.512598,22.194239
18.839502,21.327051,18.768457,18.270166,19.853662
17.481348,20.942774,17.484278,17.06338,18.911036
17.765528,20.922022,17.666407,17.95962,20.501612
20.965967,20.928614,21.331934,21.23379,21.28628
20.274805,21.552881,19.997461,20.472559,21.263086
20.484034,21.712793,19.384424,19.64712,21.42837
20.941797,22.017725,21.252588,20.929834,21.453028
23.549707,22.316553,22.39541,22.549952,23.157862
21.094873,20.837793,18.83706,18.411768,20.747461
19.495752,23.220118,17.133936,18.056543,22.733301
17.76797,21.283594,16.544336,16.87295,21.652979
16.640528,20.333155,17.986475,17.872461,20.810938
16.117334,21.432764,15.246485,15.576563,20.300928
18.25796,20.905909,19.365625,18.478907,19.571436
14.882959,18.772608,14.764307,14.052637,15.861963
13.3971195,17.39248,13.452295,13.422022,15.913965
12.613916,17.544092,13.826807,13.885157,15.83584
14.153711,17.888086,13.960352,13.959375,16.886621
12.630518,16.739405,11.980127,11.716455,15.279444
13.0724125,17.239649,13.736963,13.447657,15.217432
15.202051,19.293848,14.288965,14.348536,17.918604
17.169092,19.748438,16.085352,16.192286,18.545069
13.449854,16.824366,13.096094,12.970362,15.292627
11.581446,16.320948,12.896631,12.852442,14.518457
11.21084,15.777491,11.442774,11.393457,13.715967
10.017725,15.103907,11.513575,11.318018,13.789698
9.159327,14.612452,10.382471,10.363916,12.766016
9.829004,15.544092,10.688379,11.555567,13.8207035
11.97793,17.297754,13.353907,12.383936,15.697657
12.89419,16.508204,12.756006,12.573145,15.732325
11.751612,15.857569,11.623682,12.094141,14.332422
9.632471,13.361963,9.543604,9.453028,11.917383
7.8231444,11.778467,7.5406737,7.499414,10.596827
8.053125,12.3814945,7.4190917,7.541162,11.337061
8.8207035,12.180323,8.498438,8.63418,11.378809
7.895654,11.987696,9.341944,9.417139,10.151514
10.069483,15.156641,10.108057,11.089502,14.833643
14.318018,16.810938,14.860254,14.23501,15.786524
12.840235,16.853174,13.470606,13.296534,14.962061
12.903955,17.53457,15.101709,14.1817875,16.393946
13.5394535,17.30874,15.292139,14.757715,16.291895
9.312891,15.712061,10.18252,9.850489,13.579248
11.305323,16.050928,11.532862,11.27334,13.766993
9.905664,14.538965,10.710596,10.3146,13.390772
10.744043,16.2875,11.246241,10.950098,14.702295
9.793604,14.234522,10.351709,10.403955,12.076807
9.919336,13.974756,9.753565,9.403223,11.941065
12.160303,16.40249,11.750879,11.245996,15.206934
12.426172,15.372217,11.329981,10.719629,12.404688
7.1966796,12.965723,7.895166,8.54751,10.799463
6.250879,11.83169,6.7708983,6.978906,9.194971
6.2865233,11.581202,5.78042,5.0838866,8.986963
4.6534667,11.891993,3.2318358,3.1876464,8.183496
