"[299, 255]","[227, 248]","[287, 319]","[279, 328]","[230, 262]"
9.943359,11.966797,5.9492188,6.196289,13.326172
12.417969,12.550781,7.5722656,9.157227,12.844727
15.422852,12.142578,11.748047,12.256836,14.480469
17.59961,11.901367,14.165039,14.311523,14.494141
17.77246,8.418945,15.032227,14.680664,13.1640625
15.981445,6.459961,14.084961,14.1171875,11.243164
13.6796875,6.654297,10.0234375,9.725586,10.136719
8.386719,5.129883,7.8125,9.666016,5.7441406
8.1796875,6.158203,5.760742,6.7402344,7.4970703
8.839844,8.09668,5.0429688,6.631836,8.486328
10.608398,7.923828,7.8339844,7.830078,9.671875
12.578125,7.5126953,8.595703,8.90332,9.751953
12.84082,6.0302734,8.856445,9.033203,9.081055
11.908203,6.1396484,11.330078,10.042969,7.2734375
9.792969,6.0810547,9.5546875,9.194336,7.294922
5.580078,4.041992,5.8779297,5.7128906,5.551758
4.696289,5.142578,3.8486328,2.961914,6.973633
4.2158203,4.946289,2.977539,3.0810547,8.103516
4.401367,3.7529297,4.609375,3.421875,8.088867
4.647461,6.6171875,5.713867,4.1308594,9.141602
5.223633,7.0771484,6.8496094,3.6503906,10.624023
4.6816406,8.115234,7.1601562,3.5058594,11.626953
6.036133,6.9648438,5.7890625,4.515625,9.871094
5.908203,8.259766,6.0908203,5.28125,10.15625
4.2421875,8.4140625,5.2470703,5.638672,9.90625
5.661133,9.1171875,6.0,5.5976562,10.537109
6.9833984,8.964844,8.25293,5.223633,9.633789
7.5839844,8.100586,9.618164,8.005859,9.194336
7.8564453,6.0234375,9.386719,10.5078125,9.625
7.3984375,12.078125,12.935547,10.860352,12.868164
6.223633,10.624023,9.0546875,7.8007812,12.446289
4.0654297,10.202148,8.666992,5.3652344,11.743164
4.6572266,12.040039,3.086914,6.3779297,11.557617
7.1259766,12.885742,4.5,7.6865234,11.582031
10.40625,12.8125,10.125,9.302734,11.3515625
15.357422,12.530273,15.234375,12.907227,14.748047
13.959961,16.110352,15.5859375,12.987305,17.65625
21.163086,15.683594,13.435547,14.769531,17.714844
8.258789,16.009766,13.655273,13.041992,16.78711
9.731445,15.050781,11.256836,8.4140625,13.291016
9.902344,10.342773,8.849609,8.020508,7.8847656
8.411133,10.400391,5.4941406,5.6992188,3.7294922
9.99707,13.826172,10.727539,12.047852,11.72168
13.40625,10.816406,12.807617,10.827148,13.390625
12.709961,11.928711,10.394531,9.407227,13.993164
11.763672,11.457031,12.805664,15.048828,13.5625
8.614258,11.486328,8.064453,8.19043,11.033203
3.3447266,9.663086,4.1328125,4.2402344,8.639648
2.9257812,8.624023,4.1396484,4.4628906,6.821289
3.3925781,6.8710938,3.2919922,4.0253906,6.033203
4.109375,7.584961,3.96875,7.076172,6.4121094
6.6689453,15.294922,6.7802734,7.2041016,9.9140625
6.9785156,12.830078,9.251953,12.114258,11.249023
8.510742,9.499023,4.7158203,8.455078,10.896484
8.56543,8.599609,6.220703,7.3583984,9.436523
6.057617,11.041016,5.104492,4.8876953,7.5791016
6.0214844,10.935547,2.961914,7.0341797,6.911133
5.701172,9.384766,3.4648438,5.649414,8.146484
7.017578,11.736328,6.310547,4.4560547,14.473633
9.53418,11.716797,8.244141,7.810547,14.223633
11.896484,13.748047,9.499023,7.7929688,12.963867
13.65918,11.776367,11.390625,9.353516,10.633789
14.030273,9.233398,10.955078,11.344727,9.666016
14.12793,7.3583984,5.977539,8.323242,5.1123047
12.774414,6.310547,3.272461,5.4492188,4.6591797
10.948242,6.3164062,2.8417969,4.6523438,5.7070312
6.220703,7.6728516,6.133789,6.876953,8.716797
6.375,9.633789,8.829102,7.989258,9.413086
9.360352,9.84668,9.217773,9.977539,9.495117
8.288086,8.495117,8.837891,9.566406,8.2109375
6.7626953,5.723633,8.831055,8.158203,4.895508
4.6435547,4.6865234,4.491211,6.0185547,2.0751953
5.1220703,4.720703,3.5009766,5.446289,3.2207031
4.120117,4.4453125,2.8535156,2.0,3.225586
9.485352,4.1572266,4.629883,3.7382812,7.026367
7.185547,6.3564453,5.930664,6.3164062,8.501953
7.4853516,6.8759766,5.548828,4.984375,8.97168
6.7685547,5.7617188,4.923828,5.723633,7.9375
11.822266,5.9101562,5.59375,8.0,5.870117
12.75293,5.897461,4.8720703,6.2314453,5.5527344
12.295898,4.455078,5.9521484,6.7041016,4.9208984
10.737305,3.5302734,5.163086,6.8828125,4.080078
9.638672,2.9873047,6.4140625,7.8603516,3.6123047
8.841797,5.03125,7.6904297,10.90625,7.548828
9.537109,6.932617,7.163086,8.3203125,8.0390625
9.501953,9.685547,7.232422,10.4921875,8.518555
10.100586,10.536133,5.604492,6.6435547,8.012695
10.713867,8.675781,5.5351562,6.8271484,6.3789062
12.1171875,5.9902344,6.6845703,6.161133,5.083008
12.550781,4.7734375,7.493164,4.578125,7.845703
11.18457,3.8291016,8.105469,6.776367,12.011719
11.174805,5.4091797,9.9765625,8.578125,13.853516
11.081055,7.745117,10.5546875,8.646484,14.040039
10.12207,8.755859,10.449219,7.930664,13.014648
9.595703,7.838867,9.655273,7.8652344,8.6171875
15.235352,7.6015625,9.074219,3.0439453,6.2617188
14.235352,5.2246094,8.954102,2.9833984,7.455078
13.140625,4.8085938,7.8623047,3.4111328,8.047852
5.3125,4.5683594,9.806641,3.4570312,8.108398
8.008789,5.258789,8.74707,7.010742,7.7558594
8.180664,6.379883,8.540039,9.178711,6.765625
6.5976562,7.3632812,8.251953,7.5253906,6.416992
4.841797,6.895508,8.175781,8.290039,5.9179688
11.975586,7.2617188,9.044922,5.2753906,6.3447266
11.473633,4.5566406,8.647461,5.8291016,6.3066406
11.636719,4.7060547,7.276367,6.001953,4.5253906
11.399414,5.3134766,6.9921875,5.6777344,6.4160156
10.711914,5.669922,5.5527344,7.423828,8.016602
11.169922,5.3027344,11.251953,8.250977,8.253906
11.955078,5.0195312,11.308594,21.328125,9.375
11.646484,4.5683594,9.448242,5.352539,6.225586
14.186523,6.879883,10.389648,6.6445312,5.8710938
16.611328,7.317383,10.637695,7.5351562,5.7373047
16.701172,4.548828,8.583984,3.3564453,4.5253906
12.964844,3.9375,8.234375,5.415039,5.0273438
14.923828,5.8134766,8.292969,5.3339844,7.7685547
14.865234,8.265625,8.666992,5.8466797,7.583008
10.412109,7.495117,6.3720703,5.006836,5.8789062
4.142578,4.8984375,6.9140625,9.05957,6.276367
5.6035156,8.511719,3.4101562,2.9160156,7.3808594
6.701172,9.294922,3.3564453,4.3203125,7.194336
6.7402344,10.333984,2.227539,4.491211,6.7509766
8.425781,9.025391,7.3164062,7.0751953,13.014648
9.032227,13.045898,9.481445,11.655273,16.131836
10.738281,12.964844,12.021484,14.727539,17.985352
11.12793,12.174805,11.84375,11.300781,13.518555
6.607422,14.09375,6.930664,6.1367188,15.09082
9.642578,14.805664,4.209961,7.6464844,16.582031
9.276367,13.22168,4.6220703,7.935547,13.330078
9.8046875,11.279297,8.349609,7.475586,11.1640625
9.761719,9.53125,10.0234375,7.8789062,10.088867
9.374023,7.586914,11.78418,11.703125,10.602539
8.271484,7.588867,10.860352,14.892578,8.936523
9.204102,8.938477,8.620117,12.693359,8.727539
9.058594,9.075195,5.180664,7.366211,8.662109
8.709961,9.649414,2.3730469,6.1171875,8.658203
7.5625,9.1171875,5.120117,5.504883,8.911133
7.376953,8.126953,3.8720703,6.328125,7.663086
8.673828,7.7041016,6.8183594,6.310547,8.422852
9.873047,9.30957,9.106445,10.098633,11.404297
10.499023,7.65625,10.952148,9.599609,11.068359
9.0390625,8.680664,10.870117,10.100586,9.732422
4.6083984,8.560547,6.8740234,8.564453,9.474609
7.0634766,10.103516,4.5947266,5.948242,13.168945
8.155273,10.613281,4.2158203,5.8896484,15.655273
9.260742,13.417969,10.813477,8.907227,12.949219
10.947266,10.333008,10.360352,10.6875,11.729492
13.923828,10.5,13.8515625,14.151367,11.875
13.958008,14.121094,15.125,14.063477,14.837891
11.415039,14.108398,13.946289,13.473633,15.200195
7.4658203,12.189453,11.583008,11.339844,13.235352
6.6728516,8.566406,11.666016,6.208008,10.069336
4.140625,7.8251953,11.69043,4.540039,8.124023
3.8720703,5.7382812,7.8339844,4.2929688,5.413086
5.5625,5.7460938,8.842773,7.2841797,7.288086
6.1054688,5.8564453,9.988281,11.369141,9.199219
8.430664,4.953125,9.209961,9.317383,8.410156
5.3867188,6.0683594,7.243164,8.759766,9.235352
6.171875,5.9316406,6.461914,6.9990234,7.3945312
6.5009766,3.9882812,6.5166016,3.0996094,2.9638672
6.6660156,9.407227,2.694336,1.8505859,3.8574219
7.5791016,11.496094,5.5908203,4.6152344,9.910156
8.649414,12.78125,6.919922,6.7109375,9.249023
10.018555,12.725586,7.8564453,8.270508,11.183594
14.87793,11.176758,11.956055,12.314453,13.633789
13.75293,10.7578125,6.760742,9.321289,13.626953
13.811523,11.345703,8.75,10.652344,12.568359
12.652344,13.477539,8.547852,9.935547,10.756836
11.234375,15.347656,6.076172,8.438477,11.258789
11.03125,13.066406,5.5996094,7.254883,11.058594
11.868164,12.240234,8.749023,9.140625,11.550781
12.3671875,10.09375,11.459961,10.551758,11.333008
12.861328,8.865234,13.104492,10.136719,11.524414
10.738281,6.850586,7.748047,9.538086,11.52832
9.828125,4.833008,9.443359,7.7509766,8.364258
5.001953,4.4765625,6.104492,6.3964844,3.296875
2.6308594,3.9980469,4.118164,3.196289,2.5908203
2.1611328,4.133789,3.9804688,2.9052734,3.0830078
6.758789,4.7060547,4.7314453,3.8984375,5.635742
9.5078125,6.1308594,7.8310547,8.629883,7.8115234
9.802734,5.654297,13.359375,9.2421875,9.142578
11.818359,8.263672,13.094727,10.162109,8.571289
11.568359,7.984375,12.259766,7.2128906,5.770508
12.397461,6.678711,9.029297,6.916992,4.2148438
11.711914,6.0429688,7.245117,5.0878906,3.6503906
11.296875,4.9296875,8.490234,6.038086,3.6064453
10.725586,2.390625,8.557617,8.208008,4.314453
6.8652344,5.083008,8.887695,6.8896484,8.230469
10.442383,5.9804688,9.542969,5.9658203,7.2529297
8.870117,4.5751953,8.683594,5.7441406,6.604492
6.6191406,1.6513672,9.825195,5.1132812,4.5234375
8.513672,5.788086,6.638672,6.0058594,4.2851562
10.073242,5.9472656,4.620117,5.1259766,5.7929688
11.015625,8.211914,3.6386719,4.973633,7.9453125
10.297852,10.058594,3.7158203,6.0810547,8.6953125
10.191406,9.807617,4.5097656,6.7373047,5.208008
12.55957,9.892578,5.9365234,9.180664,6.1835938
9.058594,8.959961,7.7890625,8.279297,6.9833984
13.849609,5.6416016,4.7695312,5.495117,5.1210938
13.824219,6.486328,4.1835938,7.8896484,4.6591797
13.436523,5.694336,4.158203,6.2714844,5.178711
7.911133,3.9570312,3.2011719,6.1953125,2.5664062
8.725586,3.5791016,3.4697266,4.591797,5.0595703
11.0078125,5.908203,5.5410156,5.8359375,7.9335938
9.697266,9.938477,8.357422,5.419922,7.8291016
9.78125,10.138672,6.705078,7.754883,7.7578125
6.760742,7.6708984,5.28125,4.705078,6.3623047
6.169922,4.536133,4.602539,3.9580078,3.6230469
6.1220703,2.7382812,3.3847656,4.2685547,3.671875
3.381836,2.6542969,2.6416016,3.7294922,2.2851562
4.805664,3.383789,6.296875,4.7529297,5.5302734
6.0185547,5.4628906,9.438477,6.5410156,8.010742
6.5654297,7.258789,9.228516,4.140625,9.891602
5.7148438,9.341797,4.821289,4.6396484,9.9765625
5.977539,9.09082,7.5654297,7.0966797,8.825195
2.897461,8.378906,8.776367,4.5283203,8.206055
2.90625,6.0429688,8.020508,6.607422,6.4628906
3.8144531,4.9902344,5.879883,7.538086,5.0166016
6.142578,4.7685547,9.552734,8.446289,6.274414
11.416992,5.951172,10.036133,9.919922,9.272461
10.988281,4.944336,9.59082,9.630859,9.645508
9.65625,3.2011719,8.5546875,8.981445,8.824219
8.852539,4.3427734,7.9248047,6.4697266,4.8691406
4.3652344,7.321289,5.4873047,3.2382812,5.727539
3.3359375,7.8896484,3.756836,4.9765625,6.841797
5.758789,8.063477,3.3574219,7.279297,7.098633
8.352539,7.9521484,9.985352,9.466797,13.106445
9.505859,11.889648,10.994141,10.201172,14.625977
10.838867,12.615234,5.2128906,6.8828125,14.607422
10.911133,12.701172,5.3583984,6.1875,15.053711
6.970703,11.90918,7.076172,6.458008,12.712891
7.038086,11.330078,7.364258,6.1416016,10.166992
7.5722656,10.921875,8.302734,5.0351562,9.6171875
9.168945,10.073242,6.2060547,6.6289062,12.68457
11.470703,12.563477,9.496094,10.493164,17.251953
12.239258,13.481445,19.91211,13.167969,17.789062
13.125977,14.859375,17.658203,15.736328,17.496094
13.141602,15.110352,14.140625,15.344727,17.427734
12.389648,15.241211,15.077148,9.137695,14.223633
11.827148,13.28418,8.473633,6.489258,9.12793
