"[299, 255]","[227, 248]","[287, 319]","[279, 328]","[230, 262]"
13.5234375,10.529297,10.827148,12.311523,11.365234
7.0625,11.005859,3.078125,7.4453125,11.380859
7.9765625,10.177734,7.34375,6.904297,9.202148
7.0546875,8.640625,7.2109375,6.6552734,12.533203
6.3027344,8.328125,8.782227,7.658203,13.364258
7.515625,7.671875,11.483398,10.895508,11.998047
15.521484,10.211914,6.765625,5.3154297,10.660156
11.6640625,10.618164,6.0126953,7.6123047,9.456055
9.348633,13.038086,9.02832,8.016602,9.045898
13.958008,13.90332,9.020508,7.135742,9.871094
14.665039,12.645508,8.791016,7.1015625,11.71875
16.019531,13.371094,7.3398438,11.951172,13.423828
17.041992,12.291016,12.124023,13.37207,13.853516
16.14746,15.011719,13.941406,14.230469,13.977539
11.866211,16.911133,10.443359,10.827148,12.472656
10.969727,14.807617,11.452148,11.058594,11.045898
13.212891,14.091797,10.896484,10.549805,12.041992
11.730469,16.293945,9.763672,9.692383,11.847656
11.266602,13.942383,11.967773,11.716797,12.772461
14.839844,12.061523,14.133789,11.583984,12.987305
13.499023,10.808594,13.728516,13.512695,12.5703125
14.073242,7.1865234,13.389648,14.584961,9.327148
10.610352,8.513672,11.323242,11.895508,13.323242
10.150391,15.384766,8.987305,9.887695,15.541016
10.314453,17.34082,10.130859,9.852539,14.244141
7.149414,14.245117,7.131836,10.830078,13.55957
13.813477,18.89746,15.557617,15.134766,17.254883
17.078125,20.816406,15.597656,17.663086,20.171875
17.048828,19.572266,17.057617,18.054688,21.396484
16.907227,20.160156,16.35254,16.280273,20.141602
14.6484375,16.97168,15.40918,15.348633,13.538086
16.773438,18.40332,12.30957,14.34375,15.568359
15.541016,17.020508,13.466797,14.3359375,14.5234375
14.581055,19.38379,12.68457,12.691406,16.767578
15.400391,17.894531,16.338867,15.145508,17.875
16.797852,19.93457,17.879883,16.615234,19.623047
17.637695,17.19629,19.0625,17.86914,17.832031
17.547852,14.910156,18.276367,17.28418,16.463867
11.603516,15.62207,14.587891,16.368164,15.05957
7.2285156,15.807617,9.862305,11.432617,14.970703
4.4316406,14.583008,7.243164,9.80957,11.037109
3.9736328,10.134766,7.0634766,9.837891,9.774414
5.540039,13.238281,10.322266,9.990234,11.825195
8.027344,9.109375,14.027344,12.988281,12.068359
12.362305,14.826172,14.016602,13.037109,13.637695
12.560547,13.90332,13.329102,13.150391,14.654297
9.647461,11.3984375,3.5927734,6.794922,15.208984
15.827148,11.588867,5.553711,6.4277344,13.771484
14.834961,15.250977,5.8164062,7.314453,13.438477
10.711914,13.342773,6.529297,7.373047,12.646484
9.7890625,13.000977,10.385742,9.817383,13.828125
11.168945,11.546875,11.96875,12.066406,13.913086
11.157227,12.500977,12.720703,18.539062,14.282227
9.400391,13.708984,11.693359,14.944336,15.498047
9.3671875,14.328125,6.9697266,9.697266,13.952148
8.59668,12.011719,6.001953,7.7304688,12.6015625
6.0546875,12.199219,7.1796875,7.4101562,10.332031
6.326172,10.026367,7.0898438,7.8242188,10.5234375
7.1103516,12.000977,9.928711,8.842773,12.944336
10.955078,13.646484,10.035156,10.669922,13.219727
10.538086,10.600586,11.662109,11.098633,12.051758
10.767578,8.80957,11.334961,8.5703125,9.696289
8.838867,7.9208984,6.607422,7.698242,7.1601562
2.3271484,6.9570312,4.911133,7.7314453,3.4853516
2.3134766,6.7490234,3.6796875,5.008789,3.7041016
2.2675781,6.8632812,6.673828,4.486328,4.3632812
8.544922,6.330078,7.5683594,7.4882812,9.37793
8.667969,8.427734,10.417969,11.575195,12.541992
9.123047,9.896484,12.6171875,12.946289,13.708008
8.731445,13.280273,13.037109,13.982422,13.262695
6.7646484,13.824219,10.981445,10.185547,11.946289
8.361328,13.438477,11.96582,8.864258,10.499023
9.056641,13.669922,10.725586,9.709961,11.825195
9.885742,11.000977,10.228516,10.003906,9.498047
10.540039,14.493164,10.280273,9.189453,12.756836
7.6796875,11.28125,12.3671875,9.798828,12.446289
14.342773,16.793945,12.2734375,15.339844,15.912109
15.136719,14.4921875,11.65332,14.655273,16.208984
8.209961,14.297852,14.288086,12.717773,14.641602
3.9804688,15.842773,6.388672,8.331055,15.777344
11.4453125,12.557617,8.758789,8.610352,12.788086
7.951172,14.876953,7.307617,7.5771484,12.479492
11.917969,18.074219,11.34375,12.165039,15.633789
13.34668,14.631836,13.168945,14.0859375,15.177734
17.449219,14.12793,16.207031,15.831055,16.060547
16.574219,13.8125,16.331055,16.69336,15.314453
11.6328125,11.576172,9.80957,10.578125,10.847656
6.578125,10.598633,6.4277344,7.0390625,9.105469
6.498047,6.5097656,7.663086,6.9335938,7.6572266
4.2333984,6.6660156,7.5185547,6.2773438,5.2910156
6.9316406,7.2285156,9.180664,8.161133,7.9003906
10.291016,7.232422,12.15625,11.780273,9.90625
10.426758,7.6152344,12.501953,13.860352,10.044922
11.175781,7.604492,12.618164,13.545898,8.928711
7.709961,6.178711,6.916992,8.511719,4.3652344
6.725586,5.8476562,4.4697266,4.189453,3.1914062
6.7226562,4.022461,4.5058594,4.504883,8.363281
3.131836,4.1435547,3.6425781,4.6875,6.2910156
5.102539,4.7158203,4.254883,5.477539,9.361328
7.2509766,5.5478516,6.8427734,7.0126953,9.770508
7.088867,5.551758,7.623047,7.6132812,10.8515625
6.6552734,9.086914,7.5283203,6.84375,8.930664
8.484375,9.826172,9.661133,5.859375,7.979492
12.115234,8.322266,5.426758,3.3388672,8.380859
12.219727,3.9511719,4.4091797,3.3359375,4.4228516
11.453125,5.8828125,4.7734375,3.6328125,4.288086
10.90918,8.130859,8.549805,4.3789062,6.491211
10.21875,9.370117,8.592773,8.785156,10.953125
10.936523,10.068359,9.762695,10.780273,12.1875
10.901367,13.722656,9.420898,10.699219,11.791016
12.927734,18.023438,13.717773,11.9140625,10.765625
16.670898,17.780273,13.500977,14.1171875,16.00586
14.458008,11.919922,13.635742,14.129883,13.041992
11.160156,11.110352,6.9765625,10.283203,9.25
12.285156,11.109375,9.880859,9.852539,12.141602
15.6875,10.466797,14.493164,11.100586,13.901367
12.598633,10.381836,16.408203,14.325195,16.075195
10.838867,8.708008,13.256836,13.396484,13.511719
15.3828125,15.3359375,6.0771484,7.6328125,15.217773
18.311523,21.254883,11.667969,14.199219,21.65625
18.983398,18.66211,16.761719,14.712891,20.239258
17.115234,24.890625,12.291016,9.87207,20.798828
22.989258,24.80371,17.65625,12.769531,21.736328
25.176758,25.739258,8.981445,11.488281,25.801758
26.319336,24.47754,21.917969,22.012695,25.887695
24.46582,20.249023,24.036133,21.780273,24.552734
20.058594,19.53125,18.521484,17.269531,18.330078
18.581055,17.728516,13.972656,13.6328125,16.84961
15.822266,17.623047,14.0078125,13.511719,16.389648
12.512695,15.52832,11.533203,9.974609,14.111328
15.097656,20.865234,12.568359,13.663086,20.65918
17.450195,20.605469,17.495117,13.724609,20.049805
17.873047,20.264648,20.226562,18.328125,19.791992
20.373047,20.730469,20.416016,16.729492,19.90625
17.115234,19.9375,13.275391,11.9765625,19.063477
13.782227,18.628906,16.862305,12.993164,16.110352
12.217773,17.890625,17.594727,16.861328,14.84375
12.59375,18.074219,18.419922,15.688477,13.488281
17.80957,15.916992,15.864258,16.950195,16.014648
20.163086,14.047852,17.235352,19.10254,16.625
19.64746,15.008789,17.952148,16.089844,16.871094
17.916992,15.868164,15.157227,15.064453,16.574219
12.297852,15.681641,9.884766,8.59082,13.879883
7.553711,14.688477,8.62793,6.763672,11.119141
7.897461,11.53125,8.592773,5.6464844,10.052734
10.545898,11.53418,6.754883,5.3183594,9.908203
9.419922,8.706055,4.446289,6.5634766,7.4257812
10.291016,7.430664,6.0839844,6.3789062,7.3164062
13.057617,7.029297,5.921875,11.538086,8.736328
8.724609,7.2421875,15.001953,11.8203125,9.40625
5.986328,8.016602,8.163086,6.7382812,7.836914
8.4765625,10.225586,4.723633,6.1416016,9.96582
11.504883,9.8203125,5.3945312,7.095703,8.87793
12.584961,11.00293,5.4746094,7.897461,10.97168
12.008789,12.714844,10.2890625,9.536133,10.066406
12.241211,12.271484,12.436523,11.404297,12.81543
14.550781,15.87793,11.520508,11.548828,12.004883
12.435547,11.348633,11.207031,9.819336,12.62207
12.189453,9.182617,8.547852,7.03125,9.958008
3.2421875,8.047852,5.4560547,7.7158203,6.9033203
3.046875,9.163086,5.4746094,6.9785156,7.6757812
3.0175781,9.991211,5.006836,5.1503906,10.829102
7.453125,8.033203,6.248047,7.654297,8.608398
8.856445,9.816406,8.458984,11.322266,11.375
13.139648,7.9833984,11.876953,12.944336,10.370117
9.987305,4.2783203,16.765625,16.86621,8.433594
8.464844,7.0126953,11.047852,9.324219,6.057617
6.064453,12.947266,6.4384766,7.7158203,7.459961
6.8964844,12.383789,4.7158203,3.772461,10.419922
5.7753906,13.0625,2.3076172,4.0839844,9.9140625
10.201172,12.490234,6.7910156,9.083008,13.5625
16.94043,15.089844,12.047852,10.785156,15.03125
15.623047,11.65332,11.689453,10.918945,13.634766
14.082031,7.258789,11.683594,13.036133,10.488281
11.146484,9.7265625,9.7421875,11.866211,9.547852
3.5029297,9.225586,7.4453125,5.3095703,8.52832
2.5566406,10.419922,3.1601562,5.192383,11.071289
7.4023438,11.311523,6.5371094,6.008789,10.365234
10.702148,13.850586,9.677734,9.103516,16.661133
11.589844,15.847656,15.530273,14.453125,15.536133
12.8671875,13.102539,18.28418,17.638672,14.868164
14.753906,14.785156,13.9921875,17.329102,16.206055
11.833008,17.108398,8.741211,8.625,16.80664
5.8603516,16.222656,7.272461,9.616211,13.297852
6.1083984,12.8046875,11.701172,11.875977,13.889648
8.149414,14.134766,13.168945,13.712891,16.358398
16.017578,16.823242,15.384766,15.516602,18.143555
16.799805,16.139648,16.998047,17.503906,17.195312
17.261719,15.224609,17.635742,17.374023,17.702148
14.3515625,15.198242,15.133789,15.791016,16.499023
11.506836,15.738281,13.8125,14.160156,13.4765625
10.34375,13.638672,9.09082,11.970703,12.6875
8.402344,10.088867,10.569336,11.150391,11.761719
6.71875,10.193359,8.533203,8.885742,8.980469
12.268555,10.493164,9.206055,9.001953,9.416992
14.385742,9.956055,10.4609375,10.621094,11.292969
12.347656,10.074219,10.258789,9.578125,10.25
11.128906,8.383789,8.43457,8.791992,8.079102
8.973633,10.415039,5.866211,7.381836,6.7714844
4.291992,13.775391,11.100586,5.2773438,10.249023
5.9433594,15.173828,11.104492,6.9033203,13.8984375
9.172852,15.791992,9.029297,9.561523,16.481445
11.385742,16.297852,14.704102,13.753906,17.253906
10.916992,15.347656,14.280273,14.373047,13.064453
13.435547,13.698242,15.541016,19.188477,16.075195
14.736328,9.865234,15.69043,16.617188,15.649414
12.024414,7.602539,11.537109,14.28418,6.0908203
5.1152344,9.619141,7.810547,8.546875,6.4853516
5.2421875,11.9453125,11.035156,6.1103516,7.751953
6.611328,12.615234,10.265625,7.6572266,9.238281
12.443359,12.302734,13.072266,12.470703,13.202148
14.2734375,12.866211,15.75293,13.961914,15.080078
13.842773,15.822266,16.160156,14.620117,18.799805
13.436523,21.251953,13.602539,13.155273,22.188477
16.576172,21.141602,17.924805,11.933594,22.464844
19.661133,21.716797,18.035156,13.172852,21.360352
21.888672,23.860352,19.148438,14.919922,22.667969
21.913086,23.860352,18.5625,17.548828,23.41504
20.00293,21.91504,18.393555,17.152344,22.479492
19.523438,19.00586,22.63086,21.449219,22.576172
30.782227,23.882812,24.929688,24.74414,24.746094
27.542969,24.051758,24.613281,22.049805,26.629883
19.498047,26.69043,16.794922,19.288086,22.72461
20.620117,21.904297,11.209961,17.753906,21.30957
18.436523,20.69629,13.47168,17.875977,17.603516
15.15918,21.507812,15.994141,16.792969,16.865234
19.44043,21.355469,19.305664,17.97168,22.222656
22.047852,20.576172,19.490234,21.760742,25.651367
23.668945,21.65625,21.405273,20.132812,22.770508
19.923828,19.420898,18.579102,21.123047,18.71875
16.422852,20.90918,13.722656,14.4453125,15.576172
13.731445,18.558594,10.290039,10.243164,14.375977
15.639648,16.557617,13.774414,12.260742,14.9921875
15.329102,17.094727,10.915039,11.97168,16.516602
16.256836,18.331055,15.066406,11.935547,15.150391
18.743164,15.150391,15.7109375,16.62207,15.689453
18.60254,12.941406,17.708984,18.19629,16.36914
18.28711,10.43457,16.732422,18.5,14.480469
14.061523,9.041992,11.819336,13.2109375,9.646484
9.197266,8.75293,4.0410156,5.819336,6.6875
