"[299, 255]","[227, 248]","[287, 319]","[279, 328]","[230, 262]"
12.53125,5.0351562,5.926758,7.1132812,4.7353516
12.270508,2.868164,5.1308594,6.1572266,4.6972656
11.413086,2.4433594,5.073242,7.0302734,3.3984375
10.371094,3.8076172,7.4277344,8.46875,5.9560547
9.682617,6.310547,8.086914,8.370117,7.6708984
8.390625,4.9960938,9.078125,9.842773,6.713867
2.7978516,4.841797,5.5722656,5.345703,3.5996094
6.060547,4.3935547,4.5507812,6.076172,5.0117188
6.4316406,3.8330078,7.7509766,7.133789,6.7841797
5.9160156,8.074219,6.0029297,6.7060547,7.5146484
6.2978516,7.4160156,8.614258,6.4804688,7.03125
7.8007812,5.040039,7.774414,7.3046875,7.553711
7.9472656,9.259766,7.59375,8.03418,7.504883
8.423828,9.276367,7.6552734,7.9365234,6.501953
8.541016,5.626953,7.5371094,6.9726562,5.142578
6.7265625,9.84082,7.2470703,6.5664062,10.729492
11.848633,17.716797,9.933594,10.348633,14.657227
15.751953,20.17871,12.573242,12.203125,15.191406
16.589844,19.27246,14.793945,14.572266,16.47461
18.768555,16.757812,18.493164,16.666016,17.436523
22.145508,15.839844,18.399414,17.40625,18.42871
18.617188,13.296875,17.155273,18.374023,14.1484375
13.8359375,10.854492,11.261719,12.788086,12.154297
5.635742,8.21875,5.908203,8.493164,10.134766
4.6523438,8.163086,7.161133,7.189453,9.391602
4.598633,7.970703,7.03125,5.7060547,7.4023438
5.192383,6.9257812,6.28125,6.645508,8.5078125
8.373047,7.948242,8.625,7.8183594,9.138672
8.333984,7.8027344,8.216797,7.7890625,8.395508
6.7304688,7.602539,7.368164,6.260742,7.370117
4.2646484,7.6396484,4.9960938,4.591797,3.5205078
9.8828125,5.048828,5.6503906,5.100586,4.3398438
9.714844,6.239258,4.8964844,5.6757812,4.4853516
8.831055,8.201172,4.458008,5.6054688,5.6171875
6.6503906,8.816406,4.991211,6.713867,9.176758
8.142578,8.766602,10.474609,10.5859375,10.655273
8.40332,8.736328,11.536133,11.712891,11.6640625
7.819336,7.796875,10.991211,11.499023,11.250977
6.9345703,4.9990234,4.40625,6.0458984,6.5595703
6.8476562,3.6855469,4.4335938,7.352539,4.8554688
7.165039,3.7714844,2.7207031,7.3603516,4.682617
7.1679688,7.5429688,5.666992,6.274414,4.8652344
6.666992,5.506836,7.7978516,6.0595703,6.484375
7.529297,6.0039062,9.428711,8.923828,8.510742
7.65625,4.2841797,9.823242,9.161133,8.102539
6.6376953,4.388672,8.996094,8.459961,5.9628906
7.544922,5.1376953,2.7607422,4.2666016,4.4101562
7.9189453,3.7490234,3.7060547,5.073242,4.885742
7.3828125,5.6972656,3.975586,5.373047,4.8847656
6.107422,5.451172,2.8085938,5.370117,5.0683594
5.466797,2.9765625,3.7304688,4.0751953,3.2480469
6.645508,3.7988281,3.6845703,4.1816406,5.9257812
7.4208984,6.2851562,4.1972656,3.9794922,6.4960938
6.6328125,5.458008,4.557617,6.583008,6.0234375
6.798828,6.0878906,6.4765625,6.580078,4.7851562
6.7021484,6.1240234,10.381836,4.9609375,5.796875
9.18457,3.7285156,11.243164,5.892578,5.7753906
10.635742,2.290039,11.737305,6.7802734,3.984375
11.40918,5.868164,12.831055,7.7333984,4.588867
11.363281,5.9296875,12.416992,9.442383,8.299805
8.141602,6.9785156,10.200195,8.969727,8.94043
4.9365234,6.251953,7.4384766,10.446289,7.703125
12.6015625,4.001953,6.748047,5.685547,6.1191406
12.46875,6.067383,5.533203,6.635742,8.061523
8.519531,8.358398,4.5742188,6.1933594,10.424805
5.203125,12.686523,9.170898,5.5253906,11.6484375
12.598633,12.770508,13.783203,13.704102,12.326172
16.451172,10.647461,15.587891,15.356445,13.43457
16.610352,7.9140625,15.634766,15.2890625,11.760742
15.428711,9.28418,13.3359375,12.508789,9.564453
12.260742,9.879883,8.706055,7.948242,10.072266
7.9521484,12.120117,2.7890625,2.5322266,13.385742
9.688477,12.152344,2.4199219,3.5195312,14.37207
10.988281,12.463867,5.7421875,5.598633,14.035156
8.961914,14.136719,6.791992,8.079102,12.558594
9.919922,10.484375,11.300781,11.166992,10.392578
12.149414,7.803711,13.298828,13.342773,12.672852
13.017578,8.786133,12.045898,13.885742,12.649414
12.829102,7.0908203,7.419922,8.449219,10.385742
12.37207,5.6132812,6.8945312,5.7558594,10.378906
10.916992,5.2373047,6.6933594,5.1083984,8.817383
4.1904297,3.8154297,6.661133,4.96875,7.9882812
5.8242188,4.515625,3.1210938,4.803711,9.147461
6.4960938,4.3251953,7.5625,8.780273,7.9658203
6.6220703,6.145508,9.526367,9.975586,7.1240234
6.4248047,5.9960938,9.620117,7.7929688,6.8759766
4.2128906,6.064453,6.09375,3.9296875,4.397461
3.6796875,5.848633,4.6328125,3.071289,3.6396484
2.2519531,1.4501953,3.3789062,3.8857422,3.2607422
3.8154297,1.7167969,2.6953125,3.8847656,3.0996094
4.067383,1.7382812,2.9414062,3.5498047,4.8203125
7.3632812,3.618164,9.024414,9.625,6.8320312
8.369141,4.989258,10.417969,10.290039,7.5039062
9.087891,3.618164,10.514648,9.597656,6.819336
7.8720703,2.118164,7.3095703,7.274414,3.9375
5.083008,4.1835938,7.6914062,7.932617,4.557617
7.8085938,5.0683594,9.019531,8.44043,4.5566406
10.198242,6.6152344,7.466797,7.1884766,7.694336
8.46875,7.9033203,6.205078,6.0253906,8.785156
5.4453125,7.298828,5.642578,5.9628906,8.56543
6.9560547,8.163086,12.555664,15.3046875,8.1796875
11.040039,8.623047,13.878906,11.134766,7.6123047
16.370117,9.749023,10.686523,6.276367,9.518555
17.05371,10.041992,8.839844,5.767578,11.0625
15.93457,5.7939453,7.6035156,5.682617,13.068359
15.074219,4.426758,7.475586,5.7929688,15.230469
14.454102,4.4501953,11.019531,5.294922,16.578125
13.2734375,5.1083984,11.2890625,6.9189453,16.359375
11.654297,6.432617,11.27832,8.141602,14.810547
11.574219,7.8720703,10.443359,8.535156,12.962891
11.15625,4.2197266,9.879883,8.233398,10.412109
6.8564453,5.6435547,7.696289,6.4677734,12.239258
8.40332,5.7529297,5.4404297,6.748047,11.9609375
7.7685547,6.4970703,5.5458984,5.794922,8.953125
11.563477,4.861328,7.330078,6.482422,11.749023
11.574219,7.9228516,8.086914,6.948242,12.706055
10.925781,8.603516,7.751953,7.109375,13.123047
10.079102,11.983398,6.9814453,5.6992188,12.296875
12.848633,10.97168,8.245117,6.8046875,9.191406
13.758789,7.790039,6.9570312,6.9492188,6.036133
12.509766,3.5039062,4.2041016,5.256836,6.2646484
5.745117,4.1777344,1.9541016,4.0478516,5.310547
6.3945312,3.0371094,5.904297,5.1884766,8.333984
7.2539062,3.7294922,6.4501953,8.522461,10.149414
7.334961,5.2421875,5.4677734,8.609375,10.329102
7.1552734,6.444336,6.9804688,8.44043,9.623047
6.5947266,8.628906,6.9023438,6.5634766,7.71875
7.3251953,7.649414,7.4541016,4.754883,8.047852
8.379883,3.671875,5.6914062,6.2128906,6.1328125
9.081055,4.0126953,7.4560547,4.8085938,5.8310547
9.021484,4.2626953,7.4941406,4.991211,10.31543
11.8359375,3.6425781,8.115234,5.5527344,13.112305
11.426758,4.1328125,9.728516,7.526367,13.708008
9.868164,7.095703,10.34082,7.459961,12.359375
11.697266,6.491211,9.8125,8.571289,9.989258
11.163086,5.635742,7.754883,7.3291016,8.78125
11.196289,4.419922,6.298828,5.4414062,7.3427734
11.950195,5.3427734,4.955078,6.319336,8.171875
13.303711,6.7421875,8.001953,7.415039,9.003906
11.380859,6.888672,9.12207,8.112305,12.297852
9.764648,3.928711,9.207031,8.241211,13.061523
9.0390625,4.020508,7.7109375,7.5498047,12.388672
9.334961,3.3496094,9.249023,6.5625,3.5332031
14.25,4.9560547,9.379883,7.267578,5.506836
15.473633,4.814453,7.491211,7.376953,8.34082
15.987305,4.2470703,7.71875,6.0546875,8.325195
14.008789,3.6923828,9.856445,9.106445,12.597656
13.2890625,11.875977,9.761719,8.5234375,14.130859
13.973633,12.022461,10.387695,9.883789,13.90332
13.496094,10.943359,10.419922,10.699219,13.139648
11.180664,9.811523,7.890625,9.09668,10.384766
11.728516,7.9970703,6.6308594,8.792969,9.65332
9.205078,8.728516,5.326172,4.8740234,10.6328125
7.3183594,6.8066406,5.0566406,5.2958984,8.125977
9.713867,5.1728516,8.250977,8.927734,9.575195
11.475586,7.208008,10.395508,10.086914,10.161133
10.069336,7.958008,9.282227,8.658203,9.333008
7.676758,7.6210938,8.84375,8.537109,7.951172
10.793945,5.823242,8.439453,7.946289,4.7470703
10.299805,6.2070312,5.40625,6.444336,6.685547
9.921875,3.2617188,4.4648438,6.633789,6.899414
8.246094,8.508789,4.6572266,5.9208984,3.9892578
8.225586,8.4140625,5.8408203,6.3779297,8.911133
7.926758,9.59668,9.475586,7.2685547,10.748047
7.9052734,11.045898,10.985352,10.419922,13.176758
10.739258,15.499023,11.736328,10.358398,14.05957
6.029297,15.2421875,8.889648,6.9804688,12.354492
5.4589844,10.913086,4.8945312,5.3046875,11.222656
5.069336,11.197266,6.2128906,4.833008,10.78418
5.038086,11.182617,5.9921875,3.4785156,10.646484
10.623047,11.519531,6.4501953,7.3671875,12.776367
10.707031,10.783203,7.0117188,7.1591797,10.59375
8.375,10.280273,12.383789,12.594727,9.833008
7.5146484,8.75293,13.40625,12.69043,9.786133
7.3242188,6.0498047,7.138672,8.8046875,7.8984375
6.9179688,4.354492,4.2841797,6.419922,6.6875
6.71875,2.6279297,3.6572266,3.1748047,2.3046875
6.1289062,2.8007812,2.5791016,1.6132812,2.8847656
7.7890625,1.7099609,4.573242,5.760742,3.8984375
10.670898,4.0585938,8.082031,7.0478516,7.5273438
10.871094,4.7822266,8.303711,7.1259766,7.6484375
9.922852,3.4091797,6.5390625,7.3291016,6.4003906
5.9257812,4.8623047,9.155273,7.1416016,5.370117
7.9658203,8.207031,5.9541016,5.7558594,8.912109
8.563477,8.689453,3.2519531,5.705078,9.334961
6.90625,8.448242,3.711914,7.4248047,10.461914
6.614258,9.168945,4.9492188,8.219727,12.580078
8.984375,10.1875,5.939453,8.051758,14.464844
9.709961,7.8271484,7.6240234,8.618164,16.289062
9.708984,10.584961,4.0039062,7.680664,16.310547
10.738281,11.553711,5.1728516,9.155273,17.069336
11.926758,14.073242,6.205078,9.15625,19.618164
12.212891,15.250977,5.727539,10.063477,21.229492
12.339844,13.086914,17.83789,10.116211,20.881836
14.28125,13.229492,20.375,15.625977,20.853516
12.744141,11.069336,21.97754,17.90625,21.204102
12.639648,9.5546875,17.202148,13.818359,20.595703
10.594727,6.7929688,11.849609,9.830078,16.981445
9.237305,4.189453,5.0166016,5.147461,4.6484375
10.503906,4.161133,7.4658203,5.548828,7.198242
10.505859,4.9492188,7.625,5.676758,4.9941406
10.205078,5.689453,8.740234,6.236328,5.864258
10.207031,4.7773438,9.736328,9.052734,5.053711
10.463867,3.6611328,9.123047,9.27832,8.4140625
11.197266,5.095703,6.951172,8.827148,9.6015625
10.428711,7.7929688,6.352539,7.861328,10.421875
13.62793,9.790039,8.708008,10.950195,10.763672
13.643555,14.980469,9.176758,10.569336,18.364258
13.958984,16.141602,10.5078125,14.600586,16.804688
13.490234,16.58496,9.949219,9.935547,17.310547
15.532227,14.25,13.694336,13.744141,15.990234
17.183594,12.9453125,15.798828,14.50293,16.510742
14.385742,10.239258,15.753906,13.779297,15.669922
9.457031,6.553711,10.639648,12.027344,11.081055
8.55957,5.169922,3.4384766,7.623047,6.598633
10.166992,7.548828,6.708008,3.6533203,7.508789
8.613281,8.827148,6.9052734,3.8388672,7.4833984
14.363281,8.831055,14.180664,4.232422,9.162109
12.217773,8.878906,14.228516,7.3583984,10.044922
10.594727,9.9453125,11.245117,6.173828,14.208984
10.355469,11.59668,9.608398,9.296875,14.885742
8.84668,13.103516,10.700195,9.5546875,14.62207
8.543945,14.103516,9.891602,6.370117,13.146484
10.03125,12.8515625,6.1875,5.2802734,11.391602
11.553711,10.121094,7.814453,8.541992,9.589844
11.685547,10.125977,7.8378906,7.5478516,9.404297
11.158203,9.316406,5.982422,5.1289062,9.3828125
11.413086,11.306641,11.5703125,8.871094,12.5625
13.198242,15.328125,15.478516,9.44043,12.595703
12.6796875,16.041016,10.887695,12.0703125,14.883789
10.186523,16.34668,9.444336,9.660156,13.24707
7.067383,12.78125,10.892578,6.794922,11.696289
7.004883,11.298828,9.537109,6.0029297,11.483398
9.240234,11.762695,9.368164,5.895508,10.714844
10.338867,11.572266,5.963867,9.279297,12.723633
10.753906,11.046875,6.338867,8.768555,10.0546875
9.893555,5.959961,5.8134766,5.4277344,10.571289
13.540039,6.609375,7.5322266,7.354492,13.03125
17.97168,8.262695,14.083008,9.589844,14.139648
20.765625,10.799805,15.401367,7.125,15.116211
