"[299, 255]","[227, 248]","[287, 319]","[279, 328]","[230, 262]"
12.569336,9.890625,5.4570312,4.5791016,4.6015625
12.545898,10.544922,5.814453,5.2109375,3.6611328
14.767578,11.183594,5.8476562,5.9121094,3.6894531
15.931641,12.488281,8.383789,11.149414,9.520508
16.875977,13.879883,10.631836,12.347656,13.19043
21.739258,14.949219,11.65918,10.4140625,19.207031
26.714844,20.711914,17.478516,13.265625,19.916016
26.905273,21.78418,19.573242,17.154297,19.163086
25.689453,20.263672,17.81836,20.970703,19.296875
17.801758,20.288086,17.90332,20.023438,22.05957
17.689453,19.649414,10.428711,13.428711,20.78125
18.33789,19.891602,15.77832,13.06543,20.874023
19.270508,18.716797,17.359375,15.2265625,20.444336
18.680664,23.013672,16.66211,13.753906,22.621094
16.779297,23.645508,21.830078,18.563477,22.03418
15.487305,17.578125,18.054688,11.553711,17.279297
11.390625,15.048828,14.106445,8.779297,11.712891
12.228516,20.291992,5.116211,7.890625,16.78418
15.797852,19.58789,10.37207,9.027344,16.527344
14.410156,18.742188,17.107422,11.329102,16.607422
15.186523,19.117188,18.435547,15.355469,18.987305
16.208984,25.123047,14.173828,10.9296875,20.628906
17.015625,26.47168,14.145508,8.436523,26.27539
16.448242,25.713867,17.765625,15.777344,25.362305
16.3125,20.589844,17.836914,14.154297,23.22461
10.827148,12.949219,14.673828,11.19043,14.766602
9.771484,5.0966797,7.125,8.4453125,6.1064453
5.385742,7.3828125,8.619141,6.4296875,7.9716797
6.4072266,9.371094,8.327148,8.464844,7.9404297
7.4921875,8.873047,6.2226562,6.5976562,9.170898
15.636719,19.827148,4.7333984,7.7402344,19.5
17.204102,20.339844,11.568359,12.114258,20.682617
17.770508,21.032227,15.895508,12.34375,21.232422
18.18457,21.25293,18.65039,12.837891,21.539062
19.350586,20.672852,18.700195,17.941406,19.385742
20.083008,21.52246,18.671875,16.529297,22.851562
24.885742,25.863281,20.435547,19.549805,23.720703
20.859375,26.341797,19.517578,22.589844,27.49121
21.324219,27.651367,21.004883,17.05957,28.572266
21.989258,29.40332,19.208984,17.392578,28.672852
24.121094,30.93457,21.235352,16.261719,29.375977
23.713867,25.33789,18.94336,14.949219,23.268555
20.614258,21.131836,18.547852,18.251953,20.236328
18.00879,19.326172,17.385742,20.956055,19.230469
17.742188,17.794922,17.141602,20.478516,18.330078
15.69043,16.545898,15.895508,16.780273,16.301758
10.90918,14.719727,14.225586,13.188477,11.194336
9.319336,12.692383,9.500977,9.220703,9.93457
9.791016,13.166992,9.939453,6.2158203,8.137695
7.46875,12.955078,9.270508,4.9833984,7.8720703
7.2734375,11.720703,6.477539,4.4677734,7.3808594
8.249023,13.890625,5.051758,5.510742,12.737305
8.901367,15.56543,10.663086,9.287109,15.401367
8.744141,14.904297,9.010742,9.080078,16.09961
8.181641,17.514648,5.5947266,8.588867,14.1953125
5.1396484,16.335938,5.5898438,7.8984375,11.413086
4.205078,11.759766,5.3916016,7.4492188,9.258789
4.21875,11.708008,4.071289,5.1679688,8.193359
5.294922,11.318359,3.2333984,5.2226562,7.194336
5.4091797,11.081055,10.126953,5.3583984,10.447266
10.883789,10.016602,10.477539,9.258789,11.461914
11.969727,13.393555,10.104492,9.214844,11.071289
11.084961,14.62793,9.147461,8.222656,10.894531
8.764648,13.326172,8.932617,8.748047,10.2109375
11.104492,12.920898,10.234375,10.449219,10.068359
11.8046875,12.128906,11.124023,10.790039,9.700195
11.253906,12.1953125,9.988281,9.698242,9.936523
11.887695,11.213867,8.337891,8.519531,11.162109
12.299805,10.479492,7.7841797,8.395508,10.998047
10.576172,8.980469,10.347656,9.505859,9.926758
11.125,13.612305,5.1083984,7.6660156,10.411133
6.2070312,11.555664,5.9521484,6.7304688,10.557617
7.4785156,12.768555,6.5546875,5.692383,8.81543
9.498047,14.141602,5.5322266,3.600586,11.811523
10.544922,16.09961,4.03125,4.4189453,13.395508
7.904297,16.521484,5.15625,6.75,12.116211
8.389648,11.176758,8.317383,7.489258,10.232422
6.6816406,10.798828,7.5966797,7.3066406,9.428711
5.850586,9.337891,5.3916016,6.5771484,7.1835938
6.401367,12.173828,4.78125,5.9677734,9.435547
5.227539,11.15332,5.9335938,5.779297,8.298828
6.279297,9.1953125,5.564453,6.073242,8.415039
6.0185547,9.170898,3.5458984,6.0996094,6.7285156
5.5253906,5.955078,5.9716797,6.046875,8.1953125
5.9296875,6.7382812,7.5820312,5.9804688,7.4160156
5.7333984,8.689453,7.4052734,5.8720703,7.205078
4.618164,11.40625,4.086914,5.0898438,6.1689453
4.995117,9.549805,4.1054688,4.5546875,6.0791016
4.4804688,10.103516,3.6074219,5.2978516,7.0302734
4.263672,8.214844,4.2871094,5.993164,5.6083984
5.7539062,5.8027344,1.6523438,5.9248047,5.435547
7.239258,9.119141,6.3320312,5.4384766,9.15625
11.142578,12.7109375,9.276367,7.3652344,10.556641
11.026367,8.805664,7.993164,6.7285156,9.37793
5.944336,9.250977,4.1328125,3.4970703,6.3789062
5.2460938,12.912109,2.9541016,3.1972656,9.310547
4.029297,11.029297,3.4189453,3.6826172,6.1640625
2.2324219,4.448242,3.2509766,3.0683594,3.6074219
3.2001953,4.109375,3.2216797,3.3242188,4.169922
4.533203,3.0478516,2.8173828,2.586914,5.083008
5.2314453,2.4072266,2.8105469,2.4609375,3.8916016
5.3935547,4.583008,4.5820312,3.3027344,4.1083984
6.118164,4.834961,4.796875,5.501953,3.2646484
5.959961,5.870117,4.4404297,5.4941406,3.305664
6.361328,7.2626953,3.8486328,6.0859375,4.841797
6.9453125,8.69043,3.7480469,6.216797,7.399414
8.347656,11.176758,2.584961,6.620117,9.90918
9.19043,13.824219,4.5097656,7.830078,13.061523
9.1796875,13.47168,5.973633,10.794922,12.916016
9.157227,12.139648,7.7509766,10.700195,12.009766
11.099609,15.130859,7.9658203,6.823242,15.349609
13.0625,18.25,15.155273,13.186523,16.152344
13.533203,19.532227,20.52832,19.158203,17.371094
16.581055,19.561523,22.6875,18.149414,18.39746
16.86914,17.442383,15.879883,15.499023,16.516602
22.03125,19.18164,19.795898,20.235352,19.416016
22.74414,21.104492,20.548828,22.791992,20.949219
21.03125,20.154297,23.086914,25.036133,20.086914
22.723633,21.368164,23.618164,23.083984,18.993164
21.923828,21.97461,24.40625,22.319336,21.78711
23.05371,22.723633,21.490234,21.82129,21.707031
23.833984,22.935547,21.238281,20.348633,21.379883
20.297852,22.555664,17.41504,17.399414,19.71875
20.316406,21.44336,18.35254,17.707031,21.131836
19.955078,20.831055,19.123047,19.079102,22.07129
20.125,18.80371,16.351562,16.605469,19.107422
17.256836,19.905273,16.092773,15.129883,17.36914
15.716797,19.490234,12.749023,12.197266,15.366211
16.55664,17.666016,13.678711,13.923828,15.308594
16.554688,16.464844,13.191406,13.386719,16.605469
18.644531,18.942383,8.49707,13.100586,19.43457
20.549805,18.836914,13.580078,14.296875,19.347656
19.44336,16.774414,13.301758,14.05957,17.823242
19.052734,16.357422,12.980469,13.510742,17.359375
17.802734,15.076172,5.484375,5.7285156,15.236328
14.386719,13.900391,2.9355469,3.2519531,13.438477
12.494141,12.634766,5.4609375,3.4365234,12.680664
14.108398,12.787109,11.388672,10.310547,13.923828
15.042969,12.548828,13.517578,14.75,14.211914
17.194336,15.272461,16.332031,16.357422,18.603516
19.466797,15.912109,17.179688,21.115234,19.21582
19.905273,15.083008,16.941406,18.410156,18.08496
18.615234,15.291992,13.861328,15.927734,16.439453
17.404297,17.801758,12.024414,15.748047,16.588867
14.556641,19.126953,14.952148,12.703125,17.194336
14.291992,17.004883,18.69629,14.145508,17.683594
17.475586,21.683594,17.801758,15.692383,22.43164
19.498047,24.066406,16.61621,17.332031,24.793945
22.264648,30.801758,23.986328,21.09961,30.80664
25.632812,29.19043,25.367188,26.836914,28.46875
23.617188,26.500977,18.401367,23.561523,20.740234
18.606445,25.453125,21.248047,20.839844,21.585938
17.524414,23.078125,21.222656,23.249023,20.249023
15.520508,21.580078,19.914062,18.374023,19.081055
18.762695,22.253906,16.711914,17.661133,19.332031
19.945312,22.945312,18.558594,19.078125,23.061523
23.15039,24.597656,21.470703,20.367188,25.361328
24.808594,24.516602,19.788086,19.266602,25.425781
20.954102,22.94043,17.56836,17.359375,22.583008
18.86621,21.96875,18.573242,17.614258,20.663086
17.038086,20.126953,13.81543,13.891602,17.483398
15.990234,15.8515625,11.199219,12.512695,13.305664
11.8671875,13.086914,8.759766,9.083984,8.425781
9.116211,10.321289,3.1542969,6.3759766,11.287109
12.131836,14.196289,13.163086,13.732422,13.326172
9.238281,15.249023,9.186523,13.060547,14.712891
12.1015625,17.40039,11.288086,10.052734,14.477539
16.636719,20.42871,11.362305,12.8203125,15.716797
20.356445,20.985352,10.705078,14.042969,18.392578
18.236328,17.496094,11.458008,14.103516,18.146484
15.365234,16.69336,15.712891,13.923828,17.798828
15.143555,17.251953,14.891602,15.834961,20.28418
16.857422,16.486328,16.27246,16.875,20.286133
17.08496,18.97168,15.1875,16.517578,18.189453
14.22168,17.69043,14.939453,13.294922,15.805664
12.987305,15.05957,12.588867,11.40625,13.931641
12.470703,13.900391,11.636719,8.946289,12.668945
11.865234,15.125,11.619141,8.212891,14.967773
16.18457,21.711914,10.393555,10.282227,22.16211
18.164062,21.045898,14.612305,14.881836,22.423828
18.626953,20.895508,16.64746,15.203125,22.300781
18.689453,23.175781,17.481445,16.798828,20.015625
15.057617,19.501953,16.643555,14.988281,16.92871
14.871094,20.49414,15.3515625,13.092773,18.667969
14.217773,20.458008,12.542969,12.044922,18.27539
14.290039,17.8125,15.755859,14.203125,16.75586
14.400391,17.549805,11.755859,13.930664,14.532227
16.764648,14.774414,14.475586,14.661133,15.786133
17.004883,15.1640625,14.7265625,15.685547,14.893555
16.90918,15.564453,17.660156,16.992188,13.514648
19.93164,19.848633,17.050781,17.951172,19.68164
19.892578,20.007812,14.515625,15.928711,19.039062
17.768555,19.194336,13.689453,15.4765625,17.326172
14.412109,18.396484,10.399414,13.93457,15.697266
9.119141,14.862305,8.133789,8.401367,11.512695
11.013672,10.279297,6.9140625,7.915039,10.980469
12.393555,11.725586,9.108398,8.489258,12.387695
11.208008,16.220703,9.631836,8.798828,16.029297
14.1015625,20.148438,14.3828125,12.788086,21.43457
16.014648,20.444336,17.164062,12.126953,21.341797
15.643555,16.63379,16.387695,14.802734,15.109375
16.170898,11.580078,13.592773,13.9140625,11.144531
13.682617,11.8984375,13.307617,11.575195,8.4765625
13.771484,12.146484,13.829102,11.631836,12.214844
13.495117,12.145508,14.154297,13.073242,12.517578
11.555664,11.0546875,12.868164,10.207031,11.338867
7.676758,14.599609,8.688477,7.904297,11.177734
10.513672,17.680664,11.099609,8.268555,15.651367
12.3125,18.87207,18.541016,16.3125,18.231445
14.583008,18.805664,14.961914,16.100586,18.707031
13.810547,15.040039,14.18457,13.919922,14.235352
15.580078,17.368164,14.40625,18.335938,18.769531
18.439453,22.085938,13.823242,17.814453,25.22754
19.25,22.582031,21.107422,19.325195,25.271484
16.33496,20.94629,20.829102,19.013672,23.058594
16.100586,19.199219,14.586914,11.709961,18.907227
13.1328125,10.933594,9.707031,8.295898,9.400391
9.798828,10.287109,8.663086,9.09668,7.3496094
8.426758,11.714844,7.5615234,6.4472656,7.3125
12.499023,9.899414,14.238281,12.586914,11.527344
13.6328125,10.354492,14.731445,12.888672,12.548828
13.0078125,15.183594,13.331055,15.359375,12.021484
9.672852,15.133789,10.6328125,7.484375,11.989258
9.363281,15.894531,9.9921875,11.876953,14.453125
10.303711,20.701172,9.163086,12.142578,15.806641
11.819336,20.95996,12.009766,9.560547,18.124023
16.976562,23.689453,15.811523,13.405273,21.097656
20.524414,25.652344,21.237305,21.555664,23.751953
23.691406,23.003906,22.07129,22.89746,23.947266
20.29004,19.826172,22.802734,21.045898,17.89746
13.543945,19.361328,13.996094,12.87207,19.479492
15.3203125,22.802734,16.944336,15.144531,23.776367
19.204102,25.235352,19.582031,18.945312,24.65918
21.624023,24.989258,21.176758,22.021484,24.335938
24.28418,22.84668,22.33789,21.481445,23.173828
24.89746,20.989258,24.313477,23.683594,21.529297
23.75,20.479492,24.112305,23.414062,22.62207
21.77539,21.00293,21.575195,22.46875,22.589844
21.201172,22.260742,23.335938,23.850586,23.657227
21.756836,25.261719,24.466797,20.951172,27.829102
