"[299, 255]","[227, 248]","[287, 319]","[279, 328]","[230, 262]"
11.027344,17.845703,8.427734,6.241211,13.640625
11.801758,16.637695,12.234375,7.9277344,15.401367
13.12207,15.861328,12.913086,11.029297,15.69043
14.517578,18.15625,13.511719,13.451172,19.014648
19.172852,18.489258,14.379883,14.248047,17.18164
15.108398,16.320312,14.689453,10.863281,17.045898
12.625,14.303711,8.271484,10.825195,14.578125
13.955078,13.008789,6.9160156,9.424805,12.416992
13.126953,12.713867,7.2089844,8.869141,7.876953
11.834961,5.9277344,6.129883,7.348633,6.091797
11.52832,9.833984,6.8876953,4.908203,8.2578125
13.53125,12.689453,11.542969,11.947266,12.703125
15.208008,16.038086,14.613281,13.475586,16.824219
13.973633,16.97754,13.524414,14.035156,16.730469
11.549805,17.323242,12.295898,9.331055,15.360352
11.516602,14.963867,15.357422,10.5,14.019531
10.21582,13.982422,11.794922,7.654297,11.4765625
9.850586,14.875,8.869141,8.680664,11.157227
11.223633,15.206055,11.041016,10.006836,11.675781
13.772461,13.224609,15.170898,13.859375,14.250977
13.182617,11.902344,15.865234,13.819336,13.183594
10.733398,15.313477,12.794922,11.776367,13.014648
9.235352,14.091797,7.448242,7.1708984,12.188477
10.8203125,16.69629,9.272461,7.416992,16.84375
14.189453,20.711914,10.004883,10.650391,18.552734
17.173828,25.168945,16.216797,16.642578,22.483398
23.248047,25.835938,19.061523,19.5,24.908203
25.399414,26.9375,19.482422,19.84668,26.311523
26.112305,17.381836,20.921875,20.399414,19.253906
16.820312,16.235352,15.919922,14.712891,15.058594
11.616211,16.514648,15.107422,9.720703,17.666992
10.782227,15.107422,7.7148438,7.279297,12.500977
10.635742,17.99707,26.554688,7.2783203,13.454102
11.888672,21.00293,11.311523,7.6083984,16.357422
12.791992,16.707031,11.47168,9.431641,15.732422
12.785156,19.136719,13.106445,13.317383,17.706055
15.515625,15.925781,14.634766,14.373047,17.91211
12.1640625,17.110352,13.616211,12.600586,17.932617
11.222656,17.82129,10.319336,9.384766,14.863281
12.3125,14.723633,11.741211,7.7490234,11.288086
11.024414,13.9453125,9.639648,5.4521484,10.244141
10.661133,11.989258,7.591797,6.3310547,9.1875
8.561523,13.844727,5.4433594,6.9501953,12.268555
11.166016,19.50879,14.131836,15.393555,19.955078
16.75879,19.856445,15.915039,16.441406,21.899414
17.28125,20.654297,17.19629,16.240234,20.952148
13.063477,17.889648,13.793945,13.0,16.34082
13.995117,18.345703,10.59668,10.910156,16.08496
13.611328,19.00586,9.071289,9.199219,14.677734
11.2578125,17.860352,9.306641,10.392578,15.282227
13.211914,17.265625,12.461914,10.599609,16.918945
16.069336,15.744141,15.236328,13.3359375,16.891602
16.67871,15.249023,17.09961,14.206055,16.548828
14.294922,15.338867,14.881836,14.267578,15.633789
10.036133,16.74121,12.90625,11.263672,11.614258
9.201172,16.347656,13.263672,13.511719,11.600586
7.8447266,15.118164,9.87793,13.146484,10.703125
7.826172,14.80957,6.7197266,12.358398,10.004883
10.547852,19.545898,13.035156,9.788086,12.418945
15.498047,19.985352,16.163086,17.007812,16.58496
19.921875,20.951172,16.410156,16.049805,19.260742
19.5,18.526367,13.0078125,14.636719,18.03418
16.185547,19.132812,15.124023,13.182617,17.605469
15.68457,18.414062,11.2890625,13.201172,17.242188
15.0546875,14.651367,8.384766,8.638672,11.084961
10.870117,17.020508,4.272461,6.439453,10.831055
14.240234,19.262695,6.5117188,8.904297,17.726562
15.568359,19.385742,14.001953,10.995117,20.024414
17.023438,21.285156,14.011719,13.699219,20.264648
20.276367,23.03418,13.439453,15.708984,20.487305
22.710938,26.044922,16.146484,17.667969,21.945312
22.925781,26.862305,18.126953,18.323242,24.169922
20.836914,19.605469,18.118164,16.373047,20.189453
20.237305,22.444336,13.955078,14.385742,19.762695
18.15039,24.233398,12.211914,13.262695,22.111328
23.704102,24.641602,17.575195,18.464844,23.08789
23.920898,23.104492,22.1875,19.3125,22.536133
22.867188,17.825195,17.875,19.739258,16.423828
18.07129,13.295898,11.52832,13.485352,8.957031
15.921875,16.890625,8.193359,8.993164,13.875977
15.12793,15.890625,5.185547,5.7070312,15.185547
16.435547,17.892578,7.0273438,8.763672,16.669922
17.342773,23.222656,10.878906,11.579102,20.84961
19.194336,24.387695,14.9921875,14.193359,22.368164
21.03125,21.550781,20.110352,18.945312,21.796875
15.500977,19.018555,18.121094,16.146484,21.884766
13.935547,21.098633,12.401367,12.114258,18.469727
18.773438,20.041016,13.022461,13.5390625,16.617188
13.777344,19.25293,15.084961,15.629883,13.441406
13.713867,15.239258,10.775391,8.334961,12.100586
15.807617,9.987305,12.467773,10.50293,6.1757812
15.374023,7.959961,14.316406,11.871094,10.021484
8.683594,9.542969,12.858398,11.59082,11.050781
5.251953,8.80957,10.833008,10.239258,9.566406
6.001953,7.1015625,6.4541016,6.09375,4.7753906
6.368164,5.133789,3.3740234,4.4296875,3.540039
6.2871094,3.3457031,4.0742188,4.446289,2.8603516
7.345703,10.2109375,6.520508,3.6982422,8.366211
9.989258,10.599609,6.444336,7.663086,8.459961
10.084961,11.875,7.576172,8.878906,12.328125
10.826172,12.986328,9.494141,11.008789,14.4375
10.750977,12.501953,8.302734,7.642578,13.655273
9.003906,11.342773,3.9511719,5.5507812,11.704102
6.338867,8.40625,5.3222656,6.166992,8.041992
3.7109375,7.276367,4.428711,6.205078,4.9189453
3.1113281,6.4003906,1.7099609,4.3808594,4.966797
3.6142578,5.7958984,2.7285156,4.040039,5.5664062
6.908203,6.286133,8.152344,5.251953,8.681641
8.855469,9.636719,11.77832,9.711914,11.324219
7.5839844,8.993164,11.78418,9.683594,11.303711
4.3251953,11.108398,5.095703,5.1953125,8.061523
3.921875,14.463867,3.3398438,4.4902344,8.827148
7.0097656,21.507812,3.765625,4.9746094,20.17871
15.963867,22.771484,14.912109,16.051758,19.610352
16.000977,22.926758,17.746094,15.728516,20.05957
18.628906,20.655273,18.326172,15.234375,20.739258
18.863281,18.091797,17.016602,16.319336,18.935547
16.797852,14.533203,15.910156,14.633789,15.207031
11.461914,10.611328,7.3847656,10.154297,3.7763672
4.0058594,7.185547,4.482422,6.6015625,4.2539062
5.2529297,9.298828,4.071289,5.8085938,6.1816406
8.399414,15.625977,4.0009766,6.819336,9.222656
13.883789,19.717773,13.777344,12.81543,19.384766
18.238281,25.106445,17.442383,16.61621,23.575195
19.169922,25.958008,21.371094,20.379883,26.240234
19.297852,25.94043,19.945312,23.24707,26.666992
18.234375,22.68457,20.17871,18.575195,22.608398
17.538086,13.337891,7.461914,10.808594,10.338867
13.998047,13.765625,7.504883,9.15625,9.605469
10.147461,13.274414,6.7529297,7.9140625,8.68457
8.62793,12.71582,4.7773438,9.772461,11.765625
12.737305,12.916016,13.630859,12.725586,14.09082
13.227539,12.328125,15.764648,14.370117,13.581055
13.796875,15.717773,12.472656,11.987305,11.864258
9.073242,17.09082,12.802734,9.935547,13.931641
9.462891,16.530273,14.826172,7.6416016,15.53125
10.285156,17.12793,9.944336,8.573242,14.535156
10.001953,18.982422,9.978516,8.691406,14.1796875
11.685547,19.246094,16.05371,13.919922,17.310547
16.661133,17.50586,17.777344,18.192383,19.138672
17.848633,19.526367,18.847656,17.424805,18.97754
16.358398,15.779297,14.041016,16.026367,17.31836
10.540039,16.177734,8.833984,9.863281,12.385742
9.514648,14.847656,8.630859,5.9697266,10.223633
9.928711,12.483398,13.083008,9.220703,9.571289
11.253906,12.962891,8.426758,9.378906,9.8515625
15.110352,15.018555,9.708008,7.1728516,10.608398
14.667969,14.407227,10.771484,11.5859375,14.4765625
19.423828,14.734375,18.91504,17.601562,17.24707
18.43164,15.328125,18.676758,18.07129,15.713867
12.839844,17.021484,9.347656,11.907227,11.779297
11.115234,16.66504,12.236328,12.953125,14.636719
11.510742,17.365234,9.345703,13.93457,15.264648
11.430664,15.654297,9.607422,10.2890625,13.394531
12.405273,15.779297,13.744141,15.162109,15.856445
18.538086,16.973633,15.032227,16.810547,17.625
20.24414,16.332031,15.7265625,17.08789,18.257812
20.036133,17.949219,16.50586,15.59668,19.83496
11.639648,16.75,12.540039,10.879883,13.711914
11.048828,16.490234,9.146484,10.944336,15.848633
11.984375,16.686523,9.819336,7.495117,17.05664
11.594727,20.521484,5.8271484,7.001953,18.02832
9.450195,20.49707,8.84375,9.594727,19.38086
17.85254,19.206055,12.135742,12.675781,19.357422
18.192383,20.204102,17.316406,16.22754,19.481445
17.935547,16.617188,14.53418,16.544922,18.666992
13.594727,19.138672,11.489258,14.008789,18.493164
10.901367,19.53711,11.457031,11.508789,17.614258
6.807617,19.358398,7.038086,9.7578125,15.93457
7.2265625,14.06543,5.6152344,7.8320312,13.0078125
6.397461,10.368164,5.0722656,7.2841797,12.34082
11.163086,10.862305,9.214844,8.439453,12.1953125
12.175781,11.519531,11.211914,10.9296875,11.651367
12.248047,8.899414,11.2734375,11.449219,9.852539
10.15332,9.864258,9.12207,7.4882812,7.5751953
9.49707,12.6328125,8.7890625,10.3984375,11.301758
12.875,13.295898,10.884766,11.708008,11.352539
12.686523,13.270508,9.825195,10.592773,11.495117
12.576172,12.582031,7.254883,11.141602,11.958008
11.55957,11.876953,10.575195,12.146484,12.063477
12.685547,9.981445,10.80957,12.355469,13.177734
13.954102,9.114258,10.563477,12.985352,12.09082
12.84375,12.015625,11.708984,13.154297,12.0703125
13.345703,13.595703,11.970703,11.567383,11.833008
13.532227,12.780273,10.841797,10.540039,9.78125
13.767578,12.068359,10.473633,10.538086,9.874023
14.03125,11.294922,11.795898,11.211914,11.474609
14.77832,11.334961,13.621094,11.787109,11.87207
15.094727,10.268555,14.4296875,13.061523,12.00293
14.799805,6.008789,14.102539,12.633789,10.538086
13.333008,6.3242188,11.605469,10.81543,7.720703
11.620117,7.4941406,10.207031,7.9277344,8.486328
10.151367,8.71875,9.359375,7.7460938,9.074219
9.995117,9.567383,9.484375,8.689453,8.15625
10.542969,11.949219,11.738281,9.959961,12.985352
11.736328,12.869141,15.035156,13.467773,14.658203
14.573242,14.40625,15.943359,19.94043,16.560547
14.663086,14.8046875,19.103516,19.825195,17.228516
12.260742,14.431641,17.510742,16.234375,14.116211
13.6640625,13.311523,11.72168,10.204102,11.508789
10.387695,13.15332,10.274414,12.446289,10.47168
10.357422,13.375977,13.499023,13.322266,10.797852
14.959961,15.200195,16.389648,16.55664,16.38086
18.611328,14.698242,18.086914,17.495117,16.589844
17.707031,13.638672,18.77832,16.957031,15.037109
17.58789,12.691406,17.620117,16.55664,13.993164
15.702148,12.374023,13.883789,12.911133,12.827148
14.775391,13.337891,12.545898,12.8359375,13.1484375
15.298828,12.677734,11.432617,11.296875,12.703125
16.826172,12.216797,10.488281,11.566406,12.649414
14.865234,12.423828,9.839844,11.59668,12.829102
15.046875,11.608398,12.024414,13.753906,14.890625
15.008789,10.461914,13.473633,12.723633,14.912109
14.194336,10.173828,13.061523,11.802734,13.441406
14.202148,11.939453,9.666992,10.118164,13.777344
14.149414,12.216797,11.362305,11.295898,13.745117
14.291016,11.84082,11.365234,11.727539,13.015625
14.061523,12.558594,12.021484,12.167969,14.625977
15.428711,14.640625,12.306641,12.238281,16.956055
16.384766,14.56543,12.626953,11.755859,16.99121
16.243164,12.2890625,12.936523,12.082031,17.249023
14.643555,12.18457,12.791992,11.919922,15.356445
13.1328125,11.799805,11.714844,11.598633,10.677734
12.511719,10.428711,11.504883,11.25,10.24707
12.418945,9.2265625,10.708984,11.168945,10.594727
11.475586,9.217773,8.798828,10.916016,9.744141
10.426758,9.540039,8.417969,9.299805,10.864258
10.625,9.349609,8.772461,9.7578125,10.819336
10.841797,8.258789,11.338867,11.432617,10.300781
11.128906,6.1503906,11.628906,11.9453125,9.545898
11.514648,10.088867,9.314453,10.548828,9.737305
11.275391,8.639648,9.629883,9.115234,9.911133
10.1015625,10.621094,14.3828125,8.87793,12.668945
14.2734375,10.4609375,12.641602,10.969727,13.78125
15.837891,10.532227,15.59668,15.1796875,14.519531
14.419922,13.932617,20.351562,19.958008,16.299805
19.99121,16.305664,21.19043,24.908203,17.86914
18.063477,15.038086,19.884766,20.958984,16.063477
17.173828,18.851562,17.322266,19.19629,17.511719
17.951172,19.214844,18.8125,19.179688,18.939453
