"[299, 255]","[227, 248]","[287, 319]","[279, 328]","[230, 262]"
16.731445,21.972656,15.669922,17.59082,20.155273
17.78711,20.027344,14.470703,14.626953,15.984375
13.802734,19.660156,16.760742,16.644531,14.175781
16.88379,20.623047,21.168945,21.003906,19.216797
18.503906,17.58789,19.785156,21.3125,18.07129
17.39746,17.61621,16.356445,18.094727,19.143555
10.913086,15.797852,14.795898,16.68164,11.303711
10.9765625,12.438477,14.489258,14.128906,8.84668
6.654297,10.102539,11.546875,8.776367,5.408203
7.1220703,10.376953,3.2958984,5.803711,6.392578
10.237305,12.3671875,4.0976562,6.625,7.958008
16.046875,16.442383,8.236328,12.672852,13.672852
21.389648,23.985352,13.249023,16.326172,17.826172
23.554688,25.189453,16.686523,17.832031,25.100586
23.625977,23.039062,17.582031,15.704102,24.509766
19.464844,19.483398,19.433594,14.015625,21.639648
17.84668,22.691406,17.300781,16.71875,22.124023
19.410156,24.398438,22.289062,19.155273,22.50879
19.36914,26.238281,21.180664,20.007812,23.611328
21.261719,26.77246,21.264648,21.975586,24.859375
21.799805,27.89746,22.36621,22.963867,26.235352
20.576172,27.34082,21.061523,21.058594,25.760742
18.05957,25.71289,22.167969,22.31836,23.282227
19.610352,27.351562,23.850586,22.231445,26.198242
21.00879,27.485352,22.620117,23.513672,25.52539
20.125,27.105469,25.828125,26.319336,26.726562
22.979492,27.631836,27.12207,26.861328,27.02246
24.043945,26.105469,24.841797,25.773438,27.894531
26.22461,25.21582,25.401367,26.470703,24.180664
25.213867,18.535156,23.70996,22.625977,19.638672
20.898438,18.392578,19.408203,18.65918,15.783203
19.211914,17.573242,14.157227,14.317383,14.267578
14.423828,14.500977,11.682617,10.00293,11.649414
11.427734,14.525391,9.171875,5.915039,13.955078
13.806641,12.4921875,8.09668,12.734375,13.231445
12.103516,12.245117,11.381836,14.610352,11.84375
12.589844,11.933594,11.379883,13.785156,12.457031
13.591797,10.768555,10.716797,10.236328,10.084961
10.714844,12.056641,10.393555,10.611328,11.245117
8.545898,14.785156,5.9726562,5.7890625,16.56836
11.149414,15.55957,9.767578,8.474609,18.773438
11.022461,16.076172,12.829102,7.388672,19.206055
11.016602,16.541016,14.728516,7.510742,20.055664
12.27832,16.22754,9.894531,7.932617,21.16211
12.251953,14.9296875,8.583984,11.220703,20.498047
10.923828,14.826172,14.047852,13.8828125,17.78711
11.388672,13.419922,14.110352,13.629883,15.6953125
12.263672,13.524414,11.998047,12.22168,14.1875
12.02832,18.160156,13.503906,12.397461,14.358398
18.992188,18.857422,14.894531,13.388672,16.188477
16.149414,18.223633,14.761719,12.642578,14.859375
17.652344,19.228516,15.161133,13.762695,16.524414
16.666992,16.615234,15.201172,15.838867,15.628906
15.84668,15.347656,14.871094,14.953125,14.994141
14.4140625,15.833008,14.90625,13.614258,13.760742
15.452148,15.3515625,12.402344,12.988281,10.707031
14.963867,13.228516,11.496094,10.579102,9.686523
11.196289,11.675781,11.493164,10.947266,7.9941406
10.776367,10.988281,7.267578,10.9375,7.205078
11.462891,10.167969,11.0859375,12.230469,9.602539
11.205078,9.227539,12.498047,13.03418,9.680664
11.28125,7.3632812,10.529297,11.080078,7.8935547
9.491211,8.092773,7.2177734,9.700195,4.0039062
7.2558594,6.9873047,3.9765625,6.048828,2.4326172
4.7402344,2.8427734,4.850586,5.1416016,3.4013672
4.286133,3.8916016,3.6894531,2.8320312,3.4189453
4.6835938,5.591797,2.7890625,4.076172,3.9980469
4.354492,7.3867188,2.7304688,4.881836,6.2373047
5.3583984,9.53125,5.8271484,4.4785156,9.733398
5.234375,10.677734,5.885742,6.790039,9.405273
6.201172,10.998047,2.5742188,5.553711,8.683594
7.5371094,13.9765625,2.8964844,5.7402344,12.270508
9.251953,15.0859375,2.9335938,7.4960938,13.685547
10.927734,16.046875,8.819336,8.557617,14.1015625
12.452148,15.03125,9.799805,9.433594,12.892578
12.579102,20.204102,8.764648,9.305664,19.62207
11.045898,23.417969,7.2060547,8.124023,22.972656
9.647461,27.148438,12.598633,12.379883,21.987305
14.250977,23.454102,13.931641,12.041992,24.605469
14.587891,21.511719,11.635742,11.014648,18.238281
12.625977,20.717773,10.104492,10.90918,20.69336
11.212891,19.99707,8.352539,10.09375,16.575195
10.091797,17.535156,7.633789,9.3984375,14.519531
11.7890625,17.626953,10.233398,10.269531,15.233398
12.1796875,13.875977,11.163086,10.655273,14.602539
11.4375,12.40918,7.680664,8.847656,11.615234
6.5625,8.59668,6.5478516,6.7285156,6.4345703
5.8408203,7.1523438,5.459961,5.415039,4.723633
7.166992,4.3007812,4.958008,5.479492,5.251953
9.326172,4.7177734,3.6328125,5.1347656,5.227539
9.967773,4.5810547,3.8691406,4.125,3.211914
9.711914,4.3691406,2.915039,3.0576172,9.728516
8.670898,6.140625,8.591797,7.171875,9.730469
8.177734,8.294922,10.080078,8.480469,7.2597656
9.019531,7.290039,5.7089844,6.923828,6.276367
8.869141,8.245117,5.2783203,6.729492,6.560547
7.2402344,8.319336,4.7841797,5.8828125,6.1865234
7.2695312,8.098633,4.6572266,5.423828,4.3447266
10.426758,8.125,6.526367,4.779297,4.21875
11.641602,9.27832,9.235352,7.645508,6.8916016
11.326172,9.822266,10.310547,11.6171875,8.578125
8.84375,10.363281,8.782227,9.3203125,9.06543
7.8535156,8.600586,5.223633,4.8916016,6.583008
9.256836,8.185547,5.4140625,6.256836,6.102539
7.5410156,7.977539,5.6992188,6.080078,6.705078
7.334961,8.635742,4.9804688,4.591797,5.2558594
8.041016,10.095703,5.076172,4.352539,4.6064453
9.920898,11.480469,9.285156,9.760742,10.25293
12.40332,11.989258,12.201172,12.594727,12.613281
11.538086,13.230469,11.199219,12.681641,12.658203
8.374023,12.838867,6.2441406,5.908203,8.501953
8.583984,13.816406,6.2890625,6.4833984,8.556641
7.951172,12.388672,6.444336,5.7802734,7.1933594
7.586914,9.365234,6.540039,5.102539,6.8291016
7.8466797,9.504883,6.6015625,3.90625,7.330078
11.3828125,9.807617,4.4501953,4.2802734,10.758789
12.989258,11.066406,9.323242,4.876953,11.022461
10.991211,10.708984,4.3603516,5.850586,10.109375
5.790039,8.859375,4.5546875,4.120117,5.161133
4.6533203,6.4208984,4.6845703,4.1191406,3.734375
5.580078,7.711914,3.6669922,3.5273438,4.4746094
7.2753906,7.748047,3.1796875,3.3779297,4.6552734
7.5029297,7.4541016,3.2246094,3.8447266,4.6914062
6.7021484,8.137695,5.2753906,5.0039062,5.9970703
7.0566406,10.151367,7.5097656,7.1884766,7.080078
5.510742,10.676758,6.9941406,6.6210938,6.448242
6.0634766,11.300781,5.7333984,6.7714844,8.962891
8.306641,11.255859,5.629883,7.5117188,9.516602
9.883789,10.650391,5.7597656,7.995117,9.555664
12.212891,10.774414,6.2226562,8.614258,8.803711
13.307617,13.099609,6.366211,11.016602,10.02832
13.96582,14.707031,11.974609,13.610352,12.486328
15.31543,15.223633,13.828125,15.579102,13.18457
15.360352,14.669922,13.613281,14.443359,13.147461
23.186523,14.961914,15.816406,16.467773,13.514648
25.704102,13.231445,17.44043,19.495117,13.9140625
26.960938,13.576172,18.969727,19.30664,15.552734
29.114258,13.371094,21.59375,22.518555,19.128906
29.018555,17.35254,21.62793,23.845703,20.175781
29.52539,19.99414,25.06543,26.298828,19.079102
27.917969,19.701172,24.811523,24.579102,12.142578
23.670898,22.473633,15.176758,22.581055,16.948242
18.807617,13.420898,10.478516,18.865234,11.630859
12.516602,7.772461,8.426758,15.060547,5.661133
8.290039,6.1435547,4.5615234,9.676758,5.607422
8.15332,8.053711,5.3847656,6.7060547,5.3876953
5.567383,8.522461,5.411133,8.017578,5.461914
5.3583984,5.7822266,3.7109375,5.9882812,5.0927734
6.803711,4.533203,7.2353516,5.243164,4.294922
9.244141,1.7177734,7.6933594,6.245117,4.288086
9.5234375,3.7138672,7.607422,7.078125,3.3310547
6.7197266,3.3701172,5.4941406,6.013672,4.104492
6.798828,5.5117188,5.6884766,6.111328,4.7851562
7.8945312,6.392578,5.834961,5.1533203,4.65625
8.130859,9.338867,5.852539,4.666992,5.1708984
8.285156,10.238281,9.613281,10.759766,10.538086
12.370117,12.100586,10.902344,12.628906,10.9609375
16.365234,15.55957,10.767578,13.670898,11.144531
19.472656,20.499023,9.876953,13.719727,15.0
23.02246,23.327148,11.032227,16.145508,16.785156
24.856445,23.733398,14.714844,19.996094,20.518555
25.697266,26.245117,15.761719,21.292969,22.498047
26.261719,24.725586,19.478516,21.828125,23.639648
26.00586,22.086914,19.199219,20.566406,22.859375
24.07129,24.347656,19.128906,18.301758,23.676758
18.957031,24.77832,17.945312,19.53125,25.249023
15.6328125,22.55664,14.733398,15.458008,21.1875
12.817383,17.65039,13.744141,12.71582,16.487305
11.448242,16.129883,14.795898,10.989258,15.5390625
11.561523,16.735352,14.1328125,9.515625,15.875
15.8671875,19.574219,8.963867,12.094727,12.371094
17.609375,16.265625,13.769531,15.568359,13.503906
12.824219,13.56543,13.40332,14.9765625,14.657227
10.485352,12.131836,7.4091797,10.103516,14.916016
11.444336,10.946289,6.5859375,6.705078,11.0234375
12.200195,14.478516,9.985352,7.439453,11.0546875
14.800781,15.275391,9.199219,8.84375,12.112305
13.894531,13.543945,8.297852,8.984375,10.37207
19.84082,17.47461,10.654297,14.285156,15.553711
25.469727,30.000977,15.21875,19.892578,26.11621
25.307617,29.941406,20.640625,21.34082,27.52246
20.857422,21.25586,19.325195,19.956055,24.274414
14.652344,18.39746,18.865234,16.402344,22.013672
13.889648,17.177734,16.545898,14.6484375,20.448242
14.0234375,18.72168,13.410156,12.821289,18.830078
14.295898,14.977539,14.727539,11.988281,16.574219
12.616211,11.350586,10.863281,7.5498047,12.751953
10.095703,12.448242,12.955078,9.279297,14.6484375
13.25293,15.1796875,12.307617,11.983398,17.361328
11.84375,15.229492,13.041016,12.251953,17.237305
8.317383,12.427734,11.5390625,10.229492,13.189453
12.0859375,10.735352,10.764648,10.516602,7.913086
20.069336,17.53711,10.005859,12.330078,12.850586
24.700195,24.761719,17.660156,18.242188,23.58789
22.444336,28.34375,20.010742,17.389648,28.104492
26.345703,37.14258,24.12793,28.796875,37.58496
31.832031,37.89453,32.875977,33.614258,37.864258
29.713867,36.414062,33.026367,33.905273,37.00293
28.254883,31.134766,30.207031,28.421875,31.11621
19.061523,26.368164,25.831055,26.125,25.675781
13.892578,22.546875,21.867188,19.263672,22.576172
12.916016,15.216797,16.043945,17.117188,15.222656
11.416016,13.166992,16.02246,15.337891,15.286133
12.28125,15.714844,17.192383,15.693359,19.572266
17.195312,17.296875,16.19629,15.692383,20.637695
15.368164,18.220703,14.674805,13.24707,20.63379
12.949219,17.580078,13.198242,10.733398,15.949219
15.685547,16.608398,13.303711,10.02832,12.813477
12.5703125,16.073242,10.7109375,9.469727,13.453125
10.4921875,16.732422,13.203125,11.686523,14.364258
12.0234375,17.135742,14.668945,13.986328,15.182617
15.6015625,15.730469,12.967773,14.287109,16.420898
16.700195,15.364258,17.77539,14.7421875,17.00586
13.6015625,14.713867,15.951172,14.326172,15.982422
11.673828,15.886719,11.029297,9.014648,12.137695
9.859375,16.30664,7.004883,7.370117,16.254883
14.102539,19.362305,10.975586,12.501953,20.63086
17.30957,23.060547,20.054688,17.329102,24.296875
23.594727,24.789062,20.10254,18.574219,27.032227
23.575195,24.759766,22.65332,18.817383,26.110352
23.000977,24.667969,20.754883,18.769531,24.370117
23.592773,26.389648,19.079102,17.173828,26.175781
23.719727,25.728516,20.335938,20.00293,25.329102
21.039062,21.40332,21.612305,19.56836,20.90039
18.088867,16.086914,15.087891,12.412109,16.10254
15.683594,10.196289,8.352539,7.75,9.232422
12.388672,11.606445,7.8164062,5.3154297,11.694336
14.439453,14.739258,10.09668,10.374023,14.573242
13.104492,10.5859375,12.65625,11.600586,13.128906
7.6123047,7.2929688,11.324219,9.540039,11.1796875
12.907227,10.131836,6.8935547,7.817383,8.84668
20.076172,15.59668,11.46875,14.974609,10.869141
21.06543,19.288086,15.711914,15.936523,19.808594
20.874023,16.294922,16.073242,16.367188,17.666016
13.217773,15.2890625,14.701172,13.272461,13.628906
11.139648,13.246094,14.368164,13.9921875,15.369141
9.383789,11.235352,14.355469,13.354492,13.433594
7.09375,11.319336,9.738281,8.873047,10.8984375
10.045898,14.975586,4.625,5.536133,11.569336
10.149414,15.776367,5.0126953,7.0771484,12.449219
