"[299, 255]","[227, 248]","[287, 319]","[279, 328]","[230, 262]"
5.0439453,5.580078,1.9101562,2.4814453,5.1132812
5.036133,5.286133,2.8955078,4.286133,6.3251953
3.8759766,5.7285156,5.7958984,6.4990234,5.7441406
6.7822266,6.341797,7.6601562,8.447266,7.0839844
7.0078125,10.799805,7.538086,8.125977,8.714844
6.9765625,10.900391,6.8632812,7.0898438,8.962891
5.3027344,5.8242188,3.7626953,5.078125,3.6679688
5.9091797,5.352539,4.4853516,3.0732422,3.453125
3.3632812,3.1083984,2.444336,2.3095703,3.7636719
4.2646484,2.4824219,2.0771484,2.163086,3.071289
4.399414,2.0458984,2.5175781,5.642578,4.4492188
7.6347656,3.8740234,7.623047,9.722656,7.470703
7.303711,6.040039,10.954102,12.188477,8.663086
9.754883,7.8896484,12.400391,12.899414,8.301758
12.543945,11.3828125,8.7421875,10.167969,15.478516
11.519531,16.955078,6.5214844,7.173828,15.741211
7.3408203,15.720703,7.4521484,8.09375,10.324219
7.3320312,10.1328125,7.5859375,7.4804688,10.168945
9.3203125,11.19043,8.665039,10.1015625,11.87207
12.022461,12.62207,14.532227,15.56543,12.788086
16.595703,10.582031,15.131836,13.464844,12.0625
16.686523,11.34375,15.21875,14.305664,12.698242
9.296875,10.62207,9.044922,10.916992,10.393555
7.364258,10.180664,5.9316406,7.036133,10.345703
5.381836,7.689453,4.3476562,8.40918,7.6865234
4.2197266,11.063477,7.256836,7.352539,9.389648
7.698242,8.356445,9.163086,8.1953125,10.938477
9.6171875,9.897461,10.176758,8.955078,11.06543
11.337891,8.644531,10.8046875,8.512695,10.185547
9.03125,7.314453,8.1640625,7.7753906,8.019531
6.6259766,7.2421875,5.5390625,6.2802734,4.46875
2.413086,4.415039,4.107422,4.458008,3.0664062
2.7011719,2.9863281,3.305664,4.201172,3.149414
3.6728516,4.036133,3.8623047,4.5351562,4.953125
4.640625,4.4472656,3.4560547,4.4609375,4.5820312
9.149414,6.741211,7.3916016,7.7871094,8.151367
8.088867,7.1904297,10.063477,8.803711,8.405273
6.8564453,5.888672,6.9316406,7.6689453,6.0058594
5.274414,6.564453,6.0878906,6.142578,4.254883
8.191406,5.7529297,6.5478516,4.486328,5.861328
9.332031,7.765625,5.234375,6.0585938,6.7353516
14.430664,7.9433594,4.4414062,4.4296875,8.371094
16.296875,9.15918,9.251953,7.8867188,13.05957
15.754883,10.751953,13.874023,13.52832,13.198242
14.744141,15.360352,14.142578,13.399414,12.55957
14.287109,11.703125,15.15332,12.080078,11.782227
11.446289,10.599609,7.883789,8.795898,11.282227
7.841797,9.219727,4.7460938,5.848633,9.680664
6.7890625,8.134766,5.359375,6.5390625,7.4404297
6.46875,6.9228516,5.310547,6.296875,6.524414
9.768555,10.044922,8.331055,7.126953,10.577148
11.262695,10.067383,8.294922,9.299805,10.797852
14.262695,9.522461,10.603516,11.614258,10.650391
8.677734,10.370117,7.2265625,10.349609,10.495117
6.741211,10.235352,4.2978516,7.642578,8.727539
5.4785156,15.926758,4.2021484,4.4003906,11.390625
5.833008,10.276367,5.334961,5.8085938,6.495117
7.9628906,7.1123047,5.111328,6.182617,7.0439453
10.709961,9.266602,7.8085938,8.290039,10.708984
15.484375,11.736328,14.3359375,12.03125,12.537109
15.286133,10.230469,15.032227,17.257812,11.920898
15.654297,11.015625,14.541992,16.722656,11.9921875
10.217773,10.211914,7.375,8.415039,9.802734
8.217773,8.645508,6.720703,6.274414,9.003906
6.1289062,6.8740234,6.5117188,7.2890625,6.314453
4.8984375,5.9257812,4.810547,7.631836,4.897461
7.926758,8.019531,8.107422,8.34668,9.227539
12.1953125,7.8115234,12.636719,10.924805,11.759766
12.947266,11.348633,12.943359,11.461914,12.026367
12.5703125,11.064453,11.5078125,11.413086,12.453125
10.670898,9.229492,7.0546875,8.821289,6.6367188
4.260742,7.2978516,6.4140625,9.776367,6.446289
6.8154297,10.567383,6.564453,9.707031,13.230469
11.699219,15.375977,6.5039062,11.572266,13.269531
12.548828,15.4296875,11.44043,12.088867,14.279297
13.974609,15.824219,11.50293,14.385742,15.00293
13.783203,15.741211,14.003906,15.847656,14.011719
13.84082,12.384766,13.604492,15.001953,12.984375
11.672852,11.883789,11.25293,13.00293,12.873047
10.722656,12.74707,4.2021484,6.75,13.154297
9.761719,11.060547,5.763672,6.892578,12.760742
5.0810547,10.06543,2.8583984,2.413086,9.517578
3.515625,8.046875,2.5078125,3.6748047,8.376953
5.8203125,10.266602,6.495117,6.7783203,10.731445
6.666992,8.999023,5.854492,4.3564453,10.478516
6.5947266,8.1875,6.2958984,4.9453125,8.022461
5.038086,8.946289,5.395508,4.411133,7.736328
4.6621094,10.735352,4.040039,4.517578,5.8945312
4.513672,6.5078125,2.7207031,3.6083984,5.828125
4.0751953,5.661133,3.4082031,2.75,5.8945312
4.3203125,7.260742,2.4560547,4.680664,8.865234
5.620117,8.52832,4.75,5.263672,10.038086
8.049805,8.091797,8.357422,9.401367,9.546875
7.633789,9.628906,8.035156,9.90332,9.462891
8.321289,6.9570312,7.1396484,4.833008,4.3339844
9.385742,6.888672,7.538086,7.5898438,5.654297
9.642578,8.748047,7.479492,7.4628906,6.2841797
12.092773,6.5185547,7.7060547,6.1152344,11.71582
14.208008,6.482422,12.4296875,11.571289,15.472656
19.325195,8.058594,14.080078,14.240234,17.394531
19.40625,9.657227,17.613281,15.626953,15.202148
18.989258,9.356445,14.52832,14.1171875,13.771484
20.691406,7.692383,11.797852,10.387695,15.217773
19.860352,8.238281,11.198242,11.003906,16.623047
18.71582,11.270508,11.748047,6.046875,15.053711
19.600586,13.418945,11.713867,8.373047,14.336914
22.33789,15.244141,10.950195,7.788086,16.889648
21.963867,15.990234,11.066406,9.808594,16.045898
19.416992,14.37207,11.017578,10.849609,14.504883
15.6015625,13.108398,10.926758,10.8359375,13.927734
14.150391,11.197266,7.7285156,7.401367,12.785156
10.779297,9.821289,4.692383,5.145508,8.322266
8.1796875,6.4472656,2.6640625,2.7460938,5.5078125
4.6328125,4.8066406,3.649414,3.6396484,2.7324219
3.5039062,6.6132812,5.5283203,9.493164,6.982422
7.461914,9.875977,11.473633,7.9072266,10.707031
9.913086,9.641602,13.7421875,11.454102,11.478516
10.204102,6.0546875,11.6796875,12.358398,7.682617
7.635742,6.1621094,7.095703,8.388672,5.524414
3.227539,6.229492,3.3242188,6.828125,4.685547
4.796875,7.0566406,3.9414062,4.8085938,8.552734
5.4697266,6.5302734,4.419922,4.5966797,4.9814453
5.2109375,5.9833984,5.3916016,4.086914,5.895508
7.4541016,6.9101562,6.923828,6.805664,9.416016
8.456055,11.069336,12.21875,8.147461,10.057617
8.598633,11.799805,8.698242,8.642578,9.957031
8.584961,9.446289,8.610352,6.2734375,7.9677734
4.6621094,7.0810547,4.591797,3.7714844,6.569336
3.086914,6.5966797,3.2802734,3.4833984,5.326172
3.4423828,11.681641,2.5419922,3.3378906,5.2890625
7.6572266,10.029297,4.5097656,4.9628906,9.2421875
10.129883,9.616211,12.769531,7.3115234,10.52832
12.349609,7.169922,14.081055,10.833008,11.294922
12.029297,10.833984,7.1865234,8.581055,11.5
8.827148,10.905273,7.932617,5.1503906,13.6171875
4.9902344,9.360352,7.868164,5.142578,7.0039062
6.198242,7.401367,5.6748047,4.6933594,3.6777344
6.6552734,6.354492,4.0322266,5.7617188,4.979492
9.78125,11.430664,9.503906,9.543945,10.22168
14.410156,11.290039,9.7734375,10.4453125,9.944336
14.116211,9.642578,9.186523,13.510742,9.984375
9.7578125,4.783203,12.636719,10.245117,8.625977
12.359375,11.400391,12.899414,10.810547,7.4746094
10.7265625,11.491211,11.836914,11.318359,12.121094
14.432617,13.930664,10.594727,5.868164,13.919922
14.824219,13.055664,8.910156,4.213867,15.37207
13.907227,15.806641,13.725586,7.0390625,17.629883
15.621094,15.743164,15.120117,9.322266,18.092773
16.185547,12.1953125,13.745117,10.5703125,16.754883
16.963867,10.858398,12.27832,10.9921875,17.19336
16.661133,10.900391,10.272461,9.514648,15.350586
16.859375,10.615234,9.166992,6.2070312,13.939453
16.375977,9.227539,10.444336,7.307617,11.357422
14.84375,9.521484,8.551758,7.2558594,8.705078
13.589844,9.073242,8.762695,8.268555,8.816406
9.1328125,7.2177734,8.743164,7.6875,9.521484
7.4960938,7.508789,9.9296875,7.1689453,9.243164
8.758789,6.2851562,11.022461,6.1220703,9.231445
8.792969,6.020508,11.918945,6.189453,4.6523438
13.681641,3.961914,10.870117,10.439453,3.100586
12.7421875,4.5527344,11.513672,9.113281,3.2363281
12.625,6.4101562,11.505859,9.143555,4.263672
13.628906,7.0976562,13.357422,15.421875,8.116211
14.188477,9.302734,13.7734375,16.36621,10.830078
16.550781,16.634766,20.038086,17.667969,15.177734
16.59082,18.95996,17.84082,18.113281,16.453125
17.293945,13.723633,13.185547,15.979492,14.607422
11.386719,13.670898,12.178711,11.298828,12.149414
10.19043,12.245117,7.053711,7.5722656,9.513672
9.6171875,13.858398,8.042969,4.682617,9.962891
10.996094,12.916992,11.3359375,13.97168,13.857422
14.322266,21.155273,16.713867,14.089844,18.95996
15.332031,16.987305,18.1875,16.823242,22.202148
15.967773,17.538086,15.40625,13.709961,19.719727
13.055664,17.365234,10.884766,10.240234,16.688477
14.092773,17.264648,9.639648,10.31543,16.813477
14.28125,18.269531,11.759766,8.02832,17.789062
16.567383,14.472656,11.519531,11.533203,13.828125
16.805664,14.479492,13.1328125,11.291992,12.294922
15.146484,15.671875,15.196289,12.671875,18.40332
15.6328125,17.648438,16.967773,15.388672,19.530273
16.855469,18.608398,17.044922,15.180664,21.1875
14.930664,19.046875,15.6875,13.799805,20.632812
15.151367,19.625,14.681641,13.693359,18.90625
16.536133,19.853516,14.735352,10.124023,18.682617
16.921875,18.96289,13.338867,9.28125,18.71875
17.388672,18.123047,14.6640625,13.294922,17.05371
19.50879,16.325195,16.667969,14.453125,17.158203
20.226562,14.167969,18.302734,17.995117,16.558594
17.392578,15.069336,18.82129,15.579102,13.525391
11.957031,10.230469,14.149414,13.305664,9.888672
7.9404297,9.892578,7.517578,9.520508,6.314453
7.6279297,7.6689453,7.0966797,8.478516,6.229492
6.194336,6.908203,7.5947266,10.631836,6.2626953
6.3027344,6.861328,11.120117,10.678711,9.080078
9.223633,7.3916016,12.176758,12.200195,9.291016
10.829102,8.47168,14.905273,14.322266,10.012695
10.193359,8.091797,12.079102,11.660156,8.550781
8.77832,7.701172,6.9746094,7.8779297,5.7226562
5.0,5.9589844,5.107422,6.5634766,3.9228516
3.7949219,5.2851562,4.7666016,5.1591797,3.991211
3.25,4.569336,2.5517578,4.5410156,3.3115234
5.6328125,5.1816406,4.453125,5.0253906,5.748047
7.4257812,6.1279297,7.5390625,6.5439453,8.370117
8.230469,4.9003906,7.381836,8.9609375,9.074219
9.473633,3.9638672,9.667969,7.209961,9.060547
11.930664,2.633789,10.6875,6.631836,6.578125
13.972656,3.5253906,6.448242,6.0722656,7.3876953
15.613281,4.807617,8.176758,6.4248047,8.015625
18.74414,6.9052734,10.481445,5.6875,12.207031
18.496094,7.2529297,12.939453,8.138672,14.807617
16.498047,6.7666016,15.602539,12.295898,14.860352
15.706055,11.607422,16.621094,13.162109,14.466797
16.457031,10.56543,14.547852,12.457031,13.9140625
16.714844,9.466797,12.248047,8.788086,14.318359
17.555664,10.423828,10.81543,5.866211,13.594727
14.783203,12.839844,9.53125,6.9433594,14.527344
13.950195,13.814453,8.677734,12.240234,13.699219
24.27246,13.380859,11.505859,12.5859375,14.59668
27.738281,14.4921875,13.756836,11.396484,17.004883
27.628906,14.279297,13.712891,13.888672,17.870117
25.63086,13.075195,11.84375,13.786133,16.947266
24.757812,12.640625,8.4296875,11.558594,16.541992
24.44336,12.892578,7.109375,9.896484,15.390625
19.691406,13.667969,8.477539,4.305664,14.746094
19.418945,12.572266,4.294922,8.983398,12.106445
16.88379,9.602539,7.6777344,8.606445,11.111328
14.759766,10.348633,6.9785156,9.65625,11.34082
9.65625,7.848633,12.026367,11.233398,10.323242
10.31543,7.701172,12.301758,10.813477,9.452148
9.96875,6.310547,9.327148,7.0429688,7.9277344
8.615234,2.5791016,4.176758,6.973633,5.7109375
6.8007812,3.1601562,4.182617,6.1992188,4.4404297
6.0234375,2.9628906,6.6533203,6.1132812,3.5820312
9.458984,2.4052734,8.469727,6.8320312,5.0058594
12.290039,6.6396484,10.498047,9.364258,9.954102
14.341797,8.667969,10.308594,11.149414,11.685547
14.124023,5.807617,10.71582,11.112305,11.3359375
11.564453,8.461914,9.045898,9.239258,4.298828
10.389648,10.302734,10.654297,8.450195,6.836914
