"[299, 255]","[227, 248]","[287, 319]","[279, 328]","[230, 262]"
4.640625,8.443359,3.3945312,4.5039062,9.1484375
5.4960938,8.376953,3.381836,5.0341797,6.814453
6.7578125,9.2890625,5.2470703,6.0078125,10.245117
6.890625,10.0625,8.584961,10.246094,11.2578125
9.341797,9.849609,7.560547,6.763672,11.777344
12.119141,7.6132812,7.71875,9.407227,9.098633
9.65625,7.3828125,6.6992188,6.779297,7.060547
8.375977,7.4101562,6.694336,8.99707,5.348633
7.461914,11.763672,6.133789,9.107422,4.0683594
9.560547,10.741211,5.013672,5.1875,8.280273
9.697266,12.268555,5.8476562,6.7333984,11.081055
14.467773,11.520508,8.602539,9.977539,11.810547
15.785156,9.042969,10.113281,10.28125,13.094727
14.878906,9.368164,8.618164,6.364258,10.374023
12.06543,9.806641,7.0791016,5.600586,8.956055
7.5429688,7.586914,7.776367,6.5771484,5.486328
4.540039,5.145508,3.7207031,6.118164,5.290039
5.2353516,7.375,3.0957031,4.857422,4.5898438
6.6933594,8.479492,8.074219,6.0283203,10.691406
10.746094,11.831055,13.316406,11.342773,12.719727
12.894531,13.001953,13.389648,12.099609,13.154297
11.792969,14.663086,11.313477,11.495117,13.739258
11.176758,17.234375,8.9375,8.426758,17.894531
12.494141,15.288086,10.616211,12.191406,17.330078
13.120117,12.381836,11.125,10.875977,12.878906
13.172852,12.322266,8.3359375,7.881836,12.140625
15.366211,11.628906,11.5703125,8.921875,12.144531
15.035156,13.022461,13.049805,10.865234,14.2109375
14.3046875,14.136719,13.337891,12.042969,14.5546875
13.12207,14.237305,12.334961,11.313477,14.338867
10.53125,15.40332,10.276367,10.890625,12.998047
8.7890625,16.091797,8.1875,5.6210938,15.280273
11.161133,19.057617,15.020508,12.150391,19.161133
16.646484,19.916992,13.516602,15.250977,20.899414
19.320312,20.904297,15.25293,14.110352,23.03711
20.240234,20.916016,18.768555,14.707031,23.75879
20.118164,17.458008,18.507812,16.265625,22.20996
17.626953,16.145508,19.5,15.817383,15.900391
14.09668,14.228516,11.462891,14.8125,13.735352
7.71875,9.557617,7.279297,5.9228516,5.916992
6.5839844,5.8710938,7.239258,5.9804688,5.2353516
5.5410156,5.870117,3.4677734,4.057617,3.5820312
5.1083984,6.145508,8.211914,4.536133,7.0947266
8.642578,6.326172,9.699219,9.717773,9.90625
10.006836,6.7216797,7.895508,9.716797,10.231445
8.9296875,7.966797,8.097656,8.952148,9.311523
8.163086,8.28418,8.166016,7.426758,8.550781
5.2373047,6.544922,5.4970703,5.3623047,5.0566406
2.741211,7.40625,5.46875,3.0361328,5.0097656
5.301758,8.631836,3.0625,2.4824219,4.9560547
7.3027344,8.44043,4.541992,4.1552734,9.670898
8.064453,9.297852,10.22168,7.763672,11.817383
8.5078125,7.8359375,7.8710938,6.4091797,11.53418
7.4335938,7.5664062,6.0429688,5.2490234,10.830078
6.678711,2.6689453,9.24707,4.701172,6.100586
9.2265625,4.276367,9.099609,5.4726562,7.9277344
8.276367,4.439453,10.485352,5.3652344,7.0214844
7.926758,9.197266,11.5859375,3.25,7.1523438
12.043945,12.990234,12.8984375,8.0859375,9.707031
14.128906,12.84668,13.660156,15.015625,9.067383
13.939453,9.959961,13.4296875,13.321289,10.536133
12.116211,5.166992,9.0,5.8066406,10.536133
11.900391,7.649414,10.96875,7.663086,6.3710938
8.136719,9.616211,8.639648,7.673828,11.719727
7.044922,8.253906,7.5898438,5.1484375,6.9091797
8.295898,6.5927734,5.607422,5.4990234,5.7558594
8.333984,2.8925781,7.5078125,8.947266,6.048828
6.7441406,7.1796875,10.09375,12.643555,8.204102
8.634766,11.598633,16.598633,13.303711,9.219727
6.010742,7.727539,5.4453125,13.264648,11.824219
13.484375,9.978516,6.4804688,10.292969,11.489258
13.671875,9.522461,7.3759766,8.770508,9.4296875
10.888672,8.8671875,5.817383,7.751953,7.290039
6.979492,7.6748047,4.6992188,6.3916016,8.219727
5.767578,9.076172,5.1416016,8.8515625,10.612305
7.658203,9.155273,8.547852,9.96875,11.746094
7.8671875,9.234375,7.640625,9.123047,11.125
8.279297,8.557617,7.381836,8.69043,9.1328125
11.771484,8.592773,18.296875,7.419922,7.116211
12.2109375,6.270508,4.109375,4.830078,10.755859
11.777344,3.9179688,3.5888672,4.9882812,11.81543
9.503906,6.466797,3.4042969,5.423828,9.666992
7.9785156,7.2246094,4.1689453,8.439453,10.53125
7.1728516,7.3447266,6.4746094,8.504883,10.727539
7.548828,9.019531,6.6572266,7.1132812,10.7734375
6.9345703,9.18457,7.4052734,6.2460938,9.518555
12.055664,8.09375,7.5585938,5.607422,6.6777344
13.731445,7.6308594,6.953125,5.345703,5.0908203
12.9609375,6.854492,6.5839844,4.239258,5.8164062
9.239258,4.286133,4.28125,4.2822266,3.7646484
6.993164,3.819336,6.6591797,5.419922,7.323242
7.6533203,5.713867,8.197266,5.6875,10.707031
7.213867,6.9833984,8.09375,5.779297,10.150391
6.4140625,6.383789,6.6064453,5.4404297,7.651367
9.253906,6.4277344,6.3916016,6.080078,4.6865234
12.25293,5.0302734,6.6992188,6.203125,3.6621094
11.302734,4.7246094,4.939453,5.3242188,3.5576172
3.8710938,3.8652344,2.6904297,4.2890625,2.694336
4.4248047,2.7402344,3.1875,3.5751953,3.4121094
7.234375,4.6972656,4.8945312,4.5791016,7.9589844
7.245117,5.8134766,7.3466797,8.592773,8.682617
8.660156,5.7109375,7.241211,7.0322266,7.5097656
9.546875,4.864258,4.734375,5.4404297,4.0146484
11.347656,5.0634766,6.3046875,3.6826172,2.163086
9.796875,4.303711,5.904297,3.8095703,3.5175781
9.614258,5.385742,6.044922,3.7529297,3.6972656
9.65918,4.9277344,6.6054688,3.4482422,5.4052734
8.137695,11.383789,7.0878906,7.7314453,10.207031
9.158203,9.077148,8.578125,8.325195,9.135742
9.399414,7.1064453,10.780273,9.297852,9.788086
8.22168,6.307617,5.140625,6.3242188,6.8916016
10.1328125,5.705078,5.1552734,4.4521484,3.5449219
9.385742,4.076172,4.2939453,3.8730469,3.6660156
5.9052734,3.5878906,3.078125,3.9453125,4.3935547
7.7148438,2.2988281,5.176758,8.425781,6.6132812
10.545898,5.510742,10.652344,9.467773,8.106445
10.353516,7.4990234,8.883789,9.842773,7.7714844
9.889648,7.515625,9.155273,9.594727,7.3779297
9.527344,5.84375,7.1328125,5.5302734,6.3085938
8.856445,4.2001953,5.350586,3.6855469,3.8183594
7.948242,3.953125,4.3085938,2.9433594,3.6953125
7.901367,4.4365234,3.6855469,2.5507812,3.4472656
4.083008,5.076172,3.328125,4.591797,7.3183594
9.112305,7.5771484,7.604492,7.109375,8.713867
10.829102,8.501953,8.4453125,7.373047,8.883789
10.948242,6.732422,7.303711,7.1640625,7.307617
8.416016,5.807617,5.7070312,7.2490234,4.411133
4.243164,4.0478516,3.366211,3.5927734,3.0214844
3.0234375,4.376953,3.3554688,4.4941406,3.8027344
3.2451172,5.0683594,3.3310547,3.9892578,4.1054688
7.216797,5.895508,2.3857422,3.7539062,7.0214844
9.488281,5.533203,4.567383,8.416992,7.669922
9.979492,5.5595703,8.401367,8.457031,7.4628906
9.708984,3.3789062,6.9101562,8.344727,6.8408203
6.348633,4.323242,6.3320312,6.9023438,4.9501953
4.4804688,4.1484375,5.939453,7.270508,5.3847656
3.7792969,5.4091797,6.1210938,6.881836,5.048828
2.6103516,5.944336,6.788086,7.0625,4.3691406
6.7529297,3.2451172,7.2841797,7.151367,5.6289062
9.303711,4.3183594,11.410156,10.8046875,8.0390625
9.234375,4.1328125,11.99707,10.802734,8.90918
8.735352,6.6621094,11.3828125,9.94043,8.064453
7.5078125,7.455078,7.0039062,6.5058594,8.021484
5.158203,6.7666016,6.0878906,3.5576172,7.2460938
4.7617188,6.607422,9.388672,5.0615234,7.0742188
3.913086,3.8183594,7.1621094,3.3613281,4.8720703
6.805664,5.020508,6.510742,8.307617,7.5703125
9.908203,5.080078,9.501953,8.640625,8.850586
10.135742,5.673828,9.935547,11.0703125,8.249023
9.71582,6.1845703,10.264648,9.748047,8.6640625
8.008789,5.923828,5.883789,7.680664,6.680664
3.4326172,6.220703,4.2783203,6.723633,6.486328
3.2871094,5.2578125,4.1835938,5.5566406,4.9101562
5.7060547,4.6523438,4.0390625,4.879883,5.588867
8.250977,5.807617,6.120117,7.3710938,5.8085938
10.6015625,6.573242,7.7197266,8.462891,7.6572266
12.1875,7.0722656,9.402344,10.461914,8.40625
11.802734,4.5234375,9.455078,10.383789,7.158203
8.8359375,3.0273438,7.7666016,8.076172,2.9238281
5.0810547,2.1416016,5.5527344,6.1328125,3.2421875
5.0810547,1.9082031,4.6884766,4.6796875,3.2392578
4.442383,3.4316406,3.0009766,4.0791016,2.930664
7.4189453,3.522461,3.4023438,3.1201172,4.553711
8.175781,3.0761719,5.044922,5.3134766,7.489258
8.303711,4.1875,6.2578125,6.290039,7.8027344
8.016602,3.7783203,8.652344,7.567383,7.265625
5.2958984,1.9560547,8.526367,7.03125,3.1308594
5.243164,1.390625,4.696289,3.2792969,3.569336
6.067383,1.9609375,3.1552734,2.665039,3.4765625
6.0820312,1.3476562,2.0478516,3.0185547,3.2578125
3.7177734,2.2041016,3.5458984,4.015625,4.0029297
6.3623047,5.5439453,6.2353516,4.6757812,6.6367188
7.0126953,5.236328,6.946289,8.6953125,8.888672
6.475586,2.9042969,6.979492,8.138672,7.2460938
6.21875,2.5888672,4.4316406,6.055664,4.0654297
7.1503906,5.4033203,3.1835938,2.5107422,5.198242
5.305664,6.064453,2.5478516,4.060547,5.7490234
3.6132812,7.3378906,3.772461,5.3427734,7.2109375
4.533203,6.2226562,4.7382812,4.805664,7.90625
7.0078125,5.671875,7.9072266,6.7177734,8.94043
8.21582,5.736328,11.603516,10.345703,9.276367
9.2890625,4.3291016,9.984375,10.084961,8.0859375
8.975586,6.0058594,6.9365234,5.8359375,5.338867
5.7558594,5.9121094,4.2021484,2.40625,4.716797
5.928711,2.368164,2.3095703,2.5322266,3.9091797
4.2978516,2.9951172,2.2978516,2.7333984,3.1513672
5.6601562,3.1621094,2.1816406,8.8046875,3.7392578
7.307617,5.321289,10.417969,10.745117,10.563477
7.6835938,8.033203,12.083984,10.886719,8.112305
13.805664,6.609375,11.550781,9.135742,7.4003906
16.338867,7.2070312,10.727539,6.1083984,5.8115234
16.479492,5.458008,9.620117,2.8046875,6.0234375
16.010742,3.4863281,10.061523,2.8095703,8.261719
15.676758,4.573242,8.828125,3.8310547,10.024414
16.814453,4.147461,11.551758,7.1523438,13.006836
16.454102,3.7646484,11.480469,8.288086,14.363281
13.5,5.2695312,10.889648,9.213867,14.453125
11.496094,6.4472656,11.03125,9.529297,14.114258
15.199219,6.008789,10.708984,7.9023438,9.5546875
15.514648,11.46582,9.862305,9.188477,11.902344
15.418945,6.2617188,5.8632812,7.416992,12.859375
14.922852,5.6435547,7.1845703,3.8876953,10.907227
14.145508,4.4501953,8.969727,3.8515625,13.830078
11.913086,5.1533203,9.93457,4.741211,14.264648
9.844727,12.442383,10.231445,6.8720703,13.751953
9.522461,12.722656,9.68457,7.772461,12.634766
14.489258,11.349609,7.9589844,7.323242,9.919922
15.514648,8.7109375,6.28125,3.1660156,12.393555
15.408203,5.6865234,4.7753906,3.5634766,12.625
15.947266,6.0634766,4.9814453,3.540039,11.918945
11.768555,5.4072266,9.931641,4.3583984,13.100586
11.542969,5.2197266,11.709961,8.470703,12.677734
10.97168,11.6484375,11.435547,8.703125,12.636719
13.482422,11.618164,10.900391,8.5,11.6328125
15.666016,10.853516,8.536133,6.6259766,11.233398
16.819336,6.9541016,8.543945,3.2490234,13.151367
16.476562,5.053711,6.673828,2.8164062,13.010742
15.75,5.1865234,4.548828,2.9765625,11.395508
15.318359,5.2958984,8.966797,4.5371094,11.466797
12.573242,9.158203,8.783203,7.2265625,11.365234
9.68457,11.160156,8.69043,9.771484,11.817383
9.375,10.463867,8.484375,9.378906,10.145508
12.920898,10.432617,6.3085938,6.9921875,9.49707
13.555664,8.016602,4.645508,3.944336,11.807617
13.081055,6.4404297,4.4101562,4.9179688,11.339844
13.2890625,6.5126953,26.926758,4.8378906,8.115234
15.857422,7.1289062,4.8632812,6.3408203,11.90332
15.609375,9.746094,12.067383,9.787109,12.606445
15.452148,11.516602,13.548828,12.84082,12.447266
14.305664,11.996094,12.714844,12.569336,12.895508
12.783203,10.1171875,10.53125,4.9882812,15.456055
15.857422,12.012695,5.692383,5.399414,15.592773
16.098633,9.200195,3.7890625,9.067383,13.597656
15.5234375,9.244141,5.098633,4.2226562,12.743164
14.183594,8.716797,11.046875,4.9453125,16.887695
14.884766,7.4921875,12.50293,12.112305,16.929688
15.013672,5.3125,12.873047,12.389648,15.90918
14.162109,7.107422,13.27832,11.165039,11.118164
12.297852,9.044922,11.642578,6.689453,13.387695
13.203125,13.483398,11.119141,5.9277344,15.374023
