"[299, 255]","[227, 248]","[287, 319]","[279, 328]","[230, 262]"
11.1171875,7.2714844,4.7753906,7.513672,6.2939453
11.394531,7.901367,5.881836,7.1132812,7.0214844
10.263672,8.9453125,6.0751953,8.314453,9.643555
14.717773,7.216797,12.508789,13.801758,9.067383
14.725586,8.730469,12.99707,13.9609375,9.297852
14.3046875,8.678711,12.974609,10.041016,10.182617
9.342773,7.5595703,7.6660156,6.2695312,8.658203
7.904297,4.9833984,5.4365234,2.0634766,5.1572266
8.1640625,4.7109375,4.6064453,3.6972656,4.946289
2.34375,3.3183594,4.298828,4.2617188,3.8173828
6.0214844,1.6621094,4.8164062,4.979492,4.7197266
10.286133,5.3115234,9.036133,8.623047,8.555664
10.620117,6.5898438,8.597656,9.775391,8.602539
10.397461,7.541992,11.010742,9.198242,5.682617
8.458984,4.966797,4.376953,6.0234375,4.3085938
3.4960938,2.8320312,5.7773438,3.546875,3.3427734
2.3408203,2.9208984,5.9628906,4.1191406,3.2929688
2.4326172,2.9111328,3.274414,3.9384766,2.5498047
5.6728516,1.6220703,5.2695312,6.3310547,3.8183594
9.254883,3.0625,7.810547,8.65918,5.8476562
10.713867,5.399414,8.213867,9.96875,5.6523438
10.708984,5.350586,9.2265625,10.305664,5.2421875
8.401367,3.0732422,9.416016,7.220703,3.2998047
3.6328125,4.786133,3.9677734,3.2607422,4.5185547
2.9433594,4.6259766,3.3398438,4.0625,7.526367
5.0898438,8.279297,3.4921875,4.091797,10.461914
8.396484,10.201172,5.428711,8.071289,12.894531
12.208984,11.154297,12.020508,9.603516,13.313477
13.1953125,11.336914,10.133789,10.443359,13.015625
13.176758,9.970703,11.279297,12.183594,11.3125
11.852539,8.175781,10.885742,12.477539,9.202148
9.1328125,6.241211,9.735352,11.40918,3.7890625
7.538086,11.866211,9.741211,11.599609,11.912109
11.364258,13.349609,12.183594,11.787109,12.620117
15.310547,14.331055,12.999023,13.707031,13.733398
14.317383,13.455078,14.529297,13.511719,14.4296875
13.494141,12.405273,11.628906,14.933594,10.313477
12.768555,11.577148,14.222656,18.99414,11.192383
10.076172,11.419922,8.832031,11.96582,10.921875
2.758789,8.277344,2.6279297,2.6113281,10.173828
4.180664,9.942383,2.09375,3.1826172,7.7509766
6.0546875,12.31543,1.8701172,3.8691406,8.795898
13.261719,8.411133,8.959961,4.6875,11.738281
14.016602,7.955078,11.174805,12.713867,12.733398
14.0078125,9.910156,13.375,14.048828,12.870117
12.644531,12.277344,13.066406,12.2109375,13.81543
9.2734375,12.549805,11.00293,11.167969,13.072266
7.993164,11.432617,9.113281,9.483398,9.796875
9.260742,14.150391,7.834961,7.4648438,12.588867
10.826172,14.59375,9.745117,7.3115234,13.518555
12.852539,13.43457,10.782227,7.7382812,13.079102
12.397461,13.754883,12.220703,10.235352,14.99707
13.831055,15.140625,12.875,12.34375,16.75293
14.948242,15.244141,13.619141,12.963867,16.844727
14.619141,14.328125,11.951172,11.016602,13.975586
14.53418,12.448242,11.748047,10.214844,11.693359
13.285156,11.9140625,10.537109,10.543945,11.652344
12.9140625,11.077148,12.0390625,13.947266,14.336914
16.746094,11.839844,13.862305,14.337891,14.5546875
15.885742,8.505859,16.24707,15.323242,13.985352
14.955078,8.908203,16.298828,15.384766,13.256836
13.357422,10.09082,14.744141,14.845703,13.022461
10.326172,8.464844,10.503906,10.572266,11.172852
6.015625,6.633789,7.1748047,5.416992,5.663086
6.0976562,6.2216797,3.5732422,5.3271484,6.1796875
4.6796875,6.3466797,2.9160156,4.678711,7.0058594
11.231445,9.182617,9.244141,8.503906,10.663086
12.121094,10.176758,12.0078125,11.017578,11.212891
10.96582,12.373047,9.808594,8.87793,10.722656
6.7304688,15.482422,9.751953,7.7851562,11.588867
6.9003906,9.2421875,3.0966797,6.029297,10.057617
6.5322266,11.74707,3.0722656,5.482422,9.176758
7.879883,12.727539,3.7109375,3.086914,7.921875
7.192383,10.887695,4.522461,6.120117,10.032227
7.908203,10.081055,7.848633,7.805664,11.262695
8.033203,11.18457,9.133789,9.891602,12.969727
10.431641,10.010742,13.092773,12.097656,12.825195
10.884766,6.3632812,9.27832,9.181641,10.049805
9.865234,8.198242,6.7490234,6.4726562,8.511719
3.7666016,5.334961,7.9853516,6.5996094,4.618164
2.5498047,9.237305,7.3945312,6.4658203,5.2216797
5.46875,9.350586,6.426758,4.1533203,8.121094
6.6435547,9.080078,7.861328,5.7714844,8.53418
8.72168,10.045898,8.274414,6.623047,11.147461
10.010742,11.136719,8.033203,10.623047,11.640625
7.669922,12.729492,8.1875,7.421875,13.360352
5.223633,8.495117,9.280273,7.8310547,11.339844
6.482422,8.564453,4.078125,5.823242,9.613281
6.213867,7.263672,3.2353516,4.21875,9.21875
5.442383,5.348633,2.8466797,4.126953,9.330078
6.895508,10.208008,10.488281,7.3945312,10.402344
8.097656,10.818359,11.682617,9.615234,12.540039
11.625,11.0546875,9.501953,9.587891,12.594727
11.083008,9.90918,9.009766,9.30957,10.888672
8.876953,6.9541016,6.8408203,6.993164,7.4970703
4.1503906,4.2871094,5.279297,5.4335938,4.34375
3.5996094,4.336914,1.8974609,4.0878906,4.251953
3.8408203,4.584961,3.2578125,3.8691406,4.9414062
8.388672,6.4814453,8.0,8.668945,10.756836
10.852539,9.196289,10.237305,8.982422,10.649414
11.40918,9.186523,10.808594,8.801758,11.863281
10.165039,9.149414,10.951172,11.361328,11.008789
8.933594,8.911133,11.439453,11.305664,10.827148
7.158203,7.328125,10.18457,9.458008,8.1171875
8.87793,9.761719,7.4941406,7.1171875,9.317383
8.532227,11.614258,7.916992,8.650391,8.224609
11.188477,9.012695,11.27832,11.338867,10.973633
13.364258,8.238281,12.446289,15.041016,12.431641
13.682617,7.3603516,13.833008,15.455078,11.512695
13.0234375,11.182617,12.987305,12.96875,12.336914
10.392578,11.052734,12.228516,10.150391,12.154297
4.189453,8.071289,9.575195,5.7314453,7.408203
3.9521484,9.69043,4.4492188,5.473633,5.3134766
4.9033203,9.832031,6.100586,6.879883,10.741211
11.379883,9.37793,10.6328125,6.3671875,11.364258
13.229492,9.286133,12.908203,12.000977,12.449219
14.296875,10.791016,14.09375,14.974609,12.954102
12.706055,11.858398,13.328125,14.341797,13.235352
10.384766,8.881836,12.321289,10.824219,10.998047
5.338867,10.783203,6.1816406,6.6191406,8.264648
4.975586,7.0322266,3.421875,2.4941406,6.1904297
6.1748047,9.111328,5.9873047,5.209961,8.024414
10.725586,10.060547,8.880859,4.2070312,10.678711
15.293945,10.359375,10.859375,9.777344,11.697266
14.810547,8.844727,10.236328,12.774414,11.745117
12.374023,10.232422,10.282227,10.782227,12.817383
9.584961,9.814453,11.239258,10.361328,12.418945
5.703125,9.626953,7.2958984,8.905273,7.057617
6.692383,5.7802734,6.006836,4.9052734,3.3945312
6.645508,7.8085938,8.933594,7.8027344,7.7509766
11.379883,7.866211,11.973633,11.827148,10.225586
13.594727,8.206055,14.232422,13.180664,12.714844
12.741211,9.783203,13.65625,14.401367,12.799805
12.458984,10.288086,15.095703,11.602539,11.224609
11.311523,10.769531,9.308594,9.845703,11.1328125
6.4492188,8.454102,7.401367,7.2539062,8.21582
5.8916016,6.5410156,7.609375,6.84375,6.9628906
5.885742,5.7802734,9.34668,7.6777344,6.9570312
10.235352,6.439453,9.650391,9.196289,9.973633
13.1328125,5.8535156,12.681641,11.886719,11.3984375
14.017578,3.578125,11.955078,11.9296875,10.791992
13.478516,5.1523438,11.62207,11.530273,8.389648
10.727539,5.064453,8.700195,9.594727,7.383789
6.2421875,5.3115234,5.790039,7.173828,4.6376953
4.479492,4.951172,4.4208984,4.0195312,4.3378906
4.272461,4.114258,4.5839844,3.7919922,3.9892578
6.623047,4.265625,5.3427734,6.9746094,5.9072266
8.738281,5.426758,7.017578,7.709961,8.30957
8.734375,5.423828,8.8125,8.852539,9.2421875
8.248047,4.868164,9.416016,8.119141,7.116211
7.051758,4.5996094,6.484375,5.8427734,4.6933594
5.6367188,4.501953,5.0039062,3.4794922,3.2021484
5.2148438,5.1523438,4.1152344,3.265625,2.1816406
3.4794922,5.2841797,2.1328125,3.571289,2.5703125
5.0566406,4.40625,3.553711,3.7128906,5.723633
7.544922,5.336914,5.5703125,6.810547,7.0371094
7.526367,8.5234375,7.1748047,8.655273,7.446289
6.373047,5.2226562,7.567383,8.790039,6.623047
6.3867188,5.114258,6.4609375,6.6591797,5.1054688
9.613281,4.4404297,6.213867,6.5966797,3.96875
9.605469,5.161133,5.567383,5.765625,4.6914062
7.501953,3.9111328,4.8964844,4.9121094,4.9003906
6.107422,3.1953125,3.578125,4.3583984,4.935547
8.329102,3.8554688,5.208008,5.826172,8.40332
7.6777344,5.2089844,5.017578,7.2890625,8.736328
7.2773438,5.4492188,3.7128906,8.220703,7.1308594
4.0009766,3.1708984,9.549805,7.9990234,5.0595703
11.808594,2.1484375,4.921875,4.7353516,4.973633
11.400391,3.5615234,5.368164,5.921875,5.948242
10.033203,3.2636719,5.6220703,6.618164,5.0283203
7.7041016,2.6513672,3.9541016,6.776367,2.6816406
9.77832,5.486328,10.792969,7.4277344,6.6865234
9.885742,5.2001953,10.711914,13.010742,7.379883
8.696289,3.0410156,5.8623047,9.5859375,5.794922
9.359375,4.5810547,7.477539,6.399414,5.651367
10.001953,4.583008,7.041992,7.823242,3.477539
9.847656,4.692383,4.2314453,7.001953,4.5839844
9.21582,4.1083984,4.1679688,3.9433594,2.9433594
7.819336,4.0322266,3.6503906,3.0830078,6.368164
9.34668,5.2871094,5.006836,6.830078,8.65918
9.359375,4.236328,6.3164062,10.013672,8.580078
7.5859375,3.5439453,11.28418,9.994141,6.236328
6.9990234,7.9208984,10.821289,7.2216797,4.7597656
5.823242,8.329102,9.675781,2.7734375,5.0029297
7.897461,5.129883,9.097656,2.7304688,3.9609375
8.761719,4.395508,8.766602,3.0048828,6.461914
7.8984375,3.8955078,8.890625,6.149414,5.274414
6.7333984,5.9414062,8.987305,7.401367,6.4375
12.516602,6.3496094,10.31543,9.921875,10.425781
11.580078,5.6660156,10.324219,10.231445,9.516602
10.0234375,5.944336,9.578125,7.8652344,7.3046875
11.546875,5.274414,6.4335938,6.0810547,4.1171875
11.786133,6.033203,5.3515625,5.5722656,3.6523438
10.256836,5.8066406,4.484375,4.1523438,3.303711
6.368164,4.4970703,4.9140625,4.4785156,6.895508
7.408203,8.681641,5.067383,5.5625,8.97168
5.392578,9.667969,6.6904297,10.4921875,8.981445
6.4121094,6.5625,9.619141,10.442383,6.2353516
4.7626953,7.323242,6.580078,7.4492188,6.8740234
5.0283203,8.975586,6.1523438,5.604492,8.202148
3.3769531,9.143555,3.6884766,3.4072266,9.917969
2.3486328,9.529297,3.2128906,3.5771484,12.589844
4.942383,7.557617,3.8574219,5.024414,12.720703
8.647461,9.105469,5.5126953,9.167969,10.931641
11.612305,10.063477,8.357422,12.635742,13.323242
11.061523,11.363281,10.31543,13.25293,13.353516
8.578125,12.15332,8.7265625,7.2216797,9.541992
6.40625,13.084961,4.5234375,4.038086,9.197266
7.4833984,14.606445,4.073242,6.34375,11.209961
10.066406,14.282227,5.9277344,8.266602,10.90332
11.030273,13.111328,6.7871094,10.053711,12.578125
10.787109,12.692383,8.253906,10.084961,12.870117
11.087891,11.056641,7.3964844,9.288086,12.676758
11.074219,8.701172,6.9316406,8.748047,11.202148
7.7304688,8.78418,6.5751953,8.331055,10.2421875
6.4814453,10.374023,6.439453,7.4160156,8.563477
5.736328,10.62207,6.2070312,3.6142578,9.142578
6.555664,10.15625,5.2773438,5.091797,9.006836
7.5771484,11.005859,5.915039,7.6992188,12.478516
13.803711,10.8671875,11.170898,8.456055,13.183594
13.78418,12.283203,12.8203125,9.932617,14.899414
10.793945,13.78418,10.677734,10.231445,15.162109
11.254883,13.30957,9.40332,9.00293,14.158203
7.7490234,11.147461,5.5126953,4.399414,10.290039
4.7070312,8.875,3.2714844,3.78125,8.270508
6.34375,6.8603516,2.1523438,3.7490234,6.375
8.113281,7.3515625,4.517578,4.6708984,7.6240234
10.359375,7.2871094,7.748047,6.0595703,10.455078
8.854492,6.5703125,10.520508,24.967773,10.024414
7.415039,6.8779297,10.949219,7.4960938,10.136719
7.4101562,6.8007812,9.160156,6.932617,10.736328
4.7666016,7.9921875,3.930664,3.96875,9.425781
5.0126953,6.586914,3.2773438,3.196289,8.59375
5.6347656,5.041992,3.7314453,3.8583984,7.571289
5.9589844,4.6279297,3.3417969,4.2958984,6.8935547
6.8203125,4.993164,3.8486328,5.1708984,7.1816406
6.751953,5.194336,4.102539,4.8623047,7.673828
6.1972656,5.2216797,4.006836,4.6484375,7.6533203
12.09082,9.104492,7.5126953,3.8857422,7.0615234
15.689453,9.174805,9.396484,8.056641,7.8222656
