"[299, 255]","[227, 248]","[287, 319]","[279, 328]","[230, 262]"
10.662109,13.728516,12.204102,9.047852,10.556641
10.294922,13.594727,8.322266,9.967773,10.501953
11.425781,12.727539,10.900391,8.80957,10.668945
12.213867,12.035156,11.62793,12.004883,11.541016
13.080078,9.628906,10.84375,12.7265625,11.3828125
8.214844,8.714844,7.6152344,9.171875,8.482422
5.5878906,8.37207,7.421875,6.126953,6.6992188
6.463867,9.533203,5.515625,5.4648438,7.2226562
8.287109,13.142578,6.763672,9.241211,11.311523
9.3046875,13.548828,6.8027344,9.479492,12.077148
13.760742,14.741211,5.916992,10.739258,15.124023
16.131836,17.69043,8.339844,13.365234,19.12207
16.003906,17.623047,7.2646484,13.552734,17.254883
14.728516,15.917969,6.7128906,12.864258,18.791016
16.419922,16.667969,6.8496094,14.390625,17.72461
17.448242,18.395508,7.961914,14.77832,19.456055
17.202148,18.61621,7.267578,16.168945,19.264648
16.713867,16.375977,14.572266,15.4375,16.356445
15.573242,14.662109,13.852539,12.875,15.09375
13.7578125,11.239258,10.594727,8.962891,11.241211
10.2890625,3.5478516,9.735352,8.920898,6.071289
6.213867,3.4921875,7.0097656,7.524414,4.588867
4.1484375,3.1513672,6.3984375,4.5722656,4.126953
3.8066406,5.2773438,5.0703125,3.7988281,4.083008
4.495117,5.294922,4.416992,5.2353516,4.607422
4.3378906,4.6123047,3.21875,5.3027344,5.279297
6.529297,7.015625,3.3330078,5.3515625,6.998047
7.9765625,8.381836,3.7363281,6.930664,9.724609
8.001953,8.81543,4.5546875,7.1904297,10.881836
8.017578,9.0,5.0439453,8.794922,10.1796875
9.883789,12.089844,4.189453,8.720703,12.068359
10.331055,15.53125,4.2373047,9.436523,16.773438
10.84082,16.930664,3.9033203,11.876953,19.339844
12.646484,16.944336,8.044922,12.941406,20.789062
12.734375,17.798828,11.839844,12.483398,20.580078
14.014648,15.514648,15.743164,8.829102,18.839844
12.799805,12.114258,12.564453,8.057617,14.051758
8.739258,8.974609,6.9453125,4.8222656,7.0703125
8.817383,4.8535156,5.4121094,4.4560547,5.3496094
6.6152344,6.154297,3.6513672,5.2714844,5.4541016
6.4414062,6.649414,4.538086,6.6601562,4.7441406
5.966797,5.6523438,2.5742188,7.720703,4.741211
4.682617,4.4570312,4.888672,7.501953,4.1083984
5.1757812,5.3583984,2.828125,6.9160156,5.4316406
5.4570312,6.0703125,4.4521484,5.064453,5.0478516
6.444336,7.819336,3.671875,4.0498047,3.2705078
6.370117,5.705078,2.7373047,3.8769531,2.649414
4.998047,5.4316406,3.5615234,1.3808594,2.9345703
4.416992,5.0498047,3.3251953,3.0361328,4.2558594
6.2070312,3.241211,3.0351562,3.6464844,5.286133
8.874023,3.303711,2.2197266,3.4482422,6.439453
10.176758,3.5351562,1.8886719,3.3486328,10.108398
8.362305,3.4052734,5.678711,2.4423828,10.231445
8.017578,7.5771484,6.379883,6.0996094,11.399414
12.316406,6.3720703,8.075195,7.6992188,11.737305
13.393555,8.746094,7.7695312,7.913086,8.430664
15.092773,7.8652344,6.28125,8.469727,6.540039
15.646484,9.375977,6.338867,9.899414,3.9863281
16.685547,9.895508,7.0253906,12.613281,4.9726562
18.67871,7.3554688,10.59375,14.306641,7.772461
16.811523,8.173828,10.753906,14.495117,8.307617
17.374023,8.994141,6.3808594,11.438477,7.4882812
17.61914,13.22168,6.4277344,12.318359,11.810547
16.55371,14.2265625,5.3945312,11.858398,13.435547
13.959961,12.907227,5.3603516,11.003906,13.697266
9.391602,13.916016,5.625,8.834961,12.129883
6.517578,12.350586,9.907227,9.592773,11.639648
7.455078,9.115234,10.920898,9.80957,9.583984
7.995117,9.760742,9.1640625,7.685547,9.307617
6.7089844,8.243164,5.673828,6.3896484,7.4208984
3.741211,7.379883,3.1289062,4.133789,4.198242
5.522461,4.029297,2.8007812,3.203125,3.0214844
5.977539,2.4892578,1.7519531,3.4628906,2.8359375
2.8300781,4.819336,3.258789,3.5029297,3.2333984
2.2226562,6.8564453,3.28125,3.78125,4.504883
4.444336,10.452148,5.8085938,5.366211,11.592773
7.213867,15.0,7.9628906,7.9697266,13.272461
9.758789,19.865234,10.5546875,9.241211,20.761719
12.836914,19.3125,12.724609,9.431641,16.103516
12.34375,14.633789,11.110352,11.661133,12.333008
10.861328,14.328125,7.7626953,8.916016,9.847656
9.055664,11.954102,7.0458984,7.7333984,11.707031
12.199219,17.301758,12.461914,7.732422,17.830078
16.604492,22.924805,19.675781,15.803711,22.855469
19.642578,24.180664,24.75586,19.395508,24.206055
19.461914,23.450195,22.30371,19.625,23.61621
17.257812,21.918945,19.152344,18.94043,21.736328
16.40625,21.313477,16.733398,16.606445,18.99707
15.049805,20.632812,17.360352,13.668945,19.61621
16.88379,20.944336,22.61914,15.016602,20.689453
19.56543,22.625977,23.038086,16.521484,22.916016
20.33496,22.661133,23.487305,16.594727,23.927734
20.90332,22.84668,20.82129,15.201172,21.688477
21.547852,22.057617,18.435547,12.066406,21.429688
19.83496,20.04004,15.380859,12.704102,18.141602
17.39746,17.908203,15.904297,14.537109,16.75879
14.962891,15.78125,15.296875,14.516602,16.15332
14.450195,14.357422,11.6171875,9.55957,14.264648
13.646484,11.390625,11.357422,8.921875,9.144531
11.885742,9.793945,11.755859,11.522461,11.259766
11.883789,8.780273,13.192383,12.136719,11.419922
10.188477,8.696289,7.7597656,10.911133,8.508789
11.920898,10.005859,4.3515625,7.2060547,7.6816406
16.114258,20.480469,9.863281,8.983398,19.8125
20.78418,21.518555,15.530273,13.500977,22.52832
21.944336,23.402344,20.655273,16.61914,22.064453
24.606445,30.585938,21.121094,20.126953,28.14746
25.876953,37.9834,28.71582,29.37793,34.91211
28.86914,35.786133,32.51172,32.38965,34.899414
27.078125,29.042969,32.503906,33.76465,29.555664
22.761719,25.251953,26.74121,26.833008,25.3125
18.160156,22.5,20.313477,20.271484,19.259766
12.707031,20.918945,20.450195,19.202148,15.436523
11.831055,17.40039,15.008789,16.322266,12.668945
11.481445,14.274414,10.313477,8.600586,9.354492
11.03125,14.855469,13.021484,12.964844,12.533203
12.12793,13.670898,13.066406,11.763672,12.279297
9.09375,12.783203,8.7109375,8.459961,8.542969
8.760742,19.229492,4.352539,5.020508,9.754883
7.5585938,18.710938,5.4541016,3.4951172,11.056641
8.232422,16.038086,4.084961,3.5996094,13.450195
7.5009766,15.655273,4.1347656,3.8017578,12.635742
7.1367188,13.199219,3.8652344,2.7851562,11.522461
6.176758,10.694336,2.5927734,3.7998047,9.003906
8.850586,7.510742,8.295898,5.7402344,8.660156
9.316406,10.861328,8.359375,6.0908203,6.109375
6.879883,12.546875,6.3164062,6.310547,8.650391
11.2265625,19.02246,5.8183594,8.904297,15.276367
17.032227,25.317383,11.947266,14.428711,23.202148
26.453125,27.951172,20.08789,20.276367,29.473633
27.016602,26.263672,22.152344,20.09668,26.157227
22.092773,24.634766,21.830078,13.092773,22.374023
20.429688,23.572266,17.064453,14.490234,21.992188
19.095703,21.077148,17.651367,16.6875,19.072266
19.101562,18.59082,16.381836,16.391602,17.38086
16.523438,20.871094,15.725586,10.850586,20.69043
16.879883,24.71582,18.089844,11.024414,22.478516
17.248047,23.427734,20.128906,13.544922,20.046875
17.499023,23.273438,17.200195,10.44043,20.311523
18.861328,24.738281,14.294922,9.151367,21.885742
20.453125,26.738281,15.655273,12.949219,22.756836
17.353516,31.363281,9.0234375,9.769531,28.143555
11.510742,32.711914,19.802734,21.029297,30.646484
20.947266,29.143555,18.198242,16.748047,24.542969
18.429688,23.567383,15.741211,15.167969,20.097656
14.84375,19.987305,12.772461,14.399414,18.37207
11.029297,19.476562,7.7734375,12.222656,13.3359375
13.94043,16.21582,10.6640625,12.008789,12.982422
12.324219,16.535156,11.171875,12.202148,13.243164
9.368164,12.328125,8.142578,9.444336,9.988281
11.764648,10.78125,5.291992,8.5,10.095703
6.055664,9.022461,4.399414,6.6259766,3.9003906
4.7353516,10.1015625,2.6552734,4.142578,4.96875
5.588867,11.624023,4.2509766,5.1748047,5.6464844
8.446289,16.328125,3.9873047,8.376953,11.7734375
10.919922,20.136719,10.227539,9.792969,19.322266
16.24414,22.13086,14.584961,14.696289,23.604492
20.480469,24.21582,21.387695,16.691406,24.381836
18.341797,23.360352,21.364258,17.40918,22.09082
17.868164,16.835938,18.99121,12.397461,16.449219
13.076172,15.982422,13.055664,7.9414062,12.758789
12.633789,16.21289,13.619141,10.96582,14.067383
12.316406,17.016602,16.901367,12.280273,16.875
12.912109,15.75,14.253906,12.173828,15.140625
13.331055,15.057617,14.673828,13.62207,15.0078125
11.258789,13.868164,14.984375,13.660156,13.000977
9.354492,9.692383,11.359375,9.581055,7.486328
12.237305,12.519531,9.668945,5.9990234,12.05957
16.092773,8.797852,6.1191406,8.931641,9.883789
15.022461,13.606445,5.5810547,9.831055,11.560547
14.191406,17.83789,7.9023438,11.65918,19.219727
18.578125,24.436523,15.866211,11.952148,25.407227
20.421875,25.14746,21.17871,19.325195,29.8125
20.902344,26.02539,20.759766,22.47754,29.188477
21.289062,26.480469,20.09082,22.374023,27.34375
21.615234,26.336914,20.788086,21.989258,28.382812
20.69629,26.52539,22.634766,21.243164,28.487305
20.207031,26.828125,24.606445,21.064453,27.57129
20.802734,14.634766,20.378906,11.274414,16.65918
18.851562,9.123047,16.65332,6.118164,8.811523
12.544922,8.066406,9.087891,7.4248047,7.439453
3.1484375,8.306641,4.588867,5.5,5.413086
5.489258,10.380859,5.34375,6.4970703,8.551758
5.682617,14.107422,4.3564453,7.125,11.115234
9.541992,15.827148,5.2617188,9.192383,15.556641
10.743164,12.079102,14.207031,10.363281,9.323242
9.275391,10.921875,11.702148,5.0742188,6.614258
8.43457,10.441406,6.2402344,5.6464844,8.228516
8.996094,8.578125,8.27832,8.334961,8.133789
7.763672,9.444336,8.352539,6.430664,6.9726562
7.0585938,10.692383,9.194336,6.1904297,7.979492
5.4609375,11.983398,8.143555,5.7382812,5.7783203
5.498047,12.22168,6.798828,5.647461,6.3964844
5.821289,10.074219,5.522461,6.0058594,5.205078
7.223633,9.513672,4.4658203,5.9990234,5.6972656
8.620117,14.1171875,8.481445,6.9003906,12.413086
9.285156,15.105469,9.248047,7.510742,13.271484
12.050781,16.410156,8.825195,11.033203,13.587891
14.0625,19.820312,9.928711,12.576172,19.324219
15.634766,20.738281,12.198242,14.849609,19.450195
17.636719,19.860352,12.250977,12.802734,19.583008
15.974609,11.5234375,10.719727,12.1484375,9.333008
12.415039,10.344727,8.00293,6.524414,7.7753906
9.925781,9.21875,5.5595703,8.558594,7.53125
10.146484,10.894531,6.4101562,8.375977,8.451172
11.207031,14.683594,6.6328125,6.3339844,14.477539
14.737305,17.632812,10.119141,10.78125,19.533203
17.21875,17.319336,7.291992,12.875977,17.865234
15.777344,16.012695,12.641602,13.204102,15.866211
14.040039,16.113281,14.352539,14.616211,16.371094
13.125,14.893555,8.730469,9.400391,11.964844
14.143555,13.050781,12.488281,8.155273,13.397461
12.09668,19.389648,12.90332,9.134766,15.5546875
10.985352,14.671875,9.954102,9.077148,13.0
13.269531,17.939453,12.022461,8.699219,9.77832
13.326172,15.050781,12.426758,7.7197266,10.584961
13.8125,17.006836,11.475586,6.8759766,10.615234
14.279297,17.088867,11.849609,6.7734375,11.091797
14.640625,16.761719,8.865234,8.175781,14.333984
13.541992,20.480469,10.538086,11.388672,19.42871
15.40332,21.37207,15.666016,14.8046875,20.804688
16.010742,21.386719,17.50879,19.981445,19.373047
17.12793,20.27539,15.5078125,16.637695,17.740234
13.529297,22.75,15.705078,15.371094,18.876953
17.44043,21.640625,15.584961,17.30664,19.455078
15.385742,19.570312,15.511719,16.582031,17.811523
12.99707,17.699219,13.498047,14.853516,15.75
14.052734,18.450195,13.333008,12.948242,16.024414
15.987305,23.219727,13.233398,11.067383,18.72461
17.517578,24.439453,13.131836,7.7695312,19.868164
19.661133,21.417969,12.575195,11.333984,18.770508
12.796875,21.52539,11.552734,11.948242,19.006836
12.353516,20.479492,10.458984,9.643555,15.6171875
11.288086,18.75293,12.094727,11.548828,14.286133
10.732422,18.695312,12.202148,10.014648,13.033203
12.265625,16.15918,13.949219,13.59668,16.723633
13.029297,16.02539,15.887695,15.141602,16.454102
11.897461,18.860352,12.668945,13.823242,16.927734
11.485352,18.013672,13.326172,12.75,14.779297
12.954102,17.129883,14.385742,13.65625,15.947266
