"[299, 255]","[227, 248]","[287, 319]","[279, 328]","[230, 262]"
7.7460938,5.102539,3.5273438,5.3623047,4.4648438
7.3164062,5.1103516,4.4296875,5.3496094,4.4970703
5.248047,6.2734375,4.716797,6.4121094,5.234375
4.654297,9.375977,3.90625,6.942383,7.463867
5.118164,9.683594,12.474609,7.055664,7.461914
6.6972656,9.907227,4.7158203,7.2929688,7.5214844
8.072266,12.083984,5.3027344,8.033203,10.05957
9.645508,14.839844,4.711914,8.99707,13.979492
10.053711,15.703125,4.8896484,9.790039,14.347656
8.834961,15.735352,3.3408203,8.65918,12.588867
8.474609,15.74707,12.542969,7.5029297,12.799805
8.668945,14.321289,14.0,6.9345703,12.712891
8.825195,15.527344,12.609375,7.6621094,13.6015625
9.3125,15.558594,14.479492,8.3359375,15.451172
9.849609,15.717773,14.014648,8.412109,15.9765625
9.459961,15.931641,14.051758,9.321289,14.7421875
10.580078,14.498047,11.078125,8.191406,13.84082
10.876953,14.206055,8.330078,7.7529297,11.892578
9.716797,9.537109,8.250977,8.046875,7.692383
6.458008,6.0507812,7.330078,7.2617188,4.4453125
4.640625,4.5410156,6.9501953,6.4628906,4.2558594
5.223633,7.9648438,3.4785156,3.7753906,7.5341797
6.9472656,9.231445,6.7460938,6.7714844,9.505859
8.423828,11.979492,8.958008,8.572266,13.499023
10.595703,15.186523,10.212891,9.573242,16.13379
13.545898,17.38379,11.5703125,10.402344,17.198242
14.129883,19.648438,14.78418,13.095703,19.391602
14.647461,20.71582,21.993164,17.541992,20.935547
14.6171875,21.59375,23.856445,18.113281,22.174805
14.28125,21.763672,19.889648,18.012695,21.38086
14.459961,21.445312,19.894531,15.386719,21.25293
13.817383,20.441406,20.188477,15.760742,21.109375
12.630859,18.996094,20.323242,16.401367,19.638672
12.407227,18.138672,18.53418,19.539062,19.573242
12.625977,17.21582,22.03125,19.649414,20.030273
14.375977,19.201172,23.760742,16.234375,21.298828
14.798828,19.672852,19.501953,12.537109,22.19043
15.350586,19.78711,18.663086,16.65625,21.651367
15.139648,18.574219,20.24414,16.88379,20.280273
14.042969,18.930664,17.945312,17.498047,18.50879
13.34082,16.171875,10.212891,12.026367,11.723633
12.28418,11.431641,11.878906,8.888672,10.151367
7.658203,8.321289,7.2109375,6.1347656,3.5771484
5.944336,6.057617,2.836914,5.9023438,3.5820312
5.571289,5.9472656,2.9023438,5.0859375,3.8085938
11.219727,6.953125,4.2558594,4.229492,8.360352
11.50293,11.231445,4.611328,6.8476562,8.811523
11.082031,13.451172,10.733398,5.673828,9.645508
11.194336,14.214844,11.253906,9.46582,10.6328125
11.887695,14.594727,7.169922,9.891602,12.614258
12.352539,16.085938,6.602539,8.921875,14.301758
13.644531,16.006836,7.810547,11.549805,15.173828
13.924805,15.581055,8.828125,11.295898,16.21582
13.300781,15.080078,6.682617,8.186523,16.88086
12.848633,15.675781,8.7578125,9.145508,16.486328
11.515625,16.416016,5.8710938,10.881836,16.043945
10.774414,13.800781,5.986328,9.837891,13.963867
11.767578,14.048828,4.260742,8.708008,13.416016
11.069336,13.308594,4.2539062,7.598633,10.641602
9.1640625,10.379883,5.708008,8.866211,9.299805
9.47168,9.675781,6.161133,8.480469,7.196289
10.944336,6.692383,6.6601562,9.136719,3.665039
10.727539,5.9902344,5.876953,8.701172,3.3847656
9.886719,7.1777344,7.323242,9.402344,4.3632812
7.836914,9.838867,6.7441406,7.7734375,4.0039062
12.8359375,8.871094,7.9365234,5.635742,3.4609375
15.597656,8.730469,7.845703,7.470703,4.3134766
17.700195,7.774414,10.787109,10.322266,6.463867
17.748047,6.908203,12.203125,10.808594,5.6279297
16.66211,6.9589844,12.342773,9.40625,4.895508
18.567383,8.333984,9.477539,11.3671875,4.786133
17.99707,8.067383,9.349609,10.052734,3.0039062
13.765625,7.501953,9.5390625,10.111328,3.3359375
13.363281,5.870117,10.037109,7.4609375,3.4326172
13.193359,5.629883,11.3203125,9.254883,7.2929688
15.303711,7.3876953,10.879883,9.582031,8.170898
16.182617,8.751953,11.821289,12.224609,8.078125
15.0390625,9.193359,10.536133,12.1796875,5.154297
14.318359,9.818359,9.243164,12.0625,5.2734375
13.119141,9.443359,9.607422,10.480469,5.7158203
10.426758,10.880859,10.087891,10.016602,6.915039
12.470703,11.946289,7.9697266,10.387695,7.3115234
13.75293,13.573242,6.551758,7.9658203,9.803711
17.292969,13.586914,6.2685547,7.9033203,10.845703
15.004883,8.178711,7.6171875,8.9140625,12.607422
16.370117,10.115234,6.8779297,7.0341797,13.8515625
15.253906,10.060547,5.696289,3.8759766,12.685547
13.34668,8.704102,5.0097656,3.2958984,9.933594
11.350586,8.552734,2.7519531,4.0898438,7.5908203
10.53418,8.733398,2.2373047,4.1083984,7.0585938
8.099609,8.78125,2.022461,2.5742188,6.6445312
3.7802734,6.0527344,1.9375,2.2324219,5.493164
4.2666016,5.8554688,3.944336,3.7988281,4.7001953
4.4804688,5.2802734,3.9326172,2.859375,6.189453
4.6279297,7.1464844,6.321289,4.171875,4.4726562
6.510742,6.6435547,7.263672,4.873047,3.665039
6.8896484,8.444336,6.611328,4.709961,5.669922
6.5429688,11.729492,8.086914,5.288086,8.931641
7.7421875,15.504883,12.049805,7.9589844,14.701172
11.775391,17.458008,15.256836,10.844727,15.698242
13.014648,16.875977,16.292969,14.728516,15.116211
12.485352,13.8515625,13.306641,13.166016,12.739258
13.449219,14.77832,10.972656,12.397461,13.456055
9.147461,14.12207,10.878906,11.275391,8.635742
8.146484,14.4296875,11.267578,8.12207,8.342773
8.484375,13.753906,11.489258,9.966797,10.203125
9.00293,14.8359375,12.044922,9.922852,11.100586
10.383789,16.84668,14.291992,14.857422,16.03418
11.521484,21.46289,14.869141,15.2265625,17.61914
14.771484,23.794922,15.389648,12.158203,20.933594
13.220703,19.101562,10.137695,9.112305,17.454102
10.883789,22.908203,9.251953,12.799805,17.169922
11.905273,20.248047,9.701172,12.707031,16.282227
13.09082,21.455078,11.8125,13.785156,17.091797
15.317383,23.705078,11.24707,9.700195,18.319336
10.957031,21.99414,10.576172,11.203125,18.261719
11.222656,22.16211,10.446289,11.233398,18.210938
8.19043,16.896484,8.831055,8.793945,14.964844
5.5683594,13.4296875,6.5322266,6.5322266,8.411133
5.517578,12.262695,5.040039,6.0273438,6.3447266
6.158203,13.423828,7.7529297,6.567383,9.65625
10.509766,16.564453,10.663086,8.527344,15.544922
14.319336,17.1875,12.717773,11.358398,19.514648
14.447266,17.058594,24.908203,20.363281,19.104492
14.923828,18.114258,24.952148,20.375,18.416016
15.37793,15.947266,20.073242,15.911133,16.824219
17.469727,15.418945,16.186523,16.601562,17.551758
17.464844,18.350586,21.638672,17.49707,21.439453
20.101562,21.13379,16.768555,17.895508,20.336914
19.993164,20.734375,20.310547,20.901367,19.240234
18.700195,21.15625,19.500977,19.003906,19.033203
20.66504,19.660156,20.56543,21.625,21.064453
20.53125,21.54004,20.990234,24.307617,20.083008
20.954102,21.320312,22.238281,22.049805,18.802734
20.391602,20.060547,20.423828,22.734375,18.295898
18.433594,19.373047,20.914062,21.453125,18.661133
17.436523,19.842773,18.72754,20.493164,18.677734
15.451172,18.27246,18.32129,21.253906,16.180664
15.822266,18.033203,17.411133,20.25879,16.017578
16.15918,16.47754,17.411133,17.700195,14.349609
15.896484,16.045898,17.642578,16.519531,14.597656
14.298828,16.05664,18.856445,15.662109,12.124023
11.1171875,15.208984,13.9140625,12.887695,11.87793
11.635742,16.58496,10.361328,13.100586,10.515625
8.451172,15.694336,10.046875,11.467773,10.875
9.519531,15.452148,11.484375,10.413086,12.480469
7.0,15.755859,10.294922,10.431641,11.415039
10.680664,13.915039,9.604492,9.833984,13.571289
10.581055,14.091797,10.908203,11.604492,12.401367
10.258789,12.109375,7.6464844,9.75,8.49707
3.1171875,12.493164,4.850586,7.2783203,7.885742
3.9746094,10.783203,4.3564453,4.8535156,5.6210938
4.7685547,10.34082,3.3271484,3.8066406,4.508789
6.223633,4.8183594,2.6269531,3.8154297,3.3076172
5.873047,6.935547,2.671875,4.2998047,4.7314453
3.3789062,8.661133,3.2861328,4.5097656,5.586914
3.7158203,8.97168,3.296875,5.125,6.151367
6.953125,10.079102,5.088867,7.142578,5.8847656
8.611328,10.65332,4.9541016,8.02832,8.246094
10.421875,13.47168,4.993164,9.336914,9.52832
11.4296875,13.628906,5.0039062,10.241211,9.579102
11.895508,13.776367,4.8066406,10.294922,10.366211
13.086914,16.816406,5.120117,10.389648,12.260742
14.322266,18.144531,9.360352,9.9140625,16.799805
14.357422,19.100586,10.657227,12.569336,18.588867
16.990234,18.761719,9.154297,12.128906,13.467773
19.44043,18.085938,9.162109,15.9140625,12.955078
21.148438,20.00586,8.884766,15.921875,14.685547
22.873047,20.63086,9.999023,17.444336,15.422852
22.394531,22.15625,11.280273,17.739258,16.15918
22.669922,20.845703,11.980469,19.39746,15.830078
23.00293,21.05371,11.145508,15.319336,19.483398
20.691406,17.330078,11.151367,12.996094,18.000977
13.605469,23.021484,10.830078,11.489258,20.625977
15.275391,23.064453,14.708984,14.947266,20.65039
20.654297,25.28125,20.41504,19.495117,22.610352
22.424805,24.578125,21.480469,20.058594,20.753906
18.990234,23.986328,15.788086,15.750977,20.947266
17.641602,21.44043,14.461914,14.496094,18.1875
18.868164,19.448242,12.640625,14.323242,15.477539
18.889648,16.375977,12.366211,12.772461,15.140625
11.572266,10.920898,7.9277344,9.424805,9.337891
4.1533203,9.6953125,4.453125,6.298828,7.345703
4.1376953,11.303711,3.4970703,5.540039,6.1953125
5.1083984,11.356445,5.5351562,5.614258,7.203125
7.696289,14.818359,4.3583984,7.7626953,14.759766
12.017578,18.388672,5.529297,9.727539,19.742188
13.493164,19.485352,21.341797,11.347656,19.832031
14.508789,20.841797,18.011719,14.348633,20.908203
14.235352,21.03418,17.666992,14.397461,20.427734
15.058594,19.743164,15.6015625,12.029297,19.615234
15.925781,19.417969,16.279297,11.631836,17.199219
15.674805,15.956055,7.9277344,7.669922,12.350586
16.045898,9.581055,3.6289062,3.6513672,6.296875
10.736328,9.583984,6.3242188,4.8291016,7.510742
9.076172,9.514648,6.3876953,8.139648,6.7597656
9.938477,11.258789,7.3164062,8.966797,8.6953125
8.870117,13.162109,7.319336,9.287109,9.982422
10.392578,19.836914,8.391602,7.973633,15.288086
9.767578,19.71875,7.4882812,11.06543,12.238281
12.581055,17.77832,10.902344,9.873047,14.578125
12.9296875,20.144531,11.354492,13.874023,16.524414
15.7421875,20.279297,16.956055,16.833984,17.941406
19.595703,20.532227,16.09961,17.572266,19.067383
19.09961,19.838867,18.35254,18.870117,19.660156
15.876953,20.095703,16.56543,17.06836,17.896484
16.94336,19.186523,14.297852,14.706055,16.566406
16.71289,17.364258,13.560547,16.270508,17.410156
17.567383,16.864258,12.553711,11.34375,15.475586
14.9609375,15.387695,12.949219,13.97168,14.353516
15.084961,15.932617,12.924805,14.041016,16.713867
16.083984,16.157227,14.412109,16.189453,17.824219
16.95996,18.520508,16.407227,15.428711,19.311523
15.217773,22.294922,15.8203125,14.272461,20.444336
18.539062,24.30664,17.651367,16.555664,22.779297
18.96875,24.03125,18.948242,17.603516,22.750977
19.655273,20.486328,17.646484,18.289062,21.429688
17.04004,17.878906,13.779297,17.246094,20.777344
17.179688,21.49707,15.9140625,15.973633,17.995117
18.235352,19.019531,16.34668,16.59375,17.902344
19.891602,18.736328,18.0625,20.086914,18.563477
18.94336,18.805664,15.989258,17.018555,18.124023
16.430664,17.453125,14.84375,16.396484,14.650391
14.90918,15.300781,12.584961,11.091797,12.380859
13.774414,13.06543,11.489258,9.2265625,9.657227
10.5703125,11.675781,9.78418,7.701172,8.016602
9.056641,11.118164,8.768555,6.767578,6.6279297
8.543945,10.311523,8.651367,7.6689453,10.2265625
10.150391,11.011719,8.364258,7.6328125,13.129883
8.413086,11.708984,10.563477,8.894531,13.051758
8.59668,11.606445,12.699219,9.693359,13.051758
8.741211,11.416016,12.338867,8.2578125,12.527344
8.141602,9.982422,12.22168,8.268555,11.333984
6.208008,8.988281,11.144531,6.229492,9.8671875
6.9023438,10.22168,8.748047,5.1708984,8.685547
7.0029297,10.354492,9.478516,5.741211,9.865234
7.8515625,9.368164,7.8447266,6.776367,11.556641
8.119141,7.2001953,5.8222656,6.2578125,10.27832
9.352539,5.915039,4.5810547,6.0058594,7.3740234
12.064453,8.879883,6.573242,7.9316406,6.069336
