"[299, 255]","[227, 248]","[287, 319]","[279, 328]","[230, 262]"
6.631836,5.8623047,5.7333984,6.609375,4.413086
6.602539,5.461914,5.9785156,6.9003906,5.0439453
7.3652344,5.5742188,5.979492,6.8046875,6.4257812
10.113281,9.472656,9.134766,9.785156,7.0810547
10.109375,8.7265625,9.145508,9.720703,7.272461
8.792969,7.8066406,8.693359,9.024414,6.426758
9.494141,9.637695,6.310547,7.6396484,5.506836
9.125977,8.943359,6.5595703,6.823242,7.3203125
8.010742,10.03125,6.2529297,8.730469,7.7402344
6.1396484,10.801758,3.453125,7.3378906,7.6845703
6.361328,11.649414,3.3876953,6.0273438,9.216797
6.8027344,11.983398,5.9091797,8.578125,9.983398
6.618164,10.571289,5.2148438,8.424805,10.856445
5.4609375,10.262695,2.2011719,7.118164,9.15918
6.2753906,9.485352,2.4589844,6.508789,8.313477
5.5703125,7.7021484,7.2265625,7.794922,7.0898438
7.459961,8.067383,7.0429688,7.133789,5.397461
8.401367,7.6240234,5.973633,5.4316406,3.5126953
6.6591797,6.6884766,3.0800781,2.1816406,3.6396484
9.525391,8.524414,8.389648,8.180664,8.908203
9.783203,8.589844,8.566406,8.586914,8.208008
8.557617,7.923828,7.319336,6.635742,7.5117188
6.786133,7.776367,5.2070312,6.2197266,4.6953125
4.446289,5.1367188,2.6533203,5.258789,4.5273438
3.9892578,4.942383,2.9521484,6.555664,4.873047
3.4140625,3.8847656,5.131836,5.989258,4.419922
3.8251953,4.5859375,4.6416016,5.9873047,3.7763672
6.8535156,5.078125,8.297852,7.520508,6.961914
7.4384766,6.430664,6.642578,8.267578,7.1816406
6.6523438,6.673828,7.0722656,6.4179688,6.392578
3.4003906,8.4453125,6.4658203,5.8320312,5.033203
4.9609375,8.667969,7.607422,5.7773438,7.013672
5.7158203,9.384766,9.591797,7.1816406,7.276367
5.7646484,11.097656,8.166992,6.131836,8.967773
6.399414,11.267578,9.333984,11.725586,9.152344
7.3623047,14.811523,10.373047,11.9296875,11.8671875
7.5947266,10.413086,9.609375,10.026367,8.433594
7.666992,10.19043,8.586914,7.817383,11.027344
6.586914,8.9609375,3.9541016,5.321289,7.2597656
4.9003906,7.9697266,2.9785156,4.3125,7.701172
5.716797,4.8134766,2.9257812,3.8466797,5.345703
5.9384766,7.879883,2.194336,3.078125,3.8388672
5.8134766,4.741211,2.4169922,1.2226562,4.8320312
4.584961,4.745117,2.4589844,2.6435547,3.8271484
4.7978516,2.2773438,2.2626953,4.6308594,2.8916016
4.267578,4.946289,4.111328,4.1660156,2.7041016
5.3164062,6.3339844,4.8759766,5.78125,5.305664
6.495117,11.630859,6.1191406,7.4560547,7.881836
8.3984375,13.875977,6.0439453,9.133789,10.827148
11.245117,18.911133,7.8535156,11.530273,17.507812
15.064453,21.21582,12.4765625,15.30957,19.43457
15.969727,20.839844,18.174805,13.889648,19.839844
14.668945,17.618164,15.769531,13.131836,19.49121
13.714844,5.8447266,11.661133,10.327148,4.911133
13.291992,8.802734,8.90625,6.8476562,4.4160156
13.431641,10.833008,6.7441406,9.177734,8.958008
10.665039,13.5546875,9.7578125,9.21875,12.892578
11.667969,18.513672,10.1484375,11.042969,14.676758
11.230469,10.211914,11.988281,8.5625,12.071289
20.238281,8.271484,9.974609,4.1777344,3.9814453
20.43457,7.3779297,2.8486328,4.6064453,6.1103516
18.521484,17.22168,5.720703,5.4003906,9.542969
19.795898,23.703125,12.026367,5.314453,24.950195
20.881836,26.226562,22.269531,17.643555,27.777344
22.754883,26.861328,24.726562,20.439453,27.988281
22.881836,27.351562,23.583984,21.333984,24.70996
21.37207,19.733398,18.404297,16.566406,18.296875
16.013672,19.899414,19.198242,16.592773,18.382812
17.243164,17.625977,18.013672,16.113281,16.90332
13.879883,18.40332,12.28418,12.498047,17.106445
10.486328,18.350586,11.896484,10.009766,15.931641
11.674805,16.728516,9.671875,7.7685547,12.8125
10.794922,19.216797,10.423828,7.791992,11.263672
10.8984375,12.09082,4.9404297,7.9160156,6.5371094
7.663086,8.136719,6.911133,6.557617,8.2109375
6.595703,8.698242,5.0009766,6.774414,6.642578
6.600586,6.921875,7.9990234,5.296875,6.0634766
2.9794922,6.7128906,6.602539,5.828125,3.930664
4.232422,7.383789,4.2148438,3.6816406,4.760742
4.899414,6.091797,2.8125,3.5664062,4.9648438
5.0742188,6.841797,2.6640625,2.7773438,5.859375
7.279297,8.425781,2.493164,3.3085938,6.553711
8.730469,7.270508,1.96875,2.5771484,5.544922
9.258789,8.7578125,2.4892578,2.1259766,7.6220703
8.71582,8.71875,2.7402344,3.7558594,8.823242
12.131836,8.999023,2.0644531,3.399414,6.748047
14.174805,7.8320312,5.1845703,3.7265625,8.740234
14.130859,5.1816406,5.1328125,3.6845703,8.412109
9.666016,6.6503906,3.852539,4.6484375,6.9296875
9.552734,7.892578,3.1699219,5.3632812,8.455078
13.333984,8.568359,3.2871094,5.580078,9.697266
16.052734,9.770508,2.5976562,5.473633,13.349609
16.523438,10.5,9.091797,6.716797,13.818359
15.5,11.3984375,6.678711,6.5546875,14.208984
15.547852,11.31543,7.1816406,6.3691406,14.216797
16.368164,9.949219,7.482422,8.932617,15.073242
18.231445,9.137695,12.6640625,9.541992,16.552734
22.173828,8.348633,13.421875,7.489258,15.444336
24.201172,7.826172,13.270508,3.9550781,17.12207
22.015625,7.9960938,14.716797,8.069336,18.706055
17.041016,9.105469,14.71875,9.1796875,18.266602
17.623047,9.265625,11.353516,9.608398,14.849609
18.46875,9.322266,7.694336,6.388672,14.363281
13.672852,10.306641,5.7382812,5.9833984,13.689453
11.94043,8.970703,5.982422,5.9570312,13.644531
10.824219,9.014648,6.0214844,5.2197266,10.986328
10.126953,8.68457,7.727539,4.786133,9.474609
9.930664,6.9345703,9.102539,4.614258,10.541992
8.384766,7.5214844,9.790039,3.7236328,10.763672
6.979492,7.669922,7.8554688,6.6728516,8.935547
6.6503906,6.836914,7.7070312,4.794922,8.264648
5.6640625,3.2802734,6.7939453,5.666992,5.8984375
4.366211,5.9335938,3.0576172,6.482422,5.317383
6.901367,5.930664,3.1396484,6.258789,6.3447266
7.5527344,4.692383,6.1533203,5.883789,8.625977
9.444336,3.5185547,9.832031,4.6015625,9.404297
9.505859,7.0566406,9.452148,9.214844,11.143555
10.22168,10.173828,8.771484,8.219727,9.706055
11.55957,8.544922,10.363281,8.494141,13.490234
13.099609,11.96582,9.699219,7.7597656,13.504883
11.847656,11.267578,9.231445,7.751953,12.625977
11.255859,10.018555,5.9140625,7.741211,12.111328
11.766602,8.505859,4.3203125,6.569336,13.350586
12.432617,8.454102,8.248047,8.241211,14.728516
12.084961,11.620117,12.479492,8.800781,15.224609
9.25293,11.432617,9.5390625,7.946289,11.953125
9.558594,8.008789,6.9296875,7.573242,11.7890625
9.71875,9.051758,6.3398438,5.126953,12.120117
12.560547,8.416992,6.868164,5.390625,11.018555
11.438477,8.584961,5.6728516,5.3740234,12.827148
10.067383,10.285156,5.7851562,6.3583984,15.580078
12.692383,10.527344,10.365234,8.739258,15.886719
12.141602,12.256836,11.09375,8.180664,14.844727
11.861328,11.6796875,4.899414,6.301758,15.19043
8.697266,10.543945,2.8955078,5.0439453,14.926758
8.390625,8.344727,4.873047,6.0117188,10.883789
8.199219,8.541992,3.991211,3.9101562,9.232422
7.326172,9.512695,4.9501953,4.3115234,8.043945
8.583984,9.288086,5.4091797,4.8740234,8.905273
12.785156,10.280273,5.446289,2.8652344,12.37207
12.711914,11.24707,7.7958984,6.390625,12.813477
9.178711,10.357422,4.9716797,5.296875,12.800781
10.301758,10.088867,4.928711,5.651367,11.90918
9.901367,10.734375,5.1220703,4.1523438,10.759766
9.7109375,10.763672,5.1191406,4.5478516,2.7382812
9.3203125,10.75,4.7421875,4.3564453,9.724609
9.231445,10.111328,4.640625,3.5185547,13.314453
9.5390625,10.328125,3.9228516,2.4765625,13.683594
9.495117,10.831055,3.8730469,1.7841797,14.84668
8.993164,10.65332,2.928711,6.7041016,16.05957
10.249023,9.75,3.1503906,5.9453125,16.910156
9.741211,8.516602,3.165039,6.7773438,15.717773
9.360352,9.135742,4.5214844,3.3652344,13.736328
6.6933594,9.0078125,6.9726562,5.741211,15.615234
8.397461,9.3203125,5.623047,6.5703125,17.72461
10.451172,6.3222656,8.245117,8.646484,16.892578
9.671875,8.8671875,9.194336,8.646484,15.423828
8.952148,10.696289,3.866211,6.1992188,12.15332
8.170898,7.6347656,4.397461,4.770508,10.5234375
7.091797,6.6308594,3.3603516,5.3398438,10.18457
9.743164,6.0185547,3.4658203,4.6835938,10.635742
8.786133,5.4003906,3.6396484,5.9970703,8.904297
8.896484,5.260742,3.5859375,5.1064453,7.623047
8.917969,4.4404297,3.5097656,3.7675781,8.389648
7.973633,6.9472656,2.6132812,5.1708984,8.022461
7.6445312,8.314453,3.1621094,4.7666016,6.0458984
7.267578,6.0791016,3.0449219,2.3076172,7.904297
5.588867,4.9453125,3.0488281,2.5283203,8.067383
6.7509766,5.125,2.1572266,4.1308594,7.169922
8.291992,4.5097656,3.3720703,4.1328125,5.8779297
8.402344,4.881836,2.6728516,3.5146484,3.5351562
9.080078,4.595703,2.953125,2.413086,2.3417969
9.0234375,6.3154297,2.9042969,4.0898438,5.446289
5.96875,6.626953,3.147461,4.161133,4.4570312
3.5019531,5.395508,3.5322266,3.272461,4.504883
4.2285156,4.3847656,2.796875,4.354492,3.8544922
4.9121094,4.1396484,3.0644531,4.432617,3.9257812
6.6416016,4.2714844,3.6455078,4.4453125,3.9082031
7.0595703,4.504883,3.4111328,4.0507812,4.984375
4.1552734,3.3447266,2.741211,3.413086,6.1953125
3.1259766,2.5458984,1.1699219,2.3076172,6.220703
3.0976562,4.8125,2.5429688,2.8320312,4.0820312
4.1503906,4.404297,2.7460938,3.4091797,3.5136719
4.948242,4.1884766,2.663086,4.267578,3.8076172
5.3291016,5.5742188,3.2421875,4.272461,4.2265625
5.2509766,5.6240234,3.459961,4.598633,4.7109375
6.1083984,5.3359375,3.8623047,4.448242,4.7060547
6.915039,4.1572266,3.5830078,4.328125,4.270508
6.3378906,4.942383,3.3085938,4.591797,4.1708984
5.8789062,5.9570312,4.2753906,5.0351562,3.1142578
6.727539,7.5273438,4.9072266,5.754883,4.9277344
7.348633,8.716797,5.1816406,5.817383,5.4589844
7.901367,7.763672,4.834961,6.5371094,6.4746094
7.588867,7.5341797,4.9697266,6.555664,6.513672
8.589844,7.3066406,5.5322266,6.5214844,4.3623047
11.036133,7.0078125,5.2128906,7.0898438,3.959961
12.286133,6.267578,4.3916016,7.239258,4.0058594
12.336914,5.598633,8.333008,7.0253906,4.557617
12.395508,5.439453,7.8203125,7.1708984,2.756836
14.34375,7.6845703,7.477539,6.3964844,4.7304688
16.69629,7.0927734,5.9023438,6.194336,4.7197266
15.852539,6.5029297,6.7070312,5.7890625,3.5058594
14.943359,6.4179688,6.676758,4.7216797,4.533203
12.975586,6.7578125,7.381836,2.9970703,6.9179688
12.837891,5.2841797,10.803711,7.7714844,10.072266
11.646484,4.9716797,7.834961,7.501953,10.932617
13.004883,6.053711,6.4804688,5.248047,11.119141
10.910156,5.7695312,3.430664,4.989258,10.019531
8.732422,5.540039,3.7802734,4.998047,10.160156
10.180664,6.774414,8.40625,4.708008,11.250977
10.083984,6.8183594,5.2558594,5.267578,10.938477
10.435547,7.147461,8.59375,4.995117,12.165039
11.5234375,8.352539,9.555664,4.2041016,13.917969
13.118164,9.524414,8.552734,2.59375,12.042969
16.128906,10.245117,9.399414,3.194336,13.402344
19.24121,9.71582,10.072266,6.3583984,13.801758
19.225586,9.123047,10.661133,6.5751953,14.703125
20.117188,8.727539,12.152344,6.5302734,14.736328
20.892578,3.9873047,11.904297,10.069336,11.064453
20.36621,5.6679688,14.466797,13.811523,8.569336
20.529297,5.4140625,14.05957,13.958984,11.107422
19.611328,5.526367,13.731445,11.739258,9.8828125
16.236328,4.6308594,11.998047,11.479492,4.404297
13.662109,4.2617188,8.639648,9.991211,4.201172
11.568359,7.357422,7.3603516,9.956055,4.9804688
10.828125,9.489258,6.126953,8.238281,6.6865234
9.094727,7.9384766,5.888672,6.6640625,6.716797
6.866211,10.267578,4.7470703,5.725586,9.069336
3.959961,10.2109375,2.9648438,5.4990234,8.6796875
5.5722656,11.515625,2.4345703,4.430664,8.396484
5.868164,9.276367,4.3222656,5.444336,7.1533203
6.5039062,5.227539,7.0214844,6.0009766,4.2910156
7.3046875,6.6884766,5.9052734,5.0898438,4.234375
6.9541016,5.8828125,5.501953,3.6738281,4.196289
6.411133,3.8535156,2.4667969,3.6103516,3.828125
5.4882812,5.426758,2.7070312,3.7636719,4.5302734
5.6503906,6.3710938,2.1386719,4.008789,4.779297
3.9375,9.051758,3.6513672,5.196289,7.3359375
3.8623047,10.994141,4.4746094,6.8164062,8.1171875
2.8154297,12.875977,4.34375,7.8183594,10.166992
