"[299, 255]","[227, 248]","[287, 319]","[279, 328]","[230, 262]"
13.301758,17.454102,13.442383,13.399414,15.40918
12.8359375,18.604492,14.359375,14.103516,15.449219
11.65332,18.670898,14.396484,14.951172,14.842773
14.081055,18.751953,16.077148,16.506836,15.450195
14.901367,17.513672,16.313477,16.94336,16.05957
13.71875,17.015625,15.873047,16.433594,15.12793
14.701172,16.435547,15.141602,15.337891,14.143555
14.858398,15.428711,14.191406,14.000977,13.916016
13.87793,14.399414,13.675781,13.353516,11.370117
10.6953125,12.381836,13.191406,11.199219,9.269531
8.331055,9.225586,9.47168,7.734375,5.8251953
7.3935547,10.27832,7.442383,6.669922,7.5625
7.4277344,11.744141,9.144531,8.139648,8.482422
11.885742,14.822266,5.2910156,7.104492,12.796875
17.155273,21.545898,7.176758,10.177734,13.540039
23.070312,24.09668,9.181641,14.532227,21.476562
21.976562,23.19629,9.68457,15.602539,21.798828
19.570312,24.644531,13.583008,13.332031,22.101562
20.286133,24.202148,17.89746,16.217773,23.082031
20.174805,23.045898,22.238281,17.114258,23.234375
19.773438,18.982422,20.511719,16.694336,20.891602
20.947266,15.658203,18.368164,16.007812,18.777344
20.469727,15.347656,15.466797,14.267578,13.766602
15.8984375,16.516602,14.946289,14.364258,15.166992
13.475586,17.17871,18.84375,13.793945,15.69043
13.385742,18.546875,18.888672,15.34668,18.00879
13.970703,18.266602,15.379883,13.641602,19.245117
15.393555,17.375977,15.28418,9.706055,18.314453
16.268555,17.152344,11.541992,9.1328125,17.112305
14.5703125,18.00293,15.246094,12.786133,18.28125
12.857422,16.780273,16.192383,13.405273,18.200195
13.533203,13.333008,16.166016,12.5703125,16.947266
10.018555,10.996094,16.292969,12.233398,13.21875
8.296875,6.611328,16.18164,8.698242,5.651367
21.367188,26.417969,4.5546875,6.5439453,24.576172
25.547852,29.365234,10.008789,6.9677734,27.46582
25.32129,28.927734,10.267578,7.220703,27.8125
23.893555,24.374023,5.948242,5.9521484,23.99121
24.124023,23.516602,2.2167969,5.022461,21.917969
20.808594,20.433594,8.713867,3.6992188,20.536133
17.71875,21.396484,18.314453,12.904297,21.49121
20.93164,26.532227,19.402344,16.731445,25.694336
25.495117,30.231445,24.490234,20.705078,28.021484
29.17871,26.177734,23.476562,21.163086,26.004883
20.475586,17.736328,18.06836,15.6796875,16.088867
13.008789,15.325195,13.1484375,12.7421875,14.063477
11.514648,17.123047,9.413086,11.904297,12.197266
10.994141,14.985352,10.802734,10.375,9.758789
9.957031,15.892578,8.55957,8.859375,10.703125
9.669922,17.97461,8.044922,6.9375,13.740234
9.495117,15.161133,9.082031,5.1464844,9.702148
9.348633,9.896484,8.869141,7.0966797,10.980469
9.578125,11.457031,7.40625,7.1347656,9.713867
6.388672,9.919922,6.6748047,6.5195312,8.527344
4.6884766,13.482422,6.2216797,5.9228516,7.5390625
3.7451172,14.431641,5.984375,5.001953,8.730469
7.165039,17.208984,4.5195312,5.6210938,14.333008
13.042969,18.921875,4.317383,8.30957,15.134766
11.764648,16.921875,7.40625,8.864258,14.661133
11.129883,14.141602,3.8154297,3.8876953,9.951172
9.853516,11.982422,4.788086,5.977539,10.5859375
8.294922,11.615234,7.6132812,5.966797,8.416016
7.4501953,13.647461,6.5009766,6.004883,8.384766
7.5527344,12.258789,5.991211,6.220703,8.469727
10.333984,16.680664,7.848633,7.2333984,11.013672
13.55957,19.200195,8.266602,10.299805,14.795898
16.831055,18.166992,12.362305,14.364258,14.932617
16.867188,14.3046875,13.443359,14.6640625,12.27832
14.613281,14.831055,12.97168,12.561523,13.444336
13.193359,16.387695,7.256836,9.919922,12.529297
11.625977,16.625977,8.060547,5.9765625,13.052734
12.924805,26.086914,10.404297,6.5820312,22.966797
19.708984,26.750977,17.142578,17.146484,23.416992
20.507812,26.829102,16.44336,15.347656,22.527344
18.511719,25.543945,10.365234,10.188477,23.225586
12.487305,22.682617,13.853516,14.949219,21.011719
16.357422,21.27539,14.1171875,15.841797,20.536133
16.865234,20.018555,10.816406,14.449219,19.691406
15.542969,16.66211,9.512695,13.114258,15.920898
12.7421875,12.174805,7.9765625,7.4726562,11.402344
8.802734,7.6835938,5.9472656,6.640625,5.9160156
4.1953125,3.8652344,4.5546875,5.5146484,4.495117
4.3359375,7.828125,3.0126953,4.8291016,5.373047
2.3085938,11.589844,3.8134766,6.1533203,10.086914
5.626953,13.458008,3.4228516,6.600586,12.90332
7.524414,15.103516,11.864258,8.693359,13.609375
9.185547,15.639648,3.5761719,9.954102,14.582031
11.40918,16.87207,7.6640625,9.462891,17.069336
11.727539,16.746094,8.871094,9.431641,17.44043
12.572266,17.160156,8.682617,9.423828,18.472656
12.666016,18.063477,13.438477,12.267578,19.36914
13.365234,20.030273,16.25586,12.21875,21.761719
14.924805,20.863281,16.82129,16.410156,21.887695
19.09375,23.40625,16.967773,18.305664,22.773438
19.660156,23.879883,20.855469,21.273438,24.33789
16.990234,23.979492,18.646484,19.362305,23.685547
17.916992,20.079102,15.501953,13.435547,17.99707
16.319336,10.928711,7.294922,8.533203,9.8359375
12.376953,12.4609375,7.1328125,8.171875,9.500977
11.446289,12.745117,8.358398,9.353516,10.2265625
12.610352,11.978516,8.243164,9.135742,10.331055
11.650391,9.986328,5.932617,7.6015625,7.0078125
6.4804688,8.157227,4.830078,7.0898438,4.411133
4.845703,3.7988281,3.571289,4.3759766,3.2441406
4.6132812,4.291992,2.821289,4.7753906,4.046875
5.4003906,5.067383,3.8261719,4.953125,4.323242
5.7871094,7.2841797,3.8535156,5.4492188,4.8554688
4.5273438,7.8134766,3.3076172,5.9501953,5.8867188
4.4140625,7.2216797,2.859375,5.953125,6.713867
7.0351562,8.204102,4.0195312,6.498047,5.7578125
8.142578,7.555664,4.626953,7.1367188,6.6347656
9.3828125,10.651367,4.6191406,8.139648,8.316406
10.208008,11.641602,4.4746094,8.629883,8.833008
10.638672,11.655273,4.618164,8.734375,8.763672
11.037109,10.797852,4.553711,8.841797,6.861328
10.902344,12.260742,4.3378906,10.0625,10.50293
11.350586,12.760742,4.051758,10.503906,10.923828
10.461914,11.868164,4.9023438,9.817383,8.847656
11.537109,10.274414,4.2490234,8.188477,7.1845703
9.996094,10.935547,4.3046875,7.0283203,7.5898438
9.173828,11.529297,3.9980469,8.814453,8.869141
8.8203125,10.725586,4.9541016,9.755859,8.862305
9.166992,8.462891,4.4521484,9.056641,7.1064453
7.3242188,9.334961,5.8847656,8.314453,5.705078
7.359375,8.84668,5.107422,7.765625,6.5810547
11.43457,5.828125,3.4736328,5.154297,3.0791016
12.290039,4.376953,4.415039,4.489258,2.930664
6.649414,3.7080078,4.330078,5.022461,4.2226562
6.5341797,4.5283203,3.5253906,3.7617188,3.9560547
4.3759766,5.1396484,3.1582031,2.8134766,4.0117188
5.040039,7.4072266,2.3652344,2.4990234,3.9121094
3.6503906,5.3291016,1.5693359,3.390625,3.7958984
3.6933594,4.263672,1.8291016,3.9414062,4.4990234
3.618164,2.8808594,1.9628906,3.2675781,2.921875
5.28125,3.5703125,2.0664062,1.9580078,4.0839844
5.426758,4.1689453,1.8349609,2.9228516,4.114258
5.9072266,3.421875,1.6025391,2.6542969,3.022461
3.6542969,3.9794922,1.4658203,1.625,4.2714844
6.546875,4.5458984,1.7421875,3.2539062,4.4570312
6.3085938,4.736328,2.8447266,3.5830078,7.114258
6.1445312,4.9501953,2.586914,2.868164,6.814453
7.8447266,5.551758,4.1396484,3.2861328,3.8300781
11.306641,4.2128906,5.2470703,5.0791016,4.3652344
12.079102,4.3916016,6.3398438,6.8027344,4.854492
12.287109,7.873047,5.734375,8.380859,5.415039
12.731445,7.8710938,5.426758,9.538086,5.796875
12.669922,8.254883,6.4833984,9.708984,5.6904297
13.881836,12.253906,6.7265625,10.525391,7.2021484
13.551758,12.454102,6.2626953,10.7265625,10.279297
15.436523,14.665039,5.430664,10.625,11.174805
16.354492,16.137695,7.2148438,12.236328,12.982422
16.620117,15.946289,5.9052734,11.998047,13.017578
14.416992,16.44629,6.270508,11.47168,12.719727
12.811523,11.107422,4.9658203,10.887695,9.680664
10.046875,5.1328125,3.7802734,8.306641,5.640625
9.46875,8.680664,3.397461,7.341797,13.775391
7.40625,14.050781,3.1503906,4.5771484,14.205078
5.651367,13.672852,5.555664,6.0117188,11.451172
4.5498047,9.037109,5.9492188,5.9208984,10.279297
7.3828125,7.805664,5.0390625,6.041992,7.638672
11.1953125,6.459961,3.9541016,6.2246094,10.932617
11.828125,5.75,2.3916016,4.129883,12.475586
14.760742,8.439453,6.6552734,4.9853516,13.7734375
17.195312,10.0,11.904297,4.1835938,12.240234
16.467773,11.893555,13.510742,10.640625,11.881836
16.551758,16.045898,13.362305,14.787109,11.552734
18.84375,22.805664,13.048828,16.610352,16.174805
22.253906,24.75,14.182617,21.307617,19.904297
21.664062,22.24121,15.12793,22.50879,17.155273
18.21875,20.80371,14.205078,17.444336,19.554688
16.259766,24.865234,12.455078,12.949219,24.756836
18.628906,25.357422,17.134766,16.704102,24.487305
18.636719,25.006836,17.853516,15.436523,22.033203
18.764648,21.3125,17.114258,13.595703,18.984375
15.577148,19.610352,15.916016,14.419922,17.63086
14.449219,17.578125,15.072266,14.823242,15.0703125
12.352539,14.46582,12.31543,12.134766,10.43457
9.970703,11.331055,8.135742,9.334961,7.415039
8.123047,7.4765625,8.4609375,6.9189453,5.1376953
6.756836,6.8867188,7.564453,6.6083984,7.6884766
7.243164,9.203125,7.580078,7.873047,9.199219
9.0625,7.9882812,6.5195312,5.7998047,6.4628906
13.767578,7.0214844,6.3603516,6.3916016,5.2773438
15.927734,6.9765625,6.640625,8.331055,5.3740234
14.40625,10.275391,7.8242188,7.5625,7.6376953
7.5273438,13.486328,8.003906,8.515625,12.452148
14.339844,14.900391,10.771484,7.223633,10.470703
13.087891,16.532227,11.829102,9.178711,15.410156
12.84082,18.39746,12.883789,11.016602,16.639648
12.939453,17.288086,10.923828,12.947266,16.694336
11.84375,19.40332,13.677734,13.177734,15.288086
13.731445,17.899414,13.314453,15.887695,15.334961
13.762695,16.955078,15.102539,14.698242,13.439453
13.863281,16.177734,16.699219,14.4140625,13.25
10.739258,14.927734,14.524414,13.188477,11.939453
11.878906,13.361328,13.904297,13.972656,12.374023
11.786133,9.780273,13.798828,13.972656,11.52832
6.6035156,7.2695312,9.761719,8.183594,5.866211
4.5166016,6.489258,7.557617,6.0439453,5.4472656
5.5566406,9.073242,4.180664,5.2695312,6.6220703
6.6015625,9.301758,3.9677734,6.2871094,6.7939453
7.4960938,9.425781,6.645508,6.2441406,6.5839844
7.504883,8.921875,8.578125,6.078125,6.4003906
7.0146484,7.7666016,3.3486328,7.794922,6.861328
6.9746094,7.158203,2.6191406,7.65625,6.8603516
10.069336,4.7490234,4.4765625,6.1972656,5.3554688
13.256836,6.370117,5.709961,7.4960938,5.3085938
15.901367,11.802734,7.239258,7.3876953,8.947266
20.583008,16.097656,10.291992,8.268555,9.736328
20.819336,15.865234,15.006836,11.958008,10.329102
23.896484,18.74707,15.948242,17.60254,12.754883
24.02246,18.765625,13.109375,20.857422,15.016602
22.0625,18.344727,12.887695,18.573242,16.188477
19.226562,17.580078,8.663086,13.310547,15.154297
18.499023,14.886719,8.871094,11.665039,13.1796875
15.491211,12.087891,8.319336,9.4765625,12.294922
15.084961,12.575195,7.1152344,9.291992,9.62207
15.197266,11.279297,8.173828,7.9873047,10.202148
17.401367,9.796875,9.506836,8.014648,9.80957
18.164062,9.640625,9.626953,10.884766,8.643555
14.220703,6.506836,12.936523,11.996094,11.268555
17.482422,8.90332,13.3515625,13.212891,11.108398
17.728516,8.859375,12.716797,12.786133,9.713867
16.007812,4.4414062,11.28418,10.874023,5.348633
15.149414,4.510742,11.283203,9.917969,5.7128906
16.088867,5.120117,11.331055,10.506836,6.2578125
17.069336,5.0566406,12.728516,10.833008,8.775391
17.064453,4.6132812,14.472656,10.391602,13.442383
18.237305,2.7509766,15.121094,10.506836,14.227539
22.998047,3.6621094,15.28125,8.578125,13.467773
26.118164,6.560547,16.273438,7.760742,15.957031
25.608398,8.432617,16.80664,7.848633,17.293945
22.451172,4.196289,17.136719,5.772461,16.536133
23.24121,6.0908203,19.194336,6.461914,16.532227
24.71582,7.364258,22.12207,8.463867,16.49414
25.79004,3.8603516,22.09375,10.756836,15.720703
24.120117,3.7695312,21.402344,9.378906,16.679688
24.80371,7.3896484,15.352539,9.94043,17.339844
24.865234,6.234375,16.057617,9.267578,18.112305
21.728516,9.327148,13.740234,12.265625,18.952148
