"[299, 255]","[227, 248]","[287, 319]","[279, 328]","[230, 262]"
6.7421875,7.0634766,5.1748047,7.830078,5.208008
5.0410156,9.28418,5.1875,5.1396484,10.96582
8.223633,11.952148,7.0126953,7.448242,14.166016
10.868164,13.764648,10.010742,10.34082,17.612305
11.328125,14.902344,10.211914,12.225586,19.13086
13.05957,16.933594,12.287109,13.803711,20.634766
12.396484,17.509766,9.8359375,12.463867,22.480469
12.05957,16.079102,9.689453,11.161133,21.487305
11.041016,17.550781,10.205078,11.772461,18.541016
13.075195,17.232422,15.405273,12.576172,16.611328
13.197266,16.036133,12.850586,9.916016,16.24414
12.818359,11.079102,10.03125,12.224609,13.667969
11.089844,10.824219,12.545898,13.871094,13.731445
10.022461,11.25,14.121094,12.144531,13.166992
8.536133,11.18457,10.875,10.373047,11.759766
5.526367,10.020508,11.157227,7.2470703,9.618164
5.5,6.1601562,7.946289,7.3271484,6.2851562
3.2236328,5.192383,6.0742188,6.5585938,4.2441406
5.326172,5.9560547,10.53125,10.381836,8.194336
6.838867,5.861328,13.114258,12.019531,8.90332
9.706055,5.8740234,13.072266,12.384766,8.984375
10.421875,4.314453,11.771484,13.111328,7.6914062
8.666992,5.430664,9.3359375,7.661133,4.4902344
5.158203,4.7978516,4.145508,6.6621094,3.0605469
4.845703,2.741211,4.4697266,2.8300781,3.5214844
4.8466797,2.8798828,3.4277344,3.8496094,4.0908203
5.6591797,4.0478516,9.293945,8.196289,7.5751953
7.5029297,5.8222656,10.90918,11.006836,10.582031
8.125977,8.230469,12.754883,12.21582,12.277344
7.96875,9.987305,12.207031,12.109375,13.105469
7.7978516,11.661133,9.026367,9.970703,12.413086
8.160156,12.3828125,8.72168,9.587891,12.080078
8.099609,13.370117,14.901367,12.180664,15.239258
10.018555,11.258789,12.386719,15.0625,13.706055
16.3125,10.583984,15.646484,14.553711,13.326172
16.378906,10.71875,16.66211,14.786133,13.366211
16.250977,9.180664,15.461914,15.72168,12.183594
15.274414,4.866211,15.845703,16.74707,10.214844
15.923828,5.6435547,13.469727,13.290039,8.056641
12.1015625,7.651367,10.111328,9.115234,7.151367
11.924805,6.2558594,8.217773,7.3876953,6.366211
11.4296875,5.4023438,6.9033203,5.580078,9.299805
11.685547,9.307617,11.155273,9.950195,13.875
15.5625,10.260742,15.295898,16.628906,15.302734
17.876953,9.735352,16.331055,17.00879,16.384766
16.576172,10.038086,16.623047,17.001953,13.4375
13.946289,9.984375,13.904297,12.703125,9.7890625
10.019531,6.0771484,7.4501953,9.506836,4.4765625
10.864258,6.208008,7.2822266,8.500977,5.0839844
10.541992,6.975586,8.527344,8.630859,5.213867
11.114258,5.8671875,10.217773,9.4609375,7.3398438
11.34375,10.305664,9.854492,10.005859,8.494141
11.484375,10.7734375,9.24707,10.826172,8.673828
11.069336,6.701172,9.34082,10.834961,7.544922
9.089844,6.892578,7.290039,8.696289,5.4765625
4.926758,5.84375,5.595703,7.245117,6.2910156
2.665039,5.0654297,3.8173828,3.5009766,6.0302734
1.8261719,7.0615234,4.866211,2.0195312,4.805664
5.703125,6.6240234,9.121094,4.173828,7.2333984
7.098633,6.274414,9.323242,8.813477,8.950195
9.65918,7.5439453,9.004883,8.962891,8.972656
9.884766,8.558594,11.418945,9.8125,8.774414
14.500977,8.384766,9.739258,8.40625,7.9677734
14.806641,7.220703,6.584961,6.1152344,13.904297
13.836914,5.330078,6.274414,5.8222656,13.129883
7.133789,5.0976562,5.586914,5.7617188,8.943359
7.361328,4.307617,5.791992,7.216797,8.878906
7.536133,5.7373047,5.716797,6.2734375,10.518555
7.4160156,7.6191406,5.591797,6.510742,10.415039
6.8847656,7.392578,4.821289,8.106445,6.5859375
5.9052734,5.3398438,5.2978516,7.3203125,5.102539
7.748047,4.501953,3.5634766,4.7529297,4.4433594
7.9023438,6.8632812,3.1611328,4.7353516,6.4228516
7.135742,6.8652344,5.088867,4.091797,6.223633
8.966797,5.5947266,11.761719,4.260742,8.365234
13.158203,5.828125,13.794922,10.511719,9.87207
14.5,7.376953,11.513672,9.700195,9.753906
13.057617,8.344727,10.611328,9.395508,10.751953
9.859375,8.568359,10.472656,9.526367,10.1171875
8.097656,5.7958984,9.041016,9.401367,6.7109375
5.5273438,3.2314453,9.0234375,6.9101562,3.538086
8.260742,3.5742188,9.160156,4.7753906,5.5595703
11.071289,5.126953,8.574219,15.852539,6.7216797
10.6328125,5.5898438,6.915039,7.0976562,7.3271484
7.958008,6.5283203,8.839844,7.1748047,6.3398438
5.34375,7.118164,9.678711,10.220703,6.3720703
9.192383,5.251953,9.923828,8.709961,4.9521484
14.401367,4.3095703,9.97168,8.004883,6.9003906
13.868164,1.6347656,7.8164062,6.166992,7.1621094
10.678711,2.2685547,7.154297,6.758789,4.055664
10.689453,4.1279297,5.9365234,6.8164062,6.401367
11.080078,3.8242188,5.294922,6.5839844,6.763672
11.600586,4.1064453,7.104492,6.638672,7.345703
11.041992,5.265625,10.032227,7.25,6.8291016
9.926758,9.364258,10.870117,9.177734,10.145508
9.852539,10.43457,8.413086,8.134766,13.1640625
7.745117,10.837891,5.5078125,8.063477,13.951172
7.9277344,10.03125,5.5214844,7.7695312,13.299805
8.928711,10.404297,14.844727,13.880859,14.551758
11.100586,9.930664,13.535156,13.363281,14.424805
11.725586,8.709961,11.2890625,11.293945,15.961914
10.19043,6.9541016,10.930664,10.666992,14.165039
5.055664,6.6308594,4.1347656,7.883789,10.783203
8.526367,9.62207,3.8574219,6.7578125,4.9990234
8.746094,8.771484,3.4560547,6.064453,8.28125
13.769531,6.7509766,6.254883,6.661133,7.756836
13.818359,6.953125,12.619141,6.8466797,9.510742
13.075195,6.5791016,15.158203,13.94043,10.012695
12.6328125,7.1914062,16.34961,15.998047,10.083008
11.71582,7.9033203,13.225586,13.925781,8.895508
11.572266,12.708008,12.435547,11.390625,10.451172
9.232422,12.6953125,6.8789062,18.077148,11.186523
12.637695,11.8828125,10.105469,17.329102,11.053711
11.359375,9.456055,10.829102,12.202148,8.818359
8.799805,7.0791016,7.5664062,8.21875,7.7851562
9.9140625,7.8789062,9.064453,8.807617,10.228516
10.105469,13.042969,10.332031,9.7421875,12.908203
15.262695,14.442383,8.94043,7.895508,15.692383
17.981445,13.816406,11.954102,7.1289062,13.625977
19.292969,14.202148,11.152344,8.000977,13.545898
17.158203,14.379883,4.6484375,9.046875,15.432617
13.131836,14.541992,6.4814453,10.0234375,14.668945
14.852539,14.8359375,12.943359,13.46875,14.299805
13.716797,14.290039,14.542969,13.46875,15.262695
13.449219,12.72168,11.84082,12.9609375,14.924805
15.399414,12.776367,15.265625,14.508789,12.707031
10.167969,10.449219,6.135742,9.411133,10.9453125
7.8398438,10.848633,5.176758,4.8847656,8.435547
8.779297,7.928711,2.9824219,4.6933594,8.052734
7.883789,8.980469,2.4316406,3.7773438,6.444336
7.2578125,8.884766,6.013672,4.510742,7.2070312
7.001953,10.678711,9.459961,7.288086,10.100586
8.862305,14.410156,13.84668,9.985352,11.053711
10.59082,10.902344,8.685547,12.701172,9.506836
8.542969,9.712891,6.6367188,8.329102,8.133789
3.9580078,8.432617,5.041992,4.2421875,5.8583984
3.180664,6.794922,2.4570312,3.2246094,5.845703
3.2451172,7.5771484,3.7802734,3.6845703,4.370117
8.920898,7.4433594,6.4677734,7.975586,8.091797
14.009766,9.104492,9.642578,10.371094,10.574219
14.087891,6.7929688,10.698242,11.888672,11.461914
11.348633,6.770508,10.977539,12.31543,9.1328125
8.676758,7.6289062,9.140625,9.280273,7.845703
4.46875,7.088867,4.1484375,7.580078,5.267578
3.2792969,11.057617,4.1591797,4.560547,5.083008
3.3730469,11.385742,2.0830078,2.5673828,6.6708984
7.2685547,9.955078,7.8671875,6.897461,9.733398
11.995117,9.305664,10.06543,9.02832,11.299805
11.49707,7.810547,12.224609,12.25293,10.516602
12.200195,7.1152344,7.7285156,12.136719,9.822266
10.915039,6.8398438,8.447266,9.308594,7.4873047
6.1757812,5.626953,4.551758,6.2197266,4.544922
4.694336,4.888672,4.4570312,3.5527344,5.71875
3.133789,9.65625,4.1123047,3.7666016,5.754883
7.629883,6.448242,8.116211,7.0683594,8.908203
9.816406,8.076172,10.204102,9.904297,9.607422
9.683594,6.814453,9.736328,9.774414,10.158203
9.579102,7.635742,9.109375,9.060547,7.9257812
8.202148,7.6484375,7.498047,5.9960938,7.416992
3.8457031,8.016602,7.03125,6.654297,8.225586
3.3154297,8.797852,4.303711,6.9589844,8.24707
5.741211,8.34375,5.5039062,6.8066406,6.5097656
8.341797,8.397461,10.079102,9.4140625,9.884766
9.576172,8.834961,13.261719,13.563477,11.160156
12.691406,9.344727,11.228516,16.645508,11.000977
12.110352,10.232422,12.083984,13.075195,11.237305
4.595703,8.444336,10.986328,8.467773,10.806641
5.4570312,6.895508,6.895508,5.2041016,8.116211
5.618164,6.698242,4.3896484,6.6152344,7.125
4.59375,5.064453,3.600586,7.0029297,5.0615234
6.151367,3.8203125,5.28125,6.25,5.986328
8.387695,5.580078,10.629883,8.478516,9.005859
9.220703,5.9033203,9.598633,8.1875,9.358398
8.375,5.307617,7.9228516,7.3154297,7.451172
7.3203125,6.921875,5.2382812,7.6367188,4.4384766
8.883789,7.024414,5.1445312,4.1035156,5.845703
8.366211,2.5371094,3.9804688,4.0410156,5.286133
7.3691406,1.4648438,2.9228516,3.0361328,2.5595703
6.538086,2.765625,4.7333984,3.2011719,3.2363281
8.696289,4.645508,10.519531,5.801758,5.741211
8.825195,4.7695312,11.77832,5.5771484,6.4384766
8.091797,4.4472656,6.5898438,8.548828,5.8984375
9.047852,4.493164,3.555664,7.004883,5.6992188
7.9179688,5.401367,4.401367,5.7177734,5.5478516
4.180664,5.6845703,4.2333984,3.0517578,9.408203
3.0673828,12.344727,4.885742,3.6357422,11.125
5.8916016,11.755859,5.3359375,4.7734375,10.760742
9.595703,10.076172,6.8623047,6.8398438,11.112305
11.423828,9.46875,9.345703,9.993164,11.466797
12.370117,10.142578,12.803711,11.716797,12.811523
11.529297,16.089844,10.665039,8.598633,14.623047
10.456055,15.550781,9.561523,9.374023,12.740234
11.098633,16.367188,9.603516,8.727539,10.645508
11.076172,14.927734,7.814453,8.832031,13.285156
8.96582,13.711914,7.6289062,7.756836,13.979492
8.714844,12.448242,9.875,8.709961,12.37207
10.481445,9.333008,9.217773,7.6835938,11.584961
12.538086,8.467773,14.883789,11.386719,10.080078
13.626953,8.75,13.116211,6.2109375,7.8779297
20.72168,7.1689453,9.137695,4.2773438,11.55957
25.023438,9.707031,6.0214844,8.53418,15.09082
25.858398,16.338867,11.1875,7.334961,16.63379
26.118164,16.458984,14.635742,13.989258,19.125
27.56836,14.667969,16.979492,16.801758,19.38379
22.707031,11.993164,16.435547,16.299805,18.179688
26.854492,8.654297,15.6640625,14.884766,17.20996
24.161133,11.4375,14.540039,12.698242,15.869141
24.697266,9.267578,12.246094,10.797852,16.026367
19.103516,10.104492,9.542969,8.901367,16.111328
20.736328,9.904297,9.024414,10.291016,13.935547
17.96875,7.7695312,11.634766,11.265625,15.612305
15.707031,5.8984375,10.790039,12.047852,15.329102
12.90918,5.498047,10.52832,11.057617,14.067383
8.984375,5.0546875,9.655273,11.100586,13.135742
8.379883,7.3779297,8.686523,7.8583984,10.711914
9.837891,3.65625,7.9501953,2.2685547,3.546875
9.844727,4.286133,6.0585938,3.477539,4.631836
8.993164,3.0908203,5.0322266,3.7470703,4.7773438
8.354492,7.522461,6.256836,4.7978516,5.2685547
7.098633,7.7539062,5.8828125,5.5390625,9.842773
6.401367,9.317383,6.1796875,5.4414062,12.228516
5.361328,6.9970703,11.217773,9.391602,10.380859
5.6914062,8.116211,3.0878906,4.4101562,8.619141
8.850586,8.375977,6.4375,4.739258,8.615234
7.8554688,8.775391,7.4296875,4.930664,10.766602
4.470703,8.591797,6.604492,6.2246094,10.561523
7.629883,11.228516,8.467773,7.7109375,12.955078
9.660156,13.071289,9.193359,10.225586,15.216797
9.994141,14.567383,9.082031,10.517578,18.192383
10.303711,13.823242,6.9814453,11.689453,17.655273
10.0390625,14.488281,4.3408203,9.025391,16.358398
10.711914,15.530273,3.6660156,9.261719,16.457031
10.469727,15.003906,7.9716797,10.024414,14.591797
9.644531,12.263672,10.038086,10.618164,14.198242
10.579102,11.297852,8.602539,10.942383,13.514648
11.299805,9.314453,7.428711,10.989258,13.376953
12.229492,5.7509766,8.586914,9.444336,9.074219
12.118164,4.6308594,7.1416016,10.06543,6.5751953
10.364258,3.5830078,7.732422,8.035156,4.9521484
14.865234,4.823242,8.088867,10.0546875,4.151367
