"[299, 255]","[227, 248]","[287, 319]","[279, 328]","[230, 262]"
7.7158203,11.425781,4.9189453,4.8164062,12.599609
9.581055,16.176758,11.400391,13.227539,16.978516
15.160156,17.74414,15.592773,15.9921875,19.822266
20.583008,18.621094,18.995117,18.611328,21.018555
21.643555,19.37793,17.923828,17.611328,20.714844
20.135742,14.844727,12.674805,13.253906,13.759766
11.850586,11.566406,8.44043,7.9228516,11.860352
9.950195,7.7773438,5.2978516,5.9716797,8.303711
6.625,6.0664062,5.708008,6.116211,5.881836
5.098633,3.6875,6.6240234,5.7109375,5.7177734
8.246094,6.7539062,10.44043,7.1367188,9.600586
12.450195,9.135742,11.744141,10.7890625,10.386719
13.951172,8.46582,11.701172,11.878906,9.411133
11.769531,7.8964844,9.775391,9.739258,8.608398
8.102539,6.9072266,5.298828,5.9697266,6.6210938
6.6083984,3.7636719,4.1689453,3.0634766,4.524414
5.600586,3.3427734,3.1259766,3.5791016,4.366211
5.3027344,2.8173828,2.756836,4.354492,4.001953
4.395508,2.0527344,3.2597656,4.276367,5.397461
6.198242,4.4248047,5.609375,5.100586,8.110352
6.8583984,6.321289,5.6777344,5.0078125,8.358398
6.076172,6.116211,4.748047,7.0751953,6.879883
3.3085938,4.0722656,8.353516,6.939453,3.7060547
5.3515625,5.595703,3.0322266,3.7236328,4.583008
5.270508,7.209961,2.8388672,4.638672,6.435547
5.1259766,7.716797,2.850586,4.9677734,8.798828
3.96875,8.239258,4.3242188,6.6875,8.111328
6.4091797,7.908203,8.056641,7.6308594,10.28125
7.669922,8.461914,9.790039,9.175781,12.223633
6.9189453,7.1777344,10.216797,9.211914,10.591797
7.7871094,9.369141,5.928711,6.8203125,10.285156
7.814453,11.291016,7.2939453,7.3916016,12.583008
8.895508,12.088867,7.873047,10.65625,13.368164
10.318359,12.416016,10.233398,8.916992,13.96582
10.500977,13.669922,12.704102,9.446289,15.144531
12.216797,15.46875,14.2421875,12.482422,15.432617
13.55957,16.495117,16.048828,13.999023,15.803711
14.519531,13.994141,12.158203,10.211914,13.477539
13.4921875,13.943359,11.0546875,11.862305,12.637695
10.732422,4.336914,12.524414,8.549805,5.5527344
8.660156,2.7402344,7.7216797,8.25293,2.243164
7.0498047,3.5791016,2.7949219,3.7753906,2.6728516
4.298828,2.4794922,4.0927734,6.2001953,4.0009766
5.6435547,2.7626953,10.000977,10.154297,7.1240234
7.879883,4.126953,9.741211,10.080078,8.241211
7.5585938,4.053711,8.446289,9.243164,7.901367
5.008789,1.8408203,7.2001953,4.9609375,4.4140625
6.0283203,4.251953,3.8144531,4.654297,4.125
6.544922,5.692383,3.5058594,4.680664,4.9072266
3.1123047,7.982422,3.9677734,5.774414,6.614258
4.7929688,7.2402344,3.859375,6.9228516,9.704102
8.506836,6.6328125,12.703125,10.087891,13.078125
8.853516,8.691406,12.823242,10.362305,15.691406
7.9716797,11.134766,13.65332,12.371094,15.491211
7.720703,12.053711,13.136719,9.0625,13.8203125
10.088867,12.727539,13.09668,8.629883,13.780273
10.558594,12.883789,11.75293,7.321289,13.762695
10.412109,12.885742,12.317383,8.235352,13.293945
10.912109,12.65625,13.375977,9.516602,13.223633
10.412109,11.30957,12.290039,10.041992,12.600586
8.814453,10.345703,10.855469,9.225586,12.03125
8.032227,8.087891,10.694336,8.0390625,9.761719
6.625,6.794922,6.6591797,5.057617,9.706055
6.1845703,8.490234,2.678711,4.770508,10.186523
4.866211,8.138672,3.6201172,4.1123047,10.024414
5.392578,7.9589844,6.6953125,3.3642578,8.374023
3.8408203,6.854492,7.7578125,5.345703,8.876953
4.6015625,8.279297,10.885742,7.6953125,9.977539
5.5322266,10.279297,9.422852,10.375977,14.626953
7.211914,10.708008,9.817383,9.802734,15.208008
4.607422,8.100586,6.2939453,7.013672,12.511719
5.0908203,9.15918,3.3417969,6.5751953,11.899414
5.3359375,7.7382812,2.9453125,7.442383,10.543945
5.760742,5.7285156,2.7646484,8.598633,7.998047
5.3847656,6.5810547,5.3164062,8.162109,9.888672
7.3564453,5.9716797,6.9960938,8.722656,10.970703
8.691406,5.2246094,6.830078,8.420898,10.6171875
8.425781,6.013672,6.0273438,7.7265625,8.775391
8.994141,4.2685547,5.598633,6.9335938,6.609375
8.5859375,4.4248047,5.7597656,7.0859375,4.676758
5.9941406,4.930664,3.9609375,5.743164,5.1503906
6.073242,6.770508,4.411133,5.2460938,5.553711
6.5507812,6.5117188,4.0966797,5.3759766,7.1679688
8.416016,4.861328,4.317383,7.109375,8.542969
8.714844,7.0410156,5.6640625,7.357422,8.222656
7.9414062,6.0527344,4.6904297,7.866211,6.9160156
8.200195,5.982422,4.401367,5.725586,5.473633
10.326172,5.6308594,4.9902344,5.067383,5.3808594
9.736328,5.361328,5.078125,6.100586,4.7304688
8.15332,5.479492,5.1171875,5.901367,3.1044922
7.919922,3.7216797,5.357422,7.135742,4.493164
8.875,5.013672,5.4697266,8.900391,5.647461
10.4921875,3.1142578,7.783203,10.248047,6.6484375
8.522461,6.4033203,9.307617,7.8554688,8.607422
6.211914,9.94043,4.8847656,4.8740234,8.438477
7.6445312,8.295898,4.8847656,3.2314453,9.665039
7.6210938,8.7265625,4.7177734,4.232422,11.383789
5.5029297,9.004883,6.8085938,5.879883,11.115234
6.7558594,11.391602,7.8466797,7.7539062,14.172852
8.21875,11.891602,10.798828,9.524414,14.894531
15.208008,12.567383,12.316406,11.330078,17.707031
13.457031,12.383789,12.691406,10.435547,16.601562
13.728516,12.183594,9.927734,8.142578,13.793945
13.623047,5.326172,4.5839844,5.9472656,12.214844
13.286133,5.783203,4.5810547,5.1748047,7.5654297
7.2509766,6.770508,4.2617188,2.3740234,6.3427734
7.1484375,6.421875,4.236328,3.4716797,8.598633
7.6328125,5.8916016,7.7158203,5.008789,9.299805
7.7441406,7.0390625,7.484375,5.104492,9.108398
7.161133,6.961914,5.5966797,4.7216797,8.84082
10.999023,8.241211,7.7265625,6.8427734,7.2783203
13.006836,8.0234375,7.751953,5.6123047,6.1210938
13.197266,4.821289,6.4648438,5.604492,5.959961
10.331055,2.975586,4.330078,4.6679688,5.1445312
4.3066406,3.859375,3.2519531,4.2939453,8.541992
9.032227,5.658203,5.8291016,6.176758,9.646484
9.1875,6.2041016,8.449219,5.9804688,11.135742
9.044922,5.9277344,8.262695,7.7421875,10.908203
7.4453125,7.319336,8.170898,7.0859375,8.387695
9.630859,6.6591797,9.245117,6.182617,7.288086
11.49707,5.4697266,9.013672,6.0234375,6.5546875
13.009766,5.9404297,8.567383,6.2158203,7.916992
12.102539,6.1777344,9.974609,7.736328,9.463867
13.188477,7.7529297,10.251953,10.113281,9.615234
14.401367,9.75293,11.130859,10.994141,10.3125
15.895508,10.205078,10.192383,9.458984,10.366211
14.930664,6.6152344,8.1640625,4.2910156,9.311523
14.991211,6.908203,4.8779297,5.7890625,7.28125
6.3242188,6.8935547,9.208984,7.734375,5.7509766
7.7939453,5.935547,6.397461,7.2226562,5.3759766
8.575195,6.7509766,8.306641,9.298828,11.263672
9.033203,12.4296875,6.9628906,10.838867,13.6328125
9.344727,12.821289,8.6484375,11.249023,14.407227
8.314453,12.06543,6.5966797,11.206055,15.925781
7.783203,13.670898,6.1640625,5.908203,14.889648
9.583984,12.537109,5.2998047,7.5546875,14.59375
7.915039,11.541016,5.286133,6.098633,11.177734
6.666992,10.307617,5.583008,6.5527344,8.984375
6.5634766,7.9208984,5.2871094,5.7021484,7.6748047
5.890625,6.870117,7.310547,5.8291016,9.81543
7.263672,6.227539,7.4414062,7.091797,9.880859
7.314453,6.303711,10.380859,6.9384766,8.674805
12.478516,6.1210938,10.479492,8.713867,6.413086
11.478516,6.8867188,7.9228516,9.193359,5.385742
11.779297,6.9658203,4.3115234,7.913086,6.2373047
8.702148,7.8779297,4.5634766,5.466797,5.8027344
9.004883,10.694336,8.49707,8.734375,8.866211
14.537109,11.139648,10.213867,11.333008,14.644531
18.978516,11.0234375,11.036133,15.521484,15.587891
13.005859,8.996094,11.174805,13.373047,14.9765625
11.700195,11.267578,9.045898,7.4677734,11.165039
13.381836,14.442383,8.239258,9.06543,13.6796875
14.509766,14.541992,13.660156,11.59375,14.880859
13.779297,14.665039,13.12793,12.37793,14.543945
13.412109,14.647461,13.02832,13.072266,14.920898
12.2890625,8.739258,11.078125,12.642578,9.314453
14.473633,7.2509766,10.731445,9.419922,7.963867
9.324219,6.4833984,7.116211,8.794922,7.0546875
5.814453,9.987305,4.626953,3.8046875,6.3427734
5.055664,4.5429688,3.4052734,2.2675781,3.4023438
9.807617,8.517578,2.6982422,3.359375,9.875977
16.045898,13.259766,4.4492188,6.294922,11.103516
14.490234,14.005859,11.482422,7.633789,12.248047
21.15332,17.807617,10.766602,12.359375,15.251953
21.368164,17.47461,18.972656,20.655273,17.768555
18.580078,16.479492,17.277344,18.322266,18.958984
12.975586,17.135742,7.0234375,11.654297,14.051758
13.533203,17.59375,7.205078,8.922852,12.447266
15.053711,16.892578,9.328125,10.012695,12.394531
16.378906,14.5625,10.208984,10.196289,10.045898
18.682617,14.325195,15.283203,14.006836,12.318359
21.351562,13.1875,19.90039,20.455078,14.134766
18.078125,9.074219,19.951172,21.854492,13.77832
14.316406,6.4873047,18.707031,14.073242,8.321289
12.800781,10.291016,14.40625,12.723633,8.494141
12.333008,10.97168,8.208008,8.946289,6.5253906
14.3828125,10.469727,7.5947266,7.658203,8.001953
15.450195,11.217773,8.128906,8.5625,11.563477
13.736328,13.143555,12.228516,10.838867,12.197266
14.416016,11.84082,15.543945,16.493164,14.496094
13.016602,10.852539,13.641602,12.175781,14.751953
11.78418,8.733398,5.9375,9.316406,11.517578
12.15332,8.697266,7.8183594,8.333008,3.9111328
11.756836,8.658203,6.0390625,5.7041016,9.548828
10.358398,6.0527344,5.6367188,4.923828,12.901367
8.030273,8.237305,3.9570312,4.0234375,8.745117
11.030273,9.902344,12.339844,9.814453,7.158203
15.0859375,6.2871094,12.379883,11.9609375,10.4375
14.026367,7.0908203,15.395508,14.374023,13.514648
12.569336,6.5947266,12.771484,13.689453,9.724609
8.010742,8.754883,11.297852,12.801758,9.205078
6.888672,9.541992,11.791016,11.110352,8.597656
6.7695312,10.362305,9.260742,10.6484375,8.544922
8.421875,9.1484375,6.392578,11.130859,6.5185547
9.116211,10.832031,8.308594,9.727539,11.595703
10.360352,10.457031,13.40332,10.580078,11.654297
10.65918,10.044922,11.955078,13.869141,14.4609375
10.760742,11.59082,14.674805,9.451172,14.0234375
11.871094,12.15332,9.796875,7.803711,13.90332
13.285156,9.260742,6.038086,6.993164,12.8125
15.103516,11.899414,6.116211,8.208984,9.84375
14.338867,10.0234375,7.3515625,9.345703,11.689453
14.287109,10.037109,12.208008,13.530273,13.4140625
15.198242,13.625,13.983398,15.086914,15.750977
16.725586,16.09082,14.012695,13.360352,16.46289
15.374023,14.259766,12.581055,13.609375,16.49707
15.123047,14.1953125,13.6171875,16.21875,15.6953125
9.930664,15.597656,11.380859,11.973633,13.635742
14.392578,16.19336,13.426758,12.90625,15.326172
14.533203,18.167969,13.857422,14.967773,17.246094
15.59082,16.582031,16.271484,16.706055,16.373047
17.29004,18.738281,16.860352,16.04004,19.111328
16.57129,17.86914,15.198242,14.428711,18.358398
15.100586,16.205078,17.088867,13.99707,19.08789
13.25293,15.515625,8.205078,6.9677734,17.990234
6.7558594,16.482422,9.075195,10.541992,15.494141
6.801758,15.106445,6.5791016,9.513672,13.241211
7.307617,13.4296875,6.7382812,10.597656,13.683594
11.644531,14.291016,11.839844,11.116211,15.59082
12.339844,17.63086,12.200195,11.977539,16.862305
10.916992,16.09961,12.009766,11.71582,17.779297
11.299805,13.3046875,11.712891,11.666992,14.908203
8.611328,12.452148,6.6777344,7.8027344,14.032227
6.084961,12.3125,3.8017578,7.7783203,10.348633
6.873047,11.078125,4.8476562,6.7089844,9.792969
5.6464844,9.569336,5.9160156,6.993164,7.3828125
9.286133,9.59375,10.865234,11.701172,10.618164
11.829102,10.657227,12.259766,12.478516,12.171875
12.294922,11.443359,14.030273,13.454102,13.125977
12.848633,10.722656,12.973633,12.702148,12.130859
12.128906,10.024414,10.450195,12.067383,11.342773
8.314453,10.0234375,6.9746094,9.254883,10.889648
8.87793,10.142578,7.328125,9.642578,8.936523
10.395508,9.758789,8.219727,10.055664,9.454102
13.761719,11.360352,11.197266,12.795898,12.97168
13.688477,11.128906,14.439453,13.248047,13.587891
13.647461,13.448242,13.482422,13.753906,14.212891
13.341797,13.448242,13.775391,14.681641,13.09668
12.5,9.792969,7.336914,10.775391,12.2265625
10.37793,11.073242,4.455078,7.6816406,11.458984
