"[299, 255]","[227, 248]","[287, 319]","[279, 328]","[230, 262]"
5.5654297,13.274414,6.8710938,8.500977,10.3359375
6.958008,12.3125,8.634766,9.419922,6.9003906
11.96875,10.953125,10.646484,11.408203,11.705078
14.921875,9.717773,12.008789,14.259766,14.253906
14.010742,9.057617,14.249023,13.766602,13.048828
12.410156,13.264648,15.041992,12.910156,15.34375
5.5742188,14.020508,10.744141,8.645508,11.05957
6.665039,14.163086,8.670898,9.766602,11.371094
8.077148,13.332031,10.012695,10.595703,13.0390625
11.68457,16.975586,9.998047,10.832031,16.61914
15.325195,19.859375,14.74707,15.97168,22.100586
18.25879,21.93457,19.638672,17.55664,23.791016
18.080078,22.782227,21.608398,18.913086,23.771484
15.5859375,22.046875,21.154297,15.458984,23.38086
15.686523,20.861328,14.050781,14.6875,22.37207
15.209961,18.75293,17.066406,13.551758,19.829102
15.418945,13.550781,13.936523,9.614258,11.338867
12.110352,14.658203,12.461914,9.540039,11.505859
12.072266,14.647461,13.913086,12.251953,13.463867
15.6484375,13.400391,15.282227,16.214844,15.449219
16.208984,14.457031,19.603516,16.992188,16.10254
15.104492,15.325195,13.957031,15.74707,13.344727
11.399414,14.393555,8.558594,11.866211,10.842773
9.0703125,14.447266,9.2578125,10.477539,10.266602
9.098633,12.5546875,9.144531,7.455078,10.09668
7.6914062,12.866211,7.9160156,6.2822266,10.060547
6.8046875,12.151367,4.368164,8.457031,10.805664
9.4921875,13.280273,11.581055,8.425781,14.336914
10.436523,12.589844,11.329102,9.859375,15.6171875
8.549805,10.714844,10.5390625,8.175781,14.447266
8.719727,10.135742,7.279297,7.493164,11.234375
8.730469,5.6445312,5.338867,6.5322266,6.897461
7.5283203,4.145508,4.1953125,4.236328,4.3671875
4.4560547,3.453125,3.8173828,4.479492,2.8164062
5.2695312,2.6484375,3.321289,4.2001953,3.9277344
6.8984375,4.0947266,5.7939453,5.676758,7.2021484
5.5566406,9.305664,5.6191406,6.0,8.097656
5.4560547,9.700195,3.9257812,5.6601562,7.5166016
10.324219,8.069336,4.350586,5.9384766,6.0908203
10.319336,8.123047,4.129883,4.0126953,6.8867188
9.719727,6.1679688,4.6191406,5.513672,6.803711
10.546875,6.9814453,5.8291016,5.4296875,9.067383
16.864258,7.5751953,10.405273,9.551758,15.051758
17.03711,7.348633,13.262695,11.584961,15.542969
18.118164,7.484375,13.041992,11.749023,15.708984
17.80371,5.486328,12.69043,11.923828,14.688477
19.786133,12.292969,14.144531,11.00293,17.15039
20.492188,6.588867,13.81543,9.696289,18.240234
18.982422,7.1835938,14.134766,7.885742,15.595703
18.527344,6.336914,12.573242,6.118164,14.4765625
19.524414,5.2373047,12.591797,5.885742,10.063477
17.87207,4.8222656,13.875,5.520508,8.27832
10.580078,4.836914,13.961914,7.4189453,7.010742
11.180664,3.1835938,9.990234,7.118164,5.932617
7.7910156,3.3134766,8.728516,7.875,4.836914
9.15625,4.192383,6.466797,8.31543,4.1015625
9.324219,3.913086,5.658203,6.7802734,4.129883
10.193359,6.694336,5.6816406,7.28125,4.225586
10.234375,5.1953125,5.3378906,9.40332,5.8203125
11.087891,6.5117188,10.196289,9.896484,10.564453
12.088867,6.7978516,9.765625,12.029297,8.604492
10.084961,6.8964844,5.9990234,7.8632812,5.169922
6.001953,5.7304688,3.038086,5.388672,4.7246094
4.703125,5.6816406,4.2529297,3.930664,4.4277344
4.709961,4.8085938,3.0517578,3.3076172,4.4316406
4.591797,4.6533203,2.2324219,3.9970703,4.364258
4.0566406,4.560547,7.029297,3.015625,5.3408203
7.0546875,5.489258,8.43457,9.0546875,9.860352
7.7314453,6.571289,11.850586,8.079102,9.283203
7.3564453,3.4804688,10.527344,10.207031,6.7714844
11.15918,7.2490234,10.814453,6.508789,8.87793
12.12207,7.520508,11.232422,6.5742188,7.9365234
13.03125,7.814453,11.165039,7.7753906,7.1503906
14.854492,9.537109,11.94043,7.8808594,10.399414
15.833984,9.849609,14.78418,12.6640625,13.4921875
15.794922,10.181641,15.1953125,14.365234,13.963867
15.963867,9.34668,15.916016,16.442383,12.162109
15.916992,7.8710938,14.082031,14.264648,9.459961
17.594727,5.0185547,13.501953,11.407227,8.200195
17.39746,6.942383,13.421875,11.443359,10.970703
15.6328125,7.546875,13.5,10.146484,11.076172
16.34961,8.408203,13.073242,10.416992,10.717773
16.46582,11.337891,13.855469,12.291016,10.996094
16.86621,11.972656,14.833984,15.0078125,12.672852
15.941406,9.060547,14.950195,15.097656,12.3203125
15.200195,10.256836,14.817383,13.383789,11.041016
16.574219,7.8779297,14.212891,8.739258,10.966797
17.964844,5.4609375,11.803711,6.911133,8.963867
14.958008,2.9667969,13.051758,6.8603516,7.6689453
13.276367,4.9785156,12.430664,6.357422,6.854492
15.089844,2.2402344,10.416992,6.7001953,9.547852
15.512695,4.623047,10.620117,6.379883,9.262695
15.208984,7.1103516,10.390625,10.152344,10.244141
14.984375,6.899414,9.599609,6.9541016,9.467773
14.807617,6.5820312,10.097656,3.2832031,7.069336
12.90625,4.7822266,10.053711,4.1279297,5.317383
5.5810547,2.7470703,7.0820312,4.958008,2.984375
2.5419922,4.7910156,5.2021484,4.9570312,3.4707031
5.1708984,5.4296875,2.7792969,3.2822266,5.0302734
7.178711,6.341797,6.067383,5.7265625,7.381836
7.9882812,6.354492,5.635742,7.8027344,8.462891
6.908203,10.543945,10.416992,7.2470703,10.418945
3.8095703,11.799805,6.7421875,6.9960938,12.988281
3.7646484,12.251953,4.2714844,8.0703125,13.764648
6.9228516,15.5703125,7.798828,8.613281,17.313477
10.131836,16.27832,6.2216797,8.430664,17.458984
12.435547,15.72168,13.40332,9.491211,16.780273
12.485352,14.4765625,13.208008,8.760742,14.948242
14.405273,10.753906,13.609375,14.128906,12.743164
16.444336,14.106445,14.682617,14.729492,14.588867
14.248047,13.12793,12.62207,13.371094,16.251953
11.980469,16.269531,11.1484375,10.832031,12.443359
13.956055,15.131836,10.509766,10.913086,12.81543
13.662109,15.204102,10.963867,10.939453,13.739258
15.393555,16.44336,12.538086,13.152344,16.623047
17.09375,16.612305,15.762695,14.566406,16.74707
17.356445,15.771484,16.958984,19.515625,18.414062
17.464844,17.076172,17.999023,16.458984,14.272461
13.979492,13.983398,12.0546875,13.316406,12.4140625
11.517578,15.3515625,8.550781,10.888672,12.508789
8.97168,14.188477,6.7841797,8.0546875,13.21582
6.6435547,15.208984,6.232422,8.066406,12.858398
8.525391,16.021484,8.916992,9.3359375,14.145508
13.832031,15.947266,11.746094,10.110352,13.5078125
12.907227,13.480469,11.639648,10.130859,14.650391
13.200195,12.688477,10.904297,10.750977,11.666992
9.770508,9.709961,7.0039062,8.43457,9.208008
6.9853516,5.088867,5.9072266,8.291016,5.3476562
10.105469,8.316406,6.923828,8.572266,6.5058594
10.516602,8.628906,9.224609,9.589844,7.1796875
9.478516,7.6464844,11.282227,10.401367,8.342773
11.265625,9.55957,11.282227,11.03125,12.2421875
13.456055,13.294922,14.629883,14.027344,15.481445
14.774414,16.363281,15.8359375,14.763672,17.131836
15.737305,16.700195,15.875977,15.863281,17.207031
19.254883,15.708008,16.756836,16.833008,17.919922
20.058594,14.9296875,17.145508,13.588867,14.862305
15.5,15.217773,17.18164,13.723633,13.540039
16.606445,15.845703,17.75,16.838867,16.466797
18.230469,14.405273,18.457031,19.588867,15.283203
19.936523,9.618164,21.124023,19.436523,15.503906
19.40039,9.03418,21.15332,19.125,13.677734
14.619141,12.09375,18.357422,17.59668,8.926758
13.635742,10.379883,16.518555,15.342773,11.3515625
14.176758,11.891602,14.786133,12.447266,12.2421875
12.825195,11.131836,13.564453,12.902344,10.548828
15.345703,9.514648,14.869141,13.395508,11.393555
13.830078,9.772461,14.140625,13.408203,14.629883
13.78125,10.62793,15.042969,14.219727,16.576172
17.086914,12.34375,16.041992,16.27832,17.96875
11.536133,15.979492,12.047852,15.060547,14.569336
10.803711,16.302734,18.807617,14.288086,17.615234
16.054688,14.545898,22.817383,12.415039,19.267578
16.390625,16.936523,16.791992,15.5546875,16.996094
17.485352,18.105469,16.27832,15.9453125,18.825195
20.081055,18.256836,19.378906,20.833008,19.061523
19.049805,17.02539,20.730469,21.104492,20.905273
18.219727,16.125977,20.91504,21.473633,21.967773
20.144531,19.518555,18.634766,23.234375,20.711914
20.92871,19.49414,20.850586,17.612305,17.995117
20.389648,17.177734,16.742188,15.370117,14.491211
15.918945,16.679688,15.47168,12.141602,12.208008
16.105469,10.619141,17.161133,16.154297,10.2421875
18.470703,11.875977,16.582031,15.09668,11.899414
13.363281,12.296875,13.324219,14.211914,13.645508
12.50293,21.484375,7.7382812,9.875,19.41504
17.847656,21.785156,15.073242,10.802734,21.118164
17.169922,21.472656,16.280273,14.555664,21.921875
14.696289,20.567383,17.580078,17.139648,20.453125
14.905273,19.03418,15.202148,19.983398,18.492188
17.563477,22.68457,17.410156,18.25879,20.455078
17.547852,22.276367,19.292969,18.416016,21.052734
16.838867,18.766602,21.296875,21.642578,19.460938
17.967773,15.341797,24.24707,24.240234,16.865234
16.066406,17.382812,21.697266,20.279297,15.114258
12.599609,17.367188,18.61621,18.59082,14.587891
17.79004,17.702148,14.7421875,14.697266,15.261719
15.634766,18.112305,11.076172,9.197266,16.50586
17.879883,19.200195,16.480469,18.68164,18.222656
19.06543,15.842773,22.298828,19.990234,16.691406
23.673828,14.384766,22.413086,22.189453,18.114258
19.953125,13.7421875,23.785156,23.10254,16.666992
16.855469,13.419922,17.59082,18.674805,13.266602
14.026367,15.788086,15.700195,15.78125,12.092773
12.3984375,15.87207,11.379883,13.556641,10.905273
13.2890625,15.255859,6.1796875,8.649414,12.186523
14.09082,14.3359375,14.082031,12.327148,13.582031
15.024414,16.595703,15.120117,14.319336,17.12793
16.864258,14.453125,17.750977,20.753906,14.975586
15.219727,9.130859,14.15625,17.667969,11.048828
11.703125,9.228516,10.916992,12.416016,6.805664
5.5117188,13.253906,7.658203,6.8447266,9.200195
8.551758,13.586914,13.848633,8.800781,10.017578
11.272461,16.774414,10.536133,11.84668,12.393555
13.139648,19.451172,19.879883,17.874023,16.891602
16.68164,19.542969,20.232422,20.373047,21.698242
21.848633,23.113281,20.110352,20.456055,22.610352
20.433594,23.50293,19.83789,17.80664,22.326172
19.18457,20.885742,13.457031,16.239258,17.691406
15.996094,19.442383,16.269531,13.113281,15.410156
14.609375,20.339844,13.134766,14.112305,17.41504
16.257812,20.43457,11.845703,13.250977,17.527344
13.0234375,21.925781,15.981445,16.240234,21.467773
17.222656,20.85254,18.876953,18.8125,22.648438
18.261719,17.094727,17.588867,19.374023,21.408203
20.245117,15.763672,17.21289,17.783203,18.21582
13.887695,14.610352,13.84375,16.267578,14.957031
6.463867,13.373047,6.6953125,11.299805,13.121094
5.7216797,11.912109,5.888672,10.026367,12.980469
8.442383,10.780273,5.1865234,7.0820312,9.09668
11.75293,10.253906,10.06543,9.6875,11.629883
15.885742,11.130859,10.844727,12.720703,12.603516
14.5703125,8.952148,9.947266,10.614258,11.352539
11.456055,6.5234375,10.222656,10.6953125,10.228516
8.658203,8.075195,8.825195,7.821289,6.7441406
2.421875,9.189453,8.444336,6.6816406,6.9033203
2.9863281,8.233398,6.3115234,6.7958984,5.142578
4.5146484,9.62793,7.993164,7.008789,5.147461
9.166992,9.385742,11.90625,11.5078125,8.958008
11.948242,6.5947266,12.049805,11.375977,9.982422
12.625,7.4716797,10.874023,11.675781,10.292969
12.6953125,4.948242,10.931641,11.569336,7.6533203
11.118164,5.2441406,8.685547,9.621094,3.5048828
6.9375,5.6308594,6.123047,7.7109375,3.2089844
4.2333984,3.0839844,4.4179688,6.198242,3.8798828
3.6796875,3.7832031,3.852539,4.5664062,3.6923828
8.707031,4.0947266,6.3154297,6.807617,7.142578
9.52832,8.144531,7.7490234,8.803711,8.422852
10.078125,8.285156,8.782227,9.310547,8.107422
10.333984,5.4521484,9.220703,8.597656,6.341797
7.6679688,4.885742,8.548828,7.5634766,2.8007812
4.53125,3.5898438,4.5566406,5.2626953,5.203125
4.415039,5.8203125,3.163086,5.0703125,6.223633
4.2470703,6.34375,3.9794922,3.7636719,6.4091797
7.006836,5.4941406,9.333984,7.3095703,6.048828
10.479492,3.3828125,10.572266,8.826172,7.8876953
10.683594,7.0498047,11.756836,9.775391,11.152344
9.985352,9.720703,10.970703,9.646484,11.357422
9.138672,10.625,7.689453,7.0976562,11.520508
5.908203,8.631836,5.908203,4.805664,9.988281
