"[299, 255]","[227, 248]","[287, 319]","[279, 328]","[230, 262]"
7.245117,7.654297,3.4794922,4.1640625,5.8896484
10.216797,7.0683594,5.223633,5.357422,5.522461
10.248047,7.8583984,5.118164,4.6796875,6.548828
10.723633,8.608398,4.338867,4.5664062,7.8222656
9.714844,8.4140625,7.473633,4.0429688,10.193359
9.50293,7.9248047,6.536133,5.5859375,6.7304688
8.310547,7.0439453,6.0195312,6.459961,6.116211
9.09082,6.828125,7.0527344,5.4072266,6.3476562
12.075195,7.6904297,6.9414062,5.370117,6.4121094
11.763672,6.5302734,5.875,6.265625,7.8496094
9.769531,7.921875,4.8378906,6.0527344,9.608398
10.6953125,11.7265625,5.6591797,6.859375,11.246094
12.453125,10.454102,8.5078125,7.1601562,11.206055
16.802734,11.927734,6.426758,6.1220703,9.40625
16.009766,13.2421875,8.441406,7.598633,9.322266
17.75293,13.044922,9.6875,11.256836,6.069336
16.628906,13.311523,11.074219,14.53125,6.647461
14.508789,13.307617,12.3828125,15.401367,8.9609375
15.947266,16.373047,11.125977,15.082031,11.1171875
17.118164,16.61621,12.230469,15.951172,12.149414
16.02539,15.578125,12.091797,14.634766,12.557617
16.25879,15.853516,8.068359,13.121094,12.839844
16.813477,16.355469,6.6396484,13.333008,13.708984
16.791016,18.706055,6.2666016,13.009766,15.5
16.689453,19.36621,8.21875,14.176758,15.384766
16.582031,18.169922,10.316406,14.466797,14.739258
20.333984,21.875,10.191406,15.395508,16.155273
21.958984,22.643555,10.015625,15.666016,20.94043
22.461914,21.46875,7.725586,14.808594,20.148438
22.857422,18.944336,6.8378906,15.129883,17.79004
23.06543,23.456055,8.1640625,14.674805,18.381836
25.453125,23.052734,12.28418,17.172852,20.298828
25.420898,23.708008,12.392578,17.688477,20.463867
23.577148,19.67871,10.744141,17.063477,18.695312
21.618164,18.530273,10.986328,12.6328125,18.578125
19.433594,14.139648,11.5,13.370117,13.561523
14.65625,14.088867,10.040039,10.819336,14.18457
15.282227,15.802734,7.5341797,10.77832,13.753906
14.363281,11.969727,8.106445,9.3984375,13.859375
12.333984,10.248047,7.314453,8.306641,9.088867
11.463867,3.9267578,7.801758,8.723633,5.9248047
10.09375,4.9521484,8.355469,6.6367188,3.4716797
4.9433594,9.300781,8.078125,4.899414,4.0976562
4.2539062,8.327148,7.033203,4.7871094,5.9882812
2.694336,7.466797,6.038086,7.7685547,6.305664
2.5703125,7.341797,11.231445,9.699219,7.1953125
4.786133,8.464844,8.0625,11.989258,9.979492
5.0341797,10.704102,8.116211,13.814453,12.645508
8.647461,11.483398,9.379883,9.81543,13.053711
9.097656,10.901367,11.768555,10.569336,12.359375
11.099609,10.765625,5.9589844,9.302734,11.394531
11.422852,10.75293,3.53125,7.663086,11.481445
11.213867,10.263672,6.7626953,5.8515625,11.707031
8.4453125,9.161133,4.1835938,5.7177734,7.8671875
8.044922,6.290039,2.4072266,5.0146484,6.618164
6.9335938,4.5185547,3.0039062,5.5976562,7.2470703
6.647461,5.3095703,3.6347656,4.073242,7.001953
7.7070312,5.1152344,4.004883,3.8134766,5.473633
8.5234375,6.0654297,4.4658203,3.2197266,5.953125
12.208984,6.286133,6.533203,4.875,9.651367
11.078125,8.876953,7.4785156,5.845703,10.365234
11.348633,9.493164,8.489258,5.904297,10.737305
12.200195,10.299805,8.586914,4.7246094,10.974609
10.391602,13.4375,8.300781,4.9384766,10.082031
9.366211,14.22168,7.083008,7.7216797,9.40625
13.220703,15.775391,5.8740234,7.7060547,10.291016
13.263672,15.689453,5.1796875,6.254883,9.174805
14.5546875,15.8984375,10.987305,9.404297,12.458984
16.993164,14.522461,11.505859,10.290039,14.2578125
18.538086,12.615234,10.849609,8.310547,13.84082
16.96582,12.62793,10.316406,9.375977,15.208984
16.731445,13.5546875,11.22168,10.786133,14.943359
17.738281,12.9921875,14.779297,11.750977,12.8046875
21.283203,7.4648438,16.03125,12.966797,14.203125
21.983398,7.814453,16.082031,12.884766,14.894531
19.895508,8.104492,9.202148,8.791016,14.735352
11.248047,7.1845703,8.083984,8.177734,11.793945
10.739258,7.243164,7.658203,4.2001953,12.151367
11.125977,6.0214844,6.4541016,4.2558594,10.636719
11.109375,6.1289062,5.8339844,5.2578125,10.137695
7.5458984,6.477539,8.947266,6.0546875,7.9160156
8.935547,6.1601562,6.595703,5.786133,9.59668
8.798828,6.614258,7.114258,3.9189453,10.59375
8.522461,7.1083984,8.392578,2.0097656,12.0859375
8.870117,7.189453,8.529297,3.6875,11.264648
6.9521484,8.62207,5.290039,4.7753906,11.013672
8.119141,6.725586,5.4208984,4.0458984,7.5996094
9.100586,6.9257812,5.3271484,4.379883,9.716797
11.142578,7.290039,4.772461,2.9941406,10.49707
12.576172,8.962891,4.076172,3.227539,11.860352
13.475586,8.550781,4.6445312,3.9042969,13.849609
13.768555,9.949219,8.68457,2.8828125,16.570312
12.201172,9.919922,9.772461,1.5947266,15.678711
8.890625,10.02832,8.162109,2.9169922,14.379883
8.029297,10.775391,4.557617,4.0283203,16.423828
7.6289062,9.941406,4.5615234,4.928711,16.603516
4.4335938,8.386719,4.213867,4.826172,12.9921875
4.932617,6.841797,4.5585938,5.510742,11.178711
5.7158203,5.1132812,6.0546875,5.1884766,6.8896484
11.566406,5.0,8.262695,4.6884766,11.040039
10.886719,11.297852,9.624023,7.366211,12.614258
10.106445,10.952148,7.3691406,6.3095703,12.608398
10.918945,10.397461,4.5166016,5.5595703,12.791016
14.668945,8.738281,3.53125,5.1884766,12.982422
14.586914,8.453125,4.3251953,5.9101562,13.677734
13.446289,8.519531,4.5898438,4.4658203,12.7734375
10.874023,7.625,2.5039062,4.310547,9.339844
8.469727,7.745117,3.4980469,3.4384766,9.330078
7.8339844,7.908203,3.1855469,4.8935547,9.25293
7.5283203,7.051758,4.348633,4.611328,5.669922
6.9658203,5.623047,4.3867188,5.1572266,8.415039
5.5634766,6.1777344,3.9541016,4.129883,8.720703
6.419922,5.9140625,4.7382812,5.0126953,4.4003906
6.564453,6.3046875,3.5195312,5.2197266,4.609375
5.955078,7.008789,2.8574219,4.4472656,3.8095703
7.8154297,6.1464844,4.4003906,4.6435547,7.7783203
8.228516,10.722656,5.046875,6.1503906,10.723633
6.814453,9.18457,5.5878906,5.4902344,9.967773
8.785156,5.9160156,5.685547,5.033203,10.626953
8.254883,8.213867,6.0771484,6.3496094,9.8515625
9.049805,8.212891,5.890625,6.5820312,12.551758
9.030273,9.217773,7.040039,7.7490234,13.767578
14.537109,11.703125,5.9345703,8.381836,14.022461
15.908203,13.419922,6.4521484,6.8779297,15.285156
15.955078,14.020508,10.735352,7.413086,15.836914
14.734375,14.009766,9.556641,5.7285156,15.261719
16.34961,14.3828125,9.611328,6.5566406,16.5
16.64746,15.772461,7.321289,5.939453,16.083984
14.301758,14.395508,9.84375,6.515625,15.488281
17.058594,16.964844,10.676758,6.4833984,16.78418
16.47754,14.888672,10.135742,11.620117,17.603516
12.498047,15.384766,10.637695,12.166016,17.608398
8.067383,14.375,8.84668,11.290039,18.423828
10.0546875,14.095703,7.529297,8.958984,15.849609
10.7265625,12.760742,6.5458984,7.411133,14.541016
12.317383,10.791992,6.629883,7.220703,13.611328
13.0859375,12.080078,6.0947266,7.5908203,11.671875
17.893555,12.791992,5.8652344,7.4853516,13.024414
21.961914,14.0859375,7.055664,7.223633,12.378906
22.014648,15.099609,8.470703,9.435547,14.480469
15.477539,15.722656,9.404297,10.442383,14.397461
14.5546875,15.314453,8.543945,8.5703125,12.577148
14.251953,13.068359,7.4472656,6.9960938,13.402344
12.716797,13.828125,6.7060547,6.1708984,11.727539
14.5390625,12.567383,5.6953125,6.611328,10.291992
13.03418,12.306641,5.520508,6.663086,10.707031
12.084961,10.957031,5.038086,5.790039,10.750977
10.253906,5.5595703,5.571289,5.116211,10.124023
7.665039,6.817383,3.350586,5.140625,10.207031
7.614258,6.7001953,4.2666016,4.765625,8.25
7.5195312,5.2001953,3.9853516,4.024414,5.7353516
4.8583984,8.722656,3.3398438,4.823242,7.9414062
4.7734375,8.24707,2.7109375,5.3564453,3.7666016
4.265625,8.19043,4.838867,5.158203,3.8310547
4.5742188,9.564453,5.40625,4.776367,4.926758
9.701172,10.28125,4.7617188,4.4501953,7.5722656
10.041992,8.75,2.8652344,3.5761719,7.633789
7.0097656,8.359375,5.0283203,3.6816406,5.1015625
6.803711,8.3203125,4.9345703,4.7441406,5.1484375
6.470703,6.620117,4.786133,4.001953,4.178711
6.1523438,6.3203125,4.21875,3.0888672,3.921875
5.620117,7.051758,4.4960938,3.125,4.4501953
5.3779297,6.0166016,2.9921875,2.4423828,3.6542969
6.2470703,5.40625,7.3632812,4.3984375,3.0419922
6.1884766,5.463867,8.186523,8.650391,4.270508
5.288086,7.7753906,4.352539,6.055664,4.390625
4.705078,8.642578,3.4716797,4.333008,3.8173828
5.323242,7.0791016,3.6328125,2.4238281,7.290039
5.5214844,8.910156,3.680664,4.0595703,10.683594
6.3125,10.116211,5.4648438,5.2001953,11.597656
4.8691406,10.827148,5.723633,6.883789,11.328125
4.8828125,9.421875,4.5058594,8.12793,7.290039
6.6816406,10.169922,6.663086,8.09082,11.728516
10.0859375,10.904297,7.4814453,8.161133,14.733398
11.420898,12.40332,7.1416016,8.2109375,13.958008
15.96875,11.500977,6.5273438,7.8720703,11.363281
13.821289,9.668945,5.8183594,6.973633,10.619141
8.576172,9.5390625,7.5507812,7.2402344,8.875
9.439453,7.9833984,7.625,6.7158203,8.491211
7.4228516,7.368164,7.0234375,7.833008,7.2539062
7.501953,7.8554688,6.4716797,7.6689453,7.4228516
7.0751953,7.9941406,5.9257812,6.3583984,6.911133
4.8203125,6.5371094,4.446289,6.022461,5.4160156
3.1269531,5.2304688,2.4238281,4.1640625,3.2539062
3.6367188,3.5205078,2.0146484,4.1367188,3.8027344
4.6689453,6.9609375,2.5888672,3.9716797,5.0751953
6.270508,8.578125,2.5771484,3.538086,6.251953
4.8447266,8.271484,1.7207031,3.0,6.8007812
4.3115234,6.8515625,4.676758,2.9882812,6.401367
4.9140625,8.712891,3.8408203,2.0576172,4.540039
4.3789062,9.663086,2.2607422,3.866211,4.3984375
3.571289,7.9902344,2.5478516,3.7167969,5.7089844
3.546875,7.064453,5.4208984,4.1132812,4.7851562
4.794922,7.8623047,5.7734375,4.9501953,6.6748047
6.0742188,6.883789,5.756836,5.3408203,6.446289
6.1416016,8.955078,10.165039,4.4921875,7.8398438
6.5595703,10.250977,10.041016,8.383789,9.404297
9.751953,14.792969,7.614258,7.4814453,12.545898
11.791016,17.63086,12.270508,8.368164,17.22461
15.432617,19.972656,12.105469,12.908203,21.28125
17.185547,22.613281,16.25879,13.513672,20.862305
18.108398,22.299805,16.36621,14.754883,21.515625
18.625,18.86621,12.194336,12.5,17.289062
19.04004,8.3359375,11.961914,10.521484,9.071289
15.115234,9.78418,5.3583984,10.026367,7.803711
13.433594,19.267578,4.0742188,6.2753906,9.332031
8.823242,24.048828,4.698242,4.584961,19.626953
5.9785156,25.188477,4.578125,3.5341797,21.295898
5.6328125,24.97754,2.6845703,4.6035156,20.501953
12.571289,18.973633,1.6914062,8.991211,14.1875
15.643555,16.713867,7.6640625,9.017578,13.713867
16.833008,15.1796875,7.368164,8.836914,13.234375
15.939453,13.759766,7.057617,8.274414,13.423828
15.580078,12.827148,4.4521484,6.09375,11.035156
13.34082,13.587891,3.4511719,4.5058594,12.389648
11.404297,17.091797,3.8535156,5.296875,14.582031
11.272461,18.588867,2.0498047,3.8710938,17.15918
11.957031,18.161133,5.9990234,5.7197266,12.072266
11.886719,6.616211,13.010742,10.8359375,5.993164
12.060547,7.4414062,13.022461,10.182617,6.004883
12.074219,5.876953,11.094727,7.279297,6.7158203
11.731445,6.3222656,7.404297,4.758789,9.484375
7.319336,6.5439453,4.107422,6.430664,12.227539
11.736328,7.5927734,7.274414,6.0009766,9.655273
8.943359,7.5527344,6.1396484,5.6621094,8.685547
10.155273,7.1464844,4.379883,7.6689453,11.982422
12.52832,7.9941406,5.7265625,8.088867,11.405273
14.390625,10.931641,8.780273,8.894531,12.776367
14.362305,15.176758,9.236328,13.285156,14.365234
14.138672,15.666016,7.8867188,10.09082,14.651367
13.484375,15.439453,7.5429688,10.97168,15.404297
12.672852,16.35254,8.103516,10.082031,15.816406
13.397461,16.746094,9.097656,10.794922,16.06836
13.0546875,17.344727,9.508789,10.583008,16.853516
14.03125,16.702148,10.654297,8.076172,14.606445
13.47168,14.038086,9.205078,7.729492,12.621094
13.024414,13.0234375,8.980469,8.345703,12.551758
10.40918,10.730469,5.263672,6.3876953,9.0078125
10.421875,8.658203,4.3564453,5.368164,9.532227
10.246094,6.8847656,3.8310547,4.008789,5.9990234
