"[299, 255]","[227, 248]","[287, 319]","[279, 328]","[230, 262]"
8.495117,13.555664,3.8886719,5.966797,9.788086
8.731445,13.560547,4.8242188,6.0439453,9.875977
8.651367,13.110352,5.0498047,5.5654297,9.199219
8.5234375,12.970703,4.276367,7.4433594,11.744141
9.446289,10.641602,8.506836,7.725586,11.5390625
10.12207,7.2773438,8.026367,8.107422,8.049805
7.915039,5.486328,7.7470703,6.6191406,4.915039
6.2373047,6.0595703,5.701172,5.751953,4.973633
5.15625,5.0742188,4.8535156,3.7548828,3.694336
4.466797,4.5878906,5.1572266,3.540039,3.1689453
6.2246094,6.392578,7.7148438,6.4902344,7.883789
8.895508,8.958008,10.212891,10.270508,11.808594
8.729492,11.329102,11.833008,10.798828,13.865234
6.7490234,11.441406,9.740234,10.324219,13.766602
7.4140625,11.092773,13.353516,6.8466797,12.628906
6.25,10.875977,14.142578,9.425781,11.4921875
5.6972656,9.990234,8.688477,7.0341797,7.5722656
7.3847656,9.597656,7.0322266,9.654297,8.326172
11.746094,11.282227,12.209961,11.330078,9.59082
13.199219,7.180664,12.196289,11.300781,10.124023
13.250977,7.9521484,12.073242,11.803711,9.657227
12.709961,6.770508,11.574219,11.31543,8.561523
9.375,5.426758,7.5820312,8.051758,4.9589844
6.2871094,3.4814453,4.8291016,7.307617,2.1611328
3.444336,3.171875,4.3779297,3.8886719,2.694336
3.6386719,5.2666016,3.1386719,3.8496094,2.6376953
5.241211,5.036133,3.8300781,4.0214844,4.6777344
5.59375,3.055664,4.834961,5.2646484,6.4853516
5.5966797,6.9316406,4.689453,5.265625,6.9921875
4.7685547,8.068359,3.4277344,6.038086,6.4296875
3.8964844,7.220703,6.370117,6.40625,4.6875
3.9941406,5.9726562,2.8916016,3.1054688,4.5166016
6.3183594,5.0585938,2.290039,2.163086,4.9296875
6.4277344,2.6835938,1.4101562,2.4765625,3.7460938
5.9257812,2.836914,2.9101562,2.6923828,4.131836
5.716797,3.366211,8.0,3.9277344,6.1845703
5.654297,4.477539,7.7617188,5.823242,7.2666016
4.959961,4.15625,6.256836,6.8876953,6.1123047
4.904297,6.2197266,5.9902344,5.5078125,4.9902344
6.3271484,6.4970703,2.3955078,2.709961,5.5
6.928711,4.3183594,1.5810547,1.8652344,4.6972656
6.163086,3.413086,2.9248047,3.3847656,5.048828
4.4296875,3.3271484,2.8710938,3.4609375,4.416992
4.671875,4.4248047,3.8007812,4.4785156,4.553711
5.3339844,6.109375,5.4960938,4.421875,5.963867
5.1171875,2.5214844,5.399414,4.854492,5.6640625
6.0751953,6.03125,5.696289,4.6533203,4.395508
8.3828125,6.3408203,4.225586,5.048828,6.2597656
8.069336,3.6064453,4.254883,5.0878906,5.6953125
7.6435547,2.46875,2.9550781,5.8935547,4.1552734
7.129883,2.5976562,3.2958984,7.0722656,4.6171875
7.4814453,2.4453125,5.9433594,7.661133,5.0117188
7.2148438,3.975586,6.5507812,6.6279297,7.1347656
7.015625,4.767578,5.489258,6.1660156,6.091797
10.378906,2.727539,5.256836,5.7597656,3.4765625
11.203125,1.9599609,4.588867,7.4257812,4.3085938
10.983398,2.4052734,5.0683594,8.427734,4.2714844
9.967773,1.7119141,3.4228516,8.443359,3.9404297
8.279297,3.1367188,4.2470703,7.1660156,5.8398438
6.055664,4.036133,7.5703125,6.8720703,6.8496094
5.96875,6.28125,8.063477,8.217773,8.001953
4.7382812,6.279297,7.9404297,8.120117,5.635742
3.303711,6.4384766,5.935547,5.584961,4.4248047
7.4921875,6.995117,7.4277344,6.1191406,4.9765625
11.482422,7.0029297,7.673828,6.415039,5.048828
16.063477,6.6933594,9.915039,3.6123047,5.6035156
17.176758,5.239258,12.379883,6.739258,11.681641
17.077148,4.2041016,13.189453,10.27832,11.271484
15.675781,5.1875,12.079102,11.334961,10.594727
12.514648,4.5634766,11.636719,9.608398,8.389648
16.729492,4.5742188,10.432617,8.334961,5.5253906
17.142578,8.442383,10.875,11.035156,6.4316406
17.044922,8.177734,8.424805,10.384766,6.1259766
16.151367,6.8867188,6.745117,9.27832,3.7333984
15.146484,4.1552734,6.854492,8.603516,3.7763672
10.7109375,3.8984375,6.3476562,8.959961,5.529297
11.1953125,6.3779297,6.0742188,8.324219,6.9072266
10.544922,4.3916016,5.8242188,6.8408203,7.5839844
12.555664,3.6015625,6.0390625,6.4121094,5.8291016
13.900391,3.7197266,5.0117188,6.8408203,4.9765625
13.916992,2.7451172,5.178711,6.5820312,4.8945312
12.451172,4.524414,5.4970703,6.8828125,5.458008
12.323242,4.850586,5.354492,7.536133,4.970703
12.307617,4.3291016,7.1279297,9.6953125,5.955078
10.400391,6.3183594,7.709961,10.004883,8.198242
11.071289,5.904297,7.626953,9.791016,7.673828
12.15332,6.1464844,5.9609375,9.194336,6.8945312
13.022461,5.2373047,6.126953,9.619141,6.904297
12.524414,3.993164,5.870117,9.390625,6.118164
11.938477,4.9384766,5.859375,8.552734,5.591797
12.583984,7.7226562,5.8242188,10.930664,6.171875
12.53125,8.515625,7.8125,13.112305,12.700195
13.224609,7.317383,8.7109375,13.135742,13.299805
13.1640625,5.5878906,7.703125,12.013672,9.3984375
12.9921875,7.90625,8.619141,11.1171875,8.416016
13.485352,9.358398,9.3515625,10.8125,12.889648
15.625,9.870117,13.0546875,10.431641,13.875977
13.576172,10.831055,12.777344,8.450195,13.021484
8.453125,12.49707,9.631836,7.7753906,14.84668
10.058594,14.725586,12.21875,15.249023,18.03125
14.439453,17.644531,15.796875,14.901367,18.939453
15.022461,13.811523,17.246094,14.642578,13.197266
11.859375,13.1484375,9.938477,10.6796875,10.333008
7.0478516,12.768555,5.8691406,5.7773438,9.484375
4.2314453,10.707031,7.1396484,7.5546875,6.4921875
3.866211,9.669922,7.2998047,5.6376953,6.0595703
9.027344,9.981445,11.6484375,11.433594,11.708984
10.865234,11.915039,14.713867,14.893555,15.048828
11.5234375,14.478516,15.360352,15.332031,16.094727
11.855469,15.296875,14.061523,15.183594,16.488281
8.985352,14.212891,10.644531,8.90332,13.283203
7.1289062,12.03125,7.864258,5.7421875,10.196289
6.1210938,9.44043,7.4658203,6.8691406,6.8867188
5.834961,9.049805,7.1660156,6.848633,7.5859375
8.051758,9.391602,10.841797,9.53418,11.750977
9.362305,10.6328125,12.2109375,10.65332,13.733398
9.358398,10.94043,12.473633,10.77832,14.448242
8.441406,8.852539,10.981445,10.588867,11.332031
7.9677734,8.361328,6.7841797,5.705078,8.839844
3.9277344,6.6835938,5.3222656,4.109375,6.8427734
4.095703,5.4404297,6.3339844,5.392578,5.408203
3.8740234,4.805664,5.8828125,4.9746094,4.267578
3.7675781,5.908203,6.9140625,7.946289,7.227539
6.0371094,6.6103516,9.014648,10.658203,7.6933594
6.323242,7.3779297,9.269531,10.97168,10.046875
5.821289,7.3779297,8.171875,10.330078,9.693359
4.15625,4.4121094,30.753906,5.2470703,4.9560547
4.2851562,4.3671875,3.4707031,4.2734375,5.1835938
5.2626953,3.7509766,3.9541016,4.8007812,4.958008
4.1220703,9.24707,4.9941406,6.548828,8.223633
5.0185547,7.6523438,4.8310547,3.9697266,7.0322266
6.314453,6.8789062,4.1191406,5.748047,7.205078
7.901367,9.625977,8.844727,8.262695,7.7558594
8.513672,8.873047,7.5097656,8.033203,7.189453
6.4501953,4.848633,6.1884766,5.618164,2.9189453
6.301758,3.3476562,2.2851562,4.6572266,2.4257812
4.303711,2.6064453,2.96875,4.432617,3.5566406
3.9648438,7.6123047,3.1621094,4.6464844,3.4326172
6.609375,5.7216797,8.342773,9.8671875,8.016602
8.933594,8.704102,11.263672,11.7421875,10.285156
9.203125,9.211914,12.139648,11.832031,11.231445
8.670898,10.805664,12.02832,11.12793,11.311523
7.2597656,10.9296875,10.083984,8.47168,9.9296875
5.118164,11.161133,11.411133,10.107422,9.802734
5.4833984,12.0078125,10.84375,8.762695,10.856445
6.364258,13.771484,13.021484,13.375977,11.698242
9.15625,14.727539,11.834961,10.708984,13.077148
11.461914,13.033203,12.517578,15.606445,13.446289
14.864258,11.712891,14.035156,13.65918,13.0390625
14.876953,13.037109,15.753906,13.255859,13.7265625
10.236328,12.849609,10.892578,10.594727,13.709961
7.701172,13.569336,5.3740234,7.6660156,12.0859375
5.555664,10.514648,5.379883,5.848633,10.228516
4.9990234,12.524414,4.2070312,6.1533203,11.384766
7.4316406,11.893555,7.2871094,7.4541016,11.745117
10.566406,12.350586,11.494141,11.074219,14.020508
13.180664,13.50293,11.980469,14.092773,13.431641
12.904297,15.15918,11.046875,13.3046875,13.791016
11.0,12.908203,7.131836,9.834961,13.189453
10.0078125,14.46875,7.1123047,6.9365234,13.25293
6.803711,14.456055,7.1308594,7.6123047,11.65332
6.5429688,13.680664,5.504883,7.666992,10.450195
11.938477,12.214844,8.462891,9.391602,13.071289
12.391602,12.19043,12.018555,11.162109,12.942383
11.453125,10.383789,11.827148,10.723633,12.05957
12.091797,9.518555,13.329102,7.6523438,10.647461
7.0566406,8.953125,4.189453,3.461914,5.1777344
7.7617188,7.317383,4.8554688,4.7851562,4.392578
6.8134766,7.745117,3.5644531,4.6523438,4.3359375
3.381836,8.5234375,8.558594,5.948242,4.254883
6.760742,10.904297,8.568359,10.24707,11.730469
11.759766,13.512695,15.861328,14.114258,15.699219
12.515625,15.508789,20.333008,15.549805,17.713867
12.438477,15.819336,21.083984,16.15918,15.763672
10.6796875,15.633789,16.480469,12.553711,12.469727
9.486328,12.878906,12.836914,11.709961,10.663086
9.260742,11.765625,7.7216797,7.376953,8.2578125
8.015625,10.081055,6.3740234,7.361328,7.513672
9.203125,10.701172,9.202148,8.544922,8.540039
11.956055,9.482422,9.490234,9.950195,10.357422
11.889648,8.114258,11.287109,11.196289,9.016602
11.633789,6.7128906,11.182617,11.333984,7.958008
9.357422,6.272461,6.338867,4.5458984,7.057617
7.2441406,7.0498047,4.973633,5.8984375,7.7285156
5.265625,6.9277344,7.7001953,5.4521484,7.4179688
5.256836,7.435547,4.3876953,6.614258,7.0458984
8.455078,6.788086,6.7109375,7.444336,7.8671875
11.55957,4.9541016,9.876953,10.953125,8.167969
11.290039,4.4785156,12.845703,11.298828,7.767578
9.282227,4.8251953,11.25293,9.81543,6.8945312
3.8046875,7.6914062,9.0546875,7.2314453,7.557617
2.9853516,8.022461,9.521484,7.220703,8.1171875
4.6953125,8.657227,9.2734375,7.0097656,8.442383
6.5947266,10.400391,6.0341797,5.265625,8.660156
8.581055,11.118164,7.1640625,10.723633,14.546875
11.116211,13.223633,10.512695,11.870117,15.444336
11.525391,13.321289,11.027344,12.869141,15.93457
10.71875,12.301758,10.883789,12.727539,15.463867
7.265625,13.598633,7.5126953,8.541992,13.813477
8.770508,14.688477,14.301758,11.167969,14.602539
8.4140625,15.939453,14.624023,14.272461,15.907227
13.683594,13.501953,11.428711,9.841797,11.266602
12.9609375,10.966797,9.966797,9.689453,10.338867
11.517578,11.083008,13.802734,13.395508,12.380859
13.469727,9.78418,14.652344,14.404297,12.375977
12.836914,10.286133,13.453125,13.620117,11.557617
8.319336,13.59082,5.720703,10.806641,8.87793
4.4414062,15.030273,9.271484,4.881836,9.1328125
6.711914,11.452148,6.7001953,4.8779297,8.418945
6.4941406,10.853516,6.9853516,5.7626953,6.232422
9.602539,10.791992,8.15332,7.5625,10.586914
12.813477,11.625977,11.794922,9.0,12.308594
14.21582,10.606445,14.245117,10.922852,12.498047
13.163086,10.121094,11.047852,10.708008,11.083008
6.453125,10.357422,5.7070312,8.692383,5.8623047
3.6904297,11.25,3.9970703,4.0634766,6.2978516
3.5664062,9.355469,3.3535156,4.551758,5.459961
6.6416016,8.764648,3.7148438,4.7509766,6.3828125
10.55957,7.6816406,3.1757812,6.192383,5.6083984
10.543945,4.461914,7.916992,6.888672,12.120117
10.066406,6.6220703,7.4941406,6.241211,12.435547
11.806641,7.647461,6.908203,5.904297,9.110352
12.833984,6.326172,7.5439453,6.3271484,5.979492
13.058594,5.111328,7.3867188,6.696289,5.2128906
12.084961,4.006836,3.6064453,5.9570312,4.2197266
10.302734,3.6855469,5.1914062,6.120117,4.7197266
7.7470703,4.814453,5.3935547,7.2109375,4.948242
7.2353516,6.319336,9.819336,11.603516,8.060547
8.089844,7.126953,11.240234,13.043945,9.671875
7.5976562,7.0810547,11.511719,10.974609,8.966797
4.109375,11.964844,7.5947266,7.635742,6.3564453
4.5185547,14.808594,9.041992,6.739258,9.90625
6.814453,13.151367,8.974609,5.256836,10.064453
8.833984,14.167969,5.8916016,7.2578125,12.572266
10.982422,13.416016,4.7841797,5.7304688,13.875
11.705078,16.536133,3.9316406,6.2470703,14.837891
12.359375,14.771484,7.5478516,9.000977,14.975586
10.9140625,11.824219,6.814453,11.199219,14.316406
9.001953,13.615234,4.038086,8.043945,12.652344
9.578125,15.0,4.7158203,6.2978516,10.322266
