"[299, 255]","[227, 248]","[287, 319]","[279, 328]","[230, 262]"
17.117188,11.924805,7.538086,6.404297,5.725586
14.998047,13.771484,11.902344,8.216797,10.3203125
15.568359,10.651367,12.363281,6.694336,9.337891
16.02539,8.799805,11.68457,4.455078,6.317383
14.003906,10.90918,5.1933594,7.3046875,10.066406
9.544922,9.450195,4.4833984,5.588867,8.258789
7.0029297,11.02832,4.486328,6.100586,5.3339844
5.9453125,12.168945,6.151367,5.1777344,6.7783203
6.2558594,10.025391,7.2128906,4.6210938,6.229492
7.4003906,9.896484,7.5117188,6.426758,6.111328
5.623047,7.7460938,7.8740234,5.4873047,4.263672
7.8310547,9.2890625,8.350586,6.013672,9.597656
8.103516,9.424805,8.586914,6.0976562,8.833984
6.6933594,11.771484,4.4404297,4.5722656,8.009766
10.473633,16.40039,5.901367,8.009766,11.668945
12.327148,17.804688,6.5439453,10.420898,14.977539
16.896484,18.460938,8.256836,11.142578,17.044922
17.427734,19.759766,11.462891,12.951172,16.510742
18.544922,23.335938,11.077148,14.0546875,15.097656
19.170898,12.753906,13.1171875,15.066406,13.435547
19.421875,11.766602,13.504883,14.244141,11.181641
17.901367,11.34668,12.28418,12.25293,10.140625
12.969727,10.6328125,8.580078,9.163086,7.6796875
12.106445,11.5703125,9.049805,8.133789,5.876953
9.268555,9.628906,5.951172,6.8515625,5.6533203
7.705078,10.666016,8.091797,6.0810547,8.011719
7.435547,17.49414,8.3671875,5.333008,12.385742
10.408203,19.84668,7.892578,6.3935547,17.725586
15.708984,20.294922,7.9384766,5.8125,16.870117
14.927734,17.117188,12.74707,12.401367,14.158203
11.964844,16.907227,13.837891,12.826172,13.7265625
10.921875,11.605469,8.592773,9.365234,12.5078125
10.972656,7.513672,6.698242,8.818359,5.8164062
5.0058594,10.194336,7.4404297,7.2373047,10.676758
8.973633,12.349609,10.586914,9.574219,11.641602
15.661133,15.577148,12.263672,12.089844,14.910156
15.8125,17.219727,13.714844,13.973633,14.977539
13.417969,15.692383,12.887695,13.044922,13.975586
9.082031,16.436523,14.147461,11.43457,15.254883
9.768555,16.782227,14.364258,12.522461,14.067383
11.628906,15.016602,13.6015625,13.553711,11.736328
12.918945,14.412109,7.6523438,12.360352,8.973633
7.560547,10.1171875,4.6171875,9.151367,6.1660156
7.2929688,9.431641,3.9667969,8.196289,5.6689453
8.634766,18.611328,5.8408203,6.9296875,17.398438
16.483398,19.722656,6.5478516,14.606445,19.041992
18.634766,19.729492,8.748047,15.663086,20.223633
20.242188,19.170898,15.583008,17.66211,21.636719
20.716797,20.765625,16.336914,18.694336,22.03418
21.333008,22.11914,16.295898,17.08496,21.69629
21.476562,21.276367,14.983398,14.364258,22.027344
17.582031,20.902344,15.8828125,17.179688,19.375
18.756836,21.745117,15.959961,14.993164,20.011719
20.69336,21.63379,13.688477,13.563477,20.926758
15.665039,23.475586,10.920898,12.972656,17.163086
11.123047,20.611328,8.764648,11.173828,16.481445
10.902344,16.864258,9.347656,9.924805,14.194336
7.982422,14.017578,8.604492,7.935547,12.642578
5.107422,10.46875,5.408203,6.7177734,6.245117
4.928711,7.911133,4.7734375,5.0507812,5.0927734
4.3115234,5.7490234,3.930664,3.477539,4.2333984
4.2109375,9.8203125,3.9980469,4.5058594,6.788086
7.038086,13.032227,4.423828,7.203125,9.942383
11.53418,17.84082,9.3046875,8.34375,13.391602
14.504883,20.802734,10.769531,11.680664,19.43457
19.235352,23.635742,13.700195,16.458008,20.756836
19.52832,20.232422,16.248047,14.6328125,18.96875
16.651367,22.895508,15.620117,14.250977,21.498047
18.461914,24.171875,16.759766,14.912109,24.728516
19.029297,31.669922,17.350586,16.15918,27.542969
20.454102,34.947266,16.480469,10.083008,30.658203
21.063477,35.666016,11.083984,10.727539,29.666992
16.644531,31.426758,12.014648,10.907227,24.489258
15.030273,30.32129,11.519531,12.296875,26.988281
14.924805,34.573242,18.595703,20.56543,29.75879
19.145508,28.745117,22.530273,21.99414,26.517578
19.506836,26.37793,20.461914,21.785156,24.6875
18.748047,26.019531,19.29004,19.355469,24.603516
17.700195,22.271484,16.876953,16.993164,21.03125
15.674805,20.797852,13.642578,12.852539,18.24414
11.65625,19.74707,12.921875,12.930664,15.894531
8.821289,16.223633,10.141602,11.837891,13.955078
8.488281,14.004883,9.525391,9.550781,12.055664
9.787109,12.844727,10.321289,7.6376953,10.65625
9.959961,11.847656,11.399414,9.819336,9.668945
8.163086,8.09375,6.0625,7.256836,5.3447266
5.283203,9.224609,4.126953,4.248047,5.2714844
4.834961,8.699219,3.4199219,5.5947266,5.6835938
4.770508,11.458984,7.216797,6.040039,7.6914062
7.911133,14.197266,10.025391,6.2470703,10.629883
8.183594,16.098633,9.739258,8.276367,11.829102
9.670898,16.260742,13.081055,10.368164,13.515625
10.693359,14.979492,14.263672,10.405273,12.6953125
9.832031,14.803711,11.75293,9.875977,13.317383
9.199219,14.193359,11.748047,9.770508,11.998047
7.739258,12.698242,10.563477,9.040039,11.158203
9.022461,13.640625,12.237305,10.623047,11.925781
10.046875,14.583008,11.69043,10.341797,12.603516
9.990234,14.441406,12.256836,8.433594,14.138672
10.811523,16.77246,10.114258,9.4921875,17.804688
11.8671875,16.939453,12.994141,11.230469,18.708984
12.410156,18.095703,12.933594,13.204102,17.319336
12.004883,17.884766,15.740234,16.479492,17.588867
11.728516,17.34961,17.347656,16.948242,18.34668
11.828125,18.53711,18.455078,16.52832,18.43164
12.448242,18.691406,17.04004,14.325195,18.063477
12.973633,19.0,13.901367,14.166992,17.550781
13.6328125,14.564453,7.939453,8.806641,9.836914
11.897461,6.491211,8.995117,5.9960938,7.6445312
7.185547,8.768555,9.1640625,7.522461,6.961914
5.522461,11.609375,9.350586,7.3583984,8.0546875
5.9570312,14.541992,9.177734,7.461914,10.087891
6.290039,13.118164,8.086914,9.038086,7.739258
7.6171875,14.595703,7.9316406,9.989258,9.766602
9.025391,17.648438,9.28125,7.147461,12.606445
9.785156,18.802734,12.599609,8.712891,14.375
10.200195,15.140625,11.90332,7.9541016,13.795898
12.918945,15.833008,12.724609,9.793945,12.735352
12.826172,14.65918,13.305664,11.850586,12.855469
12.2578125,15.183594,11.791016,8.478516,12.759766
11.709961,15.5859375,15.560547,9.3203125,13.311523
12.731445,17.029297,12.8828125,10.975586,15.280273
15.412109,23.485352,13.65332,14.814453,18.625
16.84082,21.19629,13.674805,17.362305,22.558594
16.910156,25.204102,14.717773,18.036133,21.048828
18.404297,21.020508,14.639648,18.052734,21.379883
19.53418,21.41211,19.948242,19.080078,25.743164
19.887695,12.537109,19.72168,17.12793,10.019531
19.88379,13.063477,6.5009766,8.982422,10.9765625
9.072266,13.849609,11.504883,9.348633,10.920898
11.490234,13.115234,10.518555,9.400391,8.891602
12.022461,14.785156,10.493164,10.760742,8.141602
11.958008,12.982422,10.651367,9.643555,11.567383
10.712891,10.94043,10.93457,8.2265625,7.4023438
10.192383,11.892578,5.8603516,8.194336,6.336914
10.442383,13.546875,5.368164,6.7939453,7.6152344
6.6835938,10.896484,5.4472656,6.8085938,7.4941406
6.373047,9.166016,3.8867188,5.5751953,6.8964844
8.496094,7.961914,3.508789,5.560547,5.055664
8.268555,6.020508,4.2109375,4.1416016,4.713867
12.105469,7.982422,7.5322266,6.2421875,7.6660156
11.763672,11.269531,13.475586,12.413086,7.6210938
7.7265625,5.669922,13.251953,13.120117,4.6640625
8.345703,6.7646484,8.688477,12.189453,5.7695312
9.605469,11.512695,5.163086,8.205078,5.661133
9.767578,4.658203,8.4375,5.654297,3.8046875
4.055664,7.1708984,7.3691406,5.5,3.866211
5.5585938,6.4375,5.439453,4.1210938,4.301758
9.573242,10.59082,2.9326172,4.9960938,8.010742
12.738281,11.3359375,4.977539,4.9179688,11.496094
16.759766,14.046875,5.5859375,7.6660156,13.286133
21.563477,15.181641,5.0771484,6.5390625,14.120117
24.950195,15.989258,4.930664,7.739258,14.810547
24.72754,17.075195,4.7421875,7.9453125,16.043945
23.9375,15.274414,4.8710938,7.607422,17.401367
18.560547,14.336914,6.9140625,4.1279297,16.657227
12.134766,14.433594,9.155273,5.975586,15.933594
10.983398,10.758789,6.833008,6.2148438,12.800781
10.442383,4.2333984,5.633789,2.1484375,11.65625
11.544922,6.7382812,5.1484375,3.4384766,11.143555
12.28125,7.881836,4.4208984,4.036133,11.169922
12.119141,8.728516,3.2070312,3.7802734,11.958984
12.606445,11.387695,6.354492,3.375,12.072266
13.704102,11.794922,8.401367,2.8457031,13.318359
12.470703,11.026367,8.488281,3.055664,14.7265625
13.5234375,9.666992,7.013672,3.2666016,13.611328
13.579102,7.0117188,7.201172,4.5078125,13.511719
11.662109,5.9589844,6.890625,3.584961,11.931641
6.9609375,7.4384766,2.5957031,2.2138672,10.532227
8.873047,3.4248047,2.3847656,1.9033203,10.4375
6.9609375,2.8857422,1.9990234,1.8808594,9.978516
7.4404297,2.1884766,2.4052734,2.0273438,9.5390625
6.913086,2.0761719,4.620117,2.9277344,7.9033203
10.907227,4.2470703,4.676758,2.821289,6.9501953
11.223633,3.3896484,5.7265625,4.326172,6.979492
6.267578,2.8134766,5.7216797,4.6748047,5.4628906
4.25,2.571289,3.6152344,4.1191406,3.1816406
3.828125,4.158203,3.305664,3.0878906,4.8222656
3.475586,3.9052734,2.1142578,3.0625,6.245117
3.3398438,5.073242,3.0605469,2.8076172,8.333008
3.5185547,8.353516,4.5,4.0273438,7.7998047
4.234375,9.345703,5.017578,4.6953125,7.361328
5.845703,9.262695,5.979492,4.78125,6.7998047
4.9375,10.0078125,5.892578,7.2871094,8.978516
6.1972656,10.958008,5.03125,7.501953,9.800781
7.7216797,8.9921875,3.1054688,7.176758,9.578125
8.130859,10.084961,3.038086,5.9345703,12.092773
7.3408203,12.2421875,3.4951172,6.4208984,11.7265625
8.305664,12.249023,3.0039062,7.573242,10.376953
11.595703,10.274414,3.765625,5.600586,9.267578
12.644531,8.013672,4.0820312,5.0390625,11.592773
10.473633,7.6347656,4.7666016,6.8271484,10.467773
8.620117,4.9785156,4.423828,6.3632812,8.794922
7.1708984,5.395508,4.2197266,6.120117,6.7529297
7.946289,5.0703125,2.5830078,3.1513672,6.1484375
8.006836,5.0283203,2.2714844,4.4091797,3.0419922
6.051758,6.666992,2.6708984,4.9365234,4.9853516
2.7246094,7.2841797,3.7607422,5.4658203,7.209961
4.7734375,11.5859375,3.9990234,7.453125,8.801758
6.9521484,14.170898,3.7851562,7.5654297,9.97168
7.4472656,12.739258,5.4345703,7.4277344,11.0703125
7.272461,12.060547,7.0722656,5.3222656,7.3095703
7.5751953,11.709961,9.067383,5.928711,10.142578
11.103516,11.043945,10.581055,9.525391,10.235352
11.080078,14.211914,12.260742,10.658203,12.692383
8.657227,15.113281,12.444336,8.2265625,13.000977
10.041016,13.958008,7.817383,9.544922,11.580078
9.681641,13.865234,7.4257812,8.974609,10.595703
10.538086,13.303711,7.8496094,6.540039,11.081055
11.279297,13.165039,11.347656,9.3671875,12.830078
10.837891,14.571289,14.001953,10.025391,13.998047
11.455078,16.760742,12.526367,9.424805,18.149414
13.199219,18.922852,18.139648,15.978516,20.188477
14.435547,20.69336,18.50586,17.688477,21.30371
15.442383,21.496094,21.631836,18.762695,22.938477
15.495117,23.282227,17.75586,18.71289,24.074219
19.57129,24.13086,20.191406,16.826172,25.30664
19.77539,22.78418,20.135742,16.65039,19.972656
17.674805,17.107422,10.905273,7.7021484,14.048828
13.655273,23.645508,16.357422,16.666992,20.663086
15.829102,21.848633,17.80371,16.668945,21.396484
16.907227,24.617188,18.892578,19.63379,24.572266
20.725586,27.353516,17.029297,18.738281,23.233398
22.301758,24.686523,17.972656,19.054688,22.618164
16.207031,22.82129,17.795898,18.56543,19.911133
15.546875,21.919922,16.791992,15.011719,21.84375
14.483398,22.05664,15.458008,14.0625,17.764648
15.8046875,19.860352,13.606445,14.5234375,17.47754
14.474609,19.470703,14.669922,15.671875,17.0625
14.734375,16.374023,10.634766,10.575195,15.527344
16.47461,18.104492,8.768555,9.477539,16.03125
14.689453,16.636719,10.307617,10.646484,13.574219
13.538086,14.8828125,10.884766,12.208984,14.688477
13.709961,16.89746,12.496094,13.040039,15.744141
14.805664,16.985352,12.5234375,13.858398,15.383789
15.430664,14.088867,13.086914,16.492188,14.59082
12.285156,15.946289,12.913086,16.019531,14.417969
11.838867,15.369141,14.875977,14.621094,14.015625
13.360352,16.569336,15.233398,17.552734,14.609375
15.838867,15.720703,15.34375,17.586914,16.089844
