"[299, 255]","[227, 248]","[287, 319]","[279, 328]","[230, 262]"
15.491211,4.46875,8.484375,8.741211,5.307617
11.211914,4.0546875,8.639648,7.140625,6.1591797
13.244141,6.2265625,5.8876953,4.883789,7.6689453
10.307617,9.538086,3.9765625,4.3007812,10.052734
11.5,10.546875,12.458008,9.912109,11.5703125
12.666992,14.557617,14.193359,11.292969,14.558594
14.916016,15.540039,13.275391,9.796875,13.895508
8.832031,14.193359,15.02832,9.672852,12.5703125
9.048828,12.823242,10.774414,7.0507812,11.513672
9.533203,10.817383,9.34375,3.5332031,12.451172
11.234375,11.72168,9.439453,10.060547,12.498047
11.259766,10.454102,10.987305,11.766602,11.90625
10.063477,8.9609375,9.486328,10.418945,11.180664
9.9921875,4.0097656,8.488281,9.40625,8.999023
6.7353516,4.0976562,3.415039,5.3271484,7.6777344
5.9472656,5.836914,4.9453125,3.2373047,7.1308594
6.6728516,5.9941406,5.0498047,4.0185547,5.776367
8.411133,6.5273438,4.8095703,4.7695312,7.2597656
12.541016,6.8876953,6.254883,8.395508,9.392578
14.225586,6.388672,7.520508,8.5234375,9.173828
14.135742,4.4921875,11.295898,11.235352,6.9521484
15.241211,4.9853516,11.110352,11.237305,6.631836
18.339844,7.291992,11.625977,10.474609,5.9648438
16.898438,9.418945,8.642578,8.235352,7.484375
15.270508,9.56543,8.519531,12.407227,8.120117
13.722656,6.727539,11.067383,7.6015625,8.961914
14.109375,5.4160156,12.688477,7.6748047,7.4160156
6.9345703,4.2382812,12.743164,9.770508,7.4179688
15.258789,5.4248047,7.392578,11.53125,6.5039062
13.8359375,7.192383,8.084961,9.680664,7.786133
11.676758,6.7128906,9.618164,9.28125,7.3310547
15.588867,4.720703,7.9941406,8.624023,5.8710938
15.388672,3.1279297,5.611328,8.283203,4.1591797
17.500977,2.1972656,9.4609375,9.618164,3.5625
17.855469,2.522461,9.216797,11.771484,4.7539062
15.107422,3.84375,12.913086,13.037109,6.495117
12.368164,3.7822266,14.933594,13.682617,4.6054688
13.422852,5.9433594,12.9609375,12.163086,5.6435547
13.68457,5.9941406,12.467773,10.688477,5.6445312
10.640625,7.0791016,8.90625,5.5751953,6.1083984
4.6083984,6.2158203,4.419922,6.3564453,7.3554688
6.022461,6.135742,5.1953125,8.722656,6.817383
5.5742188,4.166992,5.879883,8.987305,5.774414
5.9960938,5.975586,6.232422,10.662109,8.949219
5.2333984,6.4052734,8.212891,8.154297,7.370117
10.495117,8.782227,7.8691406,10.850586,8.0859375
12.416016,17.435547,10.624023,11.3671875,15.149414
18.625,19.052734,8.987305,12.53418,18.85254
20.113281,20.452148,9.099609,10.231445,20.589844
20.027344,19.881836,18.30957,12.223633,18.261719
17.791992,17.345703,16.49121,12.098633,17.929688
17.18164,16.519531,18.095703,17.958984,18.392578
16.936523,15.860352,15.475586,16.646484,18.830078
14.175781,14.176758,13.794922,15.78125,19.0625
11.550781,15.15332,11.322266,12.099609,18.114258
9.080078,14.537109,11.263672,12.010742,14.604492
8.72168,11.296875,10.466797,10.850586,12.927734
10.337891,7.817383,7.383789,9.944336,8.042969
11.168945,13.651367,5.357422,7.5029297,7.694336
14.435547,13.581055,10.136719,9.202148,11.908203
11.5546875,10.139648,11.224609,10.817383,11.825195
6.176758,9.015625,9.216797,6.495117,12.591797
6.4023438,9.362305,7.5429688,7.0478516,12.0859375
5.189453,9.27832,4.263672,5.879883,11.0703125
5.4453125,8.631836,7.915039,6.881836,9.686523
8.537109,9.395508,7.779297,7.100586,8.0390625
8.5859375,9.048828,8.693359,10.324219,10.381836
12.892578,8.532227,10.825195,11.604492,11.026367
12.474609,7.6083984,13.046875,12.6484375,11.197266
12.8984375,4.100586,13.93457,12.4140625,10.589844
10.12207,5.9570312,12.441406,10.748047,6.5117188
6.5253906,6.734375,8.785156,7.6171875,6.2001953
5.602539,4.385742,7.723633,5.0029297,3.993164
8.232422,5.0234375,6.1992188,4.078125,3.7705078
9.462891,2.678711,2.569336,7.2070312,6.1884766
9.670898,3.9257812,9.939453,9.105469,9.74707
11.00293,5.1708984,12.668945,12.558594,9.327148
10.801758,6.651367,11.44043,12.047852,8.2890625
9.94043,6.8164062,8.71582,8.7734375,8.192383
7.4853516,4.131836,6.104492,7.7626953,4.6171875
7.026367,3.1113281,7.248047,8.604492,2.3759766
7.9814453,4.3291016,9.016602,8.493164,4.09375
11.316406,7.888672,11.060547,10.841797,9.286133
14.734375,8.927734,12.592773,12.212891,10.172852
12.864258,8.214844,12.537109,11.957031,9.915039
11.943359,5.8183594,11.291016,10.646484,7.6123047
10.444336,7.2070312,8.541992,8.772461,5.489258
5.2197266,6.6835938,5.9003906,6.7695312,4.7158203
4.8359375,3.4921875,3.6132812,4.4101562,5.448242
5.083008,3.4160156,2.6103516,2.9794922,6.1621094
6.5585938,4.6191406,5.600586,5.1279297,6.051758
8.360352,4.0429688,8.068359,7.551758,5.629883
8.560547,5.4189453,8.852539,7.5927734,6.4121094
11.011719,5.5039062,8.03125,7.9160156,6.368164
9.140625,6.0947266,7.413086,6.0283203,6.326172
3.4628906,6.5146484,7.1679688,7.638672,8.003906
3.7646484,6.6484375,7.15625,7.6367188,10.267578
4.6035156,8.814453,7.0498047,5.091797,10.72168
5.4970703,8.352539,9.574219,7.4296875,11.332031
6.803711,8.379883,9.328125,7.3359375,10.552734
10.824219,3.6826172,8.998047,7.5429688,9.488281
11.151367,5.0117188,7.4316406,7.6523438,9.806641
10.192383,3.8671875,6.2060547,5.383789,7.629883
6.0351562,5.5341797,5.904297,5.3935547,5.5146484
6.373047,5.567383,3.649414,3.8251953,6.788086
6.319336,7.4921875,4.3066406,6.1064453,8.5078125
6.1933594,7.4658203,5.4492188,7.383789,8.845703
12.488281,9.3671875,9.948242,9.383789,8.776367
13.75,9.178711,9.942383,9.728516,9.469727
14.27832,6.484375,9.458008,9.544922,9.657227
13.371094,4.3759766,7.647461,8.791992,7.4765625
14.717773,4.444336,4.6015625,4.84375,6.1679688
14.832031,4.939453,4.7529297,4.3564453,9.2265625
12.99707,3.7685547,7.3320312,6.5751953,9.337891
12.708984,9.543945,7.975586,7.6835938,9.985352
12.327148,9.621094,8.520508,7.9941406,10.050781
12.268555,7.8710938,8.743164,9.666992,8.938477
13.9296875,7.7695312,9.708008,10.130859,8.796875
14.208984,6.854492,7.864258,8.217773,7.783203
13.767578,5.6152344,5.7646484,4.919922,5.442383
12.154297,5.647461,5.216797,5.036133,6.2998047
13.183594,6.4453125,5.404297,6.1132812,8.250977
12.824219,7.7646484,5.8115234,5.788086,9.233398
11.014648,8.920898,5.234375,8.413086,9.067383
9.931641,8.862305,6.2197266,8.415039,9.1953125
9.708984,7.546875,8.475586,5.5126953,8.705078
8.868164,7.1445312,7.9501953,6.9541016,5.783203
11.486328,6.7529297,7.7402344,6.046875,5.59375
6.6816406,5.4960938,4.352539,5.4208984,5.689453
6.4375,2.4003906,3.2822266,4.9121094,4.6191406
4.75,3.5917969,6.0439453,4.6083984,5.6240234
6.1689453,2.2490234,6.4101562,6.3671875,6.4873047
6.6445312,2.2314453,9.588867,7.232422,6.623047
6.4746094,2.9560547,9.944336,7.504883,4.783203
4.326172,5.408203,8.450195,5.2958984,4.7373047
3.8164062,7.0351562,4.8134766,3.850586,7.921875
4.3876953,5.9296875,4.8154297,6.1152344,8.2890625
5.291992,4.7402344,4.3603516,6.5634766,7.9023438
4.5097656,4.5429688,5.3085938,7.6884766,10.137695
8.191406,6.060547,9.208984,10.452148,11.34668
8.401367,8.219727,11.350586,10.7421875,11.605469
7.4941406,10.3046875,9.633789,9.598633,11.123047
8.165039,10.357422,5.7890625,6.161133,11.558594
4.955078,10.337891,4.6796875,6.8564453,13.785156
4.5058594,9.301758,3.7763672,6.618164,11.738281
4.1953125,8.1875,6.7177734,6.209961,9.354492
6.576172,12.955078,7.8007812,8.260742,9.709961
11.474609,9.917969,11.365234,9.491211,10.327148
14.501953,8.014648,14.848633,11.788086,10.428711
12.676758,7.4121094,10.019531,9.762695,9.033203
10.3125,8.475586,8.683594,9.427734,9.014648
6.053711,12.482422,5.3251953,7.385742,10.18457
5.0791016,13.640625,5.564453,7.1728516,11.636719
8.564453,13.685547,7.0458984,10.75,11.001953
13.953125,14.106445,10.772461,11.28418,13.895508
16.344727,14.256836,14.412109,14.099609,14.073242
16.96875,10.888672,16.39746,14.362305,15.37793
16.423828,10.663086,11.1953125,10.53418,12.3359375
13.621094,9.163086,12.529297,8.708008,6.9101562
10.097656,14.220703,8.448242,9.953125,7.5058594
8.637695,13.71582,7.6523438,10.110352,11.969727
9.456055,13.12207,9.633789,9.583008,10.292969
11.743164,12.651367,9.482422,9.800781,13.116211
14.408203,11.28125,13.479492,13.964844,13.527344
15.227539,9.237305,14.330078,14.119141,11.479492
13.678711,7.9052734,13.793945,17.419922,11.1953125
12.223633,8.613281,11.522461,12.824219,8.686523
4.5253906,5.8896484,7.415039,7.9628906,4.567383
5.036133,6.426758,4.828125,5.616211,4.779297
6.814453,5.5117188,4.7626953,4.591797,6.4101562
9.700195,7.3652344,5.4277344,3.9716797,7.0498047
10.441406,7.359375,9.2734375,7.4140625,6.6728516
11.473633,7.1396484,9.508789,8.764648,7.1884766
7.620117,10.032227,9.063477,8.27832,9.611328
7.4648438,10.925781,7.5615234,6.2089844,9.038086
8.283203,12.265625,4.9316406,7.258789,7.989258
10.750977,13.419922,4.663086,8.129883,11.9375
10.860352,12.001953,5.1533203,9.484375,11.635742
11.739258,9.485352,6.7109375,9.681641,12.328125
9.748047,9.472656,8.545898,9.897461,13.645508
11.107422,8.873047,12.081055,10.345703,13.324219
10.004883,7.2998047,9.948242,10.813477,10.498047
6.5751953,6.3378906,7.626953,8.019531,9.249023
5.1445312,4.3320312,6.126953,4.5615234,5.2246094
2.8613281,5.379883,3.4541016,4.830078,4.1875
3.4902344,4.290039,4.966797,4.6835938,3.8847656
5.3779297,5.883789,5.2851562,6.3847656,7.8271484
7.3291016,5.8808594,6.463867,7.095703,6.071289
8.691406,6.6123047,6.850586,7.7910156,8.050781
9.8828125,6.9345703,8.568359,7.7910156,7.6347656
7.4140625,6.220703,9.961914,7.084961,5.430664
7.709961,5.658203,6.8710938,4.366211,2.6933594
7.5302734,5.2382812,5.1464844,4.8652344,3.0576172
6.392578,4.5,5.1015625,5.3583984,3.0263672
5.352539,3.9501953,6.111328,4.3945312,5.330078
8.110352,5.635742,8.008789,6.9970703,6.6523438
8.038086,8.298828,8.100586,9.291016,6.9570312
6.9052734,8.364258,8.563477,9.296875,6.145508
7.091797,5.1445312,7.220703,5.604492,4.0927734
4.2685547,5.03125,3.7753906,4.0390625,4.3945312
4.7998047,5.9814453,4.873047,4.685547,4.8867188
4.7666016,5.4453125,4.161133,4.9970703,6.053711
6.330078,2.9941406,8.77832,7.745117,6.522461
9.672852,3.5810547,12.337891,10.283203,9.504883
10.935547,4.4228516,12.6875,10.525391,10.368164
11.84375,7.8876953,11.791016,10.512695,9.848633
11.285156,7.1953125,8.329102,8.0625,8.621094
6.7490234,7.3935547,9.836914,4.7441406,7.1171875
5.3896484,4.7929688,9.235352,8.5,6.9453125
7.8203125,4.895508,7.484375,8.064453,7.1796875
11.047852,6.3291016,11.09668,9.832031,10.199219
12.545898,5.40625,11.15625,11.93457,11.5234375
14.003906,4.5898438,12.390625,12.31543,11.205078
13.235352,3.7763672,12.114258,11.394531,9.433594
10.982422,4.864258,9.1875,10.819336,7.7695312
9.616211,6.7216797,7.3847656,8.198242,10.879883
6.682617,8.5859375,6.3759766,5.2109375,11.169922
5.932617,9.40918,6.423828,5.944336,10.358398
6.845703,9.952148,9.128906,9.380859,11.959961
12.828125,15.915039,11.374023,13.4765625,16.800781
15.145508,16.25293,14.191406,14.782227,19.623047
15.02832,18.771484,13.204102,14.225586,19.63086
11.551758,16.97168,11.551758,13.765625,19.014648
9.427734,17.737305,9.80957,11.015625,16.620117
9.543945,17.239258,7.8691406,10.661133,16.483398
12.329102,18.580078,10.643555,13.55957,15.020508
15.048828,18.351562,11.764648,12.766602,18.307617
13.873047,16.648438,14.672852,12.564453,19.319336
11.871094,17.088867,15.458008,12.487305,17.646484
10.7578125,15.230469,12.920898,10.850586,16.12207
11.592773,14.828125,11.168945,10.444336,13.875
9.458984,12.755859,7.254883,10.357422,11.686523
8.34668,9.032227,6.623047,8.452148,10.063477
9.350586,10.245117,9.6640625,8.681641,10.333984
10.817383,8.067383,9.776367,8.999023,10.18457
10.200195,8.986328,7.5859375,8.594727,9.931641
12.171875,9.795898,8.736328,8.630859,8.75
10.657227,7.6171875,6.963867,9.042969,6.0947266
9.256836,7.1757812,4.716797,7.1904297,3.953125
7.7929688,4.227539,2.1259766,5.548828,5.6777344
