"[299, 255]","[227, 248]","[287, 319]","[279, 328]","[230, 262]"
8.978516,6.7148438,3.9648438,4.3339844,7.395508
8.055664,6.4121094,4.0722656,4.5546875,6.5029297
6.4033203,5.529297,4.7929688,5.006836,4.524414
5.786133,5.1816406,4.3710938,4.620117,4.107422
9.707031,4.0195312,4.6083984,5.7353516,5.364258
8.3515625,3.6328125,4.151367,5.290039,4.955078
5.708008,3.9697266,6.084961,6.5,4.120117
6.4882812,4.5625,3.555664,3.1835938,4.459961
7.0009766,6.2373047,3.5810547,2.756836,5.5458984
7.2265625,6.2304688,1.7304688,3.5351562,6.8652344
7.220703,4.6533203,2.6376953,4.2226562,8.183594
9.21875,3.5771484,4.203125,6.1835938,7.9970703
9.060547,5.5166016,8.234375,5.953125,7.4853516
8.611328,5.4414062,7.6845703,8.750977,6.379883
14.890625,6.1210938,4.1171875,3.8291016,6.1845703
14.275391,5.7226562,5.118164,5.458008,3.7109375
13.932617,3.5664062,5.551758,5.883789,3.5019531
9.008789,1.5068359,6.2753906,5.540039,3.359375
11.081055,3.5917969,9.8984375,6.751953,3.1044922
10.628906,3.959961,9.967773,6.8828125,5.9160156
8.150391,3.2509766,6.513672,6.7001953,5.890625
7.107422,4.928711,5.614258,6.6220703,5.823242
13.227539,5.163086,5.810547,6.5390625,5.7470703
13.647461,4.984375,6.267578,5.8671875,5.7509766
13.103516,4.71875,6.841797,5.6083984,6.2216797
8.998047,3.7167969,6.8691406,5.326172,5.3134766
6.756836,4.3447266,6.413086,4.595703,7.861328
5.598633,4.3271484,5.368164,4.2070312,9.9140625
5.9765625,5.7734375,4.895508,4.373047,10.543945
5.614258,7.7001953,4.4882812,3.7841797,10.004883
12.817383,9.935547,6.7070312,5.7490234,6.8203125
14.606445,8.827148,6.2285156,5.7558594,7.1953125
12.21582,6.432617,5.5703125,5.129883,7.3710938
12.0625,4.4746094,4.6591797,5.1015625,6.5615234
10.206055,2.2763672,2.368164,4.4521484,6.5771484
5.4697266,3.0488281,3.2607422,4.885742,4.5791016
7.0039062,2.6513672,4.9472656,4.8652344,5.908203
6.786133,2.9707031,5.6484375,6.2421875,4.2822266
11.443359,2.6064453,4.6757812,4.7978516,2.5791016
11.889648,5.9804688,3.821289,3.7402344,4.489258
4.6621094,6.9160156,3.9707031,4.453125,4.8115234
2.8564453,5.0478516,3.7148438,2.834961,4.345703
4.821289,3.9238281,2.9501953,3.9873047,5.841797
6.6796875,9.240234,5.0654297,6.8740234,8.772461
7.3222656,9.420898,7.2617188,8.642578,9.1484375
9.063477,9.469727,8.09082,8.366211,9.136719
8.072266,7.0703125,7.024414,7.951172,6.741211
4.419922,7.9628906,6.361328,8.010742,6.883789
2.6396484,8.03125,5.5117188,6.7539062,6.0058594
1.7451172,6.682617,4.286133,4.955078,4.5185547
4.3935547,7.279297,3.6699219,3.5654297,5.850586
6.1416016,6.7841797,5.495117,6.232422,7.8623047
7.129883,7.607422,6.0390625,6.939453,7.926758
8.176758,8.267578,8.067383,8.385742,7.2148438
7.4404297,6.3779297,5.727539,6.4404297,4.5634766
5.4257812,4.6552734,6.1328125,5.4873047,2.678711
6.1289062,4.975586,4.171875,5.2148438,3.7519531
4.4785156,5.022461,4.805664,4.975586,3.9013672
8.473633,5.5078125,7.9335938,9.204102,7.2666016
9.811523,6.5683594,9.825195,10.168945,8.776367
10.708008,8.8828125,9.907227,10.485352,8.711914
11.131836,8.537109,9.270508,9.895508,7.133789
9.427734,5.529297,6.140625,7.4208984,2.6308594
6.5664062,6.024414,5.6015625,6.748047,6.3652344
5.8896484,6.6289062,6.0654297,7.1503906,6.5615234
6.0214844,6.78125,4.7978516,5.0439453,6.147461
6.310547,7.100586,5.1308594,4.96875,7.459961
5.7216797,5.1367188,5.640625,6.1445312,8.873047
5.4589844,6.9941406,5.821289,6.7539062,9.330078
5.338867,7.614258,5.120117,6.904297,8.7890625
5.088867,7.0410156,4.3632812,6.4521484,3.9707031
5.213867,6.705078,5.2177734,6.3867188,3.4951172
6.6601562,6.044922,5.8535156,6.671875,6.763672
9.749023,7.7529297,5.1123047,6.4121094,5.948242
11.168945,4.901367,9.103516,9.667969,9.495117
12.936523,9.699219,12.576172,12.833984,10.59668
14.263672,9.277344,13.1171875,13.827148,11.09668
14.962891,4.404297,12.106445,13.053711,8.866211
12.296875,5.142578,9.474609,9.236328,5.883789
9.87207,5.864258,8.383789,9.852539,5.9179688
11.743164,5.8935547,7.5791016,4.638672,6.192383
12.53125,5.506836,7.205078,5.428711,4.984375
12.1171875,3.868164,7.0927734,4.993164,3.1601562
8.206055,4.057617,4.65625,5.6503906,4.2666016
5.2265625,4.774414,6.6367188,7.9648438,6.033203
4.6259766,4.208008,9.436523,7.776367,6.399414
3.1455078,3.5517578,7.9970703,6.801758,5.640625
3.9765625,3.5371094,4.7373047,5.607422,3.6816406
5.8583984,2.4091797,4.982422,5.3652344,2.2753906
4.9990234,3.3076172,5.573242,3.3271484,1.4873047
5.3310547,3.7070312,5.0751953,7.298828,3.78125
8.775391,7.1328125,8.764648,9.064453,8.042969
9.613281,5.3671875,8.836914,9.696289,7.8808594
9.614258,3.8291016,9.321289,9.259766,6.6914062
6.875,5.0029297,3.9345703,5.783203,5.2714844
2.9941406,4.118164,4.4492188,7.1523438,5.2714844
2.6201172,4.2539062,6.7353516,4.6376953,5.0527344
2.352539,5.104492,4.3164062,4.7929688,6.036133
2.9638672,6.1035156,6.635742,4.9296875,8.8984375
6.5859375,5.801758,10.109375,10.444336,9.824219
6.2578125,8.645508,13.462891,10.969727,11.794922
4.716797,8.803711,10.595703,9.984375,11.05957
7.0839844,8.504883,2.40625,4.5234375,10.297852
3.7294922,9.830078,4.7353516,7.1601562,10.587891
5.381836,11.126953,4.9023438,8.214844,10.677734
8.609375,11.125,6.680664,6.6552734,10.131836
11.571289,11.8046875,9.797852,9.691406,12.980469
15.436523,15.646484,11.119141,9.084961,15.99707
14.769531,15.674805,15.253906,16.145508,14.899414
14.518555,12.853516,12.59375,14.181641,13.777344
10.625,9.109375,11.490234,10.775391,9.902344
7.4902344,14.907227,9.949219,8.277344,9.830078
6.9921875,15.333008,4.9121094,7.176758,11.035156
8.201172,15.185547,3.3935547,4.2890625,11.300781
10.733398,17.970703,4.973633,5.8447266,16.09668
11.176758,16.932617,11.27832,9.550781,15.874023
11.110352,16.457031,14.857422,15.513672,16.458984
11.963867,17.418945,7.140625,12.900391,16.375
10.042969,18.635742,5.774414,10.09375,17.786133
4.385742,17.969727,6.932617,7.3984375,15.055664
5.428711,15.657227,7.006836,8.230469,13.360352
6.010742,13.837891,6.1328125,6.3242188,13.121094
6.053711,14.087891,4.216797,14.402344,12.336914
14.975586,15.672852,14.59082,16.378906,14.802734
14.671875,13.638672,14.352539,15.607422,13.483398
13.30957,10.191406,13.420898,18.822266,9.995117
6.873047,10.469727,6.84375,11.282227,8.529297
6.9941406,8.993164,4.0253906,5.026367,5.540039
6.9697266,10.53125,3.5917969,4.473633,6.711914
6.604492,15.661133,3.5986328,6.0195312,12.669922
10.050781,16.469727,8.198242,6.2353516,15.741211
13.995117,17.563477,9.141602,8.118164,17.944336
15.347656,12.173828,6.489258,7.3398438,12.033203
12.176758,10.957031,4.2773438,6.359375,11.529297
10.051758,8.767578,2.9404297,2.3173828,5.515625
10.669922,8.584961,3.6767578,4.3007812,6.9697266
7.489258,11.636719,5.2148438,4.373047,11.888672
10.511719,12.761719,10.930664,10.849609,13.487305
12.725586,12.7109375,10.275391,13.053711,13.725586
14.545898,11.608398,11.140625,13.28125,13.158203
13.3203125,10.124023,11.15332,12.760742,13.376953
11.600586,9.394531,9.0,12.013672,11.522461
9.402344,11.018555,8.987305,11.892578,11.822266
11.688477,11.4375,6.540039,8.495117,10.733398
11.876953,12.435547,12.918945,8.894531,12.3984375
10.051758,13.295898,14.836914,12.956055,13.5859375
12.611328,13.749023,15.625,12.441406,16.454102
14.422852,15.709961,15.4140625,12.400391,18.890625
14.014648,16.876953,15.530273,13.048828,19.632812
13.4140625,16.975586,14.822266,13.655273,19.220703
13.500977,16.9375,13.983398,9.151367,17.496094
13.550781,17.81543,12.766602,9.568359,19.041016
13.555664,17.331055,15.389648,18.240234,19.042969
14.482422,17.31836,17.53711,18.475586,18.019531
15.223633,17.979492,17.58496,16.726562,18.033203
16.345703,18.55371,18.423828,15.336914,18.387695
16.845703,17.65332,16.34082,17.109375,17.56836
14.000977,17.282227,13.496094,12.103516,16.676758
13.499023,16.386719,7.881836,5.9960938,12.244141
14.84082,12.364258,5.2890625,5.529297,6.9335938
15.02832,4.370117,2.9277344,3.9804688,4.102539
10.517578,11.462891,2.9296875,5.6396484,4.0478516
11.795898,12.270508,2.7958984,5.8623047,10.813477
13.271484,13.259766,8.866211,7.303711,15.400391
16.88379,13.905273,11.806641,10.689453,17.439453
13.75293,15.6328125,15.056641,13.682617,18.575195
12.373047,19.884766,19.82129,17.78125,19.882812
13.999023,21.96875,20.62207,16.842773,23.188477
16.87793,23.985352,21.78711,23.504883,24.71582
20.469727,27.19629,24.367188,18.644531,25.432617
21.12793,15.597656,13.560547,14.407227,18.125977
17.71875,17.236328,21.513672,21.604492,18.529297
22.813477,16.96289,24.029297,22.416992,19.183594
22.9375,17.637695,21.90332,19.08789,19.021484
17.191406,18.695312,17.745117,15.576172,14.911133
15.908203,18.25879,17.02539,15.185547,14.441406
14.09082,18.077148,14.375,12.816406,13.209961
11.818359,17.012695,8.912109,11.438477,12.861328
11.97168,15.9921875,13.582031,13.415039,13.03418
13.827148,13.378906,14.897461,14.267578,13.056641
15.079102,12.566406,14.827148,15.90918,11.713867
13.756836,10.71582,13.571289,12.545898,9.177734
7.078125,12.452148,7.0195312,8.234375,5.3515625
5.5810547,12.28125,3.9960938,6.5283203,8.09375
7.4257812,15.198242,8.515625,6.473633,9.126953
11.30957,13.644531,14.239258,12.500977,15.139648
13.688477,16.04004,15.443359,17.661133,17.029297
15.626953,16.89746,16.393555,17.376953,17.313477
18.767578,14.985352,16.773438,16.892578,17.304688
18.851562,15.169922,15.550781,15.59082,16.90918
17.808594,15.810547,12.719727,10.430664,14.712891
15.416992,14.972656,11.878906,14.366211,13.926758
17.413086,14.701172,16.780273,17.08789,16.0
15.772461,16.335938,22.34961,22.573242,19.78125
22.362305,20.807617,22.091797,22.865234,22.367188
24.083008,20.78418,24.925781,23.92871,21.734375
26.69043,19.482422,25.032227,23.499023,20.389648
21.729492,19.064453,16.576172,14.949219,20.393555
12.560547,18.515625,11.666992,12.982422,16.836914
9.30957,17.148438,10.443359,11.883789,14.652344
8.228516,11.383789,7.3066406,8.581055,9.949219
6.9052734,9.361328,7.6933594,6.501953,10.917969
7.041992,7.051758,8.092773,6.569336,7.873047
10.953125,7.53125,8.619141,8.560547,7.8564453
11.902344,7.453125,9.493164,9.359375,10.609375
11.667969,7.330078,8.785156,9.245117,8.641602
6.783203,12.228516,6.010742,6.765625,10.5078125
8.40625,15.913086,11.013672,7.354492,16.138672
8.53418,16.283203,16.510742,8.044922,16.03418
9.964844,15.731445,18.96875,10.90332,13.363281
12.496094,14.831055,13.385742,14.415039,12.755859
12.8828125,13.6796875,14.435547,16.86914,14.768555
13.630859,14.319336,15.236328,15.121094,15.321289
13.878906,14.270508,16.208984,15.151367,14.286133
11.5,12.921875,17.722656,15.358398,13.206055
12.1171875,14.494141,17.710938,16.748047,15.629883
12.930664,16.705078,20.342773,17.487305,17.302734
11.255859,16.764648,20.671875,17.916016,17.323242
12.126953,16.674805,19.702148,15.755859,17.310547
14.952148,16.175781,15.358398,8.6640625,17.422852
13.978516,16.493164,6.5371094,5.8847656,15.764648
10.723633,16.011719,3.319336,3.5888672,13.662109
11.189453,15.62207,2.9023438,1.7441406,8.955078
11.044922,13.4765625,2.1992188,2.1298828,6.083008
9.807617,8.8046875,2.2070312,2.1835938,6.040039
5.145508,11.509766,3.8935547,5.584961,6.3515625
9.716797,12.996094,7.9189453,5.5976562,11.336914
8.758789,12.854492,9.47168,8.660156,13.329102
9.542969,14.514648,8.765625,10.786133,16.841797
9.714844,17.550781,7.8720703,11.001953,18.810547
12.59082,18.554688,15.487305,11.387695,19.12793
13.069336,17.714844,15.729492,11.751953,17.376953
12.8125,16.644531,14.027344,10.716797,16.749023
12.864258,15.121094,13.421875,10.581055,16.529297
11.393555,14.12207,12.956055,7.104492,13.75293
11.168945,12.65918,10.390625,8.296875,14.642578
10.59375,11.933594,11.060547,9.011719,14.229492
8.7734375,11.9140625,8.838867,7.751953,13.347656
5.5683594,13.768555,7.8691406,9.845703,14.644531
7.2333984,13.681641,7.5429688,9.53125,15.55957
