"[299, 255]","[227, 248]","[287, 319]","[279, 328]","[230, 262]"
9.942383,6.794922,5.0097656,5.338867,4.7998047
15.586914,6.201172,6.1757812,4.5341797,7.8564453
17.536133,5.814453,9.166016,4.2753906,8.511719
19.975586,8.624023,10.4609375,8.713867,8.858398
17.700195,9.847656,10.542969,11.161133,10.2890625
16.041016,10.104492,8.508789,10.168945,9.822266
16.144531,9.69043,8.014648,5.879883,8.327148
15.014648,7.236328,6.620117,6.2246094,8.321289
19.327148,8.736328,7.904297,4.6914062,7.375
19.765625,8.608398,7.584961,4.489258,9.001953
16.97754,8.743164,8.080078,7.1572266,11.474609
16.310547,9.083984,10.250977,9.6015625,11.55957
12.933594,9.775391,10.610352,10.462891,11.082031
12.28125,9.332031,10.280273,10.47168,10.693359
11.428711,8.161133,7.03125,7.895508,9.21582
12.2890625,7.0839844,6.5527344,5.6240234,9.049805
15.170898,7.0927734,6.1689453,6.251953,6.7753906
16.36914,8.480469,6.114258,7.5976562,10.920898
14.324219,11.244141,7.833008,10.980469,12.813477
13.265625,11.783203,11.990234,11.6328125,14.847656
12.572266,11.044922,13.177734,11.2734375,13.1640625
12.2578125,11.111328,13.238281,11.72168,12.073242
12.927734,11.451172,10.982422,9.75,13.300781
13.508789,11.232422,4.3710938,6.4921875,13.046875
13.567383,8.600586,4.2617188,9.574219,13.302734
16.280273,7.803711,5.623047,7.864258,12.8515625
16.634766,5.6972656,9.083008,11.319336,14.299805
16.91211,10.422852,11.662109,12.787109,14.359375
15.8359375,10.910156,13.390625,13.213867,13.5
14.231445,10.989258,13.683594,13.439453,14.370117
18.120117,10.442383,12.31543,8.890625,14.341797
18.78711,6.852539,10.989258,7.0146484,12.72168
16.793945,5.975586,11.567383,3.9345703,13.557617
14.901367,4.9570312,12.1640625,3.9345703,13.287109
11.332031,3.6689453,11.862305,4.8964844,12.477539
14.879883,6.3623047,11.662109,6.546875,14.014648
15.064453,7.649414,11.988281,7.7490234,15.337891
13.912109,7.7421875,12.125977,8.111328,11.303711
15.779297,5.6953125,10.486328,8.206055,10.874023
19.628906,7.364258,10.837891,3.7246094,13.104492
19.763672,8.389648,10.985352,3.6875,15.926758
19.666992,7.5117188,11.944336,3.6835938,16.808594
20.492188,8.081055,12.6796875,4.345703,18.145508
21.416992,8.683594,16.265625,6.135742,18.108398
23.893555,9.21582,17.704102,9.144531,16.042969
23.75879,6.6464844,17.583984,9.578125,17.608398
25.703125,12.943359,15.963867,7.348633,19.361328
25.578125,17.092773,11.624023,5.041992,20.081055
24.59082,12.461914,10.163086,4.4316406,19.129883
24.720703,13.176758,11.254883,5.116211,18.610352
24.704102,10.295898,13.586914,5.663086,17.230469
22.652344,11.22168,13.357422,7.4140625,17.520508
24.450195,10.891602,14.584961,11.463867,18.274414
24.222656,7.9228516,14.594727,10.875977,16.001953
24.079102,6.4433594,12.568359,4.982422,16.935547
24.041992,7.7109375,13.551758,3.9833984,16.527344
23.256836,7.993164,15.030273,4.7822266,16.567383
22.183594,9.356445,15.361328,4.692383,16.961914
20.896484,9.035156,15.5078125,4.328125,16.916016
18.999023,6.6171875,14.977539,7.4160156,16.788086
17.435547,7.8916016,13.817383,9.899414,16.242188
16.25293,5.8945312,12.708008,9.911133,12.161133
16.995117,7.881836,10.988281,6.088867,10.390625
18.013672,7.330078,11.068359,5.3203125,13.005859
17.85254,7.1259766,10.59668,4.7617188,12.913086
16.629883,7.9384766,10.833008,4.833008,12.458008
16.368164,6.8339844,11.972656,4.685547,12.639648
15.379883,5.0878906,12.765625,11.474609,11.191406
14.1640625,6.5947266,12.826172,11.573242,11.18457
10.388672,6.439453,10.830078,9.366211,9.150391
13.37207,7.5722656,8.680664,7.7890625,6.7802734
13.958984,6.908203,8.980469,6.8476562,9.192383
15.634766,5.4033203,8.977539,6.2734375,9.918945
16.045898,7.546875,9.475586,6.211914,10.891602
15.456055,7.7021484,10.828125,5.129883,13.983398
15.191406,6.8115234,13.856445,13.5234375,14.229492
15.896484,6.9648438,14.266602,13.907227,12.217773
16.895508,8.40332,14.258789,13.8203125,8.702148
15.955078,8.636719,11.999023,11.166016,9.885742
18.09668,9.8828125,10.136719,6.03125,12.198242
18.847656,10.353516,9.561523,4.2539062,12.557617
18.376953,11.46875,9.209961,4.064453,14.03125
17.216797,10.780273,8.451172,4.810547,15.020508
14.678711,10.131836,11.699219,13.134766,14.330078
15.174805,9.791016,12.2578125,13.740234,11.461914
16.708008,9.194336,11.865234,10.927734,8.296875
16.615234,9.469727,8.959961,8.595703,8.378906
16.3125,8.306641,10.006836,7.638672,11.100586
16.09375,8.431641,9.551758,3.8183594,12.841797
15.866211,8.404297,9.958008,4.3271484,12.756836
16.245117,6.4345703,9.803711,5.3115234,13.297852
16.916016,7.1845703,13.783203,8.666016,12.847656
16.71582,11.238281,14.224609,10.308594,12.969727
15.3203125,11.224609,13.682617,9.307617,9.603516
19.658203,9.600586,11.290039,6.0322266,9.791016
19.669922,7.8046875,10.464844,4.9814453,11.897461
19.293945,8.03125,8.807617,4.338867,12.541992
15.463867,5.2734375,10.610352,3.8515625,11.576172
13.482422,4.109375,11.188477,3.9892578,11.422852
14.395508,5.9091797,12.228516,5.998047,11.149414
15.200195,5.7666016,13.235352,9.6796875,10.548828
15.553711,10.928711,13.219727,9.234375,10.126953
18.453125,9.728516,11.2265625,5.5234375,9.285156
20.405273,9.558594,12.356445,5.2626953,12.417969
20.467773,8.163086,12.662109,5.732422,12.538086
16.329102,7.607422,11.928711,4.5976562,12.277344
19.22754,8.287109,12.905273,4.310547,11.674805
14.514648,5.482422,13.037109,6.2441406,9.904297
10.727539,6.1171875,11.683594,9.483398,8.392578
10.983398,6.208008,11.8671875,10.366211,8.3046875
8.008789,5.8515625,14.037109,14.4375,10.55957
9.337891,4.7910156,11.730469,7.8085938,8.651367
9.978516,5.1240234,6.5429688,5.419922,7.745117
10.897461,10.972656,5.3222656,6.6484375,7.9453125
12.9375,14.584961,11.4921875,12.288086,15.177734
14.56543,15.356445,11.691406,12.978516,17.458984
15.569336,16.350586,14.973633,15.983398,18.90332
15.530273,17.088867,15.057617,15.360352,21.99121
12.251953,15.96582,15.192383,15.019531,22.04004
12.265625,15.318359,8.4375,12.385742,16.749023
11.657227,15.193359,11.706055,12.802734,14.797852
12.7890625,14.43457,13.630859,14.266602,14.80957
15.685547,13.353516,17.142578,15.651367,12.286133
16.08496,14.214844,15.799805,12.78418,14.907227
18.509766,17.03711,14.683594,15.138672,19.161133
17.535156,17.31543,18.438477,17.479492,18.166992
14.161133,15.144531,16.083984,14.357422,15.354492
8.918945,11.2734375,10.244141,8.266602,8.634766
8.6328125,9.598633,7.3164062,4.654297,8.375977
7.0341797,9.1875,6.4453125,9.983398,7.7646484
9.09668,8.40625,10.026367,10.995117,10.451172
12.911133,10.270508,16.722656,13.991211,12.296875
13.638672,13.084961,16.261719,13.853516,16.051758
11.09668,14.058594,14.603516,14.53125,13.984375
11.546875,10.703125,12.322266,12.586914,10.849609
10.030273,12.904297,10.853516,9.150391,10.555664
10.336914,14.017578,11.051758,9.430664,12.300781
12.702148,13.741211,10.625,9.674805,13.258789
12.69043,13.854492,12.999023,11.62793,14.279297
14.069336,13.383789,13.660156,13.969727,13.890625
14.069336,13.008789,13.776367,13.933594,15.151367
12.908203,12.489258,12.448242,12.341797,14.234375
12.869141,12.151367,10.0078125,9.514648,13.049805
10.694336,14.599609,9.482422,6.9414062,13.550781
14.05957,13.080078,10.62793,13.055664,12.8046875
13.769531,12.745117,11.480469,13.643555,14.449219
15.868164,12.149414,13.620117,13.614258,13.727539
16.926758,10.907227,15.352539,15.219727,13.833984
17.03418,9.594727,15.791016,15.818359,14.0390625
16.676758,9.427734,15.685547,14.798828,12.123047
16.02246,10.426758,12.995117,12.810547,9.430664
9.329102,9.9921875,7.602539,6.7597656,7.2128906
9.5078125,12.325195,4.979492,5.7558594,14.370117
9.170898,14.050781,6.7841797,7.0097656,15.863281
11.62793,16.708008,18.22461,13.932617,15.052734
16.811523,17.918945,18.45996,13.287109,20.896484
18.389648,20.335938,16.700195,12.550781,21.49121
18.134766,19.197266,17.598633,12.19043,21.626953
14.604492,18.97754,18.345703,13.2421875,19.640625
14.134766,18.93457,17.50586,13.293945,18.651367
14.285156,15.796875,14.0546875,11.785156,14.9609375
12.237305,12.582031,9.838867,9.602539,11.265625
14.381836,12.93457,13.5234375,13.961914,13.152344
14.069336,11.952148,14.947266,14.451172,14.255859
13.557617,12.881836,14.584961,15.212891,14.777344
12.40332,12.8046875,14.510742,16.27539,15.43457
9.249023,12.390625,12.985352,12.209961,12.461914
7.7148438,9.549805,9.300781,7.354492,7.3095703
5.102539,7.935547,5.256836,7.2041016,5.919922
5.647461,7.501953,5.3310547,5.2070312,7.4208984
6.267578,7.5273438,8.912109,10.112305,8.625
12.529297,10.251953,17.08496,12.755859,12.299805
11.723633,11.954102,14.902344,14.8046875,12.977539
6.9248047,12.950195,13.332031,12.005859,14.225586
5.508789,12.829102,11.1484375,10.15332,14.166992
7.966797,12.878906,7.779297,7.3359375,12.603516
10.425781,11.84668,9.095703,5.751953,9.96875
10.967773,14.211914,8.177734,10.176758,9.639648
12.308594,13.112305,11.040039,10.541016,13.526367
22.648438,14.875977,14.295898,13.432617,18.898438
18.375,17.336914,17.813477,16.32129,16.822266
19.240234,16.578125,16.17871,13.306641,17.052734
15.942383,13.467773,11.701172,10.512695,15.3984375
14.598633,14.038086,10.098633,10.691406,12.18457
11.714844,15.378906,8.115234,9.2265625,13.663086
12.788086,13.580078,10.21582,11.953125,10.811523
15.50293,11.542969,11.529297,11.506836,11.180664
14.819336,10.8203125,12.981445,13.87793,14.680664
14.521484,11.522461,14.220703,14.146484,13.21582
11.977539,12.178711,13.15332,12.857422,14.044922
11.1875,9.250977,11.1015625,9.999023,10.756836
5.6396484,8.087891,8.75,7.2890625,7.5166016
4.611328,6.2246094,6.0634766,6.946289,7.5615234
8.99707,10.217773,7.2822266,7.885742,8.387695
10.865234,8.449219,10.213867,9.516602,10.066406
11.904297,9.219727,11.578125,11.9453125,10.501953
13.919922,7.8740234,12.926758,10.581055,10.52832
12.661133,6.8896484,9.597656,11.125,9.9609375
10.384766,7.578125,7.513672,9.5,9.875977
6.4814453,6.1152344,5.2539062,5.7470703,3.8154297
5.484375,3.899414,4.0029297,4.765625,3.328125
5.463867,4.8535156,3.0058594,2.953125,3.9951172
8.667969,5.9453125,6.4628906,7.375,8.233398
8.991211,8.291992,8.826172,8.606445,11.171875
10.231445,9.808594,10.774414,9.769531,11.425781
8.185547,9.041992,10.595703,9.865234,10.083984
6.9101562,10.607422,5.1621094,6.3359375,10.375
4.198242,14.412109,4.1064453,7.0751953,13.454102
6.314453,15.49707,6.3251953,11.916992,16.200195
10.785156,18.64746,9.9609375,12.783203,18.027344
12.345703,18.898438,10.704102,11.525391,17.576172
15.269531,16.355469,15.902344,13.941406,15.142578
13.432617,13.40332,13.498047,13.688477,10.178711
12.214844,8.805664,10.493164,10.412109,8.486328
10.62793,7.1640625,8.365234,7.100586,8.016602
8.673828,4.4052734,3.703125,2.7304688,5.2216797
7.3828125,4.319336,3.1552734,3.125,3.1328125
4.647461,6.439453,2.1191406,2.477539,7.0751953
8.5703125,6.3759766,8.738281,8.310547,9.7578125
14.464844,6.3378906,13.081055,12.441406,11.115234
14.628906,7.435547,13.442383,13.563477,11.889648
13.626953,9.467773,13.691406,13.833984,11.004883
12.667969,9.095703,10.702148,11.197266,9.553711
4.544922,7.7148438,8.212891,8.3515625,7.482422
4.7558594,8.8828125,7.9072266,10.12207,4.0458984
5.236328,6.7421875,8.958984,9.542969,4.979492
9.073242,4.5214844,11.47168,12.018555,6.6210938
11.360352,6.3691406,11.603516,11.776367,10.457031
11.969727,6.133789,11.522461,12.80957,10.490234
11.12793,5.0654297,10.400391,11.640625,8.666016
8.975586,3.609375,7.526367,9.366211,4.548828
3.1601562,2.8115234,4.6845703,6.823242,2.1357422
3.4199219,2.8457031,3.1210938,2.9355469,2.319336
3.1445312,3.6298828,2.4101562,3.397461,4.21875
4.3691406,2.8408203,3.1298828,3.9472656,4.6992188
5.796875,5.3759766,4.341797,5.7041016,7.616211
5.944336,5.3271484,5.4277344,5.1396484,7.8203125
5.647461,3.8330078,12.37207,3.9023438,6.5966797
13.012695,3.7763672,12.783203,5.870117,5.3623047
14.65625,1.2314453,10.244141,8.174805,3.7548828
