"[299, 255]","[227, 248]","[287, 319]","[279, 328]","[230, 262]"
5.899414,3.5292969,2.8574219,3.0888672,3.756836
7.5703125,3.1582031,2.3789062,2.8476562,3.2666016
7.854492,3.256836,2.2949219,2.0888672,5.5498047
5.6064453,5.3291016,5.5820312,7.0390625,6.4335938
5.7529297,10.509766,7.354492,8.831055,6.680664
9.053711,10.087891,7.9472656,7.6708984,6.2939453
11.013672,6.913086,6.6914062,5.392578,4.0751953
11.394531,4.9941406,5.290039,6.201172,3.3671875
10.370117,3.4765625,3.6542969,5.4677734,4.4873047
7.9570312,5.3652344,3.8808594,3.9765625,6.4746094
7.1054688,8.428711,4.510742,4.7695312,9.651367
7.9072266,9.25,5.885742,7.1367188,10.533203
8.49707,9.600586,6.3720703,7.4365234,10.3046875
8.6015625,9.6171875,6.114258,7.2626953,8.541016
10.339844,8.15332,5.305664,5.0996094,4.1904297
8.836914,5.529297,4.75,4.1914062,3.1015625
5.5058594,8.527344,3.6992188,4.2978516,5.4814453
6.176758,8.569336,3.7441406,4.1640625,4.8779297
7.8310547,5.4902344,4.176758,5.015625,6.1191406
8.9609375,6.6875,8.630859,8.393555,6.173828
9.178711,10.317383,8.791992,8.0625,9.750977
9.285156,10.755859,8.3125,7.385742,10.871094
9.630859,9.980469,4.9697266,5.6054688,8.130859
10.064453,7.958008,4.8496094,4.7666016,7.8095703
8.018555,7.8046875,4.211914,4.470703,5.9228516
3.421875,6.8476562,2.8945312,2.8310547,4.932617
6.286133,6.256836,1.9140625,2.7978516,5.0410156
7.2001953,6.698242,5.392578,5.446289,6.833008
7.4248047,10.724609,6.256836,6.4541016,9.848633
7.267578,10.254883,5.564453,5.720703,9.012695
6.3154297,9.254883,4.5273438,5.0117188,8.050781
6.5253906,8.948242,4.736328,4.2929688,6.515625
6.4179688,8.197266,3.0234375,4.3583984,6.006836
6.28125,7.9970703,3.118164,3.9521484,4.044922
6.5029297,8.337891,3.149414,2.9814453,7.0722656
5.088867,6.939453,5.2802734,4.640625,7.5234375
6.173828,8.753906,5.6679688,6.6601562,7.583008
5.588867,9.3515625,5.631836,6.6845703,7.2841797
3.1210938,8.706055,4.9316406,4.5341797,2.1376953
2.4960938,4.3408203,2.6582031,5.633789,3.8164062
2.897461,7.4960938,4.8183594,5.78125,5.1416016
3.8945312,10.405273,5.1289062,5.0029297,6.2685547
8.029297,8.591797,3.1679688,8.27832,8.1171875
9.207031,7.756836,6.513672,9.274414,8.568359
9.383789,8.811523,9.797852,8.981445,9.538086
9.427734,8.769531,7.2333984,9.2109375,8.198242
5.586914,5.475586,6.0839844,6.5029297,3.4902344
3.3564453,3.586914,4.053711,5.8291016,5.3164062
2.6728516,6.395508,4.010742,5.942383,4.616211
3.3427734,6.504883,5.357422,5.7646484,4.3095703
7.091797,9.295898,8.291992,9.941406,7.638672
13.041016,9.285156,13.051758,14.042969,10.493164
13.8203125,8.357422,16.535156,13.996094,11.322266
12.87793,10.633789,10.0390625,12.983398,10.676758
10.990234,12.603516,11.456055,13.208984,12.3203125
10.193359,14.140625,8.472656,9.4375,13.423828
9.702148,12.2734375,6.7773438,7.4208984,9.652344
7.6064453,11.978516,6.553711,6.8632812,8.613281
7.004883,14.984375,6.0791016,6.5029297,10.483398
8.4453125,12.118164,6.671875,6.9052734,12.917969
8.138672,12.641602,5.9765625,7.4257812,12.075195
9.100586,11.743164,5.765625,7.9023438,9.737305
9.9296875,9.612305,10.751953,7.479492,9.298828
8.56543,9.041992,5.463867,5.7558594,7.008789
6.9902344,7.1992188,4.373047,5.0009766,8.592773
6.3691406,7.2216797,4.3466797,4.3203125,5.1796875
5.951172,5.5771484,2.0771484,2.7333984,5.0498047
6.7177734,5.263672,5.698242,7.0058594,6.9882812
6.883789,5.125,6.9052734,8.370117,6.6679688
5.3935547,6.1552734,6.9658203,7.8623047,5.6679688
2.0527344,5.5859375,5.745117,5.901367,3.2626953
2.8076172,4.2089844,4.580078,5.529297,4.286133
3.459961,6.0585938,2.3095703,5.658203,4.6376953
4.8671875,6.473633,6.9121094,5.6396484,4.4492188
4.095703,7.9414062,6.111328,8.615234,5.2353516
8.608398,7.9921875,11.941406,10.298828,8.6171875
9.958984,6.442383,13.043945,11.556641,9.011719
10.036133,7.345703,10.415039,10.832031,8.720703
5.0664062,10.265625,4.8398438,4.3867188,7.1064453
5.208008,10.762695,4.9345703,4.9072266,7.243164
4.2041016,9.389648,10.325195,7.489258,7.209961
6.584961,8.397461,10.352539,7.3515625,7.7304688
9.168945,8.317383,13.4296875,14.771484,9.813477
14.0234375,8.537109,18.027344,16.860352,12.918945
15.6953125,10.53125,18.595703,16.78711,14.626953
14.524414,9.895508,15.805664,15.348633,11.608398
13.424805,11.723633,14.829102,15.004883,10.370117
12.792969,12.657227,12.6484375,10.624023,12.204102
14.015625,12.938477,8.00293,9.355469,12.991211
11.422852,12.5234375,8.069336,9.730469,11.371094
9.276367,11.5703125,8.3984375,9.169922,11.302734
13.0390625,14.135742,10.8046875,11.302734,13.526367
12.8359375,14.113281,10.845703,11.958008,13.729492
10.081055,12.219727,8.336914,9.727539,13.524414
6.555664,11.34375,4.064453,5.0820312,10.446289
7.557617,8.3359375,2.9335938,3.6992188,7.673828
6.8447266,7.8623047,3.7158203,4.064453,4.0751953
4.727539,6.2714844,4.647461,5.939453,4.208008
3.4589844,3.946289,4.470703,6.2060547,3.6230469
6.4179688,3.774414,7.4003906,7.7597656,5.4414062
6.7783203,3.071289,9.324219,8.922852,6.0927734
6.0820312,4.3828125,8.235352,7.1728516,6.857422
7.5302734,6.6640625,5.053711,5.067383,4.1210938
7.4960938,7.4765625,7.1884766,6.661133,6.763672
6.9404297,8.7890625,7.6591797,6.254883,6.8183594
7.2460938,9.389648,8.463867,5.970703,6.6503906
7.1523438,8.435547,8.633789,6.088867,6.7802734
7.526367,8.77832,10.458008,9.53418,6.0966797
7.1328125,6.5703125,10.359375,9.6640625,6.2509766
8.571289,4.723633,8.624023,9.394531,6.1445312
4.3066406,4.357422,7.419922,4.2929688,4.3515625
3.038086,4.5371094,8.711914,4.7109375,5.053711
2.8232422,5.915039,8.563477,5.024414,5.1240234
3.6933594,7.540039,6.2753906,8.326172,6.2314453
7.482422,8.767578,8.147461,8.62207,9.097656
12.883789,8.263672,12.514648,11.271484,10.842773
13.489258,6.751953,13.100586,11.655273,10.949219
10.8125,8.875,10.549805,10.397461,9.962891
6.010742,10.03125,11.055664,9.905273,7.926758
6.241211,10.586914,9.186523,8.131836,7.526367
6.817383,7.9492188,12.126953,8.064453,7.145508
6.4589844,7.8710938,8.393555,7.923828,6.7939453
5.986328,8.067383,8.516602,6.5820312,8.37207
10.217773,8.041992,9.953125,12.583984,8.97168
10.332031,7.0703125,11.166992,11.383789,9.4609375
8.241211,6.930664,10.407227,6.973633,8.522461
3.0175781,4.7890625,6.705078,3.352539,4.944336
3.3417969,4.709961,8.607422,6.6777344,4.8789062
5.0,5.008789,8.374023,6.9140625,4.463867
8.027344,4.036133,8.862305,7.645508,3.9326172
11.043945,4.4091797,9.115234,6.870117,3.3964844
12.334961,3.272461,9.71875,8.529297,5.0585938
11.683594,4.904297,11.286133,8.196289,7.595703
13.0,5.6933594,10.916016,7.7958984,8.371094
17.546875,7.421875,10.178711,9.069336,11.541992
18.020508,12.174805,10.753906,10.388672,13.266602
16.933594,12.660156,12.063477,10.260742,13.249023
17.942383,13.170898,13.391602,11.930664,14.126953
21.52832,15.203125,14.365234,13.6640625,15.90625
21.899414,15.056641,15.636719,14.810547,17.470703
23.392578,14.34082,15.988281,14.924805,18.65625
23.644531,4.6503906,17.894531,14.363281,16.952148
24.433594,13.112305,18.825195,13.419922,16.061523
24.44629,13.97168,18.504883,14.338867,15.87793
24.109375,5.708008,15.130859,11.680664,14.178711
23.827148,7.0966797,15.4609375,6.5195312,15.822266
24.936523,6.5791016,15.855469,11.336914,16.618164
24.572266,7.8847656,16.591797,10.563477,16.18164
21.605469,6.1972656,14.500977,9.484375,14.842773
19.291992,5.6601562,12.9375,7.5410156,13.518555
19.831055,5.3203125,10.402344,6.46875,7.2460938
11.3125,5.551758,10.970703,6.529297,7.033203
12.686523,5.642578,9.206055,5.2226562,5.0703125
13.7734375,3.4052734,9.269531,5.649414,4.2841797
14.061523,3.609375,10.833984,5.591797,4.020508
12.292969,4.1132812,11.230469,9.952148,4.307617
10.361328,4.5966797,10.609375,10.03418,5.4921875
11.769531,4.354492,9.06543,8.353516,4.741211
14.7265625,7.123047,12.513672,10.369141,4.984375
14.113281,8.842773,12.479492,10.404297,4.8789062
17.455078,9.094727,11.032227,11.011719,7.1464844
17.433594,10.042969,12.635742,11.22168,7.198242
15.082031,10.180664,12.275391,14.40918,9.324219
16.072266,13.133789,14.038086,14.933594,11.086914
15.852539,12.394531,13.224609,16.21582,13.385742
14.354492,13.119141,12.758789,14.822266,13.058594
15.009766,15.564453,12.347656,13.004883,11.449219
15.166992,17.015625,10.424805,14.228516,17.667969
15.422852,8.743164,10.591797,14.426758,10.212891
13.942383,7.5615234,7.3066406,12.738281,6.0742188
7.5722656,8.576172,5.7265625,5.682617,7.935547
4.756836,9.6640625,4.8964844,6.578125,11.743164
6.8115234,11.123047,6.194336,8.489258,12.520508
6.8583984,9.37793,5.533203,8.384766,11.493164
7.84375,10.71875,7.1640625,7.1103516,9.652344
7.9941406,12.768555,6.557617,8.446289,11.47168
9.862305,15.577148,6.857422,8.759766,15.6875
12.130859,17.217773,6.7734375,12.952148,18.004883
14.084961,17.839844,16.078125,13.541992,19.594727
15.672852,18.572266,16.012695,17.173828,21.333984
15.995117,18.860352,11.9921875,16.082031,21.200195
15.467773,19.13086,12.162109,15.25,21.233398
15.65332,20.30957,15.791992,14.220703,21.445312
16.707031,20.970703,17.949219,12.166016,21.54004
16.88086,20.75293,14.623047,14.894531,22.142578
16.77246,19.716797,15.030273,14.671875,21.605469
19.579102,21.22461,14.412109,13.356445,21.578125
21.663086,21.83789,14.871094,19.67871,23.538086
18.874023,20.29004,14.961914,19.789062,22.716797
17.06836,19.732422,12.302734,14.079102,20.518555
16.743164,18.356445,14.233398,12.925781,16.96582
17.161133,19.118164,14.56543,12.376953,17.297852
17.86914,18.844727,12.71875,12.3671875,16.99121
16.358398,21.445312,12.750977,11.397461,17.552734
16.94043,15.871094,14.360352,14.6796875,16.824219
16.55957,12.420898,13.625977,12.644531,13.832031
11.266602,15.361328,13.842773,14.2109375,15.433594
10.458984,14.994141,11.477539,12.956055,13.3671875
8.84082,14.689453,10.78418,9.660156,11.2265625
8.3046875,11.5,11.40918,9.708984,8.927734
8.091797,11.966797,8.05957,6.692383,6.4375
6.959961,10.575195,6.1796875,6.477539,4.379883
5.9160156,8.270508,5.4033203,5.501953,4.926758
6.5498047,8.2421875,5.8320312,6.2373047,9.423828
7.272461,8.576172,9.907227,9.280273,11.390625
5.1660156,12.052734,5.9052734,5.6054688,7.788086
4.890625,7.2910156,5.354492,5.7197266,4.9882812
4.671875,7.6689453,4.671875,6.041992,4.7197266
4.919922,9.730469,4.5439453,5.404297,4.9003906
5.0410156,9.53125,3.6923828,5.46875,5.6904297
3.3261719,9.06543,2.6191406,4.0634766,4.852539
6.123047,6.208008,5.8378906,5.8623047,5.807617
7.78125,6.631836,7.163086,6.401367,8.106445
6.401367,5.732422,6.673828,5.904297,5.3027344
3.241211,6.8359375,3.6757812,5.40625,5.182617
3.8779297,7.9248047,3.0097656,5.0947266,6.423828
3.758789,8.942383,4.038086,6.4179688,7.0341797
5.9091797,11.275391,3.9140625,6.90625,8.253906
6.803711,10.904297,3.5498047,6.932617,8.977539
7.3623047,8.839844,3.477539,7.1191406,5.6367188
6.9384766,5.189453,5.1953125,7.165039,6.2509766
4.9101562,3.3642578,4.3652344,4.6171875,5.5078125
4.0996094,4.1064453,2.2783203,2.9414062,4.772461
2.3515625,3.3271484,2.2089844,2.006836,3.336914
6.2714844,3.319336,1.4375,1.5771484,2.9335938
8.499023,3.4355469,1.6074219,1.8134766,2.821289
9.501953,3.7138672,4.6972656,3.0888672,6.989258
8.891602,3.4423828,6.8623047,3.5107422,8.543945
7.1376953,2.5771484,6.7841797,5.1953125,8.292969
6.78125,2.538086,6.1621094,4.9746094,8.194336
7.479492,4.633789,7.3916016,2.7089844,6.8759766
9.383789,5.536133,6.3867188,3.2011719,5.2041016
10.947266,6.9208984,6.4765625,2.8085938,5.307617
12.317383,7.169922,5.5820312,2.756836,6.9433594
12.746094,5.796875,6.310547,2.9785156,9.0390625
14.138672,4.9609375,9.668945,3.9023438,11.364258
14.194336,7.676758,10.068359,9.663086,11.435547
8.90332,8.064453,10.231445,8.197266,10.44043
11.838867,6.8251953,12.264648,8.549805,7.03125
11.214844,8.797852,8.561523,10.047852,9.2578125
