"[299, 255]","[227, 248]","[287, 319]","[279, 328]","[230, 262]"
12.05957,14.353516,12.683594,16.228516,12.436523
12.2890625,13.87207,14.177734,16.117188,12.807617
11.097656,12.550781,13.620117,14.1875,12.541992
12.013672,12.438477,11.232422,11.791992,13.017578
10.892578,11.326172,8.379883,10.376953,12.989258
9.464844,10.6953125,7.53125,9.478516,10.1328125
7.470703,9.767578,7.3466797,7.5625,7.9228516
4.006836,7.9228516,6.705078,6.6259766,7.1503906
2.2646484,6.873047,3.9677734,6.055664,5.0810547
1.9140625,7.029297,6.086914,4.8154297,4.078125
1.7753906,8.224609,6.7929688,4.4804688,6.486328
3.1875,5.7558594,6.28125,3.616211,7.428711
3.9248047,3.1972656,6.4716797,3.7177734,6.7998047
3.0371094,4.209961,4.169922,4.2353516,5.5009766
6.1054688,5.517578,3.6298828,3.9609375,5.709961
6.1220703,5.4560547,5.038086,5.314453,5.4472656
7.348633,6.2910156,4.5439453,5.745117,5.203125
7.598633,6.307617,4.7021484,4.7158203,5.176758
8.170898,4.6601562,6.1464844,4.5585938,4.5302734
8.637695,5.0908203,6.513672,4.7109375,4.1689453
8.405273,2.9960938,7.6904297,4.654297,3.9345703
8.4765625,5.6572266,6.953125,5.4296875,3.7441406
8.256836,5.526367,5.5615234,5.267578,3.6884766
8.338867,6.7978516,7.161133,5.5625,5.9433594
8.126953,6.9345703,7.5507812,6.296875,5.921875
9.0546875,6.9179688,7.834961,5.6757812,5.495117
11.080078,8.095703,8.777344,7.111328,4.6796875
12.822266,8.40625,8.640625,8.5859375,7.736328
13.919922,8.408203,9.691406,9.802734,11.262695
14.276367,10.118164,12.480469,10.858398,10.405273
16.191406,12.362305,12.75293,12.676758,10.259766
17.291016,9.505859,13.4375,13.674805,10.139648
17.541016,8.430664,13.34668,12.00293,12.577148
16.012695,7.618164,12.966797,11.182617,13.424805
17.414062,7.5791016,9.930664,10.737305,13.169922
16.001953,6.7109375,13.026367,14.211914,13.449219
15.822266,8.272461,13.229492,16.163086,13.0390625
15.5625,10.368164,9.334961,11.420898,10.46875
15.250977,8.157227,7.3447266,12.022461,7.169922
14.529297,10.061523,8.362305,12.745117,6.7148438
11.921875,10.046875,8.203125,11.958008,6.1328125
11.322266,10.03418,6.274414,9.583984,7.379883
11.196289,11.692383,5.7851562,9.716797,8.8125
10.818359,11.785156,6.8789062,10.450195,11.396484
10.822266,11.819336,7.375,10.354492,11.669922
9.4375,12.777344,5.7802734,9.313477,11.6953125
9.973633,13.978516,5.057617,10.201172,12.75293
10.96875,13.508789,5.086914,10.365234,12.543945
11.142578,12.646484,5.2333984,9.328125,12.722656
10.125,14.196289,5.444336,8.660156,13.798828
10.586914,15.333984,6.7734375,9.863281,15.155273
11.279297,14.896484,8.84668,11.191406,15.491211
12.001953,15.646484,10.625977,12.583008,16.589844
11.401367,15.28125,12.072266,12.96582,16.324219
12.064453,13.837891,12.151367,9.140625,13.759766
12.6015625,14.205078,11.326172,10.524414,14.795898
12.1953125,10.566406,10.119141,9.667969,11.40918
10.262695,13.495117,9.265625,5.8710938,11.875977
5.6328125,12.512695,9.533203,11.327148,11.371094
9.504883,12.025391,9.760742,9.027344,11.116211
8.913086,10.602539,8.796875,8.082031,10.572266
7.5117188,10.162109,7.926758,5.5947266,8.177734
5.25,10.536133,4.435547,4.614258,7.921875
4.2470703,7.564453,3.4941406,3.765625,5.051758
2.5429688,7.057617,2.5302734,3.2636719,3.1171875
3.0048828,9.225586,2.7402344,3.734375,4.041992
5.022461,8.618164,3.6074219,4.647461,4.9658203
5.676758,9.78418,4.258789,5.609375,7.1533203
7.1992188,10.621094,6.1835938,4.383789,9.0859375
6.1621094,10.708008,6.819336,4.432617,7.6884766
5.9257812,10.698242,6.1777344,5.0039062,6.7314453
6.658203,13.026367,4.932617,5.7421875,8.049805
7.421875,11.643555,3.7695312,6.6015625,7.2841797
7.826172,10.969727,5.701172,7.338867,6.8164062
8.000977,13.178711,6.9472656,6.1640625,8.839844
8.307617,11.6484375,6.6660156,7.1035156,9.47168
9.946289,10.941406,6.0908203,6.973633,9.600586
11.769531,8.34375,5.385742,6.6464844,6.510742
13.81543,11.766602,7.7285156,6.6708984,8.243164
13.563477,10.294922,8.481445,7.258789,13.692383
16.954102,10.894531,11.495117,7.126953,14.8984375
17.399414,12.073242,13.896484,7.580078,16.420898
19.657227,12.199219,16.625,12.270508,17.166992
20.771484,11.530273,15.364258,11.918945,17.141602
19.314453,6.801758,15.036133,10.794922,15.178711
17.894531,9.149414,17.057617,10.133789,10.457031
12.003906,12.785156,15.603516,8.504883,8.183594
10.422852,15.02832,11.256836,8.598633,13.394531
10.661133,13.073242,11.705078,9.0,12.932617
10.863281,13.994141,11.185547,9.561523,14.350586
11.178711,17.391602,8.879883,9.347656,14.149414
15.298828,17.405273,20.411133,10.956055,13.208984
16.875,18.039062,14.928711,13.536133,16.860352
18.770508,19.740234,18.360352,17.057617,17.36914
14.124023,20.754883,13.625977,14.296875,17.43164
12.828125,23.738281,10.948242,13.574219,20.355469
12.188477,23.091797,9.62793,13.136719,19.095703
10.017578,21.240234,9.71582,11.524414,18.916016
9.981445,19.05371,6.163086,11.016602,15.916992
10.511719,17.78418,11.755859,13.908203,16.208984
12.532227,18.55664,12.90918,13.685547,15.8671875
13.15625,18.580078,11.474609,13.069336,17.786133
10.905273,16.144531,6.866211,11.612305,17.447266
8.477539,14.176758,7.7910156,11.512695,13.758789
7.3310547,13.668945,5.649414,8.431641,11.908203
6.9003906,9.285156,5.5039062,7.401367,10.900391
7.6035156,12.719727,3.5488281,7.3964844,11.279297
8.558594,12.645508,3.5498047,6.258789,10.612305
7.243164,10.713867,6.21875,6.564453,9.1796875
5.283203,9.141602,4.9384766,5.2421875,8.84668
5.6777344,7.998047,2.2841797,3.368164,4.2441406
4.5283203,8.646484,2.133789,3.5,4.6748047
4.520508,8.756836,1.2666016,3.4013672,5.493164
3.9453125,8.9453125,1.8417969,2.9794922,4.629883
4.8896484,9.041992,2.5009766,3.0097656,5.013672
6.508789,8.237305,1.8193359,6.774414,7.8085938
7.716797,8.104492,2.890625,8.056641,7.848633
5.8847656,8.250977,4.4189453,5.520508,5.892578
5.375,5.2929688,3.734375,3.9042969,3.9052734
5.0683594,5.0058594,2.0039062,3.0009766,3.6064453
3.7207031,5.3066406,2.3125,3.4960938,3.5117188
4.1308594,4.048828,3.0585938,3.209961,3.0664062
3.9345703,5.354492,2.5771484,3.616211,4.6367188
4.7197266,3.1103516,8.1171875,4.1972656,5.4873047
4.9589844,4.209961,8.8828125,5.935547,5.864258
3.4804688,7.147461,6.611328,4.1210938,4.4941406
3.3652344,6.4804688,7.138672,5.004883,4.5908203
3.3476562,4.8710938,7.0839844,5.9121094,4.4228516
3.8515625,5.283203,6.8408203,6.7402344,5.0966797
4.305664,7.765625,7.0771484,6.296875,4.366211
4.736328,7.626953,6.5527344,6.2958984,4.5
6.236328,9.646484,8.860352,9.05957,9.832031
6.1152344,10.293945,9.270508,8.791992,10.385742
5.041992,10.713867,7.625,5.9697266,9.874023
5.7871094,11.444336,9.072266,5.6191406,9.2265625
8.248047,11.634766,8.605469,5.7734375,9.3125
7.2890625,13.665039,9.293945,7.602539,11.458984
8.667969,11.323242,9.115234,7.6279297,10.535156
7.495117,9.776367,10.511719,3.8320312,9.316406
7.9121094,9.719727,11.236328,9.772461,10.932617
7.399414,9.337891,9.671875,9.869141,10.799805
5.201172,8.390625,6.921875,7.7490234,9.521484
3.883789,6.408203,4.5771484,3.9326172,4.823242
2.915039,5.098633,2.0878906,4.515625,3.828125
1.6796875,4.020508,1.9941406,4.7685547,4.0214844
2.8173828,2.359375,2.6171875,4.2158203,4.2441406
5.0615234,2.2666016,2.774414,4.555664,4.383789
5.2041016,2.7392578,4.180664,4.8046875,3.993164
7.25,3.3886719,4.0976562,5.205078,4.633789
8.087891,3.2363281,4.904297,6.727539,4.841797
7.9570312,3.118164,5.395508,7.1308594,5.5371094
5.2148438,2.8359375,5.1933594,7.2685547,5.46875
10.044922,2.9726562,6.0029297,6.836914,3.609375
7.5595703,5.5126953,6.0859375,6.993164,4.2021484
8.932617,8.665039,6.1660156,6.149414,6.4960938
9.707031,10.2578125,6.3242188,7.333008,10.866211
9.580078,10.05957,4.4941406,8.428711,11.362305
8.759766,10.314453,3.6767578,5.897461,7.966797
7.8154297,10.651367,3.4042969,6.182617,7.439453
8.048828,9.6171875,3.069336,7.0625,9.047852
7.243164,7.7246094,7.9248047,6.805664,4.399414
6.6572266,6.7822266,9.189453,5.739258,4.4560547
6.319336,7.1533203,6.9902344,4.711914,4.588867
4.939453,8.579102,3.3046875,8.191406,9.137695
3.6689453,7.524414,7.033203,8.196289,7.7753906
4.7089844,6.3427734,4.770508,5.2978516,4.4921875
5.0166016,4.689453,2.2226562,3.8886719,2.8642578
3.6640625,3.9257812,2.9951172,4.8134766,4.0458984
3.7236328,5.71875,3.5751953,5.0859375,4.451172
3.625,5.772461,3.946289,4.970703,4.6992188
4.2978516,7.658203,3.8955078,5.741211,5.0341797
4.4570312,8.711914,3.084961,6.491211,6.5146484
4.9179688,8.871094,2.7402344,6.8935547,8.083984
6.104492,8.71875,4.0458984,6.154297,8.163086
6.5234375,11.264648,4.107422,7.083008,11.456055
8.0234375,12.327148,4.296875,7.65625,10.537109
8.0703125,11.53418,4.1640625,7.743164,10.450195
7.4941406,13.206055,3.5634766,7.7802734,10.290039
7.7929688,12.161133,3.3632812,7.5859375,10.508789
7.915039,10.102539,3.8408203,6.489258,8.858398
6.5996094,8.580078,3.796875,6.888672,9.447266
6.2402344,7.3535156,2.2353516,6.9384766,7.251953
5.9316406,9.165039,2.0185547,5.4785156,7.709961
5.470703,9.15918,1.9814453,5.435547,7.28125
4.6757812,7.4091797,1.9833984,5.479492,6.493164
3.390625,6.8007812,3.0371094,5.713867,6.15625
3.6835938,5.5507812,2.7226562,5.9501953,5.2685547
3.7060547,6.442383,3.1933594,5.7929688,6.5654297
2.3701172,5.635742,4.0527344,5.330078,6.1035156
5.685547,4.216797,3.0419922,4.9404297,3.4248047
5.2226562,4.3408203,3.7226562,4.5185547,3.8388672
7.6152344,8.216797,2.8173828,5.4140625,5.3496094
7.4345703,8.24707,3.053711,6.477539,6.154297
7.5722656,8.154297,3.118164,6.426758,5.876953
6.5722656,6.727539,3.34375,7.3408203,5.5683594
8.165039,8.235352,4.6416016,7.3564453,7.8271484
8.5859375,10.21875,5.2734375,7.0751953,8.19043
7.189453,11.498047,4.3603516,6.873047,8.573242
7.2646484,11.095703,3.9794922,9.089844,7.6279297
7.9814453,11.7890625,2.4570312,8.862305,9.984375
7.7490234,12.009766,5.3242188,6.6689453,10.811523
7.8535156,11.347656,6.4345703,5.791992,11.455078
8.018555,9.783203,9.412109,5.3095703,8.957031
8.1015625,10.856445,7.8789062,7.201172,10.155273
7.899414,10.546875,8.350586,7.9316406,10.388672
6.208008,8.689453,7.6875,7.2509766,8.897461
5.1464844,8.331055,6.1347656,6.7246094,5.2041016
4.7490234,6.9570312,6.0664062,4.0703125,4.2646484
3.8310547,6.5654297,4.3515625,5.036133,5.7558594
3.5126953,7.9072266,2.7958984,4.6152344,6.0976562
3.7822266,7.4003906,3.3603516,4.064453,6.540039
3.709961,7.3935547,3.2607422,5.4365234,6.9228516
4.185547,6.1777344,3.1699219,5.4746094,6.5195312
6.888672,6.696289,6.2001953,5.5898438,3.5683594
9.526367,6.029297,6.569336,7.7285156,5.5947266
10.00293,6.1103516,4.6328125,6.6191406,4.0810547
13.058594,5.411133,7.0527344,7.8935547,3.4882812
11.225586,7.1503906,8.496094,8.467773,4.1152344
15.419922,8.123047,9.547852,11.09668,5.8154297
21.3125,8.171875,11.310547,11.43457,9.056641
17.129883,9.2109375,11.579102,11.833008,9.397461
19.745117,9.567383,10.172852,12.40918,12.77832
21.023438,7.7714844,13.743164,15.283203,12.72168
20.85254,7.2158203,11.670898,14.65332,7.732422
16.324219,8.633789,10.426758,15.099609,6.571289
17.679688,7.147461,10.323242,15.249023,7.654297
19.710938,7.591797,15.099609,15.661133,7.350586
19.25293,7.989258,15.683594,17.698242,4.5634766
17.936523,7.2626953,15.952148,17.699219,9.15625
19.070312,9.708984,16.08496,15.216797,3.953125
21.199219,14.509766,11.108398,15.318359,3.758789
21.938477,15.041016,8.472656,15.043945,11.333008
20.734375,13.413086,9.060547,14.621094,13.05957
17.757812,14.151367,9.949219,11.399414,13.019531
17.701172,14.144531,10.6328125,12.621094,12.80957
17.956055,16.944336,13.130859,13.821289,15.318359
19.080078,16.658203,13.125,14.853516,17.026367
19.27832,15.9609375,13.116211,14.741211,16.639648
17.794922,20.59082,14.71582,14.323242,16.637695
21.40625,21.672852,14.237305,14.764648,18.080078
