"[299, 255]","[227, 248]","[287, 319]","[279, 328]","[230, 262]"
7.7695312,4.2773438,4.852539,5.798828,4.625
4.5146484,2.9277344,4.0302734,3.8564453,5.123047
6.510742,3.241211,5.6064453,3.975586,7.2998047
8.908203,10.87793,5.611328,6.1689453,9.550781
9.977539,10.576172,6.899414,7.6660156,9.500977
9.359375,9.741211,7.0341797,7.1748047,8.102539
5.6347656,9.208984,7.069336,5.5507812,6.966797
6.2617188,4.0585938,6.7128906,4.772461,3.8984375
5.3203125,2.5703125,4.916992,4.2265625,3.90625
1.9609375,2.4960938,3.899414,4.772461,4.774414
7.3134766,6.256836,8.141602,6.830078,9.038086
11.469727,8.464844,11.563477,10.885742,11.074219
14.663086,10.87793,13.535156,15.392578,12.677734
15.329102,10.671875,15.004883,14.605469,13.307617
14.262695,10.342773,10.380859,10.005859,11.549805
9.322266,13.397461,6.830078,4.7109375,11.796875
7.7714844,11.717773,5.833008,5.229492,12.128906
5.3378906,12.12207,3.6396484,7.2734375,10.993164
8.181641,13.791992,7.5820312,11.354492,12.955078
16.555664,14.135742,13.494141,14.18457,14.907227
15.907227,12.665039,17.27246,14.982422,13.958008
13.19043,11.143555,17.329102,14.381836,13.746094
11.001953,11.52832,10.09375,12.481445,11.154297
6.038086,12.636719,7.036133,6.3125,9.920898
5.4853516,8.709961,8.560547,7.7441406,6.765625
5.805664,5.1708984,9.755859,9.688477,8.568359
9.830078,11.374023,11.791992,14.393555,11.512695
13.260742,10.880859,14.37207,16.000977,13.029297
16.276367,11.0234375,18.745117,17.326172,13.603516
14.803711,11.380859,15.196289,15.6328125,12.482422
10.864258,10.456055,13.586914,11.419922,16.557617
8.381836,11.293945,8.474609,6.859375,8.1015625
5.8134766,6.1914062,7.7978516,6.8740234,9.4609375
6.8535156,9.027344,8.229492,8.198242,9.130859
9.000977,10.697266,10.987305,9.407227,11.213867
12.357422,12.499023,13.255859,12.27832,13.774414
14.326172,11.033203,12.137695,13.4609375,12.168945
15.900391,10.216797,12.021484,13.207031,11.547852
10.592773,9.533203,7.383789,9.892578,10.114258
9.125977,6.7021484,5.5322266,4.90625,8.576172
9.125,5.9472656,5.029297,5.0634766,8.996094
6.2060547,5.7871094,5.086914,5.4628906,7.0234375
8.230469,8.426758,11.064453,9.557617,9.5390625
10.584961,11.764648,12.743164,11.469727,11.474609
10.905273,11.161133,12.126953,11.361328,11.822266
13.950195,11.197266,11.59082,12.2890625,11.4765625
10.052734,9.637695,11.044922,9.84668,9.106445
10.608398,10.739258,5.0458984,6.3535156,11.0234375
6.158203,8.058594,2.7773438,6.899414,9.849609
7.111328,7.9814453,3.8876953,6.1279297,10.952148
10.404297,9.3515625,11.038086,10.834961,12.661133
11.302734,12.3515625,13.083008,11.341797,14.046875
12.269531,13.466797,12.647461,11.7265625,13.619141
11.911133,13.644531,11.7265625,10.8203125,13.748047
11.879883,11.998047,10.003906,10.092773,12.714844
10.041016,9.714844,4.5341797,5.4677734,14.535156
11.498047,8.447266,6.4023438,4.939453,12.770508
11.230469,10.37793,7.2402344,6.404297,14.050781
13.540039,11.063477,12.5078125,11.819336,14.088867
14.025391,10.950195,13.4375,12.366211,14.958984
13.235352,13.499023,13.604492,12.990234,14.561523
12.09082,13.49707,12.207031,11.677734,11.8046875
10.24707,11.771484,8.90332,9.670898,9.854492
6.9804688,8.077148,5.7001953,6.852539,11.295898
6.129883,6.588867,4.376953,5.411133,7.767578
5.8710938,4.3339844,3.4365234,5.182617,6.538086
6.161133,5.633789,4.7539062,4.0976562,8.333984
7.024414,7.1972656,10.31543,6.166992,9.34082
7.3222656,7.5009766,10.397461,6.270508,8.7109375
6.7695312,7.4853516,8.369141,6.96875,8.496094
10.166992,7.6054688,10.410156,6.817383,6.1347656
14.802734,9.048828,10.336914,5.4833984,6.676758
14.761719,9.144531,11.147461,5.1679688,10.129883
15.008789,4.661133,10.0,5.104492,11.413086
12.327148,4.1416016,11.563477,5.4248047,12.962891
12.352539,4.3310547,12.750977,9.864258,14.063477
12.797852,6.0439453,14.655273,10.77832,14.170898
15.449219,8.808594,14.392578,9.410156,12.725586
10.647461,3.899414,10.743164,4.522461,12.108398
11.803711,4.013672,8.241211,4.3203125,11.234375
8.7421875,3.3007812,8.09375,2.9814453,8.9609375
5.6259766,3.2519531,8.514648,3.2402344,7.7216797
5.5703125,3.0859375,8.952148,3.7421875,6.580078
6.279297,4.435547,9.379883,5.6796875,7.5976562
7.803711,6.34375,9.811523,5.78125,7.6289062
8.071289,6.46875,11.548828,9.211914,7.254883
10.290039,6.165039,7.192383,8.5859375,6.8320312
11.541992,6.486328,6.3671875,6.352539,5.154297
12.118164,4.654297,6.732422,6.5126953,7.658203
8.513672,4.8222656,6.5742188,6.1591797,6.3564453
6.6416016,3.9863281,6.958008,7.7841797,7.9697266
7.504883,5.544922,12.3046875,9.386719,9.274414
7.8251953,12.208984,12.0859375,9.227539,13.983398
9.209961,12.0234375,8.011719,6.0478516,15.136719
8.916992,10.514648,7.926758,8.486328,15.080078
5.1796875,12.378906,5.9921875,5.7060547,11.078125
7.584961,15.592773,5.5039062,6.7441406,13.256836
13.397461,17.079102,9.399414,10.983398,15.78418
14.4375,17.510742,11.984375,12.956055,16.027344
16.404297,15.569336,14.639648,14.419922,18.11621
18.16504,19.83789,19.461914,16.246094,20.570312
18.41211,19.5,18.387695,17.03711,19.417969
17.200195,18.213867,16.388672,15.160156,17.40918
12.426758,17.105469,14.022461,12.411133,18.285156
11.438477,17.993164,13.174805,12.643555,16.35254
13.123047,16.072266,14.3359375,12.990234,13.708008
15.238281,15.149414,19.05957,17.16211,15.09375
14.581055,12.514648,18.396484,17.416016,14.415039
13.71875,12.821289,17.686523,16.07129,14.817383
12.296875,11.25,13.740234,13.629883,16.347656
7.7695312,7.986328,9.737305,9.344727,11.035156
12.198242,9.235352,6.9003906,9.308594,7.1435547
13.201172,15.600586,9.551758,13.203125,9.4375
16.140625,18.405273,10.216797,13.050781,15.265625
16.72754,18.765625,13.022461,16.121094,18.391602
14.004883,17.683594,15.74707,13.333008,22.354492
13.044922,18.239258,15.467773,17.473633,23.454102
12.722656,18.327148,14.228516,17.567383,23.760742
11.826172,19.310547,11.837891,15.385742,21.357422
11.587891,19.25,10.347656,12.761719,18.251953
11.772461,15.902344,10.425781,12.641602,15.417969
12.963867,15.827148,11.192383,12.6484375,16.335938
14.208984,17.80957,13.706055,13.584961,16.105469
14.863281,16.311523,16.55371,13.858398,19.831055
18.00293,19.265625,17.624023,17.55664,22.06836
17.296875,19.688477,16.467773,15.704102,22.08789
17.066406,19.25879,13.02832,13.176758,18.476562
16.499023,19.31543,15.817383,12.503906,17.28711
14.462891,19.30371,14.792969,13.080078,17.52539
14.380859,16.510742,14.227539,10.549805,15.390625
17.064453,16.183594,15.083008,14.458984,18.023438
17.183594,16.250977,18.175781,14.512695,18.398438
18.300781,18.432617,18.473633,17.664062,19.254883
14.745117,18.50293,19.407227,17.710938,18.799805
11.5859375,15.902344,14.119141,14.821289,16.291016
9.521484,13.586914,11.777344,11.099609,13.025391
8.213867,9.496094,8.355469,7.6757812,7.53125
5.6777344,14.614258,2.9638672,3.03125,11.983398
9.323242,10.324219,5.345703,9.1171875,12.295898
14.838867,10.147461,10.866211,12.878906,11.78418
14.697266,9.34082,14.169922,14.166992,11.729492
16.05664,8.827148,15.490234,15.34375,10.896484
13.930664,12.055664,13.515625,14.990234,10.339844
9.839844,12.982422,10.537109,10.78125,12.220703
9.371094,11.669922,7.8867188,6.923828,9.442383
9.142578,10.355469,8.092773,8.206055,7.111328
11.650391,12.441406,14.038086,10.577148,11.167969
13.717773,17.253906,12.0703125,10.6875,18.302734
15.18457,17.22461,12.873047,14.3125,18.285156
15.949219,16.964844,14.283203,14.727539,18.234375
15.381836,20.93164,17.543945,15.2890625,18.37793
19.06836,22.828125,16.374023,16.732422,19.679688
19.484375,20.213867,15.9453125,14.799805,19.350586
18.137695,21.006836,13.583984,13.736328,22.262695
20.475586,22.99121,13.557617,14.819336,21.71582
20.654297,20.554688,17.332031,15.958008,21.94043
19.49414,17.58789,16.11621,17.80664,22.139648
19.90332,11.400391,17.05371,17.732422,16.93457
16.4375,12.814453,13.478516,16.333984,14.131836
13.37207,14.180664,10.249023,11.982422,14.045898
10.503906,13.478516,7.245117,10.025391,12.267578
7.951172,12.213867,5.9316406,10.488281,9.588867
10.691406,9.819336,10.606445,10.774414,9.824219
13.34375,7.8408203,10.7109375,12.337891,11.333984
14.001953,6.359375,13.865234,16.704102,11.09668
12.588867,10.075195,12.901367,14.7265625,9.803711
8.993164,9.9609375,10.681641,11.728516,9.970703
5.2226562,7.783203,8.250977,8.685547,4.661133
4.2470703,3.741211,5.848633,6.1933594,5.2353516
6.6660156,7.6396484,3.163086,5.223633,7.5585938
4.001953,7.932617,8.765625,8.473633,8.886719
11.46875,11.817383,10.1015625,8.235352,11.000977
12.047852,11.855469,10.1796875,8.788086,11.549805
11.543945,11.09375,11.676758,9.213867,11.160156
9.844727,10.049805,8.599609,9.110352,9.674805
6.180664,6.6064453,3.5126953,4.665039,6.7617188
6.4941406,4.9140625,4.1464844,5.180664,4.6083984
5.7910156,2.3808594,2.9521484,4.283203,2.803711
7.5722656,6.501953,8.111328,6.6835938,7.623047
9.337891,11.636719,8.500977,8.324219,12.578125
9.610352,13.176758,14.8203125,11.291992,15.416016
10.981445,19.480469,14.704102,12.143555,18.444336
13.791016,21.045898,16.801758,14.580078,19.85254
14.9921875,22.132812,18.90039,15.387695,21.341797
17.878906,19.742188,18.40332,17.905273,19.740234
17.480469,17.029297,12.361328,11.529297,14.106445
18.529297,17.291016,14.495117,14.729492,18.601562
18.27832,17.222656,16.480469,16.543945,18.925781
20.552734,18.542969,16.470703,17.210938,20.654297
19.512695,18.015625,19.542969,18.640625,17.422852
19.011719,18.847656,17.871094,18.03125,18.4375
20.04004,19.242188,16.59668,19.17871,17.894531
21.868164,19.636719,16.606445,20.24707,19.017578
20.19629,19.68164,15.083984,13.973633,18.375
19.856445,19.561523,15.977539,16.46289,19.859375
18.804688,17.011719,18.75,17.695312,18.663086
19.839844,13.81543,20.35254,18.691406,20.969727
20.663086,10.029297,20.319336,18.71289,16.0625
15.512695,9.05957,17.245117,15.143555,11.202148
10.874023,7.8154297,11.049805,12.402344,9.137695
9.166992,9.444336,8.535156,8.947266,6.154297
7.7089844,11.008789,6.763672,8.256836,9.448242
10.927734,13.93457,8.780273,8.261719,12.5703125
12.6484375,17.615234,11.84375,11.670898,18.703125
14.537109,17.796875,12.231445,10.798828,19.146484
14.182617,16.983398,12.910156,11.129883,18.27832
14.866211,13.394531,14.036133,9.830078,15.3984375
13.84375,13.975586,13.489258,14.458008,12.958008
12.134766,12.662109,13.517578,12.817383,11.34375
12.140625,11.561523,9.746094,10.8984375,11.213867
13.111328,10.575195,10.330078,10.338867,11.802734
13.59668,8.663086,13.180664,14.799805,12.510742
14.033203,9.129883,12.900391,13.3671875,12.592773
12.805664,12.045898,12.041992,14.046875,14.293945
12.65625,10.544922,11.7578125,11.09082,12.229492
5.770508,9.599609,5.991211,8.208008,3.8173828
5.301758,11.441406,5.208008,7.2226562,6.9472656
4.671875,11.431641,10.022461,9.928711,9.40332
10.964844,10.176758,12.194336,9.996094,11.21875
13.147461,9.535156,12.541016,12.84082,13.536133
14.152344,11.119141,14.280273,12.87207,16.904297
12.919922,10.561523,12.09375,11.609375,14.15332
10.689453,10.176758,8.696289,10.827148,10.600586
6.6015625,10.452148,4.453125,2.8603516,8.918945
4.6259766,12.37793,3.1582031,3.0097656,10.890625
3.8554688,10.917969,3.4960938,3.0390625,10.330078
7.6640625,10.745117,4.0839844,4.6191406,10.926758
10.978516,10.02832,7.6054688,7.9648438,12.163086
11.6953125,9.959961,11.841797,11.859375,12.137695
11.239258,9.0859375,11.8125,11.415039,9.62793
10.746094,7.2021484,9.504883,9.415039,5.8310547
4.541992,4.3691406,6.680664,6.029297,3.5888672
4.6904297,3.7158203,4.1865234,4.7226562,3.8730469
5.03125,4.9404297,3.5039062,4.5966797,5.1621094
7.7421875,5.2558594,8.322266,6.7558594,4.888672
7.716797,4.274414,8.28125,7.1689453,5.5341797
9.454102,4.057617,7.876953,6.2216797,7.111328
10.103516,2.428711,8.163086,6.7539062,7.107422
8.352539,5.3134766,7.8222656,5.2470703,6.095703
4.251953,5.9628906,6.9404297,3.9960938,6.4716797
