"[299, 255]","[227, 248]","[287, 319]","[279, 328]","[230, 262]"
7.966797,14.93457,9.8828125,7.544922,15.270508
8.599609,14.22168,9.792969,9.4921875,13.124023
13.167969,13.084961,13.641602,12.80957,13.00293
15.333984,9.619141,14.353516,13.193359,13.408203
15.31543,10.291016,11.964844,12.083008,13.701172
13.553711,11.475586,8.3984375,11.4296875,13.727539
10.9296875,9.2578125,7.7373047,12.177734,12.833008
7.0722656,9.12207,5.2539062,7.5820312,12.457031
4.3310547,9.032227,5.772461,7.7617188,9.837891
4.026367,7.836914,6.3476562,6.338867,7.739258
6.442383,7.2871094,7.0771484,7.533203,9.767578
10.3515625,10.436523,9.121094,9.520508,9.767578
11.356445,11.255859,9.699219,9.8828125,9.798828
11.337891,10.09375,9.46582,8.921875,8.980469
8.451172,6.3466797,6.678711,7.2714844,4.866211
7.8847656,4.3164062,4.0585938,5.263672,1.8583984
7.7939453,4.2265625,2.102539,3.7792969,2.3710938
5.446289,4.3896484,2.234375,1.7109375,2.883789
6.2978516,4.453125,4.9345703,4.9248047,5.591797
7.508789,6.3808594,5.7353516,7.192383,7.611328
7.526367,7.8984375,6.876953,7.8066406,7.8759766
7.5126953,6.892578,7.423828,7.2158203,7.3154297
5.9101562,6.5839844,6.408203,4.9365234,5.5410156
11.889648,6.1640625,8.263672,5.385742,5.7060547
12.042969,8.110352,5.998047,4.083008,8.051758
8.791016,4.4277344,5.0546875,4.8242188,7.8554688
5.9316406,2.709961,2.819336,3.8720703,4.3095703
8.668945,5.9765625,4.0820312,7.620117,9.125
10.637695,10.030273,8.819336,8.642578,10.431641
11.081055,10.107422,9.010742,8.8359375,10.413086
12.229492,8.8984375,8.609375,6.3251953,6.7421875
12.5390625,6.435547,8.446289,4.7285156,6.2695312
10.217773,3.921875,7.459961,4.379883,8.928711
8.3984375,1.9462891,4.140625,4.1123047,8.982422
6.6240234,2.0175781,7.5664062,3.9257812,10.366211
8.729492,5.739258,7.821289,5.501953,10.5234375
12.389648,8.271484,7.7783203,7.620117,11.136719
12.694336,8.274414,7.435547,7.9814453,11.200195
16.399414,11.889648,7.5253906,6.8691406,8.636719
17.25293,7.7939453,7.118164,7.923828,8.270508
16.55371,6.5146484,7.0498047,6.513672,7.848633
11.107422,6.4052734,6.921875,5.069336,5.076172
7.158203,3.053711,3.1484375,4.7128906,6.0126953
9.859375,5.5908203,3.6835938,6.126953,8.584961
10.1796875,7.611328,6.875,6.629883,12.839844
9.513672,7.064453,6.586914,7.1503906,8.401367
13.34668,6.3847656,6.4541016,5.682617,6.303711
14.026367,5.8310547,6.078125,7.051758,6.9814453
13.7421875,8.950195,5.958008,7.5146484,8.456055
12.255859,7.069336,5.1552734,6.4140625,7.9316406
10.521484,4.3740234,3.5996094,6.850586,5.0078125
7.977539,4.0976562,6.633789,7.2070312,7.223633
7.411133,7.069336,8.126953,10.076172,9.521484
6.6972656,7.088867,7.788086,9.4765625,11.311523
8.162109,7.7353516,5.178711,5.814453,6.0185547
10.230469,6.286133,4.6103516,3.6484375,6.4003906
10.237305,4.357422,2.1455078,3.7792969,6.1367188
7.28125,3.6777344,9.327148,4.7529297,4.3408203
6.838867,3.8125,9.1171875,6.258789,4.8740234
6.6660156,4.611328,5.1103516,6.823242,9.223633
8.94043,7.8632812,7.7578125,9.5234375,9.758789
8.675781,7.5195312,8.008789,8.588867,8.129883
16.960938,6.701172,11.518555,7.919922,7.4189453
16.961914,6.2958984,8.362305,8.916016,7.5185547
15.251953,5.963867,5.2490234,8.561523,5.8378906
15.594727,4.0097656,5.90625,7.921875,5.366211
14.569336,4.9335938,4.65625,9.356445,4.0927734
10.068359,5.9433594,5.375,8.995117,8.4609375
10.233398,6.8710938,9.540039,10.191406,8.595703
8.194336,6.171875,8.088867,12.84668,8.663086
8.486328,3.9394531,5.9560547,5.053711,5.251953
9.488281,7.40625,6.2226562,5.8466797,9.55957
9.34375,7.0546875,5.345703,5.7695312,8.518555
8.457031,5.765625,5.4033203,6.0458984,6.6220703
6.6152344,4.135742,3.5332031,6.2714844,5.5664062
9.073242,9.342773,6.236328,7.149414,8.150391
10.99707,10.478516,11.707031,8.541016,8.551758
10.700195,9.735352,14.0859375,12.494141,8.375977
15.06543,6.763672,14.62793,12.512695,5.495117
14.998047,7.921875,13.797852,3.40625,6.057617
11.143555,5.9433594,13.209961,2.805664,6.1992188
11.000977,5.7177734,12.512695,4.6933594,7.7490234
10.796875,5.1533203,13.458008,7.086914,8.480469
10.462891,4.6367188,12.848633,8.438477,8.96582
8.673828,9.515625,11.458984,8.967773,11.072266
14.368164,10.192383,13.001953,9.089844,10.44043
18.92871,10.52832,13.753906,8.850586,10.506836
20.121094,11.008789,14.387695,8.180664,11.0390625
20.335938,7.739258,14.114258,7.189453,11.385742
19.007812,4.6240234,13.541016,7.694336,12.782227
11.7890625,4.696289,13.512695,9.169922,15.50293
14.847656,5.3496094,13.521484,9.925781,15.586914
14.677734,7.192383,12.962891,9.861328,15.9296875
15.65918,7.756836,11.046875,9.165039,13.854492
16.702148,8.681641,11.25,8.6796875,9.748047
18.606445,10.673828,9.825195,9.81543,10.558594
15.415039,7.510742,9.358398,7.131836,10.719727
10.814453,7.258789,7.676758,7.426758,9.635742
8.871094,3.274414,4.154297,4.2382812,10.378906
8.943359,6.223633,4.4541016,5.4628906,10.325195
10.4453125,7.522461,6.1396484,6.078125,10.847656
10.5234375,8.512695,6.5615234,6.5390625,10.402344
10.708008,7.4453125,7.817383,5.854492,6.8251953
12.353516,3.9033203,7.614258,5.6347656,7.5527344
6.9052734,3.8173828,4.5703125,5.586914,5.546875
7.801758,2.7207031,4.2822266,5.352539,4.3896484
7.479492,2.9853516,3.3027344,3.4716797,6.1748047
7.0996094,6.977539,6.7871094,8.78125,7.7890625
10.540039,9.147461,14.366211,11.2109375,8.474609
10.327148,9.560547,12.415039,10.333984,7.9658203
11.964844,7.1728516,8.133789,6.4873047,5.883789
12.288086,5.7783203,7.9091797,6.0810547,6.0966797
6.5878906,4.7578125,5.678711,5.9746094,5.9414062
7.1992188,2.0234375,3.8085938,5.1884766,4.640625
5.586914,1.6015625,3.3867188,4.2158203,5.1279297
7.9052734,3.71875,4.3564453,6.4345703,7.4052734
9.049805,5.084961,7.1933594,11.125,9.801758
8.942383,2.461914,8.933594,7.4716797,7.2265625
12.344727,1.9736328,7.9501953,6.0878906,4.3085938
12.821289,4.7666016,6.3115234,7.3535156,6.173828
12.844727,5.5859375,5.6503906,7.826172,5.6064453
7.6572266,3.9414062,6.3984375,7.7890625,4.1171875
6.8603516,4.291992,6.107422,8.574219,4.4960938
8.43457,6.428711,7.28125,9.716797,10.081055
8.8984375,6.640625,8.381836,10.368164,10.77832
8.21582,2.6591797,7.5410156,9.807617,8.677734
12.848633,3.5361328,8.110352,5.993164,5.4628906
14.563477,11.650391,7.8867188,6.522461,9.350586
8.766602,11.952148,7.6914062,5.678711,10.048828
8.370117,11.956055,7.7021484,5.2998047,9.297852
12.083008,11.003906,8.69043,7.958008,10.864258
14.026367,10.18457,10.155273,10.616211,12.385742
15.110352,10.443359,10.983398,11.433594,12.129883
15.103516,7.801758,11.941406,12.426758,9.500977
12.941406,10.012695,11.236328,11.15332,6.4833984
8.040039,12.418945,8.84082,8.481445,9.136719
8.123047,10.691406,7.208008,8.661133,10.111328
6.904297,8.871094,4.0009766,8.368164,8.985352
9.8359375,8.605469,9.469727,10.499023,9.104492
11.371094,9.286133,9.498047,10.831055,10.089844
12.152344,10.896484,9.325195,10.328125,10.597656
12.15625,6.7373047,9.963867,10.78125,8.302734
10.316406,7.8916016,9.9375,9.579102,5.0566406
6.423828,6.3623047,4.745117,6.944336,3.4208984
4.2148438,5.926758,4.3603516,3.8632812,3.4609375
3.4257812,6.493164,1.7285156,3.2158203,3.2949219
7.2285156,4.4814453,6.8632812,7.211914,8.484375
8.995117,5.78125,7.685547,8.608398,9.024414
9.385742,6.698242,9.108398,9.290039,9.386719
9.711914,4.930664,8.515625,8.8515625,8.708008
7.948242,2.5888672,7.1816406,6.5371094,4.495117
4.7460938,4.107422,4.2734375,3.584961,3.7539062
4.904297,4.2128906,3.8242188,4.423828,4.227539
3.8847656,5.116211,3.8076172,5.104492,5.544922
5.5927734,6.3466797,5.9765625,8.318359,9.004883
8.496094,9.043945,10.193359,11.311523,11.725586
8.859375,10.313477,10.400391,12.220703,13.37207
8.660156,11.43457,9.525391,12.110352,12.957031
8.163086,10.725586,7.3339844,9.010742,12.5703125
5.8632812,11.422852,3.4179688,7.669922,11.833008
6.419922,11.762695,3.8359375,8.683594,11.661133
7.897461,10.540039,3.4570312,7.0029297,11.246094
7.0898438,10.323242,3.8515625,8.935547,10.513672
7.1416016,9.845703,4.9697266,9.350586,7.336914
5.9726562,8.15332,6.0810547,6.866211,8.376953
4.051758,8.775391,4.9072266,5.245117,8.405273
4.533203,7.6933594,3.1533203,3.7285156,6.6884766
4.595703,8.733398,4.213867,4.9404297,7.5810547
4.479492,8.030273,5.0351562,5.591797,7.245117
6.0566406,7.364258,5.508789,5.209961,7.067383
9.308594,8.152344,5.2539062,7.178711,10.376953
9.53125,10.558594,8.111328,8.863281,11.106445
10.838867,10.7734375,8.878906,9.803711,11.473633
10.748047,10.53125,9.657227,9.525391,11.015625
9.099609,8.097656,8.746094,9.303711,7.0839844
5.3583984,7.3359375,4.772461,9.216797,5.5058594
7.0908203,8.12793,4.290039,5.584961,5.904297
7.791992,7.8242188,2.2519531,4.274414,6.0625
6.8046875,8.516602,2.6220703,2.696289,9.234375
6.9375,8.319336,5.267578,5.182617,10.595703
6.7441406,7.604492,5.0625,6.7978516,10.571289
5.798828,6.838867,4.567383,7.899414,8.276367
8.071289,6.90625,8.911133,7.7529297,5.727539
5.223633,6.493164,6.220703,4.5654297,3.2001953
3.53125,6.2529297,2.946289,4.370117,3.7685547
3.836914,5.1689453,5.8789062,5.9960938,5.7539062
8.393555,6.448242,4.9345703,6.352539,6.0390625
8.450195,9.836914,5.1621094,10.874023,10.756836
8.408203,11.037109,9.9453125,10.879883,9.856445
9.863281,7.8759766,5.5,10.9375,9.866211
8.21582,10.40332,12.033203,9.770508,9.063477
7.9492188,14.219727,6.9023438,5.8779297,13.880859
6.640625,14.390625,5.6191406,4.763672,12.134766
4.135742,16.902344,9.249023,8.5,14.035156
8.636719,15.955078,10.803711,11.4296875,16.292969
13.948242,15.6015625,13.231445,14.12793,16.99414
16.57129,15.573242,15.78125,16.050781,17.496094
15.946289,13.347656,17.079102,15.299805,14.94043
9.838867,10.862305,12.604492,11.638672,13.486328
7.1914062,12.556641,5.506836,10.282227,11.669922
7.0390625,12.05957,4.6435547,7.279297,10.921875
6.2197266,11.516602,3.84375,4.557617,8.855469
9.9609375,11.149414,3.0839844,10.874023,11.40625
12.511719,12.095703,12.93457,11.602539,12.744141
13.94043,8.921875,13.370117,13.483398,11.073242
13.055664,7.1484375,13.792969,13.427734,8.56543
11.542969,5.408203,9.911133,9.544922,4.0341797
4.5410156,5.379883,5.828125,7.0439453,4.446289
4.1728516,5.379883,4.8515625,5.7197266,3.6728516
4.8408203,6.5527344,3.6210938,4.6660156,3.8613281
6.6748047,6.1308594,5.6054688,4.854492,7.069336
8.016602,6.4160156,7.495117,8.509766,8.639648
8.032227,9.249023,7.9990234,8.711914,8.887695
7.107422,10.4296875,6.3476562,6.741211,8.100586
5.6601562,8.333984,5.526367,5.6679688,4.6660156
10.272461,6.919922,4.9658203,2.5527344,4.4521484
10.208984,7.001953,3.5117188,3.3886719,5.3691406
10.353516,5.3466797,3.65625,4.633789,6.182617
10.526367,3.5957031,3.5478516,5.541992,5.998047
9.847656,4.9052734,7.5078125,6.470703,6.913086
8.126953,6.3632812,5.7871094,6.8623047,7.508789
5.892578,6.5126953,6.2714844,7.1601562,6.803711
12.050781,6.868164,5.836914,6.3779297,5.916992
12.905273,6.6748047,3.8232422,4.354492,4.286133
11.977539,6.286133,4.5185547,4.8583984,4.6132812
4.4990234,4.538086,4.5791016,5.145508,3.6640625
4.125,3.6767578,2.8007812,4.286133,6.088867
6.1308594,6.71875,4.90625,5.765625,6.8398438
6.901367,8.428711,6.390625,6.6289062,7.5791016
6.1171875,8.385742,5.5029297,6.763672,6.5820312
4.182617,5.09375,6.8154297,5.8720703,3.6923828
8.884766,3.6796875,3.03125,4.4384766,3.975586
9.163086,4.6464844,3.4570312,5.4375,3.796875
8.475586,4.178711,4.2197266,6.2353516,4.2402344
7.5908203,6.6367188,4.4677734,7.705078,9.05957
8.510742,6.852539,9.8203125,10.551758,11.586914
8.607422,7.921875,10.558594,11.272461,11.615234
8.2421875,8.329102,10.066406,11.151367,10.984375
5.7158203,9.988281,8.824219,6.515625,9.980469
3.6044922,10.005859,8.790039,6.604492,10.271484
