"[299, 255]","[227, 248]","[287, 319]","[279, 328]","[230, 262]"
7.323242,4.59375,4.4873047,4.158203,4.3496094
6.540039,5.6552734,3.6757812,5.3554688,5.017578
5.571289,7.288086,3.8857422,6.2109375,7.932617
7.3623047,9.513672,8.912109,9.779297,12.097656
7.3535156,10.234375,9.928711,10.056641,12.170898
6.0458984,8.978516,11.046875,10.919922,10.344727
2.8232422,8.099609,9.09082,7.192383,6.9179688
3.703125,6.328125,16.106445,3.4980469,3.4941406
3.4277344,8.1015625,7.9433594,8.698242,6.3583984
4.345703,9.301758,7.743164,7.5751953,7.821289
9.005859,7.970703,7.3183594,7.051758,6.334961
9.544922,9.845703,8.142578,8.333008,9.753906
9.72168,10.344727,10.124023,9.415039,10.657227
10.035156,10.356445,9.813477,6.2382812,10.458984
4.995117,9.033203,4.703125,6.2246094,6.4873047
5.1376953,7.6689453,3.8769531,5.3466797,6.522461
2.0605469,6.466797,3.618164,4.9570312,5.6660156
2.6904297,9.316406,2.7763672,2.6455078,3.9951172
4.3398438,8.40625,1.9033203,4.446289,5.961914
7.9257812,8.313477,7.3408203,5.604492,9.874023
7.7851562,9.792969,9.125,9.9375,10.703125
5.506836,11.248047,9.016602,6.790039,10.734375
8.498047,12.160156,10.510742,6.948242,11.723633
9.969727,14.163086,13.09082,12.915039,12.907227
15.5625,16.171875,13.019531,12.049805,12.844727
15.553711,17.427734,12.505859,12.3828125,15.0
14.827148,16.566406,12.973633,13.222656,15.191406
16.25586,16.666016,14.53418,15.760742,17.84375
16.60254,18.478516,13.782227,15.555664,17.416992
13.762695,16.711914,11.919922,14.375977,19.47168
8.94043,16.154297,9.71875,12.552734,16.263672
8.629883,14.442383,9.75,10.954102,15.080078
7.8066406,15.595703,8.345703,8.217773,13.356445
7.8476562,15.501953,6.645508,5.8740234,13.061523
6.3291016,12.333008,4.9052734,5.875,14.375977
12.044922,11.261719,8.369141,6.908203,14.6484375
12.181641,10.785156,8.829102,7.611328,12.772461
8.594727,11.741211,6.4072266,5.290039,13.137695
5.873047,11.053711,3.1152344,5.544922,9.949219
5.3066406,10.259766,4.3164062,5.966797,8.844727
4.6396484,7.7060547,3.1513672,3.7753906,5.883789
3.546875,4.7197266,5.5371094,3.8916016,2.7373047
3.421875,3.0488281,1.8613281,1.8085938,2.7167969
5.916992,2.1367188,7.0625,5.8808594,5.263672
6.817383,3.6015625,6.522461,7.0185547,6.6347656
6.807617,6.0214844,6.3378906,7.3935547,6.421875
10.453125,6.1884766,4.9277344,5.8339844,6.435547
11.921875,6.321289,4.399414,4.4160156,10.77832
8.7421875,6.015625,5.817383,4.9345703,9.082031
8.076172,5.2441406,4.3554688,4.4609375,9.503906
8.423828,5.305664,3.616211,4.8134766,11.741211
9.342773,6.1572266,11.213867,3.9384766,11.699219
10.250977,6.8310547,12.702148,10.4296875,12.754883
9.161133,7.4648438,10.725586,8.365234,11.332031
11.6015625,6.9941406,5.9335938,7.3046875,10.355469
11.826172,8.082031,5.9335938,7.2333984,13.448242
12.196289,7.444336,5.6621094,4.9140625,12.949219
13.5546875,8.486328,6.211914,6.9882812,13.256836
17.31836,8.75,10.714844,8.931641,14.935547
17.55371,10.869141,13.753906,12.822266,16.873047
15.003906,10.393555,13.380859,12.530273,16.6875
13.591797,8.728516,12.487305,11.78125,13.40918
14.267578,7.489258,10.405273,10.448242,13.729492
14.52832,8.40332,9.811523,11.55957,15.455078
12.355469,9.050781,7.2558594,8.751953,14.462891
8.7421875,9.392578,4.6552734,4.8408203,12.753906
11.084961,9.052734,3.5351562,6.272461,12.888672
15.637695,11.711914,13.706055,11.618164,15.860352
15.828125,13.185547,13.961914,13.05957,17.78418
16.376953,13.217773,11.703125,12.637695,16.31543
18.819336,10.708008,9.682617,9.008789,15.904297
16.077148,9.005859,6.6601562,9.5703125,15.518555
14.40625,13.3515625,7.6367188,8.751953,13.568359
15.102539,10.817383,5.4033203,7.5683594,16.515625
14.595703,10.47168,10.6953125,9.103516,15.948242
15.813477,9.807617,13.6484375,12.106445,16.527344
16.019531,11.746094,13.331055,15.600586,15.149414
14.332031,11.811523,12.788086,12.462891,15.597656
13.614258,8.1484375,10.160156,6.6464844,15.042969
13.099609,9.082031,5.7314453,6.1914062,14.543945
12.59082,7.6103516,7.669922,6.0585938,11.853516
12.305664,7.716797,6.0478516,5.453125,11.814453
10.318359,9.686523,8.359375,5.3789062,12.504883
12.189453,10.561523,13.5625,11.583008,13.06543
13.207031,10.155273,12.986328,11.871094,13.496094
13.204102,10.06543,11.860352,11.449219,11.220703
10.238281,10.512695,5.828125,5.948242,14.452148
11.128906,11.400391,5.4345703,6.5908203,13.90332
11.623047,11.095703,4.4052734,4.7714844,11.521484
9.399414,10.295898,6.2089844,4.930664,12.660156
10.542969,11.050781,7.5039062,8.066406,14.890625
12.285156,11.808594,9.4375,7.9375,14.80957
14.767578,11.387695,9.979492,4.783203,14.412109
16.899414,11.56543,8.4765625,6.189453,12.777344
13.800781,11.916992,9.612305,5.973633,13.168945
14.233398,10.966797,11.319336,7.848633,11.461914
11.489258,10.022461,9.9453125,6.536133,11.136719
8.980469,9.342773,9.926758,6.564453,10.751953
10.908203,7.649414,11.62207,7.513672,11.819336
13.754883,7.080078,11.995117,10.461914,11.741211
13.916016,7.1933594,12.985352,11.783203,11.134766
15.494141,11.283203,11.408203,9.69043,11.754883
12.313477,8.399414,10.96582,7.4853516,13.5234375
10.931641,8.72168,11.015625,9.431641,13.952148
11.386719,7.533203,9.389648,5.6679688,13.733398
10.193359,8.946289,8.803711,5.598633,13.597656
11.876953,9.027344,10.871094,5.3876953,14.4140625
12.680664,8.625977,12.9921875,10.366211,15.43457
11.8671875,8.861328,12.766602,9.314453,17.098633
10.388672,13.602539,11.87207,9.4140625,15.169922
11.642578,11.788086,8.53125,3.9892578,11.890625
10.418945,8.790039,8.706055,5.5595703,12.046875
10.572266,7.102539,3.5322266,5.6992188,11.401367
11.307617,6.4492188,6.7373047,4.6279297,11.212891
10.856445,6.3789062,9.157227,5.1884766,12.609375
11.282227,7.963867,11.680664,9.865234,13.638672
11.530273,8.152344,12.040039,11.7265625,13.810547
10.737305,4.9570312,11.896484,7.2734375,13.568359
10.532227,5.8789062,9.419922,2.8925781,13.067383
11.291992,4.9492188,9.225586,4.1279297,13.178711
12.115234,4.748047,8.34082,3.4492188,11.727539
17.123047,5.354492,7.873047,3.1201172,10.692383
18.376953,5.591797,11.984375,2.5683594,11.068359
17.87207,4.5839844,12.287109,9.279297,11.651367
11.631836,3.2539062,11.328125,10.157227,11.219727
9.466797,3.7001953,9.910156,8.59375,10.076172
8.066406,3.852539,6.661133,3.9794922,9.496094
7.5078125,3.8935547,3.5673828,4.2460938,10.628906
7.395508,3.866211,5.0859375,3.4921875,9.723633
5.6708984,5.0126953,3.3564453,3.991211,8.755859
6.7197266,5.166992,4.274414,3.7773438,7.1416016
9.091797,7.620117,7.8876953,9.444336,10.458008
9.267578,10.292969,8.522461,7.9882812,10.612305
8.361328,10.874023,8.27832,7.9990234,9.638672
8.331055,8.0625,3.4785156,5.0878906,9.12207
6.888672,6.5771484,3.9023438,4.9277344,7.7871094
8.478516,5.9296875,3.2470703,5.0898438,6.609375
9.155273,6.4716797,3.665039,4.939453,6.0146484
11.53418,6.638672,4.1347656,4.9492188,7.364258
11.644531,9.12793,6.0751953,8.041992,10.186523
10.026367,9.036133,6.6308594,6.5,9.263672
5.8291016,9.600586,4.21875,5.754883,8.318359
7.076172,7.370117,3.2382812,4.0566406,6.0146484
7.8154297,6.7460938,4.055664,5.1591797,5.1054688
8.5703125,4.3134766,4.491211,5.055664,8.3515625
6.0253906,5.091797,2.3945312,4.495117,5.541992
6.1904297,6.2890625,4.3876953,6.7060547,8.297852
8.837891,9.355469,8.151367,9.44043,9.509766
13.160156,9.576172,11.038086,12.402344,9.793945
11.379883,11.033203,8.006836,12.029297,10.509766
15.385742,11.806641,5.6220703,10.495117,13.385742
13.34668,13.114258,6.7529297,7.4365234,12.819336
7.2128906,11.975586,7.314453,6.911133,11.833008
6.5820312,10.620117,6.4697266,8.131836,11.173828
5.8447266,11.547852,7.3691406,8.55957,11.716797
11.364258,11.777344,10.057617,13.282227,13.011719
12.518555,11.324219,11.366211,13.901367,11.842773
12.4375,11.491211,8.542969,11.841797,10.59082
6.3945312,9.78418,7.3339844,7.1601562,7.796875
6.1933594,6.953125,5.2177734,6.8154297,9.029297
4.942383,5.330078,5.09375,5.3964844,5.34375
5.022461,5.4560547,3.640625,4.348633,3.1992188
4.506836,3.571289,2.5419922,4.149414,5.8867188
5.8378906,2.2558594,6.234375,6.3535156,6.5703125
8.4609375,4.041992,6.875,7.0625,6.595703
8.165039,6.986328,6.260742,6.7041016,5.564453
4.495117,6.5410156,3.1796875,3.5058594,2.703125
4.165039,3.6826172,2.46875,3.053711,4.040039
3.2460938,3.6572266,1.7519531,3.711914,4.2177734
3.4638672,3.1152344,2.446289,3.819336,4.430664
2.4423828,4.9628906,3.046875,3.7626953,4.4208984
5.576172,5.515625,2.538086,3.946289,7.2978516
6.4648438,4.470703,7.208008,7.0058594,6.751953
6.823242,5.116211,7.1796875,5.868164,2.7148438
2.03125,5.1572266,5.126953,3.7373047,2.6220703
3.6123047,5.515625,2.6865234,3.959961,3.5019531
3.5976562,3.553711,2.4228516,4.109375,2.8828125
3.7050781,3.7636719,3.1865234,4.067383,3.1279297
3.1884766,4.5625,1.7626953,3.8164062,3.25
4.8515625,3.2763672,4.90625,3.8759766,3.4697266
4.8564453,3.8710938,7.1464844,5.928711,4.9853516
3.9238281,6.618164,6.8515625,5.0429688,4.7802734
5.626953,6.243164,3.5166016,3.0,3.7675781
6.0253906,4.6601562,1.6591797,2.9365234,3.5361328
6.017578,4.651367,2.071289,4.0302734,4.314453
7.1123047,6.138672,1.7275391,4.2148438,4.5683594
9.474609,6.15625,2.491211,4.1152344,7.1992188
9.061523,6.9970703,5.732422,3.7363281,8.93457
7.9316406,5.0585938,6.979492,6.576172,7.9248047
7.8134766,7.6621094,6.060547,5.9160156,7.0976562
6.4697266,6.345703,5.4726562,3.7871094,6.189453
7.165039,6.541992,3.5292969,2.600586,5.828125
7.5097656,5.995117,2.243164,3.2509766,5.123047
6.0615234,6.6484375,2.3144531,3.6582031,5.3183594
8.082031,6.368164,5.9970703,3.171875,4.1289062
11.108398,7.602539,8.910156,3.2998047,9.256836
11.707031,11.711914,10.09668,8.300781,10.832031
11.850586,10.860352,7.225586,7.783203,10.082031
11.168945,9.052734,4.256836,5.9072266,11.666992
10.788086,9.150391,4.729492,5.6083984,11.575195
10.635742,10.431641,5.4814453,6.2285156,11.139648
11.463867,11.077148,5.3183594,6.5166016,11.739258
12.3984375,10.956055,6.328125,6.817383,12.191406
13.9140625,12.484375,9.160156,10.241211,13.889648
13.201172,13.551758,9.498047,10.277344,14.345703
11.986328,12.3984375,7.2177734,6.779297,13.095703
15.819336,11.475586,4.2558594,7.3398438,14.6484375
15.495117,13.475586,4.541992,7.2978516,14.495117
11.75293,14.636719,4.6875,5.961914,14.1875
11.225586,13.383789,4.5927734,5.7958984,13.75
14.707031,12.924805,6.578125,8.083008,14.8671875
13.8359375,11.003906,10.175781,8.176758,14.370117
12.597656,13.458008,12.338867,10.053711,15.625977
8.456055,12.855469,9.829102,7.4003906,13.237305
7.913086,11.306641,4.2802734,4.2333984,9.0390625
11.8203125,8.313477,3.8007812,4.0625,8.8125
9.580078,5.8310547,2.2841797,4.7539062,6.9648438
9.861328,5.4296875,4.0751953,3.9023438,5.5146484
10.157227,4.626953,2.9677734,3.9003906,5.0742188
8.791016,3.1669922,2.5898438,3.272461,5.388672
4.8007812,6.131836,2.774414,4.283203,4.614258
4.4570312,6.267578,5.178711,5.4189453,4.8623047
5.3066406,7.2890625,4.4365234,5.538086,5.6621094
6.875,8.238281,5.1972656,8.145508,9.421875
6.732422,11.299805,5.1914062,8.501953,10.265625
7.279297,12.719727,5.1289062,9.243164,12.505859
9.083984,12.583008,4.5625,9.149414,12.1328125
9.932617,11.521484,8.134766,7.165039,10.753906
9.151367,9.047852,6.908203,5.9521484,9.331055
11.014648,8.807617,8.283203,4.663086,9.206055
7.9746094,9.564453,10.19043,8.785156,9.633789
8.441406,9.654297,7.4960938,8.484375,7.4570312
8.431641,8.365234,5.930664,6.75,7.0
5.8427734,7.9873047,4.3359375,5.208008,5.9960938
6.388672,8.545898,3.0898438,4.8359375,7.1289062
8.630859,11.200195,7.763672,6.354492,9.202148
11.048828,15.490234,11.641602,8.814453,12.579102
16.036133,21.521484,10.228516,13.329102,19.260742
19.072266,24.22168,17.435547,12.758789,25.360352
19.888672,26.88379,19.21875,15.828125,26.763672
