"[299, 255]","[227, 248]","[287, 319]","[279, 328]","[230, 262]"
13.985352,3.6992188,11.633789,6.6328125,4.720703
16.205078,4.044922,11.905273,7.3867188,4.526367
16.814453,4.8095703,12.081055,8.491211,6.743164
15.3359375,5.4628906,12.283203,11.3671875,8.305664
11.897461,6.453125,11.449219,14.175781,7.7695312
12.0234375,7.7001953,12.609375,13.316406,4.9023438
8.553711,9.513672,13.896484,9.953125,6.666992
10.202148,11.588867,12.0,10.116211,11.7734375
17.44629,12.978516,11.337891,8.370117,11.658203
17.5,12.717773,12.3984375,9.015625,10.219727
15.994141,16.367188,14.098633,11.795898,11.300781
15.413086,10.65918,15.269531,14.769531,12.231445
15.6484375,10.255859,15.322266,15.714844,13.198242
13.248047,9.905273,14.946289,14.564453,12.489258
8.525391,9.853516,13.074219,10.65332,11.274414
7.8378906,11.298828,11.500977,6.669922,9.395508
9.0546875,13.469727,5.451172,6.2089844,11.020508
9.139648,15.134766,4.576172,6.051758,13.480469
13.420898,17.3125,9.707031,9.713867,16.482422
15.625977,18.073242,16.339844,13.172852,17.45996
16.65625,17.963867,15.668945,11.9453125,18.05664
15.166016,15.966797,12.821289,13.884766,17.75293
10.894531,9.556641,12.076172,14.09375,13.407227
9.511719,12.84082,13.082031,12.81543,9.1171875
9.262695,13.094727,12.836914,12.547852,7.5791016
8.262695,10.706055,11.525391,11.538086,7.5429688
10.037109,9.149414,12.133789,13.161133,9.186523
12.051758,7.6689453,13.34375,12.1796875,9.763672
11.917969,5.2626953,13.036133,12.746094,9.810547
11.032227,3.8408203,10.620117,11.393555,7.1220703
8.080078,3.4707031,8.549805,8.705078,3.2783203
4.8535156,2.4941406,3.1113281,10.689453,2.2177734
5.0664062,3.6298828,2.2060547,2.8251953,2.6757812
6.395508,4.2148438,2.0751953,2.6328125,2.796875
4.513672,3.4794922,4.290039,3.0292969,7.3847656
6.529297,2.8896484,6.0341797,6.3984375,7.348633
8.631836,9.146484,9.349609,8.157227,11.011719
7.7197266,11.424805,10.297852,8.9375,11.785156
5.044922,11.073242,7.126953,7.841797,11.779297
5.2177734,11.802734,3.6865234,4.286133,9.334961
4.923828,10.176758,4.086914,3.6464844,7.2558594
6.9228516,10.723633,4.751953,5.348633,8.00293
7.916992,10.326172,8.80957,6.5634766,11.765625
11.415039,13.100586,14.888672,12.331055,13.392578
14.34375,9.849609,14.364258,15.998047,13.386719
13.064453,7.3515625,14.1640625,13.3046875,10.9765625
11.803711,7.7578125,10.698242,10.378906,7.9335938
5.626953,8.52832,7.095703,8.359375,5.5029297
5.154297,7.5371094,5.7382812,7.564453,4.7460938
5.6689453,11.329102,6.7402344,8.423828,7.9746094
9.870117,11.443359,8.961914,9.174805,10.339844
12.792969,9.988281,11.40332,8.50293,10.484375
13.408203,8.495117,9.530273,8.412109,10.962891
13.347656,7.114258,10.609375,10.397461,9.28125
10.337891,8.7421875,10.549805,6.254883,8.076172
6.6064453,7.8095703,5.522461,5.411133,4.4345703
4.296875,5.541992,5.633789,5.0371094,3.5927734
2.4492188,5.564453,5.4257812,4.8779297,3.803711
6.5322266,6.7939453,7.1367188,4.9746094,7.290039
6.948242,6.783203,9.96875,7.317383,9.482422
7.196289,10.609375,9.876953,6.9208984,9.217773
6.7128906,10.112305,10.113281,6.8759766,7.723633
10.258789,7.626953,7.5839844,6.0722656,5.6035156
13.336914,6.3339844,7.432617,6.536133,3.2246094
12.871094,5.7216797,5.538086,6.2714844,4.654297
11.3984375,6.046875,4.044922,4.796875,4.029297
9.213867,6.213867,3.3964844,3.8896484,8.15918
5.741211,6.854492,6.946289,6.848633,10.203125
7.232422,7.3222656,8.438477,8.455078,10.140625
6.211914,7.2578125,10.738281,9.1796875,9.069336
3.8476562,7.7558594,8.966797,6.6308594,7.489258
3.7265625,8.998047,4.7373047,4.9384766,9.287109
2.0146484,7.7021484,3.2695312,3.524414,9.137695
4.294922,8.494141,5.0703125,5.3242188,8.018555
7.810547,8.848633,6.993164,7.5771484,10.6640625
10.356445,10.977539,10.022461,9.051758,12.076172
10.332031,13.496094,10.256836,10.079102,13.378906
11.295898,10.765625,10.329102,11.758789,12.636719
10.299805,9.537109,10.374023,11.342773,8.417969
6.90625,7.786133,6.765625,8.671875,8.495117
8.338867,6.7666016,5.6152344,6.770508,9.303711
8.092773,8.806641,6.5751953,4.916992,10.988281
7.0722656,9.634766,7.216797,6.8564453,13.385742
8.269531,11.986328,7.911133,8.081055,13.390625
10.969727,12.652344,10.350586,10.535156,12.998047
11.224609,10.216797,10.362305,10.449219,11.287109
9.408203,7.3691406,9.488281,11.973633,10.439453
6.5507812,7.1152344,7.338867,11.375977,10.594727
4.6992188,7.2773438,4.826172,8.691406,10.496094
5.5439453,6.28125,6.9628906,7.9589844,7.9873047
8.369141,8.37793,6.875,7.7773438,8.280273
10.357422,8.768555,6.4765625,8.506836,10.250977
11.933594,7.5791016,7.7001953,8.878906,10.251953
11.819336,6.678711,10.063477,10.4765625,8.87793
10.144531,8.625,8.900391,8.836914,9.358398
4.4335938,8.339844,3.2822266,7.254883,8.169922
3.9394531,7.0791016,8.405273,10.948242,9.169922
6.104492,10.6484375,10.182617,10.9453125,8.270508
11.816406,8.638672,9.885742,10.12207,9.155273
13.998047,10.449219,10.584961,10.228516,11.193359
14.196289,10.357422,10.016602,10.364258,11.538086
13.174805,9.510742,9.746094,10.366211,9.708008
10.161133,5.098633,8.1328125,9.925781,5.9404297
6.408203,5.7177734,5.736328,8.208984,3.5859375
4.055664,5.7822266,5.161133,5.758789,2.6123047
3.9140625,3.2548828,3.8222656,2.7421875,2.6660156
8.723633,7.7128906,7.692383,7.640625,8.832031
11.041992,8.072266,9.947266,9.2109375,11.630859
10.505859,6.522461,10.918945,9.849609,10.729492
11.732422,7.638672,10.775391,10.2265625,10.454102
9.1953125,8.794922,7.669922,7.7539062,8.919922
3.3925781,7.7753906,3.430664,4.5273438,7.1152344
4.7021484,7.5195312,6.955078,3.9101562,5.482422
4.538086,7.5341797,5.459961,4.3164062,4.9404297
6.5947266,3.2177734,5.928711,10.154297,5.701172
10.599609,2.8603516,12.330078,11.540039,7.786133
10.779297,4.169922,12.305664,9.912109,6.4248047
8.796875,2.8466797,10.400391,9.353516,5.557617
5.939453,2.165039,6.173828,6.3515625,3.3916016
3.1933594,3.8134766,4.642578,3.1083984,3.4296875
4.4501953,4.444336,3.2441406,3.522461,3.5634766
7.2314453,4.1875,3.0263672,4.708008,3.5996094
8.880859,5.413086,3.8388672,4.408203,5.2158203
10.779297,6.9970703,6.09375,5.6396484,9.631836
10.193359,10.677734,9.425781,5.198242,10.138672
10.162109,12.077148,11.212891,4.9833984,10.141602
10.111328,11.404297,10.891602,3.4169922,7.7285156
10.744141,16.950195,9.838867,6.883789,11.936523
11.303711,14.529297,7.9677734,5.5927734,11.029297
11.21875,5.8095703,7.4453125,7.951172,6.491211
10.095703,14.196289,4.2265625,7.3896484,13.189453
9.241211,14.713867,5.8466797,10.204102,17.0625
13.108398,14.81543,10.891602,13.004883,17.134766
10.769531,14.833984,10.779297,10.0703125,15.097656
7.026367,11.296875,5.5390625,8.250977,13.102539
4.6708984,12.206055,4.475586,5.189453,11.459961
3.2753906,10.462891,4.8623047,4.8916016,8.750977
3.3632812,8.375977,3.3291016,4.1621094,7.6289062
6.0654297,11.573242,5.1777344,5.567383,9.337891
8.282227,12.489258,7.772461,7.5820312,10.988281
8.799805,11.717773,9.375,8.899414,11.459961
9.321289,10.208984,8.963867,9.3046875,10.668945
7.8896484,8.533203,6.294922,7.8779297,7.9521484
5.0791016,7.401367,6.189453,7.783203,7.4003906
3.2304688,7.1103516,2.274414,2.756836,9.65625
2.2929688,8.477539,3.1035156,3.3652344,8.874023
7.051758,10.141602,5.645508,5.017578,10.405273
11.057617,9.828125,7.995117,7.317383,10.489258
11.25293,10.378906,9.339844,9.745117,10.412109
10.707031,9.073242,9.31543,8.253906,9.5859375
8.1953125,7.111328,5.96875,7.3535156,6.3984375
5.1191406,5.921875,4.638672,5.1845703,3.3701172
2.7890625,6.2128906,3.6044922,3.2490234,4.7939453
3.084961,7.807617,6.8984375,4.0878906,6.986328
5.3251953,9.0703125,8.783203,7.5039062,8.766602
6.8535156,9.509766,9.142578,9.879883,10.639648
11.608398,9.6875,8.563477,10.066406,10.693359
11.030273,8.671875,8.977539,11.807617,10.683594
9.635742,8.40625,8.582031,10.6328125,9.09375
9.177734,8.005859,7.708008,10.450195,9.510742
8.241211,11.133789,7.961914,9.782227,11.185547
7.4472656,11.0859375,7.618164,8.262695,12.53125
6.3710938,10.481445,6.919922,6.629883,13.557617
8.958008,10.686523,6.9345703,8.192383,13.621094
9.170898,8.672852,9.410156,9.37793,12.928711
12.0625,7.038086,8.209961,6.8828125,11.197266
9.202148,6.491211,4.833008,7.3554688,10.641602
5.9960938,5.5410156,4.5302734,6.3408203,10.807617
6.2597656,5.7382812,3.9033203,5.310547,8.694336
4.65625,9.55957,5.850586,6.6308594,10.048828
7.0029297,9.889648,6.477539,7.2421875,11.008789
7.8447266,8.077148,7.118164,7.515625,10.828125
10.93457,8.003906,10.9296875,9.147461,9.888672
12.697266,8.0234375,11.4140625,10.501953,10.80957
10.297852,8.443359,6.71875,6.5722656,10.115234
10.244141,6.294922,5.6347656,7.2958984,7.870117
4.055664,6.65625,4.2529297,5.0214844,5.821289
7.317383,3.1816406,2.5917969,4.223633,4.3085938
8.209961,2.4863281,3.5371094,3.3789062,4.1435547
9.943359,6.3466797,6.1572266,5.350586,6.576172
7.703125,7.4765625,6.0722656,5.1396484,6.946289
6.850586,8.714844,4.0839844,6.1152344,7.256836
8.275391,7.2373047,7.1503906,8.105469,5.9492188
6.03125,4.3623047,6.4716797,3.9257812,2.8945312
5.989258,2.7138672,3.897461,4.4248047,4.129883
3.9921875,3.9970703,2.8925781,3.9960938,4.413086
5.8242188,3.0927734,2.6591797,3.2285156,3.9238281
8.207031,2.8916016,4.602539,4.317383,5.6445312
10.556641,3.8916016,8.731445,8.9375,6.9072266
10.374023,3.3291016,9.393555,8.240234,6.9941406
8.480469,3.4941406,4.986328,6.501953,4.2441406
5.0029297,4.1328125,4.1308594,4.970703,5.491211
5.4853516,7.908203,2.8515625,5.732422,6.555664
4.4589844,8.625,3.9140625,5.044922,7.6464844
4.955078,7.080078,5.5722656,7.794922,8.354492
6.3066406,6.180664,9.543945,9.423828,9.260742
7.0722656,7.9179688,10.141602,9.722656,8.325195
6.232422,5.1660156,7.845703,8.185547,7.0283203
6.4072266,6.3652344,5.3945312,6.171875,6.388672
6.7490234,4.919922,5.915039,4.984375,8.022461
5.9902344,7.1103516,4.6015625,5.375,5.7998047
11.3125,7.3554688,3.071289,5.4140625,6.3515625
7.986328,8.1796875,4.2402344,7.3847656,10.880859
10.9296875,11.178711,7.513672,11.143555,11.8984375
13.267578,9.472656,11.782227,12.5078125,11.324219
13.832031,11.21875,11.363281,11.3828125,11.441406
10.678711,10.71582,8.266602,6.9433594,9.7890625
12.7734375,8.813477,3.9833984,4.5371094,10.081055
11.765625,5.1591797,3.6445312,3.9785156,8.948242
9.74707,4.819336,3.5859375,3.2802734,6.118164
9.4375,3.2294922,3.03125,2.9160156,10.518555
8.829102,5.5029297,7.024414,6.088867,8.419922
8.6953125,8.989258,7.783203,9.078125,7.3554688
7.955078,10.8828125,8.634766,9.112305,6.8808594
4.658203,5.586914,6.0898438,6.1347656,3.9404297
4.34375,5.178711,4.0410156,3.1503906,2.3867188
5.245117,4.2509766,3.3808594,1.7099609,3.0175781
4.7460938,3.2636719,3.2050781,2.59375,2.8095703
7.3378906,3.3203125,2.125,4.0439453,4.5166016
7.9365234,2.5429688,2.0771484,3.4384766,6.5429688
11.942383,4.1464844,4.9746094,6.5146484,7.694336
8.904297,4.2685547,5.370117,5.9726562,6.638672
7.475586,3.4736328,5.3632812,3.6572266,4.024414
4.8828125,2.609375,2.6445312,3.4472656,2.290039
4.1289062,2.140625,2.3613281,1.7568359,2.2910156
2.8017578,1.9541016,2.078125,2.3251953,2.2998047
4.6445312,2.8164062,2.8271484,3.6875,4.493164
5.8066406,2.7382812,4.3222656,5.845703,5.8710938
7.0742188,3.928711,7.823242,7.720703,7.8046875
6.788086,3.397461,9.087891,7.673828,7.819336
5.8183594,2.4882812,6.4404297,4.3916016,5.2265625
4.163086,2.6044922,2.9072266,3.1542969,3.7363281
3.8388672,2.243164,2.9160156,3.5595703,3.5234375
2.5976562,1.9853516,2.2558594,3.2148438,3.6015625
4.3027344,2.2451172,2.6142578,2.7548828,4.4746094
5.870117,2.7490234,3.6689453,4.3222656,7.0527344
5.0683594,5.8535156,4.803711,6.1484375,9.9296875
5.0703125,6.6523438,6.0039062,7.6708984,6.9003906
4.379883,4.145508,6.319336,4.9404297,4.4472656
3.2041016,4.6123047,3.118164,2.9697266,2.8876953
