"[299, 255]","[227, 248]","[287, 319]","[279, 328]","[230, 262]"
16.07129,4.904297,8.446289,4.2265625,7.995117
15.865234,3.165039,7.9296875,5.573242,8.511719
15.675781,3.165039,11.901367,9.193359,7.6953125
13.72168,5.885742,11.68457,9.902344,8.104492
10.824219,6.8964844,10.5859375,10.063477,7.7958984
9.855469,5.774414,9.994141,9.4765625,6.1660156
17.02539,5.7666016,11.348633,8.332031,5.0722656
17.561523,4.2773438,11.430664,9.625,3.3867188
18.271484,3.0136719,10.199219,9.389648,3.6933594
15.986328,2.5810547,8.050781,8.978516,3.390625
14.208984,2.8886719,9.105469,9.370117,3.0410156
13.446289,5.067383,9.40332,10.072266,7.0009766
13.53125,6.444336,8.921875,9.865234,10.332031
11.435547,6.319336,8.506836,9.421875,10.041016
18.003906,6.2666016,11.839844,11.053711,6.8066406
18.370117,5.919922,11.944336,11.082031,7.640625
18.24414,6.7851562,10.553711,10.666992,7.3867188
17.529297,6.227539,8.469727,10.667969,6.796875
17.197266,7.1484375,9.84375,11.357422,8.501953
16.65625,7.8154297,10.869141,12.626953,9.892578
16.699219,9.783203,10.569336,12.663086,9.699219
11.871094,5.4726562,8.067383,11.583984,8.889648
16.610352,4.6552734,10.360352,10.443359,6.166992
16.824219,2.53125,10.28418,11.035156,4.0771484
14.688477,3.0839844,7.609375,10.708984,4.0322266
12.124023,3.7167969,6.591797,9.72168,6.006836
10.267578,5.319336,5.6035156,8.970703,5.9990234
8.253906,3.0615234,4.84375,8.3359375,7.254883
7.6953125,7.897461,5.767578,7.3271484,8.958984
6.241211,8.515625,5.4785156,6.2353516,8.078125
14.19043,8.250977,7.879883,7.1679688,7.0039062
14.532227,9.722656,7.8310547,9.59668,7.7314453
12.057617,6.794922,7.421875,9.676758,6.3222656
12.053711,8.944336,7.595703,9.663086,6.616211
8.137695,5.357422,6.765625,8.314453,7.0859375
5.8134766,3.790039,4.15625,5.7216797,6.2802734
7.6591797,5.966797,4.2402344,5.158203,8.576172
6.935547,4.2216797,3.3417969,6.461914,8.063477
13.0078125,6.451172,5.2617188,4.5507812,6.75
14.487305,5.623047,7.9501953,8.175781,9.001953
13.111328,6.4570312,7.5878906,8.136719,8.948242
11.893555,5.8125,11.612305,8.649414,7.256836
10.902344,10.8203125,8.652344,9.1171875,8.376953
11.282227,8.5546875,7.8779297,9.646484,12.948242
12.192383,8.167969,9.65625,11.551758,16.486328
11.231445,5.1601562,10.775391,11.21875,11.480469
11.076172,6.4833984,11.216797,10.245117,6.4902344
9.342773,10.027344,7.524414,8.763672,12.69043
7.942383,8.732422,6.8378906,8.967773,13.390625
9.454102,8.235352,8.28418,7.0302734,9.577148
3.8554688,7.0029297,10.40625,6.9882812,9.994141
8.8984375,9.258789,9.676758,6.455078,9.738281
12.376953,10.756836,11.265625,13.484375,12.566406
13.038086,10.311523,9.744141,12.417969,11.145508
8.904297,8.9765625,5.8007812,6.6914062,12.447266
6.1396484,16.519531,7.1416016,10.564453,13.28125
9.581055,14.558594,12.011719,10.760742,11.8828125
10.018555,13.003906,9.4921875,9.647461,9.279297
12.930664,12.285156,13.168945,13.032227,12.866211
13.333984,12.12793,13.193359,12.5859375,13.243164
15.000977,12.762695,11.208008,11.033203,11.676758
14.962891,9.385742,12.100586,11.21582,10.4921875
11.413086,6.4179688,9.353516,10.390625,4.0283203
5.7490234,7.3740234,5.1054688,5.2197266,4.959961
3.4638672,6.3447266,4.0253906,4.9541016,4.267578
4.977539,9.079102,3.5419922,4.5615234,4.8603516
7.8320312,12.419922,4.930664,7.3085938,9.485352
11.407227,18.332031,9.03125,10.154297,17.20996
14.631836,20.176758,8.5390625,9.535156,22.485352
14.798828,20.916016,11.666016,14.916992,20.101562
18.070312,20.918945,11.8515625,12.97168,18.206055
18.46582,15.032227,12.71875,13.286133,13.03125
15.503906,15.202148,10.152344,13.279297,9.9609375
14.358398,12.6953125,9.691406,11.410156,7.076172
14.0859375,7.876953,12.677734,11.075195,5.370117
13.541016,4.4208984,14.640625,14.49707,9.84082
16.661133,5.291992,16.267578,13.316406,14.807617
13.938477,15.74707,17.249023,16.823242,18.853516
15.107422,15.810547,17.641602,19.11914,20.685547
13.660156,17.365234,16.143555,18.45996,20.829102
14.7578125,18.83496,11.099609,14.8359375,21.19043
24.177734,21.114258,17.198242,16.813477,22.612305
24.77539,23.374023,14.756836,15.878906,20.551758
25.134766,19.9375,11.3125,17.60254,20.560547
23.40625,18.750977,18.201172,18.517578,20.118164
17.44629,16.88379,15.358398,15.591797,19.813477
14.001953,16.333984,9.567383,10.527344,14.972656
9.985352,14.199219,8.334961,8.588867,13.614258
6.0683594,11.477539,7.899414,8.84082,10.823242
5.9589844,11.592773,6.720703,8.744141,9.59082
14.728516,11.279297,9.383789,9.254883,10.904297
14.014648,11.801758,9.566406,10.05957,12.654297
13.078125,11.568359,9.904297,9.771484,11.258789
11.865234,10.874023,8.191406,8.830078,10.012695
10.211914,9.2109375,4.8242188,5.444336,5.328125
10.427734,8.171875,4.0117188,4.1552734,6.1835938
10.745117,4.448242,3.7363281,2.1767578,4.614258
8.079102,3.5605469,1.3447266,2.7646484,3.7148438
8.24707,3.1416016,2.3710938,2.7265625,4.086914
7.5439453,3.8857422,6.0703125,5.7158203,7.211914
7.404297,7.0322266,6.2177734,6.6171875,7.8496094
6.2382812,7.0351562,5.2890625,6.453125,7.283203
4.838867,3.9042969,3.4501953,3.9238281,2.9765625
4.830078,4.8896484,3.5732422,4.6035156,3.7089844
2.8310547,6.267578,2.6064453,4.2822266,4.4521484
3.741211,6.8066406,2.671875,5.4648438,4.6777344
5.185547,7.6621094,3.3720703,6.2646484,8.001953
7.3271484,9.220703,9.413086,8.328125,12.481445
7.5214844,11.767578,10.314453,9.886719,13.674805
6.7470703,11.791016,10.162109,8.84668,13.868164
4.890625,13.151367,10.2109375,8.098633,11.598633
6.135742,13.0703125,8.102539,6.7382812,10.103516
8.635742,9.511719,5.517578,6.0498047,6.838867
8.733398,10.334961,6.319336,4.5810547,6.5820312
10.327148,15.575195,10.368164,9.3671875,13.59082
16.572266,12.538086,8.606445,11.151367,13.754883
15.996094,11.145508,13.986328,13.972656,13.140625
13.526367,8.844727,11.771484,11.641602,11.858398
10.083984,11.606445,8.397461,6.569336,9.666992
7.415039,12.519531,6.9765625,5.8242188,9.074219
7.4033203,12.666016,6.4375,4.529297,8.081055
7.098633,14.878906,6.334961,5.7597656,9.644531
7.9941406,11.3203125,8.053711,8.910156,11.453125
11.547852,10.213867,9.019531,10.244141,11.556641
15.68457,11.62793,13.4921875,12.650391,11.700195
11.536133,14.266602,12.482422,11.308594,11.858398
10.614258,14.044922,8.21582,7.821289,7.8203125
8.75293,13.604492,8.995117,8.75293,8.774414
7.725586,13.267578,10.250977,9.581055,11.064453
8.887695,13.731445,11.407227,9.907227,10.986328
11.418945,13.791992,12.59375,10.953125,12.613281
13.942383,14.791992,13.22168,14.395508,15.029297
15.569336,17.171875,14.063477,14.555664,16.896484
15.647461,16.456055,14.543945,13.084961,16.263672
13.682617,14.783203,12.9140625,11.235352,12.860352
11.018555,13.550781,11.81543,10.219727,11.910156
10.223633,12.907227,11.482422,10.501953,11.753906
9.59375,12.224609,11.416016,9.438477,10.994141
9.802734,10.956055,10.817383,10.066406,10.016602
10.303711,10.9609375,11.4375,11.076172,13.436523
10.772461,13.375,12.702148,11.81543,14.25
10.433594,13.348633,11.136719,10.90332,14.041992
7.881836,14.268555,5.6728516,5.7177734,11.902344
8.28125,13.323242,4.7109375,4.5595703,11.540039
7.0634766,12.53418,4.9228516,4.7695312,10.150391
8.293945,12.671875,5.515625,5.611328,11.180664
11.939453,14.475586,7.3095703,11.918945,18.129883
12.949219,16.22754,15.7109375,15.322266,20.60254
12.109375,16.74707,17.675781,17.254883,20.685547
10.53125,15.666992,16.24707,16.206055,19.668945
8.336914,14.287109,13.44043,12.890625,14.795898
5.6640625,16.105469,12.791016,5.399414,15.552734
7.305664,14.21582,10.548828,10.9765625,14.9609375
8.795898,11.716797,10.984375,10.678711,11.779297
9.103516,14.082031,9.0625,11.466797,15.188477
11.1640625,17.148438,11.169922,11.533203,17.472656
11.8984375,17.563477,10.550781,11.081055,19.570312
10.638672,17.598633,10.305664,10.493164,17.350586
10.740234,14.8125,4.3564453,7.1835938,13.229492
10.739258,15.260742,4.551758,5.209961,11.251953
6.8085938,10.230469,4.2753906,5.0595703,8.961914
6.883789,11.548828,2.4453125,5.055664,6.5859375
7.0771484,7.5791016,2.3886719,3.3876953,6.459961
9.443359,7.395508,5.118164,6.145508,7.8535156
9.447266,6.948242,5.459961,6.9033203,8.467773
8.30957,5.470703,4.939453,6.379883,7.173828
4.5273438,5.7851562,3.399414,4.7529297,4.3066406
4.876953,6.841797,3.3017578,4.8271484,6.0097656
4.6054688,7.435547,3.2939453,5.803711,6.2539062
4.5878906,9.217773,4.595703,7.290039,7.1728516
6.291992,12.331055,5.9990234,8.731445,9.728516
7.9296875,13.797852,9.473633,11.441406,13.69043
10.269531,15.46875,10.115234,12.404297,15.796875
10.21582,16.188477,9.015625,11.124023,15.5390625
9.970703,16.708984,7.7910156,14.223633,17.382812
10.767578,18.08789,13.524414,13.119141,17.947266
11.494141,16.517578,13.822266,14.00293,14.2109375
12.927734,13.857422,11.380859,10.375977,11.104492
10.291992,11.084961,7.758789,9.65918,9.724609
11.256836,11.355469,10.035156,9.199219,13.056641
10.486328,8.620117,9.399414,8.699219,9.772461
8.112305,8.652344,6.4140625,7.3535156,7.4414062
4.196289,6.0341797,6.2802734,5.8222656,3.2197266
6.727539,5.4248047,4.026367,5.4677734,4.4072266
7.8085938,6.7089844,3.9667969,6.8310547,5.239258
7.78125,8.373047,6.3496094,7.180664,6.265625
6.9052734,13.34375,5.6416016,8.538086,7.8378906
9.298828,15.606445,12.032227,14.769531,15.859375
14.844727,19.361328,21.924805,18.108398,19.641602
15.146484,20.289062,21.917969,16.419922,19.830078
15.536133,20.007812,16.995117,15.621094,17.950195
15.170898,12.848633,9.5859375,9.088867,8.577148
7.7353516,11.8203125,9.363281,9.053711,7.390625
9.09668,9.910156,8.743164,9.102539,5.833008
8.469727,8.983398,11.001953,11.737305,8.457031
9.916992,7.2841797,11.744141,12.626953,8.814453
10.182617,5.713867,11.448242,11.046875,7.5302734
9.592773,4.0634766,9.919922,9.292969,6.6914062
5.8935547,3.6074219,7.982422,5.5498047,2.1875
3.5058594,4.330078,5.0585938,4.564453,3.5917969
3.9121094,5.084961,2.8125,4.4609375,4.073242
6.852539,4.823242,3.4873047,5.7626953,4.0195312
9.140625,8.453125,3.4042969,7.3427734,6.578125
8.389648,9.84082,6.0126953,7.8554688,12.512695
7.7509766,8.336914,6.5078125,7.209961,13.799805
6.495117,9.6640625,4.291992,7.885742,14.068359
6.8447266,9.94043,6.6777344,7.0029297,11.209961
5.4101562,10.071289,8.160156,9.927734,9.873047
6.336914,11.022461,9.397461,9.858398,11.410156
7.8828125,11.157227,8.111328,7.3115234,13.579102
9.529297,11.80957,15.40625,11.571289,13.80957
9.461914,11.518555,14.311523,7.9960938,11.583984
8.018555,9.433594,9.511719,9.589844,11.34082
7.3134766,7.598633,9.708984,8.65332,10.40918
6.3535156,9.068359,7.4570312,4.8535156,12.134766
4.5703125,8.416016,7.305664,5.0722656,11.564453
5.0029297,8.0703125,11.104492,7.618164,10.883789
5.6904297,8.339844,8.772461,7.616211,9.49707
7.491211,10.283203,6.328125,8.961914,12.586914
9.90625,10.927734,7.6689453,9.96875,14.387695
10.262695,11.3984375,6.0585938,11.083984,15.749023
9.419922,12.478516,5.3720703,10.263672,15.469727
6.1308594,11.808594,9.899414,9.682617,14.974609
7.013672,11.290039,6.5527344,10.946289,13.636719
7.0273438,12.258789,6.9804688,6.390625,12.240234
6.6015625,11.896484,8.202148,8.380859,11.381836
7.533203,10.157227,8.175781,6.9628906,9.178711
7.205078,6.7841797,5.8291016,7.7617188,6.209961
7.2128906,4.4414062,6.165039,7.7998047,2.3632812
5.7714844,4.9160156,4.9365234,5.459961,2.6621094
4.0146484,4.7304688,3.8173828,3.7861328,2.6767578
8.142578,4.1220703,1.8388672,3.6132812,2.8154297
7.1953125,2.3251953,2.413086,3.555664,2.3388672
8.227539,4.2382812,1.71875,2.6591797,4.0214844
7.790039,6.314453,4.5117188,4.5898438,6.3964844
6.9208984,11.212891,7.0351562,6.7685547,12.433594
10.580078,14.641602,11.478516,11.956055,14.514648
11.787109,15.369141,12.862305,11.875977,15.863281
11.174805,13.94043,13.240234,10.442383,12.703125
10.5859375,11.643555,10.993164,11.4140625,11.143555
