"[299, 255]","[227, 248]","[287, 319]","[279, 328]","[230, 262]"
5.584961,6.635742,10.40918,7.4472656,5.3896484
5.725586,10.330078,8.277344,7.473633,5.7128906
5.6240234,10.353516,9.094727,7.834961,8.837891
8.702148,9.81543,10.943359,10.306641,14.510742
10.203125,10.8515625,14.3515625,12.052734,13.555664
10.324219,8.1796875,11.5,11.802734,11.430664
7.879883,6.4414062,5.163086,6.53125,5.046875
8.933594,7.4521484,4.5009766,5.6171875,5.388672
11.030273,8.985352,7.4628906,6.6279297,9.2265625
16.753906,11.076172,9.106445,7.4628906,14.376953
18.381836,14.760742,12.285156,11.673828,15.40918
17.171875,14.216797,15.736328,14.005859,14.600586
12.782227,14.225586,15.855469,14.182617,15.246094
12.115234,16.65625,11.609375,10.236328,15.78125
11.923828,15.241211,9.056641,3.0292969,11.744141
11.813477,13.212891,5.584961,8.022461,10.751953
11.037109,12.285156,3.71875,8.0234375,10.332031
10.567383,11.435547,2.821289,5.3789062,9.993164
11.165039,10.822266,4.2558594,6.169922,8.957031
11.578125,5.8134766,11.360352,7.1054688,8.952148
10.577148,2.7636719,13.4453125,9.393555,7.4609375
10.246094,2.6220703,13.28418,7.845703,6.2509766
13.826172,3.6240234,11.908203,5.569336,3.9492188
14.019531,5.133789,11.908203,6.620117,6.551758
14.52832,6.3535156,11.493164,9.457031,5.9335938
15.347656,7.305664,12.724609,9.431641,7.1875
18.257812,7.3027344,16.507812,15.141602,12.013672
16.460938,9.837891,17.291992,16.330078,15.621094
18.501953,11.811523,19.136719,18.618164,16.859375
19.879883,20.292969,21.518555,17.34668,20.995117
28.388672,24.68457,21.954102,18.55957,21.164062
28.737305,21.34082,20.757812,18.035156,20.573242
27.624023,18.154297,21.390625,17.03711,18.676758
22.04004,13.811523,21.04004,18.615234,13.243164
17.891602,12.637695,20.238281,20.388672,13.979492
10.09375,9.9765625,18.676758,20.269531,12.806641
8.542969,9.147461,5.573242,11.826172,12.457031
4.526367,8.4453125,4.6103516,5.3583984,12.473633
9.175781,12.671875,5.0234375,4.2753906,10.704102
12.380859,13.583984,8.845703,6.2089844,9.018555
13.962891,14.447266,9.439453,7.0771484,12.719727
14.764648,16.621094,10.392578,7.2158203,13.629883
15.573242,15.294922,14.292969,11.274414,14.8046875
16.756836,14.716797,17.451172,15.057617,16.663086
20.59082,15.577148,18.589844,15.19043,16.59961
22.136719,12.277344,18.019531,12.364258,21.113281
26.298828,16.878906,17.988281,9.609375,22.9375
26.961914,16.283203,14.243164,9.642578,23.112305
25.669922,13.379883,13.667969,8.709961,20.30664
23.982422,15.067383,12.399414,8.326172,19.456055
17.121094,15.5703125,13.077148,13.413086,19.836914
14.3984375,15.211914,14.230469,14.500977,16.827148
15.884766,15.307617,15.009766,15.630859,18.635742
15.515625,16.35254,12.490234,14.768555,17.58789
13.160156,16.418945,11.075195,13.334961,14.519531
12.677734,15.973633,9.637695,13.692383,14.880859
11.969727,17.195312,7.870117,9.62207,17.868164
14.308594,16.073242,10.160156,9.024414,17.197266
18.279297,17.454102,11.140625,14.015625,17.45996
20.238281,16.986328,17.457031,18.698242,18.199219
19.682617,17.989258,14.994141,16.374023,19.385742
15.358398,16.131836,13.917969,14.874023,18.61914
14.408203,15.917969,10.238281,14.513672,15.004883
10.46582,14.010742,19.199219,8.477539,14.72168
9.702148,11.7265625,5.5253906,6.9628906,10.303711
8.694336,10.630859,5.229492,5.3339844,11.425781
12.00293,11.298828,7.026367,7.739258,13.480469
12.217773,14.129883,9.110352,9.138672,13.095703
10.660156,11.199219,11.556641,11.891602,11.709961
10.988281,9.027344,11.360352,9.942383,9.918945
9.012695,8.229492,8.015625,8.336914,6.7851562
8.188477,7.698242,5.338867,4.5146484,6.368164
4.491211,8.681641,4.9765625,4.4785156,4.352539
5.7265625,5.6572266,5.1308594,5.323242,3.2919922
8.586914,3.5576172,5.6875,5.6308594,7.3554688
8.939453,6.15625,7.8828125,7.560547,8.766602
12.731445,6.154297,8.341797,6.564453,9.139648
11.052734,7.979492,6.7148438,6.7617188,8.321289
5.3408203,7.125,7.0390625,6.751953,5.227539
3.0625,5.7666016,3.8222656,2.055664,2.8261719
2.8789062,4.3203125,3.4277344,2.993164,1.3339844
2.538086,3.5986328,3.571289,3.6347656,6.9501953
6.0683594,3.9638672,6.236328,5.536133,7.828125
6.767578,6.1601562,9.051758,9.18457,8.487305
9.642578,7.944336,9.118164,8.575195,8.777344
8.102539,9.34668,10.301758,10.386719,8.796875
8.308594,6.4345703,5.8652344,6.5498047,3.8671875
4.583008,5.209961,3.90625,7.419922,4.338867
2.9980469,12.849609,3.8085938,7.573242,6.986328
3.741211,11.364258,3.7392578,6.1015625,10.950195
4.5908203,11.532227,7.296875,8.229492,10.722656
14.1875,12.094727,11.697266,10.264648,11.668945
13.323242,9.761719,16.521484,12.739258,12.65332
13.051758,7.5664062,14.3828125,12.772461,11.2734375
8.333984,12.339844,7.4248047,14.428711,10.722656
4.479492,13.410156,4.208008,5.6435547,8.771484
6.109375,11.916992,5.567383,5.161133,6.453125
5.629883,8.927734,7.057617,4.5029297,9.654297
7.998047,11.455078,8.027344,4.626953,10.37793
8.025391,9.444336,7.0214844,6.834961,11.428711
8.646484,9.37793,12.84082,7.666992,11.586914
7.0722656,10.014648,7.0371094,7.685547,11.371094
5.7021484,10.480469,5.638672,7.9814453,10.777344
7.0566406,8.829102,5.260742,7.6845703,7.694336
6.388672,10.032227,5.620117,8.072266,10.581055
7.2783203,8.6640625,5.7089844,9.236328,10.032227
8.724609,10.696289,9.485352,12.631836,10.3828125
10.727539,10.886719,11.904297,13.84375,12.682617
11.725586,7.1279297,13.520508,14.396484,11.625
10.22168,7.189453,14.555664,12.260742,7.319336
9.118164,7.5,9.506836,7.9228516,6.319336
10.84375,8.249023,9.787109,8.110352,6.421875
11.933594,5.4804688,8.199219,8.277344,5.314453
12.885742,6.34375,8.069336,5.807617,5.8066406
12.959961,5.538086,10.113281,8.693359,8.942383
13.514648,4.180664,11.541992,8.847656,9.298828
13.722656,5.870117,10.021484,7.4902344,9.230469
8.859375,6.296875,12.1484375,6.9228516,6.4648438
6.1328125,5.220703,7.114258,8.244141,3.6533203
8.604492,2.1904297,6.080078,6.03125,3.3642578
6.5546875,2.0185547,5.9921875,6.0654297,2.5927734
3.3251953,2.118164,5.086914,5.1552734,3.6865234
4.6171875,2.5800781,3.8496094,4.2041016,4.2460938
7.40625,4.9960938,6.4677734,6.5664062,7.866211
9.238281,5.727539,7.8291016,9.37793,7.6445312
8.328125,4.8964844,7.4853516,5.873047,7.486328
4.911133,7.145508,6.5947266,4.758789,7.6953125
3.1328125,8.499023,3.8613281,5.3251953,9.65332
3.8183594,9.779297,3.5419922,7.071289,9.614258
5.729492,12.331055,3.5986328,7.5097656,11.802734
8.52832,13.703125,4.7060547,9.50293,14.555664
11.824219,15.191406,7.395508,10.8984375,17.516602
12.652344,16.085938,7.129883,10.462891,18.02539
12.383789,13.644531,8.855469,8.980469,15.311523
10.854492,9.44043,7.1171875,4.498047,10.134766
8.602539,5.7626953,3.5722656,4.267578,4.948242
6.4160156,3.5390625,5.0302734,5.5,3.4140625
5.0,5.435547,4.5976562,4.3535156,4.1972656
4.8828125,6.046875,4.885742,4.5908203,3.9375
6.408203,3.9414062,6.90625,8.68457,6.666992
5.5947266,9.611328,8.623047,8.959961,7.2070312
5.3535156,9.636719,7.953125,8.602539,6.0341797
3.084961,5.698242,3.8613281,4.7246094,3.9658203
4.8554688,4.8935547,3.8574219,3.3027344,5.4296875
10.966797,6.7158203,3.3867188,4.5039062,7.8291016
15.359375,10.277344,5.6728516,3.9570312,9.21875
15.670898,10.275391,11.458984,3.8730469,10.791992
15.016602,6.3027344,15.550781,11.817383,9.847656
15.452148,11.239258,15.376953,11.950195,12.794922
13.3984375,10.3203125,13.873047,12.458984,12.770508
14.285156,9.486328,10.035156,10.90332,8.961914
14.333984,9.990234,9.863281,8.836914,10.396484
17.194336,15.047852,10.861328,9.8671875,11.207031
18.566406,17.606445,9.753906,12.886719,17.557617
18.320312,18.043945,14.231445,14.417969,18.792969
20.97168,19.308594,14.880859,15.94043,22.604492
22.15625,19.500977,17.75586,15.498047,22.012695
17.921875,18.53711,18.325195,14.772461,18.753906
16.710938,18.827148,13.422852,16.240234,16.131836
13.824219,18.618164,10.005859,10.993164,12.822266
13.427734,18.764648,9.728516,9.535156,14.615234
11.261719,21.854492,10.163086,6.8876953,14.521484
15.496094,16.270508,14.725586,11.811523,18.32129
15.65332,16.604492,16.78125,13.557617,16.948242
17.828125,16.85254,15.859375,19.132812,18.860352
16.353516,14.478516,10.953125,11.583984,15.6640625
12.222656,12.645508,8.246094,8.02832,7.165039
12.058594,9.942383,8.673828,9.982422,8.15918
8.876953,11.018555,8.125,10.5625,5.8828125
6.6308594,9.485352,7.0947266,7.0009766,4.96875
8.178711,6.2216797,7.038086,7.8583984,5.635742
11.081055,6.439453,8.642578,11.673828,7.171875
12.360352,6.9033203,6.899414,10.296875,9.890625
6.7578125,7.4833984,6.7089844,7.0439453,8.873047
5.178711,7.239258,7.504883,5.442383,7.6484375
6.5839844,7.4023438,6.1435547,4.4960938,5.685547
3.2695312,9.958008,4.9902344,7.341797,12.841797
5.6660156,6.7490234,5.258789,8.785156,8.354492
8.033203,6.0546875,11.913086,14.4453125,10.643555
12.628906,13.786133,13.895508,14.19043,14.433594
17.17871,15.293945,16.84082,19.38379,15.583008
15.771484,16.54004,11.77832,15.613281,17.920898
13.672852,12.580078,8.426758,8.826172,14.316406
12.223633,11.62207,9.953125,7.8515625,12.62207
11.939453,9.525391,10.65918,7.5371094,11.5625
12.384766,9.56543,10.264648,8.897461,10.842773
11.922852,12.4609375,12.324219,11.486328,13.088867
14.515625,12.061523,14.1328125,15.473633,14.241211
16.151367,10.0625,14.511719,14.711914,11.7890625
15.0546875,9.708008,11.270508,11.884766,9.994141
7.3691406,9.785156,8.013672,6.8710938,8.005859
5.7373047,3.7382812,3.7626953,4.5273438,4.9882812
5.4414062,2.3564453,4.142578,3.5634766,4.705078
5.046875,2.2578125,3.1816406,3.5654297,3.8378906
6.0253906,2.0605469,3.5283203,4.8115234,5.9541016
8.361328,4.9453125,10.089844,7.9316406,8.702148
10.214844,5.038086,10.527344,10.466797,9.291016
6.073242,3.538086,7.7753906,9.34375,7.0410156
3.7929688,3.2529297,5.727539,6.0078125,4.336914
5.4658203,4.256836,4.916992,5.040039,4.3066406
6.3916016,5.338867,4.2509766,5.178711,5.2646484
6.3583984,5.682617,3.9970703,5.946289,5.3222656
6.205078,5.989258,4.536133,5.9404297,8.366211
8.5546875,5.6191406,8.470703,8.22168,9.769531
9.919922,6.1103516,9.604492,9.2890625,10.150391
8.088867,5.0058594,7.701172,9.03125,6.7529297
9.610352,2.7529297,7.0214844,7.5742188,3.6875
11.09375,3.71875,5.0009766,5.333008,3.8164062
11.982422,4.2021484,5.0615234,6.095703,3.319336
9.427734,3.7792969,5.3876953,6.0791016,3.4228516
9.865234,3.09375,5.59375,5.8027344,5.803711
10.640625,6.640625,5.595703,5.9873047,8.083984
11.235352,9.431641,7.6777344,10.876953,8.073242
11.326172,10.452148,9.036133,5.2021484,7.736328
9.65332,6.201172,7.59375,6.3378906,5.9189453
10.069336,5.470703,7.404297,5.638672,7.1533203
9.899414,5.2529297,6.9765625,4.2421875,4.984375
3.413086,3.3095703,4.8476562,3.3291016,3.1015625
6.2216797,3.078125,3.5332031,4.413086,5.442383
11.37793,6.9833984,7.076172,7.6054688,7.8603516
11.228516,6.8964844,11.446289,9.407227,8.8203125
10.607422,6.2373047,8.255859,8.517578,7.239258
6.7148438,5.586914,4.526367,6.6328125,5.8271484
5.7109375,4.9804688,4.2470703,3.203125,4.7490234
7.375,5.319336,4.6621094,3.538086,4.513672
10.788086,3.6513672,7.3945312,3.5351562,4.2753906
11.518555,2.8105469,7.5585938,3.1259766,5.3720703
8.499023,7.6259766,7.708008,4.8916016,9.900391
9.006836,8.392578,9.951172,8.231445,8.800781
8.592773,7.288086,9.291992,8.188477,6.821289
8.005859,5.977539,8.572266,8.146484,4.5195312
8.953125,5.0039062,8.087891,7.8134766,3.006836
8.338867,3.8408203,8.53125,6.834961,2.631836
5.716797,3.1689453,5.4365234,6.5478516,2.5527344
4.890625,1.8730469,5.701172,5.229492,5.4472656
7.0585938,6.7158203,6.401367,6.4882812,7.8652344
7.0185547,11.038086,8.03125,6.9453125,8.544922
6.305664,4.586914,8.631836,5.720703,6.7382812
5.267578,3.6308594,9.486328,3.78125,4.459961
8.404297,4.53125,7.3085938,5.314453,4.416992
