"[299, 255]","[227, 248]","[287, 319]","[279, 328]","[230, 262]"
8.578125,10.6640625,7.921875,11.387695,9.817383
8.572266,9.311523,9.9296875,9.354492,7.6865234
6.1816406,8.970703,10.116211,8.71582,6.1708984
6.129883,6.036133,9.981445,9.783203,6.4658203
6.147461,5.4335938,11.504883,9.686523,6.2802734
6.1679688,6.8115234,5.870117,4.578125,5.6835938
12.003906,14.984375,3.7460938,4.7666016,6.96875
12.779297,13.147461,5.4677734,9.116211,14.258789
11.499023,14.316406,12.568359,10.3515625,15.249023
13.27832,16.314453,12.8828125,12.786133,16.395508
15.756836,18.498047,15.516602,14.405273,19.388672
16.81543,19.424805,21.78418,17.80371,21.90625
18.668945,22.12793,21.501953,21.546875,22.913086
20.263672,22.234375,22.197266,21.699219,22.876953
20.648438,19.254883,19.641602,17.583008,18.639648
15.654297,15.292969,16.47168,15.56543,13.4453125
15.65332,17.345703,17.401367,15.432617,13.951172
13.612305,15.626953,16.40625,12.229492,11.50293
11.416992,13.3125,14.459961,11.4609375,9.1015625
15.799805,12.683594,16.858398,15.62207,13.467773
16.664062,12.870117,17.039062,15.197266,13.426758
15.907227,13.258789,12.484375,14.602539,11.490234
12.849609,10.685547,9.363281,10.806641,9.619141
6.2128906,7.1152344,2.4609375,7.9970703,4.9853516
4.1523438,6.1396484,3.7177734,4.6552734,4.069336
4.1035156,3.9521484,3.6015625,4.2333984,3.2910156
4.4628906,3.9570312,3.4511719,2.859375,3.696289
3.6826172,4.4833984,3.015625,2.7148438,4.6132812
5.4140625,4.944336,9.666016,9.189453,6.158203
6.6103516,4.9433594,7.9189453,7.5429688,6.0839844
3.3808594,3.915039,8.033203,6.104492,2.7822266
2.7236328,5.8378906,4.131836,5.9472656,4.1289062
2.9638672,5.819336,3.8125,3.4648438,4.083008
3.6992188,6.0507812,3.8271484,4.0751953,4.4990234
4.40625,6.493164,5.879883,4.560547,4.6064453
8.52832,7.623047,10.598633,9.5078125,9.949219
13.527344,7.6679688,11.161133,9.821289,11.019531
12.6640625,8.907227,9.616211,7.9521484,8.9609375
11.504883,8.683594,9.890625,9.212891,6.961914
11.583984,8.485352,8.962891,9.368164,5.4257812
11.0234375,9.553711,8.355469,9.366211,7.1572266
11.961914,10.209961,8.413086,9.647461,8.642578
11.616211,11.682617,6.8066406,9.092773,9.884766
9.364258,10.927734,6.698242,9.058594,11.951172
10.748047,10.853516,2.6259766,6.104492,11.754883
10.6796875,10.530273,4.9560547,6.3154297,9.822266
10.017578,8.606445,4.3310547,6.301758,12.980469
5.9570312,8.548828,4.430664,5.6171875,11.741211
5.7246094,6.084961,4.786133,6.118164,10.010742
7.1289062,10.50293,6.881836,6.0839844,12.831055
7.0595703,12.737305,6.7773438,5.845703,13.825195
11.119141,11.189453,9.894531,7.383789,11.624023
11.942383,12.259766,12.922852,12.796875,11.599609
11.561523,11.892578,11.637695,10.750977,11.8125
7.626953,14.472656,8.892578,7.015625,14.018555
7.236328,13.53418,10.991211,8.349609,15.542969
11.661133,14.5,8.138672,7.841797,13.421875
11.536133,16.22461,8.739258,10.416992,12.760742
6.696289,11.797852,9.233398,10.503906,14.09082
13.141602,15.524414,11.958984,11.128906,15.621094
12.955078,15.678711,12.524414,13.652344,16.717773
13.498047,17.006836,10.696289,12.920898,15.944336
9.147461,14.761719,6.254883,6.051758,14.602539
8.458008,13.609375,3.8935547,6.291992,9.630859
9.268555,9.21875,4.6328125,5.5058594,4.8789062
9.204102,10.114258,6.0878906,6.044922,5.366211
7.8828125,8.722656,6.291992,6.819336,9.759766
7.4814453,7.1347656,9.37793,8.65918,9.890625
9.794922,6.8085938,9.6796875,9.47168,7.1679688
9.899414,9.129883,7.9208984,7.489258,5.3359375
5.413086,11.7265625,9.166992,10.989258,8.145508
8.209961,13.368164,15.119141,14.550781,11.052734
11.316406,17.91211,17.16211,16.253906,15.282227
14.537109,22.829102,20.257812,20.208984,20.21582
17.780273,23.955078,20.871094,20.327148,22.05664
19.84082,24.12793,8.803711,9.8125,22.171875
19.672852,13.979492,9.203125,10.264648,12.994141
7.21875,14.844727,7.2734375,8.480469,13.045898
5.2802734,20.248047,7.0742188,9.283203,15.037109
7.4316406,19.801758,10.535156,7.6123047,9.263672
12.037109,12.920898,21.785156,15.8515625,5.9052734
16.442383,9.5390625,23.578125,21.536133,8.1953125
17.44043,13.229492,27.254883,26.473633,20.704102
21.125977,15.942383,29.643555,26.586914,24.697266
26.923828,23.999023,29.893555,23.836914,27.288086
27.050781,25.114258,29.338867,8.705078,25.347656
28.132812,24.626953,26.557617,11.124023,26.628906
26.679688,25.183594,18.769531,17.327148,26.490234
25.1875,26.786133,19.632812,20.078125,25.905273
26.363281,25.13086,18.198242,19.53125,27.890625
26.394531,29.506836,17.216797,18.625977,27.970703
24.807617,29.90332,17.041992,19.661133,27.841797
25.013672,27.50879,16.265625,20.169922,26.31836
19.373047,25.773438,12.161133,17.135742,24.59082
17.024414,21.933594,13.668945,12.294922,23.816406
15.798828,19.988281,13.211914,10.4609375,19.499023
13.857422,17.417969,8.404297,11.234375,16.432617
12.828125,17.643555,8.487305,9.93457,18.201172
11.894531,16.015625,9.779297,6.455078,13.866211
10.957031,14.999023,10.560547,8.111328,15.171875
11.038086,15.448242,9.750977,8.849609,12.577148
8.913086,11.50293,8.076172,8.271484,11.657227
5.310547,9.342773,4.694336,5.522461,7.557617
5.0195312,12.770508,5.1152344,4.6796875,8.108398
7.373047,14.75293,11.912109,8.40625,12.3828125
9.111328,16.496094,11.027344,12.056641,12.734375
11.888672,17.21875,11.267578,11.708008,14.47168
14.053711,17.152344,11.672852,13.6796875,16.411133
16.527344,15.827148,13.09375,14.073242,15.421875
14.791992,14.9609375,13.230469,15.401367,14.795898
12.1015625,16.279297,11.751953,11.446289,14.793945
12.454102,18.174805,13.1484375,12.385742,15.657227
14.342773,20.61914,16.611328,14.958008,18.282227
16.789062,24.738281,20.460938,20.624023,22.80957
21.951172,25.87207,20.902344,21.768555,23.314453
24.655273,21.810547,29.105469,29.382812,23.577148
26.63379,21.06836,29.966797,30.032227,22.643555
27.108398,22.15625,27.026367,27.695312,21.754883
19.293945,15.03418,13.96875,12.658203,11.582031
8.951172,20.770508,7.064453,8.168945,16.30957
17.242188,23.547852,6.6464844,6.3095703,19.591797
20.466797,22.189453,12.397461,13.888672,17.225586
15.15918,19.36914,8.484375,5.2617188,15.787109
12.777344,18.128906,7.857422,9.40332,14.575195
7.163086,7.9365234,8.299805,9.573242,7.9208984
5.9570312,8.538086,6.8291016,6.8271484,4.727539
4.223633,8.524414,5.6953125,6.8691406,4.2333984
4.3085938,11.413086,8.0546875,6.955078,4.65625
4.1416016,8.061523,8.995117,5.008789,4.0273438
4.3583984,5.879883,2.9970703,4.78125,4.3583984
5.890625,8.515625,3.4892578,4.0546875,7.03125
8.808594,11.879883,3.1445312,4.9589844,14.623047
11.544922,11.7890625,4.0439453,4.046875,17.87793
20.42871,14.069336,8.863281,8.5,17.75586
22.660156,14.412109,12.995117,10.689453,16.686523
21.05664,11.886719,15.833984,9.878906,15.8359375
19.867188,12.8984375,19.007812,9.956055,18.164062
19.532227,13.536133,19.60254,8.274414,19.632812
17.226562,14.401367,18.09961,8.842773,17.851562
12.850586,11.891602,18.31836,8.277344,16.939453
10.392578,7.5927734,17.988281,7.088867,14.604492
8.047852,7.401367,13.376953,5.8310547,11.294922
13.329102,14.602539,11.660156,6.65625,10.772461
15.4453125,15.371094,10.194336,9.560547,11.373047
18.504883,13.27832,11.649414,8.996094,11.126953
16.728516,15.428711,12.717773,6.3496094,13.362305
11.041992,14.888672,12.657227,12.709961,13.683594
13.698242,10.356445,11.780273,3.2939453,9.4296875
14.141602,6.705078,7.772461,3.1357422,7.826172
11.636719,4.479492,5.571289,2.1269531,4.5166016
3.4824219,3.5166016,4.600586,3.0859375,2.6640625
6.064453,4.189453,5.7822266,4.8251953,7.5791016
13.344727,7.6396484,7.989258,7.448242,8.3828125
14.178711,8.621094,12.905273,8.555664,7.651367
17.27832,14.875,14.228516,12.160156,8.129883
17.930664,14.919922,16.700195,11.979492,16.651367
14.875977,25.142578,16.38086,14.026367,23.296875
14.388672,23.02832,18.041992,11.987305,21.16504
16.094727,19.476562,14.930664,10.350586,16.280273
15.428711,18.865234,14.716797,10.946289,18.082031
15.024414,24.623047,15.52832,12.18457,22.263672
19.769531,24.172852,12.716797,8.515625,22.085938
19.390625,23.84961,11.657227,3.321289,21.88086
20.503906,22.105469,9.5625,9.366211,21.143555
21.902344,19.140625,14.697266,15.595703,19.66211
19.523438,13.823242,15.297852,15.448242,17.544922
13.833984,15.317383,13.770508,10.643555,13.878906
11.603516,14.396484,13.275391,7.8720703,12.125
11.113281,12.625977,10.060547,7.993164,10.487305
9.34668,10.529297,7.897461,6.9804688,8.091797
6.7910156,9.595703,6.1083984,5.1220703,5.588867
5.7539062,9.671875,9.049805,6.8916016,10.625
8.280273,9.416016,8.96875,8.052734,9.871094
7.538086,9.473633,8.643555,7.9453125,8.129883
3.1054688,6.3496094,5.166992,5.0820312,3.3271484
5.2890625,5.0527344,3.2177734,4.6083984,6.7470703
8.268555,4.791992,2.6259766,4.34375,3.9765625
10.396484,6.3378906,3.8261719,4.6552734,8.431641
10.6328125,7.4345703,3.8378906,4.3720703,10.549805
12.733398,8.4140625,8.9453125,8.810547,11.911133
16.101562,11.9296875,8.839844,9.885742,16.850586
14.353516,11.306641,8.09375,8.796875,15.946289
12.365234,14.955078,3.4199219,6.7822266,17.253906
12.0625,16.08789,5.3789062,6.129883,18.105469
12.203125,15.24707,4.5371094,5.0478516,15.017578
11.805664,14.87793,5.2871094,5.1679688,15.561523
12.50293,16.039062,4.4404297,5.294922,14.327148
14.7578125,16.543945,9.583008,6.7578125,16.05664
14.34082,16.197266,9.886719,9.295898,17.43457
16.830078,16.03125,7.368164,7.9208984,16.382812
19.15625,14.884766,9.860352,8.876953,16.529297
20.319336,16.448242,8.268555,8.214844,16.863281
20.420898,17.039062,11.392578,6.7578125,18.02832
21.391602,16.35254,16.179688,5.1875,18.87207
21.137695,16.774414,17.177734,9.582031,19.16211
22.612305,17.395508,17.0,20.625,20.408203
22.989258,17.388672,20.973633,23.549805,20.367188
23.980469,16.78418,20.268555,21.480469,20.075195
18.33789,16.555664,22.836914,17.18457,19.061523
16.44629,20.461914,19.28711,17.450195,19.802734
17.855469,18.929688,16.106445,16.813477,18.263672
17.770508,15.047852,17.015625,17.107422,14.59668
16.375977,11.708008,17.65918,16.84082,12.746094
12.858398,11.785156,15.545898,14.604492,10.541992
12.816406,11.467773,13.286133,12.087891,10.847656
9.623047,9.793945,9.891602,8.616211,8.230469
5.265625,9.818359,5.1972656,6.557617,7.765625
3.7197266,10.4140625,4.833008,6.196289,9.655273
4.8916016,11.061523,2.9609375,5.149414,6.338867
6.676758,13.696289,4.4492188,6.029297,11.526367
9.628906,13.366211,7.915039,6.642578,9.338867
12.925781,13.262695,11.392578,12.010742,13.689453
13.973633,13.051758,14.422852,15.836914,14.436523
11.459961,15.102539,12.083984,13.7109375,14.360352
11.441406,19.44336,8.389648,10.334961,15.958984
9.082031,18.263672,7.9628906,11.93457,12.954102
9.823242,12.707031,11.451172,13.665039,9.990234
7.3779297,11.536133,10.890625,13.682617,7.727539
8.318359,8.922852,11.84082,12.768555,10.103516
14.144531,13.859375,14.989258,14.875,12.03125
14.423828,11.140625,15.1640625,14.569336,12.897461
14.1171875,13.900391,13.25293,14.805664,12.532227
10.599609,19.618164,11.004883,8.634766,18.956055
11.62793,17.579102,11.5078125,11.2265625,17.009766
10.330078,19.407227,7.7841797,9.891602,13.756836
11.541992,22.702148,8.0703125,10.675781,19.713867
16.907227,21.964844,12.125977,14.255859,19.324219
19.55371,21.878906,14.902344,15.524414,20.657227
19.128906,18.417969,16.53418,17.046875,19.773438
16.089844,21.262695,17.759766,17.46289,19.699219
13.532227,20.916016,14.606445,13.881836,16.996094
13.447266,17.444336,9.552734,12.771484,15.638672
11.325195,15.50293,8.896484,10.782227,12.602539
9.316406,15.158203,5.1904297,10.525391,11.901367
7.232422,14.307617,4.946289,10.884766,10.05957
13.478516,13.095703,10.702148,12.069336,11.717773
14.046875,12.040039,14.022461,12.723633,12.860352
13.536133,8.494141,10.919922,10.005859,9.241211
4.3583984,5.1328125,10.029297,11.103516,4.283203
4.4628906,6.3759766,5.8291016,6.8095703,9.091797
