"[299, 255]","[227, 248]","[287, 319]","[279, 328]","[230, 262]"
6.017578,7.25,6.7695312,5.930664,4.883789
6.5615234,12.6875,2.5185547,2.3613281,7.651367
6.5253906,11.720703,4.9833984,6.9365234,8.948242
11.68457,12.094727,9.113281,10.444336,11.209961
12.811523,8.390625,10.734375,11.452148,9.9296875
12.700195,5.508789,10.97168,13.1171875,7.5302734
8.962891,8.3984375,8.384766,7.955078,7.3085938
4.40625,6.734375,4.3115234,7.1484375,5.942383
3.3242188,7.055664,7.100586,5.026367,5.381836
4.1132812,6.3632812,2.819336,4.9257812,4.354492
4.801758,6.620117,5.3320312,5.7734375,7.4248047
10.795898,6.5117188,12.381836,10.115234,10.083984
10.667969,6.3320312,10.171875,12.012695,10.203125
10.692383,9.220703,9.057617,10.925781,9.19043
8.333984,10.365234,6.618164,8.755859,9.317383
3.2441406,10.453125,6.2939453,5.8564453,8.798828
5.642578,7.5595703,3.1689453,4.743164,7.1953125
6.4921875,8.977539,2.4863281,4.993164,6.560547
7.805664,10.248047,7.8125,5.895508,10.81543
9.162109,10.707031,9.392578,9.949219,10.248047
9.055664,11.28125,9.8828125,10.047852,9.1015625
7.1015625,13.475586,7.267578,6.7177734,9.032227
8.8671875,11.496094,3.678711,3.4853516,5.9902344
11.1953125,11.199219,4.4228516,3.5019531,6.254883
10.580078,8.672852,3.8779297,3.553711,2.4521484
9.275391,8.390625,3.609375,2.913086,4.0966797
8.251953,4.819336,4.129883,3.5800781,4.7285156
9.046875,7.4990234,4.095703,4.607422,6.9023438
8.797852,7.7021484,4.2539062,4.828125,7.4658203
9.456055,5.4560547,10.330078,7.5185547,7.6503906
6.908203,7.338867,9.970703,7.564453,8.089844
4.911133,10.325195,7.4121094,5.013672,10.087891
6.9384766,13.55957,2.8710938,6.9072266,12.592773
10.730469,16.000977,15.833984,10.151367,15.791016
12.385742,17.507812,15.844727,10.994141,16.517578
12.702148,18.631836,18.672852,12.450195,17.277344
15.511719,18.984375,15.78125,13.109375,17.453125
15.126953,16.390625,13.480469,12.448242,15.40625
14.678711,12.026367,9.986328,11.686523,10.076172
12.344727,12.8203125,9.057617,9.128906,10.958984
10.753906,12.388672,9.84082,8.723633,11.134766
11.541992,14.018555,11.161133,11.03125,11.512695
14.074219,14.610352,12.428711,11.464844,14.704102
15.754883,13.394531,12.931641,15.348633,14.537109
14.365234,11.012695,16.646484,15.845703,12.902344
12.9375,12.703125,13.162109,12.030273,14.193359
8.107422,12.538086,10.705078,10.454102,12.857422
5.319336,10.663086,10.954102,5.4589844,10.547852
7.9765625,12.220703,11.15918,7.8134766,12.174805
10.624023,13.741211,5.3554688,9.591797,13.865234
11.750977,13.676758,9.668945,10.9765625,12.982422
14.115234,14.296875,10.121094,12.911133,15.299805
16.082031,12.81543,14.155273,14.15918,15.40918
14.4453125,12.484375,13.402344,12.59668,14.708008
12.541016,14.06543,11.056641,8.880859,13.692383
10.96875,14.376953,6.366211,5.0507812,12.816406
11.056641,13.485352,5.9316406,4.8183594,10.223633
12.842773,13.7734375,5.828125,5.290039,10.649414
14.283203,14.561523,12.2734375,10.44043,13.046875
13.895508,14.786133,15.393555,11.458984,14.356445
14.749023,14.927734,12.845703,11.739258,14.984375
14.3984375,14.520508,13.290039,10.80957,14.701172
13.634766,9.064453,11.327148,11.376953,9.071289
10.5625,10.347656,8.027344,9.095703,10.084961
10.56543,12.955078,11.214844,12.483398,9.263672
11.536133,12.894531,12.399414,14.536133,11.092773
13.376953,11.746094,12.870117,13.944336,12.841797
16.59961,9.1796875,12.932617,14.016602,13.670898
16.192383,7.557617,15.258789,13.533203,11.357422
13.1640625,10.816406,13.272461,14.018555,9.637695
9.28125,10.834961,11.640625,10.120117,9.672852
1.9433594,9.354492,7.7734375,6.286133,9.504883
4.1757812,9.908203,2.9472656,4.0351562,10.423828
6.895508,10.083008,3.9384766,5.7304688,9.488281
7.4785156,10.455078,4.6757812,6.6015625,10.448242
9.103516,11.310547,7.8828125,8.519531,10.78125
9.067383,12.331055,9.981445,10.3671875,12.869141
7.345703,12.40332,7.8496094,8.748047,14.152344
4.4121094,11.31543,3.6123047,6.495117,13.441406
6.1601562,9.479492,4.419922,6.9248047,10.201172
6.3427734,10.246094,5.4921875,7.4990234,9.404297
6.9208984,8.095703,5.8359375,7.631836,9.435547
8.34082,6.8427734,3.8896484,7.7148438,6.9335938
7.698242,7.758789,4.0166016,5.2041016,7.5908203
5.1904297,5.0039062,3.6953125,5.0996094,6.100586
6.1083984,5.7558594,6.107422,5.086914,6.338867
11.325195,7.631836,6.453125,3.8613281,7.4472656
14.223633,7.3378906,5.560547,3.2636719,6.939453
16.371094,6.8125,6.5009766,3.4863281,7.5654297
17.30371,7.810547,7.7753906,2.7617188,11.90332
19.473633,8.702148,12.428711,4.3085938,14.919922
20.68457,6.364258,14.46582,9.336914,15.939453
20.797852,7.223633,15.688477,12.959961,14.834961
19.770508,6.0908203,13.660156,13.145508,14.168945
15.810547,8.227539,10.643555,10.248047,13.737305
22.581055,8.353516,9.709961,5.8759766,14.771484
22.786133,10.785156,8.099609,3.1044922,15.329102
22.189453,11.7265625,7.076172,3.8691406,15.28418
22.729492,10.060547,12.251953,4.473633,16.763672
20.179688,10.368164,12.852539,5.1279297,16.966797
19.216797,12.24707,13.676758,8.597656,16.299805
20.391602,12.348633,14.145508,8.830078,13.7421875
19.081055,7.897461,12.428711,5.4873047,11.984375
22.954102,8.584961,7.7734375,3.4589844,14.313477
23.745117,9.339844,8.162109,4.359375,14.313477
24.450195,9.978516,8.957031,4.4453125,15.583008
23.771484,11.155273,12.021484,4.939453,16.401367
26.952148,18.154297,13.986328,10.597656,14.501953
20.174805,14.540039,14.586914,12.886719,15.461914
22.373047,12.688477,11.9140625,8.149414,12.561523
22.379883,10.5703125,7.6171875,12.336914,11.482422
16.223633,9.326172,5.7509766,7.435547,10.310547
6.104492,8.280273,6.665039,7.5185547,6.2539062
6.834961,8.930664,4.772461,6.5,6.484375
5.819336,5.588867,5.28125,5.7285156,7.8476562
6.833008,6.0615234,5.8310547,6.194336,8.583984
6.8935547,5.3251953,6.5996094,6.790039,8.163086
6.7910156,6.916992,5.9277344,6.239258,7.071289
4.5947266,5.5273438,7.6591797,4.3808594,5.0898438
2.9794922,5.3808594,3.8046875,4.223633,4.4228516
2.2636719,4.2998047,3.8076172,3.6523438,4.223633
2.0410156,3.8457031,2.9873047,3.3964844,2.6425781
6.7246094,4.9277344,4.182617,3.8935547,5.626953
7.1533203,5.276367,5.2617188,5.5859375,6.876953
7.036133,7.7402344,6.40625,5.6132812,7.111328
6.716797,7.8789062,6.583008,7.709961,6.3945312
5.350586,6.239258,9.87793,7.5429688,4.459961
11.827148,6.0908203,8.364258,5.8203125,3.772461
12.134766,5.3398438,7.239258,6.3466797,4.930664
12.03418,3.586914,6.455078,6.348633,5.428711
11.700195,1.8496094,7.607422,8.095703,4.3916016
9.599609,5.1552734,7.3222656,9.15918,5.9277344
6.580078,5.8945312,8.5234375,10.881836,7.3535156
5.458008,5.305664,8.077148,7.3115234,5.7646484
11.637695,5.9335938,8.587891,5.461914,4.1171875
12.125,6.411133,8.121094,6.9433594,4.513672
11.383789,5.489258,4.8564453,6.0429688,4.5078125
8.318359,5.763672,4.625,5.161133,4.419922
3.34375,4.765625,4.1347656,3.3603516,5.0654297
6.051758,4.3867188,6.3378906,5.9716797,6.3710938
5.916992,4.7753906,7.180664,6.913086,6.4970703
5.8271484,5.711914,6.9560547,5.8789062,5.6308594
3.5966797,5.390625,5.6464844,6.4404297,3.8642578
6.7578125,5.977539,5.453125,3.6738281,4.2304688
6.8115234,5.5703125,4.4023438,3.4609375,4.408203
4.2958984,5.6796875,2.2949219,2.381836,4.600586
3.8164062,4.477539,2.1083984,2.4101562,4.4941406
6.390625,4.5302734,5.8164062,5.7597656,6.640625
8.325195,5.260742,5.8671875,6.870117,7.473633
8.168945,5.6591797,7.7734375,8.0703125,6.548828
9.660156,6.2529297,7.46875,6.3876953,4.7929688
10.014648,6.9375,8.845703,6.2773438,4.9414062
10.389648,5.0214844,8.275391,5.8164062,4.9472656
9.168945,3.4892578,10.140625,5.234375,3.5839844
9.114258,1.6308594,9.811523,6.6152344,5.125
9.212891,5.1132812,9.370117,6.040039,9.448242
10.008789,5.897461,10.243164,9.373047,10.306641
10.464844,6.2148438,10.466797,9.255859,8.90625
7.625,9.364258,8.203125,7.7490234,6.109375
7.580078,9.237305,3.6513672,3.84375,7.291992
7.111328,4.3984375,2.2167969,4.767578,7.064453
10.881836,5.2998047,5.078125,3.6621094,4.739258
11.251953,5.3632812,8.919922,4.680664,7.6367188
8.526367,4.6484375,10.011719,5.1396484,9.668945
8.026367,6.7148438,10.541016,8.3515625,9.15332
11.136719,6.2871094,10.149414,8.624023,6.5322266
11.59082,2.0771484,8.779297,7.3720703,4.6621094
13.979492,4.729492,7.989258,5.2246094,4.1992188
14.2734375,3.1777344,7.573242,5.040039,4.040039
9.5390625,3.7636719,9.5703125,5.8896484,3.5800781
9.081055,2.9433594,9.135742,7.9501953,3.5234375
8.337891,4.165039,9.772461,9.171875,7.015625
8.155273,5.448242,9.939453,9.526367,7.6679688
7.9248047,5.2128906,6.28125,8.603516,6.138672
11.297852,4.819336,10.712891,7.1152344,4.2177734
12.545898,7.086914,10.796875,8.521484,6.6972656
11.439453,7.4375,7.932617,7.748047,5.4404297
7.3896484,16.21582,7.2109375,10.482422,9.994141
6.7626953,15.095703,8.338867,8.640625,12.103516
12.56543,12.319336,8.431641,9.609375,12.49707
13.731445,9.996094,13.008789,13.017578,12.636719
14.430664,9.638672,12.092773,12.045898,12.655273
11.009766,7.298828,8.233398,8.583008,8.013672
6.4746094,9.350586,7.149414,5.2197266,5.5625
5.2314453,8.827148,4.5634766,5.310547,5.3183594
4.8222656,6.930664,3.8046875,4.9960938,3.4023438
6.6484375,9.470703,6.3085938,6.0273438,7.029297
7.821289,10.31543,9.046875,7.7265625,10.411133
10.106445,16.198242,12.467773,10.602539,13.518555
9.822266,8.7734375,5.7070312,6.1503906,10.995117
17.499023,8.140625,7.5341797,5.826172,6.5625
15.7734375,8.02832,10.8671875,6.044922,9.521484
10.125,13.074219,16.140625,7.1875,9.859375
5.6464844,11.287109,19.167969,13.973633,11.636719
7.421875,14.337891,27.00879,12.387695,19.427734
5.8359375,17.970703,26.24707,14.888672,20.74414
9.855469,18.993164,15.137695,11.044922,20.41211
8.300781,18.99414,10.21875,11.823242,18.99121
9.705078,15.180664,8.44043,9.2578125,15.151367
9.947266,10.0078125,5.9208984,6.868164,12.069336
10.665039,8.102539,3.8183594,5.2148438,5.6972656
9.895508,6.5722656,2.4580078,5.6523438,3.897461
7.28125,3.4892578,8.783203,4.223633,3.546875
8.012695,6.118164,10.626953,9.71875,5.513672
9.5,6.084961,10.356445,9.499023,7.2939453
8.842773,5.2685547,6.459961,5.508789,7.0546875
2.5507812,5.8007812,3.883789,3.9667969,5.5703125
3.6044922,6.5839844,5.7158203,4.083008,5.245117
4.4521484,8.114258,5.9521484,4.0898438,4.376953
3.8408203,9.192383,6.4521484,3.5625,6.9345703
5.6328125,9.34375,4.794922,6.375,10.6328125
8.450195,10.324219,7.5546875,9.236328,11.59375
12.051758,9.553711,11.28125,12.473633,11.293945
12.551758,7.0751953,11.193359,11.77832,9.807617
9.470703,5.0302734,7.2490234,8.5,4.4628906
3.8720703,6.354492,5.6464844,7.314453,4.290039
3.328125,6.876953,4.916992,6.709961,4.350586
2.4580078,5.930664,2.4238281,2.9042969,4.0302734
6.5458984,3.3789062,2.631836,7.7158203,4.948242
10.723633,3.03125,7.8496094,9.527344,8.770508
11.056641,4.0654297,8.6328125,10.71875,9.793945
7.6396484,6.944336,8.435547,8.634766,8.899414
6.1728516,8.15625,6.0585938,5.7441406,5.5097656
7.6933594,14.358398,5.2041016,5.3134766,10.300781
13.239258,16.91211,6.2529297,7.352539,14.939453
14.461914,13.792969,6.666992,9.360352,12.579102
13.079102,9.520508,5.583008,9.357422,8.4609375
11.071289,8.120117,6.2001953,8.595703,7.375
8.816406,8.387695,7.161133,9.068359,6.3916016
8.217773,9.410156,9.522461,8.950195,8.5234375
7.057617,8.458008,4.977539,5.705078,6.923828
6.8652344,10.239258,3.7851562,4.013672,9.34082
4.803711,11.186523,7.060547,8.043945,10.87793
9.102539,11.803711,8.481445,9.041992,9.961914
11.263672,10.8984375,9.181641,7.8203125,11.986328
12.3828125,10.379883,7.5126953,7.178711,11.952148
13.076172,9.969727,10.0234375,10.037109,13.048828
11.59375,8.134766,10.234375,10.083008,9.28125
9.03418,4.810547,6.8564453,7.7783203,4.4033203
4.7333984,5.71875,5.6835938,5.676758,2.6972656
