"[299, 255]","[227, 248]","[287, 319]","[279, 328]","[230, 262]"
23.574219,9.579102,13.15918,13.34082,19.388672
26.50586,10.399414,17.213867,11.232422,20.613281
27.56836,10.609375,18.393555,8.498047,21.12793
29.188477,12.582031,20.944336,8.286133,22.175781
29.172852,11.883789,20.46875,7.897461,20.66211
25.838867,12.732422,17.320312,9.763672,18.003906
25.569336,9.651367,17.682617,13.623047,18.293945
25.564453,5.3896484,16.541016,13.712891,17.87207
25.16504,7.2353516,14.908203,11.75,15.522461
27.692383,8.026367,15.049805,12.37207,14.34375
27.485352,10.722656,15.442383,11.485352,16.138672
26.907227,11.8515625,18.248047,12.396484,17.78125
26.021484,10.204102,18.93164,10.050781,19.544922
23.536133,10.024414,17.707031,10.067383,19.509766
24.374023,14.192383,19.121094,14.075195,17.717773
23.418945,16.174805,19.021484,14.152344,18.613281
23.15332,13.681641,18.3125,13.231445,18.367188
23.076172,14.837891,17.558594,13.362305,17.345703
23.3125,14.920898,15.832031,10.645508,17.291992
20.882812,13.75293,16.555664,15.40918,17.079102
19.936523,14.119141,17.03418,13.631836,16.067383
20.38086,13.264648,16.677734,10.328125,14.386719
20.447266,11.755859,14.59082,9.795898,12.924805
19.299805,9.203125,14.638672,11.511719,11.55957
18.791016,9.091797,16.419922,12.407227,9.947266
17.426758,4.8164062,14.864258,11.493164,8.331055
18.02539,6.4003906,13.517578,13.15332,6.2871094
17.75586,7.6523438,14.436523,14.425781,5.658203
14.416016,6.9921875,13.407227,12.314453,6.7539062
13.467773,6.901367,11.1015625,11.503906,5.4189453
13.338867,6.7783203,10.984375,9.5078125,5.475586
11.330078,6.7910156,9.619141,9.015625,5.8916016
12.606445,7.801758,8.227539,7.3291016,6.9453125
13.519531,7.8183594,7.8867188,6.814453,6.2802734
14.900391,11.238281,8.341797,9.474609,9.265625
15.743164,11.222656,8.333008,9.473633,10.356445
14.291992,8.791016,7.8789062,10.5703125,9.380859
16.46289,6.852539,8.168945,12.025391,6.8867188
17.404297,7.7871094,10.839844,10.814453,4.6816406
16.84375,6.826172,10.533203,11.311523,4.2929688
15.237305,6.1904297,8.74707,11.177734,6.633789
15.225586,6.3671875,8.682617,8.991211,6.328125
16.074219,5.1914062,9.389648,9.84375,4.7177734
16.010742,6.765625,6.970703,10.454102,5.051758
14.34668,6.298828,5.529297,10.766602,5.7460938
15.9375,5.205078,5.4414062,9.390625,5.4052734
15.961914,5.754883,6.334961,8.573242,5.817383
14.707031,4.013672,6.0878906,8.4921875,2.8232422
13.591797,4.3535156,5.895508,8.410156,4.0351562
10.908203,3.9970703,5.801758,7.798828,4.2001953
12.249023,4.345703,6.0,7.604492,4.3583984
12.12207,2.7558594,5.8251953,9.272461,5.59375
10.738281,4.618164,5.798828,6.8251953,5.598633
9.986328,5.265625,4.9160156,7.2509766,2.7041016
10.302734,7.8164062,4.196289,6.8515625,4.807617
11.011719,5.5615234,4.7822266,8.541992,4.935547
11.956055,7.875,4.993164,8.348633,4.7929688
11.299805,10.262695,4.9941406,7.689453,7.908203
10.004883,10.264648,4.796875,8.723633,8.577148
12.6875,8.832031,4.0458984,10.978516,10.269531
12.700195,7.34375,4.319336,9.84668,10.108398
13.313477,8.332031,5.466797,9.498047,8.616211
13.785156,12.383789,6.3007812,10.133789,11.386719
14.199219,13.963867,4.7197266,8.31543,14.385742
15.107422,14.387695,6.6396484,10.150391,14.904297
14.818359,16.205078,9.728516,10.37793,18.086914
16.668945,17.62793,14.845703,13.569336,20.680664
17.140625,16.166992,16.192383,15.686523,20.261719
16.651367,16.949219,16.259766,14.625,20.188477
15.5078125,17.345703,13.959961,15.328125,18.533203
15.657227,16.542969,13.345703,15.143555,18.40332
16.71289,18.148438,11.59668,13.988281,19.738281
15.076172,18.155273,16.794922,13.59375,20.118164
13.876953,16.543945,18.695312,12.701172,18.789062
12.922852,16.385742,15.825195,10.072266,18.376953
12.174805,16.52246,11.378906,7.703125,16.929688
12.953125,16.324219,10.84082,6.0615234,16.767578
13.337891,16.629883,5.451172,6.236328,18.963867
12.513672,16.216797,7.419922,11.097656,18.139648
13.776367,16.40332,8.342773,13.280273,18.149414
14.280273,17.069336,16.512695,11.931641,17.234375
14.873047,16.57129,14.259766,12.842773,17.163086
15.78125,16.169922,13.416016,13.029297,17.118164
15.916992,15.884766,13.764648,10.919922,16.237305
14.561523,14.008789,10.767578,10.838867,13.509766
17.893555,15.000977,11.865234,9.197266,11.108398
13.691406,16.328125,11.241211,9.863281,11.292969
12.143555,18.78125,10.386719,10.774414,17.868164
17.280273,18.737305,17.451172,16.448242,18.520508
19.77832,18.269531,17.44043,17.207031,17.21289
14.611328,16.47754,13.052734,12.532227,14.208984
14.520508,16.838867,15.207031,14.46582,16.716797
14.893555,16.408203,15.144531,15.962891,18.077148
13.852539,18.195312,13.546875,12.306641,19.023438
18.067383,19.34668,15.53125,11.568359,20.669922
18.220703,19.279297,16.22754,11.964844,18.358398
16.467773,21.03711,16.496094,15.989258,19.80664
16.0,19.798828,17.72754,18.192383,19.854492
17.600586,18.4375,16.918945,16.757812,18.708008
19.105469,18.376953,19.013672,20.41504,19.963867
21.65918,18.47754,16.813477,19.941406,22.014648
22.594727,17.103516,18.194336,18.134766,19.115234
20.163086,17.237305,17.394531,15.704102,18.615234
18.192383,16.80957,11.800781,11.249023,17.120117
17.04004,17.80664,10.791992,8.7109375,17.64746
17.300781,17.081055,9.241211,11.334961,17.37793
16.47168,15.133789,11.521484,12.306641,14.520508
13.956055,14.636719,11.755859,11.084961,14.788086
14.181641,13.464844,12.518555,13.890625,14.094727
13.202148,11.420898,11.381836,11.391602,13.139648
9.12207,12.205078,6.3623047,6.015625,10.81543
15.706055,22.032227,7.116211,8.591797,18.822266
18.49707,21.55957,16.176758,13.612305,20.591797
15.904297,23.90918,16.964844,15.575195,20.603516
17.992188,25.311523,18.625977,15.256836,22.487305
21.325195,25.447266,15.87793,13.5859375,22.171875
22.120117,21.069336,14.863281,10.236328,19.139648
20.957031,25.262695,11.362305,11.21875,22.09082
14.717773,25.245117,12.283203,14.956055,22.418945
17.361328,20.328125,13.060547,12.391602,20.12207
14.7265625,18.793945,9.866211,9.918945,16.03711
12.62793,19.634766,10.171875,10.842773,16.301758
12.639648,19.375977,13.567383,11.783203,17.296875
17.457031,20.745117,15.405273,14.089844,18.563477
17.362305,22.944336,16.453125,15.818359,22.920898
18.394531,27.973633,17.746094,18.501953,25.879883
19.185547,28.327148,16.458008,17.870117,26.166992
14.404297,27.533203,18.341797,16.058594,25.530273
15.568359,21.655273,14.946289,15.334961,21.191406
12.973633,18.5,12.880859,13.020508,16.109375
11.366211,12.1875,9.792969,11.255859,13.270508
9.650391,9.59082,9.59375,10.43457,9.759766
8.948242,7.7685547,8.975586,9.027344,7.801758
7.7998047,4.881836,7.102539,6.0703125,3.046875
3.8603516,9.760742,4.4873047,6.1933594,6.7460938
8.469727,14.305664,6.1347656,8.975586,9.368164
14.258789,20.170898,7.208008,12.105469,16.80371
17.405273,23.392578,9.307617,15.418945,24.644531
20.720703,24.276367,15.43457,15.439453,25.069336
22.717773,23.69336,19.297852,16.052734,23.954102
21.351562,16.704102,19.27246,12.910156,16.374023
14.566406,12.588867,14.300781,5.236328,12.387695
10.003906,9.793945,5.4248047,5.541992,9.852539
8.8359375,11.501953,7.5273438,4.959961,10.967773
10.689453,11.72168,10.892578,9.261719,11.110352
12.55957,16.74414,10.817383,9.012695,13.182617
16.490234,20.575195,4.8632812,6.881836,21.381836
18.19629,20.643555,15.34082,15.519531,23.939453
17.84668,22.010742,17.59961,17.544922,25.52246
18.506836,22.81543,18.362305,18.682617,25.929688
19.31836,23.441406,18.97754,20.027344,27.189453
20.512695,23.374023,20.417969,22.489258,28.65332
20.782227,26.217773,22.206055,24.692383,28.948242
22.327148,28.603516,27.391602,24.732422,30.075195
26.726562,28.308594,30.298828,29.106445,29.745117
24.279297,22.482422,22.699219,24.120117,23.256836
22.506836,20.685547,23.88086,23.88379,18.417969
24.410156,19.414062,20.585938,21.339844,18.59961
14.223633,19.635742,16.146484,16.049805,17.301758
14.975586,19.75586,15.761719,15.9296875,15.4921875
15.673828,17.080078,15.595703,16.488281,14.521484
15.883789,17.492188,13.745117,13.509766,13.875
15.056641,16.679688,10.619141,10.985352,13.62793
15.979492,14.737305,13.796875,13.369141,14.391602
14.995117,12.806641,13.53418,13.946289,14.915039
14.990234,10.910156,13.356445,14.49707,12.37207
11.928711,8.454102,10.485352,10.240234,9.4453125
13.666016,9.510742,11.823242,10.168945,11.833984
15.271484,11.943359,12.325195,11.668945,13.133789
15.734375,10.408203,10.380859,11.797852,12.013672
15.224609,8.881836,9.566406,10.816406,11.908203
15.823242,10.666992,11.433594,12.125977,14.610352
15.729492,11.613281,12.774414,11.158203,14.700195
15.03418,11.772461,11.966797,11.717773,12.801758
13.777344,11.333984,10.990234,13.393555,10.349609
9.958984,12.515625,12.97168,13.868164,13.246094
11.790039,13.870117,15.9453125,15.838867,13.183594
11.612305,14.673828,15.966797,15.857422,14.102539
9.925781,15.157227,17.123047,14.857422,14.37793
17.348633,15.600586,17.71582,16.666992,16.925781
17.954102,15.211914,20.40332,17.94336,17.828125
19.62207,15.535156,18.401367,17.078125,16.848633
16.31543,13.605469,17.05957,15.207031,11.349609
11.532227,12.933594,15.947266,13.868164,12.249023
9.336914,13.282227,13.524414,12.274414,10.791992
10.829102,12.779297,10.369141,9.384766,8.638672
9.083984,13.582031,10.75293,9.893555,10.067383
13.40332,15.21875,16.3125,16.124023,16.36914
15.854492,18.44043,19.445312,18.070312,19.175781
16.22754,19.208984,18.341797,16.47754,20.544922
15.700195,23.118164,19.794922,19.826172,22.061523
19.87207,24.833984,23.267578,24.429688,23.648438
21.79004,27.513672,19.40039,20.282227,20.535156
18.631836,25.71582,18.648438,19.72461,21.24414
17.646484,23.054688,16.458984,18.033203,21.09668
20.59375,24.895508,17.671875,18.364258,22.63086
23.637695,24.019531,20.65625,18.796875,23.11914
20.677734,23.550781,16.473633,18.560547,20.814453
13.688477,24.644531,14.603516,16.348633,20.85254
13.34668,23.62207,14.357422,15.211914,20.50879
13.712891,23.668945,14.666016,15.8515625,20.856445
12.574219,24.114258,14.489258,16.013672,20.779297
12.707031,23.950195,14.561523,15.15918,21.998047
17.13086,25.683594,18.625,19.16504,23.29004
18.661133,24.225586,20.554688,20.139648,24.438477
18.49414,22.885742,18.842773,17.65039,23.63086
14.282227,21.836914,16.277344,14.501953,20.951172
11.469727,20.925781,12.961914,12.000977,17.885742
11.035156,18.839844,10.760742,11.942383,16.521484
9.547852,18.367188,11.053711,10.548828,16.327148
8.604492,16.981445,9.696289,10.588867,15.785156
11.794922,15.731445,12.65332,12.15625,16.103516
14.036133,16.158203,13.228516,13.581055,16.454102
14.366211,14.557617,13.509766,13.0390625,13.720703
5.798828,12.230469,7.020508,7.7470703,8.511719
3.2851562,10.081055,4.5097656,7.5615234,6.5078125
7.442383,13.875,7.368164,6.9960938,11.813477
9.121094,17.745117,13.227539,7.5546875,15.9765625
12.34375,18.393555,18.483398,13.782227,17.020508
12.916992,17.886719,17.442383,13.77832,15.818359
13.290039,15.310547,13.160156,12.614258,13.935547
13.047852,12.458984,10.807617,9.146484,13.404297
11.6171875,11.856445,9.826172,7.2753906,10.760742
8.433594,10.77832,7.635742,6.915039,7.0351562
2.9570312,9.141602,6.7783203,4.194336,4.0625
4.807617,7.7783203,3.0439453,2.0351562,9.43457
6.9726562,14.587891,1.6474609,3.913086,11.643555
9.626953,17.19043,5.3935547,6.5214844,13.993164
17.620117,18.67871,8.979492,9.560547,15.453125
15.0390625,18.101562,10.3515625,9.463867,17.392578
14.082031,20.560547,10.2421875,9.433594,18.472656
14.2890625,19.882812,9.020508,12.139648,17.220703
16.700195,17.305664,12.279297,12.834961,14.550781
13.868164,14.069336,13.873047,12.146484,11.2109375
15.749023,14.026367,8.040039,9.231445,11.053711
15.12793,12.264648,12.450195,10.555664,12.582031
11.860352,12.569336,12.324219,10.417969,12.941406
11.131836,7.5664062,7.9316406,8.791016,10.27832
5.9960938,12.245117,4.814453,6.1552734,9.629883
11.363281,17.11914,10.922852,11.418945,16.023438
