"[299, 255]","[227, 248]","[287, 319]","[279, 328]","[230, 262]"
11.457031,15.953125,10.34668,11.015625,13.59082
11.521484,15.44043,8.31543,10.623047,10.439453
9.138672,12.368164,9.357422,9.2734375,7.7929688
9.649414,9.845703,8.583984,8.749023,9.362305
8.803711,9.079102,6.2929688,7.5341797,8.144531
6.373047,8.647461,7.0771484,5.736328,5.5390625
6.413086,9.723633,3.774414,6.5146484,6.3808594
9.568359,15.341797,8.999023,7.1621094,10.525391
13.917969,22.226562,10.204102,12.432617,20.935547
20.932617,27.69629,19.476562,21.751953,27.386719
25.863281,31.894531,24.81836,22.847656,31.956055
25.867188,31.799805,23.980469,20.716797,31.124023
23.326172,20.396484,15.8125,20.542969,18.451172
20.592773,19.539062,18.40039,21.363281,18.381836
20.027344,22.969727,14.84375,18.168945,16.726562
18.639648,20.993164,15.756836,15.300781,18.206055
19.098633,21.186523,19.138672,18.205078,18.49414
17.423828,18.347656,18.54004,18.183594,15.897461
17.017578,17.171875,18.655273,16.989258,14.793945
16.685547,17.617188,16.466797,15.155273,15.470703
17.707031,16.663086,14.157227,14.425781,15.311523
15.0703125,16.90332,13.5625,13.353516,13.9140625
13.712891,19.163086,10.262695,10.670898,13.984375
10.855469,18.563477,3.7890625,10.24707,12.079102
8.722656,17.101562,3.5195312,7.6904297,11.981445
5.5283203,15.441406,4.3564453,6.0371094,13.12793
5.798828,14.981445,3.4560547,5.9921875,11.3984375
6.2646484,12.152344,3.8076172,4.9160156,5.2441406
4.661133,7.098633,2.9228516,4.848633,4.274414
2.2021484,4.0722656,2.7578125,3.3134766,2.8017578
3.8398438,3.4677734,4.163086,5.1367188,4.493164
5.0810547,6.321289,4.041992,6.0839844,4.5791016
8.137695,7.444336,3.5654297,7.8339844,5.9179688
9.00293,9.508789,3.4345703,7.8671875,9.905273
9.65332,12.09082,2.008789,9.209961,12.618164
10.527344,12.863281,2.7382812,8.865234,14.754883
10.026367,12.251953,10.975586,9.097656,14.741211
9.841797,12.799805,6.5585938,9.362305,14.251953
10.662109,13.770508,3.8691406,9.991211,15.149414
11.206055,14.615234,4.033203,11.875,16.47754
12.079102,13.663086,18.617188,12.22168,15.576172
11.788086,13.765625,18.514648,7.1064453,13.59082
12.061523,17.013672,12.31543,7.5546875,17.023438
15.458008,17.131836,14.074219,9.887695,17.24414
15.962891,13.767578,13.583008,14.452148,14.807617
12.4453125,13.541992,12.359375,11.436523,12.65918
11.442383,15.088867,10.532227,4.9375,14.65332
11.152344,15.217773,9.991211,8.990234,16.89746
13.078125,16.894531,12.496094,10.136719,17.36621
13.363281,16.487305,14.104492,8.87207,16.426758
12.833984,13.05957,9.375,9.383789,11.822266
9.467773,9.727539,5.4765625,6.4472656,6.879883
7.198242,6.939453,6.2246094,7.6210938,6.270508
5.8476562,7.602539,6.3876953,7.4501953,5.59375
5.7373047,7.6152344,7.6933594,7.0253906,4.8476562
4.34375,9.454102,5.743164,5.404297,6.571289
4.4746094,11.223633,1.7988281,3.5517578,8.43457
5.216797,12.03418,2.913086,3.6933594,8.621094
4.6845703,10.649414,3.4257812,4.1748047,6.9345703
4.3007812,7.9746094,3.0205078,4.5078125,7.0029297
3.3164062,7.303711,3.0117188,4.4814453,6.6347656
5.8632812,7.3984375,3.3203125,4.7421875,5.5429688
6.6328125,4.9726562,2.8925781,4.1220703,4.333008
5.7333984,3.1298828,3.2480469,4.6533203,3.0878906
6.040039,4.661133,2.875,5.2783203,4.0742188
7.6123047,6.9697266,2.2265625,5.876953,5.165039
7.9160156,8.829102,2.8046875,6.4023438,8.05957
7.091797,12.518555,4.647461,7.4677734,13.7734375
9.90625,13.90625,11.408203,8.555664,14.073242
11.064453,12.791016,20.805664,15.147461,12.205078
9.966797,14.922852,22.174805,14.973633,13.452148
11.662109,15.37793,14.532227,13.459961,15.055664
13.186523,15.206055,14.135742,13.219727,13.958984
12.655273,12.889648,11.240234,10.416016,11.048828
11.282227,10.918945,11.025391,12.605469,8.68457
12.583984,11.948242,9.808594,11.563477,11.993164
13.717773,11.850586,10.625977,11.452148,11.318359
12.046875,10.381836,10.495117,10.1015625,8.678711
6.9296875,7.942383,9.27832,6.2382812,6.5527344
6.6123047,7.8359375,7.125,5.4003906,5.2373047
5.8359375,9.150391,7.776367,6.6308594,7.522461
4.6591797,9.854492,7.290039,5.3603516,9.3984375
7.8359375,10.643555,6.5722656,8.120117,10.09082
8.2578125,12.65625,7.7177734,7.881836,12.048828
10.322266,15.4609375,13.550781,8.399414,17.113281
12.913086,17.765625,46.05664,10.044922,16.833984
15.540039,18.242188,16.169922,11.411133,18.146484
17.55957,20.697266,17.363281,14.310547,21.145508
18.001953,24.27832,17.88379,18.766602,25.226562
24.754883,27.02246,23.370117,18.392578,29.887695
21.28125,21.884766,19.257812,20.335938,18.19336
18.825195,20.463867,17.745117,19.705078,19.30664
19.802734,22.748047,18.77246,21.90918,21.426758
17.739258,25.09082,19.11621,21.264648,24.139648
14.863281,22.779297,17.618164,18.125,19.670898
13.594727,20.919922,17.041016,17.240234,19.666016
15.236328,25.555664,12.530273,15.2578125,20.83789
14.393555,22.708008,8.864258,9.876953,20.06543
15.672852,22.480469,10.425781,12.516602,18.608398
13.359375,23.274414,11.083984,9.791992,21.075195
16.291016,20.829102,13.487305,14.59668,18.44043
16.257812,23.80957,12.261719,14.703125,18.109375
11.787109,21.78125,12.001953,14.9609375,18.19629
10.708008,19.169922,15.124023,18.336914,15.682617
13.394531,23.088867,19.297852,18.779297,18.396484
19.512695,23.52246,19.691406,21.205078,21.418945
19.408203,24.644531,17.80664,20.351562,23.313477
24.333008,25.986328,18.998047,17.279297,26.554688
22.632812,29.46875,19.68164,19.146484,28.53711
22.249023,33.114258,20.445312,20.083008,27.65039
19.60254,30.729492,20.450195,20.613281,26.207031
21.427734,29.38379,18.123047,16.595703,26.671875
14.584961,28.05371,15.861328,15.123047,22.004883
13.332031,20.166016,14.244141,14.537109,18.78418
13.323242,22.956055,14.123047,15.220703,20.810547
14.263672,22.202148,14.40332,15.995117,21.060547
13.719727,22.668945,14.044922,16.041992,19.857422
12.032227,24.551758,13.364258,13.064453,20.15039
9.211914,22.189453,12.935547,12.467773,17.490234
8.805664,20.995117,11.711914,11.8046875,17.576172
7.135742,17.298828,9.5078125,13.1875,16.595703
7.7617188,20.65332,11.44043,10.426758,15.2578125
6.2490234,19.043945,10.2734375,9.110352,18.441406
10.260742,19.503906,7.4570312,11.516602,18.054688
11.436523,19.036133,12.012695,12.722656,17.689453
9.203125,19.320312,11.018555,13.28418,15.413086
9.276367,14.604492,9.342773,12.512695,13.060547
7.9921875,13.84082,9.366211,13.035156,10.919922
5.236328,10.295898,5.8964844,10.676758,8.15625
4.9375,9.017578,4.364258,8.423828,6.9648438
2.9541016,7.734375,3.2197266,7.6777344,5.1132812
3.2265625,7.7539062,2.2441406,5.404297,2.756836
3.2265625,5.5498047,1.890625,5.9121094,3.2714844
3.2675781,5.1152344,3.897461,4.9853516,3.8691406
5.0742188,6.5351562,3.5791016,4.0927734,4.1865234
5.716797,6.873047,3.3300781,3.8603516,4.529297
5.4003906,6.9414062,2.819336,3.9423828,4.4589844
5.6904297,6.984375,3.3134766,4.267578,4.4648438
7.274414,6.3740234,3.8964844,4.345703,4.3964844
7.8310547,5.993164,4.151367,4.305664,4.0820312
7.033203,6.5791016,5.5273438,3.2929688,7.6640625
8.871094,7.020508,6.2685547,3.9365234,8.896484
10.589844,7.756836,6.131836,4.286133,11.546875
10.700195,7.8125,3.4853516,4.805664,11.397461
10.861328,7.1689453,4.3378906,6.291992,9.286133
10.064453,6.7382812,4.6884766,4.446289,8.620117
10.09668,6.772461,4.5390625,4.147461,8.423828
10.754883,6.0810547,1.6904297,3.1904297,9.599609
11.352539,6.3007812,2.8222656,4.0976562,10.323242
12.250977,7.1240234,4.6123047,5.379883,9.722656
13.694336,7.482422,5.010742,6.010742,7.392578
13.8671875,7.254883,4.9902344,5.6796875,4.192383
13.823242,7.491211,4.8945312,6.475586,5.453125
10.900391,7.2910156,4.6015625,6.4492188,5.227539
10.329102,7.5439453,4.823242,6.645508,3.3261719
11.1015625,7.213867,4.455078,6.6123047,2.5517578
14.824219,5.9121094,3.8632812,5.7460938,3.0761719
17.649414,4.833008,4.7070312,6.517578,4.0527344
17.488281,5.010742,4.9902344,7.754883,4.6621094
17.29004,4.9609375,4.432617,7.7626953,4.397461
12.71582,3.6660156,5.147461,7.0615234,4.5117188
8.214844,4.4189453,5.1660156,6.3339844,4.5625
5.3720703,4.083008,1.7060547,5.5341797,3.9658203
5.3691406,3.9052734,2.2753906,4.0390625,3.3623047
5.8359375,3.1074219,2.3027344,1.5664062,2.0097656
5.678711,4.1152344,2.4052734,1.4355469,3.243164
4.0634766,4.7617188,2.4902344,2.711914,3.477539
8.87793,7.1289062,3.5234375,3.3164062,4.298828
9.405273,7.0234375,2.9941406,3.3466797,4.0302734
7.5341797,6.0947266,6.4677734,5.2070312,7.364258
8.305664,5.4453125,8.013672,5.7597656,8.15625
15.602539,4.9345703,8.376953,5.6367188,9.853516
15.884766,7.8203125,9.462891,6.397461,14.118164
17.761719,7.4404297,9.211914,7.4365234,14.0703125
16.93164,5.1679688,8.828125,5.7441406,11.572266
16.789062,4.7822266,8.522461,5.698242,9.811523
13.333984,5.1621094,8.814453,3.913086,6.998047
12.209961,5.149414,8.392578,4.5527344,5.7373047
11.416016,4.583008,7.4335938,5.6503906,5.8652344
5.7783203,2.8574219,6.607422,4.1416016,3.2509766
5.290039,3.538086,6.044922,3.225586,1.9726562
5.321289,4.3046875,7.6191406,4.770508,2.8076172
4.073242,3.9521484,7.040039,5.4501953,2.0126953
3.4111328,2.6357422,6.4570312,5.678711,2.2666016
4.2158203,4.2734375,5.901367,5.3554688,2.3232422
5.7089844,4.2001953,5.294922,5.1259766,3.1777344
7.104492,3.7490234,5.0185547,5.689453,2.805664
9.516602,2.9746094,4.459961,5.5683594,2.3984375
9.318359,3.4609375,3.5654297,4.4404297,2.6191406
10.021484,3.6289062,4.8154297,6.001953,3.7958984
10.907227,8.564453,5.8759766,6.4228516,5.7148438
11.49707,10.977539,5.1308594,6.524414,8.861328
13.693359,12.518555,4.366211,9.277344,10.745117
15.249023,14.077148,5.1015625,10.386719,9.770508
15.235352,16.436523,6.25,9.296875,13.998047
17.878906,17.664062,8.045898,12.667969,13.514648
18.870117,15.875,7.1777344,14.324219,13.075195
19.995117,20.577148,8.825195,13.567383,18.97168
19.833008,17.71289,11.049805,13.505859,19.132812
16.49414,13.859375,16.113281,11.931641,13.042969
11.654297,16.673828,10.869141,7.779297,17.152344
15.329102,17.296875,13.662109,10.916992,21.96289
15.7109375,16.010742,11.243164,9.666016,13.211914
12.168945,13.787109,11.134766,8.417969,9.917969
10.53418,15.056641,8.098633,8.876953,10.249023
7.9541016,14.631836,6.6328125,4.0996094,8.272461
7.0185547,13.217773,8.764648,6.3710938,5.8066406
7.1621094,14.561523,6.3164062,4.6210938,9.969727
7.194336,15.494141,6.3085938,3.8105469,12.561523
9.793945,14.3828125,6.466797,5.001953,13.277344
9.955078,16.881836,7.379883,4.604492,12.982422
11.355469,17.88086,7.4628906,4.598633,14.014648
11.404297,19.000977,8.697266,6.9833984,14.6796875
9.96582,19.524414,9.09375,8.552734,12.084961
9.816406,20.972656,10.033203,9.753906,19.62793
12.324219,26.399414,10.211914,9.702148,23.282227
11.511719,26.300781,10.287109,8.700195,24.125
9.384766,21.811523,8.6171875,10.0703125,22.02539
10.852539,20.305664,8.967773,12.714844,16.748047
17.27832,19.859375,13.84375,16.453125,17.395508
16.701172,22.873047,11.902344,12.072266,20.578125
10.838867,20.953125,9.821289,11.571289,16.155273
8.56543,11.586914,9.34375,10.536133,13.707031
6.2158203,13.796875,6.6777344,8.964844,11.237305
4.6884766,13.84375,5.817383,6.4716797,9.233398
5.263672,13.027344,4.1015625,4.836914,8.714844
7.272461,13.2734375,2.3017578,4.0527344,9.673828
11.290039,18.063477,8.333008,5.885742,15.0546875
14.598633,17.749023,21.40039,12.665039,17.969727
18.765625,17.149414,19.789062,19.601562,18.972656
20.929688,19.597656,17.157227,18.11914,18.725586
17.893555,17.304688,16.74121,19.5,14.274414
15.96875,20.311523,15.466797,13.395508,16.839844
15.120117,21.667969,18.725586,17.097656,19.945312
17.282227,23.111328,18.583008,21.685547,21.313477
18.359375,23.526367,20.970703,20.21289,21.689453
19.764648,22.981445,20.786133,21.027344,21.873047
18.257812,23.152344,21.063477,19.225586,21.516602
15.9453125,22.820312,19.972656,18.125,19.805664
15.245117,22.871094,12.12207,18.416992,18.420898
