"[299, 255]","[227, 248]","[287, 319]","[279, 328]","[230, 262]"
6.4628906,9.121094,9.036133,6.9375,10.558594
6.4365234,8.774414,6.774414,5.892578,8.661133
10.125977,9.816406,9.763672,9.548828,9.6875
12.46582,8.3515625,12.9375,13.103516,14.0234375
13.942383,8.3984375,12.658203,13.362305,13.669922
13.908203,7.513672,14.071289,13.208008,11.1640625
11.897461,9.80957,11.037109,10.001953,10.1328125
8.5390625,12.135742,4.6210938,7.0117188,10.250977
8.828125,12.730469,5.001953,6.7490234,10.5078125
10.371094,13.333008,4.4560547,8.375,13.22168
14.146484,14.139648,10.902344,8.818359,13.052734
16.97754,14.1484375,12.223633,11.319336,14.326172
18.591797,13.145508,16.490234,13.881836,14.390625
16.701172,12.435547,11.504883,9.224609,16.913086
13.337891,13.595703,7.163086,8.978516,16.500977
8.200195,11.555664,6.595703,4.6103516,13.717773
5.3984375,13.520508,6.1064453,7.8789062,10.946289
4.9628906,12.5234375,5.180664,7.564453,12.511719
7.3583984,11.380859,9.1640625,8.125977,12.8359375
9.904297,10.125977,9.174805,8.56543,11.956055
10.803711,9.769531,8.130859,9.108398,10.1796875
10.762695,7.0146484,9.458008,9.478516,7.3740234
8.666992,10.46582,9.65332,9.244141,10.295898
5.048828,11.34375,11.776367,8.208984,12.017578
7.9541016,11.275391,7.234375,7.564453,12.7890625
10.325195,13.767578,16.386719,9.0234375,15.300781
13.230469,14.487305,15.802734,10.087891,16.327148
15.200195,13.222656,16.500977,16.201172,15.350586
15.200195,12.116211,17.191406,17.030273,13.977539
17.795898,8.923828,18.9375,18.25293,11.822266
16.817383,7.647461,14.333984,15.513672,9.400391
11.482422,5.0585938,8.3203125,11.183594,4.6220703
8.314453,3.8476562,10.666992,9.65625,4.291992
6.881836,3.4208984,9.019531,9.9296875,7.379883
10.9140625,3.4628906,9.727539,5.0234375,9.874023
12.732422,9.536133,15.493164,7.3339844,13.8203125
13.486328,9.884766,14.631836,16.36914,13.770508
13.682617,9.97168,14.194336,16.34375,12.59375
10.175781,7.8027344,12.818359,11.609375,9.483398
10.75,7.8027344,11.702148,11.616211,8.347656
10.219727,6.145508,9.981445,10.323242,8.0546875
11.000977,7.0322266,8.475586,8.149414,7.213867
13.305664,6.4814453,9.209961,8.905273,7.6914062
11.638672,9.136719,8.990234,9.915039,8.615234
11.249023,9.780273,10.061523,10.447266,8.700195
11.03125,7.9873047,10.575195,10.706055,6.6748047
10.212891,6.678711,9.348633,9.970703,6.0595703
7.0439453,7.3876953,6.814453,6.1953125,3.9521484
6.2773438,5.272461,7.5703125,7.040039,6.3515625
3.9716797,5.055664,7.758789,6.493164,6.6220703
7.1123047,4.8720703,6.7597656,6.817383,6.5146484
7.7070312,4.323242,7.673828,7.645508,7.0234375
7.486328,6.879883,7.810547,7.430664,7.4589844
6.201172,8.063477,6.881836,6.15625,7.4609375
9.521484,7.5390625,7.489258,5.9589844,6.6123047
13.861328,6.3310547,8.283203,6.765625,4.989258
13.787109,6.3339844,5.557617,6.895508,6.666992
13.795898,2.788086,5.0820312,6.330078,5.0195312
8.126953,3.9492188,4.3427734,6.276367,3.8896484
11.459961,8.095703,5.760742,6.2597656,8.852539
11.15332,10.732422,6.0976562,6.5253906,14.46582
12.893555,3.8857422,8.488281,7.5253906,14.470703
14.189453,6.2578125,9.383789,11.337891,10.556641
14.973633,6.588867,9.670898,10.8203125,11.493164
17.458008,6.2597656,9.926758,7.626953,11.958984
17.614258,7.5390625,12.21875,11.260742,13.7265625
16.944336,4.5507812,14.004883,13.380859,14.647461
14.550781,3.727539,13.106445,13.608398,13.365234
14.484375,6.0634766,13.107422,12.74707,12.651367
13.080078,6.645508,12.514648,12.646484,10.608398
13.433594,6.1367188,10.413086,11.145508,7.3847656
13.844727,7.8623047,11.176758,9.858398,8.003906
14.212891,7.8583984,9.900391,9.072266,7.104492
13.7890625,3.9550781,7.0273438,7.9960938,5.8320312
11.280273,5.0625,7.7421875,7.4570312,6.7441406
8.642578,7.9003906,9.234375,10.901367,10.115234
8.53418,10.109375,9.155273,10.8671875,10.461914
6.7001953,11.193359,8.116211,8.74707,13.756836
8.140625,9.509766,6.3183594,7.4101562,13.78418
7.620117,8.767578,9.475586,6.4453125,9.40332
9.980469,11.390625,10.816406,10.577148,11.670898
14.889648,14.795898,13.035156,12.31543,14.046875
15.47168,15.712891,12.216797,14.081055,14.442383
15.920898,13.089844,15.332031,15.995117,14.287109
17.797852,10.615234,15.325195,15.469727,13.952148
17.125,8.918945,14.15625,14.728516,13.177734
15.982422,8.805664,12.15332,12.930664,9.577148
7.955078,6.703125,6.102539,9.583008,9.152344
4.3154297,8.498047,4.5751953,7.0810547,9.449219
3.5292969,7.2978516,3.796875,6.2177734,8.079102
5.09375,7.2304688,5.4023438,6.1259766,9.272461
7.8310547,11.134766,7.895508,8.589844,9.866211
7.444336,11.511719,9.47168,10.573242,9.935547
10.762695,11.401367,9.739258,9.546875,8.763672
9.447266,8.104492,7.848633,8.514648,6.6845703
3.7138672,4.0878906,4.321289,3.1611328,2.5878906
3.5166016,2.5927734,3.1425781,2.3291016,3.5429688
2.9169922,7.7626953,5.5429688,4.493164,9.9765625
8.59082,8.322266,5.7304688,8.286133,11.441406
13.623047,10.691406,8.057617,10.609375,12.529297
14.142578,10.9453125,12.201172,10.869141,12.302734
14.25293,8.989258,13.987305,11.786133,10.573242
10.011719,7.6972656,11.105469,9.844727,10.02832
4.883789,7.3095703,4.736328,7.3515625,6.0771484
2.1035156,5.833008,3.6757812,3.7646484,5.703125
6.8935547,4.227539,2.28125,2.2490234,6.9589844
8.09375,7.953125,6.486328,8.314453,9.595703
10.731445,7.888672,6.5410156,9.536133,11.018555
11.136719,6.7060547,8.604492,10.84375,10.802734
11.842773,6.767578,8.042969,9.829102,9.143555
9.249023,6.5302734,8.248047,10.546875,5.7197266
6.415039,5.8359375,5.817383,8.316406,3.5517578
5.5634766,3.852539,4.9277344,7.4277344,5.9746094
6.734375,6.6640625,4.442383,5.8378906,8.149414
12.06543,8.120117,10.151367,8.84668,10.318359
12.421875,10.555664,14.1640625,10.415039,13.225586
14.137695,12.612305,10.50293,10.487305,13.787109
10.833008,11.956055,7.8134766,10.732422,12.912109
12.166016,8.336914,6.6015625,6.9248047,10.322266
10.582031,7.098633,5.6240234,3.2451172,5.560547
10.516602,5.4091797,4.057617,4.444336,7.067383
9.917969,6.7978516,6.118164,3.743164,11.961914
9.123047,9.859375,5.8896484,4.595703,12.988281
6.3271484,10.25,7.288086,10.375977,12.2265625
10.491211,10.897461,7.916992,10.482422,12.268555
13.801758,9.889648,8.202148,10.066406,11.196289
10.620117,8.266602,5.463867,9.265625,10.862305
10.763672,8.449219,5.1523438,6.7197266,8.189453
9.916992,8.2734375,5.404297,6.4677734,10.859375
5.963867,9.261719,6.7802734,6.7910156,9.818359
6.165039,9.217773,6.0214844,6.716797,10.573242
8.342773,10.439453,10.168945,9.280273,11.56543
10.0,11.280273,10.5078125,10.363281,11.155273
13.705078,10.214844,8.571289,9.863281,12.243164
11.723633,9.895508,6.9658203,7.022461,12.113281
10.754883,8.263672,3.3808594,5.557617,8.220703
7.3847656,7.751953,3.6376953,5.21875,7.5029297
6.946289,7.5302734,3.7138672,7.2802734,6.676758
7.805664,6.385742,5.8808594,8.223633,8.920898
8.115234,8.124023,6.336914,8.102539,9.801758
9.537109,8.126953,5.7910156,10.067383,10.475586
12.829102,7.6445312,6.713867,10.350586,9.677734
10.927734,7.381836,6.086914,6.010742,7.9414062
10.87793,6.2695312,6.1552734,4.3320312,3.9804688
9.651367,4.098633,6.368164,4.6708984,3.1396484
4.892578,2.0214844,4.868164,4.161133,2.9697266
5.3378906,2.3798828,5.1132812,5.5742188,6.158203
7.2060547,6.1328125,5.1035156,5.698242,11.455078
7.4746094,4.7285156,4.736328,5.5878906,8.863281
5.671875,4.881836,7.9384766,4.5273438,6.1328125
9.091797,4.133789,8.083008,4.239258,3.0039062
6.638672,3.7958984,7.6972656,3.3554688,4.133789
2.9921875,5.6972656,7.515625,4.8085938,4.5839844
2.9013672,7.4882812,6.4345703,6.053711,8.999023
6.8652344,8.4921875,14.515625,10.856445,12.697266
10.129883,7.7929688,12.644531,10.439453,10.698242
12.102539,4.291992,11.374023,10.072266,10.952148
12.142578,6.463867,11.5078125,11.441406,9.015625
10.983398,4.904297,11.4453125,11.378906,7.53125
9.056641,5.580078,8.285156,8.111328,5.857422
7.8691406,7.076172,8.0859375,8.110352,7.1621094
8.3515625,7.0996094,8.013672,7.2470703,7.540039
7.899414,7.4248047,8.325195,7.951172,8.697266
8.303711,7.40625,7.1748047,7.926758,9.0390625
10.393555,6.9228516,7.3007812,7.2109375,9.790039
10.446289,5.961914,6.024414,7.098633,7.5458984
9.275391,4.8164062,6.8779297,6.5908203,5.2998047
3.8564453,5.553711,3.9472656,3.7919922,3.4707031
3.6748047,4.004883,2.6894531,3.618164,3.9541016
2.4013672,5.201172,2.6611328,3.3027344,4.5634766
6.029297,5.083008,5.1835938,5.6259766,8.033203
8.533203,7.8740234,4.680664,7.0898438,10.665039
8.540039,5.928711,7.9853516,9.244141,8.396484
7.0615234,6.182617,9.810547,10.868164,8.097656
7.2529297,3.7509766,9.157227,8.59668,4.8583984
4.2558594,4.5341797,4.6845703,6.6015625,4.7216797
4.178711,5.5927734,4.663086,6.6748047,4.7646484
5.553711,3.9326172,6.743164,8.313477,4.7460938
9.344727,5.0478516,8.375977,8.892578,8.917969
13.0546875,5.267578,13.477539,13.1796875,10.618164
15.024414,5.3154297,15.825195,14.955078,11.5234375
15.360352,5.0039062,15.22168,13.996094,10.21582
15.582031,7.2382812,13.077148,13.518555,11.073242
14.207031,11.953125,11.676758,11.134766,14.850586
10.635742,13.765625,9.152344,8.524414,13.832031
5.745117,11.642578,5.4833984,6.7089844,11.941406
8.1953125,10.3203125,8.331055,10.635742,11.448242
9.030273,7.198242,9.129883,10.7109375,10.895508
10.099609,8.250977,9.775391,12.1640625,10.152344
9.982422,8.196289,9.345703,11.518555,8.869141
8.557617,6.9365234,6.6279297,7.926758,8.852539
9.873047,5.0009766,93.06641,4.9570312,5.3183594
11.961914,3.8203125,4.90625,3.9501953,7.5478516
12.014648,4.786133,2.5888672,3.6230469,7.4228516
5.2470703,4.951172,5.1679688,5.716797,8.269531
8.43457,5.307617,10.108398,11.228516,9.05957
9.827148,7.2304688,10.873047,11.5,9.053711
9.87793,7.364258,9.799805,10.584961,6.958008
9.277344,5.3720703,7.9882812,9.375977,5.4296875
4.689453,7.444336,5.491211,4.7626953,4.421875
4.9091797,3.3779297,4.5283203,4.1601562,3.381836
4.9521484,4.2666016,4.0126953,3.334961,5.4746094
10.189453,4.9492188,6.3515625,8.827148,7.486328
13.176758,8.712891,9.949219,9.821289,8.503906
14.301758,8.780273,10.458984,11.131836,8.286133
14.3125,6.9804688,10.52832,11.014648,7.4453125
12.452148,8.516602,9.692383,11.167969,7.126953
11.075195,8.084961,9.12793,9.795898,9.766602
11.866211,9.3984375,8.652344,10.001953,10.224609
12.447266,10.939453,7.823242,8.922852,11.700195
12.050781,12.091797,7.689453,7.9628906,12.573242
10.642578,11.649414,8.1171875,8.03418,13.573242
11.091797,10.676758,7.729492,6.879883,12.441406
11.522461,11.435547,8.875977,13.883789,11.724609
11.448242,10.798828,10.589844,11.267578,9.696289
9.564453,13.375977,5.4609375,10.724609,10.073242
10.042969,13.547852,4.7529297,5.8847656,10.328125
10.655273,12.801758,8.625,9.088867,14.459961
10.568359,14.000977,10.231445,10.463867,15.145508
14.264648,13.439453,11.826172,11.904297,14.696289
14.194336,14.74707,11.625977,12.135742,15.442383
8.8984375,11.349609,10.9296875,10.439453,14.852539
10.720703,14.041992,6.7871094,7.473633,13.621094
7.7529297,12.1640625,6.951172,4.151367,12.885742
9.255859,14.555664,5.875,4.026367,11.669922
9.658203,15.277344,7.390625,5.879883,12.513672
11.28125,14.348633,8.295898,8.366211,12.491211
10.796875,12.834961,8.394531,8.354492,13.016602
13.592773,13.413086,8.076172,9.176758,12.416992
14.191406,6.9804688,8.174805,9.150391,13.521484
10.049805,5.779297,8.236328,9.5078125,6.7001953
7.6523438,4.90625,5.2753906,7.3476562,2.6767578
6.370117,5.7382812,5.373047,6.3398438,3.725586
5.0273438,7.998047,4.376953,5.1621094,6.451172
8.501953,7.051758,7.0117188,6.385742,8.610352
8.650391,7.345703,6.4033203,8.551758,11.322266
8.954102,6.4101562,7.461914,9.068359,10.446289
9.265625,5.145508,6.5078125,8.779297,9.510742
9.413086,5.8779297,5.3046875,7.501953,6.7685547
4.1484375,4.848633,4.0839844,4.8115234,3.616211
