"[299, 255]","[227, 248]","[287, 319]","[279, 328]","[230, 262]"
9.677734,9.079102,4.1015625,7.0029297,10.380859
7.0878906,7.169922,3.9667969,6.53125,10.299805
7.9023438,7.2802734,5.0126953,8.083984,10.500977
8.373047,7.7216797,5.7617188,4.7617188,10.673828
8.578125,7.7304688,7.5722656,5.370117,10.237305
8.036133,8.327148,7.620117,6.751953,9.408203
10.4609375,8.030273,9.259766,7.319336,6.586914
11.176758,5.8378906,8.453125,6.901367,3.5507812
4.533203,4.5820312,3.1328125,4.6953125,3.3769531
5.1035156,3.2392578,3.9257812,4.9804688,2.9414062
4.4160156,2.6972656,4.959961,4.5820312,4.2802734
6.3916016,4.817383,10.1328125,6.1972656,7.1679688
6.732422,4.817383,10.165039,8.969727,7.526367
6.803711,4.1865234,9.512695,8.675781,7.1279297
5.705078,7.1865234,6.873047,6.7695312,8.061523
4.723633,8.295898,4.7998047,6.368164,8.094727
3.836914,7.9648438,6.4189453,6.4970703,5.96875
4.3623047,7.1992188,8.644531,5.1601562,4.4960938
4.3691406,10.588867,7.9052734,7.2822266,12.40332
9.213867,10.706055,11.699219,7.734375,12.3984375
11.682617,11.118164,10.982422,7.114258,11.255859
13.59668,8.30957,8.619141,7.3789062,7.6914062
7.6533203,9.141602,5.3632812,6.0947266,10.499023
4.9648438,9.441406,6.9814453,6.498047,9.702148
14.441406,10.317383,6.551758,6.158203,11.2734375
8.02832,11.783203,6.5839844,7.196289,10.870117
10.866211,12.845703,10.15918,9.631836,11.677734
13.860352,11.327148,11.517578,11.808594,13.072266
13.972656,11.822266,13.192383,13.151367,12.417969
13.678711,7.376953,12.889648,12.69043,8.915039
8.234375,5.0791016,9.041992,8.988281,3.3320312
3.7832031,8.911133,4.1054688,4.6210938,7.4501953
4.328125,10.927734,5.448242,7.345703,7.3916016
9.493164,11.651367,5.0947266,6.9853516,5.4384766
11.87793,14.646484,9.074219,10.821289,14.900391
15.43457,18.28711,13.490234,15.9375,17.594727
18.53125,23.229492,18.00879,17.83496,19.710938
16.854492,25.595703,17.280273,17.686523,25.280273
18.680664,23.713867,19.274414,17.583984,19.21289
17.631836,20.876953,11.551758,12.9140625,15.797852
12.828125,19.047852,12.09082,12.609375,17.02832
13.529297,19.788086,14.035156,12.686523,18.699219
17.648438,21.052734,17.146484,18.3125,19.96289
19.643555,19.19629,17.773438,21.423828,19.658203
18.344727,18.411133,19.466797,20.60254,18.509766
18.28418,18.651367,20.94043,19.291016,17.726562
15.975586,21.078125,16.40918,16.844727,18.389648
16.579102,21.092773,16.405273,16.935547,17.70996
14.060547,20.38086,16.46582,16.11621,18.045898
13.021484,18.007812,14.546875,14.600586,16.78711
16.45996,16.174805,14.138672,14.991211,15.0625
16.46875,16.34082,12.84375,13.50293,14.772461
14.435547,13.858398,11.8515625,12.875,12.7734375
14.342773,9.9609375,11.6015625,12.083984,11.06543
10.869141,9.871094,7.0722656,8.091797,4.7578125
4.90625,11.787109,6.5546875,5.866211,8.803711
6.826172,13.566406,3.1835938,6.336914,13.042969
8.869141,13.558594,2.7490234,6.1601562,12.873047
9.27832,10.850586,8.709961,8.2421875,10.079102
8.09375,9.883789,11.052734,9.098633,10.496094
9.725586,9.512695,11.700195,11.425781,10.779297
12.408203,8.4375,12.154297,11.833984,10.354492
11.060547,7.5322266,9.087891,9.317383,7.9833984
8.736328,7.9033203,4.2490234,7.0302734,8.682617
7.2773438,7.821289,7.711914,7.2695312,11.506836
8.62793,13.428711,8.0234375,8.613281,14.154297
11.72168,12.198242,8.378906,10.2890625,12.700195
12.959961,11.12207,8.482422,9.948242,12.396484
9.916016,11.198242,7.6621094,8.15332,11.107422
9.769531,9.564453,6.0751953,7.435547,9.561523
13.775391,7.376953,6.4716797,8.213867,8.064453
13.7890625,8.6640625,4.8066406,7.291992,9.017578
13.030273,7.7285156,4.986328,6.421875,9.329102
6.571289,7.9746094,4.705078,6.8046875,9.191406
7.4453125,8.730469,4.6259766,7.5664062,10.90625
7.919922,9.1015625,7.8134766,8.887695,11.129883
8.509766,9.253906,8.424805,8.271484,10.017578
8.169922,9.124023,6.7509766,8.060547,8.370117
8.495117,8.400391,6.0390625,6.3115234,4.8066406
10.348633,5.9902344,5.319336,3.7792969,3.9003906
9.791016,3.3320312,4.0214844,3.8251953,4.711914
2.4541016,3.5009766,2.6201172,3.8417969,4.3964844
4.638672,3.7519531,3.34375,4.946289,4.5751953
6.6660156,7.086914,7.7626953,8.881836,7.0722656
7.086914,8.949219,9.978516,9.614258,9.246094
6.8896484,8.729492,9.240234,9.56543,8.089844
5.0722656,5.517578,6.4570312,7.4658203,2.8886719
4.2509766,9.738281,6.448242,5.984375,6.9296875
4.25,9.722656,5.4189453,2.7939453,6.6367188
7.057617,10.189453,3.883789,3.6757812,7.6396484
8.828125,12.217773,11.927734,14.956055,10.50293
13.208008,14.674805,15.776367,15.359375,15.496094
17.319336,13.902344,16.335938,16.992188,15.571289
16.92871,12.716797,13.987305,14.621094,12.5
12.499023,15.481445,10.116211,11.577148,9.199219
6.1464844,10.970703,6.923828,8.498047,10.836914
4.8964844,10.890625,5.6376953,7.4746094,8.508789
5.798828,10.776367,4.1191406,7.6601562,8.378906
6.625,11.325195,4.138672,10.076172,10.519531
10.995117,10.629883,13.173828,12.6640625,12.115234
13.65332,11.239258,13.141602,11.935547,12.65332
12.65332,9.060547,11.506836,11.345703,9.344727
8.639648,5.6679688,7.548828,8.038086,4.6484375
3.571289,7.185547,6.020508,7.0029297,2.6269531
5.091797,6.8564453,2.5644531,6.0595703,2.6738281
5.7382812,4.026367,2.7714844,4.7304688,2.8378906
5.345703,3.1054688,7.663086,7.6953125,7.0996094
9.355469,6.8271484,12.708008,11.8515625,9.474609
9.956055,6.9921875,12.098633,11.857422,9.930664
10.5625,6.4873047,11.192383,11.008789,7.9941406
6.673828,3.8945312,7.416992,8.509766,5.7285156
3.9521484,5.9033203,7.0527344,8.609375,5.993164
2.8984375,6.4179688,8.499023,8.69043,3.8642578
2.7294922,6.4472656,8.624023,7.0078125,3.352539
4.3115234,6.508789,8.03418,8.479492,7.390625
9.580078,6.879883,8.376953,8.762695,7.888672
10.975586,5.9609375,8.21875,8.759766,10.850586
11.020508,3.90625,8.036133,8.15332,6.9853516
6.9628906,3.5439453,6.245117,5.8964844,4.2265625
4.6015625,5.2226562,4.551758,4.6396484,5.6328125
3.6611328,6.8291016,5.5664062,4.7285156,5.7304688
3.7480469,8.504883,5.7509766,4.0615234,5.373047
9.282227,8.125977,5.4648438,7.989258,9.533203
11.825195,7.5195312,10.354492,11.725586,9.606445
12.491211,6.4648438,13.716797,13.708008,9.188477
12.592773,4.6933594,13.951172,13.368164,7.5595703
9.561523,4.4453125,9.959961,9.475586,4.951172
8.462891,7.3789062,6.1904297,5.7216797,7.508789
4.640625,9.173828,2.8964844,3.6738281,7.5273438
4.8242188,8.313477,2.1269531,3.1220703,4.041992
3.6757812,7.4833984,2.6455078,3.5791016,7.618164
4.944336,4.614258,4.5546875,4.1816406,7.591797
4.9541016,5.385742,5.538086,5.6220703,7.9833984
4.366211,7.2148438,5.279297,6.4609375,7.9814453
5.0898438,7.470703,4.6845703,4.5009766,7.3027344
6.1640625,7.3515625,3.4082031,4.5273438,7.314453
7.2216797,5.2402344,3.7685547,5.529297,7.1347656
7.2978516,2.9667969,4.8671875,5.8125,4.4257812
6.7558594,1.4365234,4.796875,5.791992,3.725586
5.2509766,4.114258,6.6884766,7.0820312,6.0820312
5.265625,5.7734375,7.2666016,7.7197266,7.9501953
5.6308594,6.004883,5.7958984,6.788086,7.946289
8.360352,6.4785156,3.7470703,5.401367,6.4404297
10.902344,5.9746094,4.8964844,4.7529297,6.6347656
11.514648,5.6210938,4.783203,5.4375,6.7695312
11.504883,4.2822266,4.491211,5.801758,7.220703
10.775391,3.6298828,4.544922,5.7529297,8.21875
11.957031,2.9326172,4.298828,4.7597656,11.142578
13.157227,7.145508,7.3476562,5.4296875,13.503906
12.767578,8.78125,9.06543,7.421875,12.621094
16.043945,7.959961,8.123047,7.046875,9.500977
16.09375,7.0878906,8.116211,7.5546875,10.947266
15.936523,7.1601562,7.5742188,7.0859375,9.6484375
15.547852,4.9404297,7.723633,6.665039,8.823242
17.238281,5.173828,9.512695,6.2851562,11.40332
19.72168,4.4345703,11.615234,9.921875,13.546875
19.881836,4.743164,13.074219,10.287109,14.106445
19.572266,6.5947266,14.25293,10.222656,12.350586
19.31836,7.7441406,12.852539,8.9453125,9.368164
19.230469,9.870117,11.402344,10.009766,9.605469
18.510742,5.1591797,11.311523,9.347656,8.766602
16.378906,3.5078125,13.080078,9.639648,7.5458984
14.457031,3.3447266,11.963867,8.566406,7.0996094
11.287109,5.0273438,11.410156,7.9248047,6.397461
12.06543,6.7060547,8.213867,6.6601562,7.34375
8.03418,6.328125,4.354492,7.479492,6.3398438
7.9873047,7.270508,5.560547,6.663086,6.4785156
6.676758,5.852539,4.3603516,5.46875,8.706055
4.4814453,8.736328,3.9902344,7.161133,10.488281
8.587891,9.354492,4.986328,6.151367,10.946289
8.939453,8.541016,7.048828,10.150391,10.947266
10.236328,10.998047,13.688477,12.503906,12.091797
11.3203125,10.993164,12.672852,11.19043,11.901367
11.103516,10.771484,9.139648,9.464844,11.602539
9.108398,9.787109,16.046875,6.9189453,8.4921875
7.7246094,5.739258,5.2304688,4.3652344,9.855469
6.3847656,5.491211,3.5605469,4.1660156,6.625
5.6914062,5.7695312,3.928711,3.1416016,5.754883
7.0283203,6.104492,2.5644531,3.1884766,8.741211
8.099609,5.338867,4.2001953,4.734375,9.248047
8.123047,6.9902344,5.111328,6.205078,9.306641
8.142578,10.337891,4.0341797,5.09375,8.484375
7.881836,10.776367,4.645508,4.040039,6.942383
11.137695,6.4873047,3.1533203,4.4257812,6.0234375
12.019531,10.990234,2.7285156,5.524414,5.09375
11.807617,11.314453,3.694336,5.9970703,4.544922
11.082031,7.0634766,4.5507812,8.268555,3.227539
11.318359,5.6289062,8.359375,8.847656,6.8427734
9.905273,5.2734375,8.7421875,9.056641,7.328125
8.722656,6.4453125,7.6103516,7.7978516,6.364258
12.849609,7.0878906,6.1601562,6.770508,4.538086
12.958984,5.6083984,6.022461,7.895508,4.9208984
12.432617,3.5166016,5.2998047,7.8789062,4.989258
11.527344,4.3652344,5.3554688,8.191406,5.120117
11.878906,3.9355469,5.0947266,8.608398,2.9765625
11.589844,4.4814453,8.035156,10.270508,7.209961
7.2822266,5.8876953,8.265625,9.513672,7.526367
4.915039,6.1210938,6.4335938,8.458008,6.9228516
4.458008,5.1552734,4.870117,5.1689453,2.899414
4.3007812,4.3320312,4.305664,3.6035156,3.2705078
4.3671875,2.6201172,2.8642578,3.3027344,3.28125
6.0117188,3.8388672,2.625,3.5371094,6.283203
6.921875,8.491211,4.734375,7.0791016,9.074219
7.881836,9.49707,8.714844,7.7753906,10.439453
7.2226562,11.055664,8.65918,8.305664,10.827148
7.4140625,11.140625,10.686523,7.9414062,10.102539
14.552734,9.72168,9.5,7.3476562,7.0273438
14.732422,8.2265625,6.7910156,3.803711,6.9052734
14.611328,6.2539062,5.8476562,3.2509766,6.501953
14.556641,4.8789062,5.776367,4.2060547,11.949219
16.003906,4.7617188,8.8046875,3.6289062,14.485352
15.097656,4.2177734,9.71875,6.6464844,14.482422
9.620117,12.348633,9.34082,8.572266,12.955078
9.46582,13.109375,9.051758,8.678711,11.2734375
9.75,11.449219,6.455078,5.416992,13.814453
11.988281,7.53125,5.7998047,4.1533203,14.188477
11.904297,7.1679688,3.4960938,3.5283203,9.269531
10.791016,6.088867,4.0634766,3.4804688,6.6171875
10.383789,5.7978516,2.415039,3.0361328,8.535156
10.393555,8.569336,5.5429688,6.5751953,9.609375
10.285156,11.024414,7.609375,7.694336,10.270508
8.849609,10.650391,4.057617,7.2089844,9.568359
6.2148438,9.696289,3.1923828,4.4277344,6.6591797
6.216797,4.616211,3.1933594,4.0664062,6.020508
6.0478516,4.0791016,2.9033203,2.9208984,5.428711
5.442383,2.9277344,1.5712891,2.2578125,4.442383
4.84375,2.9111328,2.2050781,3.1669922,7.001953
6.3945312,7.086914,6.223633,6.2001953,7.489258
7.149414,10.147461,6.765625,6.640625,8.2734375
6.588867,9.026367,11.110352,6.461914,8.037109
11.765625,7.0478516,7.984375,5.158203,5.9121094
11.537109,5.53125,6.564453,5.3447266,5.911133
10.441406,2.7734375,2.46875,3.7177734,3.9179688
7.234375,2.1972656,2.180664,5.088867,5.114258
7.758789,3.8134766,3.2783203,6.142578,7.564453
7.548828,4.7216797,4.2333984,6.756836,7.794922
6.7773438,8.46582,4.567383,6.571289,6.7021484
6.448242,9.224609,5.1875,6.258789,6.2246094
7.9746094,7.7783203,5.0498047,5.263672,4.354492
6.9179688,4.345703,4.0146484,4.428711,4.201172
