"[299, 255]","[227, 248]","[287, 319]","[279, 328]","[230, 262]"
15.477539,18.913086,12.505859,14.328125,16.003906
15.276367,15.522461,13.716797,13.265625,14.359375
15.609375,14.46875,15.266602,16.831055,14.123047
16.530273,12.192383,17.048828,17.461914,14.224609
15.923828,8.21582,15.751953,15.332031,12.685547
14.124023,10.582031,14.996094,14.638672,11.109375
9.314453,10.837891,10.845703,9.608398,11.104492
4.8134766,10.336914,8.470703,6.1748047,9.922852
8.962891,11.333008,4.5810547,8.392578,11.137695
13.327148,13.555664,5.823242,8.8828125,13.785156
14.693359,15.533203,11.59375,12.332031,15.890625
16.276367,19.421875,15.84668,14.447266,21.902344
16.271484,21.360352,13.754883,14.510742,21.957031
14.011719,23.16504,17.527344,19.923828,23.625
17.239258,23.118164,18.523438,20.023438,22.567383
16.990234,21.863281,16.192383,15.001953,21.92871
15.564453,22.555664,16.339844,14.9765625,21.916016
17.527344,21.669922,16.027344,14.2421875,20.65039
17.856445,19.879883,18.57129,16.40918,20.801758
19.075195,20.354492,19.677734,18.93164,23.013672
21.913086,18.864258,17.43457,18.99121,20.910156
20.575195,15.110352,17.461914,17.785156,20.354492
16.674805,8.824219,15.259766,13.581055,15.3515625
8.291992,7.890625,8.8125,7.376953,4.705078
5.885742,11.073242,9.795898,6.5595703,5.8203125
5.6777344,10.948242,10.864258,7.1992188,6.798828
12.878906,9.422852,15.527344,13.796875,11.18457
13.327148,9.131836,16.30957,15.870117,13.838867
14.693359,10.639648,14.896484,16.222656,12.959961
13.424805,10.577148,15.119141,15.3828125,13.998047
12.361328,6.609375,13.147461,12.328125,7.9785156
8.277344,6.90625,9.479492,10.018555,5.125
8.954102,5.830078,8.310547,9.868164,8.7734375
7.432617,8.668945,6.6064453,10.146484,7.8945312
10.394531,7.415039,10.957031,11.239258,8.834961
10.136719,10.108398,10.205078,11.439453,9.369141
8.999023,10.00293,10.415039,8.803711,9.542969
7.6328125,7.576172,8.674805,8.103516,8.146484
6.4433594,8.759766,5.383789,7.301758,5.729492
10.841797,7.915039,5.620117,4.8447266,4.4296875
10.824219,6.763672,4.569336,5.9570312,7.5703125
10.583984,3.4208984,4.4804688,6.5,7.571289
7.586914,2.3320312,6.432617,6.6416016,5.1796875
9.145508,6.328125,7.2539062,6.989258,8.458008
9.328125,6.810547,6.4697266,7.506836,9.380859
10.069336,7.0146484,4.3066406,5.873047,9.387695
9.317383,5.510742,5.895508,7.801758,9.459961
12.0390625,7.0410156,4.5664062,4.314453,9.095703
10.583008,5.7871094,5.6728516,5.1640625,4.7773438
9.197266,5.7734375,5.7089844,5.6552734,8.045898
12.161133,6.0166016,6.510742,6.951172,10.0859375
12.986328,3.383789,9.949219,9.939453,11.237305
12.222656,5.415039,9.641602,10.089844,12.5625
11.553711,5.9697266,9.073242,9.3828125,11.853516
12.666992,4.7285156,7.6601562,8.404297,9.551758
15.826172,5.598633,5.227539,7.8320312,10.459961
17.110352,5.6572266,6.522461,8.889648,7.739258
16.460938,4.041992,9.801758,8.047852,5.739258
16.39746,3.0488281,11.073242,10.051758,6.5214844
14.049805,4.0498047,11.069336,10.291992,8.294922
10.779297,5.080078,8.8359375,10.051758,8.203125
9.467773,6.225586,8.364258,8.795898,6.0771484
11.904297,4.745117,6.397461,6.189453,3.65625
13.693359,3.1259766,7.489258,7.171875,3.4052734
13.693359,2.171875,6.216797,6.926758,3.2158203
10.959961,1.6074219,5.2558594,6.8896484,3.6796875
6.0058594,3.071289,3.5576172,6.004883,4.2666016
8.231445,5.8583984,4.65625,7.4414062,6.7597656
8.134766,7.2314453,6.0927734,7.3652344,6.930664
7.205078,7.314453,5.4033203,7.2890625,5.897461
9.155273,5.7890625,5.645508,7.0664062,5.296875
12.28125,5.916992,4.895508,4.6816406,6.201172
12.461914,4.9873047,5.0898438,5.6640625,4.328125
10.245117,3.5859375,5.03125,5.649414,3.8046875
4.192383,3.975586,3.3515625,3.9404297,3.5371094
5.834961,5.7285156,4.415039,5.208008,6.5615234
6.7226562,6.4365234,4.328125,5.578125,6.881836
6.6132812,5.779297,8.597656,7.370117,6.0283203
9.644531,6.149414,10.217773,7.491211,5.080078
11.373047,6.875,8.199219,6.546875,6.669922
10.948242,5.904297,6.2958984,6.1308594,6.6445312
8.170898,3.819336,5.515625,5.8408203,4.995117
4.7441406,3.7402344,6.178711,4.6103516,4.046875
7.794922,5.2509766,7.546875,6.1054688,6.736328
7.966797,5.5878906,8.381836,8.390625,6.9384766
7.5546875,3.9785156,8.709961,8.8984375,7.5097656
11.009766,3.734375,9.130859,8.172852,5.1376953
13.386719,4.3554688,7.6884766,7.7890625,5.0498047
13.989258,3.5800781,6.9970703,7.3896484,5.067383
10.782227,2.8242188,7.2558594,6.669922,5.001953
6.7089844,3.4101562,7.5410156,8.063477,4.6884766
7.09375,4.536133,7.5898438,8.0234375,9.086914
7.649414,5.9501953,6.7041016,7.919922,7.142578
6.7978516,5.791992,5.942383,7.270508,6.8789062
10.586914,6.227539,5.243164,5.96875,5.390625
12.183594,6.470703,6.1503906,6.423828,5.580078
11.693359,3.0283203,6.1914062,5.9697266,3.9873047
10.256836,4.7666016,6.2773438,5.3603516,3.1015625
4.629883,3.1748047,4.1083984,4.1777344,5.9570312
6.3408203,6.272461,6.553711,6.4248047,6.4570312
8.375,7.1308594,8.754883,6.629883,9.22168
8.28125,5.830078,8.3203125,7.7197266,9.5859375
11.333008,6.915039,6.1953125,6.836914,6.830078
13.587891,6.895508,6.21875,5.7998047,6.3759766
14.333984,3.4052734,6.3095703,5.1904297,6.017578
8.417969,3.1386719,6.345703,5.0810547,7.8759766
9.633789,3.1425781,5.1123047,5.4492188,10.977539
11.609375,7.5214844,7.736328,6.6679688,11.926758
11.154297,7.923828,8.436523,8.911133,10.8671875
10.083984,8.7890625,7.7314453,8.631836,9.263672
9.092773,8.34082,7.145508,6.1015625,7.654297
10.996094,7.4804688,6.7890625,6.09375,5.9941406
11.473633,4.966797,4.958008,5.623047,7.348633
14.333984,4.96875,5.9804688,3.7539062,7.1240234
16.458008,5.4140625,6.5341797,4.8095703,8.462891
15.482422,9.458984,9.524414,10.493164,10.59082
15.94043,10.448242,9.741211,11.3515625,10.594727
15.151367,9.813477,9.136719,11.410156,11.121094
18.333008,8.9921875,6.8828125,9.802734,10.224609
20.15918,10.712891,8.111328,12.59082,11.8125
19.786133,9.447266,8.28418,11.605469,11.079102
19.393555,13.09668,8.307617,3.9638672,14.462891
19.65332,13.911133,9.160156,4.982422,15.37793
20.170898,14.250977,12.7578125,11.4140625,15.145508
19.08789,14.230469,15.579102,13.771484,13.3671875
16.514648,11.138672,15.589844,9.470703,13.427734
15.864258,11.793945,8.733398,9.911133,13.011719
17.795898,11.149414,8.703125,8.118164,12.222656
18.09375,11.643555,9.037109,7.7001953,12.141602
18.25586,11.753906,9.623047,3.7695312,12.155273
16.604492,11.34668,13.296875,4.9589844,15.0234375
17.788086,12.480469,14.8515625,12.579102,14.513672
18.762695,11.827148,15.416016,12.769531,15.993164
19.047852,10.680664,14.9609375,12.419922,16.080078
18.557617,11.5234375,10.114258,11.416992,14.821289
16.74707,13.46875,7.9033203,5.6132812,15.65625
15.776367,13.674805,5.96875,8.813477,13.735352
18.271484,11.360352,7.0634766,10.25293,13.259766
18.254883,9.592773,9.78125,11.666992,12.8671875
18.13086,11.477539,12.896484,14.1640625,14.174805
18.35254,12.268555,13.813477,13.014648,13.8671875
17.694336,11.868164,12.27832,11.935547,14.137695
15.283203,11.776367,7.666992,11.875977,13.457031
16.194336,10.569336,9.520508,8.208008,12.478516
18.398438,13.262695,8.639648,7.919922,12.203125
19.302734,14.073242,9.307617,6.814453,12.303711
19.753906,14.384766,10.587891,11.967773,16.292969
23.320312,14.511719,12.801758,11.893555,16.454102
26.039062,12.861328,15.111328,12.152344,15.958008
25.69629,11.663086,15.577148,9.463867,15.946289
25.328125,11.113281,12.072266,9.80957,18.05371
25.302734,11.371094,13.290039,4.9316406,17.307617
23.714844,10.357422,16.039062,5.248047,18.24121
23.955078,8.625,16.251953,5.703125,20.02539
24.548828,9.474609,16.009766,5.9375,20.308594
20.829102,9.916016,14.887695,10.658203,19.297852
21.173828,11.697266,15.259766,11.666992,18.322266
21.490234,11.946289,14.361328,11.140625,17.485352
20.560547,8.832031,12.025391,10.59082,16.121094
21.530273,8.836914,10.53125,8.163086,13.680664
21.03418,8.136719,7.96875,6.584961,14.469727
19.408203,8.022461,9.614258,8.307617,16.129883
19.895508,10.782227,9.701172,11.422852,17.026367
19.957031,11.645508,11.349609,12.069336,17.15039
15.928711,12.915039,10.40625,12.291016,15.571289
14.001953,12.993164,9.647461,11.626953,14.133789
13.355469,12.386719,9.229492,9.081055,12.487305
12.245117,8.893555,6.8359375,5.7197266,11.549805
11.472656,6.088867,4.333008,5.461914,10.417969
11.918945,6.6347656,3.0136719,3.921875,10.269531
4.2382812,3.3759766,4.6376953,4.553711,10.879883
6.6660156,6.051758,5.9140625,7.419922,10.751953
6.432617,6.4248047,6.7285156,8.404297,9.861328
5.5126953,6.6220703,7.540039,8.40332,8.626953
3.6796875,6.6484375,6.9296875,7.0927734,6.522461
3.4824219,5.5654297,7.0566406,5.4648438,3.7597656
6.1777344,5.3339844,12.813477,7.2128906,3.6015625
15.923828,3.8652344,11.2265625,8.746094,4.6708984
16.08789,2.772461,10.607422,9.461914,7.598633
12.755859,5.0546875,12.506836,9.081055,10.583008
9.670898,7.1132812,11.740234,8.758789,10.766602
10.368164,8.855469,9.388672,8.411133,10.864258
11.853516,9.193359,8.651367,8.913086,10.041992
11.959961,7.9277344,7.359375,6.817383,7.4658203
9.512695,3.4091797,4.6572266,6.444336,7.0146484
6.0166016,3.8544922,6.7226562,4.470703,8.1171875
5.930664,6.28125,9.647461,5.883789,11.254883
7.6933594,10.652344,10.944336,10.496094,11.959961
14.279297,10.650391,9.3203125,7.2910156,10.125977
14.428711,6.7666016,10.043945,6.517578,9.891602
13.473633,8.830078,9.873047,5.6884766,11.645508
15.356445,10.7109375,4.904297,8.029297,12.481445
11.833984,11.634766,5.6503906,7.0126953,11.015625
8.424805,11.18457,7.6015625,7.0117188,9.708984
9.21875,11.300781,10.099609,11.2109375,12.796875
13.158203,11.728516,12.832031,12.957031,12.904297
11.955078,10.646484,12.02832,12.908203,12.453125
10.958008,10.083984,9.374023,11.576172,10.78418
7.2958984,8.416016,6.8398438,8.640625,6.979492
4.1835938,7.7714844,5.2490234,3.9521484,7.3564453
4.211914,9.248047,4.0722656,4.4345703,7.8779297
8.432617,9.981445,3.5732422,4.9384766,10.932617
12.356445,11.59375,9.714844,8.734375,13.958008
11.558594,13.104492,9.720703,10.810547,14.12207
14.457031,12.310547,10.139648,10.824219,13.770508
14.362305,9.701172,9.549805,9.549805,11.724609
10.30957,9.472656,7.0585938,10.111328,10.722656
7.1884766,9.032227,6.560547,10.589844,9.860352
5.2851562,10.264648,4.7578125,8.291016,9.022461
7.0546875,9.958984,5.5839844,6.8476562,9.291992
9.147461,8.470703,7.807617,8.430664,9.3203125
13.253906,8.3125,12.083008,11.12793,9.995117
13.754883,9.124023,10.092773,10.578125,10.509766
13.326172,7.885742,10.611328,12.019531,9.305664
11.896484,6.145508,9.8671875,14.082031,7.428711
10.464844,6.986328,8.548828,9.864258,7.716797
9.364258,11.464844,7.0839844,9.952148,10.448242
9.985352,8.875,6.8759766,8.237305,8.535156
9.9453125,10.9921875,6.495117,7.392578,12.000977
9.833008,9.573242,9.18457,8.665039,11.763672
8.907227,7.5966797,10.1015625,9.509766,11.53125
8.041016,10.100586,10.9609375,8.568359,9.861328
7.885742,9.660156,8.506836,7.716797,8.830078
10.232422,5.6933594,5.001953,6.0820312,4.4941406
10.533203,8.338867,4.7382812,5.833008,7.6660156
9.1875,8.379883,4.4970703,6.4570312,7.466797
8.188477,8.817383,6.294922,7.8183594,10.680664
10.786133,9.555664,12.185547,8.916992,12.307617
12.711914,10.541016,13.658203,8.553711,11.301758
10.306641,10.134766,12.746094,8.862305,8.838867
7.5126953,10.135742,8.589844,8.541016,7.6992188
3.8798828,6.185547,3.9326172,4.501953,5.4765625
3.5595703,4.8671875,3.0341797,2.2636719,4.0429688
7.446289,5.290039,2.4375,2.6142578,3.8232422
8.549805,2.8720703,4.2070312,3.9667969,4.8632812
11.488281,4.0908203,8.901367,10.618164,6.7109375
8.963867,7.5078125,10.634766,11.045898,12.441406
6.0566406,4.8125,9.479492,10.095703,9.635742
6.859375,6.6152344,7.192383,6.7089844,8.130859
5.8554688,5.736328,4.911133,3.640625,5.022461
