"[299, 255]","[227, 248]","[287, 319]","[279, 328]","[230, 262]"
7.6660156,5.341797,2.6347656,5.951172,4.3896484
8.701172,5.2353516,3.015625,7.033203,6.3203125
9.985352,6.3271484,6.3984375,8.135742,7.3183594
9.364258,8.09375,6.8710938,9.739258,8.370117
9.033203,8.611328,5.508789,8.732422,8.955078
9.185547,7.5166016,6.8271484,8.743164,8.332031
7.866211,7.571289,5.8583984,8.170898,7.1552734
8.625,5.6445312,4.6728516,7.6572266,4.6992188
6.9296875,5.1064453,2.7373047,5.1416016,4.1757812
6.3652344,3.8896484,6.551758,6.2695312,4.2265625
8.364258,6.748047,6.330078,8.0859375,6.2441406
9.094727,11.228516,7.9716797,9.90625,10.389648
10.594727,9.022461,9.22168,10.923828,10.3515625
12.142578,7.901367,9.306641,10.583008,8.46582
12.357422,7.1914062,5.9033203,8.689453,6.810547
11.137695,4.7734375,3.8701172,5.5810547,6.8427734
4.993164,4.8945312,3.7294922,4.935547,3.9228516
6.126953,4.2177734,3.3173828,3.3935547,5.2089844
9.831055,4.491211,5.921875,7.022461,8.250977
10.077148,8.733398,8.780273,8.466797,8.788086
9.913086,8.426758,8.947266,8.168945,9.291992
12.072266,7.692383,8.091797,7.944336,7.989258
9.5703125,5.7685547,7.2822266,8.939453,6.239258
4.3847656,4.7197266,5.370117,9.1640625,5.1914062
5.107422,2.069336,4.305664,5.826172,5.321289
6.336914,2.5361328,4.21875,6.0146484,3.491211
9.008789,5.0996094,5.4658203,5.453125,7.524414
11.645508,9.239258,6.8867188,7.841797,8.594727
11.951172,9.216797,7.885742,8.950195,8.535156
11.645508,4.453125,8.177734,8.491211,7.3378906
9.31543,3.5673828,6.2890625,6.3085938,3.5107422
5.911133,4.192383,3.7783203,3.8847656,4.046875
8.407227,6.0029297,4.625,5.390625,4.7382812
8.408203,6.0351562,3.7138672,5.180664,5.4921875
9.1875,5.294922,5.1601562,6.220703,6.8183594
9.84082,7.2509766,5.973633,7.3046875,6.5966797
10.737305,8.321289,7.354492,7.5097656,8.291992
10.078125,7.6748047,9.46582,7.4228516,7.948242
7.7109375,6.6992188,8.806641,7.323242,5.333008
3.1015625,5.883789,8.958984,5.326172,2.9023438
6.3359375,4.921875,5.3828125,5.1484375,2.8710938
6.1240234,4.923828,4.6621094,4.5927734,2.8105469
5.1191406,3.7451172,3.7666016,4.0097656,5.9658203
7.267578,7.1279297,5.591797,5.966797,7.786133
6.888672,9.661133,4.9648438,6.948242,7.8603516
5.852539,9.376953,9.87793,6.9384766,7.3046875
4.6865234,5.8359375,11.7890625,6.5410156,4.7041016
12.595703,4.7490234,8.5703125,5.0771484,2.4160156
10.336914,3.3828125,5.875,5.305664,3.5917969
8.302734,3.1347656,4.321289,5.3154297,3.9960938
4.4853516,1.9375,3.4882812,4.2373047,3.6923828
6.9414062,3.7607422,6.602539,5.5117188,6.334961
7.743164,4.239258,6.772461,7.4375,6.982422
5.583008,4.2021484,6.0,8.450195,5.774414
6.486328,2.7294922,7.6347656,7.0234375,5.0976562
13.3125,3.5078125,8.302734,5.470703,4.0253906
13.425781,4.538086,5.923828,5.9160156,6.604492
13.145508,2.7177734,5.9033203,5.9541016,5.254883
14.417969,2.7333984,10.985352,8.46582,6.154297
13.700195,4.7402344,10.925781,10.2578125,7.0273438
11.911133,6.3203125,12.091797,10.657227,8.750977
11.4609375,6.6132812,12.09375,10.319336,7.4189453
10.558594,5.966797,11.575195,7.470703,5.510742
15.06543,3.3916016,10.53125,7.1689453,4.5820312
14.674805,5.423828,11.030273,4.104492,7.439453
15.442383,4.9677734,10.807617,3.3701172,10.413086
16.805664,5.0341797,11.545898,4.3632812,13.448242
16.063477,11.423828,12.993164,9.625,13.182617
18.140625,11.65625,14.2734375,12.091797,12.871094
18.197266,9.020508,12.766602,11.913086,11.767578
12.336914,12.152344,12.388672,11.942383,11.241211
12.199219,7.776367,11.930664,7.6523438,9.864258
9.866211,4.9140625,11.59082,4.2753906,9.394531
7.4785156,6.3896484,11.329102,4.708008,7.294922
6.484375,5.5634766,10.794922,5.3271484,5.194336
10.125977,7.669922,12.957031,7.303711,7.1748047
12.848633,9.223633,13.230469,11.43457,9.291992
13.202148,10.098633,12.477539,11.03125,8.736328
7.8222656,7.1152344,6.3535156,6.8603516,6.8554688
6.7470703,4.6865234,4.357422,5.8310547,2.7070312
6.484375,3.3476562,3.2734375,4.15625,3.102539
2.9970703,3.7617188,4.1552734,4.3183594,2.7402344
5.698242,3.4375,2.8544922,6.8828125,3.8486328
6.1015625,6.5273438,4.2802734,6.7841797,7.6103516
6.8779297,9.864258,8.950195,11.556641,8.264648
10.366211,9.206055,10.049805,10.587891,8.216797
5.890625,7.361328,6.484375,7.8447266,6.2871094
9.508789,6.3291016,5.1210938,4.8720703,3.4833984
9.774414,7.426758,7.7851562,4.743164,2.8691406
9.263672,5.0654297,6.546875,5.8554688,4.3964844
8.962891,4.4091797,7.0126953,6.821289,5.263672
11.998047,5.3779297,9.878906,6.7060547,8.819336
9.900391,5.4853516,6.7177734,9.154297,4.9970703
10.063477,5.3945312,8.571289,8.758789,8.931641
5.6953125,3.5322266,8.574219,7.352539,5.3945312
3.2548828,3.6660156,6.6796875,3.7558594,2.8476562
6.163086,4.607422,8.444336,3.0517578,2.3886719
10.870117,4.676758,7.401367,6.866211,3.3457031
13.272461,4.763672,5.790039,9.5703125,7.0791016
13.7734375,10.603516,6.5664062,10.048828,11.77832
8.790039,14.15332,7.173828,13.871094,13.869141
13.389648,15.072266,9.5390625,13.001953,14.584961
14.12793,14.500977,8.004883,9.868164,14.399414
11.344727,15.530273,6.645508,7.9521484,15.000977
9.345703,15.5234375,6.5976562,8.373047,12.93457
8.512695,13.083984,8.144531,8.298828,12.954102
10.06543,10.9765625,9.621094,8.888672,11.453125
12.162109,9.415039,8.963867,9.146484,11.174805
15.120117,9.321289,8.253906,10.263672,9.751953
14.12207,10.146484,10.788086,11.746094,10.287109
10.894531,10.78125,9.694336,11.279297,9.22168
9.15918,11.719727,9.130859,9.469727,5.241211
6.798828,9.932617,7.7626953,8.803711,8.103516
8.291016,9.486328,7.9023438,8.947266,6.852539
9.943359,11.383789,9.44043,10.035156,11.787109
11.6640625,11.530273,11.120117,12.515625,12.392578
13.469727,12.982422,14.205078,15.411133,14.15332
13.15918,14.90918,14.600586,13.826172,13.911133
6.7978516,14.0078125,7.810547,8.765625,12.243164
7.5371094,10.603516,7.709961,5.6376953,8.46875
7.6064453,12.005859,6.5908203,4.9345703,9.796875
6.586914,10.342773,6.513672,3.4990234,9.707031
9.081055,9.670898,9.794922,6.3789062,10.025391
12.129883,9.00293,9.994141,9.881836,10.397461
12.3984375,6.7382812,8.282227,10.887695,12.05957
11.141602,7.8808594,7.413086,9.855469,10.432617
10.34668,8.793945,7.921875,8.025391,8.4140625
4.611328,4.205078,7.4345703,5.6591797,3.1523438
2.6328125,2.1855469,6.8603516,5.7177734,2.2675781
1.3779297,2.5009766,6.979492,6.3203125,5.0410156
4.3984375,3.0683594,7.397461,7.4140625,4.7773438
6.013672,3.8466797,9.892578,8.919922,7.501953
9.586914,7.6591797,11.708984,9.2421875,7.9560547
8.637695,7.631836,11.120117,7.71875,6.091797
9.154297,7.0253906,11.708008,4.932617,5.399414
14.817383,7.604492,11.8125,7.435547,10.374023
14.8515625,9.461914,12.338867,7.3154297,10.71582
12.380859,10.260742,12.936523,7.3046875,6.609375
12.505859,9.235352,14.99707,10.582031,7.4804688
9.591797,8.926758,15.4765625,12.536133,8.094727
6.9472656,8.314453,14.416992,10.87207,8.769531
7.466797,7.3164062,13.858398,7.3603516,8.719727
4.4570312,6.870117,11.470703,6.057617,7.205078
3.1152344,6.975586,9.454102,3.8613281,8.279297
4.9179688,7.8515625,8.466797,4.1884766,9.9765625
4.3759766,9.100586,9.260742,5.8046875,10.37793
4.6445312,8.941406,11.139648,9.383789,12.295898
7.1376953,8.961914,10.889648,9.370117,12.420898
8.817383,9.152344,8.980469,8.854492,12.9765625
9.96875,10.56543,9.317383,9.015625,10.876953
8.166016,10.249023,8.016602,6.8740234,11.711914
5.9228516,11.658203,7.5185547,5.192383,11.821289
7.1035156,11.349609,7.455078,5.102539,11.092773
6.6865234,9.375977,6.6083984,6.2978516,8.327148
6.6835938,8.737305,9.614258,7.9648438,11.370117
10.194336,9.657227,10.211914,9.419922,11.263672
10.185547,11.5625,11.206055,11.416016,12.553711
8.390625,12.813477,5.051758,7.854492,13.231445
9.9921875,11.878906,7.754883,8.201172,12.463867
12.986328,10.443359,5.046875,6.7402344,9.543945
10.696289,9.927734,7.0791016,8.282227,7.4970703
8.963867,13.379883,6.2734375,8.063477,11.563477
11.895508,15.493164,11.300781,7.895508,14.168945
15.501953,15.7109375,14.213867,11.142578,15.905273
16.702148,16.186523,13.369141,15.606445,16.518555
18.37207,15.102539,15.383789,15.59668,16.051758
16.020508,15.025391,13.660156,14.296875,14.577148
16.419922,15.033203,13.322266,12.84668,12.59375
15.244141,15.59375,13.576172,12.485352,12.811523
11.896484,12.262695,13.49707,14.105469,10.760742
13.652344,8.3515625,13.479492,14.588867,9.035156
13.250977,5.607422,13.873047,13.503906,8.7578125
10.063477,3.3203125,12.186523,13.397461,8.270508
8.138672,11.717773,9.771484,9.545898,10.571289
10.52832,11.246094,6.1816406,4.6728516,13.322266
14.723633,11.788086,8.157227,3.921875,13.472656
14.674805,15.232422,13.759766,9.017578,11.894531
15.866211,13.624023,12.154297,9.21875,12.71582
13.831055,14.040039,12.483398,9.974609,14.251953
14.144531,16.179688,12.319336,10.630859,17.888672
14.610352,16.06543,10.566406,10.584961,18.185547
14.239258,14.824219,10.681641,8.884766,12.873047
11.479492,18.09961,9.018555,8.327148,15.416016
14.6875,18.871094,10.978516,9.685547,16.280273
16.297852,18.91504,11.603516,13.764648,16.507812
16.739258,17.246094,14.541016,15.311523,15.56543
16.515625,14.96875,17.59082,15.366211,14.1875
15.381836,12.746094,17.44629,15.799805,13.660156
14.990234,9.838867,17.427734,14.560547,12.524414
13.199219,8.985352,15.5859375,14.499023,11.645508
11.47168,10.717773,11.466797,12.532227,8.041016
5.1259766,9.938477,8.646484,6.8710938,5.8964844
5.1679688,8.396484,7.8554688,5.495117,4.3154297
6.0439453,10.075195,5.7734375,4.2509766,5.548828
7.3007812,11.222656,9.407227,9.286133,12.338867
10.248047,11.731445,14.37793,10.515625,13.748047
10.958008,12.198242,12.012695,14.952148,14.943359
10.199219,15.512695,8.917969,11.495117,15.197266
9.128906,16.273438,4.458008,6.783203,14.079102
13.484375,16.526367,6.1289062,9.12793,14.202148
12.0234375,11.571289,10.791992,9.138672,12.010742
12.827148,10.577148,12.134766,10.423828,10.825195
11.294922,12.670898,11.300781,11.428711,10.103516
12.160156,12.860352,12.682617,13.826172,14.78125
12.734375,14.790039,13.25293,14.686523,18.050781
11.514648,15.408203,13.228516,14.176758,17.580078
8.859375,16.342773,11.274414,11.886719,16.445312
8.375977,15.900391,11.295898,6.930664,15.052734
9.650391,18.20996,7.459961,8.800781,16.52246
11.407227,18.260742,10.975586,10.326172,15.208984
12.239258,16.583008,12.870117,10.987305,17.131836
15.271484,17.94043,21.463867,15.46875,17.859375
15.224609,17.851562,19.139648,16.472656,18.384766
13.455078,17.637695,12.754883,16.291016,16.541992
11.3671875,14.93457,11.875977,11.1796875,13.592773
10.037109,12.606445,9.332031,7.0126953,9.243164
9.125977,8.425781,8.745117,6.0273438,6.5976562
6.1884766,9.277344,4.338867,5.3476562,5.8183594
9.894531,9.859375,9.9375,9.306641,10.9609375
13.717773,9.6328125,11.266602,13.49707,12.136719
14.34375,9.979492,14.828125,14.814453,11.782227
14.923828,9.852539,13.219727,13.625,11.024414
10.922852,8.637695,11.31543,13.115234,10.419922
5.845703,8.020508,8.43457,8.606445,6.4453125
6.0703125,8.803711,7.8027344,5.9492188,3.3183594
4.669922,8.4765625,4.428711,5.0585938,6.2402344
2.7363281,7.126953,7.2441406,8.6953125,8.214844
6.729492,11.609375,9.930664,8.583984,13.3359375
7.4628906,12.489258,10.033203,9.012695,15.045898
11.501953,15.258789,9.864258,9.235352,16.34082
9.887695,18.72461,6.0166016,9.129883,19.53418
14.941406,17.265625,8.90625,11.597656,19.45996
16.791992,17.807617,7.8583984,11.743164,17.234375
15.741211,16.99414,8.424805,11.540039,14.189453
14.836914,11.833008,8.647461,8.293945,10.689453
12.866211,13.740234,12.44043,7.783203,15.880859
11.655273,16.34082,17.207031,10.103516,16.03125
14.098633,13.000977,12.244141,10.515625,12.644531
12.113281,15.677734,11.213867,9.511719,15.202148
12.041016,16.32129,8.334961,3.6015625,16.225586
