"[299, 255]","[227, 248]","[287, 319]","[279, 328]","[230, 262]"
7.323242,7.866211,6.459961,8.121094,5.305664
6.185547,5.6816406,7.776367,5.845703,4.0117188
8.595703,5.086914,8.305664,4.6152344,7.6845703
11.989258,8.970703,12.892578,14.100586,10.104492
14.524414,9.889648,17.291992,13.3046875,12.972656
14.761719,12.181641,15.854492,15.061523,13.385742
13.004883,12.011719,5.0273438,14.041016,12.463867
13.010742,11.7265625,6.4765625,13.011719,13.083984
14.016602,11.988281,6.694336,10.708008,13.876953
14.371094,12.009766,5.419922,10.325195,12.668945
13.384766,11.024414,7.823242,10.293945,11.972656
16.832031,10.918945,8.94043,10.71582,11.72168
16.481445,10.951172,9.356445,11.535156,11.725586
16.289062,9.349609,7.189453,10.660156,10.938477
12.079102,9.157227,5.698242,6.8085938,8.006836
13.388672,7.291992,3.0654297,5.7304688,7.5351562
12.755859,7.5839844,4.0546875,5.830078,6.0458984
8.313477,5.982422,4.3085938,5.6972656,5.3740234
10.663086,5.357422,3.2021484,4.666992,7.4501953
10.662109,5.026367,5.0322266,4.5947266,7.553711
9.146484,7.3398438,6.4501953,5.705078,7.7539062
8.027344,7.5283203,7.8515625,6.28125,7.071289
7.8583984,7.0478516,10.299805,8.666992,6.2304688
9.489258,6.790039,10.425781,6.71875,4.629883
7.185547,3.8984375,8.830078,6.526367,4.3427734
5.995117,1.5234375,4.357422,6.0458984,4.1171875
4.189453,1.6787109,4.725586,4.6015625,3.8632812
5.2539062,4.415039,5.40625,4.1259766,6.939453
5.666992,6.2753906,7.5585938,4.319336,7.8808594
5.5322266,6.0341797,7.830078,6.760742,5.4560547
4.2421875,7.448242,6.1220703,5.6328125,7.713867
3.6513672,8.52832,3.8554688,4.9296875,8.394531
3.6259766,8.888672,4.2910156,5.3808594,8.586914
5.765625,10.984375,4.196289,6.2509766,10.294922
6.3710938,15.057617,5.6640625,6.1992188,11.1328125
11.003906,10.424805,10.749023,9.563477,10.723633
12.550781,7.328125,9.746094,8.625,9.178711
10.650391,5.6679688,8.40332,10.483398,7.6835938
9.473633,12.8125,7.836914,9.169922,7.236328
5.638672,10.618164,6.821289,6.1347656,6.4814453
4.783203,14.96875,4.0097656,4.9697266,8.208008
10.1640625,13.165039,5.8847656,6.0166016,8.904297
11.397461,11.875,11.614258,9.634766,11.7578125
14.426758,11.316406,13.066406,15.754883,13.245117
14.269531,14.355469,14.314453,18.84082,13.59375
14.731445,15.1953125,12.950195,18.728516,18.274414
12.643555,17.509766,12.9140625,13.946289,17.205078
10.256836,19.375977,12.432617,13.442383,17.905273
10.189453,16.701172,9.237305,9.863281,15.6015625
10.100586,14.415039,8.079102,10.310547,14.466797
11.916016,14.347656,11.996094,12.052734,17.02246
13.292969,16.416016,14.972656,14.902344,18.308594
15.65332,17.871094,16.075195,15.234375,16.283203
11.380859,14.266602,14.861328,14.504883,15.863281
10.167969,13.935547,9.196289,7.595703,14.473633
5.399414,12.895508,4.9921875,5.6777344,13.838867
5.895508,11.732422,6.548828,6.9433594,11.553711
5.4404297,11.839844,7.788086,6.678711,10.201172
8.182617,11.736328,10.256836,9.456055,12.447266
12.3203125,11.588867,12.107422,13.52832,12.201172
13.552734,10.884766,15.6640625,13.941406,11.831055
10.9921875,13.672852,15.043945,15.186523,12.639648
5.772461,10.99707,8.224609,10.438477,12.259766
6.138672,9.723633,9.0078125,10.277344,13.474609
8.580078,13.111328,10.202148,10.90918,12.237305
8.957031,12.37793,11.045898,11.171875,13.286133
13.811523,14.078125,13.1015625,14.84668,16.219727
17.253906,16.75879,15.993164,19.975586,17.694336
17.532227,16.799805,16.45996,20.905273,18.10254
15.611328,15.8828125,14.958984,18.239258,17.079102
12.785156,16.250977,11.314453,12.43457,14.396484
9.705078,12.981445,10.263672,10.258789,11.209961
8.263672,12.694336,10.618164,9.871094,12.538086
7.6601562,12.700195,10.245117,9.381836,11.234375
8.831055,13.890625,10.574219,11.513672,14.421875
13.30957,15.509766,13.004883,12.775391,16.035156
15.422852,13.980469,13.838867,14.957031,16.6875
12.260742,15.316406,12.550781,16.601562,16.751953
11.611328,12.208984,10.625,11.975586,12.777344
10.53418,6.873047,8.2421875,11.5078125,9.711914
5.5458984,7.2626953,7.1083984,11.2890625,10.957031
7.2158203,8.848633,7.473633,12.188477,12.863281
10.283203,13.411133,8.580078,13.053711,16.896484
11.259766,12.993164,15.302734,13.532227,16.592773
14.125,15.048828,14.555664,12.334961,17.28125
17.473633,13.888672,18.669922,16.88086,17.006836
13.517578,12.838867,9.950195,11.384766,13.75293
8.702148,11.411133,13.59375,10.419922,12.990234
13.567383,10.662109,18.172852,10.853516,13.166016
16.868164,8.674805,13.02832,10.836914,15.37793
21.151367,11.022461,15.7421875,12.599609,17.870117
20.50879,14.488281,19.003906,16.779297,17.17871
19.560547,14.194336,18.39746,17.164062,17.236328
16.668945,17.019531,17.05371,17.216797,13.904297
13.283203,11.827148,11.793945,10.294922,14.175781
6.3466797,9.211914,5.767578,6.5302734,12.810547
7.4277344,7.5146484,6.8339844,4.727539,7.772461
8.1328125,5.9433594,5.9570312,5.2509766,8.113281
11.158203,8.547852,9.34668,7.158203,12.344727
13.345703,11.293945,12.285156,10.842773,13.651367
14.490234,11.890625,12.526367,10.541016,13.0
12.464844,10.380859,10.111328,10.198242,9.643555
8.808594,10.130859,6.9189453,8.275391,7.428711
8.013672,5.9404297,4.6152344,6.241211,7.236328
8.240234,5.198242,3.6054688,5.8242188,5.2773438
7.4970703,5.4228516,3.6503906,4.649414,4.8242188
10.385742,5.5498047,7.4941406,5.7304688,9.200195
11.959961,4.3789062,11.05957,8.463867,9.876953
11.499023,9.777344,11.3671875,9.060547,11.642578
10.96582,9.149414,10.950195,8.578125,11.0234375
9.193359,5.7753906,7.3164062,6.665039,9.228516
10.825195,5.5009766,6.711914,6.6660156,5.2939453
9.830078,7.642578,3.9736328,6.1132812,5.345703
7.3427734,7.626953,4.010742,6.0,5.5771484
5.3447266,7.076172,4.0927734,6.182617,7.1347656
6.131836,5.5341797,5.3535156,5.696289,8.579102
6.3876953,6.553711,5.5351562,5.6523438,8.730469
5.790039,5.701172,5.2978516,8.339844,6.732422
3.3779297,1.3105469,6.506836,6.904297,3.803711
3.1513672,3.3359375,4.3242188,3.90625,3.7216797
3.4023438,3.3583984,1.2841797,4.051758,4.033203
3.8378906,3.5742188,2.352539,3.9736328,4.196289
4.3828125,5.694336,3.446289,4.135742,7.477539
7.6035156,7.319336,9.6171875,10.107422,13.15332
7.7490234,9.295898,10.609375,11.000977,14.361328
7.7871094,8.874023,10.246094,10.28418,13.821289
6.9902344,8.37207,7.3554688,6.6435547,9.999023
4.573242,6.703125,6.046875,3.5615234,8.135742
4.7871094,6.6660156,3.178711,3.9208984,7.7822266
5.131836,6.828125,3.0625,3.868164,7.227539
4.229492,6.833008,4.3740234,4.3242188,9.9609375
7.260742,8.024414,6.3398438,4.4990234,10.337891
7.211914,8.970703,7.381836,4.2646484,12.282227
6.5908203,8.875,7.40625,6.4697266,12.288086
5.9433594,7.649414,5.4121094,5.5546875,10.3046875
3.165039,8.650391,4.475586,6.1103516,10.162109
7.0097656,9.475586,3.2470703,7.216797,10.884766
7.120117,10.830078,5.5058594,6.868164,12.412109
9.05957,11.591797,8.166992,8.378906,16.90332
11.602539,11.563477,13.693359,13.228516,18.373047
12.165039,12.770508,18.490234,16.21582,19.644531
11.56543,12.774414,19.19336,16.086914,19.667969
8.713867,11.692383,13.813477,10.646484,15.766602
6.484375,12.30957,11.249023,7.305664,13.69043
7.607422,12.121094,11.884766,8.859375,14.116211
8.993164,11.850586,8.026367,11.246094,14.332031
12.72168,13.458008,9.44043,10.654297,18.231445
14.567383,13.511719,12.319336,14.1953125,21.232422
15.000977,17.429688,14.624023,16.124023,23.550781
14.644531,18.951172,15.415039,15.876953,22.22168
10.675781,20.713867,11.269531,16.138672,21.661133
13.734375,20.682617,16.286133,15.410156,22.550781
17.111328,19.199219,19.146484,14.807617,15.776367
15.319336,18.345703,12.902344,12.708008,14.1015625
18.304688,18.904297,18.859375,19.02539,19.566406
21.131836,19.55957,24.25586,22.394531,21.049805
21.75,19.25293,25.174805,22.200195,21.41504
19.670898,17.762695,25.416992,21.668945,20.298828
17.847656,16.683594,18.02246,15.12207,16.536133
12.011719,16.10254,14.899414,14.066406,15.807617
11.84668,16.197266,12.891602,12.521484,13.265625
10.651367,16.672852,11.375,11.03125,12.963867
15.49707,15.416016,16.330078,14.605469,17.041992
16.90039,17.507812,18.643555,16.59082,20.44336
17.511719,18.539062,18.146484,16.416016,21.05371
15.698242,21.699219,17.208008,15.930664,24.234375
15.836914,24.31836,20.37793,17.277344,26.72168
16.836914,24.339844,21.651367,20.63086,26.358398
17.024414,24.017578,20.672852,18.920898,24.958008
17.478516,22.847656,13.091797,13.705078,25.039062
19.269531,22.898438,20.561523,22.079102,25.473633
19.079102,22.913086,23.356445,21.911133,24.511719
18.792969,18.685547,22.91504,20.358398,19.49414
16.964844,16.461914,15.646484,15.024414,18.141602
12.47168,16.25293,14.292969,12.691406,15.227539
11.913086,14.807617,11.6484375,10.901367,12.463867
10.798828,13.805664,8.316406,8.261719,13.03418
8.859375,14.90625,10.696289,10.731445,10.907227
14.017578,15.110352,15.375977,15.172852,15.941406
18.239258,15.511719,19.418945,16.634766,18.554688
18.192383,19.698242,19.75293,18.276367,20.609375
18.370117,21.00586,19.356445,18.953125,22.035156
15.597656,22.979492,16.13086,14.548828,22.240234
16.783203,24.268555,18.501953,14.998047,25.201172
21.40332,29.666992,18.91211,17.74707,29.751953
24.425781,29.768555,21.626953,18.581055,29.805664
24.373047,22.041992,14.924805,15.888672,20.229492
22.398438,28.628906,22.49414,22.018555,27.490234
26.804688,30.723633,23.911133,22.605469,31.100586
27.694336,27.914062,22.033203,22.655273,28.733398
23.424805,22.942383,22.360352,22.19336,22.936523
19.625977,20.280273,21.486328,24.364258,21.799805
19.391602,21.124023,21.08789,22.78125,20.851562
19.954102,19.34668,18.21875,19.458984,18.754883
20.396484,18.689453,19.805664,17.666992,18.84961
20.511719,17.786133,21.055664,20.549805,18.393555
20.710938,13.800781,24.816406,18.90039,18.987305
19.856445,16.734375,20.976562,18.59375,15.738281
12.761719,18.700195,14.558594,11.707031,15.076172
9.538086,13.30957,13.166016,7.866211,8.44043
9.036133,16.095703,7.96875,7.7529297,11.173828
10.482422,10.4609375,9.229492,7.151367,9.032227
12.197266,12.600586,9.073242,8.15332,13.3515625
16.685547,10.380859,8.060547,9.317383,16.759766
17.111328,9.993164,8.051758,9.131836,15.479492
13.765625,8.806641,8.96582,7.1259766,11.423828
9.032227,10.7890625,8.480469,5.848633,11.544922
8.552734,8.22168,4.7822266,3.1445312,7.5146484
7.267578,6.1035156,2.3320312,3.109375,1.8339844
3.430664,3.165039,2.1191406,3.8671875,2.3623047
6.5351562,5.1679688,5.895508,5.4179688,7.928711
8.680664,9.402344,10.432617,9.941406,11.174805
8.996094,8.580078,10.268555,10.4453125,11.592773
8.930664,13.797852,9.796875,9.677734,14.165039
9.133789,13.994141,8.571289,10.174805,14.7421875
10.964844,15.141602,9.305664,10.317383,14.949219
14.051758,16.362305,10.556641,9.930664,18.214844
15.681641,18.831055,10.717773,11.500977,22.173828
17.58496,19.84375,17.69629,14.605469,22.098633
18.507812,19.092773,20.664062,16.801758,21.129883
19.669922,17.756836,19.407227,17.09082,18.249023
16.998047,13.839844,12.126953,13.240234,15.379883
11.265625,18.472656,12.311523,14.59082,13.542969
10.512695,17.942383,13.295898,12.926758,14.373047
8.985352,15.004883,12.536133,11.1875,13.408203
6.986328,13.21875,7.8779297,9.926758,8.97168
10.250977,11.704102,15.9140625,15.03418,13.139648
13.389648,11.947266,17.373047,18.34082,13.436523
13.165039,10.761719,15.793945,17.339844,14.479492
12.490234,10.841797,15.102539,15.030273,14.149414
6.6416016,8.572266,9.560547,9.59082,10.663086
5.631836,6.0410156,4.9248047,5.7070312,8.268555
8.086914,6.176758,6.3095703,6.123047,5.0810547
9.989258,3.875,4.673828,5.1484375,4.3496094
13.926758,3.9101562,7.9179688,6.5097656,7.0615234
13.568359,4.642578,8.541992,7.692383,13.208984
11.907227,7.2626953,9.899414,10.993164,14.0859375
13.094727,11.267578,13.795898,11.381836,13.847656
18.134766,7.7890625,12.993164,9.256836,12.15332
19.606445,10.634766,13.003906,8.728516,11.413086
