"[299, 255]","[227, 248]","[287, 319]","[279, 328]","[230, 262]"
11.224609,15.538086,10.363281,10.227539,14.37793
11.311523,16.890625,10.47168,10.526367,14.503906
12.910156,16.43164,11.380859,11.657227,17.75
14.334961,17.14746,12.250977,13.1328125,19.259766
14.864258,15.553711,12.321289,12.145508,18.012695
12.037109,15.271484,8.704102,10.638672,16.918945
7.1289062,13.794922,9.015625,9.852539,15.683594
5.703125,13.387695,5.7314453,6.140625,12.847656
7.7529297,11.348633,3.8916016,5.236328,9.106445
6.0214844,6.0654297,5.1992188,5.788086,5.6933594
7.4970703,5.4726562,8.044922,6.1992188,8.725586
9.026367,5.4257812,10.78418,6.7597656,10.201172
9.516602,6.9970703,8.9140625,7.8535156,9.577148
8.378906,8.192383,6.5410156,7.852539,8.740234
7.236328,7.7353516,6.455078,8.604492,4.385742
3.6591797,5.2822266,3.5097656,8.521484,3.3496094
4.1835938,5.4072266,4.3828125,5.1220703,4.2441406
4.388672,4.9228516,4.4589844,4.3632812,4.185547
8.411133,4.411133,6.7470703,5.6757812,6.7626953
8.833008,8.666016,6.057617,5.979492,8.466797
8.6640625,9.331055,9.154297,7.7851562,8.462891
7.3583984,9.236328,9.396484,7.7871094,7.388672
4.1689453,7.451172,6.076172,5.352539,5.4521484
4.9814453,7.2753906,4.8007812,3.9355469,3.8125
5.4902344,6.3808594,3.8613281,3.9228516,2.9384766
6.977539,4.631836,3.8476562,3.4111328,2.600586
5.4941406,3.8398438,4.3320312,3.0195312,4.694336
8.322266,5.743164,8.114258,5.0839844,7.4501953
8.856445,5.852539,10.137695,9.62207,8.5546875
8.760742,3.9355469,9.800781,9.548828,7.5214844
7.2626953,3.4980469,5.9541016,6.6992188,4.5771484
4.4804688,5.0185547,4.0234375,5.1865234,9.349609
4.5625,9.402344,3.9667969,6.0058594,10.844727
7.803711,9.848633,3.2480469,6.510742,11.68457
10.396484,11.515625,7.5302734,8.254883,11.621094
13.058594,10.131836,12.680664,10.697266,11.761719
11.4375,11.626953,10.954102,9.095703,10.844727
11.083008,6.5351562,8.191406,8.918945,8.074219
10.933594,16.904297,9.084961,10.1640625,16.488281
8.671875,18.20996,10.438477,11.592773,15.800781
12.792969,18.552734,11.990234,11.345703,16.339844
13.698242,19.495117,13.911133,15.146484,16.109375
19.56543,19.03711,18.233398,18.347656,18.325195
21.69336,20.192383,20.983398,20.732422,20.200195
23.138672,20.855469,23.195312,22.723633,19.980469
23.841797,16.90332,24.12793,20.828125,19.910156
20.086914,18.636719,17.80371,19.512695,14.203125
14.208008,14.870117,13.961914,15.042969,11.285156
11.361328,13.972656,13.427734,13.19043,11.550781
8.606445,14.529297,12.283203,11.780273,11.255859
10.457031,12.639648,13.136719,12.503906,11.975586
12.390625,16.423828,14.691406,12.816406,15.862305
16.514648,17.679688,14.660156,13.473633,19.197266
16.695312,18.444336,14.34668,12.925781,18.141602
15.893555,19.260742,12.978516,11.663086,16.763672
15.102539,19.82129,14.670898,11.65918,18.688477
15.661133,19.636719,15.776367,14.431641,19.799805
16.13379,19.836914,15.21875,13.110352,20.689453
20.083984,21.28418,18.623047,18.448242,22.65625
21.327148,23.523438,22.357422,23.081055,24.326172
21.592773,20.901367,22.013672,23.966797,24.973633
20.980469,21.895508,18.624023,20.014648,22.745117
18.72754,21.256836,15.780273,16.250977,19.285156
14.7734375,19.421875,15.256836,15.042969,15.400391
13.1328125,17.461914,17.549805,10.116211,13.879883
12.25,15.790039,11.317383,10.763672,11.504883
13.825195,13.447266,15.668945,15.557617,14.546875
16.595703,13.143555,18.16211,16.411133,17.320312
16.327148,15.208984,18.146484,17.18164,18.986328
15.134766,16.45996,18.575195,21.62793,18.012695
11.472656,19.057617,13.360352,11.436523,16.895508
10.091797,16.014648,9.927734,7.810547,13.12207
11.3828125,17.430664,12.078125,11.303711,13.267578
13.008789,18.367188,11.758789,12.90332,15.913086
17.552734,19.014648,19.357422,18.766602,21.213867
21.260742,19.966797,22.016602,19.65918,21.62207
22.075195,20.450195,24.266602,22.960938,23.347656
21.52832,20.966797,22.456055,21.47168,18.914062
19.138672,18.11914,14.537109,14.03125,20.554688
13.8515625,18.001953,12.311523,12.693359,14.466797
13.453125,15.935547,10.608398,13.99707,13.165039
11.339844,14.348633,10.932617,13.78418,11.1484375
14.947266,12.5546875,16.47754,14.350586,13.588867
15.705078,10.834961,17.344727,17.533203,13.598633
15.532227,7.75,19.131836,16.811523,13.984375
14.058594,10.921875,18.44336,17.104492,11.527344
10.640625,10.386719,12.673828,13.663086,10.219727
8.223633,8.31543,10.967773,9.198242,3.977539
7.654297,10.923828,8.624023,8.332031,6.401367
8.291992,11.487305,6.3896484,8.107422,6.9003906
10.814453,9.660156,8.744141,8.580078,8.719727
12.978516,7.9570312,8.7578125,9.081055,10.496094
11.430664,6.3027344,8.150391,13.02832,10.370117
11.802734,9.618164,5.8867188,12.077148,10.644531
8.699219,9.6015625,6.576172,10.003906,9.786133
5.180664,4.254883,3.8603516,6.2265625,3.9316406
4.301758,5.620117,3.7021484,5.0341797,6.0615234
2.3701172,7.060547,3.2167969,5.609375,7.966797
6.4248047,8.637695,8.324219,8.393555,8.430664
13.816406,9.890625,11.459961,10.489258,9.618164
11.180664,10.922852,12.734375,13.042969,9.455078
10.947266,8.895508,10.087891,11.267578,7.609375
8.673828,7.5273438,8.477539,7.1835938,5.1757812
4.698242,5.6660156,3.0048828,3.6064453,2.5146484
3.4980469,4.0820312,3.6376953,3.9023438,2.5097656
2.8652344,4.385742,2.243164,2.586914,3.194336
5.673828,3.7919922,4.9609375,4.294922,7.1953125
7.392578,4.274414,7.868164,7.173828,9.285156
8.269531,6.133789,8.750977,7.567383,9.52832
7.8027344,6.008789,9.390625,6.8515625,8.373047
7.185547,2.4267578,5.7578125,6.413086,5.413086
8.383789,3.546875,4.65625,5.2851562,4.6132812
8.032227,4.3535156,5.419922,5.9902344,4.658203
5.4375,2.109375,4.279297,5.2490234,4.241211
8.016602,8.564453,8.344727,8.047852,9.142578
10.62207,6.7939453,11.244141,11.794922,12.189453
11.62793,6.4472656,12.225586,12.436523,13.56543
10.771484,8.978516,11.662109,12.400391,13.724609
6.5859375,9.954102,7.475586,9.666992,10.582031
3.727539,9.986328,10.643555,9.575195,10.378906
8.978516,9.37207,11.68457,9.657227,11.411133
8.782227,10.472656,12.270508,9.198242,11.368164
7.647461,10.475586,12.240234,10.500977,10.345703
8.366211,8.829102,11.125,10.853516,9.388672
10.419922,7.6816406,12.130859,12.012695,9.063477
10.564453,6.8378906,11.3515625,12.036133,7.2158203
9.307617,5.8935547,9.552734,9.318359,5.4941406
6.1279297,5.96875,6.21875,6.4208984,4.0039062
5.620117,4.4160156,7.7822266,8.107422,5.4189453
6.4501953,5.5498047,7.109375,8.525391,4.8652344
8.44043,6.5585938,6.9902344,7.03125,7.8632812
11.524414,10.115234,11.796875,13.833984,9.654297
17.024414,9.958984,13.37793,14.178711,11.6328125
15.509766,10.762695,12.003906,13.7109375,12.97168
11.592773,11.291992,12.128906,14.353516,13.807617
4.640625,14.481445,18.274414,12.18457,13.966797
5.9570312,17.077148,9.878906,10.005859,14.827148
11.673828,14.884766,10.939453,13.678711,14.981445
14.30957,18.373047,14.9140625,16.25293,18.549805
19.407227,20.245117,19.980469,19.34375,20.276367
16.625977,17.733398,24.17871,20.34961,22.251953
16.429688,17.901367,17.618164,19.879883,21.249023
15.106445,18.291992,12.274414,13.994141,20.083984
7.444336,17.608398,8.3984375,9.4453125,17.874023
4.7841797,18.46582,8.3515625,9.432617,16.566406
6.772461,16.101562,9.470703,9.499023,12.4765625
14.435547,14.177734,10.842773,11.813477,16.419922
15.082031,17.399414,12.066406,12.708984,17.197266
12.383789,15.5234375,13.456055,14.47168,17.00293
16.972656,15.598633,12.296875,14.477539,16.0625
11.749023,12.1875,10.21582,13.283203,14.834961
6.607422,12.566406,7.541992,13.202148,13.399414
7.4814453,14.2890625,6.477539,11.360352,14.75293
7.338867,15.34082,8.183594,11.359375,14.911133
10.811523,16.25293,10.5234375,11.116211,16.893555
10.3515625,16.763672,10.480469,10.105469,16.271484
9.6484375,13.272461,9.921875,10.041016,14.381836
8.701172,11.330078,10.121094,10.858398,10.109375
7.9140625,7.713867,8.166016,10.951172,7.508789
7.9072266,6.623047,5.326172,6.3710938,8.594727
7.0947266,10.795898,5.086914,6.120117,10.911133
8.338867,9.016602,5.7558594,8.939453,10.69043
11.350586,11.74707,11.307617,11.481445,13.795898
12.59668,13.669922,12.262695,12.532227,15.902344
12.576172,13.114258,12.268555,12.869141,13.765625
12.597656,10.6328125,10.821289,11.682617,13.694336
11.291992,9.295898,8.435547,8.595703,11.282227
11.310547,8.765625,7.885742,5.328125,10.000977
14.354492,6.1240234,7.370117,6.1933594,9.621094
15.15625,8.418945,5.875,4.618164,9.537109
15.185547,9.728516,5.466797,7.9501953,11.688477
11.986328,9.8984375,10.34375,11.141602,11.875
11.87793,10.27832,10.484375,11.417969,11.795898
12.78418,10.853516,11.121094,11.379883,11.266602
14.911133,9.339844,9.84668,9.993164,11.818359
17.455078,8.296875,5.4941406,5.901367,13.792969
15.589844,8.620117,2.555664,7.9091797,13.109375
15.836914,13.155273,7.5185547,8.982422,13.727539
15.9921875,12.592773,10.511719,11.292969,14.118164
12.931641,12.6015625,12.068359,10.993164,14.073242
12.158203,12.443359,13.067383,11.7890625,14.423828
11.730469,12.043945,11.814453,11.124023,12.7578125
10.90625,10.376953,8.681641,10.860352,12.152344
14.416992,11.241211,7.830078,8.21875,12.089844
16.526367,10.796875,8.227539,6.640625,11.87207
18.05371,8.700195,7.3984375,4.600586,10.666016
18.285156,12.008789,7.2470703,8.328125,13.074219
18.823242,14.87793,16.39746,13.880859,13.404297
17.66211,13.729492,16.458984,13.099609,13.370117
16.342773,12.322266,15.1796875,13.55957,15.319336
14.798828,12.225586,11.024414,6.5527344,15.176758
14.424805,12.0546875,5.7626953,8.087891,12.90625
16.604492,12.040039,4.466797,7.298828,11.819336
16.973633,11.400391,4.826172,10.036133,14.071289
17.546875,12.182617,11.186523,11.375977,14.691406
17.726562,11.68457,11.462891,11.401367,14.330078
16.470703,10.902344,12.388672,9.891602,13.8125
15.154297,10.633789,11.837891,8.356445,11.546875
13.216797,9.274414,10.53125,8.959961,10.404297
14.760742,5.333008,9.510742,6.395508,6.602539
15.267578,3.7041016,8.416016,6.166992,4.8271484
13.071289,2.8623047,7.678711,6.3935547,3.1347656
7.2382812,3.90625,5.576172,6.982422,5.489258
6.578125,6.107422,7.3291016,8.213867,11.319336
7.4091797,6.7470703,7.7617188,9.09668,11.487305
7.5410156,7.291992,7.4365234,7.859375,9.161133
4.830078,6.0322266,10.787109,8.8125,6.955078
6.178711,9.094727,8.983398,4.4023438,7.2558594
8.589844,11.383789,5.055664,5.336914,10.316406
7.870117,10.323242,4.9101562,4.142578,9.74707
10.666992,10.608398,7.373047,7.4296875,11.167969
15.022461,10.052734,9.473633,8.6171875,11.294922
15.008789,7.3007812,8.444336,12.873047,10.453125
14.048828,7.7910156,12.599609,12.425781,8.010742
11.19043,7.859375,9.581055,9.560547,7.0664062
5.8603516,4.401367,6.6708984,6.1503906,3.290039
4.6484375,4.689453,3.6445312,5.1210938,4.3789062
6.6914062,5.125,2.1953125,3.4208984,6.004883
11.001953,4.8945312,3.8066406,4.2666016,10.1953125
13.630859,9.775391,6.5302734,6.7529297,11.549805
12.8125,9.745117,15.453125,10.668945,12.699219
14.057617,11.478516,13.490234,11.875977,12.430664
18.72461,11.454102,12.850586,9.795898,8.34082
19.27246,11.981445,13.334961,7.2226562,13.525391
20.171875,10.245117,12.079102,4.739258,11.567383
20.992188,7.086914,11.6015625,2.8417969,12.271484
20.767578,6.0615234,12.498047,4.4453125,12.137695
15.575195,5.004883,11.538086,9.875,15.214844
15.705078,9.741211,9.224609,8.451172,15.506836
12.984375,9.435547,6.888672,7.5097656,10.498047
5.4785156,7.861328,6.0791016,6.1875,7.654297
5.623047,7.390625,6.3896484,5.790039,5.125
3.8466797,5.2490234,4.90625,4.4160156,2.9384766
4.3125,4.4570312,3.5439453,2.7451172,2.7441406
8.991211,4.3427734,6.2890625,7.163086,4.5039062
10.253906,3.5292969,9.423828,10.491211,6.0273438
10.291016,5.774414,9.487305,10.204102,8.532227
8.852539,9.381836,8.87207,9.100586,10.244141
5.7285156,9.254883,9.612305,6.439453,10.331055
2.1132812,8.672852,8.200195,4.609375,11.222656
