"[299, 255]","[227, 248]","[287, 319]","[279, 328]","[230, 262]"
6.4414062,11.189453,11.923828,7.7929688,11.865234
7.118164,10.856445,11.921875,7.6083984,11.150391
6.6777344,8.496094,6.7666016,7.828125,8.980469
6.9726562,8.394531,9.888672,10.355469,9.168945
7.0966797,9.052734,10.852539,9.970703,9.666992
6.1992188,8.551758,7.2509766,8.582031,8.594727
8.75293,8.796875,9.800781,8.808594,7.1132812
6.958008,8.635742,9.797852,9.347656,7.463867
5.932617,6.5634766,8.425781,7.6757812,7.727539
5.743164,9.15918,5.1376953,6.6728516,9.798828
6.6845703,8.488281,5.2646484,4.783203,10.018555
7.5625,8.245117,6.0322266,4.8183594,10.69043
7.0078125,10.582031,9.401367,7.3203125,9.842773
8.0234375,10.7421875,4.870117,5.821289,10.140625
8.838867,9.569336,5.383789,8.416016,9.18457
10.129883,13.142578,7.861328,6.709961,12.264648
11.811523,15.228516,6.791992,5.651367,11.0625
12.150391,13.529297,8.021484,6.9677734,10.822266
9.933594,13.5625,5.841797,6.8808594,11.314453
9.724609,12.931641,6.0664062,8.420898,11.484375
8.655273,12.749023,6.1865234,9.135742,10.618164
7.786133,13.583984,5.0585938,6.879883,10.663086
8.808594,13.354492,2.1992188,6.571289,9.96582
9.56543,12.783203,2.959961,7.276367,10.614258
9.201172,12.75293,2.8984375,7.78125,10.000977
11.138672,12.386719,3.9902344,7.203125,9.412109
11.661133,13.702148,4.588867,8.061523,10.097656
11.9765625,13.189453,4.2246094,9.364258,13.333984
14.175781,13.883789,6.180664,10.224609,15.495117
14.31543,12.461914,6.4833984,9.864258,13.660156
14.678711,12.140625,5.7509766,9.657227,12.246094
13.800781,13.225586,5.182617,10.24707,12.106445
13.567383,12.521484,5.9335938,9.999023,10.875977
14.029297,12.524414,5.6484375,8.594727,11.358398
13.8359375,12.383789,5.270508,9.366211,11.260742
14.470703,13.089844,4.734375,10.667969,13.402344
13.53125,12.991211,3.765625,10.770508,13.926758
12.450195,13.732422,2.6513672,8.46582,12.456055
12.532227,12.671875,4.078125,9.805664,10.380859
12.625977,12.918945,3.6757812,10.814453,7.8583984
13.717773,14.745117,4.404297,10.586914,14.015625
12.254883,13.949219,3.3632812,10.174805,14.040039
11.038086,12.048828,3.8115234,9.808594,12.173828
9.360352,10.50293,5.6191406,7.517578,12.061523
9.014648,10.473633,5.5664062,7.807617,12.0625
9.305664,9.34082,5.2109375,6.739258,11.128906
9.482422,9.356445,3.3632812,6.658203,10.744141
9.844727,11.035156,3.234375,6.7216797,10.749023
10.300781,11.75,4.993164,9.015625,12.864258
10.847656,12.709961,6.223633,10.0234375,13.2421875
11.008789,13.819336,4.0585938,10.067383,13.561523
11.366211,15.792969,5.0039062,10.727539,17.029297
11.588867,15.269531,6.748047,9.323242,17.061523
10.946289,12.505859,11.223633,7.4521484,13.538086
8.704102,10.831055,10.318359,7.455078,12.237305
11.310547,8.271484,6.4433594,6.2529297,6.033203
10.078125,6.3935547,4.5585938,6.661133,4.618164
8.332031,5.7265625,6.9697266,5.3007812,5.0117188
4.057617,6.3203125,6.279297,6.317383,5.578125
4.0302734,6.635742,8.901367,5.955078,8.243164
3.9638672,8.071289,12.6171875,6.838867,8.819336
6.8359375,10.910156,12.495117,5.8896484,10.526367
8.15918,12.987305,6.671875,8.537109,13.401367
10.143555,14.527344,8.845703,8.71582,16.213867
12.199219,16.621094,12.0546875,11.677734,16.84668
13.4140625,17.166016,14.500977,12.415039,16.793945
12.847656,16.490234,15.901367,13.725586,16.933594
11.505859,15.883789,15.699219,13.5390625,16.461914
10.705078,15.455078,15.359375,12.09375,17.083984
10.310547,15.229492,16.277344,13.485352,16.844727
12.3203125,17.470703,13.999023,13.037109,17.353516
12.081055,16.921875,19.40039,15.504883,18.99121
11.563477,15.491211,21.057617,15.553711,19.407227
11.703125,14.258789,16.533203,15.381836,17.422852
11.216797,16.875,16.404297,16.036133,18.019531
11.078125,13.930664,17.429688,16.213867,15.790039
11.005859,14.110352,15.280273,11.803711,15.365234
9.467773,15.268555,5.7851562,2.9140625,12.555664
9.0,7.251953,5.015625,4.3066406,3.7333984
8.933594,4.819336,4.4960938,4.234375,2.328125
8.671875,3.399414,2.788086,4.2773438,2.0205078
7.7783203,4.426758,3.65625,4.6396484,1.5927734
6.1123047,5.3876953,3.9921875,4.8808594,3.0166016
7.017578,9.318359,4.03125,4.6972656,6.3378906
7.388672,12.783203,4.4023438,6.6259766,12.59668
8.078125,13.375,5.2558594,7.416992,13.673828
10.868164,13.328125,11.985352,10.701172,13.500977
12.128906,13.93457,10.106445,11.59668,15.094727
12.131836,16.208008,10.206055,11.378906,15.268555
12.829102,17.667969,10.217773,10.978516,14.756836
14.557617,18.401367,6.9384766,12.305664,16.233398
17.97168,19.71289,12.0234375,13.860352,18.77832
18.34961,20.210938,11.8984375,13.088867,19.50586
18.725586,23.314453,10.649414,12.396484,20.716797
20.545898,24.845703,8.894531,16.421875,23.472656
20.436523,24.640625,15.514648,19.850586,23.714844
22.109375,25.6875,19.03125,18.466797,28.511719
22.033203,17.701172,19.317383,18.578125,15.417969
14.267578,16.28711,13.018555,15.256836,13.110352
12.370117,16.436523,11.041992,13.268555,13.953125
12.1796875,16.960938,11.893555,12.316406,14.089844
10.905273,15.697266,8.697266,10.083984,13.066406
12.677734,19.961914,11.738281,10.714844,22.161133
17.893555,30.192383,23.46289,18.125977,29.519531
25.771484,34.19336,26.264648,22.81836,33.12793
27.49414,26.137695,26.081055,21.083008,23.654297
16.4375,22.405273,18.567383,17.598633,19.146484
14.124023,16.588867,17.860352,16.699219,14.5390625
13.509766,15.699219,15.532227,16.266602,14.204102
11.71875,14.009766,11.517578,11.6875,13.275391
10.006836,9.641602,10.96875,12.145508,13.048828
16.177734,21.53418,10.884766,10.947266,16.15625
16.624023,19.20996,6.8183594,8.481445,18.722656
20.816406,25.080078,13.676758,9.129883,25.464844
22.407227,29.65332,22.737305,17.521484,29.513672
23.475586,29.629883,23.390625,19.59668,29.327148
23.265625,27.66504,17.734375,16.28711,26.97754
23.11914,18.620117,14.763672,17.97168,15.233398
14.192383,12.849609,13.049805,11.983398,10.394531
12.991211,14.515625,8.889648,9.84375,10.333008
11.383789,15.3359375,9.3671875,11.950195,10.96582
14.1015625,17.401367,11.081055,12.868164,14.549805
13.870117,17.97461,14.251953,13.782227,15.3359375
14.361328,19.645508,17.698242,19.425781,17.972656
17.379883,20.125,19.691406,19.791016,19.064453
18.623047,19.279297,18.277344,20.235352,19.75879
15.104492,17.461914,16.06836,20.816406,16.043945
14.154297,16.97461,15.136719,15.087891,14.03125
11.397461,14.012695,14.40625,13.456055,10.133789
9.25293,11.636719,13.672852,10.12793,7.3671875
7.7539062,9.734375,10.466797,7.9853516,5.34375
6.305664,10.15625,9.930664,7.0908203,6.959961
7.203125,14.613281,9.09082,6.3535156,11.291016
15.535156,19.00586,8.1796875,11.0859375,18.166992
16.480469,19.29004,14.368164,15.416016,19.607422
16.740234,20.470703,19.898438,18.487305,20.729492
16.829102,19.563477,20.15039,18.512695,22.295898
15.913086,21.288086,20.567383,18.004883,21.289062
15.338867,21.457031,20.814453,19.707031,20.170898
13.644531,19.999023,19.06543,19.760742,21.169922
14.633789,19.826172,16.219727,16.544922,21.25
14.251953,20.407227,19.34375,17.984375,22.088867
14.735352,20.74707,21.913086,19.475586,22.99707
13.99707,20.254883,23.047852,20.33789,22.701172
16.711914,21.13086,23.012695,18.551758,23.251953
16.90039,22.267578,22.591797,18.893555,23.25586
16.763672,22.666992,22.804688,20.652344,24.93164
21.65332,23.760742,22.86914,22.205078,25.032227
19.171875,23.073242,20.248047,18.870117,23.632812
19.608398,21.30664,15.237305,13.461914,21.06543
17.69336,19.4375,9.15625,5.2685547,18.173828
16.800781,19.294922,9.402344,3.8984375,17.192383
15.771484,19.085938,13.911133,3.4785156,17.27246
17.807617,18.673828,14.396484,6.2958984,17.756836
14.685547,15.970703,14.052734,9.612305,15.180664
16.841797,16.445312,12.8828125,11.961914,15.822266
15.996094,14.638672,10.25,11.1484375,13.950195
14.908203,16.855469,15.379883,12.253906,16.668945
15.262695,22.56543,17.220703,11.550781,21.163086
19.55664,24.21875,17.570312,18.957031,23.348633
19.631836,24.411133,20.365234,19.68457,23.591797
20.035156,25.53418,20.663086,19.326172,24.27539
21.458008,26.642578,20.81836,17.166992,25.117188
21.78125,26.248047,18.342773,15.735352,24.804688
21.976562,21.007812,17.793945,20.966797,22.618164
20.118164,22.079102,19.167969,19.435547,21.424805
18.482422,23.05664,18.729492,19.936523,21.108398
18.58789,22.132812,19.875977,20.4375,20.19043
18.135742,21.84375,19.819336,20.635742,19.463867
19.06836,19.15625,16.481445,15.908203,16.72168
14.029297,14.924805,11.557617,11.21582,10.517578
10.104492,12.125977,8.458984,7.888672,7.939453
8.792969,12.6484375,8.931641,5.338867,8.451172
11.93457,19.202148,8.516602,10.0859375,17.228516
21.072266,24.77539,18.824219,17.670898,24.884766
21.142578,25.04004,23.445312,17.896484,25.729492
22.081055,30.910156,26.197266,23.554688,29.701172
28.063477,34.694336,30.561523,27.999023,30.365234
27.765625,34.006836,29.680664,32.685547,32.899414
29.97754,33.80957,30.714844,32.208008,33.833008
30.21582,32.70703,30.042969,32.811523,31.738281
28.888672,29.051758,27.490234,32.69922,29.44043
26.75586,28.200195,27.59668,29.265625,27.194336
25.993164,28.416992,28.896484,28.810547,25.28711
25.804688,25.427734,25.222656,26.013672,23.81836
24.092773,24.158203,22.605469,22.433594,21.919922
22.470703,22.012695,17.794922,17.688477,18.19629
19.623047,19.455078,16.363281,18.157227,17.36621
17.791992,16.145508,16.754883,16.669922,15.333008
13.870117,14.381836,14.259766,11.047852,11.43457
10.4453125,20.319336,12.472656,9.376953,16.15332
13.248047,20.242188,15.193359,13.500977,19.770508
19.41211,26.55957,16.08789,12.879883,25.481445
19.832031,26.351562,15.588867,14.644531,25.489258
15.706055,19.982422,10.474609,10.199219,18.541992
12.776367,12.954102,10.702148,10.176758,11.783203
10.658203,11.561523,11.223633,21.77832,12.800781
10.666016,11.917969,12.979492,11.236328,11.432617
10.402344,10.448242,14.348633,12.577148,9.496094
7.7753906,6.830078,10.5,10.079102,5.6933594
7.408203,9.069336,7.5722656,8.174805,5.6210938
3.8408203,6.2177734,9.238281,4.638672,6.2558594
8.700195,8.7734375,8.84668,4.571289,3.3251953
11.991211,11.974609,6.477539,5.9560547,10.920898
18.730469,13.844727,6.084961,5.7939453,13.037109
14.15918,14.363281,5.620117,6.8447266,11.413086
8.850586,9.7109375,6.178711,7.4941406,10.526367
7.055664,13.302734,7.254883,7.323242,8.688477
7.3310547,15.927734,5.379883,4.395508,11.253906
7.5810547,17.84961,3.3251953,6.8125,10.791016
8.717773,16.533203,4.5634766,7.7929688,13.035156
8.263672,17.24707,4.004883,10.991211,13.267578
9.579102,20.641602,9.575195,10.444336,16.838867
13.077148,19.113281,9.076172,11.647461,14.313477
8.655273,13.74707,7.2226562,10.90625,15.540039
7.426758,15.378906,9.480469,11.307617,15.681641
7.6992188,18.11914,8.383789,12.623047,16.457031
7.3447266,13.791016,5.779297,11.795898,14.504883
7.338867,15.981445,6.15625,9.467773,14.324219
8.1328125,15.511719,7.3203125,7.501953,12.796875
7.5654297,16.24414,7.642578,6.9697266,11.116211
5.5654297,15.203125,4.5126953,4.7753906,12.558594
6.3466797,15.330078,4.1396484,3.5859375,13.200195
5.8632812,12.838867,3.2871094,2.4423828,10.066406
3.671875,11.371094,3.2509766,2.6933594,5.7148438
4.709961,7.758789,3.1396484,2.8046875,4.2939453
6.298828,4.493164,3.6953125,4.7382812,5.1376953
6.1748047,6.071289,4.086914,4.7001953,5.3203125
2.8232422,9.205078,3.8427734,5.8291016,5.8095703
5.2646484,8.736328,4.3359375,7.0625,7.455078
7.6435547,11.701172,5.185547,8.192383,10.063477
9.404297,12.744141,5.067383,8.814453,10.424805
10.9140625,17.04004,4.805664,9.083008,11.1640625
12.03125,17.68457,5.7714844,8.535156,13.556641
13.8125,18.513672,5.2978516,9.666016,15.529297
14.546875,19.226562,5.0126953,11.604492,19.08496
13.886719,19.816406,10.375977,13.588867,20.535156
13.53125,19.754883,14.605469,13.717773,19.958984
14.467773,18.432617,19.61914,14.488281,17.442383
14.306641,17.458984,19.166992,12.636719,18.416016
