"[299, 255]","[227, 248]","[287, 319]","[279, 328]","[230, 262]"
38.05542,50.927734,77.22778,69.348145,53.36914
95.1355,75.70801,66.42456,77.17285,81.13403
100.0,92.74292,95.391846,98.65723,96.051025
98.291016,97.86377,72.44873,83.70972,91.6626
99.90845,97.406006,98.93799,98.828125,99.29199
94.75708,91.90674,98.54126,98.47412,94.58008
86.49292,90.55176,60.821533,66.015625,76.867676
96.92993,99.261475,97.68677,97.54639,99.35913
97.97974,96.09375,97.54028,98.07129,92.62085
42.730713,39.78882,37.65869,36.401367,32.97119
71.98486,62.799072,88.85498,93.62793,69.18335
91.76636,83.83179,90.25879,92.0105,72.58301
83.70972,98.12012,87.683105,85.55298,93.151855
84.74121,71.90552,68.7439,68.01758,68.927
52.349854,32.836914,47.943115,46.38672,28.631592
5.114746,20.288086,2.0690918,0.012207031,13.348389
9.716797,27.862549,22.698975,26.78833,24.414062
54.229736,58.862305,51.367188,41.003418,59.039307
29.11377,7.4768066,20.092773,9.130859,5.847168
51.483154,81.46973,70.43457,73.10791,78.38135
93.36548,98.19336,98.93799,98.49243,96.12427
85.12573,97.3938,94.29321,93.878174,91.17432
82.684326,45.898438,68.273926,58.465576,42.32788
74.090576,81.20117,78.75366,89.70947,76.44043
50.854492,30.004883,70.25757,61.450195,39.959717
80.39551,86.29761,84.75342,87.927246,88.07373
100.0,100.0,99.92676,99.9939,99.9939
93.53027,81.15234,72.37549,87.51831,88.04321
79.992676,74.70703,73.12012,59.057617,89.245605
84.11865,90.51514,86.48071,84.93652,89.44092
76.831055,65.625,86.30371,65.43579,79.84619
85.04028,96.875,99.572754,99.63989,95.41016
89.34326,95.599365,89.01367,82.458496,95.458984
99.298096,87.95776,66.882324,79.852295,84.24072
99.8291,99.072266,99.87793,98.17505,98.791504
97.54028,94.72046,76.55029,65.07568,92.87109
95.10498,58.062744,69.66553,53.479004,54.534912
91.4978,93.85376,87.71362,84.576416,91.75415
99.957275,99.10278,99.81079,99.749756,99.54224
99.76807,97.528076,99.45068,98.91968,99.383545
75.09766,48.919678,66.52832,61.810303,63.21411
17.614746,30.249023,15.576172,25.390625,41.851807
34.509277,18.29834,41.79077,3.894043,20.288086
67.93823,88.0249,62.109375,62.921143,86.32202
99.68262,99.85962,100.0,99.975586,99.84131
99.91455,99.9939,96.136475,98.76099,99.9939
75.042725,67.108154,18.756104,30.34668,61.09619
96.78955,83.43506,90.2832,90.582275,92.474365
91.882324,73.50464,84.991455,87.994385,70.00122
99.957275,99.96338,99.90234,99.88403,100.0
96.20972,58.63037,88.012695,85.62012,61.51123
86.8103,94.25049,78.930664,82.6416,89.16626
99.938965,99.32251,98.40088,97.89429,99.749756
99.66431,94.90967,99.98779,100.0,98.40698
94.32373,91.39404,97.97363,96.96655,97.19238
98.68164,69.06128,99.29199,80.01099,76.45264
86.39526,51.30005,75.36621,64.84985,66.69922
61.846924,62.976074,57.818604,47.49756,54.052734
48.632812,79.67529,21.868896,25.341797,78.863525
15.100098,2.3132324,31.341553,7.788086,13.40332
57.08008,29.388428,76.0376,60.510254,47.43042
42.504883,59.960938,90.55176,77.10571,66.64429
85.85205,68.71338,84.8999,72.32056,78.6499
19.476318,79.44946,57.30591,27.75879,74.243164
16.595459,84.83276,69.73877,43.060303,74.98779
99.84131,86.68823,99.8291,99.26758,89.31885
99.04175,77.2522,97.90039,98.19336,84.24072
83.35571,76.62964,83.26416,81.62842,67.993164
71.25244,69.06738,60.369873,60.01587,63.830566
80.86548,87.63428,95.61157,97.79663,89.36157
99.94507,98.291016,100.0,99.76807,99.91455
99.35303,97.943115,98.602295,99.43237,99.749756
96.65527,96.94824,99.31641,97.60742,94.451904
95.288086,99.08447,83.795166,90.67993,99.8291
87.20703,68.218994,95.928955,88.64746,69.75708
86.87134,84.11255,84.954834,76.23901,79.96826
67.51099,64.52637,85.284424,81.70166,84.73511
72.33276,76.208496,77.11182,77.056885,83.48999
93.18848,99.92676,92.230225,91.29639,99.67041
98.22998,94.86694,99.1333,98.59009,97.44873
93.89038,87.11548,87.13989,89.886475,87.145996
97.42432,99.835205,99.79248,99.91455,99.90845
99.694824,59.381104,99.3042,98.168945,68.24341
91.241455,68.933105,96.09375,96.30127,60.38208
99.86572,93.53027,98.73657,98.94409,98.20557
92.66968,71.36841,88.17139,86.89575,78.44238
84.191895,75.61035,77.264404,81.49414,66.00952
79.84619,54.730225,63.409424,55.12085,31.243896
78.90625,84.23462,93.59131,91.63208,81.63452
88.7146,77.91748,96.875,92.85889,78.83911
72.98584,57.48291,85.7666,90.86914,58.569336
48.83423,69.11621,53.03955,55.46875,64.263916
72.33276,69.836426,92.65747,95.36743,76.9043
83.39844,79.14429,76.77612,73.480225,67.49878
86.968994,85.05859,39.715576,27.294922,84.14917
99.84741,99.645996,99.95117,93.774414,99.94507
99.98779,99.84741,99.89014,98.97461,99.90234
100.0,99.55444,100.0,100.0,99.627686
99.4751,53.100586,94.75098,96.39282,63.427734
67.17529,65.008545,55.706787,39.068604,69.677734
99.01123,99.4751,98.38867,96.23413,99.76196
96.82617,65.1001,95.86792,89.16016,73.32153
32.336426,20.10498,72.30835,82.8186,28.125
9.906006,15.649414,16.760254,4.937744,19.146729
84.85718,88.97705,93.62793,94.91577,88.92212
100.0,99.45679,98.63281,99.29199,99.42627
99.853516,99.74365,99.713135,98.34595,99.920654
84.399414,69.384766,69.177246,70.19653,67.48047
81.311035,86.68213,80.92041,79.39453,85.72998
96.86279,90.496826,84.97925,75.982666,88.690186
37.902832,37.37793,49.79248,35.55298,49.993896
83.47168,90.356445,97.943115,97.41211,94.14673
61.71875,54.309082,50.463867,47.180176,46.435547
51.086426,70.12329,61.602783,54.711914,67.32788
93.10303,94.14673,81.188965,79.91943,93.15796
88.78784,71.60034,74.07837,64.42261,74.56665
95.336914,99.18823,93.341064,93.94531,99.00513
96.173096,77.53296,87.20703,85.180664,83.6792
67.79785,46.31958,74.00513,58.605957,35.803223
0.05493164,0.48828125,19.696045,18.87207,1.9775391
0.0,0.0,0.061035156,0.048828125,0.0
0.5554199,11.871338,0.0,0.15258789,16.210938
39.801025,32.873535,37.8479,42.645264,30.059814
5.657959,9.429932,5.584717,5.102539,32.04956
62.475586,93.933105,73.724365,76.09863,96.502686
100.0,100.0,100.0,100.0,100.0
98.34595,97.802734,99.78027,99.98169,98.31543
96.25244,98.85254,91.58325,88.50098,93.43262
59.63745,39.257812,47.436523,44.47632,39.276123
54.870605,24.621582,65.03296,63.38501,26.599121
82.507324,45.288086,83.428955,72.97363,46.850586
21.73462,36.77368,52.84424,51.77002,27.67334
86.92627,67.34619,92.3584,91.92505,74.713135
74.55444,76.849365,92.51099,84.851074,80.895996
82.01904,78.02734,84.0271,84.954834,88.12256
98.516846,75.6897,98.40088,99.79248,82.34863
64.45923,1.159668,67.40112,59.710693,1.4770508
55.352783,73.272705,58.203125,56.33545,71.37451
99.38965,88.39722,99.06616,99.80469,91.08887
94.818115,68.76221,99.920654,99.749756,75.93384
89.5874,72.631836,89.538574,91.015625,73.19946
86.91406,99.79248,84.5459,84.32007,99.44458
75.531006,50.38452,50.006104,60.64453,45.03784
79.72412,52.93579,65.753174,66.22925,67.63306
76.0376,93.237305,82.177734,79.71802,93.90869
76.12915,74.6521,86.83472,84.81445,85.60791
95.043945,89.52026,96.0083,98.724365,96.78345
60.009766,98.01636,51.84326,67.0166,99.54224
87.26807,89.37378,73.00415,81.79932,93.914795
75.90332,78.09448,62.68921,59.606934,64.61792
70.44678,43.52417,59.490967,54.327393,48.468018
73.132324,88.70239,68.688965,70.01953,90.496826
74.89624,97.10083,71.40503,81.52466,97.50366
67.27905,83.87451,66.6626,68.10913,83.35571
44.787598,62.872314,62.530518,66.27197,73.69385
26.70288,35.357666,14.544678,8.996582,37.91504
22.595215,52.746582,12.664795,0.1586914,35.339355
23.22998,40.57007,20.86792,13.043213,48.101807
3.0212402,6.781006,9.93042,20.88623,5.8532715
26.708984,24.273682,33.789062,23.80371,10.998535
71.80786,85.47974,71.78955,74.279785,86.187744
86.95679,52.70996,87.475586,85.26611,53.92456
88.41553,95.72754,92.44385,90.9729,93.237305
81.56738,62.420654,84.747314,84.851074,61.816406
79.748535,67.1875,84.96094,85.82764,64.18457
94.11011,92.85889,90.338135,90.08179,95.32471
84.82056,52.056885,52.62451,48.22998,56.66504
65.686035,32.58667,51.59912,56.884766,41.333008
66.80908,41.46118,54.11377,59.8938,33.24585
70.54443,92.767334,62.139893,66.882324,90.15503
96.25244,97.47925,97.27173,96.77124,97.71118
91.90674,83.29468,75.65918,75.50049,79.71802
93.54248,96.051025,85.235596,87.48169,95.58716
83.12378,69.329834,77.45972,80.43213,69.677734
88.41553,99.43848,85.180664,85.71167,99.28589
79.49829,42.034912,75.76294,63.690186,63.42163
68.322754,64.086914,61.779785,71.813965,72.5647
78.36304,69.63501,62.908936,66.40015,59.570312
87.27417,91.833496,89.27612,87.46338,92.907715
85.30884,91.45508,89.99634,88.10425,90.423584
65.06958,61.187744,46.0083,50.29297,70.788574
82.93457,85.876465,88.99536,84.851074,88.62915
88.75122,63.42163,63.635254,69.98291,59.088135
40.893555,33.78296,28.35083,23.901367,30.499268
43.493652,22.198486,38.134766,35.2417,17.889404
30.688477,30.871582,43.988037,33.276367,27.087402
13.7146,54.681396,34.210205,36.309814,43.640137
13.006592,3.4179688,15.185547,20.013428,5.6396484
0.0,0.61035156,13.7146,5.92041,0.21972656
0.8972168,2.960205,10.638428,10.565186,3.5705566
0.0,0.09765625,6.6223145,14.73999,1.0192871
3.1311035,20.53833,7.5927734,13.818359,23.22998
35.97412,51.123047,43.78662,50.579834,53.320312
13.189697,0.6225586,4.5776367,20.880127,1.1047363
0.7446289,12.030029,13.684082,25.41504,20.080566
0.0,0.0,0.0,1.3183594,0.5859375
0.0061035156,0.0,0.0,0.0,0.0
0.012207031,0.0,0.0,0.0,0.0
47.009277,26.837158,10.412598,7.9467773,24.353027
60.10742,52.478027,41.40625,32.4646,55.029297
5.1696777,2.7893066,5.5358887,6.890869,1.739502
15.362549,11.254883,4.7058105,5.517578,12.316895
33.19702,32.751465,45.93506,51.885986,27.496338
72.66846,66.27197,94.4458,93.56079,69.98901
82.855225,33.30078,66.85181,55.249023,32.269287
60.95581,30.755615,38.146973,44.39087,36.02295
79.67529,82.13501,65.77759,69.68994,90.65552
75.81177,68.90869,79.28467,76.08032,74.89624
49.291992,25.372314,69.29321,70.806885,22.79663
85.632324,68.566895,83.00781,77.45361,69.00635
63.568115,74.798584,53.31421,65.88745,71.64307
43.133545,77.319336,45.57495,37.64038,82.20825
64.715576,70.99609,35.443115,28.088379,74.505615
45.013428,37.609863,48.21167,54.870605,21.826172
27.490234,23.278809,67.79785,71.7041,15.466309
57.476807,81.58569,90.26489,86.21216,67.926025
53.649902,39.556885,35.266113,32.556152,41.644287
49.554443,31.26831,45.007324,53.9917,45.39795
66.18652,69.63501,69.281006,73.028564,71.569824
85.78491,79.52881,81.35376,80.60303,74.11499
52.807617,38.29956,37.145996,31.158447,35.31494
31.744385,50.976562,39.257812,29.870605,56.280518
92.29126,88.55591,73.98682,80.27954,89.61792
96.88721,84.48486,92.68799,85.35156,82.440186
86.68823,85.35156,85.65674,75.494385,88.446045
91.986084,94.84253,82.2937,74.62158,92.5354
69.29321,57.366943,73.89526,76.953125,52.79541
24.383545,31.951904,19.018555,22.650146,36.779785
50.372314,50.012207,75.95825,75.83008,48.303223
72.68677,0.1159668,37.86621,51.037598,0.7385254
21.844482,1.2084961,13.763428,0.030517578,0.39672852
40.31372,7.635498,14.044189,23.217773,7.208252
13.342285,30.853271,5.810547,13.525391,21.154785
42.034912,39.031982,47.265625,44.07959,48.7854
11.035156,14.794922,44.56787,38.659668,14.746094
14.752197,25.115967,30.651855,30.46875,23.339844
33.569336,43.408203,11.553955,12.902832,35.772705
92.23633,83.514404,51.05591,40.270996,85.98633
89.70947,30.871582,46.868896,46.502686,39.971924
45.794678,43.267822,26.635742,25.079346,43.762207
75.45776,89.94751,65.49072,59.51538,89.31885
89.30054,79.22974,98.93799,98.64502,73.91968
89.15405,80.3833,87.71973,89.70337,75.38452
43.450928,26.275635,35.217285,33.496094,22.808838
32.989502,35.003662,53.308105,58.75244,42.218018
61.627197,55.41992,60.19287,53.222656,53.442383
75.09155,47.314453,78.59497,75.84839,39.074707
42.248535,70.34912,75.04883,77.948,61.71875
56.237793,48.21167,21.533203,20.20874,26.989746
59.295654,43.206787,53.448486,53.729248,46.588135
97.19849,66.61987,82.91626,87.64038,74.1272
73.74878,66.39404,91.25366,89.2334,70.15381
49.847412,52.36206,36.44409,39.611816,47.06421
38.56201,75.494385,44.354248,40.686035,76.48926
81.23779,92.50488,47.894287,43.615723,95.01343
92.993164,96.75903,95.458984,96.240234,97.857666
81.56128,68.377686,80.63965,79.486084,70.373535
32.79419,44.25049,32.159424,32.592773,40.1062
33.441162,41.85791,51.013184,42.163086,49.920654
81.225586,84.375,94.14673,95.15991,88.09204
86.309814,83.13599,89.18457,87.48779,70.33081
70.4895,89.18457,70.77026,77.215576,85.00366
36.694336,68.927,52.67334,33.636475,77.301025
59.747314,93.24951,73.24829,81.274414,88.43384
91.54663,92.91382,94.16504,92.72461,93.359375
69.000244,68.499756,71.56372,65.771484,81.866455
13.970947,23.29712,39.27002,42.91382,27.227783
66.40015,53.28369,83.39844,86.92627,70.37964
76.867676,67.54761,71.069336,68.65234,67.248535
87.194824,84.399414,91.3147,84.86328,82.873535
38.775635,35.351562,46.484375,50.03662,35.736084
88.67798,96.03882,93.73779,92.91382,97.25342
63.342285,58.850098,70.043945,70.09277,66.37573
63.952637,4.8095703,55.76172,71.3562,17.297363
58.154297,52.39258,64.190674,67.95044,51.19629
65.83862,65.84473,71.76514,74.54224,56.29883
62.023926,54.296875,62.799072,65.65552,47.96753
72.34497,58.691406,79.278564,77.960205,66.19263
62.78076,82.04956,71.118164,67.926025,73.36426
56.359863,55.48706,43.743896,45.62378,64.78882
25.665283,29.260254,49.353027,65.03296,31.451416
0.53100586,0.68359375,16.088867,8.02002,11.462402
8.056641,18.286133,11.627197,8.758545,19.207764
58.032227,43.33496,67.370605,68.37158,56.500244
70.6543,39.300537,50.793457,49.37744,47.82715
86.64551,76.46484,89.7522,87.6709,81.73828
88.83667,82.34863,63.28125,64.48364,80.86548
39.630127,57.128906,52.685547,48.425293,43.15796
11.413574,16.394043,41.19873,47.98584,15.527344
16.241455,3.90625,3.7475586,1.6357422,2.2705078
37.860107,25.817871,43.780518,35.961914,27.593994
33.605957,43.762207,36.96289,36.9812,43.780518
83.10547,83.28247,80.68848,77.14844,73.0896
67.73071,38.842773,59.18579,47.72339,35.668945
83.31909,47.991943,47.869873,41.18042,37.39624
54.56543,40.045166,38.531494,26.416016,55.004883
69.12842,70.17822,58.825684,57.34253,70.80078
85.29663,89.4104,78.186035,77.06299,88.38501
55.05371,35.620117,47.052002,46.514893,32.995605
50.549316,41.748047,41.760254,44.378662,47.125244
45.025635,65.17944,60.19287,54.797363,63.720703
93.84155,81.26831,79.30908,86.34033,84.65576
91.52222,98.17505,90.38696,89.48364,97.857666
94.573975,87.03613,92.022705,78.57666,86.9751
45.184326,67.09595,40.563965,18.676758,66.02783
23.913574,9.411621,27.79541,9.197998,6.958008
20.721436,1.2451172,49.16992,32.635498,2.9968262
17.572021,0.0,16.522217,12.3046875,0.0
49.194336,0.4638672,57.354736,37.036133,14.898682
64.971924,16.070557,60.22339,62.03003,63.62915
80.53589,28.082275,65.30762,47.821045,71.221924
95.806885,75.0061,95.57495,94.122314,86.8103
86.138916,67.144775,96.31348,94.66553,89.18457
91.8457,59.35669,77.960205,63.7146,81.988525
72.857666,50.042725,93.133545,67.5293,60.809326
46.795654,22.271729,79.73633,67.07764,32.70874
59.039307,32.458496,62.634277,24.401855,34.173584
43.041992,69.03076,69.921875,54.589844,56.49414
61.120605,73.29712,75.0,67.81006,69.62891
33.166504,67.08374,31.781006,22.766113,45.098877
26.99585,34.051514,14.178467,16.760254,38.201904
52.2583,69.25049,29.70581,43.670654,64.105225
6.0302734,50.775146,11.71875,15.588379,52.124023
16.748047,9.283447,32.366943,26.507568,3.527832
84.30786,59.332275,67.944336,65.93628,72.60132
82.92236,71.069336,44.58618,23.449707,87.31079
67.57202,35.046387,25.842285,21.044922,67.49878
48.547363,74.920654,20.288086,19.989014,66.44287
83.54492,75.64087,81.91528,80.66406,83.288574
95.63599,86.4563,81.170654,84.41162,92.144775
84.03931,53.125,66.99219,64.08081,61.236572
79.11377,81.23169,64.18457,63.757324,76.763916
87.786865,92.44385,93.32886,89.67285,81.56738
96.31348,74.591064,97.72339,96.42944,90.026855
86.572266,79.730225,82.788086,73.99902,71.136475
85.08301,82.10449,96.74072,91.778564,88.916016
38.26294,56.506348,14.935303,2.9418945,60.7666
41.467285,77.770996,15.393066,0.30517578,66.918945
0.42114258,27.392578,15.625,15.246582,23.76709
17.248535,27.532959,16.497803,21.50879,27.722168
98.66943,82.788086,99.61548,99.57886,86.23047
56.488037,49.084473,62.402344,65.73486,35.29663
86.33423,87.976074,88.51318,95.55054,88.079834
62.93335,44.396973,47.058105,49.8291,47.210693
76.46484,82.55615,74.938965,77.00806,84.15527
58.551025,48.35205,77.526855,69.36035,33.92334
81.89087,54.266357,64.990234,79.278564,38.494873
70.233154,59.765625,69.451904,59.88159,55.389404
88.16528,98.028564,77.41089,75.44556,96.40503
97.83325,99.835205,99.4751,98.75488,99.92676
85.74829,81.83594,77.79541,76.64795,78.31421
46.759033,49.768066,62.176514,70.46509,51.654053
53.485107,70.98999,61.00464,64.5813,69.84863
93.2251,61.82251,64.39209,63.745117,68.38989
88.12256,92.40112,85.65674,80.91431,77.33154
56.573486,85.99243,72.52197,74.58496,74.37134
69.33594,77.39258,51.275635,40.22827,69.329834
24.957275,62.17041,9.661865,11.04126,47.070312
84.06372,93.03589,83.03833,86.224365,86.26709
82.8125,86.73096,86.74927,89.16626,96.118164
