"[299, 255]","[227, 248]","[287, 319]","[279, 328]","[230, 262]"
71.92383,45.654297,72.75391,73.54126,45.53833
99.42627,97.5647,93.255615,93.73169,97.680664
99.90234,99.63989,93.670654,90.148926,99.95117
99.9939,100.0,99.84741,99.78638,99.9939
99.96948,97.9187,99.93286,99.975586,98.931885
99.645996,84.50928,98.14453,94.70825,86.42578
86.04126,79.1687,70.97778,69.29321,74.157715
91.27197,62.06665,67.211914,54.766846,62.200928
83.64258,76.72119,75.41504,75.09766,79.663086
99.45679,97.60742,91.80908,94.68994,97.46094
68.170166,33.54492,39.855957,32.769775,37.41455
75.62866,62.286377,53.07007,56.53076,53.85132
86.96289,48.968506,65.93628,63.031006,53.43628
83.27026,81.26831,63.378906,60.388184,78.72925
99.468994,81.70166,99.28589,99.835205,85.36377
91.534424,70.98389,96.221924,94.451904,77.50244
98.828125,89.02588,93.90869,94.91577,93.621826
79.91333,92.126465,88.33618,85.961914,91.64429
99.84741,94.921875,99.975586,99.96338,95.34912
88.427734,34.857178,67.1936,76.53198,37.841797
58.563232,53.381348,16.711426,1.385498,42.13867
41.064453,31.872559,19.628906,14.208984,29.56543
73.2605,62.976074,60.577393,45.965576,64.16626
81.91528,95.75195,87.60986,85.2478,96.51489
99.591064,70.599365,99.98779,99.70093,76.763916
96.63696,79.18091,85.961914,89.697266,69.07959
91.80908,64.38599,95.55054,92.40723,64.61792
95.147705,89.09302,96.68579,97.93091,91.656494
90.6189,85.65674,89.85596,87.31079,86.29761
95.01953,79.63867,82.855225,87.62207,74.10889
89.45923,82.50122,90.42969,95.10498,88.20801
46.868896,27.197266,54.89502,61.676025,35.516357
81.604004,44.799805,95.4895,95.72754,41.119385
59.503174,66.80908,62.841797,65.6311,62.677002
76.71509,76.20239,71.19751,72.67456,67.767334
91.95557,32.287598,95.721436,96.466064,37.890625
82.22656,97.77832,88.34839,95.062256,97.18628
99.694824,99.798584,99.56665,99.938965,99.90845
92.29126,96.82617,97.08862,84.40552,97.29004
89.5813,78.79028,99.11499,97.058105,88.95874
67.50488,95.81299,62.561035,65.36865,98.69995
79.559326,98.75488,68.79883,64.416504,96.1853
95.562744,84.8938,86.15723,73.132324,86.90796
77.593994,54.99878,64.13574,66.30859,57.48291
69.11621,67.30347,63.208008,49.542236,64.28833
76.53198,45.03174,56.262207,50.933838,53.8208
79.36401,73.22388,62.579346,72.613525,70.95337
99.63379,94.42749,98.309326,97.99805,96.85669
78.02734,68.17627,84.18579,88.00049,68.011475
70.81299,49.3042,50.46997,49.884033,45.01953
99.468994,99.88403,95.20874,90.57617,99.91455
83.17871,65.24048,64.01367,60.19287,61.810303
79.23584,29.66919,33.337402,34.448242,25.567627
82.69653,54.25415,23.156738,32.977295,39.02588
67.944336,56.53076,51.202393,44.018555,52.459717
33.099365,59.94873,73.602295,54.47998,64.67285
51.556396,44.366455,70.928955,62.408447,34.63745
82.281494,35.62622,41.308594,43.68286,38.146973
89.96582,69.58008,59.98535,52.06299,75.03662
61.486816,51.757812,64.923096,53.36914,63.372803
59.28955,87.31079,81.87256,88.586426,87.20093
74.74365,44.470215,66.278076,45.721436,39.282227
66.99219,77.67334,85.7605,87.4939,77.471924
99.16382,99.67041,94.244385,95.01953,99.627686
99.627686,98.62671,92.77344,91.278076,96.520996
88.73291,46.533203,51.17798,56.37207,53.808594
99.45068,52.13623,77.471924,76.12915,58.5083
98.516846,99.91455,94.000244,92.77344,99.823
84.86328,47.229004,48.345947,55.096436,44.06128
73.10181,49.066162,40.649414,40.997314,46.58203
45.64209,32.421875,51.550293,46.966553,37.77466
4.119873,14.227295,0.36010742,0.579834,8.306885
50.64087,59.143066,71.20361,73.602295,66.93115
97.54028,98.93799,99.98169,99.957275,98.809814
88.10425,61.24878,61.70044,68.60962,61.608887
77.978516,77.69165,65.1001,74.31641,71.240234
90.045166,71.33179,60.614014,59.075928,70.60547
77.98462,38.83667,40.57007,44.30542,34.179688
97.44873,96.24634,71.63086,74.49341,94.92798
99.957275,96.97266,99.08447,98.76099,96.38672
54.119873,48.132324,49.536133,48.168945,55.999756
93.45703,93.14575,97.717285,97.21069,92.22412
58.355713,24.34082,24.597168,40.270996,37.957764
98.07129,97.54028,58.63037,63.909912,97.17407
98.45581,99.94507,96.71631,95.54443,99.89014
100.0,99.957275,99.92676,99.920654,99.96338
99.86572,99.59717,97.70508,97.60132,99.43237
99.98169,99.58496,99.89624,99.749756,99.84131
95.52002,99.713135,99.346924,98.6145,98.89526
89.16016,99.017334,99.072266,92.30957,99.00513
30.181885,99.74365,96.75903,94.15283,99.53003
76.63574,40.533447,59.197998,49.700928,60.79712
76.11084,81.75049,83.25195,84.08203,85.22339
98.18115,91.02783,83.27637,90.03296,95.007324
85.83374,88.34839,74.383545,58.90503,76.293945
96.47217,91.78467,97.003174,96.49048,93.463135
99.98169,98.93799,99.90234,99.96948,99.55444
100.0,99.51782,99.92676,99.98779,99.84131
99.975586,99.53003,99.365234,99.816895,98.480225
99.73755,99.68872,99.07837,98.52295,99.365234
100.0,98.71826,99.938965,99.975586,98.82202
99.98169,87.701416,89.416504,94.592285,92.144775
80.85327,47.021484,45.507812,53.167725,56.20117
81.066895,72.08862,90.24658,91.30249,75.40283
85.80322,63.079834,74.645996,69.31763,68.927
57.56836,36.065674,41.693115,38.189697,36.33423
84.8999,87.83569,67.8833,72.38159,86.8042
98.413086,92.62695,70.19653,64.09302,95.61157
53.07617,40.545654,32.93457,31.591797,35.742188
98.33984,99.9939,95.581055,97.35718,99.975586
99.91455,90.52734,97.93091,95.41016,91.88843
73.9624,74.02954,43.463135,46.099854,76.47705
99.72534,99.96338,89.94751,90.33203,99.80469
93.12134,81.604004,87.08496,90.448,88.098145
97.3999,89.56909,82.110596,82.96509,86.02295
48.913574,41.87622,24.407959,26.45874,54.144287
27.056885,13.842773,15.917969,17.767334,13.684082
24.85962,21.362305,44.232178,60.98633,33.709717
61.21826,44.335938,23.638916,27.685547,30.010986
67.1936,83.97217,81.85425,84.74121,86.88965
97.5647,94.75098,97.34497,95.025635,95.26367
92.04712,76.52588,85.45532,85.961914,73.291016
85.04028,62.200928,71.61255,70.89844,65.216064
63.500977,45.758057,56.011963,43.66455,56.06079
54.19922,49.743652,48.913574,47.82715,53.31421
59.74121,64.038086,93.75,76.71509,66.28418
69.19556,46.850586,83.062744,65.57617,62.841797
56.45752,43.151855,70.38574,59.295654,43.286133
90.94849,90.704346,93.133545,93.829346,92.51099
83.44116,58.306885,74.51172,68.99414,58.47168
46.270752,27.233887,31.072998,29.821777,26.00708
38.360596,2.3498535,33.428955,37.756348,2.6916504
20.379639,9.204102,43.615723,33.31299,6.4453125
54.8584,93.914795,43.615723,42.858887,86.70044
96.85669,92.81006,75.964355,79.65088,79.37012
95.843506,83.03223,79.56543,83.08716,74.298096
83.20923,63.726807,69.28711,77.10571,61.712646
48.92578,30.065918,78.167725,79.14429,31.604004
85.69946,69.30542,83.898926,80.41382,74.29199
68.41431,43.02368,56.140137,70.25757,58.99048
46.557617,54.47998,50.091553,50.543213,55.69458
72.83325,48.736572,74.23706,78.045654,59.417725
34.75952,33.050537,54.571533,50.72632,37.01172
54.156494,19.207764,46.02661,42.285156,30.859375
47.631836,25.189209,28.503418,30.145264,36.224365
78.619385,75.78125,71.21582,73.254395,73.87695
91.986084,77.38037,78.19824,87.8479,82.684326
89.642334,71.04492,76.812744,75.354004,73.18115
87.87842,45.57495,59.625244,54.47998,57.232666
76.23901,40.753174,63.52539,61.462402,52.282715
51.184082,12.487793,39.7583,29.77295,11.547852
87.04224,97.003174,90.03296,79.74243,97.46704
99.6582,98.66943,99.957275,99.68262,99.346924
91.39404,84.25903,72.473145,62.72583,82.17163
96.02051,94.02466,94.177246,89.32495,89.83765
68.89038,47.08252,57.76367,64.764404,51.470947
70.59326,56.140137,59.74121,58.111572,60.351562
76.690674,55.059814,47.784424,29.876709,58.03833
58.07495,37.615967,40.881348,42.02881,41.741943
34.588623,3.3752441,41.35742,37.542725,13.397217
28.320312,40.76538,28.277588,38.45215,38.5437
83.36182,56.29883,77.61841,74.78638,58.099365
66.381836,64.52637,80.62134,81.58569,69.885254
67.26074,57.72705,83.52051,76.34888,58.05664
2.0324707,0.3112793,15.9729,6.4575195,6.121826
6.9885254,5.6884766,0.0,0.0,12.457275
0.0,0.0,6.7993164,10.101318,0.0
21.911621,40.15503,38.29956,27.886963,41.40625
4.4067383,53.027344,49.084473,47.265625,51.849365
61.77368,81.21338,72.95532,73.65112,83.5083
85.7666,54.089355,49.121094,63.311768,55.871582
95.28198,85.7605,80.56641,84.32007,87.96997
60.217285,24.3042,64.16016,55.74951,37.072754
74.823,72.54028,68.01758,64.09302,67.08984
98.67554,95.97778,90.911865,92.06543,95.684814
75.62256,59.552002,79.315186,75.01221,58.459473
46.37451,48.431396,43.377686,32.75757,49.67041
96.07544,99.59717,91.448975,93.37158,98.7854
88.983154,86.49902,88.16528,92.456055,89.678955
79.22974,64.2334,66.96777,71.20972,65.704346
50.152588,43.60962,60.55298,58.807373,44.665527
25.378418,10.3515625,53.35083,57.592773,15.771484
50.18921,29.351807,64.11133,76.40381,56.78711
70.69702,25.976562,66.18042,81.64673,28.643799
93.359375,91.05835,88.793945,94.940186,93.09082
58.984375,43.2312,48.120117,50.720215,42.98706
54.66919,43.10913,62.921143,49.53003,45.092773
90.356445,98.33984,63.684082,58.898926,98.461914
97.97974,80.23071,86.23047,90.875244,81.48193
52.911377,42.37671,85.302734,85.4187,53.07007
56.072998,73.0957,91.24756,92.20581,69.81201
85.809326,97.83325,56.054688,51.885986,75.45776
57.751465,37.145996,52.319336,49.005127,41.68091
92.81616,70.64819,98.73657,97.9187,75.73242
99.9939,94.53735,99.96948,99.87793,99.072266
75.21362,59.124756,52.215576,61.30371,62.96997
53.204346,48.431396,64.66675,52.893066,31.744385
41.918945,32.4646,63.342285,57.336426,38.494873
81.64673,62.835693,83.08716,74.02344,61.761475
48.876953,6.524658,37.65869,23.248291,17.437744
63.33618,59.210205,72.906494,68.20679,60.742188
81.604004,65.55786,97.076416,98.27881,68.64624
77.2583,48.02246,64.82544,61.975098,46.539307
57.13501,35.351562,7.1777344,8.48999,37.81128
28.497314,15.679932,29.052734,30.273438,14.013672
35.44922,37.268066,17.30957,3.7719727,35.845947
42.718506,12.93335,26.77002,20.410156,11.297607
41.271973,23.815918,41.723633,51.574707,19.085693
51.61133,14.245605,33.563232,39.55078,16.607666
52.093506,41.845703,76.77612,75.21973,47.772217
52.65503,39.923096,41.204834,32.86133,47.7417
64.37378,26.483154,81.92749,86.138916,31.237793
42.16919,36.071777,48.809814,49.822998,32.83081
37.6709,4.840088,49.084473,55.065918,8.288574
30.615234,2.1728516,22.155762,8.770752,1.5258789
27.148438,24.493408,33.73413,35.21118,24.91455
65.19165,75.09155,75.21973,80.303955,72.55249
89.141846,65.65552,87.8479,87.65259,70.495605
85.0708,82.562256,83.21533,81.5918,75.07324
43.15796,19.18335,15.643311,14.123535,13.531494
74.871826,88.06152,81.92139,83.20923,85.50415
52.7771,28.479004,32.91626,46.92383,37.43286
18.908691,33.410645,46.398926,33.911133,35.565186
47.821045,57.48291,60.5896,59.25293,62.60376
80.841064,80.17578,91.693115,90.71655,88.50708
55.895996,50.53711,47.60742,46.07544,56.604004
49.084473,79.91333,69.64111,67.492676,87.39014
78.10669,59.106445,70.84961,70.37964,59.65576
68.85986,72.43042,57.214355,66.76636,72.81494
53.240967,52.075195,61.047363,62.493896,46.203613
99.261475,93.81714,97.58301,96.362305,95.98999
77.81372,73.66333,59.7229,59.960938,70.495605
89.67285,98.41919,79.77295,89.46533,98.84033
88.34839,79.57153,87.31079,82.91016,81.26831
74.76196,63.201904,51.757812,50.378418,66.345215
66.900635,51.922607,53.88794,50.543213,57.373047
44.226074,67.15698,80.841064,79.486084,73.90747
35.784912,44.13452,58.807373,59.265137,56.18286
46.38672,32.287598,44.787598,44.73877,31.188965
7.897949,2.0141602,16.918945,19.77539,13.543701
44.226074,53.411865,83.55713,82.45239,67.73071
54.309082,59.838867,58.6792,66.08276,56.80542
58.203125,36.505127,53.68042,43.688965,44.63501
3.930664,3.6315918,12.060547,2.0446777,24.499512
1.7578125,14.39209,18.73169,27.349854,13.525391
46.58203,31.903076,79.852295,76.641846,45.06836
67.81006,73.028564,59.94873,56.21338,71.57593
9.832764,14.605713,1.1962891,4.510498,17.39502
0.0,0.26245117,6.8969727,12.255859,2.368164
25.482178,36.956787,52.191162,59.674072,51.61743
58.892822,44.36035,60.968018,64.660645,50.79956
27.368164,35.076904,53.515625,46.954346,41.12549
35.88867,32.56836,51.519775,52.83203,41.229248
42.12036,60.534668,71.917725,78.863525,69.72046
53.442383,42.90161,56.469727,51.568604,45.703125
44.415283,60.60791,42.193604,51.068115,55.438232
74.20654,48.651123,59.88159,58.19702,49.108887
90.66162,76.46484,75.860596,77.17285,69.98901
94.23218,79.29077,59.28955,50.323486,70.22705
79.46777,53.607178,51.922607,45.996094,47.662354
87.371826,81.03638,61.920166,67.85278,83.081055
88.43384,78.6438,68.41431,62.768555,81.44531
89.78882,65.270996,67.84668,73.187256,69.958496
88.3667,69.66553,89.105225,84.332275,69.732666
77.819824,80.12085,82.59277,74.66431,81.0791
96.14868,77.264404,95.81299,95.843506,84.13086
93.951416,83.71582,97.265625,95.26367,90.99121
82.32422,72.58911,89.84985,81.48193,69.06128
88.29956,95.495605,91.589355,85.26611,96.173096
95.53223,91.430664,98.40698,90.08179,97.20459
84.625244,97.58301,97.369385,99.42627,98.37036
79.815674,80.43823,73.90747,84.539795,83.99048
66.54663,74.68262,83.59985,88.079834,67.681885
62.390137,53.94287,42.541504,21.142578,59.625244
88.55591,64.79492,50.042725,40.612793,70.440674
94.23828,92.889404,93.2251,92.370605,89.72778
58.343506,60.333252,51.879883,43.89038,61.193848
26.171875,30.181885,49.249268,40.85083,23.986816
35.77881,26.690674,57.30591,61.358643,40.924072
63.482666,34.06372,36.071777,35.760498,46.96045
6.225586,4.8095703,4.321289,2.6794434,5.090332
6.500244,0.05493164,11.181641,4.6569824,0.0
0.0,0.0,0.0,0.0,0.0
0.0,0.0,0.0,0.0,0.0
10.583496,44.25049,12.365723,15.765381,47.351074
55.86548,35.40039,54.75464,51.141357,41.900635
66.04614,54.815674,68.64014,77.0813,62.41455
41.748047,54.058838,68.50586,70.3125,60.998535
86.694336,93.444824,98.19336,93.43262,96.02051
81.47583,89.78882,84.75342,88.48877,90.9729
82.74536,59.051514,65.6189,74.72534,58.129883
65.893555,35.516357,58.55713,49.505615,33.07495
32.592773,33.276367,57.037354,23.0896,40.551758
29.23584,10.05249,37.524414,26.776123,17.010498
41.23535,7.659912,46.75293,34.18579,31.286621
17.614746,0.0,23.962402,1.550293,40.234375
49.26758,33.63037,47.113037,23.016357,34.41162
59.74121,68.64014,75.71411,76.59912,74.10889
50.030518,79.30908,63.311768,59.240723,73.97461
96.398926,61.938477,86.59668,87.28638,60.736084
69.696045,72.0459,78.1311,75.1709,76.26953
74.3103,70.55054,74.29199,58.88672,73.083496
96.82617,93.06641,97.11914,96.02051,93.62793
100.0,90.808105,96.63086,95.24536,92.77344
91.08276,91.57715,96.710205,95.90454,92.34619
73.40698,90.30151,94.93408,96.588135,85.131836
8.721924,16.937256,20.562744,32.01294,26.14746
16.357422,33.61206,53.17993,61.157227,44.34204
25.097656,48.864746,75.09766,79.211426,57.53784
86.91406,72.25952,86.72485,86.82251,79.193115
84.173584,91.448975,92.15698,91.70532,91.82739
74.51782,63.33618,84.58252,71.55762,68.011475
94.9707,73.33984,72.03369,62.98828,79.00391
69.72656,66.101074,75.21973,82.458496,65.73486
27.191162,45.513916,36.694336,27.960205,48.76709
76.45874,98.6145,91.10718,93.42041,98.742676
64.190674,42.034912,59.753418,53.448486,35.90088
67.29736,78.00903,62.88452,63.153076,72.33276
74.68872,65.356445,60.375977,70.24536,61.175537
80.17578,81.57959,81.19507,86.676025,81.73828
85.08911,58.618164,48.065186,24.432373,51.184082
68.98193,67.541504,54.278564,37.41455,66.63818
98.14453,98.38257,94.23218,96.813965,98.65723
69.21997,64.593506,74.24927,78.73535,57.50122
75.36621,59.692383,61.413574,59.32007,55.08423
87.890625,93.43262,89.263916,86.187744,95.88013
97.87598,53.326416,64.53247,58.380127,51.257324
79.91333,17.126465,13.171387,8.465576,24.578857
36.383057,34.625244,32.543945,39.630127,23.699951
2.105713,45.86792,43.060303,53.00293,40.74707
26.42212,28.601074,25.671387,47.460938,36.157227
62.48169,86.883545,84.48486,82.62329,92.39502
85.668945,97.13135,98.809814,97.69287,97.076416
97.68677,97.02759,96.77124,97.53418,98.11401
69.20776,59.344482,47.302246,48.498535,55.74341
80.25513,78.125,85.83984,84.661865,78.6499
88.80005,63.323975,69.9707,67.163086,64.697266
67.5354,50.01831,30.749512,38.848877,56.5979
67.211914,88.41553,74.01123,72.9126,87.70752
78.94287,81.61011,74.98779,69.70215,83.35571
54.162598,66.95557,53.302002,41.79077,68.0603
96.92383,87.994385,99.84741,99.98169,86.71265
96.63696,79.833984,97.79053,97.125244,83.166504
82.47681,35.668945,70.09888,67.266846,45.88623
87.71973,89.85596,76.66626,75.03052,86.02905
78.93677,67.30347,74.420166,63.00049,47.53418
78.289795,66.8457,80.23682,70.75195,58.605957
89.038086,55.706787,68.46924,49.96338,66.00342
60.760498,48.083496,51.245117,49.243164,42.144775
75.28076,42.895508,33.654785,31.536865,41.308594
34.552002,78.24707,22.583008,31.671143,49.908447
67.96875,97.43042,48.999023,51.568604,89.98413
100.0,99.731445,99.54834,99.60327,98.62671
78.40576,42.382812,54.888916,70.87402,43.2312
96.26465,77.45361,92.21802,92.06543,82.84302
78.723145,68.2251,70.47119,77.05078,66.552734
72.37549,50.756836,57.23877,57.751465,54.510498
94.818115,70.3125,96.82617,96.43555,70.88623
51.0437,55.63965,50.177002,51.916504,50.164795
69.23218,41.210938,55.059814,57.159424,36.26709
