"[299, 255]","[227, 248]","[287, 319]","[279, 328]","[230, 262]"
48.602295,94.158936,93.68286,95.47119,91.16821
95.32471,87.72583,90.130615,90.50903,85.48584
58.233643,45.81299,40.91797,45.92285,53.356934
98.394775,92.81006,94.659424,92.15698,92.352295
61.236572,44.366455,34.899902,34.41162,37.036133
63.879395,35.668945,33.306885,17.956543,31.121826
1.1230469,40.46631,21.166992,0.0,26.165771
32.69043,66.00952,44.799805,44.6167,73.498535
29.382324,65.667725,50.39673,54.91333,72.10083
70.61157,67.34619,76.09863,52.868652,66.55884
74.09668,90.33203,89.01367,80.91431,85.961914
99.523926,93.878174,96.502686,97.09473,91.85791
95.336914,75.183105,61.33423,62.719727,71.49658
37.994385,51.068115,47.53418,16.333008,64.60571
17.700195,46.154785,13.519287,5.7250977,36.151123
40.22827,79.20532,47.60742,50.32959,66.607666
99.017334,98.828125,81.829834,81.085205,97.86377
99.420166,99.9939,78.88794,85.131836,99.98169
99.79248,99.98779,98.59009,98.74878,99.920654
93.29224,92.578125,64.12964,56.71997,84.75952
13.726807,22.607422,17.39502,3.0273438,14.801025
79.626465,62.573242,52.093506,51.25122,61.383057
18.695068,35.601807,12.72583,8.099365,32.281494
69.11011,94.82422,89.7522,82.4707,87.54883
99.139404,94.177246,99.79248,99.609375,96.8811
91.278076,72.94922,92.3645,90.16724,81.35376
77.490234,56.072998,42.29126,77.14844,51.434326
89.07471,90.20996,90.36865,90.41748,86.70654
96.22803,90.94849,90.802,90.64331,87.701416
58.605957,76.831055,66.97998,62.231445,75.860596
46.191406,79.04053,81.63452,87.56714,84.7168
82.59888,95.00122,94.50073,95.788574,96.55151
99.96948,99.365234,98.92578,99.401855,97.20459
95.062256,90.33203,88.60474,89.04419,86.18164
94.48242,79.663086,80.08423,78.00903,80.651855
99.96338,100.0,99.02344,97.89429,99.91455
66.796875,32.287598,66.918945,51.708984,33.758545
96.3501,96.64917,81.82373,87.316895,95.15991
84.7168,34.21631,40.39917,35.29663,41.723633
74.487305,63.934326,68.688965,64.07471,66.833496
91.674805,87.28638,96.588135,96.276855,90.73486
67.08984,93.65845,55.029297,63.09204,88.7207
73.66333,53.723145,58.892822,58.57544,53.52173
67.60864,42.749023,61.35254,54.47998,49.49951
99.15161,89.62402,99.68262,99.34082,93.73169
73.38257,48.19336,40.612793,43.45703,49.938965
82.12891,17.96875,45.025635,48.260498,22.735596
99.279785,99.6582,98.19336,97.53418,99.609375
85.60791,71.63086,85.83984,84.375,74.420166
94.34204,66.47949,71.032715,72.44873,77.57568
98.80371,71.41724,73.010254,69.60449,61.30371
95.111084,45.611572,74.02344,78.2959,55.200195
77.11182,55.541992,52.72827,46.94214,56.817627
94.000244,90.30762,91.64429,93.603516,90.460205
99.85962,99.975586,99.35913,99.91455,99.85962
78.619385,63.69629,63.48877,64.331055,62.786865
90.771484,95.684814,82.73926,74.93286,91.607666
88.07373,95.062256,65.2832,63.17749,92.54761
97.9187,87.81128,83.17871,85.86426,86.02905
66.35742,65.374756,57.56836,49.005127,58.07495
95.599365,99.45679,78.27759,71.154785,98.41919
99.68262,92.54761,82.75757,90.423584,92.32788
58.691406,26.678467,30.181885,31.072998,18.078613
55.65796,48.510742,61.065674,68.98193,49.291992
97.36328,91.54053,67.352295,66.10718,85.48584
99.853516,98.254395,97.29004,95.36743,99.23706
55.444336,83.64868,56.31714,57.659912,78.552246
22.509766,42.55371,31.695557,37.01172,51.80664
33.428955,52.30713,57.647705,59.161377,69.21997
99.98779,87.335205,78.149414,81.52466,86.23047
97.65015,69.018555,82.70874,91.223145,75.46387
82.62329,72.02759,44.63501,38.616943,69.02466
36.57837,63.85498,43.945312,53.66211,47.2229
99.37134,97.55249,98.87695,99.67041,97.49756
77.62451,55.71289,66.656494,63.867188,61.33423
92.5354,82.177734,36.78589,40.185547,84.21631
99.51172,99.938965,85.754395,82.006836,99.572754
100.0,99.8291,97.51587,99.920654,99.938965
98.706055,97.44873,99.9939,99.938965,96.39282
92.51099,91.534424,97.631836,96.86279,89.64844
86.120605,78.759766,79.39453,81.658936,73.6145
92.20581,85.809326,44.03076,41.394043,79.626465
99.96948,99.072266,99.243164,99.56665,99.63379
99.88403,99.261475,98.724365,97.265625,99.35913
100.0,100.0,100.0,100.0,100.0
85.7605,76.00098,85.63843,78.24707,76.28174
73.6084,34.472656,57.781982,51.92871,28.356934
42.822266,25.341797,33.496094,32.48291,28.8208
72.924805,34.277344,61.761475,42.114258,42.443848
30.987549,25.732422,42.944336,29.174805,35.64453
50.671387,70.78247,59.643555,48.583984,73.88306
89.971924,79.38843,96.77124,89.66675,80.23071
84.49097,57.739258,73.68164,67.46826,61.083984
44.055176,14.483643,50.842285,49.20044,7.3791504
81.5979,41.149902,65.930176,58.654785,35.076904
34.42993,56.176758,33.917236,30.249023,52.17285
37.493896,41.94336,35.0708,38.189697,54.3396
97.89429,99.71924,96.466064,97.11304,99.76807
100.0,100.0,99.975586,99.9939,100.0
100.0,99.60327,99.853516,100.0,99.51782
89.14795,65.893555,88.22632,88.92822,75.62866
86.920166,83.081055,76.18408,78.4668,78.985596
96.698,76.80664,91.77246,90.7959,85.97412
99.1272,42.590332,90.2771,94.13452,56.75659
47.81494,37.957764,41.68701,32.025146,44.04297
99.55444,99.88403,95.50781,97.70508,99.749756
98.74878,98.59619,89.25781,97.77832,98.57788
83.14209,74.4812,61.6333,52.423096,66.052246
52.508545,43.62793,57.073975,56.677246,48.010254
86.206055,42.77954,79.8645,72.65625,43.518066
42.211914,70.79468,42.822266,44.085693,77.41699
99.94507,99.04175,99.06616,94.34204,98.03467
95.72754,98.27881,92.56592,97.247314,98.516846
96.02051,99.487305,98.0896,100.0,99.96338
86.68213,66.00342,63.8916,61.950684,68.90259
64.04419,23.449707,27.764893,23.913574,28.570557
60.01587,37.08496,30.059814,16.802979,40.533447
36.462402,15.936279,33.5083,33.26416,23.291016
16.05835,14.208984,23.608398,24.920654,26.672363
82.51343,97.70508,77.52075,88.28125,97.21069
82.073975,78.4729,74.72534,84.06372,75.60425
42.077637,16.741943,58.09326,58.416748,30.999756
20.06836,37.76245,27.46582,33.87451,30.047607
70.1416,95.90454,83.40454,90.478516,95.41016
99.68262,96.85669,97.69287,96.02051,97.387695
61.120605,43.041992,51.7334,36.987305,48.101807
68.878174,87.023926,84.44824,85.92529,85.69336
99.823,99.74365,99.35913,98.950195,99.798584
84.83887,81.988525,81.658936,79.32129,83.22754
39.5813,17.547607,25.152588,21.64917,30.352783
43.03589,35.180664,65.71045,66.47949,43.60962
56.219482,80.39551,72.42432,64.94141,93.481445
82.80029,53.985596,63.47046,73.83423,49.73755
61.846924,38.934326,11.26709,2.2888184,27.026367
12.524414,4.534912,0.0,3.741455,3.4729004
49.176025,22.131348,21.881104,10.308838,11.181641
96.710205,18.585205,55.767822,43.914795,22.827148
52.874756,37.512207,80.773926,87.18262,58.97827
51.9104,87.04834,90.35034,89.434814,90.94238
99.96338,91.918945,99.798584,99.85962,90.2771
73.40698,72.08862,78.33252,79.46167,74.12109
55.46875,82.84302,54.72412,65.9729,84.73511
86.779785,68.19458,82.6416,78.19824,62.91504
59.7229,88.27515,81.28662,87.89673,94.49463
27.874756,50.24414,31.26831,49.09668,57.01294
88.812256,57.989502,76.08032,79.71802,64.52026
91.41846,64.84985,86.32202,80.773926,57.104492
86.40747,43.896484,72.97363,62.768555,41.101074
61.236572,42.74292,54.364014,55.914307,46.643066
69.06738,52.98462,77.70996,75.01221,58.19702
85.894775,47.424316,73.846436,62.072754,55.01709
96.58203,98.49243,96.520996,88.21411,98.76099
41.827393,48.71216,58.361816,68.444824,50.92163
38.61084,15.72876,34.558105,23.66333,33.239746
0.48217773,4.925537,13.531494,13.38501,0.53100586
58.166504,0.7507324,26.922607,43.859863,2.4902344
39.886475,19.866943,64.04419,76.94702,38.653564
78.63159,65.58838,78.1189,75.1709,61.24878
37.939453,37.426758,33.892822,36.938477,40.490723
78.36914,37.365723,71.99707,85.60181,49.243164
55.18799,21.026611,62.860107,62.390137,30.493164
12.805176,27.185059,41.693115,46.78955,19.030762
32.769775,49.041748,33.502197,23.529053,40.509033
99.87793,99.60327,97.473145,97.5647,99.920654
91.08276,91.33911,95.806885,96.32568,84.68628
71.7041,90.71655,63.0188,71.96045,92.13867
81.28052,89.42261,77.53296,85.13794,91.900635
77.770996,45.81299,92.19971,95.50781,49.23706
96.28296,83.95996,93.98804,95.562744,75.042725
48.809814,40.161133,23.99292,27.532959,43.5791
56.225586,82.873535,71.66138,71.954346,81.91528
80.041504,56.445312,63.56201,65.73486,52.105713
75.33569,72.60742,45.84961,52.856445,72.79053
85.29053,92.06543,84.35669,75.3479,88.201904
36.053467,45.129395,65.24658,60.144043,45.446777
68.45093,80.981445,61.42578,57.684326,85.076904
93.707275,84.70459,94.158936,89.819336,90.686035
66.363525,36.94458,60.72998,46.47827,49.450684
93.06641,94.244385,92.60254,93.67676,97.143555
99.694824,97.36328,96.28296,93.42651,97.97974
90.17334,43.719482,91.18652,87.65259,45.20874
26.751709,0.78125,35.21118,41.09497,13.311768
17.08374,14.550781,21.948242,29.553223,23.260498
86.8103,88.983154,67.559814,71.118164,88.568115
42.736816,79.96826,94.89746,92.81006,90.48462
74.51782,70.78247,70.38574,60.894775,65.36255
34.906006,20.446777,34.051514,28.875732,26.794434
0.07324219,36.96289,4.663086,8.056641,31.097412
0.10986328,9.710693,13.983154,7.5683594,17.49878
0.16479492,19.75708,1.373291,6.1950684,23.41919
6.8847656,13.763428,0.5187988,2.5268555,13.73291
4.4433594,2.8503418,11.968994,10.36377,5.0598145
43.536377,6.7199707,50.756836,69.921875,5.230713
45.147705,0.0,9.503174,7.5805664,0.0
34.594727,23.181152,55.682373,53.43628,31.04248
54.748535,40.802002,46.844482,37.109375,47.888184
52.441406,4.370117,24.273682,21.020508,10.986328
28.36914,0.0,0.0,1.9348145,0.5126953
33.03833,13.757324,3.8269043,4.772949,24.63379
35.22339,0.79956055,42.089844,32.23877,1.1169434
36.169434,53.564453,25.396729,26.013184,48.57788
59.53369,57.250977,41.59546,52.478027,68.00537
67.75513,90.85693,65.86914,67.785645,89.49585
75.26245,83.17261,74.1333,83.63037,81.47583
50.878906,45.03784,50.708008,47.717285,53.22876
93.59131,98.98682,93.237305,88.72681,99.420166
84.18579,61.749268,89.819336,88.653564,71.14868
89.141846,90.496826,77.23389,76.379395,92.8772
63.616943,96.58203,59.350586,69.885254,90.69214
70.129395,71.14258,78.80859,77.88086,76.79443
75.06714,58.532715,79.07715,74.73755,69.70825
76.14136,79.77295,73.12622,84.94873,74.1333
82.69043,89.94141,73.29712,63.085938,87.316895
84.21631,93.811035,83.66089,86.68213,91.54663
76.44043,61.77368,75.74463,79.35181,66.6687
83.880615,93.688965,94.366455,89.89868,94.28711
78.9978,78.67432,75.24414,69.659424,71.19751
65.649414,82.9895,78.77197,83.58154,79.36401
94.16504,86.75537,72.27783,75.19531,88.12866
99.76807,82.995605,84.73511,84.60083,86.865234
89.94141,94.91577,66.80908,75.28076,96.31958
97.25342,96.08765,65.88135,62.53662,92.87109
85.79712,58.337402,61.4563,58.3313,50.427246
85.68115,54.803467,81.53076,75.164795,62.79297
75.74463,72.11914,59.381104,49.450684,67.46216
96.66748,81.970215,91.430664,81.604004,87.18872
80.83496,49.346924,51.30005,65.478516,57.183838
65.82031,61.834717,59.143066,70.07446,69.66553
87.316895,95.52612,87.95166,93.03589,94.262695
82.18994,94.83032,59.613037,65.59448,88.55591
54.486084,64.4104,82.49512,82.440186,83.89282
28.674316,50.76294,56.280518,61.065674,45.159912
1.3000488,43.945312,34.283447,45.67871,61.51123
18.035889,33.673096,82.78198,61.151123,37.420654
0.048828125,0.07324219,44.34204,31.176758,10.125732
0.0,0.39672852,9.814453,5.493164,0.1953125
20.874023,27.081299,28.131104,20.10498,34.594727
28.417969,44.36035,54.49829,51.17798,39.038086
66.63208,57.928467,83.21533,77.06909,56.445312
28.601074,29.089355,39.978027,49.84131,37.695312
48.02246,44.77539,39.501953,39.996338,43.811035
0.36010742,0.05493164,10.955811,18.719482,0.4699707
21.044922,10.791016,25.6958,54.840088,28.424072
73.083496,82.86133,91.72974,90.88135,83.75244
68.83545,15.826416,61.486816,54.882812,22.418213
44.439697,51.605225,42.559814,51.660156,50.39673
72.67456,78.552246,72.32056,69.20166,76.538086
81.536865,79.46167,66.882324,55.19409,72.595215
60.36377,52.252197,61.743164,56.87256,60.021973
59.14917,92.75513,23.492432,20.635986,84.05762
56.402588,66.711426,64.52026,82.336426,60.168457
37.72583,83.02612,86.94458,92.63916,84.28345
61.895752,83.56323,48.760986,34.552002,80.426025
32.147217,49.072266,39.990234,43.572998,43.884277
79.748535,87.805176,61.120605,53.875732,81.92749
71.5271,44.488525,67.29736,61.70044,55.65796
85.74219,79.69971,68.48755,70.965576,73.30322
74.98779,62.8479,63.098145,65.02075,67.07153
67.09595,57.373047,70.03174,70.20874,56.63452
93.725586,84.74121,73.44971,66.68701,85.96802
69.90967,67.163086,81.21948,74.1272,78.45459
66.3147,66.43677,57.330322,53.515625,61.010742
55.98755,33.53882,52.61841,47.698975,48.742676
65.86304,36.77368,79.41284,74.98169,49.084473
22.613525,35.4187,61.486816,53.979492,45.90454
74.85962,79.49829,90.07568,91.63208,84.088135
95.08057,95.147705,94.33594,96.673584,95.32471
94.281006,83.07495,73.046875,84.14917,84.94873
66.94946,38.482666,60.864258,56.82373,49.475098
80.078125,80.163574,64.868164,71.12427,74.16382
65.112305,42.523193,33.111572,52.526855,34.960938
72.454834,46.411133,58.10547,44.51294,39.9292
46.228027,44.56787,44.122314,39.0625,50.39673
89.38599,99.28589,97.84546,98.54126,99.23706
75.8667,62.097168,78.167725,74.93286,66.82739
59.98535,55.41992,25.939941,22.509766,44.866943
54.418945,44.92798,35.55298,38.928223,50.98877
3.753662,53.863525,84.99756,83.239746,60.650635
0.8483887,2.6916504,35.906982,40.490723,9.3811035
0.0,0.3479004,0.06713867,0.024414062,0.5126953
0.103759766,6.6833496,0.07324219,0.25634766,7.116699
0.0,0.091552734,0.0061035156,0.0,0.1586914
0.0061035156,2.331543,0.0,0.0,3.8391113
28.521729,71.3562,47.924805,45.72754,71.89331
83.70972,84.99756,66.918945,76.190186,82.97119
89.105225,91.13159,83.99658,83.09326,90.6189
76.483154,52.093506,55.95703,52.81372,58.148193
73.33984,71.484375,73.846436,76.7334,67.266846
71.032715,91.99829,96.31348,94.15283,88.34839
71.899414,76.09863,62.25586,70.4895,81.34766
34.625244,58.032227,57.08008,53.95508,62.164307
8.251953,41.784668,51.397705,30.126953,37.097168
0.0,0.0061035156,0.53100586,1.0375977,0.5065918
0.018310547,0.41503906,4.321289,1.8493652,0.40893555
2.3132324,17.297363,45.703125,50.463867,20.770264
52.679443,53.21045,89.77661,85.791016,48.92578
67.474365,35.906982,81.781006,80.718994,41.430664
30.249023,25.628662,48.68164,55.908203,35.66284
17.938232,26.745605,14.373779,12.445068,25.549316
65.36255,77.282715,58.48999,60.27832,75.54932
93.7439,90.42969,94.48242,95.90454,91.42456
71.1853,55.541992,55.371094,43.719482,48.968506
23.22998,33.685303,30.255127,33.599854,46.166992
97.87598,96.77124,98.52295,96.28906,95.71533
72.821045,78.411865,86.04736,79.61426,80.09033
88.916016,98.950195,95.58716,92.74902,97.88818
59.588623,90.563965,93.573,95.26367,92.76123
64.642334,82.55005,75.97046,72.54028,74.81079
77.75879,35.791016,46.276855,43.865967,45.672607
66.156006,50.12207,69.56787,68.65845,47.839355
91.02173,69.92798,93.00537,79.01611,80.548096
79.46777,74.24927,87.145996,87.371826,77.6001
45.20874,82.684326,84.48486,80.10254,88.70239
92.66968,87.09717,95.06836,95.007324,88.03711
80.078125,75.3479,79.44946,80.511475,77.96631
64.72778,49.224854,67.63306,70.928955,49.371338
89.660645,82.86743,83.35571,88.568115,73.04077
98.028564,99.035645,84.375,89.30054,97.369385
47.63794,61.04126,54.93164,53.88794,52.28882
83.5083,66.363525,70.77637,75.10376,66.18042
86.94458,85.50415,75.98877,77.70996,79.39453
88.24463,79.35181,82.06177,80.78613,80.48096
51.00708,55.456543,57.580566,56.591797,62.6709
60.601807,90.36865,94.83032,95.63599,87.4939
98.461914,97.528076,99.43848,99.14551,96.13037
92.20581,58.325195,58.850098,68.2251,61.950684
83.758545,98.37036,81.622314,85.095215,98.864746
85.96802,93.096924,78.07617,78.90625,85.53467
87.805176,42.333984,87.96387,94.11621,37.530518
90.270996,76.727295,90.997314,75.36621,82.995605
69.73877,60.10132,66.760254,60.009766,59.18579
63.5437,52.868652,72.15576,51.28784,48.754883
76.75781,61.480713,59.942627,56.49414,53.40576
92.211914,45.684814,52.770996,49.139404,53.85132
88.256836,78.881836,83.673096,78.723145,71.606445
25.128174,20.709229,19.793701,31.433105,18.481445
48.99292,31.622314,39.068604,33.862305,36.480713
75.45776,77.20337,81.2561,81.37207,76.67236
66.69922,40.478516,37.139893,46.661377,35.54077
86.91406,94.87915,78.9917,85.70557,95.184326
88.08594,64.09302,55.273438,49.780273,54.437256
70.03784,56.329346,49.02954,49.865723,45.135498
83.48389,89.086914,80.43213,92.79175,83.80127
97.27783,99.45068,99.10278,98.38867,96.1792
51.26953,22.393799,50.05493,35.83374,13.641357
52.557373,75.26245,83.54492,81.35376,84.07593
79.58374,96.240234,96.673584,94.2688,95.93506
70.55664,96.41724,93.4021,90.19165,94.836426
27.563477,45.611572,85.84595,84.002686,43.725586
37.53662,62.44507,49.487305,63.67798,64.25171
95.73364,94.21997,99.798584,99.70093,97.68677
94.140625,46.710205,96.60034,95.6543,55.645752
67.248535,48.71216,92.767334,91.10718,73.046875
49.73755,30.444336,62.109375,41.864014,54.211426
20.129395,31.915283,37.426758,28.314209,65.2771
17.224121,3.326416,29.02832,17.059326,17.962646
62.371826,35.31494,67.96875,45.928955,45.489502
31.658936,67.98706,73.565674,75.305176,76.605225
52.85034,23.931885,44.87915,31.33545,45.739746
97.83325,40.716553,71.11206,57.83081,83.59985
