"[299, 255]","[227, 248]","[287, 319]","[279, 328]","[230, 262]"
0.0055248067,0.0069513717,0.006555609,0.0066179116,0.006644889
0.0062893485,0.0070117544,0.0063322657,0.006404531,0.0067696394
0.008468236,0.009022723,0.008544589,0.008664138,0.0089963665
0.007921567,0.009148255,0.0063610007,0.0063738003,0.008730167
0.008269424,0.008992236,0.008196281,0.00813264,0.008809941
0.0075464696,0.008496974,0.007971104,0.007857294,0.008312508
0.00732673,0.007757179,0.0066644223,0.0066922125,0.007589628
0.008511857,0.009397154,0.008113715,0.007994327,0.009392723
0.008241338,0.008288762,0.0081682755,0.008201233,0.008099591
0.004887932,0.005609561,0.004874401,0.005012355,0.005341636
0.0054097464,0.006574383,0.0065060877,0.0064755455,0.0062772958
0.0055737654,0.0064827786,0.0060441494,0.005982996,0.006175094
0.0054065147,0.00727127,0.006194825,0.006092589,0.0069345776
0.0062496318,0.006653613,0.0060962867,0.0060134917,0.006451376
0.0044615236,0.005150859,0.0045379535,0.004453228,0.0044830665
0.0031857612,0.0039377143,0.0032770706,0.0032576618,0.0031704302
0.0029170224,0.004139119,0.0030779114,0.0031286713,0.003599735
0.003938642,0.0053126467,0.003959198,0.0040339185,0.0048163207
0.0032377825,0.0039689443,0.0031351382,0.0031389515,0.0034373302
0.003601838,0.0052891276,0.0037668808,0.0038883977,0.0046286415
0.004149062,0.006111665,0.00473708,0.004670359,0.005715966
0.0038705382,0.0051929844,0.0038388395,0.0039068833,0.004417353
0.004547853,0.004708528,0.004604603,0.0045751156,0.004665788
0.00456985,0.0058729458,0.0043135826,0.0043967217,0.0052451086
0.0048420164,0.005430181,0.005059066,0.004989715,0.0051545636
0.0045036203,0.0052351677,0.004491835,0.0045351735,0.0049290103
0.0050500003,0.005539771,0.0049720923,0.004841238,0.0054556024
0.00525011,0.0060335905,0.005263269,0.0053869183,0.0056961677
0.0050494615,0.005898294,0.0053138924,0.005251197,0.0056241644
0.0046359864,0.0055504236,0.0048035653,0.0048070317,0.0052154926
0.004464149,0.0051444303,0.004453555,0.004419966,0.004971922
0.004420757,0.0056163627,0.004570975,0.004594712,0.0049096774
0.0071021747,0.0083296485,0.007063892,0.0067888247,0.008203322
0.007387875,0.008143756,0.0070465347,0.006867979,0.008011918
0.0074752616,0.008065443,0.0067953235,0.0066491263,0.00788427
0.006265381,0.0068058283,0.0060707885,0.0059528407,0.0066593112
0.005474481,0.0053715636,0.005013972,0.0050585526,0.005220519
0.005166682,0.0062587988,0.0050312933,0.0052174367,0.005904413
0.0060408837,0.0068226014,0.0058171526,0.005906362,0.0066195917
0.0053661857,0.005714519,0.0052655363,0.005312872,0.0054730168
0.0043608756,0.0046027354,0.0040755346,0.0039814804,0.004120604
0.003424069,0.004349691,0.0030611607,0.0033074787,0.0041529
0.0033841904,0.004080622,0.003111258,0.003065005,0.003679383
0.0029990843,0.0044713453,0.0027942576,0.0029625734,0.003837892
0.004904109,0.0070607094,0.004590155,0.004695331,0.006710309
0.007387921,0.007985873,0.006754734,0.006730014,0.00793916
0.005745636,0.0066277506,0.0056937095,0.0057216315,0.0060928636
0.006354645,0.00725763,0.0062326505,0.006097725,0.0068840887
0.0048265946,0.0051556597,0.004465333,0.004406163,0.004892675
0.005449193,0.007092304,0.005321724,0.0053167786,0.006963503
0.006974498,0.0074304454,0.0070020286,0.0069895023,0.0073058587
0.005988017,0.0068055163,0.005749562,0.00583771,0.0064460468
0.0055356645,0.0060653943,0.0052880915,0.00527897,0.0058138645
0.0062582893,0.007423806,0.0061344774,0.0061736824,0.007221888
0.0066983392,0.007161268,0.006115266,0.0059616226,0.007143773
0.0041408264,0.0045707715,0.0036928882,0.0037172195,0.0040070615
0.0036311278,0.0043232394,0.0038992949,0.0038969682,0.003882686
0.0037184374,0.004218273,0.003700391,0.0037292899,0.0038346432
0.0032705022,0.003692744,0.0029894423,0.0030627898,0.0033207792
0.0030775007,0.0034583458,0.003086091,0.0030664755,0.003414469
0.0031445576,0.0034583434,0.0033390315,0.0032609263,0.0032579468
0.0033062538,0.003998228,0.0034391768,0.0036080081,0.0038562214
0.0043094833,0.005062053,0.0042964583,0.004236864,0.0047609173
0.0035231293,0.004740238,0.003554717,0.0035875689,0.0044929236
0.003430533,0.0048481952,0.0036914714,0.0037693826,0.0047048014
0.004878756,0.0055306745,0.0049184784,0.0051378924,0.0052723424
0.005035844,0.0051295063,0.0049518445,0.0049871616,0.004900695
0.0046597426,0.0053883283,0.00505632,0.005034239,0.005027798
0.0045678616,0.004956918,0.004411451,0.004496799,0.0046617617
0.0042712707,0.0056075775,0.004297405,0.004330055,0.0053482675
0.004147055,0.005516865,0.003956379,0.003723398,0.00497627
0.0035997534,0.006438683,0.0033456886,0.0032011855,0.005616345
0.0059677325,0.0076266364,0.00433763,0.004613011,0.00753749
0.0078062406,0.007989549,0.006867566,0.007056635,0.008284304
0.0071013654,0.007628065,0.0057652807,0.0059598014,0.00763911
0.006969158,0.007313631,0.005939421,0.0060782903,0.007200013
0.0061092353,0.0071218424,0.0062405765,0.0063026487,0.006883876
0.005809916,0.0066917287,0.005842961,0.0059450567,0.00629503
0.0063161505,0.0071141184,0.005965915,0.0060493723,0.0070908354
0.006365918,0.007101123,0.0064261397,0.006416355,0.00702189
0.006563222,0.007252439,0.006241805,0.0061555933,0.007049768
0.0070132627,0.007820944,0.006843272,0.0069516315,0.008006702
0.0070549315,0.007376971,0.0070986585,0.007243466,0.00713037
0.0064574685,0.006195741,0.0062876577,0.006284158,0.0056815017
0.0062402203,0.006685589,0.006028384,0.0059907134,0.006568664
0.007139607,0.007587495,0.006899211,0.006822121,0.0074253906
0.0061076065,0.0067943716,0.0061854664,0.00610755,0.006518163
0.0059684697,0.0063700597,0.0061500003,0.0061314637,0.006140742
0.005673685,0.0066151023,0.00611648,0.0060762637,0.0063793445
0.005678665,0.005669235,0.0056688646,0.0055324137,0.0055754343
0.0052449876,0.005497138,0.005417495,0.0053358334,0.0052961395
0.0042913607,0.005322804,0.0041586226,0.0042110574,0.004950636
0.0042065326,0.0046950513,0.004380275,0.0044101398,0.0046960516
0.0036567168,0.0043694084,0.0035205237,0.003429132,0.0041398336
0.0035821395,0.004384701,0.0030515827,0.003003979,0.0043684416
0.0057367864,0.0061758156,0.004358128,0.004048547,0.0059326696
0.0065716407,0.006520183,0.006237817,0.006091602,0.006543493
0.0049288305,0.0053026234,0.0051403013,0.005033619,0.00509154
0.004292102,0.004202193,0.0044294987,0.0043969736,0.0038611637
0.0039923815,0.0043721823,0.003722114,0.0035861852,0.0042134533
0.0049345205,0.0057946336,0.0040953406,0.0039935852,0.0055292603
0.003962129,0.005640833,0.003747877,0.0037495778,0.0053085038
0.0041948226,0.0050696717,0.004625116,0.004701129,0.0049835686
0.0032832983,0.0044977344,0.0035598972,0.003513023,0.004143939
0.004783923,0.0065173297,0.0050163837,0.0050468855,0.0063411077
0.0073621375,0.0074288263,0.00746805,0.007596813,0.007591564
0.0066941218,0.007287191,0.007162619,0.007153859,0.007212857
0.0066250707,0.0070502977,0.006535448,0.0063741505,0.006848988
0.005122025,0.006092111,0.0048456397,0.0049224435,0.005851681
0.00644521,0.00682247,0.006160129,0.005872999,0.006545406
0.0041969805,0.004317292,0.0041997763,0.0042558196,0.0043597417
0.004657583,0.0054969206,0.0051116426,0.0051175444,0.0052161096
0.0036982163,0.0045381393,0.0036285704,0.0036150876,0.0038758847
0.0034775834,0.004503138,0.0037714548,0.0038063924,0.0041547753
0.0053995154,0.006267995,0.0051083085,0.005082308,0.005783983
0.0047109467,0.0054875133,0.0044640107,0.004456733,0.0051078256
0.0061530736,0.007102752,0.00596221,0.0060108635,0.0068595656
0.0064190645,0.006914118,0.0061649624,0.00620052,0.0065790676
0.0059807645,0.006829041,0.006447739,0.006343396,0.0062563284
0.004801673,0.005695437,0.0064513665,0.006514457,0.0054585286
0.0059919804,0.006359706,0.0063463207,0.006461054,0.0061139762
0.0060717235,0.0071686124,0.0064092004,0.006500962,0.006581486
0.0072564664,0.007787218,0.00714769,0.0071161618,0.00763194
0.0072082123,0.008096525,0.0070792744,0.007278796,0.007813107
0.0074470923,0.008045021,0.007943594,0.007853353,0.007869058
0.007507579,0.008013961,0.007910161,0.008141031,0.0079912245
0.007170179,0.0077543105,0.0077140857,0.007761085,0.0074755773
0.0071857334,0.0077181403,0.007774596,0.007443551,0.0075218263
0.004992218,0.0054435423,0.0046181884,0.004581342,0.005023939
0.0037714478,0.0047929944,0.0037107205,0.003686279,0.0043499344
0.0049638636,0.0056199697,0.0044308645,0.004467116,0.0051766634
0.0033538227,0.004116899,0.0033310475,0.003251027,0.0038006175
0.004833241,0.005258376,0.005085927,0.005195315,0.0050814166
0.0053350306,0.0061262148,0.005313459,0.005240431,0.005893207
0.00484028,0.0059582586,0.004900058,0.004868821,0.005280559
0.0049410025,0.006268745,0.0050495802,0.0051106676,0.0061442265
0.005034084,0.005225922,0.005344791,0.0054781153,0.004890687
0.00441771,0.005806588,0.004740883,0.004660075,0.0052711274
0.0065668556,0.006881063,0.006445714,0.006438562,0.0067298
0.0054375576,0.005986303,0.0060462924,0.00600062,0.005620441
0.0055778683,0.005640924,0.005237668,0.005115293,0.0054424186
0.00571986,0.0070187314,0.005769562,0.0058215163,0.006716045
0.0059960517,0.0064674416,0.0057939542,0.005743155,0.0060691442
0.005541051,0.0062139407,0.0055587143,0.005533873,0.0058743027
0.005722452,0.0063812584,0.0053885863,0.005248588,0.006089108
0.0052079535,0.006415892,0.005625453,0.0058665927,0.006348322
0.005686899,0.006418036,0.006022101,0.006153693,0.006245836
0.006049556,0.006639627,0.0059182374,0.00590066,0.006514317
0.006311407,0.0069179446,0.0064624134,0.006339636,0.0066646114
0.0064114365,0.0074627064,0.0067448537,0.006650349,0.0071307905
0.0072213924,0.007700921,0.0064876885,0.00635638,0.0075894673
0.00737678,0.0080033755,0.007652656,0.007619277,0.0079669915
0.006578839,0.007782873,0.0069687534,0.0070526395,0.0075955167
0.0071908957,0.008248092,0.0073471954,0.0071969195,0.008057086
0.008145653,0.0088589005,0.007850598,0.00781025,0.009156305
0.0067178947,0.008162617,0.0068601994,0.0065463055,0.008227111
0.006744287,0.007453669,0.006462307,0.0064488207,0.007351181
0.00802235,0.008942395,0.008109297,0.008026713,0.008953516
0.0064989678,0.008408053,0.00773423,0.007877045,0.007909602
0.005838363,0.008153944,0.0052918103,0.0052158292,0.007347277
0.005153623,0.0071194586,0.005199851,0.0051831747,0.00709797
0.0059894933,0.0071204123,0.006829227,0.0068717026,0.0064535276
0.0068411445,0.00777769,0.00689787,0.006954042,0.007477483
0.007270555,0.008142087,0.007427653,0.0073841857,0.007855526
0.00679471,0.00806867,0.0073747784,0.0074365693,0.0075510037
0.007654194,0.00847421,0.00798983,0.007956099,0.008306896
0.00536215,0.0055999826,0.004893298,0.0046760873,0.005042147
0.005113409,0.0054483623,0.0047490303,0.0050955922,0.0049472796
0.0050671683,0.0053895665,0.004996702,0.0050155963,0.0050165686
0.005375155,0.006501371,0.0053482596,0.005372116,0.006113234
0.007897086,0.008737191,0.0077865114,0.007975661,0.008598366
0.008064147,0.008464716,0.007970524,0.008210773,0.008162794
0.007692023,0.007962985,0.007424497,0.0074535226,0.007738676
0.0064192493,0.006734678,0.0064681107,0.0064441776,0.006284861
0.0072214156,0.008494937,0.0074835503,0.007317715,0.008349033
0.0074252035,0.008239901,0.007856862,0.007722864,0.008005912
0.007005231,0.007808885,0.007214043,0.0072550625,0.007439057
0.006931132,0.0076317308,0.0070862123,0.0069779763,0.007063817
0.00739195,0.008323171,0.0075179725,0.0075077955,0.008023199
0.0074418536,0.008183549,0.007987774,0.007943164,0.008035032
0.0068896227,0.007945196,0.0064153103,0.0063567343,0.007468266
0.0069583594,0.008168273,0.0071391277,0.0071042194,0.007928849
0.0070201545,0.008036503,0.0070935716,0.006848308,0.007325697
0.006198043,0.007230276,0.005928072,0.005902595,0.006666451
0.005614812,0.006420798,0.005689717,0.0057162903,0.005958259
0.005661944,0.007274688,0.0063121435,0.0063777454,0.0070895613
0.006276737,0.00718485,0.006405169,0.006526961,0.0072506433
0.006768939,0.008255105,0.0069559114,0.006843888,0.008317231
0.0070835906,0.009669769,0.008712913,0.008428173,0.008779785
0.00865272,0.010010706,0.008527879,0.008730268,0.009824428
0.007268778,0.009997852,0.008814757,0.009105504,0.010030632
0.0075252145,0.01091444,0.0074741836,0.007796982,0.010572861
0.007733194,0.011618047,0.008888296,0.009210053,0.010948389
0.007447517,0.010507923,0.008459591,0.008684654,0.009621014
0.008116557,0.010251098,0.009080361,0.009182278,0.009661292
0.008631389,0.0097355,0.008630218,0.008557166,0.009651615
0.00847916,0.009804348,0.009151402,0.008963748,0.00992189
0.009116022,0.01009821,0.009107422,0.008666559,0.00992002
0.009300415,0.010307438,0.009282751,0.009190477,0.010339506
0.008921447,0.011023715,0.008097095,0.008285819,0.010546134
0.007846161,0.009878229,0.0076183393,0.0073518534,0.009217588
0.00743026,0.00821724,0.0071719484,0.006963602,0.0075813015
0.0087511735,0.010504453,0.008148908,0.008409692,0.010229948
0.008652118,0.01094849,0.008320041,0.008202546,0.010532722
0.005832116,0.007019658,0.005546428,0.0053794007,0.006414045
0.0066138487,0.006938985,0.006172938,0.005974013,0.0065084794
0.007849176,0.007818666,0.007713051,0.00758082,0.0076754508
0.008394412,0.00878376,0.008316718,0.008219212,0.008471008
0.008068922,0.009172027,0.008384314,0.008405141,0.008695635
0.009161567,0.009452858,0.008685921,0.008491134,0.008926526
0.008549998,0.009461852,0.008389357,0.008584537,0.0088894805
0.0084952805,0.009224736,0.008643328,0.008570091,0.008610701
0.008446188,0.00943146,0.00847595,0.008352356,0.008946612
0.008451529,0.009891683,0.008796048,0.008752113,0.009422063
0.0074210167,0.010015645,0.008197503,0.007988856,0.009370329
0.007786634,0.010058584,0.008404657,0.008213971,0.009788386
0.007978218,0.0090157185,0.008179862,0.0078114793,0.00846546
0.008632641,0.008340395,0.008445022,0.008316829,0.008204216
0.008823872,0.011180705,0.009084431,0.00899353,0.0104907695
0.011631248,0.011839906,0.0110446755,0.010798111,0.011470724
0.009114536,0.010153986,0.008567564,0.008551523,0.009897109
0.00850804,0.009674066,0.009120177,0.008730701,0.009356967
0.008352718,0.008845531,0.008232336,0.008178655,0.008433355
0.010377525,0.011473967,0.009176383,0.009070667,0.01095163
0.009552113,0.01062085,0.009328066,0.009205533,0.010159142
0.011143021,0.012129484,0.010890106,0.0110045085,0.011784175
0.011639788,0.0119556505,0.011815861,0.011526203,0.011134937
0.010007317,0.012125295,0.009937847,0.009919947,0.011531263
0.011499156,0.0127291195,0.011311828,0.011005438,0.011897191
0.011391596,0.010153146,0.01010925,0.01030163,0.0094113145
0.009997846,0.010836589,0.009625145,0.008673193,0.009756263
0.010491519,0.013509591,0.01086925,0.010402712,0.011717357
0.009202081,0.012148425,0.011101777,0.010657374,0.010765494
0.009403354,0.013570503,0.012174486,0.011909914,0.013569254
0.009852635,0.013667549,0.011305187,0.010878399,0.011997978
0.010200239,0.013076696,0.01042228,0.010197546,0.012129643
0.008909535,0.012171645,0.009829491,0.009918067,0.01096979
0.008798319,0.010083675,0.008648731,0.008329865,0.009425562
0.010143501,0.010316754,0.009024971,0.008640924,0.00985428
0.010422557,0.011528767,0.009742798,0.009378683,0.0103544425
0.011606796,0.012568951,0.010758854,0.010673083,0.012374902
0.013252509,0.014010319,0.012397434,0.0121073285,0.01342366
0.011923082,0.012609268,0.0126203345,0.012646505,0.011866619
0.009880331,0.010262852,0.0094539495,0.009701643,0.010000913
0.009990887,0.010893303,0.00960604,0.010143758,0.010618696
0.010105436,0.010719138,0.010396451,0.010395989,0.010130275
0.010338688,0.010899648,0.0106879985,0.010728226,0.01037947
0.010156774,0.011836745,0.010376691,0.010553188,0.010923478
0.011050264,0.012178734,0.010175877,0.010193215,0.011625223
0.011146113,0.011325086,0.01055863,0.0105401175,0.010753947
0.011637285,0.011853399,0.010945389,0.010812873,0.011406975
0.010755009,0.011138723,0.010550687,0.010317156,0.0104491515
0.0092573445,0.010325517,0.008925826,0.0087298965,0.009818868
0.00915131,0.011010139,0.00885139,0.008864232,0.010478593
0.010072351,0.011744434,0.009507831,0.009055298,0.0111541655
0.010416059,0.012707163,0.011057013,0.011259962,0.01219974
0.0122164795,0.012716829,0.011030788,0.010847982,0.012354501
0.008980342,0.010852315,0.009288286,0.009459046,0.010352818
0.009279744,0.010551754,0.0096317185,0.009797694,0.010178767
0.011816071,0.012859512,0.012272132,0.012469914,0.012614157
0.012422729,0.0127791865,0.012555909,0.012422966,0.012635229
0.0120506305,0.013660973,0.012041807,0.012370589,0.013661573
0.010045589,0.011937757,0.009787466,0.00980121,0.011335373
0.011191837,0.0127488235,0.011010709,0.01135606,0.012413988
0.012681045,0.013753145,0.012454969,0.01252693,0.013164258
0.011833192,0.013070982,0.010959518,0.011101304,0.012652066
0.008017778,0.010220117,0.008589831,0.008740775,0.009655408
0.009505052,0.010640625,0.009975672,0.010407068,0.010190228
0.011098588,0.011630102,0.0115492465,0.011394507,0.011327343
0.011309116,0.012468245,0.011283348,0.0112917805,0.012315349
0.010944722,0.012348877,0.010927874,0.011111812,0.010982464
0.011959262,0.013825969,0.012546517,0.012536829,0.0136721665
0.011982689,0.013021676,0.011999722,0.01211322,0.012891802
0.010672999,0.012314253,0.011366358,0.0115596475,0.012045357
0.011459199,0.012549628,0.01078278,0.010863036,0.011942978
0.010789755,0.012146128,0.010503947,0.01058142,0.011638292
0.010839849,0.012018531,0.010626607,0.01064944,0.01168124
0.010480918,0.011674183,0.010280682,0.010355999,0.010825909
0.010379204,0.012336312,0.009806375,0.010048425,0.011154877
0.010199164,0.01272335,0.010079404,0.010390491,0.011812273
0.010192424,0.012703709,0.010928718,0.01085876,0.012029133
0.008855436,0.01256635,0.010642594,0.010211512,0.011324695
0.009488778,0.012218821,0.009535655,0.009379526,0.0107621895
0.010801984,0.011874895,0.010996216,0.010845116,0.010875424
0.008913542,0.011146522,0.008936787,0.009006894,0.009905627
0.010503258,0.011879453,0.010997242,0.010863225,0.011307618
0.010553725,0.011799861,0.009831154,0.009843333,0.011130014
0.009751646,0.0110818995,0.009582134,0.009778493,0.010581716
0.009163693,0.011242304,0.010273328,0.01016238,0.010784379
0.008803657,0.0110736955,0.009319638,0.009430101,0.010018563
0.009757726,0.01106228,0.009682789,0.009364778,0.010552219
0.011474666,0.012746236,0.011548202,0.011263887,0.012142722
0.012082229,0.013123084,0.012339772,0.012393335,0.012754748
0.009823246,0.009719714,0.010153236,0.009520883,0.009101122
0.008465808,0.008727028,0.0076038227,0.0077302023,0.007767115
0.006352588,0.007815784,0.0060938494,0.0060887816,0.0069628693
0.0069137434,0.008490946,0.00680116,0.0068176747,0.008161814
0.010824336,0.0127602415,0.01082098,0.010467186,0.012125826
0.009527211,0.009698883,0.008991789,0.008775483,0.009148185
0.0072145946,0.00950833,0.007833773,0.007811058,0.00898859
0.008643906,0.010337649,0.008749748,0.0087044835,0.009516415
0.008189206,0.008480324,0.0075355144,0.0073653245,0.008065676
0.0082258135,0.009689603,0.008516257,0.008494461,0.00938837
0.009196438,0.0096032,0.008492083,0.008481009,0.009044651
0.0077110133,0.010159301,0.008010065,0.007964649,0.009786221
0.00764845,0.009318358,0.0074756434,0.007297423,0.0087686
0.0076197856,0.007922734,0.0073349993,0.0072268737,0.0079430435
0.006400833,0.007399168,0.0066011436,0.006576278,0.0071787764
0.0055632554,0.0064438973,0.006023549,0.005911703,0.0061395937
0.006026566,0.0066584223,0.007055566,0.0070517743,0.006608262
0.0072018616,0.007662765,0.006842679,0.0067796553,0.0071588582
0.0094604315,0.00969241,0.009044932,0.00889684,0.009452564
0.010381386,0.011044585,0.0100036105,0.009810698,0.01104581
0.00922226,0.010007457,0.008438151,0.008132167,0.009839089
0.009133475,0.009635394,0.008708557,0.008273372,0.009528775
0.008912474,0.009567827,0.009092283,0.00867279,0.009264041
0.008966502,0.009426533,0.008418405,0.007964403,0.00939976
0.0083139865,0.0095319245,0.008344904,0.008254312,0.008945726
0.0071006715,0.008514488,0.006869121,0.0068701957,0.007990496
0.005330794,0.006108728,0.005229557,0.005193964,0.005499951
0.00569283,0.0064188,0.0053584035,0.005540381,0.006080046
0.0061676623,0.00670757,0.005467291,0.0059203897,0.006466121
0.005838775,0.0066518774,0.005632296,0.0060648806,0.0063344934
0.006291763,0.0063441303,0.006364859,0.006587162,0.0060789064
0.008002161,0.00814867,0.0075029777,0.0075853392,0.007919611
0.0074846274,0.008585698,0.0069733304,0.007002456,0.008013822
0.0076278937,0.008120233,0.0064558163,0.0065906,0.0078081936
0.006154345,0.0077497712,0.0056446395,0.0056550596,0.007457803
0.008544902,0.0107358415,0.008415467,0.008310074,0.01026449
0.009272766,0.0106382165,0.008842525,0.00904291,0.010266855
0.00855564,0.009293278,0.0082656,0.008068244,0.008571077
0.0073019164,0.007936555,0.006673428,0.006713624,0.008108361
0.0076785656,0.0082820095,0.007169483,0.0070308493,0.008072546
0.0073036836,0.008008543,0.0068084267,0.0069318106,0.007833894
0.006478191,0.008075517,0.0059462776,0.005866064,0.007503738
0.007499223,0.008374996,0.006619222,0.006401144,0.007893711
0.0049879504,0.0058661015,0.0044052433,0.004363257,0.0054096365
0.004846886,0.005163135,0.004583281,0.0046142074,0.0050296104
0.0051711206,0.0057906206,0.0050502303,0.004772134,0.0056975237
0.0047078636,0.005228703,0.00494542,0.004941784,0.004473615
0.004449213,0.00661993,0.0043244604,0.004325905,0.0054758987
0.005760464,0.006322214,0.0055753984,0.0056054955,0.006084229
0.0071321633,0.007948725,0.0069516026,0.0069914684,0.0073387297
0.0062722685,0.006709624,0.006293721,0.0061818007,0.006051691
0.0060162996,0.0063875965,0.006032919,0.0059557483,0.00629641
0.0064536748,0.007449709,0.006477865,0.006559705,0.0068130638
0.006386753,0.006905404,0.0062361066,0.0063330606,0.0062938505
0.006275112,0.007003687,0.006006061,0.0061375266,0.006562524
0.006526513,0.008132836,0.0059284894,0.006058423,0.0074177757
0.008021661,0.009610086,0.0086613,0.008507488,0.009449734
0.008090242,0.008199508,0.007939729,0.007693079,0.007942526
0.005270615,0.006477854,0.005334116,0.0055144313,0.006337882
0.005754126,0.007224268,0.006075576,0.0062578022,0.0065811737
0.007214119,0.007961251,0.006893166,0.00701465,0.007603477
0.006989692,0.008286802,0.007385573,0.0072091077,0.007814677
0.0066327397,0.0077294884,0.00770346,0.0074887928,0.0076641617
0.0065402305,0.007659481,0.0066979975,0.006487271,0.007354592
0.005522072,0.0063126897,0.005290141,0.0051010195,0.0062897913
0.0052994452,0.0060306937,0.0050081294,0.005036628,0.0056242794
0.0060440074,0.007815346,0.0056989794,0.005763728,0.0074383053
