"[299, 255]","[227, 248]","[287, 319]","[279, 328]","[230, 262]"
0.0074760574,0.008330374,0.007162854,0.0071993684,0.007749332
0.007798921,0.008731082,0.007412281,0.007414762,0.008069268
0.008451119,0.009442584,0.00782563,0.0076457793,0.009118664
0.009069499,0.009470893,0.009011173,0.008994965,0.009427654
0.008433665,0.008810537,0.00831145,0.008469139,0.00852715
0.0082063805,0.0086323,0.00813091,0.008192479,0.008379206
0.008161866,0.008963462,0.008018375,0.007844515,0.008676204
0.008527563,0.009549391,0.008304051,0.008131998,0.009324796
0.0078178765,0.009023465,0.007894699,0.007839088,0.008767139
0.0077775964,0.008074265,0.0076406077,0.0076524373,0.007803191
0.0045814826,0.0049723247,0.0041473494,0.004141984,0.004293289
0.004774274,0.005801106,0.004466298,0.004484971,0.0051875594
0.0052857534,0.0056630676,0.004902304,0.004932437,0.00517664
0.0047915834,0.0050509227,0.004876848,0.0048502255,0.0051127602
0.0048702527,0.007007034,0.0046512666,0.0047548963,0.0065820185
0.0062594847,0.00731694,0.0056250896,0.005607229,0.006974595
0.0046462324,0.005619773,0.004287993,0.004167519,0.005417912
0.0036809456,0.0048492714,0.0034894228,0.003446946,0.0044836053
0.0055721058,0.0075800554,0.005153887,0.0052418797,0.007071685
0.0059559946,0.006223533,0.005806622,0.0058656354,0.005918182
0.004598684,0.004978569,0.00433504,0.00451382,0.004783606
0.0040944563,0.004443881,0.004106517,0.004070841,0.004351701
0.0043855654,0.0047676694,0.004145722,0.00421304,0.0046943408
0.0035649908,0.0050467416,0.0034456835,0.0033787694,0.0043169553
0.0051463535,0.0071182963,0.0048755514,0.0049441485,0.0066158595
0.0059790257,0.0070117447,0.0057994695,0.005777961,0.006357776
0.0059187715,0.0067953714,0.005259063,0.0050902255,0.006404843
0.0061240327,0.0076629627,0.0060256436,0.0060780924,0.0072434135
0.0067884857,0.007222425,0.0069692666,0.0068298145,0.0070606414
0.0056260773,0.006220713,0.005869705,0.0059561585,0.005768457
0.0065580285,0.0072495984,0.0063655893,0.0064515364,0.0069722743
0.0056793923,0.0063953386,0.005752442,0.0058736536,0.005956721
0.005759072,0.005850443,0.0060554026,0.006157618,0.0051747295
0.0038667775,0.004609645,0.0038910937,0.003877588,0.0041265376
0.0032353762,0.0041776192,0.0033192546,0.0032884334,0.003468217
0.004666824,0.005353559,0.0044643385,0.0045401417,0.005172931
0.0045578107,0.005394437,0.004389202,0.0044917823,0.0047052926
0.004470805,0.0053559244,0.004480795,0.0044108843,0.005040898
0.0044892915,0.005477198,0.0043687318,0.0042509213,0.005260558
0.0044468786,0.0058495984,0.0048824963,0.004782713,0.005587819
0.00416897,0.0054441164,0.0041142832,0.004128849,0.0053628264
0.0033700152,0.0035703608,0.003529582,0.0034975603,0.0036766836
0.003348353,0.003720162,0.0033947658,0.0033449742,0.003839506
0.004898989,0.0056226165,0.0047859703,0.0047726887,0.0050838827
0.005267653,0.0061780387,0.00511676,0.004993995,0.00570013
0.004410431,0.005054746,0.004424269,0.0045402576,0.0045865322
0.0047598616,0.0060231,0.0046527344,0.0047301785,0.0056152805
0.0073282295,0.008081631,0.0066332943,0.006560599,0.0076884497
0.0076414105,0.0078835385,0.007827162,0.007845979,0.0078270035
0.00578041,0.006114279,0.0057619535,0.005730131,0.0056959987
0.0066456846,0.0077134687,0.0067004277,0.006615849,0.007639101
0.006767576,0.007043705,0.006641187,0.0063757678,0.0067249225
0.0047276844,0.005151976,0.0046246583,0.0045628524,0.0044955746
0.003935685,0.0046831644,0.004023191,0.00419352,0.0041338983
0.0042701648,0.0049316464,0.0043464275,0.0043924632,0.0045204177
0.0035458372,0.0047139837,0.0037786588,0.003732317,0.004454808
0.0040887753,0.004861801,0.0043929457,0.004376353,0.004523789
0.004554562,0.0048422003,0.0043652244,0.004407013,0.004515507
0.004847612,0.005696551,0.0044442327,0.0045369416,0.0054028262
0.004870171,0.0055631995,0.004828077,0.0048475275,0.005266363
0.0041718343,0.0058146645,0.0042858524,0.004434218,0.00534922
0.0049785725,0.0053975647,0.0045979284,0.0045512165,0.005072264
0.0044676694,0.00561448,0.004804462,0.0049157855,0.0051308926
0.0054842206,0.0066587836,0.0049960497,0.004965159,0.0064282212
0.0069946568,0.007500918,0.006800012,0.006611853,0.007440893
0.0044595576,0.0050195064,0.004269391,0.0043233964,0.004415728
0.004520297,0.004796356,0.0046703992,0.0047730654,0.004412904
0.0046563316,0.0057901912,0.004130187,0.004116841,0.0056019616
0.004568109,0.005080685,0.0043723257,0.00441076,0.0045420066
0.0041467454,0.0048281313,0.0037316205,0.003759771,0.0043434403
0.0035128423,0.004167098,0.0036265876,0.0036461935,0.0038621246
0.0029855326,0.0036387765,0.0029872404,0.002945709,0.0031233504
0.0029457584,0.0034469354,0.00315439,0.0032316123,0.0032439823
0.0029340468,0.004453627,0.0040136157,0.004025545,0.0040428825
0.0041967486,0.005318179,0.0045783874,0.0047604167,0.005078131
0.005177283,0.0059254062,0.0048612915,0.0047999807,0.005628403
0.0048001832,0.0052382615,0.0043665315,0.004353279,0.004657927
0.0037652724,0.0045322916,0.0037894493,0.003944074,0.003977368
0.004922029,0.005939034,0.004610769,0.0045211273,0.005643056
0.005845596,0.00623777,0.005675267,0.0057745883,0.0060071233
0.004020649,0.0043856367,0.00371502,0.003745361,0.0041663204
0.004618713,0.0059926403,0.004578014,0.0045475066,0.0056225415
0.0040028277,0.004358324,0.0037986552,0.0038500116,0.003959643
0.0049196556,0.0058214404,0.004269991,0.0044232314,0.005554649
0.004735635,0.0062437677,0.004379806,0.004290676,0.005749132
0.0057586334,0.006901344,0.005336379,0.005374859,0.00669414
0.0062053557,0.006694909,0.005820332,0.0059070364,0.006496198
0.0058003785,0.0065450612,0.005786679,0.005694003,0.0062034084
0.0059795165,0.006713808,0.0063594487,0.006113377,0.0066315704
0.0059315814,0.0068331095,0.006438022,0.006163441,0.0067398455
0.0057657543,0.006814278,0.0063788267,0.0061394307,0.006714257
0.0042035677,0.004971787,0.0038070164,0.003850034,0.004793593
0.004577945,0.005372772,0.004600607,0.0047829137,0.0050456235
0.0053100577,0.0061297347,0.0053150924,0.0053618527,0.0056790058
0.0042925533,0.0048608743,0.0042441473,0.004314032,0.0044712583
0.00531983,0.005990332,0.005435023,0.0055349376,0.005898825
0.0061036865,0.006459322,0.0060313065,0.0061438726,0.006352277
0.0059190686,0.006469092,0.005802313,0.005880951,0.006255614
0.0057511167,0.0063557834,0.0058251233,0.0059032007,0.00617452
0.004929743,0.005606587,0.0045141727,0.0045344825,0.0051361825
0.005832705,0.0063063293,0.005962855,0.006031572,0.006018231
0.005862819,0.0062004477,0.005986716,0.0060187993,0.0058819805
0.004921634,0.005336754,0.0046604346,0.0046683974,0.0049430626
0.0047082193,0.0056442264,0.005058331,0.0050059706,0.0053134914
0.005507638,0.00567518,0.005000321,0.004771164,0.005436123
0.004221383,0.004921448,0.004114547,0.0041647027,0.004396605
0.004867323,0.00562163,0.0045750444,0.0046269936,0.0053533274
0.00537376,0.0056379726,0.005178805,0.005236426,0.0055854265
0.0042918324,0.005094984,0.004077575,0.0039815838,0.0047705527
0.006392211,0.007375755,0.006388379,0.006269091,0.007415726
0.0067772768,0.006535674,0.006402929,0.006244923,0.0063900324
0.0050030486,0.0055241566,0.004365378,0.00443243,0.005223079
0.005921634,0.0066871173,0.0057373154,0.005671057,0.006543039
0.005672191,0.006391145,0.006172501,0.0061364667,0.006292384
0.0047506965,0.0049431426,0.0045130667,0.0043615787,0.004499748
0.0033777596,0.0033504541,0.0029195398,0.002877596,0.003322974
0.0032528527,0.0034354557,0.003353338,0.0033027746,0.0033691511
0.0035468163,0.004113144,0.0040459377,0.0041333,0.0040636607
0.004273542,0.0047648265,0.0037639525,0.0040121838,0.004265476
0.0047638724,0.005794681,0.004522401,0.0044471463,0.0057930816
0.0069382368,0.0071772803,0.006840063,0.006796703,0.0070751333
0.0052564447,0.0053754593,0.0052875513,0.005147285,0.0050706537
0.005057148,0.005311943,0.0046564066,0.0047392393,0.004992369
0.003703308,0.0044684983,0.0033515706,0.003290921,0.004039158
0.0031509143,0.004081217,0.003137964,0.0031153571,0.0037168646
0.003990678,0.0045188027,0.004146245,0.004180737,0.0042963526
0.004404366,0.00468674,0.004259353,0.004333352,0.0044926344
0.0042179357,0.0043649273,0.0040206406,0.0039616767,0.0041695624
0.005139401,0.0054155597,0.005172033,0.0050507504,0.0051429025
0.0051073306,0.0052581867,0.004495526,0.0044561676,0.004931382
0.0033877692,0.004041769,0.0032231724,0.0031545088,0.003544455
0.0032846727,0.003592253,0.0032097285,0.0031526827,0.0034146977
0.0033956408,0.003954453,0.0035387836,0.0034627004,0.0036906556
0.004876614,0.006175404,0.0039814916,0.003950684,0.005775339
0.006602652,0.0072282725,0.0060932604,0.005896481,0.0070398976
0.0062571387,0.0064632287,0.006153015,0.006209055,0.006277338
0.005559677,0.006025859,0.0056162984,0.005521757,0.005691608
0.004428419,0.0055493996,0.005203625,0.00526504,0.0051185903
0.005725319,0.006301616,0.005668149,0.005513347,0.0061947093
0.004165416,0.0050865295,0.0036178592,0.0035696072,0.0047733607
0.0037886498,0.004555101,0.0040623737,0.0040483074,0.0042871744
0.0040066373,0.0043589333,0.003926189,0.003900109,0.004153318
0.003626412,0.0044279024,0.0038379761,0.003873381,0.004079461
0.0034198514,0.003960111,0.0032162836,0.0031993664,0.0034850226
0.0032856425,0.0039160764,0.0033297993,0.0032688538,0.0036002102
0.0045935153,0.005871631,0.004748355,0.004764694,0.005442584
0.005225217,0.0063406345,0.005286311,0.005302675,0.006103372
0.0061433273,0.0064457846,0.005966721,0.005904586,0.006225317
0.0048520123,0.0054326616,0.004739906,0.0047482564,0.005123788
0.0047185486,0.0054609547,0.0047795647,0.0047609587,0.00489366
0.0045375745,0.0050704866,0.004365832,0.004274974,0.0046193074
0.005529653,0.0070780213,0.005669274,0.005493634,0.006710105
0.006541982,0.0072226888,0.0072743385,0.007259273,0.007300035
0.0072861193,0.0074746665,0.0070009492,0.007008005,0.007413924
0.0069843,0.0072197956,0.0066263196,0.006687924,0.0071258605
0.005038249,0.0056509404,0.0051613315,0.0051034978,0.0052121314
0.00478234,0.00557899,0.005235744,0.005233456,0.0051256027
0.005168388,0.0057263146,0.0050021075,0.0048764,0.0053991196
0.005354623,0.005562306,0.005267953,0.0053528063,0.005417708
0.0051285718,0.0058517065,0.00513551,0.0051590903,0.005396036
0.0049953777,0.0063862223,0.0049318713,0.0049289274,0.0055142
0.0058173686,0.006153715,0.005488889,0.0052625323,0.0057684425
0.005624204,0.0064261607,0.005520229,0.0055710482,0.006082465
0.008766746,0.008544705,0.008985749,0.009032412,0.009023541
0.007562165,0.008715205,0.007370902,0.007467189,0.008783394
0.005782705,0.0077270987,0.006582584,0.0067096697,0.007366586
0.006795365,0.008026468,0.007189419,0.0068108095,0.007024361
0.00799245,0.007844616,0.007229352,0.006952509,0.0071691736
0.0060787434,0.0066118906,0.00595911,0.005891496,0.0060643563
0.0071597164,0.0074214665,0.006739134,0.006524001,0.0069808597
0.005596616,0.0060172947,0.0052891583,0.005257477,0.0054953177
0.0063223154,0.006837656,0.005381803,0.005368843,0.006222289
0.0048509864,0.005378295,0.004546413,0.004462808,0.004948369
0.0047923345,0.0057533546,0.0047565224,0.004697696,0.0054426687
0.0072199153,0.0077971164,0.0071180253,0.006885078,0.0075313323
0.005742415,0.006068692,0.0052889264,0.0051585943,0.0057109115
0.004718453,0.005686726,0.0044956515,0.0044347458,0.005320065
0.0059636026,0.007281303,0.0051666903,0.0051269718,0.0071336227
0.0075798817,0.008041461,0.007306546,0.0071654925,0.007880367
0.0061818925,0.00693744,0.006093418,0.006093481,0.006399909
0.0059135845,0.006222737,0.005992962,0.006003893,0.0062213056
0.006710582,0.007883004,0.006915432,0.006763229,0.0074715903
0.00942982,0.008857124,0.009949135,0.010129564,0.0090732835
0.011699889,0.010228865,0.011929051,0.011763548,0.01020171
0.010824086,0.008234543,0.010020371,0.010017863,0.007766651
0.0062118075,0.0062915613,0.005538009,0.0055002975,0.0058571254
0.0046896795,0.005492751,0.0047017834,0.0046933936,0.005077236
0.0059343316,0.006796071,0.0054345764,0.005470213,0.0067360103
0.007961393,0.008774497,0.0074439268,0.0073229894,0.00846733
0.0076460014,0.008009142,0.0075978744,0.0075213118,0.0077148615
0.0074274046,0.008094344,0.007707491,0.007660095,0.007712937
0.0063572978,0.0070274733,0.005664202,0.00563407,0.006400021
0.0060775783,0.0067392094,0.0054257778,0.0054295016,0.0063642017
0.0062054186,0.0070014657,0.006395488,0.0063693607,0.0065858457
0.008273132,0.0088717,0.008237359,0.008142998,0.008657713
0.0069973497,0.007673617,0.006475763,0.0064945375,0.0074331705
0.005865574,0.0071782414,0.0055767135,0.005428236,0.0068590627
0.0055487324,0.0071793725,0.005694121,0.0056771403,0.006906351
0.00723709,0.008412057,0.0069644037,0.0069151367,0.008078169
0.0064477026,0.008319665,0.00652822,0.0065329433,0.007831438
0.006647833,0.008085883,0.006051405,0.0060297716,0.0078123133
0.0060653375,0.007131774,0.0060109044,0.005962957,0.006621947
0.0073018502,0.007724727,0.0075425184,0.007425303,0.0072811204
0.0077920286,0.008402131,0.0072378097,0.0071132877,0.008196557
0.006955133,0.0091857035,0.0068846047,0.0070049977,0.008602444
0.008279918,0.008806827,0.008409145,0.008494634,0.008607686
0.008014535,0.008928316,0.007107207,0.0070616333,0.008640699
0.0072711185,0.009293017,0.007085794,0.0071526016,0.009042878
0.0073904484,0.009951992,0.007426032,0.007753352,0.009491575
0.008426344,0.010348526,0.009585608,0.009595939,0.010057694
0.010194173,0.010051953,0.009462648,0.009128752,0.009657595
0.008281222,0.01043432,0.008423127,0.008572181,0.009944801
0.007829259,0.010615702,0.007703619,0.007685765,0.010292841
0.006957291,0.00962842,0.006866413,0.0067520095,0.009011396
0.0072068116,0.0084914155,0.007316965,0.007288295,0.008393868
0.008095191,0.010072074,0.008627902,0.008434359,0.008893174
0.009344296,0.011466389,0.009688,0.009242698,0.010688271
0.009392938,0.010387795,0.009089191,0.009069697,0.009855772
0.00957826,0.010620355,0.008733522,0.008638927,0.010004141
0.007147948,0.009433726,0.0064127184,0.006348012,0.008956083
0.0076315724,0.010111679,0.008330734,0.008215041,0.009591848
0.010392919,0.012179097,0.010417504,0.010260002,0.010958177
0.009933966,0.012046172,0.010569323,0.009908623,0.0108630415
0.009216678,0.011798893,0.00957455,0.009382161,0.009340434
0.010677074,0.013235766,0.010929914,0.010373946,0.012494859
0.010212454,0.011504593,0.010681298,0.01031081,0.010875744
0.009437436,0.012130331,0.010396903,0.009655489,0.01149848
0.011370759,0.011670209,0.011043344,0.010946641,0.01140641
0.009115008,0.010303762,0.0085803205,0.008567235,0.0096068205
0.008553518,0.009503193,0.008019894,0.007809532,0.008845192
0.01112135,0.011651869,0.010317496,0.0101290615,0.0112098325
0.009645366,0.010218081,0.008857031,0.008979573,0.00959996
0.011869512,0.012860264,0.0113664735,0.010688274,0.0121949855
0.011359436,0.01166739,0.010717467,0.010357575,0.011402907
0.0104829455,0.011724836,0.009490842,0.009195274,0.010674959
0.00902315,0.009952832,0.008713243,0.008699761,0.009594756
0.010738216,0.0121840825,0.011526282,0.0113156615,0.0118066445
0.010294177,0.011423748,0.010580904,0.01016028,0.01080187
0.010133347,0.011349958,0.009923489,0.009497889,0.010782662
0.009948369,0.01094176,0.00882187,0.008380886,0.0102647515
0.010207079,0.011679743,0.0103063295,0.01027661,0.011147293
0.010666339,0.01217444,0.010784003,0.010541909,0.011542258
0.00955017,0.010503006,0.009069455,0.009028267,0.010034292
0.008246243,0.009982192,0.007772432,0.007707181,0.009432819
0.0089128725,0.01233977,0.009273277,0.008963464,0.011178734
0.01109269,0.01296732,0.011502762,0.010989584,0.012202826
0.0113565745,0.012144868,0.010798718,0.010529705,0.011362976
0.00818136,0.0086688325,0.0072862823,0.0072521744,0.008067396
0.00831648,0.010038087,0.008379887,0.008429384,0.009168674
0.010031565,0.012060078,0.010397588,0.010281203,0.011623304
0.008425306,0.009450527,0.00786359,0.007864038,0.008697503
0.007868185,0.008719,0.007798762,0.0076971464,0.008327166
0.008516434,0.010385474,0.008032041,0.00798132,0.009228706
0.008841484,0.011512903,0.009938644,0.00991467,0.010783074
0.010299438,0.011225873,0.01031731,0.010328874,0.010837119
0.009371061,0.01170994,0.00927285,0.0094929105,0.010916582
0.009912889,0.010332733,0.009660992,0.009589815,0.009838202
0.010486913,0.011002713,0.009763259,0.009612708,0.010676111
0.010858044,0.010038426,0.008840679,0.008832339,0.009372205
0.009523896,0.010199648,0.0091481665,0.008905566,0.009525734
0.00950128,0.010645112,0.0090216175,0.009052754,0.009741543
0.010410691,0.011553482,0.009790219,0.009700199,0.0107764555
0.009178954,0.009952341,0.008684949,0.00892996,0.009399992
0.009564254,0.009733673,0.008687958,0.008829531,0.009376932
0.009423432,0.010314326,0.008597783,0.008647736,0.009931565
0.011295276,0.01223082,0.009993534,0.010040347,0.012219328
0.010532691,0.01033698,0.010775815,0.01105152,0.009966092
0.0108968355,0.011984344,0.010606933,0.0106983995,0.011578628
0.011784598,0.013168762,0.011717709,0.011611729,0.013079092
0.012903239,0.013113939,0.01258609,0.012380795,0.0127038155
0.011824401,0.012622544,0.012900024,0.012885782,0.012482119
0.012196667,0.011796246,0.01307193,0.013176498,0.011892062
0.010968255,0.01189883,0.011981664,0.012069717,0.011996595
0.011301509,0.011920651,0.010983073,0.010824023,0.012179767
0.011798704,0.011745662,0.011228687,0.011387585,0.011525348
0.011475883,0.01280717,0.011785312,0.011491266,0.012358192
0.008463586,0.009042706,0.00789156,0.007912186,0.008662274
0.008563288,0.009167832,0.008817954,0.008841256,0.009001293
0.009393408,0.010540988,0.009395656,0.009304945,0.010001386
0.010921744,0.011811197,0.009588609,0.009585941,0.011332166
0.010545302,0.011838411,0.008977286,0.009577999,0.0111441305
0.010869273,0.01217056,0.01098272,0.011036477,0.011406926
0.008508481,0.012042466,0.010252139,0.010394725,0.011018412
0.009857592,0.011648376,0.009895894,0.009780984,0.010817515
0.010534304,0.012347593,0.010794273,0.010985874,0.01193943
0.01119326,0.010999573,0.010856974,0.010726731,0.0103948265
0.009982195,0.009448031,0.00988146,0.010005676,0.00939365
0.009792105,0.011447468,0.010563249,0.0107953325,0.010730824
0.011717336,0.0132363895,0.012458776,0.012493452,0.012934927
0.010702727,0.01255367,0.011057295,0.011009006,0.011932141
0.009748597,0.009949409,0.0092009725,0.009183511,0.009382556
0.007962114,0.008256595,0.007627588,0.007644321,0.007812059
0.006843811,0.007991673,0.00732859,0.007107766,0.007692035
0.0072095226,0.008010939,0.0072696395,0.007353738,0.007821963
0.008410323,0.009159426,0.008350291,0.008137355,0.008875695
0.00851957,0.009489971,0.008219441,0.007880692,0.009041829
0.009203779,0.009909136,0.008635608,0.008052194,0.009753208
0.010303607,0.0112903835,0.010210624,0.010156169,0.011121076
0.010895569,0.012056203,0.010904616,0.010906189,0.011614191
0.011205509,0.012356625,0.011816432,0.011718064,0.01218357
0.011014399,0.011714646,0.011314421,0.011164781,0.011289383
0.0082381815,0.008976366,0.008137517,0.008130815,0.008481768
0.009513979,0.010751888,0.009831385,0.009991439,0.010389188
0.011744057,0.012061321,0.011842104,0.011894023,0.0118444
0.0111131575,0.011602763,0.011134787,0.010940896,0.011502735
0.01045304,0.012234375,0.011778468,0.011728482,0.0120121045
0.009194993,0.011311687,0.009997352,0.010231073,0.010453286
0.0093764635,0.01053703,0.009388682,0.009774698,0.010082084
0.008580662,0.00999766,0.009748225,0.009708904,0.010264059
0.010239843,0.011104106,0.009500167,0.009414024,0.010839615
0.011307817,0.01175773,0.011142444,0.011140718,0.011363427
0.010492912,0.011321669,0.010852062,0.010817989,0.010829994
0.010575056,0.011590074,0.010915133,0.010979102,0.011335532
0.00989958,0.011106329,0.010426016,0.010378455,0.01114228
0.009357091,0.0111147715,0.009713653,0.009704588,0.010514843
0.009540387,0.011713766,0.009617083,0.009745581,0.01142686
0.00867753,0.009012853,0.008409823,0.008328699,0.008507858
0.007769742,0.009077066,0.00842421,0.00811533,0.00859679
0.0085448865,0.009186739,0.008457318,0.008540554,0.00863837
0.0075538806,0.008057682,0.007409037,0.0074548493,0.007370417
0.0070840465,0.007840214,0.006486148,0.0064078066,0.0072835023
0.0070021157,0.007681612,0.006452391,0.006461005,0.0073040677
0.00924184,0.010658433,0.008676058,0.008701789,0.01020814
0.008806582,0.008714313,0.008875046,0.009054657,0.008456914
0.0077893245,0.0080248015,0.0077779773,0.007883638,0.007908921
0.0076576658,0.008791893,0.0077594644,0.007664375,0.008449107
0.008487049,0.0074435933,0.0077495757,0.0075298557,0.0074624405
0.0065928544,0.006857297,0.006178229,0.0063470327,0.0065096435
0.0060857236,0.0063841846,0.0058957795,0.006148025,0.006064017
0.00574488,0.0074487687,0.006475798,0.006802305,0.006938407
0.006355035,0.0072552315,0.0061250543,0.006603192,0.006939062
0.0072286194,0.008968417,0.00785322,0.007793542,0.008837226
0.0080335215,0.009959989,0.008814156,0.008801595,0.00968839
0.009183463,0.009487376,0.008794195,0.008660346,0.009164881
0.00676197,0.0067931693,0.0065148254,0.0064388392,0.0064518824
0.006174087,0.0069709634,0.0064161094,0.006477125,0.0066539696
0.006988618,0.008125775,0.007113591,0.0069990284,0.0076450096
0.005617788,0.0061637987,0.005236396,0.0052861646,0.0053524906
0.0055009546,0.0073930267,0.0053619514,0.0054212417,0.007207296
0.007987256,0.009241667,0.0073257107,0.0074689016,0.00885123
0.0051821684,0.0062067946,0.0050039133,0.0049680034,0.005856441
0.0067516295,0.008290757,0.0055413274,0.00572782,0.007859326
0.0069070226,0.007199223,0.0064300233,0.0064630164,0.0070657814
0.005748118,0.0059432266,0.005590029,0.005698294,0.0053497334
0.005730618,0.007318517,0.005676922,0.0057678125,0.006677923
0.007815497,0.008201526,0.007590624,0.0074084057,0.00769799
0.0067262305,0.0076145735,0.0068440586,0.006822314,0.0069787437
0.006546779,0.0073446506,0.0061164643,0.0060914075,0.0068695396
0.0052630263,0.005390395,0.0046238224,0.0045683673,0.0052263355
0.0045849597,0.0051226746,0.003988074,0.004114464,0.004716638
0.004207437,0.0044868276,0.004091738,0.0043028845,0.004335698
0.0040092417,0.0055909627,0.0042727594,0.0046435017,0.005156859
0.007305356,0.009085318,0.006427903,0.0062946216,0.008835025
0.0075313332,0.0075396374,0.006859018,0.007122365,0.0073224017
0.007957882,0.008173507,0.007239674,0.007219853,0.0076895915
0.007732748,0.009213934,0.0077300905,0.0077308775,0.008791505
0.0076481556,0.008429206,0.007388281,0.0072561856,0.007835427
0.007433537,0.0071298466,0.0074219466,0.007367336,0.006919609
0.0060447436,0.0071729287,0.0058873612,0.006049543,0.006451005
0.00621754,0.00711066,0.005907494,0.0060542417,0.006471695
