"[299, 255]","[227, 248]","[287, 319]","[279, 328]","[230, 262]"
4.5500377e-09,0.0,0.0,0.0,0.0
0.0,0.0,0.0,0.0,0.0
0.09186509,0.12397794,2.7198362,0.5118973,0.4349836
1.9838924,0.03490738,5.968448,1.2234874,0.011690853
0.14246793,0.020799905,0.03376368,0.077784546,0.024538893
0.0021611445,0.19105893,0.0738981,0.14515464,0.005944685
1.2814658e-08,0.0,0.028391263,0.8148126,0.0
0.0,0.0,0.0,0.0,0.0
0.0,0.0013034501,0.0,0.0,0.010491716
0.27041093,0.0019444148,0.0012236014,1.8420425e-10,0.04602735
0.0,0.0,0.0,0.0,0.0
0.0,0.0,0.0,0.0,0.0
7.879022e-10,0.0,6.301047e-12,0.0,0.0
0.0,0.0,0.0027230987,0.0,0.0
4.6884875e-06,0.0,0.012035767,0.0,0.42586675
0.00028768647,0.0,7.657206e-06,0.0,1.4866055e-09
0.0063628303,0.025691343,0.005110759,8.9069596e-10,0.1845479
0.0005236647,0.0,2.0354779,1.1539835,0.0
0.0,0.0,0.0,0.0,0.0
0.0,0.0,0.0,0.0,0.0
0.00020342071,0.0,0.0,0.0,0.0
5.037659,0.10853369,1.7739948,1.441798,0.04809166
0.38502187,0.0,0.01930142,0.2617986,0.0
0.0,0.0025549913,0.0,0.0,9.5097304e-05
5.02555e-10,6.5266695e-06,0.04085034,0.0011053493,0.0008601988
1.2686331,1.4040272,0.19921376,0.072848596,0.56203586
8.812997,0.45265448,0.28216878,0.6407923,1.3499575
0.21137896,0.94879436,6.0190946e-06,0.7270044,1.59095
0.22954296,7.774423e-06,0.20298247,0.1766002,3.129401e-08
0.0077364,2.146211e-06,0.013014386,0.010049273,0.0
0.0,0.00027326823,0.055577885,0.5008979,0.079610586
0.025847342,0.0001368392,0.0,0.0,1.778401e-07
6.4374366,0.16742061,0.39906454,1.6758943,0.21414044
0.5538684,4.6938596,0.0,0.0,1.4029579
0.015204925,0.069229744,0.36163643,0.6804314,0.3176122
0.014812166,0.0021204585,0.13223343,0.020468736,5.2118207e-08
0.06896049,1.1429591e-05,0.17483175,0.36686328,2.9155701e-06
0.0,1.8644014e-05,0.0,0.0,5.7671997e-07
0.0,0.0,2.71571e-05,0.0,0.0
0.01201042,0.0,1.10330176e-10,0.0,2.7519147e-05
4.83866e-05,1.8408305e-07,1.6870578e-08,0.0025119379,0.00027738282
0.7577995,0.035049275,0.5982872,0.33941954,0.1019768
0.27018675,0.0,2.240642,1.2440947,0.022531623
0.0048680333,0.0028978519,0.62691206,0.122102015,0.010149294
3.3211124,0.005833236,0.121187255,0.1847967,0.0063098883
0.030651746,2.0582677e-08,0.05518193,0.0,0.08317576
0.1855154,0.0041509643,0.29737884,0.0469452,0.0010446705
7.887537e-06,0.3376149,1.962157e-07,0.0017940454,0.5098365
0.085093945,2.2812219,0.15953624,0.4955999,1.6139797
0.0,0.0009632593,0.5911802,0.24637131,0.054977685
0.000268552,0.07696352,0.07580764,0.007359391,0.088042125
0.0,0.0,0.0,2.3167253e-09,2.4578286e-09
2.4479744,8.5108025e-11,1.0203378,0.5609219,4.695419e-09
0.2636883,0.6875699,0.2627302,0.078297764,0.14265193
0.78849316,0.00030433718,0.5281989,0.17599903,1.9572724e-05
0.22599064,0.04925711,8.433739e-09,0.006125123,0.010198661
8.126923e-08,0.08957183,1.1815041e-06,0.00018360568,0.015148843
0.00020274721,0.00087634433,0.002253474,0.0027413827,0.001249008
0.2212227,0.008776442,0.17872891,0.45813757,0.02950053
0.5385548,0.036476202,2.3794188,3.1367154,0.00080259657
0.0,0.00014216016,0.0,0.0,1.62447e-05
0.0,0.0,0.0,0.0,0.0
5.170148,0.59309256,1.9213924,0.2529339,1.2657392
0.04823009,0.0,5.978943e-05,2.504688e-06,5.923679e-09
0.0,0.0,0.0,0.0,0.0
0.0,0.0,0.0,0.0,0.0
0.0,0.0,0.0,0.0,0.0
0.0,0.0,0.0,0.0,0.0
0.0,0.0,0.0,0.0,0.0
0.0,5.7499744e-07,1.9631427e-06,0.00038727385,1.2155215e-06
1.065303e-08,3.037059e-08,8.166097e-08,5.8858e-10,3.885631e-05
0.0,0.0007400102,1.1973042e-06,1.1505746e-08,2.948958e-07
2.8605383e-08,0.017431892,0.0,0.008070648,0.04388158
0.0,0.0,0.0,0.0,0.0
0.02583228,0.1320384,0.052783992,0.01318201,0.051294163
8.704331e-10,0.0,0.0,9.390328e-08,0.0
0.055706598,0.0,0.08151763,0.0,0.0
0.02660788,0.03352357,0.00013170607,3.2069176e-05,0.013828172
0.017830655,0.0,0.00063730835,2.8289477e-07,0.0
0.0,0.0,0.0,0.0,0.0
0.00075554854,0.027956324,0.0012020947,0.03339419,0.0064036865
0.07190309,0.0,0.005917514,4.9931197e-05,0.0
0.0,0.0,5.644443e-10,0.0,2.6402763e-10
0.005954383,0.0018100197,0.0045348923,1.48428335e-05,0.0014548243
0.0,0.0,0.0,0.0,0.0
0.0,0.0,5.9333266e-10,0.0,0.0
0.0,0.0,0.0,0.0,0.0
0.0,0.0,0.0,0.0,0.0
0.18709351,0.0013359108,1.2604631,6.1964455,0.045289133
1.4532526,2.0000057,1.0677397,0.49271926,1.4483024
1.2250972,0.0001943834,0.000117063435,7.3423166e-08,0.10312793
0.08118259,0.00077566784,0.00020243457,0.0010322351,0.0027838508
0.00551813,0.00030916146,0.11489094,0.039954484,0.00034850862
0.0,0.0,0.0,0.0,0.0
0.47515842,0.049853563,0.21033315,0.40637872,0.23200195
0.10187989,0.03266461,0.011342609,3.660247e-05,0.026058951
1.3411031,0.11873264,0.09267869,0.3946457,0.18834764
2.5737798,0.44905424,0.68074346,0.23394103,0.452948
0.8286283,0.02317156,0.2981472,0.37400118,0.1555253
0.08053707,1.1174316e-07,0.1782492,0.16719232,0.00021597878
1.3187666,0.7819008,3.485234,0.9826138,0.4437447
2.5880651,0.0025304798,0.47218558,0.045899544,1.758664
0.00044221303,0.0,4.5707138e-10,0.0,0.0
0.0,0.0,0.0,0.0,0.0
0.0,0.0,0.0,0.0,0.0
0.0,0.0,0.0,0.0,0.0
0.0014570568,1.4927751,2.0242186,1.3805053,0.27124533
1.172464,0.00019476829,3.2479718,13.459768,1.051591e-05
0.072917,0.0013588817,1.5509844,1.8983871,0.019623416
0.120028466,2.1630369e-09,0.0,0.0,0.0
0.7684887,0.0,0.08148885,0.4395089,0.0
1.3554538e-08,0.0030476882,0.0,3.3431352e-08,0.00034701196
0.0,0.0,0.0,0.0,0.0
0.24267936,0.0004090814,0.038649783,0.01955655,0.00027955018
0.097735874,7.2891155e-05,0.15683454,0.598515,4.6187555e-08
0.105062805,0.15651748,1.8451093,4.7433267,0.00044429448
1.0860075,1.1319648,0.588343,2.1664364,0.6862738
1.5454634,1.0187117,0.21025145,1.420516,1.3506719
4.3432788e-06,1.4294803e-05,0.0,0.0,0.003485158
0.0,0.0,0.0,0.0,0.0
0.0,4.176965e-07,8.136227e-06,0.016499119,1.4172032e-06
0.49273756,0.0,0.0024574935,0.29096243,0.06432386
1.7142822,0.036592126,0.5202896,0.01070846,0.2999094
0.0,0.13551569,0.0,0.0,1.7356835e-09
0.0,0.0,0.0,0.0,0.0
0.0,0.0,0.0,0.0,0.0
0.0,0.0,0.0,0.0,0.0
0.0,0.0,0.0,0.0,0.0
0.0,0.0,2.7078235e-05,2.5693248e-06,0.0
0.0,0.0,0.0,0.0,0.0
0.0,0.0,0.0,0.0,0.0
0.0,0.0,0.0,0.0,0.0
0.0,0.0,0.0,0.0,0.0
0.0,0.0,0.0,0.0,0.0
0.0,0.0,0.0,0.0,0.0
0.0,0.0,0.0,0.0,0.0
0.0,0.0,0.0,0.0,0.0
0.0,4.6724034e-09,0.0,0.0,0.0
1.119218e-06,0.0,0.0,0.0,0.0008323411
0.0,0.0,0.0,0.0,0.0
0.00040903245,0.0,0.0041430555,0.0004649577,4.5505175e-08
0.0,0.0,1.6632943e-05,0.00016271601,0.0
0.0,0.0,0.0,0.0,0.0
0.0,5.9296025e-07,2.2958343e-06,5.9765935e-06,0.0
1.5730441e-06,3.0925505e-06,0.0,0.0,7.887908e-09
1.0394866e-06,5.7790465e-05,7.378361e-06,9.813899e-05,4.42352e-05
0.29975024,0.000969735,0.0,0.0,0.003180996
0.028811065,0.0018041107,0.07140263,0.043272816,0.0037881702
3.603441e-06,3.275658e-05,8.021466e-05,0.0,4.40489e-11
0.016380226,0.006492838,0.039288614,0.02578637,0.008294578
0.1087258,0.00083337567,0.0808723,7.689049,0.002591275
0.0,0.0,0.0,0.0,0.0
0.0,0.0,0.0,0.0,0.0
0.007892551,0.0,0.2919898,0.23294671,0.0
0.71170855,0.0014697616,0.7469587,0.3483954,0.0
4.9063573,0.062457103,1.1045066,0.1146926,0.020476464
0.00076856685,0.013424129,0.0,2.963659e-08,0.0027714465
0.29666272,0.055978324,0.037471667,0.10055368,0.09837636
0.025844581,0.0010239461,0.09504152,0.018990196,0.012343447
0.001093887,3.5490905e-06,2.9744595e-05,0.004306034,0.00012147351
3.9666233e-07,0.0021713062,0.009490448,0.016501112,0.001957851
0.010947924,0.002006086,0.00095472287,0.0001408892,0.00078159134
0.0028641648,0.00024497916,0.20482115,0.35695392,0.0110836765
0.06769657,0.0,0.19340025,0.024965938,0.0
0.24545889,0.0,0.0041874293,0.47528028,0.0
0.09475484,7.9960984e-07,0.0006404346,0.0,5.8084146e-07
0.0012849992,0.00263977,0.0037896957,0.028757269,0.0030142886
0.13079128,0.044565957,0.023690343,0.004709465,0.020955507
0.001678774,0.0,1.3579075e-06,0.21789321,0.0
0.0,0.0,8.9030044e-07,5.7817382e-05,0.0
0.0,0.0,0.0,0.0,0.0
0.0,0.0,0.0,0.0,0.0
0.0,0.0,0.0,0.0,0.0
0.0,0.0,0.004454788,9.76323e-08,0.0
0.0,0.0,0.015234753,5.2081264e-06,0.0
0.036139216,0.15468472,0.01988583,0.0052597094,0.04250771
0.5114195,0.02571249,0.77911884,0.30426955,0.008903541
0.82579553,0.0,0.005874028,0.07695033,5.7644584e-10
0.004253546,0.0,0.0012758431,0.009233149,0.0
0.027218062,5.7848943e-06,0.3126001,0.051141024,2.2717273e-08
2.4108288,6.152881e-08,1.9848276e-06,0.006818636,0.0010110909
0.0,0.0,0.067945704,8.430707e-05,0.15763731
0.113797784,0.00080049847,1.8457534e-06,0.00046760056,3.981972e-05
0.03472799,0.022881761,0.091839604,0.013372061,0.006184551
0.029210148,0.0,0.041747164,1.9965974,8.654649e-09
0.29079285,0.0030866386,0.051627755,0.0011577018,0.00076722493
0.008044024,5.483192e-05,0.6638934,0.5475294,0.0
5.0610848e-05,1.0559099e-05,0.0013571654,0.0028231668,0.00026781182
0.00022668146,0.0,9.410475e-06,0.0001777424,0.0
0.0,0.0,0.0,0.0,0.0
0.0,0.0,0.0,4.5495058e-10,0.0
0.0013268873,0.0008814391,0.033779155,0.03902898,0.00028239648
0.0,0.0,0.0,0.0,0.0
0.0,1.4267981e-07,0.000385922,0.008507066,4.6568188e-05
0.0,0.0,3.853351e-07,0.0024243125,0.0
0.0,6.567697e-05,0.0,0.0,0.00023056309
0.00022464854,0.000107077525,0.0043116184,0.00010125616,2.468157e-05
0.00029544623,0.00027936924,0.0012342563,0.0038032092,0.000983785
0.0008730751,0.0011602157,0.0009050368,0.00037055323,0.00030463902
0.0,3.318989e-09,0.01374895,0.0056814225,0.0
0.0,0.000107277025,0.0,0.0,4.691682e-07
0.00025324387,0.00024919733,0.0014818776,0.0084828595,0.0005957819
0.0,0.0,0.0,0.0,0.0
6.96666e-05,0.0,1.9765544e-05,4.463634e-09,0.0
5.609892e-07,0.0,0.00013756102,0.0,0.0
1.0600404e-05,2.2791232e-07,0.006350503,0.015734073,1.0550321e-08
0.0,0.0,0.0,0.0,0.0
0.00016059473,0.0,2.49691e-05,6.8779016e-05,0.0
1.6014632e-06,2.3763258e-09,5.980904e-08,0.0,2.0212043e-07
0.0,0.0,0.0,0.0,0.0
0.0,0.0,0.0,0.0,0.0
0.0,0.0,0.0,0.0,0.0
0.0,0.0,3.2587806e-08,0.0,0.0
2.62402e-08,0.0,0.0,0.0,2.896629e-05
0.0055687837,0.0003047127,0.0007648218,0.0013524573,3.376172e-05
0.0,2.2693865e-05,6.595422e-06,0.00048373084,2.464844e-08
1.901577e-05,0.00018431288,0.0050571314,0.0064490344,0.00011584074
0.0,0.0,8.135314e-05,0.0,0.0
1.2083134e-09,0.0,0.0,0.0,0.0
0.0,0.0,0.0,0.0,0.0
0.0,0.0,0.0,0.0,0.0
3.6823271e-06,3.5108467e-05,5.2854654e-09,0.0,6.1900378e-06
0.00042592647,4.234274e-05,8.032748e-05,4.219939e-05,2.0234995e-05
0.0,2.0173651e-05,0.0,0.0,2.9348652e-07
2.9922217e-10,0.0,0.0,0.0,0.0
0.0009232691,3.818397e-05,7.4453274e-06,6.42948e-05,3.1287553e-05
0.0,0.0,0.0,0.0,0.0
7.8489444e-05,3.2161155e-05,3.125339e-06,6.037564e-05,4.1220486e-05
1.1138578e-05,0.0,0.0,2.7998085e-06,0.0
7.2404546e-05,0.0,0.0,0.0,0.0
1.3609359e-05,2.182148e-07,0.0,0.0,3.0532005e-06
0.00045412808,7.383159e-05,0.00029634367,0.00040118047,2.9868288e-06
0.0,0.0,0.0,0.0,0.0
0.0,0.0,0.0,0.0,0.0
1.9984861e-07,0.0,1.0701434e-05,2.085927e-05,0.0
3.7781883e-05,3.2911004e-07,0.0,0.0,6.450058e-07
0.00012835923,1.7605867e-05,7.6030153e-07,4.619695e-05,1.7088318e-05
0.0,0.0,0.0,0.0,0.0
0.0,0.0,2.086897e-05,7.5884736e-06,0.0
0.0,0.0,0.0,0.0,0.0
0.0074001374,0.00036003636,0.00031257028,6.771648e-08,0.0014982255
0.0,0.0,8.1646755e-07,2.4846865e-06,0.0
0.0010851433,0.00034681347,0.00011573513,7.3071014e-06,0.00017929605
0.0,0.0,0.0,0.0,0.0
2.3056044e-05,6.6437225e-09,2.4966923e-07,1.0304719e-06,1.8163856e-09
0.0,0.0,0.0,0.0,0.0
0.0,0.0,0.0,0.0,0.0
0.0,0.0,1.9582849e-07,3.9151844e-05,0.0
0.0,0.0,0.0,0.0,0.0
3.9028935e-05,1.5162916e-06,1.9521553e-06,2.9883112e-09,4.109861e-06
0.0,2.2980188e-05,1.2385742e-06,0.00013456018,1.0220423e-05
1.5061376e-06,0.0,0.0,0.0,3.4453199e-06
1.39495e-07,9.753459e-11,0.0,0.0,2.8339885e-08
0.0017485644,0.00027653752,4.997976e-05,1.2837937e-06,9.0404246e-05
0.0,0.0,0.0,0.0,0.0
0.0,0.0,0.0,0.0,0.0
0.0,0.0,0.0,0.0,0.0
0.0,0.0,0.0,0.0,0.0
0.0,0.0,0.0,0.0,0.0
0.0,0.0,0.0,0.0,0.0
1.809284e-10,0.0,0.0,0.0,0.0
2.750791e-06,1.6518694e-05,0.0,0.0,3.405419e-06
1.6643826e-06,0.0,3.959099e-05,0.00021370767,0.0
0.013164868,0.0028655434,0.00032632813,0.0059115165,0.0005786262
0.0,0.00019391273,0.023499366,0.0079313535,6.009912e-05
1.1981452e-09,0.0,0.0,0.0,0.0
0.0,0.0,0.0,0.0,0.0
0.0,0.0,0.0,0.00013585051,0.0
0.0,0.0,6.038885e-06,4.831884e-07,0.0
0.0,0.0,6.117143e-09,0.0,0.0
0.0,0.0,0.0,0.0,0.0
6.5440936e-10,0.0,2.3411629e-07,3.2376354e-07,0.0
0.0,0.0,1.2492309e-05,0.0,0.0
0.0,0.0,0.0,0.0,0.0
0.0,0.0,9.131326e-06,0.00020041541,0.0
0.0,8.568438e-08,3.8866156e-06,7.8191596e-07,4.0723862e-07
0.0,0.0,0.0,0.0,0.0
0.0,0.0,0.0,0.0,0.0
0.0,0.0,0.0,0.0,0.0
0.0,0.0,0.0,0.0,0.0
0.0,0.0,0.0,0.0,0.0
0.0,0.0,0.0,0.0,0.0
0.0,0.0,0.0,0.0,0.0
0.0,0.0,0.0,0.0,0.0
0.0,0.0,0.0,0.0,0.0
0.0,0.0,0.0,0.0,0.0
0.0,0.0,0.0,0.0,0.0
0.0,0.0,0.0,0.0,0.0
0.0,0.0,0.0,0.0,0.0
0.0,0.0,1.3795815e-07,1.7685705e-05,0.0
0.0,0.0,0.0,0.0,0.0
0.0,0.0,0.0,0.0,0.0
0.0,0.0,0.0,0.0,0.0
0.0,3.1328444e-09,0.0,0.0,1.04197994e-07
0.00016273158,1.2077537e-06,6.147725e-06,1.8867484e-05,7.257285e-06
0.0,0.0,0.0,0.0,0.0
0.0,0.0,0.0,0.0,0.0
0.0,0.0,0.0,0.0,0.0
0.0,0.0,0.0,0.0,0.0
0.0,0.0,0.0,0.0,0.0
5.079892e-05,4.5089142e-05,7.2408504e-05,0.00033481105,6.710662e-05
0.0,0.0,2.9520104e-06,1.1220419e-07,0.0
0.0,0.0,0.0,0.0,0.0
0.0,0.0,0.0,0.0,0.0
0.0,0.0,0.0,0.0,0.0
3.8704204e-07,0.0006775782,0.0033420394,0.003251913,0.000117360214
0.006817601,0.0018761959,0.00058514863,0.00014109162,0.0006649012
0.0017777313,1.4051815e-05,0.0,0.0,0.0
0.0,0.0,0.0,0.0,0.0
0.0,0.0,0.0,0.0,0.0
0.0,0.0,0.0,0.0,0.0
2.5296947e-07,0.0,0.0,0.0,7.8797774e-07
9.002803e-05,0.0,1.11118e-05,3.7825002e-06,0.0
1.4453041e-06,2.1291348e-06,7.353503e-08,3.2163791e-06,3.7516646e-05
0.00050369796,1.2833051e-05,0.0001257656,9.927993e-06,1.9453985e-06
1.85041e-05,1.7427083e-09,1.9678195e-05,0.0007614097,0.006891836
0.0,0.0,0.0,1.5339413e-10,0.0
0.0,0.0,0.0,0.0,0.0
0.0,0.0,0.0,0.0,0.0
0.0,1.1547527e-08,0.0,0.0,0.0
0.00044749875,9.395947e-05,0.0,1.7214199e-05,0.00030713086
0.0,0.0016396476,0.0,4.657374e-08,1.7298037e-08
0.0,0.00580582,1.4214605e-05,0.04597428,0.00010652391
0.0012991506,0.05535862,0.081396215,0.05090521,0.06810065
0.0006724046,0.00015510035,0.00038502418,0.0030387074,0.00030499956
0.0,1.6337292e-05,4.2362234e-07,7.159147e-05,2.3205124e-05
2.4697723e-05,0.0,0.0,0.0,0.0
1.7851731e-05,0.0,0.0,0.0,0.0
0.0,0.0,1.5995012e-06,7.485814e-08,5.8028293e-09
0.0,0.0,0.0,0.0,0.0
0.0,0.0,0.0,0.0,0.0
0.0,0.0,0.0,0.0,0.0
0.0,0.0,0.0,0.0,0.0
0.0,0.0,0.0,0.0,0.0
0.0,0.0,0.0,0.00014930406,0.0
0.0,0.0,0.0,0.0,0.0
0.0,0.0,0.0,0.0,0.0
0.0,0.0,0.0,0.0,0.0
0.0,0.0,0.0,0.0,0.0
0.0,0.0,0.0,0.0,0.0
3.634782e-10,0.0,1.8746523e-05,0.00018987013,0.0
0.0,0.0,0.0,0.0,0.0
0.0,0.0,0.0,0.0,0.0
0.0,0.0,0.0,0.0,0.0
0.0,0.0,0.0,0.0,0.0
0.0041296445,0.00025865313,4.948802e-05,4.2547887e-07,0.00014033646
0.0099840835,0.00095810136,0.0009883585,0.003972647,0.00047920964
0.0,1.8179906e-10,0.16066049,0.1635554,0.0
0.0021846178,4.067146e-05,0.62265974,0.28998336,0.0025117693
0.0,0.0,0.0,0.0,0.0
6.367761e-05,0.0015820736,0.00011041062,0.00021423346,0.00014025498
0.02071829,0.0013293442,0.30659312,0.013482646,0.0032145088
0.0,3.470499e-05,0.00052179775,1.5988061e-07,0.0
0.006685411,0.0021636335,0.0,0.000433125,0.000460317
0.00082256744,0.15824147,0.06995566,0.0046042744,0.070575014
1.8707664e-11,0.0889536,0.0,0.0,0.08621995
1.7984024e-11,4.506135e-05,8.945122e-05,3.8785072e-07,2.7160252e-06
0.034180205,0.0051884293,0.010264189,0.05739612,0.022959204
2.1435619e-05,5.820402e-09,0.00019055334,0.012423484,4.675585e-06
0.0,0.0,0.0,0.0,0.0
