"[299, 255]","[227, 248]","[287, 319]","[279, 328]","[230, 262]"
1.0525589,0.0,0.0,1.9580234e-07,0.0
0.0034862868,0.061097965,0.32644072,0.3627585,0.06347686
0.00023550836,3.117491e-05,6.9530993e-06,9.446319e-05,2.489005e-06
0.0008586296,2.6801882e-07,0.0,7.433689e-05,1.0640269e-05
0.0,0.0,0.0,0.0,0.0
0.0,0.0,0.0,0.0,0.0
0.0,0.0,0.0,0.0,0.0
0.0,0.0,0.0,0.0,0.0
0.0,0.0,0.0,0.0,0.0
0.0,0.0,0.0,0.0,0.0
0.0,0.0,0.0,0.0,0.0
0.0,0.0,0.0,0.0,0.0
0.0,0.0,0.031782046,0.009768456,0.0
0.6577802,0.18272495,1.1638554,2.6604903,3.3128626
1.6196109,0.0071218843,2.6122797,0.9540017,0.9117045
0.041678578,0.0040035527,0.5513622,0.8324202,0.025203977
0.04607697,0.000952496,0.26366442,0.31641018,0.000621975
0.1473304,0.20626277,4.10822,3.8793678,0.7040992
4.9940743,0.004424517,4.6191826,2.9322047,0.46309766
1.4910079e-07,3.5726993e-07,0.00012383364,0.00015387726,5.042133e-08
1.5572778e-05,2.7016044e-06,5.018169e-06,4.1062235e-06,7.950431e-06
0.0002826185,0.0,0.0,0.0,0.00010752389
0.0,0.0,0.0,0.0,0.0
1.0571591e-06,4.244765e-07,0.0,0.0,0.0
0.0,0.0,6.6060015e-09,0.0,0.0
5.5726784e-10,0.0,0.0,0.0,0.0
0.00034224702,0.00011948754,0.00010400458,0.0005773216,0.00012618571
0.0,0.0,0.0,0.0,0.0
0.0,0.0,0.0,0.0,0.0
0.0,0.0,0.0,0.0,4.9930513e-06
0.0,1.290778e-06,0.0041453564,0.0037548013,9.009638e-05
1.8193079,0.0010329017,0.8119254,0.61007804,0.3495241
4.3018765,1.4100359e-08,0.62586,0.78999555,0.0
0.41113806,1.9879419e-08,0.0,7.025835e-07,0.00034859433
0.019214591,7.139104e-06,0.0,0.0,0.00013912228
0.0,0.0,0.0,0.0,0.0
0.0,0.0,0.0,0.0,0.0
1.3982516e-08,1.77641e-05,7.9599486e-05,0.00015922022,4.48076e-09
0.0,0.0,4.0474937e-05,0.0027518065,0.0030353828
5.4241924,0.96777976,12.741421,11.76372,0.3627942
4.85225,1.2404118e-08,3.8052232,2.516936,4.704954e-11
0.97591496,0.00065498916,0.6808494,0.002998306,0.061784063
3.986007e-05,3.0406352e-10,0.0,0.0,0.0064742058
0.0,0.0,0.03904957,0.08668486,0.0
0.21074012,0.0,0.13703701,0.29256618,4.4968928e-08
0.011164933,0.006654974,0.0,6.8093027e-06,0.023112152
0.26958162,7.8456395e-08,3.9050654e-05,0.013939217,0.013325964
2.404606e-08,0.0690766,8.410221e-05,0.0007001253,0.021366732
0.0,0.0,0.0,0.0,0.0
0.0,0.0,0.0,0.0,0.0
0.0,0.0,0.0,0.0,0.0
0.0,0.0,0.0,0.0,0.0
0.0,0.0,0.0,0.0,0.0
0.0,0.0,0.0,0.0,0.0
0.0,0.0,0.0,0.0,0.0
0.0,0.0,0.0,0.0,0.0
0.0,0.0,0.0,0.0,0.0
0.0,0.0,0.0,0.0,0.0
0.0,0.0,0.0,0.0,0.0
0.0,0.0,0.0,0.0,0.0
0.0,0.0,0.0,0.0,2.8606976e-06
2.9266942e-06,0.0,5.873162e-05,5.0259332e-05,1.0640288e-08
5.3165144e-07,3.313707e-06,0.0,0.0,2.8426582e-06
0.0,7.660272e-08,3.7619873e-05,0.02115351,0.0
2.4897935,0.0007801963,2.7963166,1.5513557,0.4167283
0.0,0.3815531,0.0,0.0,6.4900225e-05
0.43835905,0.006213057,0.5258945,0.37489018,7.293939e-05
0.0,0.0,0.0,0.0,0.0
2.8144072e-09,0.0,0.0,0.0,0.0
0.0,0.0,0.0,0.0,0.0
0.0,0.0,0.0,0.0,0.0
2.8981685e-07,0.00073901494,0.013424419,0.006056362,0.0010921062
0.006837571,0.0,0.0005074983,3.590721e-08,0.0
0.004962207,0.0013184679,0.00021842438,0.0029238907,0.008466395
0.05310836,0.0,0.0,0.0,0.0
5.941747e-06,0.09812969,0.8852956,1.2798325,0.10497819
5.9746532,0.04367919,0.8187596,0.3575785,0.16143668
0.0073184446,0.022773823,0.012486572,0.00019819816,0.0058722408
3.104722e-06,0.0,0.00011951599,0.007784826,3.155208e-07
5.270892e-05,0.19098194,0.09401085,0.068699874,0.41948044
0.0,0.0,4.8403897e-05,0.0,0.0
0.0,0.0,0.0,7.983595e-09,1.8354719e-07
2.2593725e-09,1.8154337e-08,2.877219e-06,4.6946786e-07,0.0
0.0,0.0,0.0,0.0,0.0
0.0,0.0,5.979841e-09,0.0015570826,0.0
0.0,0.0,0.0,0.0,0.0
0.0010103435,7.433591e-05,2.131007e-06,2.3837474e-05,1.6241167e-06
0.00041773453,4.924233e-05,0.0,0.0,6.8171184e-06
8.383004e-05,5.0537997e-06,3.4049907e-09,5.189907e-06,0.0
0.0,7.275105e-05,0.0,0.0,0.00022465347
0.0006531237,8.385387e-06,9.2257396e-05,0.0010660591,3.398419e-06
0.0,0.0005421576,0.0,0.0,2.1754195e-06
1.3153266e-06,2.4339138e-07,1.7439474e-05,0.00027473178,1.6653392e-05
0.0,7.993395e-05,0.0,0.0,0.0
0.04497477,0.031295173,0.07567273,0.17896526,0.029832555
0.0030104006,0.0,0.0,0.0,0.0
2.5998042,0.98410946,0.5413909,2.9549828,0.7815791
5.2619905,0.16448158,5.4721136,5.05467,9.008183e-05
0.22732578,0.73335993,0.05036268,0.005213041,1.4534713
2.9926786,0.11680744,0.13736498,0.041106265,0.34199148
1.4481832,3.5784123,0.7779075,0.447549,0.57377666
0.0029210933,1.738437,0.22838412,0.008553943,0.0015189631
0.010970768,11.659391,0.37215257,0.21653225,4.029693
0.0031936767,1.4513386,0.00023964923,0.16966084,2.609863
3.39368e-05,0.00051823875,0.26153198,0.3193232,6.8494555e-05
0.16700344,1.1716804e-06,4.840136e-08,0.0,0.017207298
0.6420472,0.27010807,0.19858806,0.11833101,0.64449257
0.00094010995,0.0,0.15660739,0.021633077,0.0
0.007081149,4.259294e-05,0.0,0.0,0.00019613568
0.0,0.0,0.0,0.0,0.0
0.0,0.0,0.0,0.0,0.0
0.0014640593,0.0007358511,0.0,0.0,5.5522473e-06
6.0151626e-05,0.0,0.016671639,0.040640328,0.005706342
0.00021396323,0.0004920379,0.002370153,0.015909493,8.00854e-05
0.00088206877,0.00013177536,0.00026426264,0.00011487076,0.00087453646
0.0076219486,7.928687e-05,5.9971375e-05,0.0013400002,2.498949e-09
1.594191,2.6434928e-09,0.0,2.7742723e-05,0.0
5.8252444e-06,0.124244206,1.5148472,0.029694205,0.18919021
0.0004120202,0.00078639924,0.007790525,0.10929691,0.0015900882
0.0004124469,1.977649e-05,0.0008293424,0.0011568156,8.765444e-06
0.0,2.6841391e-08,4.931817e-10,0.0,0.0
0.0,0.0,2.900468e-05,0.0050320732,0.0
0.0,0.0,0.0,0.0,0.0
0.0036639497,0.0005138761,0.00012409783,1.9800957e-07,0.0006885268
0.0070895115,0.0011259257,0.004039517,0.00081122026,1.08767335e-05
0.0,0.0,0.0,0.0,0.0
0.0,0.0,0.0,0.0,0.0
0.0,0.0,0.0,0.0,0.0
0.0,0.0,0.0,0.0,0.0
0.0,0.0,0.0,0.0,0.0
0.0,0.0,0.0,0.0,0.0
0.0,0.0,0.0,0.0,0.0
0.0,0.0,0.0,0.0,0.0
0.0,0.0,0.0,0.0,0.0
1.7817172e-09,1.9015578e-06,0.001469493,1.0702259e-05,0.016921332
0.17210953,4.6602008e-07,7.607202e-07,0.002503763,0.0004127917
1.4336824,0.013382698,0.00061541825,4.7905687e-06,0.0013286138
0.0,0.0,0.0,0.0,0.0
0.0,0.0,0.0,0.0,0.0
0.0004929141,1.281444e-05,0.0,0.04355572,0.0066298693
0.04835986,0.00026502635,1.5688576e-05,0.0016582829,3.8232865e-05
6.268325e-06,6.98354e-11,4.2319174e-05,3.461945e-05,0.0
0.0037075197,0.0,0.0,0.0,4.627588e-07
0.2244911,0.0020276045,0.16573033,0.46178544,8.266278e-05
0.3063245,0.012847962,0.08238733,0.3463156,0.06065568
0.046170566,0.0,1.0328042e-09,1.090809e-08,0.0
0.0663378,0.020254234,0.015526982,0.011045488,0.008151382
0.12191514,2.9900858e-07,0.4883646,0.1365033,0.014026451
1.7520021,7.236149e-05,0.108817056,0.41508263,0.32730284
0.13221157,1.1802715e-06,0.00032416044,0.010322866,0.07701528
0.0013460859,0.00012872818,2.235199e-06,0.019634293,1.878668e-05
0.0026115237,4.1110584e-06,3.8907415e-06,0.00060292205,0.0
0.0,0.0,0.0,0.0,0.0
0.00014392588,0.0,0.00012460779,0.0012369772,0.0
0.0,0.0,0.0036864013,0.0080462685,0.0
0.0,0.0,0.0,0.0,0.0
1.153186e-07,4.9074964e-07,0.0,0.0,3.82127e-09
0.0,5.697635e-08,2.374201e-05,1.8546062e-06,1.3307753e-06
0.0,0.0,0.0,4.347362e-08,0.0
0.0,0.0,0.0,0.0,0.0
0.0,0.0,0.0,0.0,0.0
0.0,0.0,0.0,0.0,0.0
0.0,0.0,0.0,0.0,0.0
9.373274e-08,2.729828e-06,0.0,0.0,7.816214e-07
8.502348e-06,0.0,7.012649e-05,2.3902367e-09,0.0
0.0,0.0,0.0,0.0,0.0
0.0,0.0,0.0,0.0,0.0
0.0,0.0,0.0,0.0,0.0
0.00045715866,4.496624e-05,2.3192829e-06,7.4164655e-06,4.2820877e-05
0.0,4.1657043e-07,0.0,3.5323848e-09,0.0009791558
2.7785056e-06,0.0,0.0,0.0,0.0
4.370027e-06,0.0,0.0,1.6626376e-07,0.0
0.0,0.0,0.0,0.0,0.0
0.0,0.0,0.0,0.0,0.0
0.0,0.0,0.0,0.0,0.0
0.0,0.0,0.0,0.0,0.0
0.0,0.0,0.0,0.0,0.0
0.0,0.0,0.0,0.0,0.0
0.0,0.0,0.0,0.0,0.0
0.0,9.655191e-07,0.0,0.0,0.0
2.0499956e-05,3.4768145e-06,1.6605489e-05,1.0720967e-06,9.3053666e-07
1.0831878e-06,0.0,7.5139375e-05,9.773809e-05,2.224382e-06
0.0,0.0,1.8396343e-06,1.0924818e-05,1.336137e-08
3.4151e-10,0.00012792459,0.000263878,0.000361679,0.00020348417
5.7783524e-05,0.0,1.7322494e-05,4.941159e-05,2.1012757e-07
0.0,0.0,0.0,0.0,0.0
0.0,0.0,0.00044326633,5.737715e-06,0.0
0.019814005,0.008542278,0.0021013916,0.007408296,0.0024775432
0.0025114864,1.6823256e-11,0.042755358,0.023733491,0.00010649318
0.0053112195,0.005245974,0.01027658,0.002099271,3.6885442e-08
0.07924566,8.397275e-09,0.000194259,0.00024900574,0.0044151223
0.0024747872,0.0029427647,0.0015664736,0.0021570208,0.00070713
0.0,2.1602862e-07,2.0873316e-09,1.5050812e-06,1.2578505e-08
0.0,2.0155162e-06,2.9203815e-05,4.9856993e-05,1.06381685e-05
0.0,0.0,0.0,0.0,0.0
0.0,0.0,0.0,0.0,0.0
1.1110154e-06,7.119483e-06,2.124678e-05,8.20172e-07,4.3015825e-06
0.0,0.0,0.0,0.0,0.0
0.0,0.00068707875,1.7504223e-06,2.146762e-05,0.0010829866
0.0,0.0,0.0020741222,0.0,0.0
0.0,0.0,0.0,0.0,0.0
0.0,0.0,0.0,0.0,0.0
0.0,0.0,0.0,0.0,0.0
0.0,0.0,0.0,0.0,0.0
0.0,0.0,5.1768443e-09,0.0,1.7026823e-08
0.0,0.0,0.0,0.0,0.0
9.3894283e-07,3.3370907e-07,2.5739448e-06,8.109931e-07,1.8687109e-06
1.478754e-05,4.652743e-06,4.1664453e-06,3.9513725e-06,2.5665322e-06
0.0,0.0,0.0,0.0,0.0
0.0,0.0,0.0,0.0,0.0
4.056867e-05,1.1255e-06,0.00014441107,0.00012623821,4.0149325e-07
0.0,0.0,0.0,0.0,0.0
0.0,0.0,1.3848439e-10,1.5651313e-08,0.0
0.0,0.0,0.0,0.0,0.0
0.0,0.0,0.0,0.0,0.0
0.0,0.0,0.0,0.0,0.0
0.0,0.0,0.0,0.0,0.0
0.0,0.0,0.0,0.0,0.0
0.0,0.0,0.0,0.0,0.0
0.0,0.0,0.0,0.0,0.0
0.0,0.0,0.0,0.0,0.0
0.0,0.0,0.0,0.0,0.0
0.0,0.0,0.0,0.0,0.0
0.0,0.0,0.0,0.0,0.0
7.660058e-08,1.9413703e-07,3.023273e-07,1.13057064e-10,7.1627045e-07
1.1473268e-05,3.3900614e-07,1.8783571e-06,2.9516034e-06,1.936191e-06
8.543242e-08,0.0,3.0199956e-09,1.9623269e-07,6.8881883e-07
0.0,0.0,0.0,0.0,0.0
1.216881e-07,2.0347026e-07,1.1667678e-06,3.927324e-06,9.034948e-09
0.0,0.0,1.544613e-11,2.7523042e-06,0.0
0.0,0.0,0.0,0.0,0.0
0.0,0.0,0.0,0.0,0.0
0.0,0.0,0.0,0.0,0.0
0.0,0.0,0.0,0.0,0.0
0.0,0.0,0.0,0.0,0.0
0.0,0.0,0.0,0.0,0.0
0.0,6.410494e-10,0.0,0.0,0.0
0.0,5.7503133e-08,1.032893e-06,1.05840556e-07,2.548336e-06
1.3852168e-06,2.2774922e-08,5.273834e-10,0.0,1.7000947e-07
0.0,7.660117e-09,0.0,0.0,0.0
0.0,0.0,0.0,0.0,0.0
0.0,0.0,0.0,0.0,0.0
0.0,0.0,0.0,0.0,0.0
0.0,0.0,0.0,0.0,0.0
0.0,0.0,0.0,0.0,0.0
0.0,0.0,0.0,0.0,0.0
0.0,0.0,0.0,0.0,0.0
0.0,0.0,0.0,0.0,0.0
0.0,0.0,0.0,0.0,0.0
0.0,0.0,0.0,2.725227e-08,0.0
0.0,0.0,0.0,0.0,0.0
0.0,0.0,0.0,0.0,0.0
0.0,0.0,0.0,0.0,0.0
0.0,0.0,0.0,0.0,0.0
0.0,0.0,0.0,0.0,0.0
0.0,0.0,0.0,0.0,0.0
0.0,0.0,0.0,0.0,0.0
0.0,0.0,0.0,0.0,0.0
0.0,0.0,6.810503e-05,7.1096954e-05,0.0
0.0,0.0,0.0,0.0,0.0
0.0,0.0,0.0,0.0,0.0
0.0,0.0,0.0,0.0,0.0
0.0,0.0,0.0,0.0,0.0
0.0,7.5205335e-08,0.00038673414,0.0001314423,2.2168797e-06
9.244569e-06,0.0023105002,0.00084055914,0.0013868732,3.3910364e-08
0.0,0.0,0.0,0.0,0.0
0.0,0.0,5.6076424e-09,2.8845327e-06,0.0
0.0,3.1567335e-08,0.0,1.519729e-07,1.0459886e-06
7.569768e-06,2.3919863e-06,0.0,0.0,5.634697e-06
3.672411e-07,3.249768e-06,5.2578216e-06,7.212438e-06,3.5992875e-06
0.0,0.0,0.0,0.0,0.0
2.3182796e-09,0.0,0.0,0.0,0.0
0.0,0.0,0.0,0.0,0.0
0.0,0.0,0.0,0.0,0.0
0.0,0.0,0.0,0.0,0.0
0.0,0.0,0.0,0.0,0.0
0.0,0.0,0.0,0.0,0.0
0.0,0.0,0.0,0.0,0.0
0.0,0.0,0.0,0.0,0.0
0.0,0.0,0.0,0.0,0.0
0.0,0.0,0.0,0.0,0.0
0.0,0.0,0.0,0.0,0.0
0.0,0.0,0.0,0.0,0.0
0.0,0.0,0.0,0.0,0.0
0.0,0.0,0.0,0.0,0.0
0.0,0.0,0.0,0.0,0.0
0.0,0.0,0.0,0.0,0.0
0.0,0.0,0.0,0.0,0.0
0.0,0.0,0.0,0.0,0.0
0.0,0.0,0.0,0.0,0.0
0.0,0.0,0.0,0.0,0.0
0.0,0.0,0.0,0.0,0.0
0.0,0.0,0.0,0.0,0.0
0.0,0.0,0.0,0.0,0.0
0.0,0.0,0.0,0.0,0.0
5.4043364e-11,0.0,2.7898675e-06,2.117386e-06,0.0
0.0,0.0,6.365125e-10,5.2931988e-09,0.0
0.0,0.0,0.0,0.0,1.7929132e-08
6.3170056e-08,5.890313e-06,0.00039011124,0.0,3.648991e-11
0.0019751093,7.915925e-05,0.0027020788,0.015472858,7.1117955e-07
0.0,0.0,0.0,0.0,0.0
0.0,0.0,2.5093007e-07,2.0457248e-08,0.0
1.1563521e-05,7.047782e-08,2.147015e-07,8.887967e-06,0.0
1.515765e-10,3.0775738e-09,4.74203e-06,5.9862177e-06,2.2876386e-06
0.0,0.0,1.5460522e-05,8.1422295e-06,0.0
0.0,4.49323e-08,7.2838866e-06,0.0,2.907965e-09
1.7394763e-07,0.00030230536,5.3619282e-05,0.00013472122,0.00018693325
0.004550084,0.050257407,0.0,0.0,0.013221317
3.7729128e-06,5.4859476e-07,6.4885735e-06,1.6057842e-05,6.4811417e-07
0.00022240396,3.386334e-05,0.047872808,0.22106156,5.0477274e-06
0.033758745,0.0,6.5506294e-09,0.0014111339,0.0
6.715373e-06,5.6236963e-06,0.00077204104,0.0011027841,8.875438e-07
0.0,0.0,0.018341023,0.019994106,0.0
0.0,0.0,0.0,0.0,0.0
4.6211733e-07,1.1661772e-05,2.5233694e-06,4.9582162e-05,3.7003333e-06
0.032420263,1.541636e-05,2.2177344e-08,0.0,1.8467756e-05
0.0,0.0,0.0,0.0,2.023628e-08
1.2180007e-10,0.0,0.0,0.0,0.0
1.401414e-05,3.96886e-07,4.616789e-07,0.0012559987,4.7600636e-07
6.832129e-05,1.0269393e-06,3.0394545e-05,4.848091e-06,1.22081665e-05
4.801074e-05,1.7776558e-05,0.0041825483,0.0047523673,0.06694593
1.23462,1.15119e-06,0.07727121,0.7872302,8.042006e-08
0.018384986,0.0,0.0,0.0,0.0
9.811206e-06,0.0,6.093637e-05,5.0329154e-06,0.0
3.72056e-05,2.0515955e-08,2.1815099e-07,2.5406473e-07,3.2740672e-07
7.5589766e-09,0.0,0.0,0.0,0.0
0.0,0.0,0.0,0.0,0.0
0.0,0.0,0.0,0.0,0.0
0.0,0.0,0.0,0.0,0.0
0.0,0.0,0.0,0.0,0.0
0.0,0.0,0.0,0.0,0.0
0.0,0.0,0.0,0.0,0.0
0.0,0.0,0.0,0.0,0.0
0.0,0.0,0.0,0.0,0.0
0.0,0.0,0.0,0.0,0.0
0.0039214347,0.0,0.003085909,3.7612318e-09,0.0
0.0,0.0,3.1599448e-10,0.00027467773,0.0
0.0,4.9540354e-08,0.0,0.0,0.0
0.0028140876,0.00016821112,5.531385e-09,1.0378694e-10,6.067505e-09
0.0,0.0,0.0,0.0,0.0
0.0,0.0,0.0,0.0,0.0
0.0,1.3084033e-06,1.5249038e-08,1.2217697e-06,4.9955545e-10
3.518615e-06,2.4962224e-05,2.4780556e-05,5.8781443e-05,2.2590024e-05
3.8512393e-05,2.0992933e-05,0.00019265889,0.00018350269,5.6292123e-05
0.00030785636,0.0,0.0,0.0,5.2724537e-11
1.6723622e-07,0.0,0.0,0.0,0.0
0.0,0.0,0.0,0.0,0.0
0.0,0.0,0.0,0.0,0.0
0.0,0.0,3.1045604e-11,0.0,0.0
0.0,0.0,0.0,0.0,0.0
0.0009882036,0.0,5.9554335e-05,0.00016099177,0.0
0.0027863567,2.0533593e-10,0.021051215,0.16515712,0.00010610711
8.005347e-06,1.3419541e-05,0.00012533506,0.00038118288,0.0002878895
0.0053985408,1.6544266e-06,0.00015635633,0.0020292953,0.00060674944
0.00096133945,0.0010979127,0.003645396,9.434278e-05,0.0010414998
0.4668033,0.02530965,0.034241475,0.5620149,0.049164664
0.8944198,0.00049298315,2.335087,0.33425358,1.5454327
0.042894382,0.00042376175,0.00085380947,0.00026493846,6.266335e-05
0.0,0.0,5.3920957e-07,1.3716114e-05,0.0
0.0,0.0,0.0002952034,0.00030906737,0.0
