"[299, 255]","[227, 248]","[287, 319]","[279, 328]","[230, 262]"
0.0,0.0,0.0,0.0,0.0
0.0,0.0,0.0,0.0,0.0
0.0,0.0,0.0,0.0,0.0
0.00082893384,3.7606114e-05,8.842516e-08,6.5497385e-05,0.00026218925
2.7435837,0.00041188803,0.39995158,2.8344166,0.04080396
0.3085333,0.009400065,0.29148543,0.0041853944,0.011662968
4.2145865e-09,1.2831525e-06,0.00027947157,6.769956e-05,1.13851565e-05
0.00010121055,0.0014101225,1.1778429,4.8663597,3.850693e-07
0.1349222,0.09077213,0.026915327,1.9171761,0.21375786
4.825979e-10,0.0,8.3646927e-07,0.0002832887,8.495575e-05
0.6749272,7.517449e-05,0.79498774,0.43524683,0.00095401244
0.3301901,0.009215244,0.14253846,0.541887,0.012480314
2.722549,0.0013204732,0.77061385,0.16229977,1.3544104e-07
0.2799799,0.059226573,0.0,0.0,0.2954315
0.0,0.0065100454,0.0,0.0,0.1846664
0.0057288795,2.8709712e-07,0.0,0.0,0.0
0.020897636,0.00035159595,0.02066058,0.084743455,0.0010792601
0.565475,0.033299334,0.08038132,0.36198565,0.048960935
0.114868276,0.0038638748,0.04268952,0.005355039,0.024190705
0.07654949,0.021792632,0.025232518,0.000588504,0.017931113
0.11193413,0.0,0.0037772786,1.2064726,6.719547e-07
0.019342465,0.002120862,0.123775646,0.094333306,0.002503472
0.8966238,0.3563196,5.109307,1.6450078,2.4050457
1.1735535e-09,0.77455527,0.23695445,3.0658462,0.1021037
0.13890713,0.0157604,0.29917622,0.236897,0.065385714
0.32574987,0.0,0.3019747,1.3986576e-07,4.522549e-06
1.3754815,3.6192276e-07,1.5996743,0.095108174,2.987627e-08
0.16310841,0.014057983,0.52177656,0.017624259,0.038978036
0.43225715,0.014755799,0.45095918,0.61046344,0.024035918
1.1454761,0.00504384,1.5276096,0.4661404,0.013273092
0.7788689,0.0,0.060082275,0.0116267,2.9544208e-07
0.10854216,0.08725491,0.38865668,2.0695424,0.0818712
2.5558218e-05,0.0001321736,0.896417,0.070792936,0.015400464
0.28983736,0.00016401889,0.36740154,0.6492122,0.0
1.0194448,0.0,0.3551249,0.028142104,0.0
0.0,0.0,0.0,0.0,0.0
0.0,0.0,0.0,0.0,0.0
0.03803073,0.0012519977,0.007273969,0.0100249,0.005970352
0.009079704,0.014419456,0.0,0.0,0.9331135
0.00064033177,0.0057066497,0.0041111144,0.0008491493,0.01696126
0.0129291825,0.0,0.0,0.0,6.173864e-07
0.0,0.0,0.0,0.0,0.0
9.2835615e-09,0.0,0.0,5.0008206e-11,0.0
0.0,0.0,0.0,0.0,0.0
0.0,0.0,0.0,0.0,0.0
0.0,0.0,0.0,0.0,0.0
0.0,0.0,0.0,0.0,0.0
0.04483855,0.0,0.0,0.0,0.0
0.09627077,0.002805872,0.018575052,1.4287833e-08,0.011444233
2.75617,0.03399298,0.2847543,0.3882607,0.04213738
0.8979514,6.252087e-10,0.0,0.0,0.0034602017
0.0029619762,0.00022448968,0.29146922,0.0035450435,0.0025300535
1.1242473e-10,8.6759934e-07,0.31762943,0.060033627,0.022524754
0.0011704608,0.00091719645,1.4329044,0.78377044,0.010129644
2.6145113,0.06079802,2.8822365,4.123515,2.9762971
2.2520125,9.80251e-07,3.4034994,1.0159094,1.6862768e-06
2.1721566,1.3031175,5.6818705,6.7275686,0.25606427
0.2615242,0.01243134,0.0009350514,0.00084720715,0.03743747
0.0,3.0137426e-09,0.0013625526,0.08201368,0.0
4.6403074,1.0540448,0.42731482,0.15056765,1.0160724
0.25258255,0.054000303,4.5303335,0.5799816,0.012095487
0.00016447186,0.0,9.1642377e-10,0.0,3.9642381e-07
0.0,0.0,0.0,0.0,0.0
0.0,0.0,0.0,0.0,0.0
0.00010135424,0.5696442,0.0,0.0,0.35690713
5.1955723e-08,0.0015305743,0.0037392213,0.02175239,0.0022111638
0.0,0.0,0.34334344,0.7560239,2.418993e-05
0.011033705,5.4278786e-07,0.032682586,0.0014027483,9.495705e-05
0.0,2.4739635e-09,5.2054587e-09,5.4082017e-07,1.5924716e-08
0.00038911114,0.00013615805,0.6072624,0.042470936,0.0
2.3492572,1.6823415,5.1905847,7.653549,1.366075
1.6577517,0.07866045,0.98126227,0.05150352,4.0418468
2.0401296e-05,1.6608161,0.0,0.0,0.23831198
0.00032825078,0.0151635595,0.06550919,0.00025940893,4.5719656e-07
0.0019221928,0.00015923835,0.02340855,0.030788664,0.0073768278
0.24225526,0.12050676,0.4640637,0.11518598,8.3858716e-09
0.51579803,0.062176026,0.7454012,0.56647474,0.07437206
0.00041964083,2.091776,1.5622194e-05,1.4814186e-06,3.234409
1.932125,4.6264143,0.0,0.0,10.962994
0.037181254,8.02952,5.846447e-08,0.0,7.223968
4.4539263e-08,5.951109,0.0,0.0,6.3882976
4.428935,0.20130724,0.23745325,0.0007407615,0.104828544
0.53611493,0.082288146,0.0,0.0,0.030392107
1.0029082e-05,0.72013414,0.0,0.0,1.0644039
9.204708,0.555046,0.18342365,0.6772397,5.4871063
1.2314101,0.5077341,1.9634278,0.395404,0.28738135
2.0390866,5.996099,0.69217014,0.67645335,1.0770112
4.125618,1.5740536,6.552954,4.874855,1.0681337
0.6915735,0.21577235,1.3421907,3.7795978,0.6688515
1.5316842,1.4952223,0.11402756,0.040538814,0.43902537
1.3754723,0.41074327,0.11775261,3.1173082e-07,0.55287206
0.25007066,0.0015255102,4.5067844,8.179338,0.016047489
0.0046984544,0.018412177,0.49613506,0.020103896,0.013299935
0.39843124,0.0051495316,2.4697857,0.8565375,0.024984408
5.4952757e-06,0.09895133,3.3924384e-06,0.0003185443,1.9464324
0.0,2.3466904,0.0,0.0,0.42558643
0.0,0.0,0.0,7.843941e-09,0.00345612
0.0,0.80396277,0.002435306,0.04795385,0.94833374
0.00068587816,0.0018932684,1.026351e-09,9.7070675e-05,0.9440691
0.22598763,1.3424014e-08,0.001413426,0.28847748,1.2507781e-09
0.0,0.0,0.0,0.0,0.00010538429
11.427683,3.7779226,1.6342249,0.52900124,5.5441437
5.497949,4.8047595,4.744929,1.5293216,4.8166475
0.18175234,0.08863823,0.8442063,0.3640786,0.06710914
0.15846674,0.018933026,0.01613126,0.43598908,0.0004902755
0.038509,0.0037906934,4.780009,5.8422937,0.17391095
4.0606456,0.1296323,0.34092265,1.1442682,0.2379306
0.0,0.0015437928,0.0,0.0,3.4274962
0.0,0.0,0.0,0.0,0.0
0.0,0.0,0.00073858124,0.0,0.0
1.1177971,0.66584337,0.38188156,0.6671679,1.1077821
0.5638834,0.0,0.16806307,0.04112504,0.070952505
0.06589916,3.2368046e-08,0.4901676,0.22671083,0.0
0.067534246,0.49798164,3.6693554,1.7210764,0.0
0.005809369,0.0,0.004060991,0.0004314373,0.0
0.0,0.0066311974,0.0,0.0,0.02424582
0.19693251,0.58059865,1.8424816,1.3967428,0.009664344
0.064921,0.016927527,9.066229e-05,0.0012909995,0.04039948
1.9076274e-09,0.0,0.0,0.0,2.8495748e-08
0.0,0.0,0.0,0.0,0.0
0.0,0.0,0.0,0.0,0.0
0.0,0.0,0.0,0.0,0.0
0.025992548,0.20491135,0.14762264,0.0013037536,2.7688662e-10
0.0009614158,0.01128183,4.839586e-07,0.006277621,0.035127856
0.39396584,1.5930388e-07,0.021910464,0.016690178,0.00016324625
9.332709e-05,0.0,4.4613826e-06,0.00096156105,0.0
2.0258937,1.0280429,4.346096,1.2984842,1.0950332
0.007657901,0.18394896,2.3816736,0.34147882,0.21335581
0.00563017,0.1330746,0.0,0.0,1.759094e-09
0.3486541,0.0037889583,1.0487143,0.8198393,0.093271144
0.12585646,3.5961352e-07,1.7004961e-09,1.4187762e-08,0.0
0.0,0.0,0.0,0.0,0.0
0.21067286,0.031088896,5.3764277e-09,0.0,0.13151458
0.1277117,8.977178e-05,0.6319277,0.5782463,0.0028750321
0.88489944,0.91680425,0.59519094,3.4942727,0.2537136
0.0,0.0,0.011257778,4.000815,0.00067710713
0.0058199847,1.3047558e-05,0.19103394,0.62245375,1.9823864
0.13465615,0.6467624,1.3145643,0.29651484,0.5294695
5.0123405e-10,7.647931e-10,0.15441708,0.27478966,0.10946706
0.002975392,0.0,0.22694962,3.409595,0.0
0.21060964,0.024733773,0.0037724385,0.022688257,0.45799094
0.7155346,0.24754755,0.045729782,2.4623165,0.3018635
0.2191745,0.20685348,0.16919318,0.42580274,0.020131338
7.8338747,0.33872774,0.046323184,0.23325297,0.047917496
0.022037074,0.0,4.2629003e-09,0.0030311265,0.0
0.3766047,7.0944575e-09,1.0747614e-07,0.07718393,0.38576555
0.0,0.015029147,0.0,0.0,1.7498655e-09
0.097199515,0.00014737519,0.056034457,0.0053410083,0.00014070453
0.0,0.0,0.0024713916,1.4532506e-07,0.0
0.0,0.0,0.0,0.0,0.0
0.06745391,0.0005804294,1.022675,0.004629368,0.026502898
1.635472e-05,0.0,0.9321272,8.722848e-08,0.00037471956
6.581463e-09,0.003234925,0.0,0.0,0.00050766685
0.0,0.0,0.0,3.589582e-09,0.0
0.26899853,1.3752874e-07,1.0762516,0.33109123,1.8548175e-06
0.041458778,0.021926472,1.3432417e-06,0.017058741,0.06554613
0.0,0.0,0.0,0.0,0.0
0.0,0.0,0.0,5.438781e-08,0.0
0.0,0.0,0.0,0.0,0.0
0.0,0.0,0.0,0.0,0.0
0.0,0.0,0.0,0.0,0.0
0.0,8.2963106e-07,1.1914701e-08,7.460685e-05,5.638624e-08
0.0,0.0,0.0,0.0,3.8774153e-09
0.0,0.0,0.0,0.0,0.0
0.0,0.0,0.0,0.0,0.0
0.0,1.829573e-05,0.0,3.397553e-05,0.00012646272
0.00019530315,3.2929474e-05,7.046633e-05,0.0002811128,9.418979e-05
0.0,0.0,0.0,0.0,0.0
6.928233e-09,0.0027764458,0.00059636496,0.001989503,0.0080359895
0.00682162,0.0,0.020236274,0.0017541616,0.0
1.7356323,0.024249217,0.24203315,0.42405567,0.00227653
0.0,0.0,1.8841997e-07,0.0,0.0
0.0,0.0,0.0,0.0,0.0
0.0,0.0,0.0,0.0,0.0
0.0004004237,9.896542e-05,0.00023271164,0.0056355125,0.0011060615
7.216563e-05,8.2118737e-07,2.6703125e-05,7.040255e-05,4.114579e-05
6.8389845e-06,3.0545078e-05,7.939409e-09,0.0,2.7539566e-06
0.00020957155,8.2379215e-11,0.00236055,0.00019881985,1.1034534e-06
0.0,0.0,0.0,4.4701494e-08,8.653514e-07
0.0,0.0,0.0,0.0,0.0
9.5238244e-07,0.0,0.0,0.0,0.0
0.0,0.0,0.0,0.0,0.0
0.0,0.0,0.0,0.0,0.0
0.0,0.0,0.0,0.0,0.0
0.0,0.0,0.0,0.0,0.0
4.844e-07,8.911804e-06,0.0,0.0,5.5560195e-06
0.0,2.0425264e-07,0.0,0.0,9.87937e-08
0.0,0.0,0.0,0.0,0.0
0.0,0.0,0.0,0.0,0.0
0.0,0.0,0.0,0.0,0.0
0.0,0.0,0.0,0.0,0.0
0.0,0.0,0.0,0.0,0.0
0.0,0.0,0.0,0.0,0.0
1.2223953e-06,1.350706e-06,0.00012962504,7.7816316e-05,9.9322715e-05
7.72694e-06,0.0,0.0,0.0,0.0
0.0,0.0,6.598005e-10,1.9678664e-05,0.0
8.291024e-07,4.3708187e-06,0.0,0.0,1.38337255e-05
0.0,0.0,1.0986149e-07,2.5032928e-06,0.0
0.0,0.0,0.0,0.0,0.0
8.67765e-07,7.495294e-08,4.488325e-07,0.0,8.485819e-09
0.0,0.0,0.0,0.0,0.0
0.0,0.0,6.968555e-11,2.369353e-06,6.7078377e-06
0.007755356,0.00018815135,0.016966654,0.010281738,1.7947143e-05
2.0671491e-10,0.0,0.0043304125,0.00090173737,0.0
0.0,3.735234e-09,0.0,0.0,0.0
5.7201674e-11,5.093927e-07,1.9935333e-08,4.415771e-08,1.1877846e-06
0.00428355,0.00064246706,4.1579706e-06,5.018048e-05,9.2566415e-06
1.7578251e-10,0.0,0.0,0.0,0.0
0.0,0.0,0.0,0.0,0.0
0.0,0.0,0.0,0.0,0.0
0.0,0.0,0.0,0.0,0.0
0.0,0.0,0.0,0.0,0.0
0.0,0.0,0.0,0.0,0.0
0.0,0.0,0.0,0.0,0.0
0.0,0.0,0.0,0.0,0.0
0.0,0.0,0.0,0.0,0.0
0.0,0.0,0.0,0.0,0.0
0.0,0.0,0.0,0.0,0.0
0.0,0.0,0.0,0.0,0.0
0.0,0.0,0.0,0.0,0.0
0.0,0.0,0.0,0.0,0.0
0.0,1.4094762e-07,0.0,0.0,2.0506418e-08
0.0,0.0,0.0,0.0,0.0
0.0,0.0,0.0,0.0,0.0
0.0,0.0,0.0,0.0,0.0
0.0,0.0,0.0,0.0,0.0
0.0,0.0,0.0,0.0,0.0
0.0,0.0,0.0,0.0,0.0
0.0,0.0,0.0,0.0,0.0
0.0,0.0,0.0,0.0,0.0
0.0,4.8876336e-07,0.0,5.5417246e-08,6.372889e-08
2.1469293e-06,0.0,1.1728364e-06,0.0,3.7963784e-07
8.636005e-07,0.0,0.0007400226,0.00019331662,0.0
2.2445677e-06,0.0,3.1160847e-09,0.0,0.0
1.1042532e-06,0.0,5.747711e-06,0.0,0.0
3.3213757e-05,0.0,1.4900111e-06,2.6548075e-06,6.757709e-09
3.9160943e-05,0.0,7.065735e-08,0.00051183096,0.0
3.2148688e-07,0.0,0.00036487146,5.3379787e-11,0.0
0.00025224974,0.0,0.0,6.0792074e-05,0.0
0.00032143318,0.00020422455,0.0,0.0,0.0003349809
9.689326e-06,0.0,0.0,0.0,0.0
0.0,0.0,0.0,0.0,0.0
0.0,0.0,0.0,0.0,0.0
0.0,0.0,0.0,0.0,0.0
0.0,0.0,0.0,0.0,0.0
0.0,0.0,0.0,0.0,0.0
0.0,0.0,0.0,0.0,0.0
0.0,0.0,0.0,0.0,0.0
1.6005939e-05,3.783815e-05,1.4065634e-05,1.3735601e-05,6.4355265e-07
0.0,0.0,0.0,0.0,0.0
0.0,0.0,1.5861808e-07,4.1771898e-07,0.0
4.827473e-06,0.0,2.0371228e-06,9.2915125e-06,1.8692567e-08
0.0,0.0,0.0,0.0,0.0
2.4309497e-08,7.604778e-09,3.885258e-05,1.1162338e-08,1.0350154e-06
0.0,0.0,0.0,2.4723807e-09,0.0
0.0,0.0,0.0,0.0,0.0
0.0,0.0,0.0,3.8317655e-10,0.0
0.0,0.0,0.0,0.0,0.0
0.0,0.0,0.0,0.0,0.0
0.0,0.0,0.0,0.0,0.0
0.0,0.0,0.0,0.0,0.0
0.0,0.0,0.0,0.0,0.0
0.0,0.0,0.0,0.0,0.0
0.0,0.0,0.0,0.0,0.0
0.0,2.459722e-09,1.912972e-05,2.9929904e-05,0.0
0.0,0.0,0.0,0.0,0.0
0.0,0.0,0.0,0.0,0.0
0.0,0.0,0.0,0.0,0.0
0.0,0.0,0.0,0.0,0.0
0.0,0.0,0.0,0.0,0.0
0.0,0.0,1.4821083e-07,1.705869e-07,0.0
0.0,0.0,0.0,0.0,0.0
0.0,0.0,0.0,0.0,0.0
0.0,0.0,0.0,0.0,0.0
0.0,0.0,0.0,1.0241987e-07,0.0
0.0,0.0,0.0,0.0,0.0
2.0036212e-05,5.420474e-07,4.3905173e-05,0.00015269939,5.9459415e-10
0.0021996528,1.1117307e-06,0.00028013665,0.023835875,8.330381e-07
7.659067e-06,0.0,0.00071740325,0.000100912155,0.0
0.0,0.0,0.0,0.0,0.0
1.9829022e-08,0.0,5.833315e-08,2.30163e-06,0.0
3.3708425e-10,3.2095676e-07,3.65204e-05,2.2219163e-05,1.1590422e-06
6.8568166e-05,0.0,0.0,0.0,0.0
1.4457661e-05,4.864397e-05,0.0,0.00066940277,0.001130221
0.00014214849,0.0,0.16304964,0.007851672,0.0
0.0,0.0,0.0,0.0,0.0
0.0,1.557945e-07,0.0,0.0,3.9155523e-07
1.576769e-11,5.8007367e-06,3.8198849e-07,2.7706471e-07,1.5746302e-05
0.0,0.0,4.0348098e-08,2.0397847e-07,0.0
0.0,0.0,0.0,0.0,0.0
1.3960188e-05,1.0157731e-05,0.00015084552,0.00079228025,2.7928994e-05
0.0,0.0,0.0,3.1377612e-10,0.0
0.0,0.0,5.125899e-06,3.0141045e-05,0.0
0.0,0.0,0.0,0.0,0.0
0.00024302962,2.5755138e-08,5.736025e-06,0.0011415114,0.0065421825
0.0,0.005878639,0.0,0.0,0.021503346
0.0,0.0,0.0,5.1489813e-08,0.0
0.0,5.7465317e-09,0.0,0.0,5.6881445e-06
3.6414808e-06,6.3991433e-07,1.1729677e-07,7.311841e-07,1.4362798e-06
0.0,0.0,0.0,0.0,0.0
0.0,0.0,0.0,0.0,0.0
0.0,0.0,3.992487e-08,4.0965606e-05,0.0
0.0,0.0,0.0,0.0,0.0
0.0,0.0,3.9475937e-05,0.0016106834,0.0
0.0,0.0,0.0,0.0,0.0
2.6105859e-06,3.9879728e-07,2.545204e-06,8.9320577e-07,1.6115689e-06
0.0,0.0,4.7465182e-05,0.032169845,0.0
0.07653999,6.3423405e-10,0.0,0.0011357964,0.18980204
0.0,2.7646829e-05,6.448309e-06,0.0,1.13504975e-05
0.041160613,0.07888576,0.04652324,0.0070983698,0.07752124
1.2694397e-08,0.064834796,0.032743078,0.005666969,0.08101442
0.0,0.0011444016,0.0,0.0,0.0010579147
0.0,2.9017583e-06,0.0,0.0,0.00019167943
0.0,0.0,0.0,0.0,0.0
1.2501437e-09,0.0,0.000957597,0.0013736245,0.0
0.47275686,2.986634e-05,0.009283647,0.0791656,0.0
0.010898398,0.0002242299,0.006788679,0.044785455,0.02425677
0.02374562,0.002355876,0.10436653,0.04493358,0.0031972348
0.22932832,0.10999407,0.9311682,0.21871977,0.287605
15.835617,0.01996808,0.09297576,0.23453806,0.018980194
0.05313335,0.3131215,0.0,0.0,0.83818233
0.8948832,0.023208465,0.40700886,0.40298966,0.45354432
0.035128497,0.0,0.11961482,0.005637331,0.02961627
0.689042,0.00201111,0.79392046,0.10907224,0.063659385
1.9865073,0.057157766,1.3465762,1.1829703,0.5925327
0.9168539,0.4126147,0.29184923,0.19566745,1.3647966
0.007289065,0.2123763,0.0,0.0,0.0015492558
0.32408267,0.07649364,0.067932375,0.068818614,0.13428277
0.0,0.0001840412,0.0,1.4560791e-09,0.0036062542
0.007848238,3.3764398e-05,0.030427728,0.031434074,0.03992487
0.0,0.0,0.0,1.2295295e-07,0.0
0.0,0.0,0.0,7.37825e-07,0.0
0.0,3.483649e-06,0.0,3.508839e-08,7.900839e-06
0.0,0.0,0.0,0.0,0.0
0.0,5.5445676e-10,1.4282412e-08,4.666335e-08,7.9973674e-11
0.007696531,0.02066254,5.897559e-07,4.6575144e-05,0.021780968
0.032823563,0.011252794,0.0,0.0,0.00028685876
4.169449e-05,2.4566333e-08,0.0068156384,0.0022065989,6.1970235e-07
0.0,3.7610687e-07,1.7781476e-06,3.1285545e-05,1.3354656e-06
0.06951167,1.457141e-07,0.010152298,0.062417496,0.0026914224
0.0016870277,0.00021648336,2.2192537e-06,9.247089e-06,0.00075373705
1.9125487e-06,5.4257926e-06,4.8852137e-08,2.9941633e-10,5.6799963e-06
0.00010927949,0.00027755232,3.7510465e-05,2.8625947e-05,0.000123233
0.0001501955,0.00014508315,0.009940195,0.0030702464,0.0009775604
0.005426868,1.868754,0.7763642,0.00015847955,0.4068112
0.0018452667,3.0594997e-08,0.0027114758,2.161159e-08,0.0034282058
0.13292746,0.008717984,0.07471767,0.13036309,0.009773511
1.1932168,0.004383836,0.12961699,0.6031451,0.042953685
1.4899602,0.51424295,0.0,0.0,0.0004338475
0.023684459,0.00015569874,0.042299625,0.04928959,0.015806453
0.05378824,0.00025300507,3.7094847e-05,2.7299558e-07,0.00016732213
0.003096747,0.0002600556,1.1988543e-05,2.1307951e-05,5.0260882e-05
0.00020098183,0.00011914578,7.5484844e-05,7.6773e-05,5.8379577e-05
0.0003860164,0.0017472466,1.7006944e-06,0.0009679184,0.0123830475
0.0008518567,0.00010748208,0.0062619797,0.0041561867,2.2081074e-06
0.0027749466,1.5534624e-05,0.002926995,0.00019976422,7.683843e-05
0.009743368,0.82042813,0.044589117,0.32151285,0.0001815245
1.0496167,0.17451873,0.76380354,0.7503558,0.0024273111
0.6633956,1.3295816,2.6334758,1.7458723,0.10304101
0.09520669,0.0,1.5527452,0.034063116,0.0
