"[299, 255]","[227, 248]","[287, 319]","[279, 328]","[230, 262]"
0.024507524,0.06279419,0.4016786,0.2205974,0.24059166
4.4032674e-07,0.004130365,0.0,0.0,0.045516554
0.1836413,0.00021396254,0.010122184,0.09863691,0.0011188239
5.1202965,0.0017617306,4.229201,2.2255058,2.9422473e-10
2.8626845,7.975843e-05,0.29324806,0.9587483,0.0
0.00017385394,0.0,0.0,0.0,0.0
0.0,1.6389465e-07,0.0,0.0,2.794503e-07
0.0,1.5421519e-09,0.0,0.0,1.4215608e-05
0.7871654,2.3036388e-05,0.0072820648,0.02283535,1.5950301e-06
0.081966914,0.0,0.050010454,1.6976373e-05,0.0
0.001733332,1.02331605e-05,4.779321e-11,1.5041287e-08,1.5046188e-05
0.0,0.0,5.220024e-10,2.2203535e-08,0.0
5.6089164e-09,0.00054328685,0.055609394,0.02224944,0.0003418546
0.0041116723,0.0,0.0,5.785712e-08,0.0
0.0055596386,0.019884463,0.0069514555,0.00076481,0.021802643
0.46731013,0.34088996,0.20036215,0.067921236,0.122724615
0.21474746,8.281435e-11,7.23449e-09,0.0006217669,5.3798158e-05
0.0,1.3447768e-05,6.267114e-06,0.0018472911,6.1933235e-05
1.1407544e-05,0.0,2.0925636e-07,1.2420636e-08,0.0
0.011481195,0.30262932,0.03243524,0.041335184,0.4864675
0.0,0.0,4.8608456e-08,0.15255602,0.0
0.0,0.0,0.0,0.0,0.0
1.1274539e-06,4.1955525e-05,5.7002535e-06,0.019622484,7.765479e-06
0.0010575796,1.2430847e-05,1.41783385e-05,7.4182985e-08,3.153963e-06
2.3616537e-06,0.0236372,6.67955e-07,0.0,0.01088267
3.1296647e-08,0.0,0.0,0.0,0.0
0.015688179,1.4214644e-09,0.0059193084,0.0011458242,2.41964e-07
0.011352019,0.022070395,0.08262082,0.34995136,0.0883288
0.00012331567,5.5673696e-05,1.3253356e-05,0.005662212,0.00037279396
0.0027843502,0.0,0.0008677338,0.09404412,6.2598897e-06
0.33865923,0.0,0.0027721967,0.16411729,0.0
0.00040820957,1.9988469e-09,1.441355e-06,0.00011580154,2.3145172e-11
0.0,7.79868e-06,0.032479297,0.03961534,3.9594892e-05
2.1091871,5.869776e-11,1.1982025,0.691402,0.018916242
0.0012730845,4.0295505e-05,0.07285353,0.04895584,9.204397e-05
0.0,0.0,0.0,0.0,0.0
0.26898366,1.3378e-09,0.3417347,0.3151237,0.0039669126
0.3419314,0.0,0.029597303,0.08549473,0.023031855
0.00095156475,0.0,0.0,0.0,0.0
0.0,0.0,0.0,0.0,0.0
0.0,0.0,0.0,0.0,0.0
0.0,0.0,0.0,0.0,0.0
0.0,0.0,6.6606176e-10,2.0380734e-05,0.0
0.0,0.0,0.0,0.0,0.0
0.0,0.0,0.0,0.0,0.0
7.4518757e-06,0.0003224958,0.005676849,0.007817924,3.2233394e-05
0.005623294,0.0023643249,0.0016641291,0.0035345634,0.0016719294
3.940726e-06,2.1316109e-07,3.5922076e-05,6.348839e-05,3.828165e-06
0.019417219,0.045405973,0.0010375774,0.0001033011,0.042401902
0.4783478,0.16452202,0.11783162,0.13208099,3.107571e-05
0.0,0.28317967,0.0,0.0,0.44959927
1.5595661,0.11930647,0.357618,5.1702075,0.28207955
1.8503913e-09,0.012207305,0.00015511671,0.4569909,3.966699e-10
0.19213389,0.011555884,0.35908183,0.5531331,0.033361435
0.79759866,0.20496158,0.45804033,0.60357374,0.80783635
14.8520355,3.7821488,1.3663688,4.373739,3.4903545
6.5753818,1.0098495,0.15434954,0.39413637,1.2126205
1.7382851,9.727352e-05,2.5219538,1.3293619,0.0023283758
0.035144366,0.015634423,0.00013938764,0.2799804,0.07410414
0.020379407,3.0504195e-06,1.0307206,0.65348315,5.0742117e-09
0.3216492,0.2043262,0.16365613,0.026327193,0.76740736
0.07716843,0.008784438,1.1033014e-05,0.51991034,0.0026992639
1.0642098,0.06845271,0.43877405,0.45143017,1.14006994e-07
0.24158503,1.6238992e-05,1.4568682,0.66266525,0.022794176
0.0,0.0,0.0,0.0,0.0
1.453774e-06,0.0,0.0,0.0,0.0
0.38275766,0.47278064,0.95870745,1.1645766,0.7485767
6.111744e-08,0.0,0.0,0.0,0.0
0.0,0.0,0.0,0.0,0.0
2.7918322,0.518424,0.5996574,0.27503347,0.8798816
0.00023691346,7.988387e-07,0.0,0.0,6.0451717
0.014406154,0.0,0.0,0.0,0.0
8.039674e-08,0.0,0.0,0.0,0.0
0.18879487,0.0,0.0017201252,9.593834e-07,0.0
0.0,0.0,1.6871856e-07,0.0,0.0
0.0,0.0,0.0,0.0,0.0
0.0,0.0020689897,0.0,0.0,0.240694
2.5559866,2.2281215,2.805614,5.3496737,12.222072
0.0,0.0,0.0,0.0,0.0
2.4164233e-06,0.00040766786,0.01702974,3.5920093,0.009934081
0.0014781435,0.0017368152,0.038742695,0.030442499,0.14535326
0.40513906,0.2700027,0.00802688,0.62066257,0.0017750027
0.15657192,0.016145492,0.14674807,0.0519448,0.03399964
0.08112409,4.7405585e-05,0.2864844,0.11191428,0.3291684
0.057736956,0.0011139296,0.040798448,0.16053547,0.00021690757
0.06425682,0.0078089763,1.5914789e-07,0.0,0.0068519493
0.2586598,0.0,1.4656107e-08,5.756751e-10,0.0
0.026556848,0.001737852,0.15794253,0.027745793,0.0029062445
0.0038578562,0.01812362,0.14674862,3.6915512e-06,0.019286012
0.27712205,0.0005653476,0.020877779,0.027305357,0.045678634
0.8387261,0.09068287,0.12041593,4.719514,0.34079292
1.6344535,1.216749,2.5537608,2.826321,0.24061157
0.014932543,1.4169238e-09,2.0248472e-06,1.7108362e-06,2.3411053e-06
0.8378537,1.4471222,2.267515,1.1844753,0.8808882
0.009880111,1.8850335,0.051106274,0.00010971982,0.038126715
0.68696743,0.0065229973,3.653089,0.09482573,5.4367367e-05
0.0022997763,7.4092343e-10,0.6222126,0.4498094,0.0076425895
2.4132493,0.66930157,0.98385483,3.9936247,0.6576293
0.0029149354,0.009269747,0.0581899,0.004226244,0.010814947
0.6241982,0.14282231,0.28099126,0.021684464,0.21738239
1.3759714,0.73987746,0.34128508,1.0636436,1.4151055
1.0051583,3.3960612e-07,2.7347028,1.1363287,0.000113197915
2.1625265e-06,0.8844865,0.0,0.0,4.4833827
0.009319426,0.3387918,7.113366e-06,7.420342e-07,0.46094903
0.043903865,0.03351496,0.037416674,0.5636054,0.22387104
0.3030582,0.0044638296,1.0748315,0.39628604,0.11189329
0.0692435,0.055980366,1.1811179,0.3125602,4.9985218e-05
0.030411443,0.0009927186,1.6427274,0.47626352,0.02071785
0.5400186,0.3933712,0.64673936,0.7088651,0.2013561
2.8170946,1.45194,0.33771876,1.1666791,0.63494426
3.160661,0.02202953,1.0370791,5.9300785,0.0027467415
1.4536676e-08,1.5580676e-10,3.5595786e-08,0.06547556,0.0
5.884966e-05,0.0044727214,0.00039557618,0.008097471,0.011285748
0.0,0.0,0.0,0.0,0.0
0.0,0.0,5.9897005e-08,0.00056592654,0.0
2.9792283e-10,0.00026691618,2.6181834e-10,5.4698324e-10,4.4128806e-10
0.0,0.0,0.0,0.0,0.0
0.0,0.0,0.0,0.0,0.0
0.0,0.0,0.0,0.0,0.0
1.6401766e-05,2.2173193e-05,0.060134992,0.1766768,1.8612118e-05
5.7271404,0.23102288,3.486498,1.9019488,1.3283625
9.933073,0.3527615,1.5984054,1.7017941,2.1368454
0.060433306,0.0,0.0056615057,0.060345095,0.0
0.03352889,0.040101223,0.3430186,0.057308655,0.06567394
1.0638319e-05,2.4582795e-07,0.0,2.1566027e-08,2.5401621e-05
0.90485746,0.009136517,0.01287085,0.009882893,0.0013864118
0.0,0.0,0.0,0.0,0.0
0.016891325,0.06905946,0.037816923,0.007638563,0.0019994953
1.194256,0.2708664,0.7490107,0.6894182,0.8673534
2.0133461e-06,0.00066206994,0.24770303,1.7346169,4.9068214e-05
0.19720797,0.007847995,0.6037015,0.56105745,4.5515117e-07
0.34326833,0.016622646,5.681576e-07,0.0001882841,0.060474277
1.804883,0.4645329,0.5024587,0.16666599,0.43672702
0.35044307,0.43714878,3.4040225,0.21864605,0.6735755
0.64411527,1.2980827,1.3776066,1.6106561,0.66593915
1.8806058,0.00014558143,3.9038315,0.9971307,1.7732842e-06
0.0,0.0026448665,0.00019283307,0.0020482275,0.0029506583
0.0,0.0,0.0,0.00010502169,5.970735e-08
0.0,1.8575772e-06,1.3654387e-07,0.0006727405,1.6110512e-07
0.0,0.0,0.0,0.0,0.0
0.0,0.0,0.0,0.0,0.0
5.2432806e-05,0.01605809,0.0081825955,0.004647873,0.02287424
0.0,0.0,4.288015e-06,0.0,0.0
0.0,0.0,0.0,0.0,0.0
0.0,0.0,0.0,0.0,0.0
0.0,0.0,0.0,0.0,0.0
0.0,5.5457633e-07,0.0009201591,0.0010897237,1.679267e-06
0.0,0.0,0.008979026,0.016827619,0.0
0.0,0.0,0.0,0.0,0.0
0.0,0.0,1.5081643e-05,5.3573505e-05,0.0
0.0,0.0,0.0,0.0,0.0
0.0,0.0,0.0,1.8179179e-08,0.0
0.0,0.0,0.0,0.0,0.0
0.0,0.0,0.0,0.0,0.0
0.37257096,0.0,0.36532634,0.93716013,0.15980038
0.50053823,0.00025858328,0.4208313,0.49106413,0.000114228016
0.0,0.0,0.0,0.0,0.0
0.0,0.0,0.0,0.0,0.0
0.0,0.0,0.0,0.0,0.0
0.0,0.0,0.0,0.0,0.0
0.0,0.0,0.0,0.0,0.0
0.0,0.0,0.0,0.0,0.0
0.0,0.0,0.0,0.0,0.0
0.0,0.0,0.0,0.0,0.0
0.0,0.0,0.0,0.0,0.0
0.0,0.0,1.2301663e-07,0.0,0.0
5.065285e-06,0.0,0.38328013,0.109327,1.067678e-09
0.00024943356,0.0007641735,0.27404788,0.01799721,1.2374308e-08
0.0,0.0,0.0,0.0,0.0
0.0,0.0,0.0,0.0,0.0
0.0,0.014292027,0.0,0.017166283,0.0
0.10078017,0.001920274,3.8993473,0.08388628,0.0
0.10138865,0.0,0.00056458253,0.20104595,1.4227281
8.074942e-06,0.0006467818,1.5235696e-07,0.13491197,0.0
0.1486731,0.0,0.019585397,4.3707932e-06,0.0
0.36557367,0.00023495102,0.7582702,0.10622871,0.0
7.031127e-05,0.00011671503,0.017302988,0.0,0.0
0.0061474224,0.009665573,0.0021771106,0.0008454575,0.0006823276
0.020263325,0.0014192228,0.0007812939,0.015682584,0.0001898368
0.09848852,7.7741396e-07,0.0,3.4562413e-07,0.0
3.501291e-05,0.0,0.0,0.0,0.0
3.3243346e-06,3.7400016e-06,1.7687925e-07,1.3968029e-05,2.3180584e-05
0.00024711364,7.379153e-07,5.918829e-05,0.00018110733,1.9872274e-11
0.0,0.0,0.0,0.0,0.0
0.0,0.0,0.0,0.0,0.0
0.0,0.0,0.0,0.0,0.0
0.0,0.0,0.0,2.0274717e-06,0.0
0.0,0.0,2.4089453e-09,6.266443e-08,0.0
0.0,0.0,0.0,0.0,0.0
0.0,0.0,0.0,0.0,0.0
0.0,0.0,0.0,0.0,0.0
0.0,0.0,0.0,0.0,0.0
0.0,0.0,0.0,0.0,0.0
0.0,0.0,0.0,0.0,0.0
0.0,0.0,0.0,0.0,0.0
0.0,0.0,0.0,0.0,0.0
0.0,0.0,0.0,0.0,0.0
0.0,0.0,0.0,0.0,0.0
0.0,0.0,0.0,0.0,0.0
0.0,4.393784e-07,0.0,0.0,0.0
0.0,0.0,0.008718233,0.000113485534,0.0
0.06689724,0.0014297472,0.05790634,0.03972223,0.00022960195
3.522895e-10,7.867228e-06,0.0,0.0,0.0
0.0,0.0,0.0,0.0,0.0
7.985614e-06,4.1452263e-06,1.8681814e-07,1.6714199e-07,1.3245519e-06
0.00023214176,0.0,1.1189103e-05,2.5218995e-05,0.0
0.0,0.0,0.0,0.0,0.0
0.0,0.0,0.0,0.0,0.0
0.0,0.0,2.0032216e-05,0.0,0.0
5.3064136e-06,4.5784753e-07,6.913772e-05,0.00014036364,1.0001886e-06
5.741359e-06,0.0,0.0,0.0,0.0
0.0,0.0,0.0,0.0,0.0
0.0,0.0,0.0,0.0,0.0
0.0,0.0,0.0,0.0,0.0
0.0,0.0,0.0,0.0,0.0
0.0,0.0,0.0,0.0,0.0
0.0,0.0,0.0,0.0,0.0
0.0,0.0,0.0,0.0,0.0
0.0,0.0,0.0,0.0,0.0
0.0,0.0,0.0,0.0,0.0
4.078715e-05,0.0,9.99058e-06,0.0,2.2070846e-07
0.0,0.0,0.0,0.0,0.0
0.0,0.0,0.0,0.0,0.0
0.0,0.0,0.0,0.0,0.0
0.0,0.0,0.0,0.0,0.0
0.0,0.0,0.0,0.0,0.0
0.0,0.0,0.0,0.0,0.0
0.0,0.0,0.0,5.087203e-09,0.0
0.0,0.0,0.0,0.0,0.0
2.9991256e-07,0.0,1.2850692e-05,1.2194746e-05,0.0
0.0,0.0,0.0,0.0,0.0
0.0,0.0,0.0,0.0,0.0
0.0,0.0,0.0,0.0,0.0
0.0,0.0,8.7039625e-06,8.614789e-10,0.0
0.0,0.0,0.0,0.0,0.0
0.0,0.0,5.754181e-07,1.8599223e-07,0.0
0.0,0.0,0.0,0.0,0.0
0.0,0.0,0.0,0.0,0.0
0.0,0.0,3.355929e-06,1.3073545e-06,0.0
0.0,0.0,0.0,0.0,0.0
0.0,0.0,0.0,0.0,0.0
0.0,0.0,0.0,0.0,0.0
0.0,0.0,0.0,0.0,0.0
0.0,0.0,0.0,0.0,0.0
0.0,0.0,0.0,0.0,0.0
0.0,0.0,0.0,0.0,0.0
0.0,0.0,0.0,0.0,0.0
0.0,0.0,0.0,0.0,0.0
0.0,0.0,0.0,0.0,0.0
0.0,0.0,0.0,0.0,0.0
0.0,0.0,0.0,0.0,0.0
0.0,0.0,7.740991e-06,6.018364e-10,0.0
0.0,0.0,1.1682761e-06,0.0,0.0
0.0,0.0,2.4247363e-05,7.010421e-10,0.0
0.0,0.0,0.0,0.0,0.0
0.0,0.0,0.0,0.0,0.0
0.0,0.0,0.0,0.0,0.0
0.0,0.0,0.0,0.0,0.0
0.0,0.0,0.0,0.0,0.0
0.0,0.0,0.0,0.0,0.0
4.7706653e-08,1.4084902e-08,5.3221625e-06,2.1918847e-06,4.3911244e-09
0.0,0.0,0.0,0.0,0.0
0.0,0.0,3.614505e-09,0.0,0.0
0.00065024756,5.3924173e-06,0.0010182526,0.00021473155,0.00067539857
0.000116768526,0.0,0.0,0.0,0.0
0.0,0.0,0.0,0.0,0.0
0.0,0.0,0.0,0.0,0.0
0.0,0.0,0.0,0.0,0.0
0.0,0.0,0.0,0.0,0.0
0.0,0.0,0.0,0.0,0.0
0.0,0.0,0.0,0.0,0.0
0.0,0.0,0.0,0.0,0.0
0.0,0.0,0.0,0.0,0.0
0.0,0.0,0.0,0.0,0.0
0.0,0.0,0.0,0.0,0.0
0.0,0.0,0.0,0.0,0.0
0.0,0.0,0.0,0.0,0.0
0.0,0.0,0.0,0.0,0.0
0.0,0.0,0.0,0.0,0.0
0.0,0.0,0.0,0.0,0.0
0.0,0.0,0.0,0.0,0.0
0.0,0.0,0.0,0.0,0.0
0.0,0.0,0.0,4.4082335e-10,0.0
0.0,0.0,0.0,0.0,0.0
0.0,0.0,0.0,0.0,0.0
0.0,0.0,0.0,0.0,0.0
1.4549905e-05,1.3095712e-05,3.1705638e-06,2.2677361e-06,2.2018528e-06
5.0587662e-08,0.0,0.0,2.9411192e-06,0.0
1.4824498e-06,0.0,0.00042281294,0.00027440375,0.0
0.0,0.0,0.0,0.0,0.0
0.0,0.0,8.8619674e-07,2.7609426e-07,0.0
0.0,0.0,1.4220772e-06,0.0,0.0
0.0,0.0,0.0,1.5042524e-09,0.0
0.0,0.0,1.5742053e-06,4.933662e-06,0.0
0.0,0.0,0.0022903746,0.0048605893,0.0
0.12599601,0.0011587857,0.06920914,0.020951344,0.025679007
0.08780107,0.0,0.0,0.0,0.13344817
0.0,0.0,0.0,0.0,0.0
2.3520543e-06,5.2504e-06,1.5609315e-07,8.6298087e-07,2.557876e-07
0.0,0.0,0.0,0.0,0.0
0.0,0.0,0.0,0.0,0.0
0.0,0.0,0.0,0.0,0.0
0.0,0.0,0.0,0.0,0.0
0.0,0.0,0.0,0.0,0.0
0.0,0.0,7.9604456e-07,4.6978383e-07,0.0
0.0,0.0,0.0,0.0,0.0
0.0,0.0,0.0,0.0,0.0
0.0,0.0,0.0,0.0,0.0
0.0,0.0,0.0,0.0,0.0
0.0,0.0,0.0,0.0,0.0
0.0,0.0,0.0,0.0,0.0
0.0,0.0,0.0,3.5860356e-07,0.0
0.0,0.0,0.0,0.0,0.0
0.0,0.0,0.0,0.0,0.0
0.0,0.0,0.0,0.0,0.0
0.0,2.0873513e-06,2.7661288e-06,0.00023407805,1.952805e-06
6.366564e-06,3.7868306e-06,1.4155292e-07,4.3278633e-06,6.30467e-07
3.734585e-06,6.1414096e-07,0.0,0.0,2.0675822e-08
1.0456876e-06,0.0,0.0,0.0,0.0
0.0,1.5983724e-09,0.0,0.0,0.0
0.0008995586,3.1605847e-05,7.537804e-05,0.0020753073,4.7538386e-05
0.0020715806,0.00029226104,0.00027529045,2.938186e-07,0.00077458646
0.0023180693,2.9394212e-10,2.0805447e-07,0.00021241537,0.0
0.0004599042,0.00026163776,7.2573343e-09,0.0,4.3971288e-10
0.0,0.0,0.0,0.0,0.0
0.0,0.0,0.0,0.0,0.0
0.0,0.0,1.9682035e-07,3.929717e-05,6.360332e-09
0.0,0.0,0.0,1.8557893e-07,4.6519724e-10
0.0009261009,0.00033026864,0.010289606,0.0016866558,0.00013585958
7.824879e-06,0.0014343929,0.00023718897,0.010358177,6.785931e-05
0.0028819705,0.020749385,0.0014699564,0.00010833122,0.023879021
0.0,0.0,7.5105824e-11,0.0,0.0
0.0019313289,0.0020090865,0.00072616286,0.00039194245,0.001047594
0.0,0.0,0.048486747,0.019335877,5.3122876e-05
0.00050893816,0.0,0.00396725,2.395212e-05,0.0
2.2842198e-06,0.0,0.008555898,0.0303507,1.8565532e-06
0.0014606484,0.0,0.0011152953,0.0033567282,1.0853082e-05
0.0,3.965131e-05,0.0,0.00045286,0.0015439616
0.17288117,0.009587029,0.13961583,0.18810903,0.029839983
0.19513208,3.3355656e-05,8.976193e-05,0.24202403,0.0021561256
0.0,0.0,0.017156968,5.8167505e-05,0.0
0.0020859747,0.0,0.0004123383,0.0006275852,0.0
0.0,0.0,0.0,0.0,0.0
7.147568e-07,8.4134945e-06,5.3470686e-08,1.5947986e-05,1.5178374e-06
0.0,0.0,2.898133e-11,2.9395007e-08,0.0
0.0,0.02093398,0.0019151667,0.0031850177,0.014297808
0.28290585,0.0431441,0.011110303,0.05266528,0.04040912
0.331982,0.07149119,0.33914548,0.66059875,0.05379985
0.0026036676,0.19892916,0.0,0.0,0.0018075431
0.0,0.0,0.0,0.0,0.0
0.0,0.0,0.0,0.0,0.0
0.0,0.0,0.0,0.0,0.0
0.0,0.0,0.0,0.0,0.0
0.0,0.0,0.0,0.0,0.0
0.0,0.0,0.0,0.0,0.0
0.0,0.0,0.0,0.0,0.0
0.0,1.555695e-05,3.513916e-06,2.3952573e-06,0.00025662256
0.90793836,0.038264792,0.0391078,0.027410677,0.06463129
0.23980953,0.0,1.2188424e-10,6.9983247e-10,0.0
0.0,0.0,0.0,0.0,1.0392679e-05
