"[299, 255]","[227, 248]","[287, 319]","[279, 328]","[230, 262]"
95.25,84.125,85.42969,87.46875,89.125
96.60156,86.046875,91.46094,91.859375,94.07031
96.765625,89.828125,87.99219,88.36719,92.859375
97.234375,89.80469,90.078125,87.25781,92.609375
88.625,70.578125,83.171875,86.96094,73.19531
94.046875,79.96875,88.359375,86.55469,83.46094
78.78906,68.99219,75.9375,76.8125,70.859375
91.5625,87.34375,91.85156,93.109375,90.36719
92.36719,72.15625,89.828125,89.265625,79.671875
86.28125,67.75,83.46875,86.15625,79.17969
93.96875,80.72656,88.55469,89.296875,83.27344
93.97656,81.25781,84.05469,82.24219,82.28125
91.92969,73.46875,82.078125,83.63281,72.609375
89.90625,69.49219,91.49219,85.83594,76.390625
83.52344,60.828125,94.82031,89.96094,73.55469
92.66406,69.203125,90.08594,86.08594,75.71875
94.28906,75.421875,92.453125,94.25,86.39844
96.203125,77.89844,91.82031,92.67969,86.0625
93.33594,73.25781,89.546875,90.50781,82.21875
96.9375,82.46875,92.78125,90.03906,91.40625
89.03906,64.78125,80.796875,83.85156,74.9375
88.00781,75.375,83.75781,85.08594,80.53125
93.109375,68.33594,89.60156,88.296875,77.02344
93.671875,76.90625,89.296875,89.5,82.734375
93.71875,80.40625,87.94531,89.21094,86.30469
87.703125,70.27344,71.3125,68.63281,68.86719
92.703125,73.58594,85.125,82.64844,74.96875
92.35156,79.46875,87.40625,85.34375,81.359375
91.59375,79.234375,86.75,85.78906,82.64844
86.171875,72.89844,86.296875,84.203125,73.96094
92.49219,72.19531,87.07031,88.375,76.71094
96.171875,90.74219,92.97656,94.03125,94.015625
91.171875,80.265625,83.77344,82.27344,82.02344
87.33594,72.46875,80.25,83.42969,75.421875
96.40625,75.546875,87.77344,87.953125,79.66406
89.109375,76.4375,89.015625,93.25,78.17969
94.1875,81.28906,86.59375,88.046875,86.234375
92.625,83.49219,90.36719,89.625,84.328125
86.33594,64.71094,85.109375,83.71875,67.91406
88.89844,60.679688,91.50781,89.24219,80.44531
98.4375,75.05469,93.375,92.44531,91.86719
93.203125,71.58594,84.984375,84.64844,83.60156
87.74219,76.83594,86.94531,87.99219,77.328125
99.27344,90.17969,95.515625,95.96875,91.19531
98.97656,88.38281,92.609375,93.4375,87.92969
95.375,78.34375,88.703125,89.78906,85.08594
93.61719,79.53125,93.69531,95.32031,91.83594
92.96094,76.41406,90.88281,90.52344,89.546875
98.67969,88.24219,94.828125,95.625,92.9375
94.67969,77.11719,87.875,89.6875,81.78906
94.42969,79.0625,88.00781,89.8125,81.828125
93.890625,80.11719,83.99219,84.52344,83.625
91.33594,73.97656,83.74219,83.234375,80.859375
96.49219,85.05469,90.97656,89.22656,89.796875
77.875,71.28906,69.74219,74.10156,65.828125
85.53125,73.015625,81.84375,82.734375,74.8125
94.625,79.234375,92.296875,90.6875,85.40625
89.36719,68.08594,80.6875,77.99219,84.64844
96.78125,91.78906,92.515625,93.88281,96.390625
98.265625,88.515625,94.90625,96.671875,93.53125
93.97656,84.5,92.64844,91.24219,83.84375
98.28906,87.0,84.19531,82.4375,84.203125
84.80469,75.83594,79.96875,81.3125,76.390625
82.109375,63.078125,87.00781,84.00781,76.625
89.60156,69.39844,91.22656,90.38281,82.515625
91.17969,78.875,91.86719,91.96875,80.34375
91.08594,74.625,89.484375,89.25781,82.03906
97.27344,88.75781,91.734375,90.921875,91.16406
94.19531,89.83594,94.30469,94.03125,90.35156
83.00781,75.58594,76.71875,77.125,73.3125
83.703125,72.13281,76.734375,76.59375,72.265625
87.97656,69.9375,82.390625,83.890625,75.34375
87.67969,70.42969,86.65625,87.25,81.265625
93.30469,78.35156,90.55469,90.109375,88.375
95.63281,90.34375,93.19531,93.75,92.078125
82.96094,74.05469,83.03125,83.78125,75.859375
82.296875,68.421875,79.71875,77.77344,65.578125
79.640625,63.546875,76.74219,74.0625,61.851562
83.82031,65.0625,81.5625,79.22656,73.109375
88.52344,67.74219,83.46875,81.52344,80.171875
86.921875,72.24219,82.984375,81.42969,82.53906
97.1875,74.296875,86.22656,83.03125,80.80469
89.10156,64.4375,86.84375,81.484375,76.64844
80.36719,68.02344,86.75781,81.69531,78.57031
92.15625,83.24219,75.140625,74.453125,93.421875
96.859375,86.44531,81.859375,81.484375,94.359375
97.10156,87.328125,88.140625,86.375,93.09375
97.91406,79.84375,89.6875,90.33594,87.109375
92.58594,73.421875,86.75,86.07031,78.296875
85.203125,69.765625,83.46094,81.08594,71.0625
93.875,75.265625,81.49219,77.921875,87.91406
99.02344,97.90625,97.49219,96.171875,99.14844
99.078125,89.61719,93.5,91.671875,92.90625
87.15625,77.10156,72.88281,70.41406,81.78906
76.30469,58.953125,77.578125,75.328125,69.53125
76.875,61.9375,76.86719,72.359375,69.91406
67.61719,55.054688,79.60156,76.75781,69.16406
59.210938,64.390625,70.58594,69.359375,66.640625
71.8125,61.507812,68.10156,67.59375,64.59375
76.3125,66.47656,77.00781,79.10156,63.976562
73.53906,63.46875,77.703125,75.609375,73.546875
93.0625,87.21094,93.36719,93.296875,91.91406
87.78125,77.41406,84.59375,82.96094,78.484375
73.375,67.125,72.92969,69.375,67.44531
93.52344,89.83594,85.59375,83.72656,87.953125
92.9375,88.85156,93.61719,91.99219,94.125
87.125,73.328125,75.32031,76.1875,77.78125
69.38281,65.50781,76.38281,72.30469,77.328125
63.867188,63.890625,68.57031,67.52344,62.929688
65.22656,61.460938,67.92969,68.1875,65.85156
74.765625,75.71875,70.984375,74.17969,76.80469
84.69531,73.078125,81.4375,81.02344,79.44531
78.8125,70.90625,85.25,83.74219,78.75781
76.78125,79.875,85.234375,83.4375,84.046875
77.875,74.71875,78.375,80.390625,77.09375
78.109375,72.359375,76.63281,74.671875,75.75781
95.34375,82.74219,88.0625,89.39844,85.46875
95.19531,85.296875,85.484375,87.47656,86.69531
91.546875,83.671875,90.640625,93.22656,84.1875
84.375,81.50781,80.125,79.875,79.296875
81.6875,77.890625,79.453125,78.53125,78.484375
80.015625,77.32031,75.328125,74.765625,80.10156
75.25,66.42969,73.71875,74.05469,64.71875
75.828125,63.140625,72.609375,70.42969,68.61719
75.17969,66.85156,76.14844,75.9375,73.875
70.07031,67.24219,68.296875,69.375,70.19531
80.36719,66.9375,79.125,74.96094,66.74219
73.375,69.17969,76.359375,73.015625,69.85156
71.00781,64.65625,67.96094,66.21875,65.109375
95.046875,85.765625,90.234375,88.42969,90.94531
89.140625,87.390625,82.984375,86.25,85.859375
78.64844,86.77344,82.171875,82.0,85.828125
81.27344,74.32031,78.96875,74.80469,81.015625
94.703125,85.953125,84.40625,82.63281,87.88281
84.46094,69.00781,72.53125,75.53125,73.28125
58.554688,68.34375,71.27344,74.40625,75.625
74.609375,73.875,79.83594,76.453125,74.96094
75.765625,73.75,77.92969,77.57031,81.99219
77.03125,73.625,74.328125,73.25781,76.42969
76.24219,80.16406,86.99219,90.67969,83.99219
84.3125,83.22656,82.16406,82.953125,86.50781
83.28125,81.46875,80.046875,84.640625,82.49219
89.71875,85.484375,81.49219,84.71094,82.92969
93.375,85.109375,80.96875,83.35156,81.6875
78.078125,74.47656,71.57031,72.21875,76.80469
74.52344,76.640625,69.97656,69.80469,77.234375
77.25,73.65625,74.921875,72.46094,77.07031
82.17969,76.16406,71.90625,71.82031,75.72656
82.46875,80.46094,73.359375,73.484375,77.453125
79.60156,85.90625,77.60156,80.35156,84.5
73.984375,78.47656,78.015625,75.296875,78.078125
74.828125,79.28906,79.328125,75.59375,79.50781
94.36719,91.99219,86.83594,84.71875,94.69531
83.47656,83.85156,78.86719,77.60156,75.78125
80.25781,74.90625,79.046875,77.515625,73.078125
83.52344,81.03125,67.46875,66.4375,82.15625
68.35156,73.390625,63.789062,64.35156,71.11719
81.171875,88.578125,83.17969,83.625,89.77344
85.171875,90.19531,81.6875,79.890625,88.078125
86.0625,86.5,75.99219,74.72656,84.125
68.078125,82.5,73.19531,72.734375,79.8125
74.0625,76.34375,73.16406,76.265625,74.99219
83.5625,80.53125,76.92969,77.64844,78.74219
63.15625,73.99219,59.796875,64.97656,71.09375
80.00781,74.72656,70.33594,67.22656,69.39844
66.99219,87.38281,66.46875,70.859375,73.57031
82.65625,93.19531,83.57031,80.77344,89.859375
78.703125,84.60156,72.25781,71.15625,74.14844
68.328125,88.35156,72.28125,74.15625,90.265625
85.75,79.640625,75.00781,74.265625,76.640625
82.015625,77.63281,72.82031,72.6875,74.49219
71.8125,73.08594,69.63281,69.96094,72.015625
61.695312,74.03906,68.359375,67.390625,75.609375
60.21875,64.109375,57.648438,56.507812,64.890625
78.234375,86.85156,78.03125,77.91406,83.63281
78.90625,93.875,82.5,87.390625,91.74219
80.921875,95.53125,81.46094,79.640625,93.86719
80.25781,94.78125,76.91406,78.75,94.78906
77.78125,89.265625,78.15625,75.765625,84.921875
68.34375,84.015625,75.67969,75.52344,83.19531
71.671875,80.82031,66.5,67.85156,82.14844
63.734375,73.5,62.882812,61.742188,71.94531
74.33594,76.453125,69.44531,70.46094,75.0
63.921875,71.453125,68.078125,67.10156,67.85156
66.984375,77.1875,67.765625,66.4375,69.375
67.125,73.78125,64.765625,61.5,71.92969
54.429688,68.3125,64.22656,60.53125,59.90625
60.070312,68.921875,67.4375,59.679688,66.59375
52.335938,69.78906,61.1875,56.828125,67.72656
51.101562,63.140625,55.554688,49.40625,62.210938
56.75,70.015625,59.25,60.4375,68.36719
51.890625,71.92969,48.671875,50.78125,62.9375
53.085938,77.734375,51.84375,51.265625,65.96875
61.90625,84.50781,63.96875,63.421875,76.24219
78.796875,91.66406,81.24219,82.015625,92.203125
69.50781,88.39844,83.27344,78.75781,85.64844
67.578125,78.21875,72.32031,72.28125,72.21875
80.02344,90.640625,82.49219,84.25781,85.52344
82.796875,86.96094,82.52344,84.05469,81.84375
80.703125,92.03125,91.921875,88.82031,92.046875
72.72656,84.69531,77.875,77.46875,80.05469
81.30469,81.78906,75.109375,73.75781,78.89844
78.96875,81.0,82.32031,81.078125,78.609375
75.5,80.64844,77.38281,74.53906,74.625
68.63281,71.546875,69.88281,69.96094,69.16406
63.429688,74.88281,63.265625,60.953125,73.015625
91.546875,93.125,86.69531,87.17969,93.578125
79.90625,86.19531,76.65625,76.86719,81.296875
73.97656,78.52344,69.91406,70.609375,74.61719
65.140625,81.28906,69.484375,64.00781,72.61719
64.0,84.515625,68.92969,67.25781,75.140625
54.382812,86.33594,66.92969,69.63281,72.46094
46.265625,70.984375,51.5625,51.859375,60.296875
43.304688,62.976562,45.890625,44.617188,59.96875
41.65625,61.265625,44.875,40.875,56.007812
38.59375,77.05469,43.5,43.984375,64.92969
59.53125,85.57031,54.609375,51.875,84.46094
48.289062,81.3125,46.539062,50.9375,80.78906
70.75781,77.02344,67.859375,65.74219,75.88281
62.671875,81.85156,64.0625,64.84375,71.78125
66.859375,76.234375,66.03906,65.546875,78.515625
65.24219,79.11719,65.05469,64.328125,77.78125
63.117188,76.5,63.59375,63.773438,75.25
60.8125,76.64844,60.507812,58.898438,74.42969
56.679688,78.85156,58.570312,59.132812,76.11719
54.570312,80.52344,58.0625,56.554688,67.78125
71.67969,81.47656,68.734375,69.109375,82.203125
80.28125,87.83594,77.046875,79.9375,83.78906
72.859375,80.60156,68.59375,71.11719,77.265625
67.89844,81.390625,70.390625,67.74219,79.14844
59.429688,79.0625,60.320312,61.429688,72.578125
64.30469,84.13281,66.91406,61.515625,76.08594
76.34375,87.265625,85.99219,82.46094,81.61719
81.05469,87.0,80.671875,79.89844,81.60156
78.140625,85.30469,85.46094,81.375,80.08594
75.52344,81.40625,79.91406,79.47656,83.63281
71.05469,80.35156,79.66406,85.10156,76.84375
74.85156,83.21094,82.109375,79.07031,77.9375
74.265625,76.125,81.97656,83.11719,74.99219
67.84375,82.890625,70.08594,69.77344,82.36719
78.578125,78.890625,67.71875,65.14844,75.234375
70.90625,86.72656,71.16406,66.515625,76.5
74.92969,75.0625,65.22656,65.96094,70.46875
64.1875,63.640625,62.039062,62.140625,62.414062
64.66406,71.27344,64.57031,63.953125,66.49219
61.492188,85.984375,75.90625,73.92969,77.984375
76.21094,85.984375,85.421875,85.57031,82.4375
80.1875,91.92969,72.96875,73.8125,84.828125
82.14844,87.875,80.3125,81.19531,81.4375
71.96875,65.44531,73.96875,73.38281,65.05469
70.453125,67.03125,68.22656,68.16406,64.359375
85.453125,83.0,81.96094,82.38281,78.796875
82.578125,81.171875,77.91406,78.11719,81.109375
65.46094,76.35156,73.6875,73.21875,74.21094
89.625,87.52344,83.75781,80.609375,85.28906
79.734375,72.21094,73.91406,73.046875,68.828125
83.78906,76.625,77.02344,78.49219,75.32031
78.35156,72.921875,75.03906,75.49219,71.40625
78.9375,76.5,75.24219,77.16406,74.36719
88.71094,94.1875,90.4375,89.796875,89.328125
86.66406,94.046875,85.890625,85.1875,89.5625
77.421875,73.546875,70.78906,72.0,71.82031
73.75,79.97656,74.8125,72.66406,78.21875
58.054688,84.80469,64.140625,62.585938,77.765625
77.58594,92.984375,82.89844,82.66406,95.69531
66.86719,73.484375,74.734375,75.05469,75.78906
67.34375,66.09375,74.3125,74.64844,73.42969
75.14844,69.60156,73.671875,75.69531,74.86719
73.1875,81.22656,85.984375,85.328125,79.00781
78.28125,76.60156,71.88281,72.671875,72.546875
79.72656,81.609375,79.5,81.28906,81.90625
82.47656,73.16406,79.25781,77.69531,72.125
62.984375,76.921875,71.46875,73.11719,77.90625
69.40625,85.609375,79.22656,83.49219,81.984375
78.609375,71.78125,75.44531,77.96875,73.16406
69.77344,69.74219,69.34375,69.80469,73.86719
86.11719,80.203125,85.65625,85.11719,85.0
93.015625,81.85156,88.63281,91.046875,85.09375
84.46094,67.6875,78.27344,79.35156,65.609375
76.27344,63.6875,73.41406,72.71875,72.671875
79.71875,78.21094,82.39844,81.375,85.52344
89.140625,89.9375,92.25781,93.09375,93.66406
78.765625,73.1875,79.78125,80.5,78.47656
79.6875,76.140625,76.734375,77.1875,76.453125
77.84375,76.953125,80.85156,79.421875,76.24219
80.96875,79.14844,79.19531,79.59375,81.5625
79.63281,86.234375,84.265625,85.55469,85.3125
88.09375,78.13281,84.359375,82.796875,80.27344
85.94531,80.89844,87.484375,85.92969,81.19531
70.49219,64.16406,66.28125,70.8125,62.492188
94.15625,77.00781,85.80469,85.8125,83.44531
77.24219,59.703125,74.88281,75.046875,68.22656
86.16406,78.10156,89.890625,89.16406,83.359375
82.8125,77.125,80.71094,82.703125,81.359375
76.38281,67.046875,78.02344,78.85156,71.57031
76.90625,68.58594,75.515625,75.57031,70.71094
78.234375,69.71094,77.453125,77.65625,73.53906
89.96094,88.796875,96.5,93.83594,92.125
96.796875,85.33594,92.10156,88.5625,87.140625
84.640625,73.13281,81.15625,81.17969,76.171875
82.234375,71.67969,83.03125,81.65625,80.17969
94.453125,85.125,92.5,90.390625,90.15625
82.703125,70.53906,79.63281,78.72656,76.25781
86.859375,73.734375,77.07031,77.796875,71.28906
72.52344,63.242188,73.92969,71.02344,62.25
91.0625,79.828125,82.875,82.21875,85.4375
86.90625,69.84375,80.40625,83.859375,74.5625
94.78125,72.02344,83.24219,86.75,82.97656
86.13281,68.875,85.83594,85.83594,86.0
87.61719,81.640625,80.875,81.90625,87.734375
94.5,88.41406,86.71094,90.625,91.03125
94.35156,88.234375,90.546875,93.546875,91.89844
88.53906,88.328125,86.875,87.453125,94.38281
92.08594,89.80469,92.61719,90.984375,94.140625
92.88281,82.109375,85.796875,86.296875,87.578125
92.09375,68.734375,79.21094,81.36719,74.38281
94.609375,76.640625,85.75781,84.890625,83.46875
94.203125,79.85156,88.296875,88.8125,90.234375
90.77344,74.3125,84.171875,82.27344,79.57031
94.13281,75.66406,84.40625,84.21875,79.07031
84.09375,69.765625,75.27344,76.890625,70.0625
88.328125,67.5,81.35156,82.328125,74.15625
90.19531,78.84375,86.46094,86.59375,84.078125
88.50781,72.52344,83.53906,83.75781,73.36719
92.734375,73.59375,83.09375,89.171875,77.859375
92.47656,74.0,87.02344,85.4375,86.55469
90.75781,71.21875,88.46875,86.109375,81.921875
96.203125,80.10156,91.71094,94.765625,91.35156
89.5625,76.99219,88.640625,88.546875,82.453125
97.69531,90.13281,94.16406,94.5,94.40625
93.234375,85.27344,88.109375,89.84375,86.72656
92.640625,82.421875,84.28125,87.484375,81.75781
97.984375,93.078125,90.13281,90.40625,91.08594
92.5,89.49219,91.21094,92.625,91.90625
99.0625,95.421875,93.75781,92.13281,97.265625
93.03125,83.921875,90.05469,88.78125,89.703125
86.0,74.52344,91.34375,92.84375,82.46094
85.53125,79.125,82.86719,84.359375,81.625
97.640625,81.609375,89.09375,90.28125,88.50781
91.828125,73.890625,90.4375,90.515625,84.015625
97.328125,89.84375,93.94531,93.25,94.97656
96.88281,95.59375,94.99219,94.07031,98.171875
94.921875,93.25781,89.296875,87.125,93.33594
83.875,78.58594,82.140625,83.28906,78.94531
85.14844,68.72656,82.69531,80.296875,76.83594
91.35156,70.84375,89.875,89.67969,80.890625
95.796875,90.42969,90.734375,91.91406,94.47656
93.3125,79.83594,92.0,92.421875,84.515625
91.96875,69.296875,80.34375,79.4375,74.03125
95.49219,80.66406,91.00781,89.8125,90.421875
93.86719,80.35156,90.25,89.75,86.0625
95.85156,91.63281,93.72656,95.125,95.47656
97.49219,83.0625,91.515625,91.77344,90.05469
93.5,75.515625,89.35156,90.171875,87.5
92.57031,75.828125,89.27344,92.25,86.453125
97.8125,88.25781,93.625,93.21875,94.71875
95.71875,84.296875,90.78906,92.10156,89.34375
92.71875,76.63281,89.234375,90.671875,78.578125
91.6875,77.09375,84.125,86.91406,80.14844
89.546875,74.88281,84.80469,85.88281,75.11719
