Time,DOAS:DesPer 1:Des Heat Mass Flow [kg/s],DOAS:DesPer 1:Des Heat Cap [W],DOAS:DesPer 1:Des Cool Mass Flow [kg/s],DOAS:DesPer 1:Des Sens Cool Cap [W],DOAS:DesPer 1:Des Tot Cool Cap [W],DOAS:DesPer 2:Des Heat Mass Flow [kg/s],DOAS:DesPer 2:Des Heat Cap [W],DOAS:DesPer 2:Des Cool Mass Flow [kg/s],DOAS:DesPer 2:Des Sens Cool Cap [W],DOAS:DesPer 2:Des Tot Cool Cap [W],DOAS CB:DesPer 1:Des Heat Mass Flow [kg/s],DOAS CB:DesPer 1:Des Heat Cap [W],DOAS CB:DesPer 1:Des Cool Mass Flow [kg/s],DOAS CB:DesPer 1:Des Sens Cool Cap [W],DOAS CB:DesPer 1:Des Tot Cool Cap [W],DOAS CB:DesPer 2:Des Heat Mass Flow [kg/s],DOAS CB:DesPer 2:Des Heat Cap [W],DOAS CB:DesPer 2:Des Cool Mass Flow [kg/s],DOAS CB:DesPer 2:Des Sens Cool Cap [W],DOAS CB:DesPer 2:Des Tot Cool Cap [W],CENTRAL VAV:DesPer 1:Des Heat Mass Flow [kg/s],CENTRAL VAV:DesPer 1:Des Heat Cap [W],CENTRAL VAV:DesPer 1:Des Cool Mass Flow [kg/s],CENTRAL VAV:DesPer 1:Des Sens Cool Cap [W],CENTRAL VAV:DesPer 1:Des Tot Cool Cap [W],CENTRAL VAV:DesPer 2:Des Heat Mass Flow [kg/s],CENTRAL VAV:DesPer 2:Des Heat Cap [W],CENTRAL VAV:DesPer 2:Des Cool Mass Flow [kg/s],CENTRAL VAV:DesPer 2:Des Sens Cool Cap [W],CENTRAL VAV:DesPer 2:Des Tot Cool Cap [W]
00:10:00,1.432221E+01,0.000000E+00,1.432221E+01,9.091299E+04,2.144446E+05,8.569468E+00,1.205555E+05,1.432221E+01,0.000000E+00,0.000000E+00,1.774630E-02,0.000000E+00,1.774630E-02,1.126480E+02,2.657130E+02,1.901083E-02,2.674448E+02,1.774630E-02,0.000000E+00,0.000000E+00,1.354834E-02,0.000000E+00,1.354834E-02,8.600066E+01,1.344858E+02,1.435509E-02,0.000000E+00,1.354834E-02,0.000000E+00,0.000000E+00
00:20:00,1.432221E+01,0.000000E+00,1.432221E+01,8.945942E+04,2.129602E+05,8.542694E+00,1.201788E+05,1.432221E+01,0.000000E+00,0.000000E+00,1.774630E-02,0.000000E+00,1.774630E-02,1.108469E+02,2.638736E+02,1.902742E-02,2.676782E+02,1.774630E-02,0.000000E+00,0.000000E+00,1.354834E-02,0.000000E+00,1.354834E-02,8.462563E+01,1.330816E+02,1.436568E-02,0.000000E+00,1.354834E-02,0.000000E+00,0.000000E+00
00:30:00,1.432221E+01,0.000000E+00,1.432221E+01,8.800585E+04,2.114757E+05,8.517472E+00,1.198240E+05,1.432221E+01,0.000000E+00,0.000000E+00,1.774630E-02,0.000000E+00,1.774630E-02,1.090459E+02,2.620343E+02,1.904291E-02,2.678961E+02,1.774630E-02,0.000000E+00,0.000000E+00,1.354834E-02,0.000000E+00,1.354834E-02,8.325060E+01,1.316774E+02,1.437556E-02,0.000000E+00,1.354834E-02,0.000000E+00,0.000000E+00
00:40:00,1.432221E+01,0.000000E+00,1.432221E+01,8.655228E+04,2.099913E+05,8.493600E+00,1.194881E+05,1.432221E+01,0.000000E+00,0.000000E+00,1.774630E-02,0.000000E+00,1.774630E-02,1.072448E+02,2.601950E+02,1.905743E-02,2.681003E+02,1.774630E-02,0.000000E+00,0.000000E+00,1.354834E-02,0.000000E+00,1.354834E-02,8.187557E+01,1.302732E+02,1.438482E-02,0.000000E+00,1.354834E-02,0.000000E+00,0.000000E+00
00:50:00,1.432221E+01,0.000000E+00,1.432221E+01,8.509871E+04,2.085069E+05,8.470911E+00,1.191690E+05,1.432221E+01,0.000000E+00,0.000000E+00,1.774630E-02,0.000000E+00,1.774630E-02,1.054437E+02,2.583557E+02,1.907109E-02,2.682925E+02,1.774630E-02,0.000000E+00,0.000000E+00,1.354834E-02,0.000000E+00,1.354834E-02,8.050054E+01,1.288690E+02,1.439353E-02,0.000000E+00,1.354834E-02,0.000000E+00,0.000000E+00
01:00:00,1.432221E+01,0.000000E+00,1.432221E+01,8.364514E+04,2.070225E+05,8.449260E+00,1.188644E+05,1.432221E+01,0.000000E+00,0.000000E+00,1.774630E-02,0.000000E+00,1.774630E-02,1.036426E+02,2.565164E+02,1.908400E-02,2.684742E+02,1.774630E-02,0.000000E+00,0.000000E+00,1.354834E-02,0.000000E+00,1.354834E-02,7.912551E+01,1.274648E+02,1.440177E-02,0.000000E+00,1.354834E-02,0.000000E+00,0.000000E+00
01:10:00,1.432221E+01,0.000000E+00,1.432221E+01,8.267609E+04,2.060328E+05,8.428529E+00,1.185727E+05,1.432221E+01,0.000000E+00,0.000000E+00,1.774630E-02,0.000000E+00,1.774630E-02,1.024419E+02,2.552901E+02,1.909626E-02,2.686466E+02,1.774630E-02,0.000000E+00,0.000000E+00,1.354834E-02,0.000000E+00,1.354834E-02,7.820882E+01,1.265286E+02,1.440960E-02,0.000000E+00,1.354834E-02,0.000000E+00,0.000000E+00
01:20:00,1.432221E+01,0.000000E+00,1.432221E+01,8.170704E+04,2.050431E+05,8.408592E+00,1.182922E+05,1.432221E+01,0.000000E+00,0.000000E+00,1.774630E-02,0.000000E+00,1.774630E-02,1.012412E+02,2.540638E+02,1.910798E-02,2.688115E+02,1.774630E-02,0.000000E+00,0.000000E+00,1.354834E-02,0.000000E+00,1.354834E-02,7.729214E+01,1.255924E+02,1.441707E-02,0.000000E+00,1.354834E-02,0.000000E+00,0.000000E+00
01:30:00,1.432221E+01,0.000000E+00,1.432221E+01,8.073799E+04,2.040534E+05,8.389032E+00,1.180171E+05,1.432221E+01,0.000000E+00,0.000000E+00,1.774630E-02,0.000000E+00,1.774630E-02,1.000404E+02,2.528376E+02,1.912100E-02,2.689946E+02,1.774630E-02,0.000000E+00,0.000000E+00,1.354834E-02,0.000000E+00,1.354834E-02,7.637545E+01,1.246561E+02,1.442537E-02,0.000000E+00,1.354834E-02,0.000000E+00,0.000000E+00
01:40:00,1.432221E+01,0.000000E+00,1.432221E+01,7.976894E+04,2.030640E+05,8.370165E+00,1.177516E+05,1.432221E+01,0.000000E+00,0.000000E+00,1.774630E-02,0.000000E+00,1.774630E-02,9.883972E+01,2.516116E+02,1.913349E-02,2.691703E+02,1.774630E-02,0.000000E+00,0.000000E+00,1.354834E-02,0.000000E+00,1.354834E-02,7.545876E+01,1.237202E+02,1.443335E-02,0.000000E+00,1.354834E-02,0.000000E+00,0.000000E+00
01:50:00,1.432221E+01,0.000000E+00,1.432221E+01,7.879990E+04,2.020743E+05,8.351940E+00,1.174953E+05,1.432221E+01,0.000000E+00,0.000000E+00,1.774630E-02,0.000000E+00,1.774630E-02,9.763899E+01,2.503853E+02,1.914551E-02,2.693394E+02,1.774630E-02,0.000000E+00,0.000000E+00,1.354834E-02,0.000000E+00,1.354834E-02,7.454208E+01,1.227840E+02,1.444101E-02,0.000000E+00,1.354834E-02,0.000000E+00,0.000000E+00
02:00:00,1.432221E+01,0.000000E+00,1.432221E+01,7.783085E+04,2.010847E+05,8.334285E+00,1.172469E+05,1.432221E+01,0.000000E+00,0.000000E+00,1.774630E-02,0.000000E+00,1.774630E-02,9.643827E+01,2.491590E+02,1.915713E-02,2.695028E+02,1.774630E-02,0.000000E+00,0.000000E+00,1.354834E-02,0.000000E+00,1.354834E-02,7.362539E+01,1.218478E+02,1.444842E-02,0.000000E+00,1.354834E-02,0.000000E+00,0.000000E+00
02:10:00,1.432221E+01,0.000000E+00,1.432221E+01,7.710406E+04,2.003426E+05,8.317207E+00,1.170066E+05,1.432221E+01,0.000000E+00,0.000000E+00,1.774630E-02,0.000000E+00,1.774630E-02,9.553773E+01,2.482395E+02,1.916836E-02,2.696609E+02,1.774630E-02,0.000000E+00,0.000000E+00,1.354834E-02,0.000000E+00,1.354834E-02,7.293787E+01,1.211458E+02,1.445559E-02,0.000000E+00,1.354834E-02,0.000000E+00,0.000000E+00
02:20:00,1.432221E+01,0.000000E+00,1.432221E+01,7.637728E+04,1.996003E+05,8.300667E+00,1.167739E+05,1.432221E+01,0.000000E+00,0.000000E+00,1.774630E-02,0.000000E+00,1.774630E-02,9.463719E+01,2.473197E+02,1.917921E-02,2.698135E+02,1.774630E-02,0.000000E+00,0.000000E+00,1.354834E-02,0.000000E+00,1.354834E-02,7.225036E+01,1.204436E+02,1.446252E-02,0.000000E+00,1.354834E-02,0.000000E+00,0.000000E+00
02:30:00,1.432221E+01,0.000000E+00,1.432221E+01,7.565049E+04,1.988579E+05,8.284629E+00,1.165483E+05,1.432221E+01,0.000000E+00,0.000000E+00,1.774630E-02,0.000000E+00,1.774630E-02,9.373664E+01,2.463999E+02,1.918970E-02,2.699611E+02,1.774630E-02,0.000000E+00,0.000000E+00,1.354834E-02,0.000000E+00,1.354834E-02,7.156284E+01,1.197414E+02,1.446921E-02,0.000000E+00,1.354834E-02,0.000000E+00,0.000000E+00
02:40:00,1.432221E+01,0.000000E+00,1.432221E+01,7.492371E+04,1.981159E+05,8.269068E+00,1.163294E+05,1.432221E+01,0.000000E+00,0.000000E+00,1.774630E-02,0.000000E+00,1.774630E-02,9.283610E+01,2.454805E+02,1.919984E-02,2.701038E+02,1.774630E-02,0.000000E+00,0.000000E+00,1.354834E-02,0.000000E+00,1.354834E-02,7.087533E+01,1.190394E+02,1.447568E-02,0.000000E+00,1.354834E-02,0.000000E+00,0.000000E+00
02:50:00,1.432221E+01,0.000000E+00,1.432221E+01,7.419692E+04,1.973736E+05,8.253940E+00,1.161166E+05,1.432221E+01,0.000000E+00,0.000000E+00,1.774630E-02,0.000000E+00,1.774630E-02,9.193556E+01,2.445607E+02,1.920970E-02,2.702424E+02,1.774630E-02,0.000000E+00,0.000000E+00,1.354834E-02,0.000000E+00,1.354834E-02,7.018781E+01,1.183372E+02,1.448196E-02,0.000000E+00,1.354834E-02,0.000000E+00,0.000000E+00
03:00:00,1.432221E+01,0.000000E+00,1.432221E+01,7.347013E+04,1.966315E+05,8.239217E+00,1.159095E+05,1.432221E+01,0.000000E+00,0.000000E+00,1.774630E-02,0.000000E+00,1.774630E-02,9.103502E+01,2.436412E+02,1.921929E-02,2.703773E+02,1.774630E-02,0.000000E+00,0.000000E+00,1.354834E-02,0.000000E+00,1.354834E-02,6.950030E+01,1.176352E+02,1.448808E-02,0.000000E+00,1.354834E-02,0.000000E+00,0.000000E+00
03:10:00,1.432221E+01,0.000000E+00,1.432221E+01,7.274335E+04,1.958892E+05,8.224897E+00,1.157080E+05,1.432221E+01,0.000000E+00,0.000000E+00,1.774630E-02,0.000000E+00,1.774630E-02,9.013448E+01,2.427214E+02,1.922860E-02,2.705084E+02,1.774630E-02,0.000000E+00,0.000000E+00,1.354834E-02,0.000000E+00,1.354834E-02,6.881278E+01,1.169330E+02,1.449402E-02,0.000000E+00,1.354834E-02,0.000000E+00,0.000000E+00
03:20:00,1.432221E+01,0.000000E+00,1.432221E+01,7.201656E+04,1.951471E+05,8.210970E+00,1.155121E+05,1.432221E+01,0.000000E+00,0.000000E+00,1.774630E-02,0.000000E+00,1.774630E-02,8.923393E+01,2.418019E+02,1.923764E-02,2.706354E+02,1.774630E-02,0.000000E+00,0.000000E+00,1.354834E-02,0.000000E+00,1.354834E-02,6.812527E+01,1.162310E+02,1.449979E-02,0.000000E+00,1.354834E-02,0.000000E+00,0.000000E+00
03:30:00,1.432221E+01,0.000000E+00,1.432221E+01,7.128978E+04,1.944048E+05,8.197371E+00,1.153208E+05,1.432221E+01,0.000000E+00,0.000000E+00,1.774630E-02,0.000000E+00,1.774630E-02,8.833339E+01,2.408822E+02,1.924643E-02,2.707591E+02,1.774630E-02,0.000000E+00,0.000000E+00,1.354834E-02,0.000000E+00,1.354834E-02,6.743775E+01,1.155288E+02,1.450540E-02,0.000000E+00,1.354834E-02,0.000000E+00,0.000000E+00
03:40:00,1.432221E+01,0.000000E+00,1.432221E+01,7.056299E+04,1.936627E+05,8.184096E+00,1.151340E+05,1.432221E+01,0.000000E+00,0.000000E+00,1.774630E-02,0.000000E+00,1.774630E-02,8.743285E+01,2.399627E+02,1.925501E-02,2.708799E+02,1.774630E-02,0.000000E+00,0.000000E+00,1.354834E-02,0.000000E+00,1.354834E-02,6.675024E+01,1.148269E+02,1.451087E-02,0.000000E+00,1.354834E-02,0.000000E+00,0.000000E+00
03:50:00,1.432221E+01,0.000000E+00,1.432221E+01,6.983620E+04,1.929204E+05,8.171143E+00,1.149518E+05,1.432221E+01,0.000000E+00,0.000000E+00,1.774630E-02,0.000000E+00,1.774630E-02,8.653231E+01,2.390429E+02,1.926339E-02,2.709978E+02,1.774630E-02,0.000000E+00,0.000000E+00,1.354834E-02,0.000000E+00,1.354834E-02,6.606272E+01,1.141247E+02,1.451622E-02,0.000000E+00,1.354834E-02,0.000000E+00,0.000000E+00
04:00:00,1.432221E+01,0.000000E+00,1.432221E+01,6.910942E+04,1.921781E+05,8.158516E+00,1.147742E+05,1.432221E+01,0.000000E+00,0.000000E+00,1.774630E-02,0.000000E+00,1.774630E-02,8.563176E+01,2.381231E+02,1.927156E-02,2.711126E+02,1.774630E-02,0.000000E+00,0.000000E+00,1.354834E-02,0.000000E+00,1.354834E-02,6.537521E+01,1.134225E+02,1.452143E-02,0.000000E+00,1.354834E-02,0.000000E+00,0.000000E+00
04:10:00,1.432221E+01,0.000000E+00,1.432221E+01,6.862489E+04,1.916834E+05,8.146213E+00,1.146011E+05,1.432221E+01,0.000000E+00,0.000000E+00,1.774630E-02,0.000000E+00,1.774630E-02,8.503140E+01,2.375101E+02,1.927949E-02,2.712243E+02,1.774630E-02,0.000000E+00,0.000000E+00,1.354834E-02,0.000000E+00,1.354834E-02,6.491686E+01,1.129545E+02,1.452649E-02,0.000000E+00,1.354834E-02,0.000000E+00,0.000000E+00
04:20:00,1.432221E+01,0.000000E+00,1.432221E+01,6.814037E+04,1.911887E+05,8.134227E+00,1.144325E+05,1.432221E+01,0.000000E+00,0.000000E+00,1.774630E-02,0.000000E+00,1.774630E-02,8.443104E+01,2.368972E+02,1.928721E-02,2.713328E+02,1.774630E-02,0.000000E+00,0.000000E+00,1.354834E-02,0.000000E+00,1.354834E-02,6.445852E+01,1.124865E+02,1.453141E-02,0.000000E+00,1.354834E-02,0.000000E+00,0.000000E+00
04:30:00,1.432221E+01,0.000000E+00,1.432221E+01,6.765585E+04,1.906937E+05,8.122536E+00,1.142680E+05,1.432221E+01,0.000000E+00,0.000000E+00,1.774630E-02,0.000000E+00,1.774630E-02,8.383068E+01,2.362839E+02,1.929474E-02,2.714387E+02,1.774630E-02,0.000000E+00,0.000000E+00,1.354834E-02,0.000000E+00,1.354834E-02,6.400018E+01,1.120183E+02,1.453622E-02,0.000000E+00,1.354834E-02,0.000000E+00,0.000000E+00
04:40:00,1.432221E+01,0.000000E+00,1.432221E+01,6.717132E+04,1.901990E+05,8.111127E+00,1.141075E+05,1.432221E+01,0.000000E+00,0.000000E+00,1.774630E-02,0.000000E+00,1.774630E-02,8.323032E+01,2.356709E+02,1.930210E-02,2.715423E+02,1.774630E-02,0.000000E+00,0.000000E+00,1.354834E-02,0.000000E+00,1.354834E-02,6.354183E+01,1.115503E+02,1.454091E-02,0.000000E+00,1.354834E-02,0.000000E+00,0.000000E+00
04:50:00,1.432221E+01,0.000000E+00,1.432221E+01,6.668680E+04,1.897041E+05,8.100005E+00,1.139510E+05,1.432221E+01,0.000000E+00,0.000000E+00,1.774630E-02,0.000000E+00,1.774630E-02,8.262996E+01,2.350576E+02,1.930927E-02,2.716431E+02,1.774630E-02,0.000000E+00,0.000000E+00,1.354834E-02,0.000000E+00,1.354834E-02,6.308349E+01,1.110821E+02,1.454549E-02,0.000000E+00,1.354834E-02,0.000000E+00,0.000000E+00
05:00:00,1.432221E+01,0.000000E+00,1.432221E+01,6.620228E+04,1.892094E+05,8.089170E+00,1.137986E+05,1.432221E+01,0.000000E+00,0.000000E+00,1.774630E-02,0.000000E+00,1.774630E-02,8.202959E+01,2.344446E+02,1.931624E-02,2.717413E+02,1.774630E-02,0.000000E+00,0.000000E+00,1.354834E-02,0.000000E+00,1.354834E-02,6.262515E+01,1.106142E+02,1.454994E-02,0.000000E+00,1.354834E-02,0.000000E+00,0.000000E+00
05:10:00,1.432221E+01,0.000000E+00,1.432221E+01,6.668680E+04,1.897041E+05,8.078619E+00,1.136502E+05,1.432221E+01,0.000000E+00,0.000000E+00,1.774630E-02,0.000000E+00,1.774630E-02,8.262996E+01,2.350576E+02,1.932303E-02,2.718367E+02,1.774630E-02,0.000000E+00,0.000000E+00,1.354834E-02,0.000000E+00,1.354834E-02,6.308349E+01,1.110821E+02,1.455427E-02,0.000000E+00,1.354834E-02,0.000000E+00,0.000000E+00
05:20:00,1.432221E+01,0.000000E+00,1.432221E+01,6.717132E+04,1.901990E+05,8.068348E+00,1.135057E+05,1.432221E+01,0.000000E+00,0.000000E+00,1.774630E-02,0.000000E+00,1.774630E-02,8.323032E+01,2.356709E+02,1.932965E-02,2.719299E+02,1.774630E-02,0.000000E+00,0.000000E+00,1.354834E-02,0.000000E+00,1.354834E-02,6.354183E+01,1.115503E+02,1.455849E-02,0.000000E+00,1.354834E-02,0.000000E+00,0.000000E+00
05:30:00,1.432221E+01,0.000000E+00,1.432221E+01,6.765585E+04,1.906937E+05,8.058332E+00,1.133648E+05,1.432221E+01,0.000000E+00,0.000000E+00,1.774630E-02,0.000000E+00,1.774630E-02,8.383068E+01,2.362839E+02,1.933613E-02,2.720210E+02,1.774630E-02,0.000000E+00,0.000000E+00,1.354834E-02,0.000000E+00,1.354834E-02,6.400018E+01,1.120183E+02,1.456263E-02,0.000000E+00,1.354834E-02,0.000000E+00,0.000000E+00
05:40:00,1.432221E+01,0.000000E+00,1.432221E+01,6.814037E+04,1.911887E+05,8.048561E+00,1.132273E+05,1.432221E+01,0.000000E+00,0.000000E+00,1.774630E-02,0.000000E+00,1.774630E-02,8.443104E+01,2.368972E+02,1.934244E-02,2.721099E+02,1.774630E-02,0.000000E+00,0.000000E+00,1.354834E-02,0.000000E+00,1.354834E-02,6.445852E+01,1.124865E+02,1.456665E-02,0.000000E+00,1.354834E-02,0.000000E+00,0.000000E+00
05:50:00,1.432221E+01,0.000000E+00,1.432221E+01,6.862489E+04,1.916834E+05,8.039030E+00,1.130932E+05,1.432221E+01,0.000000E+00,0.000000E+00,1.774630E-02,0.000000E+00,1.774630E-02,8.503140E+01,2.375101E+02,1.934859E-02,2.721964E+02,1.774630E-02,0.000000E+00,0.000000E+00,1.354834E-02,0.000000E+00,1.354834E-02,6.491686E+01,1.129545E+02,1.457058E-02,0.000000E+00,1.354834E-02,0.000000E+00,0.000000E+00
06:00:00,1.432221E+01,0.000000E+00,1.432221E+01,6.910942E+04,1.921781E+05,8.029722E+00,1.129623E+05,1.432221E+01,0.000000E+00,0.000000E+00,1.774630E-02,0.000000E+00,1.774630E-02,8.563176E+01,2.381231E+02,1.935457E-02,2.722805E+02,1.774630E-02,0.000000E+00,0.000000E+00,1.354834E-02,0.000000E+00,1.354834E-02,6.537521E+01,1.134225E+02,1.457439E-02,0.000000E+00,1.354834E-02,0.000000E+00,0.000000E+00
06:10:00,1.432221E+01,0.000000E+00,1.253198E+01,6.195480E+04,1.696719E+05,7.106320E+00,9.997185E+04,1.428413E+01,0.000000E+00,0.000000E+00,1.774630E-02,0.000000E+00,1.774630E-02,8.773303E+01,2.402692E+02,2.045830E-02,2.878077E+02,1.774630E-02,0.000000E+00,0.000000E+00,1.354834E-02,0.000000E+00,1.354834E-02,6.697941E+01,1.150609E+02,1.539147E-02,0.000000E+00,1.354834E-02,0.000000E+00,0.000000E+00
06:20:00,1.432221E+01,0.000000E+00,1.194050E+01,6.044452E+04,1.631076E+05,7.285897E+00,1.024981E+05,1.428413E+01,0.000000E+00,0.000000E+00,1.774630E-02,0.000000E+00,1.774630E-02,8.983429E+01,2.424149E+02,2.034619E-02,2.862306E+02,1.774630E-02,0.000000E+00,0.000000E+00,1.354834E-02,0.000000E+00,1.354834E-02,6.858361E+01,1.166990E+02,1.528954E-02,0.000000E+00,1.354834E-02,0.000000E+00,0.000000E+00
06:30:00,1.432221E+01,0.000000E+00,1.088684E+01,5.639980E+04,1.500309E+05,6.906192E+00,9.715644E+04,1.428413E+01,0.000000E+00,0.000000E+00,1.774630E-02,0.000000E+00,1.774630E-02,9.193556E+01,2.445607E+02,2.093752E-02,2.945495E+02,1.774630E-02,0.000000E+00,0.000000E+00,1.354834E-02,0.000000E+00,1.354834E-02,7.018781E+01,1.183372E+02,1.572914E-02,0.000000E+00,1.354834E-02,0.000000E+00,0.000000E+00
06:40:00,1.432221E+01,0.000000E+00,1.035994E+01,5.489685E+04,1.440225E+05,6.633349E+00,9.331808E+04,1.428413E+01,0.000000E+00,0.000000E+00,1.774630E-02,0.000000E+00,1.774630E-02,9.403683E+01,2.467067E+02,2.134827E-02,3.003278E+02,1.774630E-02,0.000000E+00,0.000000E+00,1.354834E-02,0.000000E+00,1.354834E-02,7.179201E+01,1.199756E+02,1.603033E-02,0.000000E+00,1.354834E-02,0.000000E+00,0.000000E+00
06:50:00,1.432221E+01,0.000000E+00,9.782784E+00,5.299687E+04,1.371819E+05,6.383853E+00,8.980818E+04,1.428413E+01,0.000000E+00,0.000000E+00,1.774630E-02,0.000000E+00,1.774630E-02,9.613809E+01,2.488525E+02,2.173093E-02,3.057112E+02,1.774630E-02,0.000000E+00,0.000000E+00,1.354834E-02,0.000000E+00,1.354834E-02,7.339622E+01,1.216138E+02,1.631082E-02,0.000000E+00,1.354834E-02,0.000000E+00,0.000000E+00
07:00:00,1.432221E+01,0.000000E+00,9.279491E+00,5.136909E+04,1.312463E+05,6.137137E+00,8.633737E+04,1.427328E+01,0.000000E+00,0.000000E+00,1.774630E-02,0.000000E+00,1.785200E-02,9.882450E+01,2.524933E+02,2.209615E-02,3.108491E+02,1.774630E-02,0.000000E+00,0.000000E+00,1.354834E-02,0.000000E+00,1.361577E-02,1.831316E+03,3.627569E+03,1.657841E-02,0.000000E+00,1.354834E-02,0.000000E+00,0.000000E+00
07:10:00,1.432221E+01,0.000000E+00,8.802372E+00,5.125905E+04,1.270831E+05,5.894960E+00,8.293042E+04,1.426913E+01,0.000000E+00,0.000000E+00,1.774630E-02,0.000000E+00,1.807159E-02,1.052367E+02,2.609063E+02,2.244676E-02,3.157815E+02,1.774630E-02,0.000000E+00,0.000000E+00,1.354834E-02,0.000000E+00,1.375587E-02,5.449153E+03,1.178616E+04,1.683521E-02,0.000000E+00,1.354834E-02,0.000000E+00,0.000000E+00
07:20:00,1.432221E+01,0.000000E+00,8.348281E+00,5.101534E+04,1.229788E+05,5.687979E+00,8.001860E+04,1.426320E+01,0.000000E+00,0.000000E+00,1.774630E-02,0.000000E+00,1.834453E-02,1.121012E+02,2.702338E+02,2.282358E-02,3.210827E+02,1.774630E-02,0.000000E+00,0.000000E+00,1.354834E-02,0.000000E+00,1.393000E-02,9.895652E+03,2.353223E+04,1.710749E-02,0.000000E+00,1.354834E-02,0.000000E+00,0.000000E+00
07:30:00,1.432221E+01,0.000000E+00,9.309100E+00,5.956369E+04,1.398664E+05,6.230002E+00,8.764379E+04,1.429482E+01,0.000000E+00,0.000000E+00,1.774630E-02,0.000000E+00,1.817363E-02,1.162828E+02,2.730532E+02,2.188271E-02,3.078464E+02,1.774630E-02,0.000000E+00,0.000000E+00,1.354834E-02,0.000000E+00,1.382097E-02,7.080536E+03,1.589574E+04,1.639541E-02,0.000000E+00,1.354834E-02,0.000000E+00,0.000000E+00
07:40:00,1.432221E+01,0.000000E+00,9.233212E+00,6.173320E+04,1.414377E+05,5.817660E+00,8.184296E+04,1.428815E+01,0.000000E+00,0.000000E+00,1.774630E-02,0.000000E+00,1.822371E-02,1.218436E+02,2.791574E+02,2.232834E-02,3.141155E+02,1.774630E-02,0.000000E+00,0.000000E+00,1.354834E-02,0.000000E+00,1.385292E-02,7.914401E+03,1.805166E+04,1.674096E-02,0.000000E+00,1.354834E-02,0.000000E+00,0.000000E+00
07:50:00,1.432221E+01,0.000000E+00,9.569479E+00,6.673325E+04,1.493990E+05,5.959824E+00,8.384292E+04,1.428131E+01,0.000000E+00,0.000000E+00,1.774630E-02,0.000000E+00,1.823045E-02,1.271310E+02,2.846143E+02,2.205252E-02,3.102353E+02,1.774630E-02,0.000000E+00,0.000000E+00,1.354834E-02,0.000000E+00,1.385722E-02,8.034709E+03,1.834922E+04,1.653263E-02,0.000000E+00,1.354834E-02,0.000000E+00,0.000000E+00
08:00:00,1.432221E+01,0.000000E+00,9.506093E+00,6.902477E+04,1.512012E+05,6.001837E+00,8.443397E+04,1.427433E+01,0.000000E+00,0.000000E+00,1.774630E-02,0.000000E+00,1.841150E-02,1.336879E+02,2.928481E+02,2.195464E-02,3.088583E+02,1.774630E-02,0.000000E+00,0.000000E+00,1.354834E-02,0.000000E+00,1.397273E-02,1.103604E+04,2.669866E+04,1.646028E-02,0.000000E+00,1.354834E-02,0.000000E+00,0.000000E+00
08:10:00,1.432221E+01,0.000000E+00,9.251882E+00,7.015235E+04,1.501944E+05,6.023101E+00,8.473311E+04,1.426722E+01,0.000000E+00,0.000000E+00,1.774630E-02,0.000000E+00,1.865252E-02,1.414327E+02,3.028038E+02,2.187808E-02,3.077812E+02,1.774630E-02,0.000000E+00,0.000000E+00,1.354834E-02,0.000000E+00,1.412649E-02,1.505343E+04,3.910077E+04,1.640362E-02,0.000000E+00,1.354834E-02,0.000000E+00,0.000000E+00
08:20:00,1.432221E+01,0.000000E+00,8.924715E+00,7.053990E+04,1.478126E+05,6.044033E+00,8.502757E+04,1.427086E+01,0.000000E+00,0.000000E+00,1.774630E-02,0.000000E+00,1.888936E-02,1.492993E+02,3.128487E+02,2.181278E-02,3.068627E+02,1.774630E-02,0.000000E+00,0.000000E+00,1.354834E-02,0.000000E+00,1.427759E-02,1.903695E+04,5.280784E+04,1.635529E-02,0.000000E+00,1.354834E-02,0.000000E+00,0.000000E+00
08:30:00,1.432221E+01,0.000000E+00,8.537143E+00,7.022030E+04,1.441956E+05,6.062743E+00,8.529080E+04,1.426772E+01,0.000000E+00,0.000000E+00,1.774630E-02,0.000000E+00,1.909962E-02,1.570995E+02,3.225999E+02,2.175638E-02,3.060692E+02,1.774630E-02,0.000000E+00,0.000000E+00,1.354834E-02,0.000000E+00,1.441174E-02,2.261100E+04,6.620259E+04,1.631352E-02,0.000000E+00,1.354834E-02,0.000000E+00,0.000000E+00
08:40:00,1.432221E+01,0.000000E+00,8.188139E+00,6.998121E+04,1.409885E+05,6.079544E+00,8.552715E+04,1.426627E+01,0.000000E+00,0.000000E+00,1.774630E-02,0.000000E+00,1.929401E-02,1.648993E+02,3.322164E+02,2.170690E-02,3.053731E+02,1.774630E-02,0.000000E+00,0.000000E+00,1.354834E-02,0.000000E+00,1.453576E-02,2.593928E+04,7.951161E+04,1.627688E-02,0.000000E+00,1.354834E-02,0.000000E+00,0.000000E+00
08:50:00,1.432221E+01,0.000000E+00,7.809071E+00,6.925119E+04,1.370247E+05,6.094847E+00,8.574243E+04,1.426529E+01,0.000000E+00,0.000000E+00,1.774630E-02,0.000000E+00,1.947460E-02,1.727016E+02,3.417182E+02,2.166288E-02,3.047539E+02,1.774630E-02,0.000000E+00,0.000000E+00,1.354834E-02,0.000000E+00,1.465097E-02,2.904970E+04,9.268787E+04,1.624428E-02,0.000000E+00,1.354834E-02,0.000000E+00,0.000000E+00
09:00:00,1.432221E+01,0.000000E+00,7.421741E+00,6.820159E+04,1.326643E+05,6.108944E+00,8.594074E+04,1.426446E+01,0.000000E+00,0.000000E+00,1.774630E-02,0.000000E+00,1.965704E-02,1.806370E+02,3.513715E+02,2.162325E-02,3.041963E+02,1.774630E-02,0.000000E+00,0.000000E+00,1.354834E-02,0.000000E+00,1.476736E-02,3.220438E+04,1.067405E+05,1.621492E-02,0.000000E+00,1.354834E-02,0.000000E+00,0.000000E+00
09:10:00,1.432221E+01,0.000000E+00,6.941201E+00,6.578169E+04,1.261132E+05,6.122052E+00,8.612515E+04,1.426376E+01,0.000000E+00,0.000000E+00,1.774630E-02,0.000000E+00,1.984379E-02,1.880593E+02,3.605374E+02,2.158723E-02,3.036896E+02,1.774630E-02,0.000000E+00,0.000000E+00,1.354834E-02,0.000000E+00,1.488650E-02,3.544344E+04,1.218730E+05,1.618823E-02,0.000000E+00,1.354834E-02,0.000000E+00,0.000000E+00
09:20:00,1.432221E+01,0.000000E+00,6.435794E+00,6.284261E+04,1.188208E+05,6.134342E+00,8.629805E+04,1.426316E+01,0.000000E+00,0.000000E+00,1.774630E-02,0.000000E+00,2.001495E-02,1.954369E+02,3.695257E+02,2.155422E-02,3.032252E+02,1.774630E-02,0.000000E+00,0.000000E+00,1.354834E-02,0.000000E+00,1.499570E-02,3.842525E+04,1.364630E+05,1.616376E-02,0.000000E+00,1.354834E-02,0.000000E+00,0.000000E+00
09:30:00,1.432221E+01,0.000000E+00,6.119462E+00,6.151346E+04,1.147777E+05,6.145978E+00,8.646174E+04,1.426264E+01,0.000000E+00,0.000000E+00,1.774630E-02,0.000000E+00,2.008454E-02,2.018919E+02,3.767091E+02,2.152368E-02,3.027955E+02,1.774630E-02,0.000000E+00,0.000000E+00,1.354834E-02,0.000000E+00,1.504010E-02,3.966189E+04,1.426244E+05,1.614113E-02,0.000000E+00,1.354834E-02,0.000000E+00,0.000000E+00
09:40:00,1.432221E+01,0.000000E+00,5.847444E+00,6.046058E+04,1.113930E+05,6.157070E+00,8.661779E+04,1.426219E+01,0.000000E+00,0.000000E+00,1.774630E-02,0.000000E+00,2.012797E-02,2.081164E+02,3.834351E+02,2.149520E-02,3.023948E+02,1.774630E-02,0.000000E+00,0.000000E+00,1.354834E-02,0.000000E+00,1.506781E-02,4.042925E+04,1.464729E+05,1.612002E-02,0.000000E+00,1.354834E-02,0.000000E+00,0.000000E+00
09:50:00,1.432221E+01,0.000000E+00,5.650760E+00,6.005186E+04,1.093058E+05,6.167675E+00,8.676698E+04,1.426180E+01,0.000000E+00,0.000000E+00,1.774630E-02,0.000000E+00,2.015095E-02,2.141485E+02,3.897910E+02,2.146852E-02,3.020196E+02,1.774630E-02,0.000000E+00,0.000000E+00,1.354834E-02,0.000000E+00,1.508247E-02,4.082855E+04,1.484491E+05,1.610025E-02,0.000000E+00,1.354834E-02,0.000000E+00,0.000000E+00
10:00:00,1.432221E+01,0.000000E+00,5.396046E+00,5.889662E+04,1.059636E+05,6.177830E+00,8.690983E+04,1.426146E+01,0.000000E+00,0.000000E+00,1.774630E-02,0.000000E+00,2.015366E-02,2.199727E+02,3.957629E+02,2.144350E-02,3.016676E+02,1.774630E-02,0.000000E+00,0.000000E+00,1.354834E-02,0.000000E+00,1.508420E-02,4.087915E+04,1.485964E+05,1.608172E-02,0.000000E+00,1.354834E-02,0.000000E+00,0.000000E+00
10:10:00,1.432221E+01,0.000000E+00,5.167516E+00,5.771340E+04,1.028150E+05,6.187588E+00,8.704711E+04,1.426115E+01,0.000000E+00,0.000000E+00,1.774630E-02,0.000000E+00,2.015339E-02,2.250831E+02,4.009799E+02,2.141992E-02,3.013358E+02,1.774630E-02,0.000000E+00,0.000000E+00,1.354834E-02,0.000000E+00,1.508403E-02,4.087784E+04,1.484682E+05,1.606424E-02,0.000000E+00,1.354834E-02,0.000000E+00,0.000000E+00
10:20:00,1.432221E+01,0.000000E+00,4.951501E+00,5.655717E+04,9.980022E+04,6.197021E+00,8.717981E+04,1.426087E+01,0.000000E+00,0.000000E+00,1.774630E-02,0.000000E+00,2.014308E-02,2.300789E+02,4.059949E+02,2.139753E-02,3.010209E+02,1.774630E-02,0.000000E+00,0.000000E+00,1.354834E-02,0.000000E+00,1.507745E-02,4.070375E+04,1.474439E+05,1.604766E-02,0.000000E+00,1.354834E-02,0.000000E+00,0.000000E+00
10:30:00,1.432221E+01,0.000000E+00,4.808739E+00,5.614662E+04,9.816899E+04,6.206170E+00,8.730852E+04,1.426062E+01,0.000000E+00,0.000000E+00,1.774630E-02,0.000000E+00,2.009048E-02,2.345755E+02,4.101412E+02,2.137620E-02,3.007208E+02,1.774630E-02,0.000000E+00,0.000000E+00,1.354834E-02,0.000000E+00,1.504389E-02,3.980190E+04,1.426872E+05,1.603187E-02,0.000000E+00,1.354834E-02,0.000000E+00,0.000000E+00
10:40:00,1.432221E+01,0.000000E+00,4.673906E+00,5.575821E+04,9.662766E+04,6.215040E+00,8.743331E+04,1.426039E+01,0.000000E+00,0.000000E+00,1.774630E-02,0.000000E+00,2.003238E-02,2.389799E+02,4.141466E+02,2.135585E-02,3.004346E+02,1.774630E-02,0.000000E+00,0.000000E+00,1.354834E-02,0.000000E+00,1.500683E-02,3.880620E+04,1.375254E+05,1.601680E-02,0.000000E+00,1.354834E-02,0.000000E+00,0.000000E+00
10:50:00,1.432221E+01,0.000000E+00,4.543257E+00,5.535235E+04,9.510406E+04,6.223643E+00,8.755434E+04,1.426017E+01,0.000000E+00,0.000000E+00,1.774630E-02,0.000000E+00,1.997783E-02,2.433980E+02,4.181961E+02,2.133642E-02,3.001612E+02,1.774630E-02,0.000000E+00,0.000000E+00,1.354834E-02,0.000000E+00,1.497202E-02,3.787210E+04,1.327479E+05,1.600241E-02,0.000000E+00,1.354834E-02,0.000000E+00,0.000000E+00
11:00:00,1.432221E+01,0.000000E+00,4.416473E+00,5.492827E+04,9.359463E+04,6.231995E+00,8.767183E+04,1.425996E+01,0.000000E+00,0.000000E+00,1.774630E-02,0.000000E+00,1.993088E-02,2.478830E+02,4.223786E+02,2.131783E-02,2.998996E+02,1.774630E-02,0.000000E+00,0.000000E+00,1.354834E-02,0.000000E+00,1.494207E-02,3.706933E+04,1.286827E+05,1.598865E-02,0.000000E+00,1.354834E-02,0.000000E+00,0.000000E+00
11:10:00,1.432221E+01,0.000000E+00,4.294039E+00,5.413188E+04,9.174182E+04,6.240133E+00,8.778631E+04,1.425976E+01,0.000000E+00,0.000000E+00,1.774630E-02,0.000000E+00,1.989438E-02,2.507942E+02,4.250419E+02,2.129997E-02,2.996484E+02,1.774630E-02,0.000000E+00,0.000000E+00,1.354834E-02,0.000000E+00,1.491878E-02,3.644508E+04,1.255388E+05,1.597544E-02,0.000000E+00,1.354834E-02,0.000000E+00,0.000000E+00
11:20:00,1.432221E+01,0.000000E+00,4.175646E+00,5.334570E+04,8.993379E+04,6.248093E+00,8.789830E+04,1.425957E+01,0.000000E+00,0.000000E+00,1.774630E-02,0.000000E+00,1.987125E-02,2.538640E+02,4.279810E+02,2.128271E-02,2.994055E+02,1.774630E-02,0.000000E+00,0.000000E+00,1.354834E-02,0.000000E+00,1.490403E-02,3.605068E+04,1.235389E+05,1.596266E-02,0.000000E+00,1.354834E-02,0.000000E+00,0.000000E+00
11:30:00,1.432221E+01,0.000000E+00,4.060636E+00,5.256326E+04,8.815832E+04,6.255862E+00,8.800760E+04,1.425938E+01,0.000000E+00,0.000000E+00,1.774630E-02,0.000000E+00,1.986433E-02,2.571355E+02,4.312638E+02,2.126606E-02,2.991713E+02,1.774630E-02,0.000000E+00,0.000000E+00,1.354834E-02,0.000000E+00,1.489961E-02,3.593411E+04,1.228953E+05,1.595035E-02,0.000000E+00,1.354834E-02,0.000000E+00,0.000000E+00
11:40:00,1.432221E+01,0.000000E+00,3.948822E+00,5.178382E+04,8.641303E+04,6.263435E+00,8.811414E+04,1.425920E+01,0.000000E+00,0.000000E+00,1.774630E-02,0.000000E+00,1.987570E-02,2.606447E+02,4.349447E+02,2.125002E-02,2.989458E+02,1.774630E-02,0.000000E+00,0.000000E+00,1.354834E-02,0.000000E+00,1.490686E-02,3.613146E+04,1.237735E+05,1.593849E-02,0.000000E+00,1.354834E-02,0.000000E+00,0.000000E+00
11:50:00,1.432221E+01,0.000000E+00,3.840066E+00,5.100718E+04,8.469657E+04,6.270818E+00,8.821800E+04,1.425902E+01,0.000000E+00,0.000000E+00,1.774630E-02,0.000000E+00,1.990625E-02,2.644125E+02,4.390525E+02,2.123458E-02,2.987285E+02,1.774630E-02,0.000000E+00,0.000000E+00,1.354834E-02,0.000000E+00,1.492635E-02,3.665796E+04,1.262577E+05,1.592706E-02,0.000000E+00,1.354834E-02,0.000000E+00,0.000000E+00
12:00:00,1.432221E+01,0.000000E+00,3.734265E+00,5.023349E+04,8.300820E+04,6.278037E+00,8.831955E+04,1.425884E+01,0.000000E+00,0.000000E+00,1.774630E-02,0.000000E+00,1.994407E-02,2.682885E+02,4.433326E+02,2.121965E-02,2.985185E+02,1.774630E-02,0.000000E+00,0.000000E+00,1.354834E-02,0.000000E+00,1.495048E-02,3.730952E+04,1.293778E+05,1.591602E-02,0.000000E+00,1.354834E-02,0.000000E+00,0.000000E+00
12:10:00,1.432221E+01,0.000000E+00,3.708869E+00,5.039375E+04,8.295628E+04,6.285104E+00,8.841897E+04,1.425866E+01,0.000000E+00,0.000000E+00,1.774630E-02,0.000000E+00,1.995768E-02,2.711722E+02,4.463935E+02,2.120521E-02,2.983153E+02,1.774630E-02,0.000000E+00,0.000000E+00,1.354834E-02,0.000000E+00,1.495917E-02,3.754505E+04,1.304763E+05,1.590534E-02,0.000000E+00,1.354834E-02,0.000000E+00,0.000000E+00
12:20:00,1.432221E+01,0.000000E+00,3.693977E+00,5.069128E+04,8.313380E+04,6.292011E+00,8.851613E+04,1.425849E+01,0.000000E+00,0.000000E+00,1.774630E-02,0.000000E+00,1.997337E-02,2.740882E+02,4.495052E+02,2.119125E-02,2.981189E+02,1.774630E-02,0.000000E+00,0.000000E+00,1.354834E-02,0.000000E+00,1.496918E-02,3.781636E+04,1.315736E+05,1.589503E-02,0.000000E+00,1.354834E-02,0.000000E+00,0.000000E+00
12:30:00,1.432221E+01,0.000000E+00,3.684518E+00,5.106007E+04,8.343017E+04,6.298755E+00,8.861101E+04,1.425832E+01,0.000000E+00,0.000000E+00,1.774630E-02,0.000000E+00,1.999641E-02,2.771103E+02,4.527876E+02,2.117776E-02,2.979292E+02,1.774630E-02,0.000000E+00,0.000000E+00,1.354834E-02,0.000000E+00,1.498388E-02,3.821409E+04,1.332285E+05,1.588506E-02,0.000000E+00,1.354834E-02,0.000000E+00,0.000000E+00
12:40:00,1.432221E+01,0.000000E+00,3.680228E+00,5.149863E+04,8.384175E+04,6.305340E+00,8.870365E+04,1.425815E+01,0.000000E+00,0.000000E+00,1.774630E-02,0.000000E+00,2.002895E-02,2.802716E+02,4.562929E+02,2.116474E-02,2.977459E+02,1.774630E-02,0.000000E+00,0.000000E+00,1.354834E-02,0.000000E+00,1.500464E-02,3.877519E+04,1.357275E+05,1.587544E-02,0.000000E+00,1.354834E-02,0.000000E+00,0.000000E+00
12:50:00,1.432221E+01,0.000000E+00,3.680797E+00,5.200468E+04,8.436350E+04,6.311788E+00,8.879436E+04,1.425797E+01,0.000000E+00,0.000000E+00,1.774630E-02,0.000000E+00,2.007320E-02,2.836071E+02,4.600756E+02,2.115212E-02,2.975684E+02,1.774630E-02,0.000000E+00,0.000000E+00,1.354834E-02,0.000000E+00,1.503286E-02,3.953785E+04,1.393085E+05,1.586612E-02,0.000000E+00,1.354834E-02,0.000000E+00,0.000000E+00
13:00:00,1.432221E+01,0.000000E+00,3.686000E+00,5.257699E+04,8.499220E+04,6.318107E+00,8.888326E+04,1.425780E+01,0.000000E+00,0.000000E+00,1.774630E-02,0.000000E+00,2.013112E-02,2.871496E+02,4.641856E+02,2.113988E-02,2.973962E+02,1.774630E-02,0.000000E+00,0.000000E+00,1.354834E-02,0.000000E+00,1.506982E-02,4.053640E+04,1.441676E+05,1.585708E-02,0.000000E+00,1.354834E-02,0.000000E+00,0.000000E+00
13:10:00,1.432221E+01,0.000000E+00,3.696225E+00,5.303544E+04,8.554728E+04,6.324289E+00,8.897023E+04,1.425763E+01,0.000000E+00,0.000000E+00,1.774630E-02,0.000000E+00,2.020403E-02,2.898985E+02,4.676123E+02,2.112802E-02,2.972295E+02,1.774630E-02,0.000000E+00,0.000000E+00,1.354834E-02,0.000000E+00,1.511634E-02,4.179327E+04,1.504515E+05,1.584833E-02,0.000000E+00,1.354834E-02,0.000000E+00,0.000000E+00
13:20:00,1.432221E+01,0.000000E+00,3.711770E+00,5.357241E+04,8.622771E+04,6.330333E+00,8.905525E+04,1.425747E+01,0.000000E+00,0.000000E+00,1.774630E-02,0.000000E+00,2.029383E-02,2.929033E+02,4.714437E+02,2.111655E-02,2.970681E+02,1.774630E-02,0.000000E+00,0.000000E+00,1.354834E-02,0.000000E+00,1.517363E-02,4.334246E+04,1.583873E+05,1.583986E-02,0.000000E+00,1.354834E-02,0.000000E+00,0.000000E+00
13:30:00,1.432221E+01,0.000000E+00,3.660978E+00,5.314896E+04,8.536404E+04,6.336241E+00,8.913836E+04,1.425730E+01,0.000000E+00,0.000000E+00,1.774630E-02,0.000000E+00,2.043527E-02,2.966730E+02,4.764948E+02,2.110545E-02,2.969119E+02,1.774630E-02,0.000000E+00,0.000000E+00,1.354834E-02,0.000000E+00,1.526386E-02,4.578550E+04,1.712985E+05,1.583167E-02,0.000000E+00,1.354834E-02,0.000000E+00,0.000000E+00
13:40:00,1.432221E+01,0.000000E+00,3.607271E+00,5.267435E+04,8.442337E+04,6.342029E+00,8.921980E+04,1.425713E+01,0.000000E+00,0.000000E+00,1.774630E-02,0.000000E+00,2.059325E-02,3.007082E+02,4.819576E+02,2.109468E-02,2.967604E+02,1.774630E-02,0.000000E+00,0.000000E+00,1.354834E-02,0.000000E+00,1.536465E-02,4.851924E+04,1.862135E+05,1.582372E-02,0.000000E+00,1.354834E-02,0.000000E+00,0.000000E+00
13:50:00,1.432221E+01,0.000000E+00,3.554777E+00,5.220846E+04,8.350191E+04,6.347708E+00,8.929968E+04,1.425696E+01,0.000000E+00,0.000000E+00,1.774630E-02,0.000000E+00,2.076223E-02,3.049316E+02,4.877059E+02,2.108422E-02,2.966133E+02,1.774630E-02,0.000000E+00,0.000000E+00,1.354834E-02,0.000000E+00,1.547246E-02,5.144893E+04,2.027261E+05,1.581600E-02,0.000000E+00,1.354834E-02,0.000000E+00,0.000000E+00
14:00:00,1.432221E+01,0.000000E+00,3.505677E+00,5.178384E+04,8.265142E+04,6.353267E+00,8.937789E+04,1.425679E+01,0.000000E+00,0.000000E+00,1.774630E-02,0.000000E+00,2.094179E-02,3.093399E+02,4.937329E+02,2.107408E-02,2.964706E+02,1.774630E-02,0.000000E+00,0.000000E+00,1.354834E-02,0.000000E+00,1.558701E-02,5.456848E+04,2.208963E+05,1.580853E-02,0.000000E+00,1.354834E-02,0.000000E+00,0.000000E+00
14:10:00,1.432221E+01,0.000000E+00,3.397234E+00,5.018197E+04,8.009470E+04,6.358707E+00,8.945442E+04,1.425662E+01,0.000000E+00,0.000000E+00,1.774630E-02,0.000000E+00,2.117150E-02,3.127332E+02,4.991488E+02,2.106425E-02,2.963323E+02,1.774630E-02,0.000000E+00,0.000000E+00,1.354834E-02,0.000000E+00,1.573357E-02,5.856742E+04,2.450793E+05,1.580128E-02,0.000000E+00,1.354834E-02,0.000000E+00,0.000000E+00
14:20:00,1.432221E+01,0.000000E+00,3.284615E+00,4.851844E+04,7.743956E+04,6.364028E+00,8.952928E+04,1.425645E+01,0.000000E+00,0.000000E+00,1.774630E-02,0.000000E+00,2.140579E-02,3.161940E+02,5.046726E+02,2.105473E-02,2.961983E+02,1.774630E-02,0.000000E+00,0.000000E+00,1.354834E-02,0.000000E+00,1.588304E-02,6.265670E+04,2.712146E+05,1.579426E-02,0.000000E+00,1.354834E-02,0.000000E+00,0.000000E+00
14:30:00,1.432221E+01,0.000000E+00,3.171813E+00,4.685218E+04,7.478008E+04,6.369246E+00,8.960269E+04,1.425629E+01,0.000000E+00,0.000000E+00,1.774630E-02,0.000000E+00,2.164022E-02,3.196568E+02,5.101996E+02,2.104548E-02,2.960682E+02,1.774630E-02,0.000000E+00,0.000000E+00,1.354834E-02,0.000000E+00,1.603261E-02,6.675877E+04,2.986398E+05,1.578744E-02,0.000000E+00,1.354834E-02,0.000000E+00,0.000000E+00
14:40:00,1.432221E+01,0.000000E+00,3.080777E+00,4.550745E+04,7.263377E+04,6.374368E+00,8.967474E+04,1.425612E+01,0.000000E+00,0.000000E+00,1.774630E-02,0.000000E+00,2.189862E-02,3.234738E+02,5.162918E+02,2.103649E-02,2.959418E+02,1.774630E-02,0.000000E+00,0.000000E+00,1.354834E-02,0.000000E+00,1.620343E-02,7.142598E+04,3.309312E+05,1.578082E-02,0.000000E+00,1.354834E-02,0.000000E+00,0.000000E+00
14:50:00,1.432221E+01,0.000000E+00,3.020802E+00,4.462154E+04,7.121978E+04,6.379386E+00,8.974533E+04,1.425595E+01,0.000000E+00,0.000000E+00,1.774630E-02,0.000000E+00,2.218960E-02,3.277719E+02,5.231519E+02,2.102776E-02,2.958190E+02,1.774630E-02,0.000000E+00,0.000000E+00,1.354834E-02,0.000000E+00,1.640343E-02,7.686269E+04,3.698742E+05,1.577439E-02,0.000000E+00,1.354834E-02,0.000000E+00,0.000000E+00
15:00:00,1.432221E+01,0.000000E+00,2.960013E+00,4.372360E+04,6.978659E+04,6.384299E+00,8.981445E+04,1.425578E+01,0.000000E+00,0.000000E+00,1.774630E-02,0.000000E+00,2.247102E-02,3.319289E+02,5.297868E+02,2.101930E-02,2.956999E+02,1.774630E-02,0.000000E+00,0.000000E+00,1.354834E-02,0.000000E+00,1.659677E-02,8.212638E+04,4.089815E+05,1.576815E-02,0.000000E+00,1.354834E-02,0.000000E+00,0.000000E+00
15:10:00,1.432221E+01,0.000000E+00,2.898921E+00,4.252696E+04,6.804573E+04,6.389110E+00,8.988212E+04,1.425562E+01,0.000000E+00,0.000000E+00,1.774630E-02,0.000000E+00,2.273890E-02,3.335781E+02,5.337453E+02,2.101109E-02,2.955845E+02,1.774630E-02,0.000000E+00,0.000000E+00,1.354834E-02,0.000000E+00,1.678073E-02,8.714083E+04,4.475009E+05,1.576211E-02,0.000000E+00,1.354834E-02,0.000000E+00,0.000000E+00
15:20:00,1.432221E+01,0.000000E+00,2.837674E+00,4.134048E+04,6.631389E+04,6.393829E+00,8.994851E+04,1.425545E+01,0.000000E+00,0.000000E+00,1.774630E-02,0.000000E+00,2.299130E-02,3.349474E+02,5.372862E+02,2.100312E-02,2.954723E+02,1.774630E-02,0.000000E+00,0.000000E+00,1.354834E-02,0.000000E+00,1.695404E-02,9.187093E+04,4.849423E+05,1.575624E-02,0.000000E+00,1.354834E-02,0.000000E+00,0.000000E+00
15:30:00,1.432221E+01,0.000000E+00,2.826497E+00,4.089078E+04,6.575969E+04,6.398464E+00,9.001372E+04,1.425529E+01,0.000000E+00,0.000000E+00,1.774630E-02,0.000000E+00,2.316793E-02,3.351692E+02,5.390120E+02,2.099536E-02,2.953631E+02,1.774630E-02,0.000000E+00,0.000000E+00,1.354834E-02,0.000000E+00,1.707283E-02,9.513066E+04,5.113814E+05,1.575053E-02,0.000000E+00,1.354834E-02,0.000000E+00,0.000000E+00
15:40:00,1.432221E+01,0.000000E+00,2.819454E+00,4.050275E+04,6.530356E+04,6.402982E+00,9.007728E+04,1.425512E+01,0.000000E+00,0.000000E+00,1.774630E-02,0.000000E+00,2.332097E-02,3.350164E+02,5.401551E+02,2.098789E-02,2.952580E+02,1.774630E-02,0.000000E+00,0.000000E+00,1.354834E-02,0.000000E+00,1.717523E-02,9.794648E+04,5.346129E+05,1.574503E-02,0.000000E+00,1.354834E-02,0.000000E+00,0.000000E+00
15:50:00,1.432221E+01,0.000000E+00,2.813918E+00,4.013763E+04,6.488362E+04,6.407418E+00,9.013968E+04,1.425496E+01,0.000000E+00,0.000000E+00,1.774630E-02,0.000000E+00,2.345334E-02,3.345377E+02,5.407897E+02,2.098061E-02,2.951556E+02,1.774630E-02,0.000000E+00,0.000000E+00,1.354834E-02,0.000000E+00,1.726346E-02,1.003767E+05,5.549495E+05,1.573968E-02,0.000000E+00,1.354834E-02,0.000000E+00,0.000000E+00
16:00:00,1.432221E+01,0.000000E+00,2.809774E+00,3.979337E+04,6.449682E+04,6.411747E+00,9.020058E+04,1.425479E+01,0.000000E+00,0.000000E+00,1.774630E-02,0.000000E+00,2.356446E-02,3.337311E+02,5.409091E+02,2.097359E-02,2.950568E+02,1.774630E-02,0.000000E+00,0.000000E+00,1.354834E-02,0.000000E+00,1.733716E-02,1.024104E+05,5.721719E+05,1.573451E-02,0.000000E+00,1.354834E-02,0.000000E+00,0.000000E+00
16:10:00,1.432221E+01,0.000000E+00,2.806978E+00,3.937391E+04,6.404461E+04,6.416007E+00,9.026052E+04,1.425463E+01,0.000000E+00,0.000000E+00,1.774630E-02,0.000000E+00,2.365309E-02,3.317856E+02,5.396740E+02,2.096673E-02,2.949604E+02,1.774630E-02,0.000000E+00,0.000000E+00,1.354834E-02,0.000000E+00,1.739554E-02,1.040243E+05,5.859732E+05,1.572947E-02,0.000000E+00,1.354834E-02,0.000000E+00,0.000000E+00
16:20:00,1.432221E+01,0.000000E+00,2.805419E+00,3.897242E+04,6.362131E+04,6.420178E+00,9.031919E+04,1.425447E+01,0.000000E+00,0.000000E+00,1.774630E-02,0.000000E+00,2.372049E-02,3.295212E+02,5.379335E+02,2.096010E-02,2.948671E+02,1.774630E-02,0.000000E+00,0.000000E+00,1.354834E-02,0.000000E+00,1.743942E-02,1.052410E+05,5.964595E+05,1.572459E-02,0.000000E+00,1.354834E-02,0.000000E+00,0.000000E+00
16:30:00,1.432221E+01,0.000000E+00,2.804692E+00,3.858278E+04,6.321713E+04,6.424254E+00,9.037654E+04,1.425431E+01,0.000000E+00,0.000000E+00,1.774630E-02,0.000000E+00,2.376711E-02,3.269526E+02,5.357054E+02,2.095368E-02,2.947768E+02,1.774630E-02,0.000000E+00,0.000000E+00,1.354834E-02,0.000000E+00,1.746921E-02,1.060706E+05,6.036560E+05,1.571988E-02,0.000000E+00,1.354834E-02,0.000000E+00,0.000000E+00
16:40:00,1.432221E+01,0.000000E+00,2.804725E+00,3.820370E+04,6.283023E+04,6.428244E+00,9.043266E+04,1.425415E+01,0.000000E+00,0.000000E+00,1.774630E-02,0.000000E+00,2.379192E-02,3.240743E+02,5.329763E+02,2.094747E-02,2.946894E+02,1.774630E-02,0.000000E+00,0.000000E+00,1.354834E-02,0.000000E+00,1.748427E-02,1.064948E+05,6.073652E+05,1.571531E-02,0.000000E+00,1.354834E-02,0.000000E+00,0.000000E+00
16:50:00,1.432221E+01,0.000000E+00,2.805467E+00,3.783417E+04,6.245907E+04,6.432148E+00,9.048759E+04,1.425399E+01,0.000000E+00,0.000000E+00,1.774630E-02,0.000000E+00,2.379445E-02,3.208889E+02,5.297439E+02,2.094144E-02,2.946047E+02,1.774630E-02,0.000000E+00,0.000000E+00,1.354834E-02,0.000000E+00,1.748432E-02,1.065053E+05,6.074959E+05,1.571089E-02,0.000000E+00,1.354834E-02,0.000000E+00,0.000000E+00
17:00:00,1.432221E+01,0.000000E+00,2.806868E+00,3.747323E+04,6.210232E+04,6.436004E+00,9.054184E+04,1.425384E+01,0.000000E+00,0.000000E+00,1.774630E-02,0.000000E+00,2.377436E-02,3.174008E+02,5.260107E+02,2.093553E-02,2.945215E+02,1.774630E-02,0.000000E+00,0.000000E+00,1.354834E-02,0.000000E+00,1.746914E-02,1.060960E+05,6.039951E+05,1.570655E-02,0.000000E+00,1.354834E-02,0.000000E+00,0.000000E+00
17:10:00,1.432221E+01,0.000000E+00,2.836450E+00,3.738838E+04,6.226676E+04,6.439779E+00,9.059494E+04,1.425368E+01,0.000000E+00,0.000000E+00,1.774630E-02,0.000000E+00,2.369839E-02,3.123779E+02,5.202354E+02,2.092981E-02,2.944410E+02,1.774630E-02,0.000000E+00,0.000000E+00,1.354834E-02,0.000000E+00,1.741448E-02,1.046101E+05,5.912352E+05,1.570235E-02,0.000000E+00,1.354834E-02,0.000000E+00,0.000000E+00
17:20:00,1.432221E+01,0.000000E+00,2.869187E+00,3.733457E+04,6.248969E+04,6.443495E+00,9.064722E+04,1.425352E+01,0.000000E+00,0.000000E+00,1.774630E-02,0.000000E+00,2.359457E-02,3.070185E+02,5.138800E+02,2.092422E-02,2.943623E+02,1.774630E-02,0.000000E+00,0.000000E+00,1.354834E-02,0.000000E+00,1.734089E-02,1.026043E+05,5.737000E+05,1.569824E-02,0.000000E+00,1.354834E-02,0.000000E+00,0.000000E+00
17:30:00,1.432221E+01,0.000000E+00,2.903472E+00,3.728957E+04,6.273477E+04,6.447125E+00,9.069829E+04,1.425337E+01,0.000000E+00,0.000000E+00,1.774630E-02,0.000000E+00,2.346530E-02,3.013671E+02,5.070102E+02,2.091881E-02,2.942863E+02,1.774630E-02,0.000000E+00,0.000000E+00,1.354834E-02,0.000000E+00,1.725017E-02,1.001269E+05,5.522923E+05,1.569428E-02,0.000000E+00,1.354834E-02,0.000000E+00,0.000000E+00
17:40:00,1.432221E+01,0.000000E+00,2.939169E+00,3.725087E+04,6.299825E+04,6.450699E+00,9.074857E+04,1.425321E+01,0.000000E+00,0.000000E+00,1.774630E-02,0.000000E+00,2.330879E-02,2.954144E+02,4.996016E+02,2.091354E-02,2.942121E+02,1.774630E-02,0.000000E+00,0.000000E+00,1.354834E-02,0.000000E+00,1.714121E-02,9.714815E+04,5.271648E+05,1.569040E-02,0.000000E+00,1.354834E-02,0.000000E+00,0.000000E+00
17:50:00,1.432221E+01,0.000000E+00,2.976109E+00,3.721563E+04,6.327584E+04,6.454224E+00,9.079815E+04,1.425305E+01,0.000000E+00,0.000000E+00,1.774630E-02,0.000000E+00,2.312649E-02,2.891921E+02,4.916985E+02,2.090837E-02,2.941394E+02,1.774630E-02,0.000000E+00,0.000000E+00,1.354834E-02,0.000000E+00,1.701496E-02,9.369533E+04,4.987807E+05,1.568662E-02,0.000000E+00,1.354834E-02,0.000000E+00,0.000000E+00
18:00:00,1.432221E+01,0.000000E+00,3.014262E+00,3.718286E+04,6.356624E+04,6.457696E+00,9.084699E+04,1.425290E+01,0.000000E+00,0.000000E+00,1.774630E-02,0.000000E+00,2.291884E-02,2.827186E+02,4.833238E+02,2.090334E-02,2.940686E+02,1.774630E-02,0.000000E+00,0.000000E+00,1.354834E-02,0.000000E+00,1.687174E-02,8.977827E+04,4.674122E+05,1.568292E-02,0.000000E+00,1.354834E-02,0.000000E+00,0.000000E+00
18:10:00,1.432221E+01,0.000000E+00,3.204837E+00,3.872057E+04,6.675468E+04,6.461111E+00,9.089504E+04,1.425274E+01,0.000000E+00,0.000000E+00,1.774630E-02,0.000000E+00,2.253421E-02,2.722564E+02,4.693729E+02,2.089843E-02,2.939996E+02,1.774630E-02,0.000000E+00,0.000000E+00,1.354834E-02,0.000000E+00,1.660296E-02,8.245625E+04,4.109415E+05,1.567933E-02,0.000000E+00,1.354834E-02,0.000000E+00,0.000000E+00
18:20:00,1.432221E+01,0.000000E+00,3.496612E+00,4.135859E+04,7.192600E+04,6.464468E+00,9.094226E+04,1.425258E+01,0.000000E+00,0.000000E+00,1.774630E-02,0.000000E+00,2.222354E-02,2.628643E+02,4.571426E+02,2.089366E-02,2.939324E+02,1.774630E-02,0.000000E+00,0.000000E+00,1.354834E-02,0.000000E+00,1.640475E-02,7.696928E+04,3.699855E+05,1.567583E-02,0.000000E+00,1.354834E-02,0.000000E+00,0.000000E+00
18:30:00,1.432221E+01,0.000000E+00,3.768108E+00,4.361383E+04,7.653421E+04,6.467768E+00,9.098869E+04,1.425243E+01,0.000000E+00,0.000000E+00,1.774630E-02,0.000000E+00,2.192638E-02,2.537861E+02,4.453477E+02,2.088902E-02,2.938672E+02,1.774630E-02,0.000000E+00,0.000000E+00,1.354834E-02,0.000000E+00,1.621517E-02,7.173630E+04,3.323943E+05,1.567243E-02,0.000000E+00,1.354834E-02,0.000000E+00,0.000000E+00
18:40:00,1.432221E+01,0.000000E+00,4.061225E+00,4.597606E+04,8.143526E+04,6.471019E+00,9.103443E+04,1.425227E+01,0.000000E+00,0.000000E+00,1.774630E-02,0.000000E+00,2.164034E-02,2.449846E+02,4.339298E+02,2.088450E-02,2.938036E+02,1.774630E-02,0.000000E+00,0.000000E+00,1.354834E-02,0.000000E+00,1.603268E-02,6.671399E+04,2.978843E+05,1.566911E-02,0.000000E+00,1.354834E-02,0.000000E+00,0.000000E+00
18:50:00,1.432221E+01,0.000000E+00,4.353774E+00,4.818326E+04,8.617313E+04,6.474223E+00,9.107951E+04,1.425212E+01,0.000000E+00,0.000000E+00,1.774630E-02,0.000000E+00,2.133760E-02,2.361434E+02,4.223296E+02,2.088010E-02,2.937416E+02,1.774630E-02,0.000000E+00,0.000000E+00,1.354834E-02,0.000000E+00,1.583954E-02,6.141521E+04,2.631927E+05,1.566589E-02,0.000000E+00,1.354834E-02,0.000000E+00,0.000000E+00
19:00:00,1.432221E+01,0.000000E+00,4.645682E+00,5.023508E+04,9.074687E+04,6.477375E+00,9.112384E+04,1.425196E+01,0.000000E+00,0.000000E+00,1.774630E-02,0.000000E+00,2.101899E-02,2.272843E+02,4.105764E+02,2.087581E-02,2.936813E+02,1.774630E-02,0.000000E+00,0.000000E+00,1.354834E-02,0.000000E+00,1.563627E-02,5.585781E+04,2.286741E+05,1.566275E-02,0.000000E+00,1.354834E-02,0.000000E+00,0.000000E+00
19:10:00,1.432221E+01,0.000000E+00,5.070406E+00,5.388431E+04,9.807970E+04,6.480474E+00,9.116744E+04,1.425181E+01,0.000000E+00,0.000000E+00,1.774630E-02,0.000000E+00,2.067822E-02,2.197520E+02,3.999904E+02,2.087164E-02,2.936226E+02,1.774630E-02,0.000000E+00,0.000000E+00,1.354834E-02,0.000000E+00,1.541886E-02,4.993759E+04,1.940137E+05,1.565969E-02,0.000000E+00,1.354834E-02,0.000000E+00,0.000000E+00
19:20:00,1.432221E+01,0.000000E+00,5.552583E+00,5.797536E+04,1.063515E+05,6.483519E+00,9.121028E+04,1.425166E+01,0.000000E+00,0.000000E+00,1.774630E-02,0.000000E+00,2.037979E-02,2.127885E+02,3.903447E+02,2.086759E-02,2.935656E+02,1.774630E-02,0.000000E+00,0.000000E+00,1.354834E-02,0.000000E+00,1.522847E-02,4.477241E+04,1.654968E+05,1.565673E-02,0.000000E+00,1.354834E-02,0.000000E+00,0.000000E+00
19:30:00,1.432221E+01,0.000000E+00,5.805667E+00,5.953761E+04,1.100957E+05,6.486517E+00,9.125246E+04,1.425150E+01,0.000000E+00,0.000000E+00,1.774630E-02,0.000000E+00,2.011404E-02,2.062712E+02,3.814322E+02,2.086364E-02,2.935101E+02,1.774630E-02,0.000000E+00,0.000000E+00,1.354834E-02,0.000000E+00,1.505892E-02,4.018876E+04,1.416467E+05,1.565384E-02,0.000000E+00,1.354834E-02,0.000000E+00,0.000000E+00
19:40:00,1.432221E+01,0.000000E+00,6.055046E+00,6.096837E+04,1.136741E+05,6.489471E+00,9.129401E+04,1.425135E+01,0.000000E+00,0.000000E+00,1.774630E-02,0.000000E+00,1.984439E-02,1.998135E+02,3.725476E+02,2.085979E-02,2.934560E+02,1.774630E-02,0.000000E+00,0.000000E+00,1.354834E-02,0.000000E+00,1.488689E-02,3.555409E+04,1.190255E+05,1.565102E-02,0.000000E+00,1.354834E-02,0.000000E+00,0.000000E+00
19:50:00,1.432221E+01,0.000000E+00,6.345219E+00,6.270949E+04,1.179158E+05,6.492377E+00,9.133489E+04,1.425120E+01,0.000000E+00,0.000000E+00,1.774630E-02,0.000000E+00,1.960260E-02,1.937316E+02,3.642832E+02,2.085605E-02,2.934033E+02,1.774630E-02,0.000000E+00,0.000000E+00,1.354834E-02,0.000000E+00,1.473263E-02,3.141228E+04,1.001141E+05,1.564829E-02,0.000000E+00,1.354834E-02,0.000000E+00,0.000000E+00
20:00:00,1.432221E+01,0.000000E+00,6.672579E+00,6.470324E+04,1.227313E+05,6.495234E+00,9.137509E+04,1.425105E+01,0.000000E+00,0.000000E+00,1.774630E-02,0.000000E+00,1.936970E-02,1.878258E+02,3.562743E+02,2.085241E-02,2.933521E+02,1.774630E-02,0.000000E+00,0.000000E+00,1.354834E-02,0.000000E+00,1.458405E-02,2.743584E+04,8.314293E+04,1.564562E-02,0.000000E+00,1.354834E-02,0.000000E+00,0.000000E+00
20:10:00,1.432221E+01,0.000000E+00,7.015067E+00,6.695635E+04,1.279400E+05,6.498043E+00,9.141459E+04,1.425090E+01,0.000000E+00,0.000000E+00,1.774630E-02,0.000000E+00,1.913878E-02,1.826729E+02,3.490509E+02,2.084887E-02,2.933023E+02,1.774630E-02,0.000000E+00,0.000000E+00,1.354834E-02,0.000000E+00,1.443672E-02,2.350673E+04,6.753461E+04,1.564304E-02,0.000000E+00,1.354834E-02,0.000000E+00,0.000000E+00
20:20:00,1.432221E+01,0.000000E+00,7.367838E+00,6.920178E+04,1.332282E+05,6.500807E+00,9.145349E+04,1.425075E+01,0.000000E+00,0.000000E+00,1.774630E-02,0.000000E+00,1.891737E-02,1.776798E+02,3.420715E+02,2.084542E-02,2.932538E+02,1.774630E-02,0.000000E+00,0.000000E+00,1.354834E-02,0.000000E+00,1.429546E-02,1.975217E+04,5.372002E+04,1.564052E-02,0.000000E+00,1.354834E-02,0.000000E+00,0.000000E+00
20:30:00,1.432221E+01,0.000000E+00,7.601005E+00,7.023464E+04,1.362627E+05,6.503531E+00,9.149181E+04,1.425060E+01,0.000000E+00,0.000000E+00,1.774630E-02,0.000000E+00,1.872349E-02,1.730083E+02,3.356547E+02,2.084206E-02,2.932065E+02,1.774630E-02,0.000000E+00,0.000000E+00,1.354834E-02,0.000000E+00,1.417177E-02,1.647465E+04,4.256086E+04,1.563806E-02,0.000000E+00,1.354834E-02,0.000000E+00,0.000000E+00
20:40:00,1.432221E+01,0.000000E+00,7.828414E+00,7.114417E+04,1.391222E+05,6.506212E+00,9.152952E+04,1.425045E+01,0.000000E+00,0.000000E+00,1.774630E-02,0.000000E+00,1.854681E-02,1.685523E+02,3.296036E+02,2.083879E-02,2.931605E+02,1.774630E-02,0.000000E+00,0.000000E+00,1.354834E-02,0.000000E+00,1.405905E-02,1.349654E+04,3.316588E+04,1.563567E-02,0.000000E+00,1.354834E-02,0.000000E+00,0.000000E+00
20:50:00,1.432221E+01,0.000000E+00,8.051981E+00,7.195013E+04,1.418434E+05,6.508850E+00,9.156663E+04,1.425030E+01,0.000000E+00,0.000000E+00,1.774630E-02,0.000000E+00,1.838920E-02,1.643205E+02,3.239435E+02,2.083561E-02,2.931157E+02,1.774630E-02,0.000000E+00,0.000000E+00,1.354834E-02,0.000000E+00,1.395850E-02,1.084697E+04,2.541729E+04,1.563335E-02,0.000000E+00,1.354834E-02,0.000000E+00,0.000000E+00
21:00:00,1.432221E+01,0.000000E+00,8.266971E+00,7.261269E+04,1.443454E+05,6.511444E+00,9.160313E+04,1.425015E+01,0.000000E+00,0.000000E+00,1.774630E-02,0.000000E+00,1.825175E-02,1.603136E+02,3.186844E+02,2.083251E-02,2.930722E+02,1.774630E-02,0.000000E+00,0.000000E+00,1.354834E-02,0.000000E+00,1.387080E-02,8.541497E+03,1.915237E+04,1.563109E-02,0.000000E+00,1.354834E-02,0.000000E+00,0.000000E+00
21:10:00,1.432221E+01,0.000000E+00,8.973295E+00,7.745060E+04,1.552829E+05,6.892230E+00,9.696004E+04,1.425910E+01,0.000000E+00,0.000000E+00,1.774630E-02,0.000000E+00,1.793337E-02,1.547871E+02,3.103371E+02,1.992341E-02,2.802830E+02,1.774630E-02,0.000000E+00,0.000000E+00,1.354834E-02,0.000000E+00,1.366769E-02,3.230645E+03,6.448857E+03,1.494828E-02,0.000000E+00,1.354834E-02,0.000000E+00,0.000000E+00
21:20:00,1.432221E+01,0.000000E+00,9.736482E+00,8.255560E+04,1.669760E+05,7.333402E+00,1.031664E+05,1.426806E+01,0.000000E+00,0.000000E+00,1.774630E-02,0.000000E+00,1.776541E-02,1.506329E+02,3.046683E+02,1.962670E-02,2.761088E+02,1.774630E-02,0.000000E+00,0.000000E+00,1.354834E-02,0.000000E+00,1.356053E-02,4.340724E+02,7.672230E+02,1.474800E-02,0.000000E+00,1.354834E-02,0.000000E+00,0.000000E+00
21:30:00,1.432221E+01,0.000000E+00,1.057215E+01,8.803180E+04,1.796638E+05,7.806242E+00,1.098184E+05,1.427704E+01,0.000000E+00,0.000000E+00,1.774630E-02,0.000000E+00,1.774630E-02,1.477692E+02,3.015815E+02,1.937748E-02,2.726028E+02,1.774630E-02,0.000000E+00,0.000000E+00,1.354834E-02,0.000000E+00,1.354834E-02,1.128138E+02,1.618695E+02,1.458901E-02,0.000000E+00,1.354834E-02,0.000000E+00,0.000000E+00
21:40:00,1.432221E+01,0.000000E+00,1.138515E+01,9.306820E+04,1.917097E+05,8.300714E+00,1.167746E+05,1.428604E+01,0.000000E+00,0.000000E+00,1.774630E-02,0.000000E+00,1.774630E-02,1.450676E+02,2.988223E+02,1.914553E-02,2.693397E+02,1.774630E-02,0.000000E+00,0.000000E+00,1.354834E-02,0.000000E+00,1.354834E-02,1.107512E+02,1.597630E+02,1.444102E-02,0.000000E+00,1.354834E-02,0.000000E+00,0.000000E+00
21:50:00,1.432221E+01,0.000000E+00,1.216407E+01,9.758365E+04,2.029342E+05,8.673962E+00,1.220255E+05,1.429505E+01,0.000000E+00,0.000000E+00,1.774630E-02,0.000000E+00,1.774630E-02,1.423659E+02,2.960631E+02,1.893996E-02,2.664478E+02,1.774630E-02,0.000000E+00,0.000000E+00,1.354834E-02,0.000000E+00,1.354834E-02,1.086887E+02,1.576565E+02,1.430988E-02,0.000000E+00,1.354834E-02,0.000000E+00,0.000000E+00
22:00:00,1.432221E+01,0.000000E+00,1.291170E+01,1.016157E+05,2.133994E+05,9.025865E+00,1.269761E+05,1.430409E+01,0.000000E+00,0.000000E+00,1.774630E-02,0.000000E+00,1.774630E-02,1.396643E+02,2.933038E+02,1.874121E-02,2.636517E+02,1.774630E-02,0.000000E+00,0.000000E+00,1.354834E-02,0.000000E+00,1.354834E-02,1.066261E+02,1.555499E+02,1.418307E-02,0.000000E+00,1.354834E-02,0.000000E+00,0.000000E+00
22:10:00,1.432221E+01,0.000000E+00,1.363040E+01,1.056581E+05,2.236297E+05,9.380582E+00,1.319662E+05,1.431314E+01,0.000000E+00,0.000000E+00,1.774630E-02,0.000000E+00,1.774630E-02,1.375630E+02,2.911579E+02,1.854849E-02,2.609405E+02,1.774630E-02,0.000000E+00,0.000000E+00,1.354834E-02,0.000000E+00,1.354834E-02,1.050219E+02,1.539117E+02,1.406012E-02,0.000000E+00,1.354834E-02,0.000000E+00,0.000000E+00
22:20:00,1.432221E+01,0.000000E+00,1.432221E+01,1.093249E+05,2.332482E+05,9.723018E+00,1.367836E+05,1.432221E+01,0.000000E+00,0.000000E+00,1.774630E-02,0.000000E+00,1.774630E-02,1.354618E+02,2.890120E+02,1.836107E-02,2.583039E+02,1.774630E-02,0.000000E+00,0.000000E+00,1.354834E-02,0.000000E+00,1.354834E-02,1.034177E+02,1.522734E+02,1.394055E-02,0.000000E+00,1.354834E-02,0.000000E+00,0.000000E+00
22:30:00,1.432221E+01,0.000000E+00,1.432221E+01,1.076291E+05,2.315161E+05,9.311148E+00,1.309894E+05,1.432221E+01,0.000000E+00,0.000000E+00,1.774630E-02,0.000000E+00,1.774630E-02,1.333605E+02,2.868659E+02,1.862739E-02,2.620505E+02,1.774630E-02,0.000000E+00,0.000000E+00,1.354834E-02,0.000000E+00,1.354834E-02,1.018135E+02,1.506349E+02,1.411046E-02,0.000000E+00,1.354834E-02,0.000000E+00,0.000000E+00
22:40:00,1.432221E+01,0.000000E+00,1.432221E+01,1.059332E+05,2.297843E+05,9.162906E+00,1.289039E+05,1.432221E+01,0.000000E+00,0.000000E+00,1.774630E-02,0.000000E+00,1.774630E-02,1.312592E+02,2.847200E+02,1.869489E-02,2.630002E+02,1.774630E-02,0.000000E+00,0.000000E+00,1.354834E-02,0.000000E+00,1.354834E-02,1.002093E+02,1.489966E+02,1.415353E-02,0.000000E+00,1.354834E-02,0.000000E+00,0.000000E+00
22:50:00,1.432221E+01,0.000000E+00,1.432221E+01,1.042374E+05,2.280524E+05,9.016775E+00,1.268482E+05,1.432221E+01,0.000000E+00,0.000000E+00,1.774630E-02,0.000000E+00,1.774630E-02,1.291580E+02,2.825741E+02,1.876763E-02,2.640234E+02,1.774630E-02,0.000000E+00,0.000000E+00,1.354834E-02,0.000000E+00,1.354834E-02,9.860511E+01,1.473584E+02,1.419993E-02,0.000000E+00,1.354834E-02,0.000000E+00,0.000000E+00
23:00:00,1.432221E+01,0.000000E+00,1.432221E+01,1.025416E+05,2.263206E+05,8.843824E+00,1.244151E+05,1.432221E+01,0.000000E+00,0.000000E+00,1.774630E-02,0.000000E+00,1.774630E-02,1.270567E+02,2.804282E+02,1.882658E-02,2.648526E+02,1.774630E-02,0.000000E+00,0.000000E+00,1.354834E-02,0.000000E+00,1.354834E-02,9.700090E+01,1.457201E+02,1.423754E-02,0.000000E+00,1.354834E-02,0.000000E+00,0.000000E+00
23:10:00,1.432221E+01,0.000000E+00,1.432221E+01,1.008457E+05,2.245885E+05,8.787421E+00,1.236216E+05,1.432221E+01,0.000000E+00,0.000000E+00,1.774630E-02,0.000000E+00,1.774630E-02,1.249554E+02,2.782821E+02,1.886227E-02,2.653547E+02,1.774630E-02,0.000000E+00,0.000000E+00,1.354834E-02,0.000000E+00,1.354834E-02,9.539670E+01,1.440817E+02,1.426031E-02,0.000000E+00,1.354834E-02,0.000000E+00,0.000000E+00
23:20:00,1.432221E+01,0.000000E+00,1.432221E+01,9.914990E+04,2.228567E+05,8.748019E+00,1.230673E+05,1.432221E+01,0.000000E+00,0.000000E+00,1.774630E-02,0.000000E+00,1.774630E-02,1.228542E+02,2.761362E+02,1.889404E-02,2.658017E+02,1.774630E-02,0.000000E+00,0.000000E+00,1.354834E-02,0.000000E+00,1.354834E-02,9.379250E+01,1.424434E+02,1.428058E-02,0.000000E+00,1.354834E-02,0.000000E+00,0.000000E+00
23:30:00,1.432221E+01,0.000000E+00,1.432221E+01,9.745407E+04,2.211249E+05,8.701732E+00,1.224161E+05,1.432221E+01,0.000000E+00,0.000000E+00,1.774630E-02,0.000000E+00,1.774630E-02,1.207529E+02,2.739904E+02,1.892247E-02,2.662017E+02,1.774630E-02,0.000000E+00,0.000000E+00,1.354834E-02,0.000000E+00,1.354834E-02,9.218830E+01,1.408052E+02,1.429872E-02,0.000000E+00,1.354834E-02,0.000000E+00,0.000000E+00
23:40:00,1.432221E+01,0.000000E+00,1.432221E+01,9.575823E+04,2.193929E+05,8.663885E+00,1.218837E+05,1.432221E+01,0.000000E+00,0.000000E+00,1.774630E-02,0.000000E+00,1.774630E-02,1.186516E+02,2.718442E+02,1.894812E-02,2.665626E+02,1.774630E-02,0.000000E+00,0.000000E+00,1.354834E-02,0.000000E+00,1.354834E-02,9.058410E+01,1.391667E+02,1.431508E-02,0.000000E+00,1.354834E-02,0.000000E+00,0.000000E+00
23:50:00,1.432221E+01,0.000000E+00,1.432221E+01,9.406240E+04,2.176611E+05,8.629618E+00,1.214016E+05,1.432221E+01,0.000000E+00,0.000000E+00,1.774630E-02,0.000000E+00,1.774630E-02,1.165504E+02,2.696984E+02,1.897148E-02,2.668911E+02,1.774630E-02,0.000000E+00,0.000000E+00,1.354834E-02,0.000000E+00,1.354834E-02,8.897989E+01,1.375285E+02,1.432998E-02,0.000000E+00,1.354834E-02,0.000000E+00,0.000000E+00
24:00:00,1.432221E+01,0.000000E+00,1.432221E+01,9.236657E+04,2.159292E+05,8.598188E+00,1.209595E+05,1.432221E+01,0.000000E+00,0.000000E+00,1.774630E-02,0.000000E+00,1.774630E-02,1.144491E+02,2.675526E+02,1.899288E-02,2.671922E+02,1.774630E-02,0.000000E+00,0.000000E+00,1.354834E-02,0.000000E+00,1.354834E-02,8.737569E+01,1.358903E+02,1.434364E-02,0.000000E+00,1.354834E-02,0.000000E+00,0.000000E+00
Coinc Peak   ,9.723018E+00,1.432221E+01,2.014852E+05,1.916247E+05,2.282358E-02,2.379445E-02,3.210827E+02,3.253279E+02,0.000000E+00,1.748432E-02,1.534715E+02,2.355427E+02
NonCoinc Peak,1.432221E+01,1.432221E+01,2.014852E+05,1.916247E+05,2.282358E-02,2.462174E-02,3.210827E+02,3.253279E+02,1.710749E-02,1.801445E-02,1.534715E+02,2.355427E+02
