"[299, 255]","[227, 248]","[287, 319]","[279, 328]","[230, 262]"
-0.60449195,-0.30664045,0.7265625,0.41503915,-0.54199195
-6.7148433,-5.8349614,-0.87890625,-0.39453113,-4.576173
-0.18261744,-1.443358,2.553711,1.7500001,-2.0234373
-0.91308594,-1.3720692,2.4169922,1.449219,-0.5283198
-2.807617,-2.9492216,-0.35546875,0.3964844,-1.5087903
-5.733398,-6.729496,-2.5615234,-0.38964847,-6.0615263
-4.435546,-4.8916035,-1.2470703,-0.6689454,-4.7929716
-8.917968,-7.8584003,-1.4658203,-0.8544921,-8.560551
-4.233398,-8.567385,1.4462891,1.0009767,-6.0869155
-2.0888672,-3.3125,1.9824219,1.8593751,-1.9384766
-0.124023534,-1.2167958,2.1835938,2.038086,-0.08300689
-1.0527343,-0.5419937,-0.40527344,-1.1875001,-0.022461599
-1.9462886,-0.44140884,-0.36523435,-1.8046877,-0.018556017
-3.6962886,-4.2558627,-1.8232422,-1.5605471,-1.9843764
-6.2802725,-3.6542983,-1.2255859,-0.12597659,-6.5039096
-5.99414,-8.318361,-0.6835938,-1.0498047,-7.7900414
-1.9121095,-5.8916016,0.446289,0.31835952,-4.6894536
-2.0761716,-2.3447275,0.27734375,0.3574219,-1.1669925
-2.427734,-2.4140673,-1.4628905,-2.8583987,-0.4638693
-2.054687,-1.6669959,-0.9111328,-2.1025393,0.11718592
-3.230468,-1.2451217,0.4902344,-1.8535159,0.5361306
-1.1201166,4.694335,-0.058593716,-1.7255862,4.100586
7.6376944,11.077153,7.169922,6.587891,7.641605
5.159179,10.845708,6.1171875,5.871094,6.7636743
1.5468751,5.6435556,3.0263672,1.8505859,3.4824226
5.814452,9.656258,5.048828,3.7158206,6.0898485
1.8124998,3.0605495,2.0273438,3.161133,1.8427747
-0.64355415,2.0312479,0.20214848,-1.9755862,1.953124
4.6005855,6.579103,5.166015,4.1923833,4.8574233
2.6708987,6.0957017,5.397461,3.0927734,5.561523
2.665039,8.47461,4.850586,3.415039,6.0966806
2.3017578,9.22266,5.0478516,3.2285156,5.9296894
3.7343743,5.529303,3.916992,3.744141,3.309574
-0.55273426,3.845704,1.9335938,-0.6103517,2.6386724
2.061524,7.954101,5.1347656,3.314453,6.1875
3.8525388,10.309572,5.4355464,4.553711,6.592775
3.352539,9.4003935,4.3320312,3.4013672,5.7353535
1.3505863,6.609375,2.379883,0.604492,4.068359
4.1357417,12.282232,5.448242,6.25293,7.035159
4.368164,11.8378935,4.696289,3.4003906,7.7568374
9.145507,16.898447,7.611328,7.083985,11.115239
4.446288,9.761724,5.006836,4.600586,6.0742216
3.3837888,8.667973,2.8457031,2.0507812,5.14551
1.3789067,5.4951153,3.2548828,1.345703,4.808593
4.9091797,12.121097,7.4609375,7.522461,8.084963
1.9013675,5.145507,5.1240234,3.2138672,4.7177734
4.1718745,7.6835995,4.772461,4.8593755,4.4580107
3.7558591,9.52051,6.911133,4.463867,6.5380874
4.21582,9.6709,6.4990234,4.2929688,6.213869
3.8398435,9.3623085,5.970703,5.543946,5.9921894
-0.5732417,2.3388655,1.3330078,-0.03808608,2.0361319
2.1396487,4.7314434,5.0527344,3.3310547,4.477538
1.928711,5.6210938,3.8955078,3.444336,3.975586
-0.8935539,1.8378861,2.727539,-0.18359405,3.3476539
1.5820312,1.2451185,2.4589844,0.8281251,1.0976572
1.6757812,6.2822294,2.961914,1.3837891,3.1406262
2.0078125,6.991212,4.227539,2.25,4.8818364
5.802734,10.500005,5.3867188,4.275391,6.7978544
5.8124995,11.649418,6.90625,6.192383,7.4560566
-1.4931636,1.3457011,-0.1005859,-1.1933596,1.395507
1.4072269,6.24414,1.9873048,0.49609363,3.588867
3.6181638,8.641606,3.5322266,2.9189456,4.948244
-1.6269526,1.6074214,-3.0869138,-2.966797,0.5605464
1.2197266,2.0781262,-0.85839844,-1.5947267,-0.5322266
-2.2138672,-4.735351,1.861328,1.4306643,-3.6328125
-0.01757818,0.5429691,1.4189452,0.76367193,0.17675808
2.3281252,7.413087,6.7089844,4.3339844,5.449219
4.9179683,6.2802744,6.805664,5.2177734,5.6035166
4.412109,6.169925,5.970703,5.4423833,4.346682
-0.43261725,-1.2988276,1.8564452,1.6816409,-0.507812
-4.3623037,-2.288088,-1.109375,-1.7011721,-0.4707042
0.7001954,3.435548,1.8037109,0.8271484,1.8593755
3.8144526,9.238287,4.200195,4.1865234,5.8125033
1.7099612,7.4472666,3.9179688,1.7353516,5.267579
5.71875,12.222659,7.661133,6.6367188,8.422853
6.385741,9.6367235,7.0166016,6.6201177,6.8955107
1.5937502,5.4023423,5.5078125,3.7519531,4.7656245
1.2802737,1.758786,3.2441406,0.45214826,2.8437486
-1.2705075,-1.1806669,-1.0576171,-1.7197267,0.008787594
-2.3896477,0.43847388,-0.66601557,-1.5263674,1.0878893
1.2226561,0.9160163,1.7011718,1.1503907,0.89062554
4.635742,11.517581,5.3115234,4.3867188,7.941408
4.9003906,11.392583,7.4746094,7.8994145,6.944339
4.258789,10.254886,6.3007812,4.915039,6.1582046
3.2919924,9.00879,5.892578,4.0117188,5.9345713
2.725586,8.056643,4.033203,4.3251953,4.75879
0.7333987,5.9423842,1.0126954,-0.02050794,2.8349612
2.5312498,5.781254,2.8466797,2.826172,3.3271503
-1.9667969,-2.0771475,1.1845703,0.76953137,-0.98828065
1.5820311,3.1152353,1.9335938,1.9414062,2.6757817
8.388671,14.407233,9.720703,9.291992,10.8779335
6.573241,9.735356,7.2822266,7.3261724,6.675784
5.2675776,10.070317,5.7695312,5.2470703,6.4287133
5.0439444,9.630864,5.140625,4.982422,6.0927763
-2.898437,-1.4062525,-2.0371091,-2.3144536,-0.73535305
1.643555,5.30957,0.06347661,-0.84375024,4.1240234
9.708983,13.587899,8.81543,8.572267,9.546881
-0.49316356,1.7890599,0.600586,-0.7890627,1.9746082
3.1933591,6.6123066,3.9072263,2.3007812,5.0488296
3.143554,2.7431684,3.8623047,3.4462895,1.8662137
-1.2783202,-2.4560554,0.8251953,0.9462892,-1.6757817
1.5263668,1.7089862,2.8798828,3.31543,1.2656262
2.6162105,2.5673857,2.6171875,3.7832036,2.5234394
2.6914058,3.3593786,2.9062498,3.5117192,2.544924
1.6787107,2.2421887,1.7958984,1.881836,2.091798
1.5283201,3.3398447,2.9511719,2.3486328,2.3388677
-1.9121088,-1.2802767,-0.8574218,-1.8769534,-0.23144718
-1.7783196,-0.57715255,0.44433597,-0.9121096,0.6904274
-0.13281213,1.7763659,0.8603516,0.4648436,1.9257808
2.510742,5.6562524,4.0703125,3.6865237,3.890627
2.520508,4.451171,4.301758,2.084961,4.1660156
3.783203,7.7548857,3.8271484,3.3496094,4.797853
5.227539,10.6084,6.2216797,5.647461,7.0527363
5.9248037,9.007815,6.5878906,5.6708984,6.0986342
5.793945,9.25879,7.2558594,5.5351562,6.951173
5.904297,7.8876963,8.030273,7.1474614,6.2265635
4.5332026,5.5898433,5.611328,3.7207034,4.71875
3.9140623,3.960936,6.5429688,3.7285156,4.65039
3.9296873,4.1738296,5.4902344,4.265625,4.19922
0.37499988,-0.26074138,2.4023438,2.1494143,-0.124023
-1.9208978,0.72460735,-0.3691406,-1.0000002,0.6416005
5.5302734,9.328127,6.3066406,5.6269536,6.1738296
6.128906,10.152346,6.43457,5.757813,7.701174
3.9755855,4.592776,5.131836,4.989258,3.543947
1.4472654,3.0400407,1.3134766,2.03125,2.5859387
1.8818356,6.371099,1.7636719,1.2773439,3.4257843
2.8544915,3.6328166,4.060547,3.7236333,2.6269555
0.61523426,0.71191514,0.27246094,0.8457032,0.99023503
-4.52539,-4.4462914,-3.7988281,-1.9794923,-4.4121118
-10.77246,-10.360354,-6.2587886,-1.0576172,-10.41602
-1.5361329,-1.4863263,1.1904296,1.3310549,-1.0644518
3.9082024,7.7353563,4.595703,4.8466797,5.5097685
3.374023,5.801763,3.6015625,3.0878909,3.5898468
1.6181636,1.631839,2.366211,2.0781252,1.4785178
0.042968653,2.8544943,1.2763672,0.9609376,1.9951186
1.2578124,2.496093,2.149414,0.6708984,2.3085935
0.57617205,2.6708977,1.5751953,0.19921865,2.46582
4.6767573,7.6357436,5.8710933,4.626953,5.2597666
2.4208982,2.9160151,2.8886719,1.6679688,3.0341797
-4.3261714,-4.1162133,-2.3525388,-2.3583987,-3.0166035
-2.6816401,2.9003894,-1.8955078,-1.7724612,1.7041006
1.7929685,3.531251,2.6054688,1.8945314,2.3857427
-1.5439451,-0.3076182,-0.06347654,-0.12500006,0.0029288374
-2.4550776,-0.8369155,-0.36523435,-1.3203127,-0.65136814
-5.3007803,-3.5664086,-3.0263672,-2.310547,-3.7851582
1.0800782,5.258789,1.3027344,1.4130858,4.257813
3.9111323,6.3681655,4.970703,4.5957036,4.6083994
-0.28027317,1.0839828,0.29589844,-0.24609388,1.3046865
-0.21679662,-0.25097758,0.9814453,0.4082031,0.57421845
-0.741211,-2.4609373,1.3945312,0.98828137,-0.98632777
-8.568358,-1.8105472,-7.225586,-1.8740236,-4.499026
1.513672,2.1699212,1.2480469,0.74804676,1.8466792
3.7363276,3.9550807,3.6855469,3.0634766,2.7675798
3.2080076,3.509766,3.600586,3.5078127,2.8369143
3.4902344,8.173828,3.9003906,2.8222656,5.9296875
5.6279297,11.886722,7.432617,6.0009766,8.632814
6.3505855,10.672855,7.004883,6.6767583,7.20801
0.3564455,0.4404284,0.9003906,0.18066399,-0.021485113
5.2773433,11.185551,4.0683594,3.0859377,6.5820336
6.779296,11.202154,7.6103516,6.9384766,8.648441
0.041015834,1.6757818,1.6738281,1.9072267,-0.29296875
2.818359,6.235356,1.3193359,1.388672,4.2578154
-0.48925784,3.179691,1.8437499,1.8457034,2.4169946
-0.14648454,-0.5341785,1.8828124,1.3339846,-0.27538952
1.3603512,0.36426044,2.1992188,1.645508,0.4375019
-3.1718748,-2.55957,-1.1699219,-1.4316406,-2.7099612
-3.0146482,-4.862305,-0.23046876,-0.47070307,-3.5175788
-2.0771484,-3.1289062,-0.13769533,0.08496108,-2.59668
-0.2919923,0.37793142,-0.19628906,-0.32812494,-0.2734367
1.604492,1.6621114,0.1142578,-0.1855468,1.4980485
2.005859,3.0693393,2.6220703,2.7021487,2.074221
4.405273,4.93848,4.6093745,4.8564453,3.534182
2.469726,-0.26660052,3.4980469,3.5839846,0.12500076
1.0332029,-2.9189453,1.671875,1.9472657,-1.0830075
-1.8164061,-3.5937505,-1.2587891,-0.4130859,-2.0214844
-6.0517573,-4.9511733,-5.4492188,-2.2714844,-5.608401
-9.05371,-6.092775,-5.316406,-3.206055,-6.445315
-7.265624,-2.3769538,-4.423828,-1.1142579,-5.619143
-1.0830075,-0.53711104,-3.4765623,-0.9062501,-0.034180682
3.7636716,4.9462914,3.959961,3.5976565,3.975588
0.7509765,2.2119145,2.580078,2.038086,1.0136719
1.5966798,3.6611316,2.2890627,0.15039048,3.4374995
3.9833984,5.8251953,5.294922,2.7500002,4.952149
5.6835933,6.9052744,7.627929,6.157227,6.8964868
5.805663,7.687505,6.631836,6.247071,5.683597
4.518554,6.1601605,4.482422,4.802735,4.4580107
3.0107417,4.5097685,3.1757812,3.3945315,2.8916035
3.2324216,6.8603535,4.3027344,3.6748047,4.4423842
4.887695,6.531253,5.595703,5.251953,4.799807
2.2119136,2.4121103,2.8339844,2.799805,2.3193367
0.14355499,3.7119129,1.3007812,-0.05468765,3.224609
3.1191401,4.212891,4.2021484,3.5312502,3.2031257
0.30273443,0.86035055,-1.8867188,-0.8583985,1.1328119
1.5195312,1.7773428,0.3642578,-0.5429688,2.2197263
0.77734375,2.2578118,-0.11132811,-0.15136729,2.2089841
5.2373037,5.93262,5.4902344,4.69336,4.99219
4.173827,5.2988305,3.4873047,3.1894534,3.8164082
0.20117174,1.0205091,-0.76269525,-0.74609375,0.36230558
0.6240233,0.3457034,1.8017577,0.8144532,0.2558597
-0.17968753,-0.3154297,0.8105469,0.13281251,-2.084962
-1.3212887,0.7187505,1.9257812,0.6621094,0.08593724
-1.1123044,0.6406259,0.9794922,0.23437501,-0.89648455
1.1777341,0.7636735,-0.83984375,0.61230475,0.55175894
1.6142575,0.37304944,0.22460936,2.0156252,1.1845728
3.083984,2.1709,3.182617,3.7851567,2.13965
4.273437,3.2001963,4.828125,4.608399,3.674806
4.8320303,4.422855,4.557617,5.049805,3.193362
3.7480462,2.9785173,3.5498047,4.1650395,1.968751
4.43164,3.5693374,3.78125,3.9628909,4.1523457
3.2363276,3.3886728,3.4384766,3.0830078,4.2578144
3.499023,4.073245,3.307617,3.5195315,3.0371115
3.4326167,1.3828132,3.1083984,3.7207034,1.8671886
2.955078,5.406253,2.7763672,1.4296876,3.944338
4.1123037,4.0517607,1.9531249,1.5947268,3.3710961
2.2949216,4.727542,2.5175781,2.1953127,3.281252
4.4775386,5.41309,3.0048826,3.4257815,4.27637
1.5634763,2.6865265,1.0693358,0.69140637,1.6855487
1.0673827,1.1015627,2.2558594,3.0576174,1.0117191
0.18847662,1.3701172,0.7060547,0.25000003,0.9072269
0.49609357,2.4638696,-1.2314452,0.08886722,1.585939
-0.5498045,-0.6738301,0.14453126,-0.3496094,-0.3115246
0.654297,2.5820305,1.6054688,0.59863275,2.791992
-1.0205075,0.48339617,0.36718753,-0.6718752,1.1074204
0.29296878,2.33789,0.45507812,-0.04785166,2.1318355
2.137695,4.7031255,2.3066406,1.1943359,3.2763674
2.3486328,4.9941406,1.5273438,0.102538966,3.1787112
2.790039,4.868165,4.397461,3.5869143,3.2138677
4.476562,7.233402,5.0,3.953125,5.462893
4.3798823,6.987307,4.870117,4.5781255,5.3759785
-0.7333984,-1.4931638,0.54296875,0.7490235,-0.80859363
0.5341797,0.5605456,1.0029297,0.33691403,1.0693352
2.5683591,5.8427744,2.5644531,1.5205078,4.249024
3.1240232,5.282227,4.165039,3.274414,4.361328
2.231445,5.5312514,2.678711,1.9345703,3.9335947
3.2724605,5.0507846,0.9375,1.2500001,3.4257836
0.9824216,1.656253,2.2001953,2.1572268,0.5927751
4.0449214,6.818362,3.1542969,2.9628906,4.3349624
4.077148,6.949221,4.9335933,4.1728516,5.203127
5.788085,7.8945346,6.5878906,5.7099614,6.767581
4.2978506,5.3017616,3.9902344,4.37793,3.5361354
2.9082026,2.2666037,3.0927732,3.6318362,1.6064469
0.91601545,2.0117183,1.5878906,0.8847657,1.8222653
-0.5439452,1.1132802,-0.15234374,-0.80664074,1.2128899
-0.015625048,1.5234381,1.2197266,0.13964847,-0.15234375
0.27929702,0.93945146,0.19628906,-0.40429696,0.7031239
2.0058594,4.621095,2.1689453,0.62597656,2.9453135
3.655273,5.0000033,3.4541016,3.7246096,3.7636743
3.3261714,3.9589872,-0.859375,0.38476565,2.9384785
2.4892573,1.4013681,1.1708984,1.8515627,2.0751963
2.1591794,3.4853525,2.6738281,2.1777346,2.56836
4.3281245,3.9550796,4.3339844,3.9951174,3.787111
3.9619136,3.688478,4.0966797,3.6406252,3.6943374
2.4951167,1.8984386,3.0136719,2.7714844,2.0019546
1.9570309,0.45312524,3.1757812,2.5751956,2.0761728
2.6044917,1.8544947,2.9580076,3.0615237,1.5341815
1.3173825,-0.55663973,1.7666016,2.4423828,-0.16796795
-3.1318355,-0.23925775,-0.11523435,-0.25878918,-1.941407
-2.791015,-0.1630875,-0.80664057,-1.1855471,0.035155028
0.4765625,3.4843757,2.0117188,1.0205078,3.0292976
4.613281,7.342777,4.8935547,4.6269536,5.2949243
2.84082,4.482424,3.9941406,3.5527346,3.317384
3.7138667,5.089845,5.1083984,4.8818364,3.9033215
3.3349605,2.8212914,3.140625,3.623047,2.302736
-1.599609,-0.3769523,1.2451172,0.5888672,-0.62988263
0.75976557,0.5595704,2.6972656,2.0605469,1.6220709
1.0654296,1.9277337,3.2646484,2.4453125,2.383789
1.3564453,3.9999998,3.665039,1.6708983,3.5166016
1.6835938,1.0468751,1.0869141,1.1396486,1.0625002
1.3408203,3.7041025,0.14843751,0.38574213,1.8750005
4.273437,4.3251987,5.040039,4.635742,3.9082053
1.6660155,5.94922,3.1689453,2.0673828,3.4394538
1.6757811,6.1816425,3.8173828,2.8808594,3.966798
1.8642577,4.3085947,4.1660156,2.8886719,3.1650398
0.82324225,2.6289053,3.1816406,1.2197266,2.570312
2.356445,2.5361345,3.7539062,3.4814456,1.8798839
0.60644513,-0.0429687,2.7841797,2.5683594,-0.36328137
1.8554684,-0.70019436,2.1855469,2.527344,0.3437509
2.0615232,3.347659,2.455078,2.8603518,2.5683613
4.8193355,7.443362,5.0664062,4.7197266,5.022463
5.017577,6.2929726,5.576172,5.7578125,4.634768
1.2499998,1.7197281,1.649414,1.8134767,1.5703136
-7.487304,-5.9345713,-3.6484375,-1.1738282,-5.1796894
-3.8222654,-5.359376,-1.2148438,-0.7138671,-4.2402353
-3.4140623,-1.3632815,-0.45410153,-0.37109378,-2.5263684
-3.7138667,-1.7500012,-0.26171872,-0.57617193,-1.7441416
-3.3457026,-2.416993,-1.3173828,-0.6416016,-1.9267585
-3.1708982,-3.7675788,-3.0546875,-0.93457043,-3.2382822
-3.6015623,-5.5820327,-3.5771484,-1.6582031,-5.154299
-2.3925781,-2.3056638,-2.5761719,-0.7363281,-1.751953
-2.2421873,-0.48437336,-2.8476562,-0.36132812,0.012696625
-5.293945,-4.9960947,-4.6972656,-1.5966797,-6.091799
-5.6796865,-5.3496118,-4.833008,-1.857422,-6.814456
-7.4970694,-3.7890637,-5.827148,-2.3417969,-5.9873075
-8.24121,-0.8574217,-5.3398438,-1.3291017,-5.967776
-3.5351555,0.07910139,-3.6611328,-1.3623049,-1.104493
0.5664062,1.0351552,0.7949219,-0.36914074,1.8496089
-0.51171845,0.6455058,0.7373047,-0.5332033,1.5927726
3.1308594,6.0849624,5.3466797,4.3437505,4.79297
1.5927732,1.5351572,2.584961,2.011719,1.5019538
-1.1083981,-0.11425884,0.13085939,-0.5166017,0.29101503
-2.7099602,-0.3681641,-1.2695312,-1.5664065,-0.71386766
0.9150392,2.2744126,1.8525391,0.054687385,2.5878901
-0.049804267,1.5273424,1.9179688,1.3027343,2.313476
0.7109373,0.40039292,1.8535156,1.0058595,0.55566555
1.9443359,7.883792,3.9999998,2.5830078,4.7421894
3.7900383,5.405278,4.154297,3.962891,3.7949247
0.90234345,1.9541048,2.5410154,2.629883,1.5312521
1.861328,7.383793,2.1142576,1.0869141,4.5332055
5.6660147,7.2002006,5.4960933,5.6669927,5.5253944
3.755859,6.660159,5.0791016,3.810547,4.626955
4.0986323,4.4345713,4.7841797,4.3779297,4.100587
1.0654296,1.2451184,3.1699219,2.8457034,0.9101569
-2.1933591,-1.6679692,-0.7070312,-0.9531251,-1.8564463
-3.9541008,-0.553711,-1.3085938,-1.589844,-0.2646487
-3.4345696,-0.41211,-1.3720702,-1.9404299,-0.8847665
-2.8271477,-0.7773445,-1.0380858,-1.5615236,-1.1044931
-2.577148,-1.2324225,-0.67578125,-1.7421877,-1.3671885
-4.541991,-0.72363406,-2.3076172,-2.518555,-0.5771493
1.8603514,3.4521496,1.8564453,1.5917969,2.2412117
-2.264648,-1.1601592,-0.9404297,-1.9550784,-0.2939468
-2.1142573,-0.44726777,-1.1923828,-1.3837893,0.3867177
-0.1679687,1.7978529,1.6484375,0.92968756,0.89453185
0.56054693,1.8046863,0.8144531,-0.31640637,1.3232416
1.3544918,2.0722687,2.2070312,2.3613284,1.586916
-3.3447263,-2.8847673,-1.0722656,-0.16308598,-2.5712903
-5.02832,-4.259769,-2.7011719,-1.8994143,-2.0761738
-2.9150386,-1.7304707,-0.41015625,-1.5556643,-0.50879
-4.311523,-0.9746099,-3.555664,-1.1718751,-4.1796894
-3.429687,-2.0263681,-3.506836,-2.0087893,-4.0722675
-0.97265613,-0.7402347,-0.19238281,0.46191412,0.10839834
-1.5175781,-3.29297,0.31738278,-0.37890616,-1.8603519
-2.213867,-1.7568365,1.3623047,1.1464845,-1.003907
-0.90234375,-1.958985,1.1435547,1.506836,-1.0839846
-0.48632818,-1.1708987,0.80371094,0.49121097,0.4335941
-0.4023436,2.857422,0.77441406,-1.076172,1.1396483
0.96582067,6.8535156,3.6328125,2.0664062,4.712891
1.9794923,6.3066406,2.9111328,0.10839831,4.8066406
1.0791019,5.291015,2.9033203,1.2705077,4.140625
4.188476,8.87012,5.3291016,4.1328125,5.4882827
2.5029297,7.8183613,4.8085938,3.0810547,5.181642
1.1074219,2.8115237,1.8984375,0.7802734,1.8134767
-3.2470694,-0.89355916,-0.7490234,-2.1982427,0.78808355
0.8691407,3.963868,2.2158203,1.1298828,2.1064456
-3.6230462,-2.1767614,-1.8447266,-1.9531254,-1.2050799
-5.330077,-3.465824,-2.4980469,-2.549805,-1.3769552
-0.36718708,2.4892573,-0.6220703,-1.8662112,1.4189451
0.5527345,1.9042964,2.1865234,1.5576172,0.6435542
-3.9531243,-2.503908,-1.9189452,-0.9990236,-2.3945324
-2.198242,-0.9824231,-1.4423828,-0.76269543,-0.96972746
-1.1738276,-0.091799855,-0.31738278,-1.4199221,0.63574076
-1.3632807,-0.18163936,1.65625,1.303711,0.61328244
1.6113279,1.382814,1.6982422,1.7832034,1.3378917
3.2392578,10.504886,5.1640625,4.095703,7.42383
5.0332026,11.894537,6.274414,7.1738286,6.993167
3.4765623,7.7343783,5.1083984,4.448242,4.463869
2.6806643,11.808597,2.4882812,1.4365233,8.085939
6.4414053,11.827157,6.2187495,6.210938,7.4736376
0.7988282,5.4433613,2.0839844,1.3095703,3.4462898
2.5507812,10.041995,4.770508,3.3398438,6.4804707
2.6669922,10.760745,6.411133,4.169922,6.5517592
