"[299, 255]","[227, 248]","[287, 319]","[279, 328]","[230, 262]"
999.0012,997.4963,1001.5081,1001.435,997.90625
998.40814,998.5144,1000.3956,1000.5825,998.58875
998.6831,996.0,998.95,998.66125,996.3075
990.115,987.3956,991.16437,990.735,987.72876
992.0469,989.1188,991.5625,991.27875,989.21
987.98065,986.1781,987.1194,986.7488,986.1794
975.9437,974.6175,973.925,973.78375,974.28
980.01373,979.8119,979.58813,979.5613,979.6969
989.41315,988.15314,988.84,988.6337,988.1669
981.41376,984.16876,983.10626,983.60126,984.3031
1000.09625,998.5606,997.405,997.0094,997.9956
995.15186,991.79315,991.2463,990.53314,990.9313
993.4412,991.92377,989.46313,988.8844,991.07623
999.49,999.2519,993.9231,993.14374,997.9419
998.60876,1000.1987,994.0037,993.72064,999.08563
1000.7438,1002.2606,1000.15375,1000.1856,1002.1131
1009.7587,1010.1362,1009.515,1009.47437,1009.96936
996.9462,995.7981,993.59937,993.0687,994.9325
998.67065,998.3038,996.7594,996.5112,998.02374
1008.3069,1008.6425,1005.71625,1005.32623,1008.0769
996.6406,993.10065,997.0081,996.7081,993.2925
999.3144,1002.48376,994.2644,994.1769,1001.3694
1020.02563,1017.67126,1017.90936,1017.29626,1017.03
1024.7007,1022.1669,1021.6863,1021.0131,1021.4363
1021.79626,1021.1331,1019.285,1018.7375,1020.33685
1018.6044,1016.91815,1014.87,1014.09186,1015.765
1009.14874,1009.0475,1006.9331,1006.54877,1008.5581
1019.20374,1020.8331,1017.22565,1017.2006,1020.39
1026.2,1026.1837,1025.0312,1024.7837,1025.8888
1020.98315,1021.97314,1017.3525,1016.95685,1021.1919
1019.40686,1022.0125,1015.8181,1015.65564,1021.0925
1029.5543,1031.7056,1028.9375,1028.8019,1031.3688
1029.9507,1030.1469,1028.5631,1028.1769,1029.6112
1023.3869,1022.8844,1021.8237,1021.59937,1022.60376
1024.8157,1025.0743,1024.3544,1024.2744,1025.0413
1028.7206,1028.4944,1028.7987,1028.6743,1028.4387
1019.39185,1018.0513,1017.29315,1016.90875,1017.5075
1025.7993,1026.9207,1024.1694,1024.025,1026.5138
1022.77313,1022.46185,1019.71124,1019.3769,1021.66437
1020.4363,1021.3787,1017.9331,1017.78186,1020.6919
997.63,999.1887,995.66437,995.7512,998.2519
1004.89813,1007.60626,1000.94,1000.5563,1006.6831
1004.6756,1007.6856,1002.5012,1002.5875,1006.915
1016.845,1019.03815,1015.3769,1015.4387,1018.53375
1020.78815,1020.8375,1020.91376,1020.8931,1020.84
1015.0206,1013.6406,1014.97876,1014.73376,1013.645
994.7644,993.65814,993.26,993.0106,993.2294
987.48065,988.23126,987.35315,987.64,988.0756
999.41,1001.525,999.18,999.3113,1001.29126
1008.51,1009.1856,1006.2706,1006.0694,1008.65063
1011.65125,1012.72626,1010.5694,1010.47687,1012.54877
1022.09564,1021.52,1021.2619,1021.1225,1021.54565
1012.96686,1009.9125,1014.765,1014.3181,1010.3006
1003.0737,1000.4275,1004.0556,1003.6319,1000.6937
1005.52435,1004.4875,1004.8975,1004.645,1004.26
1013.5687,1014.4325,1013.66125,1013.6156,1014.13
1015.36127,1011.83563,1015.29315,1014.4675,1011.775
1012.4369,1010.6844,1012.52124,1012.15936,1010.645
1003.16125,1000.8781,1002.66565,1001.90186,1000.35376
1001.9294,1001.9925,1002.46,1002.3106,1001.6625
1016.66125,1014.91815,1017.09,1016.52435,1014.7619
998.9725,995.3206,998.0656,997.2356,994.9231
998.1356,995.64185,996.5563,996.1312,995.4
1000.885,997.64124,1001.6325,1001.5056,997.95624
1004.7994,1003.6925,1005.6275,1005.6213,1003.8425
1009.71686,1009.1106,1010.4487,1010.3925,1009.1925
1016.65936,1015.5444,1018.1156,1018.12,1015.8106
1026.445,1025.0369,1027.1869,1027.2262,1025.3419
1030.3013,1029.0906,1030.575,1030.66,1029.4293
1030.58,1030.9219,1031.4237,1031.5581,1031.0813
1032.2262,1033.3213,1032.8219,1032.9844,1033.3862
1033.7418,1034.6719,1035.625,1035.9257,1034.87
1033.8768,1033.6262,1035.4293,1035.4888,1033.6731
1025.2426,1024.0743,1027.2119,1027.0775,1024.1294
1010.21313,1005.3806,1012.5569,1011.52313,1006.0619
1011.2075,1011.09436,1012.53937,1012.3694,1011.1375
1009.7175,1007.5444,1009.9869,1009.41437,1007.555
1003.3575,1000.8894,1001.41,1000.8875,1000.5375
999.6794,995.71875,997.9356,997.325,995.53937
1002.3956,1001.90375,1000.3025,999.9494,1001.53
1015.2581,1013.9956,1012.9906,1012.5725,1013.645
1018.3719,1016.21686,1016.60065,1016.17126,1015.9256
1011.16,1009.16,1006.5737,1005.8169,1008.11127
1018.39685,1018.6838,1016.14374,1015.92065,1018.2488
1029.4069,1028.4694,1026.0194,1025.6637,1027.7043
1011.3837,1006.7656,1006.3125,1005.27313,1005.5875
1006.6069,1006.32935,1002.84625,1002.4431,1005.6344
1014.89374,1012.91815,1011.41815,1010.85065,1012.33563
1005.1931,1004.91565,1000.96814,1000.41064,1003.9963
1001.6044,999.9725,997.6213,997.03625,999.16565
994.53436,995.0694,990.36127,989.9256,994.2294
1004.8862,1005.4306,1003.8625,1003.78125,1005.1869
1018.6825,1020.6425,1019.2519,1019.5581,1020.71625
1026.5769,1024.9968,1025.8644,1025.4982,1024.85
1022.0106,1019.1269,1020.2475,1019.52,1018.5619
1015.895,1015.9306,1014.7581,1014.6169,1015.6219
1020.02625,1019.2075,1017.70624,1017.3325,1018.7319
1024.3868,1023.59,1023.09625,1022.8162,1023.2656
1034.4888,1034.4543,1034.0244,1033.6781,1034.1869
1038.8688,1037.7312,1039.4163,1039.1781,1037.74
1035.4407,1035.0593,1038.2163,1037.9744,1035.2488
1030.1226,1030.055,1032.4619,1032.445,1030.2919
1021.2525,1020.41187,1023.07,1023.0275,1021.035
1008.78564,1010.5637,1009.4444,1009.5481,1010.53064
1002.96375,1002.53625,999.38873,999.0613,1001.75
998.0112,999.62,994.45374,994.2494,998.89185
997.9938,999.35626,997.47314,997.5756,999.1881
1001.83124,1002.4075,1001.0581,1001.10565,1002.34937
1002.83374,1003.075,1001.5081,1001.47687,1002.9775
1000.5725,999.91125,1002.0094,1002.0175,1000.20123
999.4925,1001.0825,999.5687,999.6244,1000.85315
1015.9525,1017.3244,1013.0156,1012.90686,1016.68
1013.6981,1012.11127,1010.9994,1010.5569,1011.395
1010.77875,1009.40375,1009.14374,1008.72064,1009.045
1007.91876,1007.365,1004.8269,1004.5644,1006.6969
1004.45874,1003.46185,1002.72,1002.4506,1003.0875
1003.9825,1003.1937,1000.715,1000.3244,1002.40186
1004.4894,1003.48,1001.90686,1001.70123,1003.0325
996.28436,995.91,995.65,995.7319,995.70123
995.32935,997.9944,996.1575,996.535,997.96063
1008.6213,1009.97565,1007.3694,1007.40063,1009.8269
1012.64,1013.5119,1011.8187,1011.8831,1013.3869
1007.1156,1006.1625,1008.02435,1008.0112,1006.5006
1000.39874,1001.8206,1003.6931,1004.01,1002.1475
1000.8975,1002.59314,1002.3931,1002.65375,1002.66064
1006.3325,1006.34,1006.32,1006.33936,1006.1887
1001.0706,1000.46375,1003.9462,1004.09625,1001.1156
1012.16,1012.0031,1012.6325,1012.63873,1012.1744
1008.73376,1007.8006,1010.40063,1010.59564,1008.475
1006.77625,1007.8069,1008.0662,1008.3619,1008.1362
1015.9944,1015.3631,1016.77185,1016.8844,1015.2594
1015.97437,1013.3256,1017.71436,1017.7619,1013.91187
1016.54315,1015.53625,1017.5581,1017.4994,1015.5119
1020.68,1022.16125,1021.64685,1021.6756,1021.83
1034.21,1035.0238,1034.7769,1034.8331,1035.0906
1040.6613,1040.3431,1041.4543,1041.2831,1040.5681
1041.1125,1040.8225,1041.8538,1041.725,1040.9
1035.7668,1036.2625,1036.1038,1036.1006,1036.2831
1025.5394,1027.1931,1025.5238,1025.5994,1027.2163
1017.90564,1020.08685,1017.4313,1017.51,1019.76874
999.1375,1000.53375,997.4944,997.64374,999.84064
1010.98315,1013.27313,1011.14813,1011.4269,1013.4225
1023.73376,1024.9625,1022.6775,1022.66626,1024.7812
1024.9457,1023.7675,1023.1906,1022.77563,1023.22375
1017.02875,1015.13873,1015.10187,1014.6331,1014.6356
1008.1281,1007.305,1006.9925,1006.7481,1006.98126
1011.1225,1011.86,1009.58374,1009.4288,1011.6981
1017.3925,1019.5563,1015.15186,1015.1181,1019.16815
1022.4469,1022.17,1021.70374,1021.58624,1022.0731
1017.39874,1015.55,1015.8256,1015.22687,1015.0106
1013.83435,1013.0531,1012.3131,1011.9988,1012.7056
1014.77185,1015.40375,1013.6987,1013.6431,1015.10626
1019.70685,1020.71313,1018.6756,1018.59375,1020.3525
1013.6394,1015.2625,1011.5769,1011.54065,1014.65814
1017.8719,1020.08685,1019.3681,1019.65936,1020.3181
1024.6294,1026.3475,1026.0413,1026.3375,1026.52
1018.97437,1021.045,1020.2419,1020.4675,1021.04877
1018.27313,1019.95685,1018.6987,1018.7562,1019.7406
1012.1731,1012.9519,1011.8162,1011.8081,1012.7388
1009.5712,1009.08813,1010.0769,1010.135,1009.3756
1014.83374,1015.7419,1018.64,1018.92065,1016.49
1018.9956,1020.3669,1021.4381,1021.63873,1020.71313
1018.66,1019.28064,1018.09064,1018.0125,1019.0206
1011.76,1010.7406,1010.8569,1010.45123,1010.26624
1000.59814,999.3031,999.8375,999.55,999.0669
1001.14813,1000.055,1002.4944,1002.4844,1000.4869
1000.8031,1000.5069,1001.3044,1001.4975,1000.53375
998.2587,997.59,997.79126,997.6969,997.2981
1004.3175,1003.34875,1002.73315,1002.39874,1002.9506
1008.1181,1006.11,1007.4925,1007.21625,1006.0506
1004.0681,1001.9519,1002.8325,1002.52,1001.6975
1011.1794,1009.1269,1009.3719,1009.0175,1008.96185
1013.1981,1011.9975,1013.45374,1013.3862,1012.15186
1010.7531,1013.84937,1013.0325,1013.58685,1013.7581
1011.78876,1014.3325,1011.7081,1011.9219,1014.0469
1009.52625,1008.3731,1007.60376,1007.2488,1008.0525
1005.34125,1004.52435,1004.5544,1004.3019,1004.2481
1007.7275,1007.16815,1007.0025,1006.78564,1006.9856
1011.34625,1012.7025,1011.6231,1011.6894,1012.66064
1016.5025,1019.2525,1016.39374,1016.59875,1018.97626
1019.40063,1023.0031,1018.635,1018.8019,1022.5019
1021.925,1024.2456,1021.445,1021.4387,1023.8575
1021.54126,1021.775,1020.96063,1020.78687,1021.4025
1017.40564,1017.87,1016.3663,1016.15,1017.40063
1016.315,1015.33435,1014.4775,1014.08,1014.8619
1015.2425,1014.2381,1014.09564,1013.915,1014.0538
1014.3106,1014.85126,1014.155,1014.21313,1014.6962
1023.47186,1024.4493,1024.1488,1024.0569,1024.46
1029.0024,1029.7219,1028.6763,1028.7125,1029.725
1030.5413,1030.5188,1030.8818,1030.7919,1030.675
1030.8618,1030.3269,1031.265,1031.2025,1030.5681
1028.7931,1028.0944,1030.1075,1029.8962,1028.3862
1022.35,1022.02313,1023.3269,1023.2419,1022.29626
1017.1694,1015.8194,1017.59064,1017.46185,1015.8281
1014.4919,1015.2081,1015.53436,1015.4931,1015.06
1018.4363,1018.14813,1017.7512,1017.4425,1017.7494
1017.01,1016.29065,1015.8869,1015.46313,1015.9944
1014.615,1014.59686,1014.1863,1013.9394,1014.20435
1013.58624,1014.3744,1012.4381,1012.28564,1013.8719
1014.175,1014.5588,1013.375,1013.3869,1014.40186
1011.0613,1012.40375,1009.7975,1009.7656,1012.10815
1014.7562,1016.40314,1013.545,1013.4931,1016.09875
1018.2619,1018.5069,1018.605,1018.5125,1018.77563
1022.46185,1021.7506,1022.4275,1022.3756,1021.76874
1019.28064,1017.8875,1018.815,1018.6525,1017.9356
1018.23376,1017.4531,1018.46436,1018.4175,1017.6525
1020.9456,1021.15564,1020.3775,1020.3019,1020.91064
1021.9444,1023.14813,1021.3063,1021.3925,1022.84814
1021.7494,1022.29626,1020.93,1020.5506,1021.72064
1019.9263,1020.4363,1018.1131,1017.71063,1019.6625
1017.1937,1018.52185,1016.40125,1016.4394,1018.1119
1017.34937,1017.8169,1016.64,1016.2675,1017.17
1015.635,1016.145,1014.7525,1014.5025,1015.7325
1015.4856,1016.03625,1015.4294,1015.3594,1016.0006
1021.0506,1022.29126,1021.41815,1021.56,1022.4487
1028.6725,1030.3682,1028.2931,1028.3582,1030.1831
1027.4169,1028.7812,1026.5507,1026.3193,1028.2362
1024.8538,1025.7837,1024.8263,1024.6394,1025.2931
1021.875,1022.0563,1022.64374,1022.58563,1022.1475
1013.21564,1012.66064,1015.1163,1015.06,1013.13
1014.16815,1014.9969,1015.69,1015.91125,1015.2994
1020.32623,1019.1131,1021.60187,1021.4231,1019.1863
1018.53314,1016.8681,1018.8819,1018.7081,1017.0087
1012.27936,1011.2519,1013.7175,1013.5519,1011.2406
1008.5656,1008.9375,1009.465,1009.5181,1008.79315
1012.97,1012.71,1013.33685,1013.3775,1013.03314
1014.35126,1014.7656,1014.3525,1014.23126,1014.92126
1015.72565,1017.02563,1015.51,1015.48376,1016.84564
1016.035,1017.47,1015.3081,1015.35126,1017.0925
1018.4888,1019.8013,1017.8631,1017.86127,1019.46686
1020.95624,1021.16437,1020.48,1020.4294,1020.9988
1018.4494,1017.96185,1017.90936,1017.6425,1017.7031
1012.3694,1011.7825,1011.4344,1011.0675,1011.14935
1011.26373,1011.70685,1010.09686,1010.04376,1011.4425
1020.8725,1021.9363,1020.6956,1020.8119,1021.8656
1026.1925,1026.875,1026.8087,1026.8519,1026.9531
1026.2612,1026.7206,1026.5757,1026.5557,1026.7081
1023.6231,1024.0725,1023.89185,1023.815,1023.96936
1019.7725,1020.28314,1019.8756,1019.86,1020.415
1019.46875,1020.84064,1019.08685,1019.13,1020.7919
1023.3744,1024.9968,1023.1881,1023.26,1024.9006
1025.9106,1028.1975,1025.855,1025.9257,1027.855
1026.4337,1028.3832,1026.4587,1026.51,1028.2388
1024.6863,1025.7538,1024.63,1024.6156,1025.6544
1020.6206,1020.90436,1020.8019,1020.83875,1020.9869
1018.8688,1017.9412,1019.4381,1019.39685,1018.3244
1018.1875,1016.98,1019.6887,1019.5069,1017.4519
1016.10815,1015.1287,1019.0081,1018.9506,1016.0781
1014.48126,1014.09436,1016.3281,1016.2481,1014.23065
1014.6475,1016.27686,1014.77374,1014.90314,1015.9844
1014.8812,1016.91876,1015.6194,1015.8956,1016.6794
1017.0594,1018.2125,1017.6225,1017.7388,1018.23376
1018.6362,1020.35187,1018.45624,1018.59125,1020.16565
1018.3669,1020.31,1018.2631,1018.325,1020.0156
1017.7531,1019.6925,1017.6131,1017.78064,1019.58435
1020.0206,1021.9381,1019.60187,1019.785,1021.705
1024.1881,1024.4926,1024.0294,1024.01,1024.13
1023.2569,1024.2119,1022.46875,1022.34186,1023.84
1022.90375,1024.1418,1021.20624,1021.05,1023.4981
1022.51373,1024.2794,1021.35315,1021.2325,1023.7319
1021.8706,1022.9981,1020.96,1020.90686,1022.6912
1024.9487,1024.9756,1024.5887,1024.3994,1024.7919
1026.3994,1026.2831,1025.6512,1025.4888,1026.055
1028.365,1029.3956,1027.6943,1027.6963,1029.1887
1032.9012,1033.7288,1033.5138,1033.5212,1033.9443
1034.0944,1033.6375,1034.9194,1034.7794,1033.6931
1031.8744,1031.7375,1032.6412,1032.56,1031.7588
1028.545,1028.5425,1029.31,1029.2362,1028.5819
1025.9537,1026.3838,1026.7212,1026.6637,1026.4606
1023.0544,1024.55,1023.39624,1023.52374,1024.6038
1026.5038,1027.07,1027.5356,1027.6132,1027.3531
1029.5637,1030.9163,1029.99,1030.0256,1030.9556
1030.3906,1031.8213,1030.2094,1030.2574,1031.7281
1031.28,1032.9775,1031.8606,1031.8824,1032.9825
1032.5256,1032.6757,1033.2476,1033.1294,1032.8344
1028.21,1027.6318,1028.6324,1028.4868,1027.4719
1019.3056,1019.3606,1020.2431,1020.1144,1019.49
1014.8806,1016.70435,1015.3325,1015.3781,1016.5687
1012.7512,1012.60126,1010.16376,1009.87,1011.9256
1016.78125,1017.46564,1015.72815,1015.6156,1017.2081
1026.4531,1026.3369,1026.3656,1026.2762,1026.4606
1028.0431,1027.7007,1028.5238,1028.4625,1027.9031
1028.4575,1028.0881,1029.0863,1029.0493,1028.4563
1025.5894,1025.1418,1026.2219,1026.1294,1025.2312
1025.71,1025.2494,1026.5369,1026.5463,1025.4213
1029.69,1028.3356,1030.6987,1030.5319,1028.5581
1031.0262,1028.9287,1031.7175,1031.4594,1029.2269
1026.5375,1024.6294,1028.0006,1027.8344,1025.0569
1020.97687,1018.7975,1022.6194,1022.375,1019.0675
1019.0706,1019.5131,1019.7994,1019.6194,1019.3975
1018.8125,1017.9625,1018.14624,1017.96814,1017.88
1014.77563,1014.04065,1013.8219,1013.3875,1013.66815
1019.4725,1022.41565,1019.4506,1019.6912,1022.3194
1023.1475,1023.22125,1022.8325,1022.7531,1022.9925
1016.33,1017.0662,1013.15875,1012.77686,1016.3375
1016.71,1019.5613,1014.46436,1014.3237,1018.905
1024.3325,1024.6244,1024.5806,1024.4019,1024.3988
1026.9994,1026.5419,1026.4976,1026.1232,1026.3013
1031.7037,1033.1725,1032.8662,1032.9656,1033.2662
1032.205,1033.3037,1032.9906,1032.9819,1033.2894
1032.7825,1034.5719,1033.3069,1033.3263,1034.5275
1032.4888,1034.525,1032.5525,1032.5381,1034.3087
1031.9556,1034.085,1031.6837,1031.6707,1033.7544
1029.4781,1031.8063,1029.4038,1029.395,1031.465
1026.41,1027.8569,1025.7225,1025.6494,1027.6075
1023.9263,1024.5319,1022.59564,1022.45,1024.2043
1026.4587,1026.3175,1026.0587,1025.8375,1026.1218
1025.9137,1024.8868,1025.68,1025.3257,1024.7087
1022.22687,1019.99,1022.03815,1021.59937,1020.01
1020.065,1018.2175,1019.03125,1018.6906,1017.9331
1020.84186,1019.7631,1019.8575,1019.5044,1019.3169
1018.01373,1015.99,1017.1719,1016.90564,1015.8781
1014.9125,1013.365,1013.27374,1012.885,1013.0519
1018.37,1018.0831,1018.1881,1018.0112,1018.10565
1010.29315,1009.8206,1013.1269,1013.2587,1010.59
1003.8156,1006.67126,1004.1175,1004.4775,1006.4437
1007.8169,1008.9975,1005.9319,1005.6869,1008.59436
1005.485,1006.9169,1005.7369,1006.03125,1006.7506
1013.47375,1016.29065,1015.4956,1016.03815,1016.66064
1021.055,1023.02686,1022.1306,1022.47437,1023.1356
1015.6325,1016.3125,1014.5925,1014.4487,1016.0475
1000.2512,1000.82623,1001.6362,1001.9281,1001.1262
998.5619,1000.3675,999.6294,999.91315,1000.3787
997.5125,1000.3812,998.1769,998.51935,1000.4431
1003.5556,1006.3269,1003.40314,1003.66125,1006.14
1015.0075,1016.72375,1014.6075,1014.71063,1016.59875
1016.5506,1015.4469,1012.6881,1011.9881,1014.40375
999.52435,997.6669,994.21625,993.3081,996.46063
994.51624,996.2944,991.16315,991.03687,995.48376
1004.88873,1008.84314,1003.96124,1004.0975,1008.4906
1010.2369,1011.8663,1010.03125,1010.17126,1011.60626
1013.6675,1016.04,1015.095,1015.5744,1016.25
1019.36127,1021.12,1021.6781,1022.23376,1021.47815
1027.5863,1028.3431,1028.3988,1028.4569,1028.4469
1025.805,1028.2238,1025.6412,1025.5168,1027.855
1024.1857,1026.2819,1025.0044,1025.0881,1026.1438
1027.145,1028.2356,1028.095,1028.0306,1028.1937
1026.8662,1027.97,1027.5531,1027.5156,1027.8838
1022.8094,1023.7656,1023.36,1023.33875,1023.725
1029.155,1028.77,1030.1506,1030.1757,1028.9144
1035.3157,1035.0725,1035.2612,1034.975,1034.9056
1029.1206,1030.4369,1025.9731,1025.5994,1029.3944
1021.04315,1023.6281,1020.15314,1020.29565,1023.2425
1028.6194,1029.925,1029.3225,1029.265,1029.8425
1033.18,1033.8007,1032.4481,1032.1538,1033.3956
1033.81,1034.1469,1032.7869,1032.62,1033.765
1028.8087,1028.3788,1028.175,1027.7788,1028.0581
1022.3081,1022.4412,1022.71936,1022.53564,1022.2969
1012.0062,1009.5112,1010.4431,1009.8056,1009.1163
994.91125,992.8644,991.4387,990.7675,992.125
982.60315,983.9906,978.1794,977.67377,983.04065
995.21814,996.23065,993.8019,993.8019,995.8663
1007.0681,1007.64813,1007.3019,1007.2512,1007.5056
1010.6838,1009.0519,1009.0775,1008.59,1008.6138
1012.9475,1013.8875,1010.8875,1010.6725,1013.28687
1017.97626,1015.0563,1015.7469,1015.1244,1014.3656
1016.5875,1014.1319,1013.6912,1013.1381,1013.35565
1024.7275,1023.5175,1023.66376,1023.04315,1022.98627
1033.5513,1033.6713,1034.33,1034.1606,1033.5531
1035.5244,1035.3975,1036.9387,1036.7013,1035.2574
