"[299, 255]","[227, 248]","[287, 319]","[279, 328]","[230, 262]"
1028.3744,1028.77,1030.7432,1030.7993,1028.9994
1026.6,1026.4012,1028.7007,1028.6226,1026.6176
1023.37,1021.41187,1023.9025,1023.035,1021.0737
1014.84875,1010.8906,1014.5775,1013.54,1010.40125
996.6375,993.1431,995.41815,994.7381,992.8244
993.39374,993.6175,994.845,995.1525,993.6906
1012.14435,1013.45624,1014.6775,1015.08185,1013.7494
1025.0962,1023.5481,1026.0844,1026.1012,1023.7612
1025.94,1023.4275,1027.8163,1027.7844,1023.9294
1028.2456,1026.8438,1030.4393,1030.5669,1026.9594
1032.335,1032.165,1034.2644,1034.3069,1032.2869
1033.6819,1034.0806,1036.0038,1036.0743,1033.9207
1035.1937,1036.4175,1037.6182,1037.8506,1036.3456
1039.96,1040.8107,1042.5363,1042.7169,1040.9637
1038.2131,1039.5944,1040.7594,1040.9463,1039.6781
1030.0825,1032.3944,1033.9443,1034.4926,1032.6488
1021.3675,1023.79065,1025.1456,1025.7144,1024.1344
1019.78564,1022.79315,1023.49,1023.91,1023.2562
1025.7013,1027.3588,1027.7993,1027.9606,1027.3243
1025.2532,1026.0856,1026.4131,1026.3287,1025.8588
1023.59375,1024.3625,1024.8331,1024.8131,1024.2794
1022.9462,1024.8237,1025.0844,1025.4712,1024.9775
1021.6769,1024.1031,1023.64,1023.90314,1024.1569
1022.7594,1024.3007,1022.8756,1022.8106,1024.0919
1020.4356,1019.8644,1018.2562,1017.8631,1019.31
996.2556,994.78186,995.20435,994.8656,994.39935
991.91626,994.5031,990.0925,990.0481,993.8925
1005.09186,1003.6331,1005.58813,1005.53064,1003.6131
1010.39124,1011.6781,1013.5662,1013.9938,1012.15564
1020.1894,1022.3219,1023.1881,1023.5875,1022.6763
1025.5394,1025.0469,1025.9681,1025.6262,1024.8025
1023.6806,1021.45874,1023.0044,1022.5494,1021.21436
1013.1281,1010.8663,1012.025,1011.4363,1010.53625
1007.89,1007.245,1010.54376,1010.72186,1008.0681
1016.3281,1014.8269,1016.09314,1015.67377,1014.58813
1006.84064,1008.0656,1005.4263,1005.21375,1007.53314
1012.03687,1011.1025,1011.6875,1011.1769,1010.65063
1011.97314,1013.1244,1009.85,1009.7006,1012.3212
1016.4444,1016.6206,1014.59436,1014.16125,1015.665
1020.2969,1020.005,1017.58,1017.1925,1019.40936
1025.8756,1025.0074,1023.1775,1022.6181,1024.2075
1010.09937,1009.98376,1005.34375,1004.6225,1008.78064
1016.5125,1019.67126,1012.6981,1012.4963,1018.66
1005.52563,1006.2675,1001.0519,1000.52124,1005.045
997.8706,1001.41064,993.65814,993.3738,1000.1775
1012.4725,1016.4775,1011.9394,1012.28937,1016.1362
1020.76624,1021.64,1018.9256,1018.72687,1020.96936
1012.1206,1010.06,1008.45685,1007.8719,1009.3056
1003.95123,1003.6775,1003.3794,1003.4256,1003.645
1009.03687,1008.8619,1009.3694,1009.34814,1008.9494
1007.1375,1006.7944,1009.855,1009.9256,1007.4288
1011.98065,1009.2369,1013.02563,1012.9956,1009.8681
1014.34186,1013.01935,1014.7525,1014.72687,1013.2994
1011.1775,1006.46625,1010.6769,1010.09937,1006.6425
1012.3762,1009.1256,1012.08185,1011.66815,1009.1312
1015.45685,1013.2019,1013.67,1013.2525,1012.73315
1011.8744,1011.77936,1009.7325,1009.4575,1011.23065
1011.14124,1009.92,1007.02814,1006.33,1008.77124
1003.90875,1002.0019,1000.4381,1000.0037,1001.2494
1008.77124,1008.9581,1003.6319,1002.9675,1007.95
1025.0969,1024.73,1021.77124,1021.34314,1023.76685
1022.305,1022.57874,1019.2006,1018.53815,1021.28815
1014.8194,1014.9288,1010.95685,1010.4819,1014.03815
1017.90814,1020.07623,1015.9381,1015.84436,1019.3713
1019.4988,1022.6956,1016.27936,1016.1225,1021.5094
1028.0675,1031.6781,1026.0637,1025.9331,1030.6306
1031.7468,1033.835,1030.4788,1030.3019,1032.92
1025.0669,1025.7606,1024.6575,1024.0969,1024.8025
1020.245,1021.3187,1019.59564,1019.3769,1020.97
1016.215,1015.6225,1012.8625,1012.2025,1014.4487
1014.9919,1013.4869,1011.2375,1010.5606,1012.47565
1016.20624,1014.42,1014.4913,1013.9531,1013.8806
1019.02814,1019.4956,1018.40936,1018.34686,1019.3063
1021.65125,1022.0375,1021.9431,1021.8088,1021.90314
1016.9294,1016.0175,1015.82,1015.46564,1015.6431
1018.34064,1019.20435,1018.6025,1018.645,1019.225
1019.76685,1017.3731,1021.04626,1020.7019,1017.7556
1017.3713,1013.9456,1017.46625,1016.83936,1014.09314
1026.5493,1026.345,1026.2231,1026.075,1026.1594
1030.2306,1029.2081,1028.7418,1027.9862,1028.1394
1021.1788,1020.39374,1016.8631,1016.25,1019.2606
1022.1925,1025.2388,1018.41187,1018.15814,1024.3019
1029.1562,1030.415,1027.8668,1027.7075,1029.7418
1027.9738,1027.8694,1026.6843,1026.4343,1027.4894
1023.1931,1022.4775,1020.395,1019.7969,1021.5156
1023.03314,1024.3688,1020.26685,1019.91,1023.36127
1034.4243,1034.8143,1031.79,1031.2712,1033.7106
1029.6344,1028.9531,1027.9263,1027.4181,1028.2231
1017.3113,1016.04626,1013.5525,1012.9462,1015.0081
1016.2681,1014.005,1013.17065,1012.76874,1013.1962
1019.0031,1020.84186,1017.6344,1017.755,1020.4919
1022.6375,1021.0444,1018.65814,1018.085,1020.1406
1021.54877,1021.35815,1019.9888,1019.7706,1020.9481
1022.7419,1020.4988,1019.8694,1019.1794,1019.78687
1016.5375,1015.9412,1014.60626,1014.16315,1015.4519
1022.1863,1019.6475,1019.9725,1019.3106,1019.0556
1011.265,1011.4219,1008.9531,1008.71,1010.9325
1013.7525,1012.1287,1010.17126,1009.57935,1011.1881
1000.45374,1001.3825,994.4431,993.64435,999.85565
1011.85626,1014.235,1008.71686,1008.6256,1013.32935
1004.3594,1004.0588,1001.79565,1001.5075,1003.355
1007.54376,1007.33936,1008.61127,1008.825,1007.6144
1032.4575,1033.9644,1033.61,1033.7618,1034.0969
1040.3137,1041.145,1040.1581,1039.9431,1040.8425
1036.7863,1037.3113,1037.135,1036.9788,1037.1069
1022.20374,1022.8206,1022.2619,1021.96063,1022.51
1013.1431,1014.08685,1011.1794,1010.9919,1013.52185
1011.0112,1010.1325,1008.605,1008.3306,1009.6425
1006.52124,1006.09125,1005.805,1005.7419,1005.9981
1010.39813,1011.195,1010.6344,1010.765,1011.2537
1013.85126,1013.41876,1011.33435,1010.92065,1012.7406
1011.3137,1011.7375,1009.5225,1009.31,1011.28064
1015.8756,1017.21564,1014.6825,1014.52875,1016.55
1006.1869,1006.8006,1003.38873,1002.94,1005.78186
1011.8862,1012.77185,1008.2294,1007.8275,1011.84686
1008.3569,1008.0637,1003.78687,1003.07874,1006.8869
1003.8794,1004.47186,999.145,998.4306,1003.435
996.9462,997.6431,993.65564,993.33563,997.0112
996.0,996.42065,996.4075,996.5719,996.6287
1010.35376,1010.285,1010.6256,1010.58435,1010.4425
1015.0425,1014.96875,1015.3119,1015.2706,1014.95123
1018.2525,1019.1075,1018.215,1018.35126,1019.26373
1023.1,1025.8732,1022.39124,1022.5756,1025.6987
1034.3488,1035.2937,1034.4443,1034.5118,1035.3131
1034.9794,1035.4056,1034.535,1034.225,1035.0413
1029.9319,1030.4581,1029.7794,1029.51,1030.1943
1020.9975,1021.3631,1021.48315,1021.4313,1021.27
1016.89124,1017.2975,1017.6,1017.34436,1017.0619
1021.71063,1023.8837,1020.79376,1020.7969,1023.28064
1025.7344,1027.5887,1027.1913,1027.2975,1027.5056
1033.375,1034.6637,1034.0719,1034.05,1034.6006
1024.7574,1026.3369,1024.3369,1024.3544,1025.9825
1017.6094,1018.9975,1018.85376,1018.7994,1018.96
1023.0687,1022.4387,1025.1675,1024.9982,1022.71124
1024.6863,1025.145,1026.405,1026.3293,1025.2344
1023.4356,1023.84937,1024.3738,1024.3668,1023.96436
1019.7925,1019.3044,1020.9481,1020.77625,1019.4844
1012.6694,1011.3769,1013.79,1013.60626,1011.5588
1005.795,1005.4225,1007.9394,1007.9462,1005.91876
1016.9675,1017.0494,1017.71375,1017.8094,1017.35065
1021.7031,1021.2388,1020.8681,1020.6475,1020.9275
1020.47687,1020.83875,1018.72437,1018.6125,1020.46063
1023.64685,1024.5975,1023.3956,1023.3762,1024.295
1024.8231,1025.2063,1024.2256,1023.71375,1024.2844
1018.8019,1018.7725,1017.7512,1017.54315,1017.8869
1006.66626,1005.8125,1006.6763,1006.4675,1005.59814
998.9919,997.6994,998.09186,997.71063,997.45374
993.27686,993.0481,991.575,991.4975,992.6575
1006.65186,1007.5006,1004.8606,1004.8038,1006.97314
1011.0125,1009.24,1011.875,1011.8719,1009.54626
1013.7356,1014.26,1018.46185,1018.83624,1015.39874
1027.465,1028.2231,1029.8644,1030.2081,1028.6481
1027.47,1027.3988,1028.9819,1029.1619,1027.8668
1020.5806,1020.0744,1021.8925,1022.0619,1020.53876
1021.21063,1020.8113,1021.8906,1021.9331,1021.14124
1018.0531,1017.29065,1018.6944,1018.815,1017.6
1019.1969,1016.10565,1020.9363,1020.98,1016.9263
1017.0556,1015.52374,1018.65686,1018.6362,1015.8187
1017.40186,1015.2706,1015.85376,1015.5012,1014.925
1011.91125,1010.29315,1009.4444,1008.8769,1009.19
1015.0569,1015.1744,1015.1369,1014.8375,1014.96
1016.47626,1015.6813,1016.27435,1016.0775,1015.6281
1011.84814,1011.4794,1011.795,1011.7275,1011.3425
1010.90814,1010.5469,1010.4294,1010.3688,1010.1825
1014.01874,1013.71686,1013.5706,1013.4975,1013.3644
1017.93,1016.58936,1017.2413,1016.9819,1016.475
1004.055,1000.895,1006.22626,1005.8325,1001.48126
991.015,988.7675,987.9281,987.21436,987.9994
1002.2994,1002.1319,997.84186,997.1262,1001.08374
1017.4,1017.4306,1012.9487,1012.4381,1016.505
1024.6506,1026.1793,1023.6931,1023.66,1025.7063
1022.9381,1022.0712,1024.2194,1024.2106,1022.46686
1013.1775,1012.8306,1015.9581,1015.78,1012.8225
1013.45435,1012.6175,1011.6375,1011.27,1012.05
1010.2031,1009.165,1007.75,1007.3569,1008.46814
1011.26,1014.5525,1010.6406,1010.97876,1014.03314
1020.5825,1022.46564,1018.55,1018.6119,1022.16876
1016.54126,1020.2344,1016.0494,1016.20374,1019.85126
1020.1788,1022.54626,1020.5531,1020.77686,1022.425
1016.72437,1017.3275,1017.1912,1017.3706,1017.39374
1014.74,1014.9775,1015.2075,1015.5531,1015.28314
1017.7981,1018.2125,1018.2919,1018.40125,1018.475
1021.7975,1021.84436,1021.09,1021.03,1021.8187
1019.7587,1019.4406,1020.1025,1020.0125,1019.64874
1017.27814,1018.9244,1016.32935,1016.3806,1018.7175
1020.71063,1021.6881,1019.6669,1019.77185,1021.4313
1024.0375,1023.0125,1022.77814,1022.65314,1022.81
1019.16125,1017.385,1018.8069,1018.555,1017.34186
1005.1806,1004.6981,1003.5419,1003.1969,1004.23065
1015.1069,1015.7556,1013.14435,1012.9469,1015.3256
1024.5144,1025.1,1022.82935,1022.71875,1024.7819
1019.7706,1019.865,1023.235,1023.28625,1020.6875
1008.04126,1007.365,1011.385,1011.5156,1007.93
1006.21686,1005.9944,1005.7675,1005.60065,1005.445
1014.8106,1015.5725,1011.5656,1011.41876,1014.9288
1024.0463,1023.0125,1023.9219,1023.86,1023.1144
1021.1475,1018.8856,1023.40625,1022.9175,1019.4913
1006.775,1007.65125,1006.6894,1006.59375,1007.29877
1006.7406,1006.34375,1003.6863,1003.1856,1005.73315
1010.21124,1010.675,1006.785,1006.3688,1010.005
1015.40564,1015.375,1014.0044,1013.7587,1015.1825
1012.1294,1010.5506,1012.1825,1012.23376,1010.15125
1016.47,1017.955,1015.1269,1015.1256,1017.4244
1019.2825,1020.22815,1019.90686,1019.81,1020.3331
1024.4044,1025.8981,1024.1168,1024.0344,1025.5725
1022.8094,1022.28937,1022.5581,1022.5094,1021.96814
1023.25,1024.5981,1025.0669,1025.3575,1024.8844
1029.005,1030.8469,1029.7238,1029.9631,1030.8369
1026.7494,1027.9637,1026.9194,1026.8125,1027.6943
1025.1937,1026.855,1025.5138,1025.5962,1026.6737
1022.7,1025.5931,1023.42065,1023.6094,1025.4219
1022.23,1024.3069,1022.1069,1022.1831,1023.90936
1019.2775,1020.53375,1018.5637,1018.435,1020.15375
1016.5131,1017.77814,1016.47565,1016.45435,1017.52374
1002.08124,1001.28937,1001.2344,1000.9894,1000.92
1010.10815,1013.21,1007.4437,1007.5725,1012.3731
1013.0469,1012.3744,1010.25,1009.84814,1011.695
1020.0206,1020.6344,1017.05,1016.9194,1020.0712
1022.47626,1023.3425,1020.96564,1020.935,1023.02435
1020.3144,1020.86127,1019.3125,1019.315,1020.6769
1016.275,1015.9963,1015.89935,1015.905,1016.0494
1012.9919,1011.89374,1014.02124,1013.9725,1012.4175
1006.35187,1006.77625,1007.6987,1007.90186,1006.70685
1015.9944,1018.0825,1015.21375,1015.23627,1017.5744
1018.3225,1017.8725,1018.3275,1018.1994,1017.72565
1008.5031,1008.5019,1008.59,1008.6575,1008.41187
1007.7475,1008.34814,1006.40814,1006.3331,1007.86
1007.85,1005.66565,1006.5606,1006.1406,1005.2656
1004.4281,1003.2,1002.2425,1001.8169,1002.67065
1009.10565,1010.0563,1006.3831,1006.1044,1009.41315
1020.57874,1022.60376,1018.7006,1018.65436,1021.9244
1016.21564,1016.52936,1013.7488,1013.4994,1015.58
1009.67065,1011.8775,1008.63873,1008.7081,1011.355
1012.9444,1014.5569,1012.59814,1012.54,1014.3675
1016.135,1016.7019,1015.39935,1015.235,1016.2344
1013.4888,1014.1194,1012.39813,1012.3044,1013.77563
1009.165,1009.78125,1009.52435,1009.5694,1009.7519
1007.7612,1009.23126,1006.2175,1006.2375,1008.7006
1008.8019,1009.1919,1005.6975,1005.42065,1008.48126
1014.825,1015.03314,1012.8375,1012.655,1014.5925
1018.0081,1018.6881,1017.355,1017.37,1018.52936
1022.4531,1022.7413,1021.3594,1021.28937,1022.4581
1020.02185,1018.435,1019.4331,1019.2587,1018.54626
1016.9219,1017.0525,1016.9331,1016.9506,1016.90063
1015.3756,1015.02435,1012.6825,1012.2344,1014.3175
1017.84186,1018.4988,1015.6575,1015.4531,1017.9244
1016.70685,1016.15314,1015.0706,1014.6731,1015.505
1012.15686,1012.34564,1010.0156,1009.72815,1011.8069
1016.4575,1018.0106,1014.8,1014.6806,1017.57
1017.4456,1016.7512,1017.1575,1016.9444,1016.4331
1016.83624,1016.29877,1017.4994,1017.4462,1016.3837
1022.40314,1021.84,1025.1362,1025.0769,1022.4856
1022.66876,1023.5831,1026.4906,1026.3806,1024.2275
1015.1794,1016.8769,1019.2775,1019.2656,1017.4581
1019.1781,1020.3644,1019.6981,1019.7725,1020.45685
1024.3287,1025.1488,1024.2712,1024.1763,1025.0875
1023.0156,1022.64374,1023.59314,1023.4363,1022.82
1023.0644,1023.0419,1023.45685,1023.4581,1023.2569
1025.8469,1025.7262,1026.265,1026.2007,1025.9644
1026.4207,1026.1869,1027.5312,1027.4413,1026.49
1023.78314,1024.1681,1025.1125,1025.0437,1024.3113
1020.29,1019.4975,1020.71063,1020.565,1019.4969
1017.6119,1018.9844,1017.0031,1016.95874,1018.71124
1014.28125,1013.09186,1014.2325,1014.215,1013.1319
1006.47876,1008.3231,1008.42065,1009.3762,1008.3606
1013.5275,1014.1838,1014.08124,1014.0662,1013.9938
1016.1275,1017.39813,1015.5631,1015.575,1017.28687
1019.3925,1019.52435,1018.9412,1018.77686,1019.3706
1010.9,1010.2369,1010.1794,1009.9913,1010.0275
1011.33685,1013.46875,1011.16876,1011.35,1013.28064
1019.33124,1019.72876,1019.34436,1019.2275,1019.6894
1020.60815,1019.89685,1020.0687,1019.77313,1019.4963
1020.6769,1021.2925,1019.4194,1019.3081,1020.9556
1025.7969,1027.5181,1024.855,1024.8387,1027.1631
1027.0181,1027.9637,1025.9469,1025.9062,1027.6907
1023.65314,1025.0863,1022.97314,1022.9338,1024.6176
1027.8081,1028.2788,1028.6388,1028.6306,1028.4087
1030.4131,1030.9918,1030.8157,1030.8569,1030.9375
1029.8706,1030.035,1030.3732,1030.31,1030.0969
1029.1763,1029.7125,1029.4625,1029.5112,1029.5962
1030.2825,1031.505,1030.8187,1030.8712,1031.5038
1034.4169,1034.5325,1035.2881,1035.335,1034.7875
1035.2426,1035.905,1035.9844,1035.9225,1035.8519
1030.4137,1030.6587,1030.6619,1030.615,1030.545
1024.3213,1025.4169,1025.1881,1025.1418,1025.4556
1026.2212,1025.2288,1027.4137,1027.3625,1025.4056
1023.6756,1023.5806,1023.92126,1023.8894,1023.64
1023.70624,1025.3618,1023.96436,1024.0219,1025.3337
1029.0531,1030.0144,1028.6194,1028.5831,1029.7681
1024.7019,1025.1382,1022.89813,1022.4825,1024.45
1026.7163,1028.0018,1026.2269,1026.1963,1027.7312
1030.44,1031.3818,1029.8838,1029.86,1031.1118
1028.18,1027.7668,1028.6575,1028.4788,1027.7588
1022.615,1021.215,1023.4444,1023.15375,1021.2975
1017.3894,1016.8063,1017.73627,1017.47064,1016.6669
1023.3669,1022.9988,1023.20685,1023.04065,1022.79565
1029.7013,1029.1288,1029.4075,1029.1687,1028.9263
1029.965,1028.6356,1030.8838,1030.7262,1028.8625
1025.2518,1023.035,1026.5319,1026.3043,1023.3875
1018.4231,1015.6831,1018.96564,1018.66064,1015.9219
1017.6381,1017.79065,1017.29,1017.08563,1017.5531
1016.53,1015.53876,1016.4225,1016.1919,1015.48627
1008.7681,1006.2656,1006.635,1005.9988,1005.60876
1013.96814,1014.6356,1012.1825,1012.1181,1014.3237
1015.52875,1016.15063,1015.0706,1015.09314,1016.0769
1016.3088,1016.2631,1016.78,1016.76,1016.21875
1007.4969,1003.8644,1008.8756,1008.8719,1004.41376
1014.7488,1014.96,1017.6769,1017.9194,1015.715
1025.0913,1025.5631,1025.64,1025.5444,1025.6012
1027.49,1028.035,1027.7556,1027.62,1027.9719
1025.3538,1025.505,1026.2756,1026.2244,1025.4788
1020.4925,1019.47876,1021.9331,1021.78625,1019.6262
1011.9944,1010.40375,1012.6475,1012.3069,1010.4944
1008.1944,1005.7075,1008.2725,1008.07623,1006.04626
1003.51874,1000.79565,1004.15875,1004.0206,1001.1406
1002.7775,1002.115,1000.72815,1000.425,1001.7319
1011.3081,1011.6213,1010.45123,1010.33875,1011.4931
1017.2275,1018.21063,1017.60815,1017.5875,1018.16815
1020.0019,1019.785,1020.1163,1020.03564,1019.8256
1015.2025,1013.3644,1014.6625,1014.4338,1013.4531
1006.5756,1004.60876,1006.4269,1005.9919,1004.595
1007.82935,1006.3019,1005.6319,1005.16876,1005.76624
1008.7,1007.22876,1005.21063,1004.59625,1006.4219
1004.1944,1001.4381,999.73065,999.0125,1000.6144
1009.8375,1008.4363,1007.5719,1007.2506,1008.0062
1013.4369,1010.925,1011.51,1010.905,1010.60126
1021.0075,1019.78186,1021.90875,1021.8056,1020.0556
1020.28375,1018.27185,1019.36127,1018.97687,1018.1406
1024.1562,1023.5769,1023.1525,1022.82623,1023.2544
1029.0675,1028.6288,1028.4882,1028.2219,1028.4744
1028.9812,1026.8794,1029.0913,1028.8,1027.0507
1026.1913,1024.5737,1026.4738,1026.1656,1024.6082
1020.7981,1019.5606,1021.41315,1021.14874,1019.59436
1016.96063,1016.54,1015.8812,1015.5644,1016.1981
1018.3638,1019.98126,1016.3606,1016.23627,1019.39874
1022.2619,1023.8787,1023.615,1023.91125,1023.83936
1030.7325,1031.4918,1032.3475,1032.415,1031.3706
1033.1819,1032.7106,1034.305,1034.0018,1032.5288
1027.6675,1026.6494,1028.3081,1027.8,1026.4744
1024.8888,1023.97565,1024.7944,1024.4119,1023.76874
1023.0925,1022.2875,1023.1887,1022.8475,1022.15186
1028.0981,1028.9225,1028.8812,1028.7993,1028.9125
1033.4519,1034.4307,1033.7375,1033.6082,1034.2625
1032.0082,1031.8788,1032.7819,1032.6707,1031.7618
1023.22,1021.7006,1024.9313,1024.6188,1021.77435
1015.1456,1014.1694,1016.39435,1016.125,1014.27124
1011.83936,1010.9412,1010.7619,1010.5031,1010.625
1007.6213,1006.2631,1005.3956,1005.01624,1005.8738
1007.1844,1006.6356,1004.1694,1003.70123,1006.03815
1009.29877,1008.2075,1009.1806,1009.07874,1008.34625
1003.78687,1000.53125,1005.36,1004.9406,1000.9319
1000.07623,1000.5669,1002.04565,1001.7444,1000.3638
1001.84937,1000.02185,1003.5469,1003.6969,1000.52686
991.08124,990.1169,995.48126,995.97,991.225
988.15063,990.03876,991.0781,991.60815,990.41815
1006.05,1007.6981,1006.1188,1006.27124,1007.6
1015.4913,1015.3875,1014.34686,1014.14,1015.1969
1009.6138,1008.0106,1008.2388,1007.8862,1007.6188
1012.53815,1011.9956,1010.59564,1010.27124,1011.59064
1015.41,1012.895,1014.0631,1013.5075,1012.54565
