"[299, 255]","[227, 248]","[287, 319]","[279, 328]","[230, 262]"
1016.91125,1013.5687,1014.8331,1014.13873,1013.0094
1001.41125,997.7438,997.815,997.08185,997.1838
996.0744,994.745,993.5037,993.09625,994.2344
1004.3775,1005.8719,1002.10376,1001.9913,1005.22626
1003.90686,1000.0637,1002.01624,1001.3681,999.7425
988.0044,984.6969,985.10065,984.33624,983.8681
994.2825,997.12,990.04626,989.83936,996.0531
1003.2919,1002.95,1001.9925,1001.76935,1002.5744
994.3775,994.75,992.2481,991.9875,994.29565
999.59875,998.65063,998.915,998.72687,998.51
1006.47125,1006.0825,1007.075,1007.04376,1006.155
1017.96936,1016.8088,1017.27563,1016.9175,1016.6625
1003.59186,1000.8663,1001.4775,1000.77313,1000.1794
1009.3656,1012.7425,1005.10065,1004.9412,1011.60126
1016.1119,1017.85065,1013.13873,1013.02875,1017.11127
1017.2875,1018.17,1013.53186,1013.11127,1017.21313
998.9675,1001.1944,994.6937,994.34125,999.97437
1010.91187,1012.97,1010.8,1010.95435,1012.7644
1019.2575,1016.7875,1017.2625,1016.6987,1016.22815
1005.3069,1003.655,1000.9331,1000.10065,1002.64374
1000.4169,1000.20874,998.0644,997.8269,999.6806
1013.46875,1014.7675,1013.20935,1013.27814,1014.615
1008.23315,1007.3244,1005.3075,1004.73065,1006.2506
1012.8031,1012.8275,1009.3475,1008.9875,1011.90186
1014.59686,1016.02124,1010.5831,1010.02814,1015.0444
1028.0337,1029.72,1024.8019,1024.5887,1029.065
1027.8413,1030.2518,1025.3131,1025.15,1029.5775
1032.5613,1033.6238,1031.1793,1030.9587,1033.1075
1024.2987,1026.1282,1021.6625,1021.53314,1025.3682
1025.7306,1028.1044,1024.8394,1024.79,1027.3756
1035.0988,1037.9812,1034.4381,1034.3782,1037.3025
1039.2482,1041.0938,1038.2056,1037.8207,1040.2574
1040.2344,1041.5225,1039.9762,1039.5,1040.6344
1036.0262,1037.0437,1034.9832,1034.4625,1036.1338
1038.8063,1041.2368,1038.5693,1038.6556,1041.0481
1045.1288,1047.2906,1045.7418,1045.6793,1047.0681
1043.8331,1045.17,1043.6412,1043.4393,1044.72
1038.6881,1039.9819,1036.7906,1036.3213,1038.9012
1035.0643,1035.1112,1034.1481,1033.7825,1034.5356
1025.0913,1023.79315,1022.83124,1022.4313,1023.1788
1018.2413,1015.3775,1015.03687,1014.10626,1014.4969
1022.6831,1021.59375,1019.39124,1018.71,1020.7456
1032.3738,1031.9575,1029.4912,1029.0394,1031.4756
1039.1456,1037.5844,1037.4187,1036.9725,1036.7668
1029.27,1027.8844,1026.6006,1026.245,1027.0681
1029.0269,1030.2432,1027.9357,1027.7975,1029.8875
1019.60126,1018.7463,1017.39,1016.8212,1018.16315
1005.815,1006.42126,1001.145,1000.5781,1005.09125
995.78687,993.54877,991.1194,989.9481,992.34064
1000.6937,1001.5662,993.89374,992.9294,1000.02374
991.10815,991.08374,983.65625,982.33685,989.455
997.6863,997.15686,994.41,994.0144,996.64624
996.3975,995.85626,994.645,994.47125,995.5594
986.7644,987.0506,991.0644,991.53436,988.10626
1012.215,1013.08875,1010.2375,1010.0469,1012.6694
1011.66815,1010.0694,1007.3019,1006.7388,1009.2175
1005.885,1006.65314,1001.9025,1001.5444,1005.71875
1015.65564,1015.0181,1013.1844,1012.8769,1014.46625
999.22314,999.1863,995.4125,994.9419,998.34375
995.53186,996.28564,993.58563,993.4725,995.6325
1013.47375,1012.8906,1013.4275,1013.21936,1012.8075
995.77563,993.4725,992.33875,991.5631,992.5975
994.83124,993.8269,989.47876,988.7644,992.64
1002.15314,1003.1937,997.3831,996.9531,1001.9344
1011.405,1009.51685,1012.0563,1012.015,1009.5069
1007.1831,1005.3125,1009.1525,1008.77686,1005.16376
1004.2006,1003.8756,1002.23065,1002.02435,1003.33
1000.315,998.3019,1000.6875,1000.6325,997.9775
991.6906,989.90936,989.3013,988.865,989.39124
986.41437,983.7775,983.8881,983.345,983.345
981.6406,977.91,978.5631,978.1156,977.3706
977.8681,975.6025,972.9675,972.10626,974.3162
988.8825,987.6756,984.71814,983.9169,986.89
984.7125,985.2775,984.0062,983.875,985.03436
992.7619,991.64935,991.0712,990.9369,991.41315
1000.5725,1001.20435,998.6,998.3069,1000.815
1009.0506,1010.5744,1007.2388,1007.28436,1010.1969
1018.1138,1017.515,1017.70374,1017.5563,1017.5806
1016.78186,1017.09,1018.07874,1018.34937,1017.40625
1023.665,1021.8169,1023.8775,1023.59314,1021.8644
1016.4025,1015.315,1013.53876,1013.0106,1014.685
1011.39874,1007.15564,1010.7344,1010.1756,1007.2456
994.34064,993.0806,993.0575,992.7631,992.8638
999.2606,1001.78625,998.47437,998.4425,1000.9981
1006.35187,1006.8656,1004.59,1004.51624,1006.71625
1012.08813,1014.41565,1011.835,1011.9025,1014.15063
1021.2525,1022.47375,1019.205,1019.04126,1021.94
1019.6825,1022.2556,1017.6731,1017.66064,1021.6813
1032.2762,1033.1881,1032.0743,1032.0437,1032.9325
1028.9606,1026.8925,1026.3638,1025.715,1025.7225
1018.09125,1017.8769,1015.71,1015.41626,1017.34814
1026.7438,1028.4712,1025.9968,1026.0988,1028.2426
1031.6875,1031.8269,1029.2969,1028.9375,1030.9637
1029.7594,1030.7432,1028.005,1027.9243,1030.1793
1036.8163,1037.4181,1035.77,1035.5725,1036.9281
1033.6025,1033.3538,1032.205,1031.7169,1032.3569
1026.7394,1026.9343,1026.0669,1025.8756,1026.5074
1021.6287,1020.8575,1021.4,1021.22,1020.625
1008.91815,1007.04626,1007.5875,1007.1219,1006.77875
1016.1838,1018.78,1014.58,1014.59375,1018.3162
1015.9256,1015.6806,1012.3162,1011.84814,1014.5613
1010.135,1012.64813,1007.4888,1007.3594,1011.685
1001.4319,1002.83435,998.4125,998.13,1001.8625
1007.83563,1009.29315,1005.6925,1005.5119,1008.7431
1003.42377,1005.14124,1000.0637,999.3619,1003.71564
1007.1406,1006.5106,1003.35626,1002.65436,1005.33124
1008.1937,1007.0144,1002.3162,1001.2225,1005.5175
1006.7919,1006.55,1002.0769,1001.54565,1005.03687
1001.38,999.7,998.39185,997.7994,998.7025
1009.52625,1010.1887,1004.365,1003.85876,1009.01935
1021.0175,1019.3806,1017.445,1016.8375,1018.39624
1008.8906,1006.3375,1005.5681,1004.6406,1005.3644
1010.3844,1007.6919,1006.7275,1006.1,1007.1344
998.2394,995.6794,994.4294,993.47375,994.85626
994.4969,992.54877,991.54126,990.89935,991.9225
1010.67,1011.96936,1008.47815,1008.40814,1011.595
1018.8125,1018.71,1016.3656,1016.04376,1018.16187
1019.39435,1020.8088,1016.45685,1016.2488,1020.09814
1005.9294,1005.4294,1002.9944,1002.5719,1004.5425
989.52875,992.2125,984.03125,983.705,990.6369
994.83813,995.8688,992.2381,992.02313,995.0556
982.1431,982.3575,977.7494,977.32,981.7675
986.735,991.22626,985.7031,986.085,990.64874
1010.3837,1012.3013,1009.3144,1009.3094,1011.9963
1024.5487,1026.2831,1024.5557,1024.6168,1026.1857
1022.8244,1023.6269,1021.7544,1021.5675,1023.23376
1014.44,1016.35626,1011.3206,1010.96185,1015.51624
1019.885,1022.89624,1016.7975,1016.65875,1022.1669
1023.6244,1025.5074,1022.1319,1022.0425,1024.9644
1021.98,1023.59064,1021.1844,1021.08435,1023.08563
1018.39,1021.7,1016.39935,1016.345,1020.91064
1019.14874,1020.925,1018.6244,1018.53375,1020.3625
1000.77124,1001.27313,999.78,999.78815,1000.77814
1011.08936,1012.5756,1010.7056,1010.84814,1012.3169
1016.7625,1019.4244,1017.8881,1018.3544,1019.47565
1033.4044,1035.8612,1033.9781,1034.395,1035.9832
1038.1575,1039.2244,1037.9225,1037.9431,1039.1368
1033.57,1035.1156,1033.8806,1033.9025,1035.0018
1026.5444,1027.7762,1025.6606,1025.4163,1027.2037
1021.5719,1022.5156,1020.8881,1020.91815,1022.22437
1019.28625,1019.7512,1018.98126,1019.0631,1019.76373
1013.95685,1013.2537,1012.8169,1012.5681,1012.75
1010.3906,1008.9075,1008.08624,1007.5719,1008.2175
1009.6887,1009.97626,1006.1456,1005.6744,1009.0531
1016.4506,1016.8688,1012.99,1012.7581,1016.16064
1017.3975,1018.70935,1016.6869,1016.7469,1018.4856
1023.4825,1024.1681,1022.6369,1022.5606,1023.8656
1006.3425,1004.84875,1006.9525,1006.6881,1004.65686
1006.72876,1006.84686,1007.6119,1007.675,1007.02313
997.55,996.6369,997.7981,997.7975,996.6275
997.5419,999.45685,999.83124,1000.3956,999.7644
1014.8619,1018.20374,1018.1238,1018.64,1018.5519
1026.2476,1026.835,1026.3712,1026.5032,1026.4812
1019.76874,1017.48126,1018.7356,1018.21375,1016.84686
1011.215,1010.14813,1008.9963,1008.34875,1009.27313
1013.84686,1011.97626,1011.9988,1011.59,1011.5694
1020.0662,1021.1981,1021.04877,1021.14,1021.28876
1028.795,1030.4982,1031.5344,1031.5132,1030.9187
1034.845,1035.2019,1037.8356,1037.7069,1035.9125
1035.0231,1035.0481,1037.9156,1037.86,1035.5775
1034.4325,1034.5132,1036.885,1036.9988,1034.9781
1034.8337,1036.38,1036.3137,1036.3969,1036.5613
1031.735,1033.3706,1033.4894,1033.6188,1033.3506
1031.3888,1032.8363,1031.6875,1031.6506,1032.6044
1026.0563,1028.6981,1026.3213,1026.2468,1028.4
1025.3143,1027.7013,1025.9619,1025.9463,1027.525
1024.7388,1026.6375,1025.0024,1025.0331,1026.4106
1021.1181,1024.2037,1021.0825,1021.15625,1023.7506
1015.4856,1019.0706,1015.90436,1015.9969,1018.5056
1016.515,1018.15875,1017.45374,1017.5781,1018.20374
1017.67,1018.40436,1018.5181,1018.67065,1018.3856
1021.35,1022.09875,1022.0769,1022.08,1022.31
1021.53815,1023.4275,1020.84064,1020.78186,1023.15063
1021.88,1024.185,1022.9475,1023.14435,1024.1394
1026.8225,1028.8594,1026.2294,1026.1056,1028.5306
1026.7925,1029.2288,1026.2069,1026.2744,1028.805
1021.66876,1023.1794,1020.6294,1020.5494,1022.59064
1015.315,1016.10065,1013.695,1013.5481,1015.6044
1009.71124,1009.72687,1008.59625,1008.3894,1009.3725
1006.95935,1005.5637,1006.83,1006.6675,1005.6219
1009.2,1009.60876,1008.2388,1008.27563,1009.32874
1014.7494,1015.3425,1014.6931,1014.5575,1014.9294
1020.03876,1021.85876,1019.8206,1019.9281,1021.72186
1025.5132,1027.2382,1025.7518,1025.7468,1026.8306
1025.4275,1026.4069,1025.6506,1025.6787,1026.4381
1025.5707,1026.5413,1026.6168,1026.65,1026.7788
1022.1362,1022.0019,1022.1106,1021.9256,1021.8156
1016.7544,1017.96936,1016.5544,1016.6175,1017.83374
1018.77875,1019.935,1018.89813,1018.82874,1019.76874
1015.0056,1015.5419,1013.23,1012.935,1014.785
1022.0206,1023.4,1021.0012,1020.91187,1022.91187
1025.9313,1027.1188,1025.3175,1025.2937,1026.9932
1033.9688,1035.2043,1034.5687,1034.5575,1035.2993
1034.705,1035.3738,1035.1356,1035.1675,1035.4275
1028.0837,1029.08,1028.3219,1028.3762,1029.1656
1019.29315,1021.6781,1019.3194,1019.2463,1021.52936
1018.7394,1020.21936,1019.2175,1019.21875,1020.02435
1022.97626,1023.84686,1023.7175,1023.6369,1023.98065
1023.1269,1023.0769,1024.7137,1024.6194,1023.5106
1021.0125,1021.8075,1021.725,1021.7125,1021.98
1022.7825,1023.77124,1024.2007,1024.1669,1023.95123
1024.0637,1023.53436,1025.1707,1025.0312,1023.9369
1023.35126,1022.3325,1023.84564,1023.73065,1022.6381
1021.5975,1020.5563,1023.27625,1022.9444,1021.0756
1021.8794,1021.1362,1023.7394,1023.6238,1021.7519
1021.535,1021.3,1022.92,1022.965,1021.8769
1018.02814,1017.41626,1019.8169,1019.6475,1017.84314
1014.6981,1014.7587,1015.515,1015.33435,1014.8681
1016.4519,1017.3225,1016.6344,1016.79376,1017.0831
1022.45685,1023.1813,1022.8212,1022.7431,1023.0619
1023.33936,1023.615,1023.1725,1023.1425,1023.8038
1022.1906,1022.1788,1022.8787,1022.7431,1022.40936
1023.055,1022.2394,1023.3694,1023.2556,1022.5775
1022.91565,1022.745,1023.8106,1023.72437,1023.1294
1023.08624,1022.8719,1024.2618,1024.1438,1023.39374
1019.15186,1019.52875,1019.1219,1018.945,1019.5469
1016.0031,1015.7981,1016.6344,1016.53436,1016.02686
1009.695,1009.7925,1011.16187,1011.09937,1010.1225
1013.6188,1015.4981,1014.2725,1014.52,1015.6231
1021.685,1023.9444,1020.89813,1020.9231,1023.5569
1021.2944,1021.3206,1020.095,1019.975,1021.0619
1016.8769,1017.52563,1016.59375,1016.3738,1017.04877
1016.09564,1016.71564,1016.02185,1015.96625,1016.4906
1017.4825,1017.8631,1017.265,1017.20435,1017.595
1018.8956,1018.84875,1018.8738,1018.7375,1018.6381
1017.7775,1018.0037,1017.7031,1017.4881,1017.72565
1017.1788,1018.0725,1016.47186,1016.505,1017.7475
1017.1219,1018.01685,1017.4256,1017.46124,1018.08875
1019.315,1018.40686,1020.17377,1020.1406,1018.67126
1018.5706,1017.4331,1018.85876,1018.7512,1017.5544
1016.38,1015.52875,1016.10876,1015.96564,1015.3812
1013.64624,1012.3675,1012.72375,1012.3425,1012.0087
1013.035,1012.59875,1012.2562,1011.97125,1012.2606
1012.08185,1011.34125,1010.8638,1010.64374,1011.14
1012.66,1014.46814,1012.3006,1012.46814,1014.4844
1016.95,1018.51624,1016.4925,1016.5106,1018.1456
1016.51874,1016.23376,1015.5031,1015.26624,1015.87
1015.3094,1016.7444,1014.2681,1014.35187,1016.41565
1019.305,1019.6244,1018.15063,1017.98376,1019.3719
1017.1969,1016.9575,1015.47125,1015.1575,1016.48315
1017.08374,1018.2875,1016.8031,1016.8675,1018.10876
1016.225,1015.46814,1015.975,1015.7575,1015.29565
1015.04065,1016.095,1015.90686,1016.1881,1016.21313
1021.45,1021.41565,1023.2463,1023.3669,1022.0119
1023.48627,1022.77875,1024.6088,1024.5781,1023.1156
1019.02313,1018.6262,1019.35565,1019.1756,1018.5481
1013.8075,1013.3956,1013.09875,1012.6775,1012.9881
1012.58875,1012.66565,1011.6,1011.4481,1012.4269
1016.5044,1017.0,1016.04126,1015.8831,1016.6675
1020.13,1020.1325,1020.35565,1020.2075,1020.0769
1020.5925,1021.8819,1020.98,1021.1075,1022.0481
1020.91376,1022.2512,1021.29376,1021.34686,1022.21063
1021.4288,1021.96814,1021.8056,1021.79065,1022.03564
1021.3875,1021.91125,1021.6119,1021.6169,1022.0719
1020.06,1020.59125,1020.21875,1020.16125,1020.6044
1019.4175,1020.555,1019.3162,1019.3881,1020.5556
1022.67,1023.9825,1023.775,1023.6406,1023.77313
1021.78937,1022.7569,1021.6,1021.4444,1022.40625
1019.8844,1021.8088,1019.9363,1020.0569,1021.745
1021.8925,1023.2825,1022.5719,1022.63873,1023.3169
1022.7275,1023.84937,1022.20935,1022.22125,1023.5687
1024.4912,1025.8113,1024.2212,1024.3237,1025.7156
1025.4119,1026.3788,1025.1444,1025.185,1026.2975
1021.525,1021.90564,1021.16626,1020.9525,1021.6675
1011.3237,1011.5831,1010.08124,1009.685,1011.0037
1006.0831,1007.03186,1006.0112,1006.15063,1006.79
1011.1269,1010.92,1012.35815,1012.3812,1011.15564
1012.4363,1011.48126,1014.9894,1015.23126,1011.9375
1018.8425,1017.1281,1021.4288,1021.52875,1017.95123
1018.28,1016.2438,1020.6825,1020.6344,1016.8956
1010.4469,1010.5806,1011.7456,1011.6937,1010.59875
1011.1894,1014.1238,1010.1287,1010.3013,1013.7594
1015.83685,1017.9169,1013.96814,1014.01874,1017.4888
1018.6725,1020.7562,1018.54565,1018.5075,1020.57935
1020.39874,1021.2506,1019.39374,1019.22876,1020.795
1022.97626,1025.195,1022.22064,1022.27625,1025.0032
1030.1244,1031.5819,1029.1556,1029.1418,1031.2262
1027.7169,1028.2863,1026.1619,1025.9594,1027.795
1021.59937,1021.9431,1019.8606,1019.6075,1021.2537
1020.15125,1020.3862,1020.86,1020.7075,1020.46
1019.1894,1018.6675,1019.47064,1019.29565,1018.5625
1016.3281,1016.25,1015.91,1015.71436,1016.0669
1020.4,1022.675,1020.47626,1020.65814,1022.6138
1030.8956,1032.0519,1031.1494,1031.1112,1031.9119
1033.8,1034.3588,1033.9681,1033.7524,1034.1506
1027.6506,1027.8618,1027.8306,1027.6188,1027.6575
1019.02563,1019.7481,1019.3081,1019.14935,1019.4888
1012.8956,1012.7356,1011.85565,1011.53625,1012.28937
1008.6331,1009.6131,1005.55,1005.22186,1008.64435
1015.77936,1016.8206,1015.3156,1015.2681,1016.47815
1017.3131,1017.5275,1015.03314,1014.77185,1016.95874
1018.1119,1018.96124,1016.27686,1016.14813,1018.35815
1007.5769,1007.395,1003.8644,1003.3787,1006.41125
998.785,1003.1788,995.3569,995.4225,1002.27936
1012.59686,1015.78436,1012.47565,1012.90875,1015.72876
1020.65186,1023.3169,1019.435,1019.40564,1022.71564
1021.4313,1022.7512,1019.65564,1019.4394,1022.04376
1020.14,1022.18,1018.8644,1018.835,1021.6675
1011.03186,1012.3725,1007.71625,1007.5119,1011.3038
1013.1238,1015.1231,1010.47125,1010.33875,1014.47
1020.2294,1021.27686,1018.1775,1018.0563,1020.8725
1021.83624,1022.5556,1019.7519,1019.6287,1021.9575
1010.18,1012.5744,1006.4462,1006.0675,1011.47375
1021.59375,1023.3325,1019.40375,1019.41437,1022.8725
1026.9956,1026.3569,1026.1869,1025.8824,1026.0188
1016.6344,1015.8212,1012.4981,1011.90686,1014.8906
1005.2969,1006.2431,1001.4306,1001.155,1005.2463
1011.4344,1014.34125,1010.0719,1010.27185,1014.04565
1022.6144,1024.6494,1022.4437,1022.57,1024.5074
1026.0707,1026.0056,1024.1362,1023.77563,1025.3081
1025.9519,1028.5725,1024.2875,1024.1475,1027.7731
1027.07,1028.6644,1024.64,1024.3013,1027.7963
1026.3456,1026.8363,1026.8337,1026.6012,1026.5481
1032.3163,1031.8069,1033.3356,1033.15,1031.7075
1032.0875,1032.105,1032.4031,1032.0238,1031.8469
1023.85626,1024.925,1024.2688,1023.97815,1024.5381
1017.4869,1017.85315,1017.125,1016.9444,1017.5469
1011.1356,1010.8275,1012.7463,1012.8744,1011.2275
1022.53375,1024.0188,1025.5463,1025.8838,1024.3087
1034.4982,1035.2426,1036.1132,1036.0325,1035.3137
1035.6675,1036.435,1037.1743,1037.1044,1036.3544
1028.5275,1028.9337,1030.7325,1030.7013,1028.9988
1019.9869,1019.70123,1022.7981,1022.7587,1019.8069
1018.3106,1017.19,1020.3719,1020.1788,1017.3956
1022.4263,1021.45123,1024.0132,1023.8044,1021.4387
1025.5675,1024.7606,1027.0969,1026.8531,1024.7781
1021.4275,1018.8375,1022.27185,1021.8119,1019.0631
1012.4913,1010.015,1011.6475,1011.17126,1009.79565
1015.94,1016.6238,1014.5669,1014.385,1016.0506
1016.0563,1015.365,1012.70435,1012.2075,1014.37
1021.76685,1022.33124,1019.60065,1019.4306,1021.8069
1008.54,1006.8031,1003.765,1002.9,1005.7656
1002.83185,1006.6219,998.02124,997.70374,1005.54315
1000.3206,1000.4225,997.09186,996.575,999.42126
995.1981,995.985,989.6813,989.0613,994.65814
995.97064,996.4794,994.3931,994.3219,996.04626
1006.14874,1006.58813,1005.7537,1005.6625,1006.45123
1005.1931,1006.7006,1003.0206,1002.9338,1006.14374
1009.7681,1009.52,1008.2969,1008.10815,1009.0094
995.07,996.6244,991.21625,991.1119,995.1869
994.36127,997.72186,993.20874,993.4281,996.77
1011.90436,1014.28,1009.41437,1009.33,1013.53125
1022.1169,1022.0,1022.0719,1021.935,1021.9625
1015.6819,1011.9275,1014.8137,1013.8144,1011.4975
1009.8006,1007.5575,1006.7275,1006.0144,1006.8794
1017.51624,1013.8038,1015.3044,1014.6625,1013.6287
1008.85876,1006.3106,1006.96936,1006.4444,1005.9356
1023.65186,1021.79126,1022.66376,1022.33,1021.72125
1026.8494,1025.8193,1026.345,1026.1781,1025.8107
1027.7863,1026.1525,1026.6957,1026.3031,1025.7394
1023.77686,1021.6269,1023.9462,1023.4425,1021.59814
1016.84814,1014.1306,1018.89124,1018.79565,1014.6625
1012.98315,1010.78375,1015.3237,1015.4775,1011.4169
1005.76624,1001.9869,1007.5644,1007.28876,1002.7506
1000.8906,995.53937,1002.7319,1002.3819,996.5012
1007.34625,1006.3756,1004.9581,1004.40936,1005.65
1008.53125,1004.8781,1008.945,1008.53436,1005.3206
995.3837,992.2225,993.33875,992.8038,991.85187
980.4263,979.16187,979.1781,979.0563,979.0075
972.20935,970.84937,970.4369,970.16815,970.66565
