"[299, 255]","[227, 248]","[287, 319]","[279, 328]","[230, 262]"
1027.7582,1028.4563,1027.61,1027.2462,1027.9675
1024.5513,1026.4606,1022.35315,1022.1838,1025.7856
1021.3525,1023.66064,1017.8644,1017.66187,1022.52
1021.6975,1024.3257,1019.2469,1019.3594,1023.4319
1022.79,1023.3862,1020.5025,1020.1944,1022.71
1018.01373,1017.52875,1016.145,1015.7075,1016.8931
1014.96936,1015.09814,1012.7681,1012.5087,1014.6144
1013.2388,1010.9025,1010.76,1010.1625,1010.2019
1000.0731,1000.23627,998.455,998.5006,999.71375
1025.8962,1027.9912,1024.9856,1024.9457,1027.6881
1036.4181,1036.8306,1032.9525,1032.685,1036.0806
1032.6512,1033.5463,1030.4169,1030.1288,1032.7119
1021.7469,1020.96936,1019.0425,1018.6875,1020.07935
1009.2413,1009.785,1007.0131,1006.77435,1009.21814
1009.17,1010.47375,1007.9269,1007.96625,1009.9919
1024.2056,1027.075,1024.7262,1025.195,1027.1869
1031.5231,1033.4337,1032.0519,1032.1881,1033.4231
1028.8912,1031.0032,1029.2869,1029.4525,1030.9956
1029.6282,1032.3444,1030.6869,1031.0018,1032.2913
1030.4181,1029.9113,1029.4257,1029.085,1029.5219
1024.6731,1022.3375,1022.97437,1022.1475,1021.39813
1013.8225,1009.8525,1013.15125,1012.45874,1009.40063
1013.51935,1013.64935,1013.0575,1012.83624,1013.48065
996.58124,992.39124,995.1919,994.4406,992.0669
994.1231,993.45935,992.6,992.33185,993.1525
996.65436,993.39935,998.32935,998.16376,994.1287
981.1131,982.0206,985.17126,986.1381,982.27936
988.2025,989.6069,989.7981,990.5081,989.85
1005.41626,1005.98,1006.1719,1006.4369,1006.14935
1006.8744,1005.28064,1007.14,1007.0444,1005.41376
1009.6525,1009.7675,1010.5656,1010.5544,1009.9225
1017.16187,1015.20624,1016.8025,1016.4431,1015.15186
1008.8094,1007.945,1006.59937,1006.105,1007.23065
1010.615,1009.20685,1007.995,1007.5744,1008.6844
1006.60315,1005.7075,1006.5156,1006.4888,1005.6281
1005.73065,1006.7706,1003.9963,1004.0125,1006.5037
1014.91815,1016.96124,1013.57623,1013.5875,1016.575
1010.82623,1008.36127,1010.16626,1009.925,1008.485
977.47314,977.34875,979.8606,980.0112,977.78937
980.6406,984.48376,979.9294,980.52936,983.88873
1004.1219,1006.8094,1005.1969,1005.5475,1006.9269
1020.9975,1020.97815,1020.3738,1020.28876,1020.96875
1029.2075,1029.2662,1029.485,1029.4463,1029.3331
1032.2344,1030.9487,1031.2731,1030.8676,1030.7894
1020.14624,1018.77313,1019.1881,1018.67065,1018.3206
1009.9975,1010.0469,1007.51624,1007.3069,1009.095
1011.1931,1012.3925,1009.1425,1009.01624,1011.78937
1011.66876,1012.71686,1009.58435,1009.27185,1011.9913
1024.5231,1025.9493,1024.6212,1024.725,1025.5969
1024.4926,1021.475,1023.54065,1022.83124,1020.9519
1008.76,1006.77313,1006.6906,1006.1781,1006.33936
1013.3906,1014.45935,1012.6269,1012.6025,1014.1825
1019.03125,1019.1525,1017.435,1017.1831,1018.7444
997.26685,993.79126,996.3125,995.76685,993.6069
988.03125,988.02374,991.29565,991.6194,988.52435
1006.86,1010.6894,1011.6156,1012.29626,1011.40686
1023.33813,1025.8319,1025.2256,1025.7,1026.1368
1027.6019,1029.91,1027.2887,1027.4287,1029.7119
1024.4006,1025.875,1026.1394,1026.4393,1025.9731
1031.895,1031.665,1033.7719,1033.9619,1031.8988
1035.7206,1036.4575,1037.9531,1038.1019,1036.6787
1032.8824,1034.0813,1032.8994,1032.7837,1033.9419
1021.8088,1023.4313,1022.21124,1022.4469,1023.42065
1017.85815,1018.9075,1018.3306,1018.3256,1018.88
1018.10187,1019.405,1018.46564,1018.40875,1019.3225
1016.4944,1019.2581,1015.2631,1015.27185,1018.7725
1013.4825,1014.70874,1012.0656,1011.9888,1014.2981
1005.66064,1004.58185,1004.7512,1004.6262,1004.72064
1005.8144,1006.29,1005.7394,1005.7319,1006.2562
1009.16815,1006.6956,1008.9381,1008.5831,1006.77185
996.2319,990.2544,1000.3056,999.34125,991.5175
993.315,988.8088,996.3856,995.8,989.3831
996.1325,992.83936,997.21124,996.4888,992.86127
997.0662,994.41187,997.2969,996.9331,994.5469
997.90814,996.0825,998.83875,998.40063,996.1119
999.1825,998.04376,999.625,999.4288,997.9944
1006.1,1006.14813,1006.1931,1006.17,1006.10565
1018.8019,1018.4375,1018.4494,1018.3181,1018.42377
1009.72437,1005.1369,1008.9581,1008.23,1004.97064
994.41187,995.02563,992.6356,992.45123,994.4263
1006.5875,1006.28564,1004.8787,1004.84564,1005.91125
1010.6769,1006.8156,1010.1362,1009.59,1006.8219
1014.59064,1013.39124,1014.275,1014.02435,1013.28625
1018.2488,1016.1575,1018.21,1017.8725,1016.2406
1001.4288,997.3738,1002.84937,1002.34436,997.9256
1003.185,1002.3744,1002.9487,1002.62,1002.1375
1003.8769,1000.84125,1003.5594,1003.26685,1000.9969
1001.66376,1000.5125,1001.97375,1001.97375,1000.8669
1006.0044,1007.305,1005.9231,1006.1275,1007.2775
1005.76874,1004.8081,1005.5325,1005.53436,1004.8606
989.2825,987.305,988.71,988.5019,987.2125
991.9306,992.4919,992.5419,992.8956,992.475
998.5625,999.6144,999.88,1000.3206,999.7175
1003.31,1003.03125,1005.0,1005.2463,1003.53815
1001.8794,1000.14124,1002.9375,1002.9369,1000.6362
984.3069,981.89685,986.5775,986.705,982.59125
963.6163,964.77,964.83813,964.9925,964.59375
971.03375,975.86,970.4125,970.96124,975.0481
996.0506,1000.52185,995.9919,996.3869,1000.1456
1009.92126,1009.1956,1010.46124,1010.4556,1009.3694
1002.21564,1000.84625,1005.91125,1005.9444,1001.53375
1008.58936,1007.71,1009.6769,1009.59064,1007.7631
1009.0712,1009.15564,1011.3256,1011.5056,1009.60376
1012.1956,1015.9325,1017.03937,1017.325,1016.6431
1021.375,1023.2619,1020.7444,1020.5775,1022.7581
1023.4725,1024.9038,1020.10815,1019.8931,1023.92377
1028.21,1029.5312,1026.0531,1025.715,1028.4631
1030.49,1031.6132,1028.4812,1028.3243,1030.7638
1035.6312,1035.3806,1035.7206,1035.4387,1035.2144
1026.4257,1027.8193,1026.0225,1025.8438,1027.5018
1029.2775,1030.79,1029.0531,1028.8544,1030.4425
1016.40936,1017.10876,1014.52185,1014.3237,1016.3787
1018.0875,1022.40686,1017.29315,1017.7556,1022.08624
1030.4237,1032.1368,1028.6969,1028.5012,1031.6544
1014.3156,1017.0519,1010.5425,1010.3013,1016.0681
1022.1369,1025.125,1021.2519,1021.35065,1024.7632
1029.0138,1030.3069,1028.4962,1028.3331,1029.8531
1033.5331,1034.6562,1033.67,1033.6569,1034.5044
1036.4175,1036.4337,1036.835,1036.7794,1036.4387
1035.3075,1034.9281,1035.7969,1035.66,1034.89
1029.9944,1029.3644,1030.4725,1030.3988,1029.3838
1022.33685,1021.21436,1022.47687,1022.40936,1021.26935
1015.6075,1014.8644,1016.5594,1016.545,1015.1344
1025.2137,1025.705,1025.5988,1025.4738,1025.6625
1034.9982,1034.7993,1034.5387,1034.3019,1034.4507
1037.1987,1036.83,1036.6787,1036.4331,1036.6025
1028.4756,1027.1957,1027.8125,1027.5569,1027.0713
1021.02936,1022.4244,1020.76874,1020.7606,1022.08374
1019.46436,1022.4531,1019.1344,1019.28687,1022.26
1025.1125,1027.6112,1025.2931,1025.5018,1027.5493
1023.1887,1026.3969,1022.59314,1022.71436,1026.0707
1029.8868,1031.7725,1030.3344,1030.4613,1031.7312
1030.1787,1031.9962,1029.695,1029.6562,1031.6262
1025.3981,1025.3131,1025.6943,1025.5425,1025.2037
1017.905,1015.5662,1018.7319,1018.3056,1015.7344
1016.14874,1015.71185,1016.98315,1016.7419,1015.64435
1019.715,1020.57935,1020.1756,1020.2,1020.62
1010.675,1007.83374,1011.1181,1010.7587,1008.09125
989.9575,989.43,989.77563,989.4506,989.2444
992.39685,993.6094,990.01935,989.84,993.0619
1004.28186,1006.17065,1004.7475,1004.985,1006.14435
1013.6725,1011.9675,1011.9881,1011.47876,1011.395
1009.305,1008.77435,1007.1525,1006.9894,1008.2388
1012.225,1010.71686,1010.63873,1010.40686,1010.4944
1004.7475,1002.9975,1006.66187,1006.8787,1003.5644
1004.95123,1004.14935,1005.3119,1005.47,1004.07623
1006.0731,1006.47437,1005.3137,1005.4919,1006.4819
1004.665,1002.5419,1003.6269,1003.24,1002.3744
1013.7575,1011.6163,1012.72125,1012.3475,1011.5494
1021.395,1020.4,1023.4288,1023.34436,1021.0
1020.5806,1019.8825,1022.8756,1022.875,1020.54
1011.89374,1011.15686,1012.83,1012.89935,1011.26874
1013.84875,1009.9794,1011.8862,1011.2175,1009.46313
1018.8187,1017.15436,1017.815,1017.5625,1017.0744
1020.72565,1018.24,1021.4981,1021.2975,1018.6362
1022.46564,1020.5419,1025.5162,1025.3712,1021.1669
1023.81,1022.40063,1026.7275,1026.455,1022.9975
1025.2212,1023.7413,1026.7412,1026.6182,1024.145
1022.79565,1021.96124,1024.1519,1024.035,1022.46063
1022.4412,1021.60065,1024.0763,1024.0519,1022.15063
1017.345,1016.53564,1017.5031,1017.285,1016.3569
1012.26,1013.2444,1009.21564,1008.8569,1012.3856
1014.8906,1013.755,1013.4338,1013.04315,1013.34186
1004.0694,1002.40186,1001.60376,1000.98065,1001.625
1007.27313,1005.45374,1003.07935,1002.3881,1004.6169
997.1775,995.03186,993.6887,993.0625,994.22626
1008.9556,1011.6881,1006.395,1006.35187,1011.0
1019.3175,1021.01373,1016.8306,1016.7631,1020.48065
1024.8676,1026.1294,1023.34686,1023.3638,1025.8337
1019.7275,1016.9306,1019.34937,1018.97125,1016.90625
1001.78937,999.4244,1001.16565,1000.9338,999.3625
1000.08875,1001.0725,998.4462,998.4363,1000.665
1006.85126,1008.53436,1006.15,1006.2919,1008.15186
1014.6362,1016.3638,1013.03564,1013.0,1015.89874
1011.47687,1008.1981,1008.9244,1008.3375,1007.655
1006.33124,1005.215,1003.7575,1003.3106,1004.65936
1008.84937,1006.98376,1006.22314,1005.6675,1006.445
1013.09125,1013.20935,1010.3,1009.9825,1012.59375
1016.8706,1014.9231,1013.90125,1013.39435,1014.1863
1009.905,1008.76935,1005.7875,1005.15936,1007.715
1018.72565,1019.5563,1016.59937,1016.58875,1019.03436
1015.805,1014.4888,1013.96436,1013.28314,1013.6369
1017.5475,1018.0044,1013.8856,1013.5056,1017.0637
1029.7087,1030.3938,1028.0074,1028.0437,1030.0956
1037.1418,1038.4644,1037.3806,1037.4313,1038.5475
1040.2456,1039.6925,1040.8143,1040.6857,1039.8093
1036.4531,1035.6619,1037.7957,1037.6338,1035.6963
1028.7887,1028.1112,1029.8143,1029.6194,1028.0869
1025.9868,1025.5363,1026.4044,1026.3588,1025.6118
1025.5444,1024.8688,1025.9119,1025.8625,1025.0381
1025.5219,1024.1462,1025.8462,1025.6843,1024.2881
1024.87,1023.525,1025.1937,1024.9819,1023.6813
1025.9213,1024.9694,1026.4894,1026.3788,1025.1931
1028.9257,1028.2712,1029.9675,1029.84,1028.7312
1029.8438,1030.2188,1031.98,1032.1306,1030.7225
1028.7043,1028.4269,1031.8119,1031.9912,1029.4888
1027.6863,1027.3788,1031.6362,1031.7856,1028.3944
1026.1594,1025.98,1029.3938,1029.51,1026.9469
1023.22687,1022.6325,1027.2444,1027.2388,1023.9494
1022.3219,1021.315,1025.4337,1025.2688,1022.3269
1024.8838,1024.8844,1027.6362,1027.7332,1025.6587
1023.1925,1023.83936,1023.89,1023.90186,1024.115
1016.95685,1016.83685,1018.21875,1017.9194,1017.09186
1012.795,1013.9925,1013.33813,1013.3575,1013.97314
1013.51935,1014.6769,1014.1875,1014.3781,1014.9363
1012.89124,1015.14874,1012.4225,1012.47565,1014.765
1011.40375,1013.27686,1010.13,1010.1525,1012.96936
1009.53876,1010.6813,1009.39,1009.4819,1010.5
1012.2825,1013.3575,1013.0206,1013.21313,1013.555
1014.5144,1015.04315,1013.5719,1013.57935,1014.85187
1015.9475,1016.9363,1015.02875,1015.1206,1016.8212
1017.83875,1018.59,1016.9525,1016.91376,1018.5469
1015.0006,1015.7388,1014.28,1014.3038,1015.83685
1012.9338,1013.14185,1013.9412,1013.8706,1013.315
1013.8631,1013.9794,1013.8862,1013.79376,1014.10815
1016.8162,1017.405,1017.6325,1017.65,1017.29626
1019.91376,1020.92065,1019.4494,1019.35626,1020.8906
1022.275,1023.8806,1021.78815,1021.8162,1023.605
1021.2531,1020.8806,1020.1863,1019.895,1020.475
1010.8181,1010.8762,1009.3663,1009.3006,1010.6669
1007.53186,1007.70935,1006.5506,1006.535,1007.5469
1009.95374,1011.1931,1009.7006,1009.6731,1011.22687
1019.075,1021.205,1018.2506,1018.34875,1020.7413
1022.1287,1023.84564,1021.5831,1021.6206,1023.525
1026.4537,1028.9038,1026.1619,1026.13,1028.7043
1026.4175,1028.1394,1025.7963,1025.7468,1027.7426
1026.0431,1027.2806,1025.6332,1025.6332,1027.1494
1025.4912,1026.6288,1025.0944,1025.15,1026.3344
1026.4513,1027.2288,1026.3181,1026.2662,1027.2644
1026.5737,1027.3832,1026.5425,1026.2831,1027.3774
1023.3206,1023.41437,1022.865,1022.8881,1023.34625
1021.34937,1020.7081,1021.20624,1021.0825,1020.775
1020.4575,1020.0031,1020.0513,1019.9344,1019.9219
1019.2587,1018.66437,1020.82935,1020.7081,1019.3038
1019.6962,1019.0175,1021.735,1021.4231,1019.40936
1021.1475,1019.4444,1022.66815,1022.32,1019.7081
1021.03815,1019.9275,1023.15186,1022.78625,1020.46063
1017.66437,1017.6575,1020.0669,1019.89874,1018.1362
1017.22876,1017.845,1018.01,1017.8844,1017.97186
1017.8975,1018.15875,1018.17,1018.09125,1018.2225
1014.1262,1012.6838,1014.7531,1014.5712,1012.79877
1007.6525,1005.8781,1008.5531,1008.40814,1005.8725
1011.235,1011.3212,1008.65686,1008.35187,1010.6625
1019.4581,1020.73627,1018.64124,1018.6125,1020.4481
1016.66376,1016.71625,1016.6156,1016.6094,1016.5581
1012.46814,1012.97,1011.0831,1010.9556,1012.65936
1015.7681,1016.9344,1014.5694,1014.64124,1016.675
1021.1431,1021.1856,1021.27814,1021.20374,1021.4844
1024.7087,1024.7919,1024.8075,1024.8131,1025.0975
1025.3531,1027.4631,1025.3469,1025.4594,1027.3588
1023.4913,1026.05,1023.40936,1023.46124,1025.8287
1020.1262,1022.105,1019.71436,1019.7275,1021.7369
1018.4406,1020.295,1017.79315,1017.8156,1020.14624
1017.16565,1018.40814,1016.8281,1016.77374,1018.0613
1015.3056,1015.5144,1014.4975,1014.465,1015.4381
1010.42,1008.945,1010.78937,1010.76,1009.0444
1005.21185,1006.3762,1005.83624,1006.1169,1006.3169
1014.7413,1016.0525,1014.76,1014.84064,1015.9375
1019.42065,1020.78314,1019.2919,1019.34436,1020.7125
1022.0544,1023.95435,1021.21124,1021.1356,1023.6106
1024.98,1027.5306,1025.6082,1025.6813,1027.3319
1024.6168,1026.1825,1025.5381,1025.7382,1026.1619
1023.7606,1024.6731,1024.5132,1024.5507,1024.6957
1023.0444,1024.0375,1022.9425,1022.95123,1023.84375
1020.78876,1021.37,1019.9856,1019.96625,1021.13873
1020.8731,1021.66815,1021.8656,1022.03937,1021.765
1025.2625,1026.1637,1025.8694,1025.9169,1026.3213
1024.2131,1025.0781,1023.97565,1023.88873,1024.9581
1023.5556,1024.0831,1023.3325,1023.2875,1023.9325
1027.0212,1027.2462,1026.9343,1026.9319,1027.2338
1028.2906,1028.9419,1028.2925,1028.3225,1028.915
1025.1356,1026.2281,1024.8818,1024.7662,1026.0219
1023.1319,1024.2106,1024.2007,1024.3494,1024.28
1027.3007,1027.6837,1027.5132,1027.4938,1027.8806
1028.6462,1030.3812,1028.6094,1028.6562,1030.3269
1029.0487,1030.8575,1029.5962,1029.6525,1030.7762
1029.11,1030.9219,1029.3293,1029.3856,1030.86
1029.8131,1031.28,1029.6907,1029.6781,1031.125
1028.7668,1029.8275,1028.3718,1028.3131,1029.5231
1026.4962,1027.4087,1025.6394,1025.6144,1027.1256
1024.41,1025.0819,1023.15314,1023.04376,1024.7869
1023.71436,1023.1044,1022.855,1022.5594,1022.9431
1015.5662,1013.55,1014.9256,1014.34937,1013.3075
1009.60315,1009.4456,1007.09375,1006.71124,1008.7681
1019.08624,1019.5669,1016.335,1016.0719,1018.9894
1021.5606,1022.5681,1019.8956,1019.6625,1022.0144
1025.1963,1026.5769,1024.1793,1024.0637,1026.2163
1029.3888,1029.8237,1028.8618,1028.8037,1029.7256
1029.06,1028.9844,1028.8293,1028.6324,1028.9006
1027.6075,1027.025,1027.8087,1027.6887,1027.0819
1023.7488,1022.51685,1024.9543,1024.8718,1022.78375
1017.6844,1016.91376,1018.53125,1018.47125,1016.97375
1009.7325,1008.8663,1007.97314,1007.6431,1008.4356
1004.34375,1004.66125,1003.08374,1003.04565,1004.38873
1004.2606,1005.51874,1001.9919,1001.92,1004.9956
1010.73126,1013.85565,1010.20935,1010.3719,1013.525
1021.97876,1022.7406,1021.03375,1020.8812,1022.375
1019.075,1019.3694,1017.8269,1017.5019,1018.8162
1023.60815,1024.7662,1023.17377,1023.165,1024.53
1029.2925,1029.5757,1029.7756,1029.6969,1029.6118
1023.90686,1024.0713,1023.65375,1023.46875,1023.8775
1020.8069,1022.08563,1020.8831,1021.02374,1022.11127
1015.4988,1016.2537,1014.1962,1014.02875,1015.85187
1006.415,1010.3725,1006.0494,1006.16315,1009.83685
1012.6694,1015.1344,1013.42065,1013.47565,1014.96436
1020.8306,1021.8875,1022.10126,1022.135,1021.7612
1026.3219,1026.4781,1028.3444,1028.36,1026.6262
1029.5106,1029.2775,1032.045,1032.195,1029.3175
1031.9257,1032.8918,1034.9825,1035.2382,1032.9263
1030.3257,1031.7131,1033.3113,1033.7212,1031.7087
1028.5881,1029.3469,1031.3456,1031.6763,1029.6368
1026.8944,1027.4819,1029.9243,1030.3337,1028.0431
1024.595,1024.1644,1027.1625,1027.5344,1024.7188
1021.89935,1021.33374,1024.42,1024.6232,1021.9575
1019.09064,1018.4906,1021.3,1021.395,1018.795
1017.9313,1017.4313,1019.89124,1019.90375,1017.545
1019.1069,1019.78125,1021.16315,1021.2594,1020.01624
1020.04565,1020.5681,1021.41125,1021.53876,1020.795
1020.2512,1020.84186,1021.6925,1021.96875,1021.1362
1026.2075,1027.6843,1027.6781,1027.8694,1027.8931
1031.4756,1032.3625,1031.7382,1031.71,1032.305
1030.505,1031.4694,1030.6025,1030.4794,1031.3231
1026.8794,1027.5593,1027.4457,1027.4231,1027.4794
1022.6925,1022.60315,1024.0413,1024.0469,1022.65686
1018.1431,1018.47626,1020.5506,1020.6925,1018.8006
1018.0,1019.27124,1021.0925,1021.3631,1019.7
1021.42377,1021.78937,1023.77686,1023.9931,1022.2369
1023.9419,1023.9969,1024.555,1024.4269,1023.87
1022.58624,1022.26935,1020.8731,1020.575,1021.84625
1017.6406,1016.0156,1015.27,1014.8075,1015.4431
999.0475,1000.36127,994.46375,993.9338,999.3856
1004.33563,1004.14935,1002.97626,1002.91876,1003.97
994.3875,993.90875,995.1025,995.1256,993.79126
999.15436,999.1975,999.7656,1000.1244,998.545
1005.36127,1003.33435,1005.8325,1005.6887,1003.2775
1000.46,1001.4437,1003.02435,1003.5613,1001.6044
1010.8019,1010.8325,1012.5056,1012.71,1011.1406
1015.53125,1014.5025,1017.14874,1017.235,1014.8681
1026.4725,1025.2582,1028.2225,1028.2887,1025.7375
1027.9056,1026.435,1028.49,1027.995,1026.4968
1012.28375,1008.48627,1012.24,1011.2656,1008.3781
1008.9075,1007.39935,1007.9487,1007.5744,1007.3181
991.84686,987.72125,988.40875,987.3769,986.77374
996.46814,995.2319,992.57,991.96375,994.59564
1001.2175,1000.5588,999.79626,999.53,1000.3762
1003.90186,1002.2469,1003.0131,1002.7406,1002.1319
1001.3306,1001.5375,998.84375,998.58374,1000.97565
1010.0719,1011.98,1009.46814,1009.5519,1011.63873
1018.85626,1016.77814,1018.21564,1017.71686,1016.4369
1009.70874,1007.5444,1007.3825,1006.8831,1006.8625
1015.1425,1016.6375,1014.3681,1014.425,1016.2981
1028.1212,1028.5887,1028.6306,1028.54,1028.4838
1025.1694,1026.0138,1023.84375,1023.5631,1025.5281
1026.9293,1028.1394,1025.7831,1025.6338,1027.6819
1028.4719,1028.8994,1026.6625,1026.2894,1028.2338
1028.4487,1028.675,1027.5406,1027.2375,1028.3356
1029.2756,1029.8057,1030.1881,1030.2375,1029.8181
1030.9962,1030.3606,1032.9081,1032.8644,1030.41
1026.7975,1027.19,1028.2382,1028.0887,1027.0306
1030.295,1030.9619,1030.0962,1029.8107,1030.5831
