"[299, 255]","[227, 248]","[287, 319]","[279, 328]","[230, 262]"
1025.6975,1028.0607,1023.85815,1023.915,1027.4025
1033.8882,1034.7238,1031.9882,1031.8,1034.1644
1031.4369,1033.4487,1029.3081,1029.2632,1032.5212
1022.5769,1022.22565,1019.60626,1019.14935,1021.3756
1014.96,1016.7394,1010.9431,1010.6931,1015.83124
1012.9419,1011.26685,1008.285,1007.6319,1010.3162
1004.1675,1006.37,1001.6281,1001.0144,1005.515
998.6213,995.8106,995.7606,995.1781,994.9375
1010.0631,1014.1131,1009.4625,1009.85,1013.4281
1025.2719,1022.5475,1023.5831,1023.03625,1022.3031
1002.60126,1000.48,997.84314,997.2625,999.28564
1003.5506,1003.47437,998.85876,998.2575,1002.33875
1002.45935,1004.7031,999.3794,999.2056,1003.8244
1012.35187,1013.3975,1012.09314,1012.16,1013.3625
1021.6325,1022.2875,1021.8681,1021.755,1022.33624
1027.1919,1029.2288,1026.2618,1026.22,1028.9775
1025.6318,1024.2506,1023.52625,1023.0531,1023.7612
1007.71814,1005.5513,1004.1869,1003.60565,1004.8656
1015.5719,1014.53375,1011.9456,1011.5594,1013.8225
1011.90375,1010.3013,1008.4938,1008.105,1009.73
1018.0825,1018.98376,1015.16565,1014.90936,1018.345
1014.1919,1010.02625,1012.0737,1011.275,1009.6156
1000.7419,998.775,997.66376,997.1337,998.305
998.96,995.9456,995.47375,994.8744,995.46936
983.9675,982.175,979.6825,978.8956,981.07623
978.17377,976.6475,972.25,971.2463,975.5419
989.21375,989.4913,985.53815,985.075,988.6475
1003.66876,1002.7506,999.2675,998.78,1001.8106
994.6906,994.22687,990.11127,989.46875,993.1906
994.71436,994.7,989.9256,989.23126,993.65436
1012.85626,1014.6894,1009.45685,1009.23315,1013.77563
1010.575,1007.59937,1006.96124,1006.11127,1006.5375
1004.98065,1005.34564,1000.59,999.7975,1004.2925
1021.5112,1022.825,1018.095,1017.8825,1022.14435
1033.3856,1034.8688,1030.4812,1030.2275,1034.1226
1033.4938,1035.7719,1029.5331,1029.245,1034.575
1034.7606,1035.7694,1032.4606,1032.2532,1035.07
1020.8731,1020.01373,1016.81,1016.29626,1018.53564
1018.33,1020.73315,1018.1725,1018.4625,1020.6169
1031.5513,1032.3444,1030.2244,1030.095,1032.2212
1037.7306,1038.6957,1036.2825,1036.1406,1038.38
1041.8025,1042.6488,1039.1226,1038.7275,1041.8113
1038.43,1039.3075,1033.2794,1032.8525,1037.7875
1037.3988,1039.79,1033.8007,1033.4313,1038.5068
1034.4556,1037.5507,1032.8512,1032.75,1036.7194
1030.7913,1033.8113,1030.3656,1030.2925,1033.2013
1031.1132,1032.735,1031.4125,1031.2825,1032.3894
1030.3918,1031.2019,1031.0463,1030.9519,1031.0288
1025.8788,1024.7394,1023.9425,1023.475,1024.2025
1017.28876,1019.2475,1015.4925,1015.4675,1018.7075
1024.5082,1027.0969,1022.9244,1022.8875,1026.5306
1026.0906,1028.395,1023.60376,1023.4963,1027.5082
1029.3181,1030.6044,1026.7762,1026.565,1029.9237
1020.29376,1019.78186,1016.22565,1015.54565,1018.7481
1002.8125,1004.0475,997.0656,996.4369,1002.8094
1006.02563,1008.5656,1001.8225,1001.115,1007.4625
1005.91876,1006.4531,1003.8875,1003.5975,1006.04376
1019.4775,1018.6375,1018.23065,1017.91876,1018.66315
1023.3881,1021.435,1023.47815,1023.21063,1021.4244
1014.9219,1013.34314,1013.41315,1013.01624,1012.47314
1008.91437,1007.4963,1011.10815,1011.6138,1007.8956
1020.14185,1022.26373,1026.575,1027.3694,1023.4994
1030.7262,1031.6637,1033.6869,1033.8193,1031.9712
1031.8962,1032.5344,1032.9894,1032.9706,1032.5094
1027.7738,1028.4868,1027.8431,1027.8582,1028.4031
1029.8818,1031.3544,1031.1831,1031.5757,1031.585
1033.6418,1034.2075,1032.6556,1032.4131,1033.7993
1024.8562,1025.9519,1021.2506,1020.95624,1024.8163
1022.41064,1023.41125,1018.47687,1018.18,1022.1181
1019.4494,1020.1194,1014.8769,1014.33374,1019.02814
1017.22,1017.7519,1012.85376,1012.28815,1016.7969
1009.4975,1010.2406,1007.40314,1007.2581,1009.7494
1011.2425,1012.40314,1011.0581,1011.1094,1012.185
1018.02,1017.85376,1015.275,1014.8762,1017.1369
1004.59686,1004.9281,999.53064,998.6962,1003.40625
999.1369,999.33,995.3212,994.9888,998.3575
1001.53687,1003.89374,1002.27374,1002.6719,1003.97314
1009.9275,1012.4375,1009.9519,1010.175,1012.3706
1008.21436,1008.7456,1006.97876,1006.88873,1008.56
1001.0144,1001.60876,1000.27563,1000.225,1001.3681
1003.31,1003.835,1002.6794,1002.64624,1003.6181
1009.41376,1010.6781,1007.8256,1007.8175,1010.3156
1012.21564,1013.10065,1011.4462,1011.4175,1013.0112
1016.7969,1015.8225,1017.7125,1017.67065,1016.09375
1001.355,999.39935,1006.52875,1006.97,1001.2431
1003.29376,1001.79376,1005.3425,1005.3875,1002.0556
1000.14,999.1987,1003.1731,1003.2681,999.90186
992.65875,990.40375,992.4625,991.97876,990.2175
985.6219,987.3275,985.09125,985.2356,986.9494
1007.0806,1009.22687,1005.9125,1005.95624,1008.84314
1014.3006,1013.065,1013.4881,1013.34375,1013.15
994.3137,992.83936,994.83624,994.5481,992.20935
985.14435,986.16376,986.54,986.64874,985.8306
995.3663,996.2556,996.5556,996.78564,996.54126
1006.5925,1007.5569,1005.8812,1005.9275,1007.5544
1015.9313,1016.59125,1015.3906,1015.42126,1016.58374
1018.8762,1017.57,1018.895,1018.83875,1017.83813
1017.34937,1014.6312,1018.5613,1018.4437,1015.07
1011.775,1010.90125,1015.29126,1015.6844,1011.6
1020.6219,1021.27625,1022.4556,1022.79376,1021.71564
1023.0425,1023.4506,1022.72186,1022.625,1023.29
1006.53687,1004.005,1004.85126,1004.4331,1003.7925
990.78815,994.975,992.6675,993.35815,994.96625
1015.795,1015.4844,1015.21375,1015.1431,1015.37
1004.65,1004.5569,1003.52814,1003.15,1004.03125
1000.4437,1001.2569,999.89813,999.9931,1001.0081
1015.3475,1016.03064,1015.84,1016.04065,1016.22876
1021.41315,1021.5625,1021.295,1021.27374,1021.5531
1016.58875,1013.9487,1016.625,1016.42,1014.15314
1015.4256,1013.5112,1016.395,1016.2456,1013.86127
1012.6456,1009.47876,1012.1912,1011.4437,1009.39124
1010.9975,1010.53564,1009.48,1009.34436,1010.23627
1014.35815,1013.7075,1013.8225,1013.7519,1013.72125
1009.77686,1009.4906,1011.56,1011.6319,1010.035
1021.65625,1023.40375,1023.3225,1023.57623,1023.6337
1022.8606,1023.7562,1024.1931,1024.1813,1023.7419
1011.48315,1013.28,1013.41125,1013.7875,1013.5106
1013.6138,1018.17377,1018.83374,1019.2925,1018.76
1018.1194,1020.05,1022.47687,1023.1287,1020.5019
1023.27875,1024.3325,1024.7582,1024.9912,1024.7163
1022.10876,1023.7175,1022.9369,1023.0506,1023.65063
1019.0544,1020.09937,1020.22064,1020.38,1020.1106
1021.84314,1022.83685,1022.8688,1023.27814,1023.26874
1023.77875,1024.5719,1023.85565,1024.0325,1024.7582
1015.66437,1015.63,1015.22565,1015.2,1015.66376
1011.27374,1011.16,1012.91437,1013.2519,1011.77625
1016.21875,1017.0769,1017.2512,1017.5075,1017.3894
1023.2394,1024.2225,1024.6118,1024.9025,1024.5431
1032.1069,1033.6707,1032.34,1032.5619,1033.7518
1025.6925,1029.0132,1025.1176,1025.1519,1028.6282
1023.8906,1024.0707,1023.72064,1023.6756,1023.79565
1018.855,1018.16064,1018.89,1018.78876,1018.15375
1005.9487,1003.96564,1008.73315,1008.6987,1004.53314
997.2625,998.42,1001.07,1001.29126,999.1175
1001.925,1002.3837,1001.5544,1001.47687,1002.3131
1005.76685,1005.885,1005.5606,1005.6281,1005.9437
1011.7469,1012.4412,1010.8144,1010.7125,1012.10815
1007.28815,1004.9406,1007.0069,1006.8119,1005.1944
1000.45123,997.59564,1002.52435,1002.645,998.57
1004.5694,1004.875,1006.3031,1006.58875,1005.2681
1003.83124,1001.48,1003.9169,1003.53186,1001.45123
994.6794,992.4888,992.22,991.8144,992.03186
993.7356,991.2587,990.7356,990.20435,990.6119
1004.2531,1004.0575,1000.5706,1000.19,1003.315
1018.7775,1019.4919,1017.6362,1017.6225,1019.41815
1023.1319,1023.2969,1023.5081,1023.565,1023.39624
1024.0769,1023.1069,1026.6881,1026.7668,1023.83185
1018.765,1020.4675,1023.74,1024.0181,1021.2406
1012.95374,1015.3038,1015.8044,1016.1188,1015.53064
1013.6987,1015.7506,1013.70123,1013.905,1015.52313
1018.16064,1018.07935,1016.20685,1015.985,1017.65875
1016.01624,1015.66376,1014.2419,1013.97437,1015.26
1014.1456,1012.4256,1013.3787,1013.1075,1012.20374
1012.935,1013.5544,1010.9456,1010.685,1012.83
1013.2519,1015.40625,1008.5719,1008.08124,1014.1675
1017.8306,1021.9875,1017.1912,1017.54626,1021.5775
1024.1274,1027.0256,1025.1506,1025.3824,1026.9493
1023.4675,1025.8063,1023.6575,1023.5806,1025.3738
1024.84,1026.7169,1025.1531,1025.105,1026.505
1022.9963,1024.7406,1023.0719,1023.1719,1024.6594
1023.4306,1024.1606,1024.2538,1024.2562,1024.2875
1023.8038,1024.6981,1025.7887,1026.145,1025.0988
1021.0825,1023.3725,1024.9469,1025.35,1023.90875
1019.66876,1021.46063,1022.6794,1022.9269,1021.885
1018.6969,1019.72,1020.42065,1020.3756,1020.05
1017.3844,1017.66876,1017.485,1017.4913,1017.4369
1015.3706,1015.025,1014.0119,1013.5619,1014.41
1017.76874,1017.9888,1016.5681,1016.4288,1017.665
1016.145,1015.16187,1016.4881,1016.3212,1015.16437
1010.79,1011.0669,1009.89935,1009.7525,1010.6919
1015.6919,1014.0825,1014.1244,1013.64935,1013.7919
1022.73065,1022.9881,1021.01685,1020.8975,1022.6194
1026.6431,1025.7281,1026.6438,1026.5018,1025.7738
1023.4313,1020.78436,1025.1356,1024.9606,1021.34875
1014.16064,1012.8656,1016.3194,1016.1125,1013.03687
1012.8644,1013.8975,1013.6694,1013.7512,1013.6763
1017.885,1018.0781,1017.9425,1017.865,1018.0375
1021.1075,1020.89124,1020.84186,1020.79626,1020.8881
1024.8488,1024.9169,1024.36,1024.15,1024.62
1028.6031,1028.8868,1029.2075,1029.1943,1028.955
1029.4269,1029.7394,1031.3219,1031.2512,1030.2556
1030.1268,1030.8163,1032.4625,1032.5775,1031.3075
1026.3738,1026.7206,1028.8562,1029.2113,1027.3163
1021.83124,1021.4244,1024.4775,1024.4343,1022.08813
1021.82623,1020.92,1024.2,1024.015,1021.26935
1024.8419,1024.0469,1028.64,1028.6494,1024.8644
1025.5757,1024.975,1029.6613,1029.5444,1025.8007
1023.90186,1022.94,1027.1531,1026.9844,1023.6806
1019.4331,1018.27625,1021.455,1021.34875,1018.8181
1016.09937,1015.1744,1018.90314,1018.96564,1015.87
1016.2706,1015.73065,1019.2075,1019.22125,1016.66125
1018.055,1017.35626,1020.2544,1020.22437,1018.08563
1017.83374,1016.8656,1019.6881,1019.5644,1017.3713
1013.3769,1013.0669,1014.70685,1014.5831,1013.0444
1011.0588,1009.665,1009.5069,1009.12,1009.21375
1012.23315,1011.57874,1009.78687,1009.28625,1011.0662
1014.4244,1014.645,1012.7031,1012.46936,1014.2594
1012.165,1012.885,1010.0062,1009.72125,1012.10315
1013.65375,1015.47876,1011.5225,1011.34375,1014.7569
1014.0131,1013.7469,1011.3237,1010.90314,1012.8237
1010.57935,1010.9394,1008.46875,1008.16565,1010.39935
1010.5375,1010.45123,1008.8681,1008.60876,1010.0581
1006.9531,1007.4988,1004.2494,1003.9725,1006.83374
1012.37,1013.48,1010.6806,1010.655,1013.07935
1019.72626,1021.04376,1018.7875,1018.78876,1020.8644
1024.0775,1024.1012,1023.4525,1023.2619,1023.90063
1017.3656,1015.6431,1015.9581,1015.6094,1015.27435
1016.995,1018.0662,1016.14124,1016.21124,1017.76624
1022.5519,1023.65125,1021.9344,1021.91565,1023.3975
1027.365,1027.9956,1027.9976,1027.9219,1027.8337
1031.2762,1031.1775,1031.5431,1031.4387,1031.0269
1033.5681,1033.1156,1033.5919,1033.5082,1033.1831
1029.8131,1029.1807,1030.9207,1030.7881,1029.3456
1025.3875,1024.3656,1026.9932,1026.9275,1024.7325
1021.655,1020.3131,1023.34875,1023.21564,1020.64185
1020.5044,1020.8975,1020.6406,1020.59436,1020.70685
1022.54626,1024.3137,1023.32,1023.2381,1024.1025
1023.0444,1024.9976,1023.3631,1023.54565,1024.9137
1024.8925,1027.2081,1025.2944,1025.4381,1027.1312
1025.0743,1026.6025,1024.7957,1024.8143,1026.365
1024.1344,1025.8562,1024.335,1024.4625,1025.8538
1023.01874,1024.4838,1023.405,1023.53375,1024.5587
1022.09186,1023.68,1022.8075,1022.92377,1023.83685
1023.9938,1024.2775,1024.8293,1024.7731,1024.5219
1025.1562,1025.2582,1025.3031,1025.3531,1025.5074
1022.5594,1023.1763,1022.28937,1022.3619,1023.1925
1020.0831,1021.6381,1019.9244,1020.0506,1021.64624
1019.59436,1021.21814,1018.8725,1018.96814,1020.8525
1019.3544,1021.1869,1019.3094,1019.4825,1021.0087
1020.0375,1021.3325,1021.0775,1021.1106,1021.5544
1019.045,1017.99,1019.7506,1019.7444,1018.49
1017.7494,1018.1756,1017.8544,1017.7825,1018.3806
1019.9412,1021.5125,1020.34814,1020.1763,1021.3606
1020.0694,1021.4306,1020.1069,1020.1794,1021.27625
1019.0131,1019.1806,1019.14185,1019.03125,1018.9981
1017.52875,1017.4506,1017.77563,1017.6931,1017.39813
1016.15625,1016.26,1015.97815,1015.83185,1016.0019
1015.65125,1015.77686,1014.8206,1014.6119,1015.5069
1015.5925,1016.02563,1015.04565,1015.0425,1015.97626
1015.17377,1015.24,1016.73376,1016.7438,1015.67
1014.315,1014.6694,1016.47437,1016.545,1015.21564
1015.3113,1017.2606,1016.01624,1016.0069,1017.15436
1019.59625,1022.3237,1019.48,1019.6819,1022.175
1025.8506,1027.6038,1025.8293,1025.9019,1027.4832
1026.1837,1026.6975,1025.3287,1025.125,1026.3481
1022.7994,1023.3738,1021.59625,1021.23376,1022.83124
1017.2556,1018.2569,1016.5225,1016.33813,1017.84064
1014.1244,1014.3694,1013.8862,1013.9506,1014.2294
1011.065,1011.6262,1010.1206,1009.95374,1011.3762
1016.70435,1018.66187,1016.5769,1016.61,1018.405
1020.84937,1022.3694,1020.10126,1020.0781,1022.0581
1012.5662,1013.09125,1009.8113,1009.5719,1012.3725
1013.90314,1015.0056,1013.9925,1014.045,1014.8644
1019.85376,1019.89813,1019.53375,1019.27686,1019.65564
1016.245,1016.04,1014.495,1014.23,1015.5775
1015.6806,1017.3144,1014.095,1014.025,1016.89
1016.7494,1018.3425,1014.6244,1014.53815,1017.8638
1013.8713,1014.92377,1012.1962,1012.15625,1014.5513
1016.8013,1017.79877,1015.53564,1015.3375,1017.3206
1017.2488,1016.97876,1015.7575,1015.47626,1016.54565
1016.465,1016.6125,1014.785,1014.51685,1016.10626
1021.14813,1022.2544,1021.3375,1021.35126,1022.2356
1021.77124,1021.725,1022.42377,1022.33685,1021.9425
1019.66187,1019.9356,1019.4888,1019.23,1019.6344
1018.1231,1018.33624,1017.26685,1017.0087,1017.97626
1024.6338,1025.6737,1024.7794,1024.8093,1025.76
1028.1737,1029.3031,1027.8738,1027.8231,1029.1044
1025.7712,1027.0844,1025.5431,1025.52,1026.8844
1020.84875,1020.8181,1019.29626,1019.02185,1020.39685
1017.46814,1018.6194,1015.9394,1015.9,1018.245
1019.29626,1019.79877,1018.6406,1018.6131,1019.47626
1024.8031,1026.1425,1025.9431,1025.8824,1026.2075
1029.3175,1029.2375,1029.5356,1029.3269,1029.1713
1024.0487,1024.7494,1022.97125,1022.7625,1024.3181
1022.3425,1023.97375,1021.6138,1021.6912,1023.74
1021.55,1023.1794,1021.3131,1021.3231,1023.0775
1012.905,1013.02563,1010.1831,1009.825,1012.1819
1000.6781,1001.9725,997.5706,997.255,1001.0687
1003.10187,1005.6044,998.7075,998.41815,1004.7394
1006.3819,1006.73126,1005.4344,1005.41064,1006.65936
1008.465,1008.315,1007.09186,1006.725,1007.7556
1009.0069,1006.84814,1005.77185,1005.1181,1006.1369
1012.68,1012.47815,1012.01373,1011.7425,1012.15314
1010.1094,1009.47314,1007.47125,1007.0031,1008.7975
1017.42065,1016.8688,1014.3769,1013.90436,1016.22125
1023.1969,1023.6956,1022.03815,1021.7356,1023.16
1021.96686,1021.3844,1019.71686,1019.17,1020.41125
1017.58185,1018.5037,1017.16626,1017.23126,1018.2512
1010.10315,1010.47375,1006.59125,1006.2587,1009.3806
1009.70374,1010.8031,1006.5806,1006.2537,1010.03937
1007.89374,1007.72125,1005.9919,1005.8175,1007.28687
1015.83563,1016.3075,1014.1788,1013.97186,1016.0112
1016.9944,1016.8063,1013.4944,1013.03876,1015.835
1016.88,1018.1344,1015.73315,1015.625,1017.7075
1017.025,1019.415,1016.97314,1017.21625,1019.3031
1020.1069,1022.165,1020.6156,1020.98627,1022.21875
1023.74,1025.2188,1023.7556,1023.8594,1025.0919
1020.45,1020.72375,1018.8787,1018.48315,1020.07
1012.7413,1013.99,1012.8113,1012.83813,1013.8237
1012.9775,1015.2381,1014.1813,1014.46814,1015.2519
1016.7681,1018.20624,1016.51624,1016.4431,1017.8038
1017.3281,1018.45374,1016.1975,1016.03625,1017.9263
1022.9256,1024.8225,1021.43,1021.08124,1024.2188
1019.06,1021.22125,1016.5588,1016.6375,1020.5175
1026.555,1027.9094,1025.0231,1024.9319,1027.4357
1014.10065,1014.21686,1010.7325,1010.4125,1013.3281
1009.79,1010.3606,1007.2919,1007.0513,1009.8925
1009.59064,1010.5494,1008.4344,1008.46625,1010.22687
1011.2644,1011.4794,1011.01685,1010.99,1011.4581
1005.8906,1005.495,1008.92126,1009.1981,1006.3575
1001.66125,1003.64124,1007.4988,1008.09064,1004.8231
1005.34125,1005.5119,1006.6025,1006.72815,1005.6975
1012.33124,1010.2625,1012.8069,1012.5687,1010.3569
1018.6856,1018.65814,1017.425,1016.9344,1018.08685
1016.5662,1016.9244,1013.65436,1013.3225,1016.1381
1021.0644,1021.1813,1018.47375,1018.22626,1020.6981
1014.2431,1014.85626,1012.08374,1011.9294,1014.4025
1010.7413,1010.645,1007.1756,1006.66,1009.76874
995.10376,996.155,991.7594,991.3688,995.54126
983.71936,987.5225,981.0712,981.10315,986.5875
1000.47314,1003.8575,999.34436,999.45,1003.3837
1007.6937,1008.40936,1006.5012,1006.39624,1008.0831
994.90436,995.6331,990.8794,990.41064,994.51624
1006.4956,1007.7969,1001.8837,1001.5475,1006.85815
1004.1763,1004.79626,1000.5012,1000.1281,1003.97064
1000.9794,1001.15875,1000.0575,999.97876,1000.9381
1008.03,1009.60065,1007.9919,1008.03125,1009.4494
1006.28937,1005.27625,1005.67065,1005.57874,1005.2944
1006.2325,1007.5756,1007.0581,1007.1231,1007.51624
1009.71814,1009.14813,1007.9419,1007.66815,1008.6919
1020.03314,1020.3731,1017.8931,1017.6981,1019.915
1024.2106,1022.1925,1023.24,1022.58563,1021.47
1022.7569,1022.27686,1021.70435,1021.48065,1021.89813
1025.8862,1026.0162,1025.8237,1025.4513,1025.55
1023.72437,1024.1793,1022.1937,1021.8681,1023.34
1033.6907,1035.0125,1034.26,1034.2125,1034.9656
1035.0275,1035.2482,1036.3938,1036.2944,1035.2668
1024.1012,1022.77936,1024.8832,1024.2625,1022.59625
1019.5225,1020.6213,1019.5712,1019.47314,1020.4469
1022.0,1022.16876,1020.58185,1020.3862,1021.7631
1022.13,1021.4475,1017.89,1017.34436,1020.3181
1014.54065,1014.7506,1009.7381,1009.355,1013.3525
1014.6175,1014.22,1012.85876,1012.5469,1013.6912
998.91815,996.855,992.5325,991.2356,995.5012
1007.8625,1007.15875,1005.16064,1004.7575,1006.78564
1016.525,1016.65686,1015.2456,1015.0831,1016.22186
999.15186,996.1887,994.6925,993.995,995.1156
990.52814,991.66064,987.4363,987.2775,990.51685
1012.9419,1015.22815,1011.79315,1011.76624,1014.8669
1014.27435,1012.7381,1011.07,1010.59564,1012.02124
1007.96,1007.9969,1005.16437,1004.8056,1007.29376
1005.0719,1002.58,1001.9419,1001.01874,1001.5062
1007.3775,1006.04065,1004.78125,1004.45624,1005.5087
1012.6763,1012.2969,1010.6525,1010.35187,1011.9331
1012.0662,1009.75,1010.1431,1009.6131,1009.3906
998.3225,997.1381,996.2519,995.76,996.4888
986.8169,985.3269,984.01624,983.58435,984.7463
988.1194,988.4381,984.23,983.7644,987.5469
999.5062,999.385,995.0469,994.5125,998.40186
1000.3269,1000.84937,996.22437,995.855,1000.0637
