"[299, 255]","[227, 248]","[287, 319]","[279, 328]","[230, 262]"
1026.6056,1026.88,1024.695,1024.5144,1026.5425
1012.83124,1012.78125,1008.9219,1008.04126,1011.83875
1019.6669,1022.9494,1017.7456,1017.8881,1022.435
1027.5156,1028.1062,1027.7462,1027.6807,1027.9719
1031.0168,1030.3131,1029.8544,1029.265,1029.5569
1027.4581,1027.7306,1024.4081,1024.1475,1026.7769
1024.8906,1025.7125,1024.0988,1024.1044,1025.4988
1028.1663,1029.2556,1029.2075,1029.1594,1029.3231
1029.2144,1030.7987,1027.625,1027.3025,1029.9706
1030.6138,1032.885,1029.4156,1029.2894,1032.2881
1026.5988,1025.9731,1024.7869,1024.3057,1025.2444
1012.375,1013.29315,1007.4331,1006.6944,1012.1144
1001.8025,1003.22314,998.3856,998.02686,1002.3269
993.6994,998.2825,989.77313,989.77686,997.2644
1006.1962,1010.0119,1006.0494,1006.58936,1009.85815
1015.3956,1018.1931,1015.1213,1015.5144,1018.0206
1021.0825,1021.8706,1021.78186,1021.72375,1021.8725
1023.83435,1022.6844,1024.9962,1025.0112,1022.79877
1035.1,1034.4543,1036.5231,1036.4519,1034.6556
1036.9988,1037.3962,1038.8632,1038.6332,1037.21
1032.9293,1033.0543,1033.8812,1033.8,1032.8269
1026.4231,1026.0669,1028.4243,1028.3406,1026.1332
1025.0707,1024.5713,1026.1631,1026.1581,1024.5925
1028.0074,1027.2632,1028.4569,1028.3131,1027.1993
1014.78937,1011.995,1013.77814,1013.2356,1011.77936
993.435,993.0613,991.09625,990.7425,992.54877
986.67065,988.0225,984.695,984.6275,987.4956
996.1831,999.8725,996.0538,996.22,999.5112
1004.63,1006.9963,1002.65875,1002.2925,1006.10626
1000.9475,1002.5081,996.27686,995.7438,1001.41315
998.76624,1000.0613,995.66876,995.47064,999.35565
1017.1781,1020.14435,1016.6337,1016.7456,1019.97876
1033.8313,1035.8638,1034.4938,1034.5344,1035.79
1040.4437,1040.8025,1040.1031,1039.6869,1040.36
1038.4637,1039.2913,1037.1082,1036.9487,1038.7556
1037.8682,1038.29,1037.4806,1037.2556,1038.0244
1032.74,1031.3688,1031.8363,1031.3337,1030.9675
1028.4219,1026.7156,1026.3425,1025.7456,1025.7063
1025.6412,1024.6863,1023.7025,1023.4475,1024.2063
1024.7131,1023.08124,1023.73,1023.3044,1022.70624
1023.34,1023.21436,1021.765,1021.54626,1022.8606
1016.9406,1016.47375,1016.3125,1016.1213,1016.2175
1016.0419,1017.46625,1011.79565,1011.2631,1016.4406
1017.59314,1016.16064,1013.7587,1013.385,1015.3956
1004.655,1006.8756,1001.76624,1001.7425,1006.0513
983.6669,985.08124,981.58813,981.65686,984.03064
995.1094,998.1106,991.89185,991.8244,997.28375
1005.9956,1009.5225,1004.3125,1004.5031,1009.105
1025.1687,1026.9443,1024.8969,1025.1176,1026.8962
1035.355,1033.5493,1034.7919,1034.5206,1033.5725
1013.84875,1009.36127,1014.4725,1013.5781,1009.4869
1004.45624,1003.22626,1005.4175,1005.2519,1003.23315
1019.71375,1018.4881,1021.09814,1021.225,1018.8031
1010.70874,1006.09064,1013.02,1012.795,1006.34686
1016.09875,1014.7456,1020.15,1020.65186,1015.555
1029.375,1029.7544,1030.5481,1030.64,1029.9481
1027.4243,1028.7869,1024.8618,1024.7025,1028.3075
1021.22186,1023.59875,1021.4725,1021.72437,1023.58185
1026.2806,1029.08,1027.5787,1028.0162,1029.2712
1025.8832,1027.2957,1026.9375,1027.1957,1027.4968
1020.7944,1020.84375,1022.4844,1022.61,1021.1575
1015.04626,1014.83,1014.9869,1014.90375,1014.915
1013.98,1012.6275,1014.0044,1013.8156,1012.74
1013.9,1013.3669,1015.9931,1015.91376,1013.5825
998.22,993.71063,998.36,997.3875,993.84686
991.3162,989.28876,989.365,989.0744,988.9256
993.78687,991.78815,992.40314,992.1844,991.68
997.9344,997.89685,1000.0581,1000.4775,998.47186
1017.305,1019.9625,1017.77625,1017.9825,1019.9825
1026.8875,1028.0693,1025.4369,1025.215,1027.7125
1015.835,1017.2537,1013.8244,1013.77185,1016.75
1020.91125,1019.82874,1021.845,1021.70935,1019.89
1009.2562,1005.60626,1010.52124,1009.8619,1005.72815
987.67,984.5656,988.71436,988.52686,984.9506
992.6669,993.3956,992.7612,992.70935,992.96
989.2019,987.72437,987.9469,987.52185,987.28815
989.6887,988.2944,987.7356,987.3625,987.85065
984.5131,982.46063,983.8144,983.6337,982.4494
991.3787,990.715,992.6781,992.71875,991.0175
989.3769,991.46375,993.6238,994.09436,992.1356
1012.90436,1013.485,1012.84064,1012.7975,1013.28186
1023.9306,1021.29376,1023.08563,1022.5325,1021.09686
1019.9988,1016.4175,1018.54376,1017.6262,1016.205
1022.9625,1022.2775,1022.83875,1022.71,1022.23065
1017.03815,1016.08685,1016.65436,1016.35187,1015.8375
1009.7225,1008.7438,1006.285,1005.77875,1007.9375
1012.0662,1010.55,1009.96875,1009.46564,1009.59875
1014.90875,1012.3181,1012.73,1011.9225,1011.73
1011.03125,1008.28314,1008.07,1007.3931,1007.5225
1013.95435,1010.1788,1011.35815,1010.79376,1009.3831
1013.5681,1011.0538,1010.33936,1009.705,1010.28815
1016.26373,1015.09375,1015.6244,1015.505,1014.91437
1020.86,1019.65936,1019.4506,1019.23,1019.33936
1024.8981,1024.5687,1025.1382,1025.0012,1024.4825
1025.8187,1024.0575,1025.4,1024.9019,1023.90936
1017.84375,1014.34314,1016.7994,1016.0644,1014.1294
1018.78375,1016.6813,1017.16626,1016.6375,1016.3738
1007.4819,1002.8144,1004.77313,1003.555,1002.145
1018.71814,1018.2344,1015.4281,1015.0756,1017.59814
1036.68,1036.7512,1035.98,1035.7231,1036.5156
1038.6519,1036.6556,1037.405,1036.7837,1036.2612
1030.4419,1028.1519,1030.9163,1030.5082,1028.2681
1021.9175,1020.0469,1021.9981,1021.71564,1020.0481
1021.58,1019.885,1019.70874,1019.27185,1019.5019
1027.7113,1027.5457,1025.8768,1025.5994,1027.0444
1032.7981,1032.1274,1032.1274,1031.8031,1031.8938
1026.5419,1022.96,1026.0575,1025.4694,1022.85876
1016.60565,1013.3375,1014.15814,1013.4506,1012.7725
1015.96564,1014.1975,1014.71564,1014.34125,1013.99
1015.0469,1016.76,1015.97186,1016.2825,1016.8169
1018.66064,1019.20624,1020.275,1020.4344,1019.3256
1025.5643,1026.1519,1026.5419,1026.5844,1026.2568
1026.8682,1027.6775,1028.2125,1028.3406,1027.7556
1027.7432,1028.0493,1027.9669,1027.7662,1027.7482
1027.9094,1027.5206,1027.6156,1027.2,1027.0457
1019.89813,1018.1912,1019.055,1018.8281,1017.96875
1015.21124,1016.39124,1013.34436,1013.2875,1015.8731
1009.16376,1007.3806,1005.7469,1005.09625,1006.70624
997.83124,995.65186,993.82623,993.0469,994.9331
1003.4387,1005.1337,999.98376,999.6819,1004.2681
1011.14,1012.08435,1006.3281,1005.7225,1010.83624
1000.5744,1002.675,996.28937,996.03,1001.5513
1004.91187,1007.5581,1001.1225,1000.83,1006.6356
1015.52,1017.5444,1012.23315,1012.0012,1016.76373
1011.23126,1013.63,1008.9231,1008.8894,1012.7562
1027.555,1028.995,1027.7993,1027.9056,1028.9613
1034.5869,1034.565,1035.0175,1034.9637,1034.4912
1030.0981,1029.6887,1031.5906,1031.4437,1029.8019
1028.4181,1028.1556,1031.22,1031.5875,1028.505
1028.6669,1030.0262,1031.75,1032.1731,1030.4219
1023.3019,1025.1106,1025.8888,1026.31,1025.3862
1019.005,1021.1106,1020.64685,1020.9338,1021.2656
1018.295,1019.0538,1018.66376,1018.8669,1019.16064
1015.4906,1016.4412,1015.77185,1015.97314,1016.6138
1014.7994,1015.5712,1014.4856,1014.6106,1015.5563
1007.95123,1007.85126,1007.26373,1007.245,1007.78564
1004.78314,1007.405,1005.29877,1005.66187,1007.3713
1011.59625,1012.5681,1010.2025,1010.16125,1012.2469
996.0575,994.5119,993.4988,992.98627,994.055
986.8187,987.04565,982.725,981.98126,986.3038
993.11,993.6925,989.2081,989.03064,993.0025
995.77875,991.2969,996.2319,995.90686,991.66565
991.275,989.1813,985.60626,984.7725,987.96814
1012.7562,1013.4519,1009.85315,1009.62,1012.89374
1018.41315,1018.28625,1017.3669,1017.3113,1018.22064
1021.2125,1021.5175,1021.215,1021.21313,1021.745
1018.845,1018.1475,1018.40314,1018.135,1017.9794
998.9869,995.9025,995.2388,994.5375,994.7125
1000.1806,1001.275,993.4575,992.5037,999.90186
1009.41376,1010.82623,1005.5325,1005.3731,1010.14
1018.6194,1018.1525,1017.3631,1016.9444,1017.20435
1022.6138,1022.5525,1021.0825,1020.6856,1021.9919
1030.9762,1032.19,1030.6088,1030.5819,1031.9625
1032.9125,1034.3207,1032.4631,1032.2244,1033.7532
1027.6581,1030.6375,1026.19,1026.1132,1029.7825
1029.0024,1031.8768,1027.6244,1027.6226,1030.9906
1028.9038,1030.9156,1028.9587,1029.0381,1030.8812
1029.6488,1030.0413,1030.9181,1030.8243,1030.24
1032.2362,1032.1356,1032.8237,1032.7131,1032.0363
1027.1206,1028.9419,1026.4169,1026.4175,1028.4125
1025.7582,1026.5906,1026.67,1026.5394,1026.5156
1025.1088,1024.3575,1025.175,1024.9637,1023.9963
1018.7644,1018.14624,1017.8175,1017.5056,1017.7406
1007.6337,1007.4169,1008.39624,1008.3525,1007.22375
1010.0731,1010.9981,1012.3181,1012.7469,1011.28064
1016.64874,1017.8975,1018.29126,1018.6756,1018.28436
1022.8306,1023.195,1022.9794,1023.0475,1023.22565
1022.955,1023.6406,1022.2413,1022.3106,1023.52875
1021.5731,1022.24,1020.685,1020.66376,1022.11127
1022.16565,1022.485,1021.23315,1021.20123,1022.38
1020.1325,1019.8019,1019.0494,1018.6831,1019.48627
1020.3675,1020.3731,1020.4431,1020.3237,1020.3475
1019.3906,1018.8275,1019.2544,1019.2575,1018.97
1015.65686,1017.4,1014.8925,1014.9319,1017.1319
1019.77435,1021.2081,1020.85187,1020.9075,1021.27435
1015.41376,1016.59,1019.8038,1019.7512,1017.1975
1011.72375,1011.65186,1013.72565,1013.7556,1011.97064
1013.9906,1013.3069,1014.0475,1013.97687,1013.20874
1020.7413,1019.9469,1020.16187,1019.8575,1019.47876
1018.3031,1017.1425,1017.8081,1017.5519,1016.9375
1007.84937,1008.1887,1007.0588,1006.94,1007.8713
1014.0106,1012.84937,1012.9462,1012.725,1012.8044
1014.95935,1014.0806,1016.0019,1016.0575,1014.28687
1013.42377,1014.72186,1015.33563,1015.52185,1014.7562
1015.89874,1017.03375,1017.8019,1017.9575,1016.8525
1007.82623,1009.08374,1007.34186,1007.1813,1008.4938
1013.7581,1013.475,1010.35315,1009.78314,1012.5075
1019.39624,1018.3131,1018.1869,1017.79877,1018.045
1021.45374,1023.1331,1020.6675,1020.6275,1022.6763
1024.4062,1025.4194,1023.5756,1023.5625,1025.1581
1026.1056,1027.9569,1025.6388,1025.7094,1027.7418
1028.5437,1030.4038,1028.77,1028.8163,1030.1412
1032.0669,1033.88,1032.5519,1032.6625,1033.8762
1031.2106,1032.8381,1032.3187,1032.3812,1032.8556
1030.4457,1031.8143,1032.0919,1032.1857,1032.0675
1029.0743,1029.8469,1030.1031,1030.0913,1030.205
1024.9788,1025.2312,1024.6412,1024.5319,1024.9443
1018.035,1018.015,1017.53876,1017.3088,1017.59186
1014.3825,1015.6863,1013.8044,1013.7919,1015.40314
1017.39374,1019.3725,1015.9956,1016.1125,1019.09375
1019.0425,1020.2544,1017.255,1017.2619,1019.97314
1017.53687,1016.03564,1016.72565,1016.6231,1016.1275
1015.98126,1014.8544,1015.2456,1014.9475,1014.64935
1018.6262,1019.16437,1018.66064,1018.6175,1019.2544
1021.39374,1021.9256,1021.33374,1021.38,1022.01373
1023.3725,1024.7025,1022.4625,1022.4369,1024.2288
1021.9363,1024.07,1021.2525,1021.3231,1023.64685
1019.2525,1022.13,1019.7319,1019.8869,1022.0012
1012.09564,1015.2544,1012.52936,1012.91064,1015.02563
1013.6863,1015.35187,1014.76624,1015.0694,1015.3975
1016.195,1017.2225,1017.0419,1017.3731,1017.36
1016.95624,1018.5544,1018.1675,1018.34875,1018.59314
1018.6875,1020.6962,1018.6875,1018.7419,1020.4794
1021.72314,1023.6312,1021.3131,1021.3606,1023.35626
1023.6919,1024.88,1023.65436,1023.66125,1024.9025
1021.5037,1022.40686,1022.0181,1021.97,1022.39874
1018.2569,1018.5069,1018.38,1018.3056,1018.3825
1013.99,1012.9888,1014.7275,1014.535,1013.0444
1009.2531,1008.83685,1011.3162,1011.20374,1009.3081
1007.41815,1007.0206,1008.1994,1008.14874,1007.26935
1006.5062,1006.6244,1006.8925,1006.8744,1006.6975
1007.54315,1007.65686,1007.96936,1007.9263,1007.6094
1006.35565,1007.7406,1008.5062,1008.735,1007.9375
1012.14874,1014.3675,1011.7706,1011.91376,1014.03436
1014.3069,1014.635,1012.6369,1012.52686,1014.2469
1014.825,1015.1869,1013.6431,1013.59564,1014.91
1017.2531,1016.6325,1017.6219,1017.5144,1016.72186
1014.15436,1013.2975,1015.4075,1015.33435,1013.1269
1012.1406,1012.0444,1011.9363,1011.7056,1011.65375
1008.2619,1007.9275,1007.15186,1006.90375,1007.53876
1006.6981,1008.34064,1004.33936,1004.2556,1007.77185
1008.6144,1009.01874,1007.4556,1007.3831,1008.8825
998.7025,998.3094,996.8231,996.43,997.695
1005.9988,1008.0469,1003.41187,1003.2494,1007.48376
1013.11127,1012.2875,1012.3169,1012.10126,1012.03564
1013.52563,1012.7019,1011.77814,1011.41565,1012.1781
1013.905,1012.4419,1011.22626,1010.6994,1011.90063
1014.5606,1015.47375,1013.08813,1013.0131,1015.0975
1016.2469,1015.9125,1015.3106,1015.02124,1015.35315
1000.2425,1000.14374,998.38,998.07,999.54126
1005.5975,1008.9169,1004.9356,1005.16815,1008.52936
1012.70123,1012.1069,1011.39813,1011.2019,1011.59314
1008.3187,1008.3663,1006.135,1005.96185,1007.85376
1012.41626,1013.97314,1011.3063,1011.335,1013.585
1012.45123,1011.2175,1010.0481,1009.4387,1010.5531
1012.1206,1013.1887,1009.1194,1008.9231,1012.51624
1013.20374,1013.1213,1011.1987,1010.8681,1012.4306
1007.9338,1008.09937,1005.5419,1005.3038,1007.48315
1011.5375,1013.1319,1009.2569,1009.2344,1012.6119
1005.1975,1005.5769,1001.3819,1000.71436,1004.35376
1012.47437,1013.7369,1009.89185,1009.89813,1013.14935
1014.0556,1014.2463,1014.0106,1014.0006,1014.40814
1017.7381,1018.9338,1017.9963,1018.0619,1019.0588
1022.7925,1023.6231,1022.76373,1022.78,1023.70624
1024.4938,1024.8113,1024.3824,1024.3606,1024.875
1022.22565,1022.9956,1020.9888,1020.8669,1022.685
1021.6825,1023.47375,1021.6344,1021.6456,1023.3038
1022.8025,1023.6987,1022.7631,1022.7944,1023.71375
1021.08624,1021.7394,1021.1219,1021.0694,1021.5719
1017.04315,1016.04877,1016.96625,1016.83563,1016.03815
1014.02563,1014.7431,1014.41815,1014.39624,1014.3756
1015.08624,1015.41626,1014.3269,1014.1,1015.105
1018.6863,1019.1675,1018.5769,1018.4475,1018.99
1015.6094,1014.84125,1014.4313,1013.98065,1014.2075
1011.21185,1011.8187,1009.22314,1008.9881,1011.225
1016.01624,1017.17065,1013.5662,1013.4338,1016.68
1015.6931,1014.6931,1014.735,1014.6356,1014.3688
1010.71936,1013.8137,1010.52936,1010.795,1013.4462
1015.46375,1015.8706,1014.3075,1014.1725,1015.41626
1004.1213,1002.84564,1002.3169,1001.9369,1002.41187
1003.29877,1003.41626,1002.03,1001.9419,1003.2519
1011.33813,1012.6956,1008.95935,1008.7594,1011.85187
1018.51935,1019.2631,1016.2975,1016.02313,1018.57
1019.4462,1020.46814,1017.91315,1017.8569,1020.11127
1018.9263,1019.2075,1018.08813,1018.02563,1019.07
1013.79565,1013.40686,1015.39435,1015.3738,1013.8156
1007.8013,1006.1575,1011.47314,1012.40686,1007.4412
1012.9419,1013.71,1012.8719,1012.8856,1013.7031
1011.0519,1012.045,1008.3694,1008.1806,1011.34875
1005.3625,1006.9394,1002.5519,1002.3906,1006.20435
1011.60376,1013.5519,1009.1788,1009.1769,1012.95123
1014.77563,1014.52,1014.705,1014.71124,1014.53815
1016.41187,1017.97314,1018.2981,1018.57623,1018.27875
1024.1669,1024.59,1023.6394,1023.5681,1024.5044
1027.1294,1026.6819,1026.9712,1026.8918,1026.6274
1029.3087,1029.6062,1028.5094,1028.2288,1029.1425
1030.0425,1031.2075,1028.485,1028.2675,1030.5875
1032.725,1033.5319,1032.2819,1032.2794,1033.3562
1029.8938,1029.8113,1030.7225,1030.6218,1029.8406
1022.9913,1023.435,1024.5363,1024.3969,1023.6756
1019.7775,1021.15,1021.1188,1021.2919,1021.1731
1024.5262,1024.5663,1024.7993,1024.6743,1024.4207
1027.2957,1027.0575,1026.8125,1026.6813,1027.0132
1026.5038,1025.4994,1026.8782,1026.7163,1025.5419
1022.7544,1021.95935,1024.3644,1024.2919,1022.0031
1021.64374,1021.5112,1023.35626,1023.21936,1021.4725
1024.3632,1023.9406,1025.6757,1025.4688,1023.9394
1026.7094,1026.8081,1028.1737,1028.0194,1026.73
1026.9194,1026.7875,1028.5525,1028.4357,1026.8387
1024.8656,1024.2618,1025.9175,1025.7656,1024.3157
1023.65564,1023.1169,1023.85187,1023.7575,1023.1138
1018.6819,1017.47437,1018.6962,1018.4231,1017.47375
1008.97375,1008.03876,1008.675,1008.3212,1007.8169
1010.58813,1012.7425,1010.4919,1010.545,1012.52124
1015.7369,1016.515,1016.09186,1016.02563,1016.29376
1013.9956,1012.7981,1014.1775,1014.0556,1012.92065
1013.3375,1010.6625,1014.59686,1014.4844,1011.2725
1021.8738,1021.10376,1024.3113,1024.2275,1021.545
1020.77185,1020.435,1023.55,1023.3206,1020.79315
1012.34625,1012.22626,1012.785,1012.64374,1012.06
1010.2444,1008.9519,1008.34564,1007.73627,1008.3331
1012.835,1011.03436,1013.40375,1013.14624,1011.22064
1017.79626,1016.0563,1017.9231,1017.7512,1016.2512
1021.76685,1020.555,1022.9288,1022.8187,1020.8113
1022.59814,1021.83813,1023.84,1023.73315,1021.85876
1023.5756,1022.64935,1024.6144,1024.39,1022.7706
1026.0325,1025.4413,1026.3169,1026.095,1025.375
1026.7625,1025.8225,1026.6538,1026.4137,1025.76
1024.6544,1024.1825,1024.1531,1023.8219,1023.85065
1025.085,1024.8219,1025.0018,1024.8063,1024.7231
1023.6425,1023.03436,1023.86127,1023.68,1022.90625
1019.5675,1018.105,1019.7481,1019.26685,1017.9994
1018.96185,1018.47815,1018.08185,1017.84625,1018.1863
1014.1337,1011.9875,1012.6675,1012.08563,1011.6094
1013.54,1012.4363,1010.1163,1009.5425,1011.8225
1005.5,1003.2531,1001.83563,1001.3225,1002.5606
1006.53064,1007.49,1003.4425,1003.16064,1006.78
1009.47375,1009.1406,1008.9281,1008.7481,1008.84186
1015.6956,1015.6094,1014.09686,1013.76874,1014.97
1018.6206,1019.08,1016.0094,1015.38873,1018.29065
1023.295,1024.5637,1021.41,1021.0025,1023.845
1025.7969,1025.7881,1025.7993,1025.6431,1025.655
1022.4875,1021.33813,1023.23376,1023.1744,1021.4319
1019.8669,1017.83,1021.1856,1020.91565,1018.085
1019.52686,1017.3862,1020.9319,1020.64,1017.47
1020.745,1018.8162,1020.45374,1020.03186,1018.635
1017.7631,1015.78125,1016.04626,1015.53687,1015.29877
1015.1269,1016.70435,1015.0,1015.1525,1016.5681
1018.9975,1018.96814,1018.07874,1017.8688,1018.77686
1013.91815,1011.8575,1013.38,1013.1181,1011.98376
1000.34375,998.14624,1002.2525,1002.28564,998.6181
996.27435,997.105,993.8731,993.79877,996.53815
1011.1669,1013.91,1011.14,1011.2725,1013.755
1023.78436,1026.0406,1024.3494,1024.2894,1025.8057
1028.2075,1030.36,1028.3525,1028.2538,1030.0225
1038.1262,1039.1963,1037.6138,1037.4493,1038.9213
1039.9187,1040.9081,1039.0657,1038.7981,1040.3582
1033.3612,1034.7225,1032.6981,1032.6012,1034.0856
1027.8519,1027.9225,1028.2288,1028.0425,1027.79
1019.54877,1019.41815,1019.35315,1019.08624,1019.0775
1024.095,1024.835,1023.7575,1023.66437,1024.6781
1030.1569,1030.2656,1030.1226,1029.8063,1030.0425
1031.2931,1030.4862,1030.6144,1030.2556,1030.2775
1032.55,1032.3768,1032.6581,1032.4125,1032.3213
1030.8481,1030.5887,1030.4387,1030.0024,1030.2744
1025.7181,1026.1362,1024.5413,1024.2119,1025.5825
1023.79565,1023.8644,1024.26,1024.0837,1023.6406
1021.0181,1020.28,1022.8225,1022.5375,1020.3569
1014.3244,1012.5519,1015.9331,1015.33685,1012.485
1005.4625,1000.3825,1006.03815,1005.41565,1000.77
