"[299, 255]","[227, 248]","[287, 319]","[279, 328]","[230, 262]"
1016.66626,1014.78,1016.215,1015.8113,1014.70123
1019.775,1017.74,1018.89124,1018.40936,1017.55
1020.65936,1019.9988,1019.76874,1019.5206,1019.6431
1021.7494,1020.91125,1020.84,1020.53375,1020.59064
1016.40875,1014.20374,1016.4894,1016.1125,1014.28
1007.97375,1006.07623,1008.28625,1007.92126,1006.07874
1006.7725,1004.53314,1004.8606,1004.5544,1004.3244
996.865,995.39935,994.7225,994.33813,995.0069
992.46936,989.5044,990.7519,990.3281,989.35187
978.5775,978.7475,976.5075,976.5425,978.09875
999.1244,1001.27124,997.0475,996.96,1000.73126
1009.975,1009.59564,1007.4225,1007.0769,1009.1344
1006.29626,1009.2512,1006.2,1006.3606,1008.8137
1011.72375,1011.41876,1010.40186,1010.3088,1011.2875
1002.3844,1001.715,1003.9412,1003.8725,1001.53375
1010.01685,1007.9025,1010.1769,1009.9025,1008.0525
1006.9462,1003.5225,1010.40314,1010.3775,1004.78125
1014.59,1012.135,1016.52563,1015.95624,1012.27625
1003.4244,1000.705,1003.0613,1002.42377,1000.4994
999.8056,1001.4825,996.51935,996.42377,1000.84436
1008.98627,1008.6138,1008.45685,1008.2356,1008.6744
1011.1331,1010.6194,1012.4325,1012.39124,1010.83685
1015.3575,1014.52686,1016.9506,1016.77814,1014.71686
1013.03436,1006.97186,1014.72125,1013.58435,1007.8787
1001.51624,999.5875,1001.7537,1001.1206,999.4387
1002.53625,1001.3744,1002.1794,1002.0687,1001.27814
1008.22125,1008.77313,1008.17065,1008.09,1008.59814
1007.54315,1004.46313,1006.53375,1005.9306,1004.20435
998.15686,997.625,994.4,993.8162,996.5725
1014.89685,1016.0156,1011.8862,1011.6788,1015.3306
1003.96063,999.84314,1002.9856,1002.46063,999.78436
1015.52563,1015.395,1016.64124,1016.585,1015.69
1033.1875,1033.0887,1033.5475,1033.2444,1032.8313
1032.7344,1031.6981,1033.9706,1033.1837,1031.5018
1022.9375,1020.7644,1023.8175,1023.21686,1020.8244
1026.4781,1026.7125,1026.0663,1025.8918,1026.5125
1029.3918,1025.7668,1029.4794,1028.8075,1025.9463
1022.09814,1018.28375,1023.5012,1022.52124,1018.5125
1016.3762,1016.34314,1018.42126,1018.1956,1016.3212
1027.355,1027.0669,1027.9419,1027.7476,1027.0144
1030.9475,1028.885,1032.1044,1031.53,1028.8788
1025.8231,1023.59314,1027.6893,1027.0369,1023.7494
1015.8306,1014.6269,1017.64874,1017.3081,1014.67065
1005.0769,1003.42065,1001.7356,1001.1106,1002.7431
999.35565,997.51373,995.3619,994.4944,996.60626
1003.97375,1006.24,999.3038,998.83685,1004.95624
1015.3594,1013.45123,1013.78375,1013.3875,1013.16815
1009.53,1007.65875,1008.3794,1008.02374,1007.4219
1004.8,1001.03,1002.6,1002.27936,1000.41815
1003.3975,1001.7419,999.33813,998.7388,1000.9725
1008.90814,1004.9456,1004.3063,1003.4369,1004.1044
999.54565,997.5525,995.34686,994.6881,996.82935
1007.5,1008.76935,1002.65375,1002.12,1007.6719
1019.4125,1020.58624,1015.33,1014.9263,1019.7575
1014.90875,1015.22186,1015.92377,1016.03,1015.5175
1022.02,1021.87,1021.9888,1021.8194,1021.8019
1022.2944,1021.095,1020.4331,1020.02563,1020.7944
1018.71063,1019.8331,1016.81,1016.6456,1019.465
1021.4531,1022.46313,1019.635,1019.52124,1022.02875
1021.70624,1023.275,1022.5,1022.6306,1023.20685
1028.775,1028.2812,1028.0475,1027.6981,1028.0106
1030.6631,1031.8569,1030.7981,1030.7963,1031.8712
1033.1807,1033.0575,1030.9762,1030.5056,1032.3981
1027.5062,1027.6188,1025.0162,1024.7675,1026.9788
1022.1956,1021.9269,1018.08813,1017.60376,1020.8044
1015.79126,1017.65875,1010.8137,1010.27875,1016.4281
1019.4306,1022.46625,1015.1794,1014.9481,1021.41125
1016.7381,1015.4281,1016.84375,1016.54,1015.22687
1003.04565,1004.5031,998.9437,998.4313,1003.5544
999.32623,1002.08435,995.1731,995.1975,1001.1744
1013.78625,1015.3125,1013.4819,1013.6169,1015.2025
1029.6282,1031.06,1029.9487,1030.135,1031.1769
1040.3481,1040.3456,1039.9131,1039.71,1040.1981
1033.59,1032.4531,1029.7081,1029.0625,1031.3475
1018.145,1017.41125,1014.32935,1013.85565,1016.64874
1010.39185,1009.39185,1008.7606,1008.42377,1009.2438
995.475,996.54877,991.5675,991.1069,995.6238
1003.7919,1005.4412,999.4331,999.02814,1004.4387
1004.9819,1004.46875,1003.0725,1002.78436,1003.9994
1001.7325,1002.8019,999.39435,999.305,1002.07623
1024.0356,1025.905,1024.7606,1025.0144,1025.9431
1024.8125,1022.2525,1021.70123,1021.0575,1021.2631
1022.08813,1023.01874,1017.8713,1017.4931,1022.0737
1023.91876,1025.0643,1020.8756,1020.66064,1024.23
1022.78,1022.765,1023.2612,1023.1775,1022.89813
1023.8812,1025.7937,1022.6319,1022.47125,1025.13
1026.4631,1028.9556,1025.3588,1025.2944,1028.3481
1033.8918,1035.5281,1033.7844,1033.7225,1035.13
1033.6656,1035.6575,1032.6506,1032.3394,1034.4962
1029.6837,1031.8519,1027.4407,1026.9144,1030.2388
1021.1294,1022.21185,1019.14185,1018.8925,1021.02814
1025.665,1029.2468,1024.2881,1024.5887,1028.8219
1039.3075,1041.9932,1037.8119,1037.6793,1041.2618
1032.7856,1035.8356,1030.6475,1030.4012,1034.8081
1031.7831,1034.8662,1029.5312,1029.2944,1034.1226
1027.4019,1029.3525,1025.3638,1025.2325,1028.7
1024.7262,1029.0693,1022.5669,1022.51624,1028.1212
1030.2712,1034.28,1029.5675,1029.6338,1033.5375
1031.3456,1034.6931,1030.1288,1030.095,1033.9075
1028.0269,1032.6031,1027.4832,1027.6106,1031.9875
1030.7594,1033.9369,1030.0563,1030.0757,1033.35
1024.6719,1027.2269,1023.34625,1023.2706,1026.4125
1015.2725,1016.7631,1012.9406,1012.83685,1016.2325
1009.465,1009.47437,1005.4412,1004.89124,1008.23065
997.2344,996.5687,994.23065,993.955,995.96875
1002.47125,1002.76685,999.535,999.2556,1002.2319
1005.8281,1005.03815,1004.2594,1003.955,1004.6694
999.61,1000.3187,997.6625,997.59314,999.96313
1015.0325,1016.2919,1014.03876,1014.01373,1015.955
1021.2,1020.2225,1018.6756,1018.1163,1019.28625
1017.7531,1019.0744,1017.125,1017.125,1018.89374
1025.2688,1026.6062,1022.5175,1022.2606,1025.825
1024.7037,1024.3875,1021.2775,1020.65564,1023.1944
1001.78186,999.26,997.8606,997.1956,998.01
995.8212,998.8,994.77435,995.1944,998.34564
1004.8837,1005.34875,1003.7775,1003.7394,1005.2413
1004.8738,1004.03564,1003.6975,1003.5513,1004.0681
1007.9263,1008.46686,1007.6025,1007.64,1008.3956
1016.6262,1016.205,1016.22314,1016.14813,1016.3038
1009.5206,1007.7612,1010.9525,1010.4994,1007.94
998.0025,997.83124,997.4319,997.2506,997.6394
997.255,999.16437,995.8819,995.9331,998.7125
1005.4819,1006.9506,1003.79626,1003.90436,1006.60315
1016.19,1019.4225,1015.8231,1015.9475,1019.21
1011.9869,1014.8031,1011.07874,1011.4231,1014.60065
1001.5481,1003.0025,1002.0687,1002.40814,1003.17126
1005.8781,1006.77313,1007.45123,1007.91125,1007.29376
1017.04126,1018.3975,1017.34064,1017.5675,1018.58813
1020.545,1020.65625,1018.6188,1018.41,1020.2625
1012.9981,1014.275,1012.54376,1012.7544,1014.24
1018.5425,1020.6331,1018.97064,1019.21814,1020.72064
1020.0737,1020.8731,1020.47626,1020.72314,1021.04565
1017.01,1016.5506,1017.52124,1017.5569,1016.7531
1012.72876,1010.415,1013.0469,1012.7775,1010.48627
999.7775,998.4475,998.6719,998.39685,998.15063
985.8819,985.78876,982.1775,981.98627,984.6912
999.02124,997.7581,995.0706,994.52686,996.9244
1003.89813,1004.16565,1000.0637,999.72815,1003.46185
1007.21185,1006.6912,1007.4581,1007.51685,1006.71436
1017.85065,1019.2512,1018.5556,1018.84937,1019.46063
1023.3825,1024.3662,1022.8069,1022.8656,1024.25
1018.53436,1020.14813,1018.01935,1018.1944,1020.0569
1015.5731,1016.82623,1016.35,1016.6887,1017.0662
1019.86127,1022.0513,1020.9475,1021.4375,1022.3931
1026.3387,1027.7231,1026.3556,1026.5643,1027.6887
1019.57,1020.15125,1017.64374,1017.46185,1019.64935
1017.2444,1017.41187,1014.61,1014.2531,1016.47626
1004.54626,1005.58374,999.5781,999.0637,1004.3063
1014.0719,1015.21436,1009.4525,1008.91376,1014.15186
1021.5156,1023.57623,1019.4125,1019.5044,1023.12
1031.335,1032.1538,1030.7412,1030.7694,1031.9519
1030.2881,1030.0775,1029.1713,1029.0337,1029.6675
1024.4706,1024.8031,1022.6375,1022.40125,1024.1807
1021.09814,1021.32935,1019.9319,1019.8606,1020.8631
1015.85,1014.6238,1014.02,1013.6781,1014.02814
1014.46,1015.3125,1011.8219,1011.7481,1014.6912
1016.0656,1016.91815,1013.42065,1013.2425,1016.29565
1014.1788,1014.5119,1012.5831,1012.5225,1014.1238
1011.1962,1011.3669,1011.08624,1011.0637,1011.195
1018.47565,1018.8831,1019.71063,1019.6987,1019.1856
1027.3975,1026.9187,1026.6606,1026.4094,1026.6494
1027.8356,1028.6907,1027.07,1026.9044,1028.49
1031.9375,1033.0394,1031.1669,1030.8025,1032.3882
1035.0431,1036.1606,1034.1062,1034.0969,1035.8043
1035.9081,1034.92,1037.1512,1036.9257,1035.3231
1031.8962,1030.57,1032.5281,1032.3263,1030.6218
1024.8938,1024.5481,1024.7931,1024.5156,1024.3306
1020.9444,1023.2656,1021.0444,1021.1863,1023.1394
1025.0225,1026.8682,1025.4819,1025.5,1026.7794
1014.9519,1015.6381,1014.6044,1014.4194,1015.235
1010.085,1011.83813,1006.6781,1006.5019,1011.0631
1006.9231,1007.1262,1006.53937,1006.45935,1007.125
1014.135,1016.89935,1012.92126,1013.0719,1016.64685
1021.6969,1021.5125,1020.1331,1019.8844,1021.1575
1006.0069,1007.0806,1003.235,1002.97565,1006.2056
1017.10876,1020.5662,1016.3856,1016.6169,1020.2413
1029.8969,1031.0481,1028.5206,1028.4175,1030.7937
1028.9862,1028.2007,1028.4207,1028.2819,1027.9882
1023.21313,1022.75,1022.3875,1022.03564,1022.08813
1023.48065,1025.1819,1021.5525,1021.5094,1024.6144
1035.8119,1037.5887,1035.0787,1035.0844,1037.1106
1038.2812,1039.4044,1037.535,1037.2444,1038.8856
1035.9838,1036.6694,1035.225,1035.0944,1036.3882
1029.8143,1030.0719,1030.2738,1030.3356,1030.3606
1022.1763,1024.7281,1023.4225,1023.5806,1024.7075
1020.32,1023.5325,1020.6094,1020.8269,1023.40436
1020.9931,1023.6937,1020.15936,1020.25,1023.4969
1017.22186,1017.71124,1015.6231,1015.5225,1017.3475
1018.53436,1020.1394,1017.19,1017.10065,1019.59625
1025.2113,1026.3562,1024.4,1024.3824,1025.95
1022.9381,1023.8025,1021.7325,1021.58435,1023.4319
1017.27625,1017.97375,1015.4988,1015.3425,1017.58124
1015.7019,1017.7006,1014.3725,1014.4725,1017.5037
1018.4481,1021.0094,1016.8638,1016.8137,1020.4981
1010.9581,1014.46185,1009.89685,1009.8756,1013.71124
1018.03687,1021.32874,1018.4988,1018.79065,1021.15063
1021.6475,1024.2244,1022.1975,1022.3069,1024.0557
1020.4481,1022.17126,1020.52936,1020.6362,1022.1
1019.10065,1020.6931,1019.84314,1020.03876,1020.635
1026.28,1027.8732,1026.8588,1026.8969,1027.7556
1024.69,1025.9613,1025.8119,1025.995,1025.9543
1021.29565,1022.505,1022.6344,1022.9294,1022.715
1023.89185,1025.5913,1024.2925,1024.4307,1025.6993
1021.625,1024.1837,1021.97876,1022.0606,1023.7569
1025.1462,1026.3962,1025.6807,1025.7512,1026.3718
1024.8818,1027.25,1024.0981,1024.0663,1026.8337
1026.2987,1028.0681,1027.0831,1027.1425,1027.9369
1029.3275,1030.2819,1029.8337,1029.7957,1030.1218
1030.9069,1031.2794,1031.2963,1031.3063,1031.3181
1031.3894,1032.0831,1030.9019,1030.865,1032.0719
1031.5132,1033.0319,1031.91,1031.8981,1032.9407
1030.0806,1030.74,1030.4263,1030.2925,1030.8207
1028.5593,1028.3157,1029.3756,1029.4556,1028.5731
1032.3113,1031.41,1033.1637,1033.1182,1031.8569
1034.3025,1034.315,1034.8806,1034.8544,1034.6268
1030.8175,1031.5619,1030.2518,1030.2488,1031.3768
1022.2294,1023.6163,1020.9256,1020.9481,1023.2463
1019.1725,1021.6375,1018.54626,1018.60187,1021.26373
1017.2025,1019.77563,1016.9363,1016.97375,1019.28687
1023.7475,1024.4862,1024.1462,1024.1613,1024.2644
1022.6725,1023.2631,1022.4494,1022.4194,1023.0769
1018.90314,1019.38,1018.40814,1018.27686,1019.015
1015.53625,1015.5538,1015.10626,1014.65625,1015.04
1012.9481,1011.5694,1012.6381,1012.485,1011.61127
1008.40436,1009.1163,1008.42126,1008.3975,1008.7706
1010.305,1010.0175,1008.66565,1008.285,1009.53564
1010.85126,1009.27374,1009.8125,1009.59875,1009.04
1007.1756,1007.3731,1005.9306,1005.7925,1007.09875
1013.54,1014.79065,1012.28125,1012.2606,1014.4894
1013.8725,1014.41565,1013.02686,1012.8638,1014.03876
1003.295,1002.6806,1003.3206,1003.1781,1002.8206
1006.41,1007.895,1004.98376,1005.0613,1007.4875
1011.59064,1011.39935,1008.71814,1008.41626,1010.6213
1008.91,1009.1213,1007.4269,1007.16815,1008.72064
1010.6281,1011.3219,1008.9256,1008.86127,1010.9956
1014.1838,1014.9969,1013.0106,1012.7675,1014.5775
1014.5475,1014.16125,1013.62,1013.22125,1013.66064
1016.90314,1017.7425,1016.3331,1016.0475,1017.28625
1020.97186,1021.9988,1020.905,1020.9988,1022.03564
1024.7188,1025.41,1025.2169,1025.1531,1025.3818
1023.8025,1024.7063,1023.8681,1023.9556,1024.7931
1022.47375,1023.145,1021.4481,1021.335,1022.7925
1019.6756,1021.2675,1018.895,1019.0075,1021.14874
1024.6925,1025.4231,1024.3456,1024.3732,1025.295
1024.3275,1024.8057,1023.8744,1023.73065,1024.4769
1021.2606,1021.92065,1020.4906,1020.2375,1021.5588
1016.69,1018.04376,1015.8675,1015.8306,1017.835
1020.27625,1022.41565,1020.95123,1021.1206,1022.38
1021.15625,1022.0975,1020.64374,1020.5806,1021.7325
1017.6731,1018.85815,1017.0631,1017.0525,1018.5581
1016.8119,1018.97815,1017.0519,1017.1994,1018.9581
1018.8119,1020.655,1018.96686,1019.0706,1020.6769
1021.0731,1021.52435,1020.65564,1020.5175,1021.1969
1017.52625,1017.3862,1016.875,1016.385,1016.7969
1015.33185,1016.0069,1014.6394,1014.655,1015.7381
1016.3013,1015.72565,1015.72375,1015.4294,1015.34564
1012.26685,1012.3688,1010.2562,1010.0581,1011.9369
1010.0175,1008.71686,1008.5519,1008.4406,1008.41565
1009.65436,1009.83,1008.9,1008.7506,1009.58875
1011.2031,1012.03815,1009.7969,1009.71185,1011.6962
1017.22626,1017.9462,1015.03375,1014.8856,1017.3056
1008.66437,1009.3175,1006.0625,1005.77185,1008.515
1004.73315,1006.6981,1001.5613,1001.41187,1005.9975
1011.51935,1013.6194,1010.2294,1010.2481,1013.3006
1014.3719,1013.65125,1013.6381,1013.6362,1013.78
1006.0687,1004.4938,1006.4919,1006.3044,1004.4469
997.85626,999.1806,996.1794,996.0494,998.5481
1008.2656,1009.7394,1008.78876,1009.0588,1009.66565
1020.28876,1020.0375,1019.26935,1019.03186,1019.6331
1022.28687,1021.71313,1021.26935,1020.85626,1021.16815
1016.8713,1016.14624,1016.6131,1016.47565,1016.045
1008.5506,1008.9294,1008.6406,1008.70685,1008.86
1004.2444,1003.275,1003.775,1003.6819,1003.2825
1009.35187,1009.5563,1009.3694,1009.34186,1009.425
1016.78314,1018.2581,1016.6356,1016.7019,1018.085
1019.4244,1019.84314,1018.35315,1018.20624,1019.495
1024.1132,1026.7119,1024.2869,1024.4207,1026.5275
1030.27,1031.8606,1030.2644,1030.2344,1031.5018
1031.3774,1032.9513,1030.9888,1030.915,1032.535
1032.99,1034.3163,1032.9231,1032.9225,1034.1226
1032.2788,1032.6937,1032.3425,1032.1713,1032.4944
1030.515,1030.7238,1030.755,1030.69,1030.7007
1030.6388,1029.6969,1031.6937,1031.5024,1029.7476
1027.0975,1025.3119,1027.6525,1027.3425,1025.4832
1022.66876,1023.8056,1022.52124,1022.46063,1023.4963
1023.6931,1025.7562,1024.1819,1024.315,1025.7043
1024.1088,1025.115,1024.3994,1024.3043,1024.8788
1023.09937,1023.385,1022.5025,1022.3025,1023.03314
1020.9931,1020.3606,1019.8819,1019.3831,1019.8619
1015.29065,1013.47064,1014.26373,1013.77185,1013.1794
1016.6362,1018.4356,1014.67126,1014.67377,1018.0719
1029.0813,1030.5262,1028.2831,1028.2725,1030.3788
1033.5631,1034.3812,1034.0837,1034.1444,1034.4025
1032.995,1033.5693,1034.7931,1034.9425,1033.7794
1029.2394,1030.1519,1032.4531,1032.7212,1030.6118
1021.72815,1023.1838,1026.5394,1026.4812,1023.6937
1014.72876,1014.61127,1017.52124,1017.6331,1015.02
1013.28687,1011.65375,1013.72186,1013.6044,1011.865
1016.6894,1014.6856,1016.3812,1016.15314,1014.6956
1016.9169,1015.7775,1017.27625,1017.1894,1015.89124
1017.5475,1017.1312,1016.4313,1016.14935,1016.7512
1022.7606,1025.0625,1022.35,1022.4025,1024.7894
1025.8732,1026.5863,1024.4525,1024.2069,1025.9868
1023.4469,1024.9331,1022.8844,1022.84125,1024.4962
1027.6294,1028.0256,1027.1737,1026.8944,1027.5919
1030.7,1030.4644,1030.1262,1029.6887,1029.9243
1026.1282,1025.81,1026.0387,1025.7137,1025.5743
1022.28876,1023.02563,1022.9256,1022.9456,1023.035
1022.1475,1021.61,1023.5831,1023.59814,1021.78125
1014.42,1012.5525,1016.4775,1016.2494,1012.9844
1008.1406,1007.2275,1009.02374,1008.9269,1007.40686
1009.15436,1008.7944,1009.41125,1009.3569,1008.89185
1010.42377,1011.3875,1011.73065,1011.90063,1011.545
1019.21,1019.03815,1019.2425,1019.2775,1019.0731
1023.4244,1022.3038,1022.7681,1022.4456,1022.07623
1020.91315,1018.84814,1019.59937,1019.1431,1018.5025
1016.3088,1015.9125,1013.3019,1012.8125,1015.28314
1017.6425,1016.28314,1014.35565,1013.8056,1015.705
1004.325,1003.3681,1001.1981,1000.8144,1002.78
995.5144,994.77875,994.16125,993.90936,994.5594
993.33124,994.95874,992.2625,992.3081,994.5144
1006.03375,1005.66125,1005.11127,1004.91125,1005.4925
1002.0131,998.4963,1000.72815,1000.1694,998.28937
996.2569,994.495,995.77686,995.54626,994.64813
1000.2175,1000.6675,999.1,998.9506,1000.31
1011.4875,1009.42126,1009.53125,1008.8681,1009.0519
1012.6806,1012.1106,1012.08185,1011.8756,1012.03876
1011.7594,1012.0475,1012.1231,1012.14874,1012.1194
1019.3281,1019.9625,1018.08185,1017.9256,1019.6869
1025.8975,1026.33,1025.6412,1025.2488,1025.9932
1020.5581,1021.53375,1021.17377,1020.90875,1021.27374
1020.0056,1020.71936,1020.1175,1019.8619,1020.53
1015.9794,1015.27435,1015.01,1014.5519,1014.895
1013.1763,1012.8081,1011.8375,1011.53625,1012.5556
1013.15,1014.70374,1012.4487,1012.5006,1014.54565
1018.54065,1018.1144,1015.77374,1015.4394,1017.6344
1011.34125,1012.8644,1008.22876,1007.89935,1012.1206
1018.8013,1022.4975,1016.5181,1016.7725,1021.8713
1023.53625,1025.2375,1023.28064,1023.10315,1024.7568
1015.0006,1018.11127,1015.0538,1015.285,1017.73627
1019.2406,1020.76624,1019.9344,1020.03064,1020.6744
1013.635,1014.6256,1013.29565,1013.1188,1014.1181
1012.3106,1012.6769,1011.60065,1011.4219,1012.3569
1006.6969,1009.1825,1003.53125,1003.29877,1008.4525
1010.8781,1008.0625,1009.01685,1008.53,1007.73627
997.72064,995.825,994.8269,994.40686,995.15814
991.84064,989.95,988.21436,987.695,989.0019
996.1425,998.27374,995.19,995.3056,997.77814
1004.5181,1005.8069,1004.65936,1004.89185,1005.8044
1010.9319,1011.9475,1008.8162,1008.70874,1011.5594
1013.4281,1013.36,1012.6788,1012.5106,1013.3787
1016.65564,1014.7356,1016.4394,1016.2444,1015.01373
1006.27814,1003.4625,1006.22314,1005.65125,1003.35626
1006.8025,1007.72815,1006.98315,1006.8475,1007.48126
998.1125,996.73627,998.1912,997.9319,996.66376
999.22876,997.96,997.59125,997.27625,997.7425
1001.65436,1000.3256,1001.265,1001.03314,1000.35
992.96625,992.0469,992.84314,992.56,991.9244
995.2369,993.93,994.505,994.375,993.94
998.97064,997.4481,998.5087,998.3019,997.47626
