"[299, 255]","[227, 248]","[287, 319]","[279, 328]","[230, 262]"
20.202799,26.812307,13.968201,16.727957,25.937634
25.264153,13.784055,17.628832,17.088383,12.967126
5.0697465,5.183645,5.262147,6.195948,5.028893
24.05926,9.652267,9.196572,5.166606,9.42971
26.18525,17.292887,11.076826,9.93959,13.393001
13.84045,9.964656,19.068989,21.767113,10.620357
34.816048,33.4536,23.955656,23.64251,29.657843
32.36094,31.38105,22.44892,24.592134,26.635067
10.669888,9.599938,5.748725,6.484224,7.749344
34.717102,33.58456,22.655752,24.7062,28.649042
34.355995,33.18584,23.882004,24.836174,29.503693
32.499706,29.615875,20.28746,21.934021,24.409658
27.909641,27.424377,16.812183,14.4726305,21.614964
11.491909,27.76366,20.824804,20.134363,25.266562
19.145582,27.620934,17.174433,15.87279,25.117895
2.969554,2.2363636,5.293413,4.6357603,2.3655498
3.5984387,13.524309,5.120399,4.0554233,17.736109
13.74218,6.2182894,16.237478,16.280466,7.1783156
19.632334,24.39501,14.616586,17.918121,22.729113
25.253105,20.180573,16.33675,15.334041,16.634369
13.3538265,6.2471805,5.488469,6.0124006,7.140613
10.329342,5.821747,10.973294,10.332408,5.7517176
6.7007604,12.884644,8.018369,9.651883,8.60443
21.24607,10.954579,3.962533,4.9253836,9.921607
21.550228,25.021383,12.233188,15.214411,21.178389
30.528809,13.81963,9.206168,15.719796,14.280294
2.3923364,4.6991005,6.1719217,6.525932,5.6738462
29.255722,22.078272,16.500198,19.135567,18.927824
17.770847,12.992454,5.5620284,4.0024095,11.851545
3.3471527,7.087713,11.413887,13.472183,6.144844
6.044767,10.384329,3.0437763,2.6372533,6.465523
13.1565,26.846582,17.027025,19.269964,21.662786
8.06049,13.070375,10.572085,11.813166,14.996297
9.618461,16.662893,16.91967,18.747793,17.704514
16.731987,10.228283,23.45537,24.052954,9.085756
11.430363,9.394104,4.8164935,6.0504603,9.9788065
20.67129,19.321352,7.110419,9.779914,21.830654
9.707867,5.6693945,4.8595796,3.9236693,4.476217
16.757984,15.259782,12.081646,13.711507,13.7997465
13.846226,25.995975,20.98307,18.865007,19.570545
6.405342,35.113422,8.467394,10.014451,28.02678
3.7138875,4.2044687,5.0205984,4.781784,3.5840106
24.308622,35.11791,22.638536,25.390146,29.850002
36.1955,33.545486,26.002226,27.90891,26.054585
5.8365355,8.174794,9.544936,8.60736,7.3491406
5.0569024,20.57874,13.5745535,13.00801,14.3127
8.267626,20.05259,11.180094,11.94443,10.441552
21.217718,28.097,26.229746,19.0254,23.42442
41.483982,37.91944,25.687262,30.67958,35.76508
33.86158,42.045948,32.851852,33.85396,35.405285
36.11974,41.88153,18.426838,18.421665,25.233164
20.030428,38.58839,14.185524,25.506193,21.74432
26.809828,43.00712,27.371544,29.092802,22.9422
23.34459,48.017773,16.429161,16.941883,35.9716
50.55149,50.15389,34.739624,32.525364,43.636612
43.356213,51.841103,36.239132,34.49891,44.77047
49.640053,52.398335,35.95391,36.894993,44.845337
49.43645,44.46936,31.249104,28.053726,37.026173
24.246727,20.352448,13.306636,13.438308,25.13945
25.99402,46.292084,20.95992,25.561558,42.24508
18.953777,11.906446,19.50879,22.96157,11.996972
18.661545,7.541755,6.140879,3.1590712,10.112653
4.392168,5.126816,18.078133,19.595652,7.426581
6.752912,16.630054,19.429914,23.207367,18.199863
25.489954,41.47927,34.24035,42.032112,37.289513
59.575806,64.01825,52.00279,54.518627,56.5005
11.692031,20.750437,13.632213,13.86527,20.407732
25.226767,27.518366,37.911438,35.44993,26.10091
9.396808,37.754097,18.153896,16.395971,28.825066
70.491104,61.641613,51.916935,57.464146,60.041203
73.96263,64.394196,59.191322,58.972595,55.56129
24.446554,33.61608,26.947868,33.040054,29.406605
31.724659,64.67069,37.77995,41.268646,55.199192
14.92173,27.298967,8.014535,9.283341,31.404016
20.704098,15.914465,20.896854,29.237001,10.359509
13.148064,20.484074,14.791401,13.200416,21.490414
29.086899,52.734,46.2084,55.242886,49.719017
51.151558,46.775276,45.80893,47.31889,31.016687
10.640207,20.210993,42.785122,38.432705,11.804404
74.79465,91.726524,67.37533,60.902477,75.685875
72.89277,87.48739,65.58539,74.2673,77.75587
58.64599,45.73572,55.306305,49.96745,46.72313
8.937354,31.565592,20.371603,23.08318,33.132553
8.859732,46.552914,19.951035,18.726006,22.657406
29.027655,63.959064,24.066193,22.578493,45.14846
47.990414,89.67897,39.46988,27.271343,72.93128
31.264034,36.61599,16.01899,12.704622,37.506954
31.246372,22.56103,37.675095,30.572874,19.23702
30.904345,28.671463,24.964233,28.473066,32.297813
34.418587,78.427414,40.970455,41.97955,72.4314
53.547993,105.41338,83.31679,89.652084,90.455956
69.48717,60.681828,58.939404,66.40499,58.36082
16.542953,21.805614,20.638264,26.187775,20.45111
34.315834,29.703356,71.971535,69.53741,48.241722
20.308887,18.849901,10.024828,9.93734,17.07289
84.72623,118.337685,96.783516,100.75478,95.63064
23.720999,61.63685,50.250675,53.67856,54.706417
44.74411,102.775406,91.846596,95.44062,87.62355
73.07968,136.96284,84.80991,106.03047,108.6241
68.97646,114.95321,67.04167,76.45826,94.340004
89.41852,101.868935,76.0858,72.68056,100.275826
67.53808,129.24915,86.40182,92.49073,107.50882
122.90724,126.03343,112.42723,99.659546,124.27994
135.17343,121.925896,115.621,115.95701,112.4401
128.78616,154.34886,120.87516,121.11589,135.57173
132.22037,150.62198,116.66964,137.20302,135.69756
102.96338,112.384476,85.70737,92.6911,96.277405
134.82632,163.54211,118.17685,116.797646,140.68924
105.82979,70.86246,63.83473,51.387753,54.515797
54.93538,57.302067,123.31728,133.26799,50.37231
15.927751,30.790962,47.590042,64.45531,27.536291
36.483772,29.368364,21.315388,27.893309,21.983755
21.417034,52.858017,23.087013,35.0836,51.372967
79.41862,51.954483,67.34086,65.97418,48.253544
14.246695,16.904285,35.01419,45.647594,20.61623
42.782467,47.941566,72.45523,52.20157,41.038685
145.49417,168.25357,99.92608,123.797905,156.18547
127.98593,140.93106,67.59479,113.49115,128.47603
84.70973,67.001175,93.25085,87.115845,61.8816
32.239063,59.83559,67.8835,48.02288,47.603725
133.57254,198.39238,121.57431,133.90794,156.14626
164.7817,153.87703,102.54081,107.77911,118.09658
192.60094,210.18538,170.28938,170.96022,178.37308
128.3691,65.3879,130.3434,123.19052,55.08228
37.395462,35.88971,22.242134,25.035471,50.11463
74.93346,134.70569,57.021183,61.48403,81.59075
109.72441,138.7763,158.9497,161.45622,123.82038
140.50652,210.3772,155.37161,156.87112,178.38112
183.77068,205.00322,174.05315,179.98483,174.75171
197.48569,221.16003,161.79593,168.96298,188.2396
195.28264,230.32191,149.72078,152.52563,194.29556
99.78524,174.81981,99.85792,90.46287,152.36739
100.9245,168.04158,134.78256,156.63564,143.8095
116.32211,224.61617,155.59534,166.87378,196.8923
153.38382,193.06177,141.37671,143.08969,176.50092
133.49168,231.53606,168.52666,174.133,201.82529
169.01057,174.21043,165.80804,177.81892,169.81836
197.37067,249.11694,160.33667,164.76973,198.43245
198.2488,242.62978,142.57164,154.85277,198.85844
153.02702,46.685204,126.477715,119.54916,38.92801
100.517586,137.23677,56.689518,50.26881,116.98217
27.036346,35.989315,50.20982,62.282463,32.39653
121.45071,149.47417,102.8349,71.292694,153.25127
129.00691,230.63162,140.30743,131.12405,189.41763
133.91908,77.739204,144.10931,137.41408,75.04647
150.14825,236.6217,167.04845,188.20154,194.83362
127.766624,232.05966,117.95423,72.38743,195.22513
143.60136,211.2577,145.64854,156.9646,168.73152
74.50076,222.79398,115.75246,71.2259,184.79152
154.726,245.73315,133.05444,149.99615,199.37144
55.545147,44.29514,84.7824,77.408554,36.177593
68.29035,136.48396,101.650276,100.369064,122.04018
104.514275,161.19817,140.49164,111.00922,155.62476
129.65518,146.15898,135.87097,129.67596,129.56764
100.830864,153.92497,100.038994,110.69972,109.87117
125.235176,127.559425,133.81816,149.94278,115.259575
41.898197,56.7022,173.41698,174.42238,37.85735
195.85541,119.77924,82.77347,113.82243,115.638115
241.08675,283.5357,208.05475,230.25792,242.57297
255.0341,269.43326,242.78831,250.49469,234.44487
119.68424,139.06456,98.17071,117.368614,106.92007
174.54065,230.35551,166.71153,200.6548,194.15392
259.72534,283.98572,220.22566,249.34233,236.83377
232.09167,216.4421,214.53853,220.31303,186.15292
142.55438,104.46136,114.257935,144.1913,101.28383
261.75287,305.72937,251.06322,258.1097,259.33975
268.1528,298.5127,245.61154,250.61903,252.75464
266.16833,298.02142,250.79243,258.2494,253.13467
201.52783,118.17429,223.66624,231.69466,123.940575
166.01762,229.11116,170.17729,198.47362,203.38145
186.57524,250.01608,200.5531,217.47047,212.78586
167.33705,170.88039,166.65494,117.24009,154.20189
210.91917,264.23367,232.67651,253.82393,224.48279
248.89609,255.51506,112.124954,107.68915,194.91354
232.84456,296.8121,225.68684,239.0006,252.92262
273.8823,306.70038,189.7539,225.2344,262.3559
276.93115,314.864,256.61008,273.8373,269.0285
282.80005,310.44965,269.6054,278.66354,267.547
279.02625,300.665,262.2795,267.21954,258.65073
269.61996,247.85631,245.99402,249.23193,200.95677
167.55576,97.4871,191.23402,197.53957,83.71732
165.39624,210.82034,113.3437,157.82574,196.79315
102.89847,94.17592,31.442345,33.29261,85.566605
80.505135,63.87679,44.742027,34.557995,52.561832
176.07886,283.51843,185.41098,168.59213,225.89873
158.85287,203.09966,66.48324,50.243763,172.587
85.36255,241.80525,117.66782,74.93825,122.652336
166.79057,200.09497,147.2726,145.12373,192.10863
149.47061,108.84884,61.70581,43.95252,73.87363
208.42435,289.2945,193.28674,200.46777,221.88937
156.03635,268.02856,198.03734,203.17195,202.49884
58.80727,38.490356,92.83078,95.79909,41.622982
113.37722,193.59897,188.38304,189.48131,172.99545
261.1358,230.25475,234.45221,225.93173,198.42726
280.85767,297.9212,248.4201,262.084,252.23102
141.82889,240.0183,175.10515,169.86945,189.4894
53.204098,132.69165,91.98985,88.45647,125.82962
135.36823,249.36774,135.57253,213.94696,209.09769
173.90034,170.71739,147.71883,120.75159,124.85871
214.37415,305.6738,212.37932,226.44115,241.6161
265.91214,313.8082,232.73398,265.90765,258.09692
277.4588,318.41437,267.97647,283.78906,273.06873
284.2681,326.71356,269.7978,279.2004,279.2908
284.55884,324.34418,276.91718,287.7528,278.37744
282.2912,315.7825,267.4221,262.7721,270.96088
279.0819,305.65652,227.93631,239.21579,264.63553
281.15588,303.7062,270.29074,277.9699,265.5436
221.15959,230.1497,205.4926,193.74704,201.34471
71.15904,148.72432,63.480938,62.726665,97.32789
45.251125,238.38184,90.36747,107.762024,169.36397
51.00399,110.90204,56.812283,63.447376,102.75411
118.9017,242.6193,202.38026,181.06084,220.03262
72.97486,149.86304,68.26224,68.39483,139.85739
217.85606,156.86566,244.75343,226.83609,172.8501
51.38572,92.294334,59.89483,61.91381,75.334755
176.95119,244.12296,248.79948,259.08496,209.02728
239.5032,184.91734,188.12163,136.0181,174.52985
196.14616,283.17847,238.48723,245.23717,240.90576
270.40356,316.40323,259.55807,266.48053,267.38193
264.9751,313.0813,271.80032,281.34476,268.1667
279.09833,308.66653,268.61383,279.48874,265.93948
277.51282,312.36313,259.50452,272.1075,270.20508
273.5189,307.3144,229.63586,248.0923,268.5043
257.77948,294.93405,261.88165,252.2056,259.79196
227.33623,180.47935,213.72655,219.65837,159.77226
76.49687,38.305103,105.20722,105.89405,36.54652
74.02435,62.149967,91.12389,96.994576,72.57615
222.87923,235.38466,181.17601,163.82335,223.61345
241.20628,261.4154,212.90276,187.12071,213.16127
149.88297,185.51187,85.36773,76.90798,159.64758
162.02058,145.33786,124.52402,138.02806,128.9362
172.88376,266.80664,228.90167,236.55423,239.10182
267.7332,299.4816,251.43108,262.5751,256.55423
261.06305,293.64175,243.10678,258.39267,253.23396
262.1924,292.908,247.02234,252.2272,252.45863
253.85622,288.325,235.6036,243.49278,247.88002
251.76978,256.62427,216.09131,217.14113,214.05975
189.65384,183.97308,127.2152,165.38383,150.5982
203.77248,240.05228,220.68536,221.07805,149.8065
243.37839,271.2127,226.46632,227.20477,237.51152
248.70915,277.74667,238.3194,246.8927,240.39902
247.89816,276.92523,234.7464,243.23274,239.21022
245.40887,274.34155,232.22131,240.54019,236.52237
247.90414,274.5977,234.52243,242.8648,238.11893
244.71658,273.25195,231.90591,239.90892,235.92728
242.30183,271.86508,228.55322,237.0487,234.34073
237.02536,266.6784,226.33409,234.80864,230.10718
240.29437,267.18555,226.70943,235.13467,230.33075
237.76373,263.31992,223.01799,231.06638,227.96875
231.80763,235.43236,199.18526,193.84059,195.40825
208.64397,254.98154,193.17621,187.70181,217.31688
234.51643,263.0673,221.49599,229.10228,226.5081
229.92221,244.04308,208.87572,209.17966,211.31921
229.48781,255.91829,214.06506,220.82918,220.57707
228.86295,255.32318,215.23701,223.7231,220.1332
226.97147,253.31711,213.06506,220.88434,217.6935
217.43001,250.34514,210.81833,217.82555,216.50931
219.10165,244.48903,203.27373,206.44983,210.79825
154.35318,188.95605,177.2316,170.06204,173.26126
193.81465,247.83481,199.31473,203.00061,212.12117
217.02068,243.88979,188.42561,196.07964,208.84987
218.36974,241.038,202.06404,209.75882,207.65442
178.27336,191.97566,157.58769,149.49765,160.60623
196.89655,193.75066,125.30309,140.53433,151.15218
117.00129,175.51302,135.62128,134.78455,160.2033
137.8213,181.1381,161.51787,132.6073,169.56058
93.90676,81.12507,135.56126,117.00934,72.20126
57.381733,119.34947,64.93074,67.60767,75.10481
61.60321,71.79858,169.16927,138.33669,109.69687
29.420553,27.782587,43.327484,52.59958,25.112284
69.288216,141.94064,96.239,126.372505,96.45732
117.88867,142.30101,100.119576,100.50965,114.50105
103.547905,169.89224,138.8843,121.62326,138.58415
176.31828,188.3392,165.95193,166.41005,131.90196
183.9379,202.4389,164.79576,161.71635,173.62126
179.54237,176.05475,166.40839,172.19717,157.02576
179.2237,196.004,163.40529,167.00368,169.45796
179.6856,196.36635,159.46065,162.15521,169.36536
176.23224,193.4833,114.697296,131.359,167.18442
175.48384,192.15024,158.44351,164.08777,165.3372
177.0396,190.65298,159.05556,164.57765,164.43535
172.35922,188.1308,155.82028,161.49306,161.89343
107.20524,131.46115,78.290016,87.128456,110.52114
165.45432,177.17572,141.46745,139.44504,152.7266
159.58768,167.927,132.5663,140.46576,136.89214
154.46887,125.90187,97.14295,125.55727,113.43779
128.5742,90.46875,101.94792,111.4087,82.52607
155.20964,159.595,123.43505,120.172905,137.01767
55.434837,134.74078,114.68141,124.77498,121.87872
137.89299,150.7089,108.13361,121.288246,120.89488
129.29056,144.05942,105.75695,96.5016,137.8275
99.12631,87.50213,63.626904,54.370342,76.01741
126.893364,150.70679,124.16063,126.3243,121.93843
142.16238,149.32918,80.50232,96.53535,124.627914
139.92879,112.61158,58.802597,85.47705,114.74126
101.819,146.65364,111.46879,119.27056,125.33817
104.7265,141.93468,94.191475,91.294876,114.05373
123.092896,141.29587,109.082634,104.908455,117.90746
83.65263,139.74046,104.87735,104.92908,108.71728
35.502308,64.30303,42.744717,56.022404,61.829628
131.74219,108.554436,97.59581,100.20982,77.74559
96.69346,78.22618,28.789991,26.666695,72.87342
45.289314,44.047043,24.84231,21.006645,42.56101
43.07257,23.627003,35.3081,35.906322,26.571241
120.34432,100.14601,23.003933,18.970753,77.41827
120.6795,36.515053,28.384922,17.007797,16.558386
58.706825,22.166378,29.777937,22.826612,17.627575
80.95787,85.42313,72.12983,77.979866,77.17748
87.554,103.40955,84.9077,88.088776,81.63195
65.19655,88.23911,70.937096,75.03776,82.58407
40.37161,81.45399,56.545006,79.030716,72.7877
31.108973,16.017756,17.491209,17.692421,14.62025
75.86472,94.73785,38.793816,68.847626,69.01862
68.20151,87.82127,68.87671,71.718185,76.118706
15.7373905,18.778172,24.553452,15.647633,18.094051
18.788177,24.807058,39.73825,43.41311,24.785004
64.21715,95.20348,60.45122,75.63625,79.752975
87.15613,69.94163,63.874096,58.89879,63.36557
47.6918,35.741806,46.40424,48.278824,34.523087
12.183844,41.47113,29.511662,32.138596,32.652576
56.12315,72.597,60.913742,64.65943,67.53045
57.84049,78.05649,62.758953,60.028397,65.6596
81.11417,72.04056,72.14849,75.41178,59.23143
29.648132,18.886896,40.804676,43.11437,20.511667
17.598484,10.171886,15.188842,16.819843,10.028592
50.142765,68.66486,57.338444,64.07402,62.328884
30.280092,74.558655,38.75672,30.174171,54.629444
63.168804,66.395905,62.581963,65.50177,58.170578
70.33591,62.458755,61.481625,63.633728,45.939735
73.996086,75.16388,55.164413,52.683308,60.860752
46.934517,73.6402,36.06111,46.981983,56.343925
37.360817,64.73536,26.522902,25.368265,46.20214
37.058887,32.853172,27.803339,21.422422,27.575893
31.632914,59.372555,34.85402,41.253395,46.448723
47.78208,45.05641,29.684532,30.829348,38.883125
28.66798,48.505527,18.806004,17.158007,43.23399
38.26047,54.416557,23.169079,22.389257,51.167007
60.125656,55.344383,46.96915,46.846558,46.272392
33.55213,42.855778,38.36747,39.953247,34.41627
52.05191,45.458595,34.712536,31.066385,45.43841
29.653662,26.745386,26.873531,28.995855,23.897196
42.511963,41.36786,30.677748,30.352287,38.75007
8.079287,5.317533,4.6820893,4.863888,5.138264
15.695632,23.355568,6.312256,6.903563,19.50306
12.123587,18.463484,15.647926,13.247326,16.948631
13.3207,17.06792,27.643955,31.073416,17.145082
23.782297,29.36394,20.248943,17.825024,22.840652
22.874462,36.570145,16.545475,18.38196,27.494246
26.515673,30.85568,24.20404,24.813213,27.331503
30.45226,11.28974,14.8745365,12.154568,12.364801
16.25235,43.0734,29.387836,29.83407,38.77872
10.055064,26.095186,14.937283,14.860902,25.987799
8.01415,11.915982,6.467594,6.8981314,11.332993
18.237299,29.434584,26.937716,18.50267,16.112167
1.564426,5.8161054,4.4012904,3.9793513,5.2632637
16.746675,23.428211,17.309265,22.663605,18.854084
12.832749,27.081255,15.401099,17.550304,19.687496
13.23122,24.67863,11.548462,9.825152,19.489815
8.876836,26.424295,9.183119,9.879641,22.012445
7.6401167,23.12858,5.068362,3.2194836,15.489589
