"[299, 255]","[227, 248]","[287, 319]","[279, 328]","[230, 262]"
37.937973,31.531368,23.448103,26.211174,27.841658
15.696459,28.091763,20.21455,18.451338,23.2727
5.3843,16.144482,7.0344753,5.682081,12.703628
14.129621,10.7582445,14.777314,12.951478,12.566845
7.9235086,9.654151,5.9304113,5.396808,10.946693
17.617199,23.816853,10.822612,9.012647,17.382727
17.671982,25.828074,21.513176,19.08236,28.033422
10.442999,8.071397,10.581505,9.762199,8.24897
6.0192294,4.3596826,5.9930415,4.86291,3.9882843
27.262154,27.021252,21.954514,23.322979,26.787611
23.00202,29.404123,11.951577,11.941454,25.241804
17.09612,13.938554,9.43857,10.991888,20.188114
18.991196,14.7584505,15.240633,13.972854,16.161829
3.474444,11.617199,6.781195,8.049505,10.757904
26.009113,17.805391,15.014857,13.40565,19.021156
33.41662,28.662666,23.076492,23.979122,27.80837
33.32405,31.83395,23.014202,23.870354,28.007137
21.801332,15.463895,18.486498,22.473415,18.336422
23.975832,31.572493,20.749367,22.044342,27.452057
30.831789,22.451906,18.893713,17.478394,18.603697
16.107773,5.8104563,5.457605,5.6913705,9.697477
24.40779,23.31548,21.109581,20.982605,17.929913
18.585627,27.115938,18.3118,19.456758,25.95798
9.6512785,3.5203657,6.555092,6.775224,4.333458
32.013035,28.139091,16.067778,20.758291,22.068476
21.229298,17.375454,19.267443,20.392525,14.880121
9.092142,5.0810976,4.964793,5.0878305,4.695675
11.474263,17.882816,17.14231,13.672743,15.373621
21.885973,21.198753,13.865358,17.791216,14.7884865
20.727276,20.198938,17.336199,17.919065,18.147469
18.074154,24.39532,14.8557205,19.273422,19.084454
26.75508,18.130384,15.735128,17.745138,16.329626
16.69489,16.257484,13.031245,15.901661,14.283745
3.711217,24.050264,15.510023,12.826639,23.948751
3.906044,4.3603187,3.8734004,4.089702,4.263863
11.005037,8.608384,14.212042,18.45657,18.394154
9.928725,32.335148,18.518454,22.139692,27.302605
8.309877,4.7886567,16.065325,19.157541,3.8787339
6.7032914,10.297235,3.6556392,3.8186302,7.206117
3.7570624,12.789248,7.587921,7.6265182,9.3228
20.264442,34.068256,17.857851,23.834698,26.494064
38.178802,34.301346,28.906754,29.955126,31.016924
40.95595,38.551266,29.021938,30.851158,34.63501
34.16266,26.21011,20.28531,23.180248,24.072264
6.8211975,8.196233,7.645902,8.63672,8.07774
4.0131392,6.954839,6.1119895,4.996185,5.4983883
29.813126,40.013462,30.684835,31.52886,36.30624
17.313038,34.032562,11.70758,16.138979,21.308138
16.33262,39.52506,28.331104,30.676525,35.18521
7.600272,6.243081,3.1294432,4.0927463,6.693102
8.415135,37.38227,17.998402,17.74337,30.412462
29.482964,18.496061,23.723171,25.934265,16.392609
21.555002,8.79533,21.977533,16.545753,8.513785
13.072118,13.068246,13.210499,8.14677,8.30233
23.00856,27.22654,18.832052,20.833023,15.57373
17.826422,36.470764,16.291473,29.611145,29.14896
38.64888,41.84428,26.378641,24.875639,25.142986
55.708344,46.80999,38.792126,37.104908,44.77912
49.127007,48.241753,37.92461,37.99101,41.548058
52.34978,59.035236,38.969482,47.194954,44.159016
41.802216,57.743248,30.412403,37.742397,40.303146
59.654636,35.17797,37.380207,37.7653,37.90557
31.620975,38.13058,29.705357,34.72876,35.43161
63.786076,27.70584,46.886982,51.238438,17.83818
64.91419,27.294182,45.259365,53.25348,27.013735
12.777037,45.83544,13.157242,17.616396,35.813995
25.492697,55.800774,28.43841,27.739422,49.244545
46.616577,37.39244,38.603245,38.92415,39.558205
41.92122,52.835644,39.010056,48.791702,48.621178
49.760822,28.301962,17.782946,21.861174,25.18885
6.422684,11.281012,5.7098536,6.1914,6.5167904
13.965187,11.380106,17.0707,17.913141,9.017763
12.965368,13.541663,16.512402,23.691557,8.917304
47.14665,15.473245,51.606815,52.429382,14.345802
59.840458,33.848175,27.648087,29.253511,27.837496
38.18876,41.835377,30.63812,44.406082,37.849567
62.005695,79.68237,53.470657,51.322052,50.368515
42.331623,73.15875,35.51058,43.31367,63.772125
9.009096,10.363063,8.375441,10.076861,10.839508
8.10099,26.296732,18.649694,20.603065,17.466394
47.62326,33.18566,46.489952,41.678715,34.30621
15.193891,30.205256,11.588643,17.997066,21.886942
32.007484,75.7688,33.800953,38.98109,54.94064
59.756004,93.323616,27.192217,31.874063,80.518135
23.951017,44.62924,12.358189,13.359913,21.607613
32.931923,64.808014,27.018755,33.290348,47.95641
38.92334,26.92676,56.270206,53.118374,19.256718
75.41927,85.38591,79.093796,92.8671,90.93221
69.48174,76.44505,52.65104,59.48616,66.46292
58.379356,72.3629,41.262123,52.012817,71.32436
72.52908,93.93954,41.304066,25.489069,71.693
107.03891,79.26067,48.480858,47.12603,81.178055
42.137444,68.3223,42.054237,35.155415,40.308105
65.84051,83.78671,48.011143,58.633297,91.32128
48.658344,62.949528,99.70747,102.891846,72.39606
30.069492,27.58253,16.532343,19.495562,19.380075
24.466377,16.746056,27.671192,34.69153,17.025503
16.982613,16.913668,13.537719,15.191908,15.02355
34.025074,119.94044,53.398216,40.899227,83.557396
126.75166,118.30179,110.11957,124.15224,104.74277
41.041508,35.75313,43.677177,40.257923,41.95657
54.65311,67.19076,63.554943,60.95188,35.00576
130.4506,152.98415,85.54359,72.61883,131.83235
150.94455,161.86333,132.29376,138.6541,137.19887
41.252926,52.906555,41.39151,35.097706,56.5627
29.108543,61.248592,36.674053,26.354458,51.29181
63.395584,93.61222,78.71707,84.867905,83.05221
53.621254,78.16677,73.30001,67.05137,76.99584
134.24359,131.21217,123.06414,126.02379,117.89359
68.34947,50.244175,33.42765,31.662872,37.306747
139.5749,173.98947,106.20293,137.28914,144.4962
74.34838,28.454363,40.331917,29.605577,25.862877
128.69931,138.63614,124.285385,121.19094,134.91673
119.40455,143.0593,108.226875,118.84944,132.08531
50.83368,65.78236,82.1689,96.38092,68.88738
82.59302,165.51659,96.46939,96.04905,139.55753
38.527794,84.776505,29.756182,34.831177,74.54862
88.8934,148.04199,94.10803,95.44276,96.37812
129.91557,154.1194,132.69496,141.74599,152.77364
179.38535,198.87006,157.58942,164.75526,168.92035
182.187,199.77344,165.07779,171.37865,170.22295
185.72997,203.93626,168.59903,175.06078,173.6574
183.2327,194.78409,168.43268,174.60583,168.92754
187.25987,206.63396,172.84341,178.98135,175.16573
177.96324,183.26785,154.65253,157.01332,154.88397
165.77037,150.89824,123.03926,100.07934,120.61462
168.63141,185.90152,95.46526,107.63321,150.1771
146.42038,60.14233,42.068817,52.20256,53.311924
100.181305,163.03699,142.41609,146.77402,137.6068
169.00298,204.87924,157.61058,162.24403,175.4807
98.1854,182.52092,98.83584,113.885025,142.37486
198.47162,223.48187,164.96399,170.10005,197.34447
78.27047,207.4019,85.52711,86.608574,159.86649
132.02515,204.97383,115.978004,129.05731,148.60515
164.88654,193.22812,132.05551,112.40495,132.31491
50.649002,81.51821,58.10922,42.509655,73.54442
171.55357,251.47632,134.72754,168.17381,212.87016
192.60544,178.79105,190.02954,194.39919,150.0851
37.511185,63.47419,24.762293,34.727238,49.76253
109.42158,168.9645,24.806051,29.853851,128.15201
63.4872,204.3774,77.008835,82.14185,178.19289
73.87407,42.434372,62.365646,60.24755,46.574303
166.00783,245.94194,198.12332,179.96245,205.88377
156.4051,193.52113,181.12502,183.79509,168.29039
136.22832,59.454594,153.19495,184.17635,84.811264
174.88982,188.50703,54.474014,76.83641,106.88698
31.894058,58.705284,25.56415,24.990267,32.368202
179.2706,100.69458,176.90697,175.49574,71.13289
111.75791,81.80965,114.68682,121.38348,66.227516
173.65247,155.77516,171.15143,153.72377,182.04793
202.07228,226.40205,139.568,152.18384,204.90616
152.73189,149.24301,115.89867,103.740685,78.512886
138.41747,59.541435,100.67648,88.198944,69.90231
147.04074,125.1925,193.24683,187.52809,135.23813
221.88216,262.1814,184.03265,189.0092,217.18645
249.85841,274.48962,236.25174,245.33264,230.39328
253.88188,252.85776,242.41425,251.54774,239.45947
232.2022,259.67194,218.9742,237.1702,208.31232
257.3307,285.1206,231.69426,229.8368,244.776
258.16095,287.55313,243.2414,257.579,248.43155
92.46063,121.315735,151.62094,164.61664,121.08151
133.4636,289.86728,100.48485,112.45208,239.39612
102.110245,72.46682,70.150406,69.40994,77.09012
99.68332,223.31252,135.305,135.97899,185.24625
152.41849,222.8994,112.26345,102.44665,216.8075
106.46234,116.1292,106.60211,116.18313,87.71954
157.81587,237.4505,174.97897,201.40875,201.7596
181.40373,290.75497,183.96529,175.80722,233.48102
154.84329,288.46567,180.76086,180.67401,247.75241
146.78436,51.301304,162.7409,153.80338,50.51317
90.100525,79.729836,81.344376,69.820114,79.43636
114.16615,186.67262,167.6478,160.75822,172.50336
144.05153,111.632164,139.62088,88.79959,108.44087
147.25127,265.7686,155.36684,124.92978,222.14967
46.89901,26.412537,46.718323,40.637714,37.43198
175.55936,293.12845,174.91068,216.89845,207.51634
170.18881,215.0063,207.63075,160.54689,175.73071
164.96413,218.26521,164.90822,179.46785,206.11754
64.207825,45.13353,85.898285,84.051445,58.688316
92.74146,125.72171,83.15005,58.613888,103.54212
145.0121,261.3701,207.1821,229.70584,195.1011
114.25198,75.00168,81.16229,57.728004,71.29545
89.25613,227.92,136.1384,114.978294,201.61263
202.38379,301.93585,197.40347,249.88457,247.15744
253.24396,304.44608,238.82608,223.44312,269.83994
275.80542,319.7027,244.15611,264.6849,270.9806
286.83755,259.5367,269.68723,278.03494,236.60321
288.86612,326.19846,276.0879,281.64337,277.35117
290.47025,324.40515,265.6148,280.27945,277.51825
286.88986,321.06296,270.82245,284.64658,275.34378
289.75827,324.8662,275.21606,271.0721,277.9387
290.78638,315.99155,278.6264,286.4999,271.07388
250.14404,238.29468,218.96393,206.09697,193.49413
287.5362,325.35495,274.4587,274.9041,279.12186
288.05432,321.60352,273.53796,276.9393,268.5214
287.9116,324.51608,279.8619,288.25644,279.3517
292.2555,330.10355,277.46164,286.36603,282.38425
286.55566,322.59296,274.60538,283.9872,278.04257
254.78539,263.7375,275.20776,284.19583,232.56303
198.44637,282.0198,252.35245,273.75116,238.44804
291.32803,326.28644,276.86902,287.3394,282.00363
285.99817,331.61526,274.6932,283.7205,282.93018
249.85355,301.69864,233.94177,227.40105,260.50357
124.92794,228.91164,58.111908,57.915756,153.97401
182.65736,323.2701,163.83223,217.96434,279.94955
177.8202,298.87317,253.39981,251.14816,243.1665
165.17407,208.45557,193.6785,188.09892,127.18409
130.75058,166.07402,135.53145,116.980934,129.11646
206.11636,286.8021,166.9326,178.52696,270.3033
183.72194,233.73407,169.53354,229.96664,188.39561
184.4001,262.71936,236.98206,199.9462,217.05777
252.43454,247.75098,236.36986,245.9212,212.55153
252.07222,241.74287,241.66719,270.54495,197.68185
219.9809,307.23782,213.18689,221.61746,271.8735
265.5971,296.8054,185.78484,218.01924,269.3082
229.85419,142.27629,86.39404,131.35577,226.0287
193.27235,286.12726,184.79243,217.4374,234.64226
197.77753,270.117,182.07904,170.14261,209.39319
221.43808,154.67047,158.83305,138.74301,135.42455
94.71946,160.80379,77.36544,94.88704,119.801445
200.6539,279.08572,235.3604,243.33092,238.72911
238.81645,277.62216,181.39354,265.0998,222.72649
112.22265,191.40973,188.98174,189.53973,162.23943
35.183716,203.6416,113.971695,129.7013,155.31943
114.80426,180.33545,92.704834,136.95149,139.88936
90.92264,165.12563,113.61638,140.04445,137.52917
109.25991,189.40372,147.43233,140.9656,192.98137
262.24384,289.8118,258.94397,268.2372,241.8867
203.3659,226.0336,117.21011,168.14276,216.21414
145.81497,304.23596,214.28293,211.26389,262.79425
268.2708,301.386,261.52945,272.3476,260.2024
216.67523,289.85416,241.24048,233.49937,249.48294
250.01671,246.97997,249.61188,250.05235,234.0061
238.51921,261.43356,186.67343,186.92253,215.34525
257.2686,281.31427,209.74825,221.6607,241.32353
255.29083,274.12485,235.60321,244.57307,238.82751
257.39078,265.0554,244.54317,251.04942,236.36984
113.22478,174.24419,216.77145,242.25272,136.90413
139.8135,276.1366,218.20782,244.38074,222.81133
214.33113,244.32599,224.96346,237.32283,206.59459
188.60284,131.5519,190.87888,216.26982,116.72467
94.469696,175.1551,77.414085,83.86137,151.02272
86.43238,88.61754,104.73208,86.24002,64.16279
204.75287,245.82477,224.54019,224.30121,219.05301
234.73976,254.51144,190.65855,190.7394,208.44531
161.91281,222.0727,181.06151,195.34279,200.65665
123.50925,238.11627,132.3209,137.82332,204.0303
226.77167,196.44405,122.29971,111.43422,152.84026
137.42752,195.5738,216.83032,219.81596,225.78998
214.37402,228.59831,176.66609,170.94905,197.4701
80.82285,214.75027,129.94366,137.9563,184.62602
142.51634,229.53993,126.40248,151.14667,184.62907
211.23372,237.83182,213.83574,214.35976,215.746
178.02779,206.86566,182.58961,182.25345,167.76524
128.04288,104.274284,189.85393,207.86267,78.21964
67.96579,78.37631,58.767075,50.8989,64.60736
71.12598,132.57402,85.68176,100.452286,111.614075
190.42429,216.4992,188.3996,201.06143,201.44823
162.3618,229.7513,184.25452,203.16283,184.60994
45.873253,97.90773,45.7301,53.32847,68.891396
91.697556,125.5165,93.68271,96.78994,157.75081
89.36696,59.842487,109.91754,80.96517,61.812378
182.49916,161.0271,175.20116,179.06229,134.86111
130.25815,126.57118,96.24203,85.164,96.299866
68.91392,106.75928,75.338394,78.19657,67.08515
101.14792,126.71349,88.95253,109.997185,92.98577
210.41122,208.74763,159.24525,163.98676,179.41142
142.04315,162.71906,52.181976,55.425694,112.92839
133.44998,160.43481,92.6647,120.555885,129.29907
88.84793,102.17719,63.286148,73.05132,97.792564
181.99556,214.19032,172.47186,180.59279,181.86607
68.68425,43.887276,37.523205,36.855785,36.195194
135.1681,135.94974,106.857864,109.98544,124.500626
124.23126,206.1677,98.433624,87.475716,175.29227
154.95311,128.32416,134.43977,127.46619,122.039635
139.98853,120.04434,93.82775,90.1941,139.01526
108.908676,156.62448,95.95873,83.29054,141.4499
114.586555,149.4918,85.35652,99.06495,117.02044
125.74921,136.30887,128.46815,132.46236,136.69974
117.03503,171.83461,140.40428,154.26164,144.84444
159.52158,184.17317,122.1702,142.05942,153.03986
176.05836,194.08713,156.4593,163.99397,165.34283
153.77502,182.37898,149.46954,157.97531,157.16238
90.00513,160.00963,87.029465,78.89858,124.84157
85.74617,140.18523,97.69535,110.36657,108.18471
49.780354,92.227234,66.12091,73.501785,76.38869
82.59676,125.410614,67.34323,71.62799,101.339455
147.95439,137.61472,92.70757,107.539276,127.30118
150.57106,167.12866,119.58415,113.39494,140.97685
152.07457,168.57755,137.75905,142.81723,145.34906
150.44855,166.09872,136.47423,142.18884,142.37978
141.54193,112.97906,133.37596,138.0666,110.849075
78.40342,100.61217,67.80978,75.26245,87.1818
96.54034,140.46912,76.65434,94.444565,111.36544
74.01558,125.76873,81.31043,89.07675,104.48315
111.26116,124.95793,110.482254,111.816154,87.73832
88.039566,82.145226,98.63705,99.083694,71.38565
48.159985,85.078575,67.03064,60.003384,72.39497
108.57422,142.73474,110.72943,108.7161,122.838585
115.01735,97.35335,113.4456,110.18778,93.91247
127.816635,70.76612,92.13974,86.42663,60.887753
61.882236,68.57046,74.22301,78.7766,66.521576
46.788315,41.65175,52.8755,44.83658,37.720596
36.520935,58.624866,42.62526,56.015274,50.488533
104.25153,81.55387,104.490845,108.55059,68.1756
103.40286,127.60972,103.40536,108.245865,110.4213
92.92673,127.169815,77.7735,85.89221,109.10055
118.98294,128.03065,101.85296,105.76926,109.92944
97.54243,124.16997,76.5469,92.057594,103.308525
100.93588,119.62096,73.9058,66.49221,78.92353
60.345226,102.591805,71.0736,78.02105,74.310104
23.007498,90.478874,18.420961,20.650076,50.32741
52.25811,72.27478,24.495155,33.95223,39.12018
39.723083,91.94327,42.626205,45.32195,47.917034
64.83227,88.44856,33.0754,31.152834,73.395226
96.68255,100.477486,59.915318,63.05099,86.46147
69.931625,97.61901,63.826763,79.50518,76.06605
86.1007,80.98705,38.28069,49.93852,64.753456
62.114025,75.54419,37.352764,40.36044,75.01685
72.311874,72.25417,64.69583,73.71631,74.84863
74.14271,77.50751,75.27613,78.22024,59.992767
56.366096,64.14437,54.77142,55.56222,40.180595
87.89406,81.10351,68.90103,70.63466,48.01425
86.0935,89.630615,66.24391,70.6398,78.567055
37.02686,71.28815,46.69375,38.88846,54.61486
41.665073,52.854992,38.815403,53.63792,42.45794
46.527775,75.24818,61.634624,66.26373,48.906647
61.137596,47.57574,61.968513,64.73713,42.58383
17.46647,24.354881,14.308485,16.438803,26.681675
46.9673,19.214603,32.390846,34.31513,16.558662
20.026382,59.51812,27.399645,28.422192,43.233807
52.621685,40.356567,47.27674,47.574924,26.630783
52.838863,14.576799,27.90288,30.689243,18.069262
12.832403,59.212975,9.574883,9.685113,30.61004
27.291395,18.271955,28.23634,31.693481,19.338804
36.79018,42.029335,13.485459,9.329819,33.45744
62.499645,51.875042,51.987736,54.09223,48.43427
49.381737,47.964962,46.814938,51.47697,45.31372
61.984715,62.80644,45.862213,45.912094,55.30835
60.792027,63.11938,46.16113,47.77663,55.0647
14.564013,11.644887,17.34462,9.102156,11.030855
52.75155,56.64616,37.643074,34.0165,50.80786
31.483324,33.19737,31.459974,22.097338,30.853098
29.884611,45.971188,26.502337,27.080505,33.572662
45.231388,26.66834,31.028214,27.48309,29.3227
48.704723,36.194706,31.541998,31.235744,37.430977
30.059872,46.058884,22.243208,26.30452,44.756012
28.169847,40.24059,21.966606,29.300177,34.955853
11.291506,6.7068424,21.454306,20.011847,6.2315316
10.541196,10.728112,6.093917,6.234387,8.741399
12.328939,30.856367,7.4448977,9.764258,31.201672
35.52892,35.736004,22.049875,20.381771,30.28996
31.099335,29.539537,21.606915,19.330673,28.79603
24.089933,36.045177,25.378159,28.987272,31.271929
18.869446,15.411186,24.710104,24.120626,21.47201
32.586563,17.929283,21.023153,21.743494,24.138763
24.301266,19.628296,24.92832,30.054256,24.92731
40.690845,36.139664,29.541817,30.646223,31.958408
24.046803,22.782848,20.43727,15.639649,24.773666
30.563744,22.970846,20.199005,19.011105,23.470549
