"[299, 255]","[227, 248]","[287, 319]","[279, 328]","[230, 262]"
5.1218295,3.262495,3.6784186,14.547007,2.83152
5.094721,9.731383,18.723326,13.462903,14.531364
29.841185,27.620647,19.585777,20.273598,26.964384
34.35259,31.888985,19.835869,20.526836,29.242725
32.060764,24.754488,23.337841,24.891653,20.345047
19.576637,23.097355,19.493383,20.944544,22.310318
22.335596,16.209139,21.440739,21.023386,21.558077
2.46871,3.1092637,12.277662,14.249619,2.3958583
24.502155,26.69414,23.897734,24.916727,24.491898
34.525204,31.6241,24.249838,25.281752,29.784197
34.897488,32.94786,24.299282,25.294771,27.433874
34.141052,25.898806,22.46624,20.638285,24.35653
28.311756,28.352623,8.9819,10.776854,23.105774
18.966784,10.249019,22.44336,23.719048,13.582563
24.310516,27.905527,22.91973,23.808325,25.155996
12.899318,12.551718,11.887414,13.370855,9.733939
29.919657,29.674894,19.35342,18.315054,26.734896
30.556982,30.676119,17.806204,22.228685,26.357464
26.110214,6.406299,15.399388,14.893634,4.958622
12.781343,19.936003,10.875101,16.898182,14.982053
3.6590378,5.7209206,8.100973,6.1270075,5.9747624
5.4771237,10.486378,7.9074855,5.4863367,8.367256
10.918589,22.065632,13.08798,12.246213,15.911726
17.006252,26.713207,17.560986,15.637196,21.581806
11.777223,11.501974,10.670423,9.033316,11.932942
5.0146265,22.552378,5.4578705,6.639671,18.64445
32.811497,20.353394,22.664146,23.688171,21.062605
2.531658,4.2041306,2.6638849,2.2084563,4.2769012
11.978069,24.37961,13.844357,16.378836,20.07697
12.548506,21.904804,13.829653,17.464338,14.840053
13.379045,18.453003,14.54162,15.667964,18.25442
18.292383,29.988958,20.734093,20.61343,27.57339
8.277971,21.796337,11.279511,15.600167,17.488232
23.938364,26.66294,18.674675,17.760866,22.117838
2.0461378,3.5093133,4.8803434,3.9187524,3.0419185
18.94735,32.89073,14.20878,21.436762,28.300703
7.647495,16.124979,4.298648,6.0239005,15.860578
5.559448,3.782277,7.795513,7.4092326,4.523505
13.051872,26.391705,25.18291,24.96108,25.648424
7.414983,15.875162,4.00147,5.667896,13.166808
8.095024,17.885406,12.939894,15.932792,14.400358
20.918682,34.727375,25.236881,24.394165,31.099731
28.893742,35.420876,25.78877,28.857561,29.042902
2.2434487,8.16034,5.1176953,6.2710066,7.416611
30.51691,38.160126,23.378395,27.80232,33.422943
7.829283,3.9344802,8.571223,6.695101,6.9517584
21.427444,32.079597,25.303368,30.5553,26.483854
6.418228,4.7997766,10.809479,5.774756,3.7245138
22.160244,32.370422,29.81493,26.615063,29.427704
14.036639,28.77555,30.014023,32.13377,24.692106
10.403556,8.414351,6.114616,6.041168,6.56809
21.162374,9.654946,9.750321,10.197866,8.585389
45.539337,47.009884,35.49875,36.99073,40.997242
23.172365,29.65607,30.376123,24.608717,22.97879
4.554398,4.8721347,3.7800293,3.4856682,5.024832
30.602814,48.949738,36.314423,31.50395,43.088272
4.4701543,4.4306774,7.4465833,6.743247,4.608914
11.3962965,29.411543,25.742117,25.97593,21.932716
19.24531,23.439287,20.243355,22.227451,15.875686
11.832988,20.16223,16.226479,16.30413,18.216259
34.505077,33.913044,39.13918,22.672775,29.127707
31.768541,34.13714,28.97359,35.41137,23.389994
37.95111,17.126947,34.320225,38.50416,16.24498
25.851648,37.59482,20.139938,21.799133,25.50774
59.307163,60.859844,43.09862,48.226933,54.97237
65.74871,66.93161,51.9171,53.613426,57.040718
9.433384,5.8409996,11.491804,6.2463975,7.1735883
31.102295,34.43818,16.49973,30.033066,32.52373
31.735159,40.036476,53.29594,50.220104,52.554554
73.11034,69.707085,58.349422,61.122776,61.80456
74.86153,76.836205,60.26623,62.88644,67.07515
69.541855,56.313984,43.83645,44.399616,54.772854
36.85675,64.64919,53.300938,57.203804,54.315308
7.2051744,7.2171025,15.639712,12.856725,6.733914
48.97589,79.3701,55.869244,59.84039,67.060776
45.417156,77.762955,54.881744,64.02958,71.81167
21.868174,24.529837,34.858208,27.074047,16.64903
35.539467,35.658806,17.262041,9.69157,23.343384
47.18804,35.865208,20.593628,16.209444,24.364021
48.896095,19.1926,35.24746,26.14654,17.750662
32.1896,93.82702,56.247154,64.92103,80.93194
48.299522,65.34465,31.882544,30.692745,48.136086
83.14597,97.02087,72.07867,78.88582,83.94171
59.762615,61.48327,57.15284,53.6222,41.0236
15.990558,29.540241,16.946686,16.06372,17.279808
74.13433,97.47227,83.66625,92.14771,92.65823
54.597034,106.823814,50.160347,61.824566,91.6266
95.83784,108.44002,89.43275,93.42465,91.81306
50.19356,71.4111,83.29211,88.503075,71.48549
72.98721,98.465485,89.24144,96.46258,92.24036
38.90232,80.023094,59.659595,56.83761,92.37198
52.522083,93.70831,61.28317,67.9413,79.92203
56.163284,102.83532,67.1577,66.12044,88.3717
53.801174,100.7049,65.12924,80.98338,75.03668
19.113602,9.599698,37.43253,37.35405,10.433954
26.954329,24.759012,34.255707,35.05842,24.505285
30.46535,116.267654,43.203278,51.752136,81.32436
12.404018,14.384033,19.96661,19.234522,16.304972
36.37153,70.408966,36.94054,37.370308,60.44802
92.2724,143.98663,107.55911,113.71674,124.9833
110.978355,90.59732,122.96846,128.49654,106.92303
142.04001,114.957146,123.96642,128.71957,107.15462
116.31295,136.40993,119.07392,119.3391,124.581566
109.22544,126.04161,114.743515,104.23577,126.235504
112.58678,152.7399,115.12717,117.04021,111.43613
116.400345,137.20186,23.582546,32.85192,109.76473
147.94905,160.08571,130.0925,136.419,137.03568
32.30699,53.5384,83.24503,64.80992,48.200115
18.170773,82.66017,41.903133,52.010777,62.047127
94.442406,152.09486,98.88606,111.866806,125.63469
35.966957,48.999508,34.753166,51.23731,44.195515
66.95163,126.97009,128.95613,126.93044,110.28398
80.02063,47.052753,73.92752,77.458954,42.711536
18.491985,24.950418,63.694267,51.47239,26.449331
19.929325,42.744442,39.00994,30.126745,49.972134
27.498995,84.32964,27.587837,21.434546,57.172997
67.34952,83.54942,48.87363,45.258312,64.590416
151.66266,58.70552,48.24173,47.691235,77.15155
79.902176,147.05461,129.4387,122.426125,144.05263
148.14273,202.0933,155.34837,170.24599,167.19325
49.81419,21.815435,34.93873,44.147316,23.657068
90.37041,130.96852,92.68313,110.14595,103.07685
10.36081,35.67906,32.82254,31.930264,30.517124
75.04451,85.99,140.91539,123.81358,85.18719
119.45876,157.42691,77.35148,111.26598,143.73425
100.137695,183.44669,129.90036,127.4372,152.26027
153.06866,155.04567,147.81659,121.096115,152.22533
64.00743,35.827217,76.17024,145.35986,49.90192
122.289696,66.572556,149.56697,130.79004,62.61897
47.964798,34.605774,57.42061,59.65371,26.918446
140.85356,213.12985,148.76665,169.18102,188.49994
84.041756,157.72964,96.21871,83.79963,129.26686
153.773,187.42667,160.68361,170.24586,154.5785
181.04008,234.1963,174.29276,169.89932,185.32292
208.01672,238.03069,201.57092,208.18814,196.66191
132.73624,109.91655,142.88818,115.819595,91.129845
19.529955,59.735737,25.315739,27.479473,45.11318
69.97861,53.002308,122.0971,127.26408,59.407635
107.40764,167.90634,96.16781,95.881615,156.78876
193.92456,148.96004,197.87653,203.61691,143.65057
84.87972,189.50186,68.421005,73.0706,154.5243
167.03513,254.53432,191.99904,197.86952,207.58557
222.87492,241.62746,206.6127,212.29918,203.28976
90.14924,85.11936,53.958828,53.460064,70.29154
127.30325,167.84935,141.96239,144.91022,133.05081
136.26762,211.43848,106.8727,141.90839,182.44432
130.49265,225.83218,115.150406,112.92097,189.47261
151.02913,159.03438,127.33959,140.7046,134.0578
101.84912,32.267056,37.472736,36.38197,30.541426
83.650246,170.06589,177.09285,195.74236,165.10309
91.380486,46.862907,71.75276,77.82522,36.302628
151.1354,118.23868,171.51048,187.49115,103.76277
182.5636,258.5902,156.14586,132.94499,214.93364
194.91124,282.8293,216.57576,215.04593,236.4566
116.0203,208.1751,134.62195,141.06416,193.57407
62.169598,123.95213,66.8672,60.874306,97.29799
81.577995,255.99937,140.30368,158.93018,174.58675
109.590256,66.05886,134.97183,135.80305,65.40893
101.400116,240.52414,124.62828,124.46915,202.56783
92.78557,254.55612,96.70197,84.062614,211.64674
72.76012,68.60909,100.708405,104.069244,58.590202
122.181015,246.86835,148.51213,157.73933,206.7067
80.598145,276.03897,166.00284,213.85849,221.84698
172.42484,251.15933,131.71721,122.08479,211.0532
81.41588,164.4526,104.4725,100.88002,115.14104
139.60725,284.8249,149.53984,173.30147,206.59258
154.44327,296.66257,152.47081,184.97247,252.12627
182.5243,287.11713,111.81236,155.99745,226.2815
121.12093,254.87457,83.17768,142.57297,245.67073
231.44513,268.68933,160.60345,164.63028,226.80223
142.84877,213.68442,132.6514,137.7319,196.00848
184.21584,303.54355,184.02817,206.77058,243.5289
260.09265,310.16327,224.1568,239.76512,265.15497
272.25235,315.66058,250.9296,246.6679,268.40637
214.37222,314.96298,264.28546,270.97888,271.0241
120.87024,138.82532,211.58612,227.009,146.11427
51.906956,50.339027,108.89826,111.187256,53.183414
145.02357,122.782814,130.10641,101.99772,101.68863
178.35577,187.67464,129.87299,116.5786,199.4972
138.97165,161.79906,174.8911,180.08606,161.79759
190.7961,188.87828,219.82925,212.05786,114.61422
115.0297,105.82795,92.21765,74.21018,112.906006
66.55904,124.822586,164.60088,172.51758,95.72532
119.6795,205.60625,108.19691,104.016975,191.65872
145.76064,225.48097,150.57602,160.36797,206.60843
175.13828,288.67398,149.55475,181.48474,217.05768
136.43687,229.44437,165.77773,152.21593,202.96556
107.48176,75.77069,90.70651,80.8423,65.20305
209.29166,313.81073,185.89215,194.08011,226.92926
220.86542,304.43832,184.96915,269.56088,252.77956
44.287304,37.916004,59.415604,52.487503,38.67701
110.14738,141.44058,108.28903,165.87157,118.66831
87.09538,81.76934,55.330494,71.02377,70.673836
88.47886,217.60335,76.09968,77.8091,196.48279
173.18427,154.58939,114.526634,116.29295,127.51869
85.40984,161.79167,149.21524,137.03284,133.8093
87.10813,181.31003,164.56427,172.64821,138.66089
231.2784,316.60318,255.75603,278.66296,276.9359
290.67224,327.40668,278.77014,287.8821,278.25214
283.41562,318.30197,269.1181,279.62543,273.29312
278.61667,317.5804,260.97607,269.16745,268.17746
285.38123,320.82,241.16989,267.285,275.07712
284.11716,322.51636,271.87616,284.67593,276.19525
221.27687,262.9645,233.66718,239.80472,228.97903
250.791,319.44934,261.15863,271.0347,267.0171
214.94609,255.1749,143.5536,130.48033,217.0536
91.67861,226.27019,118.85144,148.8363,182.57617
181.2482,141.2819,197.42558,222.01637,135.81596
58.20524,161.70059,82.85056,102.79972,146.48378
36.854843,82.16706,70.16453,108.90722,60.50637
65.0438,185.7947,108.49076,114.46522,144.16931
174.7411,181.83455,171.02057,184.33377,192.37527
52.298405,150.8992,93.200615,115.610504,130.45883
178.83345,306.70367,182.01439,167.30482,226.71788
169.06134,260.04294,161.54466,229.78008,225.9649
173.28473,231.59232,163.64738,172.57024,163.99477
96.57743,272.85928,244.47643,218.53882,210.61755
242.88081,258.61066,193.44629,268.05157,173.65947
80.5614,57.046654,57.061832,67.71372,49.60063
164.70352,304.8426,207.70471,254.50696,255.145
149.53256,82.50879,179.83708,159.26283,79.20441
57.827812,74.59434,84.225815,65.57099,75.34565
125.59678,85.36911,54.162933,69.23755,61.60482
163.74994,236.8925,166.73996,166.7218,207.22128
187.74812,257.7154,169.8708,194.1544,238.90814
110.70026,89.56035,61.792854,104.77322,74.23807
92.59172,215.85333,179.62135,177.13226,194.81299
113.32036,191.06802,132.70456,127.653206,162.25131
117.23051,242.06961,164.96008,168.20529,212.54599
116.006805,235.25856,182.66731,245.31415,210.49289
242.2406,241.29453,200.23824,200.63147,214.10579
44.566814,126.91568,65.62943,68.14492,100.862076
57.82286,102.2942,56.304966,76.97823,105.36466
75.11184,187.47003,105.88123,125.66338,153.49915
110.6932,70.748886,97.4929,143.9128,54.12568
171.85112,261.28195,200.30768,196.74869,233.65161
58.203804,69.60538,31.260561,29.963984,51.796764
54.645756,170.6696,159.43816,179.09686,144.22311
79.711555,163.92685,144.48135,164.44443,172.24196
152.51251,238.75894,150.6554,169.75443,201.0961
212.10149,271.0327,147.31335,169.21649,221.37439
226.97278,172.73776,142.01141,142.52628,156.48773
182.22218,52.05366,97.34411,90.649315,58.43359
191.19615,147.78844,167.33064,170.01736,174.72287
151.1527,116.40244,124.50944,138.96149,89.28627
138.05692,212.29202,156.42343,123.439476,170.17566
65.214424,133.12187,132.07385,143.94136,102.81739
74.16289,165.02269,73.08494,83.15079,151.21902
153.2166,193.71454,202.77394,207.64423,136.3636
211.83412,185.71022,126.92739,142.31091,170.02496
101.05784,105.1797,180.96117,178.83464,114.641815
129.32211,181.431,149.44197,119.557106,147.90295
91.33813,112.964935,113.84021,106.07597,100.22794
206.83163,210.31578,178.1765,167.44759,166.8652
150.8584,189.63069,175.94255,186.88887,171.7752
214.29526,240.82747,167.69939,184.0452,191.97234
215.00789,255.08972,207.79932,213.6309,215.43614
227.08733,252.10994,207.30942,218.10075,217.01761
159.7624,132.8488,107.31271,116.24657,123.393555
131.59883,185.99936,132.2311,145.96042,139.50435
154.80396,121.805176,132.24413,116.40206,127.551865
59.66838,104.74398,131.47777,138.11748,88.405556
99.790924,113.09148,110.73568,99.963104,107.18972
113.07236,178.1892,140.03497,137.02332,116.60852
193.52005,184.22348,112.18024,135.38647,161.32957
197.39265,217.88576,152.13728,165.53156,182.32869
198.08868,195.72685,142.58946,133.24712,164.43633
62.82552,57.5489,48.041336,76.547646,46.285824
39.486015,156.97272,68.34956,78.997215,138.81046
120.80719,169.33011,133.65033,127.21533,131.30933
86.1789,127.21398,56.971546,44.546223,87.4366
74.29311,164.00664,120.90348,116.45283,123.117966
175.39502,207.0317,138.60497,112.39432,179.45375
143.95403,120.73937,83.41484,108.3863,110.92843
96.94204,184.56126,167.21843,160.54288,159.52284
166.08759,119.51798,141.99937,148.35504,81.78437
104.81817,119.81475,115.39356,125.81374,122.94891
153.93625,151.60889,128.44435,135.07423,104.80524
39.786022,53.26685,95.40272,93.68687,60.04311
98.944954,156.04433,113.05745,91.936264,132.10355
137.3392,180.59091,65.12343,81.375694,146.05713
82.92203,114.83112,15.715073,20.752848,56.744797
169.11792,192.72905,142.99844,134.75839,155.41913
167.14925,188.90305,149.94392,157.03412,160.249
167.6492,184.25264,146.4802,153.97662,142.38405
165.17264,180.32184,148.94699,155.01143,157.12329
148.95116,174.48814,121.06865,132.91678,153.01184
70.44616,131.58023,95.005,97.07001,78.67548
140.84273,129.55043,127.88079,128.96214,115.31681
149.05408,103.6323,75.352646,75.197044,73.49431
148.2912,165.22461,129.46007,132.88919,132.57526
147.1059,166.37665,130.45604,141.29204,140.18018
151.22903,164.50716,128.00308,138.8793,141.4402
145.17546,152.62302,128.38458,134.89082,133.83081
137.68774,145.48766,124.99734,126.94221,125.94625
90.848946,92.180435,56.415844,71.562645,84.52394
68.19168,64.4547,76.30691,71.775375,53.4577
25.019325,85.86846,85.076584,83.71527,96.31554
120.54746,131.35269,101.83449,112.61759,115.62452
92.06735,99.39295,94.78466,98.87699,102.95771
72.39891,59.62079,63.37398,71.40078,55.084026
44.1378,25.35841,41.55404,49.140755,20.694275
64.15047,43.235916,37.786293,44.602203,35.168663
36.81094,107.224884,58.46099,74.63992,75.3578
14.946614,15.728108,27.701378,19.73502,16.192005
41.174435,70.611916,39.60626,45.68516,65.34081
104.53249,85.64962,92.47184,97.660736,101.28335
65.09965,84.56772,69.59175,65.47783,80.09542
56.73847,88.34853,73.04619,74.21631,84.53248
23.707893,51.800446,31.474932,26.796606,42.184597
21.01011,61.791092,30.911047,21.992563,52.089756
97.048935,77.734146,65.23988,63.291042,65.05447
91.067566,76.27108,74.4113,77.76626,79.951645
103.76363,107.50423,87.83117,90.65486,93.587074
100.844925,105.5432,84.598816,87.97515,91.32493
99.77157,105.85774,84.30722,87.67054,91.887955
98.24783,101.50854,82.24837,81.31747,88.24683
85.3032,55.856358,76.41924,75.98605,48.479156
75.66924,87.58239,64.427795,71.50027,69.59729
86.52914,74.66294,46.974392,41.09123,66.26473
59.729515,38.81989,38.157562,53.169174,28.921505
29.29556,77.2122,56.005985,58.07195,62.224792
70.91755,33.915623,38.438282,41.9313,24.285175
82.60597,81.58662,61.06558,69.58403,70.79617
81.16217,85.62596,66.18862,69.41461,74.770004
65.84289,65.12622,58.953697,64.49925,59.97722
67.193756,72.65297,58.388783,61.50751,60.67355
76.5367,78.727264,58.76756,62.839703,68.822815
67.09411,77.95354,52.62869,61.463585,67.792305
38.94043,71.984085,27.554607,37.60329,59.24844
66.81173,47.038994,50.16397,49.946507,38.20489
60.322536,72.37696,45.077053,54.31083,58.047836
61.54304,52.638306,40.20341,44.069088,46.658096
67.68293,60.280727,52.678326,53.799835,51.094357
34.364845,48.75936,32.41629,28.902807,44.181717
6.3696885,4.6665015,13.583318,8.643904,4.776251
6.5093737,7.947457,6.8736415,8.609768,10.0211735
22.335775,33.84824,17.507225,15.192726,31.502998
35.08394,38.315235,25.203518,26.412048,29.522947
27.165388,44.56643,18.756252,17.264477,35.47244
56.585644,55.58019,41.89641,43.09168,49.078827
31.549025,32.214966,29.449245,34.33737,25.169228
48.064323,53.46198,40.390053,42.794727,47.590137
47.310795,50.204247,38.988758,38.268906,42.474052
46.437393,42.71785,29.641407,29.365454,34.07573
39.063747,27.28553,26.135105,23.707718,18.65814
42.468243,47.4287,36.639683,37.98355,41.50203
20.025955,32.301292,30.946001,33.613388,31.222994
27.699392,32.522293,25.899065,27.489729,30.540714
32.236496,19.326546,26.54769,27.853563,16.55826
9.231378,3.3187466,4.21255,4.0713916,3.9921465
5.4490843,38.357594,7.487909,12.713775,31.7477
5.189501,21.972433,12.570107,14.8275795,19.734003
34.685455,33.79952,24.640203,27.648964,26.59559
20.483595,33.214573,17.87015,23.78768,35.07685
22.278013,25.380604,17.326416,16.00617,17.926178
19.992943,37.880844,19.47735,22.13825,33.761494
29.716751,33.29482,27.721014,28.01529,31.22311
9.12371,31.153124,19.070274,15.488938,25.09096
35.611397,34.98843,24.390287,22.88615,29.357069
