"[299, 255]","[227, 248]","[287, 319]","[279, 328]","[230, 262]"
16.774809,24.59487,15.124177,14.683756,20.921303
14.064981,18.219454,21.29689,22.009205,13.339315
3.143817,7.8969264,5.7876744,6.100532,5.2487373
2.1249955,14.361815,16.370968,11.151584,16.295795
28.11786,33.869644,22.782286,24.15476,30.12882
16.63555,7.4505725,8.657373,7.5482864,7.665762
13.386391,18.326164,20.5951,11.36645,17.49888
26.631102,29.825321,21.648674,23.218826,26.5287
30.1089,21.56049,20.373058,22.625584,19.99938
19.432915,28.213387,16.938227,16.730564,24.67937
26.65012,21.18005,21.701965,20.214502,20.873629
16.966759,19.346813,18.222887,17.705069,16.360252
13.342966,7.223024,18.251179,19.362532,8.695313
2.410549,2.5834723,4.4482074,4.8130164,2.3793836
7.4134526,10.342977,7.1226516,12.8059225,9.566077
4.823205,3.4330328,13.638678,15.446575,3.7960198
9.900796,7.270609,2.567744,3.1913466,5.5540977
26.406271,19.33033,20.687954,21.716742,24.179241
23.993702,25.199345,20.476866,20.313688,13.932651
30.946178,29.795006,20.17936,20.879744,26.51164
28.41445,26.427193,14.406575,11.378046,17.321707
30.59776,16.262367,22.256945,22.305334,20.693916
10.969803,13.9762,15.3715925,10.972558,13.975502
13.3685,12.199466,7.1934447,10.314335,9.412277
11.307972,26.243015,13.0736065,14.46341,26.363184
17.069963,18.933527,18.064333,17.516071,13.711813
10.562967,17.310453,13.039103,10.583661,11.103288
4.4733505,4.8452473,7.4646697,9.116384,5.127494
14.694862,15.930526,8.551744,9.403907,14.432343
19.600933,18.153782,18.779633,15.046568,16.882862
26.224697,31.471731,23.215075,23.734423,27.890936
31.455263,31.666277,20.387556,21.514715,27.22424
30.460915,28.795279,19.304,19.403732,24.15683
28.061657,18.733763,15.958938,6.0142136,12.415056
34.02838,34.384823,7.573766,8.9233055,29.580862
20.013264,34.09691,20.137383,21.374035,26.754843
32.341488,32.976547,21.850538,22.212385,27.324633
19.734953,8.97441,19.76547,17.561207,4.06996
21.093275,18.065853,11.2721405,15.646921,16.435797
4.361407,8.680434,6.5005183,6.996902,4.5130563
22.965971,35.725002,21.71002,23.690935,29.389227
2.0503616,6.9723377,4.041177,4.7951903,4.318399
28.91275,33.265026,25.726883,23.59156,28.411865
9.471298,18.618816,14.087948,14.608631,17.12324
3.7276793,6.5147457,6.4134674,6.8722124,5.810805
11.79645,22.187532,26.309584,27.36458,22.934448
21.117027,42.308353,17.510834,21.424925,34.22651
20.972492,33.412685,21.8012,23.94225,28.539871
45.251938,44.28993,33.512726,34.756226,38.37108
27.224604,13.897441,18.405743,16.875172,12.83961
30.3452,28.517778,16.515402,14.007674,28.499979
12.510477,33.76793,20.633207,32.26962,32.02166
14.701455,28.727858,23.628191,27.786526,22.544388
50.33774,44.956898,38.2088,39.80028,34.606155
41.22913,34.046623,33.66141,35.515125,23.047438
50.23621,40.67758,38.24468,38.970543,41.33912
34.643585,11.987649,33.221355,34.850372,11.547953
7.6331134,11.199875,6.997512,7.2719874,8.115295
7.16608,8.957499,15.302163,15.30515,9.00507
9.915465,7.1009374,7.9703307,8.233909,6.2040253
25.583471,54.188976,35.905983,34.341347,45.372334
17.799467,12.035604,16.759655,14.943451,12.638158
20.078379,40.14042,29.286674,33.00775,44.87234
62.42351,50.621574,50.248062,53.008007,49.92149
23.160072,33.955135,27.475296,29.307594,26.131516
9.370867,6.110278,9.796295,11.207867,5.395318
54.614346,59.858627,33.49663,29.050459,57.055912
7.7347956,7.9251347,10.729214,9.884444,10.747368
9.251935,26.174128,9.727726,11.66772,17.979734
43.5404,65.77164,32.07908,44.19576,50.410133
35.425297,70.241936,20.94176,20.851683,47.62671
73.98636,76.02013,61.698566,66.6109,64.95204
80.66139,81.57069,65.791985,68.81094,71.625145
19.16785,9.748156,20.767548,21.576797,7.6831007
39.110996,32.574883,35.49419,42.500538,34.968925
28.483715,40.21176,33.694645,40.31013,27.23223
56.970673,82.293495,62.888935,70.00546,66.43133
55.8462,62.7095,53.27574,54.092342,55.41298
12.0553465,9.328656,21.910059,13.887202,9.960534
24.050669,11.73209,42.214203,42.105526,12.220805
17.780361,61.540813,25.667736,28.35465,56.311733
32.82918,80.25483,27.293184,30.599945,54.249264
17.889359,42.861927,25.737236,30.659826,37.89343
23.094017,34.321564,36.092598,43.11882,33.83278
53.407406,20.663235,61.781464,72.23262,25.774965
27.778051,63.126514,13.531493,17.11043,37.870216
42.499405,99.05888,70.46247,85.237976,79.10382
31.888603,82.711624,60.053368,70.40856,86.645004
110.534615,106.71865,92.162544,94.89718,96.20164
34.22742,24.398458,43.06097,37.467316,19.146494
34.90483,22.435884,56.19382,65.484985,28.666206
91.85521,107.40518,26.930277,30.598806,89.56667
75.35076,65.499695,87.47624,94.10853,60.308064
22.997557,40.613922,12.824068,12.651885,41.002605
80.327385,78.98241,84.11697,81.11057,69.29827
78.102325,122.65631,97.51439,103.95955,102.68194
52.06598,84.612915,83.543236,70.040764,68.6291
34.970745,27.847176,25.864643,35.5786,23.71605
45.996605,64.17642,36.19183,36.083313,57.287006
83.118,71.690796,68.91215,68.44948,63.279106
51.461525,22.153013,44.144234,26.155214,17.358603
33.199917,144.55185,26.51666,28.144693,122.58194
101.07793,132.23586,116.348015,103.947495,115.2903
43.545532,48.869476,42.32919,40.121883,21.217073
101.78664,118.634895,89.72479,110.45172,100.369316
14.561765,55.233456,23.490717,26.534391,55.13989
130.53502,160.21161,128.86261,135.03542,139.23766
134.78067,150.7731,138.02673,141.48239,142.34634
155.13248,172.24866,138.2563,141.31424,147.52742
104.03547,87.55198,73.318,79.764336,76.74284
161.71135,178.1237,111.284966,125.60192,151.16612
134.94571,175.60934,110.39462,125.189896,140.0919
146.02922,186.26883,129.71349,137.94792,150.37746
157.04495,164.35883,147.31758,154.1683,147.66446
21.882912,47.757812,21.339659,20.744804,31.345848
29.254526,28.832531,80.61957,69.368546,24.36342
119.03033,116.80654,103.9984,112.51195,106.82794
48.369057,126.22053,63.105,63.169403,108.41862
85.88598,188.04079,118.970116,124.35362,151.4328
107.96238,178.65622,85.092094,137.80249,141.87424
94.98131,173.23682,136.96681,147.97739,146.24176
130.76569,203.13701,135.52618,120.94989,163.41476
150.03087,210.65804,97.58418,118.35979,138.68065
120.047615,110.306404,123.21066,133.16551,90.63206
29.597158,106.28066,23.809116,30.395182,84.225655
107.55176,168.5711,125.20871,80.45877,141.96652
107.77749,167.95639,126.619804,121.93982,148.54013
23.990683,22.850882,25.960615,24.63108,24.747328
44.848133,83.545525,60.299767,60.480446,92.61158
72.7821,168.58005,130.05399,127.54717,139.69063
132.30354,193.23138,136.52988,151.94402,162.61232
127.363335,173.71307,135.74013,128.56776,170.41655
38.15304,105.57548,37.598854,50.059425,72.83612
96.775116,141.66927,71.62481,89.22427,133.66132
118.98069,191.38818,152.1531,156.34766,157.70416
136.22516,236.36096,145.63432,164.10538,199.28891
141.87657,84.57343,141.95691,134.65727,71.154755
109.597824,197.42911,84.34782,94.05097,170.24869
188.2162,150.47493,140.64215,105.823654,127.64857
210.56503,223.59999,193.44907,198.47948,185.63239
182.867,181.15671,124.088936,158.33113,160.35184
93.96682,109.622986,112.91475,103.83583,107.49919
123.21757,193.40408,152.9297,155.89896,166.1362
64.00506,86.58081,148.63087,148.39432,91.878204
106.78807,228.4903,131.91843,172.97737,182.7797
98.127,118.20034,141.55585,124.7336,102.169525
41.8495,80.00973,101.55538,112.28108,67.27219
195.66344,235.56572,211.74043,208.87254,182.97043
180.15678,253.08159,174.28441,148.45305,201.21115
86.48854,155.8446,97.912415,115.45506,136.55913
174.22812,181.2026,192.5778,213.20576,178.56944
216.87776,230.68257,233.4136,246.33044,217.27444
243.44928,275.60376,231.77202,227.28484,234.98183
219.2393,247.58801,226.90953,227.43018,209.375
193.4906,172.76971,202.45844,196.76573,166.23
158.0932,157.36702,65.2082,77.33365,96.00676
148.56172,260.79657,228.65959,204.46284,217.81696
139.64693,222.1199,129.12473,126.94058,161.83781
129.49461,286.48795,167.57002,221.82155,234.44844
115.864624,191.26848,102.633865,87.81904,146.83066
126.536835,258.09628,127.31694,116.329666,243.92345
127.63483,255.1126,170.66821,164.535,180.78859
104.41709,256.38376,95.98803,108.23651,214.2932
196.06194,204.67514,126.59453,124.077324,160.74626
167.2645,229.51944,117.32557,123.59421,206.12627
237.5228,159.84622,212.67303,224.60342,207.86365
104.100494,58.930317,88.84236,84.61717,84.10548
186.4878,281.72256,88.452835,50.94324,220.09486
94.94827,249.71288,165.06247,181.73383,237.47922
161.14082,309.17685,103.76445,119.78835,263.37534
175.6519,309.57385,164.26793,183.80315,271.13513
240.86775,315.3507,175.14346,170.80325,269.62442
147.48946,290.46133,189.80469,192.02277,243.46025
204.25404,316.99582,217.92136,198.14749,271.5405
239.5111,302.48984,157.53836,185.67482,211.60603
188.07344,149.67325,180.62526,197.33655,120.35971
257.3264,298.2945,257.5505,273.6123,247.4386
32.86859,51.252537,58.48404,57.353794,46.52303
152.27003,251.93039,193.88922,195.49294,180.63634
222.90887,254.84015,206.32394,223.87218,205.095
116.50054,115.8021,208.3091,216.52992,151.82564
148.04689,180.3619,237.87659,164.52884,119.47638
117.975006,208.529,97.87221,84.91368,167.89345
107.292534,168.47102,159.4585,180.18405,104.4767
282.5266,321.7653,259.6399,268.68033,264.7734
259.7199,212.28008,161.05782,156.30084,169.34448
240.545,308.2822,222.49701,239.193,262.4888
256.9175,115.36629,223.4164,227.55353,126.06497
252.18152,319.2446,247.14479,246.73064,273.7229
217.13733,113.32204,225.25551,227.03085,130.05605
168.74182,274.18124,202.77603,187.07454,239.91545
219.38214,304.02014,200.3346,191.77016,267.60434
239.12608,205.12743,246.30438,257.9109,167.41881
97.060036,198.3169,173.42299,196.5001,176.6382
95.66659,135.89996,89.65173,104.528366,119.31872
276.804,245.02765,271.87466,281.86267,233.65466
180.93207,148.87758,240.90596,267.51355,122.28568
43.395473,90.12357,74.32224,116.753716,56.087513
199.84036,192.29474,114.00723,110.22397,181.73946
266.6952,283.1243,120.50558,216.09047,249.92023
233.84003,298.24713,211.93176,272.34177,244.88847
239.2107,323.71036,263.28152,263.8573,278.9384
216.08185,327.752,239.02438,263.78116,280.0757
284.44916,273.55362,280.83118,290.43298,273.92795
288.05655,324.14618,269.43103,283.16635,278.66507
267.40433,238.92978,251.92953,265.80945,238.78064
151.88504,190.7592,166.9783,171.28276,165.04898
234.476,313.78357,240.4836,255.62062,270.8597
99.192055,49.15899,53.869095,62.327217,52.21453
115.60051,103.625275,135.93016,110.08206,78.51726
91.21305,180.73691,167.07684,161.51753,150.62636
109.73818,260.5331,130.479,127.56895,215.68988
267.97424,319.66077,258.06668,273.20053,274.25037
284.58533,306.09784,266.54584,274.47018,253.50342
261.3066,277.03326,112.49519,130.08705,227.05031
280.61322,313.2604,262.2969,265.1537,269.31763
116.65779,235.303,166.34846,171.41943,199.20688
253.07462,314.32126,218.42491,191.60583,267.70193
176.52031,194.27844,134.39339,161.19443,135.27635
167.96126,290.27377,174.0665,214.67674,257.60413
270.29807,320.24704,269.7348,280.0722,273.3457
259.21072,294.102,188.47838,184.38489,244.69576
235.23218,276.86725,211.03954,202.44981,238.89859
131.12799,172.24602,115.54281,76.30264,145.17143
207.46233,291.19397,223.5475,234.74593,250.2365
97.597786,158.14957,167.67207,178.44473,121.38012
148.391,223.4993,130.149,139.8677,208.05292
162.4348,247.9375,110.49699,119.61296,203.48459
208.9787,285.48868,194.52362,221.4778,246.13704
208.32669,282.68503,196.73344,213.20891,235.94182
246.75836,307.34897,185.88373,220.14413,265.66
98.41113,259.01465,194.95169,160.31848,236.26042
251.77553,284.42545,116.66671,112.77567,192.93477
168.75293,201.37341,73.28916,105.71259,144.31584
163.6272,210.03304,173.2588,178.83174,183.32964
126.517654,286.62924,226.15157,254.85211,238.21889
266.0968,290.9249,241.26573,239.56865,243.44043
220.54315,256.33713,223.51425,239.5018,212.52927
152.15263,106.40412,99.62333,109.230064,96.23968
97.52696,169.29616,118.81536,162.3771,169.86034
151.60266,240.72458,141.27483,137.69318,192.06874
141.23657,251.6571,160.90802,146.10329,202.59775
132.95981,60.122753,205.36043,185.87352,74.15578
126.10364,175.13573,122.541084,125.37944,130.77303
111.24251,215.49355,137.56432,140.24065,159.42905
205.61142,223.6553,157.29854,162.44978,154.12773
186.03723,229.7743,147.0481,132.56105,209.82803
123.65753,151.31982,137.66887,145.26823,105.32491
94.35918,192.14635,78.14862,71.802444,172.86914
199.52544,259.8655,159.3563,157.641,226.58955
213.96376,245.96608,175.1397,185.90564,226.36774
179.26996,239.8949,221.50885,213.5917,216.89012
188.00247,228.54648,137.32938,130.95163,194.9192
185.83646,229.38332,156.71284,187.2173,217.08978
191.25453,243.59428,174.49855,191.50768,206.32495
177.21434,249.12318,195.84552,183.09352,211.54349
146.013,198.76027,94.188644,95.86193,140.64873
131.9895,126.57109,160.95837,165.49426,110.01551
54.228207,91.23973,136.47668,140.50061,70.76298
204.85294,218.62088,185.17586,197.6908,198.46721
214.53014,230.62424,166.105,156.88705,202.41417
215.63286,239.57512,201.32828,207.98532,207.20827
213.79633,226.33748,187.57112,167.6037,189.83438
154.50136,171.87563,76.80951,91.17017,113.01363
203.30495,193.37714,167.73079,152.5025,193.48314
209.81947,229.16158,176.074,156.3234,198.42564
208.08215,227.6498,193.18103,199.75974,197.98576
206.83719,224.36374,167.63307,173.09874,195.82184
201.73428,228.15916,151.54741,167.02016,191.80766
201.52525,222.7353,161.72432,188.26355,188.25917
201.59515,220.90666,184.29448,192.7631,190.65079
200.46907,219.31302,176.88177,187.34277,189.00574
192.73839,215.85464,177.25113,183.69714,185.92273
182.84584,211.65622,175.44412,181.42902,182.34578
185.68073,204.28859,170.27245,173.51605,168.54015
160.02455,75.13786,131.55428,100.247284,95.673515
127.90315,117.5655,114.83664,79.926414,100.247185
158.03754,175.91443,150.48286,136.78142,157.2196
168.20837,194.61302,157.02176,162.8023,168.31749
176.92352,194.35687,161.03625,167.16423,167.43254
173.54027,191.0916,153.36119,157.7651,163.2092
156.02661,185.95807,148.14322,156.38675,160.93378
167.67648,183.12877,150.52281,158.48265,159.3601
160.50165,183.8208,151.6819,157.19131,158.75343
164.40465,180.58795,149.3195,155.06078,156.30025
109.47678,113.98114,74.09074,106.961945,97.20351
162.18031,169.00876,149.60608,155.5089,143.0744
138.69948,97.170616,117.437935,114.62834,93.57345
107.94038,167.82806,96.44378,68.4515,134.35191
119.47394,159.90445,113.85154,103.85983,120.04575
131.1821,122.324715,132.53598,137.97314,119.697655
125.7701,135.6886,134.56241,138.36748,138.05637
149.00656,162.19975,131.46431,135.69818,139.83743
67.331474,157.49803,62.09143,65.72889,135.99057
142.54466,151.60728,91.38778,65.478745,129.69571
125.02511,152.41899,125.452286,131.1284,130.67343
141.43903,153.56673,125.526764,130.4003,131.94344
139.31874,151.51144,123.23728,128.24295,130.45406
136.68336,147.75865,120.712975,125.31821,127.43898
125.55151,132.79501,112.9987,112.97613,116.49537
107.480286,90.95915,72.01668,69.99098,88.86159
77.09483,121.11051,94.56573,103.87317,103.20966
37.362057,108.78427,67.99886,77.502464,105.2892
59.219444,65.84449,56.75938,68.50854,75.26008
107.05657,118.44411,101.15041,107.858665,108.66147
40.28176,24.974413,43.502083,42.05464,24.82468
22.044975,18.092936,22.822126,28.629868,22.160896
97.57625,104.484825,88.72492,77.11851,96.41511
16.009851,69.9211,12.376561,16.408617,67.10832
55.069027,70.24924,38.843468,45.556206,67.19594
87.80523,28.444279,55.72472,51.162334,21.640268
86.54149,99.15128,65.662384,56.67974,93.14107
82.76068,78.07669,69.88312,75.142525,69.168434
75.25433,85.731636,87.786896,92.780846,72.08876
79.10825,65.4162,88.83889,92.31421,59.491024
32.58492,72.77184,54.646683,55.546337,63.454426
18.334259,20.76677,54.41298,71.237236,53.50891
5.934814,9.675251,10.998851,8.96222,10.272225
68.169586,96.97853,62.200928,66.242775,80.34112
90.76356,85.58038,77.231575,79.71527,77.26639
79.32388,84.45244,58.48006,54.02252,71.96062
48.64917,65.67122,43.90441,49.392025,64.846
57.797783,73.48951,60.201466,48.984783,64.31464
72.4266,76.31646,64.52148,65.941696,66.08819
49.107845,54.272762,58.507248,59.47415,43.997623
41.233063,27.810705,23.437462,33.85739,23.553272
72.91524,58.281624,38.978806,41.254898,44.556934
56.230686,22.033125,34.77202,30.417078,19.951342
43.3952,14.952508,21.949938,17.648668,12.082174
47.609432,72.44922,43.482105,40.57534,61.188164
43.218246,64.50926,54.004517,49.400852,60.30399
48.596504,60.00261,47.964294,43.87401,47.889927
56.71278,53.059547,48.68011,54.08558,48.835606
46.349964,39.198727,24.187075,19.408384,38.715984
28.546495,40.070198,44.078228,47.29952,36.54682
19.768831,11.425512,16.032717,19.682074,7.4375157
21.797665,33.1418,36.76979,30.075144,35.050995
19.89144,54.202522,19.499453,15.6344595,45.6299
59.3187,58.710342,39.440937,42.533688,45.59544
56.167145,57.85158,41.832558,46.27368,46.23876
52.439053,25.640253,32.375134,36.37559,28.27709
38.386494,29.2776,17.197361,16.345339,25.00825
4.3617992,14.7186,6.352665,7.765143,8.801782
36.392197,44.331707,35.48208,40.237934,36.86053
7.1893096,14.959772,7.225603,6.6529484,11.267727
5.8618007,14.4337225,23.003262,22.297834,10.95948
50.917114,49.106934,37.99354,39.897396,42.65561
50.233612,50.150085,37.54908,39.056107,43.66179
35.97342,17.289013,14.798993,13.167124,19.62654
11.622354,17.278778,22.527666,20.097908,21.003223
15.739761,31.575855,17.060068,15.560173,23.105755
14.628307,36.589752,23.10134,28.666428,33.66026
19.097313,24.195934,25.319534,23.768072,26.289486
11.686389,24.708042,15.8299885,14.069442,16.346478
5.518116,6.4014463,4.3666773,5.304295,4.007796
3.5583239,2.8442266,7.0607247,9.286198,3.9253373
27.882963,28.907547,19.78084,20.626488,22.858711
30.686386,33.24906,20.471308,18.779974,33.750965
37.30999,29.910858,27.085247,29.010597,25.521461
17.372898,6.5457797,7.5769324,7.356512,7.548448
