"[299, 255]","[227, 248]","[287, 319]","[279, 328]","[230, 262]"
27.326736,34.416794,13.917476,18.522985,29.658388
5.4096484,6.1274033,4.2097454,4.1653714,5.3947873
5.0994444,3.832582,5.896918,6.3768907,3.6997511
12.515744,15.600888,4.937933,5.6450086,14.448508
17.216946,10.922378,14.964689,19.231842,9.355183
15.022515,24.66547,10.193872,18.688847,21.53501
18.578995,25.976517,16.756823,18.16523,24.3558
12.710294,25.932795,16.371458,22.527216,24.824272
17.599327,18.224861,15.469675,15.0655155,15.954958
3.1135616,7.37688,4.31678,5.8413215,8.186469
19.313683,30.53622,17.958212,18.732805,23.860312
24.39551,26.245527,21.211718,20.281902,21.613422
18.638865,27.858772,20.778395,21.605455,25.03997
16.778358,17.253033,20.818613,20.738731,18.073917
4.9704475,15.22,3.0987272,3.0837438,12.5376005
20.2146,25.09711,8.933032,7.648924,21.609144
5.439789,8.374229,6.9973483,4.6673822,3.6344173
15.877971,11.655424,12.078048,11.840119,10.116776
9.822539,4.681267,6.440939,8.856024,6.1128893
11.99905,29.647852,16.164522,11.067624,25.205841
9.0640745,16.836462,20.497892,23.121233,22.354986
31.17744,31.24044,22.257137,23.036015,27.804934
26.49607,27.215929,18.821865,20.401297,20.796446
12.238857,3.3994036,13.096845,13.803073,2.5702329
6.8361793,17.913578,4.563786,6.6222796,10.474277
12.416199,13.253674,18.956667,15.908775,6.516879
20.175707,24.395752,13.249467,12.924746,20.543873
3.7611465,4.16364,4.5305395,4.708249,4.4354644
16.689175,20.409534,13.4586935,12.121556,17.87718
18.66022,29.100346,16.449406,16.217253,26.029793
3.926037,9.771848,6.4400907,3.7674563,8.493211
33.095654,30.810791,19.450493,17.661182,25.633772
13.05803,31.697332,10.211943,10.906521,28.202938
23.525455,31.495562,18.496492,18.50352,28.51559
22.715872,17.519072,17.378414,18.636683,19.023962
12.510369,34.3678,9.229672,11.291364,29.80878
17.227722,7.232669,14.129457,15.187493,8.721031
24.707289,28.523762,11.925988,17.242416,23.522522
28.779793,9.7144165,16.542109,21.509579,6.2320795
20.849968,35.113194,11.503361,15.219385,29.431936
25.538996,23.241817,21.063036,20.248943,13.56347
26.625599,14.2439375,21.624208,21.418865,17.008318
20.422955,28.606113,20.087849,21.213709,21.319885
13.219879,27.728104,13.682325,10.772246,17.760345
14.530076,30.16247,7.279866,10.027943,25.035612
7.451343,8.432892,21.580656,25.586376,6.095126
11.438841,5.6311088,11.340766,9.776205,6.451966
5.731646,4.624429,11.538551,10.871928,4.3256383
26.645876,22.889538,14.384668,6.965539,20.389086
25.569614,42.66699,25.455324,24.41205,37.001713
3.182426,3.1205401,5.838627,4.902038,2.9819093
19.663033,36.085434,21.706001,24.792484,32.269966
21.262669,45.702137,32.027996,29.131577,39.403133
22.37533,44.11258,32.22225,35.271275,42.222713
35.71242,44.200817,34.886433,35.747444,39.078217
48.649624,35.12704,38.17648,37.27078,33.988277
42.969055,51.185493,34.045742,35.998028,44.303226
34.422672,55.04643,40.340393,37.819923,47.46122
34.829456,17.796755,35.997593,36.715866,16.117939
29.805696,40.830257,34.10928,37.206837,35.9755
36.59318,14.23773,15.794914,14.936091,13.233892
29.606413,57.03613,41.88475,44.285877,49.624615
53.744907,47.25376,28.531685,28.871548,40.925858
20.882492,45.07608,45.41584,42.636436,36.621372
21.687845,21.331491,12.639689,9.776349,19.205824
30.38015,58.791096,44.602055,46.309612,51.630844
10.072417,65.407,35.147903,34.60526,53.957916
35.65935,11.911096,44.5043,43.912655,11.596179
32.14877,68.53732,51.59529,52.358074,59.539932
20.01473,58.451523,50.78834,54.76311,32.49184
56.73259,63.950893,51.125835,56.891834,58.92848
79.694374,80.33446,63.91799,66.84991,69.96712
69.34663,80.98743,62.70188,65.600945,68.4042
32.100582,30.472967,17.263622,31.837675,27.378384
17.462908,60.529564,42.13324,44.232952,58.648567
31.425486,18.99517,37.316807,39.126907,15.55329
44.244843,59.323326,55.294327,63.314236,55.71899
49.071552,90.28527,63.46871,63.91985,76.054565
18.811129,18.91587,47.33959,46.597363,19.15191
11.620312,23.26276,15.2261715,21.820137,21.727346
90.817116,96.65188,76.45739,83.68559,84.91909
12.078723,7.985144,13.338361,7.922837,10.360227
63.897503,98.90101,65.757576,73.60004,68.34481
14.24044,21.504993,66.02987,58.2919,18.169876
89.73311,35.972878,67.70683,71.97176,36.961433
14.397588,55.957024,38.91484,33.934948,57.253773
13.798332,50.90534,25.964231,33.480415,48.89292
55.7237,92.194336,45.312866,43.158463,78.531715
93.69503,63.367977,51.669968,67.69601,69.47531
90.91855,71.58644,77.23315,89.91809,77.02311
112.37189,37.158726,30.732777,44.31141,30.744816
64.23044,108.48834,88.93252,80.174706,72.025635
50.880215,85.57435,66.54873,47.51927,63.74814
38.5453,57.79809,49.088528,36.15982,47.52196
51.56822,89.11835,70.349174,76.8442,76.62949
16.199368,14.8794985,17.779945,17.432451,14.856284
17.483765,53.79302,22.449907,19.97359,53.61746
26.432682,40.60255,50.927967,40.564827,42.112423
39.11615,52.545185,49.344845,46.130264,47.38516
35.638138,74.548874,53.674053,59.9296,79.304214
38.153687,95.0325,46.596756,58.25552,74.700195
57.719162,74.82403,78.163925,69.805595,58.729454
63.821762,147.2349,111.38159,100.20786,115.68826
82.87683,117.463104,64.133865,36.300003,96.5587
27.07435,88.30075,40.163975,56.229855,79.69196
95.58356,138.94543,108.742096,113.42433,121.26828
46.148586,29.297358,57.212658,59.260136,28.271996
55.516342,73.87031,66.396675,77.63268,29.710077
121.74938,162.45088,110.36763,108.13588,141.13255
39.907883,46.77388,31.202085,27.66852,41.870346
18.253378,17.500874,21.807808,23.018808,17.00825
61.50959,79.47158,74.48871,61.691868,80.220726
18.453724,14.810975,19.161,22.125294,16.756742
51.412426,119.564995,73.75427,71.05598,93.39678
36.820763,76.09678,34.891937,33.186993,65.89243
137.84741,169.8582,141.59563,144.70317,123.76262
160.4104,191.65907,146.70766,145.22394,165.47163
169.11624,182.94789,136.52641,117.61946,142.84343
145.19843,196.60727,163.20511,169.6596,171.15797
153.4183,120.04117,125.71567,101.016106,110.27508
80.64697,119.26038,79.64725,85.665436,103.52798
73.357765,138.68541,66.55391,74.397316,127.3275
90.07636,172.27518,120.02196,130.29596,130.32796
132.96231,174.71327,110.001366,124.97459,140.98567
158.51482,183.87947,129.2439,117.362885,165.98058
139.45906,152.62312,66.26057,72.52442,143.20589
132.65195,178.34058,83.25036,113.2837,162.60281
133.73764,205.34941,145.65976,157.04807,181.46196
78.40702,164.54735,77.588295,96.09521,125.73002
57.62058,141.9138,128.44826,151.33199,134.29976
157.05582,215.1483,158.17963,145.32957,160.65784
163.20026,239.16312,166.63489,167.73222,202.78706
196.29881,242.45798,155.16353,168.59186,198.49522
157.47276,95.25396,179.85019,188.40228,90.49087
119.44414,148.34348,148.6325,137.2105,165.54631
41.105976,104.756714,77.00843,83.71746,99.00765
62.14672,127.78593,105.71704,99.2842,122.99241
143.97966,234.36118,51.25351,54.052883,204.36807
130.07227,176.9834,109.54829,119.64037,127.14505
157.21774,220.92706,173.47049,162.74788,157.6679
187.20494,196.09218,155.77022,167.25253,191.98369
147.74954,234.38857,147.659,162.69417,188.42273
194.08406,242.27394,171.06837,177.92438,207.85707
143.91878,264.33914,202.31853,208.70755,213.37906
205.37276,259.78195,221.70572,232.76782,201.98122
57.2514,153.19055,89.75926,107.91322,132.84962
114.88231,148.60048,118.48233,97.35766,124.77869
95.18246,166.5141,158.45615,159.35355,145.91837
87.15424,217.82689,152.17554,154.56258,162.97238
138.44626,251.049,198.01157,196.67183,194.19629
165.41187,272.61084,206.70293,216.07143,230.44191
86.55934,69.15691,93.77399,119.50003,66.83508
60.880505,80.379135,53.95481,59.84444,60.230476
88.97872,155.18939,182.35283,201.81139,148.53214
83.24908,46.37594,51.839317,56.969913,57.226807
180.4604,269.71848,201.97896,187.66457,226.44397
155.86154,264.58826,158.19086,176.67361,216.42795
169.74084,248.41922,160.70299,231.98686,199.78772
185.49481,280.49942,195.73274,155.13606,196.13837
205.7217,299.74283,158.72289,183.4533,250.17871
248.29439,278.0356,234.35536,213.51625,239.73761
74.63883,214.38922,145.3732,178.0273,198.4834
245.495,280.64365,218.78253,209.46935,234.8534
170.40077,257.69296,162.27405,148.88663,224.1157
265.96838,298.47433,253.25307,260.09476,254.8389
270.43622,305.081,256.56567,264.78506,258.64777
272.3752,307.15085,258.43832,266.99207,261.51532
255.25304,235.34285,205.5318,241.07477,206.63483
273.00055,270.70572,178.14067,186.99843,229.28764
214.39722,189.47758,140.64482,142.01201,155.38374
144.36586,253.69002,165.21324,187.64845,198.17033
53.992237,76.65299,85.458015,99.98103,47.648785
197.18219,291.52472,174.18552,196.33195,219.74939
173.48085,188.21812,198.2383,213.3125,155.74638
49.836155,123.78772,84.578926,109.16359,87.484146
141.83775,261.54688,152.25575,155.40846,216.6791
178.04672,293.2378,182.94498,217.75838,251.93793
84.401245,59.73235,85.707306,93.03228,61.955383
160.12555,259.41602,165.63339,152.17122,213.09834
208.05287,285.356,208.97495,194.18817,234.27296
232.2948,287.9712,204.9689,218.19318,246.36098
280.77356,317.211,233.4047,246.40909,267.85953
223.25371,278.79276,152.81125,119.35452,231.23341
171.94846,301.6575,198.32639,192.58913,258.68478
83.89122,128.534,66.8608,121.86056,140.56451
221.97205,299.58527,200.13208,182.73157,234.1524
199.7659,251.36076,197.47899,205.42989,195.43944
70.23322,59.518826,114.08155,133.09677,56.556797
63.773693,155.7968,105.39121,100.244194,127.73659
253.35237,282.9708,167.18167,155.90079,226.70389
179.15556,146.09683,95.936104,87.869736,125.96366
148.54851,70.47846,181.7678,212.28734,149.0187
193.96579,320.98267,198.58665,230.34511,265.83707
121.528435,191.05003,93.21214,119.75768,155.85129
43.435234,187.14305,46.078045,57.920456,103.18351
193.91017,234.84709,244.26901,243.14093,215.46677
242.67142,260.36264,208.87294,215.05174,258.01953
241.11334,326.3995,223.08398,240.90651,277.20743
156.15482,156.9308,176.79706,166.02484,157.58665
270.84735,330.57864,266.56323,282.4476,276.9767
159.16246,270.65015,206.80046,209.67833,207.63867
97.397446,279.9216,99.15932,106.40355,229.53767
143.3244,266.81558,171.08757,190.75465,246.67961
236.24649,254.64339,279.2459,287.1716,237.12994
283.107,328.0161,268.15796,275.63565,278.02533
278.2055,307.70728,273.06168,286.585,268.46265
264.3266,329.4373,277.20773,287.5995,282.41147
257.9467,306.09604,242.07057,238.60733,270.95966
261.9029,322.8623,270.83087,274.21143,276.5394
216.48187,292.5923,169.50902,184.40443,251.5239
254.12091,293.69885,260.38763,272.1115,243.03651
237.26456,318.59607,164.67563,173.45352,273.94543
253.00783,295.67502,179.31827,219.8342,265.92947
235.97928,318.75293,201.86551,224.65659,270.1539
269.2151,328.8706,267.55118,286.18848,281.33835
264.74908,308.65762,260.31046,263.59302,261.35956
221.59523,243.15358,185.81334,160.80719,214.5302
120.34681,216.75642,131.34761,128.85744,173.51778
52.203617,177.9458,81.87087,80.10833,102.16301
252.72112,309.26196,272.19073,282.042,270.06122
191.32889,149.36658,157.62599,154.46301,140.12553
215.29402,294.98895,227.95428,204.15591,240.42128
245.04175,298.00613,235.84833,256.17145,255.66672
245.33719,262.0663,249.33144,259.08533,232.36443
229.04256,218.03632,155.6036,153.94276,171.83376
210.93399,273.0707,230.19165,244.1328,243.36433
226.95526,106.87469,162.80475,156.2943,98.09976
117.1417,256.35812,110.88031,135.34915,220.16586
179.98514,226.0653,189.82451,159.09201,165.70879
248.24577,268.0122,194.26291,197.4253,220.53394
53.394344,111.19324,47.536156,62.186584,57.28091
134.85979,206.11804,211.52745,196.22377,164.35672
57.410366,124.87954,127.929,108.16061,99.84307
64.60224,139.3671,102.3113,111.02061,137.6695
177.25177,215.89456,194.49709,212.60268,197.24959
202.10751,247.92331,209.52203,219.85843,199.94394
245.90105,123.36985,130.24545,103.40368,85.425255
237.68726,258.92825,198.62611,199.67937,210.23851
218.493,268.63785,211.57857,215.5052,224.45364
250.58696,286.89896,215.73053,220.7536,228.0292
163.75302,260.7691,105.190025,154.70569,202.13463
168.58969,245.75383,179.74823,177.13864,196.8927
186.78937,261.65576,186.52652,216.86656,220.4093
254.16373,281.82016,232.04913,248.1217,208.23581
250.50346,274.803,227.1315,232.76689,236.55225
181.41534,255.5794,154.01912,182.62659,212.29446
182.15132,119.37831,101.62754,100.37164,93.70938
237.9054,271.27707,234.89635,243.35571,232.62521
242.03812,268.0575,219.05399,221.24751,231.14168
207.12416,219.59486,119.55293,134.5294,132.84305
179.22195,222.24579,164.21605,176.51642,188.05858
196.82962,247.42212,178.76694,173.25665,213.44359
204.30475,256.94153,174.3891,187.42459,216.99815
217.17116,208.06126,192.48589,176.88889,166.47418
111.17024,246.89662,137.97577,193.20584,213.34334
177.53961,220.98085,195.54716,171.7995,187.30667
139.42255,226.97896,161.49875,175.71474,182.46129
57.154064,60.54596,90.427925,89.10064,55.38539
82.68159,160.03561,179.69478,193.95465,169.88916
130.66733,215.74715,147.89084,186.05797,193.87602
107.25155,135.86877,147.05371,143.72276,132.51343
60.83372,152.00249,127.72675,148.53459,128.11563
47.953106,145.65569,126.969284,119.523796,112.6375
74.61964,163.3742,88.14173,85.36412,133.23189
127.17591,175.0045,105.11478,149.59088,128.60234
91.01814,141.43726,58.1454,71.59888,89.45954
43.766113,152.5575,70.30304,80.80995,89.52812
72.187836,128.19691,59.56582,56.390278,109.1307
66.823586,83.07143,48.732365,53.599377,82.35419
86.092804,105.92371,53.05714,83.72875,76.14957
129.42856,70.770546,52.700768,39.456436,59.863075
123.780685,175.06427,119.873985,78.217804,123.28349
123.58472,127.98733,76.37271,87.83729,111.863556
125.6065,172.56038,134.8991,167.24512,149.0624
113.91406,123.52518,150.0679,161.01945,95.13465
89.3792,68.82446,72.3651,79.0539,68.42452
141.9999,172.04987,139.20958,142.98192,147.29893
155.7156,186.87413,129.05533,135.79161,148.60863
155.69427,191.03615,129.01431,144.40265,154.43385
65.62651,143.50943,147.29552,154.73935,102.38229
171.85449,187.00697,158.34706,164.8639,160.87204
167.71194,189.30847,148.77481,159.5933,163.53453
171.75922,187.73453,155.0337,160.98068,161.70155
170.11635,185.89725,154.13602,160.23624,160.16153
164.26442,130.58165,148.7887,153.29805,110.39257
146.23225,149.89198,119.399666,118.57268,135.05872
117.87429,132.96928,101.39074,81.98382,100.5307
148.21866,143.28654,76.983086,55.137863,108.08571
55.739216,73.4693,50.577667,52.3466,59.833775
133.96642,98.097984,117.83438,104.07761,84.078285
78.662735,145.7207,94.91616,92.916245,125.150536
77.95874,135.91739,77.08119,77.8528,121.64217
138.31511,151.3143,115.057106,129.72865,130.76646
105.24136,160.08772,93.381935,113.48158,137.26895
131.5458,151.43956,109.6936,118.61,122.576416
141.13115,153.03253,116.78331,131.45895,118.15015
128.56947,137.7346,116.274796,125.075485,121.08256
110.5318,92.05732,86.80517,91.63006,80.79313
124.35673,113.95579,67.02376,91.25054,88.978516
58.532845,130.33994,67.88369,71.289856,108.74651
82.178696,106.95785,67.64514,70.86124,92.69741
96.34697,106.18576,86.2056,94.5093,89.904305
20.81369,25.28689,19.482185,17.70628,28.910372
12.523749,47.619144,23.880928,17.648119,49.351357
50.116306,51.92005,42.1799,38.008987,41.79258
83.93839,29.853569,36.30367,27.88283,35.023186
117.83029,122.08081,94.47541,98.32537,104.66714
114.610435,120.49825,93.19262,95.377975,99.44184
110.76862,115.834816,68.09502,67.45305,98.51881
61.37664,69.02277,46.539883,50.3393,58.97546
27.526155,49.004913,40.26138,49.809093,33.209923
79.22884,108.378456,38.645527,65.03975,84.87458
41.47933,44.439453,62.69348,72.62302,52.370544
50.267265,92.84718,48.577084,46.42126,78.748474
92.989204,105.42201,68.47596,79.75538,91.336555
53.158054,23.559494,32.364067,27.616335,24.556929
72.03962,99.7677,62.973587,67.70287,85.90789
56.37923,42.028114,45.419514,47.51167,43.418674
24.441992,76.0343,48.273155,46.03068,68.7761
37.39787,44.1646,24.221186,31.421892,48.94935
49.378555,62.63589,67.20736,78.37636,45.53061
59.67563,72.45864,64.218376,69.171776,69.145004
25.653603,30.73669,17.744953,14.186085,25.61435
56.34755,54.96685,47.784428,33.275497,51.67781
40.76627,77.60266,46.89375,45.573177,68.47426
56.811752,42.757645,34.183624,38.574265,35.923336
13.406867,76.593315,39.65219,42.80963,65.94825
15.727088,76.52865,63.258633,63.97194,64.10592
48.698925,75.69457,47.30675,45.479687,62.61764
72.962135,62.01861,46.345703,47.830383,53.596333
67.05176,73.24642,57.16634,51.89635,61.273064
32.125484,32.529076,31.365753,27.124279,21.094587
38.242676,23.612291,7.865185,9.031246,19.453787
25.912905,34.988033,25.292324,26.529814,30.83661
46.069363,61.02808,45.708714,48.501488,52.802757
26.686905,26.636326,8.848026,9.107844,19.664103
21.835472,48.00373,25.30952,31.91582,39.329548
25.667995,38.52617,44.125183,40.81103,33.559494
19.378042,12.161329,12.674565,12.365524,13.295223
5.045814,9.76888,15.316554,15.640779,8.557154
57.65969,48.597183,43.92614,46.404125,43.20287
4.587461,10.806882,6.6284513,6.1035647,10.829547
16.119085,45.550728,15.962994,14.577002,37.884083
26.066446,51.307743,23.004488,21.648268,40.019287
11.256231,9.228938,8.818617,10.028692,10.544129
33.775208,37.119106,28.888096,33.05902,39.752663
29.830173,37.95508,25.476002,26.06178,31.350357
31.07193,41.324005,31.311834,34.21389,33.979828
27.950714,38.7299,28.710968,30.548544,31.797007
32.70278,28.646557,24.134378,21.198715,23.711557
37.60465,32.960407,30.293922,26.287325,29.746655
32.30477,8.213584,28.557804,32.910355,10.856881
5.175578,4.8424096,3.4372952,3.3800461,4.53821
30.219528,39.517487,28.39868,25.296543,34.778774
13.783673,6.306368,17.79304,19.544378,6.545729
25.329908,29.864475,19.979311,23.164373,29.61968
24.783644,36.689346,21.598618,25.058346,32.34403
4.152352,20.121151,4.0500846,5.2327204,16.260197
39.33134,29.263449,26.164827,26.653187,31.398384
32.773533,25.201468,19.430735,22.318542,25.192091
