"[299, 255]","[227, 248]","[287, 319]","[279, 328]","[230, 262]"
5.363916,8.188379,4.8736815,4.7884765,6.733545
3.7501464,8.331446,4.2118163,3.758203,6.9500976
3.735498,6.383203,2.1009765,1.9422852,5.161279
0.69863284,7.0055175,2.3785644,2.9312987,5.57583
4.9847655,8.062891,7.103906,7.2811522,7.0279784
6.3236327,8.379053,7.6952147,7.6549315,8.144678
6.2105956,8.319727,6.014795,5.732324,8.064356
0.47915038,6.014795,0.76186526,1.0626465,5.08999
0.5375,6.918115,2.7787108,2.6317382,5.5406737
2.1275878,7.6493163,3.1578612,2.6859374,6.3854003
5.9532714,8.685694,7.119043,7.5736327,8.666407
9.433741,9.829493,9.154932,9.345118,9.8832035
10.205469,10.273096,8.224268,7.577783,10.008448
5.605615,8.584864,5.9972167,5.6043944,7.2450194
6.1844726,8.704493,6.615625,6.813867,7.9830565
6.291406,8.2894535,5.454004,5.304834,7.141992
3.9210448,8.495264,4.5475097,4.033838,7.1952147
1.6942383,6.216211,2.8004394,2.5990233,4.6009765
5.223779,8.654444,5.495996,5.5299315,8.3675785
5.2574706,7.236963,3.9271483,3.6427245,6.1637206
7.7638183,9.199854,8.400049,8.419336,9.688623
2.1710448,7.155908,4.5191894,4.3246093,5.9813476
3.4032226,7.3646483,4.3802733,4.0069823,5.966211
3.3714843,6.9342284,1.9078614,1.7635742,5.3541503
0.6261231,6.03042,0.37148437,-0.25742188,3.3216796
1.415918,6.3038573,2.6092772,2.3133788,4.4776855
2.0562987,7.23916,2.1976562,1.6925293,5.525293
7.0526366,8.788965,5.808496,5.9935546,8.797022
7.5958495,8.472803,5.3756347,5.008447,9.017237
6.018945,7.5020995,3.1422362,3.101953,6.1722655
1.0106446,8.527979,1.9156739,1.7401367,5.9779296
3.9381347,8.813868,4.3075194,4.1720214,7.4034667
1.9840332,6.2071776,3.0091796,2.629785,4.8089843
-0.12021484,5.478906,0.33657226,0.30605468,3.6183105
5.8597655,8.230371,4.822656,3.8495116,7.7813964
9.514551,9.705469,8.937647,9.03628,9.45376
9.046045,9.750147,8.549707,8.814112,9.520411
4.1388183,7.8216796,4.553613,4.0624022,6.876611
7.893701,9.135401,7.4291015,7.4740233,8.785303
9.069239,9.680567,8.610498,8.839258,9.343897
6.0423827,7.6129394,5.375879,5.159326,6.2574706
8.62295,9.202539,8.889551,8.253809,9.105616
8.474512,9.107569,8.329004,7.4312987,8.939844
0.105126955,4.8304687,0.90126956,0.14370117,3.1041503
-0.9336914,4.377588,-1.2110351,-1.4476074,2.3009276
-1.8379883,3.5216308,-1.6404785,-1.690039,2.5384765
0.9093262,5.8402343,1.5423828,1.9232422,3.867334
1.0055176,7.0040526,3.5399413,3.501367,5.9444823
3.2323241,7.46499,4.6583495,4.8495116,7.021631
5.930078,8.279932,6.678125,6.688867,7.9376464
2.3810058,7.2003417,3.8341308,3.167871,5.6788573
4.470361,7.7677245,4.5487304,4.7069335,7.006006
6.5577636,8.385645,7.1480956,7.5558105,8.360498
7.313867,8.734034,7.928125,7.664209,8.663965
2.4657226,6.09707,3.3114257,3.063623,4.244287
1.745752,6.4879394,3.1439452,3.2679687,4.6668944
3.9813476,7.567529,4.404199,4.33999,7.208154
4.6429687,8.11294,6.37417,6.0526366,7.6307616
4.834131,6.445947,6.013574,5.291406,5.034082
5.082422,7.872949,6.216699,6.30874,7.2125487
8.909571,8.704981,8.7721195,9.733789,8.980371
8.9942875,8.587549,9.051172,9.205957,9.339502
8.039698,8.38125,8.583887,8.977442,8.641504
3.1837401,6.3871093,4.768213,4.383447,5.3338866
6.8236327,8.373194,7.9208007,7.986963,8.612696
7.593408,9.052881,7.74624,7.74917,9.235254
6.588281,8.0082035,5.742334,5.393945,7.452783
2.3338866,6.1981444,3.4447265,3.0001464,4.9410644
6.449121,9.011621,7.4535155,6.6842284,8.288233
3.8614745,7.1170897,3.9310546,3.653955,6.1825194
2.549951,5.2296386,2.574121,2.6310058,4.928125
0.31801757,4.1097655,0.95473635,1.0003906,3.0963378
-1.5484375,3.6988769,-0.71103513,-0.7894043,1.8932129
1.4798828,7.1495605,3.2618651,4.1737304,7.005029
3.6895995,7.509912,5.421289,5.5160155,8.085352
3.3480468,7.0523925,4.4798827,5.240625,6.5450683
3.6307616,6.9603515,5.2777343,5.704248,6.1773925
3.2030272,6.6441894,4.8910155,4.8736815,5.985986
6.654199,8.003565,8.19375,7.615625,8.441065
6.963037,7.829736,8.272852,9.360743,8.03335
5.771875,7.6026855,6.341455,6.3492675,7.0091796
3.5475097,5.77041,3.6625,3.5956054,5.4081054
2.780908,5.9098144,4.495996,4.2899413,5.7589355
4.9066405,7.376611,6.5836425,7.056543,7.353906
7.8436522,8.31753,9.566065,8.960108,9.749414
9.206202,8.251856,9.047266,8.84292,9.318262
6.021631,7.676172,6.641992,5.672998,7.740625
5.694238,7.8993163,6.6148925,6.870752,7.944238
7.3614745,7.6043944,7.009668,7.405908,8.847559
5.367578,7.7308593,6.337793,6.0541015,7.5538573
4.7069335,6.505029,5.2520995,4.9881835,6.742334
7.234033,7.0853515,6.6043944,7.0904784,7.976953
6.816797,7.667871,7.028955,6.843408,8.38125
5.3595214,7.3895507,5.9381347,6.619531,6.949121
8.589991,8.488916,8.284815,8.438868,9.35708
7.7726073,8.372217,8.136621,8.198877,8.440821
3.9344726,6.4969726,5.582422,5.175195,6.1114745
6.394922,8.558985,7.6529784,7.8722167,8.063623
6.3907714,8.348047,6.8768554,6.625879,7.737695
7.129541,7.8038573,9.051416,9.251368,9.733545
9.3675785,8.593409,7.159326,8.133692,8.699854
6.694238,8.177149,6.945947,5.561914,8.020411
4.2313476,7.192285,5.046289,5.023828,6.8248534
8.612207,8.231348,9.622217,9.38833,10.234522
7.6043944,8.289698,7.589502,7.622949,8.564356
6.047754,6.112451,6.8355956,6.720361,6.8021483
8.941553,8.028955,8.047022,7.2486815,8.407129
6.897119,7.863916,7.3531737,7.105615,8.202539
6.631738,7.5682616,7.2262206,6.9256835,7.565576
7.7677245,8.766993,8.646143,8.68545,9.424463
6.3373046,7.761377,7.3548827,7.1222167,8.921534
5.0631347,8.0238285,6.376123,6.6634765,8.3988285
6.7904296,8.810694,7.675195,7.6637206,8.785303
7.8612304,7.5763183,7.8666015,8.06045,8.330713
6.4708495,7.2416015,5.6234374,5.733545,6.589502
4.9808593,6.7831054,6.7401366,6.5902343,7.226709
7.9728026,9.321436,9.621729,9.380518,10.660303
7.522119,8.68667,7.907861,7.9132323,9.136377
5.1583495,7.701074,6.2328124,6.4798827,6.823877
6.6500487,8.660547,7.9620605,7.624414,8.598047
7.572168,8.893702,10.033594,9.558741,10.574854
11.031153,9.15835,12.34878,12.1783695,13.494776
11.282618,9.695215,12.410059,12.251368,12.645411
12.988916,10.882959,14.745752,13.993555,15.719385
11.911768,9.483545,9.4457035,9.754541,9.417383
7.3893065,8.278223,8.129541,7.9686522,8.825342
10.006006,9.059229,10.277491,11.327539,10.38833
12.983789,9.313135,12.978174,12.896875,13.0846195
15.045801,9.748438,10.931543,12.300928,11.163233
9.030176,8.763086,10.077784,10.039698,10.351709
7.00625,7.1339355,7.848291,7.7853026,8.506006
6.221582,6.963037,4.4051757,3.6258788,5.3529296
5.9469237,6.462793,5.586328,5.613672,5.9659667
8.454004,8.945948,8.499659,8.208399,9.614405
7.0265136,7.2013183,6.9461913,6.718408,8.429834
5.402246,6.836084,6.1969237,6.0145507,7.158838
4.615625,8.596094,5.004541,4.8128905,8.642481
4.9173827,7.2381835,5.987451,6.635156,7.713281
7.30874,7.205713,7.9291015,7.858789,7.2953124
2.6517577,7.716455,4.113672,4.202295,5.971338
6.6214843,8.49502,6.711084,6.204248,8.722071
5.857324,9.127832,7.8336425,8.061426,8.745996
5.582422,8.996485,7.466455,6.909326,8.053125
5.973291,7.4208007,8.324366,8.144678,7.89541
7.0077147,8.687403,8.663477,8.364649,8.580225
6.5885253,8.82168,7.2401366,7.7071776,9.10293
7.4393554,8.808252,8.601465,9.067286,9.12295
8.353418,8.079004,9.219385,9.653955,9.2130375
6.5475097,8.207178,9.400782,9.339991,8.3050785
4.9676757,6.8646483,5.761621,6.749658,7.639795
6.010156,7.414209,5.03042,4.8617187,8.884668
8.673243,7.9410644,9.599268,9.802637,9.828516
10.102686,8.456446,11.066553,11.17959,9.841211
10.412012,9.13833,11.98794,12.153223,11.004053
10.557764,9.340723,10.740625,11.217432,10.539698
14.743311,13.980127,15.349268,15.463282,17.556787
15.866358,15.134668,16.442286,16.392725,16.395655
15.172266,14.471094,15.222803,16.551416,15.823877
13.332911,12.808741,14.058496,14.603174,14.104639
11.841455,11.679834,13.287012,13.748194,14.268213
9.730371,10.365137,10.257715,10.139551,11.54336
12.909327,10.065332,13.297754,12.789698,13.095362
11.699854,10.618799,13.539209,12.644678,11.978907
15.131983,10.8363285,12.515528,12.77334,12.774317
18.871729,15.271387,20.231104,20.082178,20.36416
18.896143,14.816309,19.252588,18.807032,15.578028
11.07461,10.298243,12.125391,12.099512,12.352198
9.042139,9.786768,11.468897,12.11001,10.793848
11.173731,9.847559,12.672022,11.847071,11.442286
16.220606,11.373438,16.94082,16.5292,16.01797
15.807276,14.297754,17.908838,17.730371,17.896387
15.625879,14.159815,16.983301,17.23086,16.571192
14.37417,14.9786625,13.835596,14.859278,15.22378
14.189112,13.802393,13.782618,14.388575,14.579737
16.389063,16.32339,15.147608,15.840723,17.283594
16.071924,15.90542,14.856104,15.619043,16.790674
16.095118,16.449121,15.227198,15.915674,16.868555
15.817774,16.525293,15.832178,16.56167,16.927637
8.393946,12.795313,12.620264,13.994043,11.957422
13.194483,12.822168,14.939112,15.038477,13.440332
11.693262,12.532618,11.902002,12.240625,14.092676
11.663965,13.128077,12.846094,13.125147,12.558496
14.200342,12.462549,15.924463,16.406153,15.476221
13.702051,13.845606,17.204248,17.66665,16.270166
13.828516,15.297754,15.366358,16.060694,15.022364
13.261133,14.671045,14.078516,14.880762,14.512842
12.600733,14.483545,12.1019535,13.541407,12.636621
16.544825,14.856104,17.61294,17.49624,16.872705
15.732569,13.071192,14.980616,15.499903,14.636866
12.489161,13.059229,12.139795,12.425196,12.902979
14.081446,12.975733,14.152491,14.552637,15.42544
18.9938,13.827784,17.584864,17.804834,16.222803
21.725245,18.535303,22.233301,22.957178,23.130518
24.494776,13.532129,24.192041,24.308985,15.317041
14.956446,13.883448,16.062891,15.713526,13.745752
17.08291,15.238428,16.703028,16.802393,15.759668
16.654688,17.478662,15.693262,17.311182,17.974268
19.048243,18.33169,16.596582,18.114649,18.827051
16.81045,17.006006,14.87002,16.48916,17.41421
17.317286,15.472559,16.630762,18.226954,16.851221
19.592432,17.590967,20.432764,20.519922,19.189112
20.798243,17.178614,21.975977,21.539942,19.704737
16.89956,15.270411,20.389795,20.021631,15.783594
16.51748,14.115625,15.903711,15.800928,14.79043
17.539942,14.782862,17.268702,17.001856,17.363916
15.385401,15.183985,16.094873,16.069239,15.71084
15.764551,14.986231,14.734278,16.059961,15.758936
15.020655,14.324854,14.363184,14.564356,15.583399
13.558252,13.590235,13.995752,13.981836,13.4042
11.55459,12.928858,11.703028,11.864405,13.97378
11.073633,12.680567,12.3224125,11.97378,12.545313
11.929102,14.8067875,15.88833,16.774073,16.280909
13.765284,14.289942,16.198145,15.524317,16.091455
17.540918,14.65127,15.214014,14.721582,15.288233
17.084864,14.613184,16.635157,16.370752,15.187647
12.475977,12.954493,12.569727,12.35,13.637598
11.674707,13.677637,12.8519535,12.658838,14.116358
14.586084,14.856348,15.054834,14.770411,16.283838
17.079004,15.171289,19.373682,18.930567,17.619776
21.158594,14.816797,20.56338,21.2438,17.40249
20.638086,15.715235,20.734766,19.410791,18.301905
18.379297,15.415674,17.682032,17.359278,15.288965
15.491602,16.512842,14.881006,14.9667,16.612207
13.900049,13.72793,14.573633,14.635889,13.3771
15.156153,14.521631,16.735254,16.676416,16.328516
16.575342,14.721338,16.957178,16.888086,15.395655
19.691065,15.116114,18.163233,19.023584,17.685694
16.405176,15.4457035,16.378809,16.978418,16.980127
15.926416,15.436914,17.44668,17.170313,17.755518
15.38711,15.053858,16.010645,16.460108,16.334131
16.336573,14.823877,14.765772,15.480371,16.451807
15.956202,15.538233,16.970606,17.160791,17.932032
16.972315,15.610498,15.726221,15.469873,15.630518
17.027246,15.557276,19.17666,18.178125,17.060938
24.455225,15.525049,21.35464,22.013575,16.376612
15.326075,15.525782,17.194727,16.796534,14.873926
19.565577,16.80337,19.095362,18.914942,17.473291
21.92544,18.587305,20.881006,21.028711,19.39834
24.437403,18.320704,24.462793,25.301416,24.567286
25.129786,18.086817,22.940332,22.45376,18.490137
15.083643,16.477442,15.3346195,15.063868,15.921045
16.48501,15.976221,18.217676,18.525537,16.38589
13.886133,14.886621,14.65835,15.163477,14.466455
14.736719,13.895411,15.969385,16.465235,13.814356
17.412989,14.551905,18.817774,19.177393,15.424952
18.39956,16.307276,19.649317,20.008692,17.757715
19.20962,17.20254,19.43252,18.806055,18.144678
21.112452,18.864405,22.603662,22.0646,19.352442
22.503809,17.923975,23.526026,23.855616,19.67129
21.595118,18.725489,22.619776,21.971582,19.424707
20.396143,18.784327,22.412745,23.231836,21.263819
20.034082,18.193018,21.263575,22.370508,21.091455
22.253565,18.919092,22.009668,23.04751,23.386621
23.827295,18.031153,23.992579,24.258692,17.677881
25.65005,16.98916,17.501123,19.80459,21.630274
22.004053,16.159327,21.578516,21.148584,19.747461
19.119287,16.001368,19.589502,19.33169,16.63589
20.517237,16.881739,20.42422,21.29629,19.412012
21.409327,16.935694,21.725489,21.898096,22.00503
23.927881,16.956202,22.806787,23.763575,22.06167
17.370752,16.044092,17.567041,18.014551,15.978418
15.831202,15.683741,16.415674,17.120264,15.834131
15.93545,15.3832035,16.294336,16.622461,16.977198
19.987452,16.348536,16.833155,17.2521,17.296045
18.724756,17.182032,18.119776,18.525293,20.335596
19.862696,17.753809,18.86416,19.317041,19.54043
21.5021,17.030909,18.608301,18.899073,19.305323
19.594873,17.403711,19.882715,18.878077,18.861475
20.086817,20.635157,19.894922,20.446192,23.470118
23.987207,22.511621,21.962793,22.46377,28.663965
17.670557,16.812403,15.786036,16.3229,18.026026
13.875635,16.914698,14.552637,14.952784,16.548975
15.603418,17.155176,16.341455,15.781397,18.879053
17.80581,17.185938,17.03042,17.447657,18.934229
15.371973,15.047754,15.856104,15.818506,16.018946
13.508692,15.723291,13.828272,13.798487,15.48794
14.545313,14.760645,15.172022,15.32461,14.925684
15.191553,16.168848,14.73501,15.549219,16.284327
13.385889,15.646875,13.7875,13.856348,14.284815
15.308496,16.151758,15.671534,16.417383,17.327295
16.990625,16.53921,17.0021,17.204737,18.209131
11.391504,15.632471,12.725733,12.891993,15.097315
11.781641,14.337549,12.450098,12.944727,13.677149
12.981592,15.117334,14.38418,14.297998,14.0255375
13.722803,14.532862,16.711084,16.542871,15.7877445
17.30874,16.193262,16.64297,16.97964,18.340479
11.575586,15.816797,14.090723,11.596094,14.877588
8.754053,12.1019535,9.962793,10.26333,11.355371
8.413233,11.964746,9.706202,10.230616,11.624414
8.514307,11.07461,11.405176,11.862452,11.38833
11.027979,14.646875,9.89419,10.573877,13.264551
14.3814945,15.640528,14.583155,14.993067,17.646387
16.089746,17.386133,17.318995,17.41543,18.619532
16.484766,16.119287,16.967432,16.856104,16.593409
11.844141,14.245264,11.722559,12.543848,12.454004
9.358545,13.305811,11.930567,12.1896,12.489649
8.722803,12.000147,9.973291,9.823145,11.083155
7.8387694,11.697657,9.829248,9.855127,11.0646
8.081934,12.38003,8.542383,9.019922,10.767237
9.151514,13.16958,12.628565,12.293604,12.354883
12.153223,14.564844,13.535059,13.51919,13.873682
12.027735,14.466944,13.251612,10.46084,11.756983
7.7418456,10.605616,8.599024,8.506983,9.899073
7.7430663,12.333887,9.013086,9.221582,10.98794
9.485254,12.282129,9.930323,9.97378,11.344141
8.892237,12.235254,10.360254,10.159571,11.599512
9.876856,13.073389,11.31753,11.562647,13.015772
10.891993,13.042383,12.236719,12.000391,12.565577
13.260157,13.816797,14.068506,13.410303,13.848047
15.816065,16.315088,17.31045,17.08169,18.4479
15.164698,16.575098,17.168848,17.31167,19.08047
9.910547,13.761866,11.544092,11.493555,14.184961
9.498682,12.273096,10.493311,10.6542,11.483057
9.705225,12.786768,11.515772,11.539942,13.482569
10.98208,13.204004,11.694727,11.362207,12.807764
10.024317,13.140528,11.673731,11.65127,13.25503
8.71377,12.096338,8.665918,8.510889,10.664698
10.582422,13.229395,10.556299,10.35,11.931299
12.010157,14.206934,13.16543,10.735498,13.578516
11.952295,11.29043,12.621973,9.376612,10.893702
7.954248,10.750391,7.518701,7.289697,9.891016
8.392237,11.369532,9.846094,9.403955,10.310938
8.2442875,11.087061,8.876368,8.530909,10.365137
8.033594,10.727198,8.890284,8.313379,10.450342
7.0816894,10.666895,8.35,8.123682,9.925196
7.3736815,11.396143,8.659082,8.274805,9.994532
6.0423827,11.154688,6.7884765,5.9271483,9.091211
6.5140624,10.442286,7.7923827,7.300195,9.207666
7.0453124,11.712549,6.1688476,5.610742,7.8841796
5.116113,8.701563,6.4669433,6.0995116,7.329248
4.9066405,9.493067,7.0768065,7.0370116,8.198389
4.992822,8.855127,6.2015624,5.9449706,7.5973144
4.6012206,8.976221,7.185205,7.0453124,8.0689945
5.193506,10.250147,5.508203,5.8790526,9.261377
8.068506,12.163965,9.887354,9.975977,11.3849125
9.345606,12.198877,10.566065,10.401758,11.448633
7.572656,11.627344,9.838526,9.735498,10.561182
8.863672,11.625635,9.980371,9.989161,11.041895
9.807032,11.810938,9.921534,10.5377445,11.265528
7.7430663,11.893946,9.9474125,9.965723,11.205957
8.4005375,10.891016,8.327295,7.855615,9.388086
5.780664,9.222803,4.9520507,5.306543,7.7779784
4.5523925,9.495264,5.0487304,4.874658,8.641748
5.5875487,9.640284,7.0140624,6.827783,7.677881
5.9342284,10.032862,7.464746,7.297754,8.763819
3.4708495,7.8739257,4.098047,4.030908,6.1410155
0.59243166,5.108789,2.042871,2.0313964,2.8963866
-2.6248536,3.8573241,0.09804688,0.09902344,0.49916992
-2.670508,2.8863769,-0.5762695,-0.6145996,1.285791
-1.9795898,6.2186522,-0.6592773,-0.54038084,3.2188964
3.8426757,9.501123,2.2520995,2.5804687,8.014063
6.3736815,9.833643,6.143945,5.9413085,8.337793
6.198877,9.968897,6.9483886,6.819238,8.097071
3.692285,9.097559,5.122949,4.5978026,7.507959
3.0916991,9.208643,3.7811522,2.8668456,6.532617
6.532617,10.50625,7.0780272,7.002588,9.373194
6.3075194,10.174219,6.8319335,6.9764647,8.868555
5.610986,10.6488285,7.048242,6.6651855,8.767725
5.791406,9.682764,6.2435546,6.0663085,8.392725
9.412989,11.403223,10.005762,10.353174,10.996729
