"[299, 255]","[227, 248]","[287, 319]","[279, 328]","[230, 262]"
6.5572753,11.591944,8.001612,8.927149,10.699366
5.819238,11.034327,7.9449706,7.749414,10.019434
5.7083983,11.902979,7.5504394,8.855616,10.7564945
6.83999,11.996729,7.5626464,7.5729003,10.76919
4.409082,9.690088,4.7169433,3.2455077,7.3768554
3.5409179,6.452539,3.6581054,3.3753905,5.032129
2.2770019,4.8819823,0.5433594,0.8600098,4.141992
3.1031737,5.737695,3.2760253,0.7230469,5.6773925
3.3712401,7.352197,4.6598144,3.4171386,5.672754
1.2743164,8.131983,1.2933594,0.90957034,5.0750976
2.680078,8.295313,2.6703124,2.734033,6.2159667
5.3458495,8.741846,5.0375,4.0208983,8.409815
4.4815917,8.780909,5.213281,5.2801757,7.086572
5.1302733,8.527246,3.7398925,2.7906737,7.2958007
4.521631,6.8041015,4.8546386,4.091211,5.1407714
2.797998,9.224268,2.7435546,2.5350585,4.3614745
1.1202637,8.200342,2.9303222,2.8087401,3.1112304
0.39467773,7.011621,1.5948731,1.2679688,3.7628417
5.2135253,10.218897,4.820947,4.71792,8.943018
8.300928,11.458399,9.262842,9.000879,10.476465
8.171045,11.228907,8.777491,8.6505375,10.537989
8.344873,11.449121,9.063379,8.758448,10.584864
7.3722167,11.162256,8.400293,8.11001,10.049463
8.32876,11.403223,8.496485,8.33584,10.602442
7.6012206,9.962549,6.97207,6.5750976,8.570459
8.819727,11.533594,9.41958,9.137598,10.778711
6.5023437,10.649561,5.838037,5.007959,8.873194
4.7450194,9.518457,5.6080565,5.9515624,7.9330077
6.495996,10.324366,7.195703,6.9515624,9.156641
9.189112,11.085352,10.377588,10.23208,10.845362
8.90835,10.922754,7.976953,7.9503417,10.502344
5.3929687,10.724756,5.0833983,4.890283,10.250391
2.7108397,8.5394535,2.803369,2.5155272,7.683496
0.8443848,5.0143065,0.9891602,0.55385745,3.501367
1.34292,5.707666,0.89931643,0.82192385,3.0938964
4.1222167,6.7037597,1.5077149,1.9898926,5.73916
1.1458985,7.324121,2.5921874,2.497705,4.956445
1.3080078,5.0714355,2.195703,1.5382324,3.5123534
0.395166,5.056543,0.0035644532,0.75991213,4.112451
0.90126956,4.936914,2.016748,1.8980957,2.7228026
2.8243651,6.0956054,2.351709,2.5365233,5.1112304
2.009912,5.544824,1.1893555,1.3736817,4.331201
0.4942871,6.0262694,-0.25424805,0.28798828,4.1910644
1.9383789,6.1666503,1.995752,1.926416,5.2108397
0.3133789,5.2464843,-0.6922363,-0.17319337,3.7662597
0.7979981,6.087793,-0.10336914,-0.2125,4.0645995
1.2447754,6.075586,0.9093262,0.8824707,4.737695
0.49892578,7.7186522,0.49819335,0.8233887,5.725
2.2115722,7.8282714,2.3304687,2.3038573,6.2816405
3.0667968,8.845118,4.910791,6.475,7.7035155
4.763086,9.049952,4.1788573,6.4693847,8.749903
2.3412108,7.945703,2.4864745,3.41958,7.4623046
5.1427245,8.848536,6.7420897,6.718408,7.860742
5.322412,8.404688,6.0926757,6.0020995,8.019678
-2.175879,3.7975097,-2.16709,-2.333838,2.2560058
-2.3125978,4.1639647,-1.5687011,-2.259131,1.8229004
2.195703,8.079004,0.87368166,0.3548828,5.784082
5.1441894,9.073389,5.558252,5.5299315,8.511377
6.367334,8.49209,4.247949,4.0836425,7.270166
5.4586425,8.790186,4.881494,3.70791,7.1388183
5.7970214,8.568018,5.704736,5.359033,7.0438476
4.519922,7.9239745,5.5194335,5.3077636,6.4825683
4.3023925,8.028955,4.181787,3.808496,6.4815917
8.422998,10.461084,7.9356933,7.0260253,9.93252
9.229395,10.180811,9.208399,9.062403,10.704248
7.5938964,9.427881,8.288965,8.608301,9.978907
6.733545,8.95083,8.120996,8.413965,9.094141
6.563867,9.187403,8.075098,7.810205,9.985743
4.8717284,8.314844,4.4015136,4.522363,7.40249
5.344629,8.903711,3.3636718,4.209131,7.6666503
7.451074,9.426661,5.744531,6.221582,8.978907
4.364404,7.617334,3.167871,3.5433593,5.8580565
0.6876465,5.4671874,0.9388672,1.252832,4.2489257
-0.4258789,8.119776,-0.39707032,-0.35410157,7.1810546
7.9134765,9.743799,7.945459,7.27041,10.20083
7.0926757,9.342188,7.286035,6.9723144,9.040674
1.2408692,5.308496,1.4569336,0.84536135,3.4947753
-0.101660155,4.0838866,1.8666016,1.8016602,2.6634765
-1.945166,2.257959,0.5296875,1.0345703,1.0968262
0.5121094,3.7379394,2.4945312,2.60708,3.015039
0.91079104,4.503076,2.08291,2.382959,3.6588378
1.2809082,8.206202,2.6876464,2.3087401,5.6776366
7.3216796,9.073877,6.976709,6.9496093,9.807276
8.706446,9.474512,6.923486,6.8080077,9.860498
-0.9583496,2.195459,0.51650393,0.26503906,1.3766114
-1.86875,5.436914,0.428125,0.33657226,2.039209
0.86708987,4.588037,2.2716308,1.6512696,3.817285
6.4220214,9.162989,2.7855468,2.3355956,8.911768
10.35293,10.402491,9.5375,9.003809,10.970606
8.302149,9.509668,9.112207,8.350977,10.551416
7.8700194,9.431543,7.85,6.8575683,8.527979
3.6483397,7.9920897,3.5287108,3.3045897,6.2330565
0.9088379,4.2455077,1.4447266,1.0697266,3.2086425
1.5160156,5.666162,1.4916016,1.5482422,4.033838
8.850733,9.538721,6.9029784,6.9781737,10.698877
9.174463,9.462305,7.1500487,8.537256,10.277491
9.372461,9.362696,8.361963,7.457422,11.16128
6.03457,8.814844,3.1595702,3.3182616,7.2970214
1.6048828,4.891748,2.8924804,3.336328,3.8585448
2.0953612,5.5177245,2.6358886,2.7931151,5.1910644
0.55556643,8.256006,2.85708,2.492334,8.784082
5.744287,9.41128,6.7342772,7.5077147,10.375879
3.7010741,8.085108,4.643457,5.2520995,7.187158
1.7992188,6.1148925,3.768701,4.6014647,4.7452636
4.2379394,7.098779,3.7428222,4.4759765,6.05874
7.6114745,9.845606,5.3143554,6.2523437,9.072901
10.515772,10.184229,11.397608,11.241602,10.898096
9.19253,10.390772,10.194239,10.152979,11.67544
9.641748,10.884668,10.327295,9.81167,11.058008
10.548975,10.841455,10.526514,9.891016,11.927881
8.121729,9.73086,10.771387,10.789698,10.422754
7.485498,9.082422,10.128565,9.387354,9.247461
6.8355956,9.199854,8.226221,8.001368,9.336817
8.0021,9.176416,9.306299,8.96377,10.764795
9.946924,9.528467,11.079981,10.833887,11.738428
10.126612,9.919825,10.528467,10.757715,11.714746
12.814112,11.237452,15.215479,14.804346,12.810938
12.113428,10.873438,12.092676,11.090723,11.34585
7.7555175,9.668604,11.366358,11.177881,9.939112
8.64126,10.279688,10.276026,9.404688,9.888819
9.568506,10.146387,10.468164,10.677393,11.476221
8.231836,9.835108,10.399805,9.235743,11.109522
5.8253417,8.387354,6.6185546,6.4847655,7.459375
5.8668456,9.296045,8.10586,8.534815,8.010401
7.195459,9.881739,9.72085,9.834375,10.751368
7.3336425,9.738916,8.561182,8.306055,11.3207035
8.029932,9.774073,8.834131,8.485987,10.462549
10.254786,10.403955,12.033106,11.339502,12.110987
9.54043,10.208643,9.372461,8.907373,11.09585
8.977198,8.699366,9.134668,8.663233,9.976221
8.619776,8.874903,8.764063,9.243311,9.866358
9.493311,8.949121,10.97085,10.522608,10.289209
8.54043,9.292383,8.38418,8.08169,8.968409
9.513575,9.528467,10.7755375,10.412989,10.528467
10.292139,10.11709,11.055323,10.731348,11.747705
7.2679687,11.599512,9.068262,9.687159,10.280909
7.1981444,10.200342,8.421534,9.30752,9.622217
5.803369,9.899073,6.511865,7.022363,8.940577
5.805322,8.396631,6.6615233,7.1146483,8.126123
6.2206054,8.078516,7.154199,7.6251464,7.5631347
6.970117,9.151514,8.096582,8.084375,9.658106
7.8055663,11.236231,6.204248,6.400293,9.0238285
12.346338,10.602686,13.149561,12.503077,12.371485
8.371973,10.00918,8.215235,8.517237,9.337549
3.6983886,9.2286625,4.7140136,4.081201,7.9659667
9.801661,9.376612,7.1649413,6.551416,10.276026
7.1483397,9.998682,8.355127,8.430323,9.461084
9.9161625,11.389307,10.1974125,10.067041,11.665918
12.696924,10.844385,12.7252445,12.5394535,10.645655
9.267481,11.201075,12.659571,12.782129,13.243067
13.465479,11.801905,14.304834,14.229639,13.544825
10.441797,12.184473,12.707422,12.092676,12.273584
14.027979,13.459131,16.63833,16.86709,15.511621
12.132227,11.3971195,13.589014,13.07876,12.671045
10.63003,11.782373,11.304102,11.241602,12.519434
12.021387,11.499414,13.204248,12.799463,13.22378
15.219385,11.915186,11.808496,11.761133,12.8224125
17.423487,13.705225,16.138086,15.823145,16.774317
22.410547,19.282862,23.253565,23.405664,26.062159
25.173487,16.786768,22.079004,24.462793,22.733057
20.381739,18.02456,19.413965,21.798975,21.367579
20.169092,20.113428,21.056543,21.316797,22.39712
17.965479,18.724756,19.168116,19.498682,19.588282
19.066065,18.018457,20.753565,20.938135,22.331202
20.556787,17.865381,22.248682,22.261866,19.675928
18.325342,19.750147,18.07461,20.416895,19.84585
17.762842,18.374414,17.637354,19.29043,18.447412
17.086084,17.437159,16.352198,18.491114,17.534327
15.852198,17.373438,13.81167,14.920801,16.684473
10.608301,14.245508,9.840967,9.710108,12.7738285
9.656641,11.715479,9.711817,9.611719,10.947901
9.716944,10.966211,10.317041,10.449121,10.588282
10.450098,12.351465,12.165186,12.010889,12.528711
12.309473,12.188379,13.993555,14.06753,13.753565
13.650293,14.279688,14.941065,15.190332,14.144678
12.525049,12.645655,8.942286,9.510889,14.682276
9.468409,10.661524,9.048487,9.116114,10.0238285
9.26333,10.07461,9.367334,9.662012,9.577784
11.327784,12.415186,12.055567,12.832666,12.430323
11.81167,12.233057,11.822168,11.834375,13.16543
9.644678,10.998682,11.407862,10.881739,11.891748
9.058741,10.660791,10.287989,10.495752,11.116846
14.490625,13.33169,14.527002,13.946192,14.349024
16.138086,14.030176,16.179346,16.081934,15.365625
15.34292,14.550684,16.503565,15.949366,16.193506
16.545313,14.44253,16.911524,16.98916,16.628565
13.465479,12.8380375,12.838526,11.367334,12.128077
13.218897,13.403711,13.332178,13.350489,13.946192
14.027246,13.636377,13.629541,14.075342,13.558985
18.958643,16.389307,19.19253,18.872461,18.270655
15.702051,14.565821,16.91543,16.396875,14.99209
18.25796,15.589991,18.644678,18.02627,17.079737
18.602442,15.873194,18.721094,19.055079,18.477442
18.435205,14.373194,17.324121,18.051172,16.179834
19.346827,14.474268,19.853907,18.87002,17.04336
18.788721,16.69253,17.684717,18.711084,17.090235
16.4938,17.394678,16.269922,17.783838,17.660791
16.405909,16.922266,16.970362,17.23916,17.061182
17.369776,16.990381,16.729395,16.425196,17.078028
18.57998,17.695948,18.39126,20.143702,17.610987
19.510157,17.399805,18.687647,19.973536,16.853418
16.462305,17.520655,16.680567,19.217676,16.983301
17.629297,17.810205,19.000635,20.173243,16.932764
20.953516,18.98794,20.294825,20.665918,19.453028
19.631006,19.893946,20.207178,20.271387,20.885645
18.749659,18.803125,18.35,19.47793,18.511621
20.344141,19.062647,19.73379,20.201563,19.111475
20.609034,18.54922,20.29629,21.24331,17.856348
21.723291,20.268946,23.602198,23.532862,21.273584
23.391748,20.850977,24.6354,24.774073,21.763575
24.231348,21.727686,24.329248,25.534327,23.156885
21.514307,22.734034,21.927881,24.17959,22.553125
21.629053,20.930567,21.574854,22.610743,20.981592
22.589502,21.135645,22.365625,23.251856,21.524073
21.123682,21.682032,20.391504,22.700586,21.756983
22.591455,20.01797,21.340235,22.979883,22.791162
22.129297,19.775782,21.794825,23.036768,22.538965
20.843164,18.75332,21.568262,22.64248,20.62832
21.722803,18.318995,21.171045,20.978174,20.520899
18.774805,19.38418,21.031641,20.959375,19.448633
19.38711,18.15542,19.75088,18.096094,18.186182
20.10171,18.152002,20.399317,20.54043,19.595606
18.869043,17.670069,18.140772,18.260645,19.157862
20.081202,18.21084,20.474024,20.937891,19.029688
16.798487,17.245264,18.396387,17.309229,16.058985
16.128077,17.969873,19.171045,18.2792,18.929346
16.641748,18.00796,16.91128,16.995752,18.160059
17.808008,17.937891,17.752832,17.185694,18.124659
17.637842,18.339746,18.270655,18.536768,19.256495
18.798243,18.235743,18.463282,19.223536,18.269922
19.083155,18.069727,18.722315,18.762842,18.846827
18.49209,18.933252,18.601221,18.42422,19.40127
18.302637,18.526026,18.488672,18.113916,18.438623
17.88003,17.772608,18.148829,17.905664,18.297754
19.563623,18.475733,19.281641,19.246729,19.862696
21.09463,19.257471,19.29214,19.162745,21.208887
21.43081,19.106836,20.33755,21.108301,20.42837
18.71499,19.81167,22.105127,21.852198,21.608545
19.802637,19.288233,20.258936,19.759668,18.747217
22.846338,20.914454,22.371729,22.334131,20.820215
24.359034,23.057276,25.19961,25.414454,25.901026
26.066797,22.181787,27.181787,27.25625,25.41836
19.498682,19.059717,18.994043,19.154444,19.19961
19.916895,19.100977,19.116602,19.369287,20.066797
17.651026,19.846827,19.444727,19.756006,19.69546
21.001123,19.348536,20.157373,20.837305,21.600245
18.080225,19.467188,17.98672,17.878077,19.859766
16.282862,17.736475,17.16421,16.865625,17.288477
17.145899,16.905909,16.973291,16.983057,17.030176
17.461817,17.829737,15.93545,16.04043,18.628077
17.30044,18.381006,17.863672,17.727442,18.927881
18.538477,18.15127,18.237696,18.407618,18.852442
15.635157,17.960596,18.217432,17.516016,17.54336
17.218897,17.386621,17.208155,18.12124,19.025293
15.910059,17.693995,17.121485,16.56338,18.211817
17.363916,17.5646,16.61294,17.225245,18.051905
16.253565,16.971827,15.576319,16.002588,17.35464
12.798243,16.317286,15.120752,14.231348,14.925684
15.8363285,16.945215,16.528223,15.88711,17.386866
14.631983,17.254053,15.670801,15.373194,16.35586
15.050196,15.981348,16.251368,15.839991,16.850489
15.440577,16.726465,15.243311,15.21377,16.9396
15.468409,15.678125,15.059473,14.306055,17.03335
13.630274,15.719629,15.602198,15.476221,15.457911
13.633692,15.505762,14.781153,14.396143,15.114893
15.590723,17.191797,15.612452,15.684473,17.868067
15.3658695,16.367823,17.166162,16.271631,16.345118
17.265772,17.14126,17.511866,17.649805,17.5729
16.470118,16.516016,17.25503,16.903711,16.914454
14.183252,16.643946,15.41836,15.195215,16.310694
15.965723,16.77212,15.831202,16.079248,16.530176
15.681543,16.58291,15.311182,16.150782,17.456934
11.647608,14.600489,13.159571,13.0221195,14.210596
11.157373,14.9613285,13.923975,13.797754,14.531641
13.297022,14.9300785,14.279932,14.062647,15.1332035
14.591211,15.719141,15.908838,16.097559,15.263086
14.517725,15.618067,15.616846,15.656153,15.25625
15.436914,15.801172,15.900782,16.325098,17.233545
14.142237,15.945459,15.477686,15.1349125,16.657373
13.787256,15.079737,14.503077,14.696924,15.8771
13.976709,15.961084,13.792383,13.71377,15.711817
12.755762,15.21377,12.788477,12.923975,14.22793
13.757227,15.2738285,15.323633,15.318018,16.29873
14.364161,15.795069,14.65835,14.131739,15.329737
15.22793,16.340235,15.825342,16.262842,16.045557
18.268457,16.850733,18.751612,18.963526,18.08706
14.053858,15.768213,15.005274,14.680323,16.17666
11.606104,14.460596,12.447168,12.810694,13.787012
11.075098,13.158106,11.531153,11.228174,12.776758
11.737207,12.854639,11.4125,11.763819,12.828028
12.3417,13.146875,12.053125,11.595362,13.329493
11.169336,14.673243,12.896387,12.442286,14.284327
10.332178,14.294092,11.87295,12.66958,14.462305
11.570948,13.800928,12.191797,11.929346,13.368067
10.840235,13.376123,11.478907,11.159082,13.007471
9.904688,12.727442,10.56753,10.714502,12.214746
11.476465,14.654688,12.914698,12.859034,13.741602
10.821192,15.156641,13.250147,12.830957,14.564356
14.585596,15.398584,14.794092,15.257471,16.13589
10.833643,14.035547,11.354151,11.387354,12.817286
10.617823,13.737207,10.39419,10.624414,13.087061
12.850977,14.390039,13.1192875,14.032862,14.434717
13.698877,14.498438,13.456202,13.732813,15.046289
13.306543,14.262842,13.426416,13.160059,14.132471
12.736231,14.238916,11.814112,11.799707,13.13003
12.30459,14.775293,12.729883,12.61709,14.2269535
13.158106,16.132715,14.084131,13.488428,15.460352
17.122705,17.458399,17.817774,17.652979,19.110254
17.91665,17.15542,18.374659,19.152002,19.89004
18.972559,17.468409,18.112696,17.886621,20.038721
18.888086,16.816553,17.8063,18.304834,19.321436
12.445459,16.032618,17.38003,18.178125,15.812159
12.9161625,14.673243,13.937891,14.06875,15.389551
15.13125,14.593164,13.882227,14.653223,14.651758
12.513819,13.331202,14.910059,14.333155,16.283594
11.852442,14.553125,12.754541,13.00918,13.516504
12.730616,14.157618,14.200098,14.198877,14.504297
9.968164,13.603174,12.954737,12.552149,13.310938
9.435938,11.985498,10.240137,10.904688,11.052881
9.645411,12.358057,9.715967,9.838526,11.73501
9.66543,13.567774,11.515284,11.230616,12.547266
10.507227,14.087305,11.317286,11.856104,13.578516
10.158594,13.849024,10.874414,10.7269535,12.355616
10.303858,13.633692,10.616358,10.441065,12.242334
7.299707,11.67251,7.742578,7.673486,9.169092
5.3109374,10.703516,7.8827147,8.081934,9.028467
5.9676757,10.209864,6.8685546,6.039697,8.803125
4.5543456,7.586328,4.568506,3.6927733,5.959375
3.6703124,8.6019535,2.8766112,3.3888183,6.9027343
4.9520507,11.597071,6.553613,7.405908,10.065088
6.687158,11.701807,7.7413573,7.6446776,9.641016
7.4010253,11.96792,9.242334,8.947657,11.073145
10.2113285,13.745264,10.527735,10.216944,12.784327
4.866113,9.806299,5.063623,5.260156,7.8072753
6.5787597,12.525049,6.598535,6.3390136,10.890039
7.4937987,12.109034,8.308741,8.24795,10.013575
8.04336,11.392725,7.8844237,7.6163573,10.000147
8.351709,12.626123,9.195459,8.743555,10.866846
10.4596195,13.236963,10.878321,10.392237,12.05752
7.238672,11.252588,8.405909,8.196436,9.549463
8.12417,11.31753,8.702784,8.722803,10.106104
8.345118,11.140039,8.234034,8.2130375,10.396631
6.4742675,10.636133,7.5562987,6.827539,9.4474125
8.179346,11.900782,8.357325,8.16836,11.094629
9.487207,12.373926,10.682764,10.052881,11.912256
10.315577,12.5255375,10.862696,11.048731,12.112696
10.809473,12.550196,10.9474125,11.084131,12.168116
9.936426,12.464014,10.96792,11.853907,11.982569
7.4986815,11.577051,9.635157,10.227686,10.725
6.09707,9.977198,8.67544,9.227686,8.662989
7.0853515,11.800196,8.445215,8.390528,10.438623
9.420557,12.156397,11.789942,11.182032,11.626856
9.34292,11.981836,10.916651,10.687159,11.574121
9.478907,11.706446,10.899805,10.946192,11.311426
7.7916503,11.499659,9.4942875,9.668116,10.716944
6.5350585,11.315577,8.20669,5.988672,9.19253
5.615869,10.475489,6.615625,6.3697753,8.349024
4.940576,9.816309,5.680078,5.4410644,8.244532
7.510156,12.051172,7.728662,7.5833983,10.75625
3.8858886,9.596094,3.6839843,3.6520019,7.6563964
