"[299, 255]","[227, 248]","[287, 319]","[279, 328]","[230, 262]"
2.0560546,5.957666,0.681543,0.45302734,4.2938476
1.325586,4.5577636,1.4063965,0.6310059,3.6266112
1.6031739,5.25332,1.8243653,1.3900391,4.1983886
0.75869143,5.035547,0.6412598,0.42788085,4.3219237
0.47890624,6.905664,1.9359375,2.0313964,5.037256
3.9349608,9.132227,2.2716308,1.730127,7.2123046
4.7970214,9.176905,4.313379,3.9662108,7.0384765
4.067041,8.603907,3.3211913,3.1893554,6.414697
-0.5342773,5.540918,0.97084963,0.74501956,3.9903808
-0.6145996,3.9017577,-1.2972168,-2.1612306,2.10708
-0.65585935,3.4549804,0.15419921,-0.44663087,1.8822266
-2.5672364,3.7435546,-1.4466308,-1.6370605,1.9146973
-2.384375,4.375879,-2.1233888,-2.3716798,2.8946776
-0.40366212,4.6097655,1.4112793,0.6769043,3.2325683
0.54897463,4.213037,0.7826172,0.37001953,2.7306151
-0.9258789,6.865625,1.9962403,3.02041,4.037256
2.7833495,7.6517577,3.8070312,3.8980956,6.0665526
-0.34555665,5.8822265,1.0353028,1.0836426,3.4227538
-3.5313478,2.2779784,-1.2020019,-2.5618653,0.061181642
-4.257422,3.8272948,-4.0484376,-4.0376954,0.88027346
-4.007178,3.5370116,-5.651953,-5.1868653,0.5829102
-4.0254884,3.9869628,-5.3467774,-4.9541993,1.1947266
-4.521094,3.6769042,-5.469092,-4.331885,1.3087403
-2.7457032,6.195459,-0.07773437,0.46279296,3.4703612
-0.10800781,6.752588,0.9098145,1.2757813,4.7662597
-0.16708985,5.8651366,1.1078125,0.49208984,4.2833495
-1.2676758,3.7157226,-1.5359863,-1.5767578,1.5926758
-1.037207,4.091455,0.4395996,0.83754885,1.9374024
-2.4966798,3.7159667,-1.3291992,-1.6641601,2.1502929
-1.8379883,2.9081054,-1.0965332,-1.3311523,2.2472167
-2.585791,5.0645995,-1.471289,-1.641455,2.7799315
-1.398291,4.902246,-0.80258787,-1.1856445,1.8329102
-2.9417481,3.5399413,-3.8074708,-2.6558595,2.202539
0.6786133,6.6285644,2.836084,3.5438476,4.869287
4.103662,7.5416503,5.6134276,5.7186522,6.7887206
3.9134765,7.4999022,3.0230956,2.749658,6.649072
0.18789062,4.924463,0.8043457,0.4955078,3.3150878
0.7333008,5.2296386,1.9728028,1.7433106,3.883203
3.52041,7.391748,0.61025393,0.4527832,6.0643554
-4.139014,1.8739258,-5.837012,-5.5538087,-1.0027832
-5.8367677,2.1480956,-6.355078,-5.5860353,0.17958984
1.0858399,7.0716796,1.353418,1.3141114,5.1285644
3.2352538,7.6822753,4.7887206,4.7362304,7.088037
2.173242,6.473047,3.5155272,3.152246,5.317529
6.7608886,8.080469,6.7481933,6.5873046,8.504786
6.5736327,8.02334,6.5504394,6.8436522,8.258448
6.0714355,8.311426,6.541406,6.96792,7.902002
2.8302245,7.4920897,2.0628905,2.0589843,6.581445
4.576074,8.655664,5.7311034,5.3805175,8.631006
7.9156737,8.988428,7.7816405,8.309229,9.579004
8.54458,9.324854,9.07168,8.37417,10.061426
5.0714355,7.8646483,5.296533,7.028955,7.7333007
4.6078124,7.8055663,6.093164,5.3109374,7.4793944
6.8558593,8.01211,6.7606444,6.954004,8.108301
1.3036133,6.6148925,2.3712401,2.442285,4.466211
5.5245605,8.604883,6.818506,6.99624,8.464502
7.4208007,8.60293,7.2020507,7.4537597,8.556055
7.7276855,8.622461,5.358789,4.8492675,8.362696
3.468164,6.416162,2.726953,2.5992675,5.143945
1.0353028,4.8958983,2.6231933,2.6290526,3.398584
0.06850586,5.111963,1.3648926,1.169336,3.624658
1.851709,6.3458495,2.579248,2.5274901,5.2140136
1.4535156,5.5921874,2.1983886,2.110498,3.9029784
0.22304687,4.251611,0.5902344,0.05654297,2.6341796
-1.1819824,3.0138183,-1.4026855,-1.7808594,2.032373
-0.22397462,6.2782226,1.4591309,1.1131836,5.3219237
-0.6358398,6.515039,1.7149903,1.3016602,5.61416
0.5338379,5.527002,1.5648438,1.3746582,4.9259276
3.8685546,7.2989745,2.784082,2.7943358,7.8756347
4.4061522,7.2848144,5.4276366,5.223047,7.294824
7.2765136,7.9125,7.7816405,7.7625976,9.415918
6.5226073,7.7765136,6.023584,4.292627,8.660303
-1.0977539,3.810205,-1.2789062,-1.2176269,2.1930175
0.109277345,6.461084,2.1161132,1.9398438,5.0926757
5.1527343,7.5487304,5.9625487,6.086084,7.8631835
3.4547362,6.747949,3.7975097,3.7137694,5.497705
0.15517578,5.131738,1.0450684,1.2418457,3.711328
3.4024901,5.665918,4.8419433,4.2030272,6.063867
5.643945,6.055322,4.5365233,4.405908,6.251123
3.2452636,5.313623,5.486963,5.7030272,5.4017577
2.1373534,6.4393554,4.6666503,4.013086,6.3265624
5.5387206,6.91958,6.1170897,6.0716796,6.900781
1.7601563,5.274072,2.6878905,2.6524901,4.818994
1.0790039,4.638574,3.2577147,3.13125,4.643457
4.876123,6.280908,6.8443847,6.297754,7.7032714
4.1268554,6.6014647,5.305322,5.249658,7.4381347
5.755029,8.337793,6.9652343,6.720361,9.256006
4.643945,5.59292,4.923486,4.6251464,4.400293
5.544336,7.658838,5.1773925,5.2052245,7.0055175
2.943994,5.2086425,4.110498,3.924707,4.813623
5.263574,7.345117,6.537744,6.760156,7.7638183
5.7887206,7.365625,6.933496,7.238916,7.877832
4.3668456,6.6600585,5.973291,5.336572,7.2020507
5.683252,7.3058105,5.867334,6.21792,7.9242187
6.407129,7.8145995,6.6568847,6.4999022,7.5526366
4.766748,6.6166015,4.350244,4.5140624,6.174951
6.768213,7.4361815,6.879785,7.0145507,8.003809
6.751367,7.9364257,7.018945,7.362451,7.8126464
8.307276,7.740381,7.2342772,6.9552245,7.9461913
6.0746093,7.7367187,8.246241,7.609033,7.4044433
8.890039,8.248926,8.411036,7.753076,8.704493
4.3038573,6.4955077,5.7206054,5.709863,6.518945
4.516504,7.0233397,5.218164,4.877588,7.5736327
5.309961,7.3807616,6.0799804,6.211328,7.025781
5.412744,7.507959,6.0943847,6.1527343,7.311914
8.058252,8.322901,7.0316405,7.7833495,8.533106
6.8995605,8.252588,6.870996,6.8614745,7.964502
5.937158,7.8060546,6.5938964,6.964502,7.4623046
9.392237,8.256739,8.532618,9.157618,8.495996
5.9010253,6.898828,5.75625,5.755029,6.8580565
7.31875,7.5936522,6.0401855,6.426172,8.266748
7.1336913,7.6256347,6.5382323,6.56582,7.892236
3.8878417,5.860742,5.598779,5.2853026,6.1859374
6.537988,8.645411,6.4066405,7.116113,9.211817
2.6554198,5.2083983,3.6266112,3.5523925,4.7970214
6.525781,7.7174315,6.3565917,5.940576,7.4623046
10.762842,8.989405,11.446436,10.999903,9.577051
7.21792,6.7750487,7.2313476,6.753076,8.059473
4.6327147,5.879785,5.662256,5.507959,6.296289
6.682031,6.8668456,6.5892577,6.657861,7.094629
5.6961913,6.534082,5.7418456,5.798486,7.127832
7.8075194,7.194238,7.162256,6.8316894,8.44253
9.999414,9.715235,10.021387,9.825342,10.919825
9.328028,9.544825,10.754786,9.736475,9.784327
7.789697,7.105615,8.137842,8.06045,8.024073
10.641016,9.940088,11.647364,11.299219,12.60586
12.868311,11.470362,14.891748,14.341944,16.075342
11.152002,8.040186,8.44375,8.451075,8.164698
5.754785,6.593408,7.1268554,6.9742675,7.007959
8.642237,7.4901366,9.782618,9.8692875,10.297266
10.589258,8.440821,11.313623,11.189112,11.742823
9.677881,9.512842,10.739405,10.672266,12.099024
7.334863,8.668604,9.835596,9.487696,10.362452
5.9481444,7.31167,7.298242,6.8038573,8.245508
6.739404,8.9283695,7.4291015,7.30166,8.857813
10.145655,8.923243,10.66128,10.606104,10.941065
10.172266,8.991846,8.890528,9.957911,9.981836
7.7259765,8.919336,8.803858,8.131006,9.819239
7.82583,7.737207,9.2096195,8.603174,9.17959
9.942774,8.646143,9.78335,10.455957,10.837305
6.689111,7.994531,8.160303,8.244776,7.8736815
6.808496,7.0858397,7.652002,7.90957,7.187158
5.8270507,6.624414,6.454736,5.9916015,6.730615
6.4288573,6.750879,8.865137,8.100489,6.412744
9.758692,9.174463,12.785791,12.887842,9.324121
10.7738285,11.006006,12.082178,13.067774,11.831934
6.7447753,9.411036,12.2564945,11.929834,11.330469
7.494043,10.529688,9.844141,10.052393,11.116602
6.914697,8.415674,8.652002,8.440088,8.525293
7.8392577,9.398096,8.498194,8.111719,10.386133
8.615381,9.217676,11.589746,11.158106,10.615381
6.6791015,9.037012,8.417871,8.308741,8.873926
5.6495605,7.1429687,7.3719726,7.5560546,7.135156
6.9173827,6.8978515,8.094873,8.293848,7.3531737
5.7853026,8.968409,7.282861,6.987207,8.536036
7.9503417,9.367334,10.266993,10.017725,11.190577
10.464502,9.037256,9.166895,7.752588,9.2738285
7.551904,8.35708,8.873194,8.560938,8.578028
6.1776366,8.833643,7.3080077,7.7037597,9.273096
7.152246,8.251856,7.567041,7.4469237,8.576319
9.183008,7.928613,8.733545,8.032129,8.510889
7.58291,7.679834,8.736475,8.573389,7.9740233
7.8333983,7.567285,8.063868,7.6236815,7.659326
6.648828,9.48208,7.9916015,7.9483886,9.32876
9.568018,11.100489,10.622705,10.302149,13.763575
10.432276,10.732813,15.4317875,14.977442,14.093409
9.308741,10.717676,13.14126,13.3519535,12.425684
11.7408695,10.025293,13.258448,13.527735,12.615625
13.8658695,11.499903,14.253077,13.519434,15.247461
14.097803,11.724024,13.295557,13.430323,14.300196
7.336328,10.640039,5.0089355,5.098535,9.395899
4.478662,7.683496,7.080713,7.1998534,7.400537
7.8248534,9.534327,8.551172,8.370752,9.965967
13.1175785,11.206202,14.712793,15.933496,15.974268
15.201563,11.136133,13.359034,14.590479,13.317041
18.524073,13.7167,17.36416,17.630762,19.13711
19.321924,14.264551,19.956202,20.06045,18.500147
21.26919,13.43545,21.79214,20.469141,15.948389
16.407373,12.020411,14.47378,14.282129,11.906885
11.644434,10.206202,9.744776,9.335108,9.569971
6.390039,8.5724125,8.712305,9.348536,7.82583
7.4571776,7.9781737,7.818994,7.5643554,7.950586
6.7003417,8.0221195,7.799951,8.082422,7.588281
9.236719,9.51333,9.613184,9.403223,10.283838
10.743555,10.562647,10.499659,10.331202,11.662012
14.809961,12.791407,14.834864,15.029444,14.456202
19.631495,15.682032,19.999903,20.448633,20.444239
17.451563,12.468164,15.794825,15.803614,14.323877
14.180567,11.714014,13.529688,13.40127,14.125147
11.475733,11.214014,12.895166,12.624903,13.282618
11.97085,12.680323,10.335352,10.665186,14.740381
10.908838,12.479639,11.748194,12.820459,12.486475
9.228174,9.711573,10.075098,9.681543,10.010645
7.7472167,9.824366,10.736475,9.526758,9.13003
12.751612,11.527002,13.80044,13.90127,11.890772
16.065577,13.167627,17.219385,17.093164,13.99209
13.630762,13.240625,14.519922,15.173731,14.267237
11.152002,11.540674,12.548975,11.616602,11.531153
13.5255375,11.981836,13.283838,13.244776,14.3971195
9.141504,10.094141,11.621485,11.095606,12.420801
8.4283695,9.748682,12.004786,11.077051,10.591211
10.787989,9.757471,10.445948,10.109766,10.023096
12.556299,10.979883,12.373438,13.235254,12.919825
12.071924,11.110254,12.978907,12.9667,11.443506
10.724268,11.887842,12.152246,12.503809,12.98086
9.511621,12.24209,11.311182,11.629541,12.686914
10.893702,11.721338,11.11294,10.893702,12.132227
15.487207,12.949854,13.823633,13.490625,15.596582
14.668848,14.877832,15.563868,15.917627,16.930323
16.616358,14.320215,16.828516,17.731348,17.11123
17.11172,15.868799,16.882471,17.964746,16.909082
15.371485,13.078028,17.007471,17.422998,14.50503
13.117823,12.38418,13.969141,14.683252,13.169336
14.110743,12.878321,13.164698,13.545069,14.198145
12.735254,12.804834,13.861475,13.126368,12.897852
12.796778,11.992334,14.4439945,14.538477,13.953272
13.084131,12.308985,12.959864,12.830225,13.959864
15.917139,13.750147,15.520411,16.323877,15.279688
13.907129,14.020899,14.684717,15.155664,14.848047
20.888819,14.714746,20.38003,20.07339,18.226954
17.346582,14.457911,16.188868,15.993067,15.927393
16.32339,13.618311,14.745264,15.391504,15.028223
14.226221,13.093897,15.81045,15.680323,16.041895
17.972803,14.653711,15.987452,16.386133,16.962305
20.48379,17.406397,21.62124,21.536768,19.53921
22.043604,17.766993,21.681787,21.971827,19.50796
19.171778,15.78628,17.791895,20.299707,17.253077
18.016504,14.907129,17.072657,16.987452,16.490381
17.539942,14.28042,18.13296,18.577295,17.597559
20.545069,15.200586,17.897852,18.941797,17.59878
19.11123,14.762598,18.170557,17.97915,16.53042
19.014551,15.959864,17.802393,18.928614,16.51748
21.703028,14.774561,20.15005,19.95498,14.539209
12.88833,13.585108,13.705957,13.791651,13.2738285
11.89126,14.296289,12.316065,12.299219,14.582422
14.883936,14.236475,15.367334,14.914942,14.984278
13.507959,13.876123,14.278955,14.656397,13.72085
13.121241,13.794092,13.048243,12.36001,13.983301
14.881739,14.126368,16.216455,15.943506,14.700586
12.159082,14.671778,14.05044,13.843409,14.239649
17.052149,15.614161,17.421778,17.369776,18.262842
12.469385,13.776758,13.715479,13.733057,13.704737
14.086084,13.749903,13.518702,13.177881,13.637598
14.684717,13.8502445,18.05459,17.698877,14.014795
14.857569,14.316553,15.229151,14.899805,16.680079
13.908838,14.169336,15.193506,15.134424,14.699121
15.180811,14.788965,15.808985,15.784082,14.285547
16.963526,16.931787,18.00625,18.283106,19.382227
17.82339,16.495264,16.758448,16.388086,16.55044
15.334131,14.879053,16.260645,17.23672,16.081202
13.444483,13.965235,13.6957035,14.146875,14.4125
11.924952,15.296289,13.599268,13.681543,14.850977
14.584131,14.946924,15.334131,14.124659,15.636377
11.55459,16.29214,12.032618,12.125147,17.152979
14.089991,14.56753,14.491846,14.966944,14.144922
14.94375,14.621973,14.19253,14.53335,15.832911
16.123438,14.534327,16.370508,15.543604,15.459131
17.19253,16.278711,16.454004,16.457666,17.404444
20.564112,17.378077,18.864893,18.502588,19.401514
23.218164,17.816309,23.246973,23.067286,23.27505
20.690088,16.942041,21.42422,20.589746,18.309229
21.761377,18.263819,21.36416,21.359522,18.39712
21.292871,17.507715,21.388819,21.491602,17.71792
18.150293,15.455469,20.66128,19.61709,15.587061
19.761377,16.179102,17.380274,19.261133,18.052881
18.188868,15.965479,15.8502445,16.780664,17.259912
12.359766,14.7599125,15.601221,15.13125,14.421778
12.18252,14.825586,13.5646,13.309717,15.544092
11.683496,13.76333,12.382227,12.177881,14.000635
13.325586,15.183252,13.474268,13.090479,14.359522
15.214502,15.274561,13.624659,12.264795,15.8363285
9.900782,14.398096,11.435938,11.129297,13.015039
12.151514,13.74795,12.735498,12.71792,12.702051
13.874659,16.033838,14.729151,14.964746,16.676172
14.929346,14.617823,13.435938,12.757715,14.842432
12.2877445,14.515284,12.64126,12.792383,13.685205
11.822168,14.169825,13.414942,12.906885,13.249903
16.454737,15.214746,14.859766,14.980127,15.962793
15.2167,15.160303,15.567774,14.98794,15.204981
11.563379,13.575098,12.091455,12.040674,12.977686
12.810694,14.107569,13.036768,13.479151,14.930323
10.914209,13.834864,10.123926,9.418116,10.802637
10.63125,12.186182,10.654932,10.641504,11.484034
13.143946,13.275293,12.268702,12.423975,13.524805
14.127588,13.797998,12.263086,12.524805,13.21792
9.714991,13.444239,11.04751,11.035303,12.450098
11.024317,13.212061,11.36294,10.733789,12.2286625
8.88711,12.434717,9.943018,9.320948,11.334131
10.286768,13.02334,11.339258,11.066553,11.9769535
13.736963,13.655664,13.41836,13.565821,14.404444
12.12002,13.606836,11.467188,10.832666,12.376368
9.277979,12.08169,10.6625,9.916895,11.296045
11.113672,12.433008,11.344385,11.482325,12.449854
12.337061,13.109522,11.639551,11.087061,12.593409
11.750635,12.597315,10.524073,10.44375,11.37002
9.727686,12.676661,11.757227,11.544092,12.535059
11.360498,13.028223,10.707178,10.687647,12.206934
10.853907,13.118555,11.136866,10.901758,12.358057
7.5265136,10.868555,8.722803,8.514795,9.444483
9.079981,12.467432,10.365625,10.142237,11.2877445
7.0245605,11.664209,9.38833,9.022852,10.912012
11.010645,12.732569,12.2875,10.813135,12.9630375
11.080713,12.145411,10.952539,11.233057,11.779688
14.0567875,12.811914,12.94375,13.876856,12.890284
10.722559,12.987207,11.774561,11.889063,12.177637
10.054102,12.559961,10.8224125,10.641016,11.797022
11.140772,11.396387,9.582666,9.080469,9.960596
12.496241,15.857325,11.139307,11.407373,13.219873
17.02334,16.095118,18.426416,17.268213,16.681055
15.307276,13.458399,15.633936,15.386133,15.0292
14.746241,14.342188,16.395899,16.178614,16.315332
14.870508,14.621973,15.169825,14.276514,16.15005
14.014551,13.143457,13.390528,13.998438,13.341944
12.127588,12.450342,12.660547,12.433008,12.99795
12.682032,13.487696,13.538477,13.202295,13.603174
11.692041,12.420557,12.205957,11.91543,12.171045
7.8524413,10.792871,7.9867187,7.8231444,8.991358
8.071436,10.874903,7.8270507,7.155908,9.578272
7.0418944,9.625147,8.212305,7.5555663,7.417627
12.187159,13.589258,13.006983,13.024317,13.069971
10.6644535,12.445215,10.910547,10.950586,12.246973
13.306055,13.29751,12.540918,12.236231,13.172998
7.3458495,10.474756,8.424463,8.086817,8.60708
6.485742,10.167139,7.7101073,7.4972167,8.614649
6.782373,10.891504,7.1375976,7.202295,9.570459
6.5594726,10.800684,7.567529,7.4469237,9.469629
8.363428,11.78335,9.817041,9.6661625,11.024073
9.3363285,11.986719,10.105616,9.797998,11.044825
2.9674315,8.459375,4.709863,4.90542,6.778711
4.046533,9.177393,5.6822753,5.1795897,7.6324706
6.5455565,11.400293,5.5768065,4.7799315,9.833887
3.66958,7.6998534,3.73916,3.5597167,6.096338
1.1102539,7.018945,1.8504883,2.4413085,6.0902343
2.7306151,8.986719,3.8790526,3.9864745,7.22207
4.800195,9.656885,6.742334,6.830957,8.726465
5.804834,8.938135,5.6480956,5.984033,7.881006
5.5458007,8.972559,6.5069823,6.0279784,7.2696776
3.6241698,8.0567875,4.6478515,4.6812987,6.6808105
4.226709,8.469629,2.046289,2.0052733,7.3751464
9.000879,10.864893,7.505029,7.417627,10.4667
11.522852,11.258936,10.771143,9.801172,11.0221195
10.195948,10.16958,9.188379,8.368555,9.354395
4.492334,8.806543,5.6007323,5.3631835,7.6683593
5.579736,10.3050785,6.7152343,6.826074,9.174463
5.5833983,8.781885,5.4330077,5.032617,7.07583
3.3526855,8.124659,5.022363,4.6668944,6.192285
9.747705,10.609766,10.350489,10.29043,11.0917
10.783106,10.979151,11.156397,11.253321,11.449121
5.9688964,9.33169,4.8651366,4.959619,7.55874
3.10708,7.9415526,3.8290038,3.928125,5.899072
3.0199218,7.97207,3.5714355,3.780908,5.899072
0.52211916,5.5384765,2.07583,1.692041,3.695703
0.52871096,6.4183593,2.3702636,2.2518554,4.581445
1.3973633,6.242334,3.1649413,2.7589355,5.131006
0.9527832,5.560449,1.8126465,1.1986328,4.390283
1.81875,7.9725585,4.225488,3.742578,5.846582
4.9100585,8.909815,5.980127,5.5245605,8.296778
3.0069823,6.5594726,3.6913085,3.5633788,4.4083495
3.8062987,8.1158695,4.6842284,3.7381835,7.018701
2.0287108,7.7191405,3.6317382,3.5929198,5.5138183
