"[299, 255]","[227, 248]","[287, 319]","[279, 328]","[230, 262]"
0.836084,5.7992187,0.57192385,0.5792481,5.106836
1.7503906,5.671289,0.6839844,0.68251956,5.0316405
1.3136231,6.936914,0.5570313,0.90371096,5.3822265
3.536035,6.9884276,1.3636719,2.6385741,5.6966796
3.5018554,7.3128905,0.1830078,1.9149414,5.7054687
3.1815429,7.032373,1.988916,1.6742188,4.195459
2.5299315,5.2660155,0.78896487,-0.06870117,4.491113
1.6310059,5.6517577,2.004541,1.801416,4.331201
-1.4839844,4.565088,-1.6692871,-1.2742676,2.2313476
0.16396484,5.978662,-0.38291016,-0.5955566,4.209131
0.45424804,7.3895507,1.0636231,0.8600098,4.5111327
-1.049414,5.275537,-1.182959,-1.0882324,3.9933105
1.1166016,6.6754394,-0.11606445,0.70058596,3.7523437
3.6200194,8.961573,4.992822,5.2296386,7.84707
0.22109374,9.978418,0.7066895,0.68740237,9.532129
0.5648438,10.0377445,1.7555176,2.643457,9.49209
3.179834,9.097803,3.5926757,4.0851073,8.718164
5.7916503,8.646387,3.8805175,4.674463,8.426172
3.997705,7.9867187,3.3446288,3.8841796,6.893213
1.6251465,8.546289,0.26430663,0.23696288,6.924707
3.38833,7.601709,2.1351562,2.0035644,6.41958
0.8475586,6.4017577,1.6527344,1.5223633,4.778955
-0.28745118,5.4691405,-0.50913084,-0.4078125,3.369287
3.0233397,7.822656,3.1234374,2.86416,6.2501464
0.9137207,7.543115,0.90493166,0.37319335,5.6222167
0.53701174,6.501611,1.0807129,0.75649416,3.5643554
0.5902344,4.4481444,1.9549805,1.4845215,3.589746
0.5367676,4.587793,2.3331542,2.4020019,3.9608397
0.41689453,3.9601073,1.757959,1.8016602,3.0746093
0.4173828,4.2923827,0.9046875,0.8553711,1.8705078
3.4027343,9.160791,3.6117187,3.7169433,8.475733
6.4652343,9.606592,4.7032714,5.2274413,8.698145
6.454492,9.206934,7.0763183,6.480371,8.751612
3.765283,8.657618,5.1007323,5.4066405,7.4120116
3.8875976,6.9188476,3.7088866,2.8521972,5.0040526
3.2574706,5.785791,3.070703,2.5240722,4.723779
1.1986328,6.414453,1.3243653,1.2591797,4.2242675
1.3841797,6.570459,1.3800293,1.0980469,4.6498046
-1.2300781,4.3507323,-0.37753907,-0.12875977,3.2123046
-1.570166,4.995752,-1.2874511,-0.7024902,2.8678222
-0.5064453,3.7572265,-1.440039,-1.3648437,2.5799804
-0.4288086,5.527246,0.23623046,-0.01303711,3.253076
2.438623,7.6822753,2.9486327,3.3717284,6.2762694
7.867822,9.866602,8.094141,8.414698,9.849512
8.639307,9.781885,8.458399,8.645166,9.860987
8.983789,9.412256,7.7933593,6.171045,9.591944
4.28042,8.337305,6.4139647,6.7325683,7.9120116
7.2420897,8.597559,8.159571,7.880029,8.566797
6.681787,9.176416,6.017236,6.025537,9.954493
8.122461,8.955957,6.4276366,6.4603515,9.668604
5.356836,7.718164,4.363916,4.535791,7.4173827
3.752832,7.143457,3.4710937,3.4828124,6.101953
2.6498046,6.3910155,3.8629394,3.3304687,5.1673827
1.5655762,5.5191894,2.3387694,1.3832031,4.1585937
0.0140625,4.730127,0.11416016,0.21230468,3.3233886
-1.2239746,3.6449218,-0.7271484,-0.84995115,3.1754394
-0.49960938,5.378076,0.25258788,-0.2911133,3.7730956
5.65542,9.106592,6.034082,5.803613,8.592676
4.3248534,9.744776,2.6234374,2.4896483,8.234278
3.9549804,7.7972655,3.9657226,4.1063476,6.7264647
4.079004,9.014795,4.7748046,4.815332,8.627588
8.03042,9.667139,9.046534,9.087549,9.57876
3.1996093,6.838037,4.3404784,3.820459,5.60708
3.8648925,7.2569823,4.0936522,4.019922,6.491113
4.004297,8.382715,3.3336425,3.5348144,7.6231933
5.9466796,8.724512,7.258203,6.907373,8.385157
5.640283,8.358057,6.6441894,6.5858397,8.063868
7.247461,8.908594,7.5851073,7.610742,8.712793
6.473535,8.543116,6.3358397,5.9361815,7.320703
5.598047,8.741602,6.4432616,6.0973144,8.307032
8.476221,9.476709,9.004053,9.218897,9.656397
4.6551757,7.737207,5.8788085,5.7572265,6.9825683
2.4452147,6.639795,2.9903808,2.9833007,5.4208007
6.880029,8.5221195,6.3006835,6.804834,9.001368
7.70791,9.17251,8.638086,8.9769535,9.937891
8.128077,8.93252,8.870996,8.987452,9.552637
4.7174315,7.37832,5.6231933,5.4588866,7.060205
3.643457,6.77041,4.645166,4.3558593,6.831445
4.411035,7.5924315,2.7264647,2.558496,7.307031
3.9066405,6.8927245,5.56582,5.158838,6.4706054
1.8670899,6.041406,2.744287,2.8192382,4.888086
2.570459,5.6671386,3.7745605,3.6500487,5.0748534
1.3390137,8.08169,1.5511719,1.1161133,6.2049804
4.752832,7.461572,5.478418,5.3214355,7.255029
5.0660644,6.855127,5.1463866,5.172754,6.7623534
3.1397948,6.020654,2.740869,2.5606933,4.74917
1.8956543,6.407861,2.9869628,3.0440917,6.7123046
1.0350586,4.6913085,2.4393554,2.530908,3.2000976
-1.8284668,2.9859862,-0.75083005,-0.54526365,1.4666992
-1.2168945,2.4657226,-0.021582032,-0.039648436,2.5663085
-0.043798827,3.0355468,1.5501953,1.294336,3.192285
0.5309082,3.7149901,2.299951,2.2635741,3.2794433
1.0240723,4.4774413,1.9466797,1.4764649,3.8578124
0.91030276,4.3807616,2.3792968,2.5521483,3.1646972
1.2137696,4.8929687,2.0855956,2.2240233,4.2711425
5.860254,8.800928,4.5072265,4.817285,8.737452
7.924707,8.701075,8.758448,8.714746,9.344385
9.075342,8.333155,8.277246,8.343653,10.205957
7.524072,8.418848,8.548731,8.05752,9.451075
11.080469,9.860987,11.515284,10.92251,10.518213
12.110987,9.974756,11.072901,10.974512,11.759424
10.9144535,10.121241,12.197168,11.895655,11.269434
11.03628,9.67251,11.143457,10.717188,10.236475
15.072657,10.667871,14.401026,13.536524,11.394678
10.670557,9.879053,10.739649,10.936182,11.296778
9.815577,9.125635,9.854395,9.575342,11.026514
9.887598,10.017969,11.591944,10.878565,12.847315
8.965235,9.608057,9.291407,8.542383,9.440821
8.240625,8.581446,8.958399,8.4908695,9.031153
7.7154784,8.277979,8.981348,8.739893,9.156885
10.263819,9.716211,9.016748,9.554102,10.212793
8.136621,8.400782,8.379297,8.504053,9.640284
6.6378417,8.331446,8.0377445,7.7281737,8.732813
8.856104,8.753809,10.159815,9.571436,9.845118
10.262354,9.53042,10.207422,10.879786,10.886377
8.188135,8.962061,7.3663573,7.6534667,8.523584
9.035303,9.403711,9.356348,10.27334,11.349268
6.7767577,8.930811,7.947656,6.9513183,8.719385
6.115625,6.8927245,6.359033,4.5440917,6.558496
3.3165526,8.277002,5.780908,5.9603515,6.457422
9.706934,8.560205,11.730371,11.653955,11.243311
10.251123,9.343897,10.368311,10.710596,10.6644535
8.446192,9.056055,10.765039,10.745508,10.234278
8.707666,8.437403,9.741602,9.569483,8.980371
10.671778,11.231592,11.832666,12.036768,10.368799
9.037012,10.676905,9.544092,9.957911,11.098047
7.072656,9.824366,8.528467,10.312891,8.950098
9.515772,9.313379,10.591944,10.622705,10.391993
9.683985,9.239161,11.204493,11.070459,11.702051
11.04043,10.357813,12.699854,12.48086,11.972803
11.922998,9.561914,10.776758,10.942041,10.177149
7.9483886,8.9752445,6.8507323,7.409326,8.593897
7.8265624,8.758936,7.619531,7.0475097,8.455225
6.5575194,8.538477,8.924463,9.239161,9.205713
6.0523925,7.726953,8.172022,8.498926,7.9149413
8.268213,8.640039,10.090723,9.700586,9.935938
9.093409,10.613428,12.936426,12.385401,12.594873
8.488428,9.780909,10.485498,10.566553,10.626123
8.528955,9.060205,9.830469,9.632471,8.965723
10.63418,10.90542,13.252344,13.898096,11.51333
10.76626,11.219873,13.4769535,14.13125,12.08584
10.2599125,10.128321,8.288477,8.969629,9.871973
9.365381,10.57876,9.802637,10.287012,10.732813
9.530909,10.317286,9.978418,10.084131,10.643702
6.6637206,9.232569,8.838282,9.043604,9.266504
8.0917,9.799707,9.780664,9.210596,9.5707035
8.056299,9.160303,9.433985,9.190577,9.228907
6.9151855,8.119043,8.248438,7.891504,7.8106933
6.269922,7.9466796,7.251123,7.2660155,7.619043
6.487207,8.741602,9.928614,10.392725,10.479395
8.252832,8.620996,8.574121,8.57876,10.084131
6.553369,8.138086,7.8041015,7.3302245,8.0707035
6.0855956,7.9774413,6.749658,6.2916503,6.477197
7.160547,7.74624,7.7975097,8.093897,7.8338866
8.652002,8.763086,9.09292,9.402979,9.106836
8.164698,9.727442,10.492334,10.058741,10.969629
9.918848,10.505274,9.701563,9.336573,13.370264
9.472559,10.541651,10.910547,10.105616,12.722315
12.171534,10.9042,13.986231,13.892481,14.182276
14.885157,11.165186,14.911768,14.924219,15.943018
17.261377,12.484034,17.117334,18.003077,19.11831
17.487207,13.695459,18.70376,18.467188,17.433496
17.394434,12.221094,16.208887,15.15127,12.110743
10.995996,11.3692875,11.813379,11.891016,11.227198
9.4667,11.942041,9.500147,9.957422,10.624659
9.510401,10.146387,10.327051,10.909815,9.023584
6.086572,9.975,9.569483,10.315577,10.510889
11.059961,11.473536,13.933741,13.460596,14.439844
12.967676,11.702051,12.769922,13.464502,13.222315
12.552881,10.649561,13.115381,12.661768,13.350489
11.696924,11.050928,14.568506,14.060694,13.371729
10.950342,10.974268,9.945215,9.8971195,12.1661625
13.533106,11.051661,14.225,13.982813,12.976221
10.940332,12.296778,11.99209,11.22085,11.740625
16.854883,13.670801,15.8771,15.507715,15.060694
15.422998,13.357325,16.342676,15.980127,15.236231
16.226954,13.00625,15.84878,16.283838,15.899317
15.016504,13.147608,16.745508,15.111719,14.204981
15.241846,12.511621,13.970118,14.559473,14.934473
13.935694,13.779444,13.475733,13.589746,14.178614
14.003077,12.515772,15.5021,14.614893,15.619532
15.8067875,12.769922,14.053858,15.827539,14.808008
19.361963,17.933008,20.173975,19.731348,21.617823
20.021631,16.082422,18.50503,18.835108,17.5646
15.610743,14.145899,16.844141,16.7521,18.24624
17.33584,13.691553,18.201807,17.922022,16.034082
20.138819,17.353174,20.720118,20.642725,19.315088
18.954493,18.278467,21.064356,21.422998,20.44839
13.514307,16.673487,14.238672,14.429834,16.856836
13.481836,14.479639,12.577051,12.715967,14.086817
12.577295,13.276758,13.996973,13.920313,12.503077
13.020899,15.38125,14.1471195,14.38125,15.191553
17.349512,15.407862,18.705713,18.57754,18.642237
18.363916,16.777002,17.347559,17.010157,16.527246
12.667627,16.731592,11.592188,11.718409,17.515284
12.865137,14.358057,13.365381,13.552637,13.614893
14.73086,14.684473,14.8502445,15.971827,16.527735
16.849512,14.798243,13.824121,13.81167,15.204737
14.551905,14.65127,16.777735,17.334864,15.794825
20.147364,14.66958,17.626856,15.546534,14.05752
14.7894535,14.289698,16.509668,16.023584,14.988916
17.006495,14.783106,16.738184,17.746973,16.941065
16.039942,15.286524,17.033594,16.498682,17.95254
14.327539,15.114405,15.509424,16.839502,17.371973
15.2442875,15.382715,15.307276,15.477686,16.498194
15.35293,15.214746,16.759912,17.248682,17.876368
12.255762,13.688135,13.509668,13.016993,14.500391
12.837793,14.379053,13.766993,13.7738285,14.840235
15.274805,14.675684,15.649317,14.640772,15.658838
15.268946,14.936182,14.25503,14.879053,13.941553
17.899317,15.283594,17.259668,18.503565,16.79043
16.1354,14.960352,17.214746,17.433985,16.95962
17.56582,16.713037,18.946192,18.622705,17.668116
14.714502,17.047022,14.401758,15.370264,16.345362
18.516504,16.471094,19.17129,18.76919,16.834131
16.39834,15.522852,16.653711,17.310938,16.574854
15.061182,16.076807,15.337793,14.803125,16.154444
15.620752,15.873682,17.6542,17.778467,16.223536
17.186914,16.440577,19.372461,19.360498,16.98794
17.03042,19.171778,19.308496,19.42959,18.641993
18.49502,18.819727,17.499659,17.741846,18.971338
17.220118,19.344873,18.878809,18.171045,19.301905
18.142725,18.69668,19.620996,19.488428,18.213282
19.533594,17.682032,19.660303,20.228174,20.674463
20.389307,17.559473,18.845606,18.542871,18.055079
16.170801,16.379297,17.466944,18.073145,18.442041
16.503809,16.351954,17.522852,17.724756,16.25332
16.193995,15.485987,17.010157,18.170313,14.995508
15.852198,15.586817,16.562403,15.471338,15.374903
13.351221,15.2755375,14.718897,14.488672,15.092676
16.328272,15.639795,15.583887,15.625879,17.053858
14.608057,15.934229,15.964991,16.206202,16.910791
13.544092,14.892725,14.848536,14.8224125,16.208155
14.703272,15.227198,15.373438,14.830957,14.951075
13.152246,16.15713,15.621729,15.361963,15.776758
16.675196,16.830225,17.611475,17.63711,19.505518
19.935694,17.016016,18.358057,18.840723,18.208399
22.18252,18.819239,22.759424,22.726465,20.863672
23.03457,19.808496,23.20791,24.518457,22.072657
17.240625,17.009668,18.40542,18.21499,18.954737
17.681055,16.72915,17.61709,17.662012,18.683008
17.539454,16.683252,19.15957,17.805079,19.057276
17.937647,17.15542,18.30459,18.113428,18.790186
15.276514,16.763575,15.493311,15.129541,15.765284
13.599512,15.943018,13.857813,13.693262,14.370996
11.499659,14.387598,12.366846,12.844141,14.331202
13.627588,15.906641,14.856348,14.045313,14.52334
15.6192875,15.899073,15.916651,15.426172,15.585596
14.774317,15.177393,15.9630375,16.145166,15.156153
14.285059,16.992579,17.568506,17.49331,17.806543
15.56045,16.64541,16.100489,16.689356,18.263575
14.870996,16.221827,15.86001,15.998438,16.8417
15.107325,16.621973,15.925684,15.246485,16.818018
17.769434,16.714746,18.169092,17.54165,18.120264
16.4479,16.289942,18.321192,18.215967,16.306543
13.582911,15.221827,12.894922,12.11709,15.047022
12.0707035,14.894922,14.228418,13.685205,14.43667
15.10586,16.310205,16.07876,15.979395,16.589014
12.958887,15.821192,13.393213,12.863184,16.568018
15.336817,15.586573,14.26919,15.452784,15.1175785
15.84878,16.235987,16.908838,16.696924,16.2167
10.912012,15.581446,12.988672,12.758448,14.365137
16.619776,16.741358,16.566553,17.064844,17.651758
15.007227,15.769922,15.385645,14.993555,17.226465
17.056787,16.170313,17.351465,18.106836,18.303858
17.443995,15.867823,16.489893,16.80752,17.143946
15.8189945,15.944483,17.940577,17.717188,19.043604
13.332178,15.674707,16.161524,15.832911,15.402491
14.936182,14.921289,15.333643,15.247461,15.731348
15.473536,15.828272,14.803125,15.196436,15.756006
14.302881,15.530664,15.157129,14.505274,15.562403
14.662256,16.131006,15.181543,14.698389,16.222315
13.903467,15.753809,15.120996,14.644434,16.26333
14.31875,15.762354,16.52749,15.689844,16.301416
17.563868,16.985498,18.01626,17.598291,17.20962
14.874903,17.061426,16.301416,17.011866,16.968653
16.237207,16.378077,17.842188,17.773096,15.319239
13.433985,16.243555,13.879053,13.486963,15.649805
14.241602,14.94668,14.328028,13.972315,14.571436
13.051661,14.738428,13.203272,12.941065,14.075098
13.079737,14.972559,13.628077,13.355127,14.947168
12.726221,15.203516,13.684229,13.862452,14.849756
13.317286,15.399805,13.936426,13.860498,15.084375
12.389307,14.665186,13.98086,14.070459,14.821436
11.57876,13.9786625,13.289942,12.965967,13.403223
13.777246,14.924952,14.695459,14.655176,15.052637
12.577784,15.054346,13.426172,12.738916,14.38833
12.866602,14.123682,14.067774,12.987696,13.672022
12.928125,14.16543,13.650782,13.087061,13.906885
11.351709,13.964014,12.305323,12.265284,13.239161
10.807032,13.316309,11.823145,12.03335,13.217432
9.872461,14.734522,10.944727,10.285547,13.98501
13.95083,14.568018,15.078028,14.321192,15.07876
10.564112,14.308496,6.521631,6.0316405,13.218897
7.8749022,10.373194,8.67959,8.307276,9.351709
8.815332,11.452784,8.141504,8.558741,10.637354
8.51211,10.560205,8.784327,8.35293,9.407129
9.316309,11.793116,9.864161,9.62295,11.378321
12.221094,13.076075,12.951319,12.804346,12.792871
11.542139,13.698145,11.905909,12.284571,12.595118
10.806543,12.735987,11.989161,11.785303,12.170557
10.784815,12.824366,10.101465,10.388086,12.1488285
8.833643,12.679346,10.604639,10.866602,11.815088
9.157862,11.60293,11.308985,11.089258,11.452539
9.879541,12.597315,11.269922,11.266016,12.879541
8.773584,11.719141,10.913233,10.667871,11.314844
8.408838,12.091944,9.6332035,9.746241,11.113428
8.016993,11.310694,10.115381,10.05044,10.905176
9.319483,11.51333,9.854395,9.781153,10.748194
8.754541,11.773584,9.284327,9.288477,11.473536
9.18667,12.30044,10.116602,9.89126,12.281641
9.833887,12.415674,10.746973,10.743555,11.644678
6.0023437,9.634424,7.488672,7.5006347,7.646875
6.81875,10.239649,8.573877,8.683496,8.820215
8.01333,10.76919,9.607325,10.087305,9.886621
6.3888183,9.013086,9.779444,9.809473,8.799952
5.6932616,9.310938,5.831445,6.110742,8.221827
9.451807,12.02334,8.86709,9.192286,11.918604
13.018702,13.575342,11.231104,9.942041,13.527246
13.763086,14.153955,13.526026,13.413965,13.906641
12.368067,13.206202,12.005762,11.533106,13.177393
10.111231,12.760889,11.389307,11.3814945,12.671778
9.274561,12.880518,9.818262,9.189844,12.146387
12.790186,14.58877,12.098291,12.201563,13.755518
12.544092,14.08169,12.195948,12.3814945,13.425928
10.906641,14.008936,11.447901,11.707911,14.11709
9.514551,12.902491,10.991846,11.526758,11.716455
10.902979,12.710352,9.716211,8.88125,11.804102
7.6393065,10.675196,7.5780272,7.2608886,9.379541
7.159082,10.151514,6.990381,7.6375976,9.239161
7.9293456,10.268457,8.342432,8.059229,9.168604
6.3375487,10.12295,6.7638183,6.756494,8.661768
6.59707,12.0221195,7.662988,8.139795,9.791895
10.375879,13.535059,11.026514,10.95669,12.780664
11.6332035,13.62002,11.371973,10.681055,12.894678
10.994043,13.467676,11.798243,11.459375,12.464258
8.607813,13.0411625,9.69253,10.173243,11.958399
9.731836,13.202784,10.337061,10.330469,12.174463
6.022363,11.062403,6.736963,6.7015624,10.365137
4.1603026,9.560205,4.2259765,4.7782226,8.408838
5.247461,10.203516,5.55166,5.7569823,9.265039
7.0995116,11.88833,8.86294,8.565332,10.227198
7.9085937,11.37002,8.456446,8.318506,9.771631
6.1009765,11.16128,6.803613,7.43667,9.132959
7.5802245,12.1783695,9.422266,9.3207035,11.725
7.5108886,11.441553,9.080225,8.576075,8.833887
8.968897,12.28628,10.753565,10.840723,11.630274
9.379541,12.2599125,10.411524,10.219385,11.200098
6.05874,10.184717,6.903955,6.956445,8.736475
6.911279,9.825586,7.577783,6.3856444,8.503077
4.8858886,9.17251,6.8351073,7.579492,8.284815
6.258447,9.777246,5.1668944,4.9850097,8.032618
5.8097167,8.603174,6.636377,6.4764647,6.390039
4.1268554,10.06045,6.602197,6.613916,7.1388183
5.3683105,10.01211,6.393213,5.959131,7.850488
5.2210937,9.416651,4.5770507,4.8353515,8.405909
5.133447,11.023096,3.8924804,4.056787,9.383448
5.235742,10.869776,5.0990233,5.0162597,9.109766
5.799951,10.251123,4.8663573,3.523584,9.327784
9.393946,12.37295,10.632715,10.105616,11.985254
