"[299, 255]","[227, 248]","[287, 319]","[279, 328]","[230, 262]"
8.364649,11.014551,9.475733,9.228174,10.449366
6.4554687,9.141748,7.391748,6.8687987,9.0707035
7.0875487,9.251368,7.485254,7.226709,8.400293
2.8670897,8.152002,5.77041,5.6964355,6.867578
3.5865722,7.6620116,3.1222167,3.124414,7.083154
2.468164,9.372217,6.6117187,5.8578124,7.579004
6.006006,10.207911,7.4654784,6.8546386,8.857569
6.803369,11.470118,8.8536625,8.458887,11.272364
4.6996093,10.743555,6.287256,6.4815917,9.113916
4.4793944,10.175928,4.0367675,4.6200194,9.071436
5.1881347,10.41128,5.570947,6.0763183,9.654444
6.897119,10.210352,6.7657714,6.7569823,9.135645
6.194238,9.580957,7.6844726,7.3492675,8.431055
6.1268554,9.748194,7.2818847,6.832422,8.423731
3.5455565,8.397364,5.4791503,5.4044433,6.3424315
2.6021972,8.59878,5.454736,5.8976073,6.6827636
2.1429687,8.414942,4.9972167,4.258203,6.3321776
5.2901855,9.710596,5.8856444,5.7291503,8.13003
4.110254,9.464014,5.0558105,4.9935546,7.9432616
6.190576,10.020411,6.3253417,6.6673827,8.836817
6.155908,9.854151,6.0250487,5.609033,8.725489
-1.9844726,4.7606444,-1.2825683,-0.7139648,2.7916503
0.55507815,5.610498,0.50771487,-0.057958983,2.8131347
5.957666,10.270411,5.912256,6.955957,9.487207
8.782618,10.952784,8.047998,8.151514,10.77334
3.902246,8.341211,3.8941894,4.1788573,6.9513183
3.110742,8.5238285,2.3922362,3.1097655,5.711084
0.77016604,6.7643065,0.81166995,-0.06601562,4.162744
0.9537598,6.216455,-0.88486326,-1.6004394,3.752832
0.14003906,7.9012694,0.31166992,0.71425784,4.6598144
1.5445801,7.6949706,3.6043944,3.0458007,5.414697
1.1593262,5.572168,0.2850586,0.26064453,4.4469237
0.5921875,6.577783,1.6803223,1.6317383,5.1722655
1.7877442,8.579248,3.1649413,2.8478026,7.6273437
-2.184424,4.938379,-0.13168946,0.054833986,3.4869628
-3.264502,4.97207,-0.0032714843,-0.2232422,0.10366211
-3.8729005,4.6881347,-1.0120605,-1.5845703,2.8365722
-1.6895508,5.7594237,1.7853028,2.068994,4.6566405
-2.60459,5.272119,-0.5132812,-0.64755857,3.565576
-4.513037,2.5074706,-2.7359376,-3.0225587,1.5111328
0.7843262,8.820459,0.86391604,1.5445801,6.436914
3.1793456,8.215723,4.21499,3.57583,7.1844726
3.0882812,7.8021483,3.773828,3.115625,6.402246
2.7950683,7.0785155,2.2154784,1.8661133,5.0921874
6.844873,9.670069,7.3824706,7.546289,9.2130375
7.558496,9.898096,8.205713,8.332666,9.969385
6.5938964,9.4942875,7.9276366,8.114649,8.996729
3.4413085,7.664697,4.8358397,4.829736,6.1009765
2.2503905,7.4518065,1.9549805,1.3731934,6.4449706
1.3634278,5.1927733,1.7604004,2.2154784,4.0643554
0.50039065,5.3719726,1.8832031,1.7716309,4.084375
1.6500489,5.6825194,0.63076174,0.6913086,4.8631835
0.45424804,6.3805175,2.0106444,2.5023437,4.7281737
3.6322265,8.636133,6.117578,7.0057616,7.546289
5.209375,9.204737,6.398828,6.9706054,8.126123
6.977197,9.242334,7.359033,7.560205,8.942041
8.679346,10.253809,8.751368,9.215723,9.896387
8.538721,9.8146,8.694483,8.787256,9.362207
4.4798827,8.781397,5.708154,5.46499,7.535791
5.412744,9.362207,6.5453124,6.646631,8.376612
6.187158,9.508448,6.796533,6.744287,9.030909
8.528955,10.427393,9.157129,9.012842,10.057276
8.512598,10.474268,9.437159,8.999659,9.949854
9.291895,11.015772,10.449121,10.078272,11.177393
8.180323,9.909571,8.690577,8.280176,9.439844
6.6336913,9.535791,8.912989,8.483789,8.851465
6.719873,8.965967,8.121241,8.045557,8.944971
8.645411,10.56753,10.611963,10.288721,10.413721
8.517237,10.261866,9.683496,9.465967,9.876612
5.111963,8.489649,6.0370116,5.7135253,7.591455
4.35708,7.994531,5.2726073,5.2989745,6.6356444
5.7367187,9.72793,5.8531737,5.146631,8.79043
3.219873,7.4674315,5.718408,5.5140624,5.8165526
4.1910644,8.539698,7.095117,6.9642577,7.669824
8.422754,10.121485,9.119776,9.016504,9.78628
8.33169,9.883936,8.416651,8.30044,8.562159
4.869287,8.395166,6.0001464,5.7503905,8.0394535
4.4239745,7.8233886,5.752832,5.233545,6.120996
4.7245116,7.866113,7.8819823,7.517236,7.228662
4.6686034,6.8888183,6.928613,7.171289,6.3211913
3.2992187,7.44375,6.4242187,6.056787,7.312158
4.6952147,6.4125,7.769922,7.506494,4.7853026
5.7520995,7.8714843,8.515284,8.348291,7.2975097
5.691797,7.921289,7.1773925,7.3529296,7.5072265
4.8802733,6.036035,6.470361,6.6092772,6.046289
4.780664,5.9813476,6.6515136,6.3583007,4.9652343
4.4972167,7.8614745,5.5836425,5.1444335,7.1007323
3.879785,7.3473144,5.6148925,5.5858397,6.834619
5.3595214,7.410547,5.5375,5.173486,7.5006347
4.344873,7.296045,4.589746,4.676172,7.212793
5.059961,7.153955,6.1878905,6.4759765,7.3875976
3.297998,7.381494,5.9842772,5.9515624,6.896875
3.1734862,7.101709,5.919824,6.0069823,5.6029296
3.5699706,9.105371,3.355371,3.3338866,7.7020507
11.014551,12.526026,11.103418,11.209131,13.415186
12.312159,11.855616,12.086084,12.131983,14.968653
6.973535,11.75918,7.435449,8.119776,10.669825
10.19375,11.164209,10.509424,11.100977,12.458155
10.047266,11.012842,10.117334,9.700342,11.02627
9.745752,11.083887,11.754541,11.99502,9.78628
9.211817,10.938623,11.367823,12.274561,11.032618
8.721582,9.674463,9.656153,10.983301,10.249659
5.1544433,8.709375,7.1290526,7.3233886,7.90957
7.380029,8.327051,8.144922,7.704492,8.149805
6.542871,8.083643,7.5472655,7.5909667,9.171778
6.361963,8.157129,6.0890136,6.2538085,6.7413573
7.3026366,9.482813,8.337061,8.534327,8.702784
7.6759276,8.757227,8.100733,7.7625976,9.059961
9.360743,10.280176,9.162989,8.991358,10.450098
11.278711,9.600489,10.282862,10.516016,11.730371
8.636133,9.683008,8.416895,7.9603515,9.56045
9.792139,10.269922,10.040918,9.850489,9.432032
6.964502,9.920801,8.477198,8.75503,10.839991
7.3629394,9.6471195,7.3302245,8.27334,10.106104
8.498194,9.312647,8.88711,8.800928,9.970606
8.344385,8.296045,8.796778,8.715235,9.661768
8.174463,8.999659,8.52334,9.188623,9.296289
5.9413085,8.201563,8.985743,8.569239,8.7738285
6.7264647,7.999414,5.1756835,4.218164,7.366113
7.084131,8.449121,7.763086,8.039942,8.91128
7.9103026,8.969385,8.708887,8.498438,10.938623
9.108057,9.199121,9.930567,9.7113285,11.076807
6.6668944,9.761133,8.720118,8.531153,9.01626
8.983789,9.792871,9.743799,9.552149,10.059229
8.646631,10.390284,10.524805,10.300684,9.913721
7.379297,8.236719,7.37417,7.5128417,8.102686
8.2113285,8.428858,8.092188,8.595606,9.138575
8.316309,8.49209,9.4630375,9.084131,8.715967
7.517236,7.8392577,8.047022,8.010645,8.045313
6.4930663,9.686182,8.371729,8.797022,10.481348
8.802637,10.038233,9.885889,9.926172,10.659082
8.5255375,9.676661,9.442774,9.204004,10.245752
6.3946776,8.265528,7.187158,6.2777343,8.604395
7.504297,8.867823,8.299707,7.8148437,7.5489745
5.8358397,8.609034,8.032373,7.598291,8.851709
6.0492187,8.402002,7.929834,7.891504,9.108057
4.674463,9.107569,6.5248046,6.784082,8.005518
7.6686034,9.083887,8.337549,7.95083,9.329737
8.277002,8.618311,9.535059,9.358789,9.014795
11.357569,9.433741,11.308741,11.149805,11.069971
8.485498,9.035547,9.543116,9.215235,10.329737
7.35708,9.44668,8.671045,8.320459,9.820215
7.8194823,10.549952,10.197168,9.704493,11.176172
9.566065,9.730371,10.366602,10.089746,11.160303
7.6270995,9.018702,8.543604,8.715967,9.590723
7.657617,8.668116,8.651514,8.774805,8.942286
6.8041015,7.1544433,8.483789,8.149317,7.839502
6.5787597,6.6114745,7.5597167,7.881738,6.42666
8.473291,8.640039,9.407618,10.481104,8.823633
8.234766,8.612207,10.337061,9.495508,9.733545
9.020655,8.369776,9.589502,9.093897,9.329248
9.400782,8.293848,10.341455,9.820459,9.755274
7.4186034,9.659082,8.263575,8.093897,10.053858
11.454737,9.88833,9.928858,9.744043,12.108301
12.04043,9.721582,8.464502,7.455957,11.399805
7.501611,7.2052245,7.985254,7.8148437,7.411279
7.902246,8.683252,7.8941894,8.8971195,8.460596
8.726221,9.149805,9.976465,8.687403,8.979395
8.336817,9.119532,9.217188,8.641993,8.993799
8.682032,9.115381,9.739893,9.683985,8.761866
9.685205,9.626612,11.79336,11.651026,11.007959
10.533838,10.974268,11.996973,12.186426,12.462793
8.843897,10.853907,8.641748,8.630274,9.652246
14.971094,12.289209,15.79458,16.007471,14.417627
11.962549,11.50503,14.258692,14.883448,13.962305
14.162012,11.82876,14.529444,14.948145,14.479395
10.656641,12.900049,10.824854,10.409815,13.1471195
10.108545,11.231104,10.080957,10.57168,10.889795
14.813379,11.347803,14.545313,12.559961,14.220118
13.2738285,10.506739,13.970118,12.707911,12.961084
10.486963,9.968653,11.4439945,12.532618,12.389795
9.423731,10.052637,11.353418,11.666651,11.988428
9.734766,10.071436,11.607325,11.284815,11.219629
6.7298827,10.427149,9.130274,8.709375,10.528467
10.167627,9.577539,11.470118,11.260645,11.240137
12.379786,10.983545,13.01211,13.020899,12.622461
11.1349125,9.873194,9.109766,8.643213,10.711084
13.868067,11.3417,14.064356,14.295557,13.44375
15.939112,12.454737,16.381006,15.892237,13.65835
16.456446,12.699366,15.990381,14.78628,13.454493
14.811426,12.681543,14.964502,13.439112,12.456934
22.346827,15.590479,22.51797,22.728662,19.146875
15.576075,12.98086,15.396875,15.481348,14.72085
13.216211,12.49917,14.8417,14.760157,14.640039
12.855371,11.546289,13.245508,13.340235,14.407862
10.924952,11.694971,13.280664,12.644922,12.308252
10.530909,11.189356,11.6349125,11.234522,10.89126
9.3417,10.451319,10.012598,9.545557,10.115381
9.733301,10.530909,10.241358,10.8380375,11.32168
10.559961,9.807032,11.392237,10.654444,10.67544
10.057032,10.481348,11.943506,11.635645,10.894434
9.652979,10.281153,10.778467,10.535303,10.916895
9.680811,10.521631,10.741602,11.654444,10.682764
11.287012,11.219385,11.823145,11.778223,12.49502
11.421534,11.257471,12.649561,12.421289,13.416651
10.902246,11.716455,11.17544,10.989649,12.741602
14.750635,14.080225,14.896631,15.9125,15.854395
17.863184,13.906885,15.613672,16.663965,16.705713
15.486963,13.159327,16.368067,15.761866,14.486963
15.116358,12.860498,14.853174,15.2425785,15.353907
14.257715,12.545801,14.143457,14.287256,14.632715
14.391016,12.231104,13.921534,14.628809,14.428125
13.93252,12.773096,14.697901,15.710596,13.820948
15.374414,13.416407,16.100977,15.504297,14.55752
14.928858,13.215235,14.703028,15.948633,15.027002
17.05044,13.960596,16.478418,16.253077,16.528955
11.562159,13.53628,15.884668,16.238916,12.722315
15.529444,15.623682,16.04922,16.166407,15.842676
16.53213,14.830713,18.364893,17.843897,17.244287
13.2582035,14.706934,17.966211,17.038233,16.663721
13.5292,14.419336,16.1542,16.098047,15.3814945
13.253809,13.282373,14.185694,14.531641,12.667383
14.488428,14.685694,14.584375,14.583887,16.18081
14.917139,14.516748,14.152246,13.819239,14.744776
14.019922,14.019434,15.005518,15.235743,14.832666
14.135157,13.998682,14.40542,14.630762,15.374659
14.199854,14.046289,13.95669,14.489649,13.694239
15.446436,14.572901,14.810694,15.404688,15.750147
12.640284,14.359278,15.6783695,15.645166,16.17422
13.575098,14.496973,14.613916,14.643946,15.12295
12.628077,15.127832,12.960108,12.721094,16.553614
14.190332,15.078272,14.246241,13.700098,15.607813
15.433985,14.953516,16.894922,16.073633,17.191553
15.290186,15.380274,15.4127445,15.202295,14.7096195
13.29043,14.307032,13.285791,12.6349125,15.382715
15.504053,13.968164,15.770899,15.939112,16.257715
17.238672,14.193506,17.758936,16.080713,16.226221
15.801905,14.510889,16.7167,16.544336,15.249659
14.409571,14.418848,16.911036,16.360498,14.88711
14.681055,14.219873,16.652246,17.17422,14.7252445
17.390528,14.872217,16.787745,16.42129,14.94961
12.717188,15.696924,15.631006,16.473536,17.794825
14.1175785,15.588526,14.987452,14.5377445,15.242334
15.958155,15.230127,17.628565,18.231348,15.518213
15.236719,15.467676,16.083887,15.669825,15.26333
13.843653,15.506006,15.0221195,14.891504,15.337061
14.854395,14.41958,16.48379,16.606836,14.787012
16.54214,14.823633,19.030176,18.95547,16.302637
16.610498,15.646875,18.479395,17.363672,18.085352
16.11587,15.410303,16.720362,16.256495,16.405664
17.181543,16.202784,16.918116,15.319971,18.539942
13.694727,16.412012,14.132715,13.9457035,16.420313
13.535059,15.101465,15.262842,14.482325,15.477442
14.723291,15.41958,15.244532,15.536524,15.255762
17.276758,16.06045,16.422754,16.674952,18.531641
16.609522,16.08706,17.989649,17.218409,16.031397
23.139063,21.089258,21.04629,20.927637,22.35171
22.208643,21.392237,23.819239,23.435205,21.446436
17.292871,16.394434,16.951563,17.203272,17.447412
15.416651,16.24502,15.969141,16.35415,17.04751
13.984766,15.595606,15.850733,16.184229,15.808496
15.333887,16.019434,15.035547,16.050196,15.429346
19.646143,16.159815,18.599512,19.012842,18.948877
20.813135,15.83584,19.468653,19.873926,18.621485
20.0104,16.776026,19.839258,20.259912,19.419092
21.304346,19.497705,21.625147,20.753565,20.969141
21.56582,19.501368,22.996729,23.27212,20.51089
21.080713,20.315088,22.638819,22.998682,21.015284
17.920313,19.45254,16.783838,17.510157,19.766016
16.870752,18.041407,18.885645,19.56167,17.107569
18.257715,18.686914,20.323145,19.919825,18.02456
19.319483,17.64004,22.147608,22.14419,20.51089
17.375635,18.08462,17.974024,18.276514,16.809717
17.629053,17.675684,16.93838,17.103418,18.076075
16.60879,16.56045,17.035791,16.491602,17.515284
14.377588,16.132227,15.475977,15.448877,16.109766
15.333155,16.491114,16.348536,15.871973,15.609034
14.430567,16.270655,14.492823,13.931543,16.40127
14.000635,15.587061,14.281641,14.286768,14.895655
13.096582,15.066065,14.52627,14.385889,13.957178
13.759668,16.597559,15.483301,15.172754,15.3417
15.324121,16.701075,17.718164,17.448633,17.390528
16.1625,17.076563,16.33047,16.422266,17.735254
16.704004,16.65835,17.493067,16.707422,18.260157
15.312647,16.636133,17.0104,16.352686,16.666407
16.717676,16.528955,17.163721,16.845362,17.332178
15.603907,16.3854,16.34878,15.911768,16.5375
13.340723,15.974268,13.558741,13.756983,14.182032
12.420557,16.142237,12.626368,13.594141,14.6542
11.346094,14.697168,11.329493,11.663477,12.198877
11.059229,14.424219,11.152979,11.637354,13.342188
10.839502,14.483789,11.505762,11.013819,13.300196
11.297266,14.913965,11.985254,11.617334,14.141993
12.026514,14.1314945,13.501856,13.659327,13.978174
13.600977,14.570215,14.292627,13.870508,14.260645
13.649561,14.256983,13.961817,13.654932,13.90835
13.504786,14.50503,14.388819,14.701563,14.099512
14.123682,15.174707,14.656641,14.11001,14.933741
10.221338,13.748926,12.35708,11.798975,12.8771
12.045557,14.847315,15.200586,15.327784,14.503809
11.196924,14.062891,12.952051,13.03335,14.167139
13.997217,15.166895,15.404688,13.521875,15.275049
13.212549,14.788477,12.488428,13.212793,14.819483
13.683008,15.944727,14.824366,14.250635,14.700098
13.695215,15.214746,14.430567,14.539698,15.042627
13.032862,15.750879,13.516504,13.46084,16.310938
16.943506,15.321924,15.439844,15.260401,16.89004
17.062403,14.923487,16.920557,16.85,17.439356
17.85464,14.750879,17.16543,17.522608,16.639795
16.6542,15.982569,18.170313,17.435694,17.048487
13.403955,15.323145,15.121729,14.581202,14.809473
12.733057,14.4769535,13.709131,13.429834,13.733057
13.886621,14.707178,14.950098,13.998682,15.40542
13.982813,14.65127,14.444483,14.093409,15.57876
14.74502,15.257959,13.822168,13.715967,14.899561
12.668848,14.434717,12.953028,13.192286,14.561426
11.493311,13.78042,12.410059,11.943018,13.471827
13.783106,15.701563,13.093164,12.91958,15.234522
14.343409,15.021631,13.847071,13.710108,14.4144535
12.083887,14.901514,12.437403,12.157373,14.009424
13.593653,14.828028,13.562891,13.802637,14.479151
11.495996,14.227686,11.8519535,11.607325,12.791407
10.880274,13.5394535,9.744532,9.311426,12.550928
11.551905,12.876612,11.229639,11.348536,12.196436
9.514307,12.566797,10.845362,10.636866,12.038721
8.770166,11.908594,9.740625,8.823145,10.869043
9.241846,13.938868,10.195459,9.558008,13.37417
9.996485,12.81167,10.870264,9.594629,12.061426
10.951319,12.827295,11.605371,11.036524,11.766748
13.900782,14.686182,13.846582,13.441065,14.688135
13.299463,14.26626,13.353418,13.329737,14.207911
11.979151,13.671534,11.999414,12.749414,13.848291
11.617823,13.690332,11.377344,11.051416,13.097559
13.08584,15.047022,14.711817,14.291407,14.828272
14.1661625,15.138086,14.812647,14.556299,14.774317
14.079981,14.566553,13.578028,13.679102,14.66128
11.907862,13.847559,13.348536,13.276514,14.100977
11.097559,13.382715,12.139307,11.582911,13.261377
9.68667,13.78335,10.597315,10.278467,14.057032
10.471094,13.210108,11.492334,11.507227,12.575098
11.765284,13.543116,12.224268,12.290186,12.842188
10.414942,13.585108,12.135889,12.096582,12.497217
9.139063,11.75503,9.992823,9.682032,11.0238285
10.851221,13.457911,10.696924,10.47378,12.416651
12.198389,14.533594,13.299463,12.950342,13.633936
9.808496,11.041407,10.994043,10.776026,9.15835
9.024073,12.218653,10.619043,10.435205,11.132227
5.424951,9.697657,4.7188964,4.41958,7.7262206
2.780664,8.865625,4.7501464,4.8021483,7.374658
3.2743163,8.521143,4.178369,3.7716308,6.708154
3.9078612,9.877344,4.3873534,4.636865,7.83999
4.3216796,10.506006,5.304834,4.9625487,8.107569
4.2140136,11.364649,6.6822753,5.94082,9.643457
8.611719,12.268457,9.856836,9.447901,11.677149
8.403711,11.914942,9.680811,9.250391,10.518457
9.010889,12.610987,9.529688,9.111231,11.660059
10.440332,12.929834,11.100977,11.03042,12.52334
12.232813,13.374659,11.082911,11.032618,13.767481
12.354151,13.427149,12.971827,12.814112,13.845362
10.447657,12.947901,11.57168,11.730616,12.435938
7.461084,11.147852,8.845362,8.454981,9.646143
8.066065,12.257959,9.949366,9.622705,11.133692
5.329004,9.735987,5.3861327,4.977197,7.227197
4.1932616,10.048243,6.077539,5.9464355,8.425196
4.841211,9.985987,5.7293944,5.2577147,8.153223
1.1270996,7.2069335,2.3875976,1.9125,5.9657226
2.7171874,6.3319335,2.926416,2.129541,3.88125
2.742334,7.5367675,2.475,2.101953,4.903711
1.7535645,8.998438,1.8868653,2.2828612,6.2137694
4.497461,10.591944,4.754785,5.768213,9.80752
