"[299, 255]","[227, 248]","[287, 319]","[279, 328]","[230, 262]"
6.5558105,11.113184,5.890039,5.610498,8.640284
9.273096,11.928858,9.339502,9.0375,11.394434
9.090235,11.887354,10.293116,11.176172,11.1471195
8.906153,11.677149,10.469629,10.260645,10.842676
9.452051,11.788477,10.665674,10.518946,11.345362
8.8380375,11.710352,10.60293,10.322901,10.887842
8.645655,11.02627,10.354639,10.220606,10.309473
5.9342284,9.054346,7.7853026,7.611963,7.801904
6.143213,10.107325,7.7330565,7.688623,8.775293
7.560205,11.208643,9.629786,9.414209,10.274805
8.468897,11.39126,9.456202,9.238428,10.795069
1.5545899,5.1217284,1.4623047,0.7379395,4.5382323
1.4466797,9.659571,3.8905272,3.6837401,7.7208495
1.348291,8.484034,2.409082,2.5738769,6.372461
2.9271483,9.91958,6.7765136,7.053369,8.075342
6.301416,10.466455,8.012354,7.7296386,9.397364
3.509912,9.394678,4.9359374,5.120752,6.88833
8.774561,11.472315,9.863672,9.677881,10.870508
9.136621,11.766504,10.066065,9.815821,11.397608
8.87002,11.714746,10.073877,9.579737,11.197901
7.537256,10.98794,8.950098,9.106592,10.027246
8.257471,10.906885,8.942041,8.75625,10.000879
2.0069823,6.988672,2.905664,2.7091308,5.1874022
-1.3423828,6.5504394,-0.94907224,-0.89316404,4.539697
5.605127,10.546534,6.9168944,6.8231444,9.586817
3.081201,8.338282,4.199121,4.1168456,6.152246
7.5040526,10.376856,9.046289,9.206934,9.574366
7.789209,10.5238285,8.504053,8.416651,9.579493
3.009912,7.4601073,4.3507323,4.0921874,5.8351073
5.473535,9.8849125,6.322412,6.3963866,8.707422
3.2047362,7.442285,2.987451,2.5799804,6.4757323
2.2318358,9.034082,2.7865233,3.403955,7.139795
1.1170899,6.3268065,0.5753418,0.76552737,4.7916503
0.6383301,5.879297,0.69326174,0.50576174,3.8416991
6.631494,9.727198,6.898584,6.9117675,9.612696
8.737452,10.235498,8.987452,9.637598,9.848047
8.534571,10.150049,9.022364,9.047022,9.803614
2.3878417,7.6512694,2.7643065,2.6605468,5.8407226
-0.33286133,5.1510253,-1.533789,-1.6155761,3.065576
4.4356933,9.623682,5.379785,4.5453124,8.91128
6.0018554,9.283594,6.084619,5.629297,8.2425785
5.2083983,8.248682,4.706445,4.402246,6.319238
3.799707,8.016504,5.1371093,5.0006347,6.808496
4.753076,9.414942,4.680322,4.7591796,8.231104
4.7054687,8.4474125,4.8375487,4.5907226,6.6776366
7.9967284,10.03042,8.837305,8.655664,9.8050785
8.567041,9.91543,8.85293,8.555567,9.773096
5.6876464,8.688623,6.2171874,5.780908,7.3666015
2.8915038,7.46499,4.9015136,4.398584,5.9603515
2.1183105,6.4051757,4.4027343,3.8541503,5.383203
1.4144531,6.535547,1.934961,2.1095214,4.5628905
4.0458007,8.613184,5.8160644,5.56875,7.072656
5.473291,8.483301,6.8211913,6.9120116,7.9955077
7.021631,9.176172,8.011377,8.139063,8.8771
4.305078,8.614161,5.499658,5.1441894,7.7296386
7.461572,10.011377,8.227686,8.079004,9.474756
4.426904,6.5978026,3.6163573,3.3004394,4.3946776
2.359033,6.9085937,3.95083,3.5404296,5.750879
1.695459,8.667383,2.0216308,1.889795,7.1219726
3.3307128,8.777246,5.0279784,4.861963,7.157861
2.5096679,6.28042,3.66958,3.5406737,4.892236
0.30776367,6.7867675,1.8614746,2.0753417,5.3182616
0.39248046,5.4930663,1.2210938,0.475,3.7948241
-0.7049316,2.7926269,0.3211914,-0.06870117,1.2257324
0.7652832,4.289453,1.539209,0.7962891,3.410791
0.34975585,5.343408,1.4469239,1.4430176,4.8612304
0.8636719,7.324121,3.8338866,3.7994628,6.0155272
4.0919433,8.013819,5.3460937,5.2628417,7.0631347
3.584375,6.8734374,4.490869,4.1375976,6.006494
1.9012696,5.7621093,2.7713866,2.7032714,4.6776366
1.0675293,6.9530272,3.1510253,3.1224608,5.5702147
5.407861,7.8473144,6.7140136,6.894922,7.5277343
4.8443847,7.7552733,6.3211913,6.503076,7.2367187
5.3905272,8.077295,5.7794433,6.49917,7.7154784
7.725,8.498438,8.224268,7.9745116,8.857569
2.8399901,6.5819335,3.5807128,3.6583495,5.3878417
1.5008789,6.6566405,3.7816405,3.805078,4.910547
5.5174804,6.664697,6.652002,6.6288085,7.2032714
4.45083,7.2518554,5.501611,5.5926757,7.02041
5.8197265,7.529199,6.646631,7.0909667,8.123682
6.3595214,8.198145,8.465967,8.874659,8.846827
3.622705,7.1512694,5.2140136,5.112207,6.5631347
7.7538085,8.674707,8.725489,8.48208,9.891504
3.6554198,7.166162,4.3229003,4.072656,5.8592772
2.7418456,6.3719726,4.105127,3.9383788,5.766748
2.9146972,8.122461,3.44375,3.077539,8.189112
7.239404,8.351221,7.830713,8.307032,9.793848
6.4256835,8.234034,7.367334,7.386865,7.6952147
3.6202636,6.7572265,4.2589355,4.2730956,6.5384765
6.1639647,8.317774,7.617334,7.642236,8.658594
8.495508,7.6014647,10.091211,9.897608,8.321192
7.2298827,7.596582,8.339991,8.49917,8.900293
4.819238,7.175195,5.7777343,6.2242675,6.5089355
3.9239745,6.5194335,5.563867,5.393701,6.554834
2.7430663,7.721826,3.5992675,3.3348632,7.315576
1.8644043,5.803369,3.070703,2.5335937,4.8597655
-0.30893555,1.4723145,-0.790625,-1.1009277,0.30947265
0.6144043,2.0470214,0.8937012,0.8421875,1.1891114
2.0667968,4.266748,3.6190429,3.358789,3.4400878
2.8670897,5.677881,3.9847655,3.589746,5.719873
6.309961,6.584619,6.5682616,7.7052245,8.038477
6.3177733,7.910547,8.602442,8.330957,8.124414
2.484033,5.600488,5.6427245,6.0887694,4.723047
5.4154296,6.836572,8.220118,8.131739,7.9862304
8.312159,7.787744,8.802637,8.755274,9.904932
7.9913573,8.482813,7.6795897,8.20083,9.438623
7.2811522,8.185938,7.5885253,7.598047,7.6187987
6.0006347,7.8646483,6.647363,6.4708495,7.522119
4.310449,6.280908,5.1708007,5.022119,6.0731444
3.8539062,5.067529,4.65542,4.792627,5.173242
3.2909179,4.706445,4.124658,3.8668456,4.43667
1.3702637,5.9530272,1.7923828,1.6170899,4.37124
5.900293,6.912256,7.9017577,7.485498,8.826075
5.1168456,7.2191405,6.22207,6.466455,7.37417
5.9068847,8.655176,6.6270995,6.738672,9.03042
9.260401,8.888819,8.64419,8.825586,8.920557
6.393945,7.624414,5.8736815,5.9291015,7.9864745
4.8097167,6.1876464,5.7645507,5.594629,6.8929687
5.1480956,6.885156,6.7484374,6.1810546,7.0645995
6.418115,6.8739257,7.065576,7.0475097,7.987451
7.1827636,7.1356444,8.507227,7.799951,7.510156
5.551416,7.049463,4.2503905,3.9703612,8.948145
5.5418944,6.193506,6.9466796,5.8912597,6.695703
5.0128417,6.2745605,6.0538573,5.955713,6.1512694
6.1187987,7.109033,6.6949706,5.818506,6.783838
7.1187987,7.3749022,7.8905272,8.357569,8.772852
8.560938,7.846826,9.536524,8.182764,8.478907
8.799219,7.0870605,9.839502,9.996729,8.310205
9.026026,8.57461,9.659327,9.673975,9.218897
7.8456054,9.990625,6.3248534,5.8980956,9.739405
4.4032226,8.051661,6.5729003,7.065576,7.419336
6.9535155,7.7591796,9.292627,9.059961,7.154199
10.124903,8.773096,10.8971195,11.569239,9.03628
8.178858,8.205469,9.828028,10.362207,7.6830077
6.5509276,8.62002,9.410547,10.28335,9.166651
10.174463,8.541895,11.6896,11.948389,11.027735
10.353418,9.009668,10.702784,9.38418,10.750635
8.197657,8.500391,9.056543,8.968653,9.120752
7.5196776,9.31753,8.602686,8.79458,9.136866
5.500879,7.3419433,7.7325683,7.4190917,7.5277343
6.3751464,7.0558105,6.072412,6.8668456,7.9288573
6.279199,6.440088,7.1742187,6.881494,6.3089843
8.429346,9.6505375,9.358789,9.198633,10.231104
6.298242,8.392237,7.5055175,7.5160155,8.60293
9.754786,9.614405,9.58169,9.427393,10.28042
12.405909,11.595606,14.468897,14.567041,13.865381
10.078028,9.826807,11.183741,10.584864,11.434229
8.719873,8.552637,11.286524,10.496241,10.01333
7.3854003,9.115137,10.828516,11.059473,8.784815
12.227198,9.541651,10.012354,10.184717,10.500391
13.823633,10.091211,12.792383,12.75503,11.708887
12.573389,10.149317,11.639795,11.433252,10.232325
7.684961,8.029444,6.817529,6.6290526,6.674951
11.107813,9.323877,8.609522,8.749659,11.316309
8.035791,8.783838,9.656641,10.302881,11.192041
7.763086,9.663477,6.716211,6.577295,10.323145
7.6231933,8.796045,8.167383,7.982324,9.85708
11.041651,10.558008,12.285303,11.975,11.136866
12.297266,10.955713,14.146631,13.926172,11.731348
13.837793,11.901758,15.423243,14.850977,12.61001
10.472315,10.629786,12.456202,12.452784,11.557032
8.956446,10.342676,10.152491,10.213526,9.501368
12.196924,10.087793,14.134424,14.639063,10.415186
11.42544,11.300684,12.862696,13.089991,11.419825
11.369532,11.191553,12.114649,11.984766,11.199121
11.687891,12.203516,14.245264,13.75503,13.02334
9.90127,12.374903,11.153711,11.988672,11.806055
10.821924,11.787989,11.123682,11.412256,11.471582
8.54751,10.585352,8.972559,8.731836,10.048731
9.752832,11.5917,10.761133,10.716455,11.245996
10.155664,11.316797,12.004786,11.644434,13.288965
12.1036625,11.784082,14.107813,13.6661625,12.6002445
13.877832,12.473536,12.611231,13.221582,14.174707
10.893213,12.066797,11.699854,11.569239,12.014063
14.022608,11.345362,13.010889,13.712305,14.044825
16.020899,13.2269535,15.31875,15.371973,14.606836
17.601221,15.527491,16.560938,17.068506,17.089746
15.548731,15.561914,15.938135,16.098291,16.011377
14.62295,14.877832,15.48501,14.902735,15.105371
17.22085,14.613428,17.686426,17.804102,17.095118
16.295313,13.3189945,13.928125,12.773096,14.382471
8.517481,12.06753,11.566065,11.715723,11.694483
13.451807,12.714014,13.696924,13.887354,14.419336
15.62417,13.598291,16.39004,15.745508,16.90127
16.907373,15.679346,18.352686,17.785791,17.088037
17.451563,15.482569,17.796778,18.262354,17.483301
16.087793,16.41665,17.444727,18.189112,17.475
17.381495,16.708643,19.046778,20.177637,17.65713
17.109522,16.854883,16.856592,18.772608,19.042383
17.231836,15.834375,18.386377,18.397852,19.401514
15.236963,17.464502,15.710596,17.749903,16.712793
16.10586,16.765528,17.494043,18.022608,16.465967
16.90957,17.621729,17.374414,18.327051,18.297022
16.932764,16.80581,15.372461,16.752832,17.672022
18.757227,18.367334,19.3063,19.08169,20.306787
20.685938,19.316797,21.211817,21.647364,22.027002
21.649073,18.891748,22.54165,23.121973,23.022852
21.643213,17.94253,23.14541,23.011377,20.40249
20.292627,17.858545,21.042871,21.672266,20.763819
21.474756,17.696192,21.54751,21.619287,21.582666
22.96255,18.57461,21.129541,21.340723,22.581446
23.461817,18.056543,22.573145,22.988184,22.15127
24.106348,18.60586,21.843897,22.363916,23.422754
22.695948,19.177149,20.93374,20.66665,19.802149
22.227442,18.290918,18.79458,18.33462,19.725733
16.110254,17.955225,19.50503,18.954004,18.504297
16.821436,17.636133,18.326075,18.290186,17.360498
16.25918,16.657862,16.144678,16.259668,16.97671
20.432764,17.278223,16.307032,16.38418,18.65249
17.80044,16.95376,16.93252,17.301905,18.413965
16.106104,15.375879,15.9317875,16.161524,15.657373
17.503077,17.176416,16.871973,17.077051,18.386133
19.855371,17.357325,19.806543,19.379053,20.494043
23.081934,17.564356,20.482325,20.913477,21.524805
20.463282,17.635645,18.898584,19.07461,17.894922
21.40713,19.607325,19.857813,19.523584,19.57461
26.103662,20.999659,25.491602,26.283838,28.275293
25.151026,24.147608,24.396387,25.564356,29.602442
22.596338,18.273829,23.416895,23.048243,21.05581
17.097315,17.571924,17.74502,18.183496,17.398829
21.731104,19.637842,21.7438,21.714258,19.455957
26.751612,21.91128,25.291895,26.176172,25.273096
27.834375,23.73501,27.445704,28.687647,26.78457
29.032618,23.011621,28.718897,29.625391,27.833399
24.756983,22.837305,20.158106,22.490137,23.8063
23.222559,22.35879,22.668604,23.83706,22.230371
23.47085,22.662256,23.78335,26.19253,23.519678
25.667383,21.108057,24.004053,25.323145,21.073145
24.10171,20.641504,21.291407,22.642237,20.639307
21.827784,18.43081,20.961573,22.293116,21.326075
15.734034,17.97964,16.134912,17.33755,18.251123
16.642237,17.192041,17.023829,17.20547,18.180323
17.961817,17.778711,18.185694,18.898584,18.17251
19.981836,17.022852,21.171534,21.328516,18.996729
13.8417,15.954981,17.098291,17.666162,16.113672
16.437403,16.251368,16.95669,18.0292,17.18374
15.7582035,17.08877,15.64834,15.9283695,17.22378
18.469385,17.641748,17.917627,18.326563,18.588037
21.068506,18.56045,19.876368,21.1354,20.518702
23.62124,18.40127,23.314112,23.357569,22.894434
24.901514,18.84585,24.467432,25.067041,22.176905
18.958155,17.720362,17.330225,18.68667,18.952051
19.663965,17.481592,17.610743,17.904932,18.474756
18.156641,17.953272,18.855616,18.7167,19.12832
17.1625,17.606348,17.650293,17.54336,19.41714
16.988428,17.427393,16.723047,17.428858,19.065332
16.04751,15.973536,16.468409,16.39712,16.810938
14.220362,15.201563,12.79043,13.777491,15.968409
13.383448,14.154444,12.911036,12.124659,13.801661
14.8033695,14.557764,14.791407,15.271631,14.966211
15.457666,16.314356,14.870752,16.612696,16.310694
18.764063,16.03335,16.81045,17.821924,17.6271
15.890772,15.910303,14.536036,14.243799,15.997217
15.934717,15.483545,17.464014,17.54873,16.663477
16.25918,16.718897,17.500635,18.710108,19.319483
17.509912,16.862696,16.512598,17.403223,18.141016
15.130762,15.79336,15.041407,16.376123,17.143702
15.500147,15.78335,15.623926,15.244043,17.50625
14.893457,15.393946,15.755274,16.340723,16.072168
15.373926,15.774317,15.442041,15.711573,16.609766
16.776026,17.470118,16.726221,16.082178,17.97964
15.990381,17.788965,16.994532,17.009912,18.106592
14.156153,15.977198,15.222315,15.706202,15.937891
14.315088,16.835352,16.033106,16.241602,16.780176
14.7425785,16.614893,16.576807,15.898584,16.273584
18.909327,16.841455,17.936914,17.864405,18.509424
15.603418,17.89956,16.82583,16.1188,17.798487
14.255518,16.59292,14.279444,14.319727,16.444971
14.944971,16.834864,15.0082035,14.9908695,16.85415
14.996973,16.389307,15.506006,15.677393,15.811914
16.254786,17.035791,16.819727,17.47915,17.313623
16.980616,17.068262,16.82339,16.815088,17.676416
18.37417,16.812403,17.824854,18.281885,20.385157
18.113184,18.147852,19.373682,19.791895,20.482569
17.652002,17.443018,18.508448,19.011133,20.059717
18.842676,18.569727,19.01504,19.351465,19.350977
17.804834,19.030909,17.448877,18.294825,19.027002
17.95791,19.196924,18.218409,18.943995,20.293848
17.805323,18.396387,17.97915,18.494043,18.910791
16.933008,18.62124,17.108545,17.630518,18.58169
17.393946,18.37295,17.115137,17.754541,19.052149
19.0917,18.814112,19.054834,19.672266,20.653467
19.006006,17.753077,18.92544,19.226221,18.152246
14.689112,16.132227,19.624903,20.151514,16.119532
16.60586,17.640528,19.391504,20.543604,17.816065
14.727442,17.292383,16.400782,16.63833,19.380274
17.228662,16.592188,18.60171,18.714258,19.25918
16.683985,16.917627,18.050196,18.310694,19.3771
17.058985,16.519922,17.723047,18.595606,16.816065
17.01333,16.394678,18.827295,18.44668,18.433252
16.069483,17.764063,15.689112,16.295069,20.199121
17.909082,17.101465,16.870752,18.143457,17.594141
16.251856,16.431055,18.150293,17.780176,17.521143
14.565821,15.927393,16.068995,15.777491,15.957911
13.354151,15.923243,14.248682,14.262598,13.580225
15.842432,17.334864,15.529932,14.699121,16.704737
16.437891,17.070948,15.812159,16.3146,17.345118
11.439112,14.784082,11.951075,11.4630375,13.859034
9.1974125,13.108057,9.781641,9.829248,12.511866
8.598536,13.891016,11.282618,10.643946,11.910547
11.36001,13.825342,11.246241,11.178614,13.047754
10.488428,14.511866,11.170069,10.8832035,12.649317
8.214014,11.538965,9.007471,8.302149,10.103907
7.6722655,13.297998,10.423731,10.59292,12.292139
13.081202,14.954004,13.579493,13.603174,14.204248
12.856104,14.496241,12.675196,13.496241,13.9127445
12.341455,15.0917,14.250147,13.791895,14.292627
12.751856,15.084864,13.260645,13.363428,14.703272
10.798975,14.290186,11.824854,11.655909,13.852686
7.40957,10.574121,7.771875,7.4937987,9.084864
11.347559,13.974268,12.18667,12.602686,13.816065
9.1158695,13.387842,9.596338,9.761866,13.721338
9.65835,13.096582,11.125147,11.297998,12.442041
9.157373,12.69668,10.559229,10.447657,11.757959
10.359278,12.25625,10.956934,11.010157,11.426661
9.782129,13.018946,11.683741,11.654932,12.080225
9.09878,11.626368,11.438868,11.850489,10.912989
7.289209,9.791651,8.875147,9.087793,8.464014
7.9742675,10.866846,9.393702,9.444483,9.587793
9.316553,11.961817,10.017725,9.908838,11.316797
7.6500487,10.913965,9.298243,9.483301,9.836084
8.715479,11.260889,8.515772,8.8519535,9.801416
9.394922,11.409815,9.6542,9.549707,10.710352
9.17959,11.714014,8.64126,8.389795,11.268213
10.238672,12.505762,10.225733,10.767237,11.899073
9.472559,11.870264,10.503809,10.456202,10.816553
7.204492,10.514063,8.382715,8.755274,10.277491
8.05752,11.962549,7.9034667,8.399561,11.017969
3.19375,7.3038573,2.4688964,2.027246,5.725488
3.929834,9.56753,6.5538573,6.3978515,7.688867
0.39296874,7.134668,0.31435546,0.285791,5.723535
1.165918,7.7142577,2.4962401,2.336328,5.259912
6.8958983,11.839502,9.1175785,9.353174,10.365381
9.064356,12.107325,9.316065,9.437647,10.945215
9.288233,12.613428,10.110498,10.883692,11.856836
8.561426,12.609522,10.120508,9.844385,10.57876
3.1073241,8.142969,3.7206054,3.6258788,6.6183105
2.1249022,9.594141,2.2484374,3.6849608,8.693018
5.521631,10.931543,5.9776855,5.689111,10.962305
5.2850585,9.558985,7.398828,8.330713,8.99795
6.461328,11.562403,7.699365,8.274073,10.986475
8.801661,11.941065,10.400293,10.887598,11.543848
9.312647,11.918848,10.217676,10.076563,11.315821
4.6344237,8.307764,4.447168,4.8009276,6.677881
-0.16464844,6.3629394,-0.52963865,-0.70444334,4.634668
-1.648291,4.334375,-0.83725584,-0.9595703,2.4164062
-1.679541,5.129541,-1.3968261,-1.4297851,2.6285644
-0.5901855,7.36416,0.16762695,0.16640624,4.131006
0.16445312,7.224756,2.0475097,2.4459472,4.2621093
1.896875,4.8841796,0.6161133,0.42177734,4.1268554
1.0853516,7.2242675,1.5313965,1.7520996,5.141748
5.070459,10.932764,5.8524413,5.2416015,9.251612
4.9344726,10.409082,5.8717284,6.247949,8.9317875
4.3927245,8.773584,5.4273925,6.034082,7.089502
2.1544433,8.046778,1.8155762,1.2320801,5.9659667
5.079736,11.013819,4.1187987,4.6166015,10.413965
8.211084,10.924219,8.8971195,8.991114,10.461084
7.405664,10.208155,8.1471195,7.7193847,9.25918
5.909082,9.892237,7.796533,7.627588,9.219873
9.173731,11.506983,10.237207,9.771387,10.892237
