"[299, 255]","[227, 248]","[287, 319]","[279, 328]","[230, 262]"
1.7142578,6.0094237,2.4015136,2.2591796,4.242578
-0.56821287,4.711572,2.591455,2.499414,3.4044433
0.29555663,6.2350097,1.2853028,1.3080078,4.157129
0.22011718,5.6585937,-0.91733396,-1.4341797,3.6927733
0.41835937,5.8351073,1.0196778,0.85366213,3.3810058
1.7047364,5.96499,2.752832,2.2767577,5.4532714
1.8722168,5.5941405,2.7931151,1.9259278,5.4537597
0.2936035,4.730127,2.0519042,2.2479491,4.4242187
-0.45786133,4.0421386,0.77016604,1.1585938,3.0858397
-1.4483398,3.711084,-0.23715821,-0.30600587,2.5262694
-1.1192383,4.6412597,1.1187989,0.98061526,3.4669433
1.6810547,6.562158,3.0160155,1.7843262,5.49624
0.2948242,5.483545,2.1632323,2.221582,4.8089843
2.1063476,7.6476073,1.8919922,2.2813964,5.297998
3.1634765,8.250635,3.1397948,2.858789,6.892236
0.49941406,7.098291,0.31948242,0.71743166,6.0572753
4.659326,9.16128,5.573877,5.3492675,7.6795897
0.67958987,7.6134276,0.84536135,1.3973633,6.008203
0.66274416,6.990625,0.7523438,0.59365237,5.4393554
0.9381348,7.7765136,2.1964355,2.5995116,5.290918
2.2333007,8.455225,2.0331054,2.921533,7.051416
4.1705565,8.1158695,3.7369628,5.3805175,7.0094237
2.4847655,7.6864257,3.0020995,2.9696288,4.8514647
1.7035156,5.9481444,1.007959,0.96499026,4.1500487
3.7228026,6.4901366,1.9122559,1.9510742,3.9583983
-1.2706054,5.256006,0.62368166,0.6300293,1.7738281
-4.1004395,1.6886231,-2.554541,-1.290625,0.12270508
-2.6521974,2.7208495,-2.677588,-2.4114747,0.29970703
-1.7830566,1.9518067,-0.75742185,-0.59165037,-0.55795896
-5.793799,1.7376953,-1.2024902,-1.6849121,-0.40878907
-2.3589845,4.9781737,-0.9480957,0.30996093,2.1744628
3.9952636,9.3146,3.942041,3.6439452,6.8392577
6.4132323,9.337305,6.416162,6.041162,8.766504
5.275293,9.217188,5.5121093,5.2330565,8.044825
4.8111815,9.136133,5.355127,4.271875,7.719629
6.2589355,9.415674,6.9444823,6.5035644,8.89834
4.7308593,8.120752,4.4552245,4.364404,7.2748046
4.5802245,7.3270507,2.9940429,2.438623,5.876123
-1.1897949,3.041162,0.1361328,-0.035986327,1.7765137
-2.0657716,3.6119628,-1.3047851,-1.5435547,3.0287108
-2.2344728,4.6793456,-0.9800781,-1.2806152,1.9171387
0.30410156,8.143702,3.6290526,1.971582,7.4154296
4.3219237,9.018946,6.1168456,5.634668,8.516016
4.329736,9.4769535,5.8148437,6.384668,8.917627
5.94375,9.551661,7.391992,6.878076,8.890772
4.8531737,9.473047,5.124658,5.2003417,8.38125
2.0895019,7.89541,2.7169433,2.402246,6.369287
7.0250487,9.75918,6.7105956,5.6581054,10.222071
8.809229,9.830957,9.348047,9.893702,10.538965
3.2596679,7.1026855,4.283838,4.049463,5.733789
1.3973633,6.299951,1.6981446,1.5399414,4.727197
6.9479003,9.31875,7.350488,7.70083,8.99502
6.9166503,9.141748,6.70083,6.848535,8.307032
5.6290526,8.908594,5.8148437,4.955713,7.789453
2.3065429,6.692529,2.7145019,2.9034667,4.97207
7.780908,9.296045,8.208643,7.942529,9.330225
7.8543944,9.109522,8.282373,7.9010253,9.233057
4.4469237,8.038233,5.3333983,4.9376464,6.5765624
2.8907714,7.394922,3.1251464,3.627832,5.344873
7.43667,9.451563,7.831201,7.7499022,9.318506
6.7103515,9.842188,6.799463,6.4725585,9.174707
3.1908202,7.3407226,4.095117,3.912744,6.0121093
7.966455,9.65127,8.686426,8.423975,9.638819
8.825586,9.852686,10.426905,10.582666,10.777491
8.819239,9.212549,8.536524,9.001123,9.625147
6.0436034,8.785791,6.7577147,6.522363,8.489649
7.258447,8.573389,8.71084,8.427881,9.214258
4.072168,6.8009276,5.0248046,3.69375,5.779199
3.581201,6.344873,3.351709,3.5902343,4.93667
2.9015136,6.7452636,3.6700683,3.350244,6.0035644
2.4007812,6.098291,4.3180175,4.089502,5.140283
0.04921875,3.9034667,3.1407714,3.296533,3.1698241
0.20473632,2.9098144,2.9725585,4.2174315,1.5936524
2.1637206,4.4554687,4.30166,4.3114257,3.8402343
3.6532226,6.2311034,5.383447,4.4972167,5.8717284
3.5162597,5.8722167,4.6029296,4.573877,5.378076
2.9957519,6.9969726,4.7606444,4.5643554,6.7589355
3.945703,6.565576,5.6825194,5.593164,6.940576
2.5335937,5.570947,3.8443847,3.3211913,4.5770507
2.4515624,6.720117,3.89541,4.1319823,5.6041503
4.4012694,7.5072265,6.0123534,6.054834,7.0699706
3.1327147,6.8355956,2.709619,2.9200683,5.5714355
-1.0252441,2.928369,-0.94541013,-1.2483886,1.1383301
1.7042481,5.388086,3.5541015,3.8453612,4.8009276
3.0855956,6.5746093,2.907617,3.2291503,5.3236327
4.664697,7.6048827,5.39541,5.7765136,7.692529
5.9535155,7.522119,6.9513183,7.1187987,7.792871
7.343164,7.5106444,8.414698,8.384668,8.741358
7.727197,8.029932,7.860254,7.4015136,8.29458
5.855615,7.956201,7.647363,6.1671386,7.3583007
6.209863,8.509424,8.986475,9.496241,9.024561
6.740625,9.693018,7.504541,7.1185546,10.517237
6.70791,8.510157,7.652002,7.4049315,8.244043
6.640283,8.0375,7.527246,7.7625976,8.32583
6.3614745,8.119532,6.459619,5.7958007,7.268213
7.34707,7.4674315,7.690576,7.841211,8.355616
6.9100585,8.560205,8.078028,7.9901366,8.909082
6.2330565,7.914697,6.8060546,6.8177733,7.645654
7.961572,9.020655,8.408594,8.492334,9.124903
9.669825,9.550196,9.70083,9.970118,10.00918
9.004541,9.308496,8.604395,9.1471195,9.741602
7.574121,8.181543,8.610743,8.944971,8.801172
8.816553,8.708399,8.91958,8.960596,9.814112
7.4132323,8.426416,9.120508,8.63125,9.6939945
8.441065,8.263575,8.780664,8.672022,9.326075
6.0155272,7.251123,6.267236,6.094873,6.6166015
4.9742675,6.5714355,5.383447,5.711084,6.0816894
6.78457,8.172022,9.052149,8.689356,8.234522
8.0099125,7.9669433,9.211084,8.810205,9.4396
8.132715,7.978906,10.157618,9.765039,10.535791
7.755029,8.466211,10.347315,10.077051,10.41128
8.861963,8.964258,10.986963,11.493555,9.820215
9.156153,9.064112,11.4474125,11.233301,9.557764
7.79458,9.0064945,10.437159,9.920801,10.479639
5.551416,8.280909,7.454492,7.25332,8.208399
5.445703,8.900782,7.164453,7.067041,8.022608
6.6688476,9.26919,8.007471,7.78457,9.496485
2.9588866,6.3094726,3.1058593,2.893457,4.7901855
3.3453612,7.086572,5.11416,4.2171874,6.617334
9.343897,9.371729,12.064844,11.774805,10.357813
10.934717,8.861231,12.130762,11.526026,12.0255375
8.844873,9.298243,10.176416,9.482569,11.0880375
9.102442,10.159082,12.24795,11.448633,11.695948
9.653467,9.594629,11.142237,10.756739,12.578028
8.725733,9.69253,10.382471,10.490625,10.295313
10.512842,9.59878,11.363916,11.415918,11.166895
11.765528,9.896631,12.399561,11.7521,12.462061
13.803614,11.135401,14.714991,14.323389,15.096827
13.206934,11.499903,11.395166,11.089991,11.629053
9.572901,11.128809,10.284327,11.1644535,10.5863285
8.643946,8.722803,10.10586,10.047022,9.56045
7.9151855,8.971338,10.23208,9.875635,8.715967
10.203028,8.873926,11.8832035,11.829981,11.250635
11.121241,10.8380375,13.685938,13.947168,10.711573
10.386866,10.116358,8.739649,8.527246,10.308252
3.2135253,5.813379,3.5841308,3.4813476,5.251367
4.2591796,6.7174315,5.535547,5.0785155,6.0936522
6.1427245,8.44668,7.834863,8.689844,8.558741
8.234278,8.457178,9.079248,8.961573,8.238672
8.612207,8.503565,12.064112,11.88125,10.40127
8.429102,9.346338,5.876123,6.2186522,10.552881
4.7000976,9.098536,4.4305663,4.044336,11.3658695
4.5177245,8.691553,5.5575194,4.8629394,7.324121
4.056543,4.951074,4.5973144,4.372949,4.4674315
6.015039,8.981836,7.9044433,8.43667,8.920313
10.07168,8.402979,11.610254,11.042139,10.913477
11.699854,8.248194,11.89126,11.797998,10.403223
13.171534,9.695948,11.323145,12.633936,12.039698
14.374903,10.334864,12.098291,12.609766,12.488672
14.506983,10.429834,14.15127,14.470606,14.120508
17.263819,9.558252,16.89004,16.947657,16.732813
14.17251,11.053858,11.391504,12.04043,12.31753
9.2877445,10.591944,10.019434,9.567041,10.434961
5.7018065,7.9652343,5.3722167,5.3614745,8.23208
8.144678,9.653223,9.962305,9.737696,9.0567875
13.57461,10.392481,12.340723,12.392725,13.451319
12.961573,11.841455,12.827051,12.761866,13.968897
13.4439945,13.479883,16.671534,15.996485,15.309229
12.198633,12.843164,13.985743,14.2564945,13.776758
9.716455,11.468897,10.850733,11.243799,11.840967
12.167871,11.298243,13.473291,13.829004,10.769434
10.288477,12.558985,11.482813,13.522852,11.490381
12.099756,12.675684,15.636133,15.783594,11.620508
12.395166,14.927637,15.760401,16.619287,15.373926
11.991602,13.229151,12.170557,13.549952,13.574366
13.854639,15.6625,13.947168,15.961817,15.416407
12.3675785,15.153223,13.786036,14.613184,15.163233
11.312647,14.639063,12.076563,13.975489,13.901758
13.420313,13.691065,14.683008,15.523584,13.16836
9.411036,13.220606,13.830469,14.27627,15.539942
12.192774,12.501123,14.997461,15.706446,13.877344
13.370996,12.973536,13.761621,13.698389,13.651758
12.037012,12.598291,12.955225,12.871485,12.389063
14.313379,12.186426,16.27505,16.302149,15.386621
14.244532,12.684961,11.819971,12.299463,13.522608
10.994043,11.616846,11.341944,11.833155,11.729883
12.160791,12.180323,12.03628,11.364405,12.319727
13.068018,12.16128,14.589014,12.798243,15.079737
14.614649,12.96377,13.087305,12.626612,12.98208
17.941065,16.206446,17.383448,17.87295,16.161036
13.686182,14.582422,11.221338,11.001368,15.144922
9.098047,9.968653,9.387354,9.49502,9.566309
12.009424,11.47793,11.799952,11.643946,12.588526
10.876123,13.181299,12.985743,14.41128,15.550684
8.955469,11.504541,8.7252445,9.997705,11.621485
11.201807,13.421289,12.118799,11.912989,12.830225
15.56167,13.590235,14.659571,15.048975,17.141504
14.487696,12.902735,14.210596,14.097071,15.622461
14.138819,13.241846,14.388575,14.704493,15.590479
14.673731,13.39419,16.062647,15.917139,16.882471
17.182276,13.6817875,14.652979,15.736475,14.984034
14.494532,13.658838,14.635889,14.403223,16.369776
19.12002,18.377832,14.711817,16.264551,19.397608
17.594141,14.931299,15.6019535,15.771875,18.606592
15.8207035,14.219141,16.815088,16.562403,14.206202
11.94253,15.894434,15.62295,16.443995,15.906885
14.550196,14.40835,14.55459,15.101465,17.301172
14.646875,13.527246,14.832178,15.402246,15.731104
14.597559,13.728418,14.328516,15.687891,15.2755375
14.767237,13.773096,16.224756,15.579248,16.79751
16.149317,13.519434,15.629786,16.884912,17.308496
15.574854,13.807276,15.785791,15.815332,15.126123
17.664454,14.676416,15.552393,17.32754,17.050196
16.942774,14.453028,15.542383,16.336084,16.821436
14.708887,13.9005375,14.371485,15.357569,15.33169
14.079737,13.936426,14.757471,14.76919,15.636866
16.11587,13.993555,15.503077,15.815088,16.658594
16.329004,13.934961,16.92129,16.447657,16.589014
15.477198,13.829493,16.480616,16.683985,15.63833
14.249414,13.66128,14.516748,14.309473,15.518213
12.632959,15.961084,16.546045,16.976465,16.489893
14.69375,14.2721195,13.6661625,12.905176,19.234278
18.457422,17.211573,18.532373,18.81045,19.643213
22.981836,16.956446,23.363428,23.90249,20.182764
22.553858,15.447168,22.366358,23.37124,19.613916
25.758204,17.028711,21.587793,21.389551,16.844873
19.652246,17.389551,20.127588,19.918848,17.343164
14.261377,16.586084,17.44082,17.722559,16.160059
11.478174,14.72378,12.582178,12.111719,14.244532
16.11587,15.45083,15.88833,17.422022,16.375635
15.377344,16.005274,15.035791,14.481836,15.617334
14.170801,15.84292,18.024073,17.242579,16.553858
17.250391,15.955469,16.250147,16.54458,16.951075
18.324854,16.655664,17.886133,17.873926,18.571436
18.815088,16.582422,18.22915,17.39248,19.860254
17.579004,15.924463,19.012842,17.785303,18.218164
17.77749,16.398584,17.753565,17.976465,18.99624
17.98208,16.540918,18.471338,17.943506,18.802881
16.096338,16.568995,18.047754,17.686426,17.588526
18.483057,16.340235,18.142725,18.284815,19.001123
18.785059,16.838282,18.956202,18.946192,18.610254
18.051905,16.84463,19.004053,18.438868,18.457422
19.071192,16.713037,19.10293,18.538965,19.539454
19.785547,18.8146,18.836329,18.446192,19.414942
19.011133,17.940088,18.07583,18.629053,18.937891
17.261866,17.244776,18.451319,18.873682,19.672998
18.535303,18.48208,17.718409,18.104883,18.976465
20.772364,18.091455,20.916895,20.65835,19.487207
16.138086,16.170069,15.102686,15.189356,17.327295
16.200098,16.386866,17.102442,16.311426,17.820704
19.430323,16.68081,18.658594,18.543116,18.27505
19.947412,17.063868,18.22085,18.62124,17.4479
20.626612,18.509424,21.153467,21.401026,20.199121
16.178858,17.356104,16.233301,17.06582,16.632227
15.835352,17.14297,15.768213,15.614893,17.389063
17.668604,16.086573,18.494287,18.742334,16.565577
17.684717,16.921778,17.7521,17.798243,18.037989
17.489893,16.599512,18.85586,18.231592,17.736475
18.443506,17.215479,18.819727,18.795557,17.605371
18.750635,17.366114,19.88711,19.359278,20.133936
17.242334,17.351465,17.945215,17.74209,17.488184
15.204981,16.557276,15.952784,15.71377,16.283594
13.822657,16.887598,13.68667,15.246485,15.638086
17.14248,17.832422,18.734034,18.317774,19.764551
18.171045,17.982569,18.016504,15.917383,19.53457
17.980127,17.653223,17.438623,17.573633,17.237696
17.770899,17.95547,17.35586,17.1625,19.19546
16.675684,17.938868,15.245264,15.402002,19.953028
18.057764,17.617334,19.123194,19.1,19.241358
17.374903,17.743555,17.211084,17.352198,17.800196
17.214258,17.631495,17.26626,17.143457,18.568506
18.729883,17.569239,17.691797,17.517237,18.634912
16.974268,17.781397,17.30166,17.14956,19.167871
17.75332,17.225,17.440577,17.540674,18.562891
19.988672,18.929102,19.770166,19.1542,20.718409
23.360254,22.667383,23.164698,21.906153,26.027735
17.826319,16.95376,19.54336,19.082422,17.016504
20.093653,17.714014,17.132471,17.347803,17.812403
20.530909,17.74331,17.96084,18.732569,19.772364
25.050684,19.773829,25.448633,24.829004,23.021875
16.6188,16.423975,15.955469,16.13711,17.454493
16.412012,16.51797,15.757471,15.489893,17.13296
18.43081,16.880274,17.271387,17.064844,16.449121
13.469873,16.08584,14.378321,14.140528,14.668604
14.761377,15.544336,14.895411,15.288477,15.073145
12.645166,15.185938,14.654688,14.41128,15.382227
11.683008,14.936182,13.15835,12.596827,15.098536
11.550196,13.918604,11.766016,11.641748,13.225
15.334375,16.45498,15.651758,15.760157,15.858545
16.608057,16.862696,17.561426,17.203516,17.772608
13.872705,16.820948,14.114649,13.709864,15.422998
14.246729,15.719873,14.398584,13.956934,17.21255
14.221582,15.731836,15.109766,15.011621,14.830713
14.000147,15.402979,14.958887,15.548243,15.514307
12.432032,14.364161,13.385645,13.061182,13.513819
9.3067875,14.393702,12.779932,12.545801,13.131739
13.072168,15.235743,13.317774,12.57168,14.2877445
14.17251,16.094385,15.097803,15.477686,15.837061
14.133448,16.29214,14.487452,14.109278,14.9125
17.0375,16.486475,14.816553,15.0846195,16.191553
19.291895,20.863428,17.424707,17.245508,19.276026
19.446436,18.715723,18.781641,19.088037,18.56875
12.886621,15.740625,13.719141,12.875147,14.016016
14.726221,16.527979,15.965967,15.154932,16.978662
14.250635,16.06045,14.667871,13.894678,15.315821
12.980371,14.853907,11.812159,11.377832,14.131739
14.151514,15.429834,14.089258,13.547266,14.853174
14.829493,15.370996,14.302149,14.861475,15.373438
13.865625,15.111719,13.257471,13.557032,13.725489
12.671778,14.88003,13.244532,13.319727,13.731104
11.646875,14.17959,12.176416,12.579981,13.486963
10.505518,13.6644535,10.653223,10.499414,12.162989
11.635889,14.028711,12.372461,12.033594,13.692286
11.409327,13.3050785,11.741846,11.431299,12.695459
10.638575,12.252588,10.907373,9.875879,11.604639
7.082666,9.362207,6.90957,6.345117,8.368799
8.240381,11.468409,9.791407,9.795313,10.783106
9.128077,12.91543,10.026026,9.84878,12.516016
11.12417,12.486231,11.706202,11.226221,12.002832
10.835352,12.615625,11.068262,11.165918,12.145166
10.889307,13.268946,10.737696,10.120996,12.578028
6.3351073,11.449366,6.7401366,7.0433593,9.687647
9.140528,11.691309,9.864161,9.905664,11.090479
10.6002445,13.141016,11.941065,11.854151,12.451563
9.810205,13.13125,11.030909,10.87295,11.890284
10.175928,12.684717,11.227442,10.886866,12.298731
10.846582,13.91836,11.918116,12.061914,13.744532
9.453028,13.256006,10.223047,9.8363285,11.550196
10.349756,13.399561,11.233789,10.798243,12.539942
9.695459,12.325342,10.641016,9.946192,10.263819
7.136621,10.97085,8.704004,8.354151,10.210596
8.479639,11.646631,9.879541,10.488916,10.048243
11.129541,12.72378,12.018702,12.159815,11.737696
11.910059,13.316797,12.0707035,12.985498,12.594385
9.511621,12.570215,10.331202,10.313135,9.989161
6.259668,10.782618,6.7625976,6.756006,8.455225
6.499658,11.667383,7.5243163,7.3089843,10.050928
8.915918,12.4942875,10.34585,10.744532,11.856836
9.662256,12.575342,10.629053,12.1158695,12.564844
10.352442,12.907862,9.974512,10.858545,12.966944
9.342676,12.701563,9.601465,10.008448,11.878077
8.425928,11.000391,9.598291,9.270899,11.006739
4.294824,10.008448,6.4569335,7.244043,8.894922
3.82583,9.495752,8.143213,7.735254,10.207178
4.801904,9.870996,5.500879,4.8734374,8.179834
5.6812987,12.183741,5.3336425,5.256006,11.657373
6.0780272,9.9786625,6.63125,6.5416503,9.070215
5.7955565,9.923731,6.853906,6.789697,8.872461
8.356104,11.976465,8.7286625,8.529444,10.535059
10.870996,12.659815,11.8502445,11.981836,12.308985
10.721338,10.9457035,7.350244,6.985498,9.339746
5.440332,10.047022,6.6615233,6.454736,8.268702
5.0626464,10.212793,5.494043,5.3680663,8.188623
5.0702147,10.2721195,4.5853515,3.9251952,8.13003
2.2931151,7.4461913,3.4864745,3.2313476,6.0750976
1.2057129,8.644922,1.1214844,1.9144531,6.063867
2.4552245,9.802881,3.7726073,2.8885741,7.9359374
3.6217284,9.574854,3.9332519,3.9859862,8.128565
5.587793,9.581934,5.3089843,5.386621,8.016748
2.1180663,6.3980956,1.7936035,1.9491211,4.6620116
-1.1495117,5.437158,0.18544921,0.19521484,4.28042
0.6178223,6.9151855,1.2015625,1.8587891,4.3268065
-1.4649414,4.1791015,0.7794434,0.8304688,2.7474608
0.5819336,7.096582,1.424707,1.5870606,4.9410644
0.58388674,6.5399413,2.6791015,2.2572265,4.2437987
0.32998046,5.407617,1.9342285,2.4950194,3.5660644
1.4300781,7.3634276,3.5050292,3.1935058,5.6827636
1.8780762,6.867578,0.7325684,1.1449219,5.7518554
1.9100586,9.561426,3.0873046,2.4000487,5.74624
4.2108397,10.193018,3.4210448,3.483789,8.270166
