"[299, 255]","[227, 248]","[287, 319]","[279, 328]","[230, 262]"
8.083399,11.607813,8.396387,7.55166,10.394678
4.8409667,11.33169,7.0821776,6.011621,8.039209
5.926904,10.07461,4.1483397,5.032861,7.680322
5.218164,9.92959,5.6561522,5.475244,7.6654296
4.6615233,8.443018,3.2972655,2.5709472,7.270654
4.2296386,8.05752,0.9833008,0.70107424,7.174707
2.6444335,9.260157,2.3663573,1.775293,7.325586
3.7279296,9.401514,3.414453,3.2210937,7.536279
6.56167,11.452295,7.030664,6.478662,10.629297
7.957422,10.692041,7.0782714,6.843164,8.788233
4.0609374,8.477198,5.050195,4.761621,6.756006
4.322656,9.183008,6.0438476,5.825586,7.021631
4.625879,10.377588,5.822656,5.533838,8.554102
8.132227,11.018946,9.240137,9.046289,10.512842
8.269678,11.277491,9.311914,9.4300785,10.531885
4.7330565,9.808496,5.966211,5.6603026,7.7240233
4.640283,9.068506,6.3229003,5.95083,7.5699706
5.0213866,8.861475,6.343408,6.407617,7.341699
4.2469726,7.343164,5.6112304,5.1983886,6.568506
3.4813476,7.51333,4.3646483,4.169336,6.190332
3.690332,8.57876,4.7628417,4.4430175,6.296045
5.2052245,9.808985,6.265039,5.7799315,8.118555
2.9532714,7.725,4.412256,4.1874022,5.77749
3.1200194,8.274805,5.1617675,5.0938964,6.655664
3.04458,7.8282714,3.0604491,2.9569335,6.174707
-0.16245118,4.8565917,1.6480957,0.94521487,3.3011718
-1.8182129,3.0865722,-1.3250488,-1.5333008,1.7037598
-3.2581544,3.6773925,-2.2740235,-2.7369142,1.6695801
-0.14951172,4.8231444,0.52993166,-0.24228516,3.119287
-0.90463865,4.9710937,1.4537598,1.3470703,3.813867
-0.37338868,5.829736,0.8250977,0.6634766,3.8873534
1.0025879,9.506983,2.584619,2.221826,7.8280272
3.3800292,9.797266,4.6600585,3.2359862,8.896387
0.019189453,5.7281737,1.2472168,1.3067871,2.7748046
0.3783203,6.1388183,2.1698241,2.119287,3.6212401
1.6427246,6.6551757,1.8788086,1.3229004,5.6026855
-0.6592773,5.5174804,-0.62094724,-0.7691406,4.5091796
0.32387695,4.610986,0.2845703,0.08095703,3.9818358
-2.3196778,3.5477538,-1.9827636,-2.101172,1.8978516
2.2486815,8.358545,1.4139649,1.358545,7.1737304
6.3597655,9.560694,4.790918,4.365625,9.189844
6.922998,9.419336,6.3299804,6.2240233,9.574121
6.580713,9.25503,6.8944335,6.6341796,8.739161
1.8458496,6.5663085,2.770166,2.4251952,4.5523925
-0.066748045,4.1031737,-0.15683594,-0.724707,2.3158202
0.24282226,5.9154296,0.7469727,0.27456054,4.025537
1.5545899,7.384912,3.73916,3.8734374,6.565576
7.3299804,8.818262,3.3993163,3.3480468,7.415918
7.6187987,8.407373,5.869043,6.1952147,6.001367
5.449121,6.4706054,4.573877,3.2186522,4.96499
1.617334,5.357324,1.1151367,1.4571778,2.720117
1.1478516,3.8028808,0.98476565,0.85732424,2.855371
-0.3926758,2.6126952,0.27041015,0.12294922,1.6976563
1.0450684,5.0924315,-0.06088867,0.63686526,4.44375
1.1700684,6.5020995,2.2230468,2.088037,4.861963
3.1971679,6.9395995,1.8546387,1.8285156,6.8338866
2.3111815,6.954004,3.565332,3.4725585,5.7467284
1.8873535,6.4554687,2.0658202,3.032373,5.242334
0.30239257,6.251123,0.52431643,0.4095703,3.077783
0.8912598,6.959375,2.2154784,2.438867,6.2157226
3.3226562,6.6895995,2.3724608,2.811914,5.610254
0.17446288,4.192285,2.9186034,2.7555175,2.7293944
3.192041,8.155909,2.909082,2.351709,7.5736327
4.0694823,7.6876464,4.136621,4.228662,6.848535
4.344873,7.9950194,3.9332519,4.124414,7.796045
5.548242,9.179346,6.9513183,6.8861327,9.256006
8.51919,8.848536,7.627832,6.752832,8.639063
6.3438964,8.332178,6.1998534,6.266504,7.205957
5.046289,8.358789,6.9464355,6.4427733,7.3336425
4.2887206,7.1151366,4.9620605,4.2538085,5.936914
3.4269042,7.574365,2.6883788,2.5599608,6.016504
4.738916,8.935205,0.97402346,1.620752,8.001368
8.745752,9.592676,7.318994,6.107324,9.804346
7.2711425,8.61709,5.4242187,5.88833,7.0924315
5.966211,8.454004,3.0506835,4.1703124,8.395166
4.3473144,8.317041,5.5973144,5.2921386,7.1217284
6.8055663,9.079737,7.173242,7.076074,8.677637
7.742822,9.608057,8.76333,9.015284,9.803125
8.832911,9.396631,8.8519535,9.125879,8.9925785
9.030664,9.59585,8.691797,8.642481,9.914698
10.1939945,10.24502,9.108545,9.827295,10.441309
9.359278,10.167139,9.224756,9.192286,10.251368
11.56167,11.493555,9.228907,9.780909,11.788965
6.4605956,10.433985,6.834375,8.005762,10.045557
3.9308105,8.173975,6.329736,6.0833983,7.0250487
3.9903808,7.289453,6.2159667,6.2279296,6.3385253
2.4852538,7.955713,4.459619,6.492822,5.834375
6.739404,9.358789,9.422754,8.881983,10.758692
7.723535,8.442041,10.16543,9.387598,9.139063
3.455957,8.19961,5.9364257,6.065088,6.54458
3.9203124,8.970362,6.1214843,6.8165526,9.544336
7.4342284,9.101465,9.788965,9.239405,10.243799
8.183496,10.191797,10.272364,9.625147,10.768213
11.3067875,9.919825,11.580957,11.054346,10.815821
11.035059,9.080225,10.561914,10.58877,9.846094
8.004297,8.610498,8.795313,9.310938,8.58584
6.536035,8.587061,7.3456054,7.311914,8.732813
6.7330565,9.651026,8.206202,7.697656,9.005518
8.419336,9.601709,10.099756,9.739649,10.1817875
7.63125,9.633936,9.440332,9.629541,9.683496
4.216211,6.959619,4.1114745,3.61416,6.3770995
5.6327147,9.274805,2.4464355,2.2123046,8.225733
5.392236,9.162256,3.9945312,4.244287,9.439112
7.8526855,9.245508,9.141993,8.359034,11.302149
7.702783,9.0846195,8.92959,9.009424,9.693506
5.1197753,8.702784,5.083154,5.0978026,7.3546386
4.1512694,8.24917,5.4046874,4.5138183,7.4225097
8.081934,10.281153,10.042139,9.608789,11.021875
5.801172,9.527979,7.6043944,7.6444335,11.308985
5.2953124,10.168116,8.51211,9.272608,10.318018
8.483545,10.79336,8.017969,8.1896,11.267725
9.597559,10.453272,9.884668,9.91128,11.323145
7.740625,9.385401,8.093653,8.233789,8.520655
5.7350097,9.414942,7.1117187,7.1825194,10.949121
7.483789,10.025049,8.5082035,8.316797,9.262354
9.433496,10.108301,9.387598,9.425928,10.244532
7.2901855,8.95376,8.237696,8.239405,10.093897
8.936914,9.457178,10.802393,10.466944,11.454737
9.792871,9.266016,10.141504,9.692774,10.63833
8.513575,9.453028,8.902735,9.278223,9.933252
8.392237,9.4042,8.303125,9.229639,9.822657
9.860743,9.326563,9.913233,9.8224125,10.958155
8.645166,9.610498,9.173243,10.296289,9.338526
9.593653,9.222803,9.306055,9.418848,9.680323
8.280176,8.45669,8.902246,8.855371,10.082178
6.9356933,8.824854,6.8426757,7.855371,8.503809
7.7655272,8.173243,7.2257323,7.060449,7.3370605
5.5694823,8.50503,8.132959,8.265528,7.73916
4.93374,7.7611327,10.189356,10.101709,8.34292
11.647852,12.100489,11.9786625,11.934229,10.909815
8.858301,11.138819,8.065332,8.371973,11.171778
12.328028,11.117823,9.711084,12.503077,10.714502
10.605371,12.13711,11.605616,13.225,12.003809
12.024317,11.826807,13.133692,14.725,11.283838
9.978907,12.530176,12.093409,12.846338,12.544092
9.199121,11.266748,10.633692,12.271875,10.750879
12.167383,11.531397,13.726709,13.020655,10.824854
14.345362,10.363672,16.527735,15.42544,14.390772
9.677881,10.589991,14.219385,14.184473,12.082911
13.938135,10.639551,15.579737,15.335108,13.06753
10.433496,11.044092,12.354883,11.775782,11.869532
8.9630375,10.614893,9.730616,9.165918,10.55752
7.054834,7.984033,7.659326,7.822412,8.076807
5.1251464,6.490625,5.6893554,5.9220214,5.6927733
2.5956054,5.6378417,2.938623,3.456201,4.6239257
5.501123,7.3055663,7.5387206,7.800195,7.9999022
9.674219,9.429834,9.6036625,9.488916,10.225489
9.403955,11.64419,8.995264,9.042871,10.491602
12.346094,11.319727,13.858789,13.50625,13.035547
10.250147,10.535059,11.864649,12.294336,11.229395
10.333643,11.647852,13.07583,12.6505375,12.030909
12.116602,11.5238285,13.61709,13.238916,12.459131
11.095606,10.334864,11.601221,11.410303,12.202295
12.30044,10.964502,12.145411,12.135889,12.169336
12.303858,11.217188,13.056055,12.973291,12.690088
11.266993,11.824366,12.20376,11.760157,13.355127
10.2877445,10.923975,11.335596,11.012842,12.414698
11.041895,10.704004,9.919092,9.897608,12.792871
6.70791,8.863672,8.66128,8.51919,8.691553
5.65249,7.823877,7.199365,7.577295,6.8202147
7.4710937,8.481836,7.8770995,7.94375,8.336084
5.689111,8.499414,6.2606444,6.475244,8.813623
7.388574,8.930567,10.269434,10.12002,8.683252
8.5567875,9.727442,10.106836,9.122217,9.71792
11.158594,10.411524,11.859278,12.241602,11.004541
12.3519535,11.149073,13.043116,12.469629,11.346827
13.122217,12.506983,13.351709,13.578028,12.976709
12.221827,11.997217,13.389063,13.391993,14.160547
13.483545,12.629297,15.531885,15.527002,14.915674
12.713282,13.179834,13.621973,14.044092,13.171289
16.285791,13.153467,16.829493,17.503565,13.411036
11.469141,11.556543,13.6349125,15.32168,11.587061
12.713526,11.903467,12.713526,12.09292,13.303614
14.068262,12.643457,14.718409,14.380274,13.569239
17.311426,13.504541,17.059717,18.087305,16.469141
19.333155,14.61294,18.987452,19.0646,18.07754
20.396875,17.444727,20.686182,20.872217,21.245264
20.889307,19.051905,20.654688,21.026758,20.730371
21.374414,18.225977,20.413721,20.715723,19.523584
21.734034,18.665918,19.927149,19.258204,20.030176
15.393702,14.409327,15.99795,16.45376,15.723536
19.708643,14.501123,16.506495,16.777735,16.905909
22.833643,18.211817,22.69082,22.86416,20.377344
17.091944,14.930811,18.927637,18.249903,16.85464
18.168848,15.30459,17.669092,18.03042,17.544336
15.840967,13.849024,16.445704,16.950342,16.591211
16.271631,14.854395,17.67959,17.4938,18.193995
17.936182,15.474756,18.544092,17.97793,17.945215
19.403467,15.153711,17.65542,17.650293,17.916407
16.161768,14.999414,17.862207,17.896143,16.927393
16.596827,16.247705,15.870264,16.329004,15.912012
13.528955,14.594385,14.153467,14.114893,13.534327
14.134424,14.096338,14.866358,14.97378,15.058008
16.203272,14.486231,17.37002,17.414942,16.54751
19.080957,14.698633,17.446924,18.482813,16.402979
16.990381,15.318506,17.19082,17.990625,16.088526
16.170801,15.309717,15.565577,14.89834,17.319727
20.198877,15.590479,21.734522,22.100733,21.097559
23.415674,16.834375,22.617334,22.841944,24.056543
15.885889,15.486231,16.63296,16.3146,16.335108
13.546045,15.483545,14.068506,14.440332,16.158594
17.164942,14.458399,16.958643,17.271387,14.839258
16.370508,16.598536,17.113916,17.230127,17.007471
17.910791,16.730127,19.105127,19.38003,17.17544
17.99209,16.343164,19.35415,19.213037,17.113672
17.27212,17.608057,17.707422,17.805567,18.452295
14.318262,16.71792,14.688623,15.017969,16.910059
12.183252,13.568506,12.329981,12.812403,11.866358
11.8658695,14.439844,13.815332,13.931055,13.597803
12.342676,14.404688,11.885401,11.657618,14.9127445
13.50503,14.672266,12.870996,12.773096,15.447168
14.1939945,15.619043,13.210352,12.631006,14.864405
18.483545,16.70962,18.36123,18.479883,18.805079
19.571192,16.393457,19.37588,19.906397,18.15957
17.225733,16.074366,18.477442,17.859766,17.741602
18.597803,15.490381,15.310205,12.968409,17.466455
13.37417,15.151514,14.968164,14.568018,15.18252
14.493555,15.181299,15.047022,14.887598,15.712549
15.818262,15.97085,14.804834,13.981104,16.467676
15.672754,15.693506,16.33169,15.96377,16.088526
13.036524,13.975733,15.625635,15.5724125,15.001368
12.171778,14.654932,13.926905,13.2521,14.255518
14.970606,14.524317,13.985498,14.038721,13.715967
12.988428,14.694483,15.44253,15.661768,13.656641
14.110254,14.72793,14.340235,14.171534,15.6019535
14.238916,14.716211,15.915186,16.465967,15.489161
15.123194,14.545557,16.61831,16.670801,14.859766
16.028467,15.553858,14.475,15.712061,16.566309
15.195459,15.527979,15.761621,15.535791,15.186182
14.0567875,15.044825,15.987207,15.80752,15.136621
16.865381,15.388819,14.566309,15.163233,17.38125
16.574366,16.436914,17.814356,18.519678,18.01089
17.941065,16.207178,18.591211,19.294336,18.56582
17.990381,17.105371,17.616602,18.07168,17.396387
22.058252,16.67251,22.40542,22.514307,18.757471
16.732813,16.172022,17.306787,18.175684,17.944239
16.45669,16.198877,17.951319,18.51333,17.021631
13.178858,15.48208,14.973536,15.9042,14.278955
15.970362,15.102686,17.033838,15.959375,15.849024
15.130274,14.11294,15.401026,15.744532,14.316797
15.2911625,16.406153,15.620264,15.852442,16.48623
16.67666,16.076319,16.935205,17.76797,16.172266
15.047998,15.166895,16.186182,15.007227,15.843653
12.76919,15.284571,12.687159,12.518213,15.0846195
15.091455,16.387598,16.427881,15.72793,16.165918
14.244776,17.089502,15.373438,15.789209,16.090967
14.5646,16.761866,14.764307,15.192041,15.721338
12.844629,15.904688,12.822901,13.214502,14.518702
16.35879,16.386377,17.599756,17.358057,16.755274
14.4005375,16.865625,16.827784,16.296778,17.09463
13.530909,15.386377,14.09878,14.0021,15.241602
12.346338,15.3502445,13.214014,13.205713,14.4667
14.725977,16.066797,10.313379,10.512842,17.773584
14.194727,15.441797,15.006006,14.77334,14.83169
14.332422,16.559229,16.16714,16.02334,16.501123
14.225489,13.938379,15.904444,15.475,13.932764
14.662989,16.4667,15.882715,16.15249,16.074121
17.746729,16.000147,16.842188,17.327051,17.008448
16.023584,16.16836,16.514795,16.381983,17.575098
15.549463,15.753565,16.575098,16.331446,16.710352
16.829737,16.925196,19.037989,18.64248,19.21963
14.368311,16.040674,15.5082035,15.459375,16.61001
14.462305,16.444971,15.966455,15.615381,16.012598
17.981104,17.242823,16.934717,16.427149,19.648096
18.394922,16.912745,16.923487,17.1813,18.365625
23.184229,16.72207,18.164454,18.961817,16.443995
17.445704,16.718653,17.187891,16.783838,18.694483
11.3658695,13.644678,12.911768,12.778711,13.059473
11.577295,13.416651,12.4439945,12.570948,12.990137
11.445459,14.612207,13.23794,13.474024,14.112452
15.916651,15.940577,15.693018,15.250635,15.820459
17.407373,15.810694,17.632471,17.037012,17.850733
14.213282,15.332422,15.643702,15.56753,16.004297
12.506006,15.440821,14.808008,14.267481,15.0707035
13.910059,15.412256,16.2875,15.887842,16.42837
13.601221,15.549707,15.052881,13.655664,14.313379
13.571436,15.437647,14.073145,13.913721,14.840723
14.790918,15.476465,15.761377,15.759668,16.903223
17.324121,15.593653,15.499414,14.5411625,15.889063
12.6896,15.200098,14.410059,14.07583,15.394434
14.147852,15.67251,14.214991,14.280664,16.136866
13.003321,14.824366,13.147608,12.440332,14.73501
13.222071,15.784327,13.379053,12.979151,14.819239
11.019922,14.382959,13.054346,12.8417,13.182032
12.757227,14.03628,13.499659,13.57461,14.1488285
13.293848,15.078272,14.11001,13.893946,14.827784
12.945215,15.104639,14.261377,14.491358,15.783106
12.242334,14.861719,14.273584,14.3849125,15.297998
12.875391,14.433252,14.838282,14.855371,15.379786
13.277002,14.906885,15.18667,15.150293,15.38418
13.266993,14.796289,13.717188,13.793604,14.714746
12.86001,14.472559,14.90127,14.828516,15.49502
11.777979,13.256983,15.19375,14.580957,12.663233
12.781641,14.70376,14.084375,14.016016,13.818506
13.357813,14.01919,14.538233,14.67959,14.774561
14.011621,14.886621,14.9474125,14.394434,15.798487
15.715479,14.747217,15.409082,15.750147,15.792627
11.349512,14.479395,11.599268,11.322657,13.856348
11.051416,14.081934,11.6644535,11.400049,13.7721195
10.976221,15.350733,13.212793,13.461817,16.208887
11.241602,15.217676,11.580469,11.956934,15.919825
12.776514,14.190577,11.553858,11.692286,14.215967
11.989893,14.79336,12.655664,12.413477,14.225977
12.072657,15.045313,11.93545,11.764307,13.809473
13.3692875,15.088526,14.067286,13.980616,14.537012
13.335352,15.062403,13.637354,13.117823,14.0375
10.817041,13.784327,11.327295,11.313623,13.078028
9.391993,12.889307,9.697901,10.118799,12.273096
8.284082,12.465723,9.028467,8.959131,10.7564945
11.909327,14.207911,13.04458,13.0880375,14.124414
12.451075,14.520166,13.888819,13.391016,14.176172
13.228418,14.565088,12.95376,12.626612,15.039209
13.5724125,14.087061,14.30752,14.484766,15.795069
12.267481,14.002588,13.429346,13.084864,14.676416
13.109278,14.5375,13.500635,13.683008,14.002344
7.2867675,10.943018,7.600244,7.539697,8.698389
6.1390624,10.176905,6.7503905,6.5716796,9.0550785
10.062647,12.919336,11.326563,10.978174,11.931299
10.089502,12.972803,10.378809,10.437403,12.109034
9.231592,12.492334,10.233301,10.567041,11.31875
11.506739,12.889307,12.217432,12.028711,13.469141
10.260645,12.591455,11.608789,11.980127,11.937159
8.580957,11.1314945,7.9308105,8.295557,10.531885
7.2257323,10.737207,8.268213,8.361475,10.122705
6.3424315,10.90127,8.299463,7.634912,10.916895
6.0702147,10.128565,7.4330077,8.473536,8.056055
6.613916,9.855127,8.822168,9.073877,9.418848
6.641992,9.916651,7.7674804,7.4674315,9.105616
5.646875,8.62295,6.3700194,5.671289,7.6688476
5.6632323,8.968164,6.0106444,6.6549315,7.698877
5.728906,11.560938,5.5746093,5.5404296,10.198389
7.344629,12.544825,8.9042,8.856104,11.690332
10.675928,12.780664,11.448877,11.394678,12.527979
8.565088,12.419825,10.897852,10.406641,12.057764
11.110743,13.536036,12.364649,11.944727,13.501123
10.744532,12.367823,11.861475,11.43667,12.431055
7.577783,11.724268,8.079737,7.829736,10.503077
6.942041,11.842432,8.804102,7.839502,10.7408695
10.864649,12.559717,10.680323,10.864649,12.70083
11.741114,13.039209,12.854639,11.952539,13.001123
11.506006,12.949854,11.9667,12.131739,12.951075
11.3189945,13.062159,12.025782,12.028955,12.49209
8.885889,11.252832,10.260889,9.889307,10.347559
8.9283695,12.495996,9.966211,9.309961,11.943018
9.368799,12.453272,10.213282,9.460352,11.909815
5.8875976,10.452784,6.4947753,6.4344726,8.625391
5.5470214,10.555323,7.2066894,6.2638183,8.648584
6.740625,12.184717,8.027979,7.683252,11.086573
8.229883,12.560938,10.476221,10.587549,12.126368
8.201319,11.195948,9.64419,9.237207,9.538233
6.1446776,11.098291,6.602197,6.181543,9.302149
6.8543944,10.234766,7.230615,6.881006,8.191065
10.389063,12.945215,11.490381,11.507227,12.294825
10.739649,13.079248,11.777246,11.556299,12.4127445
8.009668,12.666407,8.427149,8.2521,12.234278
10.729395,12.8207035,12.044092,11.993799,12.892481
10.058496,12.638086,10.97378,11.042627,12.042383
5.881006,10.306543,5.2865233,5.0611815,9.075586
5.709863,10.399805,7.141748,6.400537,9.1957035
8.5292,12.151758,9.2252445,8.861963,11.203028
