"[299, 255]","[227, 248]","[287, 319]","[279, 328]","[230, 262]"
2.5311522,8.498438,2.8592772,3.2489257,6.1895995
2.968164,8.4667,3.7313476,3.9632812,5.704736
5.0995116,8.850733,2.9981933,2.5628905,7.0816894
2.6292968,7.1808105,2.8333983,2.8424315,5.9415526
-0.7945312,5.8285155,0.5543457,0.3783203,4.3475585
-1.1788086,5.1791015,0.47475585,0.24868163,4.02749
0.17592773,4.879541,-0.821875,-0.6524414,3.8956542
-0.6260742,6.039453,2.0260253,0.6913086,4.439111
-0.3675293,4.018213,-0.22006837,-0.48666993,2.1273437
0.57436526,4.593408,1.5155274,0.7625977,3.9981933
0.49746093,4.870996,-0.3855957,0.36293945,4.289697
0.84584963,6.768945,-0.2190918,0.4864746,5.5926757
2.5179687,6.3558593,0.39663085,0.40883788,3.872705
1.1275879,5.827295,0.52089846,0.8780762,3.282373
0.19570312,5.9220214,1.6568848,1.3578125,3.5555663
-0.89755857,4.059961,-0.6946777,-0.52255857,2.0553222
1.1805664,5.6405272,1.2904297,0.81875,2.9427733
1.3158203,5.376367,2.084619,2.0924315,4.3844237
-0.5071777,5.4620605,-0.75498044,-0.8555664,4.1996093
-1.049414,4.38125,-1.8145508,-0.88901365,3.4461913
-1.7654785,3.9125,-1.3443359,-1.5567383,1.8861328
-0.448584,7.261377,-1.0630859,-1.3047851,3.738916
-0.2515625,5.9745116,0.17983398,0.11171875,2.5233397
-1.3807129,3.8443847,0.05703125,0.15126953,1.7992188
-1.2894043,6.8419433,-1.2164062,-1.2950195,4.8958983
6.0489745,9.507959,6.197412,6.299707,9.718897
3.6012206,8.8971195,2.7691894,3.409326,8.095118
4.4918456,8.887354,2.9337401,3.3758788,8.791895
3.785791,8.243799,4.1983886,3.5069823,7.9256835
5.489404,9.099756,6.475488,6.2750487,9.056299
5.0702147,8.291895,5.7569823,6.0680175,7.7611327
4.204004,7.966699,2.702539,2.280664,7.445459
2.0487304,7.686914,3.7369628,3.7127929,6.5855956
4.629541,8.805567,5.820703,5.8441405,8.208643
3.987207,8.9613285,5.952295,6.3634276,8.274561
5.0663085,9.061426,6.2865233,5.5904784,8.357325
2.7740722,8.8050785,4.299707,4.892236,8.136621
3.9366698,9.097071,5.1393065,5.5699706,8.286036
8.792627,9.986963,8.982569,8.497461,9.98794
3.598535,8.005274,5.180322,5.0123534,6.6776366
7.5973144,10.1471195,8.344141,8.211817,9.688868
2.112451,6.477197,3.7281737,3.5770507,4.8680663
0.6996094,5.9620605,2.1925292,2.5736327,3.336328
1.6883789,6.3941894,3.740625,3.4139647,4.706201
1.3861328,6.18374,2.7108397,3.1224608,4.2135253
1.975,6.9588866,3.0528808,2.5697265,5.4291015
2.7994628,7.7975097,3.1300292,2.881494,6.834131
1.8849121,7.2472167,2.9566894,3.1605468,5.780908
3.7870116,8.67251,4.671533,4.225488,8.770899
8.978907,9.377344,8.662989,8.516748,9.75918
9.187647,10.026514,9.052881,8.732813,10.001612
3.841455,7.0155272,4.895166,4.8165526,6.162744
3.7506347,7.613916,4.4864745,4.426172,6.220361
5.713037,8.489649,7.0348144,6.662988,8.061182
5.8072753,8.442041,7.1065917,7.471338,8.502588
4.2137694,7.4237304,5.1966796,5.20791,6.630029
4.4271483,7.5421386,5.803369,6.179834,6.9466796
1.1725098,5.596826,1.8421875,1.2843262,4.8211913
0.73427737,5.7726073,1.8736817,2.1212401,4.023828
3.723291,7.626367,4.9208007,4.4642577,6.6114745
2.027246,7.5628905,3.113916,2.9791503,6.491113
-0.36606446,5.869043,1.3802735,1.2767578,4.2364745
1.8236328,5.3111815,2.4032226,2.1048827,4.4259276
0.85561526,4.35,1.2984864,1.5077149,3.4203124
0.74672854,6.3822265,3.291162,2.8131347,5.329248
0.6275879,5.2435546,2.8905272,2.469873,4.606836
1.6288086,5.747461,2.4010253,2.4999022,5.094629
2.5631347,7.0580077,4.03457,4.273584,6.536279
4.558252,7.63125,5.8160644,6.5956054,7.223535
7.657861,8.4786625,8.105616,7.719873,8.98794
5.216699,7.9881835,5.8670897,5.802881,7.744287
2.4784179,6.716211,2.5797362,2.6266112,5.0926757
6.3321776,8.907618,7.198877,7.4063964,8.47378
4.6427245,7.7103515,4.1839843,4.2420897,6.3004394
1.4859864,6.3592772,2.1380858,1.889795,4.90249
6.7083983,8.745996,7.508203,7.619287,9.369043
3.1688476,6.502588,3.7845702,3.5243163,5.302881
2.1168456,6.192529,2.148584,2.126123,4.3268065
1.8084961,3.6363769,2.2591796,1.8697754,2.8353515
2.1656737,4.0455565,2.7396483,2.5230956,3.4659667
1.4652344,5.3358397,4.298486,4.3194823,5.0748534
3.7452636,7.157617,4.7188964,5.858545,6.896875
6.1986327,7.807031,7.344873,7.4588866,8.126612
2.872705,5.6446776,4.1805663,3.8946776,4.5624022
1.565332,5.282861,4.551416,4.3697753,4.319238
4.764795,7.652002,7.4168944,7.254541,7.719629
6.51333,7.455957,9.644922,9.447168,8.422998
8.352686,8.312647,9.879786,10.382227,8.451807
3.6520019,7.367578,4.983789,4.9276366,6.9288573
4.935205,7.140283,6.0506835,6.0541015,7.1656737
4.0111327,6.9000487,5.338281,5.3246093,6.723535
2.4850097,5.0763183,4.0648437,3.9928222,4.593164
2.2716308,6.330957,4.119287,4.0624022,5.005029
5.7191405,7.9676757,9.24502,8.989649,8.637598
6.653955,8.026758,9.603907,9.823633,9.531641
6.8878417,8.628321,9.03335,8.919092,9.015772
7.435449,8.312647,9.659082,9.247461,9.592676
7.3355956,8.2130375,9.950586,9.329248,10.527735
9.646631,8.097559,10.565821,10.128077,10.889307
8.552393,7.237207,7.7030272,7.733545,7.1686034
9.6488285,10.685694,11.933741,11.617823,12.488672
8.882227,10.850733,12.219385,11.497217,11.078516
8.513575,9.439356,11.862207,11.240381,10.619043
8.064844,8.423975,9.211084,9.164209,10.392481
8.214746,8.411524,8.489161,8.606104,9.739161
7.8021483,7.862451,8.402735,8.628077,8.806299
5.622705,8.300928,7.3507323,6.4571776,8.856104
6.1012206,7.283838,7.023584,6.9708495,8.106836
5.483545,6.91958,6.655908,6.636377,7.5155272
2.890039,7.8907714,7.6371093,7.474756,7.4486327
7.9361815,8.629053,8.417871,8.122705,9.167383
7.417871,8.998438,9.261621,8.4317875,9.830225
9.299707,8.522852,9.672266,9.656885,10.010645
8.323145,8.8519535,8.303614,8.413721,8.946436
8.449121,9.359034,11.000147,9.502344,10.166407
7.0716796,8.488916,8.630518,8.849024,7.5648437
9.10708,10.129541,9.55752,8.964991,11.77334
9.073633,9.486231,9.122217,8.993067,9.687159
4.7645507,6.864404,6.688379,7.2499022,6.791406
5.8705077,7.275781,7.0194335,5.9798827,7.1
5.4017577,6.119043,5.938379,5.6393065,5.8004394
4.581445,7.0731444,7.1986327,6.8460937,7.558252
4.0643554,7.1117187,5.256006,5.1183105,5.285791
3.0431151,5.754541,4.4728026,5.0714355,5.5560546
4.6341796,5.9864745,4.7760253,5.4571776,5.3058105
4.1844726,7.836328,7.584131,7.428369,8.40835
6.947168,8.71377,4.2311034,5.0350585,9.444971
4.1979003,8.902491,6.8888183,7.4791503,10.497217
11.011377,10.28628,10.907862,10.919336,11.80752
14.911768,12.474268,16.127832,15.717188,15.076319
9.097071,9.062403,10.997461,10.400782,10.778467
11.189112,9.645166,10.56753,10.296045,10.520411
10.800196,8.819239,8.887354,8.930811,8.689356
8.384668,8.609766,9.76211,9.907373,10.045069
11.376856,10.485254,12.744776,12.296289,11.925684
11.534327,10.091944,13.113672,12.503321,11.638086
9.911524,9.2167,11.085352,10.801905,11.701319
7.4083495,8.48208,9.766748,8.767481,9.52334
7.4884276,8.087305,8.885889,8.726221,9.3189945
7.949365,8.601221,10.05459,10.864649,10.244776
10.557276,9.673487,10.708155,10.377588,9.983789
9.219385,8.1957035,9.651758,9.064356,10.00503
9.488184,8.51919,9.107325,8.787256,9.029444
7.7889647,8.394678,8.138575,8.286036,9.96377
10.664942,10.066797,11.408594,11.382959,11.492823
14.187647,11.87417,11.742334,12.598047,15.42959
12.501612,10.2286625,12.365137,12.917383,12.534327
13.383692,10.072901,14.225489,14.129541,13.686426
12.282129,10.136133,13.829981,13.354395,12.890528
14.499903,11.270899,14.9752445,15.499414,14.125635
14.082666,10.467188,12.336084,12.832178,11.9474125
13.456202,11.661768,13.636377,13.345118,12.343409
15.671534,12.647852,16.724756,17.27041,17.295801
16.73623,13.070459,16.870508,16.95791,13.99502
15.392481,11.645899,15.51333,16.27212,14.455469
19.822412,14.04336,19.86001,19.558252,18.066553
18.555567,13.25918,21.250147,20.806787,13.890772
10.674219,10.935694,10.906885,10.933008,11.04336
7.7401366,11.275049,7.2765136,7.426172,11.7582035
10.334864,12.900293,9.864893,10.254297,11.935938
10.660547,12.952784,10.214502,11.063868,12.847559
14.19668,15.143457,15.926172,16.123194,15.614405
12.117334,14.315821,13.335596,14.259424,14.395166
12.849268,13.056543,13.118067,13.985254,13.204981
9.388575,12.1783695,10.667627,10.744776,11.545069
8.785303,11.238672,10.129297,10.759424,10.56045
8.084131,11.4300785,9.015772,9.348291,10.783838
7.994287,11.19961,9.041895,9.27334,9.833155
18.076807,13.254297,15.67544,16.498682,15.562891
16.999414,13.954493,17.399317,16.616114,17.073877
15.220118,12.78335,16.260645,16.19375,13.965723
10.774561,11.542139,11.719141,11.307032,11.864405
11.605371,10.950098,13.142481,11.57461,11.325342
11.225977,10.923975,12.389551,12.223536,11.552881
12.065088,12.258936,12.849024,12.0082035,12.001368
13.848047,12.166407,15.907862,15.309473,13.7875
15.5292,12.45376,16.651026,16.555079,15.087305
13.532862,12.3971195,16.444727,16.202051,13.591211
17.15835,12.969385,18.072412,18.131739,15.88125
16.384912,13.6332035,17.205957,16.53628,14.833643
17.245264,13.244043,15.503077,14.836084,14.956202
12.943506,11.991358,13.396387,13.071436,12.9613285
13.640528,13.070948,13.514307,13.32583,12.590479
14.298243,13.411036,13.682764,14.096338,13.149561
15.600733,14.199366,15.183741,15.03628,14.014307
16.506983,13.746729,17.319239,17.681787,17.10293
17.997705,14.262842,17.064844,15.494776,15.486231
19.000635,15.977198,20.482325,20.059717,16.676416
17.985254,18.475,16.08291,16.797754,18.851954
17.319971,15.694727,20.200586,21.610987,14.621729
17.214258,14.156153,17.248926,17.958399,16.996485
21.372217,18.36294,21.639795,21.582178,21.787256
23.27456,16.39126,22.967432,22.117334,17.358301
23.373438,18.014063,23.989893,23.701807,20.28042
15.431543,14.861719,16.070704,16.410547,16.104395
18.891748,17.208155,18.254786,18.80581,19.333643
19.616602,16.721338,20.49331,19.607325,17.064844
21.11709,15.839014,20.875147,21.160303,20.345606
23.752588,17.57046,22.945948,22.940088,20.53213
18.150293,16.762842,17.437159,17.763819,16.560205
16.162012,15.648096,17.575098,18.300684,16.931055
24.533106,18.514063,22.422022,22.945948,20.539454
23.026514,20.291162,22.242334,22.720362,22.727442
25.123682,21.378565,24.344385,24.351465,27.110254
25.465723,19.797022,25.948145,26.021387,24.388819
25.214258,19.200098,25.558496,24.383692,21.04751
19.557764,19.381006,18.305567,17.17129,20.147608
17.36294,16.359766,17.493555,16.919825,15.567041
18.517237,16.864649,18.502588,18.189112,16.70083
19.12295,17.03042,18.805079,18.582178,16.536524
19.131739,18.023584,19.057032,18.91128,17.573877
20.467676,18.343164,20.173975,20.076075,19.53457
22.348047,17.787989,21.68252,19.958155,22.521143
21.428858,17.797754,21.319483,20.866358,19.83755
15.989649,16.672266,17.13296,17.044825,17.927149
14.278223,15.166895,15.115381,15.089258,15.62002
13.699854,15.557764,15.115137,14.3675785,15.062891
13.40835,15.16836,15.247705,15.075342,15.142237
17.331446,15.831202,16.4396,16.645655,18.310694
18.631739,15.771631,15.996485,15.634668,16.152979
16.817774,16.134912,18.0917,18.302637,15.74917
20.212793,17.526758,20.422266,20.867579,18.10708
22.08999,17.130762,20.86294,20.08169,19.191797
21.57876,16.406641,21.68081,20.953028,20.847315
22.634912,16.438135,21.607813,20.790674,20.382227
24.076319,16.764063,23.251123,22.905664,19.227686
24.052393,18.67837,24.08462,24.443262,21.73379
20.63589,16.515284,19.652735,18.84878,16.51797
16.162012,16.367579,17.568018,15.958643,17.591944
14.64834,16.348047,15.014551,14.5221195,17.091455
18.731836,15.915674,16.63003,16.269922,17.191797
16.09585,15.540674,14.936426,15.802637,16.752832
13.535059,13.545313,14.21084,13.557276,14.565332
13.8771,14.4144535,14.093164,14.403223,15.383692
15.429346,15.27334,15.031153,15.470118,17.74502
18.18545,16.024805,18.794336,18.481592,17.404444
15.556055,15.768702,18.465235,18.355616,15.806055
18.08291,16.628565,16.638819,16.192041,16.79043
15.27334,16.695215,16.394922,16.047754,16.822168
14.896143,16.398096,16.418116,16.066797,16.637598
17.829248,16.52041,15.682032,15.50625,16.144678
13.267237,16.065088,15.639551,15.612207,17.0563
15.554834,15.25918,16.397852,16.185694,17.359766
14.661036,15.576319,14.863428,14.8814945,15.9127445
12.537989,16.047998,16.035791,15.714502,15.293848
15.000635,15.285547,16.774805,16.467432,16.52212
15.751368,15.889795,16.934717,15.860743,16.186914
15.954493,15.471094,17.72671,17.25625,15.939356
16.661036,16.75796,17.09878,16.811182,16.605616
13.815332,15.942286,15.725,15.890772,17.008204
13.92959,16.133692,15.823145,15.175928,15.8832035
14.557764,16.120752,14.619776,14.107325,16.01211
13.892969,14.303858,14.521143,14.427149,15.634668
12.201319,14.619043,14.246241,13.84878,14.651758
12.036768,14.506983,12.8502445,11.638575,13.940577
14.379297,14.892725,15.222071,14.992823,15.313868
14.620264,14.478418,11.796045,10.930567,13.956446
13.894678,14.705957,15.050928,14.829004,15.643213
14.30044,14.471338,15.127344,14.426661,14.494532
13.893213,14.677149,15.685694,14.799707,15.417627
15.46792,15.020655,16.165918,15.251612,15.707666
15.719629,15.339014,15.985743,16.252344,15.319727
15.729883,15.36294,16.52212,17.182764,16.196192
17.113672,15.922998,17.363916,17.146631,17.273584
16.83755,15.770411,16.992334,17.441553,17.779932
15.262598,15.116602,16.391504,15.894678,16.232325
15.382227,14.872217,17.161524,17.125391,15.631983
15.497217,15.349024,17.784815,17.145655,16.024805
14.473291,15.580957,16.12832,16.679346,15.54043
14.590479,15.942286,15.626368,16.312159,16.11416
16.339014,16.431543,16.682276,16.538477,16.04629
15.927149,15.539698,16.052393,15.714014,16.696436
14.092188,15.98501,15.614649,15.135401,15.640772
12.942286,15.82168,14.172022,14.050928,14.972315
12.281153,13.551661,13.518213,13.231104,13.552393
11.922022,14.919336,12.933496,12.68545,13.3502445
12.641016,15.059229,13.708155,13.701075,14.944483
11.933252,13.291407,12.68667,12.003077,13.161768
11.06875,12.6175785,11.611963,11.404932,12.797266
11.229639,12.361719,12.561182,12.490381,13.3536625
10.957422,12.944239,12.546045,12.641748,12.771387
10.67959,11.683496,10.762354,10.490625,11.13003
10.135157,12.96377,11.979883,11.526514,13.141748
12.19253,13.395655,13.348047,13.122217,14.153711
14.465235,14.535547,13.900049,14.5221195,14.609278
14.004541,15.016504,14.552149,14.267969,15.549707
10.482569,13.760889,12.103174,12.060694,12.95083
10.058496,12.000391,11.094873,10.913477,11.303858
9.76211,12.91958,12.479883,12.50918,12.962305
12.88418,13.788965,12.85293,12.405664,14.082911
14.104639,14.490137,15.155664,14.868799,14.803125
13.332666,13.913233,13.335596,12.944239,13.981104
11.909082,14.005762,11.603418,12.087549,13.899073
12.440088,14.2113285,12.694971,12.507715,13.337549
13.1349125,14.664942,13.556299,13.18545,14.757715
12.004541,14.484278,12.093164,11.875879,14.00918
10.346094,14.242823,11.242334,10.928614,14.1939945
10.4042,12.28628,11.410547,11.344141,11.798243
10.789209,12.89834,12.084864,11.917871,12.993311
11.659815,14.034082,11.431543,11.640039,13.365625
11.532129,14.922022,12.357569,12.568262,13.700098
11.846094,13.985987,13.891504,13.982813,14.121485
13.201563,13.543604,14.751612,14.221582,14.091944
11.239161,14.167627,13.772852,12.75503,13.813868
8.48086,11.599756,9.233545,8.89126,10.875391
8.125391,12.339991,8.933252,8.801416,10.678614
6.6913085,10.464991,8.257715,7.6231933,9.227442
7.520166,10.115381,8.117823,8.117823,9.423975
9.128077,12.9908695,10.298487,10.353418,11.614405
9.980371,13.202539,12.018702,11.911768,13.052637
11.110987,13.612207,12.188379,12.061426,12.833887
9.853418,13.395166,12.08584,11.966211,12.649317
9.214014,13.009424,9.94961,9.799707,11.719385
10.208887,12.978174,12.181299,12.290674,12.549707
10.905664,13.153467,11.566553,11.692774,13.5394535
10.93252,13.13125,12.698389,12.202051,13.444239
8.7755375,12.647364,9.745996,9.066553,11.320215
5.4518065,10.398584,6.3248534,6.2037597,8.706202
8.144678,11.089991,8.557764,8.426416,9.3814945
7.0545897,10.719629,7.669336,7.7523437,10.182764
7.1966796,9.781153,8.166895,8.023096,8.851709
4.202539,10.812891,5.934961,5.8006835,8.616114
5.6476073,10.245996,6.067529,6.0196776,8.699854
5.1324706,10.316797,6.0909667,6.254785,8.50918
5.2484374,9.173243,6.50332,6.2437987,8.474756
6.093164,9.444971,6.7767577,7.052881,8.984766
6.046045,8.9317875,7.226953,7.0387206,8.176416
5.870996,8.803125,6.1014647,6.1493163,6.5421386
5.6407714,10.510401,5.540918,5.334619,8.259424
5.843164,10.312403,7.334131,7.1146483,8.451807
8.712549,12.644678,8.519434,6.7489257,11.440332
9.24502,12.278955,8.095362,7.49917,12.665186
5.0162597,11.61709,5.40542,4.5765624,10.192286
4.914453,8.55752,5.273584,5.192041,7.1996093
5.0316405,7.76333,5.431543,4.8751464,6.629297
3.565576,9.025049,3.737207,4.6656737,8.474512
5.15957,10.752588,6.1026855,7.100488,9.03335
7.62832,10.956446,8.033838,8.612452,10.14419
8.1488285,10.900049,9.249414,8.384668,10.291407
5.7174315,10.358545,7.5143065,7.9964843,9.176661
7.240869,11.059717,8.701563,8.624903,10.530664
6.59707,10.954493,7.3302245,6.353906,10.13833
4.9049315,8.452784,5.8907714,5.4361815,7.581445
3.784082,8.765772,3.9222655,3.661035,7.692041
6.2101073,10.723536,8.601465,8.805323,9.652002
6.6058593,10.560938,8.098291,6.438379,9.272608
3.018457,8.432764,4.808252,4.5416503,6.9532714
-0.48129883,6.8575683,0.29458007,0.41152343,4.6424804
-0.62094724,5.5020995,0.3409668,0.45449218,3.7262206
-0.25498047,6.400537,0.6864258,0.5609375,5.266504
6.1722655,10.987207,6.525537,6.366113,9.760401
7.730371,11.397852,8.984034,9.097315,10.438868
7.8893065,11.233057,8.980127,9.461817,10.610987
9.704248,11.257715,9.956934,9.784815,10.778223
9.4042,11.4474125,11.298731,10.786768,11.098536
6.7450194,11.671534,10.561182,10.3536625,10.975489
6.0589843,10.356836,7.9393554,8.254053,9.2521
6.447412,10.666895,5.7257323,5.3998046,10.199366
6.0313964,9.614649,6.4220214,6.405664,8.229395
6.435449,9.382471,5.317285,5.4364257,8.05459
