"[299, 255]","[227, 248]","[287, 319]","[279, 328]","[230, 262]"
11.290918,13.031641,11.654688,11.091944,12.606104
8.731348,11.109278,9.134424,8.319239,10.153223
5.9969726,10.817041,6.7186522,6.411279,8.551416
9.651514,12.510889,10.089014,9.694727,11.754786
8.475977,12.006739,9.746973,9.8692875,11.073389
10.5082035,12.815577,11.350489,11.304346,12.120996
7.73916,11.297022,8.395411,8.045557,9.832911
9.935938,12.906153,10.174219,9.266993,12.28335
10.056055,12.74502,11.120508,10.667871,12.23208
6.891992,11.614161,8.478907,7.917627,9.997705
11.036036,12.580957,11.76919,11.781885,12.559229
10.776514,12.395899,11.783594,11.76211,11.901026
10.175928,11.967676,10.698877,10.700342,11.861231
10.008936,12.446192,10.69253,10.715479,11.766748
10.293848,12.581934,10.974024,10.531641,12.154688
7.4740233,11.379541,8.61709,8.31875,10.025782
7.8592772,11.220118,9.254297,9.13418,10.306299
9.881006,12.143702,10.998926,11.065821,11.454981
9.949366,12.148096,11.126123,11.073877,11.472315
8.84878,11.456446,8.826075,8.460596,10.653223
3.627832,8.758448,5.105371,5.0406737,6.0404296
4.7887206,10.889551,7.2801757,6.421045,9.668116
5.3683105,10.974512,7.5382323,7.4554687,10.1158695
4.955713,11.402979,5.8634276,5.803613,9.259424
3.454492,9.428125,4.520166,4.667627,6.469629
3.6898437,8.688868,4.596582,4.2572265,6.55874
5.9671874,10.899805,6.382959,6.985986,9.948145
8.837549,11.414942,9.466455,9.48794,10.641016
6.565088,10.404932,5.977197,5.8697753,7.8531737
2.9237304,7.685205,2.0318847,1.6214844,6.3043456
4.4273925,10.176416,6.7748046,7.372705,9.047754
10.392237,11.992823,10.67544,10.898096,11.627588
10.080469,11.833643,10.052637,9.200586,11.194971
3.8585448,9.238672,4.3075194,4.1515136,6.8004394
1.9874512,7.98208,2.7777343,2.51333,6.1166015
1.8260742,7.393457,1.3717285,1.945459,4.54458
-2.9473634,2.4395995,-1.8194336,-0.68100584,0.28481445
0.99501956,5.6583495,2.2748046,1.7479492,4.3333983
-0.35092774,5.3333983,0.9249512,0.38686523,3.7254882
0.13588867,7.553369,2.5541015,1.8839356,6.301416
-0.6124023,6.461084,1.2838379,0.7652832,4.6048827
0.37905273,7.7433105,1.863916,2.5316405,4.941797
4.6895995,9.562403,6.508203,6.4791503,8.794092
8.746485,10.885401,8.963282,8.969873,10.37417
8.51626,10.6002445,7.6146483,7.966211,9.007227
3.0802245,8.033594,3.647119,3.4496093,6.370996
3.7123046,7.622949,4.490381,3.9020019,5.3043456
9.307764,10.88418,9.405176,9.328028,10.438868
9.891016,11.143702,9.915674,9.982813,10.736475
6.4937987,9.599756,6.737451,6.313623,8.263086
7.6112304,10.286036,7.7523437,7.1354003,9.422266
4.9796386,9.108301,5.228418,4.9225097,7.2186522
7.484033,10.332178,5.237207,5.6927733,9.314112
6.6007323,7.8946776,4.2992187,4.1354003,6.1913085
3.3531737,7.658838,4.9415526,4.615869,6.7574706
2.0667968,6.3687987,2.7828612,2.1969237,4.429834
2.1021972,7.4605956,3.5650878,3.1187987,6.1532226
2.9850097,8.443262,4.142236,4.68374,7.1290526
3.0858397,8.722559,5.855371,6.091455,7.5729003
4.940576,9.295069,4.7379394,4.922754,8.020166
7.201074,9.938868,5.377832,5.3385253,9.3658695
8.358789,10.377588,9.489161,9.024561,10.457422
7.4125,9.508692,8.67959,9.130274,9.351709
7.8531737,9.380518,8.499659,8.403711,9.338526
8.275293,9.673487,9.288965,8.993311,10.047998
8.140284,9.6644535,8.837061,8.754053,9.9161625
7.044824,9.128809,7.6754394,7.5956054,8.820948
5.1095214,8.95669,6.7186522,6.6515136,8.161768
8.334131,9.907373,9.301416,9.676905,9.941553
8.381983,9.969873,8.280664,8.045557,9.761377
10.208155,10.558741,10.451563,10.743067,11.0689945
7.544336,10.23208,8.690821,8.592676,9.68667
9.425928,10.465235,10.529444,10.370996,10.238672
4.3612304,7.6336913,5.8216796,5.3612304,6.9535155
0.87368166,6.7176757,1.679834,1.2835938,4.230127
5.8976073,9.319727,7.7569823,7.3905272,8.673731
8.1019535,10.106348,8.868067,8.753321,9.9786625
5.573877,8.757715,7.412256,7.298242,8.299219
4.5433593,9.15835,5.4986815,5.2694335,8.853174
3.6581054,6.6930175,4.049951,4.2086425,6.1510253
4.790918,6.7520995,5.799951,5.735254,6.16958
3.5746093,8.638086,6.0003905,6.1598144,7.643701
8.677149,9.315088,9.049952,9.986231,9.922022
7.7052245,9.249659,8.966455,8.546778,9.024805
6.0907226,8.401758,7.4518065,7.610986,8.285059
6.2298827,8.243067,7.0892577,7.447412,8.309473
7.405908,6.9862304,5.3263183,7.061914,7.6893554
6.241113,8.950342,8.668604,8.264307,8.926416
7.0631347,9.351465,8.730127,8.692041,9.186914
8.577051,9.404688,10.420557,10.13711,10.336084
7.266504,8.932276,8.567286,8.498926,8.320215
5.8687987,8.580957,6.461572,6.296533,7.2711425
6.8548827,9.031885,4.772363,4.3246093,8.595362
8.082422,9.069483,9.209864,9.030909,9.168848
8.585108,9.608057,10.563379,10.1192875,10.7792
5.9427733,8.685938,7.2750487,7.739404,7.4190917
7.3114257,9.157373,7.997705,9.910791,7.728906
9.270166,10.462793,10.250635,11.979151,8.765284
6.5069823,9.814356,7.759668,10.819239,8.079493
5.933252,7.7086425,7.2555175,7.6529784,8.5099125
6.6075683,8.840479,8.254541,8.042139,9.498682
7.3058105,7.6822753,8.391993,8.7792,7.8333983
4.9200683,7.970361,5.9173827,5.8651366,6.794336
5.990869,9.353907,9.065332,8.252832,9.782618
4.6234374,7.265283,5.2108397,4.695703,6.2054687
4.1632323,7.0194335,5.834131,5.955957,6.5472655
3.0355468,6.178369,4.560449,4.6827636,5.476709
4.15249,6.90249,5.384912,4.940576,6.050195
5.0470214,7.398584,6.5213866,6.507959,7.1080565
5.4085937,7.62832,6.584375,6.4288573,7.0580077
6.1561522,8.148096,7.2745605,7.3407226,7.8253417
5.2191405,7.367822,5.6319823,5.2447753,6.209619
6.7123046,8.627832,7.374658,6.334375,9.38711
4.503076,8.354883,6.3124022,6.4295897,8.921778
5.652002,8.484034,6.9654784,7.122949,7.8060546
8.2599125,9.176416,8.851709,8.534571,9.577539
9.04458,10.239893,8.988916,9.273096,10.269922
9.632471,8.721094,10.204004,10.07168,8.731592
9.612207,8.805567,9.908106,10.499414,10.862696
9.577051,9.280664,10.97378,10.741358,10.787256
10.801416,10.579248,11.677637,12.030176,12.171534
10.631739,10.332911,10.127832,10.303614,9.667139
9.854395,9.617823,11.268702,11.235498,12.471582
9.517481,8.941309,5.476709,6.0626464,10.134424
5.9120116,9.315577,8.046289,8.034571,7.5714355
7.1969237,8.391504,7.086084,7.062158,8.459375
5.070459,7.5458007,6.6510253,5.513086,6.8321776
4.200586,7.2054687,4.475,3.7464843,6.7325683
4.5313964,8.092432,6.101709,7.1793456,7.8722167
6.674951,9.496241,8.755762,9.243555,8.642725
6.869531,9.284815,7.7835937,8.0550785,9.735498
8.321436,10.882471,9.425684,9.618555,11.937891
8.448145,9.545557,10.00625,9.82876,10.346827
10.809717,10.017725,9.777735,9.553125,10.167139
5.2662597,8.472803,4.9312987,5.1458983,6.730127
6.43374,10.160303,5.7242675,6.813867,8.431299
7.054834,10.360498,7.7105956,8.296534,9.024073
4.948877,8.806299,7.5855956,8.394678,8.3849125
7.883447,9.506739,9.619532,9.63833,8.486719
5.1163573,9.23794,7.6637206,8.1939945,8.62417
6.65957,9.815088,8.838526,9.089502,9.186426
10.155664,10.805323,11.031153,11.163233,10.374414
11.172266,10.866846,12.235743,12.708399,11.856104
9.887354,10.487452,11.204248,11.138086,11.5238285
11.251612,10.994043,11.665186,11.571924,12.659327
8.069971,9.625879,9.187647,9.301416,10.050684
8.331202,9.906885,10.459864,10.357569,10.340967
6.223047,11.696924,6.990625,7.206201,10.764795
7.9776855,9.862207,9.686182,9.6036625,10.30459
7.6876464,9.778223,8.623194,8.796778,9.537989
10.475,11.17959,10.979395,11.178614,11.348291
7.59292,9.811182,9.207666,9.678614,9.736963
7.2262206,11.328272,11.294825,11.232569,11.254053
9.245752,10.617334,10.5846195,10.998682,10.324121
10.189356,11.250879,11.686914,11.596094,11.167383
7.334619,10.525293,7.3717284,7.7105956,8.605616
9.087793,9.234034,9.60293,10.329248,10.454248
7.2245116,8.018946,7.970117,7.813623,7.397363
11.404444,10.807032,12.684717,12.643702,11.324121
12.15127,11.610254,12.941309,13.301416,12.7521
11.393213,11.386866,13.532373,13.776758,14.454981
13.655176,12.253077,13.789209,14.098291,14.199366
14.101221,12.63125,14.645899,14.812159,14.96792
12.403467,12.677393,14.179346,14.170557,12.679346
11.707422,13.575586,12.441797,12.991358,13.804834
10.3519535,11.647608,10.837305,11.4396,11.167383
8.786036,12.070948,11.6644535,10.409571,12.183985
9.306299,12.1002445,12.619043,11.44961,12.396631
11.403955,14.246729,13.983789,13.926416,13.881739
12.744043,13.952539,14.656397,15.379541,15.1158695
15.72793,12.443262,11.096338,10.991358,15.421045
12.403955,12.741602,10.725489,10.788965,15.702295
14.764795,12.515039,15.632959,15.0917,13.399073
14.16836,13.498438,14.116602,13.754541,14.228418
11.736475,13.004541,12.517969,12.731836,13.924952
13.103418,12.9786625,14.489161,14.814844,14.5646
14.402735,14.438623,14.458643,14.36001,15.054102
10.570459,13.137354,12.428858,11.969385,13.136866
6.5311522,10.751856,11.373926,11.098291,11.104883
6.9740233,11.591455,9.810205,9.892725,10.5375
12.385401,13.849268,13.738672,13.518702,13.63711
18.639551,15.487696,16.426416,14.74502,14.720118
20.046778,18.471094,21.541407,21.85586,21.626368
17.233057,15.868311,17.76626,18.33584,16.007227
14.762842,14.210596,14.236231,14.018946,15.491602
12.497461,13.955469,13.747217,14.037256,14.774561
12.330713,14.33584,11.948877,11.646387,14.727442
10.483057,11.841211,11.296289,11.428858,12.228174
8.525049,10.683741,9.584375,10.022852,10.6332035
9.69961,10.5917,10.192041,10.389551,10.365625
9.960596,13.119532,10.609278,10.718409,12.145899
11.52627,11.873438,12.638575,12.081202,12.595606
11.6896,11.802881,13.00503,12.449366,12.7738285
12.262842,13.323145,12.132471,11.739405,13.619532
10.646387,13.191553,10.676416,10.847559,14.950098
14.124903,12.670557,15.480616,15.612207,14.240137
11.888819,13.062159,13.146631,13.19253,14.009668
15.701563,14.017725,15.397608,15.707666,16.17251
14.426905,13.735498,14.034082,14.13833,15.409327
14.965723,13.868311,13.050684,13.871973,14.233301
15.165186,14.200342,14.4300785,14.399805,15.942286
14.496973,13.572901,14.860987,15.33584,14.784082
12.363916,12.873194,10.433008,10.364893,13.773584
12.358545,12.927393,13.33169,14.121973,13.871729
15.685694,14.0646,16.563623,16.738428,16.33462
17.534327,14.8502445,18.041162,18.879053,17.236475
15.661524,14.393946,16.145166,16.724512,16.013086
17.882715,14.875147,17.297022,16.941065,17.253809
17.703272,15.4005375,19.255518,17.908594,18.320215
16.393213,15.649561,16.154688,16.678858,15.927393
15.852442,15.440821,15.987452,16.535303,16.522364
16.928614,14.924952,16.041895,16.306543,16.568018
16.994043,14.756006,18.29922,18.620996,16.780176
12.50503,14.31045,14.72793,14.376856,16.133448
14.185694,13.905909,14.687647,14.622217,14.8224125
16.083399,15.274561,15.889307,16.19839,16.527246
15.6542,14.9144535,14.696436,15.154932,16.495752
14.792627,15.045069,14.951563,14.665918,15.291407
15.159082,14.837305,14.843409,14.734034,14.556543
15.678858,15.536768,16.6979,16.400293,15.292383
13.478907,15.789942,15.462305,15.89419,16.377588
15.527979,16.180079,18.223536,18.060694,18.90005
15.596094,16.53335,17.268702,17.327295,17.573145
15.452539,16.921778,16.408838,15.503565,16.629297
14.751612,16.92959,15.469385,15.371729,17.089502
15.8658695,16.478662,16.30166,16.15249,18.0104
16.385157,16.945948,15.9908695,17.723536,19.114405
17.934717,16.803858,16.734522,16.742334,19.199854
17.207178,16.756006,15.899073,17.374659,17.092188
15.589258,16.252588,16.62002,16.126123,16.945215
15.171289,16.466944,15.997217,16.291407,17.030176
17.9479,16.556055,17.47378,17.434229,19.110987
17.63296,16.29458,18.245264,17.363916,17.858057
14.696436,16.19839,15.49917,16.040918,17.570215
13.836573,16.285791,15.097071,15.627588,16.320215
13.636621,15.24917,15.561182,15.721582,15.165186
13.800196,14.688135,14.815577,14.561182,15.054102
13.858057,15.021143,13.354883,14.224512,15.021631
13.987696,16.33877,16.819727,17.523096,16.093164
18.648584,16.589258,19.893457,19.297754,18.80166
17.606836,16.598047,19.485987,18.316309,18.374903
16.302637,16.858057,17.775293,16.999903,18.68374
16.259424,16.896143,16.116846,15.809717,15.7564945
15.380274,16.82046,15.927393,15.962061,16.749414
14.488184,15.710352,14.21377,14.3675785,15.587549
14.840235,16.192774,15.165186,15.975489,15.724512
16.549952,17.29922,17.81875,17.824121,19.17959
16.888086,17.182032,19.231104,19.382227,18.519434
17.775293,18.05337,18.243555,18.647852,18.488428
20.224756,18.489649,19.766504,20.507715,18.69082
15.865381,17.41958,16.984034,17.265284,18.92422
14.49795,16.600245,16.43252,15.6019535,16.755762
15.907129,15.578272,16.768213,16.723291,15.689112
15.637842,15.796289,16.499903,16.867823,16.160059
18.954493,17.551172,18.779932,19.508692,17.414698
18.965967,16.88711,19.899805,20.316309,19.315577
16.365381,17.245752,17.240137,17.82998,17.452295
19.007227,16.966455,19.751612,20.147852,16.795801
19.635157,18.682764,21.449366,21.172266,19.51626
19.426416,18.235498,20.272852,21.033106,20.65005
19.93667,18.850733,19.41128,18.974512,19.669825
17.764063,17.921045,18.259912,18.881739,17.819483
17.630274,18.21084,18.087305,18.423243,17.60464
18.762598,17.745508,19.772364,20.428614,20.08291
17.154932,17.012598,17.172022,17.788477,17.643946
15.972315,16.233301,16.145899,16.70083,16.42837
18.787012,18.396143,19.291407,19.195948,19.8771
19.140772,17.79165,19.145166,19.133448,19.533106
17.768702,17.025782,17.164454,17.113916,16.295069
17.349512,18.749414,18.485743,19.330957,19.910791
17.200586,18.290918,19.193018,19.51919,19.309229
15.970118,19.018457,17.32168,18.525537,18.190577
22.052881,20.68374,21.786524,21.721094,20.416407
20.851221,20.316553,19.718653,20.14004,20.772364
19.357569,18.631006,19.137842,19.319971,18.843653
17.652002,17.756739,17.308252,17.127832,18.419825
15.69375,16.00503,16.316553,16.008204,16.387354
19.023096,17.329004,18.842188,19.192286,18.658594
21.24624,18.87002,21.661036,21.542627,21.066309
20.64834,18.063623,19.566065,19.280176,17.586573
21.711817,18.007227,19.065088,20.20669,20.348291
22.146875,16.738672,19.043604,20.342188,19.652246
22.428125,19.082178,23.49331,23.636621,22.899073
21.817774,17.548243,23.379053,23.776758,20.492823
17.30337,17.717188,16.914454,17.293116,18.687159
15.799463,16.941553,15.794825,16.556543,16.538721
14.2582035,16.147608,14.099268,14.296045,15.860498
10.563623,14.22793,11.905909,12.406153,13.729883
11.443262,14.980127,12.299952,12.356104,13.829981
12.79336,14.729151,13.925928,13.741358,14.703516
15.1625,16.20547,15.366358,15.782373,16.51797
15.951075,16.901758,15.329981,15.668116,16.97964
15.777491,17.097315,15.589258,15.466211,16.434229
14.49795,15.454981,14.4127445,14.346827,15.268213
9.521387,13.808985,10.013819,10.1505375,11.916895
10.38833,12.586573,10.555811,10.203028,11.632227
11.54751,12.622705,10.96377,10.87295,11.8146
10.005274,13.353907,11.003809,11.135889,11.828516
11.479639,13.226465,11.319727,11.625879,12.27627
11.208643,15.151026,13.113184,12.841211,14.620264
13.0221195,15.379541,12.630518,12.937403,15.328516
10.935205,14.7521,11.557032,11.485743,14.321924
9.767969,13.525782,10.795069,11.087793,13.008692
8.300684,13.760401,9.962305,9.500391,11.218653
11.088526,15.290186,12.340479,12.680811,14.1505375
11.326075,15.394434,13.043116,12.910547,14.047266
15.176172,15.87002,14.772608,14.98501,16.478418
10.347803,13.673975,11.249903,11.538721,12.781397
12.043604,14.821924,12.541407,12.467432,14.62002
14.816309,19.307764,16.3063,16.180323,20.309229
15.552637,18.732569,15.959131,16.624414,19.050196
12.813623,16.096582,13.3146,12.982569,15.6644535
12.379786,14.590479,13.192041,13.132471,13.662256
12.150782,14.367334,12.533838,12.361719,12.751123
9.423487,13.624903,10.2113285,9.859034,11.774805
7.8236327,12.555323,8.550684,8.620508,10.861475
8.701319,12.202051,9.105616,9.067286,11.327295
11.462305,14.889551,12.494532,12.538477,14.769922
9.87417,13.084131,10.224756,9.289942,10.8519535
8.002588,11.883692,9.380762,9.316553,10.642237
8.130762,13.009424,10.008936,10.682276,12.069483
11.504541,13.748926,12.688868,12.7130375,13.200342
8.683985,13.034082,10.25918,10.197901,12.01333
10.048487,13.478174,10.738916,10.549952,12.476465
6.9693847,12.844629,7.7171874,7.598047,11.077051
7.051416,9.960596,7.6407714,7.7345214,8.283594
5.97207,11.88418,7.0294433,7.2916503,10.073633
4.0375,10.582422,4.684961,4.3390136,7.9793944
4.551904,7.6895995,4.942529,4.777002,6.33999
6.84707,9.5238285,6.4740233,6.3614745,8.2911625
4.2645507,11.299707,5.5194335,5.7679687,10.041407
8.199854,11.486719,8.335352,8.249414,10.70669
8.068506,10.709375,7.284326,7.9950194,10.104883
8.541651,11.216455,7.28042,7.4430175,10.4908695
8.326319,11.167871,9.327784,9.611231,9.718897
6.454004,10.549952,7.8490233,7.978906,9.26626
3.2398925,7.8668456,6.3714843,6.705713,6.117822
7.7765136,10.807764,5.97207,6.4271483,10.044092
6.976709,10.696436,6.7176757,6.754541,9.243555
7.4027343,10.781397,6.9222655,7.0055175,9.619043
5.254785,9.427149,5.8236327,5.84707,7.7396483
1.4295899,5.761377,3.0504394,3.1058593,3.4586425
0.8331543,4.09292,3.4210448,3.4901366,3.5560546
1.5916992,4.4447265,4.0631347,4.098535,3.5211425
0.5433594,5.501611,3.7328124,3.735498,4.513574
2.1231933,5.674463,3.6705565,3.975244,3.6544433
4.223291,10.443018,5.1495605,5.4654784,8.935205
6.3062987,12.041895,7.510156,7.084863,10.955225
9.613916,12.473536,11.062403,10.698633,11.934717
6.1844726,11.190577,7.6388183,7.0858397,9.219141
4.362207,9.6627445,4.671289,4.8280272,7.58999
2.3106933,8.793116,2.6170897,2.1461425,7.803125
3.613916,11.477686,6.130029,8.075098,10.312891
6.5155272,11.455957,7.7916503,8.082178,10.110743
10.47793,12.753809,11.71792,11.243067,12.324121
9.7521,12.653467,11.049707,10.480371,11.88711
4.188379,9.530909,4.973779,4.813623,7.9850097
9.311914,12.208399,10.269678,10.500879,11.759668
9.498926,12.241846,10.74917,10.896631,11.866358
6.1354003,10.252588,6.9867187,6.851953,9.134424
