"[299, 255]","[227, 248]","[287, 319]","[279, 328]","[230, 262]"
1.4308106,7.777246,-0.07114258,0.21938476,3.8182616
3.4815917,8.623926,2.2933593,2.9781737,6.230127
2.7796874,10.451563,2.872705,2.277246,7.296533
4.12832,10.15127,4.3836913,4.3319335,8.0707035
4.5213866,8.889795,2.5838866,3.8927245,6.994531
3.9937987,11.398584,3.8834472,4.0074706,9.43545
3.4847655,8.590967,2.7188964,3.351953,5.9134765
6.8236327,11.132227,3.9017577,4.818994,9.473536
9.254786,11.882959,9.832911,8.871485,11.643213
9.134668,10.859034,9.143457,8.112452,9.515772
7.3888183,9.037989,8.064356,7.716211,7.0243163
2.2984862,8.661036,2.7047362,2.6563964,6.690576
1.7547852,8.430323,2.1976562,2.2308593,6.636621
5.103906,10.933496,5.477197,5.815576,9.27334
6.3333983,10.6542,6.4901366,6.011377,8.9596195
3.6983886,8.363184,5.1239257,5.0453124,6.570703
3.7889647,9.451807,5.2899413,4.8128905,7.5143065
3.7672362,7.775293,3.2022948,3.2943358,6.501367
3.195703,6.707666,0.36855468,1.0406739,5.7413573
2.1407714,6.086572,1.8387696,1.7914063,4.213281
-0.3560547,5.830713,0.8739258,0.51308596,3.945703
1.1922852,9.391504,3.7191405,4.5265136,8.542871
4.2662597,9.567774,6.050195,6.3495116,8.518213
5.3663573,9.397364,6.9137206,6.7730956,8.362696
4.6793456,8.967676,6.817529,7.0648437,7.954004
5.279199,8.281641,5.5711913,5.6187987,7.3456054
3.4791503,7.7293944,4.5421386,4.7726073,5.6625
3.3534179,8.71792,5.0506835,5.188623,7.174463
5.313867,9.505518,7.9308105,7.758203,7.8268065
6.380029,9.757715,8.096094,7.8387694,8.837549
6.022363,10.345606,7.7518554,7.5331054,9.072168
0.4334961,5.502832,-0.9207519,-1.0486816,3.4627929
0.3495117,5.6720214,2.0677733,1.9977051,4.3924804
2.372705,8.666407,2.0780272,3.2240233,7.006738
0.9815918,7.949121,1.7416016,0.59243166,6.136621
4.7176757,8.3536625,4.893701,4.9984374,7.6634765
5.348047,9.001612,6.8478026,6.8807616,7.978662
2.5628905,6.956445,3.284326,2.8373046,5.539697
-0.53867185,5.3993163,0.650293,0.2755371,4.2472167
-1.6167969,5.1202636,-0.56503904,-0.17978516,3.1527343
0.23378906,7.5089355,-0.12045898,0.15761718,5.754297
1.445459,7.120996,1.9312989,2.242334,5.272119
1.0841309,7.9410644,0.44057617,0.37197265,6.2416015
7.529199,10.045557,7.7606444,7.209863,9.70669
6.287744,8.942041,6.1717772,5.9137206,8.366114
5.1458983,8.514063,5.7967772,5.6529784,7.326074
6.6305175,9.71792,7.664697,7.0719237,9.612696
6.9916015,9.745508,8.70083,8.106348,8.902735
4.738672,8.164209,6.202295,5.7875,6.803125
5.5157714,9.114649,5.973535,5.9200683,8.479883
3.0074706,8.962061,3.9776855,4.011621,7.3424315
4.57583,9.421045,6.4916015,6.0423827,8.9667
5.9937987,9.384424,3.8580565,3.6305175,8.788233
0.870752,6.588281,3.454248,3.4137206,5.086572
3.0575194,7.9010253,3.8087401,3.5379882,6.338281
6.3612304,9.305323,7.794824,7.364404,8.529688
6.6322265,9.191309,7.5487304,7.2867675,8.858057
6.197656,9.021143,6.4566894,6.3839355,8.229151
4.99624,8.433008,5.574365,6.147363,7.494043
8.635645,10.189112,10.519434,9.958887,10.87295
9.457666,10.329981,9.74502,9.735743,11.448633
4.3841796,7.525781,5.0702147,5.0475097,6.8092284
5.8875976,9.091455,6.0978026,5.9051757,8.7167
7.0711913,9.322657,4.1493163,3.8353515,9.454737
7.907129,9.362696,8.955713,8.989161,9.469629
7.596338,9.013575,7.1146483,6.8663573,8.929834
3.414453,7.098535,4.737695,4.393945,5.3526855
2.2491698,6.1322265,1.2088867,0.978418,4.5973144
-0.41708985,6.2384276,0.89345706,1.6754395,2.1583495
-1.028418,4.232324,-0.37241212,-0.13999024,1.6573731
0.20571288,4.176172,1.2181641,0.7184082,3.1915526
-0.8279785,4.909326,0.78774416,0.6214844,3.134912
-2.5303712,3.8922362,-1.1116699,-1.2278808,1.872461
0.1415039,4.426416,1.5499512,1.4664551,3.5057616
-0.9788574,5.8980956,1.0711914,0.5931641,4.3631835
2.942285,8.532618,4.547754,4.1231933,8.292871
6.5243163,8.489893,6.89541,7.421045,8.806299
8.057764,8.684717,8.722071,9.034082,9.846338
7.0645995,8.684229,8.006983,7.7396483,8.606348
8.802149,9.38833,8.44253,8.6314945,9.725489
7.1205077,8.44375,5.403711,5.096338,8.069971
2.8678222,6.2311034,3.5868163,3.5836425,5.7645507
5.264795,7.63833,3.0052733,1.9811035,8.031153
3.0797362,6.6476073,3.0069823,1.978418,5.0611815
-0.292334,2.6083007,0.61098635,0.553125,2.4662108
3.13125,8.081446,1.4728028,1.7101074,8.022608
3.209375,7.349756,5.1131835,5.0458007,6.830713
1.9178711,6.7572265,0.869043,0.83095706,4.434961
3.8150878,7.5335937,2.874658,0.5763184,6.894922
1.1603028,4.48208,1.1002442,0.820459,3.85
1.527002,8.829004,3.1100097,2.940332,8.465967
7.3026366,8.757959,6.515283,6.1893554,9.231592
4.1527343,7.4330077,4.995752,4.735498,6.3250976
4.309961,7.5492187,4.9483886,4.8041015,6.924463
7.7330565,8.705957,8.780176,8.897364,9.576075
7.9051757,9.114405,8.347559,8.031641,9.5567875
3.0941405,5.1268554,3.9989257,2.9483886,4.3739257
2.3001952,5.6146483,4.669824,4.596826,4.9920897
3.475244,5.7972655,4.1617675,3.9823241,4.2777343
2.586084,5.8836913,1.5987793,1.7813965,4.333154
-1.0154785,2.2638183,-0.07895508,-0.9537109,0.82070315
-0.2256836,4.438623,-0.35239258,-0.6543945,2.6358886
2.7635741,7.7037597,6.3646483,6.692285,8.347803
6.8333983,7.9676757,8.201807,8.14126,8.496485
5.4620605,7.782373,9.453272,8.8380375,8.300196
4.0748534,6.8441405,5.19375,4.7816405,6.880029
6.8404784,8.898584,8.27627,8.273096,9.622217
2.1344237,4.3233886,2.9146972,2.5768065,3.8299804
1.929834,4.2381835,3.7828612,3.7347655,3.3229003
2.9864745,5.2313476,4.1065917,3.3976073,5.067529
1.1852051,3.390283,1.0365235,0.5301758,2.382959
0.92470706,6.219873,4.427881,4.418115,5.5746093
3.667871,5.6810546,5.803613,6.317529,6.4969726
5.8268065,7.282861,9.346338,9.536036,8.1800785
7.1344237,8.390528,9.111475,8.984522,10.2599125
5.9066405,7.845117,6.8077636,6.594873,8.38711
2.447412,5.473779,2.8597655,2.7437987,4.334375
4.834863,7.2848144,5.5729003,5.7259765,6.99624
5.620752,7.548242,7.4728026,7.3285155,8.011133
6.2350097,6.7992187,6.49917,6.8358397,8.047998
6.6632323,7.3756347,6.8575683,7.1092772,8.236231
7.066797,7.5736327,8.046289,7.5023437,8.715967
7.008203,7.872949,7.4947753,7.4322753,8.850977
6.691797,7.7430663,8.103907,7.777246,8.282862
10.748438,9.597071,10.191553,9.872705,10.947168
11.745996,8.594629,9.405176,8.973536,8.433496
8.008448,8.790918,8.579248,8.945948,9.118067
5.9068847,7.8041015,5.815088,6.5626464,7.002588
10.420557,9.234278,7.5296874,9.432276,8.94961
9.272364,11.185938,7.5833983,10.272608,10.931543
12.291407,10.20376,11.907862,13.076563,10.206934
12.114405,12.250635,11.686914,13.63833,12.552881
8.021143,10.373926,9.438379,10.099512,10.441553
10.410303,10.500391,10.265039,10.798243,11.129786
9.029932,7.943994,8.858789,9.848536,8.914698
5.582422,8.714258,5.148584,5.1759276,8.524805
5.7279296,8.443262,5.327539,5.343164,7.0506835
4.799463,8.193262,6.0384765,5.988672,7.7953124
5.758447,9.125879,7.055322,6.7503905,10.491114
9.504297,10.001612,10.915674,10.340967,11.548731
11.309473,10.190088,13.596338,12.751612,11.527735
9.026514,9.157618,12.626368,12.619043,12.102442
12.443262,9.5707035,11.641504,11.175196,11.48208
11.1019535,10.275293,11.748926,11.949121,11.778711
8.631983,8.990381,7.643213,7.486963,11.597315
7.2435546,9.6974125,8.044092,8.495996,8.286524
9.088282,9.151026,10.409082,10.798487,9.811182
9.585108,9.411036,10.634668,10.90127,10.018946
10.7721195,9.732325,11.029932,10.703028,10.587305
10.299952,10.097803,13.00625,12.838282,11.836817
11.082178,10.023584,12.080225,11.718409,12.373438
9.375879,9.910059,10.446924,10.207911,10.418604
9.194483,9.8832035,10.55752,9.339258,11.151758
9.447657,9.236719,10.136377,10.264795,10.622705
7.9955077,10.007959,8.899561,8.544336,10.484034
9.768213,9.856836,10.629053,10.29458,11.479395
8.125147,8.713282,6.65249,6.7801757,7.620752
7.74624,8.539698,8.853418,8.329248,7.894922
8.576563,8.687159,10.385401,9.303125,8.798731
8.972315,9.959131,9.541895,9.228174,9.460108
10.35293,9.802393,12.123926,12.145411,10.926172
13.572168,10.701075,13.292627,14.132227,12.745264
11.63418,10.195215,9.79751,10.581446,11.345118
10.655909,10.089014,11.344629,10.892969,11.504053
9.440332,9.683008,10.089502,10.6175785,10.965723
12.586084,10.589746,12.289942,11.556299,10.578272
9.587061,10.484766,10.71084,10.363428,10.17544
13.415918,11.257227,13.495996,13.707422,13.265772
14.559473,12.413965,15.860743,16.071192,15.430811
13.490381,13.160303,14.449366,14.65835,14.5917
12.357569,12.910059,14.189356,14.90127,13.414698
8.815332,11.9144535,9.508936,9.826319,10.994532
9.919336,11.280909,10.914698,10.702051,10.797022
12.266993,11.951807,13.974268,14.039209,13.735254
13.356348,12.32583,14.277735,13.985743,14.1542
14.125147,13.396875,14.74795,14.792383,14.079004
13.521143,12.538965,14.265528,13.549219,15.436914
11.761133,12.443506,15.414698,15.043848,14.621485
10.668116,12.198633,12.680323,12.526514,13.608057
11.331934,13.158106,12.9925785,12.230371,13.879786
10.771143,12.228418,12.79336,12.39419,12.85586
12.116602,12.568018,13.402491,13.361475,14.49917
13.587305,13.204248,14.350489,15.015039,14.409327
15.686426,14.945948,16.025293,15.728907,15.2582035
13.172266,14.113916,13.798487,14.657373,13.401758
14.025782,13.196192,14.115137,14.565577,14.366602
15.219385,13.425684,15.224756,16.094141,14.958399
13.279444,12.477198,14.514307,14.881006,13.854883
14.159327,12.852198,15.335352,15.2792,13.937891
15.542383,14.170557,17.39956,16.940088,16.151514
18.596338,17.005518,18.634424,18.343897,18.025537
20.760157,16.315332,21.3417,21.5563,21.108545
20.749659,16.17666,19.708887,19.680323,17.721338
15.347315,15.41543,15.021143,15.789698,14.627832
14.8346195,14.930811,16.371729,17.720118,14.236475
10.5394535,14.7286625,12.877344,12.944727,12.787012
12.320948,15.752344,12.987452,14.558741,14.632471
15.107569,15.981348,16.518457,16.97915,14.901758
16.08169,17.623438,18.847803,20.996485,17.10879
16.65957,17.376612,17.454493,18.69961,17.035303
16.651026,17.936426,16.677393,18.451075,17.736963
18.975977,19.268213,19.302393,20.132715,20.816065
21.46792,16.926905,18.795069,20.283106,19.484522
21.090967,18.884912,23.565088,23.302637,18.875391
22.364893,20.7875,22.766504,23.869776,21.993067
24.26333,20.236475,24.20376,25.542627,22.182764
23.063868,21.691065,24.080713,26.172998,23.866602
23.43081,21.54458,24.49624,26.45669,23.754786
23.033838,19.694971,23.165674,23.843164,21.437647
20.777246,19.280176,21.552881,22.04165,20.858057
19.798243,17.492823,20.321924,20.880274,18.209375
16.310205,15.759668,16.503077,16.57876,16.74917
17.078272,15.684229,16.949854,17.25088,16.461329
15.716455,15.245752,15.951807,16.465967,15.602198
15.57876,15.8146,18.441065,17.98672,16.864405
16.066553,16.521631,17.740381,17.114893,17.257715
17.599268,16.554346,18.390772,18.293116,16.824366
16.351954,16.42373,19.731348,19.340967,18.652979
15.379541,16.98379,17.60415,17.093164,18.984278
18.375391,17.139795,19.48794,19.024073,19.52749
17.536036,17.067041,18.65127,17.915186,17.876123
17.41421,17.159815,18.34707,18.678125,16.510645
19.162745,15.77627,21.334131,21.17422,17.047754
17.783594,16.610254,18.868067,18.665918,17.508936
13.406885,15.222559,14.781885,15.023096,14.880274
16.273829,15.419825,16.548975,16.881983,15.897608
13.010157,16.619043,15.438135,15.286036,16.868067
15.621729,16.196192,17.693018,17.173975,17.63125
17.84292,16.121729,18.111475,17.280176,18.825586
18.5646,17.965967,19.440088,19.423487,19.841455
19.820704,17.127832,19.86416,20.913721,19.704248
18.121729,16.362207,19.36587,19.509912,18.355371
12.976465,16.04458,13.87295,13.839746,15.663965
16.591211,16.18545,16.002344,16.256739,16.922022
15.051172,15.954004,15.546534,15.014307,17.06582
12.526514,14.694483,13.622705,13.437159,14.920801
11.522364,15.112696,13.66836,13.50918,14.811182
16.042627,16.036768,16.814112,16.577051,16.870264
16.103662,16.283838,16.11416,15.96084,16.41714
15.59878,16.246973,19.023584,18.110254,18.652979
22.296778,18.48916,21.386621,21.554834,19.872217
19.782862,17.49624,19.463282,20.772852,19.336573
16.841944,16.069727,16.933008,16.472803,18.295069
16.75796,17.24331,18.720118,18.776026,17.30166
17.237452,16.329737,17.975733,16.955713,17.68374
17.338282,16.551172,18.384668,18.343164,18.164454
17.430323,16.471094,19.685694,19.450342,18.35
15.194483,16.091944,16.613672,16.218164,16.988916
14.7408695,15.748194,17.153955,17.25503,17.612452
14.66128,16.130762,17.51919,17.027246,16.4938
16.14297,15.802393,17.138086,17.321192,17.709131
17.656885,17.275293,17.873438,18.26919,17.226221
14.354151,15.869776,15.910791,17.212305,17.864893
16.616602,15.863672,16.216944,15.623438,15.910791
13.495752,15.165918,14.471582,14.296045,14.230371
13.771387,15.109034,14.248194,14.035791,14.577295
13.998682,14.163233,14.352442,14.13003,13.8675785
14.296045,15.498438,15.69253,15.531397,15.791407
15.816797,16.195948,16.467432,16.89004,17.681787
16.54458,16.468164,17.803858,17.699121,18.234766
16.966211,15.751612,17.98208,18.054102,17.930079
15.968897,16.40835,17.067286,17.563623,16.778223
16.727686,16.42251,16.772608,17.513086,17.418116
16.433252,16.532618,16.696192,16.096582,18.88418
18.605616,16.408106,16.984766,17.182276,18.39248
16.87588,16.367823,16.88003,16.399317,17.30874
15.569483,16.433252,18.340723,17.9667,16.914942
17.015284,17.244287,17.920801,17.153955,17.70083
16.957666,17.070948,17.645655,17.29629,16.76797
15.835352,15.8849125,16.896387,16.6354,16.326563
15.323389,15.934229,16.47671,15.991358,17.455225
12.036768,14.118311,11.982569,11.870752,12.933741
11.7877445,13.393702,12.211573,11.899317,12.903711
11.432276,13.330469,11.829737,11.749414,12.177393
12.820948,14.204737,13.544336,13.401758,14.268213
14.717676,15.517969,15.667383,15.562159,15.190577
15.250147,15.874659,16.753077,16.859278,17.247217
14.064844,15.319971,15.540918,15.93667,16.657862
13.470118,14.95083,15.073633,15.15542,15.805567
13.441553,14.358789,14.42959,14.515284,14.172754
14.317286,16.466455,14.413477,14.941797,16.232813
13.658106,16.07754,14.604639,14.785547,15.887354
11.765772,13.571436,15.339746,15.622217,13.433496
14.35,14.468653,16.266016,15.784082,15.194727
13.002588,15.1192875,14.501856,16.325586,14.85
14.311426,15.219385,15.687647,15.954981,15.894922
12.864893,14.1783695,13.766993,13.750635,14.019922
13.928858,14.637598,16.333399,15.632471,15.303614
15.488916,15.637842,18.244532,18.86587,16.782862
19.76626,15.06875,20.83462,20.520655,18.419825
16.416407,14.844629,16.256739,15.995996,14.809229
15.481592,14.897852,16.641016,17.261377,16.785303
15.477442,14.954493,16.740625,17.356592,15.4317875
15.310205,15.147364,15.975977,16.354883,15.641504
15.043604,15.762598,15.702539,15.616846,15.496485
18.701563,16.579737,17.60293,17.420313,16.63589
21.28335,16.697657,22.691065,22.606104,18.126856
15.0255375,14.994776,15.849268,15.355127,15.635401
15.669825,16.056543,16.14297,15.891504,16.46206
16.144434,15.978174,17.001123,16.788233,16.922266
14.019922,15.358301,14.407618,14.025049,14.399317
9.1192875,12.868555,10.599756,10.350489,11.696436
9.743555,14.581446,10.629053,11.44375,13.408594
10.174707,13.0567875,10.716455,10.792627,11.987207
7.1983886,11.396631,9.013086,8.726465,9.709864
8.015039,11.397364,8.182276,8.09878,9.841455
10.0533695,12.119776,10.575586,10.516016,11.477442
10.586084,12.455713,11.9457035,11.300196,11.843653
10.06045,12.763819,11.089258,10.558741,11.52334
9.978174,12.349268,10.908838,10.583155,11.442041
9.610987,13.49502,10.774805,10.585108,11.755274
11.22378,14.223291,12.270655,12.705957,12.966455
13.457666,13.886866,15.585596,15.231348,15.488428
12.227686,13.660059,14.353418,14.870752,14.495752
11.676172,13.71084,13.200098,13.100489,13.31167
9.568262,13.23208,10.895655,10.980616,12.235498
11.395899,12.802637,10.647364,11.1002445,12.27334
9.654688,12.526758,11.597071,11.302393,11.704493
9.757227,12.631739,11.937159,11.737452,12.248438
10.594873,13.151758,11.607569,11.47793,12.551905
10.435205,12.676905,11.143213,10.876612,12.403955
7.1388183,12.364893,8.955713,8.483057,10.019678
6.192285,11.200342,7.2293944,7.677881,9.971827
3.8580565,9.019922,4.956201,4.9469237,7.202295
2.7245116,8.146631,3.8824706,3.7210937,6.69082
5.661279,11.239893,7.733545,8.284327,9.754786
6.936914,11.245752,8.858057,7.963037,10.496973
7.6668944,11.380274,8.505762,8.6471195,10.746485
8.347803,12.328028,10.850733,10.646875,11.478907
10.176661,13.135157,11.564356,11.706202,12.507471
7.6117187,11.246241,8.1896,7.981836,10.059961
6.7625976,10.938623,7.106836,7.247949,8.75503
6.616113,10.548243,7.1725097,7.1927733,9.056543
5.5765624,10.037012,6.334863,6.4798827,7.7381835
10.330713,12.8346195,10.761377,10.3502445,12.630274
11.429102,12.832911,12.351221,12.069971,13.19375
12.597559,14.025293,13.424707,12.739405,14.183741
11.616846,12.860498,13.209375,12.691065,12.670069
9.673731,12.211084,10.848291,10.484278,11.427393
9.524317,11.9396,10.614649,11.123926,11.669825
9.233301,11.995996,11.611231,10.674463,10.956202
10.45669,14.047266,10.30044,10.239161,13.973291
11.124659,13.5255375,11.985254,11.753077,13.1644535
5.848779,10.862452,6.9930663,7.171289,9.586573
7.7655272,11.726709,9.814356,10.066553,10.642969
9.053125,11.891016,9.485498,9.48794,11.168604
7.534082,11.1158695,8.334864,8.167139,10.206934
5.1512694,10.16958,5.62832,5.500879,8.79458
3.4901366,8.896143,5.8216796,6.0003905,6.3861327
6.112451,11.928614,6.8512206,6.7831054,10.730616
9.902002,12.616846,10.16958,9.829248,11.79751
6.629297,10.914698,7.389795,7.015283,9.433985
7.197656,10.042383,7.615381,7.8580565,8.71792
6.981836,10.268946,7.667627,7.0873046,9.449366
3.7706542,8.8380375,4.140283,4.754785,7.117334
4.1756835,7.5694823,4.6603026,4.491113,6.059961
2.5660644,8.510157,3.0443358,3.299951,6.528955
1.9579102,8.593164,2.8285155,2.9186034,7.553369
3.0362792,7.527002,5.1944823,4.7291503,6.7726073
3.110742,6.134912,3.9376464,3.933496,5.7586913
