"[299, 255]","[227, 248]","[287, 319]","[279, 328]","[230, 262]"
4.964502,8.669336,5.8841796,5.8790526,7.1129394
3.2049804,7.725244,3.4095702,2.9566894,5.238916
0.8109375,7.4291015,0.83144534,0.6900879,5.0643554
1.0360352,5.77749,2.1944823,1.6656739,4.5243163
-0.46225587,6.539209,0.48671874,0.7262207,3.5936522
3.0250487,7.723047,4.900781,4.709863,6.4120116
2.6705565,7.4635253,4.197656,4.6874022,6.332666
1.5821778,6.542627,2.4784179,2.3578124,3.9393554
5.9532714,9.344141,4.836328,4.5245605,7.9432616
6.1839843,10.083887,6.891992,6.8143554,10.240625
7.3163085,9.824854,8.671778,8.455225,9.515039
7.0260253,8.514551,7.2152343,6.5294433,6.6339355
8.135889,9.495752,8.028467,7.5423827,9.139063
8.68545,9.423975,8.930811,8.311182,9.058496
5.2589355,8.505518,5.235986,4.990381,6.4588866
2.609033,7.7137694,3.7774901,3.9393554,5.8541503
9.017237,10.1896,9.229639,9.1896,10.3346195
9.11709,10.8146,9.672998,9.62417,10.47085
7.4486327,8.517237,5.5960937,5.3944335,7.03042
7.557031,9.545801,6.731836,5.421045,8.986231
3.9813476,7.4083495,3.711328,2.9254394,5.3509765
2.9181151,7.829492,4.025293,3.844873,6.50332
7.251611,9.34292,7.9237304,7.7835937,8.907373
8.078516,9.844141,9.281641,8.685205,9.7113285
7.9569335,9.979395,9.226709,8.395411,9.657129
7.2118163,8.468653,6.313379,6.2328124,7.0382323
6.910791,7.3749022,4.546533,4.147119,5.8407226
6.2052245,9.256983,7.1112304,6.8927245,8.119043
5.1551757,8.4474125,6.009668,6.00332,7.393701
1.9774414,7.363672,3.5426269,2.6998534,4.9691405
9.38711,10.632471,9.462549,8.823145,10.251856
7.3888183,9.660303,8.322901,7.8177733,8.84878
2.9137206,7.1600585,4.5279784,4.601709,5.4068847
5.843408,9.58584,7.510156,6.699121,9.21084
5.8963866,9.486963,7.4430175,6.6893554,9.078028
4.70083,8.914942,6.751611,6.306543,8.016748
5.8700194,8.147364,6.3336425,5.7052245,6.6983886
7.6354003,9.22378,7.9935546,8.297022,9.261377
8.778711,9.78628,8.954737,9.140528,9.691553
2.0033202,6.544824,3.2821288,3.2015624,5.211084
4.643701,8.581446,6.341699,6.255029,7.836328
4.2054687,7.2918944,3.5658202,3.0370116,5.9034667
5.177881,9.012842,3.4825683,3.2967772,8.468653
7.2713866,9.261377,6.2293944,4.643213,8.75503
0.11782227,5.724756,0.40126953,0.4029785,4.039697
-0.046728514,5.456201,1.268457,0.7992188,3.1275878
-1.6658691,4.8124022,0.7523438,0.54677737,3.0609374
-1.5176758,4.5904784,-0.87167966,-0.8472656,2.7796874
0.37978515,5.2540526,0.7823731,0.67714846,3.8600097
0.40200195,7.089502,2.5995116,3.172998,5.579736
4.7743163,8.327539,5.2750487,5.1075683,7.457422
0.572168,4.9466796,2.6322265,2.2726073,3.2865233
-0.49277344,5.030664,1.007959,0.84243166,3.6390624
2.3150878,6.8895507,3.6300292,3.556787,5.6336913
4.7552733,7.917627,4.3351073,4.56167,7.3907714
1.2730957,5.1720214,1.0394531,1.0179688,4.339746
0.55263674,4.3128905,0.9647461,0.5775391,3.0660644
-0.6158203,5.236963,0.6905762,0.18227538,2.9237304
0.46816406,5.272363,1.7489258,1.5326172,3.3932128
-0.8567871,3.8548827,0.90419924,0.39858398,2.4879394
-0.96176755,3.471582,0.81411135,0.53896487,2.4276366
-2.5840821,3.6825194,-0.7769531,-0.87583005,2.3382812
-0.0105957035,4.5125976,1.1891114,1.4544922,3.8219237
-0.6675781,4.2970214,-0.2520508,-0.42905274,2.7018065
1.9166504,6.9828124,2.0509276,0.9771973,6.69082
3.5143065,7.1375976,3.627832,3.2730956,6.6822753
1.1581055,5.247461,1.3209473,1.1205078,4.7499022
-0.4649414,4.6061034,-0.24863282,-0.3926758,4.1302733
1.6759278,5.94375,2.3873534,2.4381347,6.5699706
3.324121,6.2958007,3.6178222,3.7909179,6.7555175
1.3370606,6.360986,4.09292,3.7359862,5.90542
-0.2959961,4.695459,1.9439942,2.0003905,1.639795
-2.818213,1.1686035,-0.17172852,0.14614257,-0.10239258
-1.9053711,1.9811035,1.6187989,1.8036133,0.63149416
-1.3423828,2.2489257,0.32753906,-0.14438477,-0.0953125
-0.91782224,1.9386231,0.43325195,0.3421875,1.087793
0.51601565,2.954248,1.4925781,2.164453,2.6876464
-1.1424316,3.421533,0.34414062,0.016503906,1.6869141
2.6397948,6.26333,3.6288085,4.0248046,6.662988
4.539697,6.71792,3.9173827,4.785791,7.143701
5.8666015,7.2552733,5.6234374,7.039209,8.233545
6.7152343,8.631006,8.367823,8.53628,9.490625
4.018945,8.008692,8.980127,9.303125,9.973047
5.647363,7.386377,6.9691405,6.636377,7.9654784
5.355127,7.497705,7.422998,6.970361,8.832178
9.255762,9.851221,9.471827,8.632471,11.064356
8.904444,8.89419,10.702539,10.328028,10.034571
7.0628905,7.3580565,7.3507323,7.5975585,7.568994
8.254786,8.220606,7.1690917,6.7347655,8.197901
5.6483397,7.46792,6.037256,6.760156,7.1983886
8.100733,8.542871,7.990625,8.326075,8.92544
5.2555175,7.760156,6.544336,5.548242,7.228418
7.721826,8.090967,7.4381347,7.2638183,8.48501
6.752832,8.111719,7.2523437,6.9186034,7.7972655
7.8963866,7.794336,7.4308105,7.4566894,8.823389
9.291895,8.54043,8.041407,8.09292,8.848291
7.3250976,7.4603515,6.7018065,6.4967284,7.754785
6.341455,7.2733397,6.7350097,6.440576,7.4305663
8.143457,7.181543,6.8180175,6.1861815,7.2833495
6.099756,6.6705565,6.45083,6.3558593,6.9242187
5.907129,7.994287,7.037744,7.1615233,7.9259276
5.004297,7.7308593,5.7743163,5.880029,7.7262206
4.622705,6.7638183,6.2967772,6.3321776,7.7193847
3.9037108,7.072412,4.7105956,4.865869,8.32583
3.0143065,7.8143554,4.332422,4.4967284,9.000391
5.2054687,8.615381,5.4898925,5.881006,7.6324706
3.1222167,6.8768554,5.174707,5.214746,5.9117675
2.6529784,6.5489745,4.046289,5.140039,5.603662
4.4376464,5.7430663,5.367334,5.346338,5.7308593
6.657373,7.817285,5.9811034,6.0194335,7.699365
7.704004,8.33169,9.283594,9.15835,10.40127
5.579004,7.377588,7.9220214,7.523584,7.3958983
5.7882323,7.6097655,6.7674804,6.6344237,8.215967
4.8163085,6.6075683,6.34292,6.3592772,7.2088866
3.1429687,5.504785,4.605127,4.968164,5.550195
4.562158,5.596582,6.042627,5.7154784,5.893701
4.909326,6.555322,6.1151366,6.2523437,6.4010253
4.223535,6.8055663,5.859033,5.2733397,6.9603515
4.0038085,5.867578,6.10708,5.922754,7.084375
6.096582,6.5111327,5.8409667,6.0228515,6.723535
3.6603026,6.213281,4.7223144,4.6878905,6.2950683
3.1808105,4.488916,4.0699706,4.195947,4.6563964
2.7418456,4.3946776,3.522119,3.5033202,4.7594237
3.6822753,4.56875,4.425195,4.414697,4.0716796
6.85,6.8338866,8.775049,8.251612,8.418116
8.50918,7.3202147,10.113916,9.580225,9.931543
9.564356,8.051416,10.148096,10.573633,10.56875
12.704737,8.624414,11.197901,11.581934,10.365137
8.845362,8.064112,8.820459,9.111963,9.437647
8.30044,8.301661,7.695703,7.2499022,8.309229
11.077295,8.2911625,8.41958,8.317286,9.769678
7.765283,8.576075,8.818506,8.502344,10.095362
8.057276,8.271875,10.739161,9.296289,10.476465
6.558496,7.4254394,7.169824,6.8819823,7.918115
4.564111,6.45083,5.9293456,5.674707,6.8768554
4.474756,5.3438964,5.268213,5.5694823,6.0438476
5.6981444,6.280908,5.9862304,5.9984374,6.5992675
5.0467772,5.4154296,5.99917,5.914697,4.8509765
5.132959,6.0282226,6.065088,5.600244,5.9027343
5.396631,6.0331054,7.0155272,6.930078,5.6625
8.039209,7.8490233,9.215479,9.164698,8.013575
6.4413085,8.180811,7.4955077,7.6566405,8.269922
7.4139647,6.6603026,9.279688,9.469873,7.9410644
10.93252,7.9115233,10.207666,10.108545,9.6939945
11.913477,8.234522,9.042139,9.514551,9.439356
7.511377,8.059473,8.332422,8.650049,9.044825
6.918115,7.924951,9.413965,8.796289,9.917383
6.7279296,8.872461,7.712793,7.232324,8.044092
8.38833,8.90127,10.558985,10.719629,11.341455
6.813623,7.534082,8.57876,8.155664,8.583643
8.199854,8.215967,8.652979,8.344141,8.353418
6.8583007,8.656153,8.076563,8.701563,8.914698
6.088037,7.251123,6.664453,6.1151366,7.0091796
6.6722655,7.941797,7.2416015,6.643945,7.753076
5.077783,6.565576,7.1429687,7.1600585,7.506738
8.348047,6.5731444,7.202295,5.5455565,6.5367675
8.495508,6.982324,7.911035,8.539698,6.5538573
6.702295,7.3614745,6.915918,7.2188964,9.218897
8.494532,8.33877,8.287256,8.6817875,9.209864
11.179346,10.044092,11.637842,11.6505375,12.468164
9.616846,9.63003,11.410303,11.493067,9.676416
11.633936,9.73501,11.436914,12.080469,11.399073
12.515772,9.38003,12.309473,11.945215,11.751612
22.834375,12.791407,22.208887,21.52749,19.249903
17.536036,9.864161,13.613916,11.241358,12.550928
11.688135,9.716944,11.29751,11.660547,11.3675785
9.11001,8.842432,10.708643,10.150293,10.527979
7.350244,7.713281,8.431543,8.41543,8.510157
8.376368,7.749414,9.046045,8.816065,9.109522
10.9925785,10.140284,11.730127,11.310694,11.544825
12.109522,10.43252,11.315332,12.036768,12.441065
12.308252,10.873194,12.279444,13.310205,12.883936
11.749659,10.711084,13.207422,12.9925785,12.971827
11.159815,10.194971,12.807032,12.182276,12.843897
15.47793,11.490137,16.063623,15.692774,14.260889
18.798243,14.502588,19.67544,19.79922,18.554102
12.062647,10.823145,12.469385,12.777246,12.569239
11.374414,10.2113285,11.843164,11.366114,10.759424
13.541407,10.305323,10.190821,10.53628,11.312647
20.886866,13.138819,18.388086,19.107325,13.687647
21.974024,15.066309,15.86294,13.531641,17.142237
17.856592,13.998926,13.661524,14.972315,18.408838
20.975245,16.780909,17.52749,19.985498,19.36831
23.335352,13.894678,21.613428,22.951807,17.476221
15.957911,16.074854,15.681299,15.31875,17.529444
13.650049,13.641504,12.485987,13.598047,14.180323
13.437159,13.859766,11.939844,13.203516,14.01333
11.592432,13.667383,12.447168,13.161036,13.704493
10.379786,12.44375,11.10293,11.028223,13.024561
15.141993,13.025293,18.181543,18.623682,17.725733
22.813868,17.939844,22.64297,22.57046,19.37832
26.208887,18.148584,26.242334,26.20498,21.459864
24.907862,18.143946,22.721094,22.816797,19.472315
13.344141,12.002344,14.925196,14.293604,14.700342
15.626123,11.529932,12.65127,13.24917,12.478418
16.745508,12.935694,11.3814945,11.125879,12.365381
21.564112,14.985254,20.454248,20.355127,21.398096
22.308008,13.348291,23.533106,25.081202,18.535303
23.469873,13.792139,23.01919,22.67422,18.641504
19.097559,13.174463,16.869287,17.439112,15.153955
15.8346195,12.410303,16.46255,15.980371,15.265284
18.426416,13.915674,18.918604,18.753809,16.787012
20.206446,15.126123,21.024805,20.563868,18.322657
16.314844,13.70669,14.261621,14.295801,14.634424
11.048975,12.296778,12.412012,12.826807,13.13125
13.798975,12.3519535,15.458887,14.970118,14.373682
16.250635,13.562159,18.820704,17.222803,17.361963
17.737696,13.670557,17.161524,15.468164,17.664698
17.513575,13.616846,16.851465,16.578516,13.2425785
17.153711,13.648096,16.281153,16.41128,13.365625
16.558252,14.25503,15.865137,13.808496,18.67959
12.207178,13.068506,15.229395,15.168116,13.483301
17.766016,13.729883,14.796289,14.946436,16.218653
16.689844,13.502344,14.87002,15.324366,16.136377
20.12417,15.107569,18.014307,18.013819,17.325098
15.479639,13.774805,15.311914,14.732569,13.986231
15.760645,13.2792,14.952295,15.451075,15.457178
12.714502,13.123926,13.334131,12.71377,14.448633
16.120508,13.278711,16.245752,16.261133,15.667871
14.25503,15.062159,17.821436,18.34585,15.222803
11.915186,14.011621,14.132471,15.395411,15.461817
12.619776,13.078516,16.352442,15.923487,14.376612
16.73623,14.140039,18.296045,18.232569,17.171778
19.442041,14.356592,19.69961,20.46255,21.279688
21.864649,14.623682,20.86123,20.923975,17.83047
19.204248,15.272364,17.269922,17.555323,17.59585
14.529932,14.610987,14.761377,14.847803,15.6175785
14.837305,14.839014,14.418116,14.01919,16.415918
15.77627,14.650049,15.940577,15.420313,15.609034
14.146387,14.715967,14.873438,13.875635,14.610254
15.451563,14.562647,17.402246,17.023096,15.965967
17.766016,15.969141,18.806543,17.780664,18.83169
22.579493,15.751856,19.586084,19.763575,17.665674
25.302149,19.036524,26.301416,25.557032,25.41128
22.62588,16.891748,20.651026,22.149317,17.531641
21.020655,16.231592,19.99624,20.643457,19.198877
22.227686,15.907618,22.176905,21.447657,17.809961
18.201075,15.190821,15.859034,15.926661,14.760645
12.412012,13.51919,13.727686,13.496973,14.393213
11.050196,13.032618,11.0646,11.85708,13.119043
12.527246,13.780176,13.333155,13.564844,13.390528
13.162012,14.531397,13.127832,13.160303,14.511377
12.456202,15.112452,13.770899,13.0021,14.101465
12.494043,13.834375,14.162012,13.988916,13.8224125
12.883936,14.406153,13.036524,12.696192,14.413477
13.636133,14.674463,13.8692875,13.315088,14.685694
14.63711,14.602686,17.1,16.691065,16.80044
17.133448,15.029932,17.539942,16.855371,17.246973
21.248194,17.999903,20.972315,21.297022,19.49087
21.382715,17.13296,21.14712,21.339746,20.81582
24.180079,17.046534,24.167871,24.308985,23.444971
26.268213,16.275293,25.523584,26.74795,22.93374
17.174463,15.677881,18.022608,18.04336,16.36709
17.777002,15.470362,17.430079,17.584864,16.874414
16.652246,14.9457035,18.003077,17.781397,16.684229
14.732569,15.056299,14.497461,14.247217,13.938135
11.719873,13.940088,14.202295,14.760401,14.581446
13.343653,15.286768,14.609034,14.347559,15.097071
19.38296,16.233545,21.383936,20.63125,16.559961
18.777979,14.488428,18.746973,18.098047,14.874414
12.195215,14.35,12.715967,12.733545,13.999903
13.796778,14.346827,12.89419,12.859034,14.594385
13.626368,14.1158695,12.741846,12.8849125,14.319727
12.16958,13.011866,12.993311,13.153223,13.336084
13.999659,14.441797,12.824854,12.805323,14.591211
12.994532,14.411524,15.875635,14.690332,15.585352
13.386133,14.263086,14.41543,14.418116,14.587305
14.667383,14.258448,15.703272,15.806055,14.494043
18.050928,15.053614,20.096582,20.02212,15.566553
14.154932,16.224756,15.76919,15.373194,17.147364
14.079493,13.886866,14.918604,14.695215,13.487696
14.791895,14.862207,16.613916,16.430079,14.4283695
12.800684,14.288965,14.630762,14.478907,14.382471
12.149073,13.359766,13.011377,12.6271,12.489405
12.59878,13.370264,12.272364,12.269922,13.668848
14.09878,13.538477,14.944971,14.720362,13.679102
12.9457035,13.921045,15.842432,15.8519535,13.860743
14.57461,14.065821,16.056543,15.794336,15.10586
15.465967,14.372461,14.516748,14.442286,14.998438
13.902246,15.080225,14.285791,15.046778,17.645655
16.04043,15.467676,16.64419,15.98086,16.310205
13.9630375,14.231348,14.4769535,14.307032,14.7442875
14.983057,15.069239,15.385157,16.551172,14.975
15.11001,15.167139,14.809961,14.86709,15.020166
16.129541,15.113184,15.508692,15.681543,15.848291
15.374903,15.28628,15.12295,15.046045,14.788721
11.1332035,13.612452,11.9144535,11.67544,13.54751
12.4596195,14.135889,13.553858,13.923243,13.521631
14.168116,14.466944,15.038721,14.989161,15.179834
13.636133,14.344629,13.695459,13.6542,13.732325
9.354151,13.124659,10.759668,10.806543,12.7755375
7.2291503,12.795313,7.8663573,7.735254,9.724756
8.480616,11.288477,9.454981,9.529932,10.5707035
8.260157,12.656153,9.914698,10.11709,10.768946
10.801661,12.642969,12.599512,12.843164,12.731836
9.449854,12.657618,11.113672,10.828516,12.32461
11.657862,12.845606,13.016504,13.323145,11.875391
11.514795,12.737452,11.16958,11.645166,12.426905
12.614893,14.177149,13.901758,13.93667,15.44375
13.081934,14.395411,14.356348,14.717432,15.316797
11.78042,14.2096195,11.899561,11.8417,14.628321
12.08877,14.237696,11.9161625,12.199366,13.3849125
8.058252,11.673975,9.534815,10.214014,11.020655
10.288721,12.067041,10.732569,10.6488285,11.190821
12.477686,12.015772,11.309473,9.791895,11.297998
9.965967,11.996485,10.962793,10.779444,11.517969
12.262842,13.226709,12.026514,11.666407,12.888086
7.8595214,11.509424,7.952539,7.7691894,9.299463
8.141504,10.757227,7.869531,7.8963866,10.181543
5.6168456,9.766504,8.052881,7.4291015,8.864893
5.786035,10.5917,9.105371,9.092432,9.379541
5.932031,11.240137,8.657373,8.602198,10.159082
8.309961,10.90127,8.882471,8.163233,9.386377
7.206201,10.909571,9.527735,9.6800785,10.130518
7.7032714,10.411768,8.979395,8.413477,9.330225
7.555078,10.182764,8.391016,8.385889,9.48208
6.8836913,9.802149,8.034082,7.798242,9.130762
7.4654784,10.59292,8.921289,8.833155,9.857569
6.8854003,10.433741,7.870752,7.5423827,9.820459
6.2464843,10.208887,7.9271483,8.016016,8.656397
5.4828124,9.917139,6.282129,6.421045,7.8680663
6.0282226,9.852686,6.78457,6.824365,8.364405
6.543115,10.409815,6.849756,6.5108886,8.698877
9.721582,11.944971,7.7503905,7.6327147,10.821924
11.19375,12.560938,12.038721,11.592432,12.276026
11.969629,13.26626,12.074854,11.576319,13.037989
13.005274,13.631739,15.1542,14.774805,14.651514
10.466944,12.041651,11.759668,11.4667,11.677637
9.950342,12.1349125,9.701563,9.289698,11.650293
9.770655,11.738672,11.236963,10.974268,11.329248
8.641993,11.780664,9.128565,8.882959,11.308985
6.3180175,9.614893,6.70791,7.1202636,8.680323
6.4120116,10.145166,7.0299315,7.3473144,8.744043
6.5819335,9.927637,6.8368163,7.403711,8.614161
5.3106933,9.452784,6.71499,6.502588,8.167383
5.5177245,9.506739,7.723291,7.603418,8.517969
6.2228026,9.6625,7.942529,7.924707,8.358545
7.858789,10.7721195,9.267725,9.198877,9.619532
10.554346,12.150293,11.042871,10.920557,11.688868
10.174952,11.869043,10.444971,10.697901,11.557764
11.99502,12.059961,11.697901,11.856348,11.643702
9.742334,11.8502445,10.503321,9.627832,11.495264
10.124903,11.882715,11.256983,10.815088,11.455713
5.551416,9.10586,5.3111815,5.1634765,7.8143554
5.5453124,8.891748,7.546289,7.3351073,7.9520507
4.025293,8.774805,6.110742,6.166162,7.2711425
3.8402343,8.83584,3.9730468,3.792871,6.6356444
2.1910644,8.677149,2.7921386,4.650781,6.641504
5.4779296,9.639795,7.266504,7.10708,8.41543
6.689111,10.064112,7.624658,7.4361815,8.674219
2.3214355,7.9237304,3.8993163,3.5423827,6.280664
2.2311034,7.678125,3.838037,3.7447753,6.3563476
2.4984374,6.567285,3.5609374,2.778955,5.437158
-0.004248047,6.494043,0.24233398,0.31289062,4.3995605
2.584375,8.127832,3.7035155,3.8124022,6.1742187
4.429834,9.075342,4.079736,4.120752,7.507959
0.6305176,7.551172,0.6683594,0.66079104,5.2989745
-2.2698731,5.2604003,-0.44638672,-0.37558594,4.185205
0.48256835,4.812158,-0.87998044,-0.32529297,3.082666
-1.6092285,2.55166,0.76967776,0.2442871,2.379541
