"[299, 255]","[227, 248]","[287, 319]","[279, 328]","[230, 262]"
1.410791,8.233789,4.2833495,5.152002,6.284082
5.1,9.017481,6.037256,5.9776855,7.2940917
6.688379,10.669092,6.4325194,6.346582,9.453516
6.5992675,10.278467,7.6441894,7.683252,8.982813
4.2748046,8.930811,3.4210448,2.6825194,7.565576
6.329004,10.020899,5.6649413,4.9520507,8.97085
4.030664,9.466944,5.0729003,4.9571776,7.9344726
4.0628905,9.882471,4.738916,4.9479003,8.41836
6.451074,10.538721,7.2782226,6.8770995,9.222071
5.9972167,10.548243,7.183496,7.0733886,9.055323
9.153467,11.32168,8.611475,7.633203,11.199854
8.172998,10.827784,8.381739,7.473535,10.160059
10.091211,11.481592,9.8224125,9.649805,11.218653
10.224756,11.635401,9.597559,9.412989,11.208399
8.859522,11.3971195,9.39834,9.232325,10.866846
6.961328,10.636133,7.7782226,7.7623534,9.699121
8.864893,11.493799,10.014795,9.683741,11.002832
8.653955,11.265772,9.745508,9.422266,10.412989
7.0375,9.960352,7.8114257,7.433496,8.579493
7.3719726,11.253565,7.3333983,6.98208,9.896387
5.5521483,10.011133,6.0057616,5.909326,8.363428
3.8949218,9.608545,4.0821776,3.2018065,6.669824
3.053125,8.491358,3.502832,3.0475097,5.922998
2.2005858,5.608789,3.0165038,3.1605468,4.672998
1.2589356,5.1075683,2.886621,2.789209,4.1668944
-0.29526368,3.976709,0.9359375,1.2872559,3.0731444
-0.20957032,3.7015624,1.7811524,1.5736328,2.4522948
0.65126956,5.0367675,2.83291,2.851953,4.072656
0.55019534,5.173486,1.8180176,1.8661133,4.3912597
0.96010745,8.123438,1.4452149,2.0162597,4.917871
6.738916,10.167139,5.138574,5.2569823,8.952539
7.706201,10.213526,8.167627,7.4984374,9.758936
7.6983886,10.258936,8.542139,8.116358,9.532618
3.4095702,8.84292,3.8167968,3.4549804,6.799951
4.1183105,9.538477,6.3541503,7.1842284,8.767237
5.5370116,9.389551,6.041406,5.588037,8.018702
4.7281737,9.352198,6.44082,6.21499,7.5838866
7.9791503,10.049219,8.417139,8.015284,9.924952
8.454981,10.487207,8.632227,7.848291,10.050928
5.2552733,8.545801,6.0375,5.865625,7.122461
6.0387206,9.674463,5.8978515,5.737451,9.443262
8.373682,10.933741,7.332666,6.87832,10.717676
8.833643,11.416407,9.849512,9.542139,11.245264
7.271875,10.158106,8.274317,7.809961,9.924952
7.3492675,9.5064945,7.4571776,7.023828,8.827784
7.1563964,10.134424,7.615625,7.516992,9.493311
9.950098,11.490625,9.426416,9.068262,10.896875
7.9864745,10.722559,8.453516,8.228174,10.0880375
7.2262206,10.505762,8.30044,8.159082,9.974268
4.976953,9.661524,6.025537,5.9759765,8.014795
5.9798827,9.188623,6.8023925,6.4691405,8.008448
5.0580077,9.004786,5.860498,5.4137206,7.7875
2.4366698,8.413233,2.1988769,2.3338866,7.3697753
2.6612792,8.251123,1.2381836,0.41030273,6.5855956
4.550195,9.15835,3.9020019,3.8304687,8.048975
6.9608397,9.90127,8.109766,8.047022,9.311914
8.441065,10.258448,9.194239,9.175196,9.882471
4.6253905,8.555567,5.237695,4.3023925,7.62417
4.214746,9.188623,6.7882323,6.90249,7.5057616
5.8873534,9.588282,7.834863,7.720361,8.902002
5.9530272,9.473047,6.1517577,6.060205,8.549952
8.182276,10.362207,8.428614,8.376856,9.917383
8.160547,9.563379,6.620996,6.1183105,7.6429687
4.392236,8.703516,5.471826,5.2662597,7.2347655
3.4955077,7.3670897,4.7105956,4.711084,6.105127
7.190088,10.221827,8.043848,7.723779,9.32583
6.4330077,9.2792,7.264795,6.8006835,7.574121
1.7271973,6.247705,2.4952636,2.0841308,4.464746
1.8382813,7.2437987,2.5299315,2.4793944,5.5282226
3.9833007,8.451075,5.63125,5.997461,7.327295
3.5838866,8.954004,5.787744,6.150537,8.880762
5.657617,10.218164,8.157862,7.6839843,10.010889
8.308985,10.178614,9.102442,8.573633,9.962549
6.377588,9.063623,7.182031,7.1671386,7.9537597
6.3392577,9.414942,7.8285155,7.8561034,8.701319
6.9884276,9.341211,7.5475097,7.236963,9.048975
8.070459,9.35293,7.499658,7.1114745,9.167139
5.608545,8.974512,7.1690917,6.5262694,8.044336
6.2191405,8.866602,6.843164,6.595361,7.955957
7.692041,10.2894535,8.692286,8.673243,10.69961
8.903467,10.040674,9.702784,9.305811,11.762598
7.891992,9.29336,8.354395,8.232325,9.313623
8.36001,10.008448,9.956934,9.382471,9.903711
7.9989257,8.858301,8.263819,7.964746,9.095362
7.0052733,9.483301,7.829492,7.497949,8.907618
6.4432616,8.572657,7.027002,7.157373,8.23208
7.88125,9.716944,9.157618,9.344385,10.530664
6.769922,8.583887,7.933252,7.749414,8.449854
6.7464843,8.3832035,7.421045,7.0609374,8.287012
5.46499,8.16958,7.20791,7.3177733,7.99917
6.684961,9.678858,8.298975,8.290674,9.386866
8.132471,9.653467,9.739649,9.548731,10.316553
7.823877,9.461573,9.688868,9.234034,9.51211
7.2398925,9.115137,10.277246,9.739161,8.968164
6.1952147,7.448877,9.125879,9.065332,6.9378905
8.115625,9.378077,8.552149,8.275782,9.516016
9.438623,10.933741,5.9173827,6.033838,11.004053
10.907618,10.7130375,11.108789,11.204981,10.868311
11.997705,10.207422,11.546045,12.083399,11.047754
12.087793,10.254786,10.172266,11.659815,11.361475
8.483057,9.453516,9.077051,9.01919,9.806055
10.165186,11.127832,10.904932,10.60293,11.694483
5.393945,7.9481444,6.6598144,6.334375,7.320703
5.7176757,7.870752,6.9186034,6.2660155,7.42666
4.723535,7.599756,5.525537,5.5677733,6.8858886
4.2298827,7.598779,4.676416,4.4566894,5.591699
3.7586913,6.0677733,5.0458007,4.5558105,5.790918
3.928369,6.067529,4.8143554,4.8094726,5.5389647
4.86416,6.848779,6.523584,6.4989257,7.228906
8.234766,9.231836,7.924951,7.3478026,11.124659
8.571924,9.221094,7.938379,8.810938,8.535547
8.83169,8.585596,8.527979,8.787012,9.3207035
6.892236,8.681055,8.718409,7.349756,8.867334
8.564112,9.327539,7.6031737,7.6842284,9.081934
6.8629394,8.124659,7.268457,7.3355956,8.402735
4.3983397,6.90249,5.3253417,5.3819823,6.4156737
7.3287597,7.6876464,8.13003,7.6012206,7.2315917
10.469873,8.632227,11.679834,11.484522,10.793848
11.36294,9.842188,11.850733,11.818506,11.965967
7.3038573,9.725,8.026758,8.054102,9.013819
6.6424804,9.719141,7.9051757,7.559961,10.157862
7.1893554,8.786768,6.6251464,5.9862304,9.183985
4.647119,7.023828,6.5055175,6.2152343,6.814111
4.5719237,7.088037,5.1895995,5.205713,6.049951
3.926416,7.1463866,6.9427733,5.593408,7.096338
5.5580077,7.3617187,6.978906,7.074365,8.115137
5.823877,6.8773437,7.143213,7.0128417,7.1012206
2.115625,8.176172,4.530664,5.2342772,4.9989257
2.8551269,8.839502,5.529199,6.4479003,7.083154
3.096582,6.7589355,6.742578,6.9134765,6.5699706
7.4933105,9.156397,8.04751,8.240137,8.344385
8.139551,8.493799,9.703272,9.451075,10.155909
9.657129,10.0255375,11.094141,11.072901,11.422266
10.820215,10.014307,12.274317,12.368311,10.987207
12.19668,9.694239,12.3849125,10.691797,11.869043
11.6896,9.667871,10.832666,10.563379,11.809473
9.633692,9.109278,9.131739,9.780664,9.955225
9.604395,8.949366,9.994043,10.677393,10.675684
6.693506,9.017969,5.134668,4.8514647,9.9300785
10.555567,11.111719,10.7894535,10.989649,11.818506
11.214502,11.520899,11.212061,11.330469,11.925684
12.358301,11.00503,13.359766,12.605371,13.342188
11.920557,10.74502,12.896631,14.200586,12.547754
12.725489,10.06753,13.609278,13.492823,11.789698
11.1349125,10.392969,11.671778,12.099512,11.7408695
10.657373,10.565332,10.312891,9.930567,11.757715
9.625147,9.065332,9.731592,10.456202,10.688379
9.714991,9.895166,11.546534,11.243311,11.565577
10.723047,9.935694,12.633936,12.512354,11.877832
14.135645,11.342432,14.32461,13.836573,13.812647
15.741114,11.279932,13.770166,13.534327,12.551905
16.867823,14.065332,16.838037,17.45962,17.072412
18.133692,14.810938,18.638086,17.601221,18.922266
20.620752,18.319483,21.641993,21.655176,18.840479
12.20083,11.94253,12.457422,12.568018,13.526758
14.831202,13.113184,14.215967,14.505762,13.958399
13.697168,12.919092,16.211573,15.845118,14.609034
12.038477,12.658594,11.396631,11.30752,12.838282
8.612696,10.074366,8.985743,8.605127,9.6783695
8.95376,10.108301,10.128321,9.949121,10.001856
10.369532,9.622217,10.719629,10.012598,9.289942
13.699854,13.198145,14.363428,14.102198,15.972803
16.868067,12.468897,17.19082,15.683008,13.901026
13.935694,12.309473,14.219629,14.100977,15.581202
13.989649,12.30044,17.08877,16.788965,15.248438
14.224024,11.373438,14.762598,15.93667,14.525293
12.314112,11.617823,13.823633,12.390528,14.950586
14.181055,12.06875,14.639551,14.327539,14.276026
16.88003,15.926905,17.682276,17.576319,17.566309
12.209131,13.725733,11.604883,12.827051,13.619776
9.136621,11.626368,9.548243,9.221827,11.638575
14.261866,11.920801,14.491602,13.848291,14.701075
13.5064945,12.958155,14.790186,15.004541,12.735254
12.587793,12.495264,12.418604,12.739649,15.405664
14.026026,12.755762,16.168604,15.94961,15.313868
15.552393,12.901026,17.103418,16.435205,16.316553
16.150537,12.8067875,16.096582,17.26504,15.203516
15.378809,12.889307,14.948389,13.623926,16.396143
14.121485,12.956446,16.039942,15.558008,14.696192
14.022364,12.968409,14.087549,14.958155,15.099024
13.358301,12.935694,14.743799,14.379297,14.275049
13.485987,12.746729,13.566309,13.074854,13.7564945
12.57461,12.152246,12.87295,13.061914,13.0099125
13.082666,14.052637,14.862452,15.323145,14.395166
14.239649,13.785303,14.104883,12.679346,13.568018
15.748682,13.842676,11.381006,10.145655,13.48086
9.36709,11.537012,11.500391,11.085596,11.129541
11.979395,13.546778,12.687159,12.172022,13.5846195
13.206446,13.039942,14.613916,14.229151,13.935938
15.13125,14.007715,14.633692,14.723536,16.150782
14.734034,13.934473,15.1488285,14.871729,15.752344
13.538721,13.600977,14.302149,14.062647,14.001123
14.407618,14.266016,16.767725,15.758936,14.201563
14.057032,14.552881,14.511133,14.432032,14.6957035
15.030909,14.156153,17.653223,17.641993,14.06875
14.419336,14.034571,15.640772,15.515528,15.340723
15.791651,14.910547,15.883936,15.188868,16.491846
15.601709,13.871485,16.209375,16.651758,15.339502
15.395166,13.835352,15.312891,15.248438,16.014307
12.178125,14.687647,13.992334,14.085352,14.685938
13.71792,14.407373,16.603418,17.237452,16.288721
13.201319,15.066553,14.645166,14.026758,15.41543
12.044825,14.195215,12.839502,12.757715,14.263575
15.896143,14.331446,16.656641,16.889063,15.046289
12.86294,14.3971195,14.708399,14.468897,14.829248
14.081446,15.070215,15.133936,14.614161,14.144678
13.873194,15.037256,16.972803,17.026514,16.850489
14.551661,14.80752,15.849756,14.654444,15.442041
14.184717,14.413233,14.7521,14.305811,15.275782
16.722803,15.61294,15.436182,14.97793,16.980127
18.38003,16.06875,18.9042,18.939844,20.031641
20.837793,17.847803,20.97207,20.240381,18.584375
22.389795,19.430079,23.544092,23.662012,22.935938
21.386621,20.153955,22.896387,23.315332,23.455957
22.430567,20.857325,24.437403,24.266748,25.846338
22.98086,19.808252,23.559473,24.173487,25.254053
24.751368,19.445215,25.570704,25.858057,24.906885
26.94961,19.571924,26.831934,27.42837,26.491602
27.714014,21.24502,27.33047,27.775293,26.756739
27.555567,24.680079,27.874903,27.774073,28.565088
25.280909,19.267237,22.975,24.097315,21.199121
23.950586,19.348291,20.781641,20.704004,20.74087
25.839502,19.09878,25.001612,24.227686,21.0375
32.426903,25.921778,28.28921,28.62417,25.245508
33.891747,25.860254,33.01113,33.487206,31.543848
24.835108,19.526026,25.80166,25.632715,19.934717
24.994532,20.691797,23.375391,22.805079,22.053614
23.476221,20.946192,20.706202,21.735254,21.007471
16.9042,20.598047,20.218653,21.148096,20.499903
20.460108,20.00503,21.193506,21.521387,23.308985
23.639551,20.973536,19.645166,19.925196,23.448145
26.369776,20.815577,24.730371,25.3688,27.687403
25.664454,20.822657,25.677393,27.010645,23.775537
23.66543,20.701563,23.433496,22.24917,22.843409
21.897364,20.485254,20.732569,20.78457,21.881495
21.05337,20.511866,20.925928,21.284327,22.45547
20.010157,19.42666,19.48623,19.87002,21.158106
20.702295,19.775537,20.026758,20.246485,20.681787
20.64248,20.600977,20.02456,19.448633,21.27505
19.702295,18.745996,19.83706,19.045557,20.213037
17.08877,18.99502,18.711817,20.346094,19.334375
20.145655,18.827051,19.870264,20.656153,20.76504
21.039942,19.13003,20.71255,20.23501,21.437403
19.741846,18.553125,19.142725,19.10464,19.66836
21.323145,19.24331,20.47207,20.468897,21.725733
23.413721,19.537256,22.222559,22.57046,22.039942
24.914698,20.615137,24.505762,25.007471,23.076807
22.92422,20.14419,22.358057,22.889551,23.041162
21.973291,19.501368,21.316797,21.94961,22.271143
21.9479,19.067286,21.466944,21.199366,20.82754
17.928125,18.564112,17.470118,17.734766,19.022852
19.554346,19.28921,19.819483,19.21792,20.109034
18.812647,18.89297,17.735987,18.457666,18.763819
18.714502,18.417627,17.91543,17.634912,19.026758
17.939844,18.819727,19.93374,18.179346,19.557764
18.029444,19.062647,19.69961,18.985498,20.728662
16.261377,18.311426,17.191797,16.842188,18.95376
16.40542,17.79751,17.66543,17.109278,18.179834
18.246729,19.164942,18.065332,18.411768,20.745996
18.020166,18.417871,19.445704,17.776026,19.245508
16.743067,17.685694,18.071436,17.904688,18.081934
16.512598,18.173487,17.533106,16.859522,17.780176
16.528467,19.427149,19.508936,19.553614,19.074121
21.180079,19.996485,21.43838,21.06338,22.190088
23.055323,21.098047,22.795801,23.343653,23.19375
20.250391,19.635157,20.66958,20.725489,20.777979
17.77627,17.652002,17.189112,17.717432,18.21792
17.7792,17.822168,17.545069,17.90127,18.292627
17.940332,18.89297,19.248926,19.053858,19.988916
17.866114,17.60586,18.030664,18.04214,18.745508
17.31338,17.141016,17.751612,17.54873,18.672998
13.740381,16.57754,14.155176,14.14834,15.494043
13.24209,15.858789,14.255518,14.820459,14.730371
15.31167,18.454493,16.291162,16.221338,18.349024
14.808985,16.304102,15.361963,15.532373,15.952051
12.446192,15.673975,12.877832,11.655664,13.98086
14.639795,16.808252,15.052149,14.803614,16.850977
14.783838,16.74331,16.16714,16.062159,17.071192
13.850977,14.914209,14.561182,14.669336,14.849756
12.680323,14.955225,13.063623,12.3832035,14.31045
12.589502,14.089746,13.4042,12.562403,14.227198
12.642969,15.035547,13.714991,13.119532,14.502588
13.576807,15.046289,13.982325,14.200098,14.58584
14.382959,15.795557,15.119043,14.986231,15.727442
13.813379,15.879541,15.49917,15.507715,16.917871
12.668604,15.26211,14.498682,14.079493,15.1800785
13.631739,15.394922,14.018702,14.077051,14.983057
14.411768,15.745996,15.1002445,15.110254,16.062891
14.466944,15.640039,14.956446,14.914942,15.870508
14.212305,15.347803,13.596582,13.561426,14.833399
17.38296,16.05044,17.016748,16.598291,16.865137
16.835596,16.14956,17.961329,17.393702,18.175928
18.692041,18.077784,21.298243,19.987696,20.07461
20.40127,18.046534,20.252588,20.147364,17.472315
18.194727,15.977198,15.305567,16.348291,16.0375
16.687647,15.482569,17.674463,16.500147,16.752832
16.344873,16.378077,17.007227,16.003077,17.10171
14.359278,16.515528,17.362207,16.834864,17.351465
13.224756,16.441797,13.877588,13.582178,15.264551
13.129297,15.266993,13.57168,13.417871,15.191065
12.427637,15.129297,13.469385,13.635889,15.382959
13.025293,15.03628,13.984278,14.168604,15.029444
14.231836,16.321436,15.039209,14.597071,16.107569
16.254053,16.78042,16.051905,16.649805,18.447657
14.956934,16.406153,18.173975,17.466944,18.06167
14.474024,16.052149,17.602442,16.886866,18.31875
15.434961,18.29043,15.537012,16.012842,19.875391
17.641504,19.377588,17.042871,17.625391,21.264795
14.677393,17.109766,15.094141,15.195215,16.541162
13.132715,14.697901,14.253565,13.959864,13.5846195
11.201075,13.81167,12.557276,13.090479,13.937159
15.034082,15.561182,13.093653,14.200586,15.395411
16.395899,16.730371,17.471582,17.027002,17.386377
16.348047,16.013086,15.938868,15.68667,17.23623
16.190088,16.026758,13.0082035,12.448633,15.7442875
11.9127445,14.724024,10.6896,10.712549,14.322657
8.197657,12.169336,9.063135,9.163965,11.23086
8.948145,11.991358,9.651026,9.489161,11.222071
8.201319,10.686426,7.87124,8.050928,9.904688
7.70791,12.122461,8.270655,9.24917,11.486963
9.462305,12.629053,9.939112,10.200098,12.486475
9.340723,13.048975,9.41128,10.83584,11.712305
9.3417,13.54336,11.558985,11.790918,13.1817875
10.657862,13.586084,11.956446,12.507471,13.329248
10.0082035,12.547998,11.287256,11.474268,12.133448
8.229639,12.041895,9.723536,9.839014,10.69961
11.62417,13.993799,10.861231,11.063379,12.808252
13.01211,15.327539,13.824854,13.954493,15.889551
11.581202,15.155176,12.214014,13.4439945,14.0064945
13.019434,16.498194,13.2564945,14.288477,15.48501
13.350977,15.809961,14.46792,16.192286,15.034571
16.308985,16.86123,17.316797,17.536768,18.48208
15.705957,15.312891,16.11123,15.716455,17.74917
13.30044,13.841455,14.493799,14.420557,14.486475
13.080225,13.913477,13.641993,13.542627,15.107813
11.204737,13.9005375,12.123682,12.24209,14.385889
11.5021,13.557764,11.459864,11.172754,13.699854
11.133936,12.940577,12.00918,11.43545,12.761866
9.652979,12.534571,10.240381,10.355616,12.384424
9.399317,11.986963,10.331446,10.121729,11.698389
8.514795,10.473047,9.209131,8.436182,10.1471195
8.800196,12.249903,11.690577,11.342432,11.4942875
9.56045,13.766748,12.793604,12.3050785,13.521875
11.324366,13.734766,12.543116,12.056543,13.573633
9.230616,12.924219,10.746729,11.533838,12.621485
9.972803,12.860254,10.773584,10.916407,12.169336
9.039209,12.526514,10.803858,11.032862,11.420313
10.079248,12.773096,11.607569,11.194727,12.702295
7.876611,12.390772,6.732324,6.938623,11.484522
4.947656,11.789698,4.6673827,4.213281,8.658106
3.7828612,8.431299,3.7274413,3.4200683,7.517236
4.2726073,9.911036,3.4066405,5.473047,8.546045
6.7623534,10.0099125,6.3595214,6.516992,9.65835
2.5020995,9.183008,4.9808593,6.1319823,7.2899413
4.379297,7.794824,4.2118163,5.252588,6.2240233
3.0643554,7.415918,4.214502,3.7074218,6.273584
2.9825683,7.4027343,2.9103026,2.862207,6.2176757
1.0841309,7.6639647,0.4803711,0.38540038,5.3958983
2.3065429,9.801905,4.005029,3.3995605,7.4935546
2.730371,9.090967,4.8336425,4.720117,7.3214355
