"[299, 255]","[227, 248]","[287, 319]","[279, 328]","[230, 262]"
4.9691405,9.879297,4.740381,4.289453,7.9068847
7.5069823,10.891016,8.532862,8.610987,10.699854
5.641748,8.503077,4.872461,5.042871,7.594629
8.612696,9.437647,9.589258,7.977197,8.209864
7.3719726,9.886621,7.5538573,6.947412,8.810694
5.1930175,10.414942,7.5924315,7.2940917,8.948633
6.119287,10.138086,6.245752,6.034082,7.783838
5.110742,8.270166,5.40957,4.969873,6.2330565
2.3851562,7.810205,3.41958,3.6458983,5.4881835
1.643457,7.182031,1.3055664,1.4283692,6.037744
3.5887694,9.454004,3.39541,3.648584,7.190332
4.565088,9.150293,5.1429687,5.087793,7.053125
5.341455,9.802149,6.143701,5.9273925,8.3050785
7.576074,11.460596,9.063135,8.670801,11.083887
7.3824706,11.053125,8.232325,8.433252,10.417383
7.380029,10.419336,7.914697,7.4745116,9.308252
6.016748,10.175684,7.2118163,7.013086,9.34878
6.7240233,10.459131,7.84292,7.654199,9.425684
7.610986,10.658594,8.636377,8.722071,9.840967
6.6915526,10.036768,7.8592772,7.4920897,8.512354
7.3368163,10.426661,9.133692,8.924952,9.604395
6.195459,10.138819,7.912256,7.845117,8.849512
6.398584,9.993311,7.963037,7.8768554,8.96377
6.355615,9.747217,3.6197753,4.018457,8.50503
4.7135253,9.653711,5.08291,5.497461,8.227198
6.8824706,10.1505375,7.958154,7.740625,9.4005375
7.4706054,10.5533695,8.9457035,8.767725,10.017969
6.639795,9.573389,5.907617,5.8368163,7.8263183
4.213037,9.640039,4.7899413,4.9378905,6.804834
6.7367187,10.154688,6.7000976,6.7638183,9.202784
8.236719,10.6505375,9.805811,9.323145,10.246485
8.257959,10.55044,8.140284,7.5753417,10.043116
4.15542,8.570459,4.9688964,4.8194823,7.4930663
4.737451,9.06045,4.5680175,6.974756,8.052149
6.110986,9.220362,7.0196776,7.3438964,8.301661
6.5733886,9.684717,8.262842,8.236963,9.111719
5.831445,9.513086,7.9342284,8.12002,8.66836
7.3978515,9.901026,9.031885,8.9042,9.588282
6.5838866,9.946436,7.8351073,7.92666,9.390284
6.8375487,9.843164,8.575098,8.388086,9.23208
7.4051757,9.797998,8.927393,8.597559,9.194727
6.8194823,9.820215,8.816553,8.528955,9.297022
3.433496,8.034082,3.718408,3.9205565,6.1944823
1.2000977,6.9569335,2.318994,2.2472167,5.346582
1.1629883,6.4496093,0.5968262,1.0282227,5.1446776
1.0724121,6.5821776,0.7000977,0.2442871,4.065332
0.31777343,4.266992,-0.6358398,-0.57358396,2.7791991
0.42788085,5.4601073,0.077539064,0.16933593,4.158838
0.8629395,6.6673827,1.5355469,0.90541995,4.7660155
0.78579104,6.082666,2.094873,2.6600585,4.0606933
2.6795897,8.743311,2.0426269,2.7520995,7.6754394
4.4708495,8.74795,3.6275878,3.9354491,8.091455
4.1336913,7.8561034,3.8438964,4.4637694,7.2315917
4.3807616,7.5768065,4.5492187,4.391992,6.6114745
3.6041503,7.2015624,4.8514647,4.82583,5.610498
1.678125,5.418115,2.9674315,2.7491698,3.586328
-0.49375,3.3626952,1.3060547,1.1578614,1.7679688
-2.213965,4.56875,-0.49082032,-0.009863282,5.014795
2.2203612,8.1896,1.6993653,1.9149414,7.459619
2.3629394,8.676172,3.6935058,3.428125,8.324366
2.115625,6.9061522,3.7428222,4.0350585,4.8927245
3.0851073,8.7792,3.162744,4.237207,7.5626464
4.3822265,8.384424,4.846338,4.548486,6.4466796
3.2052245,7.7918944,4.3145995,3.7455077,5.9063964
4.327783,9.3346195,5.353662,5.2625976,7.59707
6.8683105,9.376856,5.171045,5.3946776,9.528223
4.9884276,8.468164,5.763574,5.771875,7.482324
4.268701,8.1349125,5.5230956,4.985254,7.256494
5.4010253,9.089991,6.792871,6.2108397,8.731348
5.1412597,9.1817875,5.331445,5.3458495,9.6271
6.1393065,9.633692,6.421533,6.633447,8.559473
6.836328,10.109766,7.607324,8.056055,8.973536
5.111963,8.7721195,4.7884765,4.939111,7.095361
0.6195313,5.150781,0.9710938,1.5345703,4.1378417
-0.73935544,3.553369,-0.3885254,0.008447265,1.9017578
-0.59824216,3.832666,-0.12851563,0.19375,2.0572753
-0.24643555,4.326074,0.44448242,0.7315918,3.369287
-0.12412109,5.284326,0.587793,0.5987793,6.079736
2.801416,7.898828,2.6617675,2.0035644,7.409082
0.5804688,5.532617,2.098291,1.3287598,4.307031
0.70229495,7.9217772,2.624658,2.6058593,6.0055175
4.8216796,8.548975,5.1864257,4.9103026,7.9044433
5.065088,8.453028,5.032129,5.0421386,8.3417
6.5108886,9.155909,6.4413085,6.9310546,9.698145
7.127832,9.241358,6.126367,6.83999,8.865137
2.480371,8.288721,2.6180663,3.0509276,7.747705
-0.11679687,6.1483397,1.5223633,1.8431641,4.506006
1.6817871,6.365381,2.9862304,3.1061034,5.867822
1.7955567,8.712061,1.6991211,2.2689452,8.601221
8.080957,9.584131,5.4984374,5.2049804,10.213526
9.600733,9.764795,9.537256,9.204493,11.072901
9.232325,9.972803,10.550684,10.121729,10.764795
8.5846195,9.371729,10.780176,9.906397,9.392969
6.279199,8.164209,6.8478026,7.131494,7.9515624
5.583154,7.75332,7.068994,6.8490233,8.27627
6.7655272,8.164209,8.462061,8.438623,8.195459
6.7848144,8.49795,8.811182,8.394922,8.925928
5.9237304,7.8646483,6.7882323,6.4017577,7.672754
5.8128905,8.936182,6.6720214,6.046289,9.0567875
8.993555,9.16836,9.185205,8.60708,9.684717
8.964746,9.179346,9.809961,9.453516,9.421289
6.8980956,10.502832,7.3827147,7.2679687,10.89126
10.945215,9.274073,10.930323,11.33169,10.494043
12.676172,10.038721,13.544825,14.239893,13.454004
13.510889,9.473536,14.381006,14.176172,13.017481
6.9100585,9.405176,9.633692,10.096094,10.907373
1.3646485,6.674463,4.1529784,4.2362304,5.994043
1.6356446,5.1371093,3.6986327,3.4662108,4.8685546
5.7967772,7.360986,8.505762,7.648584,7.2953124
8.755762,8.90835,10.010645,9.886866,8.996485
7.2875,9.616358,10.807032,10.511133,11.236719
7.0453124,9.762354,8.572657,8.313379,10.855127
7.9981933,9.006006,9.424707,8.859522,10.538721
8.951563,9.155909,10.305567,9.953516,10.496973
9.657862,9.165674,11.388086,11.032373,11.38711
10.720118,10.393702,10.125879,10.250635,11.334864
11.766504,10.577051,11.031153,11.678858,11.177881
10.74502,11.132715,11.370264,11.535303,12.623194
10.229883,9.949121,9.516748,9.754053,11.340723
10.498926,10.657862,9.733545,9.868311,10.858545
11.922998,10.754541,11.427637,10.7269535,11.927881
10.537989,9.798975,9.705225,9.317774,9.768213
6.4759765,8.921534,7.5353026,7.391504,8.656885
9.2599125,10.6542,9.88711,10.234766,10.747461
10.833887,10.547022,10.864649,10.465235,11.2130375
9.451807,10.582666,8.688135,8.564356,10.750391
7.796045,10.712793,8.891748,9.08584,10.282373
6.2784667,8.403955,6.705713,6.739404,8.644678
6.6327147,8.681055,6.5904784,6.9276366,9.091455
6.0331054,8.716455,7.8631835,8.003565,8.204004
8.653955,9.4474125,8.481592,7.249658,10.089746
5.635156,9.084375,9.214258,9.968653,8.890039
8.851221,10.201075,8.738428,8.962305,10.151758
10.46084,10.839502,10.969629,11.104151,11.7425785
12.154444,10.635889,12.717432,12.079981,12.667871
9.063135,9.1505375,9.264063,8.906397,9.765039
7.5177245,8.810694,9.10293,8.327784,8.805323
8.819483,9.554834,9.743555,9.666407,9.761377
8.260401,10.047998,9.547266,9.464746,9.859766
9.086817,10.026514,10.308985,9.924219,9.719141
9.754786,9.652491,10.579493,10.218653,10.906397
13.138575,12.382715,13.618067,13.549219,12.299219
14.915918,14.058741,14.596582,15.064356,15.864649
16.395655,17.695215,17.114893,17.754297,18.617579
15.644434,14.749659,16.396875,17.060938,18.114649
15.013819,15.013819,15.939356,16.356592,16.092676
15.3146,14.268702,15.316553,16.26211,15.687403
15.538721,14.416651,14.126612,15.114161,15.243799
16.861963,14.941553,16.617579,16.970606,16.31338
15.142725,13.758448,16.58706,17.533594,14.095606
14.400049,11.561426,13.738184,13.573389,15.05459
15.82583,12.238672,15.796045,16.193018,14.346582
17.069483,15.553125,18.271631,18.572657,17.719141
17.760645,15.484034,17.31045,17.631495,19.491846
14.390772,14.008692,10.848047,13.112452,13.797266
7.6927733,11.296045,9.680567,9.681299,10.3502445
8.984766,9.088526,9.702784,9.524561,8.541895
8.527979,9.789698,10.18252,9.976465,9.55459
8.777246,10.0880375,10.653467,10.947168,9.968164
10.765772,10.403711,12.101709,11.873438,10.609766
12.888575,11.785791,12.493067,12.240625,12.60586
12.582666,12.7564945,14.236475,14.525782,12.915186
9.525293,11.779688,10.185205,9.828516,12.330469
9.474268,11.418116,9.141504,8.712793,13.51211
13.844873,11.971827,14.036036,13.672266,13.990625
16.20791,12.973047,16.188623,17.062891,14.780664
13.808496,12.337305,13.244532,14.270899,13.630274
13.211817,11.996241,12.6175785,12.559473,13.889063
12.948633,11.694971,14.206202,13.418848,13.7425785
13.533106,11.791407,14.0411625,14.287012,13.506739
12.046289,12.104151,11.749659,12.780176,13.288477
12.951563,12.555811,15.922754,15.945948,16.779932
12.870752,12.62295,13.837549,13.150293,14.555567
13.875879,13.348291,14.144922,14.535059,15.260645
13.195948,12.831934,14.221827,13.640039,14.430811
13.114161,12.144678,14.272608,13.71084,14.210108
11.059473,12.223291,11.738916,11.649561,13.750635
12.3849125,12.220118,14.813868,13.743555,13.780176
11.583155,11.917139,12.777979,12.354395,12.317286
12.073633,11.916895,12.421778,12.364893,11.5707035
13.069971,13.07461,13.331202,13.060938,13.503321
13.1019535,12.242334,13.338526,13.3536625,13.015528
9.823389,12.717432,12.560938,12.800928,12.354639
14.132715,13.039698,14.74795,14.6974125,15.425928
17.92959,15.5099125,19.185938,18.269678,16.780664
19.818262,17.109766,21.350245,20.410303,18.461573
20.607813,18.40957,21.95669,21.685938,19.758204
20.869532,16.090235,20.10464,17.167383,16.56045
12.489405,12.069239,13.406153,12.441797,12.480127
10.333399,11.798243,11.173487,11.918116,12.780909
11.297022,12.0550785,12.547022,12.801905,13.261866
12.472315,12.0292,13.107813,12.722071,12.298487
12.739893,13.808985,12.69253,12.812403,13.188868
17.25503,13.82876,17.167871,17.696924,16.25503
14.988672,14.244043,17.270655,16.572657,15.746973
18.488184,14.415186,18.092432,18.05337,19.293604
17.20376,14.121973,16.825342,15.846338,17.172266
17.213282,15.36709,16.84463,17.557276,15.355616
12.13418,16.046534,14.870752,15.969873,15.028223
14.221338,15.720606,14.51626,15.329493,15.649805
17.940088,15.856104,17.905176,17.964258,18.400782
18.281397,15.294336,16.583399,17.133936,17.359278
16.275537,15.002344,16.460352,16.024317,16.890772
16.370996,15.753321,14.79336,15.218897,15.639307
18.966455,15.50918,16.333643,17.276758,15.896387
18.424707,15.460108,17.77456,18.045069,17.61587
16.885645,15.876368,18.019434,17.836084,17.806543
16.054346,14.951075,17.349512,17.130762,17.60171
13.019678,14.876123,13.86001,13.788477,15.192286
13.444483,15.785791,15.245752,15.309229,17.872705
14.868067,15.212061,16.499903,16.789454,17.733545
14.482813,15.28042,16.420069,16.691797,14.729395
20.572412,16.4396,20.04751,18.619776,17.599512
19.714014,16.54751,18.501123,18.989893,18.25332
18.998926,16.18667,18.862452,19.419336,18.933496
18.772608,15.9474125,17.834375,18.568506,17.684717
17.422266,16.467188,18.69668,18.17373,17.965723
18.080225,16.803614,18.615137,19.01626,17.198877
20.066065,16.734034,20.376123,19.850489,22.294336
20.08999,16.4396,19.347559,19.261866,17.761377
15.941553,15.878809,16.547754,15.894678,16.865625
15.729883,15.944239,16.391504,16.473291,17.1813
18.597803,16.78921,18.326075,18.862696,18.247461
16.303125,16.145655,16.440332,15.879786,17.17373
14.974268,15.744776,15.953516,15.48501,16.400537
13.346338,15.5064945,14.820215,14.604151,14.821924
17.189844,16.11123,16.437891,16.349756,16.850733
15.819971,16.303125,16.118555,15.740137,15.970606
16.298975,15.606348,17.069971,17.029688,16.495508
15.275293,16.398096,17.798487,17.077051,17.805079
16.792627,16.491846,17.844141,17.46377,17.456934
17.883936,16.86831,17.538477,17.369043,18.829737
19.949854,16.130518,17.910791,18.369776,16.5729
18.377832,16.677149,18.327051,18.040674,17.629297
18.701807,17.13711,16.125147,16.444239,19.007715
19.473536,17.310694,19.868067,19.366358,19.019922
24.36587,17.939844,24.829004,25.105371,20.374414
20.398584,18.20669,19.87832,20.201563,19.873194
17.912745,17.032618,19.209131,18.562891,18.81875
20.603907,18.39126,19.831446,20.61416,20.537012
23.016504,18.348536,20.329737,21.203516,20.050196
24.23501,18.374659,24.251612,23.886133,22.126612
25.375147,19.170313,25.511866,24.52041,22.35708
24.798975,20.762354,24.719873,25.47378,20.836329
24.666895,21.062403,23.603418,23.428858,23.631495
21.927149,19.458887,20.799463,20.103662,20.053125
21.630518,19.312159,21.327784,20.342676,20.266993
24.57046,20.981104,23.51797,23.527246,21.254297
27.898829,23.378809,27.28921,27.672998,30.392725
25.922754,20.685205,25.036768,22.58462,19.626123
16.886377,17.363428,18.020166,18.09463,17.331202
17.053858,17.766504,16.158106,16.07998,16.77749
20.224756,19.028467,21.221582,20.984766,21.255518
19.09707,18.88711,19.570215,19.43252,19.154688
19.07046,18.52334,19.310205,18.378565,19.678614
25.710596,19.745508,24.174952,24.336084,25.773096
27.364893,22.440577,26.544092,26.583155,26.724024
19.038477,17.05166,17.446436,17.863428,16.844141
20.549707,17.525782,18.258692,18.639063,19.258204
19.245752,18.122461,18.356592,18.020899,18.795313
15.132227,17.874903,17.422022,17.532618,16.898584
14.289209,18.53042,15.652246,17.778223,16.893946
15.708155,18.485498,18.067774,18.291895,18.458887
18.1271,17.850977,19.438623,19.33755,20.6896
20.164454,17.85464,21.66421,22.04922,19.93081
20.264063,17.99917,19.987452,20.449854,20.472315
20.545313,18.761133,20.684961,21.549463,20.818995
19.561426,18.44961,18.9479,18.524073,20.139063
15.929834,16.78628,16.096094,16.26504,16.188135
15.327051,17.914942,15.935205,16.28213,16.949854
18.857813,18.54751,18.910059,19.873682,20.65249
18.263819,18.354883,18.78457,18.872705,19.730371
19.904932,17.684229,18.542383,18.660303,18.818262
15.824366,17.528955,16.1896,15.863672,16.929834
15.363428,16.040674,15.405909,15.110498,15.737452
20.224512,19.656641,18.970118,19.10464,21.204248
15.390528,16.970606,17.35415,17.393946,17.300196
17.296534,16.622217,16.971582,17.266016,16.241114
16.918116,17.991358,17.81045,18.163477,18.24624
17.451563,17.525293,18.51089,18.954737,18.932764
17.741358,17.605616,18.941065,18.809717,18.901026
19.283838,18.157373,19.29214,19.483545,19.414454
19.972803,20.049952,19.864405,20.568995,19.915918
18.139063,17.9938,18.343897,18.658106,18.366602
17.694971,18.246973,20.069971,20.022364,19.04751
19.269922,18.360498,21.664454,21.647364,20.424952
19.744043,18.793116,23.035791,24.29336,22.615625
21.275782,18.549707,22.670557,22.863672,23.712305
23.43374,20.732813,24.193506,24.631495,26.140772
23.437647,19.899317,24.86172,25.329004,23.674463
23.429834,21.610254,24.431055,25.279688,26.723291
22.63418,19.028467,23.774073,24.350489,24.249414
22.714502,17.547266,22.043604,22.951563,19.974512
20.756006,16.238672,20.215235,19.99502,19.866358
18.241114,15.464746,18.621729,19.256983,19.73672
16.763819,16.605616,17.649805,16.997461,18.168848
15.458887,16.687647,15.466455,14.956202,16.522608
8.911036,14.710108,9.205225,9.233301,12.040186
10.848536,12.914942,11.107813,11.207422,11.995752
12.687891,13.758448,12.383448,13.037256,13.085352
13.406885,15.573145,13.941065,14.033594,15.849756
14.237696,15.950098,15.535547,16.133204,15.644922
13.159327,15.859522,14.532373,14.847559,15.257227
11.485743,15.34292,14.253321,13.871973,14.9786625
12.025293,14.392969,13.589502,14.024317,14.326319
12.684717,15.058496,13.627344,13.952784,15.290918
12.522852,15.351221,12.172998,12.123194,14.252832
10.99795,13.591944,11.0082035,10.841211,13.162989
7.3402343,13.442774,10.579004,10.253321,10.834375
9.388086,12.576563,10.069727,9.824121,11.572657
9.994776,12.63003,9.779688,10.160791,12.032618
9.711573,12.234278,10.36294,10.445459,11.138575
9.837549,12.505518,11.135645,11.182276,12.335596
10.783106,14.988672,12.175196,11.522364,14.378565
14.527002,14.695215,12.589258,11.934717,13.663721
11.290674,13.9474125,11.796045,11.803125,13.300196
13.36709,15.977198,13.424707,12.938868,15.781397
10.863916,14.782862,12.393457,12.83169,13.89834
12.724756,14.899317,13.228907,13.071436,14.42959
11.611231,13.610743,11.18252,11.215723,12.563868
10.5394535,13.564356,11.366114,11.485498,12.849268
9.675196,12.970362,11.214014,10.736475,12.235498
11.038233,12.782129,11.783594,11.519434,12.63003
8.551661,12.325586,9.856104,9.219141,11.406397
9.061426,11.80044,9.73208,9.084131,11.080957
8.924707,11.496729,9.467432,8.718653,10.71792
6.9173827,12.088526,8.379297,7.658838,9.952295
10.014551,13.694727,10.894434,10.640772,12.414698
9.542139,13.075098,10.716211,10.367823,11.322168
9.797022,12.871241,10.316065,10.003565,11.722559
8.538965,13.006739,8.641993,7.9049315,11.348047
11.666895,14.312891,13.0099125,13.115625,13.770899
13.825342,14.651758,13.35,13.496729,14.147364
12.087549,13.528467,10.116846,9.482325,12.16958
10.169825,13.815577,10.660791,9.445459,12.395166
6.6202636,11.073633,7.2728515,7.0091796,9.646143
5.661035,11.819971,7.806787,7.688623,9.0021
5.286035,11.705713,5.629785,4.9273925,9.200098
3.1129394,9.103174,3.4662108,3.8480468,6.798486
4.798486,9.3988285,6.402002,6.2381835,7.3077636
5.3861327,8.731592,5.155908,5.023828,7.2796874
4.083154,8.653467,6.0763183,6.3316894,6.544824
4.51333,8.795801,4.282373,5.1585937,7.955713
4.815576,11.840723,5.149072,5.3565917,10.707911
6.261621,11.403955,6.7225585,6.8807616,9.572168
9.736719,12.682276,10.170069,9.910059,11.863916
7.810449,11.047754,9.160547,8.777979,9.939356
6.471338,10.404444,7.7193847,7.596582,8.537989
7.48208,12.392237,7.1583495,6.966699,12.094141
10.291651,12.483301,10.619043,9.924463,12.170313
5.588037,9.990137,5.731836,5.0995116,8.129053
5.8143554,9.666895,5.7784667,5.7054687,8.602198
5.105127,10.156153,6.0384765,5.461328,8.13003
4.4842772,10.158594,6.115869,5.4449706,7.518457
4.562158,9.729395,6.0316405,5.8004394,8.026026
4.4757323,11.474024,5.334863,4.642236,8.989405
8.198877,11.378565,8.017725,7.850488,9.738916
8.6349125,12.259668,10.046045,9.998194,11.510645
9.520411,12.128565,10.23794,10.635401,11.441797
6.487695,9.860987,6.188867,6.009912,9.078516
