"[299, 255]","[227, 248]","[287, 319]","[279, 328]","[230, 262]"
2.9632812,7.8045897,1.3089844,1.1917969,5.594873
1.2225586,6.4964843,-0.62949216,-0.724707,5.0526366
0.29848632,7.412988,1.1124512,1.4232422,5.8526855
0.7496582,6.994531,1.6476074,1.4295899,5.2030272
-0.5914062,8.161768,1.7726074,0.6822754,4.9156737
1.9972168,9.15542,2.756494,2.0660644,6.475244
1.1339356,8.686426,2.096826,2.3377929,5.898828
6.843164,10.84292,7.110742,6.6390624,9.958399
5.5787597,9.989161,6.1358886,5.1944823,8.167627
3.8580565,9.198877,3.6439452,3.3636718,6.988916
3.4366698,8.275782,3.5545897,3.1083007,6.0975585
1.0851074,7.9330077,1.3727051,1.2364746,5.1598144
9.559961,11.457911,10.004297,10.250147,11.159082
10.76919,12.0567875,10.963282,10.736231,11.848536
10.69253,12.042871,10.819971,10.694971,11.73208
11.59878,12.186914,11.270166,11.659815,12.029932
10.649561,11.764063,11.019678,11.265772,11.849024
8.607569,11.265528,8.710108,8.020411,10.596827
7.2606444,11.140284,7.9862304,7.515039,10.192774
8.409327,11.34292,8.759668,8.722315,11.138086
7.3097167,11.304834,8.840235,9.1,10.701563
9.693262,10.944239,10.656885,10.935938,11.123194
10.021631,11.7096195,10.326319,10.507471,11.48208
8.201075,11.174707,9.163233,9.475,10.404932
7.8006835,11.554102,9.816065,10.171534,11.194483
6.9361815,11.238672,9.037012,9.500635,10.629053
4.2811522,10.764795,7.3106933,8.115137,9.912989
7.610986,11.130274,8.958155,8.769434,10.402002
8.773584,11.336573,9.70376,9.66958,10.60708
9.426172,11.829737,10.869776,10.8363285,11.443506
6.7818847,11.2599125,7.8558593,7.198877,10.749903
7.4989257,10.63003,8.036036,7.4916015,9.86294
6.7489257,10.831934,7.6561522,7.5094237,9.849268
9.907129,11.995996,11.047998,10.753077,11.529932
4.1603026,9.664698,5.5260253,5.280664,8.672754
6.94375,10.612452,8.464991,8.181299,9.308496
8.1488285,11.030176,8.709375,8.296534,10.341944
5.928369,9.999659,6.8402343,6.6979003,8.16128
6.7574706,9.851709,6.6307616,5.869043,8.635401
4.9864745,10.811182,5.8558593,5.631738,9.942286
7.183496,11.283594,9.177149,8.86294,10.737696
5.678613,9.9396,7.8770995,6.351953,8.813379
8.169825,10.948877,7.303125,6.9415526,10.641016
9.609766,11.067774,9.885401,10.144922,11.07168
7.825586,10.664209,6.72207,6.796045,8.7894535
7.7279296,10.99917,8.978907,8.851709,10.204493
7.884912,10.750391,8.999903,8.854883,10.02334
4.2638183,9.117334,5.152246,4.7484374,7.2899413
4.0492187,9.247461,4.224756,3.9691405,6.2850585
6.6742187,10.688135,6.252588,5.723047,8.935694
6.5401855,9.127344,6.4625487,5.952295,7.714746
3.383203,7.4186034,2.98208,3.3578124,5.6063476
3.424951,8.713526,2.8854003,3.5873046,6.8089843
6.021875,9.849512,7.3409667,7.388574,8.6488285
5.822656,9.048487,7.4920897,6.860254,8.316797
2.9227538,9.942041,3.5790038,3.3021483,8.104151
6.5265136,10.458887,9.821436,8.2096195,10.43545
10.070459,10.058008,7.7420897,7.87832,10.195215
4.37832,9.436426,7.324365,7.4686522,8.23794
8.13125,11.053858,9.377832,9.011866,11.231348
8.781397,10.920313,9.921534,9.789942,10.899805
10.066553,11.745508,11.699854,11.284571,11.73208
9.764063,11.4630375,11.306299,10.938868,11.038477
7.0416503,10.351709,7.933252,7.4117675,9.344385
5.952783,9.519678,6.9010253,6.6270995,8.26919
5.853906,9.183252,6.808496,6.8060546,8.232813
8.505518,10.946192,8.066797,7.8373046,10.110987
6.381494,10.420801,8.417871,8.322657,9.814112
9.323877,11.464502,10.375147,10.085596,10.865625
9.323633,9.992823,7.8978515,7.7381835,9.416407
7.4657226,10.697657,7.4955077,7.692285,9.509668
10.170557,10.915918,10.215723,10.323145,11.228418
10.018457,10.941065,11.054834,10.9667,11.664942
9.5255375,10.699366,9.879786,9.771875,10.364161
7.4864745,10.414698,8.808008,8.77627,9.763086
9.1661625,10.914698,10.318018,10.168116,10.983789
10.329737,10.91543,9.8692875,10.313135,10.827784
9.073633,11.141993,9.977442,9.541651,11.002588
9.549219,10.278223,9.1349125,8.147608,9.245264
9.890772,11.05459,9.859034,9.758936,10.962549
9.794092,11.238428,8.697657,8.371729,10.6957035
6.515283,9.0064945,7.728418,6.82583,8.2113285
5.897363,8.965967,7.392236,6.97207,7.981836
6.5138183,9.035791,6.923242,6.513574,7.475
5.756738,8.654444,7.1493163,7.6095214,8.762842
6.0125976,9.878565,7.6014647,7.4566894,9.217676
5.4691405,9.115381,5.5765624,5.105615,7.3265624
4.5389647,7.5331054,5.584375,3.3302245,6.501123
3.9547362,6.9103026,4.1129394,3.4471679,6.290918
4.942529,7.8182616,5.21792,5.1270995,6.737451
6.9586425,10.000879,8.334131,8.398584,9.862696
6.0140624,8.350733,6.1117187,6.4918456,7.575586
6.1808105,8.52627,6.759668,6.2967772,7.7901855
5.391992,8.433741,7.164697,6.771875,8.149561
5.523584,8.471827,7.370752,7.1827636,8.2894535
5.5995116,7.8492675,6.443994,6.830957,7.3734374
2.8751464,6.7801757,3.768457,3.8094726,5.9010253
7.523828,9.561182,7.9618163,7.161279,9.106104
9.485254,10.301416,8.817041,9.278467,10.78628
9.538721,10.764795,9.896875,9.206446,10.765039
9.533106,9.775293,9.480371,9.628321,11.040674
9.843897,10.357813,9.531153,10.375147,10.4144535
11.032618,10.779932,11.108545,10.740137,10.702295
10.263086,10.351465,10.623682,10.430323,11.542871
8.991114,9.54043,10.309473,10.356104,10.510401
9.170557,9.761621,9.719873,9.836084,10.765039
5.143945,9.312647,6.306543,6.1180663,8.671534
5.884668,10.26211,7.7848144,7.8893065,8.848047
7.0836425,9.037012,7.634912,7.792627,8.846094
5.325586,10.2521,5.969629,5.9500976,9.065821
5.701074,8.754541,6.0580077,5.3390136,8.26333
5.103906,8.701319,6.546045,6.5057616,6.9605956
6.8595214,9.7408695,9.89834,8.948145,10.32461
9.565821,10.408594,13.706202,13.242823,13.596582
11.253321,10.59878,12.738916,11.933985,12.139551
10.12002,10.336084,12.04043,12.194727,12.32168
12.402979,10.430811,10.243067,11.38833,11.372705
12.771143,11.208399,12.597071,12.527979,13.068262
10.467432,10.016993,11.029444,10.495752,12.560205
7.291162,10.321924,6.0077147,6.134912,10.36294
9.42544,10.049707,10.381983,9.957666,12.627832
10.363428,10.563135,12.080225,12.2755375,12.475977
8.815821,10.475,11.820948,12.19375,12.067041
9.671534,11.017725,10.442041,10.766993,12.196436
15.14834,12.341455,15.693262,16.042627,14.610987
11.257227,11.467432,12.819239,12.098047,12.3971195
8.681299,10.209375,10.595606,9.96084,11.423975
10.745996,10.859766,11.031885,11.028711,12.268457
10.363184,10.189356,10.876612,10.700098,11.352442
12.797266,12.215235,11.460108,11.9144535,12.881983
17.478907,11.9667,14.427637,14.375147,13.395411
8.129053,10.332666,9.509424,9.20376,10.311426
9.279932,10.059717,11.192041,11.337061,11.232325
11.249414,10.390039,11.8050785,11.572657,11.995508
10.763086,10.741114,12.048975,11.762354,11.907862
10.666895,10.743555,9.028711,8.659815,10.373194
2.7904296,8.52627,3.0355468,3.2188964,7.756006
3.3961425,7.0663085,4.4066405,5.129785,7.0748534
5.130029,8.315088,7.1930175,7.6168456,7.8229003
6.136865,8.394434,6.912988,7.0128417,8.146875
6.282617,8.319727,8.336084,8.194239,7.798486
6.3875976,9.478174,7.7555175,7.5472655,9.00625
4.608545,6.6112304,4.52749,4.999414,6.2401366
2.9940429,6.313379,4.4728026,4.7638183,5.426172
1.9083496,5.9217772,5.4779296,5.159082,5.3685546
9.122217,13.09585,7.5785155,7.4449706,9.9596195
10.931543,10.665186,8.20669,7.865381,12.214258
10.333155,10.319727,12.509668,11.859766,12.156397
10.543848,9.777735,9.172266,9.1800785,11.840235
11.279444,9.965967,11.677393,11.943506,11.1019535
11.641016,10.126856,12.723047,12.816065,13.395411
12.13711,12.2408695,13.860498,13.829004,12.593653
11.945948,9.583643,8.818506,8.451563,9.838526
8.603907,9.675928,7.63833,7.1151366,10.122461
8.91958,9.645411,8.997705,9.254297,9.51333
11.669336,11.373682,11.931299,11.683985,12.446436
9.55044,11.727198,11.017969,9.761621,11.704981
12.449121,10.805323,14.18252,13.67959,12.441553
14.3519535,11.865625,13.837793,14.488428,13.679834
13.52334,11.712793,12.6644535,13.673243,13.298487
10.891016,11.372461,10.700098,9.54751,11.007959
11.190577,10.487452,11.788965,11.089014,11.470362
11.522608,11.085596,11.765528,12.446924,11.721827
12.611475,11.598291,12.902735,12.58169,12.937891
13.282862,11.942041,12.739893,13.007227,13.909571
13.733789,12.12417,13.059229,13.58877,12.771387
11.754541,11.954737,12.532862,11.837793,12.902002
12.047022,11.790918,13.054834,12.474756,12.981104
12.164209,12.654932,13.150049,12.962549,13.63125
14.936914,13.442774,14.44253,14.712061,13.674463
13.135401,12.365137,14.264551,14.218653,11.808252
12.942774,13.248682,14.591944,14.917139,13.680811
11.051905,12.793848,11.704737,11.648584,12.722071
10.287256,11.771143,10.93252,10.71084,11.484034
12.031641,12.663721,12.837305,11.646875,12.655909
12.500879,12.792871,12.687891,12.528955,13.654444
14.297266,12.91543,15.392237,15.027735,14.005762
15.907373,14.0255375,16.610743,16.41836,16.336329
16.615625,14.235987,16.801416,17.072412,16.159082
17.670801,17.41128,18.160059,18.33755,18.429102
17.438868,16.875147,16.173975,16.497461,18.238428
19.908838,16.731592,20.774073,20.821924,18.858545
18.243067,15.7599125,17.85464,16.918604,18.152735
19.260645,14.817774,18.493067,17.320948,15.985254
18.230127,15.474512,19.022608,18.391993,17.150293
20.686426,18.22085,20.999414,21.325098,20.04336
14.626368,15.985498,18.423243,19.011621,16.107325
17.425196,16.535791,19.615381,19.324366,16.083643
18.731836,16.540186,20.285303,20.070215,16.693995
19.561182,17.912745,18.458155,17.652979,17.393946
14.656153,17.756006,15.23208,15.166651,16.642237
15.445215,17.895655,15.849268,17.76748,16.35
16.764063,17.601465,15.741114,16.2438,17.261621
18.76626,17.599756,19.43081,19.576319,18.991602
18.988428,19.062159,20.01211,20.205957,21.072168
19.891748,17.735498,20.6813,20.687403,19.424707
16.2604,16.597803,17.573145,17.879297,17.000635
14.29458,15.189844,15.799463,15.715235,16.536768
13.6488285,14.935938,15.596582,15.639063,16.16836
15.891748,15.247705,15.592188,15.765528,16.014795
16.382471,16.437159,17.010645,16.822168,16.460352
16.382471,15.319239,16.104395,16.485987,17.433496
17.111475,15.354639,17.229883,16.713037,16.61123
21.07754,16.199366,18.451563,18.55166,17.29458
22.910791,16.824121,20.48379,20.672754,20.109278
20.418604,16.123438,18.308252,18.138819,16.722803
15.266748,16.211817,16.569483,16.3229,17.45669
15.321436,16.009668,14.721338,14.038233,14.636377
15.210596,14.787256,16.083399,16.049463,15.573877
14.183252,14.531153,15.670069,15.097803,15.573633
11.579493,14.756983,13.391748,12.623926,14.259668
16.974024,15.738428,17.518457,16.458155,16.746485
16.094873,15.542627,16.49087,16.382715,16.263819
15.759668,15.314112,14.311426,13.868311,15.846338
15.840723,16.199854,16.656397,16.663477,16.433252
16.465479,15.734278,16.927393,16.907373,17.310205
17.366114,16.241358,16.063868,15.859278,16.196436
16.570948,15.59292,16.887598,17.560205,16.587305
15.464502,16.07168,17.06875,16.612207,16.627832
15.469141,16.273829,16.91714,16.486963,16.835352
18.120996,16.637354,17.896631,17.968653,17.897852
18.64712,16.921534,18.490137,18.984278,18.22085
18.110498,16.799463,18.683008,18.348536,18.72964
20.142237,17.76919,19.797754,21.415674,20.579004
21.273096,17.460352,18.544825,18.479883,18.803614
16.423975,17.145899,16.416407,17.193995,16.89248
15.6661625,17.101221,15.405176,15.251123,16.507471
15.871241,17.29336,18.86831,18.242579,19.082178
14.436182,16.592676,15.347315,15.344629,17.45669
16.53457,15.925196,16.706202,16.264307,16.433008
16.800684,16.73794,17.61416,17.246973,18.271875
15.851465,16.507227,16.299952,16.474512,18.15542
15.164942,17.019678,16.191553,15.954004,17.306787
17.932276,16.711817,17.327051,17.037745,17.892237
19.333399,17.170313,19.080957,19.039942,19.252344
23.221338,17.921045,23.18545,22.88296,20.85464
22.250635,20.712793,23.446924,23.989405,20.868555
22.905176,20.518213,24.498926,24.352198,22.168116
20.85586,18.031397,19.902246,20.388575,19.491358
18.723047,17.95962,18.549463,19.222803,19.86001
21.348536,18.212793,19.419336,20.805079,21.567286
20.785547,19.189356,20.41543,19.454248,20.14297
21.737452,19.187647,20.968897,20.568018,19.47915
23.393702,21.261377,24.937647,24.678125,22.907373
21.185938,21.286768,22.445215,23.899317,21.400782
20.874414,18.866358,22.805323,22.971827,21.249659
21.1542,18.070948,21.453516,21.793848,19.87832
16.573877,17.838526,18.310938,18.944239,18.0646
16.616602,18.26333,16.99917,16.848536,17.281641
17.077784,17.5917,18.767237,18.39004,19.076075
16.106592,17.397852,14.574366,14.512354,16.758448
19.579737,18.428614,17.815088,17.218653,17.87124
20.141016,19.246729,21.358301,20.720118,20.23379
20.882227,18.722315,21.095362,21.089746,21.115137
22.744043,18.731592,22.594141,22.427881,20.186914
21.395899,18.832178,19.235743,19.48916,19.2438
21.166407,18.624903,18.795557,18.90542,18.806055
20.495996,18.726221,18.917871,19.392725,18.518946
19.461817,18.556055,15.504786,16.642237,19.1813
15.879541,18.412745,16.707666,16.681787,18.597315
19.065577,19.60415,20.366114,20.839746,20.242823
19.638819,18.980616,20.889063,21.026026,20.383204
20.899317,18.753809,20.723291,19.756739,19.745752
18.152246,19.317774,20.52456,20.548975,19.472315
20.676905,19.691797,21.784082,21.836817,21.234522
21.807032,20.933985,23.223536,23.207178,21.143946
21.46499,20.76333,22.592188,23.06753,23.118067
21.184717,21.640772,22.916162,23.28213,25.313135
23.389063,21.45669,24.030909,24.231348,23.01797
23.41543,22.83169,24.034082,24.64834,23.547266
23.623682,21.733301,22.290918,23.352686,24.050196
23.376612,21.36709,23.473536,23.976465,23.795557
23.33291,21.630274,24.889795,24.620508,22.14712
22.973536,21.85415,24.266993,24.179102,21.768457
23.066553,20.051172,24.009424,23.660059,21.345118
21.583399,18.903955,19.40957,18.283106,20.268946
21.045069,19.715235,17.955225,18.086329,18.891504
21.093164,20.009668,20.088526,20.398584,21.510157
21.028955,19.178614,18.089258,16.247217,18.00796
16.279932,16.935205,15.563135,15.101465,15.993799
11.730371,15.971094,13.450342,13.160791,14.91128
9.308496,15.463526,10.996973,10.616846,14.504786
12.885157,16.34585,13.954981,13.119043,15.85586
13.018946,16.687159,13.239405,13.248682,15.738428
14.91958,16.850489,15.557764,15.575342,15.783838
15.111963,18.390772,16.02456,16.136866,18.514063
16.513819,18.018946,18.196436,17.630762,18.694483
18.10293,17.805567,16.50625,16.986963,17.127832
13.731592,16.37002,14.153955,13.541407,15.243311
12.802149,14.8207035,13.614405,13.69668,14.612207
15.164698,16.332178,15.307764,15.353418,16.370996
15.8771,17.381495,16.136133,15.816309,17.362207
16.327051,17.487207,17.054834,17.061914,18.110498
16.703272,17.223536,17.656153,17.361963,18.301905
17.49917,17.52627,17.544092,17.728418,19.090235
18.29214,17.16836,17.8229,17.915186,18.837793
20.631495,17.83169,17.276514,18.156641,18.440088
17.10708,17.13296,16.325342,15.666407,16.181787
17.280664,17.196436,18.17251,17.840967,19.106836
18.400782,17.691797,18.62588,18.306787,20.177149
17.283838,17.366846,19.205957,19.220362,18.936182
17.081446,19.29873,19.14419,18.975,20.744532
16.085108,18.749414,16.614649,16.58706,20.077051
17.672266,17.281397,17.36172,16.31167,16.964746
16.588526,17.095362,17.735987,17.63833,19.278955
17.675928,17.369532,17.538965,17.799952,18.677149
18.116602,18.20498,17.988184,18.092676,19.982813
19.03921,20.143213,20.536524,20.273829,22.402246
18.246973,18.895655,19.541407,19.087793,21.37002
17.50918,17.731348,17.42544,17.205713,18.875635
17.807764,17.95791,18.97671,18.489893,18.900537
16.353418,19.454493,18.274805,18.239893,21.273096
14.974024,17.528467,15.402491,15.676661,16.831202
15.116358,16.723536,14.168848,14.068506,14.851465
13.322901,15.958399,13.177393,13.7564945,15.356348
11.800684,16.369776,14.380518,14.01333,15.790674
12.247705,14.978174,12.29751,12.07583,13.874659
12.330713,16.314844,12.661768,13.183496,15.223047
16.050684,17.496485,16.96206,16.407373,17.601954
13.741358,16.199366,15.340723,14.386621,15.145655
13.866602,16.790674,14.716944,14.55752,15.623194
12.155176,15.236231,13.143946,13.027979,13.718409
11.082422,14.541895,11.926661,11.895655,12.0377445
12.702784,16.381006,13.017481,13.088282,15.191065
13.110743,14.321924,11.547266,11.29336,13.171289
11.189112,15.128077,11.981104,10.96084,13.678858
11.302637,15.157618,11.688379,10.691797,12.634424
13.224024,16.270166,14.369776,14.191553,15.316797
13.491358,15.996729,13.541895,13.241114,13.986231
14.192286,17.024073,12.41128,12.547022,17.207422
12.997461,16.678614,12.8146,13.667383,16.283106
13.718897,15.669092,14.426172,13.983545,15.05459
12.0917,15.376612,12.920801,12.100489,14.352686
10.897608,11.961084,8.099756,8.003565,9.676661
8.07583,14.268946,8.68667,9.174463,11.967676
7.959375,13.596338,8.842432,9.474512,10.753565
3.890039,10.659082,5.9688964,5.299707,7.5128417
5.87124,11.557276,6.4603515,6.148584,8.78042
7.848535,13.165186,9.224756,9.095118,11.49502
11.004297,12.732813,7.8387694,7.8612304,9.809961
11.136866,10.688868,6.4098144,6.2708983,8.290186
4.848779,10.745752,4.725,5.018213,8.858057
6.4017577,11.73086,7.851709,7.3512206,9.653955
5.1236815,10.485498,5.206445,5.348291,8.303858
5.393457,11.959131,5.9793944,5.6290526,9.1192875
4.0904784,10.503321,4.5694823,4.6273437,8.099512
3.8072753,8.915918,4.202295,4.4330077,7.680078
4.5746093,9.196192,4.3526855,3.7967772,8.044092
5.103906,10.515772,6.563867,6.296045,9.378565
6.1839843,10.311182,8.13711,8.361231,10.057764
5.430322,10.012354,7.4203124,8.408594,9.1542
4.140039,8.111963,3.5416503,3.8036132,6.692529
3.4308105,11.553858,4.9652343,4.12417,7.4862304
7.7936034,11.924463,8.498682,8.235498,10.419092
10.954493,12.990381,12.077051,12.152002,12.4752445
10.772852,13.057276,11.125391,10.746973,12.277002
7.096826,11.405176,7.628076,7.497705,10.137842
7.2228026,11.681055,7.5318847,7.2086425,10.493799
9.102686,12.563868,10.051416,9.704737,11.563379
10.179346,13.092432,6.452295,6.5838866,11.866602
