"[299, 255]","[227, 248]","[287, 319]","[279, 328]","[230, 262]"
3.4635253,9.366114,5.3702636,5.260156,8.136377
4.778711,10.609278,5.7416015,5.6791015,10.036768
9.148584,10.961573,9.513819,9.924463,10.734034
10.204981,11.472071,11.370752,10.801661,11.536036
10.038721,11.425684,11.24502,10.401514,11.052881
7.5504394,10.829004,8.936914,8.606592,10.129297
6.320947,10.3380375,9.000635,8.768213,10.01919
5.3006835,9.648584,6.7796874,6.3402343,7.5580077
4.9537597,10.4005375,6.0375,5.5331054,9.188379
6.240625,10.557764,7.2833495,6.8458495,9.26626
6.0160155,9.996729,7.193994,7.082666,8.67251
5.5648437,10.593653,7.410547,7.0594726,9.526514
8.013086,11.824366,9.523096,8.944727,11.428858
9.8675785,11.955225,10.79043,10.1314945,11.421289
4.806787,9.106836,5.178125,4.620996,7.128076
5.7049804,8.867334,6.5733886,6.277246,7.6024413
5.5213866,7.804834,5.4330077,5.7330565,6.8978515
3.2518554,7.299463,4.8770995,4.952783,5.657373
2.2606444,4.911035,3.3924804,3.4713378,3.9225097
2.0597167,8.496241,3.1820312,3.3180175,5.3583007
7.56582,10.698389,8.139307,8.137598,10.24209
4.848291,9.020166,6.291406,6.2174315,7.2711425
7.822412,10.455713,8.744776,8.3519535,9.793116
7.890283,10.62295,8.554102,8.146143,9.860254
4.5821776,8.937647,5.3890624,5.4325194,7.2052245
0.39711913,4.9862304,0.32290038,0.6273438,3.9671874
0.886377,6.0106444,0.34609374,0.4178711,4.655908
1.6466309,6.3246093,1.4903809,1.3380371,3.5790038
0.9110352,7.827295,2.8851562,2.124414,6.3131347
5.178125,9.795557,6.134668,5.1952147,9.112696
7.9120116,10.362207,8.245508,7.7447753,10.221582
6.6639647,9.886133,7.219629,6.5870605,8.103174
5.635156,9.489649,7.1532226,6.992822,8.471338
8.613672,10.078028,9.7877445,9.465967,10.363672
9.077784,10.297754,9.667627,9.837305,9.901514
4.88125,9.4144535,6.848535,6.049951,8.773584
9.315821,10.6505375,9.895899,9.92544,10.41543
9.227686,10.554102,9.268213,8.780909,9.851709
5.7831054,9.346827,6.56875,6.230127,8.244043
4.5265136,8.885889,5.883447,6.0699706,7.1620116
8.091455,9.813379,10.281397,9.793604,9.829737
7.381738,9.626612,9.043116,9.143213,9.143457
5.14541,8.856836,6.579004,6.06167,7.7518554
4.1371093,7.870996,4.803125,4.426172,6.52041
1.4972168,5.5956054,1.5106446,1.2396485,4.885156
4.439111,6.1429687,2.0877929,1.8612305,4.0504394
1.5824219,5.636377,2.4034667,2.1720214,3.1424804
1.0714356,8.554346,2.204248,3.0162597,6.8595214
3.103662,8.503321,3.4918456,3.2677245,7.193506
5.1424804,8.802149,5.7433105,5.824365,7.905664
1.3636719,5.261865,1.6153809,0.98964846,3.8336425
1.8543946,8.127588,0.96083987,0.8316895,6.192529
3.2169433,9.538721,4.8321776,4.860498,9.023584
6.458154,9.817774,6.3336425,5.888086,9.15542
5.685205,8.731836,5.5575194,5.452539,8.05752
3.0555663,7.6117187,3.690332,4.027246,5.603662
2.5543456,7.501611,3.933496,3.6639647,6.0421386
2.8023925,7.30166,3.5909667,2.805078,5.620752
3.0138183,7.707422,3.0094237,3.8268065,6.1249022
2.8355956,7.2643065,3.26333,2.6551757,5.7713866
1.4527832,6.815088,1.1544434,0.6766602,4.7621093
0.3734375,5.744531,2.7867675,2.5772948,4.849756
2.4740233,6.9793944,2.9217772,2.2032714,5.8548827
3.287744,8.202539,3.7225585,3.9002929,6.2899413
7.4276366,9.3346195,7.9710937,7.47207,8.951319
7.4171386,9.323877,8.0099125,7.4635253,9.262598
9.225733,9.837061,9.774561,9.680811,10.071924
7.457422,8.923731,7.933252,7.886865,9.214991
4.4359374,8.260401,5.2328124,5.1131835,6.851709
6.1703124,8.676905,7.315576,7.5870605,8.58877
6.2171874,8.420069,5.536035,5.5123534,7.464502
4.7816405,7.584863,4.4776855,4.631494,6.802881
8.160059,9.53335,8.614161,9.220362,9.308741
6.574121,9.235498,6.836084,6.5892577,8.428858
5.7728515,8.310205,6.6183105,6.4273925,7.872705
4.1026855,7.405664,4.3961425,4.2418456,6.2955565
-0.13095704,5.740381,2.39541,1.817041,3.5750976
-0.0328125,4.367822,0.67592776,0.6490723,3.4205565
-0.9830078,3.789453,-0.49057618,-0.83188474,1.6070801
3.5909667,8.210108,4.525293,4.449121,7.3004394
1.551416,5.928125,2.367334,2.0226073,4.603662
-2.3345704,2.4554687,-1.3389648,-1.5005859,1.1153809
-0.55185544,7.2711425,0.0072265626,-0.06577148,6.080713
6.4479003,8.406885,7.136865,7.501611,8.998194
7.5382323,8.816309,8.363672,8.302637,9.682032
8.72085,9.96792,9.537012,9.277002,10.37002
9.729883,9.634424,10.363184,10.690088,10.673487
6.1703124,8.754297,6.594629,6.631494,8.346827
4.113672,5.9776855,4.343408,4.355127,5.662256
2.0831542,6.942285,2.6170897,2.435205,5.471826
6.9537597,7.947412,6.9171386,6.820703,8.948145
6.8287597,8.705225,8.289942,7.544824,9.04043
8.570459,9.278467,9.334131,9.340235,9.476465
7.6810546,9.6974125,9.457178,9.238916,10.739649
7.001367,8.413233,7.0660644,6.339502,7.987695
8.330713,8.64419,6.985986,6.718408,10.1542
7.1095214,7.9654784,8.5863285,8.239405,8.543604
6.396875,7.518701,6.8373046,7.072412,7.431543
7.2206054,8.6974125,8.022852,8.05752,9.219385
7.528711,7.9139647,8.558496,8.183008,7.982324
9.852686,7.572168,8.929834,8.715479,8.777246
6.4798827,7.7264647,9.253321,9.307276,8.230127
7.8543944,7.4969726,9.702295,7.6986327,7.956445
4.841699,8.058496,6.6305175,6.625879,6.9139647
5.864404,7.5094237,7.5936522,7.570947,7.4623046
7.510156,7.3788085,7.991113,7.923486,8.177393
6.752832,7.7240233,6.662744,7.032861,7.8998046
8.177637,8.761377,7.9964843,7.7103515,8.674952
4.8460937,6.6170897,5.176904,5.508203,6.544824
4.8109374,6.9554687,6.2069335,6.225488,6.8126464
3.2975097,6.5919433,6.3524413,6.1634765,6.9549804
2.117334,7.706445,3.976709,3.2916503,7.970117
6.018213,7.5936522,7.3543944,6.927881,8.047266
6.200586,7.221582,7.857324,7.412744,7.68374
8.165918,7.866113,6.12832,5.8475585,7.1544433
4.798242,8.725,5.1268554,4.876367,7.773584
5.9364257,6.752832,6.6046386,6.7413573,7.086572
7.051172,7.846826,5.645654,5.0401855,9.816797
6.5213866,7.9745116,8.007959,7.2933593,9.456446
7.843408,7.877832,7.786035,8.014551,8.660791
8.148096,8.316553,8.504053,8.520411,9.136621
9.504541,9.106348,8.820948,10.153711,9.19375
11.789209,10.56875,13.3033695,12.694727,11.906153
9.818506,9.57583,10.644922,10.476221,11.177393
7.70083,9.694971,7.89541,7.7696776,9.948877
9.229883,8.890284,9.757715,9.437891,8.807764
8.724756,9.9144535,9.104883,8.786036,9.857813
9.024073,8.989649,10.521875,10.442041,9.527491
7.594629,9.532618,11.818506,12.17544,9.528955
6.876611,8.858789,8.816309,8.579981,9.217676
7.072168,8.360987,8.844385,8.2738285,7.7640624
9.8050785,8.611475,10.933008,10.587549,10.473536
10.862207,9.809717,10.860743,11.453028,12.08584
12.5021,10.547266,13.394678,13.864649,12.783594
12.10586,11.300684,13.303614,13.089746,12.366114
9.066309,10.357813,10.31875,10.131739,13.383936
12.182276,9.909571,10.579248,10.37417,12.889795
8.953028,11.49502,9.255274,9.447657,10.118555
7.8233886,10.84585,8.980371,9.187891,11.452051
8.599268,10.483057,9.719873,9.986231,12.211817
9.631983,10.691065,10.063623,9.175196,10.155664
12.703028,11.627588,12.995996,12.218409,12.980616
10.1349125,10.106592,11.44668,11.662012,11.892969
13.034082,11.491358,13.288721,13.26919,11.53335
12.198145,11.70083,11.84292,11.024073,10.674707
12.452051,12.593897,13.469873,13.977442,12.525782
9.157618,10.639307,13.514551,13.640039,9.85708
8.022852,11.661524,12.604395,13.0238285,11.921778
8.527491,10.767725,9.827784,9.953516,11.765039
12.495264,11.89834,12.753809,12.888575,12.577784
11.187647,11.643213,10.505762,10.245752,12.853907
13.046534,10.797754,12.976465,13.055811,12.939112
13.19253,11.644922,13.875635,13.852198,13.061426
12.455713,12.515772,14.0863285,13.464502,14.708399
10.871729,11.823877,10.5880375,10.576075,11.075098
13.550928,12.1896,14.706934,14.66543,14.172998
13.6349125,11.693262,12.560694,12.831446,13.807032
13.960352,12.076075,11.301661,11.547998,12.016748
14.837305,12.857325,14.590967,14.832666,13.581446
7.6234374,11.784815,11.046778,10.777491,9.7269535
13.063868,12.604151,14.626368,13.574121,13.170801
14.110498,13.148096,14.883692,15.006983,13.948633
14.335108,12.9317875,15.056055,14.834375,12.845362
13.048487,13.640039,14.116358,15.349024,13.820948
12.0533695,14.441797,12.32583,13.751856,14.224512
13.082666,14.862696,14.084131,14.678858,14.816065
14.0221195,13.7286625,13.909082,14.867334,15.079493
15.731104,14.349268,16.773829,16.94082,16.17666
18.467676,13.811426,18.225733,18.541162,17.186182
16.629541,17.183985,18.091455,20.175196,18.672754
17.228174,15.869532,16.909815,17.452784,16.233057
16.123438,15.683985,16.647608,17.064844,16.28628
16.539454,17.220606,17.855127,17.838282,17.937647
16.243067,17.754053,14.177149,16.632715,17.220118
19.081934,16.176172,17.74795,19.80166,19.06582
18.868067,15.900293,18.433252,18.842188,19.59463
15.658106,14.611963,16.923243,16.548243,14.786524
14.176661,14.02334,15.672754,15.773584,14.086817
15.102686,15.330225,13.649805,14.052637,16.422022
12.894434,14.546778,13.916407,13.714014,16.995508
10.730371,13.955469,13.031885,13.368067,13.108057
15.89126,15.988428,16.844141,17.48086,14.609278
13.994776,17.422266,15.238672,17.271631,16.853907
19.33706,17.421778,19.65713,20.201075,18.571192
21.26748,17.935694,22.389551,21.967676,20.797998
22.038965,17.906641,22.46377,21.965479,17.304102
22.990137,18.705957,23.413233,23.693262,23.181055
22.980127,18.01919,20.560938,19.963282,16.706934
17.929102,15.304102,17.16714,17.231104,15.048487
17.644922,15.41836,17.961573,17.84585,15.254297
18.488184,16.178858,17.506739,17.333887,16.456446
18.197168,15.951807,19.552149,19.488428,17.36709
15.736963,14.737696,17.998194,18.221582,14.700586
16.721338,14.689844,18.421045,18.293848,18.611963
14.78042,14.766504,18.389795,18.850977,14.94961
15.743555,14.757715,16.778711,17.26089,14.763819
14.788965,13.71377,18.886866,18.978662,14.189844
14.873194,14.330225,16.016016,16.386866,14.810694
16.862696,15.654444,18.285059,18.503565,16.599024
18.660059,14.744776,21.906397,22.437647,15.955713
22.389551,15.364649,24.31582,24.523584,19.683496
22.35708,17.407373,23.8688,22.836573,17.998926
23.275293,17.045069,24.741114,23.921534,21.809961
24.40005,20.10879,23.749659,24.213526,23.706446
25.153955,19.71255,25.979395,26.787256,20.649073
18.770655,16.449121,19.47964,20.627588,21.111475
17.37588,15.921778,20.06582,20.598047,18.79336
19.131739,16.296778,20.862207,21.157373,20.265284
20.343164,16.56045,20.57046,21.368555,20.063623
20.769922,16.912012,21.243555,20.498926,20.896143
18.396143,17.069483,15.19961,14.945459,19.644434
13.520655,15.493555,14.021387,14.93252,15.804346
15.099756,15.326075,16.895899,16.453272,15.687891
15.417383,15.767969,15.4127445,15.1314945,15.270655
16.803858,15.822168,19.045069,18.709131,17.038233
19.893702,17.715967,19.887354,20.748926,21.146631
19.247461,17.515772,19.523096,19.102686,19.23672
16.700342,17.727198,20.028223,19.693262,18.922022
18.672998,17.84585,17.786768,18.442774,19.524317
18.055567,17.670557,18.434473,19.451319,19.047022
19.621973,17.212305,19.310938,19.99502,20.619043
20.080957,17.053858,19.456202,19.944727,20.182764
18.226221,17.279444,19.572168,19.35464,18.847315
20.081202,18.504786,19.888575,19.880518,19.581202
22.518213,19.296534,20.616114,21.127588,20.619776
23.224268,18.872461,20.478907,22.540674,20.068262
20.02505,17.574854,18.66836,19.307276,20.309961
18.663477,18.21499,19.38711,19.45791,17.954737
21.023829,19.342676,20.30581,20.816797,19.614893
14.975733,16.750635,15.736719,17.08755,15.618555
18.549463,17.85586,20.10464,19.955957,17.55581
19.430567,18.081446,18.308008,19.438135,19.682764
20.930079,18.702295,20.496729,20.520655,22.059717
23.308252,19.152246,21.395655,21.592432,20.643213
22.255762,18.194971,22.38833,21.332666,20.159327
19.115625,18.406641,18.864649,19.22085,20.329004
17.791407,17.948145,18.427637,19.308496,19.836573
20.235498,18.363184,20.736475,20.844385,18.856592
17.557032,18.759424,17.417627,18.09707,19.006739
17.945704,17.897608,19.210352,18.975733,19.396387
20.229883,19.098536,20.798243,20.520899,19.140772
20.720118,18.398096,20.469385,21.358057,19.380274
19.769922,17.968409,19.141016,19.327295,19.290918
20.64541,17.408106,20.32876,19.625635,19.708643
17.661768,17.804346,18.792383,18.606348,19.370508
18.20376,17.502344,18.855127,19.129297,19.318262
18.831446,17.764307,18.931055,19.012354,18.745508
17.99502,18.023829,17.694239,17.137354,19.046778
16.649317,16.971827,16.977198,17.006495,18.691309
17.671778,18.468164,17.058496,17.565088,19.5375
19.369532,17.967188,20.015528,20.262598,20.27041
20.31167,17.6813,18.754786,19.178858,18.939112
23.268457,19.247461,21.545313,21.417871,20.849512
19.779444,17.924707,17.994287,18.620996,17.879541
20.232325,17.008692,18.453516,18.554346,18.078272
20.626856,16.953028,20.26797,20.499903,18.788233
15.437159,17.426172,16.306787,16.21377,16.681543
16.903955,16.751612,16.668116,16.63418,18.042627
15.216944,17.543116,17.491602,17.069239,17.855127
14.510157,16.221338,15.451807,15.732569,16.721094
14.146387,16.567041,14.661768,14.341944,15.811426
15.832178,17.724024,18.288721,17.665186,19.02505
14.352686,16.341944,15.944727,15.531641,16.432764
14.55459,16.08047,14.982569,14.221827,14.797998
12.034571,15.267237,11.625391,11.799219,15.14419
12.185205,14.341944,14.275293,14.197657,14.214502
13.954004,15.746241,15.046778,15.147608,15.271875
13.954981,14.960596,15.165674,15.139063,15.684717
13.829248,15.111719,14.986231,15.08877,15.436182
12.538477,16.522852,11.285547,11.88711,15.062891
12.826319,16.488184,15.083155,15.192774,16.125635
14.368799,15.546534,14.977442,15.367823,14.702784
14.902735,17.021875,15.212305,15.388819,17.807764
14.750635,18.073145,15.922754,16.126368,16.251856
14.236231,17.995264,15.202295,15.39419,18.139063
16.162012,18.495996,16.717676,16.771143,19.319483
17.275537,19.057764,18.036036,18.488672,21.258936
18.286036,19.926905,18.714014,18.948633,22.64004
17.170313,17.979395,17.519922,17.879786,18.459864
15.522364,17.254541,18.610254,18.88833,17.047022
16.347803,16.97793,16.97207,16.580225,16.296045
15.124414,16.744043,16.303614,15.834864,16.52212
15.033594,16.681787,15.708155,15.532862,16.677393
17.271875,16.941553,16.271631,17.040186,17.185205
18.247461,18.652002,19.187647,19.073633,19.25796
19.307764,17.3146,17.86416,18.723536,17.092676
18.521875,18.304834,19.083399,18.683008,18.943995
14.91543,15.850977,16.079248,16.14004,15.233545
16.22207,16.762842,16.399073,16.39541,15.620996
17.259668,17.750147,18.08755,18.20962,18.050684
19.287989,18.19253,20.280176,20.206934,21.175684
18.490137,18.191065,19.912745,20.214746,20.288965
19.040186,19.743067,19.893702,20.44375,19.380518
17.002344,19.074366,17.793848,17.833399,18.711573
16.379541,19.067774,16.081934,16.328272,18.681055
16.818262,16.864649,17.860987,17.856104,18.201807
13.580225,15.954248,13.116846,13.011133,15.992823
12.879297,14.972559,12.525782,11.781641,14.248926
15.391748,17.136866,16.018702,16.442041,16.735498
14.522608,16.854395,15.201563,15.847315,15.393946
14.365137,15.899561,14.496729,14.79336,14.168848
13.829004,15.720606,14.620752,14.308741,15.135645
14.026514,15.518457,14.265284,14.236719,15.147852
13.236231,15.536036,13.514551,13.788721,14.911036
11.628565,14.9005375,11.2582035,10.747705,13.751856
11.048731,14.572657,9.787989,11.005274,13.2875
10.816797,14.8658695,11.178125,11.569483,14.818018
11.856104,15.080225,12.835352,12.573389,14.647364
11.475,14.346827,13.641748,13.826319,14.0646
9.976465,13.143946,11.944483,11.7738285,12.684473
9.530176,13.161036,10.710108,10.694727,12.589502
11.455713,13.923243,12.324121,11.995508,13.095362
12.481592,14.836084,12.811426,12.707911,13.645411
11.471582,14.449366,11.818018,11.447657,12.202295
9.754053,12.651026,10.210108,9.5863285,11.925196
8.257227,11.950586,9.54458,9.020899,11.06167
7.5702147,11.193506,7.8663573,7.685205,10.026514
8.127832,11.24917,8.476221,7.8597655,10.008448
5.7899413,11.422022,7.5560546,7.2069335,10.27627
6.469873,11.891748,8.366846,8.651026,10.852686
7.952295,12.954248,8.72793,8.377588,11.2269535
9.830225,13.9613285,12.527002,12.564356,13.261866
8.463282,12.382471,9.697657,9.542627,10.63711
8.660059,11.15835,8.580469,8.164942,8.967432
7.9239745,11.856836,9.395655,9.066797,10.606836
8.528223,11.989405,10.321924,10.041407,11.070948
8.78628,11.84292,9.045313,8.368555,10.965723
6.865869,10.655909,7.218408,7.025537,10.080225
4.4933105,11.396631,5.45083,5.3770995,8.527735
8.55459,13.350489,9.7130375,9.468409,12.069483
8.966455,12.951563,9.6817875,9.387354,11.193262
7.580713,11.389551,8.173731,8.305567,10.139551
7.610986,12.218409,8.104639,7.647363,9.670801
8.184961,11.791407,8.044092,7.8021483,9.741846
7.2674804,11.682276,6.458154,6.7638183,9.91836
7.772119,12.550684,8.9908695,8.574121,11.68545
7.3197265,11.369043,8.043604,7.6551757,9.918604
6.605615,11.503809,7.28042,6.8419433,9.297266
10.831202,13.481348,11.936182,11.781397,12.88833
10.645655,12.929102,12.060938,11.783594,12.542383
6.1859374,10.407618,7.2242675,6.5077147,8.863672
3.233789,9.259424,2.893701,2.8956542,6.8109374
1.2010742,7.5523925,1.7054688,2.147119,5.341699
3.377832,9.422998,6.0111327,6.7308593,7.813623
6.2123046,10.067041,7.1463866,7.430322,8.135401
5.330713,10.662012,7.431787,8.889307,9.664698
6.641504,10.961573,8.98208,8.989649,9.341455
8.098536,11.215723,9.928125,10.065088,10.61709
8.19961,11.469873,9.8675785,9.579248,10.54751
8.277979,11.159082,10.336817,9.938868,10.103174
7.9222655,11.3814945,8.981592,8.565088,10.129786
7.8338866,11.505518,8.877832,8.406885,10.392481
5.543115,9.73794,6.0870605,5.6256347,8.053858
5.40542,11.481592,5.6722655,3.6346679,9.399073
6.069238,11.127588,6.129297,6.030908,9.5707035
6.199365,10.921045,6.7608886,6.692285,9.569483
6.5645995,11.363916,6.147363,5.787744,9.248438
7.957422,11.54751,8.20669,7.8980956,9.837549
6.6864257,11.435694,8.459131,8.096094,10.452295
9.863184,11.923487,10.301661,10.485743,11.371241
