"[299, 255]","[227, 248]","[287, 319]","[279, 328]","[230, 262]"
3.3243651,8.15835,3.14541,2.5440917,6.0702147
4.7328124,8.3050785,4.68667,4.0208983,6.921045
10.136133,10.982325,11.077295,10.794336,11.024561
9.188623,10.712061,10.649073,10.776758,10.806543
8.174463,10.35,9.361963,9.178614,9.941065
7.619531,10.483057,8.518702,8.471582,9.427881
2.5870605,7.884912,3.7022948,3.3807616,5.934961
3.8270507,9.485498,5.115869,4.7818847,7.7574706
4.855615,9.986475,3.7013183,3.5077147,8.391016
-1.0105957,4.358545,-1.0601562,-1.7146972,2.7630858
-0.11533203,10.178614,-0.38242188,-0.6790527,9.144922
4.804834,10.171534,4.427881,3.1734862,9.077295
1.9518067,8.183741,2.3001952,2.0726562,5.9415526
9.136866,10.956202,9.673975,9.146875,10.613672
4.627832,8.258448,5.6688476,4.0367675,5.9044433
5.4776855,9.802393,6.4828124,6.201074,8.938379
6.2748046,9.575098,6.98916,6.520654,8.775782
6.2276855,10.039942,6.143213,5.615625,8.891016
4.284082,9.20083,5.655908,5.2970214,7.422998
7.539209,9.156153,6.677881,5.9764647,7.980615
7.921045,8.8771,6.6961913,5.307031,7.251367
3.8861327,8.851709,5.3250976,5.1856933,7.0665526
4.9706054,9.903223,4.4376464,3.2491698,8.187403
4.313623,8.335352,5.478662,4.5995116,6.782861
8.814112,11.041407,7.9125,8.075342,10.41958
8.770655,10.85,9.89834,9.259424,10.224512
5.9793944,9.712793,5.896631,5.955957,8.118799
6.238916,9.555811,7.1205077,6.914453,8.350489
3.5113769,8.329004,4.377832,4.1805663,6.761865
3.909082,8.061426,5.0086913,4.851953,6.5035644
5.7779784,8.754053,4.8731933,4.355615,7.860498
4.3631835,7.4503417,3.9061522,3.8836913,6.02749
4.113916,9.189356,5.4464355,4.7782226,7.758203
6.777002,8.741114,5.750879,5.21499,7.7157226
2.601953,6.697656,2.527246,2.7394042,4.603662
0.9935547,6.5074706,2.0770507,2.3756347,4.2169433
0.7921387,5.518457,0.8331543,1.2606446,3.002832
-0.3482422,5.897363,-0.35898438,0.1961914,4.2464843
2.409082,7.878076,2.8209472,2.292871,6.386865
6.350488,9.561426,7.7003417,7.68667,8.914942
6.903955,9.418116,7.7591796,7.711084,8.591944
4.5919433,7.9483886,5.263086,4.640283,6.6012206
4.4969726,8.494043,5.6322265,5.1810546,7.388574
7.0233397,9.1019535,7.928125,8.110498,8.973536
6.7574706,8.830957,7.8438964,8.471338,8.557764
5.6654296,8.489161,6.662744,6.7469726,7.8163085
5.641748,8.559229,6.778955,6.5921874,7.851709
5.386377,8.43667,5.940576,5.7816405,7.638574
5.4920897,8.344629,6.3021483,6.8299804,7.535547
6.428369,8.63833,7.1041503,7.1219726,7.949365
5.271875,8.923243,2.581201,1.8224121,8.195215
7.4254394,9.4630375,7.631494,7.1805663,8.922998
7.978662,9.386621,7.245752,7.23208,8.468409
8.086817,9.261133,8.4908695,8.553125,8.9596195
5.5902343,7.767236,5.2035155,4.860742,6.21792
-0.88364255,4.7140136,-2.0467286,-2.4012208,2.070703
-0.3128418,3.1109862,1.5631348,0.7452637,2.3124022
-0.56162107,2.740869,0.8792969,0.7574707,1.692041
-2.0965333,3.3888183,-0.37851563,-0.65341794,1.6402832
-0.5342773,6.131494,0.41835937,0.4120117,3.8768554
2.6358886,7.6544433,4.412744,4.6075683,6.9395995
4.569238,8.34292,5.2940917,5.34707,7.8424315
0.48574218,5.3773437,1.6422364,1.8055664,3.744287
0.32387695,4.803125,-0.21152344,-0.31235352,3.3680663
-2.3177247,3.7450194,-1.2759765,-1.2466797,1.4127442
2.4999022,7.1483397,3.4627929,3.407617,5.617334
4.6913085,7.777246,5.060449,4.964746,7.046533
0.2220703,4.518945,0.8797852,0.60561526,3.502832
-2.5501466,2.7994628,-2.1780763,-2.2371583,1.3548828
-1.4461426,2.8648925,0.8209473,1.087793,1.4964844
0.0040527345,5.1754394,1.4740235,1.7181641,3.9391112
3.1375976,6.7452636,5.1637206,4.58999,6.5121093
3.4117675,7.044336,4.6058593,4.951074,6.600488
4.5233397,6.2799315,6.928613,6.175195,6.456201
3.3287597,6.0885253,4.808252,4.6151366,5.6024413
4.516748,6.077295,4.9830565,5.0748534,5.448877
4.7186522,5.645654,4.7032714,4.5875487,5.5123534
2.6061034,5.0504394,3.6354003,3.251123,4.6046386
2.8194823,5.957422,3.874658,3.933496,5.3338866
5.445947,6.787744,7.176416,7.0406737,7.667871
5.8194823,7.1788573,8.115137,7.445947,8.03335
6.396875,7.320703,7.381494,7.312158,8.623682
2.0528808,5.9676757,3.7376952,3.647119,5.3927245
2.0426269,5.8421874,2.9205565,3.0160155,5.405664
3.7584472,6.793115,4.6239257,4.598291,5.8475585
6.360254,7.449121,6.6517577,7.827783,7.5367675
6.3907714,7.001367,6.995752,7.8246093,7.2118163
2.4398437,5.706445,3.9151855,3.4217772,4.9027343
3.9452147,5.7694335,4.763086,5.1915526,6.036035
2.5541015,5.8402343,3.942041,3.7486815,5.0624022
2.1012206,6.112207,3.608789,3.3546386,5.159326
5.8756347,6.7938476,5.6708007,5.918115,7.311914
5.7540526,6.702295,5.9139647,6.3441405,7.395654
5.91958,6.8473144,6.8219237,8.030176,7.580957
6.8995605,7.2362304,6.125879,7.0284667,6.8541503
5.3702636,6.39541,5.8685546,5.7264647,6.617822
1.5360352,4.601709,2.515039,2.2394042,3.7486815
3.9933105,6.5572753,4.209375,4.3773437,5.7552733
8.212305,7.599756,7.4271483,6.981836,7.607324
8.433252,8.441553,8.526026,8.020411,8.214258
10.081934,8.937403,8.704004,9.250147,9.31875
5.164209,6.5018554,5.495752,6.141504,6.739404
5.582666,7.429834,2.5157714,2.7386718,6.4950194
5.5614257,6.356836,5.303125,4.9256835,6.933252
5.1393065,7.7101073,6.079736,5.3890624,7.2086425
3.9251952,5.883203,4.1910644,3.747705,5.4759765
3.6825194,5.53457,4.5111327,4.517236,5.602197
3.3805175,5.3280272,4.891748,4.3302245,5.2242675
3.8175292,4.978906,4.3580565,3.836084,5.076074
2.5020995,5.169824,4.3734374,4.13125,4.640039
0.4979492,4.16958,1.9854981,2.2711425,2.721826
4.3731933,6.9640136,5.516504,5.5265136,6.547754
4.457422,6.459375,4.7315917,4.3302245,6.495752
4.6895995,5.4173827,5.687158,5.4740233,5.9791503
7.3685546,6.1412597,7.282129,8.151026,7.1961913
5.5626464,6.8841796,6.909082,8.1332035,6.914209
8.111719,6.8663573,7.8006835,8.2875,7.2906737
5.4815917,6.0992675,5.943994,5.4811034,5.8006835
10.500635,8.476465,11.399317,11.193262,10.0394535
6.207666,7.2083983,6.9654784,6.7188964,7.737451
7.376367,7.5816894,7.333154,8.699366,7.796533
9.3675785,8.225733,7.661279,8.214746,8.058496
8.60708,8.285059,8.257959,7.9415526,8.156641
5.664697,6.4757323,6.505029,6.521875,7.1717772
7.1847167,6.466211,6.403711,6.809961,7.1632323
7.8773437,7.4537597,6.622705,7.650537,8.621729
7.6302733,7.809961,6.272119,6.5719237,7.802881
7.630029,7.8124022,9.943262,9.787989,9.338282
13.529688,8.63125,12.870264,12.731348,12.1349125
16.91665,11.848291,16.99209,17.22207,16.873194
19.277002,10.484522,14.39834,14.654688,12.002832
15.830713,7.454248,9.805811,12.147364,8.7167
6.7501464,7.4220214,7.3145995,6.8358397,7.948877
6.3592772,6.692285,7.9312987,7.077295,7.5890136
6.9918456,8.488428,8.000879,8.227198,9.589746
7.315088,7.897119,6.7083983,6.812158,8.590235
8.235254,7.7486815,8.054102,8.253077,9.676905
8.525782,9.213282,8.510157,9.166651,10.609766
4.9239745,6.818994,6.707666,6.695703,7.417871
4.4933105,7.4776855,6.8009276,6.0523925,6.8668456
6.145654,7.19375,7.5838866,7.7887206,8.370996
4.921045,7.417627,9.176172,9.2599125,8.360254
6.037744,6.350244,6.574365,6.4276366,5.9937987
6.396631,7.8998046,8.086817,7.4137206,8.390772
8.921289,7.9657226,9.572901,8.565821,9.577539
14.395899,10.008448,13.934961,13.687159,14.54458
11.629297,9.037989,12.356592,12.214502,9.945948
6.5611815,7.116113,6.0086913,5.6913085,6.622949
5.389795,6.954004,6.9166503,7.100488,5.8888183
6.0399413,7.889795,8.365625,7.4168944,8.488184
6.3094726,8.406153,8.676905,8.715723,9.124659
7.3651366,8.354883,9.41543,9.082666,9.115625
10.31753,8.464258,9.392725,8.935694,9.468409
8.146143,8.208399,9.079248,9.335108,8.868311
10.579493,8.955469,11.895899,11.239649,12.208155
13.272852,9.4474125,12.48794,12.610254,10.834864
14.168604,9.40542,10.000391,9.890039,9.662989
9.107569,9.325586,9.844141,9.791651,8.726465
8.85708,10.549219,10.051416,10.562403,10.927149
7.8890624,9.121729,8.451563,9.599268,8.6505375
11.672998,10.830957,14.314112,13.875391,10.248194
15.902246,12.499903,16.81338,15.971338,13.9942875
12.552881,11.609278,12.209131,13.306543,12.388086
13.3814945,9.641016,12.508448,11.163721,10.281885
10.018702,9.241846,9.923975,9.930323,9.643702
8.302881,8.924219,9.292871,10.292627,10.080713
10.662256,9.887354,9.370508,8.2425785,10.768213
9.414698,10.072168,11.9630375,12.23208,10.1817875
10.494532,10.505274,11.703272,12.14419,9.852686
11.345362,11.426661,12.186182,12.649317,11.346094
15.849024,13.331202,17.802393,17.814356,13.622705
17.965479,12.287012,19.21084,18.120264,16.78457
18.731592,12.476221,17.971827,17.32339,16.181543
12.110987,11.750879,11.406153,11.393457,12.028467
10.251612,11.144434,10.806543,10.3814945,11.165674
8.774561,8.975977,9.331934,9.26333,9.864405
9.677393,9.736475,11.071924,10.91958,9.183741
12.5064945,10.539698,12.650049,12.97378,11.378077
13.200342,11.716455,14.266016,14.55459,13.501123
15.373438,12.627588,16.382227,16.829737,16.36001
14.7408695,12.468164,15.630274,16.49795,15.438623
16.456934,11.82168,14.619043,15.255274,12.846338
13.930567,11.454981,11.591944,11.024805,12.21084
11.353907,10.371973,11.047754,11.23501,10.064844
9.282373,10.571436,10.323389,10.868799,10.964258
10.512598,11.941309,12.108545,11.772364,13.157373
14.721094,12.6625,13.760889,14.364893,14.741358
14.460352,12.61001,10.233057,10.05044,11.450098
9.245264,10.207422,10.86001,10.54458,10.684473
9.743799,10.996729,11.136621,11.177393,10.591944
10.460108,10.823877,10.48208,10.231348,12.093164
9.661524,9.849268,10.265528,10.319727,11.003565
9.281397,9.891504,10.356836,10.097803,10.522364
9.535791,9.365381,9.670557,9.76626,10.079493
8.13003,10.057764,9.746973,10.0863285,10.319727
6.7020507,8.590723,8.678614,8.7599125,8.524561
9.349512,8.698633,9.873438,10.06753,9.175196
7.970117,10.61001,10.863184,11.499903,11.124659
11.58169,10.828028,12.526758,12.315088,12.932032
7.2381835,10.010157,9.611719,8.810205,9.9613285
10.108057,10.482813,11.610498,11.868067,12.55044
12.438379,10.886866,13.323877,14.2721195,13.186914
11.5724125,11.000879,15.085352,14.462061,13.808252
13.411524,11.676416,14.067041,13.619776,12.219873
13.030176,12.552149,14.494532,14.733301,15.947168
13.474512,13.466211,14.610743,14.079737,15.399317
16.755518,14.638086,17.509668,18.078516,19.74502
17.71499,13.243555,17.700098,17.777002,15.144678
17.174707,14.617823,17.532373,17.624659,14.4042
19.196436,14.513086,18.933985,19.664698,15.645411
15.917871,12.356104,19.58169,19.391016,13.077784
12.940577,12.080225,15.757959,15.188135,12.149805
16.250391,12.067774,13.316065,13.435205,12.199366
17.565577,14.238916,18.263086,17.32583,14.873194
18.910791,17.937647,15.821924,19.044092,18.528467
17.248682,13.1542,18.665674,20.663721,14.257959
17.246729,14.468897,21.247217,21.136133,17.546045
16.815332,14.421289,17.828516,18.098291,16.5021
17.920801,14.320215,17.68374,18.30044,15.5021
18.193018,14.593409,19.622705,17.29922,16.72915
17.335352,14.304102,17.20498,16.39419,16.785059
15.344385,13.566065,14.145899,14.615137,14.202295
14.6158695,13.328272,16.321924,15.950342,16.248194
13.955469,13.077295,15.495996,15.814112,14.516016
14.01626,12.905176,14.481836,14.632959,14.085352
13.352198,12.711817,13.217676,13.63125,13.51626
13.725,12.63125,13.660303,13.466455,13.762598
12.200586,12.887598,13.237696,13.725977,13.965479
11.479151,13.407862,12.533594,12.853418,13.2738285
11.796289,13.0550785,12.515528,12.614893,13.277246
11.836817,11.971338,12.423731,12.825586,13.0724125
11.243555,13.424463,13.333155,13.577051,13.142237
13.378809,12.488184,14.796778,15.166895,13.733789
12.340479,12.575586,14.734522,14.0292,13.57876
10.463526,12.488184,11.092432,11.559717,10.483057
9.7521,12.88711,11.531885,11.475,12.182764
12.762842,13.270411,13.195215,13.5846195,14.083399
13.266016,13.891748,13.079004,13.687159,13.162256
16.164454,13.959131,14.006983,13.076807,13.377344
12.520655,13.762598,14.878809,14.552881,13.0917
13.125147,13.242823,13.079248,13.056299,13.775049
12.394434,13.210352,12.349512,11.855371,12.462549
12.358545,12.643702,13.868067,12.998926,12.701319
12.571924,12.31875,12.801416,12.552149,12.316309
12.420313,12.38003,12.981348,12.645899,12.235254
12.932032,13.281153,13.152002,13.015528,12.891016
12.387354,13.129786,11.878077,12.078272,12.717432
14.931543,13.504786,13.329493,12.709131,13.888819
18.560694,13.928125,16.78042,17.036768,15.085352
15.843653,14.212061,16.591944,16.44839,16.657862
15.158838,14.154444,15.819483,15.296534,14.81875
13.011866,13.5064945,13.736475,13.795313,14.28042
16.922998,14.115625,18.135645,16.164698,17.451319
16.132227,14.337061,14.289209,15.29751,14.513575
12.947901,13.9144535,13.944971,14.526026,15.587305
12.051905,13.339746,13.469385,12.887842,13.96377
11.395655,13.236963,12.910303,12.289209,14.2792
13.275049,13.95669,15.930323,15.782373,15.067286
17.402246,14.405176,16.130762,16.931055,15.61294
17.781641,14.969385,17.750391,18.431055,17.484522
16.782862,16.465967,15.830469,16.727686,16.692286
15.868067,15.250879,16.58877,16.215479,16.717188
15.107325,15.662012,14.306543,14.226465,16.599268
16.744776,14.659082,15.041895,14.875635,16.556543
13.502832,14.461573,14.04336,13.198145,13.865137
13.5917,13.38711,14.174219,14.347559,13.870508
10.406641,12.646143,13.65835,13.074854,11.859522
12.139063,13.266748,13.888819,14.809961,13.930323
14.327051,14.227198,15.597315,15.15127,15.090723
12.468897,13.835108,13.66836,13.682032,14.660547
11.091455,13.437647,11.127344,11.109278,12.402491
11.940088,13.593897,12.496241,12.35,13.101221
14.196192,13.5411625,14.933741,15.444971,13.897364
16.565577,14.482813,15.354883,16.221827,16.10879
16.873926,14.569971,18.577784,18.030176,16.290918
12.037989,13.444971,12.993311,12.895166,13.551172
15.566309,14.845362,15.528955,15.96377,14.603174
16.921534,15.565821,17.744776,17.76504,18.024317
16.997217,16.719873,17.85586,17.235254,18.841455
15.932032,15.340967,17.409815,17.424463,17.351954
15.801416,14.970606,17.363916,17.47793,17.97915
16.447657,15.082666,16.879297,17.037989,16.05581
10.244043,12.438379,11.590967,11.902491,12.193506
12.120508,12.878321,12.8771,13.18667,11.949366
13.241846,14.708643,14.128077,14.321436,15.248194
12.868311,14.296045,13.567041,13.224268,13.615381
11.034327,13.3675785,10.873682,10.514307,13.70669
10.724756,13.807032,10.512354,10.552637,12.223047
9.779688,13.096582,11.408838,11.340235,12.444483
12.781397,13.424219,13.789209,13.237207,14.331446
12.843409,13.426905,12.854151,13.126123,13.706446
13.935938,13.437647,14.23794,13.065332,13.584375
13.019434,13.450098,11.697901,12.003077,13.079493
12.598291,13.825586,15.661524,14.842432,14.773584
14.632227,13.605616,13.635645,12.662256,14.392237
15.991602,16.914698,15.5021,15.564112,17.883204
13.795069,14.435938,14.749414,15.688623,14.921289
12.335108,14.370508,13.042139,12.715235,14.099512
9.8363285,13.414698,11.003321,10.807764,12.119043
15.491358,14.289698,14.88003,14.719141,16.077295
14.2286625,14.171534,14.621485,15.571436,14.762354
15.442286,14.731348,13.851709,14.526514,14.916895
12.8050785,14.271143,14.742823,14.526514,14.917139
12.49502,13.722559,14.110743,13.261377,12.910059
15.735498,13.223536,16.177881,15.954004,14.353418
15.060205,14.110254,14.897852,14.74209,15.260645
12.91543,13.868799,15.410059,15.174707,15.814844
14.423975,13.810205,15.233057,15.238184,16.325586
14.810694,13.866114,13.914209,15.230127,13.5238285
12.400782,12.622217,13.66836,13.944727,12.078272
13.042139,12.665918,13.494043,14.701319,12.154688
14.222803,13.041651,11.298975,14.780176,12.96084
12.474268,12.279688,13.019678,13.492334,12.550684
11.805323,13.459131,11.691797,11.991602,12.543116
13.052637,15.343164,13.650782,13.030664,15.191309
13.659082,14.545313,14.68667,14.361719,14.912989
12.115625,14.120264,13.464991,12.862696,13.873194
12.369043,14.042139,12.967432,13.2167,14.133692
15.432032,17.293848,17.492579,16.277979,18.577295
16.139063,14.914942,14.882959,14.576319,13.785303
12.768213,14.454737,14.222559,13.70669,14.017725
12.274805,10.755518,11.294092,11.104151,8.981836
8.609522,12.378565,9.859766,9.677393,10.868311
10.191553,13.034815,11.265528,10.764795,12.227442
9.311182,12.464991,10.49502,10.151514,11.251612
9.701563,11.489893,8.07583,7.8961425,9.748438
8.053125,10.484034,7.558496,7.103906,10.05044
6.7604003,11.123682,8.069727,7.8160644,10.1957035
9.125635,11.618799,10.448877,9.753565,10.484034
8.887598,12.291895,9.825098,9.85,11.582422
9.721582,12.6627445,11.42959,11.093653,11.937647
9.663477,12.6036625,7.360254,7.257959,11.577784
11.769434,13.344629,11.878565,11.121241,12.452051
5.4728026,8.711817,5.799463,5.808496,7.5643554
1.8292481,7.5208983,2.1617675,2.2638183,5.7989745
1.0636231,8.927637,1.9698731,1.9125,6.3822265
8.74795,12.420069,10.188868,10.240137,11.224268
6.2066894,10.096338,7.0821776,7.0265136,8.855127
9.890039,11.962549,10.901026,10.723536,12.196192
8.914209,11.84585,10.411524,10.092432,11.147852
3.2635741,8.152002,4.7362304,4.296289,6.0716796
2.7896972,7.999414,3.3106933,2.6117187,6.0472655
6.38833,11.003077,8.906153,8.987207,9.926416
9.254053,11.510645,10.027491,9.68252,11.014795
4.220117,8.425928,5.0104003,4.8702636,6.5121093
3.532373,7.2953124,4.212793,3.9740233,6.197168
1.2210938,6.8875976,1.9078614,2.3226562,4.455957
3.9564452,7.132959,3.6844726,3.147119,6.4937987
4.1092772,6.9293456,4.3495116,3.8998046,6.1305175
3.0338378,7.20083,2.9269042,4.015283,6.4444823
2.8980956,7.93667,3.447412,3.0189452,6.454736
4.3385253,8.986719,2.2330565,2.2887206,6.103906
8.836817,11.243799,8.540918,7.900293,10.822168
9.936914,12.263086,11.691065,10.975733,11.601221
11.305323,14.123438,12.94668,12.1939945,14.401758
10.93545,12.386377,12.198877,11.930323,12.166407
9.00918,10.6783695,9.051661,8.7564945,9.749903
6.634912,10.997705,8.639795,7.9569335,10.01211
10.94375,11.939844,11.321436,11.212549,11.638819
10.77627,11.80044,11.15127,11.214746,11.204737
