"[299, 255]","[227, 248]","[287, 319]","[279, 328]","[230, 262]"
8.227686,10.844385,9.692041,9.503809,10.202295
8.211573,10.693262,9.569239,9.32876,10.031641
6.69375,10.349756,8.626856,8.546534,9.540918
6.8836913,10.649317,8.463526,8.455957,9.468897
5.2054687,8.795557,3.312158,2.9381347,6.299707
2.6065917,8.417627,5.197412,5.79458,6.282861
5.9530272,8.943018,7.456445,7.549707,8.301172
4.588037,8.6192875,6.260156,6.1375976,7.1129394
4.4937987,9.478418,5.892236,6.865869,7.8995605
5.723779,9.991358,6.0958495,5.629541,8.158106
4.992334,9.327295,4.645166,4.525781,7.0975585
2.4583983,9.638575,1.619043,1.6864258,8.933496
4.2708983,10.150049,4.1534667,4.067041,9.285303
7.1581054,10.429834,7.7003417,6.8089843,9.911036
7.5057616,11.066797,8.680567,8.678858,10.221582
5.5575194,9.438135,6.600488,6.3548827,7.8092284
7.6585937,11.23208,7.997949,8.452295,10.466944
4.655908,9.14419,4.579004,4.4496093,7.6014647
7.0001464,10.33169,3.0919433,3.287744,9.41128
5.355127,9.443262,6.251367,5.6805663,7.5458007
3.5389647,7.532373,3.9974608,4.527246,6.326074
2.6229491,6.7638183,2.4823241,1.7540528,5.4930663
3.6761718,8.692774,2.6200194,2.074121,6.927881
4.189111,8.892725,5.0938964,4.895654,6.8731933
9.234522,11.178858,9.632227,9.212793,10.626856
6.6708007,9.819239,7.4847655,7.3580565,9.119532
4.6202636,9.437891,4.8663573,4.7242675,7.8905272
9.876368,10.978174,10.92959,10.933252,10.97793
9.810205,11.081202,10.737207,10.756006,10.932032
3.6302733,7.653711,5.0780272,4.7867675,6.2171874
2.9930663,8.296534,2.9676757,2.883203,6.244531
4.833154,9.480127,6.301416,6.282617,8.6939945
5.1847167,9.174463,6.268701,6.3941894,7.8143554
4.341699,8.517725,5.0611815,4.641748,6.2713866
2.5787597,7.497705,4.4132323,4.4515624,5.4100585
1.1620117,6.640039,1.4723145,1.179834,3.8285155
0.17348632,6.750879,1.7105957,2.0748534,4.119043
2.9876952,7.2450194,2.9745116,2.789453,4.2015624
3.7428222,8.13418,3.7774901,2.9879394,6.7120605
6.225244,8.8814945,6.818506,6.6771483,8.133692
4.2523437,8.988916,5.389795,5.03457,7.534326
4.954248,9.340235,5.3385253,5.225,8.189112
7.1930175,10.06875,7.120752,6.2030272,9.465723
4.3878417,8.763575,4.3734374,4.287744,6.758203
3.0501952,6.5956054,2.4027343,1.3836914,5.5816894
3.2958007,6.3473144,4.435449,4.0719237,5.5541015
4.1371093,6.9918456,5.1949706,4.556787,5.6932616
1.8902832,5.8045897,2.88125,2.395166,4.980127
0.7958008,5.081445,2.1344237,1.4964844,3.7108397
1.2572266,4.9520507,2.397119,2.1510253,3.789453
3.1197753,6.124658,4.3197265,4.0123534,5.336328
3.5909667,7.797998,4.2586913,3.8739257,6.132959
3.9918456,7.863916,4.952783,4.7447753,6.0921874
2.6021972,7.1217284,3.6976562,3.4339843,5.4608397
8.978418,9.799952,9.709375,9.49502,9.719873
6.609033,9.19375,4.945947,5.5611815,7.919824
6.8907714,9.787012,7.4293456,7.546533,8.907373
8.60293,9.912012,9.313623,9.065577,9.758692
5.242334,8.591944,6.091211,5.438623,7.1222167
4.5348144,8.469141,5.4395995,4.860498,6.697412
5.893213,8.774317,6.567041,6.7484374,8.729395
4.657617,7.8631835,5.6234374,5.3358397,6.8021483
7.5594726,9.59292,7.8390136,7.6009765,9.517969
7.771631,10.066553,9.424707,8.856836,10.168116
5.1410155,8.900049,7.7835937,7.556543,8.699366
5.877588,9.116846,8.140772,7.544336,9.064356
7.058252,9.381983,7.9603515,8.383692,8.82461
7.053613,9.421045,7.83291,7.7621093,8.722071
5.058496,8.008448,5.978662,5.4708495,6.8507323
5.0433593,7.969629,5.980127,5.898584,7.2157226
4.5228515,9.345118,5.824365,6.3145995,8.698877
6.230371,9.442286,7.770654,7.552881,8.685938
7.049951,9.466944,7.1231933,7.0399413,9.112452
4.6615233,9.011377,7.237451,7.33999,8.364161
7.306543,9.381006,8.281397,8.379541,9.236475
6.716699,9.091455,7.2662597,6.954248,8.199854
5.428613,8.499903,6.3595214,6.060449,7.034326
7.6878905,10.023584,7.6839843,7.731836,9.236963
2.8773437,6.9815917,3.6344237,3.376367,5.5543456
3.8243651,7.5196776,4.8819823,4.8563476,6.430322
5.2152343,7.8006835,5.4325194,5.1185546,7.6129394
3.7748046,8.204737,4.4063964,4.818506,5.7071776
7.662988,8.970362,6.549951,7.1583495,9.617823
7.5702147,8.6625,9.20669,9.694971,10.226465
6.6427245,9.802637,6.79458,7.419824,10.058985
2.2152343,7.073877,5.134912,5.0875487,6.9659667
2.350244,5.041406,3.2162108,3.2552733,4.292871
0.80336916,4.341211,2.214746,1.7394043,3.3880858
0.6581055,3.4637694,1.8436524,1.827295,2.8006835
3.2662597,6.551904,3.6859374,3.7064452,6.7628417
1.6019531,7.480127,4.134912,2.9547362,5.612207
5.797754,8.752832,6.077539,6.9896483,10.282862
5.4154296,8.883448,6.4952636,6.4999022,7.8458495
8.953272,10.168604,8.56875,8.666895,9.870264
7.8336425,8.556055,8.917627,8.336573,9.821192
8.200586,8.779688,8.993555,8.619043,9.817041
6.5404296,8.343653,7.440088,7.25332,7.9642577
9.158594,9.315577,10.350489,10.32461,11.1939945
8.434473,9.330713,8.520655,8.757715,9.727442
9.549219,9.386621,9.19961,8.768457,9.982569
7.84707,9.956446,8.442286,8.604395,9.720362
4.1234374,7.3216796,6.416162,5.813379,7.5838866
5.3041015,8.608057,6.6117187,6.27041,7.681787
6.7486815,9.271143,8.321436,7.5389647,9.5880375
2.33291,6.5194335,2.4657226,2.2323241,4.974756
1.0084473,4.2450194,1.6581055,1.216211,2.1803222
5.082666,8.362696,8.4161625,7.980127,8.388819
7.7608886,9.338526,7.627832,7.1097655,10.381006
3.6771483,6.313867,4.0040526,4.057031,5.4676757
3.2767577,6.6603026,4.456445,4.28042,5.600244
6.055078,7.586328,6.4986815,6.931543,7.9256835
6.7364745,7.334863,6.2882323,6.9811034,8.09585
4.343408,7.364404,6.8978515,6.5035644,8.049952
6.4828124,6.9520507,7.084863,6.9027343,7.022363
4.4237304,6.5421386,5.8946776,5.456445,6.747949
5.145654,6.5697265,5.1910644,5.392236,5.990381
5.473047,6.2604003,6.549951,6.3026366,6.7140136
7.410791,7.9791503,8.808985,8.080469,9.37295
8.046289,9.62002,10.008936,9.614161,11.607325
11.507715,9.778955,12.9005375,12.665918,12.216455
12.245752,10.9474125,13.363184,13.677881,13.107325
13.5567875,10.156641,14.943262,14.522608,12.9769535
9.492823,9.736963,10.156885,10.990137,10.669825
11.703028,9.97793,13.28628,13.294825,12.716944
11.527979,12.311426,12.741358,12.9439945,14.656641
15.257959,13.593897,15.633692,15.670313,15.254786
13.089014,11.003077,10.396631,10.397364,10.75918
12.674952,12.1175785,12.787989,13.021143,12.990381
12.661524,12.284082,12.661036,14.037256,12.465235
11.233545,10.302881,12.120996,12.368067,11.556543
9.493555,10.41836,10.412012,10.224756,10.016016
9.613428,8.88418,10.563868,10.063379,9.38711
10.3849125,9.262598,9.267481,9.896631,9.613428
6.659326,8.950098,7.2398925,7.2484374,9.125879
6.832422,7.9361815,8.757227,8.147608,8.277735
7.0331054,7.346338,9.214502,8.964258,8.458399
5.285791,7.0406737,7.505029,7.280664,6.893701
8.535059,7.763086,8.791407,8.53628,8.645655
10.120996,9.325098,11.245752,10.645899,10.002344
11.690088,10.33877,14.349024,13.9127445,12.998194
12.470606,10.41543,11.648584,12.387354,12.025049
8.572168,10.26919,11.706446,11.073633,10.465967
10.073877,9.090235,10.989649,9.998438,10.067041
9.032862,9.863672,8.865625,9.18667,10.3988285
11.625391,9.782862,11.605371,11.342432,12.30044
9.76919,9.530176,10.080469,10.653955,10.081446
10.766016,10.196924,10.797266,10.574366,9.83169
13.228174,11.558496,12.771631,13.156397,12.710108
14.2911625,11.852686,13.649805,12.9125,12.329737
16.410303,14.347559,16.418116,17.353174,15.575342
18.106592,16.32461,17.674463,18.236475,19.080957
17.990381,14.028223,19.444971,19.96084,15.516504
17.752588,14.292627,17.554102,17.774317,17.471582
15.619043,15.01919,16.10171,16.410547,16.477198
18.828028,16.668116,19.030909,19.456446,19.99331
13.909815,13.037012,12.973536,13.180567,15.11709
15.406641,14.4127445,15.5221195,15.6542,15.580469
19.256739,15.358545,19.71499,19.393946,16.890284
15.133936,12.873438,15.927393,15.260645,15.476465
14.516993,12.95083,14.728907,14.981592,15.595118
16.508204,13.760401,16.239649,16.227198,16.10171
12.819483,13.370996,12.491846,12.375635,13.55752
18.07339,14.099512,17.071192,16.350733,14.184473
12.779932,12.351465,13.058985,13.001856,14.181055
13.894678,12.734522,14.163233,14.135645,15.61001
16.33047,12.923243,15.345118,15.871485,15.4786625
12.476221,12.555811,13.710352,13.385645,14.545801
11.106592,11.732813,11.150782,10.940332,11.959864
11.167383,11.684717,12.303858,11.85708,11.456202
11.797998,12.150049,11.953516,11.837305,13.759424
9.407862,12.209864,10.970362,10.179834,12.515772
9.076075,9.775782,9.27627,9.560205,9.205225
10.495752,10.405176,11.275782,11.108789,10.719385
9.5375,10.98086,11.243067,10.811914,9.438868
7.7276855,9.427149,8.063379,8.141748,9.332178
12.187159,12.268702,12.906641,12.721582,13.73086
11.8849125,12.29751,13.080469,12.356348,13.388819
13.969385,12.760157,12.28335,12.42251,14.32168
14.593897,12.643946,13.928614,12.360498,15.520411
10.199854,14.182764,7.9288573,8.8502445,15.470606
10.041407,9.15542,6.2899413,6.1378417,8.373682
8.941797,10.363672,9.3675785,9.519434,9.69961
9.565088,12.843164,12.37002,11.506006,14.18252
13.757959,12.454004,15.080469,15.031397,14.016748
13.69668,13.717432,15.021631,14.776026,15.97793
13.753077,13.814112,14.69253,13.952539,14.908838
13.429102,13.635401,14.16543,13.992823,14.3050785
13.697168,15.429834,14.240381,14.051416,15.617823
13.251612,12.992334,13.517237,13.812891,14.00503
12.096338,13.316797,13.454981,12.953516,13.696436
9.448633,11.8502445,11.645166,11.418116,12.01626
9.740625,11.276758,10.536524,10.218164,11.259424
10.56045,13.028711,12.916651,12.504786,12.693018
12.568262,13.9596195,13.0064945,12.458155,13.968164
12.4925785,14.483789,11.451319,11.698389,13.207666
13.113672,15.304102,14.961573,14.878565,15.129541
13.904932,13.786036,15.103907,15.303858,13.687647
13.615137,14.092676,14.6939945,14.50918,14.734766
14.079004,14.330957,16.571436,16.75796,14.479883
14.532618,14.655664,15.938379,16.502832,15.256006
14.419825,14.319483,13.010889,13.065821,14.566309
13.798243,15.761621,15.415918,15.433008,15.135157
15.517969,15.634424,16.928858,16.880518,17.120264
15.025782,15.81167,14.386377,14.233545,15.315577
13.521631,14.110743,12.436182,12.589014,13.779688
16.272364,14.793604,17.718409,17.180079,15.8675785
13.638086,14.677637,16.308252,16.086573,15.476465
13.220606,13.597559,13.808741,15.199366,14.105371
14.34585,14.558985,15.527979,15.170313,14.257715
14.003321,14.833155,15.534571,15.325098,16.038965
14.375391,14.956446,15.460352,15.93667,16.780176
13.240137,13.528223,13.589502,13.534082,14.593653
11.344141,14.604395,13.621729,12.530176,13.323877
15.102442,15.553858,16.77041,16.551905,18.430567
14.384668,15.659327,15.692041,14.611719,16.321436
14.5021,14.894434,15.026758,14.5221195,14.288233
13.594629,15.790918,14.868311,14.729151,14.951807
15.782373,17.16665,17.028711,16.749414,17.208399
17.68081,16.759424,18.978174,18.632227,17.777246
15.135157,16.272364,18.106104,18.356836,16.91958
16.10879,16.008204,18.42959,17.958643,18.363672
18.9479,16.429834,20.290186,20.206202,19.072657
20.833643,17.492823,21.98794,22.009424,20.469385
21.323877,17.828272,20.302637,20.940088,19.587305
23.177637,19.001368,22.36831,23.16958,21.689356
24.346827,19.22378,25.144922,25.308252,22.579737
22.127588,19.230616,20.952051,20.5646,19.325098
20.566797,18.126123,21.364405,20.4396,17.622461
18.090723,17.635157,19.995752,19.909327,19.317774
14.948877,17.63125,16.180323,16.086084,16.620996
15.822168,16.94375,16.247461,16.037256,16.699121
20.707666,18.206202,19.82583,19.862696,19.746729
17.570704,18.411036,20.634668,20.214258,19.406153
19.43252,18.604395,20.066309,19.832666,19.82876
20.671045,19.226954,21.083887,21.346827,21.817774
21.906397,21.399805,22.322657,22.736475,23.18545
21.019922,21.060938,22.046534,22.769922,21.08462
20.58877,19.016748,20.19082,20.55337,19.764551
15.919336,17.51797,15.550196,15.566553,15.982325
16.26748,17.236475,16.92373,17.1,18.16836
19.813868,18.660303,19.744532,20.733057,20.367334
21.870508,19.067774,21.19253,22.754786,21.48208
22.993555,20.87124,22.73208,23.18667,22.593653
20.362696,21.219873,20.925684,21.226221,24.724024
21.623438,18.581202,20.106836,20.829737,20.096094
16.734766,18.285303,18.469141,16.400537,18.109034
16.33706,18.562403,18.132471,17.721094,18.434717
16.624659,18.081934,17.016748,16.961329,18.852686
17.74795,17.84707,16.830957,16.690577,17.747217
15.235987,15.868799,11.60586,11.666651,16.40542
13.4300785,15.956934,12.052637,14.109034,15.471338
15.718653,16.993555,15.904688,16.41714,16.27041
16.535303,17.326807,17.759424,17.751856,17.076075
17.745508,18.041895,16.923243,16.981592,19.500635
12.493799,16.622217,13.729395,13.168604,15.079737
11.436182,14.855616,13.440088,13.873926,14.530909
11.601709,13.998194,12.122705,11.855371,13.721827
11.770655,15.885889,13.847071,13.188623,15.248438
12.7442875,15.912256,12.269922,12.135889,14.135157
11.368799,16.910059,12.63418,12.499659,15.159571
13.478907,15.997217,15.582422,15.785303,15.089991
14.785059,15.840235,17.218897,17.456934,16.264551
15.417139,15.832422,14.889063,14.0550785,16.248438
15.625879,15.621729,16.15542,16.072412,15.722071
14.727686,16.279688,15.336573,16.268702,16.483057
16.992579,16.62588,16.403711,16.236475,16.199366
17.57583,16.350245,16.190332,16.927881,16.485987
15.124414,15.658594,15.904444,15.111475,15.784571
15.975733,17.30166,16.64126,16.19082,16.68081
14.989893,15.491846,15.229151,15.383936,15.612452
15.359034,15.624659,15.690332,15.775049,16.109278
12.265772,14.175684,13.695459,13.709375,13.779444
13.688135,15.027735,14.953272,13.833643,15.354883
14.372217,16.068262,14.964258,14.774805,16.733545
12.721827,14.569239,12.71084,13.855127,12.932032
11.038965,14.276026,11.5646,10.840479,13.294336
10.940577,13.859522,11.906641,12.100733,12.769678
11.762842,15.238916,13.621729,13.879053,13.653223
12.722559,14.063135,13.236475,13.185694,14.0021
14.454004,15.99917,16.023584,15.476221,16.699366
15.038965,16.103662,16.635157,16.528955,16.70791
16.565332,16.624903,16.538721,16.029444,17.102686
18.098291,18.502832,18.759424,18.739649,20.177637
18.940577,19.040674,19.70498,19.993067,23.492823
19.707666,17.54043,19.95254,20.034082,17.078272
18.386621,16.347559,18.827784,18.6542,17.529444
19.63711,16.376612,21.774073,21.134912,21.402735
21.421045,17.098047,20.586573,19.495752,16.73623
19.795069,18.052149,19.164698,19.470362,17.680323
18.629541,18.54165,21.73672,21.51626,20.327295
18.045069,20.216455,20.714014,20.842188,22.893457
15.850489,17.42129,17.13833,17.318018,17.82998
17.307032,16.946924,15.745264,15.757471,17.30752
16.697412,17.176172,16.724268,17.38296,17.579493
13.771631,15.809961,13.668116,13.633692,14.783838
13.895411,15.810694,13.908838,13.815088,15.56753
10.449366,14.0846195,11.4144535,11.269922,13.319727
6.886377,11.9942875,7.8839355,7.7169433,9.413477
7.100488,9.754541,7.208154,7.1061034,9.077051
9.051416,11.621729,8.050928,8.283594,9.862696
9.716211,13.8658695,11.028711,11.007471,12.179346
11.994043,14.855371,13.751612,14.065821,14.509424
8.851709,12.847559,9.887842,9.592676,11.174952
9.255518,15.256983,5.9393554,6.112451,14.1
5.6961913,9.632227,6.249414,6.0538573,8.186914
6.29458,9.749414,6.088037,6.0926757,8.256006
5.3214355,10.177149,5.580957,5.548486,8.017969
4.959131,11.857569,5.4830565,5.2330565,9.636866
8.010645,11.227686,8.071436,8.037989,9.337305
7.2101073,13.502832,8.316797,7.932031,12.624414
11.801172,14.7738285,12.76919,13.438868,13.858057
11.84292,14.280176,12.881739,11.750635,12.621973
8.815821,11.047754,6.742578,7.086572,9.238184
10.889551,14.393702,12.415674,12.021387,14.174952
10.8502445,13.793604,10.575586,9.988672,12.842188
4.8373046,10.754786,4.6095214,4.883203,7.624414
5.0628905,10.745264,6.011621,7.2918944,8.6974125
8.283594,11.274317,9.917383,9.7564945,10.332911
9.076319,11.675684,11.130274,12.195459,11.476709
10.744776,12.196924,11.977442,12.315821,11.709375
9.90127,11.88833,9.904444,9.171778,11.564844
7.44082,10.815088,7.5470214,7.077295,10.27627
6.0436034,8.816553,7.409326,6.2088866,8.173975
5.7813964,8.937891,7.73208,7.1031737,8.360987
6.2728515,8.977442,8.206934,8.6957035,8.48501
5.9132323,9.823633,7.2518554,7.8700194,8.3207035
7.235254,10.683496,7.7069335,7.5802245,9.569971
8.824854,12.921534,10.281153,8.630274,12.217676
12.350977,13.647364,11.902002,12.394678,13.083399
12.97378,13.690332,13.472315,13.63003,13.985743
11.399805,13.028711,11.239161,11.711573,12.765039
9.347803,12.32168,9.474268,9.577295,10.639551
6.089746,10.689112,6.570459,6.631006,8.352442
1.8265625,8.516016,3.1742187,3.0196776,6.5858397
3.2020507,9.591944,3.8534179,3.9659667,6.96499
5.3946776,10.5646,4.049951,3.9237304,9.23794
5.2730956,9.578028,6.4046874,6.2643065,7.372461
8.351465,11.764307,10.500635,10.329004,11.208887
11.651758,13.247217,13.363428,12.588526,13.687159
11.307764,12.453028,9.500879,9.1332035,12.718653
9.403711,12.454004,10.263575,10.489161,12.333887
7.3683105,11.04751,8.063868,7.45083,9.646387
8.035059,12.353418,10.141504,10.415918,11.275293
9.126368,11.987207,10.189844,10.302881,11.173975
2.8392577,8.8814945,2.508203,2.5389647,6.8280272
1.8021485,8.121973,1.9303223,1.6795899,5.4793944
0.7428223,11.001856,1.8416992,1.8634278,10.449366
1.9652344,10.886377,3.4442382,3.9435058,10.110254
7.289453,11.327539,7.5179687,6.525537,10.795801
8.378077,11.551905,9.045801,8.382715,11.185694
8.282618,11.403467,9.355371,9.181055,10.819483
8.140528,11.485254,7.95791,7.330713,10.515528
10.940332,12.333399,11.566553,11.220606,12.162256
9.756983,11.602198,10.841455,10.252344,10.612696
4.5597167,9.5846195,4.2013183,3.5643554,8.031885
5.9688964,10.655176,7.004785,6.4466796,8.959375
6.5821776,10.712061,7.837793,7.5318847,10.098047
9.632227,11.916407,10.254297,10.1661625,11.462305
7.256494,10.854883,7.265283,7.176904,8.006739
4.940576,9.248926,4.0353026,3.6222167,8.455957
