"[299, 255]","[227, 248]","[287, 319]","[279, 328]","[230, 262]"
1.940332,5.2298827,4.5365233,4.4798827,5.037256
2.6659179,7.245752,3.9269042,4.516748,5.9000487
-0.14316407,3.6061034,2.1534667,2.8563476,3.0611815
-0.9302734,3.3998046,0.85244143,1.4144531,2.990625
-1.7603515,2.877832,0.76650393,0.60366213,2.1004882
-1.408789,2.3915038,1.3150879,1.3312012,1.7191406
-1.066748,1.7259766,1.2010742,1.3062989,1.5323731
-0.63242185,3.5909667,1.9557129,1.0055176,2.959375
-2.262549,2.7984862,-0.72983396,-0.26499024,1.3604981
-3.6004395,1.5326172,-1.6988281,-2.213965,1.0641114
-3.8301759,2.1930175,-3.1314454,-3.0486817,0.33779296
-2.7911134,3.04458,-2.0303712,-2.1321778,1.5262696
-1.2095703,4.1231933,-9.765625e-05,-0.081884764,3.4884276
-1.09458,3.5475097,-0.5040039,-0.6634277,1.5736328
-0.51401365,5.70083,-0.58310544,-1.0437988,2.4349608
0.95180666,8.761133,0.1270996,-0.023291016,7.5455565
5.8858886,9.370508,4.9969726,4.9740233,9.2738285
5.5580077,9.042627,5.544336,5.8871093,8.080469
4.6483397,8.918848,5.8182616,5.55874,8.470606
6.537988,9.665918,7.1092772,6.9469237,8.943018
3.88833,8.051905,4.5418944,4.4378905,7.004785
2.4393554,7.4881835,3.4154296,3.0528808,5.5768065
1.6041504,6.4049315,2.442041,2.1646972,5.501123
-0.04916992,4.8319335,-0.2725586,-0.72666013,3.3543944
0.39711913,5.6483397,0.83925784,1.2333008,3.704248
0.9500977,6.765039,1.3919922,1.315332,5.23916
1.1588379,6.6776366,2.0245605,1.605127,5.5077147
4.134912,8.668116,5.8976073,5.943506,8.125635
4.8861327,8.885157,6.489404,6.8124022,8.403223
1.4476563,7.2315917,3.1673827,2.961328,6.56875
7.372461,9.456202,8.046289,7.9308105,9.4908695
6.568994,8.965235,7.5746093,8.0099125,8.740137
8.462793,9.54458,8.706202,8.690821,9.418604
5.511621,8.444727,4.657373,4.3202147,7.1146483
8.398096,9.983545,9.001856,9.253321,9.967188
8.826075,9.3849125,9.204248,8.515284,9.610498
8.310694,9.378077,7.761377,7.442285,8.852686
2.5882812,7.6007323,3.8868651,4.190576,6.4398437
1.9693848,5.2000976,2.4654784,1.7098633,4.167871
-0.77304685,4.1395507,-0.48691407,-0.4576172,2.140283
0.39223632,5.8736815,1.1473633,0.93251956,2.653955
4.697656,9.208643,5.1585937,4.4825683,8.764551
4.6534667,9.216944,5.984033,6.2345214,8.742334
3.7762694,7.1288085,4.1375976,4.001611,6.1197753
2.8211913,7.4449706,3.9796386,3.6812987,6.605371
3.0604491,7.223535,3.5958495,3.5667968,5.631006
3.7967772,7.306543,5.5450683,5.888086,6.8983397
4.8058105,7.5335937,5.9208007,6.079004,7.115869
3.0414062,6.6065917,4.778711,6.174951,5.1024413
-0.75131834,6.454248,2.9708495,2.896875,4.2518554
1.0685059,6.8490233,2.963037,2.6795897,3.782617
1.356836,7.3441405,2.7679687,2.8062987,6.501367
2.2779784,6.6844726,3.2469726,3.034082,5.9032226
2.6219726,5.383203,2.659326,4.0138183,4.646875
2.7901855,7.659082,4.8114257,3.6698241,7.0091796
4.037744,8.661768,5.5960937,4.514795,8.116358
5.3316894,8.534327,6.142236,4.961328,8.369532
1.1021973,7.020166,1.794336,2.1427245,6.3941894
2.4098144,6.8514647,3.8907714,4.919336,6.109033
3.0765624,6.2364745,3.735498,4.6717772,6.6324706
3.8270507,5.975,2.985742,3.6427245,5.54458
4.2936034,7.5870605,5.084131,4.3666015,6.393701
4.760156,7.7875,5.6742187,5.145654,6.5855956
3.768701,8.380274,5.249414,5.424707,7.4999022
2.6065917,7.119287,3.8524413,3.6883788,5.6546874
3.6380858,6.786279,4.46499,4.144922,5.3492675
7.9884276,8.705713,9.308985,9.151514,9.81045
8.2564945,8.870508,9.410547,9.540918,9.863916
4.8443847,8.2582035,4.2137694,4.1932616,7.1759276
2.1527343,7.189111,3.7315917,4.1895995,6.1378417
5.709131,8.096827,6.9027343,7.4190917,7.971826
4.5682616,7.9623046,5.488916,5.4688964,7.5296874
-0.5347656,6.008447,-0.5887207,-0.603125,3.4950194
2.9261718,7.1290526,4.4657226,4.454492,6.143701
4.6187987,8.3832035,5.7975097,5.74624,8.285547
7.5909667,7.903955,7.400537,7.584619,8.831934
6.175195,7.7523437,7.2628417,7.205957,8.077539
6.749414,7.9930663,6.312158,6.9364257,8.745996
7.3844237,8.579981,7.617334,8.00503,10.005762
4.1581054,8.097559,5.55874,4.627588,7.480127
5.96792,7.893457,5.51333,5.5250487,7.447656
3.4972167,7.0316405,4.157373,3.942041,6.053613
4.546533,7.343164,6.2066894,6.1874022,7.4117675
7.13125,8.455713,6.6239257,7.3392577,8.21084
8.9161625,8.853174,7.4933105,8.047266,8.937647
9.625635,8.667627,9.168848,9.331934,9.932764
7.66958,8.892481,7.6268554,7.1861815,8.689844
4.716211,7.330713,6.0243163,5.3512206,7.2123046
5.7538085,9.1349125,8.23794,8.02627,9.103174
9.395899,9.111475,9.899805,9.870752,11.137598
9.202295,9.116602,9.196436,9.942041,9.776758
9.827784,9.256739,10.994532,10.479395,9.94253
10.531885,9.542139,10.373194,10.904688,12.692286
6.2938476,8.967432,9.630762,9.864893,10.44375
5.84707,7.221582,7.649072,7.71792,7.9205565
6.9496093,7.869531,9.071436,10.595606,9.435694
5.8026366,8.388819,7.129297,8.332911,8.10293
10.679834,10.25918,10.069239,9.610987,11.470118
7.1725097,10.478907,9.346582,10.012842,10.395166
8.763086,9.229639,10.91836,10.57461,9.26211
9.481104,10.035791,10.552149,10.598536,11.777246
7.5318847,8.328516,7.8670897,7.662744,8.763575
6.400537,8.184717,7.829004,7.7032714,7.113916
7.1026855,7.973779,8.457422,8.4144535,8.410791
2.7291503,6.7936034,3.5807128,3.5060058,6.066797
1.261377,5.3905272,4.0001464,4.0143065,4.7645507
0.6070801,4.5719237,2.7032714,3.4325194,4.08291
6.3768554,9.812647,5.55874,6.3436522,9.470118
6.7206054,8.985498,7.346582,7.478418,9.860254
7.646875,9.483789,8.109522,9.076807,8.272608
9.578272,9.458643,9.477686,9.95669,10.542627
9.881739,9.640039,11.562647,11.06167,11.4125
6.133203,9.710108,9.279444,9.43667,10.948145
10.141016,9.742334,10.925684,10.110498,11.292139
7.6998534,9.241114,7.4395995,7.204492,8.579493
10.387354,10.454737,11.4596195,11.629786,10.851465
8.92251,8.894434,9.256006,10.045069,10.377344
6.4808593,8.612696,9.5863285,9.3849125,8.380274
7.2262206,9.75918,9.378321,8.1192875,9.616358
6.188379,11.237696,7.945947,8.138819,10.956446
3.6754394,8.835596,5.1305175,5.0538573,8.636866
5.49917,8.793116,6.5575194,6.9605956,8.295069
3.4940429,7.2577147,5.254785,5.3409667,7.035547
3.8534179,6.7694335,4.440332,4.5938964,5.860742
4.9154296,5.620996,5.639795,5.508447,5.223291
5.684961,7.088037,7.3390136,6.82583,6.7784667
6.424707,7.100244,7.1217284,6.785547,7.5729003
8.571436,9.638086,11.279688,10.764795,11.841944
8.187891,8.788477,9.030909,8.812403,10.235254
6.4068847,8.224512,8.05752,8.432032,8.187891
5.6996093,7.1373534,7.018701,6.8128905,6.9654784
5.083154,6.5023437,6.183496,5.995752,5.8233886
8.120508,7.487207,8.664942,8.774561,7.1078124
6.725488,7.886621,8.2755375,8.514551,8.681543
4.0284667,8.813623,5.9813476,5.7325683,9.51626
8.923975,9.493311,9.595118,9.623926,9.780176
8.330469,9.704981,7.719629,7.7501464,9.354883
10.183741,9.695215,11.944239,10.9161625,12.878321
12.319239,10.428614,15.027002,15.045801,11.234522
10.334864,9.951319,10.546289,10.277002,9.74502
6.025537,8.653955,7.6117187,7.6615233,7.6146483
5.469629,8.00918,8.268457,7.7784667,7.700586
8.504786,8.675684,8.493067,8.49502,8.931299
8.569971,8.806055,8.739405,8.4127445,8.2755375
8.2738285,9.196924,8.754297,9.067286,9.378077
4.098291,7.971826,7.50332,7.322168,7.81582
7.6510253,8.309473,9.015772,8.65127,7.943994
7.2577147,8.56753,9.768946,10.000635,8.93545
8.28628,9.142237,8.854395,9.163477,8.736231
8.181055,11.663965,8.73086,9.519678,11.75503
7.716211,11.369043,8.3971195,9.274073,10.771631
8.361963,10.678858,9.906153,10.3224125,10.982569
8.775049,10.373438,10.056543,11.043848,10.12002
8.4457035,10.162256,8.669092,9.334864,9.780664
9.92959,10.683985,10.809961,11.929102,10.396387
8.470606,10.035303,10.358057,10.493799,9.4283695
7.4742675,9.331446,7.424463,7.8321776,8.826319
6.5611815,8.072901,7.252832,7.4190917,7.636377
8.249414,8.491602,9.600489,9.4317875,8.010401
9.754541,10.591455,10.749414,10.892969,11.849512
9.510889,10.56875,12.593653,11.901758,12.4942875
10.704981,10.903467,11.649561,12.894922,13.454004
12.885401,11.216944,11.024073,11.3692875,14.573633
9.89126,11.067286,10.477198,10.411768,12.113916
11.351465,10.607569,13.358301,12.634424,12.543116
11.56875,10.705469,12.837549,12.841944,12.739405
12.734522,11.716211,12.1542,12.686426,13.026026
9.033594,11.772852,11.059961,11.343653,12.180567
12.184961,11.0021,12.8050785,12.861231,13.050684
12.221582,12.046045,14.17544,14.535547,14.201075
11.042383,10.759668,12.121973,12.153467,11.189356
8.6158695,11.834375,11.576563,11.460596,12.1625
11.272852,11.584375,12.54751,12.285791,13.164942
11.3658695,11.123194,11.1817875,10.909815,12.254541
10.652002,11.934473,11.161524,11.01211,11.64834
8.000391,10.063135,9.089258,8.91958,10.026026
8.38833,9.956934,7.7711425,7.7921386,9.845362
9.34878,11.38711,12.7792,13.012842,11.32583
9.897608,11.604883,10.495996,10.181543,11.650782
10.135157,11.633692,11.375879,11.363428,12.020899
9.394678,11.551172,9.774317,9.754786,10.173731
9.845606,12.563135,10.990137,10.801661,11.797754
13.8346195,13.216455,12.958887,13.510157,15.234766
15.188135,13.577539,15.513819,14.227198,15.279932
14.983789,15.870996,16.902002,17.592676,16.533594
14.718653,13.581934,15.311182,15.0375,15.620996
16.382471,15.490625,17.54214,17.349756,17.376123
16.224756,15.488916,12.523096,13.922754,17.818262
16.639307,13.826319,17.109766,17.984034,16.314844
17.700342,14.572901,18.419825,16.608301,17.526514
17.086573,15.102198,18.336573,18.304102,17.29165
17.471338,15.164209,17.433008,18.39712,18.269922
12.524073,13.752344,15.861963,14.620996,15.361475
14.022608,13.864649,15.534327,15.007959,15.172998
13.448877,14.247461,15.168116,16.198633,15.087061
13.56753,14.144678,14.483301,14.407618,16.525782
13.246729,14.197901,13.660059,13.079493,15.7167
15.120264,14.044336,15.551172,15.46377,15.667383
17.947412,15.376368,17.952051,18.27212,18.307032
17.893946,15.199854,17.285547,16.981348,16.336084
15.341944,14.5064945,14.808496,14.689112,14.8971195
15.7269535,14.518457,17.110498,16.591944,17.322412
18.95669,15.183008,15.576075,17.197412,15.99502
17.184473,15.047754,15.0707035,15.409571,14.778711
15.510157,14.905909,16.205225,16.102198,16.825586
17.379541,15.378321,15.721338,16.087305,15.658594
20.861475,16.043604,18.590723,19.327295,17.737452
20.99502,16.619043,20.54458,20.665674,19.806055
25.108057,17.193018,22.936426,23.257715,19.74795
18.612696,15.373438,18.258448,18.310938,17.04629
16.632227,15.564356,15.976465,16.1188,17.381739
18.509668,15.827051,17.020166,16.73672,17.216944
20.975977,16.504297,20.242579,20.0104,19.43252
23.254053,17.901514,22.663477,22.55874,20.35
15.973291,16.465723,17.633936,17.125635,18.057032
19.647852,16.257715,17.74331,17.847559,17.709864
18.653711,16.47671,18.816553,19.431543,19.0021
16.286524,16.72964,17.578272,17.173243,17.811182
17.650782,16.397364,16.38296,17.095606,16.133692
15.778223,16.422022,17.636866,17.459131,17.26626
18.214746,16.842432,15.671045,16.039942,17.725
14.728418,16.834131,15.132471,15.082666,16.591211
13.6002445,14.789698,14.665186,14.877832,14.768946
17.349268,15.905664,16.17837,16.727686,17.293116
17.795801,16.311914,18.517725,18.17837,17.430567
18.631739,16.721338,18.638086,18.788965,18.185938
23.777246,19.092432,23.080225,23.271143,22.510157
23.073877,17.349512,20.758448,20.840479,17.90249
18.938135,17.545069,19.061426,19.58706,17.270166
16.52334,15.878077,16.63125,16.58169,16.491846
15.991114,15.882227,17.13418,17.488428,17.113916
17.599024,16.84585,17.227198,17.499903,17.681787
16.609278,16.551172,16.599024,16.860987,17.201075
17.20376,16.576319,16.480371,16.682032,17.63589
15.507959,16.791895,16.324121,16.253809,17.031641
15.292383,16.829737,15.533106,14.955957,15.890284
17.843897,17.595118,18.200098,18.027735,20.081446
16.95547,17.07461,18.124659,17.82876,19.028223
17.455713,17.701807,17.434961,17.34463,19.02212
15.378077,16.744043,17.112452,16.926172,17.63711
15.97378,16.562647,17.316309,17.13296,16.583887
16.381983,16.339014,16.95498,16.842676,17.114405
15.909571,17.584864,18.35415,17.22207,19.158106
15.196924,15.76211,16.332178,16.348047,15.590235
15.664698,15.92544,16.596582,16.496485,15.83877
14.698145,16.930567,16.153955,16.31582,16.876856
15.400293,16.608301,15.402979,15.301661,15.66128
14.500391,16.047998,16.306055,16.093653,15.728174
17.332666,17.00088,17.988916,18.41421,17.242579
16.464502,16.992823,16.92373,17.369776,17.224756
14.250879,16.715967,18.306543,18.854395,16.043116
17.701319,17.392725,18.82876,19.059717,18.0375
16.358301,18.129541,19.630762,19.3229,18.26626
20.415186,19.404688,21.182032,21.42837,20.13833
19.56582,18.659082,19.069971,18.833155,19.116114
18.257471,17.15249,17.182276,18.460596,16.69961
15.800196,16.505274,17.716211,17.602686,16.24624
16.526026,17.094873,17.501612,17.542383,17.90127
15.957422,16.85879,17.465235,16.64419,17.481348
17.153223,17.166162,18.061182,17.763819,18.567286
22.44668,19.096827,22.007715,21.793604,22.682764
23.38418,22.317774,23.54336,24.203272,26.872217
27.57046,22.450586,25.803858,26.284815,27.660059
21.365625,19.203272,20.802149,19.1354,20.714502
18.166162,17.881006,18.11123,17.95254,17.804346
19.57583,18.046534,17.821924,18.260157,18.146631
19.58291,18.315577,16.435205,16.214258,18.277979
14.89126,16.515772,16.050196,15.560205,16.786768
15.4630375,16.601465,15.150049,15.0846195,15.817286
15.49502,17.184717,15.685694,15.514307,17.756739
14.043848,16.64004,13.9005375,13.461573,14.942041
15.5375,15.577539,16.07583,16.239893,16.073877
17.8063,17.346582,17.63003,17.366602,16.6979
15.066309,17.231348,16.051172,15.792383,16.83291
16.467188,17.138819,16.401026,16.64834,18.161524
17.00503,17.314112,15.006006,15.3658695,16.651758
13.99209,15.907862,14.184229,13.793604,15.862696
12.96377,14.920557,14.2755375,13.602442,15.208643
14.764063,15.592432,14.984278,15.166895,16.288721
15.089014,16.580225,15.230127,15.310205,15.688868
14.275049,16.569971,15.236719,15.015528,15.619532
12.374659,14.388575,13.103907,12.722559,13.768946
11.843409,15.06167,12.061182,12.394678,13.621729
14.054346,16.873438,15.993067,16.051905,17.197168
17.42251,16.231836,15.971827,16.670313,16.163477
16.026758,16.444727,14.54458,14.772852,15.520411
13.77334,14.136866,11.067774,11.9144535,12.690332
8.595362,11.230616,9.049463,8.701319,10.374903
9.749414,14.525049,11.454004,11.558496,13.23501
12.111231,15.08877,13.95376,13.24209,15.119043
11.911768,15.391504,13.155664,12.937159,15.049463
7.327295,10.635889,8.05044,7.8126464,9.090723
10.330713,14.663721,10.354151,11.233789,13.5221195
12.405176,14.694727,14.703028,14.674952,14.4005375
11.974024,15.358545,13.829737,13.772608,15.505762
9.951075,14.671778,10.209864,9.942041,14.006983
9.752588,12.78335,10.824366,10.68545,11.624903
10.518702,14.1625,12.327295,11.971827,12.761866
9.475489,14.13418,10.89126,10.87295,12.427881
7.0851073,10.877588,7.638086,7.4051757,9.244776
7.256006,11.833155,8.304102,8.222803,10.508692
9.44668,13.378077,10.700098,10.498926,12.246973
11.359034,13.688868,11.420069,10.5567875,12.984766
11.714991,13.773096,11.110987,11.002344,12.319483
11.849024,15.469141,13.347803,13.829981,15.991358
13.624903,15.069483,14.061426,13.331202,14.795801
12.583887,14.270899,13.36294,13.540186,14.386621
11.611475,13.900782,11.6314945,12.234522,13.421045
6.7713866,13.376368,5.563379,5.468408,10.221827
6.6546874,9.812403,7.971338,7.661279,9.066065
8.198145,10.228907,8.871729,8.832666,9.514795
6.0260253,10.19668,10.741602,10.749659,8.820948
9.738428,12.326807,10.1505375,10.609278,11.868067
8.019434,12.055567,9.396875,9.041651,11.410547
7.436914,10.585596,8.074854,8.042139,9.728907
7.3456054,10.826075,8.001123,7.4447265,9.907862
7.0750976,10.366846,8.519922,8.613916,9.1817875
3.4615722,8.6036625,5.3807616,5.4930663,7.1092772
12.170801,13.306055,8.210596,8.100489,12.805323
12.285059,13.70376,12.19375,12.300928,13.733301
10.361231,12.589502,10.993555,10.46377,11.59585
8.6644535,12.083887,8.889795,8.707911,10.851221
8.746729,11.522852,9.153955,9.299707,11.039698
8.058008,12.281153,10.448389,10.052149,11.413233
9.958643,12.813623,10.673731,10.299463,12.015528
6.80874,11.514307,7.1739745,7.0733886,9.622217
5.629541,8.988428,6.0091796,5.4537597,8.107325
5.3963866,8.5238285,6.6864257,7.445459,8.042871
4.4920897,8.381983,6.511377,6.938867,7.652002
4.9554687,9.141016,6.931543,6.8233886,7.830713
4.99917,10.617823,6.64541,6.619287,8.360987
8.108301,12.639551,9.6627445,8.798975,12.636866
10.034082,13.063623,11.167383,10.257959,12.514795
10.549463,12.971582,11.02627,10.799219,13.176172
11.112696,13.367334,12.294825,11.825098,13.19253
11.839502,13.084864,12.109766,12.6644535,13.026758
12.184961,12.639795,11.201563,11.855616,11.896143
10.996485,12.936914,11.927149,11.694727,12.604151
10.149805,12.926172,10.667139,10.457666,12.33877
9.97085,12.810694,11.273584,11.204248,12.262842
9.440821,12.892237,9.911524,9.229395,11.31167
8.441797,11.528223,8.815088,8.510645,10.224268
4.418115,9.654932,4.3575683,4.6737304,6.5335937
2.9637694,8.292871,6.2018065,5.9796386,5.652002
3.0765624,9.557032,3.1385741,3.752832,7.9706054
-0.0328125,6.963037,0.45913085,-0.07114258,4.69082
5.6996093,10.593409,5.6996093,7.1529784,8.878077
5.1637206,9.845606,6.822168,6.6354003,8.444239
1.8834473,7.1844726,1.2979981,1.4220215,5.579736
1.0946289,5.945947,0.4823242,0.5675293,4.0128417
0.6947266,8.640039,0.3338867,0.3001953,5.4811034
2.8194823,8.818262,3.6083007,3.2933593,7.0626464
3.7049804,9.892481,4.643213,4.4815917,8.474024
6.098535,11.194239,5.0316405,4.9842772,10.498682
6.089746,9.888819,6.540918,6.255029,8.618311
6.749658,11.340967,7.3263183,6.5855956,10.530176
8.344629,11.414698,9.189112,9.339746,10.356348
6.9398437,11.324121,8.780176,8.405909,10.245264
10.301905,12.433008,10.800684,10.707422,12.1271
11.078272,12.784571,11.188868,9.403223,12.231348
