"[299, 255]","[227, 248]","[287, 319]","[279, 328]","[230, 262]"
1.372461,7.143457,3.0504394,2.9564452,5.698877
1.9833008,8.948389,2.7867675,1.9371582,6.841699
4.7193847,9.902735,5.9833007,5.973779,7.4964843
4.427881,9.345362,5.2950683,5.157617,6.624658
3.6671386,8.119532,3.313867,3.4481444,6.5301757
3.601953,8.801661,3.9723144,3.634912,7.0902343
4.7030272,9.7564945,4.332666,4.423486,7.8827147
5.4032226,8.855127,4.636377,4.297998,6.4620605
4.3858886,7.8841796,4.7293944,4.681543,6.6163573
3.6151366,8.10586,6.239404,6.3836913,7.162988
5.2313476,8.045069,6.3006835,5.713281,7.33999
3.9920897,7.5660644,2.7831054,3.3666015,6.6410155
2.64541,7.542627,1.4359375,1.5951172,6.0887694
1.6964356,7.9669433,2.527246,3.0804687,6.3980956
5.6708007,10.297022,5.923242,7.233545,9.31875
4.177881,10.299463,5.5907226,6.605615,9.625879
5.807031,9.806055,7.1756835,7.169824,8.872461
4.1544433,9.602442,5.884668,6.110986,7.577539
5.1405272,9.733789,6.843164,6.7918944,8.369776
5.435205,9.57583,7.3905272,7.19375,8.560694
4.909082,9.423243,6.747461,7.3114257,8.2564945
4.4608397,9.933985,6.9986815,6.143701,8.55044
4.937158,9.489405,5.5853515,5.7003417,8.542627
3.8583007,8.92544,3.6239257,3.2557616,6.77041
4.0594726,9.113672,5.184961,5.4916015,7.705713
3.66958,8.455225,4.7628417,4.495752,6.9444823
6.5958495,10.506983,7.991113,7.671045,9.279688
1.3885742,7.3246093,1.4649903,1.570459,5.414209
2.093164,9.591944,3.3307128,2.890283,8.247461
5.8231444,9.959375,5.914697,6.1163573,8.876123
7.924707,10.335108,8.471338,8.239405,9.667383
5.6986327,9.280176,6.7784667,6.65249,8.361719
3.7604003,8.460108,5.35708,4.5819335,6.6222167
3.8736815,8.829981,4.8839355,4.6581054,7.4432616
4.9554687,9.0221195,5.9881835,5.740869,8.127344
4.0121093,7.572656,4.798242,5.291162,6.688623
0.7625977,4.6720214,3.2647948,3.4520507,4.2503905
1.3700196,5.0162597,3.1466308,3.4430175,4.0765624
1.3136231,5.019922,1.9774414,1.9081055,4.3888183
1.414209,4.741113,2.3595214,1.1817871,4.2831054
1.2386719,4.5370116,1.2672364,1.7728516,3.4383788
1.4720703,5.3124022,1.5641114,2.0890136,3.726709
1.3910156,5.1532226,0.9544922,1.039209,4.2730956
-0.039160155,4.233789,1.961084,1.339502,3.815576
-0.16635743,4.3805175,1.7188965,1.0248047,3.6654296
-2.988379,3.539453,-2.2510743,-2.4373536,1.8905274
-0.56381834,6.070459,-0.4246582,0.11000977,4.053369
-2.5218263,3.0970702,-1.8760742,-2.3072267,2.2640624
-0.20493165,4.7904296,1.145166,0.97280276,3.1251464
0.5006348,6.126123,0.1673828,0.32192382,4.230127
-3.0828614,6.9173827,-0.53696287,-0.5652832,5.096338
1.976709,7.5663085,1.9295899,2.0975585,5.6080565
1.8148438,7.3597655,3.2960448,3.1515136,5.5350585
2.2657714,7.7694335,3.4916015,3.9676757,6.793115
3.9991698,8.359766,5.599756,5.782373,7.987695
3.4730468,8.096338,5.0367675,5.759668,7.282129
6.067529,9.284815,6.9969726,6.7469726,8.50918
4.723779,8.215967,5.3424315,5.425195,6.3128905
2.6095214,7.822168,4.152002,4.126367,5.723291
5.7625976,8.382959,6.744043,6.3490233,7.8336425
5.74917,7.5833983,6.5284667,5.704248,5.8126464
5.7186522,9.05752,5.1405272,4.6043944,8.896631
3.3409667,6.9588866,4.39541,4.212793,5.499658
3.1847167,7.199365,4.3299804,4.473047,6.411035
2.5191894,6.018213,2.2618651,2.2501464,5.0750976
0.0362793,4.2125487,1.2484375,1.3902832,2.8717284
-0.6849121,3.2081542,0.20742187,0.25844726,1.8814942
0.0035644532,4.6217284,0.8666016,1.3365723,3.5191894
-1.4009765,7.173486,-0.17954102,-0.15927735,3.657617
0.16030273,6.7347655,2.2657714,1.1378418,6.0421386
2.924951,8.483789,3.386621,3.1290526,7.2916503
2.973535,7.023584,3.2884765,3.6600585,6.0125976
3.8792968,6.5594726,4.6249022,4.8094726,6.511865
1.0916992,5.704736,1.8219239,2.0111327,5.1671386
-0.07578125,5.007959,1.6378418,1.8480469,3.7296386
-0.63486326,3.1300292,0.55751956,0.3644043,2.077539
-0.88486326,3.6544433,0.9398438,1.4093262,2.9273925
-0.42734376,3.877832,0.7069336,0.83583987,3.0287108
-1.8697265,3.2787108,-0.7662109,-0.47763672,1.6852051
-0.72568357,2.2723632,0.26455078,0.25136718,1.1681153
-0.259375,3.3426757,0.94399416,0.65908206,2.6546874
0.2640625,3.9415526,0.9718262,0.9562012,3.343408
-0.13876954,4.747461,1.2516114,1.238916,3.0052733
3.081201,7.261621,4.1617675,4.205957,6.1791015
4.625879,7.6217284,4.8998046,5.138086,7.8963866
4.6327147,6.8963866,4.9222655,4.980615,6.664697
2.747705,5.941797,3.411035,3.5841308,5.7032714
2.7525878,6.687158,4.7416015,4.4134765,5.783838
3.1339355,6.5299315,3.9256835,4.20083,6.581445
4.8807616,7.6673827,5.7013183,4.845117,8.45083
5.677881,7.844873,6.0597167,5.7430663,7.442285
7.27041,8.868555,6.3507323,4.000879,8.514307
6.1375976,7.9359374,7.408838,7.0455565,8.931299
4.455957,6.9325194,5.5467772,5.1893554,6.640039
4.435205,6.8385253,5.284326,5.0770507,6.515283
1.6742188,4.61416,2.9310546,2.492334,3.931787
1.0711914,4.5140624,2.45083,2.2909179,3.5055175
0.38955078,3.292871,2.0921874,2.5440917,2.652246
-0.40317383,2.9227538,1.2157227,1.2062012,2.4068847
3.3404784,6.8060546,3.1466308,2.7435546,5.7489257
7.551416,8.478174,9.126612,8.684473,10.402246
6.0887694,6.88125,6.646875,6.6373534,7.157129
6.3443847,7.78457,8.154932,7.569238,8.5533695
3.3307128,8.089014,6.570703,6.419824,9.453272
8.094141,8.739893,8.933741,8.317041,9.8988285
10.464746,9.292627,12.373438,11.736719,11.230371
7.3578124,7.713281,8.945459,10.164698,9.454737
8.626368,7.673242,10.08584,9.671534,10.617334
7.8299804,8.386377,8.037989,8.542627,8.827784
10.159082,8.906641,9.708399,8.930567,8.692041
7.093164,8.594385,9.385401,10.560694,10.669336
8.347559,7.928125,9.049707,9.087305,9.038721
5.555322,7.959619,6.728418,6.713037,8.049707
6.55166,7.267236,7.8617187,7.4659667,7.584131
6.525537,7.4156737,8.0377445,7.772363,8.177393
6.5404296,7.9398437,7.6146483,7.8807616,7.381006
4.494043,6.9310546,5.221826,5.48916,6.388086
5.629785,6.268701,5.770166,5.4530272,5.8268065
4.947168,7.2210937,6.3370605,6.2625976,6.9654784
3.3109374,7.3946776,5.6202636,5.4950194,7.2281737
4.674951,7.745752,5.6063476,5.801172,7.205713
4.2413573,7.5318847,5.250879,5.98208,6.5680175
4.6881347,7.6344237,5.081201,5.1373534,7.12124
6.322168,9.530664,5.819238,5.96792,9.888575
9.845606,9.318262,11.109278,11.473047,13.162989
9.998438,8.987696,12.794092,11.811426,11.271631
8.080713,9.121973,9.513086,8.958887,9.612452
7.0104003,8.850977,7.6478515,6.3163085,8.941309
6.799463,7.12832,7.1080565,7.1986327,7.5699706
4.768457,6.5313964,6.574365,6.522363,6.184961
6.57583,7.256738,8.312647,8.361475,8.50625
8.548487,8.351221,10.658106,11.150049,9.413233
9.714991,8.508692,10.663477,10.142237,9.97378
8.162012,9.342432,8.84585,8.33584,9.180811
8.543116,9.636133,9.42251,9.879053,11.227686
6.5753417,9.689844,7.782373,8.183252,10.474268
5.7325683,8.429102,6.536035,6.006006,8.163477
5.8888183,9.031641,5.5335937,5.58291,7.9393554
4.3353515,6.6927733,4.513574,5.2628417,6.105615
3.7918944,7.237207,5.705713,6.2745605,6.6378417
4.1930175,7.284326,6.719629,6.318506,7.099756
6.0440917,7.008203,6.4530272,6.0128417,6.918115
5.6253905,7.174707,7.6810546,7.3600097,6.4708495
4.943994,7.3060546,5.515283,5.036035,5.903711
5.2066894,7.3685546,5.9537597,5.6234374,7.3075194
7.8285155,8.3814945,7.5111327,8.241846,9.224512
6.100488,8.700342,9.450586,11.622461,11.314356
9.507471,8.518702,8.597803,10.3692875,10.903711
6.2054687,7.918115,6.700586,6.827539,7.833154
7.750879,8.662256,8.377344,7.8583007,8.793116
11.188868,9.880518,11.611475,11.654444,12.129541
11.282618,9.557276,11.438379,11.552149,10.325342
10.075342,7.650537,11.621485,10.960352,8.108301
6.1378417,9.60293,6.935449,7.0802245,9.090967
6.5094237,8.357813,6.850488,7.0819335,8.13125
5.7242675,6.966699,6.6009765,6.530664,6.2784667
7.876611,7.398584,10.134424,9.789209,7.0365233
8.740625,10.164942,10.236719,10.964502,11.451075
10.7582035,10.968897,14.6349125,14.348047,12.634668
11.602686,12.889551,15.083155,15.532862,14.402735
14.882715,12.94961,17.434473,18.218409,15.782373
17.11831,11.344141,18.52627,18.886377,17.223536
17.662256,11.260401,17.72915,18.483301,14.667627
17.191553,12.6175785,17.684229,18.128565,16.925684
18.740625,16.095362,19.20669,19.252832,18.756739
17.503565,16.794092,19.836573,20.710352,18.036036
18.808252,14.762354,19.887842,21.63125,18.210596
20.058008,18.062647,22.306543,22.346827,19.424463
21.22207,20.591211,21.451807,22.100977,21.948877
20.09878,17.383204,19.99087,21.619776,19.980616
21.153467,16.082178,22.562403,22.662745,20.894922
17.798487,14.731348,18.593653,17.383448,16.268702
16.583887,14.74209,15.702539,15.517969,13.270166
12.612207,13.428125,14.64126,14.996973,12.608057
15.097803,14.866846,15.900049,16.61172,14.662256
12.560694,15.190821,14.349512,14.582178,14.891016
14.602686,15.461573,16.27749,17.232569,14.935205
15.472071,15.681299,16.191553,18.507227,16.202784
18.66128,15.823145,19.963037,20.53335,18.97915
19.006739,15.892481,18.139795,19.105616,18.297022
18.835596,16.21963,16.766016,17.90005,16.786036
10.996241,14.624659,12.95083,13.676905,13.868067
13.159327,12.060205,12.966455,13.305811,12.0394535
11.7911625,13.979883,11.991114,11.985743,13.37295
15.491358,13.901026,16.811182,17.358057,16.6
17.797754,14.079981,17.26211,17.454248,17.915918
15.433496,13.400049,13.249659,13.936914,13.033594
13.004541,12.908106,12.812403,13.032129,12.695459
14.179102,13.713526,14.446192,14.481348,13.879297
15.413965,14.143457,14.281153,14.901758,14.489649
14.173243,13.709375,14.362207,14.85,14.982813
13.277491,14.100489,15.688379,15.400782,15.322168
15.5863285,14.5724125,16.491114,15.7599125,18.910059
20.140772,16.663233,20.712793,20.034815,18.930567
23.126856,17.263575,22.96792,23.592188,17.24795
24.87417,18.758448,23.596582,24.323877,21.398829
24.349268,19.199121,22.699366,24.048975,22.03457
24.537256,20.40957,23.25796,24.566309,22.300196
26.24209,21.140284,25.869776,26.826807,25.748438
25.913965,19.081202,25.97085,27.283838,20.952051
20.562891,16.4938,19.386866,19.506006,19.173487
19.380274,16.01504,19.68838,18.558008,19.010157
17.009668,16.34292,17.373682,17.160059,17.620264
19.093653,17.622217,18.989649,18.501856,17.482569
20.54629,22.254541,19.736475,19.841211,24.04043
20.932764,20.359522,20.795313,21.289942,24.064356
21.462793,19.710108,21.470118,23.254297,24.882471
20.24502,17.47964,22.387598,20.746729,19.08706
16.985498,16.448145,19.285059,19.446436,19.461084
18.513819,16.31167,18.642237,18.772608,19.215479
19.56338,17.928125,21.08047,20.989649,19.24917
18.10879,15.255518,18.059229,18.045313,16.1813
19.67837,17.28628,18.925196,19.370996,19.305567
16.707666,16.44668,17.271387,18.155664,17.829493
18.233545,16.426416,19.70669,19.125147,17.858301
19.741846,16.471827,20.454493,19.980127,19.034082
19.209375,17.46499,20.174952,19.95547,20.942774
20.595362,19.551416,19.26919,19.988428,19.793604
24.491846,20.749903,24.751123,24.492823,25.7438
26.897852,21.750391,25.319239,25.492334,25.66836
29.881739,22.653223,29.397608,29.985254,31.169336
20.87002,20.70376,22.296045,21.163477,19.461329
15.61294,16.208643,17.17251,17.340479,17.595606
15.961084,16.199366,16.96377,17.47378,16.758204
19.217432,18.656641,19.491602,19.830225,19.253565
22.395899,19.227198,21.864893,20.679346,19.307764
21.554346,19.380274,21.311426,21.09292,19.648584
16.218653,19.21792,18.812891,19.187403,20.320215
19.04458,17.860743,19.374903,19.013575,17.117334
18.40957,17.130274,20.376856,20.38003,19.366358
17.916407,18.415186,18.841944,18.907618,19.984034
21.731104,18.065577,22.864649,23.032862,18.380762
21.718164,19.514795,22.758448,23.687403,22.834131
22.761377,18.995508,21.848047,23.181543,22.42959
22.185938,19.632471,22.300928,21.831934,19.392237
22.59878,19.292383,20.501123,21.190577,21.768457
20.830957,19.769434,18.22207,18.870996,20.96963
20.02334,18.981836,18.481348,18.863428,19.38003
19.514063,18.846338,19.9396,19.671045,20.425196
18.209375,18.546778,18.69375,18.564356,18.673975
16.488672,17.64834,17.414698,17.313135,17.815332
17.05044,18.136133,15.5846195,15.511866,16.88003
17.763086,17.045557,17.644678,17.74502,16.98501
18.864649,17.886621,19.293848,19.769678,19.384668
19.609522,18.795557,19.88711,20.02627,20.203028
17.48794,17.582422,19.543604,20.140284,19.92422
20.355616,18.582178,18.747705,19.86172,18.839258
18.599024,18.47207,20.052149,20.704493,20.9396
16.882227,17.838037,17.29458,16.945948,18.258204
17.472315,17.718653,17.970118,17.680079,17.459375
21.328028,18.39297,21.50625,21.435205,21.654688
23.121485,19.833887,23.562403,23.60708,23.06582
24.006983,18.619287,24.85171,24.717188,21.755274
19.529444,18.420069,19.330225,18.853907,17.45498
16.630762,17.339502,18.80166,18.926416,17.16958
22.655664,17.216455,22.832178,22.491846,17.304834
21.456934,19.164454,22.444971,21.812891,20.66128
19.728174,19.312403,21.590723,20.889795,19.764063
19.768213,19.604395,20.132715,19.10415,20.719141
20.693995,19.228418,20.473047,20.635157,19.999903
22.273584,20.489893,22.232325,22.011133,23.48208
23.187403,18.348536,22.980127,21.32583,19.409082
22.527002,19.938135,21.7604,19.187891,19.996485
17.9938,17.76748,17.591944,16.266504,18.434473
17.41665,15.866602,17.906153,17.951319,16.992823
16.938623,17.566797,15.98086,15.544092,17.39297
16.119287,18.494532,16.22793,16.27749,18.564356
14.113916,16.830225,14.756006,14.218897,16.279444
12.692286,15.567286,12.7252445,12.448633,15.593164
12.829493,15.951319,15.099268,14.873194,16.060205
15.421778,15.342676,16.634912,16.538965,16.346582
12.140772,17.366114,15.0707035,16.218164,15.118067
13.915918,16.353907,14.854151,14.819483,16.05337
12.954737,16.28042,15.708887,15.507471,16.062403
15.536524,15.968897,17.00332,16.527246,17.44375
14.993555,15.692286,16.358545,15.71377,15.926416
16.501123,16.970606,15.84878,15.573633,16.84707
18.620996,18.1813,20.450342,19.563868,19.202051
16.965967,16.14004,16.830957,16.188623,17.445704
14.392237,15.573877,14.87002,14.40542,16.189112
12.935205,15.566065,14.951075,14.093409,15.43667
15.630274,15.946924,15.37417,14.998682,15.726709
13.401514,15.510645,15.528711,15.364649,15.67251
14.370508,15.589502,14.763575,14.479395,15.104395
14.672998,15.51919,15.392237,14.823633,15.386133
14.738672,15.29751,15.65835,15.576075,16.682032
15.058985,15.460352,15.252588,15.529444,14.987452
14.667383,16.3229,16.63003,16.301905,16.890528
13.8814945,14.021875,13.2442875,12.853174,13.72793
10.276758,13.728174,10.9317875,10.764551,12.49209
10.804346,14.048975,8.922266,8.302881,14.353418
13.621729,14.461573,12.694727,12.531885,15.697657
12.588526,14.9596195,14.223291,14.4925785,14.65127
14.646143,14.986475,16.045313,15.656641,16.12832
14.357813,14.987207,14.868799,14.5411625,17.389307
13.099512,16.29165,14.319483,14.041651,17.455713
13.234766,15.091455,14.254786,14.109034,15.600977
12.502344,15.630762,14.265772,14.027491,14.983057
14.925684,15.55459,14.797754,15.0646,16.195948
15.013575,15.608545,15.777735,15.750879,16.847315
15.955469,16.219141,15.274073,15.879541,16.881739
16.123194,16.585108,15.966211,16.24917,18.247217
16.7604,16.612452,17.935938,17.925928,18.971338
16.689356,16.662012,18.076075,18.08169,18.396387
14.994043,16.429834,16.797022,16.529932,17.380518
14.392969,14.9283695,14.971094,14.307032,15.209131
11.033594,12.695215,11.424463,11.172022,12.346338
10.965479,13.842676,11.218164,12.145411,13.0411625
11.757471,14.641016,13.403711,12.77334,14.130274
11.991846,14.491846,12.471827,12.784571,13.016993
10.0550785,13.448389,8.890528,8.630274,13.182764
12.808252,14.637598,12.631983,12.6,14.046045
13.997705,15.105616,14.963282,15.01211,15.925196
14.143213,15.029688,12.850489,12.935205,14.336084
10.192286,13.070948,10.610254,10.436914,12.197168
12.1192875,13.698633,11.951319,11.720606,12.820215
12.871485,15.2269535,14.229883,13.7877445,16.001368
15.639551,16.382227,15.956446,15.616358,17.603662
17.293604,17.819483,17.93374,17.898829,20.507471
17.513575,17.350245,17.191065,18.01748,18.688623
13.840967,15.104639,13.851221,14.135645,15.844873
13.041651,15.153955,13.534082,13.7911625,15.953028
13.889551,15.551416,14.044336,13.558008,15.188868
13.942286,15.684961,14.365381,14.291651,14.969873
15.1158695,16.044825,15.580713,16.475489,16.219873
12.103174,14.018213,11.954493,11.006739,13.563868
6.980127,11.047266,5.874414,5.3578124,9.359766
6.56875,10.770655,6.21792,6.584131,9.8771
8.783594,10.821192,8.160059,8.462061,9.748682
7.2418456,11.516504,8.730127,10.146875,11.4613285
8.849024,12.538477,10.385645,10.195459,10.97378
8.547266,13.154932,11.03335,10.878321,11.840723
6.192285,11.797754,6.228418,6.3355956,9.247461
5.0956054,10.6158695,4.190576,3.2938476,8.5917
5.797754,11.517481,5.275537,4.824365,8.756006
8.986475,12.732325,9.363428,9.214258,10.704248
7.023828,11.045069,7.346582,6.780664,9.251856
7.5094237,10.774073,8.786524,8.422998,9.574366
4.428125,9.055811,5.337793,5.805078,6.9027343
5.1197753,8.863672,5.374658,5.211572,7.5680175
4.1961913,10.157618,7.636865,7.5978026,8.1896
7.8927245,11.864893,9.270655,9.483789,11.194239
9.374903,12.014063,9.08877,9.07461,11.389307
7.2137694,10.636133,8.219141,8.333887,9.960108
5.039209,12.268946,7.2437987,7.027002,9.932764
8.7425785,11.545557,9.751612,9.765528,11.043848
7.326074,11.880762,8.1158695,7.922754,10.518213
5.4188476,9.231104,5.831445,5.230371,7.2499022
4.5038085,8.308496,5.4774413,4.712793,6.787988
1.9496094,7.7467284,2.2901855,2.119287,6.3373046
2.2882323,9.712793,2.8966308,2.4041991,8.017481
0.45961913,9.304346,2.5992675,2.320703,7.428125
7.1812987,11.597315,7.640039,7.841699,10.125147
1.5204102,9.506983,2.7369628,2.4044433,8.017481
2.5055175,11.115625,3.3436522,5.115625,8.986231
7.233789,11.347559,9.069727,9.047022,9.928125
7.4188476,11.271875,8.793604,9.169092,9.926416
7.673486,11.190577,8.743799,8.7130375,9.760157
1.0189453,6.1461425,2.0833983,1.9869629,4.70083
-1.1092285,5.0353026,-0.47397462,-0.39609376,2.5494628
