"[299, 255]","[227, 248]","[287, 319]","[279, 328]","[230, 262]"
6.9049315,10.929834,8.262598,8.066797,10.238916
7.683496,11.386866,9.456446,9.361231,10.594629
7.2586913,11.083887,7.8236327,7.3177733,10.32876
8.532129,11.418604,9.664209,9.12295,10.647608
10.28628,12.209375,11.429346,11.0411625,11.811914
9.116846,11.211084,9.45083,9.0880375,10.468653
10.251612,10.84292,9.0255375,8.224268,10.224024
8.108545,10.888575,7.3927245,6.8702636,8.393457
9.063379,11.670069,9.764551,9.3675785,11.095606
6.780908,11.437647,8.683496,8.161768,11.122461
4.827295,10.393213,8.151758,7.7188964,9.211817
6.3263183,9.948145,6.820703,6.772363,9.103174
3.5692382,8.971827,2.5177245,2.7452636,7.6600585
2.0042968,8.2521,1.3922364,2.1004882,7.442529
0.44692382,7.841211,3.2643065,2.9813476,5.558252
3.134912,8.268702,4.360742,4.859033,6.4200683
2.5016112,7.5731444,3.8619628,3.4811034,4.6668944
3.192041,7.197412,3.4730468,3.2933593,5.3145995
5.144922,8.762842,6.981836,6.481836,7.98916
4.369287,8.161524,5.426904,5.5230956,7.7308593
5.01333,8.903955,5.2345214,6.115869,7.5575194
7.458154,10.536524,8.701075,8.4613285,9.753565
6.245996,9.703028,7.1895995,7.0978026,9.16958
6.2748046,9.29458,7.63833,7.588037,8.373682
5.459619,8.9125,5.778711,5.7264647,7.4183593
1.2604004,7.443994,2.3729491,2.2745605,3.9134765
2.7047362,8.137842,-1.0408691,-1.2193359,6.820703
5.8062987,9.395655,6.201074,6.3092284,8.176661
5.0768065,8.989405,4.5162597,4.3941894,7.186914
3.5108886,7.8861327,3.9105468,3.4696288,6.683252
4.1412597,9.139551,6.2157226,6.1637206,7.659082
6.5162597,9.5292,8.410059,8.095118,9.320948
7.1129394,9.347315,8.520166,8.4596195,9.030664
5.4044433,8.811182,7.209375,7.2904296,8.311914
3.9432616,8.391993,5.7210937,6.1637206,7.4413085
5.768213,9.273096,6.5226073,5.980371,8.156885
6.2108397,9.39126,7.3353515,6.8768554,8.775049
6.5040526,9.536524,7.348779,7.1534667,8.993799
3.8185058,8.112207,4.4583983,3.7386718,6.744043
4.348535,8.555323,3.9002929,4.1256347,7.518457
6.147119,9.2096195,4.6847167,4.352197,8.071192
6.574121,9.110743,6.080957,5.3182616,8.301661
3.615869,7.5506835,4.5423827,4.476709,5.7535644
4.6214843,7.805078,5.699121,5.282861,6.2811522
3.2743163,7.46792,4.0404296,4.483545,5.5575194
3.2635741,7.5714355,3.9933105,3.588037,6.2169433
4.7208495,9.265284,5.308496,4.7418456,7.704004
2.956201,8.51626,4.237451,3.6893554,6.7262206
3.8944335,8.477686,5.107324,4.504541,6.6180663
3.4620605,6.9588866,4.848291,4.374658,6.1319823
2.242578,8.3067875,3.699121,3.3209472,4.956201
8.504786,10.156153,9.47793,9.238184,9.810938
5.070947,8.820459,6.0943847,6.0245605,7.7154784
2.5365233,6.03042,2.7882323,2.4112792,4.47207
1.4503418,5.1793456,1.839502,1.7271973,3.7208495
3.020166,8.622461,2.568994,2.1300292,8.418604
6.7767577,9.9925785,7.0592284,6.898584,9.390772
6.994287,9.530664,8.241602,8.121729,9.236231
5.065088,7.6830077,4.5282226,4.5348144,6.6859374
2.4969726,6.7796874,3.3807616,2.4947753,5.798486
6.3731933,9.222315,6.1012206,5.329736,8.641748
6.3685546,8.907129,6.140283,5.549463,7.2608886
4.5787597,8.707178,5.741113,5.612207,7.448877
7.419824,9.35293,7.8075194,8.01211,9.472803
8.477442,8.8832035,7.756006,8.706934,8.456446
7.78457,7.6202636,7.4757323,8.029444,7.076074
7.197656,6.676904,6.711572,6.279199,6.860742
7.112451,6.9000487,8.094385,7.8124022,6.7708983
5.980371,8.071924,7.3753905,6.4601073,9.307276
9.349512,8.204004,10.405664,9.772852,9.360743
3.4564452,8.378077,5.055322,4.332422,7.2816405
7.640283,8.641016,7.063379,7.5885253,7.1705565
3.6637206,8.218653,6.159082,6.0819335,7.0838866
2.4234862,6.6480956,3.1134276,2.8580565,5.466455
4.503076,8.620264,6.806787,6.5191894,6.9920897
4.785547,8.313868,4.969873,5.780664,7.9850097
7.6810546,9.880274,8.191797,8.806055,9.4667
8.413233,9.885401,8.955957,9.414942,9.725977
4.766748,8.033594,5.7708983,5.4271483,7.1649413
5.9601073,8.988184,7.711572,7.3023925,8.513575
5.1405272,9.298731,5.7210937,5.5086913,9.309229
7.924463,9.626612,9.712061,9.309961,10.267237
9.122705,9.365137,10.187647,10.654444,10.51211
7.3807616,8.890772,8.366114,7.7052245,9.4942875
2.8250976,6.6239257,3.5506835,3.4896483,6.4051757
3.5743651,7.4937987,5.3194823,5.4691405,6.9190917
3.7433105,6.9447265,4.756494,4.84707,6.0711913
3.285791,6.5375,4.1510253,4.1947265,5.9398437
5.10708,7.1495605,6.150537,6.298486,6.720361
3.5313964,5.6949706,4.4190917,4.2103515,4.7921386
1.8976074,4.6319823,3.6283202,3.3819823,4.756738
-0.1763672,4.6961913,1.1546875,1.129541,3.8353515
-0.33237305,2.7931151,2.2086425,2.4535155,2.334375
-0.09067383,3.3229003,1.299707,1.3443848,2.6788573
-0.09995117,3.01333,1.28042,1.4408203,2.672998
0.55385745,2.8028808,1.6449219,1.7765137,2.3480468
0.06899414,3.4041991,1.4745117,1.9007813,3.1727538
0.7066895,4.9139647,2.4408202,2.2523437,4.26333
1.8236328,7.4203124,3.6837401,3.6358886,7.543115
6.610986,7.1703124,6.823877,7.3893065,9.622705
5.2762694,7.1683593,6.1512694,6.3739257,7.359033
5.2035155,6.831445,5.886377,5.834863,7.3248534
3.9679198,5.7889647,4.935205,4.834131,4.9635253
2.94375,5.1876464,4.4132323,4.275781,4.7123046
3.2315917,6.3392577,6.43374,6.926904,6.7159667
6.1412597,7.117822,8.082666,8.56875,7.557031
5.7125487,7.353906,5.5890136,5.3211913,7.9640136
4.9566894,6.4708495,6.258203,6.141992,6.8124022
5.6095214,6.5233397,6.179834,6.1546874,6.699121
4.6690917,6.83999,6.4764647,6.930322,6.8194823
4.338281,6.645654,6.365625,6.6864257,6.0702147
3.5353026,6.6424804,6.016992,6.4745116,5.8629394
4.706445,7.565576,8.653711,7.719873,7.693506
3.0970702,6.011377,4.6024413,4.3358397,4.516504
3.9898925,5.905908,5.0487304,4.942529,5.580957
2.6769042,5.6927733,4.206201,4.5455565,5.6322265
1.8797852,4.497461,3.4315429,3.4747558,4.3722167
3.055078,4.7499022,5.751611,5.5787597,4.193506
4.732324,6.8617187,6.6517577,6.435205,7.06582
6.704248,7.041406,7.1983886,7.178125,8.300684
2.9188476,4.5904784,3.0575194,2.8712401,4.1600585
2.7166991,5.426172,3.8458495,3.897119,4.319238
3.5943847,5.135156,3.865869,3.860498,5.539209
4.110498,5.360254,4.549707,4.216211,5.5416503
3.9540038,6.445703,6.157861,5.884668,7.6527343
6.1585937,6.4068847,6.7901855,6.785547,7.6444335
6.466455,6.772363,7.598779,7.93667,7.437158
8.299219,8.804834,8.377832,7.841455,9.825586
11.773584,10.015039,14.500635,14.701075,11.006983
6.313867,7.3302245,6.7345214,6.341211,6.4068847
7.555322,7.370752,7.561914,7.140283,8.959375
8.129297,7.877588,8.637598,9.106592,9.005518
8.607325,7.952783,9.637354,9.774073,10.548487
9.035059,7.976709,8.196924,7.9208007,8.04336
8.071924,7.7589355,9.149073,8.852686,9.764307
7.0423827,7.4254394,7.358789,8.641504,9.581934
9.510157,8.439112,9.944483,9.817286,8.842188
8.662989,8.610498,10.056543,9.879053,10.084375
8.848047,8.804102,10.5238285,10.4786625,10.174463
8.943506,7.689111,9.353907,8.707911,10.196436
7.7293944,7.404199,8.215723,8.370996,7.884668
8.63833,8.512842,9.705469,8.453028,10.327295
11.114405,8.670557,9.882471,10.050684,9.875635
9.479395,8.421534,7.299463,7.2281737,8.138575
9.560694,9.327784,10.021631,9.811182,11.701563
11.89419,9.197657,10.678614,10.698877,11.049463
10.269678,9.508448,9.231592,9.73086,10.5377445
8.382471,8.096582,9.52334,9.206446,10.242823
6.936914,8.189356,9.44253,9.129786,8.446924
6.643701,8.485987,7.0770507,7.7206054,7.7083983
6.485498,7.6322265,6.8893065,6.8128905,6.34292
8.113184,8.833643,8.259668,8.482325,8.833155
10.059229,9.3346195,11.420313,11.021631,10.713526
11.712793,9.829981,11.942041,12.726465,12.957911
9.823145,9.5567875,11.895655,11.139063,10.254541
14.205469,12.152735,14.054346,13.898096,15.06753
11.341455,10.954737,11.9474125,11.770655,12.745752
10.586817,10.098047,11.052881,10.942774,10.497217
6.75332,8.418116,7.445459,9.042871,8.006739
7.021875,8.501856,8.067041,7.546533,8.692041
7.1805663,7.155664,7.6529784,7.635156,6.912744
7.171533,8.190088,9.0863285,9.958155,7.20083
7.9034667,9.667383,11.561914,11.253809,10.295557
7.8734374,8.0238285,8.429102,7.9344726,8.893213
7.848047,7.555078,7.891992,9.404688,8.648584
8.932764,9.420313,10.2408695,9.894434,9.936426
9.586817,9.11709,10.1627445,11.282129,10.157129
8.758448,10.018213,10.13418,10.392237,11.924952
8.561426,9.249414,9.607813,10.012354,9.499414
8.8207035,9.651514,10.03628,9.993555,9.050928
10.050196,10.620996,10.26626,10.810205,10.464014
10.134668,10.152735,11.777491,11.89419,11.986475
11.69961,10.795801,12.277491,12.004541,11.776758
10.984522,10.827539,12.528223,13.421534,12.200342
13.443506,11.250147,14.966455,14.514551,14.90835
15.176172,12.082666,16.791407,17.647608,15.533106
15.29043,11.372461,16.79873,17.504297,15.419825
16.613184,11.866358,17.816797,18.117334,16.72671
17.371729,12.96792,18.404932,19.467676,16.323633
18.739893,13.08584,17.485254,17.563868,16.62002
14.826319,11.834131,14.231836,14.74209,12.301661
15.576319,12.089258,14.509668,14.257715,14.697657
13.031153,12.29751,14.753565,14.683741,13.087305
19.557764,13.983301,20.089258,19.789698,14.275293
15.819483,16.846582,16.439844,20.304834,17.742334
18.27041,15.466211,19.97378,22.580713,15.139063
14.536524,15.704981,14.712305,14.301172,15.786768
14.337793,13.328028,14.36709,14.864893,13.302637
15.048731,14.042871,16.706202,16.947168,14.802637
16.327295,14.264063,17.761621,17.891016,15.116846
20.355127,14.524073,22.091944,22.130762,14.748682
20.906397,14.324366,21.957178,21.647852,15.001123
14.994043,12.93545,16.474756,16.824366,14.642969
12.66836,11.679102,12.952784,13.1896,12.389551
10.690577,10.884424,12.2096195,12.739405,11.171045
12.65127,11.880762,12.532129,12.48086,13.735498
12.440332,11.850977,15.263575,15.735498,12.946192
14.911036,13.049219,17.356592,17.251856,13.925196
17.39956,12.216455,18.431543,19.00625,14.494776
17.494043,12.971338,15.851465,17.17422,14.554346
11.262842,12.67544,13.783838,13.497461,15.174463
11.890528,12.489893,14.144434,14.038477,13.638575
13.061914,12.765772,15.498682,15.32583,13.604639
13.114893,12.670557,14.198389,14.204737,14.216944
16.102442,13.874659,17.33706,18.015284,17.030176
15.926661,14.754786,16.641504,16.776026,17.033838
18.619532,15.120752,17.252588,18.619532,18.30581
16.396143,14.57876,17.264795,17.021143,15.851465
17.241114,14.332178,17.237207,16.609766,17.593164
14.665186,14.997461,17.22915,17.496729,15.985254
15.891748,15.586573,16.325342,15.6471195,18.919092
14.577295,15.727442,17.382227,17.552637,17.921045
15.816797,15.983789,15.268946,14.673243,18.615381
15.506006,15.4005375,17.222315,17.298243,19.61294
19.44961,16.481104,19.251856,19.641748,20.17251
21.511377,19.626856,21.658838,21.960108,21.776514
24.64712,19.78457,24.518702,24.671045,24.442041
22.340967,18.13003,23.636621,23.515772,24.021875
16.162012,16.36587,16.141016,16.3229,17.264551
16.414942,15.871729,15.651758,15.615381,16.649805
14.735987,16.017725,15.735498,15.411524,15.492334
13.742823,13.880274,14.816553,14.892237,14.484278
12.26626,14.776758,13.543848,12.824121,13.100489
14.440088,15.248926,16.112207,15.733789,15.393213
14.7599125,15.527002,16.191553,16.209375,15.642237
12.303614,13.920313,13.728907,14.072168,13.051661
13.7113285,14.152979,16.996485,16.947657,14.1505375
13.444483,15.117823,18.07876,17.378809,16.8688
14.020411,14.63833,16.267237,16.42837,16.434473
13.691065,14.743555,14.69375,14.624659,15.501368
13.986719,14.267725,15.750879,15.057276,15.129297
15.5550785,14.761621,16.969385,17.295069,16.311426
14.83169,14.66128,14.655664,16.629297,17.025782
14.004297,15.505274,15.498194,15.436914,15.911768
14.886133,14.797754,15.383448,15.352686,16.600245
15.586084,14.847559,17.793848,18.008448,15.531885
18.035547,14.777491,18.518702,18.301905,18.228662
15.173731,14.5689945,16.773096,16.642725,16.976221
15.584131,14.4786625,13.8658695,15.437891,14.618311
14.405664,14.583155,15.332911,16.274317,15.169092
12.885889,15.535547,15.803858,16.288477,14.801905
16.363184,15.492334,16.260645,17.199366,16.525537
15.449366,14.962061,16.696924,16.832178,16.281641
14.756006,14.653711,16.573145,16.500635,16.709375
14.539209,14.874659,14.801661,14.892237,17.099024
14.258448,14.860743,15.271387,15.792627,16.4938
15.730616,15.566553,15.066797,15.351709,15.829737
15.08584,15.4439945,16.089014,17.153467,17.371485
15.032373,14.875391,15.578272,15.846582,14.626612
14.415674,14.668116,16.106104,15.726221,15.135157
14.179102,14.456202,11.854395,13.212061,14.66836
15.430567,15.632227,16.258448,16.930323,15.600489
16.03335,16.048487,16.058985,15.996485,16.22793
15.320215,15.792627,16.108301,15.962305,16.315088
13.931543,15.291651,16.239649,15.899073,16.101954
14.4317875,15.208155,15.744532,16.410547,16.305567
14.818506,15.161036,16.035059,15.660059,16.93081
14.452295,16.667383,17.480371,17.27041,17.86294
17.894678,15.464991,17.54873,17.96255,17.540674
14.613916,16.027002,18.698145,18.589746,16.4667
18.05166,16.39956,18.436914,18.280664,16.814844
15.698633,15.844629,16.405664,17.41958,16.838037
11.387598,14.799952,13.842432,13.758936,14.104395
15.433252,16.32046,16.58047,16.334375,16.437159
16.292871,15.720606,18.215479,18.407618,17.504541
15.268702,15.772852,16.08047,16.275782,17.83877
16.355127,16.066065,17.568262,17.101465,18.68838
18.670801,15.886866,17.977198,19.290186,18.983545
19.000147,17.86416,20.994287,21.278223,21.929346
16.676172,16.991602,19.067041,19.6188,19.26748
15.952295,17.274073,18.629297,19.761377,17.115381
17.023829,17.150782,17.385645,18.485254,17.331934
19.514063,17.313135,19.155909,19.312159,19.612452
18.125391,17.98672,19.559473,19.167627,18.446436
16.279932,15.204737,16.273584,16.192286,15.72793
12.808741,14.676661,13.0846195,12.656641,13.554346
15.112452,16.730616,16.134912,16.210352,16.096582
16.051905,16.44839,18.20791,18.357813,17.82754
18.05337,17.502588,19.156397,20.086817,17.646143
15.44253,15.3988285,16.967432,18.548243,16.512598
16.099268,17.128565,17.598536,17.823145,17.092432
16.26504,16.8063,17.0375,17.500635,16.557032
12.838526,16.553125,15.251368,17.993067,15.086817
13.915186,17.02456,16.357813,17.17373,15.757227
12.861963,16.342676,14.55752,15.353418,14.711573
12.812647,15.115137,14.607813,15.469873,15.282862
14.853907,15.589014,15.83877,16.277002,16.562647
15.193018,15.694727,15.085352,14.275049,15.097559
12.107813,14.323633,12.955957,12.954737,13.662256
12.299952,12.598536,12.517237,12.011133,11.991114
11.977198,14.106104,11.653711,11.984034,13.058741
12.352198,14.707666,14.556299,14.959131,14.403223
11.622461,14.328516,13.842188,13.898096,13.623682
12.997705,14.123926,13.439356,13.669092,14.1505375
13.443262,15.505762,15.0082035,14.719385,16.997461
12.550196,15.144434,13.577295,13.720362,14.513819
12.715723,15.402979,15.210108,14.72793,15.995264
12.825342,14.948877,13.7721195,14.32168,14.132227
15.136621,15.1471195,14.2911625,14.8832035,15.736475
12.205225,15.093653,13.247217,12.573877,14.200098
13.320459,15.5689945,13.032129,12.656153,15.470606
15.767969,15.583155,16.79873,16.972803,17.087305
16.132471,15.111231,11.588526,10.816065,16.714258
17.9042,16.468409,17.96084,17.21499,17.392725
12.332911,14.810205,12.853907,12.869776,13.550928
9.580957,12.5082035,10.063379,9.725733,11.792627
12.944483,15.126856,12.466944,13.830957,14.837793
11.612207,14.050684,12.448145,11.936182,13.317041
9.829248,12.106104,12.139551,11.374414,11.295801
8.485743,10.852442,8.320215,7.87417,9.752344
9.523096,13.317041,10.339014,10.505762,11.870264
7.5279784,11.667871,7.5504394,7.515039,9.738428
7.85,9.794336,7.963037,7.7499022,8.852686
7.193994,11.108545,7.9620605,8.072901,10.219385
8.524561,11.737696,9.164209,9.924219,10.636377
8.107569,12.212061,9.042139,8.912256,11.027979
7.619531,11.797754,9.237207,9.027979,11.058741
9.532618,11.403711,11.397852,10.808496,10.198389
9.936426,12.99209,11.356836,12.201563,11.846827
11.435938,13.975977,13.203272,13.550928,13.577784
9.976221,13.156153,12.444239,12.591944,12.619532
10.854883,13.445215,10.327784,9.878809,12.505762
10.11001,12.922754,10.925196,11.000879,12.900049
8.416895,12.290918,10.471582,9.723291,10.696192
5.8390136,11.2755375,6.6046386,6.374658,8.799219
4.7750487,8.876368,5.515283,5.388086,7.0750976
6.3631835,10.017725,6.9222655,7.190332,8.297022
5.5902343,10.014551,5.650781,5.426904,7.5279784
4.384912,7.2418456,3.922998,3.5155272,5.852197
3.753076,10.312159,4.6563964,4.1742187,8.497705
7.1078124,11.918848,7.949121,7.872949,10.438379
8.225,11.822657,9.1271,8.759668,11.058985
9.516504,12.5375,11.164209,11.112696,12.01333
9.489649,12.350977,8.642237,8.94253,10.045801
5.619043,10.241602,6.2899413,6.3807616,8.370264
4.299463,12.0394535,5.0423827,5.0626464,8.960596
11.162256,12.535303,11.116114,11.2521,12.646631
10.732325,12.672998,11.144678,10.636133,11.888575
7.301904,11.453272,8.784082,8.46792,9.975733
5.0467772,9.970118,6.157617,5.94082,8.715479
6.9017577,10.366846,8.950586,8.715479,9.655664
6.473291,9.705713,7.737207,7.127832,8.771387
5.412988,8.826075,6.997949,6.9398437,7.5228515
5.159326,9.012354,6.3409667,6.5697265,8.04751
6.2677245,9.40127,7.0418944,6.8592772,8.425928
5.317529,9.159571,4.533838,5.5699706,8.174707
3.7950683,8.411036,5.8854003,5.2240233,7.8888183
5.5423827,9.155909,6.900537,6.1461425,7.385156
5.5763183,10.407129,6.633447,7.7455077,9.348291
6.731836,10.222315,9.646387,9.341211,9.083399
5.702539,9.480127,7.955713,7.7833495,7.305322
6.111963,8.693018,7.437158,7.516992,7.879785
5.077783,10.257227,7.2225585,7.8824706,9.330225
6.4430175,10.572901,7.343164,7.3563476,9.786036
6.418115,10.26626,7.777002,7.85,9.157862
4.1014647,9.396387,5.8651366,6.1405272,7.3670897
6.273584,10.173975,7.711328,7.4063964,8.919336
2.2135253,8.335108,3.6148925,3.2159667,6.2711425
2.6979003,7.125879,3.2140136,2.0233397,6.006494
-0.5479492,7.459619,0.034814455,-0.09946289,5.2850585
