"[299, 255]","[227, 248]","[287, 319]","[279, 328]","[230, 262]"
9.518946,12.718409,10.503809,10.361719,11.657862
5.766748,11.8502445,7.4151855,7.2452636,9.675196
11.228174,13.353418,12.195948,12.090235,12.858301
5.9688964,10.80752,8.113184,8.016016,9.284571
11.129053,13.238184,11.880518,12.02334,13.032618
10.483301,13.166651,11.360254,11.513575,12.353174
9.991114,13.35293,11.208155,11.076319,12.601221
8.707422,12.497461,10.1896,8.938868,10.805567
8.412989,12.373194,8.940821,8.358301,10.439844
10.401758,13.024317,7.839502,7.209131,12.28628
5.48916,11.40835,4.874658,4.6354003,8.774561
4.588281,7.9620605,3.0887694,3.4261718,6.6483397
1.9444824,6.3124022,3.5836425,2.8097167,3.6285644
1.3070313,6.08999,2.2577147,1.6593262,2.7308593
2.4146972,8.280664,3.1959472,2.911035,6.47207
2.456201,8.644678,3.4471679,2.6935058,5.357324
4.3080077,10.390772,5.708154,5.40542,8.546778
3.51333,10.80044,6.261621,5.909082,9.556299
3.1500487,9.719873,2.6439452,2.9063964,7.449365
5.4305663,10.1332035,4.3373046,4.339502,7.0575194
4.7936034,11.212549,5.487207,4.926172,9.069727
5.1134276,9.229395,5.3250976,4.8822265,7.3666015
6.116113,10.99917,7.161279,6.80166,9.744776
10.001856,12.293604,10.260889,9.988184,11.371973
7.6014647,11.512842,8.307032,8.123438,9.994776
6.3770995,11.069483,7.7813964,7.610742,10.092432
6.862207,11.09878,8.306543,7.822656,10.016016
5.0335937,10.354883,6.0780272,5.676904,8.419092
7.422998,10.903223,7.638574,7.702783,9.3417
5.1546874,10.06167,6.570703,6.263086,8.048487
6.298242,10.449366,5.87417,5.9779296,8.81045
5.348535,9.951319,6.0785155,5.8023925,7.909326
9.728174,12.059473,10.882227,10.395899,11.60708
9.831202,11.563868,10.603418,10.113184,11.035303
11.263819,12.167383,11.08169,11.529932,11.69253
9.820215,12.146875,10.924707,10.828516,11.531885
5.852197,11.417627,7.464502,7.277002,10.568506
9.552393,11.912989,10.530176,10.0917,11.486231
9.184229,11.707422,10.361963,10.483789,11.016016
8.909571,12.09292,9.862207,9.510157,10.937403
6.1463866,10.03628,7.164209,6.943994,8.80752
6.3524413,10.697657,8.023584,7.8385253,9.061914
4.603418,9.770655,2.5426269,2.0626464,7.6249022
8.015772,11.4161625,9.374659,9.327295,10.455225
9.300196,11.561426,10.0917,10.064356,10.942774
9.3417,11.330225,9.781153,9.410791,10.986475
3.4693847,8.561426,3.5890136,3.4129882,6.759668
2.391748,8.191065,3.063867,3.35,6.8805175
3.487207,9.670557,4.430322,3.947412,8.745752
0.80922854,6.931543,2.5196776,2.4691405,4.8253417
-0.81870115,7.0404296,1.1258789,0.9688965,5.1771483
0.32143554,7.6012206,2.4547362,2.8731933,6.2018065
7.4930663,10.935694,7.73208,8.129297,10.033838
4.376611,9.0375,5.094629,4.5475097,7.0091796
8.572657,10.911524,3.804834,3.4962401,10.572657
5.903711,7.2660155,3.048242,2.6061034,5.7604003
-1.0933594,5.237451,-0.34873047,-0.22543946,3.4198241
4.0196776,8.426661,4.9190917,5.0541015,7.0421386
4.298486,8.730127,4.629297,4.483789,7.2291503
1.2887207,5.679834,2.0804687,1.2992188,4.259668
2.9146972,8.554102,4.0243163,4.108789,7.1512694
7.1639647,9.976709,7.3285155,7.5577636,9.275293
8.839746,10.67544,9.119043,9.260889,10.256739
6.5245605,8.682032,6.1197753,5.8456054,7.914453
3.5223632,7.607324,5.9010253,5.389795,6.591455
4.688379,7.7245116,6.551416,6.464746,6.988672
6.6949706,9.60708,7.499414,7.000879,9.180567
4.716211,8.549219,5.907617,5.921045,7.414697
4.6690917,8.782129,5.7015624,5.159082,7.3219237
5.6927733,8.486231,6.9654784,6.4374022,7.5875487
6.0230956,8.245508,6.8839355,6.519922,7.308496
8.333155,10.395411,8.901758,8.983301,9.843897
6.1358886,8.516993,7.034082,6.9149413,8.418848
6.9566894,9.495264,8.1625,9.231348,9.440577
8.349024,9.449121,8.38418,8.243555,9.865137
6.056787,9.078516,6.8773437,6.5768065,8.2269535
4.209131,8.014063,5.516992,5.3387694,6.6463866
6.817041,9.574366,7.991113,8.287989,9.526514
8.201319,9.651026,9.152246,9.420801,9.662256
7.1180663,10.225489,8.265528,7.943506,9.757471
7.6388183,10.125879,8.589746,9.594873,9.743799
6.2696776,8.932032,7.0555663,7.113916,8.290186
6.5699706,9.174219,8.051172,8.721582,9.779688
6.0487304,9.59292,8.742334,9.005518,10.312159
5.8407226,8.502832,7.432031,7.5296874,8.047022
5.1756835,9.24209,6.0665526,6.676904,8.280664
7.822656,9.541651,8.5377445,8.360254,9.297754
4.0104003,7.002588,4.799951,4.2796874,5.6549315
3.2398925,5.6058593,4.568506,3.8219237,4.855127
4.777002,7.1725097,5.4125,5.602197,6.2020507
3.5926757,6.8526855,5.046533,5.431787,6.117334
2.742334,5.497461,4.341455,4.557031,5.0138183
3.7706542,5.975,3.494287,3.2152343,4.522363
1.4041992,5.1915526,1.5882813,1.4288574,3.9649901
-0.2334961,3.6520019,0.48012695,0.58461916,2.7240233
-0.54160154,6.1197753,0.3783203,0.44521484,4.721338
1.3324219,6.7142577,0.7843262,0.5963379,5.034082
0.6822754,4.5296874,1.853418,1.5824219,3.9627929
3.785791,8.506983,3.8526855,2.7950683,7.6690917
8.712793,9.311914,8.015772,8.202295,9.96377
9.151026,9.56045,8.602198,9.116358,10.28042
12.282862,9.887354,9.190821,9.682032,9.560205
11.668604,9.9396,10.286036,9.527735,9.991602
9.497461,9.034327,9.88003,9.750391,10.757471
8.168848,9.112696,7.0750976,6.8509765,9.248926
4.270166,8.027246,5.7901855,5.650293,7.6356444
4.162988,7.855615,5.3285155,5.3739257,7.296045
10.216211,9.913477,9.9396,9.922754,11.052149
7.5746093,8.845362,6.574365,6.3600097,7.799951
1.0492188,4.632959,2.0746093,1.988916,3.6056151
1.3041016,5.1424804,2.079492,2.0331054,4.265039
1.5812012,5.226953,3.1771483,3.0252929,4.937158
2.9627929,6.73208,5.8097167,6.0196776,6.4449706
5.282861,7.8492675,6.213037,6.275781,8.708155
6.9518065,7.683252,6.4793944,6.606836,9.141504
6.1441894,9.046534,9.135401,9.548731,9.526514
5.9964843,7.9220214,7.5719237,8.10586,7.7950683
9.143702,9.134668,10.514307,10.224024,7.902246
11.367823,10.323633,13.204004,12.813623,10.5238285
8.763086,8.4596195,10.849756,11.4667,7.471582
10.157373,9.468897,10.66128,10.551416,9.258448
4.9608397,7.4740233,5.3819823,5.768945,7.737695
8.155909,8.096094,9.278955,9.432032,9.057276
7.0086913,8.330957,9.003321,8.979883,9.122705
7.8045897,9.822657,8.804102,9.425928,9.792627
8.603174,10.412989,9.510645,9.388819,11.493067
9.850977,10.424952,10.219141,10.491602,11.4144535
11.118067,10.839746,11.856348,11.777491,13.392481
10.604883,10.434961,11.285303,11.464502,12.733789
10.443262,10.049952,9.712549,9.890284,10.460108
7.0851073,9.304346,8.814844,8.958155,9.617823
5.3736815,8.748926,5.9828124,6.381738,7.745752
6.8165526,8.624659,8.032862,7.0606933,8.469141
7.455957,8.315577,9.081446,8.940088,9.237207
9.480616,8.860743,11.576807,11.06045,10.785547
11.365137,11.061426,12.139551,12.215723,11.699854
12.450586,11.155909,12.520899,13.146387,12.515528
9.551905,11.2721195,10.224756,10.231592,10.849512
11.434717,9.93545,12.43667,12.227198,12.045801
11.251856,10.482325,13.115381,12.797266,11.781885
8.980371,11.158594,10.670069,10.316553,11.846827
8.796778,9.979883,11.297754,11.373682,11.297266
9.031641,9.392969,10.256006,10.236475,8.7875
10.361719,9.960352,11.4127445,10.509424,11.413233
9.339502,11.15835,10.290674,10.236963,11.678125
10.408594,10.224268,12.758448,12.668848,11.356592
10.480127,10.9925785,13.498194,13.31753,11.496485
9.503565,10.359522,9.385401,8.959131,10.146875
6.8646483,8.348536,7.2000976,6.9171386,7.919336
8.495264,9.822657,9.84585,9.561182,10.145899
10.955713,10.0646,10.949366,11.776026,11.734278
11.551416,10.192774,13.289209,13.190577,13.028467
12.76211,10.697901,12.646143,12.488184,13.007227
13.594873,11.6349125,12.946436,13.705225,13.751612
5.799951,10.707666,5.1859374,5.3634276,9.111719
8.722315,10.108057,9.246485,9.606592,9.114893
5.6097655,9.3832035,8.227198,9.060694,8.688868
4.6483397,8.1957035,7.8075194,7.922754,8.201319
6.6708007,9.38711,7.5018554,7.583154,8.921534
10.348291,10.530664,10.66543,10.407618,12.529444
7.758447,10.139795,7.8670897,7.636377,8.073145
6.9813476,8.095118,7.985742,8.123926,7.6839843
7.1615233,9.672266,9.549219,9.6019535,9.62295
9.530664,10.027002,10.192286,10.3692875,11.028467
8.737207,9.161036,9.658594,9.938135,9.142237
9.676905,9.45376,10.170313,9.481104,9.471094
9.435205,10.442774,9.481104,8.783594,11.32876
10.148584,11.050196,11.874659,11.708643,12.472071
12.270899,12.076807,11.015772,10.853418,11.345606
13.219873,12.321192,13.631983,13.484278,12.719629
14.079493,12.378809,14.392481,13.879786,12.943506
12.201563,11.086573,13.246729,13.001123,12.923731
15.608789,11.905909,15.01333,15.216455,15.247705
18.078516,15.063868,18.71792,18.777735,15.895899
15.530176,13.816065,17.978907,17.347803,13.973047
15.791651,14.226465,16.265528,15.754053,13.644434
14.389307,13.910059,15.656153,14.849024,14.783594
11.251856,12.916895,11.028955,11.418116,13.06753
14.899317,12.968164,14.179102,14.557032,14.159082
10.743311,12.758692,12.936914,12.941797,11.912256
17.167871,13.722071,15.660791,16.214014,15.326075
12.038721,13.710352,14.841455,15.145655,13.886377
16.199121,14.50625,17.469873,17.542383,15.6542
17.553614,13.984278,18.630274,17.819483,16.62832
17.280909,14.170801,17.408838,17.048487,16.457666
17.065332,13.975977,15.73208,14.80459,15.239161
11.608301,13.251368,11.9752445,12.547998,11.444971
11.939356,12.587061,13.243555,12.565332,13.093409
12.207911,11.628077,11.3988285,12.790186,13.32876
11.545557,12.918604,11.871729,12.655176,13.448633
12.9457035,11.584864,12.983545,13.0567875,12.666407
10.7286625,12.462793,11.121485,12.57583,12.450098
15.344141,13.132715,11.471582,11.70376,11.844629
15.062647,14.000635,16.146143,16.433985,15.163721
15.122217,14.205225,16.277735,15.882959,15.532862
14.927149,14.48501,16.016993,16.222803,15.392481
14.926661,13.736719,15.438135,15.443262,15.688868
14.304834,14.306299,14.161524,15.858301,15.511133
10.976465,13.978418,12.723536,12.640284,13.580957
11.82461,13.282129,13.349268,13.405176,13.287012
12.788965,13.579248,12.598047,13.02334,13.84878
15.46377,14.159571,15.0863285,15.566553,15.699366
14.616358,14.271387,15.201075,14.582911,14.601465
13.997705,13.398096,13.495264,13.80459,14.550928
16.14956,14.010157,15.765284,15.860254,15.466944
15.878565,14.729151,16.23916,15.701807,16.580225
14.725,14.721582,15.819971,15.640772,15.799219
18.130762,15.107569,17.195215,16.251123,15.482813
19.735743,16.393457,21.373194,20.624903,18.793848
19.914454,17.81045,21.160791,21.883448,20.330713
22.632715,18.967676,22.424707,22.302149,21.670313
21.47671,19.208643,23.8771,24.69082,23.782862
17.653955,18.155664,19.161036,18.344385,16.981592
14.774805,15.105371,15.965479,15.748682,16.504053
19.741602,16.39004,17.829004,17.886377,19.249414
16.609278,15.723536,17.279444,16.788721,17.472315
17.475733,15.971827,17.071192,17.191309,15.840723
18.927149,16.191065,19.62832,19.912256,19.028223
21.061914,18.27749,21.76504,21.267725,19.896143
20.892237,18.956934,20.935205,20.32876,19.724512
21.558496,17.987207,20.382227,20.179102,19.070948
20.355616,17.713526,19.83999,19.742823,20.089014
15.916651,18.469873,20.514063,20.027735,17.88589
16.490625,18.50088,19.38418,19.191065,20.926416
19.975245,18.501368,18.238428,18.386866,19.20376
15.036524,17.055323,15.524073,15.092188,16.709864
13.484034,15.014551,14.838526,14.826075,14.639551
15.325342,16.05752,17.262354,17.043116,17.171045
18.15542,16.342188,19.326075,19.086084,16.117334
20.830713,18.783594,21.459131,21.59707,19.25088
19.657618,19.549952,20.925928,21.487207,20.504053
22.191065,19.37002,23.67251,23.256983,21.615381
23.421534,18.532862,23.444483,24.064844,23.144434
19.233301,18.838037,18.554834,18.065332,19.501368
19.792871,18.228418,18.02334,19.48208,18.044336
19.648096,16.382715,16.961329,17.53335,16.868555
16.725,16.68545,16.993555,17.181055,17.987452
16.089502,15.855371,16.441065,15.834375,16.339502
15.583399,16.732813,17.05752,17.771631,16.61587
14.19668,16.968653,17.21377,16.256495,16.502832
16.241114,17.104883,17.46084,16.92251,19.32754
15.854883,16.662745,17.160791,16.920313,17.19961
19.001612,17.170557,18.052637,18.325586,18.182764
20.094873,17.403467,19.526758,19.842676,18.651514
14.629297,16.357325,16.715723,16.340723,17.153467
15.093164,17.201563,15.825098,15.078516,16.673243
17.627344,17.421045,16.96499,17.47207,18.234766
15.072168,16.92544,16.177637,16.393457,16.8146
17.065332,18.613916,19.899317,18.65957,20.269434
17.619287,18.520166,18.288233,17.694483,18.807764
15.037989,16.646875,16.271143,16.83584,16.576563
16.827051,17.003077,17.720118,17.924952,17.808496
16.436914,17.794825,15.748682,14.871973,17.427393
20.169092,18.369532,20.67422,20.898584,20.52456
18.93252,17.74087,19.859278,20.213526,20.45962
14.9317875,16.924952,18.535303,17.694727,17.478907
17.376368,17.163965,16.485987,16.515284,18.459375
15.098047,16.273829,15.712793,15.257715,16.290674
15.171778,16.400537,15.522608,15.328028,16.223291
15.402735,14.936426,15.4300785,15.076563,14.739161
15.506739,16.614893,17.419825,17.291407,17.06167
18.48208,16.889063,18.716211,19.52212,18.394434
14.613184,17.336817,18.931055,18.394434,17.401514
18.233545,17.629053,17.14297,16.826807,17.64297
15.349268,17.477686,16.095606,16.083399,17.13833
13.9908695,17.101465,15.616602,15.400049,16.890284
14.795801,16.405664,15.291651,15.329493,16.91714
17.914454,17.75796,17.547266,17.901514,18.940088
18.620264,18.088037,20.13003,19.75503,19.00088
20.055079,18.441309,20.56045,20.183496,20.737696
22.66958,20.222559,23.908106,24.073145,23.438868
23.873682,21.103662,24.735987,25.049707,22.967676
16.011866,17.133936,18.328028,17.634912,18.018457
14.537989,15.557032,14.392237,13.901758,15.75625
13.236231,15.369532,14.554346,14.304346,15.312647
13.3658695,16.063623,14.7564945,15.0880375,15.557764
15.314844,16.656885,15.362207,15.110498,16.399317
16.167627,16.782862,16.031397,15.346338,17.582666
18.172998,16.8771,17.76919,17.98623,17.659815
14.879053,16.191065,16.938623,16.396631,17.241602
13.293116,15.757227,14.961817,14.465235,14.530909
14.20376,16.189356,13.809229,13.682032,15.308252
13.621485,15.467676,15.207178,15.639795,15.666895
14.2286625,15.611475,14.893702,14.614405,15.926661
15.177881,15.756983,15.430811,15.242823,16.448877
16.17544,17.195948,17.038233,16.802881,18.580957
17.229395,17.320215,17.360987,17.859522,17.58584
13.282618,14.901026,13.968164,13.717676,14.71377
13.086817,16.259912,13.38125,13.454493,15.188379
12.862207,15.145899,12.705225,13.236231,14.497461
12.392481,14.099512,12.37417,12.354639,14.249414
9.766748,13.803614,10.278467,10.696924,13.294336
11.108301,14.129786,11.618067,11.738428,13.500635
11.175928,15.2286625,12.266993,12.606348,14.587305
11.960352,14.984034,12.583887,12.373194,14.069971
13.221827,15.432276,13.51919,13.247217,14.704004
10.835352,14.010645,11.224268,11.496485,12.468653
12.448145,16.05044,12.261866,12.024317,15.172998
11.857813,14.465235,12.157373,11.393702,13.078516
8.599268,12.323389,8.074854,7.926904,11.734034
9.386866,11.943018,10.072657,9.9439945,11.475489
9.099512,12.436426,9.258448,9.143702,11.960108
9.704737,13.252832,9.185694,8.8207035,11.483545
10.527246,13.404688,12.010889,12.704737,12.7130375
9.975489,14.222559,13.2755375,12.882227,13.185205
11.375391,14.368067,11.886866,11.814844,13.721827
11.475733,13.932032,12.4144535,12.047754,12.854639
10.528711,12.985987,11.283594,11.201075,12.129541
9.8207035,12.915918,9.870996,10.250147,12.550928
11.4769535,13.199366,12.465235,12.647852,13.387842
13.432764,13.997217,13.349024,13.39419,13.282618
15.683496,15.105371,13.324366,13.281153,14.006739
12.412256,14.011133,10.926905,12.62295,14.438379
9.100733,13.410791,9.984522,9.685205,11.586573
11.5567875,14.204737,14.027246,13.792871,14.381739
12.201319,14.227442,12.824366,12.438868,13.37295
12.552637,14.085352,12.370264,12.183252,13.389307
12.153223,15.29751,12.864893,12.2521,14.316065
8.745996,12.474024,10.84585,10.931543,11.521875
6.7486815,11.567041,7.297754,7.099756,9.893702
10.104883,13.750391,11.558985,11.385157,13.271387
8.705225,12.460352,9.792871,9.852686,11.284571
8.620264,12.048243,9.758692,9.568018,11.297266
10.395899,14.090723,11.130274,11.265528,13.254053
11.498682,14.0377445,11.552881,11.150782,13.54336
9.861231,13.693018,12.125147,11.943506,13.063868
12.12002,13.94375,12.803858,12.843897,13.597315
7.1842284,11.433741,7.9156737,7.7760253,10.399805
3.1671386,9.381739,3.3646483,3.3272948,7.273828
4.070947,12.972803,3.1373534,3.504785,11.756739
9.7599125,13.176661,10.78042,11.192286,12.548487
9.847803,12.856104,11.648584,11.769922,12.514795
10.552881,13.03042,11.997705,11.81167,12.902979
8.055567,12.235743,10.219141,9.9042,10.590479
9.109766,13.026026,11.247461,11.338282,12.256983
11.464991,13.175928,11.188379,11.226465,12.642725
12.647364,13.983545,12.594385,12.295313,13.601221
12.82168,14.290186,14.162256,13.784082,13.922022
11.530664,13.573877,12.463282,11.717188,13.267481
9.382227,12.316309,10.253565,9.371973,10.381739
10.919825,12.697657,10.840479,10.630762,11.4144535
9.798243,12.8832035,11.2875,10.721827,12.631006
7.2748046,11.474512,7.845361,7.8961425,8.869532
2.8790526,9.708399,4.466699,4.386377,8.779932
7.0750976,12.420069,5.67666,5.70083,11.8771
8.361963,11.802393,9.326563,8.792139,10.980371
7.939111,11.647364,9.369776,8.904932,11.30752
4.4225097,9.816309,6.0382323,5.685205,8.724268
3.9425292,9.83169,6.720117,5.5316405,8.723536
5.7420897,8.268702,4.485742,4.1632323,7.5885253
1.7367188,7.46499,3.657373,2.978662,5.6690917
1.3827149,8.302881,3.5582519,3.551416,6.7818847
5.5711913,11.045069,3.7921386,4.4781737,9.694239
4.224756,9.602442,5.5196776,5.6788573,7.6371093
8.054102,12.548731,4.6390624,4.749658,10.528711
4.2330565,9.103418,4.471582,4.2728515,6.9012694
2.8875976,8.79043,4.421289,4.9842772,6.8983397
2.7613769,8.751612,3.6397948,3.652246,5.725488
2.9222655,8.936914,5.1395507,5.060449,6.647363
2.0431151,7.428125,3.9356933,3.8141112,5.839746
