"[299, 255]","[227, 248]","[287, 319]","[279, 328]","[230, 262]"
2.8871093,9.231592,3.0155272,3.5416503,7.5267577
2.2003417,8.047022,3.437158,3.4835448,6.59292
2.2767577,8.667139,2.4806151,2.4125,6.7955565
3.580957,8.829981,4.952783,4.536035,7.579004
4.73208,8.323877,5.4220214,4.565332,7.31582
4.449121,7.691797,2.13125,2.028955,5.6981444
2.3287597,8.982325,2.502832,2.3585448,6.6639647
5.289453,10.161524,5.6083007,6.1656737,8.978174
6.7242675,10.945215,9.257471,9.061914,10.123682
7.7643065,11.486719,9.217188,8.696436,10.625635
2.2542968,7.760156,3.5916991,3.2333007,5.662744
-0.9285644,6.424463,-0.42563477,-0.34384766,3.9991698
-1.9405273,4.1690917,-0.8448242,-1.0787109,1.9496094
-0.5696777,9.069727,0.7472168,0.53579104,6.076074
5.549951,10.264551,6.741113,6.8233886,9.189112
4.914453,10.557764,7.8214355,8.125879,9.775049
9.31167,11.632715,9.971094,9.834864,11.217432
10.054834,11.599268,10.725977,11.183008,11.15127
9.635157,11.53628,10.355127,10.724756,11.101221
4.408838,10.396387,5.4444823,4.8072753,8.334131
8.995996,11.7286625,9.91836,9.573877,11.686426
8.078272,11.280176,7.8263183,7.6793456,9.978907
7.7904296,10.897608,6.580713,4.7191405,10.173731
4.6639647,7.8717284,5.0577636,4.6874022,5.8595214
2.1649413,7.892236,3.2728515,3.0379882,4.9842772
1.1742188,8.30459,1.1371094,1.3468262,5.706201
8.292627,10.663477,9.332178,9.230616,10.112696
8.9630375,11.194239,9.746973,9.540186,10.422754
4.1856933,9.333887,5.1083007,5.257959,7.313867
9.788477,11.212793,10.371729,10.469141,10.913721
9.748926,10.334864,7.725488,7.344873,8.834375
4.6163573,8.889063,5.5855956,5.386377,7.2726073
2.8065429,8.693506,4.8524413,3.5172362,7.1407714
5.1737304,10.161036,7.37417,7.286035,9.422754
4.952783,9.7721195,6.5936522,6.051416,8.823877
4.9452147,10.165186,5.523828,5.5648437,8.912256
7.251611,9.656397,7.4796386,6.768945,8.912012
5.778711,10.215235,6.4850097,5.4051757,9.186914
7.2018065,10.343164,7.6009765,7.0663085,9.265039
3.2384276,7.6202636,4.173486,3.9012694,5.471338
2.4354491,7.1517577,3.938623,3.8785644,5.1996093
1.9886719,7.082666,3.2052245,2.6009765,6.0838866
1.7860352,4.9901366,4.0267577,3.9935546,3.23208
0.11123047,4.678125,2.8412108,2.806787,2.5038085
-0.25302735,3.771875,2.1529784,2.3460937,1.3175293
-0.20273438,4.235986,1.6859375,1.428125,3.126123
-0.4625,4.039453,-0.25913087,-0.5210937,3.0570312
-0.46689454,3.1080565,-0.30820313,-0.50327146,1.7679688
0.58583987,3.6061034,1.5919434,0.72036135,3.0294433
-0.4168457,3.2821288,1.0538574,1.309961,2.259912
0.10024414,5.7123046,0.8617188,0.5089356,3.410791
-0.046484374,5.9398437,1.3053223,1.1478516,3.9764647
0.23208007,6.39541,1.5741211,0.94375,4.934961
0.5133301,6.386865,2.4679198,2.362207,4.302881
3.6622558,7.8714843,4.7950683,4.802881,6.691797
3.065332,7.304834,4.525537,4.424707,6.327539
1.7784668,6.015283,2.2020507,1.9354492,4.3963866
-0.49179688,4.9808593,0.46621093,0.46401367,3.6178222
0.9828125,6.910547,1.893457,2.2279296,5.100488
0.54775393,5.4513183,2.0782714,2.0802245,3.8248534
0.074365236,5.6302733,1.1922852,1.853418,3.8819823
2.1910644,8.299707,2.508203,2.1791015,7.044824
3.1034179,6.264795,4.001611,3.8160644,5.9222655
2.1786132,7.0284667,1.9828125,1.8434082,4.2921386
1.8341309,6.2171874,2.2352538,2.1725097,4.867334
2.7203612,6.7606444,3.6065917,3.7367187,5.1874022
1.945459,6.0143065,2.4586425,2.3668456,4.223535
4.3426757,8.528223,4.06582,3.539209,8.277735
7.7467284,8.740137,7.3287597,6.9864745,8.858545
1.9613281,5.7103515,3.242578,2.985498,4.579248
4.1463866,7.261865,4.5787597,4.7677245,6.9740233
4.277002,7.649072,4.7503905,4.7936034,6.8563476
4.290918,7.622949,5.999658,5.1134276,7.180322
7.299707,8.204981,8.607813,8.059961,9.351221
6.7611327,8.418116,7.501611,8.220118,8.984034
3.8131347,6.758203,3.9193358,4.4125,5.4625487
5.8336425,8.246485,6.5711913,6.643213,7.783838
4.1639647,7.101953,4.8824706,4.5887694,6.352197
6.2657714,8.278711,6.8263183,6.6656737,7.8980956
2.8851562,5.9032226,4.3475585,3.945703,5.4483886
2.6256347,5.0768065,2.8167968,2.64541,4.00625
1.9908692,4.7975097,3.5458007,3.501123,4.0763183
-0.25913087,3.502832,1.040918,0.58999026,2.9605956
0.6261231,3.5558105,1.8570801,1.7875,3.100244
1.5760742,4.4984374,2.2240233,1.9115235,3.2220702
1.0741211,4.886865,2.449121,2.0460448,3.3509765
0.08339844,3.758203,1.0440918,0.47060546,3.7010741
0.20864257,4.223535,1.5194336,1.4125,3.1744628
1.7286621,5.702783,1.7677246,0.678125,5.2037597
4.4120116,7.9676757,3.1654296,2.5160155,7.2726073
5.060449,6.980371,5.2748046,5.405908,7.310205
3.4969726,6.862451,4.9134765,4.4815917,6.5858397
4.3583007,5.586572,3.6080565,3.7608886,4.6546874
3.6827636,5.8282714,3.9146972,4.044824,5.8109374
1.5345703,5.2799315,3.858789,4.1932616,5.7176757
3.223535,5.9984374,3.9464355,3.844873,5.437158
3.4532714,7.1412597,4.454248,5.3319335,6.6927733
1.7103516,6.322412,4.4776855,4.395166,4.5123534
-0.58969724,4.461084,1.1854492,1.448877,4.025781
-1.8624023,2.766992,0.68422854,1.3324219,2.1014647
-1.2688965,2.846582,1.3382813,1.3761231,2.5824218
0.79360354,3.6380858,2.0899901,1.8529297,3.579492
0.99672854,6.687158,-0.093603514,0.32216796,5.422754
-1.4732422,3.813867,-0.2618164,-0.004003906,2.2120605
-0.9632324,3.4171386,1.211084,2.0016112,2.8265624
1.1668946,4.1288085,2.5072265,2.508203,3.4657226
1.6888672,4.7745605,2.7875,3.046533,4.9413085
0.3536621,4.025537,2.3910155,2.8307128,4.4793944
2.8060546,4.041162,2.3246093,2.2166991,4.4950194
1.4012696,4.242334,2.4376464,2.4916015,2.9310546
2.5855956,4.4225097,2.985742,2.7420897,4.2242675
2.3836913,5.6805663,2.1668944,2.3944335,4.912256
-0.0640625,3.3246093,-0.36313477,-0.33115235,2.7127929
0.61464846,1.8739258,2.160791,2.1085448,1.2726074
2.9886718,5.0936522,3.886621,4.2677245,4.7662597
3.2740722,5.497705,4.3089843,4.2228026,5.0560546
3.6136718,5.9305663,4.4288573,4.3788085,5.0804687
2.938867,6.0909667,4.466211,4.410791,5.969873
2.7601562,6.0299315,4.565088,4.829492,5.4100585
3.0838866,5.4637694,3.242334,3.720117,5.422998
5.3722167,7.5694823,2.0746093,4.4330077,7.520166
3.7801757,6.4740233,4.1795897,4.9552245,5.3268065
1.8019043,5.657373,3.4920897,4.0052733,5.4288573
4.534326,5.230615,5.1273437,5.1527343,5.1493163
7.4288573,8.719873,7.4884276,9.4630375,11.131983
7.503076,7.7071776,7.9374022,7.7970214,8.150782
9.963526,8.159815,9.665918,10.871729,10.407862
6.856836,7.3436522,8.012598,8.350977,9.397608
7.299463,6.649072,8.5917,8.298731,8.875147
7.579004,8.049463,8.85293,8.689844,9.68545
5.350488,5.35,5.848535,5.8231444,7.6112304
5.4918456,6.8841796,7.667871,8.072657,6.586572
2.3299804,5.6393065,3.8666015,2.9205565,4.945459
4.2503905,7.195703,6.386865,6.4930663,7.254785
4.202539,6.9981933,4.6307616,5.893945,6.489404
5.3905272,7.1249022,6.0975585,6.822412,9.056055
11.164209,8.062647,8.498194,7.8854003,8.470362
12.479151,8.157618,12.8067875,12.35708,10.682276
7.5331054,8.163965,9.67544,9.479883,11.324366
8.074854,7.7711425,9.661524,9.340967,8.991358
9.021631,9.184961,10.239893,10.782129,9.768702
8.010157,8.539698,5.662256,5.94375,7.914209
6.83291,7.266504,8.983301,9.481836,6.85708
10.527979,8.479883,9.65127,9.645411,8.952295
9.516993,8.476465,10.611231,10.018457,10.192041
8.6817875,7.216211,10.519434,9.249414,9.509668
11.784327,9.316309,12.746973,13.242334,9.787012
7.8109374,7.557031,6.891504,6.483545,7.0243163
10.478418,8.420801,10.636377,10.231592,10.005762
12.859522,8.868067,12.395655,12.7408695,10.478418
13.604883,10.4439945,15.795069,15.705469,13.925196
15.261866,9.788721,14.428125,14.3189945,10.69253
13.167139,9.868555,13.166895,13.883692,11.806299
16.870752,12.165918,16.268946,15.5707035,15.369043
11.552881,9.240137,11.8988285,11.721582,11.589991
10.665674,9.292139,11.386866,11.573389,11.217188
10.146875,10.51919,10.518702,11.863184,11.995996
7.407861,8.244532,8.843409,8.584375,9.868799
8.235254,8.818506,9.498438,9.702051,10.313868
8.528223,9.355616,9.76333,9.781153,11.514307
7.8507323,8.2911625,8.870264,9.779932,8.526026
9.401758,9.039698,10.456202,11.001123,10.391748
8.189844,8.315332,10.598536,10.320459,9.121973
11.049463,9.073389,10.49209,9.914698,10.70083
9.707178,9.214258,11.889307,11.874903,11.895166
11.739649,10.707911,12.186426,11.958399,11.66836
9.018946,9.270411,9.603907,9.186182,9.468653
9.015528,9.694727,9.830469,8.816553,10.409571
9.247217,9.522852,10.591944,10.660547,9.882471
9.499903,8.802393,9.546289,9.181543,10.631983
9.64419,10.697168,10.233789,9.960108,10.432276
10.735254,9.720606,10.849024,11.829493,11.596827
10.815577,10.902979,13.263819,13.870264,11.041407
9.809717,12.435205,9.786036,11.196924,12.413477
17.267237,12.030664,15.615137,17.339746,12.433496
12.885157,10.330469,13.17544,13.565821,13.093897
9.765039,9.492823,9.142481,9.28042,10.483545
11.726465,10.971094,10.718409,11.82461,11.234522
11.418848,9.960108,10.399317,10.591455,11.037256
7.548486,10.3658695,11.439844,11.368311,10.355127
10.498194,10.251368,12.566797,12.666407,12.576807
11.685938,9.992823,12.997705,12.869776,12.670313
10.71084,10.016016,12.462793,12.281153,12.172266
10.989893,10.016993,12.362696,12.083887,11.696436
11.958887,11.132715,12.844873,13.145411,12.785547
14.868555,12.765772,15.466211,15.352686,14.323877
16.492823,13.447657,17.635157,17.935694,18.942041
15.266748,15.338526,16.634668,17.068995,19.51089
15.040186,13.729883,14.534082,15.785303,15.933985
15.61709,15.082911,15.392725,16.03213,15.40542
15.918116,15.204004,17.113672,17.32168,15.799219
16.777735,13.143702,18.001368,17.42373,16.846582
18.464746,14.423975,19.131739,19.490381,17.787012
14.678858,13.778955,17.723291,17.718653,15.775049
16.859766,13.936914,17.473291,16.918848,17.195704
13.629786,15.409571,14.794336,14.476221,15.642481
15.447168,15.648096,18.942041,19.38589,16.716455
16.220118,16.089014,16.603907,17.346094,15.59292
13.872705,14.227442,14.16543,13.8067875,13.695459
12.510401,14.387598,14.898096,15.163477,14.095362
14.834131,14.606104,15.766016,16.143457,15.501856
14.862452,15.811914,15.941553,16.532618,16.49331
16.439844,15.771387,13.731836,15.122461,18.165674
15.514063,15.096827,17.928858,18.525293,16.437891
15.526758,14.365625,15.876856,15.74502,15.763819
16.030909,14.153467,16.07583,16.746729,17.290186
13.765284,14.1158695,15.84585,15.538477,15.620996
17.687403,15.695459,17.507227,17.271631,18.841455
19.226954,18.278223,20.822168,21.287256,22.251856
17.341944,16.43374,18.253809,18.32339,17.547998
17.42837,15.312403,16.708643,16.582666,16.563868
15.977442,14.483057,16.364405,17.48208,16.488672
14.042383,14.13125,14.686426,15.214991,14.010889
14.408838,14.250635,15.778955,15.471582,15.366114
15.519434,13.539698,15.070948,15.470606,15.329493
14.611231,13.861963,15.658594,16.027002,15.246241
16.053125,14.580957,17.36294,17.323877,16.518213
15.191553,14.142481,16.084864,15.721338,15.906885
14.094385,14.596094,16.134912,15.788233,16.065577
13.71377,14.497705,15.150293,14.810205,15.664698
16.849756,14.724512,15.428858,15.889063,15.5724125
14.988672,14.798975,15.812647,15.85586,15.599268
16.451075,15.771875,16.360987,15.898096,15.824366
17.093653,15.118799,17.419336,17.288965,17.539698
16.646631,15.524073,17.844385,18.094873,17.34878
12.749659,15.676172,15.014063,14.770166,15.355127
15.979395,15.43252,17.559717,17.985743,16.592676
16.614649,15.153223,17.564356,18.235498,17.361475
14.572168,15.724268,16.476221,16.96792,17.33047
15.795313,15.33584,17.32046,17.563868,18.0646
16.90005,15.742823,17.978662,17.893457,17.918848
21.065088,17.78213,19.015772,19.474024,20.771387
15.450342,15.415674,16.306055,15.409571,16.620996
17.91958,15.361231,15.755762,16.370264,16.903711
18.388086,16.426905,17.196436,17.370508,16.1625
17.509668,16.20083,18.561426,17.817286,18.762598
15.825342,15.445948,16.44668,15.583155,15.381983
13.156641,14.861719,15.191553,15.4630375,14.2408695
13.61294,14.770411,15.6627445,15.360254,15.599024
15.001368,15.864405,16.109034,15.578516,15.430323
15.954737,15.134424,14.680567,14.887354,15.85293
16.222803,16.353662,17.862696,16.84878,15.948633
16.874414,16.4125,17.593409,17.619287,16.877832
16.73208,15.476709,17.43838,16.694971,17.18545
17.702295,15.809473,16.294825,16.186182,16.427881
16.993555,16.292627,18.301416,17.235498,18.593409
19.30459,17.196924,19.58877,19.051416,19.62124
21.140528,19.46084,22.208643,21.935205,20.350733
20.195215,20.319727,20.074121,20.465723,21.183252
17.975977,17.701563,16.778223,18.11416,17.805323
20.242823,16.692041,20.960108,20.209131,17.389307
19.445704,16.680567,20.014551,19.677393,19.329248
17.00796,16.603907,17.916407,17.514063,17.590723
17.008448,16.140284,17.7438,16.988184,16.373194
16.076807,15.776026,18.423975,18.46499,16.405909
16.39248,16.375391,17.94839,17.426416,17.082666
16.363672,16.770655,18.146631,17.520899,16.064356
14.973536,16.81753,16.416407,16.243555,17.086084
16.10708,17.073877,17.108545,16.90835,18.150782
15.737452,16.482813,15.93545,16.070215,16.625147
14.387842,15.083643,15.097315,14.454981,14.721094
13.434473,15.575098,14.745996,14.320459,15.083399
14.702295,15.9283695,16.455225,16.052637,17.132471
14.1625,16.371973,15.910547,14.431055,16.400782
13.76626,14.870508,15.046289,14.941553,14.977442
13.7564945,15.101709,14.704248,14.657618,14.598047
16.504053,16.007715,15.929834,16.329737,16.631006
13.78628,16.45791,16.655664,15.7738285,16.64248
12.886133,15.268946,13.650293,13.897364,15.484522
13.220362,14.548975,14.740137,14.7599125,14.660059
12.885645,14.034815,13.526026,13.543604,13.868067
13.747461,14.836817,14.690577,14.536768,15.253077
16.339014,15.378077,18.42837,17.65542,15.969629
18.330957,16.926416,19.880762,19.211084,16.913721
13.613184,16.64297,17.6625,18.507715,16.846094
13.531641,16.8688,16.18081,17.022608,16.047022
12.233057,15.238672,14.714746,15.125635,14.117823
14.379786,15.969385,16.002344,16.40542,15.95083
14.560205,15.553858,16.576075,16.489405,16.157618
14.85586,16.245996,16.135645,16.440088,16.777246
15.773584,15.409082,16.353907,15.070459,14.473291
13.608301,14.460596,15.486963,14.760645,15.210352
12.468897,15.7252445,13.682276,13.096338,15.569971
12.765284,15.474024,14.8050785,13.944239,14.497705
13.382715,15.71792,15.4752445,15.329248,15.0375
14.288233,16.10586,17.798975,17.348291,17.348536
16.670313,16.017725,15.374414,16.475,15.567774
13.806299,15.128077,14.691797,14.542871,14.526758
14.698145,14.847071,14.988672,15.0846195,15.492334
14.041407,15.287012,15.472071,15.216944,15.998682
14.173975,15.352686,15.219385,14.981836,15.3814945
13.232325,15.1002445,14.827051,14.625879,14.842188
12.0021,14.734278,14.704737,14.700098,14.656641
14.836084,15.589991,14.205957,15.60708,15.2792
13.028955,14.627588,13.829004,14.074366,15.167139
13.472559,15.498926,15.576807,15.593164,15.024561
12.646387,14.945459,14.418116,13.923487,14.056543
12.947901,15.434961,14.368555,14.529444,15.204248
12.640528,15.631006,13.357325,14.059961,14.4925785
13.834864,15.7252445,14.69668,15.077784,15.567041
13.603907,14.367334,14.606836,14.611475,15.0394535
12.631739,14.34585,14.086817,13.723536,14.097803
13.86294,14.57583,14.766748,15.566797,15.753321
15.50918,14.788477,14.507959,14.407373,14.265039
14.981836,15.007227,15.753809,15.68252,15.935205
15.785059,15.003565,14.6471195,15.307276,14.433008
11.783838,14.831934,13.2408695,13.431055,13.923975
10.6939945,13.883448,11.711084,11.16128,12.774073
10.371973,14.684473,11.401758,11.549463,13.40542
15.02627,16.013086,15.632715,15.205713,15.422754
14.920069,15.833399,15.308252,15.1661625,15.20669
13.907129,15.123194,14.040918,12.795801,13.449121
13.48208,14.439112,13.715479,11.795557,13.141504
13.243067,13.623926,11.718897,11.166651,13.249659
11.433252,13.975489,12.524805,12.628321,13.198145
11.897608,13.491602,10.358057,10.743311,12.898584
10.73086,13.443018,11.593653,11.936426,13.373194
11.418604,13.859278,12.573877,12.259424,13.639063
11.6036625,13.544336,12.577784,12.5394535,12.71792
11.057276,12.783594,11.41128,11.852686,12.752588
9.121729,12.830713,11.871241,11.745996,12.288965
10.319727,13.10586,11.94375,11.452784,12.362207
9.023096,13.552637,9.5646,9.851465,12.781885
8.705957,12.88711,8.979639,8.871485,11.282862
7.0450683,11.395899,7.6395507,7.848047,9.250391
9.396143,12.391504,10.885889,10.866602,11.543604
7.5213866,11.121241,8.343409,8.073145,9.932276
7.0802245,11.898096,8.903223,9.85586,10.9439945
9.858789,12.532618,11.770411,10.915674,11.715479
4.0001464,10.21084,4.6981444,4.903955,8.3363285
5.5404296,10.317774,5.879785,5.4466796,8.44668
3.81875,10.26211,4.334375,4.572168,7.81582
5.987695,11.028223,7.1458983,6.7469726,9.457422
8.1158695,11.841455,8.3658695,8.423731,11.085596
8.494043,12.458887,10.571924,10.063868,11.654444
10.354151,12.948145,11.230616,11.108301,12.464014
8.968164,10.790186,7.475488,6.910547,9.415674
5.5628905,9.868555,6.2350097,5.970117,8.331934
4.51333,10.606104,4.251123,4.3373046,8.967676
7.35,12.453028,7.7987304,7.8055663,10.240625
8.924707,12.624414,10.165674,9.917139,11.878565
5.3773437,10.792139,6.5660644,7.016992,9.417627
4.3143554,8.4125,6.5128417,6.4850097,6.494287
5.9413085,9.052149,7.810205,7.772119,8.315577
5.591211,9.019678,7.358789,7.851953,8.347071
6.6805663,9.767481,8.48794,8.478174,9.007471
5.3878417,9.313379,6.473291,7.0370116,8.758448
3.905908,8.759668,4.742578,4.469873,6.8058105
2.4730468,9.281641,3.6700683,3.360742,7.317285
3.336328,7.5628905,4.5243163,4.2108397,6.5729003
4.0284667,7.9044433,5.3739257,5.2242675,7.4310546
3.7000976,7.68667,5.2435546,5.5208983,7.216699
5.197168,8.791407,7.21499,7.4583983,8.548243
5.089746,8.956446,6.7088866,6.7887206,8.205713
4.7298827,8.759424,6.2350097,6.1930175,8.126612
3.5755858,7.9186034,4.915918,4.2259765,7.2472167
3.1554198,7.188623,4.90249,4.0643554,5.9225097
2.8556151,6.2801757,3.6412597,4.30874,4.809961
1.9554688,5.7030272,3.8409667,3.9688964,4.1512694
0.63271487,5.174707,2.9513183,2.475,3.9181151
