"[299, 255]","[227, 248]","[287, 319]","[279, 328]","[230, 262]"
3.7445312,7.3421874,5.5174804,5.464502,6.9325194
3.5733886,7.9483886,6.220361,5.316797,6.3131347
2.2003417,8.0880375,4.876123,4.520166,7.0736327
3.6063476,7.947168,5.1268554,4.384668,6.1200194
5.8280272,8.870508,6.9305663,6.473047,8.014307
6.557031,9.949366,5.343408,5.855127,8.329981
8.740137,11.598536,9.999659,9.564844,11.0917
9.774561,11.682276,10.580469,10.541895,11.241358
6.6551757,9.9769535,5.4776855,5.6998534,7.5941405
7.055078,11.2875,8.544825,8.587793,10.458155
7.4359374,11.037012,8.204981,8.31167,9.453272
3.8529296,8.36294,4.511621,4.122461,4.964502
2.8595214,8.184961,1.7918946,2.0589843,6.682031
4.476709,9.44375,3.8243651,3.895166,8.521143
8.033838,11.139307,7.6222167,7.766748,11.032373
8.35,11.326807,8.389795,8.170557,11.036524
10.605616,11.906153,11.759424,11.511866,12.076563
4.253076,9.949366,5.46792,5.504785,8.255518
8.765284,11.685694,9.977198,9.179346,11.008448
9.639307,11.995264,7.53457,8.88125,11.46792
10.021875,11.6314945,10.858057,10.79751,11.696192
6.152246,9.171289,5.2291503,4.551172,6.966699
3.4574218,7.9500976,4.5128417,4.4757323,6.1048827
7.0921874,10.606592,8.133448,8.5221195,10.316553
9.809229,11.340235,9.839991,10.082666,10.741846
9.260401,11.361231,6.619043,6.237695,10.7096195
3.6344237,9.153223,4.857324,5.0350585,7.8871093
4.226709,9.368067,5.4364257,5.690332,8.232569
-0.30893555,5.4813476,0.16054687,-0.4012207,3.4957519
1.4640137,9.005762,2.1290526,3.009912,6.966455
4.232324,9.76211,3.749414,3.9608397,7.7350097
3.6771483,8.7564945,4.572412,4.5890136,6.4469237
2.6065917,8.423731,4.2835937,4.037256,5.8958983
8.628565,10.624414,9.831202,9.34878,10.435938
8.592188,10.86709,10.598291,10.31045,10.607813
6.2916503,8.809961,6.231836,5.8717284,7.643945
5.2347655,7.915918,4.763086,4.056543,6.870996
1.8927246,6.956445,2.8973632,2.617578,4.872705
1.5904785,7.8788085,3.0345702,2.7279296,6.291406
1.6258789,7.214502,2.5992675,2.7369628,5.46499
1.5040528,6.404199,1.7542969,1.6185547,4.9217772
1.1493164,8.027002,1.6361328,2.2171874,5.2242675
8.049707,9.96084,8.799463,8.808252,9.965479
8.421045,9.798243,8.823877,9.419825,10.165186
7.683252,9.784327,8.3067875,8.646387,9.942774
7.584131,9.455225,4.9374022,3.5421386,8.672754
7.0458007,9.525049,8.201563,8.707178,9.064112
8.193018,9.812891,8.906397,8.973536,10.165186
8.63003,9.781153,9.425928,9.193018,10.201075
7.3634276,9.636133,7.8565917,8.394922,9.386621
5.5470214,9.165186,7.1561522,7.164209,8.703272
4.6461425,8.799463,6.388086,5.8756347,8.012842
4.5472655,9.187159,6.4139647,6.4293456,8.26211
6.9132323,9.403467,8.938379,8.610498,9.150049
7.233545,9.602686,9.652246,8.808741,9.429102
7.100488,9.633448,9.221094,9.812403,9.809473
5.257959,9.234766,6.7870116,6.6859374,8.289209
7.490869,9.739161,8.409082,8.266504,9.420069
2.2909179,8.549463,3.9842772,3.4024901,6.7608886
7.261865,10.159815,7.6776366,7.5296874,9.430323
6.249658,9.493555,6.7350097,6.2137694,8.807276
4.6527343,8.725977,5.192529,4.971338,7.5023437
5.010156,8.797266,5.6478515,5.4503417,8.507959
5.643701,9.039942,7.082666,6.8634276,8.964991
6.1268554,9.085352,7.676904,7.766748,8.608545
7.129297,9.505274,8.437891,8.079493,8.976709
3.9049315,8.673487,4.45791,4.404199,7.2228026
8.285547,9.8224125,8.111231,7.8253417,9.843897
6.431543,9.5221195,7.622461,7.360986,8.460596
4.5213866,7.379297,4.9151855,4.7784667,6.3941894
3.0003905,7.714746,3.683496,4.2850585,6.8749022
4.882959,8.205713,6.537988,6.2223144,7.1864257
7.735742,9.704004,9.512598,9.541407,9.75503
9.089991,10.107813,9.921778,10.0021,10.53335
6.195459,9.073145,5.3963866,5.103662,7.2972655
2.992334,6.9781737,4.792627,4.5558105,5.845361
2.6358886,6.62417,4.069238,3.4100585,5.2118163
2.5912108,6.660547,2.2708983,2.1717772,5.1031737
2.0731444,6.058252,3.2623534,2.7613769,4.820459
1.6351563,5.60708,2.931787,2.485498,5.150537
2.296289,5.8355956,2.0987792,2.2298827,4.4415526
0.8373047,5.256494,1.8290039,1.88125,4.073877
2.4256835,5.8509765,3.471582,3.3307128,5.4657226
2.1771483,6.0086913,2.461084,2.461328,5.50625
2.6119628,6.0699706,3.8290038,3.9520507,6.3075194
1.577295,5.247949,3.6432128,3.6708007,5.34292
2.6256347,6.2101073,4.1463866,4.220361,5.440332
1.2594239,5.020166,2.8238769,2.4984374,3.744287
-0.7337402,2.6476073,1.5404297,1.8336426,1.9376465
1.7240235,4.8563476,2.9049315,3.0970702,4.4813476
0.054833986,4.863916,1.3185059,1.9146973,3.8802733
1.027002,5.122705,2.5074706,2.7105956,3.3807616
2.737451,6.266504,4.360254,4.7350097,5.2413573
3.5020995,7.2923827,4.239404,4.713037,6.0423827
4.0938964,7.7152343,4.7987304,6.583154,7.4173827
6.2279296,7.9017577,7.251611,6.940088,8.439112
3.9293456,7.555078,2.6722655,1.8531739,6.183252
1.8539063,5.054834,3.1737304,3.0694823,4.5160155
2.4615722,6.709375,3.4486327,3.5353026,5.570459
4.5802245,8.255762,5.1092772,5.2013183,7.982324
5.804834,8.666407,4.0660644,4.3702636,8.104151
8.364649,8.684717,8.3536625,7.9171386,9.079004
7.470117,8.106348,8.074854,7.662988,8.447901
7.7345214,9.799707,8.833887,8.655664,11.2564945
9.116846,9.156885,9.427881,10.224024,11.591211
9.541895,9.253321,9.902491,9.330469,9.539698
8.613916,8.737696,8.432764,10.180567,10.06753
8.1627445,8.553614,8.464991,8.219141,8.548975
5.6686034,8.3146,6.9339843,6.522363,9.463526
5.4776855,7.1183105,5.158838,5.273584,6.756738
4.140283,5.928125,5.155908,5.2467284,5.527246
5.315576,7.6092772,5.783838,5.823877,7.42666
10.14419,8.952295,8.15542,9.528223,9.984522
10.145899,8.2408695,10.183008,11.26919,9.947168
14.400049,8.602686,14.738184,14.722803,13.418848
8.5221195,9.051905,10.075098,9.380274,8.967432
12.464502,10.563135,14.302637,13.940821,13.329004
8.629297,9.590235,9.653955,9.143213,10.995264
8.121729,8.909327,8.313623,8.413721,9.563379
9.4769535,9.223536,9.279444,9.428125,10.500391
9.287256,9.533838,9.027735,9.025782,9.550684
9.018946,8.360254,8.5880375,8.75503,9.526026
8.467432,8.007471,6.763574,6.552881,7.612695
7.146631,8.031397,8.663233,8.218897,8.677149
3.7154784,6.8734374,5.815332,7.227197,6.149072
7.268213,7.6214843,8.601221,8.090479,7.695703
4.2867675,6.535791,5.3236327,5.45083,5.9981933
3.2245116,6.899072,5.296289,4.639795,6.157861
5.2674804,7.150537,5.152246,3.7889647,6.7333007
3.8993163,8.451807,7.7779784,8.535791,8.605371
6.332422,7.773584,7.685205,7.899072,8.592188
7.4066405,7.951074,8.641748,8.568018,9.167139
7.8941894,8.649317,9.81045,9.457178,8.722071
8.266993,7.931543,8.522364,8.1,9.869043
8.465479,7.9813476,8.03335,9.140528,9.326319
4.7557616,6.787988,6.2591796,6.421045,6.6410155
5.7889647,6.9120116,7.407617,7.2875,7.143213
8.431299,8.547998,7.6827636,7.8419433,8.270655
7.431543,9.917383,8.692286,8.676661,9.282373
5.001367,7.659082,7.0311522,7.4271483,6.922754
7.839502,9.114649,8.594629,8.101709,9.375635
7.5924315,7.7782226,8.6800785,8.590235,7.5609374
8.390772,8.893702,9.083155,8.995752,10.613672
11.3050785,8.709375,12.2877445,11.959864,12.462061
11.6019535,8.9942875,12.243067,10.819727,9.839746
10.673731,9.447657,12.047998,12.248682,12.078028
10.815088,10.016993,12.162256,11.985987,12.278467
13.464014,10.962549,13.125635,13.31045,13.049219
11.437647,10.438135,11.791895,11.914209,12.329493
13.995996,10.722803,11.632471,11.854639,11.617334
17.642237,14.421045,19.209864,18.761133,18.805567
15.052637,10.91958,16.083887,14.979151,13.890528
17.053858,10.337793,18.22378,18.952051,15.534082
17.483545,10.910791,17.728174,17.987207,15.782618
18.54165,14.7286625,21.004297,21.153711,20.704004
17.452295,13.516016,19.902246,20.175684,20.162745
16.765528,11.631006,18.434473,19.415918,14.422266
14.822168,13.309717,15.278223,16.320704,15.849756
11.773584,13.323145,12.734034,13.491846,13.38003
12.782862,12.632227,13.399073,13.515039,12.570215
14.034815,13.681543,14.6002445,14.536036,14.412012
9.0707035,11.856104,10.368311,10.2252445,11.511621
14.931299,13.593164,15.196192,16.103907,15.203028
15.016993,13.392481,16.178125,17.634912,14.391016
12.046778,10.364405,10.873438,11.83169,10.2564945
8.135401,9.563623,9.172754,9.592188,10.204004
8.591944,9.928858,9.219385,8.455469,11.402491
8.777735,10.025293,10.85586,9.83877,10.436426
10.458887,10.90542,11.058496,11.305323,11.201807
6.7708983,9.685694,8.994776,8.223047,9.850489
12.101221,11.9144535,13.198389,13.784571,13.130762
11.257471,11.248194,11.733057,10.349024,12.089014
13.75918,11.5724125,13.062891,13.015039,14.133692
14.534815,12.091455,15.572168,15.613672,14.630518
15.122217,12.877832,14.478907,15.350977,15.29458
16.453028,12.329981,16.389551,16.953028,15.337061
15.310938,12.428125,16.076563,16.479883,14.832178
18.103418,12.536036,18.275293,18.030176,16.289698
18.355127,12.769678,19.506983,18.910547,13.836084
14.806543,12.635401,15.735498,12.865137,12.151758
14.918848,13.999414,15.56875,15.386133,14.723291
12.44375,13.729639,12.900049,12.928125,13.843409
12.993555,13.051172,15.025049,15.017237,15.25918
16.38833,14.091944,17.219385,16.911768,15.406641
14.925196,13.492823,15.172754,15.323389,15.188379
14.456446,12.904932,17.41714,17.235498,15.833643
12.015772,12.475489,14.76333,14.618555,14.180323
13.142969,12.374659,15.282373,15.436426,13.801416
16.275782,12.369532,17.728418,16.937647,15.714014
13.449121,13.649805,12.064844,11.691797,15.069971
13.43252,13.13418,13.731348,13.53335,13.0724125
13.053614,11.839258,13.932032,14.061182,12.705225
12.90542,12.301416,10.935938,10.368555,11.594385
12.62295,12.293116,13.152491,13.726465,13.314112
12.742823,12.580469,14.244532,14.202539,14.453516
13.826807,13.45669,13.6488285,13.798975,13.438135
16.18081,13.522608,15.542871,16.089014,15.959131
15.763086,14.022608,13.848047,13.722071,13.466211
19.882471,15.012598,15.945459,15.067041,16.840723
19.531885,16.17129,20.849024,20.367334,19.246485
13.891993,14.361231,15.194971,16.008204,15.842188
14.109766,14.2582035,13.880274,13.0375,13.649805
13.00918,14.2113285,14.145899,14.255762,15.397608
14.4752445,14.730616,16.015528,16.14126,16.651758
14.406153,14.088282,15.401758,15.529688,16.934229
12.751612,14.10586,15.694483,15.856104,14.809717
17.624903,17.37002,18.238672,18.31582,19.17959
16.680567,16.934961,15.120264,15.408594,19.77456
18.970606,14.919825,19.577051,19.357813,16.050196
18.531153,17.076563,18.429834,19.19082,18.672998
16.870752,16.968409,18.781641,19.452784,19.258204
18.751368,18.248926,18.861475,19.492579,19.075586
19.169825,17.240137,19.54458,19.865625,18.70498
19.386377,17.643457,17.188868,17.905664,19.022364
18.09707,16.94961,19.088282,19.389795,19.014551
18.494776,16.08877,20.015772,20.43252,18.335596
20.536524,16.7438,20.619776,20.529932,18.58755
18.468653,16.791162,20.03335,18.123682,18.66958
19.3146,17.234766,19.143702,18.845362,18.677149
17.761621,16.377344,17.975733,18.474756,17.375391
18.126123,16.195215,18.372217,18.167627,17.446924
19.045313,17.960352,19.304102,19.055567,19.495264
22.549463,16.698145,20.281153,19.671534,18.151026
16.405909,17.071192,16.922998,16.242334,16.556055
16.049952,16.473536,17.176905,16.821924,17.802149
17.326807,16.539942,17.52456,17.874903,17.109766
18.03042,16.791895,17.758692,17.588282,18.106104
15.222803,16.639795,16.727198,16.372705,16.96499
15.582666,15.955957,17.511621,16.935938,15.402735
14.79336,17.065332,16.443995,16.367823,18.208399
17.659082,16.863184,16.45083,16.864649,18.154688
13.986475,16.2521,15.348047,15.208155,15.599268
15.956446,16.64541,16.900537,16.60879,17.773584
17.789698,16.367579,18.19253,17.50918,17.340723
18.241846,17.79629,18.515528,18.689112,18.700342
17.5021,17.191309,17.059229,16.934961,17.66543
16.79214,16.479883,16.586573,16.862452,17.64248
18.953028,17.116358,17.397608,17.77212,17.90249
16.81167,16.81875,18.016993,17.382471,17.137354
18.01089,17.165186,18.708155,17.92422,18.16714
18.033594,16.520166,19.291162,17.801416,17.13296
18.672022,17.408594,19.521143,18.571924,17.02627
18.292871,17.500147,18.646143,18.35708,19.635157
19.041407,17.359034,18.672266,18.11709,19.254786
18.827784,17.41958,18.957666,18.745264,18.976221
16.742334,17.474512,17.564112,17.507471,16.720118
17.656153,16.872705,18.098536,18.349512,18.516993
19.353662,17.849756,20.211329,19.550684,19.399317
17.153955,17.15249,18.023584,18.433252,17.08047
15.719629,16.770166,16.656397,15.791895,17.24795
13.713282,15.363184,13.918848,13.601465,15.507227
15.090235,16.173487,16.020899,15.860254,15.851709
13.280664,16.532618,16.536036,15.954004,15.4317875
15.785303,16.444483,17.465235,17.332422,16.754786
16.954248,16.45254,18.083887,17.968164,17.12417
16.53921,16.217676,18.338526,18.06167,16.120752
14.927637,16.842676,17.355616,17.264307,17.258448
14.724268,16.806055,15.336084,15.983545,17.095362
12.030176,16.083887,14.078272,13.906885,14.632959
11.529932,16.090479,11.004053,11.6625,15.885645
14.5221195,16.615625,15.211817,14.938868,17.696192
16.42251,17.386377,18.097315,17.695215,17.96255
16.696436,16.985743,17.326563,17.389063,17.111963
19.866602,17.966944,20.49209,19.893457,20.277002
20.85,18.034327,20.714014,20.467188,19.920313
23.031641,20.442774,22.97915,22.781153,21.313135
17.613184,17.705225,19.803614,19.636866,19.408838
21.219873,17.527246,19.375391,20.620752,19.102686
19.946192,18.07754,18.927393,20.257715,18.691309
19.110254,18.402246,18.048243,18.683985,19.48794
19.586329,19.035547,18.151514,18.474756,18.778223
18.217188,19.146387,18.14956,18.747217,19.163721
18.835596,19.075098,18.675684,18.94546,18.937647
16.518213,18.316553,14.388575,15.218897,18.110987
16.264551,17.111963,16.876856,16.998926,16.280909
16.840723,17.80044,18.39297,18.207666,17.243067
17.841455,18.304102,18.220606,18.514063,17.867334
16.706934,17.375391,17.950586,19.372217,16.30581
18.237696,17.792383,18.673487,19.456934,18.706446
20.385645,18.856104,19.699854,20.153711,19.818506
22.57461,18.674463,21.3146,21.358057,19.794336
18.018213,17.25503,18.47793,18.109766,18.910791
18.128565,17.04629,16.150537,15.873194,18.488672
17.631739,17.685694,17.43838,17.797022,18.438623
18.958155,17.90249,17.006983,17.871729,17.97378
17.077784,18.032373,16.440577,17.248194,18.137842
18.097559,18.074121,16.360743,16.646631,17.435205
18.351221,18.723047,18.698145,18.52456,18.586084
16.23379,17.040186,16.145655,16.014307,17.0563
17.319971,18.001368,17.00332,16.65127,17.880518
12.318506,16.123438,13.275293,13.978418,15.173975
15.089258,15.268946,16.042383,16.119043,15.622217
11.859522,14.796778,13.578028,12.518213,14.40835
13.39834,15.469629,14.059961,14.135157,13.858057
15.870996,17.246485,16.162989,16.406641,16.523829
18.035791,17.410303,16.876612,15.1783695,17.044825
13.614405,16.129053,15.238916,14.886377,15.852198
13.722071,15.50918,14.590479,14.2792,15.214014
14.062891,15.973291,15.55459,15.413477,15.820215
15.288477,16.785791,15.921289,15.873194,17.313623
16.396631,16.768213,15.489405,16.052393,15.963526
15.167871,15.314356,16.095606,15.3658695,15.7599125
13.9396,16.308496,15.479395,14.567286,14.821924
15.68667,17.978662,16.133448,15.415674,17.904444
17.614893,18.041895,18.141016,17.694971,16.666895
15.240381,16.48379,15.823633,15.719385,17.01333
16.503809,17.320948,16.30459,16.50503,16.40005
17.743555,16.96255,16.939844,17.258448,18.547266
15.062647,17.92959,15.719385,15.837549,18.18081
12.445215,15.732325,13.291407,13.623194,14.471338
11.841455,15.176172,13.518213,14.028223,13.716455
14.495508,15.958643,14.038477,14.191553,16.651026
13.19253,16.730616,13.984522,13.892481,16.23208
14.43667,18.290674,14.660059,15.323633,16.350977
14.055811,17.339014,14.454737,15.139795,15.883936
15.795801,18.532862,16.82583,17.266993,18.18667
17.957666,17.93374,19.046045,18.77456,18.688868
14.166895,16.035791,15.419825,15.416895,16.189356
14.451563,15.229151,11.964014,11.5099125,15.929102
12.200342,15.527002,13.571436,13.038477,16.734522
9.939112,14.279444,10.848536,10.587549,12.902491
12.159815,13.513086,11.106836,10.799707,12.3050785
11.390772,14.922266,12.598047,12.563623,15.708643
9.92544,13.942286,11.050196,11.150049,12.704493
10.299219,13.823145,12.004297,11.848047,12.806299
11.684717,14.26919,12.421045,13.135157,13.831446
13.969873,14.965723,14.0846195,14.4908695,14.632227
9.191065,13.60708,9.920557,9.721582,12.461084
11.972559,14.685694,11.425684,10.642237,13.686914
9.798243,12.966211,10.460108,10.151026,12.020655
11.082178,14.930323,12.215479,11.892237,14.128809
12.043604,14.794336,12.687891,12.33877,14.198877
11.37002,14.307032,12.744532,12.687159,13.528711
11.520411,14.34878,11.703516,10.989649,13.896631
12.224756,14.488184,13.102198,13.138575,13.899561
12.231836,14.493799,13.854151,13.3849125,13.93545
12.674219,14.51626,13.264795,13.238428,14.23086
13.046534,14.981836,13.78628,14.202784,14.731348
13.032862,14.80459,13.260401,13.188135,14.435205
10.927393,14.425196,12.742823,10.662989,13.752832
6.1187987,10.902735,5.7342772,5.591455,8.910059
8.1332035,12.79458,10.53628,10.250391,11.114405
10.379541,12.861231,12.310938,12.1314945,12.278223
8.38833,13.396387,10.556055,10.359034,12.233301
9.175196,13.414698,10.527491,10.166895,12.191065
5.3841796,11.357569,7.1170897,7.432031,8.608545
3.7760253,10.184717,6.1249022,6.216211,7.713281
8.906641,12.8771,10.6471195,10.163477,11.572901
9.143702,12.75503,10.1332035,10.010645,11.254786
10.969629,14.091211,12.292627,12.471094,13.464746
11.69253,13.375635,13.000391,12.62295,13.511621
11.140772,13.434961,12.479639,12.331202,12.58584
5.3202147,10.5082035,6.6686034,6.4486327,8.9005375
4.4566894,10.047998,5.6876464,5.589746,7.433252
3.1566405,8.991358,3.521875,3.226953,7.339502
1.5655762,8.795313,1.0931641,1.6407715,7.1458983
4.9347167,11.733057,2.759912,2.7469726,10.3146
5.2853026,10.764795,5.30166,4.290918,8.443018
5.8219237,10.503321,4.751123,4.7765136,8.549219
5.5890136,10.315577,4.7674804,4.537988,7.6673827
