"[299, 255]","[227, 248]","[287, 319]","[279, 328]","[230, 262]"
9.283594,12.55459,9.9144535,9.464746,11.847559
10.107325,12.681055,10.6002445,10.288721,12.0255375
9.621485,10.974756,9.408106,7.584619,8.99795
4.572168,9.111475,5.0277343,5.062158,7.2396483
3.766992,8.816797,4.9347167,4.87832,6.7191405
8.771875,11.849756,6.5106444,7.218164,11.090235
9.4474125,12.4125,10.104395,10.128809,11.526026
10.465235,12.304834,11.012354,11.075342,12.02627
3.756494,8.852442,4.74917,4.74624,7.022363
2.4198241,8.176905,2.648584,2.9459472,6.334619
0.55214846,6.3163085,2.140039,2.1815429,4.852197
0.15322265,7.636377,2.5431151,3.049707,5.9015136
5.396631,9.897608,8.067774,7.863672,9.174219
9.20669,11.352198,9.929346,9.91543,10.755274
3.5924315,8.0394535,4.615625,4.5606933,6.620752
3.7958007,8.140284,4.68667,4.5545897,6.4896483
2.037744,7.707666,1.9461914,1.7164551,5.867334
1.6024414,6.6844726,2.1073241,2.2503905,4.444238
0.7452637,6.8575683,2.6622558,2.51333,4.685205
2.0919433,6.411035,1.2870117,1.7025391,3.9164062
1.098291,4.579248,1.2506348,0.31557617,4.5699706
0.20327148,3.8404784,-0.059912108,-0.26938477,3.3893065
-0.21567383,4.4200683,0.98476565,0.7235352,3.5414062
0.12685546,5.0020995,1.4071289,0.89931643,3.95791
1.7083985,5.994287,1.0934082,0.4852539,4.947656
2.3617187,6.8634276,-0.52011716,-0.015966797,6.2420897
1.0323731,8.2738285,3.1305175,2.6717772,6.4222655
4.27749,9.17251,4.438867,3.2638183,8.088526
5.0001464,8.85,4.70083,4.0245605,7.7013183
4.8236327,8.313379,3.0406737,3.016748,6.077295
0.23012695,6.146631,1.7259766,1.3797852,4.296533
0.55874026,6.7083983,1.0011231,1.176416,3.8255858
1.5101563,7.4708495,2.4686522,2.4383788,5.27749
8.722803,9.895166,8.871241,8.891993,10.237207
8.736963,9.953028,8.9300785,8.864405,9.878077
10.580957,10.486719,10.403711,10.635889,10.508936
8.2582035,7.899072,8.069483,6.652246,6.610742
3.4017577,8.234766,5.145166,4.7728515,6.8541503
6.035547,9.052637,6.94375,6.926172,8.321192
2.6717772,7.174463,3.4713378,2.8700194,5.154199
2.2596679,6.880029,2.6456542,2.4757323,5.3524413
6.416162,9.873682,6.065088,5.6239257,9.696436
8.841455,11.011866,9.510889,9.303125,10.706934
3.148584,8.063623,2.2833495,3.2540526,7.00625
6.7030272,9.330225,8.712549,8.712061,9.580957
7.7799315,9.321924,8.711817,8.5646,9.316065
7.858545,9.340479,8.599756,8.780909,9.348291
4.273828,7.694238,6.0348144,5.756738,6.943506
2.6478515,7.7333007,4.8958983,5.17666,6.3700194
1.2086426,6.3978515,1.3050781,1.5289551,5.428613
5.6478515,8.635157,6.29458,6.4847655,8.48501
8.488184,9.964991,9.22793,9.233789,10.152002
3.4740233,7.400781,3.9312987,3.8099608,5.876611
2.0042968,6.3233886,2.1190429,2.143457,4.6187987
6.7228026,8.822168,8.267969,8.937647,9.170313
7.5179687,9.387842,8.43667,8.940821,9.432276
7.3634276,9.061914,6.948877,7.190088,8.558496
2.8839355,6.407373,3.8097167,3.8509765,4.4745116
3.3065429,8.874659,3.9349608,4.0123534,7.649072
8.61294,9.772364,8.94375,8.706934,9.552149
5.435205,8.180567,4.423242,4.1183105,6.9479003
4.522363,7.7691894,5.5799804,5.7696776,7.112451
3.4903808,7.226953,4.8043456,5.4566894,6.4134765
5.0089355,7.747461,4.306543,3.985498,5.9693847
5.7108397,8.868555,5.0992675,4.7276855,8.151514
3.5736327,6.7264647,4.7904296,4.7936034,5.6341796
4.535791,7.6251464,5.338037,5.4759765,6.8165526
5.1532226,7.24624,4.8614745,4.3045897,7.202783
5.1874022,8.377832,6.8526855,7.2035155,8.060205
7.5057616,9.219385,8.062891,8.234034,9.211817
8.442286,9.486231,8.6939945,9.0221195,9.507471
5.567041,7.903711,6.3375487,5.9740233,7.223535
4.4364257,8.098047,5.6773925,5.42666,7.3546386
5.2572265,8.469873,5.4256835,5.414209,7.812158
3.7508788,6.725244,3.5179687,3.4691405,6.2257323
2.5423827,6.629541,3.4366698,4.254785,6.535791
4.56167,7.9271483,5.4481444,6.268213,7.525293
3.358789,7.6947265,5.0299315,5.497705,6.9833007
4.507959,7.801416,5.38833,5.7086425,7.563379
6.7342772,8.0646,9.193506,8.964502,9.097803
5.93667,8.158594,6.8197265,7.338281,7.9200683
6.0677733,7.7657714,6.481836,6.7364745,7.7555175
6.8407226,7.6478515,6.783838,7.0902343,8.026758
8.46377,7.117822,5.8058105,5.9125,6.824121
3.1898437,6.4967284,6.101709,6.441797,4.0802245
4.4635253,7.6268554,5.2711425,6.0311522,6.581445
5.1598144,7.662744,6.6756835,7.0455565,7.3392577
5.219629,7.2018065,6.5470214,6.4762206,6.7743163
4.553369,6.9293456,6.2152343,6.513086,6.5401855
4.9725585,7.0489745,6.566797,5.9520507,6.518457
3.041162,6.5279784,5.126611,5.3165526,5.728662
5.726709,7.966211,5.8182616,6.0609374,7.948877
7.9100585,8.575342,7.5936522,7.471582,8.276514
10.636133,11.041407,10.352442,10.908594,12.156153
10.067286,9.35708,8.741114,9.485987,9.527002
8.466211,9.839991,8.231836,8.709375,8.53042
8.106104,9.505274,7.3983397,7.1461425,8.973047
4.488672,7.6964355,5.832422,5.7811522,7.166406
5.6012206,7.865381,2.7003417,3.032617,7.445947
4.244043,8.588526,5.2621093,6.8338866,8.253077
9.216944,8.676172,9.362452,9.711817,10.076807
8.432276,8.727442,8.454981,9.535791,8.822901
6.237207,8.43252,8.741358,7.970361,8.934473
7.1949706,7.7743163,8.148096,7.707422,8.731592
9.876856,9.141993,9.477442,8.825586,8.96377
8.813868,8.687647,8.784327,8.893946,10.03042
7.7333007,8.882715,8.536524,8.501856,8.978174
6.765039,8.649317,7.6344237,6.8287597,8.23501
2.713037,6.2176757,3.485498,3.3233886,4.8392577
3.704492,7.0562987,4.2577147,4.3768554,7.2384276
3.3729491,6.3927245,4.838281,4.1288085,5.09707
5.00332,6.45791,6.1197753,6.0506835,6.3285155
3.3395019,6.02749,4.7469726,4.738672,4.2413573
4.822412,7.275537,6.511377,5.9503417,6.870996
6.0389647,8.163477,7.3038573,7.046045,8.302149
6.9798827,7.142236,6.8092284,6.695459,8.355127
5.610986,7.7777343,5.6617675,6.278711,7.279199
5.768457,7.4537597,7.740869,8.097803,7.7484374
5.844629,7.4937987,7.437158,7.6737304,7.0458007
8.011621,7.166406,8.632715,8.345606,9.298487
10.122705,8.679834,9.422022,9.49209,9.084375
9.308741,9.348291,10.8502445,11.278955,10.754786
6.931787,7.872949,8.385645,7.834619,9.667139
8.613672,7.830713,9.151026,8.809229,9.410547
9.932032,9.556299,11.573145,10.916407,11.726465
8.497217,9.218653,8.792627,8.511377,9.8971195
5.0943847,6.8114257,6.113672,5.767236,7.3436522
5.143945,6.6551757,6.8111815,6.6532226,7.4901366
5.4759765,6.633447,6.3753905,6.2921386,6.858545
6.0558105,6.0504394,6.3268065,6.023828,6.0279784
5.126367,7.9688964,5.21499,4.750879,6.897363
6.57583,8.636133,9.159571,8.907862,9.775293
5.6493163,8.3067875,7.6302733,8.0567875,9.8502445
4.0138183,8.415918,4.7503905,5.12832,8.38003
9.060938,8.17544,8.783106,9.007227,8.966211
7.7274413,8.478907,9.142237,9.295069,7.8788085
8.835352,8.726709,10.671045,10.864649,10.92251
7.57583,9.497705,8.658594,8.8658695,10.18252
9.329248,11.566309,6.565332,7.1183105,13.28042
9.661524,10.48086,11.097071,11.524073,11.2269535
10.492334,11.2096195,9.151758,9.708399,13.43252
10.431055,10.152491,9.316065,10.253565,10.972803
8.752588,9.238916,11.055323,10.92544,11.311182
7.5609374,10.003565,14.54336,13.060938,10.418604
9.754541,11.846094,12.6817875,11.323145,14.180567
15.293116,14.04458,15.493799,15.659082,18.532373
13.405909,10.158594,15.573389,15.026026,11.841455
20.369043,16.109034,21.402735,20.876123,17.490625
18.414698,13.078028,17.878077,19.367579,14.764063
13.687891,11.30044,15.115381,13.694483,12.376123
11.215723,11.252588,12.921289,12.620508,13.087061
11.455957,10.477198,12.326807,11.788233,12.94668
11.369043,10.875391,12.676416,12.620264,13.342432
13.436914,12.3988285,14.951319,14.83169,14.579004
11.511866,10.271631,13.937647,13.2911625,12.015528
10.240625,11.347071,11.044092,11.667871,13.109522
9.448145,10.438623,11.001856,10.825586,11.319727
11.980616,11.604395,11.06045,11.212549,12.646631
10.863184,10.750879,10.302149,10.113916,10.19961
9.683008,11.078272,11.712549,11.461817,11.242823
8.641504,10.447657,9.315332,9.0099125,10.96377
12.281885,10.2894535,9.457911,10.14126,11.197168
11.896387,10.4630375,9.553858,9.785059,11.03628
9.789942,9.817774,11.018457,10.146875,10.989893
8.956934,9.549952,9.843409,8.820215,10.863428
11.1974125,11.097559,12.126123,11.30044,11.20083
10.750635,10.878321,9.190821,10.454004,10.852198
11.6817875,11.955957,12.830469,12.880518,11.922998
10.953028,11.788477,14.261866,15.682764,11.752832
10.234034,11.545069,15.051661,15.041895,11.625391
15.135401,13.055323,17.509668,16.824366,16.354883
12.886133,12.340723,14.503565,14.301661,14.997461
11.51626,11.567286,13.433008,13.218653,12.476221
12.631983,11.580225,14.505274,14.276026,12.762354
12.115137,11.362207,13.826075,13.063623,12.818506
11.402002,11.381983,12.507227,12.472071,12.335108
12.04458,11.930811,12.609766,12.845362,11.586084
12.951075,10.743311,13.500147,14.105616,11.374903
12.917871,12.259424,12.857325,12.861231,12.834375
11.154444,10.987696,11.987452,11.938379,11.677637
9.87417,11.659327,11.981348,11.520166,12.862696
9.890039,11.155909,12.696924,12.323145,11.699121
15.19668,12.385401,14.81875,15.224024,14.944239
14.187891,12.29043,12.873926,12.908838,12.093653
14.261866,12.498926,15.148584,15.004297,14.728418
14.813135,12.696192,15.356348,14.822168,15.382227
17.285303,13.225733,17.241358,17.189112,15.866602
12.70083,12.864405,13.11709,12.759668,13.179834
11.682276,11.813868,13.347071,13.005762,13.179346
12.576807,12.863916,14.190332,14.5707035,12.930811
10.461573,12.8224125,12.851709,12.365137,12.536768
10.647852,12.441553,11.439356,11.664209,12.377832
11.189844,13.022852,12.519678,11.70669,13.962061
12.8146,13.67251,14.206446,13.72378,13.979151
13.670069,13.466944,13.488672,14.198877,13.063623
12.760645,13.324366,14.741602,14.473291,12.894434
14.680567,14.09878,16.037745,15.659327,13.685205
18.284327,14.416895,18.7792,18.699366,16.663233
18.49502,16.112207,19.146143,19.187403,18.35
19.234522,16.902246,21.100245,21.248682,18.528467
16.994532,17.464502,18.27749,19.4938,18.603174
15.47793,16.641748,17.03213,18.646875,16.492579
18.043116,17.291895,21.195215,20.241358,18.153467
17.557276,17.706446,19.295557,21.330225,18.012842
19.428614,18.079737,21.811914,21.491114,19.050684
21.549952,16.840479,22.295313,22.474268,17.941065
14.827051,16.614893,18.505518,18.403711,16.768457
19.666895,16.076075,20.110743,19.515772,16.302149
18.841455,15.446924,21.011866,21.301416,17.548243
17.52334,15.337061,19.886621,18.754297,15.315821
15.373926,14.872461,14.645655,14.389063,17.167871
13.755274,14.901026,16.908838,16.891993,13.865381
16.461573,14.423731,17.15713,17.277002,15.613428
15.137598,15.541895,15.9786625,15.162989,15.624414
13.487452,15.420557,16.64541,16.955225,16.04336
14.161768,16.541895,15.193506,14.7425785,17.844873
15.745508,16.018702,16.109034,15.753321,15.914209
12.279444,14.557276,15.764307,15.610987,13.516748
17.29214,15.59292,17.96084,18.247705,17.165186
20.511133,16.436426,19.838037,21.306055,19.33291
17.29873,17.075098,20.077295,19.966944,17.238672
22.325342,15.984522,21.205957,22.021875,20.90005
24.286524,19.98208,24.627832,24.97207,25.095362
27.406153,23.718409,26.290186,26.47207,27.41128
23.470606,17.284082,25.989649,26.283594,19.166895
21.807276,17.51333,20.491846,20.911524,20.029932
19.37832,17.32754,18.948145,19.797754,19.904932
18.14541,17.019678,18.369043,18.014551,18.847803
20.3063,17.141016,19.549707,19.461084,19.418848
18.622217,17.32168,17.37002,17.881739,18.932764
17.314356,17.25088,17.017237,17.36172,17.96255
20.390284,17.87002,20.256739,21.014551,20.724024
25.68667,19.221338,22.070215,22.57754,22.45376
29.726221,22.965479,28.473291,28.733301,26.90127
19.126856,18.24624,19.95376,19.740137,18.800928
20.02749,17.260157,20.796534,20.052393,19.560938
16.733301,17.606104,18.395166,18.724024,18.467188
19.924463,18.167871,20.460596,20.777735,19.881739
21.56338,19.268213,22.703516,21.782373,20.192041
18.731592,17.254297,17.612207,18.340967,18.589746
18.141504,17.043604,17.561426,18.052149,17.981592
13.677149,16.738184,15.286036,14.6974125,16.501856
15.774805,17.287989,17.693995,17.59463,17.792871
18.418848,17.70962,16.376368,17.258448,17.226465
18.062159,17.660791,17.2875,17.768213,18.213282
18.353662,17.438623,19.007715,19.686426,18.466455
15.277246,17.075342,16.040186,16.533838,18.136621
16.542383,17.742579,17.835352,18.825586,18.027002
18.280909,17.444971,17.750147,18.090479,18.434717
16.183008,17.218653,17.13711,16.615137,17.3771
19.2792,17.928614,18.481836,18.520899,18.492579
22.437403,19.701075,21.74502,21.225977,21.29165
23.727198,20.145655,23.420313,23.351954,22.370996
19.911524,18.394434,19.856836,20.47671,18.675928
21.870752,19.17666,18.782373,19.96084,20.138819
18.968409,17.861475,18.49087,18.07339,18.631739
16.594385,17.438135,17.287256,17.03042,17.662012
17.110987,18.249414,17.782618,17.715479,18.124659
17.48208,17.583887,18.006495,17.723291,17.008692
16.566065,18.0917,19.66665,19.840723,18.038965
20.293604,19.215723,21.60171,21.093897,18.866846
21.354395,18.251123,22.083643,21.275782,21.817286
20.184229,18.383936,20.435205,18.75918,19.519678
18.233301,18.31167,18.575342,18.157618,19.424463
19.273829,18.702295,18.780664,18.121973,18.708399
19.415186,19.014551,19.876856,19.737696,18.55581
16.67422,18.750147,18.266748,18.863428,19.891504
18.412012,18.397852,20.586084,20.351221,20.042627
17.797266,18.246973,17.927881,18.4938,18.444483
16.977686,17.811914,17.495264,17.605127,17.675684
17.17666,18.383936,16.785547,17.464746,18.362207
17.146631,18.132227,16.807032,17.14126,17.767725
16.222315,17.44546,16.757715,16.246973,17.216944
15.1158695,17.968897,16.75088,16.755274,15.991602
15.546289,16.959131,16.368067,16.611475,16.544092
18.007715,18.548487,18.254541,18.7521,18.196192
19.163965,19.282862,19.713037,19.851221,21.96377
18.413477,18.823145,19.430323,20.040918,20.692774
19.707422,19.306055,18.822168,19.140528,20.752344
19.166162,20.078028,18.961084,19.045069,21.229883
21.003077,21.306787,20.545557,20.674952,24.785059
20.059229,21.116846,19.534082,19.176905,22.637598
21.147608,19.654688,21.791162,21.446436,20.348536
18.92373,18.420801,19.29336,18.920801,18.612207
14.431299,16.114405,15.456446,15.32583,16.031641
12.548975,16.250635,14.236231,13.741114,15.294336
13.630762,17.465723,15.060694,15.099512,15.858545
17.27041,17.829004,17.425196,17.639795,17.606592
16.208399,16.889307,16.478907,16.132471,16.999414
14.180323,17.028711,15.734278,15.6019535,16.860743
12.668848,16.867579,13.693506,13.285303,15.239161
14.282373,17.21255,14.868067,14.285791,17.38711
14.925196,17.809717,14.985254,14.556055,16.815577
16.114649,17.474268,17.277979,16.492334,17.848291
15.378321,16.769434,16.56582,16.050684,17.100733
13.423487,15.7167,13.824366,13.94961,13.328516
9.290186,13.302881,11.192774,10.994532,12.511377
11.198633,16.378077,11.878809,11.640284,14.907618
15.341944,17.201319,15.974024,16.352442,16.569971
17.570948,17.562403,17.11587,17.560694,17.318506
16.971094,17.58047,17.414698,16.95498,17.163233
13.522608,16.038721,14.253809,14.045313,14.777246
11.229395,15.051416,12.187891,11.77334,13.562159
11.770655,14.456202,11.767237,11.4667,13.623682
11.995752,15.355616,13.413477,13.612452,14.992823
12.913721,15.619776,12.916895,12.886866,14.7269535
13.412012,15.790674,13.66836,13.360987,15.267237
14.47085,15.793604,15.545313,15.541407,15.651026
14.077051,15.191065,15.340967,15.244776,15.92544
10.106592,14.653223,10.976221,10.610743,13.190821
9.49502,11.884424,10.075098,9.457666,10.911524
10.654688,14.635157,13.210108,13.374659,13.62417
10.141993,13.975733,12.352198,12.187159,13.359278
12.2408695,15.014063,12.433741,13.292871,14.721338
12.25918,14.99502,13.980371,13.336817,14.589014
9.642969,14.631983,11.972315,11.240137,13.268702
10.299219,14.67251,11.127832,10.770411,13.078272
8.971338,13.149561,10.568506,10.378321,11.784082
9.075586,12.319727,7.82583,8.154444,9.806299
8.473536,12.589014,7.6700683,8.176905,11.08169
8.402491,13.167627,8.396875,8.360254,11.82168
9.426905,12.594873,9.821924,9.911524,11.554102
8.714014,12.369776,9.906153,9.975733,10.632715
8.910791,13.669336,10.539942,10.888086,12.537012
11.777491,14.054346,12.245264,11.349756,12.742334
10.012598,13.159815,11.028467,10.975,12.407862
8.569483,11.854639,9.013819,9.312891,10.540674
7.7591796,11.667139,7.9757323,7.973047,10.123194
6.3878417,11.424707,8.052149,8.4613285,10.308741
8.04751,11.058008,9.4474125,8.489161,10.333155
8.2582035,12.466211,8.66958,8.562647,10.317286
7.536279,11.869043,8.772608,8.650049,10.13418
12.271631,13.689112,11.635889,11.604883,13.319727
12.428858,14.385401,12.866358,12.363428,13.980127
11.543604,14.051661,12.751856,12.284815,14.071192
11.371729,15.224268,12.989405,12.770899,15.81875
9.673243,14.452051,10.586084,11.728174,14.449854
11.19375,13.294336,12.029688,11.558008,12.400782
11.514795,14.084375,13.021631,12.891016,13.548731
12.126123,13.919092,13.163721,12.939112,13.110254
11.54458,13.848047,12.179834,11.887354,13.163477
10.212061,13.646875,11.027979,10.962305,12.432032
10.218897,13.762598,9.262842,10.360498,12.099268
9.548731,13.32461,10.868067,10.686914,12.012842
5.921289,11.878077,4.386621,3.8602538,10.240381
4.3407226,10.495508,5.193506,5.4015136,9.507471
5.5995116,11.255274,6.1251464,7.341455,10.191065
7.782373,12.068018,9.875391,9.7755375,10.6542
9.305567,12.524073,11.40127,11.259424,11.121729
8.800684,12.396143,10.445948,10.327539,11.437647
8.760157,12.125391,10.327784,10.243067,11.501612
8.415674,11.852442,9.29336,8.681055,10.755762
7.205957,11.668604,9.284327,8.731592,10.184473
8.775782,12.997217,10.6627445,10.888086,12.124414
9.370752,11.156397,8.118555,7.7433105,9.924219
7.938623,12.629786,10.3033695,10.033838,11.556299
8.139795,11.261133,8.661768,8.418116,9.018213
7.077783,12.001123,9.110743,9.169336,10.710352
8.277491,12.158838,9.751856,9.620996,11.183252
2.273828,8.881739,3.9393554,4.522363,5.935205
