"[299, 255]","[227, 248]","[287, 319]","[279, 328]","[230, 262]"
7.954004,11.016016,7.669336,7.7813964,9.781153
10.736475,12.5255375,11.476709,11.302149,12.184961
10.685938,12.468897,11.1158695,10.882959,12.020899
4.661279,9.359522,5.8802733,5.880029,7.6151366
4.829736,8.800196,4.037988,3.5831542,7.2035155
2.8436522,7.8333983,1.6917969,1.1175781,6.2975097
4.089746,7.6705565,4.0780272,2.8387694,6.372949
3.3756347,7.010156,4.541406,4.1046386,6.0787597
4.8893065,8.183741,5.427881,5.3912597,7.3807616
4.6151366,8.691553,5.5995116,5.240381,7.558252
2.7469726,8.037012,3.7760253,2.9208007,6.6969237
4.343164,7.474756,3.9522948,2.8758788,6.7416015
5.2506347,8.172266,5.358789,5.050195,7.291162
2.541162,7.1239257,3.9496093,3.3802733,6.138574
4.640283,7.253076,5.172998,4.344629,5.7345214
3.542871,7.160547,4.068994,4.0179687,6.579248
1.7062012,9.037989,1.0941406,0.85927737,6.6231933
3.839746,9.059229,3.5838866,3.086084,6.7503905
3.0230956,9.055323,3.57583,2.9254394,6.1083007
1.034082,8.48086,1.7728516,1.4010254,4.689111
-1.8831543,5.089502,-0.77670896,-0.65952146,3.4068847
-0.17001954,4.987695,-1.71958,-2.0215821,2.6129394
0.020166015,4.829736,-1.8047851,-1.9270996,1.8155762
-1.0064453,8.068506,-0.5352539,-0.07114258,4.7467284
-0.26425782,6.3436522,1.4620606,1.2157227,3.955957
-0.21445313,5.759912,2.3990722,1.867334,4.757959
-0.5108398,5.04458,-0.4708008,-1.2129883,3.209619
-3.7930665,6.098779,-2.3479981,-2.7762208,3.3976073
-2.2032228,6.0277343,-0.15903321,-0.07700195,3.4364257
-4.6294923,3.1231933,-1.8667969,-2.6226563,0.53994143
0.13100585,9.967432,3.055078,4.1361327,9.2721195
3.226953,10.093164,4.070459,4.956201,9.301905
1.226709,7.004785,2.937158,2.8368163,4.899072
5.4532714,9.625391,5.959863,5.88125,8.695459
3.9796386,8.36709,4.0489745,3.4444823,6.34292
1.8006836,7.3963866,2.7855468,2.2003417,5.9588866
4.0770507,10.015039,4.742578,3.9032226,9.466455
5.731836,10.005762,6.002588,6.3524413,9.460596
4.6654296,8.953028,5.13125,4.774072,7.6585937
8.446192,10.045313,8.871485,8.778223,9.864405
8.095118,9.981592,8.312403,8.409327,9.888086
4.3490233,7.439111,3.6,4.434961,6.09707
2.4315429,7.532129,3.515039,3.2867675,6.346582
2.0750976,6.753076,0.9867188,0.8866211,4.70083
3.4308105,9.693506,2.5194335,2.8150878,7.9723144
3.2384276,7.9779296,2.4898925,2.5262694,5.55166
2.6515136,7.014795,2.957666,2.6666503,5.273584
2.0118651,7.1881347,2.6498046,2.4098144,5.7694335
3.0157714,8.302393,2.648828,3.504541,6.3370605
3.8541503,8.590479,4.2169433,4.3749022,7.9884276
1.35,6.659326,2.1375976,2.3041015,4.0108886
0.031396486,4.0350585,1.0418946,0.75039065,3.0611815
-1.9275879,2.5873046,-0.5743164,-0.7103027,1.738916
-2.0586915,1.9220215,0.39882812,-0.10336914,1.0519043
-2.8089356,0.9334961,-1.5357422,-1.5066894,0.5733887
-3.200049,0.09511719,-1.804541,-1.8897461,-1.5691894
-5.7359376,-0.39658204,-3.4009767,-2.9200196,-1.2950195
-5.6607423,-0.86972654,-4.69126,-4.3697267,-1.867041
-4.750586,0.43154296,-3.4390626,-3.6077638,-1.1106933
0.07338867,2.5069823,-1.0054687,-0.76474607,1.1014649
0.03017578,2.8751464,0.25258788,0.2328125,1.5309082
-2.4563966,6.458154,-1.9444336,-1.9825195,4.9361815
4.1378417,8.856592,4.690088,4.34292,7.5577636
4.5609374,8.83584,5.0423827,5.068994,7.3600097
5.36416,9.4161625,5.9764647,5.725,8.478907
4.2870116,7.213281,5.029199,4.7245116,6.009912
4.9063964,7.9496093,5.836572,5.449121,7.77041
3.942285,7.7604003,5.4203124,4.8561034,6.3600097
3.6078124,7.174707,4.985986,4.598291,7.280908
3.3597655,7.0399413,6.029199,5.7481933,6.9452147
0.8143555,6.266748,0.8900391,1.2667481,4.4520507
2.9164062,7.3392577,2.3551269,2.7811522,6.273828
3.5912108,8.164942,4.0904784,4.0196776,7.555322
5.0887694,8.125391,6.228662,6.5609374,7.8578124
5.7279296,8.059473,6.2950683,6.242334,7.55166
6.2384276,8.230616,6.7694335,6.650537,7.798242
6.028711,8.260401,8.179346,8.224268,8.2911625
5.5331054,8.615625,7.7958007,8.044092,8.328028
1.7811524,4.7450194,2.0782714,1.8448731,3.7862792
4.1061034,7.801904,6.0538573,6.2015624,6.5868163
6.6200194,8.985254,8.126368,7.82583,8.920313
4.620752,8.455469,2.7452636,4.245752,7.7643065
5.943994,8.5880375,7.9933105,7.796533,8.735743
6.4862304,8.465967,7.6927733,7.693506,8.441797
5.12417,7.0433593,6.218408,6.5438476,7.2291503
4.013574,7.0316405,5.240869,5.0006347,4.9620605
6.8700194,8.830713,7.2662597,6.9291015,8.823389
8.155909,9.319727,8.453028,9.055811,9.852442
8.41543,8.933985,8.89419,8.6783695,9.113916
7.7779784,9.001612,9.755518,9.780909,9.685205
7.581445,8.886866,10.141748,9.713526,10.176905
9.574366,9.98501,9.461573,9.667627,11.996241
5.5855956,8.976709,6.9740233,6.7606444,8.830957
6.7105956,7.89541,7.653711,7.89541,8.683252
7.8888183,8.887598,7.876123,8.271387,9.673731
9.678858,9.067774,10.6542,10.12002,10.873926
8.381739,9.663477,8.517481,8.511621,9.59292
7.235498,8.5863285,8.001123,7.5106444,7.860498
5.0475097,8.439844,6.2049804,6.1234374,7.935449
5.3478026,8.480127,7.4706054,7.5978026,8.446192
7.454248,9.2521,9.568506,8.899805,10.665186
5.749414,7.603906,5.7503905,6.0282226,7.6615233
5.411035,7.0526366,6.266748,6.3702636,6.631006
5.2276855,6.617578,5.5370116,5.416406,6.533838
6.8910155,8.763575,6.633447,7.2882323,9.066309
9.788721,9.712549,11.782862,11.247217,11.8417
8.739405,9.907618,9.411524,9.345362,10.116846
8.1488285,9.265284,8.687403,8.54336,9.861719
5.9728026,9.010401,7.69082,7.421045,8.813623
6.54458,8.895166,7.8841796,8.016748,9.1625
8.579004,9.507959,10.690577,10.477442,11.314356
7.360986,8.97793,8.559229,8.279688,8.753565
4.9288573,7.153955,7.595361,7.484033,7.3612304
6.264795,6.9635253,6.9339843,6.820947,7.113916
6.841455,8.359278,8.426661,8.576807,9.048975
8.096094,9.520166,8.804834,8.781885,11.216944
8.291651,8.824366,8.562159,8.579493,9.178858
8.00503,9.366846,9.535547,9.353907,9.364405
9.767237,9.9769535,10.66958,10.399317,10.788477
12.094873,9.954493,11.374414,11.349512,11.508936
10.032618,9.191309,10.245752,10.268213,10.574121
11.264063,10.375635,12.216211,11.690821,11.525293
10.941065,9.73794,12.051905,11.511866,11.119532
10.656885,9.987452,11.120264,11.095362,11.391504
8.900782,9.880274,10.056055,10.032618,10.450586
9.145411,8.847803,10.535303,10.154444,9.705469
10.275049,9.397852,10.520899,10.924952,11.420557
10.381739,10.368311,11.424463,10.683985,10.431055
10.929834,10.556055,11.449366,11.226709,11.602442
9.945948,9.860987,9.96084,9.821436,10.281153
10.816553,10.083399,12.051172,12.636133,11.498194
9.34878,9.896387,8.891504,9.072168,10.54751
9.770166,9.691065,11.124414,10.907618,12.160547
10.855616,9.4042,7.954248,8.598536,9.060694
8.979883,9.338282,10.140772,10.176416,11.29043
8.012842,8.788477,9.071436,9.375879,10.122217
8.584864,8.8692875,9.377832,9.233301,9.501612
10.754053,10.310694,9.808252,10.043116,11.289698
11.276758,8.8849125,8.364893,7.877832,8.414942
9.593897,9.104151,10.27627,9.969629,8.597315
9.922998,9.035303,9.991602,10.639551,10.278467
10.374903,9.707178,12.1800785,11.6271,11.686182
10.169092,9.318262,10.911036,11.812159,11.474512
10.704004,9.94961,9.219385,8.150293,11.620752
10.365137,10.375147,11.065821,11.048975,11.0846195
9.703272,9.630762,7.5467772,7.6639647,9.229151
8.84878,9.198145,9.766993,9.9042,9.406153
8.920069,8.625147,9.260889,9.727198,9.926416
8.779932,9.264795,6.8524413,6.569238,9.762842
11.3536625,10.501123,13.025293,12.775782,12.126856
8.5064945,9.5411625,10.133936,10.578028,11.124903
10.316309,9.812647,10.271143,10.342676,11.696436
9.6661625,10.541895,11.363916,12.029932,12.47085
10.332911,10.862452,10.173731,11.277735,12.419336
12.300196,10.837549,12.156885,12.149561,12.56045
16.126368,12.684473,12.189356,11.548731,12.811914
16.128565,11.8771,12.556543,12.553858,12.605616
12.923487,11.264795,13.318018,13.614893,13.519678
9.550196,11.301905,10.011133,9.770899,10.903711
7.317041,9.075586,8.25625,8.354883,9.782862
6.741113,8.890039,8.830469,9.191553,9.259668
8.057032,8.710108,8.797998,8.484278,8.609522
6.165918,7.8282714,5.6100097,6.3976073,7.176904
5.832422,8.716944,5.0960937,5.4652343,7.848535
8.395166,8.589258,9.459375,9.551416,9.143702
9.64126,9.89126,9.76626,9.527491,9.609766
11.136377,10.841211,12.003565,12.145411,11.845118
12.915674,10.964014,12.103174,12.813623,13.131983
18.37832,13.640039,17.989649,17.981836,17.724268
17.239405,13.276514,17.881739,17.580957,15.444727
15.068018,12.359278,16.51919,16.166162,15.181055
16.009668,12.942286,16.623438,17.067041,16.225245
15.016748,12.1314945,16.73672,15.399561,14.513575
20.281397,13.381983,19.282373,18.590479,16.424463
19.250635,14.580225,20.175684,19.74917,15.680811
19.149073,15.681299,18.589746,17.029688,16.183985
17.091455,18.352686,12.806543,11.958643,17.450098
15.608545,15.372705,11.327539,11.895899,15.470606
13.241358,15.203028,12.299952,12.969385,14.785303
13.149805,14.298243,13.681299,14.003321,13.986475
14.837549,13.283106,16.317774,17.782618,15.229395
17.271387,14.030664,19.741114,19.600977,16.9938
17.539942,14.223536,19.10586,19.61416,18.588526
16.970362,13.916651,16.250391,17.241114,13.8519535
16.069971,14.144678,17.741114,17.731104,17.40127
16.569727,14.720118,17.752832,17.257227,18.739893
20.950098,15.522852,19.878077,20.078516,20.684229
23.684717,20.67837,24.226221,24.679834,25.885645
16.373682,15.150782,17.862207,17.395899,16.386866
14.186914,15.221582,14.906641,14.952051,15.271875
15.003809,14.411524,14.995996,15.569239,15.590235
13.490625,13.67544,14.796045,14.902491,15.182276
13.853907,13.954981,13.698633,14.153711,12.971338
14.407373,13.433985,13.781641,13.824121,14.27334
15.119043,13.921045,15.672754,15.559473,15.502832
13.967188,13.88711,15.33877,15.018457,15.280176
13.839258,12.776026,14.363672,14.002344,13.310694
12.063868,13.929346,14.701807,13.90835,14.87295
13.175684,13.6896,14.052393,14.541407,14.661036
12.928125,14.074121,14.160303,14.318018,14.2792
13.284815,13.965235,14.396631,14.797022,14.473536
12.411524,12.958155,13.616602,13.385889,13.027979
15.274561,15.17544,16.071436,15.88833,14.396631
17.019434,15.494776,18.182764,17.99624,15.573877
14.3363285,13.982813,18.232569,18.499659,14.912012
14.096094,13.955469,15.862452,15.858057,14.872705
11.674952,12.999659,11.405909,11.284571,12.005518
10.339014,12.128809,11.438868,11.302881,11.694727
11.481592,13.256983,12.648096,12.818262,13.383692
16.079493,14.658106,15.438135,16.235498,15.109034
17.516504,14.274317,16.647852,15.953516,14.053125
12.512354,13.485498,13.160303,12.9752445,13.963526
15.688868,15.371241,17.016993,17.228418,17.890528
15.51626,14.265284,15.526758,15.073145,15.145411
12.899317,13.318018,12.289698,12.74795,14.198145
11.644922,12.775049,12.972071,12.368799,13.277491
12.6314945,13.395411,14.183496,13.537989,14.495996
13.714014,13.719141,15.352198,14.663233,14.722071
14.070215,14.892969,14.4630375,14.050196,14.396143
14.714991,15.143213,14.976709,14.868555,16.45547
14.255518,14.186182,15.7252445,16.342188,15.301661
15.433985,14.923975,17.474268,16.67837,16.376856
14.829737,14.749659,15.328028,16.319483,15.106836
14.534327,14.628321,17.46255,17.202295,16.920557
15.784327,14.752344,16.658838,16.536036,16.069483
15.309961,14.590235,16.753809,16.075342,16.97964
16.450342,15.076807,17.796045,17.303858,15.826319
17.538721,15.715723,17.735743,17.330957,17.380762
12.309229,15.144678,14.339502,14.68545,15.803858
15.483301,15.09585,17.833155,17.814356,14.778467
17.165674,15.138086,19.171778,18.32168,16.230127
18.242334,16.002588,18.0729,17.756983,17.73379
18.648584,16.12124,18.79336,18.204737,16.679834
20.297998,16.345362,19.893213,20.337305,18.403955
21.560938,18.062891,22.358545,22.224512,19.726221
20.515528,17.078028,20.786524,19.744287,17.12124
18.518213,15.794092,18.395166,17.03457,16.647364
15.223291,16.268213,15.386133,14.65127,16.675196
14.06875,15.298731,14.628809,14.936914,15.970606
13.683008,14.3207035,13.413721,13.27627,14.56167
16.298487,15.206934,10.582666,11.302149,18.46206
18.109034,18.00796,17.537989,17.596094,19.494532
20.913965,19.414698,21.097803,21.560694,23.975245
17.974024,17.246973,18.29043,18.44546,18.912012
17.327295,16.547022,16.734034,18.090723,18.629053
17.026514,15.967676,15.802393,15.736963,17.102686
14.416651,15.211084,15.94961,15.5021,16.042383
13.526026,15.600733,14.6896,14.607325,14.930567
15.500635,16.385645,16.866114,16.119043,17.65713
12.555323,16.035059,13.848047,14.060694,15.424952
16.003565,16.94253,17.00088,17.125391,18.712793
16.006006,16.697657,16.80337,16.418848,16.85464
14.018946,15.68667,15.777491,15.135889,16.380274
14.242823,15.475489,15.87417,16.147852,16.28628
15.842432,16.05166,17.206202,16.768702,17.122217
16.695948,17.288477,18.929102,18.902979,19.90542
17.313623,16.595118,17.805567,17.903467,18.401514
19.054346,16.528711,19.821192,19.214258,19.256495
22.393702,18.330957,21.87002,21.3417,19.11001
22.763086,19.54043,24.392237,24.790186,23.373194
24.81167,20.179102,23.42373,23.387842,21.74917
20.405664,17.891504,19.376856,19.9667,17.630762
12.269434,13.921045,14.072901,12.782129,13.561182
8.82461,13.68545,10.468409,10.562891,11.106348
13.343409,14.578028,15.516504,15.847559,15.277979
13.541407,14.221827,15.080713,14.919092,14.334131
17.227442,15.887842,15.570215,16.056543,15.582422
14.099756,16.287012,15.067041,15.067041,15.954004
13.886621,15.854883,15.662012,15.578028,15.132715
16.471338,16.65957,17.420313,17.368067,17.624414
19.169825,19.495996,17.881739,18.558252,20.275293
16.840723,16.64297,16.07461,16.315332,16.88296
14.913233,16.396631,17.28042,15.779932,15.908838
12.416651,15.11709,13.817041,13.33169,15.614161
13.405664,14.923975,14.371241,14.062403,15.401514
13.389795,15.630274,14.388086,13.771143,14.694971
11.382715,14.235498,13.735498,13.257715,14.741846
13.762598,14.716211,15.281397,14.306543,14.652979
13.620264,14.266016,14.152979,13.931299,14.215967
9.911036,13.640772,11.887598,11.958887,13.284571
10.158594,13.494043,11.908838,12.273096,13.022852
9.302637,13.896387,11.362452,10.891748,12.9127445
12.0707035,15.608545,12.918116,13.245996,14.954248
11.431055,14.737207,12.502588,12.585352,13.668604
13.30459,15.869776,12.503809,11.601221,15.702539
10.837549,14.5863285,12.4005375,12.381739,13.646387
13.573145,15.428858,15.161524,15.291651,15.70669
16.839502,15.624659,14.770655,14.739893,14.863916
17.816065,15.74502,16.638575,17.859766,16.5729
19.855616,17.829493,20.625147,20.744043,19.451563
18.961084,18.608301,17.704493,19.045069,21.052149
18.179346,15.8988285,18.669825,18.740137,17.357325
18.690577,17.421045,20.303125,20.459375,20.278467
18.04922,17.166407,19.566797,20.468409,20.818018
13.948633,15.614649,16.017725,15.63125,14.991846
14.368067,14.671045,16.072657,15.628565,14.288965
15.007959,15.689112,16.232813,16.569971,17.466944
14.534082,15.32168,16.024805,16.24209,16.401026
12.235498,15.102442,14.833399,15.114161,14.832178
14.444727,16.963282,15.311426,15.84585,17.567286
15.929346,15.86294,15.397608,15.310694,16.911524
16.13003,18.482813,16.667627,16.797022,19.323633
16.073633,16.65542,17.61123,16.937891,17.980371
11.565088,14.603174,14.136377,14.209864,14.375879
10.302637,13.339014,9.150782,9.45669,12.972559
9.219873,12.812891,9.004541,9.230371,10.571924
11.374903,14.127832,13.034327,12.625879,13.358057
11.335352,13.94668,13.662256,13.0863285,13.407862
10.67959,14.446192,12.407373,12.441797,14.135157
11.7599125,14.872217,12.708643,13.032618,14.68545
11.112207,13.978174,11.815088,11.86294,13.018946
9.254297,13.256983,9.24795,10.172754,11.573877
11.894678,14.782618,11.792383,11.4596195,15.181299
13.389063,14.9942875,13.66543,12.774561,14.4925785
12.638086,15.05752,14.813868,14.687891,14.970362
13.59585,15.236475,14.356836,14.684961,15.345118
14.240625,14.840479,14.621241,14.569727,15.284571
12.452295,15.177881,13.1002445,13.3417,16.174463
8.750879,12.267725,10.159082,10.245264,11.817286
8.808252,12.614161,9.990137,10.111719,11.993067
10.753565,13.114893,10.60708,10.127832,10.823389
10.266016,13.547266,10.647608,10.303858,12.5846195
11.643213,14.5411625,11.339991,10.944727,13.353418
9.918116,13.860987,10.926661,10.500147,12.354639
12.613184,14.719873,12.974512,12.908838,14.583643
13.779444,14.829981,12.939112,12.932032,13.939112
13.303858,15.141016,14.358545,14.165186,15.079981
12.171778,14.355616,13.272608,12.802881,13.654444
12.266504,14.61709,12.913721,13.010157,13.86294
11.152979,13.88711,11.846094,12.024073,12.574854
9.166407,13.456202,10.355616,10.198145,12.240137
9.121241,13.154444,9.965967,9.655176,11.545313
10.142969,14.017237,11.7721195,10.591211,13.23501
12.247705,14.701319,13.441553,13.878321,13.995752
11.308252,14.19375,12.9596195,11.862452,13.399805
11.653467,13.634424,12.055323,12.628809,13.287012
10.052393,13.68252,11.080225,11.020899,13.139063
8.79751,13.080957,11.153467,11.175196,11.559961
9.888819,13.072168,10.954737,10.879541,11.478907
5.529199,11.180811,5.231836,5.915918,9.090479
6.761621,11.913721,6.7987304,5.9688964,8.708887
7.544824,12.597315,7.628076,7.528711,11.244043
6.534326,11.6019535,8.005762,8.042139,8.830469
6.6412597,11.861231,6.8163085,6.7645507,9.439112
7.1532226,11.865381,8.430567,8.243555,10.216211
6.8805175,11.7738285,8.183252,7.576074,8.79458
5.1146483,10.823877,6.61416,5.6915526,8.327539
7.0111327,12.861719,8.255762,8.232569,10.680323
9.539698,12.918116,10.521143,10.036036,12.066309
8.249659,12.640528,9.075342,8.4474125,11.488428
6.0138183,10.958887,6.90957,6.636377,8.235987
7.8629394,11.215479,8.20083,8.156641,8.976465
5.7552733,10.064112,6.242578,6.5179687,7.6649413
5.0160155,10.328516,4.185449,4.353418,8.155176
3.9447265,10.404932,5.1551757,4.4691405,8.272364
9.471338,12.942774,10.676905,10.011133,11.433252
8.226221,11.497705,7.7279296,7.5506835,9.386621
8.321924,12.433741,8.123682,8.4786625,10.738916
9.412989,13.18545,10.051172,9.839258,12.343164
9.4474125,12.84292,9.962793,9.580225,12.3146
