"[299, 255]","[227, 248]","[287, 319]","[279, 328]","[230, 262]"
4.009912,10.731836,7.272363,6.1202636,9.224268
7.457666,11.729883,7.584375,7.5089355,10.621973
10.410303,12.402735,11.669336,11.468164,11.923243
11.221827,12.757959,11.095606,10.847315,11.962793
10.350733,12.385401,10.857325,10.917871,11.63003
4.9242187,9.311426,5.0702147,5.0819335,6.735498
3.022119,8.7269535,3.9745116,3.832666,5.6354003
6.6634765,9.237452,6.8531737,6.349756,7.4205565
7.048242,11.27627,6.3316894,6.08999,9.77334
6.41958,9.645166,5.985742,5.780664,7.5682616
2.581201,9.219385,2.1446776,2.35708,5.610254
1.4703614,10.701319,0.6251465,0.006982422,8.54751
6.8458495,11.607569,6.6651855,6.107324,11.470118
10.115381,12.096827,10.563623,9.688623,11.672022
9.977686,11.982569,9.75625,10.008936,11.9127445
10.278711,12.049952,10.764307,11.215235,11.706202
10.165918,11.746241,11.364893,11.253565,11.51919
5.806543,9.029444,4.7262206,4.277002,7.461084
2.5038085,6.346338,1.9762207,0.91689456,5.209375
3.028955,7.4535155,1.0116211,2.2276855,6.6915526
1.9884278,9.053614,4.9776855,5.242578,6.505029
5.021631,9.511866,6.2989745,6.0645995,7.9364257
6.186914,10.364405,7.613672,7.3368163,9.156885
4.259668,9.176905,6.247705,5.650537,8.153223
7.728906,10.501612,9.140039,9.224512,9.731104
8.225,10.580713,9.482813,9.121241,10.239649
5.4376464,9.708155,6.829492,6.353662,8.382471
3.7638183,8.496973,3.9176269,3.8106933,6.613672
6.7574706,10.6627445,6.378076,6.1673827,9.270655
3.5731444,8.079981,3.782373,3.313867,6.464502
6.254541,10.018213,7.6842284,7.812158,9.460108
6.999658,10.121973,8.389551,8.21377,9.705957
5.119043,9.863428,8.00625,8.187647,9.260889
8.70376,10.465967,10.462793,9.805323,10.779932
6.9659667,10.324854,8.279688,7.858545,9.9042
5.907373,10.719873,8.443018,8.024805,10.893213
5.270166,11.429102,7.689111,7.9139647,11.517725
7.4254394,8.849268,6.2262206,5.930078,7.9378905
4.736963,8.580225,3.7538085,4.380029,7.4586425
2.5025878,7.895166,1.8158203,2.0848632,6.8546386
1.6021973,7.6041503,2.2308593,1.9190918,6.728662
2.7625976,8.668848,6.0299315,6.098535,7.36416
4.9149413,8.989161,7.2066894,6.85,7.952539
4.705713,9.043116,6.6700683,6.671533,8.611475
6.331445,9.189112,3.244287,3.3958983,8.702539
5.1358886,9.815821,4.65957,4.1529784,7.985986
4.5436034,8.778467,2.9146972,3.3983397,7.303369
-1.4192871,4.513086,-0.03793945,-0.13779297,3.6080565
-2.627295,5.162988,-0.12583008,-0.22763672,3.8111815
-3.1270509,4.6166015,-0.64267576,-0.3909668,2.8158202
-0.8592285,7.3600097,-0.055273436,-0.23398438,4.718164
2.0353026,7.346338,1.2523438,0.6930176,6.334131
3.765283,8.1488285,1.2911621,0.6810547,7.8319335
3.079492,7.3055663,2.6302733,2.5990233,6.8473144
1.0462891,7.999414,1.3348633,1.0499512,5.640283
-1.5049804,3.1676269,-1.8667969,-2.0706544,1.4684082
-1.2017578,4.0699706,-0.9332031,-1.4134277,1.8666016
1.5025879,4.155908,-0.6495117,-0.8333496,1.990625
2.445459,5.327295,2.0067382,1.8456055,3.997705
1.2618653,5.6197753,3.661035,2.5287108,5.305322
1.5455567,4.612451,4.96499,3.6815429,4.740625
1.669336,7.056787,3.0257812,2.963037,6.5123534
3.945703,7.4972167,5.586328,5.327539,6.692529
3.3177733,7.021875,5.223779,5.073877,6.044336
2.0902343,6.5765624,3.6463866,3.4981933,4.870996
1.3817383,5.1187987,2.6302733,2.6126952,2.9139647
7.188867,4.625879,0.52333987,0.55751956,3.346826
5.3663573,6.455957,1.1620117,0.91030276,4.534082
2.917871,5.728662,1.8814942,1.7445313,5.0943847
7.641504,9.86709,2.447412,3.2313476,10.243555
8.041651,9.884424,8.73086,8.451563,10.196436
7.4293456,9.797266,7.6168456,7.0455565,10.23794
9.465235,9.38711,9.828272,9.593653,10.402735
8.387354,9.16836,9.135401,9.579981,10.007715
8.109766,9.8675785,9.498194,9.376123,9.950342
8.62417,9.932764,9.512598,9.111719,9.7792
8.385157,9.565332,8.505518,8.63418,9.939112
6.6686034,8.343409,7.4156737,7.294824,8.68545
7.147363,8.641993,7.77041,7.5538573,7.917627
5.579248,8.236963,7.0572753,5.994287,8.084131
4.5387206,7.900293,5.4867187,6.2679687,7.081201
1.3143555,5.2557616,2.5487304,2.7103515,4.2818847
-0.12583008,3.8041015,1.9854981,1.862207,2.9041991
-0.15903321,4.6822753,2.2813964,2.532617,3.2242675
0.6461426,4.09707,1.6908203,1.8983399,2.9344726
2.8104491,8.143213,5.010156,5.567041,7.3055663
6.0487304,8.9457035,6.8705077,7.0711913,8.51333
5.756006,8.392481,7.2726073,6.9447265,8.424219
4.367822,7.5958495,4.9098144,4.5230956,6.782129
3.3932128,6.7174315,4.5589843,4.4811034,6.8426757
5.197168,8.361963,7.535547,7.55874,8.808985
6.916162,8.263086,8.5238285,7.9916015,9.204004
6.247461,8.149317,7.765283,7.551172,7.4745116
5.9134765,8.2167,7.2572265,7.4327636,8.173975
7.752588,9.2130375,8.262598,9.054102,9.580225
9.725489,9.290674,8.096338,8.169092,10.047754
4.534082,8.267237,6.806787,6.5226073,7.803613
4.9361815,8.701319,6.551172,6.719629,8.249414
7.6634765,9.516016,11.182764,10.565577,10.806299
7.836572,9.469629,8.856836,8.8658695,9.855616
7.414453,8.954493,8.4630375,8.443262,8.770655
4.462793,7.4066405,6.6249022,6.182031,7.099756
2.9957519,6.4173827,4.5645995,4.602197,4.830713
0.43325195,4.7691894,0.87416995,0.5296875,3.3863769
2.2057128,6.7467284,2.2835937,2.6234374,5.343408
9.789698,9.183985,10.449854,10.572168,10.433741
10.131739,9.657862,9.282862,9.796534,10.135645
9.80044,9.593409,9.675928,10.395411,10.588282
10.082178,9.871973,9.079248,8.985254,10.660791
7.391748,9.199854,9.812647,9.839502,9.930323
10.17544,13.292871,11.692041,11.568506,14.459131
10.553858,10.7792,10.893213,11.386866,11.680811
9.018457,10.73501,9.897852,9.740137,15.014551
9.199366,9.941797,11.381739,11.634668,12.062891
11.514307,9.822657,9.553125,10.061914,10.690821
8.982569,9.043848,10.228418,9.631006,10.393213
8.033594,8.9474125,8.216944,8.351709,9.23086
5.933496,7.981836,7.0331054,6.5299315,8.321192
5.724756,7.063623,7.553369,6.959375,7.4395995
5.9688964,7.03457,5.9969726,5.0299315,7.1412597
3.0101562,5.933252,5.8768554,5.440576,3.3268065
6.0875487,7.4256835,4.7120605,3.6864257,6.968164
2.120996,8.970362,3.5038085,4.822412,9.732325
8.050928,9.72793,9.156397,9.212549,10.025782
10.973536,9.741358,11.038477,11.673975,11.808741
13.481104,11.310694,15.139063,14.634668,13.674219
11.510401,11.991846,13.030664,12.993555,13.606348
11.714991,12.104883,12.929102,13.533838,13.416895
11.061426,11.342188,11.101709,10.871241,12.344629
13.001123,12.47793,14.232813,14.162012,16.75625
15.57461,11.893213,16.412256,16.426905,15.414209
15.922266,13.143702,17.350245,17.101465,17.792627
16.138819,11.928125,16.90835,16.530176,17.715479
16.399805,10.607325,16.88125,16.245996,12.392237
12.696924,11.140284,14.097559,12.2521,12.745264
11.841211,11.075098,11.9786625,12.437647,13.042383
10.63418,9.704004,11.3189945,11.176172,11.074366
12.166895,10.849024,12.971094,12.939112,12.910059
9.822901,11.074366,11.654932,10.905176,10.991358
12.128809,10.174463,10.104395,9.702539,12.029932
11.830469,10.864893,12.973536,12.364405,11.543116
6.2767577,9.366358,9.096094,9.40542,9.076807
7.7311034,7.922754,8.332911,8.94253,7.1200194
8.8224125,9.8224125,11.289942,11.196924,12.044336
11.026514,10.468897,12.178858,12.007471,11.527735
12.164698,11.606592,12.29043,12.219873,12.932276
15.1644535,11.577539,14.315577,13.720606,13.398096
16.045557,11.356592,16.69961,15.43667,14.226221
16.076563,9.897852,17.660547,17.687647,14.769922
17.82461,12.6817875,18.54165,18.288721,15.015528
17.163477,13.557764,18.536524,18.345118,14.474024
15.171534,13.245264,16.221827,16.25796,17.41958
11.646875,13.441797,12.717432,13.818018,16.708643
10.720118,12.130762,11.957911,12.618555,11.518213
12.811182,11.671289,13.945948,14.747217,13.56875
12.7875,11.639307,12.714502,12.876856,11.880762
7.8299804,10.132715,8.796289,8.984034,10.011133
9.895899,10.913233,10.396631,10.692041,10.594873
13.268946,11.951319,14.443262,14.47085,11.580713
12.722803,11.372217,12.849268,12.630762,13.422022
12.435694,12.039209,13.190088,13.484278,12.540918
10.252344,11.847559,11.843653,11.444483,12.422022
10.878321,11.739161,11.507227,11.5724125,13.954248
13.775049,11.895411,14.187159,14.143457,14.933496
13.435694,11.911524,14.712793,14.168116,14.994043
15.750635,14.53628,16.854883,17.19961,16.455713
18.400537,14.1939945,18.765772,18.825586,19.525782
20.381006,16.87832,21.02627,21.567286,19.968164
18.768946,14.908838,20.139551,21.129053,21.05752
18.059961,14.780176,18.4396,17.56582,16.378809
14.25503,12.943018,14.023096,14.332911,15.006983
10.16958,11.428614,11.087549,11.540186,12.588526
11.032129,12.18545,12.90542,12.8146,13.203516
13.0846195,12.703028,12.110254,13.387842,13.808008
11.921778,12.167383,13.446436,12.680567,14.139551
8.767969,12.203272,10.662012,10.776514,11.252588
10.952784,11.975489,11.720118,12.102198,12.179346
11.974024,12.112207,13.190821,12.797022,13.102198
11.343897,11.224024,12.3832035,12.801172,12.910303
10.50918,10.840479,11.609522,11.11294,11.833155
10.078028,11.419092,9.9317875,9.646387,12.378809
13.559229,11.878077,12.324366,13.545557,12.2582035
7.5560546,12.389795,9.60586,10.354639,12.455469
10.860743,11.967188,11.264063,10.017481,11.214746
15.061182,13.15542,15.760645,16.067041,13.761621
12.000879,12.563623,13.159815,13.212061,13.889795
11.927149,13.396875,13.790186,13.833399,15.794336
11.57168,12.527491,12.611475,12.395899,12.913965
12.805323,13.318018,13.239893,14.382959,15.292383
13.126856,13.396875,14.340235,13.985743,14.417871
11.757227,12.584375,13.85708,13.159815,12.563379
11.544092,13.297022,12.833155,12.577539,13.619776
10.944483,12.26626,10.741846,10.709375,12.74209
10.2269535,11.2113285,11.639795,11.833887,11.385889
10.333643,10.958887,11.061182,10.738428,10.521631
10.358301,11.265284,11.173243,11.208887,11.75503
9.040186,11.346338,10.39419,10.484034,11.419092
10.162012,11.30752,11.862696,12.003321,11.955713
15.216944,13.045801,16.670069,16.409082,16.626123
19.036768,15.511133,20.211573,20.618067,18.949366
18.669825,17.522608,19.248438,19.44839,19.422998
18.856592,17.99795,19.045557,19.571436,18.648096
18.804346,18.584131,19.41958,20.41421,20.08169
23.57046,16.43838,23.534815,24.194239,18.088037
22.01748,18.149317,19.336329,19.54043,20.236963
22.35586,18.63833,23.994532,24.702051,20.665674
23.387842,17.64541,23.968653,25.21255,24.42251
20.761866,14.9942875,20.196192,19.77456,17.018702
18.809229,14.3658695,19.61001,19.592432,18.97085
20.402735,14.281641,16.961817,18.625391,18.181787
20.481104,15.34878,20.021631,20.752344,18.981104
22.742823,15.018213,21.84585,22.214258,21.792871
24.226954,18.29629,23.900293,24.263086,20.472315
15.280664,13.568506,14.628077,15.343164,13.090235
11.95669,14.226709,13.301172,12.255762,13.407129
12.212549,13.653711,13.498438,13.220118,14.725
12.274317,15.069483,14.389551,14.916407,16.862207
13.424463,15.003321,15.443506,15.556543,16.794825
13.694727,14.265772,14.630274,13.819727,15.711084
13.679834,14.840235,15.438379,15.616602,14.815332
13.400782,13.94253,14.47378,14.4439945,14.155176
13.317286,15.049219,14.729639,14.971338,16.210596
15.294825,15.506006,16.681055,16.2792,18.37588
16.186426,16.040186,16.20254,16.973536,16.327051
21.177881,15.885645,17.77212,18.57754,17.453028
14.99209,15.225489,14.723047,14.406885,16.492823
16.313868,15.547754,18.497461,17.571436,16.546045
16.720606,14.8346195,16.529932,16.559473,15.951075
19.25088,16.385157,17.89419,17.461573,17.958155
20.994532,16.882471,18.930079,19.996485,18.481104
17.703516,16.259912,18.945215,17.916407,17.404688
13.251612,16.10171,17.500147,17.35708,17.271387
11.143213,15.774317,13.195459,13.0375,14.602198
14.2894535,16.608545,15.547266,15.4457035,16.529444
17.575098,16.31167,16.483545,15.659327,17.975
15.495264,16.066797,16.445704,16.211329,16.559229
14.183496,15.6349125,15.892725,15.498438,15.802637
12.812647,16.248194,12.886621,13.0292,14.394922
11.8814945,14.04043,11.662989,11.386133,14.620996
14.556543,14.1488285,14.304346,14.293116,14.767481
14.024561,14.392481,14.821436,14.634668,15.439112
12.348536,14.482813,12.881983,13.292139,14.941065
16.54751,15.374659,16.700586,15.860743,16.723536
16.398096,15.579981,15.084131,15.732325,18.174463
19.332178,16.370264,19.78042,19.50796,19.515284
16.26797,16.566065,18.24917,17.513575,17.196192
16.072168,16.643457,15.065088,15.360498,17.934961
18.556055,16.608057,19.261866,19.383936,19.032862
15.4042,17.227442,15.327051,15.082911,17.303125
20.846338,16.691797,16.620996,15.86001,19.653223
15.880518,16.084864,13.055567,13.679346,15.231836
14.2877445,15.278223,13.9667,13.617823,15.005762
13.04336,16.166895,15.032618,14.282618,15.064112
14.687891,16.653711,14.656641,14.096827,17.228418
23.14126,20.856104,21.801905,21.357569,23.323877
22.931787,19.797266,22.606592,22.096094,22.070704
18.106592,17.2604,18.784327,18.439112,17.616846
19.635157,17.480127,19.490625,19.719141,19.955957
19.824854,16.882715,19.502832,18.893702,18.192286
22.30752,21.90005,22.749659,22.48086,25.556543
22.469873,19.356836,21.633448,21.129541,19.489649
18.254297,17.26797,17.283838,17.576319,18.732813
17.88589,17.159327,17.829004,17.251612,19.000635
13.440332,15.779444,14.480127,13.753321,14.860498
12.796778,16.8771,15.855371,15.318018,15.891748
11.471582,14.811914,14.110987,13.766504,14.089258
13.713282,16.943506,15.28042,14.85,16.08047
11.548731,14.999414,15.474512,14.98794,14.699121
12.34585,13.9613285,13.080225,13.183985,13.901758
10.736963,12.720606,11.360498,11.364893,12.802637
12.354639,16.010157,14.39834,14.215967,15.411036
13.429346,15.860254,14.667627,14.049707,15.442774
15.892725,16.370996,15.480127,16.30166,18.939112
21.069727,18.596582,20.49917,19.917383,20.308985
16.126123,15.866846,16.553858,16.193018,16.4313
14.495264,16.008692,14.958887,14.597071,15.563623
17.0021,16.318262,15.607325,15.8067875,16.80459
14.466455,14.613672,12.121973,11.781153,13.550928
15.922754,17.172998,16.344141,16.16958,16.95254
21.016504,17.106592,20.92544,20.014307,18.408838
25.461817,19.339258,23.350977,22.850245,21.059961
18.310938,17.029932,17.359766,18.269922,17.881983
15.877832,16.183496,16.312647,15.282862,16.23379
13.296289,15.923731,13.99795,13.628321,15.743067
16.549707,16.291407,15.514551,15.437403,16.288477
13.673487,16.061914,14.764795,14.970606,15.381739
10.576075,13.627344,12.065332,11.466944,13.101221
10.764063,14.648584,12.050684,11.611719,13.059229
12.548243,15.42959,14.390772,14.194239,14.644678
12.575098,14.650049,13.449366,12.969385,14.245508
12.134668,14.476221,11.990381,11.627832,14.05459
13.23501,15.36709,13.083887,13.059473,16.048243
14.063135,15.472315,14.454248,14.166651,15.025049
16.270166,15.939112,15.552393,15.69961,16.163721
20.382227,18.906641,18.4938,18.12588,20.20791
20.726954,20.81045,21.349756,21.5563,22.844873
18.151514,20.502344,17.158106,18.657862,19.680567
16.830957,19.89541,16.515528,18.318018,18.71792
15.089258,18.502344,15.183252,16.989405,16.793116
16.036524,18.676905,15.543116,18.772852,17.295313
18.371485,17.396387,17.691797,18.368067,18.419092
17.46377,16.45669,16.935694,17.313623,18.722803
18.61831,17.323633,13.8189945,13.403711,16.871973
9.621973,16.23672,10.107813,10.29336,13.169825
11.3502445,17.151026,12.818018,12.549463,17.003077
15.240137,16.790674,17.093653,16.514795,17.865137
16.09292,16.032373,14.751856,14.472315,15.241846
11.762842,14.124659,12.031641,11.529444,13.001612
12.3380375,14.6192875,12.013819,12.007471,13.945459
10.086573,13.907618,11.491358,11.885889,12.338282
11.346338,12.718164,10.588526,10.246485,11.49795
11.549952,13.625879,11.608545,11.047022,12.655176
10.224268,13.844141,11.208155,11.238428,13.269922
8.773096,13.000635,10.268702,9.7738285,11.243311
12.491846,15.500879,13.530664,13.6817875,14.955225
12.632227,15.2755375,12.855616,12.8814945,14.310694
9.5377445,13.024073,10.65835,10.304346,11.827295
9.606836,12.164209,10.305811,9.75503,11.602686
8.881739,11.707666,9.050196,8.59292,10.3067875
6.7367187,10.864893,7.9466796,7.6966796,9.4667
7.1219726,9.847559,6.593164,6.393457,9.119776
8.64834,12.815332,11.216944,10.889307,11.804346
9.732325,12.601709,10.869043,10.615137,12.198145
9.097315,13.545069,8.468897,9.298731,11.973291
11.6505375,14.025049,11.85,11.266748,12.306055
9.752588,13.190332,10.415186,9.87417,12.690332
10.724268,13.828028,12.128565,12.141993,13.4942875
10.117334,13.07583,11.247217,11.246241,12.617823
7.9637694,11.806055,8.836573,8.320215,9.284327
8.479883,11.753077,9.382471,9.477198,10.846827
9.130274,11.498926,9.68545,10.1661625,10.881739
8.355371,11.966455,8.869776,9.194971,10.285547
6.115869,10.553858,6.968408,6.8722167,8.707666
10.657129,13.854883,11.7167,11.501368,12.6783695
7.6219726,12.067041,7.2350097,7.745752,10.123682
6.0523925,11.602442,6.657617,6.3993163,8.412012
10.429834,13.417627,11.206934,11.040918,12.289209
7.6791015,11.373438,8.580713,7.9725585,9.913965
5.395166,11.408594,6.1461425,6.8004394,9.074366
5.3702636,8.89419,5.1183105,4.9654784,6.0296874
5.655908,9.3519535,4.815332,3.8827147,7.4220214
9.06045,12.478907,10.008692,9.761621,11.645411
5.5145507,10.816553,6.2848144,6.3731933,8.408106
10.376368,12.871485,11.285547,11.265772,12.277979
8.8675785,12.393946,9.044825,8.893213,10.684229
5.3126464,10.471582,7.032617,5.3756347,8.755518
3.206201,8.9161625,2.577539,2.5501952,6.8148437
9.312159,12.485743,10.533594,10.485987,11.741846
7.721826,11.667383,7.6371093,7.787744,10.3033695
8.498438,12.864893,9.179102,9.057764,11.562647
4.7455077,9.114893,5.9964843,5.771875,6.747705
4.807031,10.612452,5.988916,5.9742675,8.602442
8.092188,11.609522,8.967188,8.664698,10.453028
5.02041,9.923487,5.5904784,5.6812987,8.011621
4.27749,9.146875,5.3094726,5.032129,7.365625
5.249414,10.545069,5.394922,5.2520995,8.311182
2.1710448,8.123926,2.4408202,2.2745605,6.110742
0.9237305,8.258936,1.8314453,1.1900879,5.3246093
5.897363,11.576807,6.216699,6.103906,10.407862
3.6541991,8.620996,4.338281,4.051904,7.2577147
