"[299, 255]","[227, 248]","[287, 319]","[279, 328]","[230, 262]"
7.112451,11.399805,8.251856,8.33169,9.90835
5.5545897,10.74795,6.8231444,7.553613,8.577295
6.0819335,10.436182,6.9049315,6.87124,8.586817
5.150537,9.921534,6.2594237,6.2223144,8.016504
4.3565917,8.6505375,4.820459,4.784326,6.909326
0.98476565,6.625879,-0.17001954,-0.20957032,5.0892577
0.1480957,5.286035,0.49941406,-0.086279295,3.3314452
1.6153809,7.1893554,3.8856444,3.6236815,5.574365
2.7157226,7.9046874,1.3563477,1.8597656,5.5992675
1.3531739,9.182276,1.9093262,2.2413573,7.813623
2.7179198,10.329737,1.9312989,2.7584472,8.920801
1.9139649,7.918115,2.2264647,1.6427246,6.289453
2.2862792,8.817041,1.4984375,1.9027344,6.6146483
6.1043944,10.209864,7.2572265,7.5108886,8.679834
7.5804687,10.357813,7.798242,7.8631835,9.672998
5.926904,10.323877,6.108789,6.266748,9.741114
5.06875,9.638575,5.202539,5.3058105,8.277491
4.751611,9.11709,5.990869,5.5492187,7.3253417
0.41542968,6.2489257,3.9469237,4.035547,4.223779
-0.9373535,5.65957,1.1625,1.1805664,2.4666991
1.1634766,7.617578,2.2594237,2.990625,5.1546874
4.4652343,9.487696,4.961084,5.058252,8.127344
5.2054687,9.824366,5.9496093,6.11416,8.424463
5.7020507,9.429834,5.8663573,5.504785,8.35293
4.7325683,9.705957,4.5995116,4.6703124,8.116602
4.738916,10.024073,6.400293,7.2555175,9.399073
3.911035,9.6939945,4.907373,4.6690917,7.275781
4.4640136,8.109766,2.494287,2.73916,6.9271483
3.011621,6.459375,3.3521972,2.6830077,3.9569335
0.271875,5.9652343,0.60146487,-0.07138672,3.824121
4.6187987,10.591944,7.6395507,7.1527343,10.201807
5.6585937,10.641016,7.5838866,6.610498,9.903467
4.7733397,9.088526,5.775293,5.721582,7.5836425
1.9249512,8.135889,1.7435547,0.6622559,5.572656
-0.12314453,6.221826,0.6532227,0.2940918,2.3421874
-0.10874023,6.2210937,1.6195313,1.1375977,3.9937987
3.9625487,9.683496,3.8546386,3.9139647,7.9479003
2.6810546,8.13711,2.7018065,2.2308593,5.9774413
3.898828,10.601221,3.7293944,3.1183105,9.1314945
5.8114257,10.23208,2.6371093,2.345117,7.9115233
1.0633789,4.885156,-0.31552735,-0.3326172,3.4642577
0.9398438,6.8807616,1.0768067,1.1124512,4.8299804
3.13833,9.455469,4.4742675,2.846582,8.484278
4.249658,8.79458,4.6168456,3.7411132,6.955713
2.9408202,7.4693847,1.377832,2.4825683,6.903711
2.838037,6.4608397,2.7645507,2.8497558,5.7308593
2.2552733,5.7696776,2.8055663,2.5941405,4.1
2.5299315,6.0716796,3.4637694,3.9007812,5.4710937
0.9737793,3.9398437,2.4391112,2.589746,3.7674804
0.7157227,3.4801269,2.098535,1.648584,2.4513183
-1.5015625,1.3668457,0.9881836,0.70229495,0.3416992
2.0177245,7.5094237,3.1388183,2.4054198,6.1341796
0.7340332,5.483789,1.763086,1.5257813,3.7831054
5.443994,10.024073,6.1603026,5.3807616,8.842676
3.7257323,7.547998,4.0907226,3.5970702,5.6878905
2.9720702,6.9481444,3.501123,3.3331542,5.1722655
2.6793456,6.740381,2.9112792,3.1046386,5.48208
2.6952147,8.099268,3.5355468,2.820459,6.4015136
3.680078,7.6527343,4.7606444,5.079248,6.6649413
6.211328,9.000391,5.8890624,4.815088,8.418848
4.848779,8.678614,4.9393554,4.5194335,6.8597655
7.5267577,10.052637,8.182764,7.769922,9.217188
6.985986,8.969873,6.9549804,6.588281,8.21792
5.1620116,9.1625,6.089502,5.3736815,7.501123
4.7052245,8.785303,6.140283,5.883203,7.390039
4.3424315,8.652246,5.23916,5.1163573,6.966699
5.0108886,8.00625,5.5350585,5.464746,7.6639647
7.4061522,9.876368,7.369043,7.691797,9.186914
4.348535,7.109033,3.7984862,3.546289,6.06582
2.7987304,7.370752,2.6368651,2.6224608,5.9759765
5.7274413,9.776026,5.139795,4.836572,9.137842
3.9974608,7.2552733,5.544824,5.136865,6.8458495
0.5375,6.851953,1.19375,1.0318848,3.8998046
1.1922852,5.804834,2.1307616,1.8910156,5.0489745
-0.047460936,4.7413573,1.7015625,1.3746582,2.725
-0.5989746,7.611963,1.0401856,0.56533206,6.046045
4.9969726,9.120264,6.282373,6.396631,8.447168
9.129786,10.348536,9.020899,9.289209,11.289698
8.326807,9.169092,9.607813,9.424219,10.235743
7.0680175,9.330469,8.124903,7.8558593,9.367334
5.9728026,9.199366,7.423242,7.348291,8.493799
3.7223144,7.6864257,5.0475097,4.7657714,6.6043944
4.1478515,6.990625,5.209619,5.326074,6.5316405
3.6363769,6.8739257,4.0956054,4.2503905,5.9098144
3.367578,6.0450683,4.1063476,3.8573241,4.348047
2.726953,6.755029,3.6563964,3.1581054,5.8873534
2.7921386,5.8548827,3.2328124,3.522119,4.9156737
0.81533206,4.924951,2.6117187,2.6883788,4.3338866
-0.06748047,3.2647948,1.5035645,1.3729492,2.488916
0.97280276,3.7137694,2.971826,2.9327636,2.815332
3.1605468,6.4356933,4.9967284,5.005029,5.0348144
2.648584,5.9410644,4.4120116,4.082666,5.7367187
1.9378906,5.535547,3.9374022,4.2328124,4.8912597
1.8524414,6.567285,3.6219726,3.8731933,5.728662
3.8082519,6.766504,5.754785,5.4342284,6.2469726
4.326074,8.463526,5.1969237,6.1151366,7.4811034
8.047998,8.9300785,6.48208,6.409082,9.218897
10.970606,10.028711,8.48501,8.798487,10.982325
8.135645,9.045313,10.036036,10.2425785,10.07168
8.500879,8.422266,9.306543,8.8832035,9.183252
8.149561,7.963281,6.3836913,7.6483397,9.832422
7.2638183,8.551905,7.9535155,7.9344726,8.8380375
3.053125,8.177637,4.254785,4.8854003,7.023828
1.9073731,6.2884765,3.407373,3.4696288,4.7577147
4.206445,6.5387206,5.2594237,5.1170897,5.652246
6.355615,8.902491,7.491113,7.303369,9.188379
8.726465,9.791651,7.610742,6.995996,12.003077
10.712305,9.190332,11.437647,10.584131,11.575098
6.025293,8.862696,7.501611,7.5294433,7.9469237
7.5577636,8.584131,9.348047,8.633692,9.853907
7.9828124,9.780909,8.284815,8.541895,9.81045
5.242578,8.740137,6.727197,6.8612304,10.493555
9.387842,10.49209,10.33169,10.32168,11.097559
9.245752,11.126612,8.089502,9.616114,10.74795
7.327783,8.549707,8.858545,8.664942,10.209131
10.37002,9.552881,10.641993,10.981348,12.4144535
11.5221195,9.045801,12.598291,12.242823,12.146387
8.995752,9.718653,11.105127,10.49917,9.888086
12.235498,10.360743,12.306055,12.385889,13.062891
11.900049,10.494043,11.519922,12.04751,12.010889
9.435938,10.070215,10.191309,10.014063,11.184473
8.018946,9.751856,9.883448,9.75918,9.263819
13.725977,12.1175785,12.92251,12.48086,12.895655
15.045069,11.801661,12.221338,12.285547,12.791407
10.538721,10.158106,10.189112,10.957422,11.008936
11.445948,10.696436,11.91958,11.88003,10.740137
12.582911,10.44253,7.976953,7.4791503,9.72793
5.6166015,9.63833,5.275781,4.782861,8.395899
7.975,7.6637206,6.7848144,6.3060546,6.9120116
8.049219,7.9552245,5.19082,5.275537,7.341455
9.473047,9.972559,9.692041,9.684473,11.025293
9.135889,10.737452,9.717676,9.549707,10.096094
13.309473,11.413965,13.931543,13.809473,12.320948
11.253321,12.017725,12.70376,12.312159,12.039209
10.003077,9.826807,9.78628,9.391504,9.919825
9.839502,8.760401,9.530909,9.637842,10.765039
7.6046386,9.06875,8.729151,7.808252,8.532618
8.989649,9.527979,10.949854,10.76333,10.205225
8.609034,9.716455,11.597315,11.576807,8.85
10.325098,9.670069,11.058741,10.938623,11.082666
7.8163085,9.85,9.239161,8.721827,10.690577
9.678125,10.854395,10.135157,10.530176,11.297022
11.08169,10.498926,11.744532,11.407862,11.557032
9.833155,10.9752445,10.781885,10.656641,11.552393
10.475733,10.331202,11.406885,11.120508,12.448389
10.569483,10.9125,11.358789,11.181543,12.873438
11.339258,11.033838,12.404688,11.893457,13.362452
12.159571,11.076075,13.616846,12.350733,11.964502
12.536036,11.007471,13.147852,12.553614,12.402002
11.2096195,11.19253,12.123926,11.998926,12.531885
10.56167,10.302881,10.714746,10.698633,10.625635
11.451807,10.974268,12.263575,12.29043,12.639063
13.091455,11.740381,13.426905,13.118067,13.995508
12.276758,12.482325,12.630762,12.14126,12.812159
11.132471,11.006983,10.581446,10.035059,11.833643
9.294336,10.0533695,10.70669,10.310938,11.042627
11.093897,11.572168,12.108301,11.609034,10.991846
10.844385,11.534327,11.7755375,11.07876,13.104639
15.441797,11.82583,14.630762,14.873438,13.985498
18.150293,15.561182,19.517237,19.514551,19.004541
20.547022,13.648096,18.732569,19.780664,16.965723
21.304346,16.670801,21.412745,22.021631,21.454493
20.46377,17.87832,21.421534,21.226465,23.05044
18.655909,12.732813,18.580225,17.608545,13.587793
9.76626,12.087549,10.837305,10.370264,12.250635
11.406641,11.471094,11.791407,11.354883,12.037256
10.611231,12.458155,12.70083,12.897364,13.274561
12.174952,11.734766,12.537012,12.190821,12.307032
16.54336,16.463037,16.083643,15.924952,16.647608
10.875635,13.735987,11.6314945,12.210596,14.185938
13.086573,12.423243,11.270166,10.379053,14.249414
14.293116,14.718164,11.832178,10.541895,13.849024
18.168848,16.357813,15.103418,15.365381,18.833399
21.135157,16.87295,21.44839,20.97085,20.737207
23.020166,14.395899,22.287256,21.911524,17.550684
18.184473,13.990381,18.887842,18.481592,16.784082
14.800196,14.258692,17.678614,16.842676,16.283838
13.759424,13.868067,14.8417,13.097803,15.345118
13.173487,13.050196,14.373926,13.980371,13.669336
15.752588,13.746485,13.945459,14.312159,14.514551
20.866846,14.524805,16.639551,16.99331,16.37124
15.674463,13.932764,16.208643,15.5689945,15.7269535
18.141748,14.439844,19.100977,18.917871,16.944483
12.811426,13.291651,14.1,13.864405,14.291895
12.87295,13.000391,13.994043,14.172754,13.859034
12.425684,12.813868,12.359522,11.861719,12.167871
13.91543,13.583887,13.602442,13.159571,14.188135
18.698633,16.008448,17.234034,17.324366,17.14712
16.124414,13.796289,15.747461,15.703028,15.924952
17.809717,15.797266,17.741358,17.700586,17.643702
22.20376,16.984766,21.925684,21.46377,19.725733
24.101465,20.391748,24.998438,24.843897,26.307764
25.398096,20.138086,26.215479,26.190088,27.193995
25.418848,21.455225,26.486963,26.864649,24.749414
25.018213,21.808008,23.883448,24.058008,28.248926
28.391016,21.130274,26.932276,27.356836,25.921778
26.736475,19.540918,25.10293,24.30874,19.846094
25.873438,21.73501,26.41128,27.021387,29.308496
30.853907,23.090479,28.975489,31.312891,28.589746
19.710596,22.05166,17.40249,19.143946,21.723047
19.939112,19.718164,18.521631,19.550928,19.48623
20.784327,20.156153,20.522608,20.872461,19.997705
22.564356,18.659082,22.976954,22.633448,22.805567
23.014795,19.457178,21.08047,21.275293,19.485254
21.499414,20.568262,20.202051,20.311426,18.264063
27.155664,21.070215,24.783106,26.230371,24.809473
20.060938,18.163477,18.140772,18.351465,18.977442
16.042383,16.974756,16.132471,18.018213,16.31045
21.535791,19.579493,18.47207,19.04922,19.968409
19.072168,18.278955,17.732813,17.167383,17.721338
15.618311,17.345362,16.1,16.2604,16.607325
17.495264,18.64126,17.136133,17.236475,18.76504
16.925684,18.530664,16.495752,17.725,16.325342
20.136866,18.115625,20.919825,21.062403,20.18838
20.297022,17.805079,19.438623,20.695948,18.74795
17.45376,17.591944,15.566553,16.743067,17.482569
18.860498,17.813135,17.801416,18.901758,18.90835
19.906885,18.630762,20.955225,19.794336,20.844141
18.22085,17.888086,18.753809,19.165674,19.52212
19.397852,17.987696,19.51089,19.656153,19.553858
17.261133,18.302149,17.39126,17.914454,17.937403
17.557032,17.65542,19.746973,20.116846,19.153711
15.876368,15.622217,18.208887,17.742579,15.729639
15.523584,15.687159,15.393213,15.390284,16.71792
17.14956,16.132227,17.661036,17.564844,16.41543
15.732569,16.412256,15.319727,15.209131,15.95669
16.21499,16.557764,17.29751,17.559473,18.664942
15.727198,16.738184,17.849024,17.752588,17.411036
19.211817,16.949121,18.95083,19.162745,18.961084
14.802881,17.661768,16.553614,16.275537,18.37588
16.302881,16.453028,18.481348,18.751123,17.99209
17.748682,16.7438,18.22671,18.706446,18.790674
17.799952,16.75332,18.69546,18.465723,18.008448
18.23794,16.797266,19.4667,19.823145,18.011866
18.901514,17.092188,18.511133,18.67129,19.554346
17.678125,18.474756,15.711817,14.9596195,18.593897
18.658838,16.929834,18.548975,18.652735,18.045313
18.396387,17.916407,16.91665,17.559229,18.21792
16.756006,17.420313,18.044092,17.666895,18.00918
16.017237,16.757227,17.226954,16.812891,16.19375
14.659815,17.42251,16.44668,16.63833,17.278955
17.269922,16.933252,17.551905,17.48916,18.633692
17.368067,16.631495,17.324366,16.741602,17.312159
16.340967,16.975489,16.949366,17.347559,18.174952
16.725733,16.831446,17.559229,17.026514,18.311426
15.74917,16.542627,16.863184,16.757227,18.27627
16.522852,16.195948,17.277979,17.360254,18.15542
16.97378,16.444239,16.671778,17.369776,16.47671
15.372461,16.902002,17.366114,17.043848,16.951075
16.868555,16.838282,18.333887,17.26333,17.675196
14.732569,16.679346,17.064112,16.370264,16.28213
16.505518,17.128565,17.661524,16.963526,17.579004
15.943506,16.345118,16.567041,16.309961,16.58706
16.086817,16.125635,17.046045,17.007715,17.191797
15.559961,16.111963,17.311914,17.14712,17.6625
15.966455,16.886866,16.702295,17.531397,17.916895
17.19082,16.622705,18.839258,18.264551,17.421778
18.542871,17.199366,17.985498,18.229883,17.65005
16.694971,16.896875,17.756495,18.037745,17.93252
16.937159,16.685694,17.356348,16.61709,17.806787
16.93374,16.55874,16.385157,16.807032,16.851221
16.405909,16.729395,16.30459,16.570948,17.547754
17.675928,16.454004,17.329493,17.35464,17.287012
17.952051,16.905664,15.747461,15.830225,16.731836
15.612207,17.124659,16.455713,16.33755,17.818018
17.071436,17.026026,16.669825,16.817286,17.35415
14.901026,16.843897,16.07168,16.063135,16.443995
15.2738285,16.50625,16.688868,16.840235,16.205713
14.058741,16.695948,15.490625,15.096338,16.848047
15.491114,16.354395,16.511866,16.061914,16.750147
16.719385,16.31753,17.899073,17.725489,17.03213
16.220606,16.23208,16.303858,16.342432,16.549952
16.254053,16.656397,15.612207,16.165918,16.874414
13.67251,16.40005,14.589991,14.287256,15.970606
10.753565,15.120752,13.171045,12.358301,12.254786
9.36001,15.003809,14.273096,14.66836,12.307032
10.750635,15.019434,12.747461,13.892481,12.448633
9.9161625,15.19961,12.324854,12.719873,14.825342
14.771143,16.754053,15.658106,15.291407,16.720362
15.516016,16.864893,15.038965,14.707178,17.427393
16.48672,16.206446,17.683496,17.049952,16.825342
16.172266,16.183496,17.099512,17.549952,16.642725
14.323145,15.613428,15.126612,14.716211,14.929346
12.877832,15.937647,13.664942,13.893213,14.739649
11.927637,14.629786,13.407373,13.548243,14.381983
11.602442,14.967432,13.814844,13.659571,14.165186
11.271143,13.919092,12.6800785,12.5221195,13.428614
10.527735,13.319727,10.731836,10.723536,12.436426
10.620508,12.688623,11.3849125,11.261133,11.737696
10.927881,13.048243,12.016748,11.713282,12.131983
11.808008,14.972071,12.2738285,12.380274,14.089502
15.624903,15.848047,15.33584,16.37002,15.907129
12.005518,15.367334,14.110987,13.887842,15.600489
13.161768,14.691065,13.7130375,13.539698,14.757471
13.092676,14.454004,14.21792,14.000391,14.460108
14.453028,14.811426,15.002832,14.497461,14.637842
14.575098,15.60293,15.660303,15.400293,15.132959
14.710596,16.297266,17.144922,16.491602,16.057276
12.121485,15.05044,14.265772,13.812647,15.196924
12.625879,14.721582,14.140284,13.8363285,14.510889
10.5689945,13.777735,12.4125,11.880518,13.524561
13.95669,15.503321,14.281397,14.405176,15.1271
13.372705,14.293848,13.7738285,13.089502,13.823145
12.476221,13.805567,12.544825,12.0550785,13.485254
12.405664,13.889307,13.847071,13.6505375,12.942041
11.608301,13.839014,12.562403,12.531885,13.828028
10.109278,13.707911,13.880518,13.587305,13.792383
9.982813,13.414698,12.635157,12.517725,11.956446
10.71084,13.72793,11.26333,11.231348,12.745752
11.470118,13.725,12.029688,11.810938,13.696924
12.013086,14.113428,12.625635,12.402979,13.802393
12.278223,14.395655,13.065821,12.941797,14.3971195
10.491602,13.454004,12.29336,12.367823,13.149561
11.305811,14.532862,11.48208,10.247461,13.850977
14.612696,14.961817,14.183985,14.350733,14.628321
14.36294,16.301172,15.226465,15.189844,15.567286
12.059229,15.631006,12.319971,13.112207,14.505762
14.871485,15.99917,14.318262,14.31753,16.155664
15.097071,16.153955,16.769678,16.979395,17.736475
15.021631,14.59878,15.504053,15.164209,17.109278
10.335108,13.231836,13.033838,11.268946,13.319727
8.864649,12.451563,11.232813,11.673243,11.371729
11.166407,13.860987,12.71792,12.587305,12.214014
8.946192,11.739405,9.771143,9.573389,11.284571
8.456934,12.79458,10.60293,10.512598,10.870264
8.664209,12.129297,10.830225,11.106348,11.271875
8.694483,13.779444,12.286524,12.261377,11.850733
9.0292,14.737696,10.940332,11.520411,13.300196
7.1703124,12.333887,12.154932,11.627344,11.044825
8.684473,14.176661,10.644434,9.733789,13.433741
9.659815,12.69253,10.86001,11.111475,12.30459
11.867823,14.121973,12.439112,12.029932,13.48794
10.833155,13.543116,11.534815,11.341944,13.184717
11.5880375,14.056055,12.565577,12.047266,13.315577
12.547754,14.09292,13.5082035,12.674463,13.470118
9.629786,12.546289,9.909327,10.136621,11.25503
8.30752,12.069727,8.905909,9.003077,10.207911
9.624659,11.597071,6.959131,6.114404,9.728174
6.5902343,10.688623,7.0382323,6.9395995,9.034571
6.8336425,11.940577,7.3651366,7.2520995,10.13125
11.423243,13.387842,12.010645,11.971827,12.982569
9.55044,12.521875,8.660791,8.481592,10.476465
6.2108397,10.77334,6.875879,6.9479003,9.673243
4.202783,9.29458,4.6637206,4.0370116,7.06875
4.793115,7.394922,3.831201,2.8775878,5.59707
3.0162597,7.7142577,4.9588866,5.000879,6.0106444
4.658838,8.146631,6.454736,6.3756347,7.69375
7.0572753,9.570459,7.902002,7.3907714,8.723536
5.1214843,9.0099125,5.6405272,5.343164,8.282129
3.4911132,7.9342284,4.8680663,5.109033,6.7518554
3.657373,7.3683105,3.9679198,3.254785,6.1324706
6.161035,8.941309,7.8250976,7.683496,8.218409
6.5348144,9.284327,8.620508,9.030176,8.078272
7.4757323,9.472071,9.116602,8.885645,8.107325
5.9605956,8.987696,7.9452147,8.104639,7.752588
4.8592772,9.26211,6.681787,6.549463,8.058496
4.7071776,9.870508,5.4012694,5.2975097,8.620996
4.858789,8.861231,5.7811522,6.2140136,7.7936034
5.2750487,8.795801,5.4920897,5.674951,8.155909
4.610742,8.48086,6.3805175,6.313623,7.6092772
