"[299, 255]","[227, 248]","[287, 319]","[279, 328]","[230, 262]"
1.6083008,6.4430175,2.7491698,2.329248,5.2958007
-0.078466795,6.3268065,1.5726563,1.2689453,4.9864745
1.4134766,8.59292,3.706201,2.8524413,6.3736815
4.7730956,8.774561,5.2118163,4.7953124,6.8700194
5.7572265,8.513819,3.3316894,3.258203,6.8351073
2.8858886,8.069727,4.249414,4.358789,6.839746
0.8114258,6.191797,1.5440918,1.5609375,4.4896483
0.18007812,2.5641112,1.490625,0.35146484,0.82241213
1.2643067,4.530908,1.4994141,1.1275879,2.2779784
0.8624512,5.4608397,1.3070313,1.0238281,2.1788573
2.065576,6.228906,2.5536132,2.6791015,3.8719726
2.285791,6.94375,1.8666016,2.3685546,6.551172
1.2760254,6.9325194,2.0101562,1.9508301,5.9061522
0.21743163,7.327295,1.1900879,1.1783692,4.811914
3.4066405,9.691065,5.7142577,6.77041,8.801172
5.1322265,9.714258,5.8058105,5.5626464,8.835108
0.43911132,7.3592772,-0.5574707,-0.21567383,6.046045
4.150537,9.493799,4.970361,3.9132323,9.045801
4.192529,9.1019535,4.5416503,4.853662,6.9276366
2.1114745,8.998194,5.558496,5.650293,7.0919433
5.7796874,9.656397,6.744287,6.59292,8.618555
2.6041503,7.4981933,3.6993651,3.3653808,5.775293
-0.1919922,7.005029,-0.20249024,1.209375,5.3114257
2.259912,8.027979,2.5404296,1.6681153,5.9583983
2.5375,7.1407714,1.8001953,1.7538086,5.3265624
-0.06845703,6.256006,0.35195312,0.8192383,5.0702147
0.17495117,4.8268065,1.6297852,1.0172364,3.8341308
-0.62875974,4.416162,0.1661621,-0.2828125,3.3651366
-0.9715332,4.063867,0.410791,-0.081884764,2.4393554
-0.4690918,3.640283,1.0167481,0.44814453,3.1388183
-0.1763672,4.447656,1.0868164,0.038476564,3.226953
-1.1182617,5.961084,0.73476565,0.30654296,4.5350585
1.2047364,7.796045,3.0223632,2.7716308,7.042627
1.6222168,6.6234374,2.2145019,1.8233887,4.5387206
0.9088379,6.9723144,1.4640137,1.5123535,3.9171386
1.4374024,6.454004,1.1656739,1.5648438,4.459131
1.1036621,5.429834,0.9256836,0.51064456,4.4115233
-0.22128907,4.869043,0.92763674,0.8917481,3.6026855
-1.3736328,3.9220214,0.42666015,0.20839843,1.7166992
-3.4544435,0.46865234,-1.0760254,-0.87338865,-1.1341308
-2.49375,1.8619629,-0.56821287,-0.18466797,0.9046875
-3.040625,1.2257324,-1.2581543,-1.2391113,0.31264648
-6.155127,0.6131836,-2.2117677,-3.137793,-1.1270508
-3.3750978,4.963037,-1.6397461,-1.9141601,2.6900878
0.3163086,6.50625,1.3961426,1.0824219,5.2467284
-0.8077148,5.4864745,1.3946778,1.0916992,2.6930175
-1.6890625,2.515283,-0.21396485,-0.18295899,1.3324219
-2.1033692,2.8568358,-0.70322263,-0.94980466,1.5433594
-1.334082,4.166162,-1.3006347,-1.5188965,3.2447753
-2.840674,3.240869,-1.8213867,-1.8450683,2.1832519
-2.0188966,2.0833983,-1.0630859,-1.2813476,1.4615723
-3.840918,1.0204102,-1.0496582,-1.3973144,0.5475098
-2.4959474,1.988916,-0.58383787,-0.8755859,0.8028809
-4.1348634,1.5428711,-1.5826172,-2.021338,0.017236328
-4.9705567,1.6046387,-3.971045,-3.858008,-0.41342774
0.2936035,5.338037,0.12636718,0.38417968,3.484033
1.0084473,4.903955,1.6244141,1.4806153,3.0992675
0.94570315,6.0211425,2.3089843,2.749414,3.8231444
4.6720214,7.2625976,3.6866698,3.4332519,8.150049
3.5074706,6.0233397,4.239404,3.2989745,4.6151366
1.8167969,7.089502,3.7486815,3.8775878,6.162988
1.966211,6.793115,3.3026366,3.3353515,5.3788085
3.5953612,6.893701,4.518457,4.5973144,7.2499022
2.883203,7.066797,4.372705,5.4845214,6.9847655
5.291406,7.646875,6.442529,8.038233,7.9410644
5.2276855,7.5606933,6.4430175,6.189111,7.176416
3.1385741,5.874658,3.3038573,4.366113,5.55166
0.74501956,6.626123,2.8551269,4.19082,6.4068847
3.1063476,7.021875,5.06582,5.449365,7.046045
5.86416,8.2738285,7.372705,7.9149413,8.387842
7.885156,8.519922,9.487207,9.651514,9.548975
7.2333007,8.517969,8.23086,8.368555,8.669336
3.065576,6.3321776,4.8475585,4.480615,5.68667
-1.1443847,3.916162,-0.79648435,-1.0157226,2.2342772
2.0997558,6.898828,3.867578,3.7872558,5.4603515
2.2879882,7.10708,4.1371093,4.1046386,6.7933593
2.7491698,5.7760253,3.285791,3.1473632,4.5333495
3.3949218,7.3319335,5.4762206,5.411035,6.0492187
0.1415039,6.1131835,2.1268554,2.4693847,4.839502
0.16396484,3.8028808,1.9532715,1.3751465,2.3238769
2.438623,6.584619,3.4483886,4.7638183,6.084863
8.000879,8.287256,8.764063,9.110254,8.707911
7.576074,8.9125,8.906885,8.65127,9.748926
6.361963,7.898584,7.5558105,7.285791,8.728174
6.934961,8.1644535,9.692774,9.84585,10.310694
8.803858,8.484034,8.602198,8.770899,10.029932
3.4654784,7.1773925,5.470117,5.1480956,6.0538573
0.2928711,5.084863,0.7987305,0.7057129,3.9112792
-0.5953125,2.650537,0.28237304,0.35805663,1.8666016
-1.2400879,3.7828612,-0.5364746,-0.35947266,2.1249022
-0.25351563,4.510156,0.5384766,-0.042578124,3.159082
-1.1775879,2.532617,-0.4185547,-0.65341794,1.8832031
0.61928713,4.1966796,2.0904784,2.1427245,3.63833
1.25625,3.929834,2.8358397,2.8507323,3.2630858
1.4474121,4.3946776,3.5511718,2.5924315,3.9935546
1.7755371,6.726953,4.020166,3.6561522,6.6371093
3.0355468,6.809961,4.0040526,4.477197,6.756738
1.0431153,4.3524413,2.765283,3.1290526,4.006494
-0.34970704,2.372705,1.1058594,1.025293,2.10708
-0.8143066,3.1061034,0.8966309,0.73305666,3.0113769
2.5731444,5.4967284,2.1893554,2.473291,6.7328124
3.8512206,5.7696776,3.8800292,4.0782714,5.2936034
1.1039063,5.1893554,2.9979491,3.134912,4.409082
1.6839844,4.2020507,3.987207,3.438623,3.9041991
3.464746,5.527246,5.1944823,5.1202636,5.3844237
6.2140136,6.377588,6.4725585,7.6217284,7.6222167
7.12124,6.7035155,9.116358,9.055567,9.623194
7.645166,6.9920897,9.854639,9.028467,8.592432
7.0594726,6.2450194,7.6324706,8.453028,7.259912
6.1324706,7.593164,5.1759276,6.331445,7.514795
8.718164,9.110498,9.886133,9.606348,10.292871
8.843409,9.514307,8.733301,9.235987,9.784571
4.983789,8.422998,6.2816405,4.5858397,6.533838
2.3922362,4.360742,2.35,2.3846679,3.2635741
0.94033206,3.7794433,1.1551758,0.9286133,2.8177733
2.5572753,4.292627,3.1859374,3.5836425,3.588037
4.7501464,6.3490233,9.854395,9.9042,8.150782
9.012842,6.5335937,10.858545,10.479639,10.131006
8.296289,7.0423827,7.2333007,6.832422,7.839746
6.8543944,7.6444335,8.118799,7.8333983,8.698633
6.361963,8.217676,7.528711,7.5440917,8.407862
5.0763183,6.0875487,5.792627,5.256006,6.287744
5.73208,5.8165526,6.3646483,5.8963866,5.341455
8.462061,8.348536,10.734278,9.486719,9.243067
10.432276,9.270899,12.741602,13.282373,10.2269535
11.278711,10.052637,13.689356,13.352198,10.42544
7.641992,8.268702,9.836573,11.228907,10.342188
3.140283,5.1895995,2.8668456,2.615869,4.4969726
2.8402343,5.6231933,3.0912108,3.0140624,5.108545
5.1864257,7.5611815,7.023828,7.8634276,10.326075
8.265039,9.553125,9.573389,9.527002,12.034327
7.8072753,9.515528,7.665918,7.811914,7.9964843
4.2918944,8.79043,5.127588,5.5399413,8.219873
3.164209,6.516992,4.204004,4.3280272,5.9603515
3.8419433,5.147363,5.315088,5.254297,5.0040526
5.91958,6.542871,7.3421874,7.250879,6.753076
4.3548827,6.173242,5.3617187,4.6964355,7.0245605
7.801904,8.347071,9.310694,9.63125,12.039209
12.106836,9.112696,12.91836,12.772852,10.904688
11.4752445,9.669092,13.005518,13.108789,12.951075
10.329004,11.031397,10.313623,11.960352,10.594141
5.147363,8.853174,5.757959,7.6827636,8.79336
5.284326,8.544825,6.138086,7.0333495,7.951074
4.8077636,8.478174,7.869287,9.033594,8.63125
6.244531,8.002344,7.2413573,7.255029,8.035547
6.813623,7.0470214,4.755029,4.6878905,7.634912
7.380029,8.84878,8.1661625,8.391504,8.523096
9.392481,10.816309,6.480371,7.366113,10.861719
8.643946,8.829737,8.10293,7.8998046,10.360987
7.8043456,10.926416,7.5521483,7.7523437,10.3658695
1.8624512,8.152246,5.4532714,6.0450683,4.694238
4.7989745,5.9623046,5.549463,5.4208007,5.3976073
5.0624022,7.4208007,7.2655272,7.1495605,8.057032
7.1026855,8.596338,7.245996,7.2801757,7.8548827
12.279688,10.605616,14.018457,13.771387,14.274561
12.348047,10.919825,14.271875,13.917871,13.382471
15.417627,10.755518,17.11416,17.278955,14.701075
11.046045,11.781153,12.533594,12.92544,12.582422
4.4764647,10.0394535,8.011866,8.615625,12.916651
5.994287,10.762598,9.042871,8.913477,9.828516
9.883692,11.434961,10.704248,11.238916,11.074854
10.58877,10.934229,11.421534,11.234522,10.323877
9.819239,10.99502,10.771387,11.791895,12.22793
10.263575,10.502588,11.667627,12.469873,12.721582
9.193506,10.368555,8.466211,8.684473,10.266748
6.0555663,8.187647,8.619043,8.86294,7.882959
3.9771972,7.8941894,5.2782226,6.316797,7.0802245
8.604639,10.015772,7.813379,7.9220214,9.919336
9.266748,10.657618,11.418604,11.379786,10.252344
9.653223,11.396143,8.277735,8.198877,12.946924
12.88833,11.565577,15.325586,14.916895,15.125391
9.670313,11.374659,11.096582,11.298487,12.847803
10.513086,12.387598,12.2408695,12.690088,13.632471
7.483789,11.8988285,8.285059,8.474756,13.337549
8.854395,12.393457,10.078516,10.01919,11.567774
8.266993,11.32876,9.217676,9.505762,10.847559
8.624659,10.716455,10.276758,10.225977,9.952051
10.440088,12.460596,12.4596195,12.766748,13.741114
14.488184,12.110498,12.319239,11.447657,11.9144535
14.890284,12.949854,14.708643,15.033594,15.37417
16.794092,13.059473,15.879786,16.536524,15.2911625
18.901758,15.167383,19.566553,19.98623,20.394922
19.51626,14.344141,16.754297,16.022364,16.622461
16.805323,13.985987,16.914698,16.478662,13.920069
15.066797,16.955713,16.05752,16.436426,18.638086
15.371973,15.873926,14.464746,14.895655,16.291162
15.236719,13.852442,16.6625,15.974512,16.024805
15.743311,14.813868,16.201563,16.505518,16.777735
14.657129,14.535547,15.385401,15.964746,15.72085
18.116358,15.675928,17.935694,17.391993,18.081446
16.893946,14.527002,16.575586,17.025782,17.346582
15.192774,14.188868,16.05337,16.511133,16.388086
12.5238285,14.471582,15.93252,15.375391,14.923975
15.659815,14.592432,16.922022,16.79629,17.62832
15.540186,14.448145,17.21206,17.165918,17.01797
22.42422,17.726221,23.551172,22.853662,21.83706
20.300196,15.316065,22.245996,23.355371,19.197168
16.531885,14.486231,16.609278,16.754786,14.404932
13.944239,14.292627,14.400782,15.008692,15.141993
13.478418,14.059717,12.613184,12.921778,14.879053
14.64126,13.712305,15.323389,15.278711,15.54043
12.674463,14.094873,14.213526,14.280909,13.650049
14.853907,13.444727,15.4786625,14.953272,15.6158695
13.548243,13.994776,13.915186,14.003565,15.4125
13.012598,14.501368,13.673487,13.683008,15.340723
17.851221,14.32583,14.7167,15.541651,15.832178
14.041407,14.364893,14.627588,14.6939945,14.790674
11.451563,13.679834,13.730616,13.456446,14.776026
14.329004,14.06167,15.20669,15.065821,15.025049
15.951075,14.805567,14.463282,14.929834,15.370264
14.983545,14.801661,14.72378,14.30752,16.052393
11.0255375,14.296045,15.029688,14.758448,14.608057
14.699366,14.899561,14.646875,15.03335,15.975733
12.248682,13.4908695,12.390528,12.600489,13.911768
13.2113285,14.891504,13.107325,14.558985,15.613184
14.338282,14.920801,15.725489,15.723047,15.501856
13.170069,14.75918,16.766748,16.824854,14.973536
14.872705,15.0082035,15.058008,15.038477,17.242579
14.782618,15.761377,16.84585,17.190577,17.788233
13.5880375,14.386377,14.7425785,14.941553,14.860254
11.782862,15.12295,12.995996,12.081202,13.689112
14.536524,16.192774,15.329981,15.021387,17.220606
17.74331,16.597803,17.644434,18.047022,18.777246
18.214014,16.33462,17.893213,18.167383,18.512598
19.63296,16.881006,19.648829,19.663965,19.521143
24.889063,21.715479,25.113428,25.15835,26.752588
26.06875,23.062403,26.91128,27.380762,28.6542
30.037745,20.768213,27.710352,27.236963,21.0292
20.733301,16.919336,21.853662,22.10708,19.49917
19.749659,17.220362,19.421045,19.997461,19.672998
18.798975,17.17666,18.971582,19.486963,19.886133
17.987696,16.587793,17.801416,17.011621,18.672754
21.442774,17.88296,20.862452,19.230127,20.709864
23.565332,19.823877,23.83755,24.035791,24.381006
25.794092,20.684961,24.47964,24.564112,22.967676
18.536524,17.636621,17.886621,18.413477,18.697412
18.638086,16.91958,16.01333,16.498682,18.314112
15.959864,16.37832,16.789942,16.686426,17.098536
16.869287,16.823877,16.925684,16.951319,18.119287
16.891748,17.132471,17.791407,17.22378,18.710596
17.509912,17.830225,18.596094,17.155176,18.668116
15.206446,16.220362,15.458399,15.1644535,15.484766
15.858301,15.906641,17.300684,16.844141,16.52749
17.090235,16.978662,17.714746,17.27212,18.258204
17.211817,17.092676,18.887354,18.781641,17.879541
19.839014,17.707422,20.970118,21.07876,20.841455
21.421778,18.629297,21.012842,20.38296,21.197657
17.632227,17.891748,16.809229,17.228662,17.234766
17.916407,17.827784,18.246485,17.260157,18.849268
17.006006,17.158838,15.609522,14.561426,17.756739
17.268457,16.204493,16.67666,17.483545,17.400293
17.434717,16.9938,16.943506,19.006006,17.988916
16.45669,17.25796,17.184229,16.745264,17.38833
16.846582,17.235498,17.478418,17.569727,18.089502
14.101221,16.980371,15.913721,15.765528,17.181543
13.682032,16.254786,14.798243,14.44375,16.205957
13.382959,16.802393,13.321436,12.651514,15.276026
11.260645,16.79629,12.367823,12.403711,13.493311
15.700342,18.163965,17.343164,17.49209,19.08047
18.750635,17.711573,19.701807,18.534327,20.509912
16.358545,16.360254,16.718409,16.321192,16.500635
18.549952,17.577051,17.288233,17.644434,18.410547
13.334131,16.001856,12.883936,12.35293,16.122217
13.256739,15.552149,13.978418,13.439112,14.147364
14.961573,16.410303,16.091211,16.120508,17.289454
13.05752,14.853418,13.219629,12.99209,13.999414
17.09292,16.202051,16.738428,17.115137,17.589014
15.189112,16.573633,16.90542,16.5563,16.933252
15.979883,16.901758,17.787745,16.353418,17.538965
17.345606,16.91665,17.403711,17.124414,17.777979
14.525782,16.90127,18.379297,18.144922,19.164942
15.371973,16.458155,16.21255,16.011621,16.026758
16.802637,17.062159,18.160303,17.709131,17.662989
19.347803,18.370752,19.777246,19.501612,19.030176
19.43838,18.560694,21.074854,21.370752,21.49917
17.221338,17.75088,21.693018,21.008936,20.02041
17.636377,17.731348,18.390772,18.651514,19.622217
17.248682,17.361963,18.035059,17.558496,18.632471
18.374659,18.309229,19.58169,19.336084,21.68252
16.724024,19.245996,19.639307,19.642725,20.974512
20.942774,17.968653,21.67959,21.582422,18.912256
15.438868,17.412745,15.757227,15.467188,16.253077
17.599512,17.469385,18.411768,17.395655,17.26626
17.66665,17.68545,17.74795,17.731104,17.973291
17.408594,16.97964,17.451807,17.920313,17.136133
15.200342,16.422266,15.620752,15.497705,16.451319
16.355127,16.846338,15.45376,14.792139,15.496973
14.3050785,17.055079,16.241602,16.44668,16.007227
18.40542,16.954004,19.13125,18.985498,17.865381
16.771631,16.45547,17.574121,17.767237,18.062159
13.761866,16.004297,13.98208,14.378565,15.108057
12.896387,15.177149,12.59585,12.364161,13.849756
12.188623,14.48086,13.16128,12.818262,13.810694
13.881983,14.596094,14.428858,13.855616,14.230616
12.562403,15.552881,13.027979,12.366114,14.158594
14.062159,15.509668,15.267969,15.362452,15.858057
13.495996,15.572901,14.230127,13.851465,14.94668
15.447168,15.693262,14.059717,14.269434,15.869776
14.603907,16.233057,15.824366,15.866358,15.9613285
15.149561,16.353418,15.833887,15.681299,16.252832
14.861719,16.233057,15.444483,14.9125,15.881739
11.444971,14.687891,12.247705,11.766993,13.724512
12.613916,14.546289,14.088282,13.400049,14.461573
12.987452,14.504786,12.415674,13.26919,14.33877
11.466944,14.659815,11.101465,11.3658695,12.7599125
11.308496,13.938135,12.014307,12.212305,12.939844
11.420557,14.800684,14.217676,13.817774,14.143457
14.444971,14.529932,13.287989,13.725977,14.03042
11.464502,14.205713,12.322168,11.9942875,13.239405
11.723291,15.875147,11.899561,11.428614,14.775293
8.049463,12.721827,9.214258,9.682276,11.7425785
8.61294,13.275293,9.561182,10.561182,11.857813
10.560694,13.870264,12.260645,11.901758,12.673487
13.282618,13.867823,13.540186,13.311426,13.132959
11.968653,14.102198,13.293116,13.301416,14.596338
13.675928,14.186182,13.014551,13.343653,14.279688
12.598536,14.178125,12.4908695,13.221827,14.367823
11.70376,13.719385,13.015284,13.250635,13.770411
10.260401,14.256006,11.112452,10.998438,13.387842
11.923731,15.413233,12.4925785,12.575586,14.830469
15.419336,15.4908695,15.3502445,15.426661,15.971338
15.14126,15.419825,15.268946,15.493799,15.563379
10.893213,13.949366,11.919825,11.507227,12.991846
7.019922,12.698145,8.268213,7.848047,9.8988285
5.6046386,9.339502,5.230371,5.1405272,7.991113
5.661279,9.5533695,6.9635253,6.789453,7.938623
5.8180175,11.015772,6.9972167,7.1180663,8.81045
6.8705077,11.73794,8.002832,8.113428,10.557276
4.4481444,11.415918,4.7811522,5.0526366,8.83169
11.09585,13.696436,11.78628,11.258936,13.136377
12.88418,14.476221,13.378565,13.2130375,14.139795
9.885401,12.926905,9.421289,8.795069,11.280664
7.46499,12.702295,8.81167,8.377588,10.676172
10.188379,13.1488285,11.643946,11.949366,12.549219
11.035059,14.39126,12.459375,11.515528,14.056543
12.069971,14.156397,12.929346,12.784571,13.719629
11.332911,12.980616,11.3988285,10.946924,12.196924
6.82583,11.932276,7.5746093,8.008448,10.480616
7.959375,12.504053,9.597071,9.320459,11.812403
9.489161,12.401026,10.247217,10.06753,10.876612
8.396387,11.63125,9.388086,9.112207,10.763575
5.5731444,10.8849125,8.348536,7.8731933,9.942286
7.7499022,11.315332,7.647119,7.6969237,9.280664
9.452539,11.562891,9.772364,9.915186,10.585108
8.779932,12.324366,9.998926,10.685205,11.464502
7.605371,12.340723,8.031397,7.9173827,10.683985
8.778467,12.3519535,10.150782,10.212793,11.4786625
8.9439945,12.448877,11.1661625,10.989649,11.457911
10.233545,12.935205,11.546778,11.221338,12.214014
1.1776367,6.84707,1.5199219,1.0572754,5.649072
0.8163086,7.396631,0.30629882,1.034082,5.855615
3.9603515,10.34292,3.9088378,4.267236,8.525049
7.616113,11.754786,8.758936,8.936182,10.781885
7.3651366,11.693262,8.441553,9.208399,10.433252
7.9273925,11.733545,8.677881,8.700342,10.903711
8.910059,11.87295,10.136133,9.877344,11.518946
6.708154,11.425928,8.510401,8.769922,9.521631
10.165186,12.81753,10.839258,10.455469,12.102442
8.888086,12.273584,9.51211,9.08584,11.045313
6.0104003,11.910059,8.473536,7.6722655,11.097071
