"[299, 255]","[227, 248]","[287, 319]","[279, 328]","[230, 262]"
9.876612,10.771143,9.260401,8.582666,8.768946
4.9842772,9.764307,6.157373,5.6214843,7.846338
3.4781737,9.005274,4.4657226,4.174463,6.768457
6.291406,11.630762,7.874658,7.520166,9.805567
8.497217,12.044336,9.743311,9.471094,10.860987
4.770166,9.905909,5.87124,5.966211,8.198633
6.8080077,12.159815,7.089746,7.147119,10.708887
4.4464355,8.831934,5.997705,5.818994,7.3592772
2.8167968,8.254053,3.0970702,3.1615233,5.18667
3.1131835,8.102198,3.9522948,3.5416503,4.397119
1.9706055,9.142725,3.1637206,3.6231933,5.677881
3.11416,9.146143,5.202539,4.883447,5.84707
4.918115,10.745264,5.5018554,5.166406,8.775049
4.494287,8.837549,5.376611,5.256738,7.7503905
2.9674315,7.497949,4.4776855,4.360254,6.022363
-0.43979493,5.244531,2.1432128,2.1004882,2.213037
0.11123047,2.2472167,2.098535,1.5633789,0.7765137
-0.6663574,2.970117,0.72988284,0.19790038,1.1373535
0.9356934,3.9095702,-0.2425293,0.3319336,2.3929687
0.14980468,9.137842,1.4342285,0.8319336,3.9488769
2.9818358,10.642481,4.7433105,5.5855956,9.071436
7.784326,10.996241,8.25625,8.928614,10.114649
4.259668,8.996485,4.0816894,3.7052245,7.081201
3.5553222,10.029932,4.674707,4.242578,8.429102
5.569238,10.024073,5.9137206,5.801904,8.366358
4.296045,10.031885,3.516992,3.945703,8.733301
6.265039,10.561182,7.52749,6.678125,9.318262
3.2381835,8.532129,3.8841796,3.318994,6.338281
1.202295,8.268213,2.4569335,2.0748534,5.667627
3.5416503,8.953028,2.2262206,2.3458495,6.8768554
6.975,10.827784,7.400537,6.480371,9.940577
6.9620605,10.418848,7.8202147,7.4449706,9.252832
7.803125,10.924707,8.938623,8.5099125,9.747217
8.483545,11.780176,9.176905,8.82461,11.753565
6.9312987,10.846094,7.016504,7.7342772,9.290674
4.2643065,9.035791,5.5421386,5.5733886,8.420801
1.8016602,7.6930175,3.0365233,3.1744628,7.393213
2.5140624,8.580957,2.004541,1.0987793,7.0467772
5.4432616,9.457178,5.988672,6.4676757,8.252832
4.945703,9.61709,6.535791,5.977197,8.648584
4.91958,9.612696,6.0296874,6.0748534,8.888819
4.817285,9.098291,5.563623,5.494287,7.1861815
8.377344,10.517725,8.751123,8.349512,10.275049
8.125879,10.673487,6.9017577,7.0387206,9.414698
4.187158,8.566797,5.06167,4.8807616,6.3526855
8.920069,10.955957,9.462061,9.380762,10.586817
5.674951,9.456202,6.0995116,6.2816405,8.5255375
3.3009276,8.028955,4.08291,4.299951,6.7489257
2.1378417,7.4520507,1.5985352,1.5023438,5.9955077
6.461328,10.144922,5.459375,5.19082,8.652002
6.6117187,9.7911625,7.6327147,7.0736327,8.699121
5.0768065,8.827051,6.503076,6.4103026,7.495752
4.8929687,8.583643,6.522119,6.084131,6.749414
3.890283,8.230616,4.213037,3.9688964,6.4588866
-0.5047363,4.693506,1.1698242,1.0074707,2.5885253
4.120752,9.462305,2.5782714,2.7142577,8.070948
6.552881,9.464991,6.59707,6.258203,8.497461
4.6805663,9.400293,5.691797,4.8888183,7.9952636
6.072656,9.732569,5.792627,4.7123046,7.797754
2.449121,6.4552245,2.3019042,1.6791016,5.110498
-0.38925782,6.755029,1.3165528,1.0379883,4.1446776
3.140283,8.129053,2.8158202,3.3805175,6.8998046
3.409082,7.235742,4.093408,3.6270995,6.2713866
2.8055663,7.3558593,4.2262206,3.8910155,5.572168
4.0821776,8.456202,5.093408,5.1720214,7.3597655
5.4312987,9.900782,6.3770995,5.902246,8.748926
6.6620116,9.7096195,6.786279,6.8910155,8.453516
5.0562987,8.716455,6.1256347,6.094873,8.552149
3.9088378,8.712305,6.3858886,5.766504,7.360254
4.138574,9.615381,4.983545,4.61416,8.678125
3.181787,9.430811,4.0926757,4.4916015,7.829492
3.29458,7.0577636,2.86416,2.9588866,5.811914
1.7166992,4.7882323,3.579492,3.6256347,3.2455077
0.7354981,3.7369628,2.7481933,2.6761718,2.7904296
0.74868166,3.879541,2.1446776,1.9654785,2.9374022
1.669336,5.1446776,2.108789,1.5726563,4.6429687
0.8612305,5.782129,2.2440429,2.055078,4.709619
2.631494,7.098535,4.2069335,3.8561034,5.711084
3.4376464,7.1393065,3.8180175,3.3509765,6.575586
-0.6453613,5.44082,0.8475586,1.1473633,2.8783202
-2.0726075,3.2289062,0.4959961,0.52675784,1.6129395
-0.39609376,4.235254,1.8443848,1.5465332,3.3973632
-0.37607422,5.4537597,1.9017578,1.6378418,4.515283
1.9688965,8.495264,2.0252929,3.093408,7.948877
6.240869,9.228907,6.469873,7.364404,9.120752
4.589502,8.610987,5.1585937,6.362695,8.486231
0.3722168,7.8722167,3.815576,4.8871093,6.872949
0.51650393,7.8634276,1.6332031,1.6144043,7.0714355
4.221826,8.462061,5.31582,5.1986327,7.5111327
2.3531737,5.9793944,3.1368651,3.436914,5.173486
2.1119628,5.6319823,1.7281739,1.8468262,4.2899413
1.2098633,4.9156737,1.9706055,1.870752,4.019922
7.734033,9.4596195,5.3961425,6.4588866,10.41958
7.492822,9.082911,7.2816405,7.742334,9.552637
8.695459,9.8675785,8.295557,8.239405,11.342432
4.5350585,7.9049315,5.093408,5.273828,7.787744
8.119043,8.682764,9.278223,8.7113285,10.895166
8.543604,8.145166,9.35293,8.517725,10.0567875
7.4828124,8.411768,8.861963,8.120752,8.3988285
10.280664,10.447901,10.132959,10.471094,12.439844
8.531885,9.370996,7.591211,7.1568847,9.611719
4.8456054,8.293604,4.6112304,4.454248,8.384424
1.9955078,7.693506,2.3128905,3.5216308,5.556787
4.792871,9.052393,7.0301757,7.0350585,8.184473
6.2171874,8.683008,7.065576,6.941797,8.970362
6.4205565,8.370508,7.432031,6.940332,8.905909
8.679102,9.548243,10.388086,10.152002,10.023584
8.674219,9.599512,9.541651,9.298487,9.778467
7.6690917,9.198633,8.942286,8.874659,8.736963
9.639551,9.493799,11.607813,11.655909,11.468409
6.7921386,9.183741,8.770166,8.912256,8.998194
7.9830565,9.657862,10.771387,10.106592,9.5689945
6.924463,8.052149,8.358057,8.524317,7.7901855
4.8265624,8.375147,7.4518065,7.973535,8.6332035
8.495996,8.133936,9.424219,9.252588,8.805323
7.059961,9.155664,9.813135,9.625635,9.853418
6.9828124,8.461084,7.50625,7.542627,8.126123
8.194483,8.169336,9.190821,8.661524,9.049219
6.1913085,8.41958,8.789942,8.132959,9.082666
6.8739257,7.8597655,7.3475585,6.9742675,9.032618
5.4049315,8.114405,7.4427733,7.6881347,9.201319
5.393457,8.590235,7.068506,6.88833,8.42959
6.1739745,8.356104,8.805323,8.799463,8.951807
7.4220214,7.678613,9.018702,9.141748,8.057764
8.027735,9.719629,7.8358397,7.458154,9.954493
4.720117,7.9305663,5.809961,5.2853026,7.767236
5.955713,7.313623,6.027002,6.779199,7.4308105
5.2296386,6.940088,4.6825194,4.4151855,6.127588
5.612695,7.2777343,6.375879,6.0768065,6.921289
6.6827636,8.84292,6.2604003,6.570947,7.970361
9.710352,8.884668,8.130518,8.21084,9.65542
6.2176757,8.7755375,7.358545,7.594629,8.301172
8.712061,9.607569,10.263575,9.833643,10.832911
9.086084,9.584864,9.084375,8.841211,9.363916
10.272852,9.382715,10.499659,10.55752,10.844385
7.921533,9.455225,8.887842,8.647364,10.033106
7.903711,8.777979,8.599268,8.892237,9.383692
8.87295,8.808496,10.082666,9.447168,9.171289
11.5724125,9.997461,12.176416,12.2599125,12.216455
7.9930663,9.477686,9.99795,9.288477,10.658594
8.633448,9.172998,10.516504,9.763575,10.447168
8.157862,8.234034,8.510889,8.449121,8.030176
5.7730956,7.9828124,7.119287,7.0538573,7.942041
7.938867,7.0418944,8.4667,8.266748,7.7420897
6.4757323,7.5108886,8.558985,6.6480956,9.45083
8.975977,8.81167,9.372705,8.762842,9.806055
7.279199,9.649561,9.9439945,10.176905,11.06753
6.6483397,9.804102,9.312647,9.7408695,11.880518
9.191065,9.276026,8.53628,8.812403,9.266504
7.6268554,9.139551,8.653223,7.862207,9.336817
10.0255375,9.201319,11.043848,11.058741,9.00503
8.112696,9.123438,8.474024,8.036768,8.777979
7.6969237,9.415918,5.240869,4.9637694,10.174707
11.825342,10.073145,12.008936,11.947657,12.119776
11.806299,11.171045,14.418604,14.1488285,11.517481
10.398584,10.308985,12.213282,12.235743,12.795801
12.998926,10.763086,13.250879,12.7521,14.335108
10.434961,11.18667,11.174707,11.831446,13.517969
14.391993,11.536036,12.157373,12.713526,13.179834
16.49502,12.712793,16.978662,16.646143,17.945215
18.381495,12.103907,17.900537,17.303858,14.200586
11.05044,11.180811,12.160059,12.222071,12.013819
11.133448,10.820459,11.975489,11.451807,12.463282
12.02334,11.95376,11.864893,11.193018,12.027002
14.958643,12.716455,12.86001,12.938623,14.615137
18.572657,12.478418,17.348047,16.817774,15.775782
18.031397,11.449121,15.583399,16.451563,15.731836
19.283838,14.266504,18.39834,18.710352,16.882471
18.737452,13.024073,16.582178,15.149317,17.537989
12.671045,12.316309,14.05044,13.421289,12.517481
15.235987,13.396631,16.512598,16.101465,14.615137
14.93545,15.132959,17.693506,17.687159,17.856348
15.9908695,13.525049,17.774073,17.302881,16.552637
12.881983,12.548243,13.194483,13.350489,12.398584
13.505518,12.422998,14.7738285,14.56875,14.527979
11.489893,13.031641,14.453516,13.690332,15.792627
14.178858,13.157373,13.604883,13.121729,14.8363285
9.333399,11.562891,11.194727,10.563379,12.241602
9.394434,12.392481,12.1158695,12.123682,12.231836
10.443262,12.340479,11.75625,11.368555,13.089502
12.368067,12.045801,12.922998,12.18545,12.684473
16.441797,13.0411625,17.366114,17.170801,16.472315
20.664454,15.77334,20.516748,20.393702,20.853418
23.128077,15.688868,23.39126,23.009912,18.473291
15.024561,13.434961,15.741846,16.009668,13.658838
16.037256,14.907618,17.330225,17.064356,16.342188
17.168604,15.972315,18.768946,19.214014,17.031153
16.115137,16.914942,17.803858,18.181543,17.838526
17.027002,15.580957,17.478907,17.24795,16.281397
19.518457,18.24917,19.608057,21.51333,19.569239
19.12832,16.634912,19.10464,20.352198,18.076075
19.159815,16.536768,18.910059,19.693995,18.0104
18.035059,17.264551,17.814844,18.569239,17.89541
16.359034,16.310694,15.40835,15.947901,16.980127
18.433985,16.12124,19.187891,20.149073,16.076807
16.106592,14.696924,16.172266,16.395166,16.178858
15.987696,15.378809,13.921778,14.4630375,14.861719
12.968653,14.438623,13.548487,13.24917,14.153711
11.4127445,13.469873,10.736475,10.264063,12.807032
16.220606,15.06167,17.710596,16.506739,17.212305
11.693262,13.777246,13.276514,13.643213,14.5099125
12.422754,14.784815,13.517481,13.180811,13.921289
12.206202,14.178614,13.107813,13.0846195,13.802637
12.005274,13.484766,12.423487,12.493799,13.942286
12.952051,12.891504,13.634424,13.705713,13.348536
12.525782,14.677881,14.238428,13.948389,13.841944
15.151758,14.526758,15.950586,15.826319,14.190088
14.056543,15.521387,17.662256,17.345118,17.165674
19.37588,15.516504,15.944727,16.086329,16.673975
14.819239,15.688135,16.231836,16.639795,16.946192
17.158594,15.651514,17.70669,16.9125,18.316309
14.513819,15.54043,15.742334,15.37002,16.165918
14.540186,15.573145,15.452051,14.919092,16.091455
17.70376,16.305079,17.41421,16.97793,17.561914
15.188868,16.161036,15.186182,15.084375,16.934229
20.521631,16.423243,18.373438,16.812159,19.13125
13.651514,15.659082,13.771631,13.533594,15.56167
14.161768,14.329737,15.479639,15.815088,14.583643
13.688868,14.229151,17.37588,17.495508,14.049707
14.640039,15.646875,18.67129,19.151514,17.08755
19.778711,16.206202,19.729883,20.40542,20.669336
21.557032,17.021387,20.719141,21.285303,19.42251
21.995264,18.307032,21.660303,20.831934,20.211573
17.444971,16.258204,16.73672,17.169825,17.188135
13.6817875,15.226709,14.674707,14.804102,14.1036625
14.481836,15.603418,17.128077,17.605127,17.026514
14.0689945,15.396387,17.170069,17.228662,16.001123
15.128809,15.212549,18.137354,18.420801,15.982569
17.124659,16.42373,19.794336,19.44375,17.741846
20.52627,18.789698,20.254786,20.135157,19.233301
22.350977,17.959131,23.342188,23.662012,22.117823
23.05874,19.0646,23.253809,23.48916,23.38418
22.979395,21.68838,24.478418,24.535059,23.083887
22.201563,20.288477,24.638575,25.513819,24.992334
22.947412,20.864649,24.267725,24.160791,24.373194
23.666162,21.134424,25.228662,25.276026,25.319239
23.205713,20.548487,24.735987,25.55874,27.015772
21.746973,18.933985,20.14834,20.511377,19.575098
16.525293,18.103418,17.353418,16.943506,17.225489
15.951075,16.660791,16.653955,16.421534,17.112207
20.770655,17.350245,19.02456,19.268457,18.850489
23.030909,20.605371,23.787989,23.887842,23.478662
22.036768,20.265772,22.673243,22.487452,22.697412
23.23916,19.896631,23.95254,24.1813,20.431543
22.630274,19.235254,23.153955,23.107813,23.243555
24.717432,18.718653,23.262354,24.046534,21.626368
25.603418,18.354395,23.132471,24.336329,20.40542
25.530909,18.196192,23.940577,24.3063,21.659082
18.103662,18.501123,17.715967,17.479883,18.677149
15.959864,17.269434,16.171045,16.40835,17.849268
17.124414,17.309717,15.197901,15.225489,18.472803
16.50503,17.190332,16.863672,16.297998,18.450098
18.229395,17.480127,16.35586,16.73086,19.01211
18.38125,17.336817,17.413477,17.239893,18.149317
16.997461,16.532373,16.033838,17.90542,18.105371
15.754541,16.551416,16.434229,16.593164,16.866358
19.704248,18.510645,18.59463,18.568018,19.352198
18.516748,17.41836,19.163965,18.038721,18.253809
16.556055,17.15835,16.45791,16.757715,16.639795
19.163721,17.349756,17.99917,16.870508,16.86831
17.849512,17.440088,19.113428,19.097315,18.984766
18.146875,17.309961,16.881006,16.873682,17.975977
18.315088,18.4396,18.223291,18.695948,19.273096
18.750391,18.372217,18.711817,19.718653,19.308252
16.131983,17.433985,14.438623,14.031397,17.035059
16.07168,17.333643,18.590967,18.035059,18.420313
15.842676,16.580957,17.042871,17.980127,16.72793
17.627588,17.090967,18.287989,18.00625,16.266748
18.147364,18.157618,18.366358,17.83169,19.622461
20.526758,18.33877,20.65005,20.60879,19.828272
19.902246,17.646387,20.294092,20.740137,19.43838
15.854883,17.392725,17.388086,17.593164,17.338037
14.089502,16.725245,13.717188,13.528955,16.616114
13.966211,15.70376,15.208155,15.460352,17.336329
16.835596,17.263575,18.061426,18.563135,18.390772
16.401758,16.673487,14.9317875,15.3658695,17.042627
16.976465,16.672022,17.410303,17.406885,18.205713
13.136866,16.15957,13.886621,13.302881,14.852442
12.407129,14.942774,12.827051,12.787256,14.563379
13.707178,17.273584,12.975977,11.837793,16.204737
13.114649,15.510889,14.262842,14.426905,15.139307
13.426172,16.852686,14.902246,14.399805,15.856104
16.05044,17.137842,15.879053,15.862696,16.209131
14.894678,16.317041,14.802393,14.995264,16.417627
15.695215,17.143457,16.638819,16.5021,18.069971
16.313623,17.426172,16.524317,16.218653,19.156397
21.199854,18.266993,17.125391,17.30337,17.991114
15.290674,16.988428,16.223047,15.649073,16.225489
13.614893,15.706202,13.1175785,13.065577,14.312159
11.378809,13.378077,11.876612,11.738184,13.149073
10.293116,14.506983,10.427881,10.698145,12.21792
13.583887,15.610498,14.034815,13.671778,14.980371
11.902979,15.776026,13.943018,13.286768,14.809229
11.870508,13.974268,12.754053,12.899073,13.468653
10.210596,15.142481,10.384668,9.768457,14.216944
9.538477,14.330713,10.120508,9.629786,12.675196
8.927881,11.9161625,9.456446,9.848047,10.503321
9.236475,11.268702,9.287256,9.268946,10.617823
9.590723,12.258448,10.053858,9.678614,11.658106
11.432764,13.504541,13.005762,13.087549,13.448633
12.333155,13.911768,12.916895,13.610498,13.937647
10.625147,14.777735,14.139551,13.941797,14.774317
8.920801,12.903467,10.68667,10.432032,12.00918
9.209131,12.428858,9.924463,9.725977,11.514551
10.968653,14.255274,12.308252,12.265772,13.003809
13.070948,14.234278,13.919825,14.426905,14.915186
13.298731,15.061914,13.124659,14.035303,15.051172
15.693262,15.596338,15.951075,15.949854,18.220362
15.824366,14.724756,15.908106,15.6817875,15.940088
14.217676,15.2130375,13.182764,13.062403,14.827051
10.628077,13.85586,11.682764,11.899561,13.298487
10.472559,12.373194,11.725489,11.570459,11.652246
9.515284,11.59585,10.826807,10.287989,10.518457
8.152735,12.340967,9.555811,10.122705,11.417627
9.286524,11.500635,9.2113285,9.141748,10.701075
8.165918,12.409815,8.656641,8.4042,10.45669
9.1896,12.159082,9.90542,9.517969,11.179834
8.7894535,12.263819,10.186426,9.90542,11.188623
9.97793,13.507227,10.712061,9.939112,12.403223
10.430323,13.268946,11.719385,11.750879,12.717676
11.161768,13.380274,12.621973,12.507471,13.388819
11.614405,13.461084,11.610254,10.789942,13.1800785
9.589991,12.83584,10.860743,10.985743,11.772364
8.998194,11.868555,9.390039,9.4005375,10.272364
9.078272,11.724756,7.3617187,6.869531,11.084864
9.097315,10.548487,8.850489,8.73086,9.6957035
8.73794,11.982325,9.782129,9.687159,11.55044
8.584131,12.23794,8.939112,8.787989,11.577295
7.48208,11.2113285,7.3756347,7.13125,10.616602
6.9310546,11.597559,7.641748,7.9330077,10.266504
9.881739,13.136133,10.36709,9.671534,12.349024
11.194971,13.964502,11.792383,11.308252,13.351709
12.685694,14.455469,13.829004,13.82461,14.588526
13.377588,14.794825,14.207911,13.672266,14.169336
10.344385,12.767969,10.57168,9.814112,11.305567
12.227686,14.42544,12.358057,11.484766,13.426172
12.03335,13.873194,12.346582,11.915674,13.583643
9.449121,12.243555,9.869043,9.672754,10.21792
6.6717772,11.269434,7.784326,7.1043944,9.0689945
6.338281,10.158594,7.2469726,7.1668944,8.366114
6.469629,10.499659,9.193262,9.13833,9.484278
5.7157226,10.9161625,7.38833,7.424707,9.626856
7.640283,10.778223,9.998438,9.356348,10.150782
8.599268,10.909082,9.796778,9.919336,10.404932
7.416162,10.627832,8.508692,7.6705565,9.498438
6.3111815,10.456934,7.219873,6.983789,9.095118
3.8824706,10.316065,5.513574,5.213037,9.225
4.914697,10.396631,5.095361,5.015039,9.289942
4.4186034,9.866846,4.5614257,3.9479003,8.913233
6.610498,9.545069,4.973047,4.8768554,8.892969
6.806787,8.99209,7.011621,6.12832,6.9430175
5.421045,10.051905,5.9498534,5.9237304,8.721582
7.997461,12.444971,8.173975,7.769922,11.86001
10.750635,13.61709,12.256739,11.932032,13.250635
8.646143,12.754541,10.847559,10.741358,12.172022
6.5562987,11.433008,8.003809,7.9376464,10.229395
1.6600586,9.214991,2.85,4.145654,7.6771483
6.5665526,11.326563,8.473536,8.856104,10.516748
6.3111815,11.098536,8.539698,8.689112,9.332911
6.0711913,8.494532,7.1876464,6.9063964,7.1844726
