"[299, 255]","[227, 248]","[287, 319]","[279, 328]","[230, 262]"
6.393701,9.53042,6.5177245,6.1964355,8.188135
6.7345214,9.348291,7.4833007,7.477197,8.679102
3.9789062,8.385157,5.0003905,5.063623,6.1742187
6.6998534,9.364893,7.506494,7.0123534,8.033106
6.6986327,9.321436,7.836084,7.3819823,7.8648925
6.862451,9.774317,7.4640136,7.0077147,8.716455
6.5387206,9.289209,7.4535155,7.1810546,8.604883
5.6686034,8.205713,5.6185546,5.428613,7.751123
5.428125,8.003321,4.3106933,4.5541015,7.318506
4.756006,7.8822265,5.12417,5.23916,7.0589843
3.9068847,7.5780272,5.346582,4.417627,6.507959
3.360742,7.3194823,4.5509276,4.3336425,6.6830077
1.5785156,6.428613,2.4759765,2.6458983,5.142236
0.87709963,5.1737304,1.716211,2.0523925,4.5418944
-1.8873047,1.6236817,0.4955078,0.76967776,1.1285645
-1.1160644,1.4200684,1.0047852,1.0382324,-0.5586914
-0.6277832,3.0196776,1.8770996,2.1693358,0.9310547
4.624658,7.8478026,5.63125,5.221582,6.7469726
4.292627,7.1898437,5.492822,5.141992,6.178369
3.754785,6.985986,4.159326,3.6942382,5.2274413
1.5145508,6.391992,1.7411133,1.1690918,3.6734862
0.41591796,4.7760253,1.3058106,1.0765625,2.6996093
1.5011231,5.6649413,2.2567382,1.7462403,3.9413085
1.5106446,4.627832,1.4459473,1.2535645,3.548242
1.6529785,4.7777343,1.2320801,0.9605957,3.6720214
1.4654785,4.7464843,1.1327149,0.93911135,2.7909179
0.16762695,4.5680175,0.59365237,0.37758788,2.51333
0.13271484,3.8395019,1.5560547,1.3670899,3.0018554
-1.2259277,2.7552733,0.83510745,0.8143555,2.1207519
-1.3348144,1.9498535,0.66323245,0.4588867,-0.2659668
-2.9043946,2.4103026,0.80458987,0.5943848,0.5421387
-3.8033204,3.1302733,-1.3577636,-1.5657715,0.68374026
0.948877,5.9381347,1.0946289,2.1668944,4.3717284
4.148828,7.780908,4.1708007,4.3524413,6.8182616
4.145654,8.434229,4.954736,5.1739745,8.629541
6.2645507,8.842188,6.834619,7.135156,8.822901
3.9447265,7.440332,4.494287,5.015039,6.6771483
6.68667,8.688868,7.6463866,7.5072265,8.640039
6.6966796,8.662256,7.3714843,7.046045,8.67959
4.1187987,7.9896483,3.797998,6.032129,7.4625487
3.6256347,7.880029,3.2716308,3.4427733,7.369531
2.738916,6.6581054,3.1600585,3.6825194,5.6788573
1.6964356,6.3861327,-0.06088867,0.021142578,5.2777343
0.7772461,6.994043,2.0650878,2.8944335,6.020166
2.601709,7.098047,3.0711913,3.1480956,6.492578
3.1739745,5.830713,1.7838379,1.3893067,5.3460937
1.8956543,4.5833983,2.532373,2.238916,3.572412
2.56875,8.426661,3.8404784,2.2948241,7.8583007
6.8351073,8.923243,6.6429687,6.211328,8.88833
4.707422,7.760156,5.1510253,5.035791,6.370752
3.6449218,7.3282714,5.047998,5.1686034,6.2818847
5.3319335,8.264307,6.5719237,6.0626464,7.982324
7.77749,9.1783695,8.423243,8.550684,9.312647
8.705957,9.9786625,9.222315,9.246241,10.299952
4.4259276,7.6810546,4.9796386,4.709131,6.7174315
7.1964355,8.68545,7.157129,7.2655272,8.565088
7.7623534,9.163233,8.36001,8.696924,9.13833
6.9654784,9.261377,8.378321,8.676905,9.094629
8.217188,8.861475,5.5211425,4.68374,9.105616
6.4759765,8.872705,5.9537597,5.591699,7.933496
8.70376,9.238916,4.0086913,3.914453,8.769678
7.9017577,9.8146,3.4823241,3.396875,9.923975
5.8285155,8.665186,3.6637206,2.9330077,6.797998
-0.41269532,3.914453,0.33095703,0.31313476,2.265283
-0.20419922,4.8216796,1.7687012,1.3885742,3.400537
-0.7566894,2.7086425,-0.63242185,-0.8418945,1.6976563
0.76845706,5.6598144,0.99746096,1.6727539,4.8858886
2.0096679,6.9081054,3.5379882,4.157617,6.016992
3.1925292,7.759668,4.5121093,4.5648437,6.942529
5.8373046,8.172266,6.5597167,6.95791,8.299219
4.9742675,8.139063,6.4359374,6.5719237,7.6705565
3.6935058,7.363916,5.117578,4.899072,6.7137694
4.54458,7.6129394,5.096338,5.9432616,7.3045897
4.5936522,7.4410644,5.6788573,5.4364257,7.504541
3.5641112,7.37124,5.785547,4.8597655,7.0313964
2.6742187,7.1966796,3.0868163,3.0953612,6.0768065
6.808496,8.018702,7.3006835,6.6700683,8.36294
4.9190917,9.519678,5.891748,6.110254,9.342188
5.7611327,8.06753,7.7726073,7.239404,9.3971195
6.2540526,8.628565,8.312159,7.9081054,9.278467
7.605371,8.551172,8.202539,8.151514,8.515528
5.429834,7.265039,6.489404,6.511377,7.15249
6.134668,7.5179687,6.7730956,6.27749,7.0611815
4.777002,8.582911,6.311914,5.9049315,8.536524
6.634668,8.461573,6.9359374,6.076074,9.210596
6.245996,7.761865,7.2882323,7.161279,8.520899
8.348536,9.459375,9.462549,9.135401,9.978174
4.78457,8.267481,6.4239745,5.928369,7.5157714
7.65542,8.669825,8.935694,8.698145,9.487207
6.38125,8.995264,8.44961,8.449121,7.7430663
7.688623,8.295557,5.0609374,4.6075683,9.562647
3.0819335,6.3436522,3.9920897,3.9356933,5.3770995
8.097315,9.05752,4.52041,4.3805175,9.214502
6.2586913,8.980371,7.1881347,7.3375487,9.618799
9.985498,9.7564945,8.882471,7.824365,10.000147
10.151026,9.895166,9.565821,9.800684,10.708643
8.720606,8.611963,8.698877,8.704737,9.16543
6.895654,7.9205565,8.6625,7.9447265,7.817529
7.9901366,8.740381,9.155664,8.724268,8.717432
6.528711,7.896875,8.168116,7.515039,8.9942875
4.5663085,6.695459,4.98916,4.981836,5.771631
5.0753417,8.38833,6.077539,5.8194823,7.3106933
8.4283695,9.640039,10.001123,9.352686,9.672998
8.548243,8.267969,7.37832,7.822412,8.508936
8.066797,8.472315,8.624659,9.532862,8.101221
5.350244,7.3495116,6.5279784,5.8514647,7.084375
4.537988,6.7750487,6.142236,5.8927245,6.488916
4.3211913,6.9845214,5.3995605,5.988672,6.416162
2.7313476,5.8370605,4.25625,4.5365233,5.3878417
2.2611327,5.3321776,4.707422,4.6112304,4.78042
-1.0984863,3.2586913,0.44521484,0.31264648,1.5213867
2.4012694,4.19375,3.061914,2.586328,3.8690429
2.2992187,7.2225585,3.909082,3.7291503,5.454004
7.0938964,8.711573,7.85,7.9608397,8.884668
8.803125,9.698389,9.912989,10.255518,11.160791
6.1146483,8.0082035,6.157129,6.785547,8.615137
5.9867187,8.15542,7.0560546,6.8402343,8.985987
9.170557,8.048243,10.013575,9.860498,10.700098
8.861475,8.92251,10.33877,9.759668,9.705957
10.523096,9.055567,10.677881,11.014551,10.831446
11.005274,11.311426,12.82583,12.623438,13.051661
8.442774,10.093409,9.380518,8.915674,11.992334
10.361963,11.254053,10.760157,10.770899,12.554834
8.65127,9.073877,10.516504,9.688868,9.822657
9.380518,9.225489,10.25918,10.168116,11.936426
10.197657,10.68667,10.855127,10.26333,11.739161
8.592676,9.381739,9.068506,9.816309,10.897608
8.123438,8.677637,8.75503,7.355371,10.172998
8.597315,8.859034,8.994532,8.701563,8.525293
6.4432616,8.479395,6.7345214,6.952295,7.8368163
9.564844,9.237696,7.75625,7.5973144,8.465967
9.71377,9.06753,11.773096,10.753809,9.629053
9.075586,10.337549,10.766016,10.017725,9.868067
9.087549,9.897364,10.477686,10.58584,11.718409
10.544092,10.0917,9.472803,8.558496,11.5707035
16.634912,14.385157,14.670313,15.272852,17.740381
19.184961,14.733057,20.603907,20.541407,22.121729
18.511133,11.052393,20.586329,18.683008,13.594141
13.004541,10.586817,13.374414,12.665674,12.864893
8.532373,10.166407,10.101221,10.731592,10.186426
9.792383,10.698389,12.244776,11.967188,11.202051
14.263086,11.918604,14.269678,15.083155,14.260889
11.930323,10.88003,13.340479,12.714991,14.130518
12.071924,11.349268,12.0394535,11.862452,12.727442
11.440332,11.089258,13.208399,12.139795,12.213526
11.589014,10.854395,12.78042,13.045313,13.029688
12.006983,10.586573,12.056299,12.640528,13.315088
9.665918,10.637354,10.050928,9.532862,11.6332035
10.279688,10.94668,12.759424,12.880518,12.580957
10.719141,10.887598,11.575342,12.221094,11.709864
11.053858,10.039942,10.615625,10.902979,11.347559
11.869043,10.805811,11.7877445,10.910547,11.76333
13.173487,13.28628,10.933008,11.864405,14.066309
11.664942,12.144434,12.221827,11.768946,12.507471
10.287989,10.357325,10.604151,10.564356,11.043604
10.771875,10.968409,11.444239,11.63833,12.66543
11.491602,10.690332,13.3363285,13.446924,12.891016
13.466455,11.689356,12.098291,12.246729,13.466944
16.523584,14.077539,16.269922,16.38711,16.443018
11.972559,11.870508,12.904688,12.343897,12.261133
15.360254,12.065821,15.920069,15.6661625,15.736719
13.611231,11.714258,14.202051,14.200098,13.613672
11.369532,11.535791,12.088282,12.347071,10.47378
13.126856,11.331934,12.943018,12.605371,11.176661
11.733301,13.206934,12.395655,12.482569,13.573877
11.684961,13.6627445,13.046534,13.195459,13.281153
12.29336,14.046045,13.332911,13.953272,14.03042
13.137354,14.463526,14.412989,15.139551,14.712549
11.596827,12.697901,12.371973,13.159082,13.902979
13.650782,14.08169,15.750147,15.798487,14.641993
14.900049,15.863916,14.973536,15.668116,16.331934
11.9474125,13.203028,14.854151,14.964014,12.8146
11.934473,12.6488285,13.603174,13.956202,12.123438
12.773584,13.671534,13.73208,14.4125,13.377832
13.076075,14.17959,12.35293,12.833399,14.573633
15.518946,15.79043,15.743311,16.176172,16.508448
14.143946,16.017237,13.5292,15.068018,15.527735
11.346827,14.430323,12.532618,13.661768,14.127588
16.474268,15.763086,15.796289,14.138819,15.282373
17.189112,16.586817,17.446192,19.045069,17.17959
15.68667,14.823389,14.870996,15.408594,16.239893
15.393946,14.352198,17.196924,17.210108,15.034571
16.153955,13.62417,17.0104,16.967188,15.428614
16.786036,13.674952,17.72671,16.032862,16.061914
15.548731,14.244532,15.543848,14.868799,13.601465
14.790674,16.423975,16.698633,17.133936,17.014551
15.538477,13.6036625,17.117334,16.779932,15.397364
13.779688,13.250147,13.937647,13.244043,14.176416
12.050684,12.7582035,11.798731,12.378809,12.865137
12.813868,13.524073,13.611475,13.670313,14.484766
14.998926,13.534327,15.4596195,15.922266,14.961573
15.241602,14.078272,15.095118,15.436914,15.0375
16.266016,14.73501,16.542627,16.14004,15.17251
15.679102,14.931543,13.917383,14.328272,16.370996
15.301661,14.418604,16.623194,16.135645,14.879297
12.7113285,14.059717,14.12002,13.886133,13.574121
16.307032,14.679346,17.432764,17.47085,15.770655
17.173487,14.5863285,18.71963,18.301905,15.419825
16.443995,15.418116,19.653223,18.914454,16.347315
16.180323,15.885645,18.968409,18.67251,18.58999
16.057276,16.56582,16.683252,16.495508,16.320704
17.335352,16.925928,18.34463,17.876856,16.262598
18.052393,15.900782,17.629053,17.61416,17.404932
13.4596195,16.15957,14.953028,15.521143,16.999659
14.098291,15.398584,14.660303,14.791651,14.8536625
15.795557,15.332666,16.836817,16.760157,15.557764
15.353418,15.637354,16.562647,16.271875,15.495264
16.895655,16.552149,18.057276,17.797998,17.248194
18.622461,17.478418,18.30581,19.110987,18.384424
14.253565,15.455225,15.116358,15.201075,15.289209
15.180811,15.805567,15.657129,15.618799,16.369287
13.170069,15.712793,15.885645,15.903223,16.406397
15.749414,16.608301,17.228174,17.563868,16.924463
17.081202,15.752832,17.518702,17.67837,16.577784
17.859278,16.63003,19.278711,19.491358,17.910547
19.578272,17.310694,20.553858,21.210596,18.931055
15.141016,16.528711,16.706446,16.689844,16.813135
14.344141,16.350489,14.580957,14.743555,16.322412
14.067041,15.055567,16.846582,16.568262,13.972315
16.305567,16.025782,15.660303,17.480616,17.541895
18.112452,17.29458,18.4042,18.13125,18.443506
17.441553,17.87295,18.550684,19.289454,18.344873
17.785547,15.667383,18.383936,18.6979,16.804346
14.825098,15.651758,17.099756,17.579493,17.191309
16.821436,16.444727,18.023096,17.80752,18.414454
13.941553,16.700342,15.216211,14.432764,18.906885
19.035059,17.250147,17.781397,17.345118,18.677881
14.218164,18.027002,16.409082,17.600733,16.939112
19.202295,18.141748,16.590723,15.616358,17.632227
19.300196,17.563135,20.508204,20.403223,20.13125
18.609766,16.900293,17.92837,18.185938,18.589014
16.745508,16.93838,17.807764,17.95791,18.368555
19.546045,17.768946,20.037989,19.923975,19.702051
20.659327,19.776514,20.919336,20.854395,21.049707
18.367334,19.657862,19.340235,19.234766,19.401514
20.454493,18.18838,22.030909,21.67837,19.508936
21.023829,18.902246,22.571192,22.685205,19.030909
19.298975,19.658594,20.235254,19.98916,19.521143
16.420069,19.62002,17.55752,17.594385,19.71963
15.791895,17.99795,16.285303,15.6896,17.89126
16.693262,16.976465,16.234278,16.093897,16.524317
15.874903,16.895655,17.471094,17.316553,16.880762
17.708399,17.235254,17.89541,17.751123,17.414942
16.776026,17.28335,14.723047,15.201319,18.094873
17.60879,18.126123,18.038477,18.110987,17.688868
17.319971,17.656641,17.762598,18.113428,17.342432
16.458399,18.022852,17.317041,17.49795,17.865137
15.243311,17.852442,17.881006,17.537012,16.451075
16.401026,17.242823,16.532618,16.118555,17.46255
17.012354,16.47085,17.399073,17.200098,16.143213
16.119776,17.813623,19.222315,19.38589,19.081202
16.413233,17.133936,18.732325,18.703028,17.750635
18.166407,16.423975,19.414454,19.048487,16.609522
16.144678,18.17666,18.311914,18.609766,18.44375
17.969141,18.001123,20.555323,20.616846,18.489405
18.495996,18.203028,19.772364,20.531153,18.54165
18.795557,18.091944,20.064356,20.468409,18.166407
19.194971,17.78921,20.836817,21.217188,18.824854
20.119532,18.101221,20.440577,20.568506,18.158838
21.300928,17.091944,20.938135,21.341211,20.209131
14.89419,17.675196,17.589014,17.292871,18.03457
14.043116,16.956934,15.519922,15.2252445,16.519434
14.489405,16.747217,12.98086,13.457178,16.955957
13.809717,15.188868,14.631006,15.249414,15.027491
14.223291,16.488184,15.011866,14.954004,15.605127
15.484766,16.583643,16.446192,16.657618,17.206446
16.810205,17.553125,19.056055,18.840479,19.251612
17.244776,17.358301,17.569483,16.86123,18.603418
16.64541,16.6542,16.233301,15.659571,17.042383
15.3814945,16.199121,15.706446,14.965723,16.719873
15.267969,15.798243,15.799707,15.85293,14.352686
14.248194,15.962305,15.078516,15.190577,14.532862
13.837305,16.574121,14.751368,14.643702,17.403467
15.889063,15.780664,15.903467,15.848291,16.74331
14.251856,16.132715,15.644678,15.183496,15.991358
13.636133,15.580713,14.377588,14.318262,15.016748
16.153711,16.790918,15.32583,15.633692,17.405664
15.056055,16.78921,15.040674,14.844873,16.248438
13.58877,14.552149,15.501612,15.408838,14.32168
15.8519535,16.517237,17.013819,16.528955,17.813868
15.583643,17.3229,16.296045,15.892237,17.685205
15.606104,16.040918,15.333887,16.021631,16.652735
13.709864,15.788721,14.748438,14.299952,15.31045
14.986231,16.445215,16.367579,16.268213,16.66836
17.278223,18.288233,19.114405,18.966944,19.786036
19.679834,16.777002,18.968897,18.366846,16.992579
19.963526,17.314844,20.036036,20.26626,19.261133
18.648584,16.970606,17.906641,17.671534,16.430323
19.216455,16.788721,17.59878,16.631983,17.091455
13.980371,16.126856,15.156153,14.770411,15.432032
13.940821,15.359034,14.490137,14.581934,14.749903
13.649317,15.327051,13.912989,13.93545,14.5533695
14.471338,15.806055,15.392725,15.2564945,16.406153
13.775049,16.738428,15.832422,15.69253,16.665674
14.875391,16.620508,15.024805,16.10415,15.65542
11.39126,15.1471195,13.628077,14.052149,14.262842
10.657373,15.05752,10.054834,10.63003,13.229151
12.559961,16.12124,10.886866,11.9908695,15.01333
13.102686,15.73086,14.624903,14.291407,15.765039
12.3502445,15.613916,13.582178,13.585108,14.74917
12.217188,14.287989,12.872461,12.864161,13.816797
9.658838,12.477686,9.902002,9.906885,10.964991
9.515772,12.78335,9.957911,10.098291,12.010645
10.721338,13.853907,12.448145,12.208399,13.516016
12.000147,14.985987,13.641504,13.308008,14.813868
11.073633,14.665918,11.953516,12.086084,13.792139
10.721338,14.229639,12.771143,12.641016,13.413965
12.078028,14.721094,13.099512,13.570459,14.340967
11.493067,14.161768,12.521631,12.704493,13.268457
10.583643,13.243311,11.504053,11.687891,12.580957
13.027246,14.993067,13.352686,13.592188,14.524317
11.859522,14.620996,14.188379,14.506739,13.106348
13.517237,15.512598,15.330225,15.543604,15.965967
13.260645,14.934961,14.070459,13.308008,14.935694
11.840479,13.791651,12.571436,12.243555,11.784327
11.0724125,14.060938,11.580957,12.079737,13.472071
10.879053,14.115381,11.693018,10.283594,12.885645
9.612696,12.456934,10.557032,10.301172,11.017481
9.632471,13.4596195,11.211084,11.19253,11.442041
8.627588,13.222315,11.451075,11.298975,11.603418
9.072901,13.097071,11.247217,10.538721,10.770411
8.899073,12.176416,10.31875,10.571924,11.094873
8.7096195,12.416895,9.671778,10.138086,11.309229
7.738672,12.163721,8.860987,8.887354,10.817286
8.059473,12.462305,9.18667,8.629053,10.274317
8.565332,12.005762,9.339258,8.858057,10.9786625
9.585596,15.166407,10.655909,10.417871,14.188379
11.885157,14.452539,12.453516,12.213282,13.562403
10.105616,13.649805,9.584131,9.176416,12.0724125
10.84878,13.663233,11.298487,11.186182,13.154688
11.774805,13.986475,12.096582,11.153711,13.441065
9.458887,12.766504,10.1800785,10.142725,11.582911
9.704737,13.353907,10.436182,10.441309,12.237207
11.729883,13.57583,12.549707,12.76333,13.366846
10.164942,13.060694,12.082911,12.170313,13.11001
8.940821,12.636133,9.562159,9.457422,11.797998
7.2694335,11.632227,8.502588,7.789697,11.108545
7.1444335,11.8380375,8.879786,9.037012,11.259668
7.3270507,11.376123,7.027002,7.752832,9.798487
5.482324,10.177637,7.8060546,7.855127,8.797022
7.1671386,12.109034,8.26919,8.700098,11.316065
7.2367187,12.325098,7.704492,8.470118,10.677393
7.9916015,12.404932,9.831446,9.457911,10.487207
6.2918944,11.283594,6.8861327,7.0331054,8.073877
3.8907714,9.964746,6.7433105,6.359033,7.736963
4.7328124,9.335596,6.315088,5.8705077,7.8597655
3.975,9.648584,5.533838,5.266748,7.954492
5.226953,10.672022,4.558496,4.0311522,8.788721
3.2865233,8.507227,4.759912,4.7433105,6.5450683
1.2977539,7.9571776,2.738916,2.3255858,5.29458
5.475488,11.092188,5.583154,5.704492,9.216455
6.7884765,12.102686,7.025781,6.7940917,11.120508
6.275537,11.883936,8.303614,8.340235,10.5292
5.9154296,10.39419,6.511377,6.4325194,9.201807
3.0802245,8.536768,3.4535155,3.3661132,7.377832
4.79458,11.563135,4.55874,4.199365,9.445459
6.407129,11.14834,6.492334,6.8092284,9.065577
7.0191894,11.079004,8.3988285,7.4378905,10.867823
4.8143554,10.8814945,7.5091796,7.225488,9.416895
8.222071,11.776514,9.777002,9.5255375,10.97793
