"[299, 255]","[227, 248]","[287, 319]","[279, 328]","[230, 262]"
4.1742187,8.980371,5.122705,4.8509765,6.7801757
3.5528808,9.1349125,5.360498,5.381494,7.403711
4.5094237,8.964014,5.47207,5.2765136,6.6996093
2.4764647,7.315088,3.2594237,3.6393065,4.925195
4.2662597,7.31582,3.9808593,3.6180663,5.954004
3.6407714,9.047998,4.7818847,4.877588,6.2904296
6.9952636,9.006739,4.5313964,4.19375,5.862207
5.3409667,8.05459,3.4818358,3.4894042,5.4986815
2.0174804,7.869287,2.9830565,2.8304687,5.7875
6.6859374,10.182032,7.7523437,7.7367187,8.9596195
7.595361,10.565332,8.640772,8.503565,9.704248
8.545557,11.155664,9.54458,9.436426,10.363916
7.620752,10.533838,8.872217,8.817774,9.97793
7.442529,10.57461,8.486231,8.650782,9.674952
3.563867,8.505518,4.317529,4.316797,6.880029
5.6510253,10.092188,7.0799804,6.994531,8.518213
5.519922,9.109034,5.4686522,4.7125487,7.2157226
4.0816894,8.877832,4.786279,4.494287,7.091211
3.8109374,10.379541,4.643213,4.242334,9.309229
7.763574,10.251123,8.6957035,8.569971,9.866114
7.813379,9.925196,8.150293,8.600489,9.5238285
6.60708,9.454981,6.6546874,7.0279784,7.905908
6.237207,9.489893,6.844873,6.8458495,8.467432
3.9259276,7.3280272,4.12832,4.424707,6.103662
3.6581054,5.4825683,2.7606444,2.5458007,3.426416
3.874658,7.313623,4.399072,4.2420897,5.5145507
-1.1402344,4.289697,0.44667968,0.5306641,2.692041
-2.0164552,2.9674315,0.95522463,1.1107422,2.4410644
-1.7349609,2.5750976,0.615625,0.87050784,1.8468262
-0.7007812,3.7921386,0.80141604,0.43618163,2.4884276
-0.034765624,3.7804198,1.4205567,1.0335938,3.0448241
0.31655273,4.570459,0.51113284,0.16127929,4.4710937
0.4762207,5.1239257,1.5453125,1.184961,4.1546874
-0.53452146,4.2257323,0.6153809,0.3902832,3.8143554
-1.5000976,4.81875,-0.91416013,-0.8641113,2.301416
-3.5640626,3.629785,-3.056006,-2.8934083,1.6898438
-0.022314453,5.6290526,1.5958496,1.4891602,4.218164
-2.0035157,4.827295,-1.4007324,-1.1158203,3.0426269
-1.7178711,4.9359374,-0.2527832,0.2706543,3.61416
5.4669433,9.253565,5.786035,4.242578,9.069239
6.487207,9.110743,6.086084,4.1075683,8.823633
1.2306153,6.73208,1.3102051,1.1742188,5.29458
0.3944336,5.181543,0.7120606,0.80336916,3.891992
-0.34897462,3.1351562,1.5450684,1.6842285,0.9273926
-1.0306152,4.539697,0.61879885,0.33754882,1.9796387
0.34243163,6.5145507,1.7035156,2.33291,3.438867
0.74306643,6.5487304,1.5555664,1.4464356,5.4051757
2.7801757,8.67959,2.4986815,3.1681151,7.7206054
1.7064453,6.678369,2.0519042,2.1219726,5.1183105
-1.422705,5.8871093,-0.59750974,-0.44003907,2.8409667
-6.5533204,0.58754885,-3.2464356,-3.3179688,-2.550879
-5.2132325,-0.65878904,-2.3497071,-1.9983886,-0.66245115
-4.0411134,3.4078612,-0.88608396,-0.50571287,0.8304688
-0.21884766,5.5763183,-0.11923828,-1.0420898,3.2247558
-0.21616212,4.646631,-1.3665527,-1.1092285,2.912744
-0.45419922,4.188623,0.17055663,0.59047854,2.3390136
-0.98764646,4.093164,1.1759278,0.44790038,2.7206054
0.9359375,9.089991,3.039453,2.2230468,6.454248
3.304834,7.345117,3.6651855,4.0003905,7.463037
4.771631,8.120508,5.116113,4.980371,8.123926
5.430322,7.886865,6.6249022,6.704736,8.301172
4.1290526,7.466211,5.0262694,5.080957,7.2628417
5.947168,8.6332035,7.27041,6.983545,8.45669
6.018945,8.552637,6.983545,6.459375,8.531641
7.6344237,9.168848,7.2794433,6.877588,9.030664
4.7552733,7.4620605,3.7708983,3.060205,5.3670897
3.6861815,8.484034,4.5558105,3.7567382,7.3595214
5.969629,8.597315,6.676416,6.1361327,8.312647
8.979395,8.979395,6.0450683,5.704492,9.253565
4.751123,7.503076,5.919336,5.624414,6.9937987
4.581201,7.5260253,5.922754,6.1615233,6.940332
7.433496,8.587305,7.8299804,7.6388183,9.216211
6.744043,8.023096,6.1666503,7.3233886,7.5699706
5.671045,7.811914,6.525781,6.8080077,8.12417
6.286035,8.194239,7.474756,7.3231444,8.774805
7.7520995,8.85708,7.607324,7.949365,8.936426
6.8368163,8.827295,7.5804687,7.970117,8.528711
2.6690917,5.659326,3.9483886,3.2015624,4.695703
3.8246093,6.487695,5.566797,5.660791,6.0318847
2.7953124,6.6600585,3.6512694,3.7259765,6.0194335
7.110498,8.518213,8.635157,8.09292,10.035303
7.799463,9.046778,8.715235,8.192774,9.507471
2.5992675,6.5978026,4.1996093,4.070459,5.954492
-0.38046876,4.2135253,-0.8113769,-0.8196777,2.5492187
-1.7261719,3.4518065,-0.4234375,-0.46616212,2.0716796
-0.17709962,3.4466796,1.1065918,0.85195315,2.706201
3.2057128,6.688379,5.504297,5.063379,5.982324
3.8504882,6.4828124,3.8133788,4.7987304,7.020654
4.9259276,7.009912,6.209131,7.518945,8.567286
5.7210937,6.683252,7.8770995,7.818994,7.3004394
5.4398437,7.56582,6.8597655,7.065576,8.358789
6.9669433,6.980371,8.190577,7.869531,8.288233
5.244043,7.9708495,7.162988,7.101953,8.029688
6.266504,6.632959,7.504541,7.216211,6.6793456
5.1620116,6.542871,5.515283,5.718408,6.216211
4.025781,6.862695,3.7486815,4.0887694,6.654199
4.528711,6.4325194,6.2086425,5.8092284,7.327295
4.2989745,6.403711,5.8700194,5.562158,6.2921386
4.4447265,6.1625,5.4137206,4.775293,5.9364257
4.1944823,6.5956054,5.1881347,4.935205,5.1114745
3.5318847,5.92666,4.192285,4.4532714,5.3351073
2.1146483,8.377588,1.6844727,1.7586914,8.115625
4.082666,7.4950194,3.7950683,3.7506347,6.716211
4.2225585,5.956445,5.0558105,5.00625,5.3548827
4.518213,6.0299315,5.1217284,5.3651366,6.4061522
4.7430663,6.376611,4.9220214,4.8543944,7.0853515
3.3683105,5.768945,3.2677245,3.2967772,4.13125
3.178125,5.7188964,4.9710937,5.1964355,5.4029784
3.1183105,6.390283,4.298242,4.3216796,5.5626464
5.247461,6.4740233,6.2125487,5.9356933,7.1461425
3.6632323,5.6930175,4.266748,3.548242,6.1112304
2.907617,3.9789062,3.4520507,3.454248,4.2887206
1.0726563,4.521875,2.376123,2.9415526,3.0680175
4.3426757,6.7105956,6.8526855,6.1864257,6.9811034
4.8072753,6.0992675,4.928613,4.5763183,6.8426757
3.3548827,5.6979003,6.539209,6.7733397,5.1551757
5.9098144,6.2726073,6.8128905,6.4605956,6.549951
3.3827147,6.0086913,5.627832,5.4569335,6.5909667
3.6649413,6.747705,7.4291015,7.3473144,6.6373534
4.504541,6.2674804,6.9728026,6.910791,6.7540526
6.006494,6.7940917,7.75332,7.489404,7.990381
5.1952147,6.427881,6.702295,6.3111815,6.9952636
2.6517577,5.589746,3.893457,4.241113,5.3912597
2.9464355,5.5035644,3.697412,3.596826,5.1129394
5.6830077,6.565576,7.0523925,6.503076,7.8905272
5.6273437,6.3009276,4.6720214,4.6634765,5.95791
4.5716796,4.5799804,6.0423827,5.452783,5.7916503
5.2811522,5.617822,6.792871,6.230615,6.3592772
5.577539,5.8124022,6.4620605,6.4427733,6.100488
5.100244,6.1771483,6.353906,6.4972167,6.652002
6.095361,6.558496,5.5577636,5.6983886,6.6651855
3.3192382,6.5941405,5.9322753,6.3460937,6.5892577
6.1253905,6.284082,7.6913085,7.889795,5.702295
6.4583983,6.4415526,7.1844726,6.772363,7.627832
4.945947,5.8998046,7.0543456,6.81875,5.8390136
5.775781,6.9520507,7.5038085,7.3543944,7.6822753
7.5367675,7.966455,8.206934,9.312403,8.858301
9.89126,9.017725,10.535547,10.296534,9.333643
6.716455,8.047998,7.267236,6.570947,8.78628
6.390283,7.33999,7.785547,8.421534,7.014795
6.9032226,7.459375,8.411524,7.983545,7.180322
6.056543,8.083155,7.574121,7.6673827,8.800196
5.8229003,6.978906,7.2433105,7.0003905,6.386621
6.2333007,7.093408,7.527246,7.820703,6.613672
7.0731444,7.3617187,10.487207,10.248438,9.221582
7.7811522,8.2721195,11.530909,11.886133,8.784327
7.3844237,8.698145,7.780664,8.090967,8.903467
9.955469,9.476465,11.117823,10.439844,10.271387
6.9498534,8.328516,10.0707035,10.849756,10.09585
7.7315917,8.0533695,8.37417,8.881983,7.6476073
6.5248046,8.218409,8.131739,8.086573,8.830225
7.1095214,9.036524,10.1817875,10.588526,8.63125
10.353907,8.69253,13.124659,13.10586,11.273096
9.8536625,9.5567875,10.883936,10.915674,10.140772
10.322901,10.010889,11.996729,12.38418,13.111719
10.995264,10.803614,11.133692,11.620752,12.686426
13.121973,10.813623,12.546289,13.097559,12.818262
8.017969,10.183008,13.104395,11.708399,11.488672
9.567041,9.402979,10.1332035,9.591455,10.520655
8.777491,9.670313,10.629541,10.162256,11.597071
8.688623,9.385401,10.483545,10.181299,11.032618
12.147852,10.629053,11.83877,11.679346,11.635645
14.476465,11.4317875,14.094141,14.358545,14.738916
14.033106,13.52627,16.329248,16.366602,16.736475
8.04458,12.181055,10.813868,12.011377,12.815577
10.425684,10.407862,11.778467,12.162989,11.493555
9.443506,10.247217,9.702295,9.859766,10.406641
8.767237,9.9127445,11.174952,10.229395,10.19961
11.293604,10.096094,12.675196,12.57583,12.372217
11.105616,10.673487,11.718409,11.134668,11.81167
13.786768,11.343409,12.796289,13.422754,14.370752
10.543116,10.620264,12.576807,13.196924,10.704981
11.0846195,10.742823,13.518213,13.515284,11.270411
13.367334,11.276514,13.926905,13.93545,13.3988285
16.075342,12.026026,16.065088,16.675684,15.091944
17.459375,13.299952,18.29751,17.475489,15.07876
17.563135,13.434473,17.83755,17.7604,13.297266
15.264795,13.682032,17.162256,17.099512,13.935694
11.826075,14.025782,12.555323,13.525782,14.553858
9.355616,12.893946,11.337549,10.96377,12.401026
12.045313,12.010645,6.8841796,7.878076,14.288965
11.627832,12.972559,12.445948,12.577051,13.039942
12.670801,12.3224125,13.488184,13.539209,12.2738285
12.393702,12.01626,13.730127,14.873682,13.36294
13.465479,11.767481,13.448633,13.34585,14.204248
12.798243,12.184961,12.807764,13.423487,13.354151
13.189356,12.843164,13.559229,13.418116,13.510889
17.001612,12.986963,13.82876,13.892481,13.233301
14.42251,12.764551,15.123194,15.309473,14.164698
12.294336,11.465967,13.597559,12.889551,12.71377
11.981348,11.263086,12.952295,12.407373,12.488672
13.12002,12.506983,13.859278,14.93667,13.524805
15.540674,16.433008,13.57583,14.641993,14.277246
16.456202,16.393946,17.197412,17.08999,14.920801
18.15127,12.550684,18.731836,18.095362,15.036036
18.960352,13.077784,18.927393,19.48672,14.888086
15.296778,12.583155,15.5099125,15.7521,15.251368
15.781397,13.200586,14.825342,14.14126,14.119532
18.085596,13.449854,18.808985,17.68838,17.339502
19.279932,16.471582,20.98379,21.41836,18.775537
18.43838,15.93667,20.2521,20.855127,20.711817
20.37124,15.413233,21.874414,22.120508,19.930079
15.801661,13.701563,15.643702,15.941797,15.778223
14.634668,12.949121,14.627832,14.77334,13.232569
13.013575,12.738916,13.949854,14.181055,13.763086
13.142969,12.826563,15.089991,15.328028,15.071436
12.882959,12.73208,14.269678,14.859766,12.991358
15.063379,13.51211,15.720362,16.459375,15.860743
15.904444,13.806055,15.343164,14.839746,15.4925785
15.19961,13.554346,14.939356,14.413965,15.361719
13.965479,13.809961,15.436914,15.619776,17.08462
13.453272,14.037256,14.971827,15.436182,15.001123
15.901026,15.670069,17.247461,17.319239,16.290918
16.965967,15.072901,18.245752,18.420557,17.47378
18.881006,15.436914,19.524073,20.745996,18.516993
18.819971,15.470362,19.468897,20.339746,17.847315
17.807276,15.910547,17.583399,18.24331,18.687403
21.867579,16.103418,22.14419,22.006495,19.95791
21.297266,16.449121,22.039698,22.80337,22.52505
21.188135,16.044336,23.169092,21.944971,21.14419
22.276026,18.256495,22.275537,21.91958,18.464502
21.668116,17.800684,22.430567,23.679102,17.781153
21.050684,17.115381,20.255762,19.880518,20.24795
20.783838,17.088282,20.300928,19.599024,19.857813
18.961573,17.67251,19.912745,19.62832,17.231836
17.846827,16.319483,15.540918,16.239405,16.264063
15.175928,15.421045,16.65542,16.758692,15.468897
15.9125,15.586084,15.4786625,14.757715,16.614649
14.765284,15.066553,14.953272,15.31045,18.572412
16.535547,15.233057,16.448633,16.306543,16.42251
18.410547,16.157618,17.95254,18.34292,17.77212
21.13833,16.485987,20.64248,20.870508,19.122705
21.809229,17.597559,22.008448,21.917383,19.119043
19.068995,16.715723,20.185205,20.96963,19.836573
18.448145,16.197168,19.237696,19.8688,17.6625
14.599512,16.079004,15.718897,16.080713,17.163965
16.305567,17.131006,17.10879,16.92422,17.475
20.66836,17.147852,21.564356,21.638086,18.667871
18.148096,16.71963,17.958399,18.163233,18.041895
17.140284,16.1896,17.24917,16.901758,17.20791
16.665674,16.408838,16.570704,16.954248,16.526026
15.873926,15.976221,16.90713,17.448877,17.739405
15.229151,15.975733,16.526026,16.419092,17.018702
14.014795,15.759424,15.2167,15.346827,16.965723
19.033594,16.377344,19.80044,19.95962,18.083887
19.790186,16.686914,18.712305,20.27456,18.70083
20.26626,16.64541,16.263086,17.659327,17.67959
18.89956,16.468897,19.819483,18.600977,18.187647
19.196924,16.790186,17.660059,17.88125,17.79165
16.747705,16.70791,16.465723,16.848291,17.546045
14.287012,16.301172,16.856836,15.88833,16.609278
15.329493,16.009424,16.561426,16.471094,16.14297
15.891016,16.417627,17.58047,17.23916,17.902002
13.582911,15.405909,15.738428,16.335596,16.004541
13.63418,15.784082,15.019922,15.873194,16.120264
17.824366,17.232569,18.961084,18.503565,18.537745
13.970118,15.353418,14.98794,14.448389,15.471094
12.608301,15.561914,13.734522,13.966211,15.636866
15.184229,15.007227,15.700342,15.326563,15.966944
17.524073,17.002588,17.479395,17.76797,18.287256
19.015284,16.545069,20.830713,21.030664,20.615625
19.252588,16.465723,19.71084,20.305079,20.404932
19.60708,18.262598,19.919336,19.698633,19.997217
20.808496,19.156397,21.083887,21.533838,21.631006
21.130274,20.488916,22.303614,22.807276,23.41665
19.148829,17.269922,18.521143,18.915674,18.646387
22.6979,18.248438,21.86416,21.342188,19.606104
19.456934,17.128077,20.82876,20.600977,18.018946
20.740381,17.503809,19.945215,20.369043,19.255762
15.338526,17.031153,17.53457,18.275537,18.278711
20.403955,18.328028,19.586817,18.537256,18.12295
18.100977,17.578272,16.169092,16.518213,17.336329
13.928614,16.038721,14.2599125,14.22085,15.337061
13.125879,15.651514,13.538477,13.492823,14.670801
16.60171,16.377832,15.258448,15.567774,16.318506
16.467676,16.399073,16.735498,17.348291,17.041162
17.426172,16.57046,17.140528,17.52041,18.008448
16.57876,16.587793,15.191065,15.29336,15.433985
15.159082,16.805079,14.498926,15.154932,16.99502
15.40835,15.96792,14.466455,15.972803,16.306543
14.53042,15.705225,12.605371,12.2738285,14.565577
13.282373,15.323633,13.531885,13.131006,15.000879
11.282373,13.317774,12.193018,12.433985,13.050684
11.034815,14.698145,11.335108,11.454493,13.059473
11.340235,13.947657,12.222315,12.240381,13.128321
10.725,13.6349125,10.969141,11.130518,13.162989
10.07461,13.888086,12.110254,12.136866,13.430567
9.151026,14.896631,12.691797,12.051416,13.767969
12.707911,16.15127,13.417627,13.341455,16.060938
12.689112,15.683741,14.040918,13.629541,15.292871
15.830713,15.572657,14.827539,15.827295,16.264551
12.274073,14.169092,13.699121,13.484278,13.457911
8.399561,12.829004,11.645655,11.316065,12.340479
10.4474125,13.973047,11.529688,11.906153,13.182032
13.278467,15.120508,14.545557,12.983545,14.896387
13.752832,14.997705,15.472071,16.072657,15.198633
14.295801,16.015528,15.820215,16.965235,15.958887
15.414942,14.824366,13.347071,13.958643,14.664942
11.365137,14.462793,12.4144535,12.292627,12.719629
11.676172,13.818262,12.6314945,12.715723,13.975733
13.233789,15.3658695,13.888819,13.7252445,15.950342
14.369776,14.277979,14.941309,15.136133,15.282618
14.540186,15.340967,15.621485,15.560694,15.504297
15.130274,16.218409,16.287745,16.27749,17.210352
12.808985,15.019678,13.322901,13.153467,13.683741
11.248194,13.047266,11.474512,11.544825,12.349024
8.923243,14.300196,11.294092,11.016993,12.69961
12.283106,14.611475,14.240625,13.776514,14.219629
12.020166,13.994532,13.699121,13.439356,13.797266
12.895411,14.975977,13.661768,14.160791,14.783106
13.608301,15.911768,14.689112,14.593164,16.64541
13.088282,15.014063,13.582911,13.256739,13.514551
15.597559,16.83877,16.95547,16.61416,17.449121
17.286524,17.71499,18.159815,18.27041,19.386866
13.896631,18.132227,14.136133,15.510645,18.535547
16.255762,17.188623,16.310938,18.35415,17.135645
13.225733,15.7252445,14.31753,14.195459,15.812647
13.661524,14.537012,14.989161,14.76919,14.905664
14.501368,15.187647,15.914209,15.262842,15.703272
13.227686,15.199366,13.462793,13.703516,15.11709
14.285547,15.278955,13.976709,13.962061,14.818506
11.444971,15.132959,13.020411,12.599024,14.822168
7.945459,15.674219,9.865137,9.962305,15.481592
8.014551,13.474512,8.316553,8.3050785,13.157618
7.4881835,11.586817,8.768946,8.982813,10.109278
8.849268,12.786036,9.751612,9.242334,11.491358
8.410791,13.046045,9.084375,8.744043,12.245752
10.787256,12.680323,11.364161,10.629297,12.690332
9.051661,11.748194,10.531641,10.235498,10.928614
8.092676,11.16958,9.290674,9.24917,9.786768
7.9137206,12.271631,9.515528,9.135401,10.304346
7.7625976,11.853907,8.253321,8.471582,10.327295
10.408838,14.735987,12.115381,11.686914,13.740137
12.104395,14.500391,12.042871,11.507715,13.694727
10.0533695,13.23501,10.282862,10.078028,11.370264
8.869043,13.160303,9.26919,9.201319,11.151758
7.6183105,13.558985,8.910303,8.660303,11.758936
8.102686,11.931055,9.165674,8.65127,10.387354
9.080957,13.295557,7.99624,7.632959,9.406397
5.8128905,11.102442,6.9254394,6.875879,8.669092
5.747949,10.152246,6.692041,6.2052245,9.235254
8.210596,13.38711,8.995752,8.733057,12.484278
8.32583,13.072657,9.650782,10.0375,12.087061
12.491846,13.937159,12.426172,12.385401,13.452051
7.517236,11.496241,8.380274,8.204004,9.87295
5.427881,10.293604,6.565332,6.5921874,8.524561
4.564111,9.698877,5.719629,5.5714355,7.5367675
5.286035,10.1896,6.516748,6.699121,8.4630375
5.9759765,10.40542,6.2801757,6.596582,8.778711
4.537988,9.50918,1.886377,1.559961,8.478418
7.751611,12.296534,9.854883,9.818018,10.974756
9.660059,12.255518,10.04043,10.080957,11.256983
4.517236,9.02627,5.2396483,5.041406,6.959619
4.4776855,10.219629,6.049707,6.533838,8.774561
7.28042,11.879541,7.655908,7.6249022,10.129297
5.3749022,9.721338,5.284326,5.6532226,7.346826
3.2672362,9.448145,4.4046874,4.117822,6.136377
2.3092284,8.674952,2.9642577,3.6588378,7.082666
6.074365,11.511621,8.855127,8.374414,10.426416
7.754297,11.553125,9.142237,8.8771,10.252588
