﻿name,start_date,end_date,duration,excess_deaths
23061976,23/06/1976,07/07/1976,15,30.69
2061982,02/06/1982,07/06/1982,6,0.03
4071983,04/07/1983,18/07/1983,15,11.28
26071983,26/07/1983,31/07/1983,6,4.46
27061986,27/06/1986,02/07/1986,6,3.54
20071989,20/07/1989,27/07/1989,8,10.96
31071990,31/07/1990,05/08/1990,6,16.82
23081990,23/08/1990,28/08/1990,6,5.39
21071994,21/07/1994,26/07/1994,6,-0.19
25071995,25/07/1995,04/08/1995,11,7.13
15081995,15/08/1995,22/08/1995,8,-3.03
